JobCount = 22 ;
MachineCount = 3 ;
machjob  = [
[<17 8 12> <18 7 17> <4 7 17> <6 6 17> <21 7 10> <15 7 14> <25 9 15> <16 4 12> <29 6 12> <20 9 10> <15 7 13> <26 6 11> <6 4 11> <15 3 10> <25 6 13> <21 4 13> <23 8 14> <3 6 19> <18 7 19> <12 3 19> <3 5 15> <23 2 15> ]
[<10 8 20> <7 7 34> <4 7 34> <12 6 29> <14 7 20> <12 7 36> <10 9 22> <16 4 39> <19 6 26> <12 9 23> <3 7 39> <6 6 39> <2 4 30> <2 3 28> <5 6 22> <13 4 39> <6 8 24> <11 6 36> <18 7 29> <12 3 38> <8 5 30> <19 2 38> ]
[<4 8 53> <5 7 30> <9 7 53> <3 6 55> <4 7 50> <4 7 33> <8 9 34> <3 4 38> <3 6 58> <5 9 33> <1 7 33> <5 6 33> <3 4 30> <8 3 56> <4 6 58> <1 4 37> <8 8 55> <9 6 34> <9 7 34> <3 3 56> <5 5 45> <6 2 57> ]
];
Limit = [10 10 10 ];
job = [<0 49> <0 49> <0 49> <0 49> <0 49> <0 49> <0 49> <0 49> <0 49> <0 49> <0 49> <0 49> <0 49> <0 49> <0 49> <0 49> <0 49> <0 49> <0 49> <0 49> <0 49> <0 49> ];
