JobCount = 28 ;
MachineCount = 4 ;
machjob  = [
[<16 4 10> <17 1 14> <4 3 17> <26 1 10> <6 7 16> <24 7 11> <9 2 14> <27 6 18> <12 3 18> <39 4 10> <34 1 12> <27 3 15> <27 8 11> <36 9 11> <30 3 17> <29 7 10> <37 4 10> <28 1 13> <11 5 13> <5 5 18> <35 1 17> <35 7 10> <5 2 18> <4 3 11> <16 5 13> <12 4 14> <30 3 19> <29 9 15> ]
[<11 4 37> <17 1 34> <21 3 28> <10 1 23> <6 7 25> <11 7 30> <6 2 25> <15 6 39> <29 3 39> <6 4 35> <6 1 28> <7 3 25> <11 8 33> <11 9 29> <17 3 32> <4 7 36> <21 4 26> <13 1 36> <26 5 39> <24 5 36> <23 1 20> <4 7 24> <20 2 26> <18 3 20> <28 5 27> <14 4 34> <4 3 36> <15 9 30> ]
[<9 4 50> <10 1 45> <10 3 49> <10 1 34> <13 7 37> <8 7 31> <8 2 31> <17 6 43> <19 3 36> <19 4 47> <8 1 45> <7 3 50> <14 8 56> <4 9 31> <5 3 36> <15 7 34> <10 4 43> <16 1 51> <8 5 44> <15 5 59> <11 1 47> <6 7 49> <6 2 42> <2 3 52> <8 5 54> <3 4 34> <15 3 40> <6 9 55> ]
[<1 4 73> <3 1 71> <5 3 79> <4 1 47> <5 7 78> <8 7 49> <7 2 65> <2 6 67> <9 3 43> <9 4 55> <4 1 71> <7 3 45> <1 8 40> <1 9 48> <1 3 56> <1 7 48> <3 4 41> <1 1 78> <3 5 78> <7 5 77> <8 1 46> <9 7 72> <4 2 78> <7 3 58> <2 5 45> <3 4 69> <4 3 60> <2 9 65> ]
];
Limit = [10 10 10 10 ];
job = [<0 58> <0 58> <0 58> <0 58> <0 58> <0 58> <0 58> <0 58> <0 58> <0 58> <0 58> <0 58> <0 58> <0 58> <0 58> <0 58> <0 58> <0 58> <0 58> <0 58> <0 58> <0 58> <0 58> <0 58> <0 58> <0 58> <0 58> <0 58> ];
