JobCount = 16 ;
MachineCount = 3 ;
machjob  = [
[<10 4 29> <17 9 40> <4 8 41> <17 4 21> <11 7 20> <9 9 24> <18 6 13> <9 2 31> <13 7 46> <5 3 23> <3 6 38> <10 7 25> <4 7 36> <4 6 30> <18 1 14> <2 4 32> ]
[<17 4 27> <17 9 26> <23 8 38> <20 4 22> <7 7 42> <9 9 29> <10 6 40> <4 2 37> <6 7 41> <2 3 32> <4 6 45> <3 7 39> <12 7 34> <8 6 21> <15 1 37> <7 4 38> ]
[<13 4 50> <14 9 58> <2 8 34> <6 4 59> <10 7 31> <8 9 44> <18 6 42> <10 2 50> <15 7 45> <4 3 49> <18 6 32> <4 7 53> <4 7 50> <14 6 50> <19 1 51> <11 4 46> ]
];
Limit = [10 10 10 ];
job = [<0 25> <0 48> <0 47> <0 17> <0 32> <0 22> <0 46> <0 29> <0 23> <0 28> <0 33> <0 35> <0 32> <0 17> <0 46> <0 18> ];
