JobCount = 28 ;
MachineCount = 3 ;
machjob  = [
[<15 7 21> <9 7 38> <7 9 14> <7 6 26> <14 2 13> <11 8 24> <2 5 37> <9 7 33> <3 2 20> <11 1 34> <13 1 37> <16 5 27> <18 5 39> <7 4 33> <3 7 34> <12 8 24> <7 5 25> <7 9 36> <4 1 26> <14 3 16> <3 7 29> <14 1 39> <12 9 35> <11 9 13> <6 4 16> <5 1 13> <10 3 20> <14 3 26> ]
[<20 7 23> <19 7 48> <24 9 46> <18 6 22> <21 2 30> <4 8 36> <17 5 45> <21 7 49> <3 2 46> <15 1 43> <7 1 33> <6 5 32> <24 5 44> <19 4 20> <13 7 39> <4 8 25> <24 5 46> <9 9 32> <14 1 21> <9 3 31> <8 7 47> <20 1 41> <8 9 31> <21 9 48> <3 4 30> <9 1 33> <20 3 38> <10 3 48> ]
[<8 7 32> <4 7 46> <9 9 36> <17 6 50> <3 2 47> <14 8 32> <18 5 30> <3 7 43> <15 2 40> <6 1 33> <15 1 54> <16 5 34> <7 5 53> <14 4 51> <13 7 43> <19 8 45> <4 5 31> <13 9 43> <19 1 37> <15 3 54> <14 7 49> <16 1 57> <14 9 31> <12 9 31> <11 4 37> <17 1 46> <19 3 59> <11 3 50> ]
];
Limit = [10 10 10 ];
job = [<0 57> <0 74> <0 84> <0 71> <0 89> <0 27> <0 86> <0 77> <0 60> <0 90> <0 63> <0 80> <0 67> <0 58> <0 86> <0 23> <0 50> <0 35> <0 62> <0 32> <0 36> <0 53> <0 85> <0 60> <0 32> <0 52> <0 78> <0 65> ];
