JobCount = 12 ;
MachineCount = 2 ;
machjob  = [
[<8 2 27> <11 8 22> <17 1 18> <10 8 24> <18 6 24> <4 8 29> <3 2 26> <9 4 19> <18 7 31> <24 2 26> <7 6 18> <19 5 23> ]
[<12 2 52> <11 8 43> <3 1 27> <5 8 29> <6 6 31> <7 8 29> <6 2 48> <3 4 28> <2 7 53> <4 2 27> <13 6 50> <8 5 49> ]
];
Limit = [10 10 ];
job = [<0 40> <0 40> <0 40> <0 40> <0 40> <0 40> <0 40> <0 40> <0 40> <0 40> <0 40> <0 40> ];
