JobCount = 50 ;
MachineCount = 10 ;
machjob  = [
[<24 8 16> <23 5 18> <22 2 19> <19 6 28> <23 1 23> <23 2 17> <12 9 26> <11 3 26> <4 8 25> <17 2 26> <9 7 29> <17 9 27> <23 3 31> <10 9 23> <5 1 27> <11 2 18> <18 8 25> <5 3 27> <4 8 26> <4 5 24> <16 9 25> <3 2 26> <23 2 30> <3 3 26> <11 4 16> <18 1 27> <16 4 30> <9 8 18> <6 7 22> <13 5 21> <11 2 26> <22 3 30> <17 9 27> <5 1 16> <22 8 17> <9 8 22> <20 9 17> <2 7 29> <14 8 20> <12 6 23> <7 6 27> <5 3 17> <13 3 25> <21 6 23> <5 3 28> <12 2 18> <17 5 19> <4 8 25> <3 4 25> <15 1 19> ]
[<22 8 21> <23 5 21> <18 2 24> <19 6 32> <3 1 30> <7 2 24> <19 9 23> <10 3 20> <9 8 26> <12 2 32> <15 7 17> <11 9 31> <6 3 18> <5 9 24> <18 1 19> <16 2 25> <8 8 33> <21 3 19> <17 8 25> <22 5 27> <11 9 29> <20 2 32> <7 2 22> <12 3 31> <18 4 28> <23 1 31> <7 4 23> <17 8 29> <21 7 30> <19 5 17> <3 2 26> <4 3 23> <23 9 29> <7 1 23> <13 8 25> <10 8 24> <7 9 32> <3 7 21> <9 8 22> <18 6 17> <10 6 21> <12 3 19> <23 3 33> <23 6 25> <2 3 24> <8 2 20> <2 5 17> <6 8 33> <8 4 33> <14 1 23> ]
[<14 8 24> <3 5 31> <12 2 31> <18 6 32> <8 1 18> <10 2 23> <18 9 22> <21 3 25> <5 8 32> <13 2 30> <11 7 19> <19 9 34> <18 3 33> <6 9 22> <19 1 24> <6 2 30> <18 8 20> <4 3 26> <9 8 34> <22 5 22> <9 9 33> <8 2 34> <10 2 30> <7 3 29> <2 4 22> <13 1 24> <15 4 26> <8 8 32> <4 7 25> <15 5 24> <18 2 20> <6 3 24> <22 9 19> <14 1 32> <22 8 33> <20 8 32> <20 9 26> <8 7 27> <5 8 35> <17 6 22> <8 6 26> <10 3 23> <11 3 29> <6 6 18> <3 3 18> <8 2 28> <14 5 22> <6 8 19> <16 4 27> <17 1 21> ]
[<2 8 29> <15 5 24> <19 2 33> <13 6 27> <10 1 32> <17 2 23> <3 9 32> <3 3 32> <21 8 22> <8 2 34> <8 7 39> <18 9 29> <11 3 24> <12 9 29> <17 1 21> <12 2 27> <4 8 23> <5 3 32> <10 8 27> <13 5 36> <13 9 39> <13 2 32> <13 2 24> <18 3 30> <9 4 23> <18 1 25> <4 4 32> <16 8 23> <11 7 36> <6 5 36> <19 2 34> <18 3 32> <11 9 39> <18 1 37> <20 8 27> <7 8 22> <8 9 37> <16 7 37> <3 8 31> <10 6 20> <8 6 36> <8 3 20> <11 3 20> <17 6 38> <19 3 20> <16 2 26> <8 5 30> <12 8 36> <4 4 26> <7 1 32> ]
[<16 8 23> <9 5 38> <6 2 23> <7 6 34> <11 1 35> <11 2 27> <14 9 34> <8 3 38> <10 8 29> <2 2 22> <7 7 41> <3 9 25> <20 3 24> <10 9 29> <14 1 26> <19 2 36> <16 8 28> <4 3 25> <11 8 34> <4 5 30> <6 9 40> <17 2 22> <6 2 31> <20 3 34> <17 4 23> <11 1 36> <3 4 39> <6 8 22> <20 7 29> <2 5 30> <9 2 22> <17 3 40> <2 9 34> <17 1 37> <2 8 38> <8 8 31> <5 9 35> <18 7 24> <4 8 29> <15 6 39> <14 6 29> <18 3 26> <9 3 30> <7 6 25> <7 3 34> <17 2 30> <2 5 34> <10 8 39> <7 4 27> <9 1 31> ]
[<17 8 38> <4 5 37> <7 2 42> <4 6 22> <15 1 30> <17 2 34> <17 9 27> <11 3 39> <5 8 29> <3 2 41> <18 7 40> <3 9 30> <18 3 37> <18 9 38> <17 1 22> <10 2 30> <10 8 28> <10 3 36> <17 8 27> <4 5 30> <16 9 23> <12 2 35> <4 2 25> <6 3 33> <6 4 38> <17 1 43> <6 4 30> <16 8 34> <9 7 31> <18 5 23> <2 2 38> <12 3 25> <9 9 29> <14 1 23> <6 8 29> <18 8 23> <17 9 26> <14 7 33> <13 8 41> <16 6 38> <6 6 29> <3 3 22> <6 3 41> <14 6 36> <6 3 38> <9 2 33> <2 5 41> <13 8 30> <4 4 27> <15 1 34> ]
[<4 8 32> <13 5 29> <11 2 28> <5 6 35> <16 1 25> <17 2 40> <12 9 28> <8 3 41> <9 8 29> <5 2 35> <9 7 36> <12 9 45> <4 3 37> <16 9 38> <11 1 44> <6 2 23> <5 8 44> <11 3 27> <10 8 37> <10 5 29> <16 9 37> <11 2 41> <15 2 40> <2 3 27> <3 4 23> <6 1 45> <10 4 43> <8 8 31> <15 7 35> <8 5 44> <10 2 37> <5 3 40> <11 9 44> <10 1 44> <11 8 31> <11 8 30> <9 9 44> <17 7 30> <3 8 33> <12 6 27> <5 6 38> <13 3 35> <15 3 43> <8 6 41> <7 3 38> <4 2 36> <9 5 31> <10 8 24> <3 4 40> <4 1 36> ]
[<15 8 41> <7 5 32> <9 2 37> <2 6 49> <15 1 30> <15 2 46> <16 9 28> <16 3 45> <7 8 31> <10 2 25> <3 7 29> <16 9 42> <7 3 30> <14 9 43> <11 1 47> <13 2 44> <11 8 28> <5 3 38> <7 8 43> <14 5 31> <7 9 41> <14 2 37> <8 2 38> <9 3 42> <16 4 40> <6 1 46> <6 4 39> <12 8 39> <8 7 27> <6 5 30> <12 2 25> <8 3 41> <3 9 30> <6 1 46> <7 8 42> <11 8 28> <7 9 32> <2 7 31> <4 8 47> <2 6 42> <16 6 45> <5 3 33> <3 3 28> <6 6 32> <8 3 33> <16 2 33> <3 5 42> <6 8 42> <16 4 28> <2 1 25> ]
[<8 8 50> <4 5 29> <7 2 51> <14 6 51> <8 1 41> <8 2 30> <14 9 35> <10 3 40> <15 8 50> <7 2 40> <9 7 30> <4 9 48> <10 3 38> <14 9 29> <8 1 28> <12 2 29> <10 8 48> <8 3 45> <5 8 50> <2 5 35> <14 9 51> <9 2 28> <10 2 41> <9 3 45> <5 4 28> <13 1 45> <15 4 33> <9 8 45> <15 7 36> <4 5 48> <10 2 35> <5 3 42> <9 9 35> <13 1 31> <14 8 27> <6 8 26> <4 9 28> <6 7 39> <13 8 49> <14 6 33> <10 6 44> <12 3 39> <9 3 45> <12 6 49> <7 3 28> <15 2 45> <9 5 46> <13 8 47> <11 4 44> <12 1 43> ]
[<11 8 40> <8 5 32> <9 2 43> <2 6 48> <12 1 53> <10 2 37> <5 9 39> <3 3 42> <5 8 52> <3 2 53> <14 7 31> <4 9 51> <5 3 40> <11 9 36> <6 1 31> <4 2 53> <4 8 46> <3 3 53> <11 8 28> <14 5 27> <14 9 36> <12 2 34> <6 2 29> <9 3 51> <10 4 46> <8 1 27> <7 4 37> <10 8 38> <9 7 30> <12 5 41> <5 2 27> <5 3 41> <13 9 50> <8 1 43> <10 8 50> <8 8 30> <2 9 32> <12 7 27> <8 8 50> <3 6 52> <3 6 52> <12 3 44> <5 3 38> <10 6 48> <14 3 27> <4 2 38> <9 5 27> <14 8 35> <14 4 28> <5 1 42> ]
];
Limit = [10 10 10 10 10 10 10 10 10 10 ];
job = [<0 33> <0 33> <0 33> <0 33> <0 33> <0 33> <0 33> <0 33> <0 33> <0 33> <0 33> <0 33> <0 33> <0 33> <0 33> <0 33> <0 33> <0 33> <0 33> <0 33> <0 33> <0 33> <0 33> <0 33> <0 33> <0 33> <0 33> <0 33> <0 33> <0 33> <0 33> <0 33> <0 33> <0 33> <0 33> <0 33> <0 33> <0 33> <0 33> <0 33> <0 33> <0 33> <0 33> <0 33> <0 33> <0 33> <0 33> <0 33> <0 33> <0 33> ];
