+ /usr/bin/timeout 600 /usr/bin/time -v mzn-chuffed lbbd-datasets/planningandscheduling/cost-insts/model.mzn lbbd-datasets/planningandscheduling/cost-insts/c14j4m5.dzn
% No search annotation given. Defaulting to VSIDS!
obj = 778
----------
obj = 757
----------
obj = 734
----------
obj = 717
----------
obj = 703
----------
obj = 686
----------
obj = 672
----------
obj = 670
----------
obj = 655
----------
obj = 641
----------
obj = 624
----------
obj = 613
----------
obj = 608
----------
obj = 584
----------
obj = 579
----------
obj = 562
----------
obj = 548
----------
obj = 520
----------
obj = 500
----------
obj = 492
----------
obj = 489
----------
obj = 481
----------
obj = 424
----------
obj = 407
----------
==========
	Command being timed: "mzn-chuffed lbbd-datasets/planningandscheduling/cost-insts/model.mzn lbbd-datasets/planningandscheduling/cost-insts/c14j4m5.dzn"
	User time (seconds): 0.21
	System time (seconds): 0.00
	Percent of CPU this job got: 75%
	Elapsed (wall clock) time (h:mm:ss or m:ss): 0:00.29
	Average shared text size (kbytes): 0
	Average unshared data size (kbytes): 0
	Average stack size (kbytes): 0
	Average total size (kbytes): 0
	Maximum resident set size (kbytes): 28736
	Average resident set size (kbytes): 0
	Major (requiring I/O) page faults: 0
	Minor (reclaiming a frame) page faults: 2449
	Voluntary context switches: 30
	Involuntary context switches: 2
	Swaps: 0
	File system inputs: 0
	File system outputs: 88
	Socket messages sent: 0
	Socket messages received: 0
	Signals delivered: 0
	Page size (bytes): 4096
	Exit status: 0
