+ /usr/bin/timeout 600 /usr/bin/time -v mzn-chuffed lbbd-datasets/planningandscheduling/cost-insts/model.mzn lbbd-datasets/planningandscheduling/cost-insts/df18j3m4.dzn
% No search annotation given. Defaulting to VSIDS!
obj = 765
----------
obj = 740
----------
obj = 735
----------
obj = 727
----------
obj = 720
----------
obj = 713
----------
obj = 708
----------
obj = 700
----------
obj = 687
----------
obj = 676
----------
obj = 663
----------
obj = 661
----------
obj = 648
----------
obj = 646
----------
obj = 633
----------
obj = 626
----------
obj = 608
----------
obj = 586
----------
obj = 581
----------
obj = 567
----------
obj = 556
----------
obj = 550
----------
obj = 545
----------
obj = 544
----------
obj = 539
----------
obj = 534
----------
obj = 529
----------
obj = 525
----------
obj = 520
----------
obj = 515
----------
obj = 502
----------
obj = 494
----------
obj = 490
----------
obj = 489
----------
obj = 475
----------
obj = 470
----------
obj = 465
----------
obj = 453
----------
obj = 448
----------
obj = 447
----------
obj = 443
----------
obj = 442
----------
==========
	Command being timed: "mzn-chuffed lbbd-datasets/planningandscheduling/cost-insts/model.mzn lbbd-datasets/planningandscheduling/cost-insts/df18j3m4.dzn"
	User time (seconds): 0.22
	System time (seconds): 0.00
	Percent of CPU this job got: 73%
	Elapsed (wall clock) time (h:mm:ss or m:ss): 0:00.31
	Average shared text size (kbytes): 0
	Average unshared data size (kbytes): 0
	Average stack size (kbytes): 0
	Average total size (kbytes): 0
	Maximum resident set size (kbytes): 28752
	Average resident set size (kbytes): 0
	Major (requiring I/O) page faults: 0
	Minor (reclaiming a frame) page faults: 2455
	Voluntary context switches: 48
	Involuntary context switches: 2
	Swaps: 0
	File system inputs: 0
	File system outputs: 88
	Socket messages sent: 0
	Socket messages received: 0
	Signals delivered: 0
	Page size (bytes): 4096
	Exit status: 0
