+ /usr/bin/timeout 600 /usr/bin/time -v mzn-chuffed lbbd-datasets/planningandscheduling/cost-insts/model.mzn lbbd-datasets/planningandscheduling/cost-insts/de26j3m3.dzn
% No search annotation given. Defaulting to VSIDS!
obj = 1019
----------
obj = 1015
----------
obj = 1001
----------
obj = 994
----------
obj = 982
----------
obj = 970
----------
obj = 969
----------
obj = 967
----------
obj = 951
----------
obj = 950
----------
obj = 948
----------
obj = 941
----------
obj = 929
----------
obj = 927
----------
obj = 915
----------
obj = 914
----------
obj = 912
----------
obj = 905
----------
obj = 902
----------
obj = 890
----------
obj = 888
----------
obj = 876
----------
obj = 869
----------
obj = 868
----------
obj = 850
----------
obj = 838
----------
obj = 834
----------
obj = 831
----------
obj = 817
----------
obj = 802
----------
obj = 800
----------
obj = 798
----------
obj = 788
----------
obj = 780
----------
obj = 778
----------
obj = 768
----------
obj = 762
----------
obj = 760
----------
obj = 751
----------
obj = 741
----------
obj = 740
----------
obj = 738
----------
obj = 737
----------
obj = 735
----------
obj = 731
----------
obj = 722
----------
obj = 718
----------
obj = 715
----------
obj = 711
----------
obj = 710
----------
obj = 705
----------
obj = 704
----------
obj = 701
----------
obj = 696
----------
obj = 693
----------
obj = 684
----------
obj = 681
----------
obj = 677
----------
obj = 675
----------
obj = 672
----------
obj = 671
----------
obj = 666
----------
obj = 665
----------
obj = 658
----------
obj = 654
----------
==========
	Command being timed: "mzn-chuffed lbbd-datasets/planningandscheduling/cost-insts/model.mzn lbbd-datasets/planningandscheduling/cost-insts/de26j3m3.dzn"
	User time (seconds): 0.26
	System time (seconds): 0.01
	Percent of CPU this job got: 31%
	Elapsed (wall clock) time (h:mm:ss or m:ss): 0:00.87
	Average shared text size (kbytes): 0
	Average unshared data size (kbytes): 0
	Average stack size (kbytes): 0
	Average total size (kbytes): 0
	Maximum resident set size (kbytes): 29776
	Average resident set size (kbytes): 0
	Major (requiring I/O) page faults: 0
	Minor (reclaiming a frame) page faults: 2575
	Voluntary context switches: 71
	Involuntary context switches: 2
	Swaps: 0
	File system inputs: 0
	File system outputs: 120
	Socket messages sent: 0
	Socket messages received: 0
	Signals delivered: 0
	Page size (bytes): 4096
	Exit status: 0
