+ /usr/bin/timeout 600 /usr/bin/time -v mzn-chuffed lbbd-datasets/Rabadi-2006/dzn-s-dominant/model.mzn lbbd-datasets/Rabadi-2006/dzn-s-dominant/7on4Rp50Rs50_7Ameer.dzn
% No search annotation given. Defaulting to VSIDS!
assign = array1d(1..11 ,[4, 4, 4, 4, 4, 4, 4, 1, 2, 3, 4]);
next = array1d(1..11 ,[2, 3, 4, 5, 6, 7, 11, 9, 10, 1, 8]);
makespan = 1402;
----------
assign = array1d(1..11 ,[4, 4, 4, 4, 4, 4, 4, 1, 2, 3, 4]);
next = array1d(1..11 ,[3, 4, 2, 5, 6, 7, 11, 9, 10, 1, 8]);
makespan = 1350;
----------
assign = array1d(1..11 ,[4, 4, 4, 4, 4, 1, 4, 1, 2, 3, 4]);
next = array1d(1..11 ,[2, 5, 4, 11, 7, 8, 3, 9, 10, 1, 6]);
makespan = 1348;
----------
assign = array1d(1..11 ,[4, 4, 4, 4, 4, 1, 4, 1, 2, 3, 4]);
next = array1d(1..11 ,[2, 5, 4, 11, 7, 8, 3, 9, 10, 1, 6]);
makespan = 1343;
----------
assign = array1d(1..11 ,[4, 4, 4, 4, 4, 1, 4, 1, 2, 3, 4]);
next = array1d(1..11 ,[2, 5, 4, 11, 7, 8, 3, 9, 10, 1, 6]);
makespan = 1338;
----------
assign = array1d(1..11 ,[4, 4, 4, 4, 4, 1, 4, 1, 2, 3, 4]);
next = array1d(1..11 ,[2, 5, 4, 11, 7, 8, 3, 9, 10, 1, 6]);
makespan = 1326;
----------
assign = array1d(1..11 ,[4, 4, 4, 4, 4, 1, 4, 1, 2, 3, 4]);
next = array1d(1..11 ,[2, 5, 4, 11, 7, 8, 3, 9, 10, 1, 6]);
makespan = 1322;
----------
assign = array1d(1..11 ,[4, 4, 4, 4, 4, 1, 4, 1, 2, 3, 4]);
next = array1d(1..11 ,[2, 5, 4, 11, 7, 8, 3, 9, 10, 1, 6]);
makespan = 1316;
----------
assign = array1d(1..11 ,[4, 4, 4, 4, 4, 1, 4, 1, 2, 3, 4]);
next = array1d(1..11 ,[2, 5, 4, 11, 7, 8, 3, 9, 10, 1, 6]);
makespan = 1315;
----------
assign = array1d(1..11 ,[4, 4, 4, 4, 4, 1, 4, 1, 2, 3, 4]);
next = array1d(1..11 ,[2, 5, 4, 11, 7, 8, 3, 9, 10, 1, 6]);
makespan = 1289;
----------
assign = array1d(1..11 ,[4, 4, 4, 4, 4, 1, 4, 1, 2, 3, 4]);
next = array1d(1..11 ,[2, 5, 4, 11, 7, 8, 3, 9, 10, 1, 6]);
makespan = 1284;
----------
assign = array1d(1..11 ,[4, 4, 4, 4, 4, 1, 4, 1, 2, 3, 4]);
next = array1d(1..11 ,[2, 5, 4, 11, 7, 8, 3, 9, 10, 1, 6]);
makespan = 1279;
----------
assign = array1d(1..11 ,[4, 4, 4, 4, 4, 1, 4, 1, 2, 3, 4]);
next = array1d(1..11 ,[2, 5, 4, 11, 7, 8, 3, 9, 10, 1, 6]);
makespan = 1272;
----------
assign = array1d(1..11 ,[4, 4, 4, 4, 4, 1, 4, 1, 2, 3, 4]);
next = array1d(1..11 ,[2, 5, 4, 11, 7, 8, 3, 9, 10, 1, 6]);
makespan = 1268;
----------
assign = array1d(1..11 ,[4, 4, 4, 4, 4, 1, 4, 1, 2, 3, 4]);
next = array1d(1..11 ,[2, 5, 4, 11, 7, 8, 3, 9, 10, 1, 6]);
makespan = 1267;
----------
assign = array1d(1..11 ,[4, 4, 4, 4, 4, 1, 4, 1, 2, 3, 4]);
next = array1d(1..11 ,[2, 5, 4, 11, 7, 8, 3, 9, 10, 1, 6]);
makespan = 1263;
----------
assign = array1d(1..11 ,[4, 4, 4, 4, 4, 1, 4, 1, 2, 3, 4]);
next = array1d(1..11 ,[2, 5, 4, 11, 7, 8, 3, 9, 10, 1, 6]);
makespan = 1262;
----------
assign = array1d(1..11 ,[4, 4, 4, 4, 4, 1, 4, 1, 2, 3, 4]);
next = array1d(1..11 ,[2, 5, 4, 11, 7, 8, 3, 9, 10, 1, 6]);
makespan = 1261;
----------
assign = array1d(1..11 ,[4, 4, 4, 4, 4, 1, 4, 1, 2, 3, 4]);
next = array1d(1..11 ,[2, 5, 4, 11, 7, 8, 3, 9, 10, 1, 6]);
makespan = 1258;
----------
assign = array1d(1..11 ,[4, 4, 4, 4, 4, 1, 4, 1, 2, 3, 4]);
next = array1d(1..11 ,[2, 5, 4, 11, 7, 8, 3, 9, 10, 1, 6]);
makespan = 1257;
----------
assign = array1d(1..11 ,[4, 4, 4, 4, 4, 1, 4, 1, 2, 3, 4]);
next = array1d(1..11 ,[2, 5, 4, 11, 7, 8, 3, 9, 10, 1, 6]);
makespan = 1256;
----------
assign = array1d(1..11 ,[4, 4, 4, 4, 4, 1, 4, 1, 2, 3, 4]);
next = array1d(1..11 ,[2, 5, 4, 11, 7, 8, 3, 9, 10, 1, 6]);
makespan = 1252;
----------
assign = array1d(1..11 ,[4, 4, 4, 4, 4, 1, 4, 1, 2, 3, 4]);
next = array1d(1..11 ,[2, 5, 4, 11, 7, 8, 3, 9, 10, 1, 6]);
makespan = 1251;
----------
assign = array1d(1..11 ,[4, 4, 4, 4, 4, 1, 4, 1, 2, 3, 4]);
next = array1d(1..11 ,[2, 5, 4, 11, 7, 8, 3, 9, 10, 1, 6]);
makespan = 1246;
----------
assign = array1d(1..11 ,[4, 4, 4, 4, 4, 1, 4, 1, 2, 3, 4]);
next = array1d(1..11 ,[2, 5, 4, 11, 7, 8, 3, 9, 10, 1, 6]);
makespan = 1240;
----------
assign = array1d(1..11 ,[4, 4, 4, 4, 4, 1, 4, 1, 2, 3, 4]);
next = array1d(1..11 ,[2, 5, 4, 11, 7, 8, 3, 9, 10, 1, 6]);
makespan = 1239;
----------
assign = array1d(1..11 ,[4, 4, 4, 4, 4, 1, 4, 1, 2, 3, 4]);
next = array1d(1..11 ,[2, 5, 4, 11, 7, 8, 3, 9, 10, 1, 6]);
makespan = 1236;
----------
assign = array1d(1..11 ,[4, 4, 4, 4, 4, 1, 4, 1, 2, 3, 4]);
next = array1d(1..11 ,[2, 5, 4, 11, 7, 8, 3, 9, 10, 1, 6]);
makespan = 1235;
----------
assign = array1d(1..11 ,[4, 4, 4, 4, 4, 1, 4, 1, 2, 3, 4]);
next = array1d(1..11 ,[2, 5, 4, 11, 7, 8, 3, 9, 10, 1, 6]);
makespan = 1229;
----------
assign = array1d(1..11 ,[4, 4, 4, 4, 4, 1, 4, 1, 2, 3, 4]);
next = array1d(1..11 ,[2, 5, 4, 11, 7, 8, 3, 9, 10, 1, 6]);
makespan = 1225;
----------
assign = array1d(1..11 ,[4, 4, 4, 4, 4, 1, 4, 1, 2, 3, 4]);
next = array1d(1..11 ,[2, 5, 4, 11, 7, 8, 3, 9, 10, 1, 6]);
makespan = 1213;
----------
assign = array1d(1..11 ,[4, 4, 4, 4, 4, 1, 4, 1, 2, 3, 4]);
next = array1d(1..11 ,[2, 5, 4, 11, 7, 8, 3, 9, 10, 1, 6]);
makespan = 1209;
----------
assign = array1d(1..11 ,[4, 4, 4, 1, 4, 4, 4, 1, 2, 3, 4]);
next = array1d(1..11 ,[2, 5, 11, 8, 7, 1, 3, 9, 10, 6, 4]);
makespan = 1208;
----------
assign = array1d(1..11 ,[4, 4, 4, 1, 4, 3, 4, 1, 2, 3, 4]);
next = array1d(1..11 ,[2, 5, 11, 8, 7, 10, 3, 9, 6, 1, 4]);
makespan = 1204;
----------
assign = array1d(1..11 ,[4, 4, 4, 1, 4, 3, 4, 1, 2, 3, 4]);
next = array1d(1..11 ,[2, 5, 11, 8, 7, 10, 3, 9, 6, 1, 4]);
makespan = 1203;
----------
assign = array1d(1..11 ,[4, 4, 4, 1, 4, 3, 4, 1, 2, 3, 4]);
next = array1d(1..11 ,[2, 5, 11, 8, 7, 10, 3, 9, 6, 1, 4]);
makespan = 1202;
----------
assign = array1d(1..11 ,[4, 4, 4, 1, 4, 3, 4, 1, 2, 3, 4]);
next = array1d(1..11 ,[2, 5, 11, 8, 7, 10, 3, 9, 6, 1, 4]);
makespan = 1199;
----------
assign = array1d(1..11 ,[4, 4, 4, 1, 4, 3, 4, 1, 2, 3, 4]);
next = array1d(1..11 ,[2, 5, 11, 8, 7, 10, 3, 9, 6, 1, 4]);
makespan = 1198;
----------
assign = array1d(1..11 ,[4, 4, 4, 1, 4, 3, 4, 1, 2, 3, 4]);
next = array1d(1..11 ,[2, 5, 11, 8, 7, 10, 3, 9, 6, 1, 4]);
makespan = 1197;
----------
assign = array1d(1..11 ,[4, 4, 4, 1, 4, 3, 4, 1, 2, 3, 4]);
next = array1d(1..11 ,[2, 5, 11, 8, 7, 10, 3, 9, 6, 1, 4]);
makespan = 1193;
----------
assign = array1d(1..11 ,[4, 4, 4, 1, 4, 3, 4, 1, 2, 3, 4]);
next = array1d(1..11 ,[2, 5, 11, 8, 7, 10, 3, 9, 6, 1, 4]);
makespan = 1192;
----------
assign = array1d(1..11 ,[4, 4, 4, 1, 4, 3, 4, 1, 2, 3, 4]);
next = array1d(1..11 ,[2, 5, 11, 8, 7, 10, 3, 9, 6, 1, 4]);
makespan = 1187;
----------
assign = array1d(1..11 ,[4, 4, 4, 1, 4, 3, 4, 1, 2, 3, 4]);
next = array1d(1..11 ,[2, 5, 11, 8, 7, 10, 3, 9, 6, 1, 4]);
makespan = 1186;
----------
assign = array1d(1..11 ,[4, 4, 4, 1, 4, 3, 4, 1, 2, 3, 4]);
next = array1d(1..11 ,[2, 5, 11, 8, 7, 10, 3, 9, 6, 1, 4]);
makespan = 1185;
----------
assign = array1d(1..11 ,[4, 4, 4, 1, 4, 3, 4, 1, 2, 3, 4]);
next = array1d(1..11 ,[2, 5, 11, 8, 7, 10, 3, 9, 6, 1, 4]);
makespan = 1182;
----------
assign = array1d(1..11 ,[4, 4, 4, 1, 4, 3, 4, 1, 2, 3, 4]);
next = array1d(1..11 ,[2, 5, 11, 8, 7, 10, 3, 9, 6, 1, 4]);
makespan = 1181;
----------
assign = array1d(1..11 ,[4, 4, 4, 1, 4, 3, 4, 1, 2, 3, 4]);
next = array1d(1..11 ,[2, 5, 11, 8, 7, 10, 3, 9, 6, 1, 4]);
makespan = 1180;
----------
assign = array1d(1..11 ,[4, 4, 4, 1, 4, 3, 4, 1, 2, 3, 4]);
next = array1d(1..11 ,[2, 5, 11, 8, 7, 10, 3, 9, 6, 1, 4]);
makespan = 1177;
----------
assign = array1d(1..11 ,[4, 4, 4, 1, 4, 3, 4, 1, 2, 3, 4]);
next = array1d(1..11 ,[2, 5, 11, 8, 7, 10, 3, 9, 6, 1, 4]);
makespan = 1176;
----------
assign = array1d(1..11 ,[4, 4, 4, 1, 4, 3, 4, 1, 2, 3, 4]);
next = array1d(1..11 ,[2, 5, 11, 8, 7, 10, 3, 9, 6, 1, 4]);
makespan = 1175;
----------
assign = array1d(1..11 ,[4, 4, 4, 1, 4, 3, 4, 1, 2, 3, 4]);
next = array1d(1..11 ,[2, 5, 11, 8, 7, 10, 3, 9, 6, 1, 4]);
makespan = 1172;
----------
assign = array1d(1..11 ,[4, 4, 4, 1, 4, 3, 4, 1, 2, 3, 4]);
next = array1d(1..11 ,[2, 5, 11, 8, 7, 10, 3, 9, 6, 1, 4]);
makespan = 1171;
----------
assign = array1d(1..11 ,[4, 4, 4, 1, 4, 3, 4, 1, 2, 3, 4]);
next = array1d(1..11 ,[2, 5, 11, 8, 7, 10, 3, 9, 6, 1, 4]);
makespan = 1170;
----------
assign = array1d(1..11 ,[4, 4, 4, 1, 4, 3, 4, 1, 2, 3, 4]);
next = array1d(1..11 ,[2, 5, 11, 8, 7, 10, 3, 9, 6, 1, 4]);
makespan = 1165;
----------
assign = array1d(1..11 ,[4, 4, 4, 1, 4, 3, 4, 1, 2, 3, 4]);
next = array1d(1..11 ,[2, 5, 11, 8, 7, 10, 3, 9, 6, 1, 4]);
makespan = 1160;
----------
assign = array1d(1..11 ,[4, 4, 4, 1, 4, 3, 4, 1, 2, 3, 4]);
next = array1d(1..11 ,[2, 5, 11, 8, 7, 10, 3, 9, 6, 1, 4]);
makespan = 1159;
----------
assign = array1d(1..11 ,[4, 4, 4, 1, 4, 3, 4, 1, 2, 3, 4]);
next = array1d(1..11 ,[2, 5, 11, 8, 7, 10, 3, 9, 6, 1, 4]);
makespan = 1153;
----------
assign = array1d(1..11 ,[4, 4, 4, 1, 4, 3, 4, 1, 2, 3, 4]);
next = array1d(1..11 ,[2, 5, 11, 8, 7, 10, 3, 9, 6, 1, 4]);
makespan = 1149;
----------
assign = array1d(1..11 ,[4, 4, 4, 1, 4, 3, 4, 1, 2, 3, 4]);
next = array1d(1..11 ,[2, 5, 11, 8, 7, 10, 3, 9, 6, 1, 4]);
makespan = 1145;
----------
assign = array1d(1..11 ,[4, 4, 4, 1, 4, 3, 4, 1, 2, 3, 4]);
next = array1d(1..11 ,[2, 5, 11, 8, 7, 10, 3, 9, 6, 1, 4]);
makespan = 1139;
----------
assign = array1d(1..11 ,[4, 4, 4, 1, 4, 3, 4, 1, 2, 3, 4]);
next = array1d(1..11 ,[2, 5, 11, 8, 7, 10, 3, 9, 6, 1, 4]);
makespan = 1138;
----------
assign = array1d(1..11 ,[4, 4, 4, 1, 4, 3, 4, 1, 2, 3, 4]);
next = array1d(1..11 ,[2, 5, 11, 8, 7, 10, 3, 9, 6, 1, 4]);
makespan = 1133;
----------
assign = array1d(1..11 ,[4, 4, 4, 1, 4, 3, 4, 1, 2, 3, 4]);
next = array1d(1..11 ,[2, 5, 11, 8, 7, 10, 3, 9, 6, 1, 4]);
makespan = 1128;
----------
assign = array1d(1..11 ,[4, 4, 4, 1, 4, 3, 4, 1, 2, 3, 4]);
next = array1d(1..11 ,[2, 5, 11, 8, 7, 10, 3, 9, 6, 1, 4]);
makespan = 1127;
----------
assign = array1d(1..11 ,[4, 4, 4, 1, 4, 3, 4, 1, 2, 3, 4]);
next = array1d(1..11 ,[2, 5, 11, 8, 7, 10, 3, 9, 6, 1, 4]);
makespan = 1126;
----------
assign = array1d(1..11 ,[4, 4, 4, 1, 4, 3, 4, 1, 2, 3, 4]);
next = array1d(1..11 ,[2, 5, 11, 8, 7, 10, 3, 9, 6, 1, 4]);
makespan = 1123;
----------
assign = array1d(1..11 ,[4, 4, 4, 1, 4, 3, 4, 1, 2, 3, 4]);
next = array1d(1..11 ,[2, 5, 11, 8, 7, 10, 3, 9, 6, 1, 4]);
makespan = 1122;
----------
assign = array1d(1..11 ,[4, 4, 4, 1, 4, 3, 4, 1, 2, 3, 4]);
next = array1d(1..11 ,[2, 5, 11, 8, 7, 10, 3, 9, 6, 1, 4]);
makespan = 1121;
----------
assign = array1d(1..11 ,[4, 4, 4, 1, 4, 3, 4, 1, 2, 3, 4]);
next = array1d(1..11 ,[2, 5, 11, 8, 7, 10, 3, 9, 6, 1, 4]);
makespan = 1118;
----------
assign = array1d(1..11 ,[4, 4, 4, 1, 4, 3, 4, 1, 2, 3, 4]);
next = array1d(1..11 ,[2, 5, 11, 8, 7, 10, 3, 9, 6, 1, 4]);
makespan = 1117;
----------
assign = array1d(1..11 ,[4, 4, 4, 1, 4, 3, 4, 1, 2, 3, 4]);
next = array1d(1..11 ,[2, 5, 11, 8, 7, 10, 3, 9, 6, 1, 4]);
makespan = 1116;
----------
assign = array1d(1..11 ,[4, 4, 4, 1, 4, 3, 4, 1, 2, 3, 4]);
next = array1d(1..11 ,[2, 5, 11, 8, 7, 10, 3, 9, 6, 1, 4]);
makespan = 1113;
----------
assign = array1d(1..11 ,[4, 4, 4, 1, 4, 3, 4, 1, 2, 3, 4]);
next = array1d(1..11 ,[2, 5, 11, 8, 7, 10, 3, 9, 6, 1, 4]);
makespan = 1112;
----------
assign = array1d(1..11 ,[4, 4, 4, 1, 4, 3, 4, 1, 2, 3, 4]);
next = array1d(1..11 ,[2, 5, 11, 8, 7, 10, 3, 9, 6, 1, 4]);
makespan = 1111;
----------
assign = array1d(1..11 ,[4, 4, 4, 1, 4, 3, 4, 1, 2, 3, 4]);
next = array1d(1..11 ,[2, 5, 11, 8, 7, 10, 3, 9, 6, 1, 4]);
makespan = 1106;
----------
assign = array1d(1..11 ,[4, 4, 4, 1, 4, 3, 4, 1, 2, 3, 4]);
next = array1d(1..11 ,[2, 5, 11, 8, 7, 10, 3, 9, 6, 1, 4]);
makespan = 1105;
----------
assign = array1d(1..11 ,[4, 4, 4, 1, 4, 3, 4, 1, 2, 3, 4]);
next = array1d(1..11 ,[2, 5, 11, 8, 7, 10, 3, 9, 6, 1, 4]);
makespan = 1101;
----------
assign = array1d(1..11 ,[4, 4, 4, 1, 4, 3, 4, 1, 2, 3, 4]);
next = array1d(1..11 ,[2, 5, 11, 8, 7, 10, 3, 9, 6, 1, 4]);
makespan = 1100;
----------
assign = array1d(1..11 ,[4, 4, 4, 1, 4, 3, 4, 1, 2, 3, 4]);
next = array1d(1..11 ,[2, 5, 11, 8, 7, 10, 3, 9, 6, 1, 4]);
makespan = 1099;
----------
assign = array1d(1..11 ,[4, 4, 4, 1, 4, 3, 4, 1, 2, 3, 4]);
next = array1d(1..11 ,[2, 5, 11, 8, 7, 10, 3, 9, 6, 1, 4]);
makespan = 1096;
----------
assign = array1d(1..11 ,[4, 4, 4, 1, 4, 3, 4, 1, 2, 3, 4]);
next = array1d(1..11 ,[2, 5, 11, 8, 7, 10, 3, 9, 6, 1, 4]);
makespan = 1095;
----------
assign = array1d(1..11 ,[4, 4, 4, 1, 4, 3, 4, 1, 2, 3, 4]);
next = array1d(1..11 ,[2, 5, 11, 8, 7, 10, 3, 9, 6, 1, 4]);
makespan = 1094;
----------
assign = array1d(1..11 ,[4, 4, 4, 1, 4, 3, 4, 1, 2, 3, 4]);
next = array1d(1..11 ,[2, 5, 11, 8, 7, 10, 3, 9, 6, 1, 4]);
makespan = 1090;
----------
assign = array1d(1..11 ,[4, 4, 4, 1, 4, 3, 4, 1, 2, 3, 4]);
next = array1d(1..11 ,[2, 5, 11, 8, 7, 10, 3, 9, 6, 1, 4]);
makespan = 1089;
----------
assign = array1d(1..11 ,[4, 4, 4, 1, 4, 3, 4, 1, 2, 3, 4]);
next = array1d(1..11 ,[2, 5, 11, 8, 7, 10, 3, 9, 6, 1, 4]);
makespan = 1085;
----------
assign = array1d(1..11 ,[4, 4, 4, 1, 4, 3, 4, 1, 2, 3, 4]);
next = array1d(1..11 ,[2, 5, 11, 8, 7, 10, 3, 9, 6, 1, 4]);
makespan = 1073;
----------
assign = array1d(1..11 ,[4, 4, 4, 1, 4, 3, 4, 1, 2, 3, 4]);
next = array1d(1..11 ,[2, 5, 11, 8, 7, 10, 3, 9, 6, 1, 4]);
makespan = 1069;
----------
assign = array1d(1..11 ,[4, 4, 4, 1, 4, 3, 4, 1, 2, 3, 4]);
next = array1d(1..11 ,[2, 5, 11, 8, 7, 10, 3, 9, 6, 1, 4]);
makespan = 1068;
----------
assign = array1d(1..11 ,[4, 4, 4, 1, 4, 3, 4, 1, 2, 3, 4]);
next = array1d(1..11 ,[2, 5, 11, 8, 7, 10, 3, 9, 6, 1, 4]);
makespan = 1063;
----------
assign = array1d(1..11 ,[4, 4, 4, 1, 4, 3, 4, 1, 2, 3, 4]);
next = array1d(1..11 ,[2, 5, 11, 8, 7, 10, 3, 9, 6, 1, 4]);
makespan = 1062;
----------
assign = array1d(1..11 ,[4, 4, 4, 1, 4, 3, 4, 1, 2, 3, 4]);
next = array1d(1..11 ,[2, 5, 11, 8, 7, 10, 3, 9, 6, 1, 4]);
makespan = 1059;
----------
assign = array1d(1..11 ,[4, 4, 4, 1, 4, 3, 4, 1, 2, 3, 4]);
next = array1d(1..11 ,[2, 5, 11, 8, 7, 10, 3, 9, 6, 1, 4]);
makespan = 1058;
----------
assign = array1d(1..11 ,[4, 4, 4, 1, 4, 3, 4, 1, 2, 3, 4]);
next = array1d(1..11 ,[2, 5, 11, 8, 7, 10, 3, 9, 6, 1, 4]);
makespan = 1052;
----------
assign = array1d(1..11 ,[4, 4, 4, 1, 4, 3, 4, 1, 2, 3, 4]);
next = array1d(1..11 ,[2, 5, 11, 8, 7, 10, 3, 9, 6, 1, 4]);
makespan = 1047;
----------
assign = array1d(1..11 ,[4, 4, 4, 1, 4, 3, 4, 1, 2, 3, 4]);
next = array1d(1..11 ,[2, 5, 11, 8, 7, 10, 3, 9, 6, 1, 4]);
makespan = 1046;
----------
assign = array1d(1..11 ,[4, 4, 4, 1, 4, 3, 4, 1, 2, 3, 4]);
next = array1d(1..11 ,[2, 5, 11, 8, 7, 10, 3, 9, 6, 1, 4]);
makespan = 1042;
----------
assign = array1d(1..11 ,[4, 4, 4, 1, 4, 3, 4, 1, 2, 3, 4]);
next = array1d(1..11 ,[2, 5, 11, 8, 7, 10, 3, 9, 6, 1, 4]);
makespan = 1041;
----------
assign = array1d(1..11 ,[4, 4, 4, 1, 4, 3, 4, 1, 2, 3, 4]);
next = array1d(1..11 ,[2, 5, 11, 8, 7, 10, 3, 9, 6, 1, 4]);
makespan = 1040;
----------
assign = array1d(1..11 ,[4, 4, 4, 1, 4, 3, 4, 1, 2, 3, 4]);
next = array1d(1..11 ,[2, 5, 11, 8, 7, 10, 3, 9, 6, 1, 4]);
makespan = 1037;
----------
assign = array1d(1..11 ,[4, 4, 4, 1, 4, 3, 4, 1, 2, 3, 4]);
next = array1d(1..11 ,[2, 5, 11, 8, 7, 10, 3, 9, 6, 1, 4]);
makespan = 1036;
----------
assign = array1d(1..11 ,[4, 4, 4, 1, 4, 3, 4, 1, 2, 3, 4]);
next = array1d(1..11 ,[2, 5, 11, 8, 7, 10, 3, 9, 6, 1, 4]);
makespan = 1035;
----------
assign = array1d(1..11 ,[4, 4, 4, 1, 4, 3, 4, 1, 2, 3, 4]);
next = array1d(1..11 ,[2, 5, 11, 8, 7, 10, 3, 9, 6, 1, 4]);
makespan = 1031;
----------
assign = array1d(1..11 ,[4, 4, 4, 1, 4, 3, 4, 1, 2, 3, 4]);
next = array1d(1..11 ,[2, 5, 11, 8, 7, 10, 3, 9, 6, 1, 4]);
makespan = 1030;
----------
assign = array1d(1..11 ,[4, 4, 4, 1, 4, 3, 4, 1, 2, 3, 4]);
next = array1d(1..11 ,[2, 5, 11, 8, 7, 10, 3, 9, 6, 1, 4]);
makespan = 1026;
----------
assign = array1d(1..11 ,[4, 4, 4, 1, 4, 3, 4, 1, 2, 3, 4]);
next = array1d(1..11 ,[2, 5, 11, 8, 7, 10, 3, 9, 6, 1, 4]);
makespan = 1019;
----------
assign = array1d(1..11 ,[4, 4, 4, 1, 4, 3, 4, 1, 2, 3, 4]);
next = array1d(1..11 ,[2, 5, 11, 8, 7, 10, 3, 9, 6, 1, 4]);
makespan = 1014;
----------
assign = array1d(1..11 ,[4, 4, 4, 1, 4, 3, 4, 1, 2, 3, 4]);
next = array1d(1..11 ,[2, 5, 11, 8, 7, 10, 3, 9, 6, 1, 4]);
makespan = 1009;
----------
assign = array1d(1..11 ,[4, 4, 4, 1, 4, 3, 4, 1, 2, 3, 4]);
next = array1d(1..11 ,[2, 5, 11, 8, 7, 10, 3, 9, 6, 1, 4]);
makespan = 1004;
----------
assign = array1d(1..11 ,[2, 4, 4, 1, 4, 4, 4, 1, 2, 3, 4]);
next = array1d(1..11 ,[9, 5, 6, 8, 7, 11, 3, 1, 10, 2, 4]);
makespan = 961;
----------
assign = array1d(1..11 ,[1, 4, 4, 4, 4, 3, 4, 1, 2, 3, 4]);
next = array1d(1..11 ,[8, 5, 11, 2, 7, 10, 3, 9, 6, 4, 1]);
makespan = 947;
----------
assign = array1d(1..11 ,[1, 4, 4, 2, 4, 3, 4, 1, 2, 3, 4]);
next = array1d(1..11 ,[8, 5, 11, 9, 7, 10, 3, 4, 6, 2, 1]);
makespan = 928;
----------
assign = array1d(1..11 ,[1, 4, 4, 2, 4, 3, 4, 1, 2, 3, 4]);
next = array1d(1..11 ,[8, 5, 11, 9, 7, 10, 3, 4, 6, 2, 1]);
makespan = 896;
----------
assign = array1d(1..11 ,[1, 4, 4, 2, 4, 3, 4, 1, 2, 3, 4]);
next = array1d(1..11 ,[8, 5, 11, 9, 7, 10, 3, 4, 6, 2, 1]);
makespan = 890;
----------
assign = array1d(1..11 ,[1, 4, 4, 2, 4, 3, 4, 1, 2, 3, 4]);
next = array1d(1..11 ,[8, 5, 11, 9, 7, 10, 3, 4, 6, 2, 1]);
makespan = 874;
----------
assign = array1d(1..11 ,[1, 4, 4, 2, 4, 3, 4, 1, 2, 3, 4]);
next = array1d(1..11 ,[8, 5, 11, 9, 7, 10, 3, 4, 6, 2, 1]);
makespan = 836;
----------
assign = array1d(1..11 ,[1, 4, 4, 2, 4, 3, 4, 1, 2, 3, 4]);
next = array1d(1..11 ,[8, 5, 11, 9, 7, 10, 3, 4, 6, 2, 1]);
makespan = 820;
----------
assign = array1d(1..11 ,[1, 4, 4, 2, 4, 3, 4, 1, 2, 3, 4]);
next = array1d(1..11 ,[8, 5, 11, 9, 7, 10, 3, 4, 6, 2, 1]);
makespan = 810;
----------
assign = array1d(1..11 ,[1, 4, 4, 2, 4, 3, 4, 1, 2, 3, 4]);
next = array1d(1..11 ,[8, 5, 11, 9, 7, 10, 3, 4, 6, 2, 1]);
makespan = 783;
----------
assign = array1d(1..11 ,[1, 4, 4, 2, 4, 3, 4, 1, 2, 3, 4]);
next = array1d(1..11 ,[8, 5, 11, 9, 7, 10, 3, 4, 6, 2, 1]);
makespan = 756;
----------
assign = array1d(1..11 ,[1, 4, 3, 2, 4, 4, 4, 1, 2, 3, 4]);
next = array1d(1..11 ,[8, 5, 10, 9, 7, 2, 11, 4, 3, 6, 1]);
makespan = 746;
----------
assign = array1d(1..11 ,[1, 4, 3, 4, 4, 3, 4, 1, 2, 3, 4]);
next = array1d(1..11 ,[8, 5, 6, 2, 7, 10, 11, 9, 3, 4, 1]);
makespan = 720;
----------
assign = array1d(1..11 ,[1, 4, 3, 4, 4, 3, 4, 1, 2, 3, 4]);
next = array1d(1..11 ,[8, 5, 6, 11, 7, 10, 4, 9, 3, 2, 1]);
makespan = 719;
----------
assign = array1d(1..11 ,[2, 4, 3, 1, 4, 3, 4, 1, 2, 3, 4]);
next = array1d(1..11 ,[9, 5, 6, 8, 7, 10, 11, 1, 3, 2, 4]);
makespan = 696;
----------
assign = array1d(1..11 ,[2, 4, 3, 1, 4, 3, 4, 1, 2, 3, 4]);
next = array1d(1..11 ,[9, 5, 6, 8, 7, 10, 11, 1, 3, 2, 4]);
makespan = 670;
----------
assign = array1d(1..11 ,[2, 4, 3, 1, 4, 3, 4, 1, 2, 3, 4]);
next = array1d(1..11 ,[9, 5, 6, 8, 7, 10, 11, 1, 3, 2, 4]);
makespan = 648;
----------
assign = array1d(1..11 ,[2, 4, 3, 1, 4, 3, 4, 1, 2, 3, 4]);
next = array1d(1..11 ,[9, 5, 6, 8, 7, 10, 11, 1, 3, 2, 4]);
makespan = 647;
----------
assign = array1d(1..11 ,[2, 4, 3, 1, 4, 3, 4, 1, 2, 3, 4]);
next = array1d(1..11 ,[9, 5, 6, 8, 7, 10, 11, 1, 3, 2, 4]);
makespan = 616;
----------
assign = array1d(1..11 ,[2, 4, 3, 1, 4, 3, 4, 1, 2, 3, 4]);
next = array1d(1..11 ,[9, 5, 6, 8, 7, 10, 11, 1, 3, 2, 4]);
makespan = 609;
----------
assign = array1d(1..11 ,[2, 4, 3, 1, 4, 3, 4, 1, 2, 3, 4]);
next = array1d(1..11 ,[9, 5, 6, 8, 7, 10, 11, 1, 3, 2, 4]);
makespan = 593;
----------
assign = array1d(1..11 ,[2, 4, 3, 1, 4, 3, 4, 1, 2, 3, 4]);
next = array1d(1..11 ,[9, 5, 6, 8, 7, 10, 11, 1, 3, 2, 4]);
makespan = 583;
----------
assign = array1d(1..11 ,[2, 4, 3, 1, 4, 3, 4, 1, 2, 3, 4]);
next = array1d(1..11 ,[9, 5, 6, 8, 7, 10, 11, 1, 3, 2, 4]);
makespan = 529;
----------
assign = array1d(1..11 ,[3, 4, 2, 4, 4, 2, 2, 1, 2, 3, 4]);
next = array1d(1..11 ,[10, 5, 6, 2, 11, 9, 3, 7, 1, 4, 8]);
makespan = 520;
----------
assign = array1d(1..11 ,[3, 4, 3, 4, 4, 2, 3, 1, 2, 3, 4]);
next = array1d(1..11 ,[7, 5, 10, 11, 4, 9, 3, 6, 1, 2, 8]);
makespan = 514;
----------
assign = array1d(1..11 ,[3, 4, 3, 4, 4, 2, 3, 1, 2, 3, 4]);
next = array1d(1..11 ,[7, 5, 10, 2, 11, 9, 3, 6, 1, 4, 8]);
makespan = 506;
----------
assign = array1d(1..11 ,[3, 4, 3, 4, 4, 2, 3, 1, 2, 3, 4]);
next = array1d(1..11 ,[7, 5, 10, 2, 11, 9, 3, 6, 1, 4, 8]);
makespan = 496;
----------
assign = array1d(1..11 ,[3, 4, 3, 1, 4, 2, 3, 1, 2, 3, 4]);
next = array1d(1..11 ,[7, 5, 10, 8, 11, 9, 3, 6, 1, 2, 4]);
makespan = 487;
----------
assign = array1d(1..11 ,[3, 4, 2, 3, 4, 2, 3, 1, 2, 3, 4]);
next = array1d(1..11 ,[7, 5, 6, 10, 11, 9, 4, 3, 1, 2, 8]);
makespan = 478;
----------
assign = array1d(1..11 ,[3, 4, 2, 3, 4, 2, 3, 1, 2, 3, 4]);
next = array1d(1..11 ,[7, 5, 6, 10, 11, 9, 4, 3, 1, 2, 8]);
makespan = 476;
----------
assign = array1d(1..11 ,[3, 4, 2, 1, 4, 2, 3, 1, 2, 3, 4]);
next = array1d(1..11 ,[7, 5, 6, 8, 11, 9, 10, 3, 1, 2, 4]);
makespan = 474;
----------
assign = array1d(1..11 ,[3, 4, 2, 1, 4, 2, 3, 1, 2, 3, 4]);
next = array1d(1..11 ,[7, 5, 6, 8, 11, 9, 10, 3, 1, 2, 4]);
makespan = 445;
----------
assign = array1d(1..11 ,[3, 4, 2, 1, 4, 2, 3, 1, 2, 3, 4]);
next = array1d(1..11 ,[7, 5, 6, 8, 11, 9, 10, 3, 1, 2, 4]);
makespan = 439;
----------
assign = array1d(1..11 ,[3, 4, 2, 1, 4, 2, 3, 1, 2, 3, 4]);
next = array1d(1..11 ,[7, 5, 6, 8, 11, 9, 10, 3, 1, 2, 4]);
makespan = 426;
----------
assign = array1d(1..11 ,[3, 4, 2, 1, 4, 2, 3, 1, 2, 3, 4]);
next = array1d(1..11 ,[7, 5, 6, 8, 11, 9, 10, 3, 1, 2, 4]);
makespan = 423;
----------
assign = array1d(1..11 ,[3, 4, 2, 1, 4, 2, 3, 1, 2, 3, 4]);
next = array1d(1..11 ,[7, 5, 6, 8, 11, 9, 10, 3, 1, 2, 4]);
makespan = 392;
----------
assign = array1d(1..11 ,[3, 4, 2, 1, 4, 2, 3, 1, 2, 3, 4]);
next = array1d(1..11 ,[7, 5, 6, 8, 11, 9, 10, 3, 1, 2, 4]);
makespan = 391;
----------
assign = array1d(1..11 ,[3, 4, 2, 1, 4, 2, 3, 1, 2, 3, 4]);
next = array1d(1..11 ,[7, 5, 6, 8, 11, 9, 10, 3, 1, 2, 4]);
makespan = 385;
----------
assign = array1d(1..11 ,[3, 4, 2, 1, 4, 2, 3, 1, 2, 3, 4]);
next = array1d(1..11 ,[7, 5, 6, 8, 11, 9, 10, 3, 1, 2, 4]);
makespan = 369;
----------
assign = array1d(1..11 ,[3, 4, 2, 1, 4, 2, 3, 1, 2, 3, 4]);
next = array1d(1..11 ,[7, 5, 6, 8, 11, 9, 10, 3, 1, 2, 4]);
makespan = 359;
----------
assign = array1d(1..11 ,[3, 4, 2, 1, 4, 2, 3, 1, 2, 3, 4]);
next = array1d(1..11 ,[7, 5, 6, 8, 11, 9, 10, 3, 1, 2, 4]);
makespan = 350;
----------
assign = array1d(1..11 ,[3, 4, 2, 1, 4, 2, 3, 1, 2, 3, 4]);
next = array1d(1..11 ,[7, 5, 6, 8, 11, 9, 10, 3, 1, 2, 4]);
makespan = 334;
----------
assign = array1d(1..11 ,[3, 4, 2, 1, 4, 2, 3, 1, 2, 3, 4]);
next = array1d(1..11 ,[7, 5, 6, 8, 11, 9, 10, 3, 1, 2, 4]);
makespan = 324;
----------
assign = array1d(1..11 ,[3, 4, 2, 1, 4, 2, 3, 1, 2, 3, 4]);
next = array1d(1..11 ,[7, 5, 6, 8, 11, 9, 10, 3, 1, 2, 4]);
makespan = 305;
----------
assign = array1d(1..11 ,[3, 4, 2, 1, 4, 2, 3, 1, 2, 3, 4]);
next = array1d(1..11 ,[7, 11, 6, 8, 2, 9, 10, 3, 1, 5, 4]);
makespan = 279;
----------
assign = array1d(1..11 ,[3, 4, 2, 1, 4, 1, 3, 1, 2, 3, 4]);
next = array1d(1..11 ,[7, 11, 9, 6, 2, 8, 10, 3, 1, 5, 4]);
makespan = 265;
----------
assign = array1d(1..11 ,[3, 2, 2, 4, 4, 1, 3, 1, 2, 3, 4]);
next = array1d(1..11 ,[7, 3, 9, 5, 11, 8, 10, 2, 1, 4, 6]);
makespan = 263;
----------
assign = array1d(1..11 ,[1, 2, 2, 4, 4, 3, 3, 1, 2, 3, 4]);
next = array1d(1..11 ,[8, 3, 9, 5, 11, 10, 6, 2, 7, 4, 1]);
makespan = 262;
----------
assign = array1d(1..11 ,[1, 2, 2, 4, 4, 3, 3, 1, 2, 3, 4]);
next = array1d(1..11 ,[8, 3, 9, 5, 11, 10, 6, 2, 7, 4, 1]);
makespan = 261;
----------
assign = array1d(1..11 ,[3, 2, 1, 1, 4, 4, 3, 1, 2, 3, 4]);
next = array1d(1..11 ,[10, 9, 4, 8, 6, 11, 1, 2, 7, 5, 3]);
makespan = 258;
----------
==========
	Command being timed: "mzn-chuffed lbbd-datasets/Rabadi-2006/dzn-s-dominant/model.mzn lbbd-datasets/Rabadi-2006/dzn-s-dominant/7on4Rp50Rs50_7Ameer.dzn"
	User time (seconds): 0.42
	System time (seconds): 0.01
	Percent of CPU this job got: 28%
	Elapsed (wall clock) time (h:mm:ss or m:ss): 0:01.51
	Average shared text size (kbytes): 0
	Average unshared data size (kbytes): 0
	Average stack size (kbytes): 0
	Average total size (kbytes): 0
	Maximum resident set size (kbytes): 33872
	Average resident set size (kbytes): 0
	Major (requiring I/O) page faults: 0
	Minor (reclaiming a frame) page faults: 3072
	Voluntary context switches: 164
	Involuntary context switches: 4
	Swaps: 0
	File system inputs: 0
	File system outputs: 256
	Socket messages sent: 0
	Socket messages received: 0
	Signals delivered: 0
	Page size (bytes): 4096
	Exit status: 0
