+ /usr/bin/timeout 600 /usr/bin/time -v mzn-chuffed lbbd-datasets/Rabadi-2006/dzn-balanced/model.mzn lbbd-datasets/Rabadi-2006/dzn-balanced/11on2Rp50Rs50_12Ameer.dzn
% No search annotation given. Defaulting to VSIDS!
assign = array1d(1..13 ,[2, 2, 2, 2, 2, 2, 2, 2, 2, 2, 2, 1, 2]);
next = array1d(1..13 ,[2, 3, 4, 5, 6, 7, 8, 9, 10, 11, 13, 1, 12]);
makespan = 1530;
----------
assign = array1d(1..13 ,[2, 2, 2, 2, 2, 2, 2, 2, 2, 2, 2, 1, 2]);
next = array1d(1..13 ,[3, 5, 4, 2, 6, 7, 8, 9, 10, 11, 13, 1, 12]);
makespan = 1503;
----------
assign = array1d(1..13 ,[2, 2, 2, 2, 2, 1, 2, 2, 2, 2, 2, 1, 2]);
next = array1d(1..13 ,[13, 1, 2, 9, 8, 12, 11, 10, 3, 7, 4, 5, 6]);
makespan = 1484;
----------
assign = array1d(1..13 ,[2, 2, 2, 2, 2, 2, 2, 2, 2, 2, 1, 1, 2]);
next = array1d(1..13 ,[5, 8, 2, 6, 9, 3, 10, 7, 4, 13, 12, 1, 11]);
makespan = 1474;
----------
assign = array1d(1..13 ,[2, 2, 1, 2, 2, 2, 2, 2, 2, 2, 2, 1, 2]);
next = array1d(1..13 ,[10, 5, 12, 7, 11, 2, 1, 13, 6, 9, 8, 4, 3]);
makespan = 1471;
----------
assign = array1d(1..13 ,[2, 2, 1, 2, 2, 2, 2, 2, 2, 2, 2, 1, 2]);
next = array1d(1..13 ,[5, 7, 12, 1, 6, 9, 13, 4, 2, 11, 8, 10, 3]);
makespan = 1470;
----------
assign = array1d(1..13 ,[2, 2, 2, 2, 2, 2, 1, 2, 2, 2, 2, 1, 2]);
next = array1d(1..13 ,[10, 4, 5, 9, 11, 3, 12, 13, 8, 6, 2, 1, 7]);
makespan = 1464;
----------
assign = array1d(1..13 ,[2, 2, 2, 2, 2, 2, 2, 2, 2, 2, 1, 1, 2]);
next = array1d(1..13 ,[3, 5, 2, 7, 4, 13, 8, 6, 1, 9, 12, 10, 11]);
makespan = 1463;
----------
assign = array1d(1..13 ,[2, 2, 2, 2, 1, 2, 2, 2, 2, 2, 2, 1, 2]);
next = array1d(1..13 ,[11, 4, 6, 8, 12, 10, 1, 13, 7, 9, 2, 3, 5]);
makespan = 1462;
----------
assign = array1d(1..13 ,[2, 2, 1, 2, 2, 2, 2, 2, 2, 2, 2, 1, 2]);
next = array1d(1..13 ,[5, 8, 12, 9, 10, 11, 1, 4, 6, 13, 7, 2, 3]);
makespan = 1461;
----------
assign = array1d(1..13 ,[2, 2, 2, 2, 2, 2, 2, 2, 2, 2, 1, 1, 2]);
next = array1d(1..13 ,[10, 6, 1, 9, 4, 3, 13, 7, 2, 8, 12, 5, 11]);
makespan = 1460;
----------
assign = array1d(1..13 ,[2, 2, 2, 2, 2, 2, 1, 2, 2, 2, 2, 1, 2]);
next = array1d(1..13 ,[3, 4, 6, 5, 11, 8, 12, 10, 2, 9, 13, 1, 7]);
makespan = 1457;
----------
assign = array1d(1..13 ,[2, 2, 2, 2, 2, 2, 2, 2, 2, 2, 1, 1, 2]);
next = array1d(1..13 ,[2, 10, 6, 7, 3, 13, 8, 5, 4, 9, 12, 1, 11]);
makespan = 1453;
----------
assign = array1d(1..13 ,[2, 2, 2, 2, 2, 2, 2, 2, 2, 2, 1, 1, 2]);
next = array1d(1..13 ,[8, 13, 2, 5, 10, 3, 9, 4, 6, 7, 12, 1, 11]);
makespan = 1447;
----------
assign = array1d(1..13 ,[2, 2, 2, 2, 2, 2, 1, 2, 2, 2, 2, 1, 2]);
next = array1d(1..13 ,[4, 10, 2, 13, 8, 11, 12, 3, 1, 9, 5, 6, 7]);
makespan = 1441;
----------
assign = array1d(1..13 ,[2, 2, 2, 2, 2, 2, 1, 2, 2, 2, 2, 1, 2]);
next = array1d(1..13 ,[3, 6, 2, 5, 10, 11, 12, 4, 8, 1, 13, 9, 7]);
makespan = 1440;
----------
assign = array1d(1..13 ,[2, 2, 2, 2, 1, 2, 2, 2, 1, 2, 2, 1, 2]);
next = array1d(1..13 ,[10, 8, 2, 1, 9, 13, 11, 4, 12, 7, 6, 3, 5]);
makespan = 1439;
----------
assign = array1d(1..13 ,[2, 2, 2, 2, 1, 1, 2, 2, 2, 2, 2, 1, 2]);
next = array1d(1..13 ,[10, 7, 2, 1, 6, 12, 11, 4, 13, 9, 8, 3, 5]);
makespan = 1438;
----------
assign = array1d(1..13 ,[2, 2, 2, 2, 1, 2, 1, 2, 2, 2, 2, 1, 2]);
next = array1d(1..13 ,[13, 8, 11, 1, 12, 10, 5, 4, 2, 9, 6, 3, 7]);
makespan = 1437;
----------
