+ /usr/bin/timeout 600 /usr/bin/time -v mzn-chuffed lbbd-datasets/Rabadi-2006/dzn-p-dominant/model.mzn lbbd-datasets/Rabadi-2006/dzn-p-dominant/9on4Rp50Rs50_13Ameer.dzn
% No search annotation given. Defaulting to VSIDS!
assign = array1d(1..13 ,[4, 4, 4, 4, 4, 4, 4, 4, 4, 1, 2, 3, 4]);
next = array1d(1..13 ,[2, 3, 4, 5, 6, 7, 8, 9, 13, 11, 12, 1, 10]);
makespan = 1939;
----------
assign = array1d(1..13 ,[4, 4, 4, 4, 4, 4, 4, 4, 4, 1, 2, 3, 4]);
next = array1d(1..13 ,[3, 4, 2, 5, 6, 7, 8, 9, 13, 11, 12, 1, 10]);
makespan = 1886;
----------
assign = array1d(1..13 ,[4, 1, 4, 4, 4, 4, 4, 4, 4, 1, 2, 3, 4]);
next = array1d(1..13 ,[4, 10, 9, 3, 7, 13, 6, 1, 5, 11, 12, 8, 2]);
makespan = 1813;
----------
assign = array1d(1..13 ,[1, 4, 4, 4, 4, 4, 4, 4, 4, 1, 2, 3, 4]);
next = array1d(1..13 ,[10, 13, 9, 8, 7, 3, 4, 2, 5, 11, 12, 6, 1]);
makespan = 1801;
----------
assign = array1d(1..13 ,[4, 4, 1, 4, 4, 4, 4, 4, 4, 1, 2, 3, 4]);
next = array1d(1..13 ,[2, 5, 10, 8, 9, 13, 6, 1, 7, 11, 12, 4, 3]);
makespan = 1798;
----------
assign = array1d(1..13 ,[4, 4, 1, 4, 4, 4, 4, 4, 4, 1, 2, 3, 4]);
next = array1d(1..13 ,[13, 5, 10, 8, 7, 2, 9, 1, 4, 11, 12, 6, 3]);
makespan = 1795;
----------
assign = array1d(1..13 ,[4, 4, 4, 4, 3, 4, 4, 4, 4, 1, 2, 3, 4]);
next = array1d(1..13 ,[4, 3, 7, 8, 12, 13, 6, 2, 1, 11, 5, 9, 10]);
makespan = 1793;
----------
assign = array1d(1..13 ,[4, 4, 4, 4, 3, 4, 4, 4, 4, 1, 2, 3, 4]);
next = array1d(1..13 ,[7, 13, 9, 8, 12, 2, 3, 1, 6, 11, 5, 4, 10]);
makespan = 1792;
----------
assign = array1d(1..13 ,[4, 4, 4, 4, 1, 4, 4, 4, 4, 1, 2, 3, 4]);
next = array1d(1..13 ,[4, 3, 7, 8, 10, 13, 6, 2, 1, 11, 12, 9, 5]);
makespan = 1787;
----------
assign = array1d(1..13 ,[4, 4, 3, 4, 4, 4, 4, 4, 4, 1, 2, 3, 4]);
next = array1d(1..13 ,[4, 5, 12, 13, 9, 2, 8, 1, 7, 11, 3, 6, 10]);
makespan = 1784;
----------
assign = array1d(1..13 ,[4, 4, 1, 4, 4, 4, 4, 4, 4, 1, 2, 3, 4]);
next = array1d(1..13 ,[4, 13, 10, 8, 9, 2, 6, 7, 1, 11, 12, 5, 3]);
makespan = 1780;
----------
assign = array1d(1..13 ,[4, 4, 1, 4, 4, 4, 4, 4, 4, 1, 2, 3, 4]);
next = array1d(1..13 ,[4, 13, 10, 6, 7, 2, 8, 1, 5, 11, 12, 9, 3]);
makespan = 1778;
----------
assign = array1d(1..13 ,[4, 4, 1, 4, 4, 4, 4, 4, 4, 1, 2, 3, 4]);
next = array1d(1..13 ,[4, 5, 10, 8, 1, 2, 9, 13, 6, 11, 12, 7, 3]);
makespan = 1776;
----------
assign = array1d(1..13 ,[4, 4, 1, 4, 4, 4, 4, 4, 4, 1, 2, 3, 4]);
next = array1d(1..13 ,[4, 6, 10, 8, 9, 13, 1, 2, 7, 11, 12, 5, 3]);
makespan = 1775;
----------
assign = array1d(1..13 ,[1, 4, 4, 4, 4, 4, 4, 4, 4, 1, 2, 3, 4]);
next = array1d(1..13 ,[10, 9, 5, 7, 13, 2, 8, 3, 4, 11, 12, 6, 1]);
makespan = 1774;
----------
assign = array1d(1..13 ,[1, 4, 4, 4, 4, 4, 4, 4, 4, 1, 2, 3, 4]);
next = array1d(1..13 ,[10, 9, 5, 7, 13, 2, 8, 3, 4, 11, 12, 6, 1]);
makespan = 1773;
----------
assign = array1d(1..13 ,[1, 4, 4, 4, 4, 4, 4, 4, 4, 1, 2, 3, 4]);
next = array1d(1..13 ,[10, 9, 5, 7, 13, 2, 8, 3, 4, 11, 12, 6, 1]);
makespan = 1772;
----------
assign = array1d(1..13 ,[1, 4, 4, 4, 4, 4, 4, 4, 4, 1, 2, 3, 4]);
next = array1d(1..13 ,[10, 9, 5, 7, 13, 2, 8, 3, 4, 11, 12, 6, 1]);
makespan = 1769;
----------
assign = array1d(1..13 ,[1, 4, 4, 4, 4, 4, 4, 4, 4, 1, 2, 3, 4]);
next = array1d(1..13 ,[10, 9, 5, 7, 13, 2, 8, 3, 4, 11, 12, 6, 1]);
makespan = 1704;
----------
assign = array1d(1..13 ,[1, 4, 4, 4, 4, 4, 4, 4, 4, 1, 2, 3, 4]);
next = array1d(1..13 ,[10, 13, 5, 7, 6, 2, 8, 3, 4, 11, 12, 9, 1]);
makespan = 1689;
----------
assign = array1d(1..13 ,[1, 4, 4, 4, 4, 4, 4, 4, 4, 1, 2, 3, 4]);
next = array1d(1..13 ,[10, 13, 5, 7, 6, 2, 8, 3, 4, 11, 12, 9, 1]);
makespan = 1687;
----------
assign = array1d(1..13 ,[4, 4, 4, 4, 4, 4, 4, 4, 2, 1, 2, 3, 4]);
next = array1d(1..13 ,[13, 1, 5, 7, 6, 2, 8, 3, 11, 9, 12, 4, 10]);
makespan = 1680;
----------
assign = array1d(1..13 ,[4, 4, 4, 4, 4, 4, 4, 4, 2, 1, 2, 3, 4]);
next = array1d(1..13 ,[13, 1, 5, 7, 6, 2, 8, 3, 11, 9, 12, 4, 10]);
makespan = 1675;
----------
assign = array1d(1..13 ,[4, 4, 4, 4, 4, 4, 4, 4, 2, 1, 2, 3, 4]);
next = array1d(1..13 ,[13, 1, 5, 7, 6, 2, 8, 3, 11, 9, 12, 4, 10]);
makespan = 1674;
----------
assign = array1d(1..13 ,[1, 4, 4, 4, 4, 4, 4, 4, 2, 1, 2, 3, 4]);
next = array1d(1..13 ,[10, 13, 5, 7, 6, 2, 8, 3, 11, 9, 12, 4, 1]);
makespan = 1669;
----------
assign = array1d(1..13 ,[1, 4, 4, 4, 4, 4, 4, 4, 2, 1, 2, 3, 4]);
next = array1d(1..13 ,[10, 13, 5, 7, 6, 2, 8, 3, 11, 9, 12, 4, 1]);
makespan = 1667;
----------
assign = array1d(1..13 ,[1, 4, 4, 4, 4, 4, 4, 4, 2, 1, 2, 3, 4]);
next = array1d(1..13 ,[10, 13, 5, 7, 6, 2, 8, 3, 11, 9, 12, 4, 1]);
makespan = 1666;
----------
assign = array1d(1..13 ,[1, 4, 4, 4, 4, 4, 4, 4, 2, 1, 2, 3, 4]);
next = array1d(1..13 ,[10, 13, 5, 7, 6, 2, 8, 3, 11, 9, 12, 4, 1]);
makespan = 1663;
----------
assign = array1d(1..13 ,[1, 4, 4, 4, 4, 4, 4, 4, 2, 1, 2, 3, 4]);
next = array1d(1..13 ,[10, 13, 5, 7, 6, 2, 8, 3, 11, 9, 12, 4, 1]);
makespan = 1658;
----------
assign = array1d(1..13 ,[1, 4, 4, 4, 4, 4, 4, 4, 2, 1, 2, 3, 4]);
next = array1d(1..13 ,[10, 13, 5, 7, 6, 2, 8, 3, 11, 9, 12, 4, 1]);
makespan = 1657;
----------
assign = array1d(1..13 ,[1, 4, 4, 4, 4, 4, 4, 4, 2, 1, 2, 3, 4]);
next = array1d(1..13 ,[10, 13, 5, 7, 6, 2, 8, 3, 11, 9, 12, 4, 1]);
makespan = 1655;
----------
assign = array1d(1..13 ,[1, 4, 4, 4, 4, 4, 4, 4, 2, 1, 2, 3, 4]);
next = array1d(1..13 ,[10, 13, 5, 7, 6, 2, 8, 3, 11, 9, 12, 4, 1]);
makespan = 1654;
----------
assign = array1d(1..13 ,[1, 4, 4, 4, 4, 4, 4, 4, 2, 1, 2, 3, 4]);
next = array1d(1..13 ,[10, 13, 5, 7, 6, 2, 8, 3, 11, 9, 12, 4, 1]);
makespan = 1649;
----------
assign = array1d(1..13 ,[1, 4, 4, 4, 4, 4, 4, 4, 2, 1, 2, 3, 4]);
next = array1d(1..13 ,[10, 13, 5, 7, 6, 2, 8, 3, 11, 9, 12, 4, 1]);
makespan = 1648;
----------
assign = array1d(1..13 ,[1, 4, 4, 4, 4, 4, 4, 4, 2, 1, 2, 3, 4]);
next = array1d(1..13 ,[10, 13, 5, 7, 6, 2, 8, 3, 11, 9, 12, 4, 1]);
makespan = 1646;
----------
assign = array1d(1..13 ,[1, 4, 4, 4, 4, 4, 4, 4, 2, 1, 2, 3, 4]);
next = array1d(1..13 ,[10, 13, 5, 7, 6, 2, 8, 3, 11, 9, 12, 4, 1]);
makespan = 1642;
----------
assign = array1d(1..13 ,[1, 4, 4, 4, 4, 4, 4, 4, 2, 1, 2, 3, 4]);
next = array1d(1..13 ,[10, 13, 5, 7, 6, 2, 8, 3, 11, 9, 12, 4, 1]);
makespan = 1640;
----------
assign = array1d(1..13 ,[1, 4, 4, 4, 4, 4, 4, 4, 2, 1, 2, 3, 4]);
next = array1d(1..13 ,[10, 13, 5, 7, 6, 2, 8, 3, 11, 9, 12, 4, 1]);
makespan = 1638;
----------
assign = array1d(1..13 ,[1, 4, 4, 4, 4, 4, 4, 4, 2, 1, 2, 3, 4]);
next = array1d(1..13 ,[10, 13, 5, 7, 6, 2, 8, 3, 11, 9, 12, 4, 1]);
makespan = 1637;
----------
assign = array1d(1..13 ,[1, 4, 4, 4, 4, 4, 4, 4, 2, 1, 2, 3, 4]);
next = array1d(1..13 ,[10, 13, 5, 7, 6, 2, 8, 3, 11, 9, 12, 4, 1]);
makespan = 1636;
----------
assign = array1d(1..13 ,[1, 4, 4, 4, 4, 4, 4, 4, 2, 1, 2, 3, 4]);
next = array1d(1..13 ,[10, 13, 5, 7, 6, 2, 8, 3, 11, 9, 12, 4, 1]);
makespan = 1634;
----------
assign = array1d(1..13 ,[1, 4, 4, 4, 4, 4, 4, 4, 2, 1, 2, 3, 4]);
next = array1d(1..13 ,[10, 13, 5, 7, 6, 2, 8, 3, 11, 9, 12, 4, 1]);
makespan = 1633;
----------
assign = array1d(1..13 ,[1, 4, 4, 4, 4, 4, 4, 4, 2, 1, 2, 3, 4]);
next = array1d(1..13 ,[10, 13, 5, 7, 6, 2, 8, 3, 11, 9, 12, 4, 1]);
makespan = 1628;
----------
assign = array1d(1..13 ,[1, 4, 4, 4, 4, 4, 4, 4, 2, 1, 2, 3, 4]);
next = array1d(1..13 ,[10, 13, 5, 7, 6, 2, 8, 3, 11, 9, 12, 4, 1]);
makespan = 1626;
----------
assign = array1d(1..13 ,[1, 4, 4, 4, 4, 4, 4, 4, 2, 1, 2, 3, 4]);
next = array1d(1..13 ,[10, 13, 5, 7, 6, 2, 8, 3, 11, 9, 12, 4, 1]);
makespan = 1625;
----------
assign = array1d(1..13 ,[1, 4, 4, 4, 4, 4, 4, 4, 2, 1, 2, 3, 4]);
next = array1d(1..13 ,[10, 13, 5, 7, 6, 2, 8, 3, 11, 9, 12, 4, 1]);
makespan = 1620;
----------
assign = array1d(1..13 ,[1, 4, 4, 4, 4, 4, 4, 4, 2, 1, 2, 3, 4]);
next = array1d(1..13 ,[10, 13, 5, 7, 6, 2, 8, 3, 11, 9, 12, 4, 1]);
makespan = 1617;
----------
assign = array1d(1..13 ,[1, 4, 4, 4, 4, 4, 4, 4, 2, 1, 2, 3, 4]);
next = array1d(1..13 ,[10, 13, 5, 7, 6, 2, 8, 3, 11, 9, 12, 4, 1]);
makespan = 1607;
----------
assign = array1d(1..13 ,[1, 4, 4, 4, 4, 4, 4, 4, 2, 1, 2, 3, 4]);
next = array1d(1..13 ,[10, 13, 5, 7, 6, 2, 8, 3, 11, 9, 12, 4, 1]);
makespan = 1558;
----------
assign = array1d(1..13 ,[1, 4, 4, 4, 4, 4, 4, 4, 2, 1, 2, 3, 4]);
next = array1d(1..13 ,[10, 13, 5, 7, 6, 2, 8, 3, 11, 9, 12, 4, 1]);
makespan = 1545;
----------
assign = array1d(1..13 ,[1, 4, 4, 4, 4, 4, 4, 4, 2, 1, 2, 3, 4]);
next = array1d(1..13 ,[10, 13, 5, 7, 6, 2, 8, 3, 11, 9, 12, 4, 1]);
makespan = 1543;
----------
assign = array1d(1..13 ,[1, 4, 4, 4, 4, 4, 4, 4, 2, 1, 2, 3, 4]);
next = array1d(1..13 ,[10, 13, 5, 7, 6, 2, 8, 3, 11, 9, 12, 4, 1]);
makespan = 1537;
----------
assign = array1d(1..13 ,[1, 4, 4, 4, 4, 4, 4, 4, 2, 1, 2, 3, 4]);
next = array1d(1..13 ,[10, 13, 5, 7, 6, 2, 8, 3, 11, 9, 12, 4, 1]);
makespan = 1531;
----------
assign = array1d(1..13 ,[1, 4, 4, 4, 4, 4, 4, 4, 2, 1, 2, 3, 4]);
next = array1d(1..13 ,[10, 13, 5, 7, 6, 2, 8, 3, 11, 9, 12, 4, 1]);
makespan = 1529;
----------
assign = array1d(1..13 ,[1, 4, 4, 4, 4, 4, 4, 4, 2, 1, 2, 3, 4]);
next = array1d(1..13 ,[10, 13, 5, 7, 6, 2, 8, 3, 11, 9, 12, 4, 1]);
makespan = 1528;
----------
assign = array1d(1..13 ,[1, 4, 4, 4, 4, 4, 4, 4, 2, 1, 2, 3, 4]);
next = array1d(1..13 ,[10, 13, 5, 7, 6, 2, 8, 3, 11, 9, 12, 4, 1]);
makespan = 1523;
----------
assign = array1d(1..13 ,[1, 4, 4, 4, 4, 4, 4, 4, 2, 1, 2, 3, 4]);
next = array1d(1..13 ,[10, 13, 5, 7, 6, 2, 8, 3, 11, 9, 12, 4, 1]);
makespan = 1522;
----------
assign = array1d(1..13 ,[1, 4, 4, 4, 4, 4, 4, 4, 2, 1, 2, 3, 4]);
next = array1d(1..13 ,[10, 13, 5, 7, 6, 2, 8, 3, 11, 9, 12, 4, 1]);
makespan = 1520;
----------
assign = array1d(1..13 ,[1, 4, 4, 4, 4, 4, 4, 4, 2, 1, 2, 3, 4]);
next = array1d(1..13 ,[10, 13, 5, 7, 6, 2, 8, 3, 11, 9, 12, 4, 1]);
makespan = 1519;
----------
assign = array1d(1..13 ,[1, 4, 4, 4, 4, 4, 4, 4, 2, 1, 2, 3, 4]);
next = array1d(1..13 ,[10, 13, 5, 7, 6, 2, 8, 3, 11, 9, 12, 4, 1]);
makespan = 1517;
----------
assign = array1d(1..13 ,[1, 4, 4, 4, 4, 4, 4, 4, 2, 1, 2, 3, 4]);
next = array1d(1..13 ,[10, 13, 5, 7, 6, 2, 8, 3, 11, 9, 12, 4, 1]);
makespan = 1516;
----------
assign = array1d(1..13 ,[1, 4, 4, 4, 4, 4, 4, 4, 2, 1, 2, 3, 4]);
next = array1d(1..13 ,[10, 13, 5, 7, 6, 2, 8, 3, 11, 9, 12, 4, 1]);
makespan = 1514;
----------
assign = array1d(1..13 ,[1, 4, 4, 4, 4, 4, 4, 4, 2, 1, 2, 3, 4]);
next = array1d(1..13 ,[10, 13, 5, 7, 6, 2, 8, 3, 11, 9, 12, 4, 1]);
makespan = 1512;
----------
assign = array1d(1..13 ,[1, 4, 4, 4, 4, 4, 4, 4, 2, 1, 2, 3, 4]);
next = array1d(1..13 ,[10, 13, 5, 7, 6, 2, 8, 3, 11, 9, 12, 4, 1]);
makespan = 1511;
----------
assign = array1d(1..13 ,[1, 4, 4, 4, 4, 4, 4, 4, 2, 1, 2, 3, 4]);
next = array1d(1..13 ,[10, 13, 5, 7, 6, 2, 8, 3, 11, 9, 12, 4, 1]);
makespan = 1510;
----------
assign = array1d(1..13 ,[1, 4, 4, 4, 4, 4, 4, 4, 2, 1, 2, 3, 4]);
next = array1d(1..13 ,[10, 13, 5, 7, 6, 2, 8, 3, 11, 9, 12, 4, 1]);
makespan = 1508;
----------
assign = array1d(1..13 ,[1, 4, 4, 4, 4, 4, 4, 4, 2, 1, 2, 3, 4]);
next = array1d(1..13 ,[10, 13, 5, 7, 6, 2, 8, 3, 11, 9, 12, 4, 1]);
makespan = 1507;
----------
assign = array1d(1..13 ,[1, 4, 4, 4, 4, 4, 4, 4, 2, 1, 2, 3, 4]);
next = array1d(1..13 ,[10, 13, 5, 7, 6, 2, 8, 3, 11, 9, 12, 4, 1]);
makespan = 1504;
----------
assign = array1d(1..13 ,[1, 4, 4, 4, 4, 4, 4, 4, 2, 1, 2, 3, 4]);
next = array1d(1..13 ,[10, 13, 5, 7, 6, 2, 8, 3, 11, 9, 12, 4, 1]);
makespan = 1502;
----------
assign = array1d(1..13 ,[1, 4, 4, 4, 4, 4, 4, 4, 2, 1, 2, 3, 4]);
next = array1d(1..13 ,[10, 13, 5, 7, 6, 2, 8, 3, 11, 9, 12, 4, 1]);
makespan = 1500;
----------
assign = array1d(1..13 ,[1, 4, 4, 4, 4, 4, 4, 4, 2, 1, 2, 3, 4]);
next = array1d(1..13 ,[10, 13, 5, 7, 6, 2, 8, 3, 11, 9, 12, 4, 1]);
makespan = 1499;
----------
assign = array1d(1..13 ,[1, 4, 4, 4, 4, 4, 4, 4, 2, 1, 2, 3, 4]);
next = array1d(1..13 ,[10, 13, 5, 7, 6, 2, 8, 3, 11, 9, 12, 4, 1]);
makespan = 1498;
----------
assign = array1d(1..13 ,[1, 4, 4, 4, 4, 4, 4, 4, 2, 1, 2, 3, 4]);
next = array1d(1..13 ,[10, 13, 5, 7, 6, 2, 8, 3, 11, 9, 12, 4, 1]);
makespan = 1496;
----------
assign = array1d(1..13 ,[1, 4, 4, 4, 4, 4, 4, 4, 2, 1, 2, 3, 4]);
next = array1d(1..13 ,[10, 13, 5, 7, 6, 2, 8, 3, 11, 9, 12, 4, 1]);
makespan = 1495;
----------
assign = array1d(1..13 ,[1, 4, 4, 4, 4, 4, 4, 4, 2, 1, 2, 3, 4]);
next = array1d(1..13 ,[10, 13, 5, 7, 6, 2, 8, 3, 11, 9, 12, 4, 1]);
makespan = 1494;
----------
assign = array1d(1..13 ,[1, 4, 4, 4, 4, 4, 4, 4, 2, 1, 2, 3, 4]);
next = array1d(1..13 ,[10, 13, 5, 7, 6, 2, 8, 3, 11, 9, 12, 4, 1]);
makespan = 1493;
----------
assign = array1d(1..13 ,[1, 4, 4, 4, 4, 4, 4, 4, 2, 1, 2, 3, 4]);
next = array1d(1..13 ,[10, 13, 5, 7, 6, 2, 8, 3, 11, 9, 12, 4, 1]);
makespan = 1491;
----------
assign = array1d(1..13 ,[1, 4, 4, 4, 4, 4, 4, 4, 2, 1, 2, 3, 4]);
next = array1d(1..13 ,[10, 13, 5, 7, 6, 2, 8, 3, 11, 9, 12, 4, 1]);
makespan = 1490;
----------
assign = array1d(1..13 ,[1, 4, 4, 4, 4, 4, 4, 4, 2, 1, 2, 3, 4]);
next = array1d(1..13 ,[10, 13, 5, 7, 6, 2, 8, 3, 11, 9, 12, 4, 1]);
makespan = 1489;
----------
assign = array1d(1..13 ,[1, 4, 4, 4, 4, 4, 4, 4, 2, 1, 2, 3, 4]);
next = array1d(1..13 ,[10, 13, 5, 7, 6, 2, 8, 3, 11, 9, 12, 4, 1]);
makespan = 1488;
----------
assign = array1d(1..13 ,[1, 4, 4, 4, 4, 4, 4, 4, 2, 1, 2, 3, 4]);
next = array1d(1..13 ,[10, 13, 5, 7, 6, 2, 8, 3, 11, 9, 12, 4, 1]);
makespan = 1487;
----------
assign = array1d(1..13 ,[1, 4, 4, 4, 4, 4, 4, 4, 2, 1, 2, 3, 4]);
next = array1d(1..13 ,[10, 13, 5, 7, 6, 2, 8, 3, 11, 9, 12, 4, 1]);
makespan = 1482;
----------
assign = array1d(1..13 ,[1, 4, 4, 4, 4, 4, 4, 4, 2, 1, 2, 3, 4]);
next = array1d(1..13 ,[10, 13, 5, 7, 6, 2, 8, 3, 11, 9, 12, 4, 1]);
makespan = 1481;
----------
assign = array1d(1..13 ,[1, 4, 4, 4, 4, 4, 4, 4, 2, 1, 2, 3, 4]);
next = array1d(1..13 ,[10, 13, 5, 7, 6, 2, 8, 3, 11, 9, 12, 4, 1]);
makespan = 1479;
----------
assign = array1d(1..13 ,[1, 4, 4, 4, 4, 4, 4, 4, 2, 1, 2, 3, 4]);
next = array1d(1..13 ,[10, 13, 5, 7, 6, 2, 8, 3, 11, 9, 12, 4, 1]);
makespan = 1478;
----------
assign = array1d(1..13 ,[1, 4, 4, 4, 4, 4, 4, 4, 2, 1, 2, 3, 4]);
next = array1d(1..13 ,[10, 13, 5, 7, 6, 2, 8, 3, 11, 9, 12, 4, 1]);
makespan = 1473;
----------
assign = array1d(1..13 ,[1, 4, 4, 4, 4, 4, 4, 4, 2, 1, 2, 3, 4]);
next = array1d(1..13 ,[10, 13, 5, 7, 6, 2, 8, 3, 11, 9, 12, 4, 1]);
makespan = 1471;
----------
assign = array1d(1..13 ,[1, 4, 4, 4, 4, 4, 4, 4, 2, 1, 2, 3, 4]);
next = array1d(1..13 ,[10, 13, 5, 7, 6, 2, 8, 3, 11, 9, 12, 4, 1]);
makespan = 1470;
----------
assign = array1d(1..13 ,[1, 4, 4, 4, 4, 4, 4, 4, 2, 1, 2, 3, 4]);
next = array1d(1..13 ,[10, 13, 5, 7, 6, 2, 8, 3, 11, 9, 12, 4, 1]);
makespan = 1461;
----------
assign = array1d(1..13 ,[1, 4, 4, 4, 4, 4, 4, 4, 2, 1, 2, 3, 4]);
next = array1d(1..13 ,[10, 4, 5, 7, 13, 2, 8, 3, 11, 9, 12, 6, 1]);
makespan = 1452;
----------
assign = array1d(1..13 ,[1, 4, 4, 4, 4, 4, 4, 4, 2, 1, 2, 3, 4]);
next = array1d(1..13 ,[10, 4, 5, 13, 6, 2, 8, 3, 11, 9, 12, 7, 1]);
makespan = 1446;
----------
assign = array1d(1..13 ,[1, 4, 4, 1, 4, 4, 4, 4, 2, 1, 2, 3, 4]);
next = array1d(1..13 ,[10, 13, 5, 1, 6, 2, 8, 3, 11, 9, 12, 7, 4]);
makespan = 1408;
----------
assign = array1d(1..13 ,[1, 4, 4, 1, 4, 4, 4, 4, 2, 1, 2, 3, 4]);
next = array1d(1..13 ,[10, 13, 5, 1, 6, 2, 8, 3, 11, 9, 12, 7, 4]);
makespan = 1407;
----------
assign = array1d(1..13 ,[1, 4, 4, 1, 4, 4, 4, 4, 2, 1, 2, 3, 4]);
next = array1d(1..13 ,[10, 13, 5, 1, 6, 2, 8, 3, 11, 9, 12, 7, 4]);
makespan = 1401;
----------
assign = array1d(1..13 ,[1, 4, 4, 1, 4, 4, 4, 4, 2, 1, 2, 3, 4]);
next = array1d(1..13 ,[10, 13, 5, 1, 6, 2, 8, 3, 11, 9, 12, 7, 4]);
makespan = 1399;
----------
assign = array1d(1..13 ,[1, 4, 4, 1, 4, 4, 4, 4, 2, 1, 2, 3, 4]);
next = array1d(1..13 ,[10, 13, 5, 1, 6, 2, 8, 3, 11, 9, 12, 7, 4]);
makespan = 1393;
----------
assign = array1d(1..13 ,[1, 4, 4, 1, 4, 4, 4, 4, 2, 1, 2, 3, 4]);
next = array1d(1..13 ,[10, 13, 5, 1, 6, 2, 8, 3, 11, 9, 12, 7, 4]);
makespan = 1391;
----------
assign = array1d(1..13 ,[1, 4, 4, 1, 4, 4, 4, 4, 2, 1, 2, 3, 4]);
next = array1d(1..13 ,[10, 13, 5, 1, 6, 2, 8, 3, 11, 9, 12, 7, 4]);
makespan = 1390;
----------
assign = array1d(1..13 ,[1, 4, 4, 1, 4, 4, 4, 4, 2, 1, 2, 3, 4]);
next = array1d(1..13 ,[10, 13, 5, 1, 6, 2, 8, 3, 11, 9, 12, 7, 4]);
makespan = 1385;
----------
assign = array1d(1..13 ,[1, 4, 4, 1, 4, 4, 4, 4, 2, 1, 2, 3, 4]);
next = array1d(1..13 ,[10, 13, 5, 1, 6, 2, 8, 3, 11, 9, 12, 7, 4]);
makespan = 1384;
----------
assign = array1d(1..13 ,[1, 4, 4, 1, 4, 4, 4, 4, 2, 1, 2, 3, 4]);
next = array1d(1..13 ,[10, 13, 5, 1, 6, 2, 8, 3, 11, 9, 12, 7, 4]);
makespan = 1382;
----------
assign = array1d(1..13 ,[1, 4, 4, 1, 4, 4, 4, 4, 2, 1, 2, 3, 4]);
next = array1d(1..13 ,[10, 13, 5, 1, 6, 2, 8, 3, 11, 9, 12, 7, 4]);
makespan = 1378;
----------
assign = array1d(1..13 ,[1, 4, 4, 1, 4, 4, 4, 4, 2, 1, 2, 3, 4]);
next = array1d(1..13 ,[10, 13, 5, 1, 6, 2, 8, 3, 11, 9, 12, 7, 4]);
makespan = 1376;
----------
assign = array1d(1..13 ,[1, 4, 4, 1, 4, 4, 4, 4, 2, 1, 2, 3, 4]);
next = array1d(1..13 ,[10, 13, 5, 1, 6, 2, 8, 3, 11, 9, 12, 7, 4]);
makespan = 1374;
----------
assign = array1d(1..13 ,[1, 4, 4, 1, 4, 4, 4, 4, 2, 1, 2, 3, 4]);
next = array1d(1..13 ,[10, 13, 5, 1, 6, 2, 8, 3, 11, 9, 12, 7, 4]);
makespan = 1373;
----------
assign = array1d(1..13 ,[1, 4, 4, 1, 4, 4, 4, 4, 2, 1, 2, 3, 4]);
next = array1d(1..13 ,[10, 13, 5, 1, 6, 2, 8, 3, 11, 9, 12, 7, 4]);
makespan = 1372;
----------
assign = array1d(1..13 ,[1, 4, 4, 1, 4, 4, 4, 4, 2, 1, 2, 3, 4]);
next = array1d(1..13 ,[10, 13, 5, 1, 6, 2, 8, 3, 11, 9, 12, 7, 4]);
makespan = 1370;
----------
assign = array1d(1..13 ,[1, 4, 4, 1, 4, 4, 4, 4, 2, 1, 2, 3, 4]);
next = array1d(1..13 ,[10, 13, 5, 1, 6, 2, 8, 3, 11, 9, 12, 7, 4]);
makespan = 1369;
----------
assign = array1d(1..13 ,[1, 4, 4, 1, 4, 4, 4, 4, 2, 1, 2, 3, 4]);
next = array1d(1..13 ,[10, 13, 5, 1, 6, 2, 8, 3, 11, 9, 12, 7, 4]);
makespan = 1368;
----------
assign = array1d(1..13 ,[1, 4, 4, 1, 4, 4, 4, 4, 2, 1, 2, 3, 4]);
next = array1d(1..13 ,[10, 13, 5, 1, 6, 2, 8, 3, 11, 9, 12, 7, 4]);
makespan = 1367;
----------
assign = array1d(1..13 ,[1, 4, 4, 1, 4, 4, 4, 4, 2, 1, 2, 3, 4]);
next = array1d(1..13 ,[10, 13, 5, 1, 6, 2, 8, 3, 11, 9, 12, 7, 4]);
makespan = 1365;
----------
assign = array1d(1..13 ,[1, 4, 4, 1, 4, 4, 4, 4, 2, 1, 2, 3, 4]);
next = array1d(1..13 ,[10, 13, 5, 1, 6, 2, 8, 3, 11, 9, 12, 7, 4]);
makespan = 1364;
----------
assign = array1d(1..13 ,[1, 4, 4, 1, 4, 4, 4, 4, 2, 1, 2, 3, 4]);
next = array1d(1..13 ,[10, 13, 5, 1, 6, 2, 8, 3, 11, 9, 12, 7, 4]);
makespan = 1363;
----------
assign = array1d(1..13 ,[1, 4, 4, 1, 4, 4, 4, 4, 2, 1, 2, 3, 4]);
next = array1d(1..13 ,[10, 13, 5, 1, 6, 2, 8, 3, 11, 9, 12, 7, 4]);
makespan = 1362;
----------
assign = array1d(1..13 ,[1, 4, 4, 1, 4, 4, 4, 4, 2, 1, 2, 3, 4]);
next = array1d(1..13 ,[10, 13, 5, 1, 6, 2, 8, 3, 11, 9, 12, 7, 4]);
makespan = 1361;
----------
assign = array1d(1..13 ,[1, 4, 4, 1, 4, 4, 4, 4, 2, 1, 2, 3, 4]);
next = array1d(1..13 ,[10, 13, 5, 1, 6, 2, 8, 3, 11, 9, 12, 7, 4]);
makespan = 1360;
----------
assign = array1d(1..13 ,[1, 4, 4, 1, 4, 4, 4, 4, 2, 1, 2, 3, 4]);
next = array1d(1..13 ,[10, 13, 5, 1, 6, 2, 8, 3, 11, 9, 12, 7, 4]);
makespan = 1357;
----------
assign = array1d(1..13 ,[1, 4, 4, 1, 4, 4, 4, 4, 2, 1, 2, 3, 4]);
next = array1d(1..13 ,[10, 13, 5, 1, 6, 2, 8, 3, 11, 9, 12, 7, 4]);
makespan = 1356;
----------
assign = array1d(1..13 ,[1, 4, 4, 1, 4, 4, 4, 4, 2, 1, 2, 3, 4]);
next = array1d(1..13 ,[10, 13, 5, 1, 6, 2, 8, 3, 11, 9, 12, 7, 4]);
makespan = 1355;
----------
assign = array1d(1..13 ,[1, 4, 4, 1, 4, 4, 4, 4, 2, 1, 2, 3, 4]);
next = array1d(1..13 ,[10, 13, 5, 1, 6, 2, 8, 3, 11, 9, 12, 7, 4]);
makespan = 1353;
----------
assign = array1d(1..13 ,[1, 4, 4, 1, 4, 4, 4, 4, 2, 1, 2, 3, 4]);
next = array1d(1..13 ,[10, 13, 5, 1, 6, 2, 8, 3, 11, 9, 12, 7, 4]);
makespan = 1352;
----------
assign = array1d(1..13 ,[1, 4, 4, 1, 4, 4, 4, 4, 2, 1, 2, 3, 4]);
next = array1d(1..13 ,[10, 13, 5, 1, 6, 2, 8, 3, 11, 9, 12, 7, 4]);
makespan = 1351;
----------
assign = array1d(1..13 ,[1, 4, 4, 1, 4, 4, 4, 4, 2, 1, 2, 3, 4]);
next = array1d(1..13 ,[10, 13, 5, 1, 6, 2, 8, 3, 11, 9, 12, 7, 4]);
makespan = 1350;
----------
assign = array1d(1..13 ,[1, 4, 4, 1, 4, 4, 4, 4, 2, 1, 2, 3, 4]);
next = array1d(1..13 ,[10, 13, 5, 1, 6, 2, 8, 3, 11, 9, 12, 7, 4]);
makespan = 1349;
----------
assign = array1d(1..13 ,[1, 4, 4, 1, 4, 4, 4, 4, 2, 1, 2, 3, 4]);
next = array1d(1..13 ,[10, 13, 5, 1, 6, 2, 8, 3, 11, 9, 12, 7, 4]);
makespan = 1347;
----------
assign = array1d(1..13 ,[1, 4, 4, 1, 4, 4, 4, 4, 2, 1, 2, 3, 4]);
next = array1d(1..13 ,[10, 13, 5, 1, 6, 2, 8, 3, 11, 9, 12, 7, 4]);
makespan = 1345;
----------
assign = array1d(1..13 ,[1, 4, 4, 1, 4, 4, 4, 4, 2, 1, 2, 3, 4]);
next = array1d(1..13 ,[10, 13, 5, 1, 6, 2, 8, 3, 11, 9, 12, 7, 4]);
makespan = 1344;
----------
assign = array1d(1..13 ,[1, 4, 4, 1, 4, 4, 4, 4, 2, 1, 2, 3, 4]);
next = array1d(1..13 ,[10, 13, 5, 1, 6, 2, 8, 3, 11, 9, 12, 7, 4]);
makespan = 1343;
----------
assign = array1d(1..13 ,[1, 4, 4, 1, 4, 4, 4, 4, 2, 1, 2, 3, 4]);
next = array1d(1..13 ,[10, 13, 5, 1, 6, 2, 8, 3, 11, 9, 12, 7, 4]);
makespan = 1341;
----------
assign = array1d(1..13 ,[1, 4, 4, 1, 4, 4, 4, 4, 2, 1, 2, 3, 4]);
next = array1d(1..13 ,[10, 13, 5, 1, 6, 2, 8, 3, 11, 9, 12, 7, 4]);
makespan = 1340;
----------
assign = array1d(1..13 ,[1, 4, 4, 1, 4, 4, 4, 4, 2, 1, 2, 3, 4]);
next = array1d(1..13 ,[10, 13, 5, 1, 6, 2, 8, 3, 11, 9, 12, 7, 4]);
makespan = 1335;
----------
assign = array1d(1..13 ,[1, 4, 4, 1, 4, 4, 4, 4, 2, 1, 2, 3, 4]);
next = array1d(1..13 ,[10, 13, 5, 1, 6, 2, 8, 3, 11, 9, 12, 7, 4]);
makespan = 1334;
----------
assign = array1d(1..13 ,[1, 4, 4, 1, 4, 4, 4, 4, 2, 1, 2, 3, 4]);
next = array1d(1..13 ,[10, 13, 5, 1, 6, 2, 8, 3, 11, 9, 12, 7, 4]);
makespan = 1333;
----------
assign = array1d(1..13 ,[1, 4, 4, 1, 4, 4, 4, 4, 2, 1, 2, 3, 4]);
next = array1d(1..13 ,[10, 13, 5, 1, 6, 2, 8, 3, 11, 9, 12, 7, 4]);
makespan = 1332;
----------
assign = array1d(1..13 ,[1, 4, 4, 1, 4, 4, 4, 4, 2, 1, 2, 3, 4]);
next = array1d(1..13 ,[10, 13, 5, 1, 6, 2, 8, 3, 11, 9, 12, 7, 4]);
makespan = 1331;
----------
assign = array1d(1..13 ,[1, 4, 4, 1, 4, 4, 4, 4, 2, 1, 2, 3, 4]);
next = array1d(1..13 ,[10, 13, 5, 1, 6, 2, 8, 3, 11, 9, 12, 7, 4]);
makespan = 1328;
----------
assign = array1d(1..13 ,[1, 4, 4, 1, 4, 4, 4, 4, 2, 1, 2, 3, 4]);
next = array1d(1..13 ,[10, 13, 5, 1, 6, 2, 8, 3, 11, 9, 12, 7, 4]);
makespan = 1327;
----------
assign = array1d(1..13 ,[1, 4, 4, 1, 4, 4, 4, 4, 2, 1, 2, 3, 4]);
next = array1d(1..13 ,[10, 13, 5, 1, 6, 2, 8, 3, 11, 9, 12, 7, 4]);
makespan = 1326;
----------
assign = array1d(1..13 ,[1, 4, 4, 1, 4, 4, 4, 4, 2, 1, 2, 3, 4]);
next = array1d(1..13 ,[10, 13, 5, 1, 6, 2, 8, 3, 11, 9, 12, 7, 4]);
makespan = 1324;
----------
assign = array1d(1..13 ,[1, 4, 4, 1, 4, 4, 4, 4, 2, 1, 2, 3, 4]);
next = array1d(1..13 ,[10, 13, 5, 1, 6, 2, 8, 3, 11, 9, 12, 7, 4]);
makespan = 1320;
----------
assign = array1d(1..13 ,[1, 4, 4, 1, 4, 4, 4, 4, 2, 1, 2, 3, 4]);
next = array1d(1..13 ,[10, 13, 5, 1, 6, 2, 8, 3, 11, 9, 12, 7, 4]);
makespan = 1317;
----------
assign = array1d(1..13 ,[1, 4, 4, 1, 4, 4, 4, 4, 2, 1, 2, 3, 4]);
next = array1d(1..13 ,[10, 13, 5, 1, 6, 2, 8, 3, 11, 9, 12, 7, 4]);
makespan = 1305;
----------
assign = array1d(1..13 ,[1, 4, 4, 1, 4, 4, 4, 4, 2, 1, 2, 3, 4]);
next = array1d(1..13 ,[10, 13, 5, 1, 6, 2, 8, 3, 11, 9, 12, 7, 4]);
makespan = 1274;
----------
assign = array1d(1..13 ,[1, 4, 4, 1, 4, 4, 4, 4, 2, 1, 2, 3, 4]);
next = array1d(1..13 ,[10, 13, 5, 1, 6, 2, 8, 3, 11, 9, 12, 7, 4]);
makespan = 1270;
----------
assign = array1d(1..13 ,[1, 4, 4, 1, 4, 4, 4, 4, 2, 1, 2, 3, 4]);
next = array1d(1..13 ,[10, 13, 5, 1, 6, 2, 8, 3, 11, 9, 12, 7, 4]);
makespan = 1267;
----------
assign = array1d(1..13 ,[1, 4, 4, 1, 4, 4, 4, 4, 2, 1, 2, 3, 4]);
next = array1d(1..13 ,[10, 13, 5, 1, 6, 2, 8, 3, 11, 9, 12, 7, 4]);
makespan = 1256;
----------
assign = array1d(1..13 ,[1, 4, 4, 1, 4, 4, 4, 4, 2, 1, 2, 3, 4]);
next = array1d(1..13 ,[10, 13, 5, 1, 6, 2, 8, 3, 11, 9, 12, 7, 4]);
makespan = 1255;
----------
assign = array1d(1..13 ,[1, 4, 4, 1, 4, 4, 4, 4, 2, 1, 2, 3, 4]);
next = array1d(1..13 ,[10, 7, 5, 1, 13, 2, 8, 3, 11, 9, 12, 6, 4]);
makespan = 1249;
----------
assign = array1d(1..13 ,[1, 4, 4, 1, 4, 4, 4, 4, 2, 1, 2, 3, 4]);
next = array1d(1..13 ,[10, 7, 5, 1, 13, 2, 8, 3, 11, 9, 12, 6, 4]);
makespan = 1247;
----------
assign = array1d(1..13 ,[1, 4, 4, 1, 4, 4, 4, 4, 2, 1, 2, 3, 4]);
next = array1d(1..13 ,[10, 7, 5, 1, 13, 2, 8, 3, 11, 9, 12, 6, 4]);
makespan = 1246;
----------
assign = array1d(1..13 ,[1, 4, 4, 1, 4, 4, 4, 4, 2, 1, 2, 3, 4]);
next = array1d(1..13 ,[10, 7, 5, 1, 13, 2, 8, 3, 11, 9, 12, 6, 4]);
makespan = 1244;
----------
assign = array1d(1..13 ,[1, 4, 4, 1, 4, 4, 4, 4, 2, 1, 2, 3, 4]);
next = array1d(1..13 ,[10, 7, 5, 1, 6, 2, 8, 13, 11, 9, 12, 3, 4]);
makespan = 1242;
----------
assign = array1d(1..13 ,[1, 4, 4, 4, 1, 4, 4, 4, 1, 1, 2, 3, 4]);
next = array1d(1..13 ,[5, 7, 13, 6, 9, 2, 8, 3, 10, 11, 12, 4, 1]);
makespan = 1238;
----------
assign = array1d(1..13 ,[1, 4, 4, 4, 1, 4, 4, 4, 1, 1, 2, 3, 4]);
next = array1d(1..13 ,[5, 7, 13, 6, 9, 2, 8, 3, 10, 11, 12, 4, 1]);
makespan = 1237;
----------
assign = array1d(1..13 ,[1, 4, 4, 1, 1, 4, 4, 4, 1, 1, 2, 3, 4]);
next = array1d(1..13 ,[10, 13, 6, 9, 1, 2, 8, 3, 5, 11, 12, 7, 4]);
makespan = 1236;
----------
assign = array1d(1..13 ,[1, 4, 4, 1, 1, 4, 4, 4, 1, 1, 2, 3, 4]);
next = array1d(1..13 ,[10, 13, 6, 9, 1, 2, 8, 3, 5, 11, 12, 7, 4]);
makespan = 1235;
----------
assign = array1d(1..13 ,[1, 4, 4, 1, 1, 4, 4, 4, 1, 1, 2, 3, 4]);
next = array1d(1..13 ,[10, 13, 6, 9, 1, 2, 8, 3, 5, 11, 12, 7, 4]);
makespan = 1234;
----------
assign = array1d(1..13 ,[1, 4, 4, 1, 1, 4, 4, 4, 1, 1, 2, 3, 4]);
next = array1d(1..13 ,[10, 13, 6, 9, 1, 2, 8, 3, 5, 11, 12, 7, 4]);
makespan = 1231;
----------
assign = array1d(1..13 ,[1, 4, 4, 1, 1, 4, 4, 4, 1, 1, 2, 3, 4]);
next = array1d(1..13 ,[10, 13, 6, 9, 1, 2, 8, 3, 5, 11, 12, 7, 4]);
makespan = 1230;
----------
assign = array1d(1..13 ,[1, 4, 4, 1, 1, 4, 4, 4, 1, 1, 2, 3, 4]);
next = array1d(1..13 ,[10, 13, 6, 9, 1, 2, 8, 3, 5, 11, 12, 7, 4]);
makespan = 1229;
----------
assign = array1d(1..13 ,[1, 4, 4, 1, 1, 4, 4, 4, 1, 1, 2, 3, 4]);
next = array1d(1..13 ,[10, 13, 6, 9, 1, 2, 8, 3, 5, 11, 12, 7, 4]);
makespan = 1227;
----------
assign = array1d(1..13 ,[1, 4, 4, 1, 1, 4, 4, 4, 1, 1, 2, 3, 4]);
next = array1d(1..13 ,[10, 13, 6, 9, 1, 2, 8, 3, 5, 11, 12, 7, 4]);
makespan = 1226;
----------
assign = array1d(1..13 ,[1, 4, 4, 1, 1, 4, 4, 4, 1, 1, 2, 3, 4]);
next = array1d(1..13 ,[10, 13, 6, 9, 1, 2, 8, 3, 5, 11, 12, 7, 4]);
makespan = 1225;
----------
assign = array1d(1..13 ,[1, 4, 4, 1, 1, 4, 4, 4, 1, 1, 2, 3, 4]);
next = array1d(1..13 ,[10, 13, 6, 9, 1, 2, 8, 3, 5, 11, 12, 7, 4]);
makespan = 1224;
----------
assign = array1d(1..13 ,[1, 4, 4, 1, 1, 4, 4, 4, 1, 1, 2, 3, 4]);
next = array1d(1..13 ,[10, 13, 6, 9, 1, 2, 8, 3, 5, 11, 12, 7, 4]);
makespan = 1223;
----------
assign = array1d(1..13 ,[1, 4, 4, 1, 1, 4, 4, 4, 1, 1, 2, 3, 4]);
next = array1d(1..13 ,[10, 13, 6, 9, 1, 2, 8, 3, 5, 11, 12, 7, 4]);
makespan = 1221;
----------
assign = array1d(1..13 ,[1, 4, 4, 1, 1, 4, 4, 4, 1, 1, 2, 3, 4]);
next = array1d(1..13 ,[10, 13, 6, 9, 1, 2, 8, 3, 5, 11, 12, 7, 4]);
makespan = 1218;
----------
assign = array1d(1..13 ,[1, 4, 4, 1, 1, 4, 4, 4, 1, 1, 2, 3, 4]);
next = array1d(1..13 ,[10, 13, 6, 9, 1, 2, 8, 3, 5, 11, 12, 7, 4]);
makespan = 1217;
----------
assign = array1d(1..13 ,[1, 4, 4, 1, 1, 4, 4, 4, 1, 1, 2, 3, 4]);
next = array1d(1..13 ,[10, 13, 6, 9, 1, 2, 8, 3, 5, 11, 12, 7, 4]);
makespan = 1215;
----------
assign = array1d(1..13 ,[1, 4, 4, 1, 1, 4, 4, 4, 1, 1, 2, 3, 4]);
next = array1d(1..13 ,[10, 13, 6, 9, 1, 2, 8, 3, 5, 11, 12, 7, 4]);
makespan = 1214;
----------
assign = array1d(1..13 ,[1, 4, 4, 1, 1, 4, 4, 4, 1, 1, 2, 3, 4]);
next = array1d(1..13 ,[10, 13, 6, 9, 1, 2, 8, 3, 5, 11, 12, 7, 4]);
makespan = 1213;
----------
assign = array1d(1..13 ,[1, 4, 4, 1, 1, 4, 4, 4, 1, 1, 2, 3, 4]);
next = array1d(1..13 ,[10, 13, 6, 9, 1, 2, 8, 3, 5, 11, 12, 7, 4]);
makespan = 1209;
----------
assign = array1d(1..13 ,[1, 4, 4, 1, 1, 4, 4, 4, 1, 1, 2, 3, 4]);
next = array1d(1..13 ,[10, 13, 6, 9, 1, 2, 8, 3, 5, 11, 12, 7, 4]);
makespan = 1208;
----------
assign = array1d(1..13 ,[1, 4, 4, 1, 1, 4, 4, 4, 1, 1, 2, 3, 4]);
next = array1d(1..13 ,[10, 13, 6, 9, 1, 2, 8, 3, 5, 11, 12, 7, 4]);
makespan = 1207;
----------
assign = array1d(1..13 ,[1, 4, 4, 1, 1, 4, 4, 4, 1, 1, 2, 3, 4]);
next = array1d(1..13 ,[10, 13, 6, 9, 1, 2, 8, 3, 5, 11, 12, 7, 4]);
makespan = 1206;
----------
assign = array1d(1..13 ,[1, 4, 4, 1, 1, 4, 4, 4, 1, 1, 2, 3, 4]);
next = array1d(1..13 ,[10, 13, 6, 9, 1, 2, 8, 3, 5, 11, 12, 7, 4]);
makespan = 1205;
----------
assign = array1d(1..13 ,[1, 4, 4, 1, 1, 4, 4, 4, 1, 1, 2, 3, 4]);
next = array1d(1..13 ,[10, 13, 6, 9, 1, 2, 8, 3, 5, 11, 12, 7, 4]);
makespan = 1202;
----------
assign = array1d(1..13 ,[1, 4, 4, 1, 1, 4, 4, 4, 1, 1, 2, 3, 4]);
next = array1d(1..13 ,[10, 13, 6, 9, 1, 2, 8, 3, 5, 11, 12, 7, 4]);
makespan = 1201;
----------
assign = array1d(1..13 ,[1, 4, 4, 1, 1, 4, 4, 4, 1, 1, 2, 3, 4]);
next = array1d(1..13 ,[10, 13, 6, 9, 1, 2, 8, 3, 5, 11, 12, 7, 4]);
makespan = 1200;
----------
assign = array1d(1..13 ,[1, 4, 4, 1, 1, 4, 4, 4, 1, 1, 2, 3, 4]);
next = array1d(1..13 ,[10, 13, 6, 9, 1, 2, 8, 3, 5, 11, 12, 7, 4]);
makespan = 1198;
----------
assign = array1d(1..13 ,[1, 4, 4, 1, 1, 4, 4, 4, 1, 1, 2, 3, 4]);
next = array1d(1..13 ,[10, 13, 6, 9, 1, 2, 8, 3, 5, 11, 12, 7, 4]);
makespan = 1197;
----------
assign = array1d(1..13 ,[1, 4, 4, 1, 1, 4, 4, 4, 1, 1, 2, 3, 4]);
next = array1d(1..13 ,[10, 13, 6, 9, 1, 2, 8, 3, 5, 11, 12, 7, 4]);
makespan = 1196;
----------
assign = array1d(1..13 ,[1, 4, 4, 1, 1, 4, 4, 4, 1, 1, 2, 3, 4]);
next = array1d(1..13 ,[10, 13, 6, 9, 1, 2, 8, 3, 5, 11, 12, 7, 4]);
makespan = 1195;
----------
assign = array1d(1..13 ,[1, 4, 4, 1, 1, 4, 4, 4, 1, 1, 2, 3, 4]);
next = array1d(1..13 ,[10, 13, 6, 9, 1, 2, 8, 3, 5, 11, 12, 7, 4]);
makespan = 1194;
----------
assign = array1d(1..13 ,[1, 4, 4, 1, 1, 4, 4, 4, 1, 1, 2, 3, 4]);
next = array1d(1..13 ,[10, 13, 6, 9, 1, 2, 8, 3, 5, 11, 12, 7, 4]);
makespan = 1193;
----------
assign = array1d(1..13 ,[1, 4, 4, 1, 1, 4, 4, 4, 1, 1, 2, 3, 4]);
next = array1d(1..13 ,[10, 13, 6, 9, 1, 2, 8, 3, 5, 11, 12, 7, 4]);
makespan = 1189;
----------
assign = array1d(1..13 ,[1, 4, 4, 1, 1, 4, 4, 4, 1, 1, 2, 3, 4]);
next = array1d(1..13 ,[10, 13, 6, 9, 1, 2, 8, 3, 5, 11, 12, 7, 4]);
makespan = 1188;
----------
assign = array1d(1..13 ,[1, 4, 4, 1, 1, 4, 4, 4, 1, 1, 2, 3, 4]);
next = array1d(1..13 ,[10, 13, 6, 9, 1, 2, 8, 3, 5, 11, 12, 7, 4]);
makespan = 1186;
----------
assign = array1d(1..13 ,[1, 4, 4, 1, 1, 4, 4, 4, 1, 1, 2, 3, 4]);
next = array1d(1..13 ,[10, 13, 6, 9, 1, 2, 8, 3, 5, 11, 12, 7, 4]);
makespan = 1183;
----------
assign = array1d(1..13 ,[1, 4, 4, 1, 1, 4, 4, 4, 1, 1, 2, 3, 4]);
next = array1d(1..13 ,[10, 13, 6, 9, 1, 2, 8, 3, 5, 11, 12, 7, 4]);
makespan = 1182;
----------
assign = array1d(1..13 ,[1, 4, 4, 1, 1, 4, 4, 4, 1, 1, 2, 3, 4]);
next = array1d(1..13 ,[10, 13, 6, 9, 1, 2, 8, 3, 5, 11, 12, 7, 4]);
makespan = 1180;
----------
assign = array1d(1..13 ,[1, 4, 4, 1, 1, 4, 4, 4, 1, 1, 2, 3, 4]);
next = array1d(1..13 ,[10, 13, 6, 9, 1, 2, 8, 3, 5, 11, 12, 7, 4]);
makespan = 1176;
----------
assign = array1d(1..13 ,[1, 4, 4, 1, 1, 4, 4, 4, 1, 1, 2, 3, 4]);
next = array1d(1..13 ,[10, 13, 6, 9, 1, 2, 8, 3, 5, 11, 12, 7, 4]);
makespan = 1143;
----------
assign = array1d(1..13 ,[1, 4, 4, 1, 1, 4, 4, 4, 1, 1, 2, 3, 4]);
next = array1d(1..13 ,[10, 13, 6, 9, 1, 2, 8, 3, 5, 11, 12, 7, 4]);
makespan = 1138;
----------
assign = array1d(1..13 ,[1, 4, 4, 1, 1, 4, 4, 4, 1, 1, 2, 3, 4]);
next = array1d(1..13 ,[10, 13, 6, 9, 1, 2, 8, 3, 5, 11, 12, 7, 4]);
makespan = 1134;
----------
assign = array1d(1..13 ,[1, 4, 4, 1, 1, 4, 4, 4, 1, 1, 2, 3, 4]);
next = array1d(1..13 ,[10, 13, 6, 9, 1, 2, 8, 3, 5, 11, 12, 7, 4]);
makespan = 1126;
----------
assign = array1d(1..13 ,[1, 4, 4, 1, 1, 4, 4, 4, 1, 1, 2, 3, 4]);
next = array1d(1..13 ,[10, 13, 6, 9, 1, 2, 8, 3, 5, 11, 12, 7, 4]);
makespan = 1119;
----------
assign = array1d(1..13 ,[1, 4, 4, 1, 1, 4, 4, 4, 1, 1, 2, 3, 4]);
next = array1d(1..13 ,[10, 13, 6, 9, 1, 2, 8, 3, 5, 11, 12, 7, 4]);
makespan = 1118;
----------
assign = array1d(1..13 ,[1, 4, 4, 1, 1, 4, 4, 4, 1, 1, 2, 3, 4]);
next = array1d(1..13 ,[10, 13, 6, 9, 1, 2, 8, 3, 5, 11, 12, 7, 4]);
makespan = 1112;
----------
assign = array1d(1..13 ,[1, 4, 4, 1, 1, 4, 4, 4, 1, 1, 2, 3, 4]);
next = array1d(1..13 ,[10, 13, 6, 9, 1, 2, 8, 3, 5, 11, 12, 7, 4]);
makespan = 1111;
----------
assign = array1d(1..13 ,[1, 4, 4, 1, 1, 4, 4, 4, 1, 1, 2, 3, 4]);
next = array1d(1..13 ,[10, 13, 6, 9, 1, 2, 8, 3, 5, 11, 12, 7, 4]);
makespan = 1100;
----------
assign = array1d(1..13 ,[1, 4, 4, 1, 1, 4, 4, 4, 1, 1, 2, 3, 4]);
next = array1d(1..13 ,[10, 13, 6, 9, 1, 2, 8, 3, 5, 11, 12, 7, 4]);
makespan = 1099;
----------
assign = array1d(1..13 ,[1, 4, 4, 1, 1, 4, 4, 4, 1, 1, 2, 3, 4]);
next = array1d(1..13 ,[10, 13, 6, 9, 1, 2, 8, 3, 5, 11, 12, 7, 4]);
makespan = 1095;
----------
assign = array1d(1..13 ,[1, 4, 4, 1, 1, 4, 4, 4, 1, 1, 2, 3, 4]);
next = array1d(1..13 ,[10, 13, 6, 9, 1, 2, 8, 3, 5, 11, 12, 7, 4]);
makespan = 1092;
----------
assign = array1d(1..13 ,[1, 4, 4, 1, 1, 4, 4, 4, 1, 1, 2, 3, 4]);
next = array1d(1..13 ,[10, 13, 6, 9, 1, 2, 8, 3, 5, 11, 12, 7, 4]);
makespan = 1091;
----------
assign = array1d(1..13 ,[1, 4, 4, 1, 1, 4, 4, 4, 1, 1, 2, 3, 4]);
next = array1d(1..13 ,[10, 13, 6, 9, 1, 2, 8, 3, 5, 11, 12, 7, 4]);
makespan = 1087;
----------
assign = array1d(1..13 ,[1, 4, 4, 1, 1, 4, 4, 4, 1, 1, 2, 3, 4]);
next = array1d(1..13 ,[10, 13, 6, 9, 1, 2, 8, 3, 5, 11, 12, 7, 4]);
makespan = 1083;
----------
assign = array1d(1..13 ,[1, 4, 4, 1, 1, 4, 4, 4, 1, 1, 2, 3, 4]);
next = array1d(1..13 ,[10, 13, 6, 9, 1, 2, 8, 3, 5, 11, 12, 7, 4]);
makespan = 1080;
----------
assign = array1d(1..13 ,[1, 4, 4, 1, 1, 4, 4, 4, 1, 1, 2, 3, 4]);
next = array1d(1..13 ,[10, 13, 6, 9, 1, 2, 8, 3, 5, 11, 12, 7, 4]);
makespan = 1079;
----------
assign = array1d(1..13 ,[1, 4, 4, 1, 1, 4, 4, 4, 1, 1, 2, 3, 4]);
next = array1d(1..13 ,[10, 13, 6, 9, 1, 2, 8, 3, 5, 11, 12, 7, 4]);
makespan = 1076;
----------
assign = array1d(1..13 ,[1, 4, 4, 1, 1, 4, 4, 4, 1, 1, 2, 3, 4]);
next = array1d(1..13 ,[10, 13, 6, 9, 1, 2, 8, 3, 5, 11, 12, 7, 4]);
makespan = 1071;
----------
assign = array1d(1..13 ,[1, 4, 4, 1, 1, 4, 4, 4, 1, 1, 2, 3, 4]);
next = array1d(1..13 ,[10, 13, 6, 9, 1, 2, 8, 3, 5, 11, 12, 7, 4]);
makespan = 1070;
----------
assign = array1d(1..13 ,[1, 4, 4, 1, 1, 4, 4, 4, 1, 1, 2, 3, 4]);
next = array1d(1..13 ,[10, 13, 6, 9, 1, 2, 8, 3, 5, 11, 12, 7, 4]);
makespan = 1069;
----------
assign = array1d(1..13 ,[1, 4, 4, 1, 1, 4, 4, 4, 1, 1, 2, 3, 4]);
next = array1d(1..13 ,[10, 13, 6, 9, 1, 2, 8, 3, 5, 11, 12, 7, 4]);
makespan = 1068;
----------
assign = array1d(1..13 ,[1, 4, 4, 1, 1, 4, 4, 4, 1, 1, 2, 3, 4]);
next = array1d(1..13 ,[10, 13, 6, 9, 1, 2, 8, 3, 5, 11, 12, 7, 4]);
makespan = 1064;
----------
assign = array1d(1..13 ,[1, 4, 4, 1, 1, 4, 4, 4, 1, 1, 2, 3, 4]);
next = array1d(1..13 ,[10, 7, 13, 9, 1, 2, 8, 3, 5, 11, 12, 6, 4]);
makespan = 1063;
----------
assign = array1d(1..13 ,[1, 4, 4, 1, 1, 4, 4, 4, 1, 1, 2, 3, 4]);
next = array1d(1..13 ,[10, 7, 13, 9, 1, 2, 8, 3, 5, 11, 12, 6, 4]);
makespan = 1062;
----------
assign = array1d(1..13 ,[1, 4, 4, 1, 1, 4, 4, 4, 1, 1, 2, 3, 4]);
next = array1d(1..13 ,[10, 7, 13, 9, 1, 2, 8, 3, 5, 11, 12, 6, 4]);
makespan = 1060;
----------
assign = array1d(1..13 ,[1, 4, 4, 1, 1, 4, 4, 4, 1, 1, 2, 3, 4]);
next = array1d(1..13 ,[10, 7, 13, 9, 1, 2, 8, 3, 5, 11, 12, 6, 4]);
makespan = 1054;
----------
assign = array1d(1..13 ,[1, 4, 4, 1, 1, 4, 4, 4, 1, 1, 2, 3, 4]);
next = array1d(1..13 ,[10, 7, 13, 9, 1, 2, 8, 3, 5, 11, 12, 6, 4]);
makespan = 1050;
----------
assign = array1d(1..13 ,[1, 4, 4, 1, 1, 4, 4, 4, 1, 1, 2, 3, 4]);
next = array1d(1..13 ,[10, 7, 13, 9, 1, 2, 8, 3, 5, 11, 12, 6, 4]);
makespan = 1041;
----------
assign = array1d(1..13 ,[1, 4, 4, 1, 1, 4, 4, 4, 1, 1, 2, 3, 4]);
next = array1d(1..13 ,[10, 7, 13, 9, 1, 2, 8, 3, 5, 11, 12, 6, 4]);
makespan = 1039;
----------
assign = array1d(1..13 ,[1, 4, 4, 1, 1, 4, 4, 4, 1, 1, 2, 3, 4]);
next = array1d(1..13 ,[10, 7, 6, 9, 1, 2, 13, 3, 5, 11, 12, 8, 4]);
makespan = 1038;
----------
assign = array1d(1..13 ,[1, 4, 4, 1, 1, 4, 4, 4, 1, 1, 2, 3, 4]);
next = array1d(1..13 ,[10, 7, 6, 9, 1, 2, 13, 3, 5, 11, 12, 8, 4]);
makespan = 1033;
----------
assign = array1d(1..13 ,[2, 4, 4, 4, 2, 4, 2, 4, 2, 1, 2, 3, 4]);
next = array1d(1..13 ,[11, 4, 6, 13, 9, 2, 1, 3, 7, 5, 12, 8, 10]);
makespan = 1024;
----------
assign = array1d(1..13 ,[2, 4, 4, 4, 2, 4, 2, 4, 2, 1, 2, 3, 4]);
next = array1d(1..13 ,[11, 4, 6, 13, 9, 2, 1, 3, 7, 5, 12, 8, 10]);
makespan = 1018;
----------
assign = array1d(1..13 ,[2, 4, 4, 4, 2, 4, 2, 4, 2, 1, 2, 3, 4]);
next = array1d(1..13 ,[11, 4, 6, 13, 9, 2, 1, 3, 7, 5, 12, 8, 10]);
makespan = 1016;
----------
assign = array1d(1..13 ,[2, 4, 4, 4, 2, 4, 2, 4, 2, 1, 2, 3, 4]);
next = array1d(1..13 ,[11, 4, 6, 13, 9, 2, 1, 3, 7, 5, 12, 8, 10]);
makespan = 1014;
----------
assign = array1d(1..13 ,[2, 4, 4, 1, 1, 4, 2, 4, 2, 1, 2, 3, 4]);
next = array1d(1..13 ,[11, 13, 6, 5, 10, 2, 1, 3, 7, 9, 12, 8, 4]);
makespan = 1001;
----------
assign = array1d(1..13 ,[2, 4, 4, 1, 1, 4, 2, 4, 2, 1, 2, 3, 4]);
next = array1d(1..13 ,[11, 13, 6, 5, 10, 2, 1, 3, 7, 9, 12, 8, 4]);
makespan = 988;
----------
assign = array1d(1..13 ,[2, 4, 4, 1, 1, 4, 2, 4, 2, 1, 2, 3, 4]);
next = array1d(1..13 ,[11, 13, 6, 5, 10, 2, 1, 3, 7, 9, 12, 8, 4]);
makespan = 978;
----------
assign = array1d(1..13 ,[3, 4, 4, 1, 1, 4, 3, 4, 3, 1, 2, 3, 4]);
next = array1d(1..13 ,[12, 13, 6, 5, 10, 2, 1, 3, 7, 11, 9, 8, 4]);
makespan = 966;
----------
assign = array1d(1..13 ,[3, 4, 4, 1, 1, 4, 1, 4, 1, 1, 2, 3, 4]);
next = array1d(1..13 ,[12, 13, 6, 5, 9, 2, 10, 3, 7, 11, 1, 8, 4]);
makespan = 961;
----------
assign = array1d(1..13 ,[3, 4, 4, 1, 1, 4, 1, 4, 1, 1, 2, 3, 4]);
next = array1d(1..13 ,[12, 13, 6, 5, 9, 2, 10, 3, 7, 11, 1, 8, 4]);
makespan = 959;
----------
assign = array1d(1..13 ,[3, 4, 4, 1, 1, 4, 1, 4, 1, 1, 2, 3, 4]);
next = array1d(1..13 ,[12, 13, 6, 5, 9, 2, 10, 3, 7, 11, 1, 8, 4]);
makespan = 952;
----------
assign = array1d(1..13 ,[3, 4, 4, 1, 1, 4, 1, 4, 1, 1, 2, 3, 4]);
next = array1d(1..13 ,[12, 13, 6, 5, 9, 2, 10, 3, 7, 11, 1, 8, 4]);
makespan = 945;
----------
assign = array1d(1..13 ,[3, 4, 4, 1, 1, 4, 1, 4, 1, 1, 2, 3, 4]);
next = array1d(1..13 ,[12, 13, 6, 5, 9, 2, 10, 3, 7, 11, 1, 8, 4]);
makespan = 933;
----------
assign = array1d(1..13 ,[3, 4, 4, 1, 1, 4, 1, 4, 1, 1, 2, 3, 4]);
next = array1d(1..13 ,[12, 13, 6, 5, 9, 2, 10, 3, 7, 11, 1, 8, 4]);
makespan = 932;
----------
assign = array1d(1..13 ,[3, 4, 4, 1, 1, 4, 1, 4, 1, 1, 2, 3, 4]);
next = array1d(1..13 ,[12, 13, 6, 5, 9, 2, 10, 3, 7, 11, 1, 8, 4]);
makespan = 925;
----------
assign = array1d(1..13 ,[3, 4, 4, 1, 1, 4, 1, 4, 1, 1, 2, 3, 4]);
next = array1d(1..13 ,[12, 13, 6, 5, 9, 2, 10, 3, 7, 11, 1, 8, 4]);
makespan = 924;
----------
assign = array1d(1..13 ,[3, 4, 4, 1, 1, 4, 1, 4, 1, 1, 2, 3, 4]);
next = array1d(1..13 ,[12, 13, 6, 5, 9, 2, 10, 3, 7, 11, 1, 8, 4]);
makespan = 916;
----------
assign = array1d(1..13 ,[3, 4, 4, 1, 1, 4, 1, 4, 1, 1, 2, 3, 4]);
next = array1d(1..13 ,[12, 13, 6, 5, 9, 2, 10, 3, 7, 11, 1, 8, 4]);
makespan = 913;
----------
assign = array1d(1..13 ,[3, 4, 4, 1, 1, 4, 1, 4, 1, 1, 2, 3, 4]);
next = array1d(1..13 ,[12, 13, 6, 5, 9, 2, 10, 3, 7, 11, 1, 8, 4]);
makespan = 909;
----------
assign = array1d(1..13 ,[3, 4, 4, 1, 1, 4, 1, 4, 1, 1, 2, 3, 4]);
next = array1d(1..13 ,[12, 13, 6, 5, 9, 2, 10, 3, 7, 11, 1, 8, 4]);
makespan = 906;
----------
assign = array1d(1..13 ,[3, 4, 4, 1, 1, 4, 1, 4, 1, 1, 2, 3, 4]);
next = array1d(1..13 ,[12, 13, 6, 5, 9, 2, 10, 3, 7, 11, 1, 8, 4]);
makespan = 903;
----------
assign = array1d(1..13 ,[3, 4, 4, 1, 1, 4, 1, 4, 1, 1, 2, 3, 4]);
next = array1d(1..13 ,[12, 13, 6, 5, 9, 2, 10, 3, 7, 11, 1, 8, 4]);
makespan = 902;
----------
assign = array1d(1..13 ,[3, 4, 4, 1, 1, 4, 1, 4, 1, 1, 2, 3, 4]);
next = array1d(1..13 ,[12, 13, 6, 5, 9, 2, 10, 3, 7, 11, 1, 8, 4]);
makespan = 901;
----------
assign = array1d(1..13 ,[3, 4, 4, 1, 1, 4, 1, 4, 1, 1, 2, 3, 4]);
next = array1d(1..13 ,[12, 13, 6, 5, 9, 2, 10, 3, 7, 11, 1, 8, 4]);
makespan = 900;
----------
assign = array1d(1..13 ,[3, 4, 4, 1, 1, 4, 1, 4, 1, 1, 2, 3, 4]);
next = array1d(1..13 ,[12, 13, 6, 5, 9, 2, 10, 3, 7, 11, 1, 8, 4]);
makespan = 898;
----------
assign = array1d(1..13 ,[3, 4, 4, 1, 1, 4, 1, 4, 1, 1, 2, 3, 4]);
next = array1d(1..13 ,[12, 13, 6, 5, 9, 2, 10, 3, 7, 11, 1, 8, 4]);
makespan = 894;
----------
assign = array1d(1..13 ,[3, 4, 4, 1, 1, 4, 1, 4, 1, 1, 2, 3, 4]);
next = array1d(1..13 ,[12, 13, 6, 5, 9, 2, 10, 3, 7, 11, 1, 8, 4]);
makespan = 891;
----------
assign = array1d(1..13 ,[3, 4, 4, 1, 1, 4, 1, 4, 1, 1, 2, 3, 4]);
next = array1d(1..13 ,[12, 13, 6, 5, 9, 2, 10, 3, 7, 11, 1, 8, 4]);
makespan = 890;
----------
assign = array1d(1..13 ,[3, 4, 4, 1, 1, 4, 1, 4, 1, 1, 2, 3, 4]);
next = array1d(1..13 ,[12, 13, 6, 5, 9, 2, 10, 3, 7, 11, 1, 8, 4]);
makespan = 884;
----------
assign = array1d(1..13 ,[3, 4, 4, 1, 1, 4, 1, 4, 1, 1, 2, 3, 4]);
next = array1d(1..13 ,[12, 13, 6, 5, 9, 2, 10, 3, 7, 11, 1, 8, 4]);
makespan = 877;
----------
assign = array1d(1..13 ,[3, 4, 4, 1, 1, 4, 1, 4, 1, 1, 2, 3, 4]);
next = array1d(1..13 ,[12, 13, 6, 5, 9, 2, 10, 3, 7, 11, 1, 8, 4]);
makespan = 871;
----------
assign = array1d(1..13 ,[3, 4, 4, 1, 1, 4, 1, 4, 1, 1, 2, 3, 4]);
next = array1d(1..13 ,[12, 13, 6, 5, 9, 2, 10, 3, 7, 11, 1, 8, 4]);
makespan = 858;
----------
assign = array1d(1..13 ,[3, 4, 4, 1, 1, 4, 1, 4, 1, 1, 2, 3, 4]);
next = array1d(1..13 ,[12, 13, 6, 5, 9, 2, 10, 3, 7, 11, 1, 8, 4]);
makespan = 845;
----------
assign = array1d(1..13 ,[3, 4, 4, 1, 1, 4, 1, 4, 1, 1, 2, 3, 4]);
next = array1d(1..13 ,[12, 13, 6, 5, 9, 2, 10, 3, 7, 11, 1, 8, 4]);
makespan = 836;
----------
assign = array1d(1..13 ,[3, 4, 4, 1, 1, 4, 1, 4, 1, 1, 2, 3, 4]);
next = array1d(1..13 ,[12, 13, 6, 5, 9, 2, 10, 3, 7, 11, 1, 8, 4]);
makespan = 835;
----------
assign = array1d(1..13 ,[3, 4, 4, 1, 1, 4, 1, 4, 1, 1, 2, 3, 4]);
next = array1d(1..13 ,[12, 13, 6, 5, 9, 2, 10, 3, 7, 11, 1, 8, 4]);
makespan = 823;
----------
assign = array1d(1..13 ,[3, 4, 4, 2, 2, 4, 2, 4, 2, 1, 2, 3, 4]);
next = array1d(1..13 ,[12, 6, 13, 5, 11, 8, 4, 3, 7, 9, 1, 2, 10]);
makespan = 820;
----------
assign = array1d(1..13 ,[3, 2, 3, 4, 4, 3, 4, 3, 4, 1, 2, 3, 4]);
next = array1d(1..13 ,[8, 11, 12, 5, 13, 1, 4, 3, 7, 2, 6, 9, 10]);
makespan = 817;
----------
assign = array1d(1..13 ,[4, 2, 2, 4, 4, 2, 3, 4, 3, 1, 2, 3, 4]);
next = array1d(1..13 ,[8, 11, 6, 5, 1, 2, 12, 13, 7, 3, 9, 4, 10]);
makespan = 815;
----------
assign = array1d(1..13 ,[4, 2, 2, 4, 4, 2, 3, 4, 3, 1, 2, 3, 4]);
next = array1d(1..13 ,[8, 11, 6, 5, 13, 2, 12, 4, 7, 3, 9, 1, 10]);
makespan = 808;
----------
assign = array1d(1..13 ,[4, 2, 2, 4, 4, 2, 3, 4, 3, 1, 2, 3, 4]);
next = array1d(1..13 ,[8, 11, 6, 5, 13, 2, 12, 4, 7, 3, 9, 1, 10]);
makespan = 791;
----------
assign = array1d(1..13 ,[4, 2, 2, 4, 4, 2, 3, 4, 3, 1, 2, 3, 4]);
next = array1d(1..13 ,[8, 11, 6, 5, 13, 2, 12, 4, 7, 3, 9, 1, 10]);
makespan = 789;
----------
assign = array1d(1..13 ,[4, 2, 2, 4, 4, 2, 3, 4, 3, 1, 2, 3, 4]);
next = array1d(1..13 ,[8, 11, 6, 5, 13, 2, 12, 4, 7, 3, 9, 1, 10]);
makespan = 785;
----------
assign = array1d(1..13 ,[4, 2, 2, 4, 4, 2, 3, 4, 3, 1, 2, 3, 4]);
next = array1d(1..13 ,[8, 11, 6, 5, 13, 2, 12, 4, 7, 3, 9, 1, 10]);
makespan = 781;
----------
assign = array1d(1..13 ,[4, 2, 2, 4, 4, 2, 3, 4, 3, 1, 2, 3, 4]);
next = array1d(1..13 ,[8, 11, 6, 1, 4, 2, 12, 13, 7, 3, 9, 5, 10]);
makespan = 777;
----------
assign = array1d(1..13 ,[3, 2, 3, 4, 4, 3, 4, 4, 2, 1, 2, 3, 4]);
next = array1d(1..13 ,[12, 9, 6, 5, 13, 1, 4, 7, 11, 2, 3, 8, 10]);
makespan = 776;
----------
assign = array1d(1..13 ,[4, 3, 3, 4, 3, 3, 4, 1, 4, 1, 2, 3, 4]);
next = array1d(1..13 ,[13, 12, 6, 1, 3, 2, 4, 10, 7, 11, 5, 9, 8]);
makespan = 775;
----------
assign = array1d(1..13 ,[2, 4, 3, 4, 4, 3, 1, 2, 1, 1, 2, 3, 4]);
next = array1d(1..13 ,[8, 4, 6, 5, 13, 12, 10, 11, 7, 1, 3, 2, 9]);
makespan = 772;
----------
assign = array1d(1..13 ,[3, 1, 3, 4, 1, 4, 4, 3, 4, 1, 2, 3, 4]);
next = array1d(1..13 ,[8, 5, 12, 6, 10, 9, 13, 3, 7, 11, 1, 4, 2]);
makespan = 768;
----------
assign = array1d(1..13 ,[2, 1, 3, 4, 3, 4, 4, 3, 4, 1, 2, 3, 4]);
next = array1d(1..13 ,[11, 10, 5, 6, 8, 9, 13, 12, 7, 1, 3, 4, 2]);
makespan = 765;
----------
assign = array1d(1..13 ,[3, 2, 4, 4, 2, 3, 3, 2, 4, 1, 2, 3, 4]);
next = array1d(1..13 ,[7, 11, 4, 9, 8, 12, 6, 2, 13, 5, 1, 3, 10]);
makespan = 764;
----------
assign = array1d(1..13 ,[3, 3, 4, 4, 2, 4, 3, 2, 4, 1, 2, 3, 4]);
next = array1d(1..13 ,[7, 1, 6, 3, 8, 9, 12, 11, 13, 5, 2, 4, 10]);
makespan = 762;
----------
assign = array1d(1..13 ,[3, 2, 4, 4, 3, 4, 2, 3, 4, 1, 2, 3, 4]);
next = array1d(1..13 ,[5, 11, 13, 6, 8, 9, 2, 12, 3, 7, 1, 4, 10]);
makespan = 761;
----------
assign = array1d(1..13 ,[4, 1, 4, 1, 3, 1, 3, 3, 4, 1, 2, 3, 4]);
next = array1d(1..13 ,[3, 6, 9, 2, 8, 10, 5, 12, 13, 11, 7, 1, 4]);
makespan = 760;
----------
assign = array1d(1..13 ,[1, 1, 4, 1, 3, 4, 3, 3, 4, 1, 2, 3, 4]);
next = array1d(1..13 ,[2, 4, 6, 10, 8, 9, 5, 12, 13, 11, 7, 3, 1]);
makespan = 754;
----------
assign = array1d(1..13 ,[2, 4, 4, 4, 3, 4, 3, 3, 2, 1, 2, 3, 4]);
next = array1d(1..13 ,[11, 4, 6, 3, 8, 13, 5, 12, 1, 9, 7, 2, 10]);
makespan = 753;
----------
assign = array1d(1..13 ,[4, 3, 2, 1, 3, 2, 2, 3, 4, 1, 2, 3, 4]);
next = array1d(1..13 ,[9, 12, 11, 10, 8, 7, 3, 2, 13, 6, 5, 1, 4]);
makespan = 748;
----------
assign = array1d(1..13 ,[1, 3, 4, 1, 3, 4, 4, 3, 1, 1, 2, 3, 4]);
next = array1d(1..13 ,[10, 5, 13, 9, 8, 7, 3, 12, 1, 11, 2, 6, 4]);
makespan = 747;
----------
assign = array1d(1..13 ,[4, 2, 4, 2, 3, 3, 4, 3, 2, 1, 2, 3, 4]);
next = array1d(1..13 ,[13, 4, 1, 9, 8, 12, 3, 6, 11, 2, 5, 7, 10]);
makespan = 746;
----------
assign = array1d(1..13 ,[4, 1, 4, 1, 3, 3, 1, 3, 4, 1, 2, 3, 4]);
next = array1d(1..13 ,[3, 10, 13, 7, 8, 12, 2, 6, 1, 11, 5, 9, 4]);
makespan = 745;
----------
assign = array1d(1..13 ,[4, 4, 3, 1, 3, 1, 3, 1, 4, 1, 2, 3, 4]);
next = array1d(1..13 ,[9, 13, 5, 10, 12, 4, 3, 6, 2, 11, 7, 1, 8]);
makespan = 744;
----------
assign = array1d(1..13 ,[4, 4, 4, 3, 3, 3, 2, 2, 2, 1, 2, 3, 4]);
next = array1d(1..13 ,[3, 1, 13, 12, 6, 4, 9, 11, 8, 7, 5, 2, 10]);
makespan = 743;
----------
assign = array1d(1..13 ,[4, 4, 1, 1, 3, 2, 3, 4, 3, 1, 2, 3, 4]);
next = array1d(1..13 ,[8, 13, 4, 10, 7, 11, 9, 2, 12, 6, 5, 1, 3]);
makespan = 742;
----------
assign = array1d(1..13 ,[4, 2, 4, 4, 2, 3, 3, 2, 3, 1, 2, 3, 4]);
next = array1d(1..13 ,[3, 5, 4, 13, 11, 7, 9, 2, 12, 8, 6, 1, 10]);
makespan = 740;
----------
assign = array1d(1..13 ,[3, 4, 3, 3, 2, 2, 4, 4, 2, 1, 2, 3, 4]);
next = array1d(1..13 ,[3, 7, 4, 12, 6, 9, 13, 2, 11, 5, 1, 8, 10]);
makespan = 739;
----------
assign = array1d(1..13 ,[4, 2, 4, 4, 3, 3, 2, 2, 3, 1, 2, 3, 4]);
next = array1d(1..13 ,[3, 7, 4, 13, 6, 9, 11, 2, 12, 8, 5, 1, 10]);
makespan = 738;
----------
assign = array1d(1..13 ,[2, 4, 2, 2, 3, 3, 4, 4, 3, 1, 2, 3, 4]);
next = array1d(1..13 ,[3, 7, 4, 11, 6, 9, 13, 2, 12, 1, 5, 8, 10]);
makespan = 737;
----------
assign = array1d(1..13 ,[4, 2, 4, 4, 3, 3, 2, 2, 3, 1, 2, 3, 4]);
next = array1d(1..13 ,[3, 7, 4, 13, 6, 9, 11, 2, 12, 8, 5, 1, 10]);
makespan = 736;
----------
assign = array1d(1..13 ,[4, 2, 4, 4, 3, 3, 2, 2, 3, 1, 2, 3, 4]);
next = array1d(1..13 ,[3, 7, 4, 13, 6, 9, 11, 2, 12, 8, 5, 1, 10]);
makespan = 735;
----------
assign = array1d(1..13 ,[4, 2, 4, 4, 3, 3, 2, 2, 3, 1, 2, 3, 4]);
next = array1d(1..13 ,[3, 7, 4, 13, 6, 9, 11, 2, 12, 8, 5, 1, 10]);
makespan = 734;
----------
assign = array1d(1..13 ,[4, 2, 4, 4, 3, 3, 2, 2, 3, 1, 2, 3, 4]);
next = array1d(1..13 ,[3, 7, 4, 13, 6, 9, 11, 2, 12, 8, 5, 1, 10]);
makespan = 733;
----------
assign = array1d(1..13 ,[4, 2, 4, 4, 3, 3, 2, 2, 3, 1, 2, 3, 4]);
next = array1d(1..13 ,[3, 7, 4, 13, 6, 9, 11, 2, 12, 8, 5, 1, 10]);
makespan = 732;
----------
assign = array1d(1..13 ,[4, 2, 4, 4, 3, 3, 2, 2, 3, 1, 2, 3, 4]);
next = array1d(1..13 ,[3, 7, 4, 13, 6, 9, 11, 2, 12, 8, 5, 1, 10]);
makespan = 731;
----------
assign = array1d(1..13 ,[4, 2, 4, 4, 3, 3, 2, 2, 3, 1, 2, 3, 4]);
next = array1d(1..13 ,[3, 7, 4, 13, 6, 9, 11, 2, 12, 8, 5, 1, 10]);
makespan = 730;
----------
assign = array1d(1..13 ,[4, 2, 4, 4, 3, 3, 2, 2, 3, 1, 2, 3, 4]);
next = array1d(1..13 ,[3, 7, 4, 13, 6, 9, 11, 2, 12, 8, 5, 1, 10]);
makespan = 728;
----------
assign = array1d(1..13 ,[4, 2, 4, 4, 3, 3, 2, 2, 3, 1, 2, 3, 4]);
next = array1d(1..13 ,[3, 7, 4, 13, 6, 9, 11, 2, 12, 8, 5, 1, 10]);
makespan = 726;
----------
assign = array1d(1..13 ,[4, 2, 4, 4, 3, 3, 2, 2, 3, 1, 2, 3, 4]);
next = array1d(1..13 ,[3, 7, 4, 13, 6, 9, 11, 2, 12, 8, 5, 1, 10]);
makespan = 725;
----------
assign = array1d(1..13 ,[4, 2, 4, 4, 3, 3, 2, 2, 3, 1, 2, 3, 4]);
next = array1d(1..13 ,[3, 7, 4, 13, 6, 9, 11, 2, 12, 8, 5, 1, 10]);
makespan = 723;
----------
assign = array1d(1..13 ,[4, 2, 4, 4, 3, 3, 2, 2, 3, 1, 2, 3, 4]);
next = array1d(1..13 ,[3, 7, 4, 13, 6, 9, 11, 2, 12, 8, 5, 1, 10]);
makespan = 722;
----------
assign = array1d(1..13 ,[4, 2, 4, 4, 3, 3, 2, 2, 3, 1, 2, 3, 4]);
next = array1d(1..13 ,[3, 7, 4, 13, 6, 9, 11, 2, 12, 8, 5, 1, 10]);
makespan = 721;
----------
assign = array1d(1..13 ,[4, 2, 4, 4, 3, 3, 2, 2, 3, 1, 2, 3, 4]);
next = array1d(1..13 ,[3, 7, 4, 13, 6, 9, 11, 2, 12, 8, 5, 1, 10]);
makespan = 719;
----------
assign = array1d(1..13 ,[4, 2, 4, 4, 3, 3, 2, 2, 3, 1, 2, 3, 4]);
next = array1d(1..13 ,[3, 7, 4, 13, 6, 9, 11, 2, 12, 8, 5, 1, 10]);
makespan = 718;
----------
assign = array1d(1..13 ,[4, 2, 4, 4, 3, 3, 2, 2, 3, 1, 2, 3, 4]);
next = array1d(1..13 ,[3, 7, 4, 13, 6, 9, 11, 2, 12, 8, 5, 1, 10]);
makespan = 717;
----------
assign = array1d(1..13 ,[4, 2, 4, 4, 3, 3, 2, 2, 3, 1, 2, 3, 4]);
next = array1d(1..13 ,[3, 7, 4, 13, 6, 9, 11, 2, 12, 8, 5, 1, 10]);
makespan = 716;
----------
assign = array1d(1..13 ,[4, 2, 4, 4, 3, 3, 2, 2, 3, 1, 2, 3, 4]);
next = array1d(1..13 ,[3, 7, 4, 13, 6, 9, 11, 2, 12, 8, 5, 1, 10]);
makespan = 714;
----------
assign = array1d(1..13 ,[4, 2, 4, 4, 3, 3, 2, 2, 3, 1, 2, 3, 4]);
next = array1d(1..13 ,[3, 7, 4, 13, 6, 9, 11, 2, 12, 8, 5, 1, 10]);
makespan = 713;
----------
assign = array1d(1..13 ,[4, 2, 4, 4, 3, 3, 2, 2, 3, 1, 2, 3, 4]);
next = array1d(1..13 ,[3, 7, 4, 13, 6, 9, 11, 2, 12, 8, 5, 1, 10]);
makespan = 711;
----------
assign = array1d(1..13 ,[4, 2, 4, 4, 3, 3, 2, 2, 3, 1, 2, 3, 4]);
next = array1d(1..13 ,[3, 7, 4, 13, 6, 9, 11, 2, 12, 8, 5, 1, 10]);
makespan = 710;
----------
assign = array1d(1..13 ,[4, 2, 4, 4, 3, 3, 2, 2, 3, 1, 2, 3, 4]);
next = array1d(1..13 ,[3, 7, 4, 13, 6, 9, 11, 2, 12, 8, 5, 1, 10]);
makespan = 708;
----------
assign = array1d(1..13 ,[4, 2, 4, 4, 3, 3, 2, 2, 3, 1, 2, 3, 4]);
next = array1d(1..13 ,[3, 7, 4, 13, 6, 9, 11, 2, 12, 8, 5, 1, 10]);
makespan = 705;
----------
assign = array1d(1..13 ,[4, 2, 4, 4, 3, 3, 2, 2, 3, 1, 2, 3, 4]);
next = array1d(1..13 ,[3, 7, 4, 13, 6, 9, 11, 2, 12, 8, 5, 1, 10]);
makespan = 704;
----------
assign = array1d(1..13 ,[4, 2, 4, 4, 3, 3, 2, 2, 3, 1, 2, 3, 4]);
next = array1d(1..13 ,[3, 7, 4, 13, 6, 9, 11, 2, 12, 8, 5, 1, 10]);
makespan = 698;
----------
assign = array1d(1..13 ,[4, 2, 4, 4, 3, 3, 2, 2, 3, 1, 2, 3, 4]);
next = array1d(1..13 ,[3, 7, 4, 13, 6, 9, 11, 2, 12, 8, 5, 1, 10]);
makespan = 696;
----------
assign = array1d(1..13 ,[4, 2, 4, 4, 3, 3, 2, 2, 3, 1, 2, 3, 4]);
next = array1d(1..13 ,[3, 7, 4, 13, 6, 9, 11, 2, 12, 8, 5, 1, 10]);
makespan = 695;
----------
assign = array1d(1..13 ,[4, 2, 4, 4, 3, 3, 2, 2, 3, 1, 2, 3, 4]);
next = array1d(1..13 ,[3, 7, 4, 13, 6, 9, 11, 2, 12, 8, 5, 1, 10]);
makespan = 694;
----------
assign = array1d(1..13 ,[4, 2, 4, 4, 3, 3, 2, 2, 3, 1, 2, 3, 4]);
next = array1d(1..13 ,[3, 7, 4, 13, 6, 9, 11, 2, 12, 8, 5, 1, 10]);
makespan = 693;
----------
assign = array1d(1..13 ,[4, 2, 4, 4, 3, 3, 2, 2, 3, 1, 2, 3, 4]);
next = array1d(1..13 ,[3, 7, 4, 13, 6, 9, 11, 2, 12, 8, 5, 1, 10]);
makespan = 692;
----------
assign = array1d(1..13 ,[4, 2, 4, 4, 3, 3, 2, 2, 3, 1, 2, 3, 4]);
next = array1d(1..13 ,[3, 7, 4, 13, 6, 9, 11, 2, 12, 8, 5, 1, 10]);
makespan = 691;
----------
assign = array1d(1..13 ,[4, 2, 4, 4, 3, 3, 2, 2, 3, 1, 2, 3, 4]);
next = array1d(1..13 ,[3, 7, 4, 13, 6, 9, 11, 2, 12, 8, 5, 1, 10]);
makespan = 689;
----------
assign = array1d(1..13 ,[4, 2, 4, 4, 3, 3, 2, 2, 3, 1, 2, 3, 4]);
next = array1d(1..13 ,[3, 7, 4, 13, 6, 9, 11, 2, 12, 8, 5, 1, 10]);
makespan = 688;
----------
assign = array1d(1..13 ,[4, 2, 4, 4, 3, 3, 2, 2, 3, 1, 2, 3, 4]);
next = array1d(1..13 ,[3, 7, 4, 13, 6, 9, 11, 2, 12, 8, 5, 1, 10]);
makespan = 687;
----------
assign = array1d(1..13 ,[4, 2, 4, 4, 3, 3, 2, 2, 3, 1, 2, 3, 4]);
next = array1d(1..13 ,[3, 7, 4, 13, 6, 9, 11, 2, 12, 8, 5, 1, 10]);
makespan = 686;
----------
assign = array1d(1..13 ,[4, 2, 4, 4, 3, 3, 2, 2, 3, 1, 2, 3, 4]);
next = array1d(1..13 ,[3, 7, 4, 13, 6, 9, 11, 2, 12, 8, 5, 1, 10]);
makespan = 685;
----------
assign = array1d(1..13 ,[4, 2, 4, 4, 3, 3, 2, 2, 3, 1, 2, 3, 4]);
next = array1d(1..13 ,[3, 7, 4, 13, 6, 9, 11, 2, 12, 8, 5, 1, 10]);
makespan = 684;
----------
assign = array1d(1..13 ,[4, 2, 4, 4, 3, 3, 2, 2, 3, 1, 2, 3, 4]);
next = array1d(1..13 ,[3, 7, 4, 13, 6, 9, 11, 2, 12, 8, 5, 1, 10]);
makespan = 682;
----------
assign = array1d(1..13 ,[4, 2, 4, 4, 3, 3, 2, 2, 3, 1, 2, 3, 4]);
next = array1d(1..13 ,[3, 7, 4, 13, 6, 9, 11, 2, 12, 8, 5, 1, 10]);
makespan = 681;
----------
assign = array1d(1..13 ,[4, 2, 4, 4, 3, 3, 2, 2, 3, 1, 2, 3, 4]);
next = array1d(1..13 ,[3, 7, 4, 13, 6, 9, 11, 2, 12, 8, 5, 1, 10]);
makespan = 679;
----------
assign = array1d(1..13 ,[4, 2, 4, 4, 3, 3, 2, 2, 3, 1, 2, 3, 4]);
next = array1d(1..13 ,[3, 7, 4, 13, 6, 9, 11, 2, 12, 8, 5, 1, 10]);
makespan = 678;
----------
assign = array1d(1..13 ,[4, 2, 4, 4, 3, 3, 2, 2, 3, 1, 2, 3, 4]);
next = array1d(1..13 ,[3, 7, 4, 13, 6, 9, 11, 2, 12, 8, 5, 1, 10]);
makespan = 677;
----------
assign = array1d(1..13 ,[4, 2, 4, 4, 3, 3, 2, 2, 3, 1, 2, 3, 4]);
next = array1d(1..13 ,[3, 7, 4, 13, 6, 9, 11, 2, 12, 8, 5, 1, 10]);
makespan = 674;
----------
assign = array1d(1..13 ,[4, 2, 4, 4, 3, 3, 2, 2, 3, 1, 2, 3, 4]);
next = array1d(1..13 ,[3, 7, 4, 13, 6, 9, 11, 2, 12, 8, 5, 1, 10]);
makespan = 673;
----------
assign = array1d(1..13 ,[4, 2, 4, 4, 3, 3, 2, 2, 3, 1, 2, 3, 4]);
next = array1d(1..13 ,[3, 7, 4, 13, 6, 9, 11, 2, 12, 8, 5, 1, 10]);
makespan = 672;
----------
assign = array1d(1..13 ,[4, 2, 4, 4, 3, 3, 2, 2, 3, 1, 2, 3, 4]);
next = array1d(1..13 ,[3, 7, 4, 13, 6, 9, 11, 2, 12, 8, 5, 1, 10]);
makespan = 669;
----------
assign = array1d(1..13 ,[4, 2, 4, 4, 3, 3, 2, 2, 3, 1, 2, 3, 4]);
next = array1d(1..13 ,[3, 7, 4, 13, 6, 9, 11, 2, 12, 8, 5, 1, 10]);
makespan = 668;
----------
assign = array1d(1..13 ,[4, 2, 4, 4, 3, 3, 2, 2, 3, 1, 2, 3, 4]);
next = array1d(1..13 ,[3, 7, 4, 13, 6, 9, 11, 2, 12, 8, 5, 1, 10]);
makespan = 666;
----------
assign = array1d(1..13 ,[4, 2, 4, 4, 3, 3, 2, 2, 3, 1, 2, 3, 4]);
next = array1d(1..13 ,[3, 7, 4, 13, 6, 9, 11, 2, 12, 8, 5, 1, 10]);
makespan = 665;
----------
assign = array1d(1..13 ,[4, 2, 4, 4, 3, 3, 2, 2, 3, 1, 2, 3, 4]);
next = array1d(1..13 ,[3, 7, 4, 13, 6, 9, 11, 2, 12, 8, 5, 1, 10]);
makespan = 664;
----------
assign = array1d(1..13 ,[4, 2, 4, 4, 3, 3, 2, 2, 3, 1, 2, 3, 4]);
next = array1d(1..13 ,[3, 7, 4, 13, 6, 9, 11, 2, 12, 8, 5, 1, 10]);
makespan = 663;
----------
assign = array1d(1..13 ,[4, 2, 4, 4, 3, 3, 2, 2, 3, 1, 2, 3, 4]);
next = array1d(1..13 ,[3, 7, 4, 13, 6, 9, 11, 2, 12, 8, 5, 1, 10]);
makespan = 661;
----------
assign = array1d(1..13 ,[4, 2, 4, 4, 3, 3, 2, 2, 3, 1, 2, 3, 4]);
next = array1d(1..13 ,[3, 7, 4, 13, 6, 9, 11, 2, 12, 8, 5, 1, 10]);
makespan = 659;
----------
assign = array1d(1..13 ,[4, 2, 4, 4, 3, 3, 2, 2, 3, 1, 2, 3, 4]);
next = array1d(1..13 ,[3, 7, 4, 13, 6, 9, 11, 2, 12, 8, 5, 1, 10]);
makespan = 654;
----------
assign = array1d(1..13 ,[4, 2, 4, 4, 3, 3, 2, 2, 3, 1, 2, 3, 4]);
next = array1d(1..13 ,[3, 7, 4, 13, 6, 9, 11, 2, 12, 8, 5, 1, 10]);
makespan = 653;
----------
assign = array1d(1..13 ,[4, 2, 4, 4, 3, 3, 2, 2, 3, 1, 2, 3, 4]);
next = array1d(1..13 ,[3, 7, 4, 13, 6, 9, 11, 2, 12, 8, 5, 1, 10]);
makespan = 652;
----------
assign = array1d(1..13 ,[4, 2, 4, 4, 3, 3, 2, 2, 3, 1, 2, 3, 4]);
next = array1d(1..13 ,[3, 7, 4, 13, 6, 9, 11, 2, 12, 8, 5, 1, 10]);
makespan = 651;
----------
assign = array1d(1..13 ,[4, 2, 4, 4, 3, 3, 2, 2, 3, 1, 2, 3, 4]);
next = array1d(1..13 ,[3, 7, 4, 13, 6, 9, 11, 2, 12, 8, 5, 1, 10]);
makespan = 647;
----------
assign = array1d(1..13 ,[4, 2, 4, 4, 3, 3, 2, 2, 3, 1, 2, 3, 4]);
next = array1d(1..13 ,[3, 7, 4, 13, 6, 9, 11, 2, 12, 8, 5, 1, 10]);
makespan = 644;
----------
assign = array1d(1..13 ,[4, 2, 4, 4, 3, 3, 2, 2, 3, 1, 2, 3, 4]);
next = array1d(1..13 ,[3, 7, 4, 13, 6, 9, 11, 2, 12, 8, 5, 1, 10]);
makespan = 642;
----------
assign = array1d(1..13 ,[4, 2, 4, 4, 3, 3, 2, 2, 3, 1, 2, 3, 4]);
next = array1d(1..13 ,[3, 7, 4, 13, 6, 9, 11, 2, 12, 8, 5, 1, 10]);
makespan = 640;
----------
assign = array1d(1..13 ,[4, 2, 4, 4, 3, 3, 2, 2, 3, 1, 2, 3, 4]);
next = array1d(1..13 ,[3, 7, 4, 13, 6, 9, 11, 2, 12, 8, 5, 1, 10]);
makespan = 636;
----------
assign = array1d(1..13 ,[4, 2, 4, 4, 3, 3, 2, 2, 3, 1, 2, 3, 4]);
next = array1d(1..13 ,[3, 7, 4, 13, 6, 9, 11, 2, 12, 8, 5, 1, 10]);
makespan = 630;
----------
assign = array1d(1..13 ,[4, 2, 4, 4, 3, 3, 2, 2, 3, 1, 2, 3, 4]);
next = array1d(1..13 ,[3, 7, 4, 13, 6, 9, 11, 2, 12, 8, 5, 1, 10]);
makespan = 629;
----------
assign = array1d(1..13 ,[4, 2, 4, 4, 3, 3, 2, 2, 3, 1, 2, 3, 4]);
next = array1d(1..13 ,[3, 7, 4, 13, 6, 9, 11, 2, 12, 8, 5, 1, 10]);
makespan = 628;
----------
assign = array1d(1..13 ,[4, 1, 4, 4, 3, 3, 1, 1, 3, 1, 2, 3, 4]);
next = array1d(1..13 ,[13, 7, 4, 1, 9, 5, 10, 2, 12, 11, 6, 3, 8]);
makespan = 627;
----------
assign = array1d(1..13 ,[1, 4, 1, 1, 3, 3, 4, 4, 3, 1, 2, 3, 4]);
next = array1d(1..13 ,[3, 7, 4, 10, 9, 5, 13, 2, 12, 11, 6, 8, 1]);
makespan = 626;
----------
assign = array1d(1..13 ,[1, 4, 1, 1, 3, 3, 4, 4, 3, 1, 2, 3, 4]);
next = array1d(1..13 ,[3, 7, 4, 10, 9, 5, 13, 2, 12, 11, 6, 8, 1]);
makespan = 622;
----------
assign = array1d(1..13 ,[1, 4, 1, 1, 3, 3, 4, 4, 3, 1, 2, 3, 4]);
next = array1d(1..13 ,[3, 7, 4, 10, 9, 5, 13, 2, 12, 11, 6, 8, 1]);
makespan = 619;
----------
assign = array1d(1..13 ,[1, 4, 1, 1, 3, 3, 4, 4, 3, 1, 2, 3, 4]);
next = array1d(1..13 ,[3, 7, 4, 10, 9, 5, 13, 2, 12, 11, 6, 8, 1]);
makespan = 616;
----------
assign = array1d(1..13 ,[1, 4, 1, 1, 3, 3, 4, 4, 3, 1, 2, 3, 4]);
next = array1d(1..13 ,[3, 7, 4, 10, 9, 5, 13, 2, 12, 11, 6, 8, 1]);
makespan = 611;
----------
assign = array1d(1..13 ,[1, 4, 1, 1, 3, 3, 4, 4, 3, 1, 2, 3, 4]);
next = array1d(1..13 ,[3, 7, 4, 10, 9, 5, 13, 2, 12, 11, 6, 8, 1]);
makespan = 608;
----------
assign = array1d(1..13 ,[1, 4, 1, 1, 3, 3, 4, 4, 3, 1, 2, 3, 4]);
next = array1d(1..13 ,[3, 7, 4, 10, 9, 5, 13, 2, 12, 11, 6, 8, 1]);
makespan = 605;
----------
assign = array1d(1..13 ,[1, 4, 1, 1, 3, 3, 4, 4, 3, 1, 2, 3, 4]);
next = array1d(1..13 ,[3, 7, 4, 10, 9, 5, 13, 2, 12, 11, 6, 8, 1]);
makespan = 604;
----------
assign = array1d(1..13 ,[1, 4, 1, 1, 3, 3, 4, 4, 3, 1, 2, 3, 4]);
next = array1d(1..13 ,[3, 7, 4, 10, 9, 5, 13, 2, 12, 11, 6, 8, 1]);
makespan = 603;
----------
assign = array1d(1..13 ,[1, 4, 1, 1, 3, 3, 4, 4, 3, 1, 2, 3, 4]);
next = array1d(1..13 ,[3, 7, 4, 10, 9, 5, 13, 2, 12, 11, 6, 8, 1]);
makespan = 599;
----------
assign = array1d(1..13 ,[2, 4, 2, 2, 3, 3, 4, 4, 3, 1, 2, 3, 4]);
next = array1d(1..13 ,[3, 7, 4, 11, 9, 5, 13, 2, 12, 1, 6, 8, 10]);
makespan = 598;
----------
assign = array1d(1..13 ,[2, 4, 2, 2, 3, 3, 4, 4, 3, 1, 2, 3, 4]);
next = array1d(1..13 ,[3, 7, 4, 11, 9, 5, 13, 2, 12, 1, 6, 8, 10]);
makespan = 595;
----------
assign = array1d(1..13 ,[2, 4, 2, 2, 3, 3, 4, 4, 3, 1, 2, 3, 4]);
next = array1d(1..13 ,[3, 7, 4, 11, 9, 5, 13, 2, 12, 1, 6, 8, 10]);
makespan = 594;
----------
assign = array1d(1..13 ,[2, 4, 2, 2, 3, 3, 4, 4, 3, 1, 2, 3, 4]);
next = array1d(1..13 ,[3, 7, 4, 11, 9, 5, 13, 2, 12, 1, 6, 8, 10]);
makespan = 593;
----------
assign = array1d(1..13 ,[2, 1, 2, 2, 3, 3, 1, 1, 3, 1, 2, 3, 4]);
next = array1d(1..13 ,[3, 7, 4, 11, 9, 5, 10, 2, 12, 1, 6, 13, 8]);
makespan = 592;
----------
assign = array1d(1..13 ,[2, 1, 2, 2, 3, 3, 1, 1, 3, 1, 2, 3, 4]);
next = array1d(1..13 ,[3, 7, 4, 11, 9, 5, 10, 2, 12, 1, 6, 13, 8]);
makespan = 591;
----------
assign = array1d(1..13 ,[2, 1, 2, 2, 3, 3, 1, 1, 3, 1, 2, 3, 4]);
next = array1d(1..13 ,[3, 7, 4, 11, 9, 5, 10, 2, 12, 1, 6, 13, 8]);
makespan = 590;
----------
assign = array1d(1..13 ,[2, 1, 2, 2, 3, 3, 1, 1, 3, 1, 2, 3, 4]);
next = array1d(1..13 ,[3, 7, 4, 11, 9, 5, 10, 2, 12, 1, 6, 13, 8]);
makespan = 588;
----------
assign = array1d(1..13 ,[2, 1, 2, 2, 3, 3, 1, 1, 3, 1, 2, 3, 4]);
next = array1d(1..13 ,[3, 7, 4, 11, 9, 5, 10, 2, 12, 1, 6, 13, 8]);
makespan = 587;
----------
assign = array1d(1..13 ,[2, 1, 2, 2, 3, 3, 1, 1, 3, 1, 2, 3, 4]);
next = array1d(1..13 ,[3, 7, 4, 11, 9, 5, 10, 2, 12, 1, 6, 13, 8]);
makespan = 583;
----------
assign = array1d(1..13 ,[4, 1, 4, 3, 3, 3, 1, 1, 2, 1, 2, 3, 4]);
next = array1d(1..13 ,[3, 7, 13, 6, 12, 5, 10, 2, 11, 9, 4, 1, 8]);
makespan = 579;
----------
assign = array1d(1..13 ,[4, 1, 3, 3, 4, 4, 1, 1, 2, 1, 2, 3, 4]);
next = array1d(1..13 ,[5, 7, 4, 12, 13, 1, 10, 2, 11, 9, 3, 6, 8]);
makespan = 578;
----------
assign = array1d(1..13 ,[4, 1, 3, 3, 4, 4, 1, 1, 2, 1, 2, 3, 4]);
next = array1d(1..13 ,[5, 7, 4, 12, 13, 1, 10, 2, 11, 9, 3, 6, 8]);
makespan = 574;
----------
assign = array1d(1..13 ,[4, 1, 3, 3, 4, 4, 1, 1, 2, 1, 2, 3, 4]);
next = array1d(1..13 ,[5, 7, 4, 12, 13, 1, 10, 2, 11, 9, 3, 6, 8]);
makespan = 567;
----------
assign = array1d(1..13 ,[4, 1, 3, 3, 4, 4, 1, 1, 2, 1, 2, 3, 4]);
next = array1d(1..13 ,[5, 7, 4, 12, 13, 1, 10, 2, 11, 9, 3, 6, 8]);
makespan = 564;
----------
assign = array1d(1..13 ,[4, 1, 3, 3, 4, 4, 1, 1, 2, 1, 2, 3, 4]);
next = array1d(1..13 ,[5, 7, 4, 12, 13, 1, 10, 2, 11, 9, 3, 6, 8]);
makespan = 556;
----------
assign = array1d(1..13 ,[4, 1, 3, 3, 4, 4, 1, 1, 2, 1, 2, 3, 4]);
next = array1d(1..13 ,[5, 7, 4, 12, 13, 1, 10, 2, 11, 9, 3, 6, 8]);
makespan = 555;
----------
assign = array1d(1..13 ,[4, 1, 3, 3, 4, 4, 1, 1, 2, 1, 2, 3, 4]);
next = array1d(1..13 ,[5, 7, 4, 12, 13, 1, 10, 2, 11, 9, 3, 6, 8]);
makespan = 550;
----------
assign = array1d(1..13 ,[4, 1, 3, 3, 4, 4, 1, 1, 2, 1, 2, 3, 4]);
next = array1d(1..13 ,[5, 7, 4, 12, 13, 1, 10, 2, 11, 9, 3, 6, 8]);
makespan = 548;
----------
assign = array1d(1..13 ,[4, 1, 3, 3, 4, 4, 1, 1, 2, 1, 2, 3, 4]);
next = array1d(1..13 ,[5, 7, 4, 12, 13, 1, 10, 2, 11, 9, 3, 6, 8]);
makespan = 546;
----------
assign = array1d(1..13 ,[4, 1, 3, 3, 4, 4, 1, 1, 2, 1, 2, 3, 4]);
next = array1d(1..13 ,[5, 7, 4, 12, 13, 1, 10, 2, 11, 9, 3, 6, 8]);
makespan = 544;
----------
assign = array1d(1..13 ,[4, 1, 3, 3, 4, 4, 1, 1, 2, 1, 2, 3, 4]);
next = array1d(1..13 ,[5, 7, 4, 12, 13, 1, 10, 2, 11, 9, 3, 6, 8]);
makespan = 542;
----------
assign = array1d(1..13 ,[4, 1, 3, 3, 4, 4, 1, 1, 2, 1, 2, 3, 4]);
next = array1d(1..13 ,[5, 7, 4, 12, 13, 1, 10, 2, 11, 9, 3, 6, 8]);
makespan = 540;
----------
assign = array1d(1..13 ,[4, 1, 3, 3, 2, 4, 1, 1, 2, 1, 2, 3, 4]);
next = array1d(1..13 ,[13, 7, 4, 12, 11, 1, 10, 2, 5, 9, 3, 6, 8]);
makespan = 537;
----------
assign = array1d(1..13 ,[3, 1, 2, 4, 3, 3, 1, 4, 2, 1, 2, 3, 4]);
next = array1d(1..13 ,[5, 7, 11, 8, 6, 12, 10, 13, 3, 9, 1, 4, 2]);
makespan = 535;
----------
assign = array1d(1..13 ,[1, 3, 4, 4, 2, 4, 3, 1, 2, 1, 2, 3, 4]);
next = array1d(1..13 ,[10, 7, 13, 3, 9, 4, 12, 1, 11, 5, 2, 6, 8]);
makespan = 534;
----------
assign = array1d(1..13 ,[1, 3, 4, 2, 4, 2, 3, 1, 2, 1, 2, 3, 4]);
next = array1d(1..13 ,[8, 7, 5, 6, 13, 9, 12, 10, 11, 4, 2, 3, 1]);
makespan = 533;
----------
assign = array1d(1..13 ,[2, 1, 3, 4, 3, 4, 2, 1, 4, 1, 2, 3, 4]);
next = array1d(1..13 ,[7, 10, 5, 6, 12, 9, 11, 2, 13, 1, 3, 4, 8]);
makespan = 531;
----------
assign = array1d(1..13 ,[3, 1, 4, 2, 3, 3, 4, 1, 2, 1, 2, 3, 4]);
next = array1d(1..13 ,[12, 10, 13, 9, 6, 1, 3, 2, 11, 4, 5, 7, 8]);
makespan = 530;
----------
assign = array1d(1..13 ,[3, 1, 4, 2, 3, 3, 4, 1, 2, 1, 2, 3, 4]);
next = array1d(1..13 ,[12, 10, 13, 9, 6, 1, 3, 2, 11, 4, 5, 7, 8]);
makespan = 529;
----------
assign = array1d(1..13 ,[4, 1, 1, 2, 3, 3, 4, 1, 2, 1, 2, 3, 4]);
next = array1d(1..13 ,[7, 10, 8, 9, 6, 12, 13, 2, 11, 4, 5, 1, 3]);
makespan = 528;
----------
assign = array1d(1..13 ,[2, 1, 1, 2, 4, 3, 4, 1, 3, 1, 2, 3, 4]);
next = array1d(1..13 ,[4, 10, 8, 11, 7, 9, 13, 2, 12, 1, 6, 5, 3]);
makespan = 527;
----------
assign = array1d(1..13 ,[2, 1, 1, 3, 4, 4, 2, 1, 3, 1, 2, 3, 4]);
next = array1d(1..13 ,[7, 10, 8, 9, 6, 13, 11, 2, 12, 1, 4, 5, 3]);
makespan = 526;
----------
assign = array1d(1..13 ,[4, 3, 2, 4, 1, 4, 1, 3, 2, 1, 2, 3, 4]);
next = array1d(1..13 ,[13, 12, 11, 1, 7, 4, 10, 2, 3, 9, 8, 6, 5]);
makespan = 525;
----------
assign = array1d(1..13 ,[4, 1, 2, 4, 3, 2, 1, 1, 3, 1, 2, 3, 4]);
next = array1d(1..13 ,[4, 10, 11, 13, 12, 3, 2, 7, 5, 6, 9, 1, 8]);
makespan = 524;
----------
assign = array1d(1..13 ,[2, 1, 2, 3, 3, 4, 1, 1, 4, 1, 2, 3, 4]);
next = array1d(1..13 ,[3, 8, 11, 5, 12, 9, 10, 7, 13, 1, 4, 6, 2]);
makespan = 523;
----------
assign = array1d(1..13 ,[2, 1, 2, 3, 1, 4, 1, 3, 4, 1, 2, 3, 4]);
next = array1d(1..13 ,[11, 5, 1, 8, 10, 9, 2, 12, 13, 3, 4, 6, 7]);
makespan = 522;
----------
assign = array1d(1..13 ,[3, 1, 3, 4, 1, 2, 1, 4, 2, 1, 2, 3, 4]);
next = array1d(1..13 ,[3, 5, 12, 8, 10, 9, 2, 13, 11, 6, 1, 4, 7]);
makespan = 521;
----------
assign = array1d(1..13 ,[3, 1, 3, 4, 2, 2, 1, 1, 4, 1, 2, 3, 4]);
next = array1d(1..13 ,[3, 10, 12, 9, 6, 11, 2, 7, 13, 5, 1, 4, 8]);
makespan = 520;
----------
assign = array1d(1..13 ,[3, 1, 3, 4, 2, 2, 1, 1, 4, 1, 2, 3, 4]);
next = array1d(1..13 ,[3, 10, 12, 9, 6, 11, 2, 7, 13, 5, 1, 4, 8]);
makespan = 519;
----------
assign = array1d(1..13 ,[2, 1, 3, 4, 3, 2, 1, 1, 4, 1, 2, 3, 4]);
next = array1d(1..13 ,[6, 8, 5, 9, 12, 11, 10, 7, 13, 1, 3, 4, 2]);
makespan = 518;
----------
assign = array1d(1..13 ,[3, 2, 1, 4, 2, 3, 1, 1, 4, 1, 2, 3, 4]);
next = array1d(1..13 ,[6, 11, 8, 9, 2, 12, 10, 7, 13, 5, 1, 4, 3]);
makespan = 517;
----------
assign = array1d(1..13 ,[4, 1, 3, 4, 2, 2, 1, 1, 3, 1, 2, 3, 4]);
next = array1d(1..13 ,[4, 8, 9, 13, 6, 11, 2, 10, 12, 5, 3, 1, 7]);
makespan = 516;
----------
assign = array1d(1..13 ,[3, 1, 3, 2, 4, 2, 1, 1, 4, 1, 2, 3, 4]);
next = array1d(1..13 ,[3, 8, 12, 6, 9, 11, 2, 10, 13, 4, 1, 5, 7]);
makespan = 515;
----------
assign = array1d(1..13 ,[3, 1, 3, 2, 4, 2, 1, 1, 4, 1, 2, 3, 4]);
next = array1d(1..13 ,[3, 8, 12, 6, 9, 11, 2, 10, 13, 4, 1, 5, 7]);
makespan = 514;
----------
assign = array1d(1..13 ,[3, 1, 3, 2, 4, 2, 1, 1, 4, 1, 2, 3, 4]);
next = array1d(1..13 ,[3, 8, 12, 6, 9, 11, 2, 10, 13, 4, 1, 5, 7]);
makespan = 513;
----------
assign = array1d(1..13 ,[3, 1, 3, 2, 4, 2, 1, 1, 4, 1, 2, 3, 4]);
next = array1d(1..13 ,[3, 8, 12, 6, 9, 11, 2, 10, 13, 4, 1, 5, 7]);
makespan = 512;
----------
assign = array1d(1..13 ,[3, 1, 3, 2, 4, 2, 1, 1, 4, 1, 2, 3, 4]);
next = array1d(1..13 ,[3, 8, 12, 6, 9, 11, 2, 10, 13, 4, 1, 5, 7]);
makespan = 511;
----------
assign = array1d(1..13 ,[2, 1, 3, 4, 3, 2, 1, 1, 4, 1, 2, 3, 4]);
next = array1d(1..13 ,[6, 8, 12, 9, 3, 11, 10, 7, 13, 1, 5, 4, 2]);
makespan = 510;
----------
assign = array1d(1..13 ,[4, 4, 1, 2, 2, 3, 1, 1, 3, 1, 2, 3, 4]);
next = array1d(1..13 ,[2, 13, 8, 5, 11, 9, 10, 7, 12, 4, 6, 1, 3]);
makespan = 509;
----------
assign = array1d(1..13 ,[4, 4, 1, 3, 3, 2, 1, 1, 2, 1, 2, 3, 4]);
next = array1d(1..13 ,[13, 1, 8, 12, 4, 9, 10, 7, 11, 6, 5, 2, 3]);
makespan = 508;
----------
assign = array1d(1..13 ,[3, 1, 2, 4, 2, 3, 1, 1, 4, 1, 2, 3, 4]);
next = array1d(1..13 ,[6, 10, 5, 9, 11, 12, 2, 7, 13, 3, 1, 4, 8]);
makespan = 507;
----------
assign = array1d(1..13 ,[2, 1, 4, 3, 3, 2, 1, 1, 4, 1, 2, 3, 4]);
next = array1d(1..13 ,[6, 10, 9, 5, 12, 11, 2, 7, 13, 1, 4, 3, 8]);
makespan = 506;
----------
assign = array1d(1..13 ,[2, 1, 4, 3, 3, 2, 1, 1, 4, 1, 2, 3, 4]);
next = array1d(1..13 ,[6, 10, 9, 5, 12, 11, 2, 7, 13, 1, 4, 3, 8]);
makespan = 505;
----------
assign = array1d(1..13 ,[2, 1, 4, 3, 3, 2, 1, 1, 4, 1, 2, 3, 4]);
next = array1d(1..13 ,[6, 10, 9, 5, 12, 11, 2, 7, 13, 1, 4, 3, 8]);
makespan = 504;
----------
assign = array1d(1..13 ,[2, 1, 4, 3, 3, 2, 1, 1, 4, 1, 2, 3, 4]);
next = array1d(1..13 ,[6, 10, 9, 5, 12, 11, 2, 7, 13, 1, 4, 3, 8]);
makespan = 503;
----------
assign = array1d(1..13 ,[2, 1, 4, 3, 3, 2, 1, 1, 4, 1, 2, 3, 4]);
next = array1d(1..13 ,[6, 10, 9, 5, 12, 11, 2, 7, 13, 1, 4, 3, 8]);
makespan = 502;
----------
assign = array1d(1..13 ,[2, 1, 4, 3, 3, 2, 1, 1, 4, 1, 2, 3, 4]);
next = array1d(1..13 ,[6, 10, 9, 5, 12, 11, 2, 7, 13, 1, 4, 3, 8]);
makespan = 501;
----------
assign = array1d(1..13 ,[2, 1, 4, 3, 3, 2, 1, 1, 4, 1, 2, 3, 4]);
next = array1d(1..13 ,[6, 10, 9, 5, 12, 11, 2, 7, 13, 1, 4, 3, 8]);
makespan = 500;
----------
assign = array1d(1..13 ,[2, 1, 4, 3, 3, 2, 1, 1, 4, 1, 2, 3, 4]);
next = array1d(1..13 ,[6, 10, 9, 5, 12, 11, 2, 7, 13, 1, 4, 3, 8]);
makespan = 499;
----------
assign = array1d(1..13 ,[2, 1, 4, 3, 3, 2, 1, 1, 4, 1, 2, 3, 4]);
next = array1d(1..13 ,[6, 10, 9, 5, 12, 11, 2, 7, 13, 1, 4, 3, 8]);
makespan = 498;
----------
assign = array1d(1..13 ,[2, 1, 4, 3, 3, 2, 1, 1, 4, 1, 2, 3, 4]);
next = array1d(1..13 ,[6, 10, 9, 5, 12, 11, 2, 7, 13, 1, 4, 3, 8]);
makespan = 497;
----------
assign = array1d(1..13 ,[2, 1, 4, 3, 3, 2, 1, 1, 4, 1, 2, 3, 4]);
next = array1d(1..13 ,[6, 10, 9, 5, 12, 11, 2, 7, 13, 1, 4, 3, 8]);
makespan = 496;
----------
assign = array1d(1..13 ,[2, 1, 4, 3, 3, 2, 1, 1, 4, 1, 2, 3, 4]);
next = array1d(1..13 ,[6, 10, 9, 5, 12, 11, 2, 7, 13, 1, 4, 3, 8]);
makespan = 495;
----------
==========
	Command being timed: "mzn-chuffed lbbd-datasets/Rabadi-2006/dzn-p-dominant/model.mzn lbbd-datasets/Rabadi-2006/dzn-p-dominant/9on4Rp50Rs50_13Ameer.dzn"
	User time (seconds): 0.65
	System time (seconds): 0.03
	Percent of CPU this job got: 1%
	Elapsed (wall clock) time (h:mm:ss or m:ss): 1:06.80
	Average shared text size (kbytes): 0
	Average unshared data size (kbytes): 0
	Average stack size (kbytes): 0
	Average total size (kbytes): 0
	Maximum resident set size (kbytes): 42720
	Average resident set size (kbytes): 0
	Major (requiring I/O) page faults: 0
	Minor (reclaiming a frame) page faults: 3872
	Voluntary context switches: 437
	Involuntary context switches: 5
	Swaps: 0
	File system inputs: 0
	File system outputs: 512
	Socket messages sent: 0
	Socket messages received: 0
	Signals delivered: 0
	Page size (bytes): 4096
	Exit status: 0
