+ /usr/bin/timeout 600 /usr/bin/time -v mzn-chuffed lbbd-datasets/planningandscheduling/cost-insts/model.mzn lbbd-datasets/planningandscheduling/cost-insts/c20j3m1.dzn
% No search annotation given. Defaulting to VSIDS!
obj = 883
----------
obj = 860
----------
obj = 845
----------
obj = 822
----------
obj = 807
----------
obj = 799
----------
obj = 790
----------
obj = 782
----------
obj = 776
----------
obj = 756
----------
obj = 753
----------
obj = 750
----------
obj = 745
----------
obj = 735
----------
obj = 723
----------
obj = 712
----------
obj = 692
----------
obj = 689
----------
obj = 671
----------
obj = 657
----------
obj = 643
----------
obj = 633
----------
obj = 622
----------
obj = 619
----------
obj = 603
----------
obj = 596
----------
obj = 593
----------
obj = 586
----------
obj = 577
----------
obj = 572
----------
obj = 565
----------
obj = 562
----------
obj = 555
----------
obj = 548
----------
obj = 546
----------
obj = 543
----------
obj = 532
----------
obj = 529
----------
obj = 523
----------
obj = 521
----------
obj = 515
----------
obj = 512
----------
obj = 507
----------
obj = 503
----------
obj = 492
----------
obj = 488
----------
obj = 487
----------
obj = 486
----------
obj = 482
----------
obj = 481
----------
==========
	Command being timed: "mzn-chuffed lbbd-datasets/planningandscheduling/cost-insts/model.mzn lbbd-datasets/planningandscheduling/cost-insts/c20j3m1.dzn"
	User time (seconds): 0.22
	System time (seconds): 0.00
	Percent of CPU this job got: 24%
	Elapsed (wall clock) time (h:mm:ss or m:ss): 0:00.94
	Average shared text size (kbytes): 0
	Average unshared data size (kbytes): 0
	Average stack size (kbytes): 0
	Average total size (kbytes): 0
	Maximum resident set size (kbytes): 28960
	Average resident set size (kbytes): 0
	Major (requiring I/O) page faults: 0
	Minor (reclaiming a frame) page faults: 2480
	Voluntary context switches: 56
	Involuntary context switches: 3
	Swaps: 0
	File system inputs: 0
	File system outputs: 96
	Socket messages sent: 0
	Socket messages received: 0
	Signals delivered: 0
	Page size (bytes): 4096
	Exit status: 0
