+ /usr/bin/timeout 600 /usr/bin/time -v mzn-chuffed lbbd-datasets/planningandscheduling/makespan-insts/model.mzn lbbd-datasets/planningandscheduling/makespan-insts/c22j2m5.dzn
% No search annotation given. Defaulting to VSIDS!
obj = 55
----------
obj = 54
----------
obj = 53
----------
obj = 52
----------
obj = 51
----------
obj = 50
----------
obj = 49
----------
obj = 48
----------
obj = 47
----------
obj = 46
----------
obj = 45
----------
obj = 44
----------
obj = 43
----------
obj = 42
----------
obj = 41
----------
obj = 40
----------
obj = 39
----------
obj = 38
----------
obj = 37
----------
obj = 36
----------
obj = 35
----------
obj = 34
----------
obj = 33
----------
obj = 32
----------
obj = 31
----------
==========
	Command being timed: "mzn-chuffed lbbd-datasets/planningandscheduling/makespan-insts/model.mzn lbbd-datasets/planningandscheduling/makespan-insts/c22j2m5.dzn"
	User time (seconds): 0.18
	System time (seconds): 0.00
	Percent of CPU this job got: 0%
	Elapsed (wall clock) time (h:mm:ss or m:ss): 5:58.18
	Average shared text size (kbytes): 0
	Average unshared data size (kbytes): 0
	Average stack size (kbytes): 0
	Average total size (kbytes): 0
	Maximum resident set size (kbytes): 28256
	Average resident set size (kbytes): 0
	Major (requiring I/O) page faults: 0
	Minor (reclaiming a frame) page faults: 2404
	Voluntary context switches: 31
	Involuntary context switches: 2
	Swaps: 0
	File system inputs: 0
	File system outputs: 96
	Socket messages sent: 0
	Socket messages received: 0
	Signals delivered: 0
	Page size (bytes): 4096
	Exit status: 0
