+ /usr/bin/timeout 600 /usr/bin/time -v mzn-chuffed lbbd-datasets/Rabadi-2006/dzn-s-dominant/model.mzn lbbd-datasets/Rabadi-2006/dzn-s-dominant/11on2Rp50Rs50_8Ameer.dzn
% No search annotation given. Defaulting to VSIDS!
assign = array1d(1..13 ,[2, 2, 2, 2, 2, 2, 2, 2, 2, 2, 2, 1, 2]);
next = array1d(1..13 ,[2, 3, 4, 5, 6, 7, 8, 9, 10, 11, 13, 1, 12]);
makespan = 2354;
----------
assign = array1d(1..13 ,[2, 2, 2, 2, 2, 2, 2, 2, 2, 2, 2, 1, 2]);
next = array1d(1..13 ,[2, 4, 5, 3, 6, 7, 8, 9, 10, 11, 13, 1, 12]);
makespan = 2305;
----------
