+ /usr/bin/timeout 600 /usr/bin/time -v mzn-chuffed lbbd-datasets/Rabadi-2006/dzn-balanced/model.mzn lbbd-datasets/Rabadi-2006/dzn-balanced/10on6Rp50Rs50_10Ameer.dzn
% No search annotation given. Defaulting to VSIDS!
assign = array1d(1..16 ,[6, 6, 6, 6, 6, 6, 6, 6, 6, 6, 1, 2, 3, 4, 5, 6]);
next = array1d(1..16 ,[2, 3, 4, 5, 6, 7, 8, 9, 10, 16, 12, 13, 14, 15, 1, 11]);
makespan = 1369;
----------
assign = array1d(1..16 ,[6, 6, 6, 6, 6, 6, 6, 6, 6, 6, 1, 2, 3, 4, 5, 6]);
next = array1d(1..16 ,[2, 4, 6, 5, 3, 7, 8, 9, 10, 16, 12, 13, 14, 15, 1, 11]);
makespan = 1367;
----------
assign = array1d(1..16 ,[6, 6, 6, 6, 2, 6, 6, 6, 6, 6, 1, 2, 3, 4, 5, 6]);
next = array1d(1..16 ,[4, 6, 1, 16, 12, 3, 8, 9, 2, 7, 5, 13, 14, 15, 10, 11]);
makespan = 1322;
----------
assign = array1d(1..16 ,[6, 6, 6, 6, 6, 1, 6, 6, 6, 6, 1, 2, 3, 4, 5, 6]);
next = array1d(1..16 ,[4, 1, 2, 16, 10, 11, 8, 9, 5, 3, 12, 13, 14, 15, 7, 6]);
makespan = 1319;
----------
assign = array1d(1..16 ,[6, 6, 6, 6, 6, 6, 1, 6, 6, 6, 1, 2, 3, 4, 5, 6]);
next = array1d(1..16 ,[10, 6, 8, 1, 16, 3, 11, 9, 5, 2, 12, 13, 14, 15, 4, 7]);
makespan = 1318;
----------
assign = array1d(1..16 ,[6, 6, 1, 6, 6, 6, 6, 6, 6, 6, 1, 2, 3, 4, 5, 6]);
next = array1d(1..16 ,[4, 5, 11, 10, 1, 7, 8, 2, 16, 9, 12, 13, 14, 15, 6, 3]);
makespan = 1316;
----------
assign = array1d(1..16 ,[6, 6, 5, 6, 6, 6, 6, 6, 6, 6, 1, 2, 3, 4, 5, 6]);
next = array1d(1..16 ,[6, 4, 15, 7, 8, 10, 16, 1, 5, 2, 12, 13, 14, 3, 9, 11]);
makespan = 1306;
----------
assign = array1d(1..16 ,[6, 6, 6, 1, 6, 6, 6, 6, 6, 6, 1, 2, 3, 4, 5, 6]);
next = array1d(1..16 ,[2, 6, 16, 11, 8, 3, 1, 9, 10, 7, 12, 13, 14, 15, 5, 4]);
makespan = 1304;
----------
assign = array1d(1..16 ,[6, 6, 6, 6, 6, 6, 6, 5, 6, 6, 1, 2, 3, 4, 5, 6]);
next = array1d(1..16 ,[9, 5, 7, 2, 16, 10, 4, 15, 3, 1, 12, 13, 14, 8, 6, 11]);
makespan = 1301;
----------
assign = array1d(1..16 ,[6, 6, 6, 6, 6, 6, 6, 5, 6, 6, 1, 2, 3, 4, 5, 6]);
next = array1d(1..16 ,[9, 6, 7, 1, 2, 3, 10, 15, 5, 16, 12, 13, 14, 8, 4, 11]);
makespan = 1298;
----------
assign = array1d(1..16 ,[1, 6, 6, 6, 6, 6, 6, 6, 6, 6, 1, 2, 3, 4, 5, 6]);
next = array1d(1..16 ,[11, 16, 7, 2, 10, 8, 4, 9, 3, 6, 12, 13, 14, 15, 5, 1]);
makespan = 1297;
----------
assign = array1d(1..16 ,[6, 6, 6, 3, 6, 6, 6, 6, 6, 6, 1, 2, 3, 4, 5, 6]);
next = array1d(1..16 ,[3, 5, 7, 13, 10, 1, 8, 16, 6, 9, 12, 4, 14, 15, 2, 11]);
makespan = 1296;
----------
assign = array1d(1..16 ,[6, 6, 6, 1, 6, 6, 6, 6, 6, 6, 1, 2, 3, 4, 5, 6]);
next = array1d(1..16 ,[6, 5, 16, 11, 8, 7, 9, 1, 3, 2, 12, 13, 14, 15, 10, 4]);
makespan = 1295;
----------
assign = array1d(1..16 ,[6, 6, 6, 6, 6, 6, 6, 6, 6, 3, 1, 2, 3, 4, 5, 6]);
next = array1d(1..16 ,[4, 7, 16, 3, 8, 1, 6, 2, 5, 13, 12, 10, 14, 15, 9, 11]);
makespan = 1293;
----------
assign = array1d(1..16 ,[6, 6, 6, 6, 6, 6, 6, 6, 6, 3, 1, 2, 3, 4, 5, 6]);
next = array1d(1..16 ,[6, 4, 7, 3, 2, 9, 8, 16, 5, 13, 12, 10, 14, 15, 1, 11]);
makespan = 1292;
----------
assign = array1d(1..16 ,[6, 6, 6, 6, 6, 6, 6, 6, 6, 1, 1, 2, 3, 4, 5, 6]);
next = array1d(1..16 ,[7, 5, 16, 2, 8, 3, 6, 9, 1, 11, 12, 13, 14, 15, 4, 10]);
makespan = 1291;
----------
assign = array1d(1..16 ,[6, 5, 6, 6, 6, 6, 6, 6, 6, 6, 1, 2, 3, 4, 5, 6]);
next = array1d(1..16 ,[8, 15, 16, 10, 6, 3, 1, 9, 5, 7, 12, 13, 14, 2, 4, 11]);
makespan = 1290;
----------
assign = array1d(1..16 ,[6, 6, 6, 6, 6, 6, 6, 6, 6, 5, 1, 2, 3, 4, 5, 6]);
next = array1d(1..16 ,[4, 7, 16, 3, 8, 1, 6, 2, 5, 15, 12, 13, 14, 10, 9, 11]);
makespan = 1289;
----------
assign = array1d(1..16 ,[6, 1, 6, 6, 6, 6, 6, 6, 6, 6, 1, 2, 3, 4, 5, 6]);
next = array1d(1..16 ,[16, 11, 1, 3, 8, 10, 6, 9, 7, 4, 12, 13, 14, 15, 5, 2]);
makespan = 1283;
----------
assign = array1d(1..16 ,[6, 5, 6, 6, 6, 6, 6, 6, 6, 6, 1, 2, 3, 4, 5, 6]);
next = array1d(1..16 ,[4, 15, 8, 16, 10, 3, 1, 7, 5, 6, 12, 13, 14, 2, 9, 11]);
makespan = 1282;
----------
assign = array1d(1..16 ,[6, 1, 6, 6, 6, 6, 6, 6, 6, 6, 1, 2, 3, 4, 5, 6]);
next = array1d(1..16 ,[16, 11, 5, 7, 8, 10, 6, 9, 1, 3, 12, 13, 14, 15, 4, 2]);
makespan = 1281;
----------
assign = array1d(1..16 ,[6, 1, 6, 6, 6, 6, 6, 6, 6, 6, 1, 2, 3, 4, 5, 6]);
next = array1d(1..16 ,[16, 11, 7, 3, 8, 1, 10, 9, 4, 6, 12, 13, 14, 15, 5, 2]);
makespan = 1276;
----------
