+ /usr/bin/timeout 600 /usr/bin/time -v mzn-chuffed lbbd-datasets/planningandscheduling/cost-insts/model.mzn lbbd-datasets/planningandscheduling/cost-insts/c16j4m1.dzn
% No search annotation given. Defaulting to VSIDS!
obj = 846
----------
obj = 825
----------
obj = 815
----------
obj = 801
----------
obj = 785
----------
obj = 757
----------
obj = 751
----------
obj = 747
----------
obj = 735
----------
obj = 722
----------
obj = 715
----------
obj = 707
----------
obj = 702
----------
obj = 691
----------
obj = 684
----------
obj = 680
----------
obj = 677
----------
obj = 664
----------
obj = 661
----------
obj = 649
----------
obj = 631
----------
obj = 615
----------
obj = 602
----------
obj = 582
----------
obj = 569
----------
obj = 566
----------
obj = 565
----------
obj = 553
----------
obj = 544
----------
obj = 530
----------
obj = 517
----------
obj = 495
----------
obj = 488
----------
obj = 484
----------
obj = 482
----------
obj = 475
----------
obj = 469
----------
obj = 465
----------
obj = 459
----------
obj = 454
----------
obj = 447
----------
obj = 423
----------
obj = 419
----------
obj = 413
----------
obj = 406
----------
==========
	Command being timed: "mzn-chuffed lbbd-datasets/planningandscheduling/cost-insts/model.mzn lbbd-datasets/planningandscheduling/cost-insts/c16j4m1.dzn"
	User time (seconds): 0.21
	System time (seconds): 0.01
	Percent of CPU this job got: 51%
	Elapsed (wall clock) time (h:mm:ss or m:ss): 0:00.43
	Average shared text size (kbytes): 0
	Average unshared data size (kbytes): 0
	Average stack size (kbytes): 0
	Average total size (kbytes): 0
	Maximum resident set size (kbytes): 28928
	Average resident set size (kbytes): 0
	Major (requiring I/O) page faults: 0
	Minor (reclaiming a frame) page faults: 2476
	Voluntary context switches: 51
	Involuntary context switches: 4
	Swaps: 0
	File system inputs: 0
	File system outputs: 96
	Socket messages sent: 0
	Socket messages received: 0
	Signals delivered: 0
	Page size (bytes): 4096
	Exit status: 0
