+ /usr/bin/timeout 600 /usr/bin/time -v mzn-chuffed lbbd-datasets/planningandscheduling/cost-insts/model.mzn lbbd-datasets/planningandscheduling/cost-insts/e10j2m1.dzn
% No search annotation given. Defaulting to VSIDS!
obj = 355
----------
obj = 329
----------
obj = 326
----------
obj = 300
----------
obj = 287
----------
obj = 263
----------
obj = 243
----------
==========
	Command being timed: "mzn-chuffed lbbd-datasets/planningandscheduling/cost-insts/model.mzn lbbd-datasets/planningandscheduling/cost-insts/e10j2m1.dzn"
	User time (seconds): 0.13
	System time (seconds): 0.00
	Percent of CPU this job got: 90%
	Elapsed (wall clock) time (h:mm:ss or m:ss): 0:00.15
	Average shared text size (kbytes): 0
	Average unshared data size (kbytes): 0
	Average stack size (kbytes): 0
	Average total size (kbytes): 0
	Maximum resident set size (kbytes): 23472
	Average resident set size (kbytes): 0
	Major (requiring I/O) page faults: 0
	Minor (reclaiming a frame) page faults: 2049
	Voluntary context switches: 13
	Involuntary context switches: 3
	Swaps: 0
	File system inputs: 0
	File system outputs: 40
	Socket messages sent: 0
	Socket messages received: 0
	Signals delivered: 0
	Page size (bytes): 4096
	Exit status: 0
