+ /usr/bin/timeout 600 /usr/bin/time -v mzn-chuffed lbbd-datasets/planningandscheduling/makespan-insts/model.mzn lbbd-datasets/planningandscheduling/makespan-insts/df26j3m1.dzn
% No search annotation given. Defaulting to VSIDS!
obj = 154
----------
obj = 149
----------
obj = 148
----------
obj = 147
----------
obj = 145
----------
obj = 144
----------
obj = 143
----------
obj = 142
----------
obj = 141
----------
obj = 140
----------
obj = 139
----------
obj = 137
----------
obj = 136
----------
obj = 134
----------
obj = 133
----------
obj = 132
----------
obj = 131
----------
obj = 130
----------
obj = 129
----------
obj = 128
----------
obj = 127
----------
obj = 126
----------
obj = 125
----------
obj = 124
----------
obj = 123
----------
obj = 122
----------
obj = 121
----------
obj = 120
----------
obj = 119
----------
obj = 118
----------
obj = 117
----------
obj = 116
----------
obj = 115
----------
obj = 114
----------
obj = 113
----------
obj = 112
----------
obj = 111
----------
obj = 110
----------
obj = 109
----------
obj = 108
----------
obj = 107
----------
obj = 106
----------
obj = 105
----------
obj = 104
----------
obj = 103
----------
obj = 102
----------
obj = 101
----------
obj = 100
----------
obj = 99
----------
obj = 98
----------
obj = 97
----------
obj = 96
----------
obj = 95
----------
obj = 94
----------
obj = 93
----------
obj = 92
----------
obj = 91
----------
obj = 90
----------
==========
	Command being timed: "mzn-chuffed lbbd-datasets/planningandscheduling/makespan-insts/model.mzn lbbd-datasets/planningandscheduling/makespan-insts/df26j3m1.dzn"
	User time (seconds): 0.25
	System time (seconds): 0.00
	Percent of CPU this job got: 37%
	Elapsed (wall clock) time (h:mm:ss or m:ss): 0:00.71
	Average shared text size (kbytes): 0
	Average unshared data size (kbytes): 0
	Average stack size (kbytes): 0
	Average total size (kbytes): 0
	Maximum resident set size (kbytes): 29456
	Average resident set size (kbytes): 0
	Major (requiring I/O) page faults: 0
	Minor (reclaiming a frame) page faults: 2551
	Voluntary context switches: 64
	Involuntary context switches: 5
	Swaps: 0
	File system inputs: 0
	File system outputs: 112
	Socket messages sent: 0
	Socket messages received: 0
	Signals delivered: 0
	Page size (bytes): 4096
	Exit status: 0
