+ /usr/bin/timeout 600 /usr/bin/time -v mzn-chuffed lbbd-datasets/planningandscheduling/cost-insts/model.mzn lbbd-datasets/planningandscheduling/cost-insts/e45j9m2.dzn
% No search annotation given. Defaulting to VSIDS!
obj = 1629
----------
obj = 1626
----------
obj = 1609
----------
obj = 1602
----------
obj = 1600
----------
obj = 1560
----------
obj = 1553
----------
obj = 1531
----------
obj = 1527
----------
obj = 1523
----------
obj = 1517
----------
obj = 1516
----------
obj = 1514
----------
obj = 1506
----------
obj = 1505
----------
obj = 1493
----------
obj = 1491
----------
obj = 1469
----------
obj = 1467
----------
obj = 1465
----------
obj = 1462
----------
obj = 1460
----------
obj = 1457
----------
obj = 1453
----------
obj = 1452
----------
obj = 1429
----------
obj = 1418
----------
obj = 1389
----------
obj = 1384
----------
obj = 1382
----------
obj = 1381
----------
obj = 1368
----------
obj = 1367
----------
obj = 1357
----------
obj = 1351
----------
obj = 1340
----------
obj = 1336
----------
obj = 1335
----------
obj = 1330
----------
obj = 1329
----------
obj = 1323
----------
obj = 1315
----------
obj = 1313
----------
obj = 1312
----------
obj = 1311
----------
obj = 1309
----------
obj = 1308
----------
obj = 1306
----------
obj = 1304
----------
obj = 1302
----------
obj = 1290
----------
obj = 1285
----------
obj = 1283
----------
obj = 1270
----------
obj = 1269
----------
obj = 1266
----------
obj = 1263
----------
obj = 1262
----------
obj = 1261
----------
obj = 1259
----------
obj = 1258
----------
obj = 1247
----------
obj = 1246
----------
obj = 1245
----------
obj = 1243
----------
obj = 1241
----------
obj = 1235
----------
obj = 1234
----------
obj = 1233
----------
obj = 1232
----------
obj = 1230
----------
obj = 1229
----------
obj = 1228
----------
obj = 1226
----------
obj = 1222
----------
obj = 1220
----------
obj = 1216
----------
obj = 1209
----------
obj = 1206
----------
obj = 1205
----------
obj = 1204
----------
obj = 1202
----------
obj = 1201
----------
obj = 1199
----------
obj = 1197
----------
obj = 1196
----------
obj = 1195
----------
obj = 1193
----------
obj = 1192
----------
obj = 1188
----------
obj = 1187
----------
obj = 1186
----------
obj = 1185
----------
obj = 1184
----------
obj = 1182
----------
obj = 1181
----------
obj = 1180
----------
obj = 1179
----------
obj = 1178
----------
obj = 1177
----------
obj = 1176
----------
obj = 1175
----------
obj = 1174
----------
obj = 1172
----------
obj = 1168
----------
obj = 1165
----------
obj = 1163
----------
obj = 1162
----------
obj = 1161
----------
obj = 1160
----------
obj = 1159
----------
obj = 1158
----------
obj = 1157
----------
obj = 1156
----------
obj = 1154
----------
obj = 1153
----------
obj = 1151
----------
obj = 1150
----------
obj = 1149
----------
obj = 1147
----------
obj = 1143
----------
obj = 1142
----------
obj = 1141
----------
obj = 1140
----------
obj = 1138
----------
obj = 1137
----------
obj = 1136
----------
obj = 1135
----------
obj = 1134
----------
obj = 1133
----------
obj = 1132
----------
obj = 1131
----------
obj = 1128
----------
obj = 1127
----------
obj = 1126
----------
obj = 1125
----------
obj = 1124
----------
obj = 1123
----------
obj = 1122
----------
obj = 1120
----------
obj = 1119
----------
obj = 1117
----------
obj = 1116
----------
obj = 1115
----------
obj = 1114
----------
obj = 1112
----------
obj = 1111
----------
obj = 1109
----------
obj = 1108
----------
obj = 1107
----------
obj = 1105
----------
obj = 1104
----------
obj = 1102
----------
obj = 1101
----------
obj = 1099
----------
obj = 1098
----------
obj = 1097
----------
obj = 1096
----------
obj = 1095
----------
obj = 1094
----------
obj = 1093
----------
obj = 1092
----------
obj = 1091
----------
obj = 1090
----------
obj = 1089
----------
obj = 1087
----------
obj = 1086
----------
obj = 1084
----------
obj = 1083
----------
obj = 1082
----------
obj = 1080
----------
obj = 1079
----------
obj = 1078
----------
obj = 1077
----------
obj = 1076
----------
obj = 1075
----------
obj = 1074
----------
obj = 1072
----------
obj = 1071
----------
obj = 1070
----------
obj = 1069
----------
obj = 1068
----------
obj = 1067
----------
obj = 1066
----------
obj = 1065
----------
obj = 1063
----------
