+ /usr/bin/timeout 600 /usr/bin/time -v mzn-chuffed lbbd-datasets/Rabadi-2006/dzn-p-dominant/model.mzn lbbd-datasets/Rabadi-2006/dzn-p-dominant/8on6Rp50Rs50_5Ameer.dzn
% No search annotation given. Defaulting to VSIDS!
assign = array1d(1..14 ,[6, 6, 6, 6, 6, 6, 6, 6, 1, 2, 3, 4, 5, 6]);
next = array1d(1..14 ,[2, 3, 4, 5, 6, 7, 8, 14, 10, 11, 12, 13, 1, 9]);
makespan = 1707;
----------
assign = array1d(1..14 ,[6, 6, 6, 6, 6, 6, 6, 6, 1, 2, 3, 4, 5, 6]);
next = array1d(1..14 ,[3, 4, 2, 5, 6, 7, 8, 14, 10, 11, 12, 13, 1, 9]);
makespan = 1632;
----------
assign = array1d(1..14 ,[6, 6, 6, 6, 6, 6, 6, 6, 1, 2, 3, 4, 5, 6]);
next = array1d(1..14 ,[7, 4, 2, 1, 6, 14, 5, 3, 10, 11, 12, 13, 8, 9]);
makespan = 1626;
----------
assign = array1d(1..14 ,[6, 6, 1, 6, 6, 6, 6, 6, 1, 2, 3, 4, 5, 6]);
next = array1d(1..14 ,[2, 8, 9, 1, 14, 7, 5, 6, 10, 11, 12, 13, 4, 3]);
makespan = 1578;
----------
assign = array1d(1..14 ,[6, 6, 1, 6, 6, 6, 6, 6, 1, 2, 3, 4, 5, 6]);
next = array1d(1..14 ,[2, 8, 9, 1, 14, 7, 5, 6, 10, 11, 12, 13, 4, 3]);
makespan = 1573;
----------
assign = array1d(1..14 ,[6, 6, 1, 6, 6, 6, 6, 6, 1, 2, 3, 4, 5, 6]);
next = array1d(1..14 ,[2, 8, 9, 1, 14, 7, 5, 6, 10, 11, 12, 13, 4, 3]);
makespan = 1570;
----------
assign = array1d(1..14 ,[6, 6, 1, 6, 6, 6, 6, 6, 1, 2, 3, 4, 5, 6]);
next = array1d(1..14 ,[2, 8, 9, 1, 14, 7, 5, 6, 10, 11, 12, 13, 4, 3]);
makespan = 1565;
----------
assign = array1d(1..14 ,[6, 6, 1, 6, 6, 6, 6, 6, 1, 2, 3, 4, 5, 6]);
next = array1d(1..14 ,[2, 8, 9, 1, 14, 7, 5, 6, 10, 11, 12, 13, 4, 3]);
makespan = 1563;
----------
assign = array1d(1..14 ,[6, 6, 1, 6, 6, 6, 6, 6, 1, 2, 3, 4, 5, 6]);
next = array1d(1..14 ,[2, 8, 9, 1, 14, 7, 5, 6, 10, 11, 12, 13, 4, 3]);
makespan = 1561;
----------
assign = array1d(1..14 ,[6, 6, 1, 6, 6, 6, 6, 6, 1, 2, 3, 4, 5, 6]);
next = array1d(1..14 ,[2, 8, 9, 1, 14, 7, 5, 6, 10, 11, 12, 13, 4, 3]);
makespan = 1557;
----------
assign = array1d(1..14 ,[6, 6, 1, 6, 6, 6, 6, 6, 1, 2, 3, 4, 5, 6]);
next = array1d(1..14 ,[2, 8, 9, 1, 14, 7, 5, 6, 10, 11, 12, 13, 4, 3]);
makespan = 1546;
----------
assign = array1d(1..14 ,[6, 6, 1, 6, 6, 6, 6, 6, 1, 2, 3, 4, 5, 6]);
next = array1d(1..14 ,[2, 8, 9, 1, 14, 7, 5, 6, 10, 11, 12, 13, 4, 3]);
makespan = 1545;
----------
assign = array1d(1..14 ,[6, 6, 1, 6, 6, 6, 6, 6, 1, 2, 3, 4, 5, 6]);
next = array1d(1..14 ,[2, 8, 9, 1, 14, 7, 5, 6, 10, 11, 12, 13, 4, 3]);
makespan = 1498;
----------
assign = array1d(1..14 ,[6, 6, 1, 6, 6, 6, 6, 6, 1, 2, 3, 4, 5, 6]);
next = array1d(1..14 ,[2, 14, 9, 1, 4, 7, 5, 6, 10, 11, 12, 13, 8, 3]);
makespan = 1475;
----------
assign = array1d(1..14 ,[6, 6, 6, 1, 6, 6, 6, 6, 1, 2, 3, 4, 5, 6]);
next = array1d(1..14 ,[2, 14, 1, 9, 3, 7, 5, 6, 10, 11, 12, 13, 8, 4]);
makespan = 1462;
----------
assign = array1d(1..14 ,[6, 6, 6, 1, 6, 6, 6, 6, 1, 2, 3, 4, 5, 6]);
next = array1d(1..14 ,[2, 14, 1, 9, 3, 7, 5, 6, 10, 11, 12, 13, 8, 4]);
makespan = 1459;
----------
assign = array1d(1..14 ,[6, 6, 1, 1, 6, 6, 6, 6, 1, 2, 3, 4, 5, 6]);
next = array1d(1..14 ,[2, 8, 9, 3, 14, 7, 5, 6, 10, 11, 12, 13, 1, 4]);
makespan = 1444;
----------
assign = array1d(1..14 ,[6, 6, 1, 1, 6, 6, 6, 6, 1, 2, 3, 4, 5, 6]);
next = array1d(1..14 ,[2, 8, 9, 3, 14, 7, 5, 6, 10, 11, 12, 13, 1, 4]);
makespan = 1441;
----------
assign = array1d(1..14 ,[6, 6, 1, 1, 6, 6, 6, 6, 1, 2, 3, 4, 5, 6]);
next = array1d(1..14 ,[2, 8, 9, 3, 14, 7, 5, 6, 10, 11, 12, 13, 1, 4]);
makespan = 1436;
----------
assign = array1d(1..14 ,[6, 6, 1, 1, 6, 6, 6, 6, 1, 2, 3, 4, 5, 6]);
next = array1d(1..14 ,[2, 8, 9, 3, 14, 7, 5, 6, 10, 11, 12, 13, 1, 4]);
makespan = 1435;
----------
assign = array1d(1..14 ,[6, 6, 1, 1, 6, 6, 6, 6, 1, 2, 3, 4, 5, 6]);
next = array1d(1..14 ,[2, 8, 9, 3, 14, 7, 5, 6, 10, 11, 12, 13, 1, 4]);
makespan = 1434;
----------
assign = array1d(1..14 ,[6, 6, 1, 1, 6, 6, 6, 6, 1, 2, 3, 4, 5, 6]);
next = array1d(1..14 ,[2, 8, 9, 3, 14, 7, 5, 6, 10, 11, 12, 13, 1, 4]);
makespan = 1433;
----------
assign = array1d(1..14 ,[6, 6, 1, 1, 6, 6, 6, 6, 1, 2, 3, 4, 5, 6]);
next = array1d(1..14 ,[2, 8, 9, 3, 14, 7, 5, 6, 10, 11, 12, 13, 1, 4]);
makespan = 1432;
----------
assign = array1d(1..14 ,[6, 6, 1, 1, 6, 6, 6, 6, 1, 2, 3, 4, 5, 6]);
next = array1d(1..14 ,[2, 8, 9, 3, 14, 7, 5, 6, 10, 11, 12, 13, 1, 4]);
makespan = 1431;
----------
assign = array1d(1..14 ,[6, 6, 1, 1, 6, 6, 6, 6, 1, 2, 3, 4, 5, 6]);
next = array1d(1..14 ,[2, 8, 9, 3, 14, 7, 5, 6, 10, 11, 12, 13, 1, 4]);
makespan = 1429;
----------
assign = array1d(1..14 ,[6, 6, 1, 1, 6, 6, 6, 6, 1, 2, 3, 4, 5, 6]);
next = array1d(1..14 ,[2, 8, 9, 3, 14, 7, 5, 6, 10, 11, 12, 13, 1, 4]);
makespan = 1428;
----------
assign = array1d(1..14 ,[6, 6, 1, 1, 6, 6, 6, 6, 1, 2, 3, 4, 5, 6]);
next = array1d(1..14 ,[2, 8, 9, 3, 14, 7, 5, 6, 10, 11, 12, 13, 1, 4]);
makespan = 1427;
----------
assign = array1d(1..14 ,[6, 6, 1, 1, 6, 6, 6, 6, 1, 2, 3, 4, 5, 6]);
next = array1d(1..14 ,[2, 8, 9, 3, 14, 7, 5, 6, 10, 11, 12, 13, 1, 4]);
makespan = 1426;
----------
assign = array1d(1..14 ,[6, 6, 1, 1, 6, 6, 6, 6, 1, 2, 3, 4, 5, 6]);
next = array1d(1..14 ,[2, 8, 9, 3, 14, 7, 5, 6, 10, 11, 12, 13, 1, 4]);
makespan = 1424;
----------
assign = array1d(1..14 ,[6, 6, 1, 1, 6, 6, 6, 6, 1, 2, 3, 4, 5, 6]);
next = array1d(1..14 ,[2, 8, 9, 3, 14, 7, 5, 6, 10, 11, 12, 13, 1, 4]);
makespan = 1421;
----------
assign = array1d(1..14 ,[6, 6, 1, 1, 6, 6, 6, 6, 1, 2, 3, 4, 5, 6]);
next = array1d(1..14 ,[2, 8, 9, 3, 14, 7, 5, 6, 10, 11, 12, 13, 1, 4]);
makespan = 1419;
----------
assign = array1d(1..14 ,[6, 6, 1, 1, 6, 6, 6, 6, 1, 2, 3, 4, 5, 6]);
next = array1d(1..14 ,[2, 8, 9, 3, 14, 7, 5, 6, 10, 11, 12, 13, 1, 4]);
makespan = 1417;
----------
assign = array1d(1..14 ,[6, 6, 1, 1, 6, 6, 6, 6, 1, 2, 3, 4, 5, 6]);
next = array1d(1..14 ,[2, 8, 9, 3, 14, 7, 5, 6, 10, 11, 12, 13, 1, 4]);
makespan = 1416;
----------
assign = array1d(1..14 ,[6, 6, 1, 1, 6, 6, 6, 6, 1, 2, 3, 4, 5, 6]);
next = array1d(1..14 ,[2, 8, 9, 3, 14, 7, 5, 6, 10, 11, 12, 13, 1, 4]);
makespan = 1411;
----------
assign = array1d(1..14 ,[6, 6, 1, 1, 6, 6, 6, 6, 1, 2, 3, 4, 5, 6]);
next = array1d(1..14 ,[2, 8, 9, 3, 14, 7, 5, 6, 10, 11, 12, 13, 1, 4]);
makespan = 1408;
----------
assign = array1d(1..14 ,[6, 6, 1, 1, 6, 6, 6, 6, 1, 2, 3, 4, 5, 6]);
next = array1d(1..14 ,[2, 8, 9, 3, 14, 7, 5, 6, 10, 11, 12, 13, 1, 4]);
makespan = 1404;
----------
assign = array1d(1..14 ,[6, 6, 1, 1, 6, 6, 6, 6, 1, 2, 3, 4, 5, 6]);
next = array1d(1..14 ,[2, 8, 9, 3, 14, 7, 5, 6, 10, 11, 12, 13, 1, 4]);
makespan = 1403;
----------
assign = array1d(1..14 ,[6, 6, 1, 1, 6, 6, 6, 6, 1, 2, 3, 4, 5, 6]);
next = array1d(1..14 ,[2, 8, 9, 3, 14, 7, 5, 6, 10, 11, 12, 13, 1, 4]);
makespan = 1401;
----------
assign = array1d(1..14 ,[6, 6, 1, 1, 6, 6, 6, 6, 1, 2, 3, 4, 5, 6]);
next = array1d(1..14 ,[2, 8, 9, 3, 14, 7, 5, 6, 10, 11, 12, 13, 1, 4]);
makespan = 1399;
----------
assign = array1d(1..14 ,[6, 6, 1, 1, 6, 6, 6, 6, 1, 2, 3, 4, 5, 6]);
next = array1d(1..14 ,[2, 8, 9, 3, 14, 7, 5, 6, 10, 11, 12, 13, 1, 4]);
makespan = 1345;
----------
assign = array1d(1..14 ,[6, 6, 1, 1, 6, 6, 6, 6, 1, 2, 3, 4, 5, 6]);
next = array1d(1..14 ,[2, 8, 9, 3, 14, 7, 5, 6, 10, 11, 12, 13, 1, 4]);
makespan = 1338;
----------
assign = array1d(1..14 ,[6, 6, 1, 1, 6, 6, 6, 6, 1, 2, 3, 4, 5, 6]);
next = array1d(1..14 ,[2, 8, 9, 3, 14, 7, 5, 6, 10, 11, 12, 13, 1, 4]);
makespan = 1333;
----------
assign = array1d(1..14 ,[6, 6, 1, 1, 6, 6, 6, 6, 1, 2, 3, 4, 5, 6]);
next = array1d(1..14 ,[2, 8, 9, 3, 14, 7, 5, 6, 10, 11, 12, 13, 1, 4]);
makespan = 1328;
----------
assign = array1d(1..14 ,[6, 6, 1, 1, 6, 6, 6, 6, 1, 2, 3, 4, 5, 6]);
next = array1d(1..14 ,[2, 8, 9, 3, 14, 7, 5, 6, 10, 11, 12, 13, 1, 4]);
makespan = 1316;
----------
assign = array1d(1..14 ,[6, 6, 1, 1, 6, 6, 6, 6, 1, 2, 3, 4, 5, 6]);
next = array1d(1..14 ,[2, 8, 9, 3, 14, 7, 5, 6, 10, 11, 12, 13, 1, 4]);
makespan = 1307;
----------
assign = array1d(1..14 ,[6, 6, 1, 1, 6, 6, 6, 6, 1, 2, 3, 4, 5, 6]);
next = array1d(1..14 ,[2, 8, 9, 3, 14, 7, 5, 6, 10, 11, 12, 13, 1, 4]);
makespan = 1305;
----------
assign = array1d(1..14 ,[6, 6, 1, 1, 6, 6, 6, 6, 1, 2, 3, 4, 5, 6]);
next = array1d(1..14 ,[2, 8, 9, 3, 14, 7, 5, 6, 10, 11, 12, 13, 1, 4]);
makespan = 1304;
----------
assign = array1d(1..14 ,[6, 6, 1, 1, 6, 6, 6, 6, 1, 2, 3, 4, 5, 6]);
next = array1d(1..14 ,[2, 8, 9, 3, 14, 7, 5, 6, 10, 11, 12, 13, 1, 4]);
makespan = 1302;
----------
assign = array1d(1..14 ,[6, 6, 1, 1, 6, 6, 6, 6, 1, 2, 3, 4, 5, 6]);
next = array1d(1..14 ,[2, 8, 9, 3, 14, 7, 5, 6, 10, 11, 12, 13, 1, 4]);
makespan = 1300;
----------
assign = array1d(1..14 ,[6, 6, 1, 1, 6, 6, 6, 6, 1, 2, 3, 4, 5, 6]);
next = array1d(1..14 ,[2, 8, 9, 3, 14, 7, 5, 6, 10, 11, 12, 13, 1, 4]);
makespan = 1299;
----------
assign = array1d(1..14 ,[6, 6, 1, 1, 6, 6, 6, 6, 1, 2, 3, 4, 5, 6]);
next = array1d(1..14 ,[2, 8, 9, 3, 14, 7, 5, 6, 10, 11, 12, 13, 1, 4]);
makespan = 1298;
----------
assign = array1d(1..14 ,[6, 6, 1, 1, 6, 6, 6, 6, 1, 2, 3, 4, 5, 6]);
next = array1d(1..14 ,[2, 8, 9, 3, 14, 7, 5, 6, 10, 11, 12, 13, 1, 4]);
makespan = 1297;
----------
assign = array1d(1..14 ,[6, 6, 1, 1, 6, 6, 6, 6, 1, 2, 3, 4, 5, 6]);
next = array1d(1..14 ,[2, 8, 9, 3, 14, 7, 5, 6, 10, 11, 12, 13, 1, 4]);
makespan = 1295;
----------
assign = array1d(1..14 ,[6, 6, 1, 1, 6, 6, 6, 6, 1, 2, 3, 4, 5, 6]);
next = array1d(1..14 ,[2, 8, 9, 3, 14, 7, 5, 6, 10, 11, 12, 13, 1, 4]);
makespan = 1294;
----------
assign = array1d(1..14 ,[6, 6, 1, 1, 6, 6, 6, 6, 1, 2, 3, 4, 5, 6]);
next = array1d(1..14 ,[2, 8, 9, 3, 14, 7, 5, 6, 10, 11, 12, 13, 1, 4]);
makespan = 1292;
----------
assign = array1d(1..14 ,[6, 6, 1, 1, 6, 6, 6, 6, 1, 2, 3, 4, 5, 6]);
next = array1d(1..14 ,[2, 8, 9, 3, 14, 7, 5, 6, 10, 11, 12, 13, 1, 4]);
makespan = 1291;
----------
assign = array1d(1..14 ,[6, 6, 1, 1, 6, 6, 6, 6, 1, 2, 3, 4, 5, 6]);
next = array1d(1..14 ,[2, 8, 9, 3, 14, 7, 5, 6, 10, 11, 12, 13, 1, 4]);
makespan = 1290;
----------
assign = array1d(1..14 ,[6, 6, 1, 1, 6, 6, 6, 6, 1, 2, 3, 4, 5, 6]);
next = array1d(1..14 ,[2, 14, 9, 3, 1, 7, 5, 6, 10, 11, 12, 13, 8, 4]);
makespan = 1289;
----------
assign = array1d(1..14 ,[6, 6, 1, 1, 6, 6, 6, 6, 1, 2, 3, 4, 5, 6]);
next = array1d(1..14 ,[2, 14, 9, 3, 1, 7, 5, 6, 10, 11, 12, 13, 8, 4]);
makespan = 1288;
----------
assign = array1d(1..14 ,[6, 6, 1, 1, 6, 6, 6, 6, 1, 2, 3, 4, 5, 6]);
next = array1d(1..14 ,[2, 14, 9, 3, 1, 7, 5, 6, 10, 11, 12, 13, 8, 4]);
makespan = 1287;
----------
assign = array1d(1..14 ,[6, 6, 1, 1, 6, 6, 6, 6, 1, 2, 3, 4, 5, 6]);
next = array1d(1..14 ,[2, 14, 9, 3, 1, 7, 5, 6, 10, 11, 12, 13, 8, 4]);
makespan = 1285;
----------
assign = array1d(1..14 ,[6, 6, 1, 1, 6, 6, 6, 6, 1, 2, 3, 4, 5, 6]);
next = array1d(1..14 ,[2, 14, 9, 3, 1, 7, 5, 6, 10, 11, 12, 13, 8, 4]);
makespan = 1284;
----------
assign = array1d(1..14 ,[6, 6, 1, 1, 6, 6, 6, 6, 1, 2, 3, 4, 5, 6]);
next = array1d(1..14 ,[2, 14, 9, 3, 1, 7, 5, 6, 10, 11, 12, 13, 8, 4]);
makespan = 1283;
----------
assign = array1d(1..14 ,[6, 1, 5, 6, 6, 6, 6, 6, 1, 2, 3, 4, 5, 6]);
next = array1d(1..14 ,[8, 9, 13, 1, 14, 7, 5, 6, 10, 11, 12, 3, 4, 2]);
makespan = 1282;
----------
assign = array1d(1..14 ,[6, 6, 1, 6, 1, 6, 6, 6, 1, 2, 3, 4, 5, 6]);
next = array1d(1..14 ,[2, 8, 9, 1, 3, 7, 14, 6, 10, 11, 12, 13, 4, 5]);
makespan = 1280;
----------
assign = array1d(1..14 ,[6, 1, 5, 6, 6, 6, 6, 6, 1, 2, 3, 4, 5, 6]);
next = array1d(1..14 ,[8, 9, 13, 1, 14, 7, 5, 6, 10, 11, 12, 3, 4, 2]);
makespan = 1279;
----------
assign = array1d(1..14 ,[6, 6, 1, 6, 1, 6, 6, 6, 1, 2, 3, 4, 5, 6]);
next = array1d(1..14 ,[2, 8, 9, 1, 3, 7, 14, 6, 10, 11, 12, 13, 4, 5]);
makespan = 1275;
----------
assign = array1d(1..14 ,[6, 1, 5, 6, 6, 6, 6, 6, 1, 2, 3, 4, 5, 6]);
next = array1d(1..14 ,[8, 9, 13, 1, 14, 7, 5, 6, 10, 11, 12, 3, 4, 2]);
makespan = 1274;
----------
assign = array1d(1..14 ,[6, 6, 1, 6, 1, 6, 6, 6, 1, 2, 3, 4, 5, 6]);
next = array1d(1..14 ,[2, 8, 9, 1, 3, 7, 14, 6, 10, 11, 12, 13, 4, 5]);
makespan = 1272;
----------
assign = array1d(1..14 ,[6, 1, 5, 6, 6, 6, 6, 6, 1, 2, 3, 4, 5, 6]);
next = array1d(1..14 ,[8, 9, 13, 1, 14, 7, 5, 6, 10, 11, 12, 3, 4, 2]);
makespan = 1271;
----------
assign = array1d(1..14 ,[6, 6, 1, 6, 1, 6, 6, 6, 1, 2, 3, 4, 5, 6]);
next = array1d(1..14 ,[2, 8, 9, 1, 3, 7, 14, 6, 10, 11, 12, 13, 4, 5]);
makespan = 1270;
----------
assign = array1d(1..14 ,[6, 1, 5, 6, 6, 6, 6, 6, 1, 2, 3, 4, 5, 6]);
next = array1d(1..14 ,[8, 9, 13, 1, 14, 7, 5, 6, 10, 11, 12, 3, 4, 2]);
makespan = 1269;
----------
assign = array1d(1..14 ,[6, 6, 1, 6, 1, 6, 6, 6, 1, 2, 3, 4, 5, 6]);
next = array1d(1..14 ,[2, 8, 9, 1, 3, 7, 14, 6, 10, 11, 12, 13, 4, 5]);
makespan = 1267;
----------
assign = array1d(1..14 ,[6, 1, 5, 6, 6, 6, 6, 6, 1, 2, 3, 4, 5, 6]);
next = array1d(1..14 ,[8, 9, 13, 1, 14, 7, 5, 6, 10, 11, 12, 3, 4, 2]);
makespan = 1266;
----------
assign = array1d(1..14 ,[6, 6, 1, 6, 1, 6, 6, 6, 1, 2, 3, 4, 5, 6]);
next = array1d(1..14 ,[2, 8, 9, 1, 3, 7, 14, 6, 10, 11, 12, 13, 4, 5]);
makespan = 1265;
----------
assign = array1d(1..14 ,[6, 1, 3, 6, 6, 6, 6, 6, 1, 2, 3, 4, 5, 6]);
next = array1d(1..14 ,[8, 9, 11, 1, 14, 7, 5, 6, 10, 3, 12, 13, 4, 2]);
makespan = 1264;
----------
assign = array1d(1..14 ,[6, 6, 5, 6, 5, 6, 6, 6, 1, 2, 3, 4, 5, 6]);
next = array1d(1..14 ,[2, 14, 13, 1, 3, 7, 4, 6, 10, 11, 12, 5, 8, 9]);
makespan = 1262;
----------
assign = array1d(1..14 ,[6, 6, 1, 1, 6, 6, 6, 6, 1, 2, 3, 4, 5, 6]);
next = array1d(1..14 ,[2, 7, 9, 3, 14, 1, 5, 6, 10, 11, 12, 13, 8, 4]);
makespan = 1259;
----------
assign = array1d(1..14 ,[6, 6, 1, 1, 6, 6, 6, 6, 1, 2, 3, 4, 5, 6]);
next = array1d(1..14 ,[2, 7, 9, 3, 14, 1, 5, 6, 10, 11, 12, 13, 8, 4]);
makespan = 1257;
----------
assign = array1d(1..14 ,[6, 6, 1, 1, 6, 6, 6, 6, 1, 2, 3, 4, 5, 6]);
next = array1d(1..14 ,[2, 7, 9, 3, 14, 1, 5, 6, 10, 11, 12, 13, 8, 4]);
makespan = 1255;
----------
assign = array1d(1..14 ,[6, 6, 1, 1, 6, 6, 6, 6, 1, 2, 3, 4, 5, 6]);
next = array1d(1..14 ,[2, 7, 9, 3, 14, 1, 5, 6, 10, 11, 12, 13, 8, 4]);
makespan = 1252;
----------
assign = array1d(1..14 ,[6, 6, 1, 1, 6, 6, 6, 6, 1, 2, 3, 4, 5, 6]);
next = array1d(1..14 ,[2, 14, 9, 3, 8, 1, 5, 6, 10, 11, 12, 13, 7, 4]);
makespan = 1249;
----------
assign = array1d(1..14 ,[6, 6, 1, 1, 6, 6, 6, 6, 1, 2, 3, 4, 5, 6]);
next = array1d(1..14 ,[2, 14, 9, 3, 8, 1, 5, 6, 10, 11, 12, 13, 7, 4]);
makespan = 1245;
----------
assign = array1d(1..14 ,[6, 6, 1, 1, 6, 6, 6, 6, 1, 2, 3, 4, 5, 6]);
next = array1d(1..14 ,[2, 14, 9, 3, 8, 1, 5, 6, 10, 11, 12, 13, 7, 4]);
makespan = 1244;
----------
assign = array1d(1..14 ,[6, 6, 1, 1, 6, 6, 6, 6, 1, 2, 3, 4, 5, 6]);
next = array1d(1..14 ,[2, 7, 9, 3, 8, 14, 5, 6, 10, 11, 12, 13, 1, 4]);
makespan = 1239;
----------
assign = array1d(1..14 ,[6, 6, 1, 1, 6, 6, 6, 6, 1, 2, 3, 4, 5, 6]);
next = array1d(1..14 ,[2, 7, 9, 3, 8, 14, 5, 6, 10, 11, 12, 13, 1, 4]);
makespan = 1236;
----------
assign = array1d(1..14 ,[6, 6, 1, 1, 6, 6, 6, 6, 1, 2, 3, 4, 5, 6]);
next = array1d(1..14 ,[2, 5, 9, 3, 7, 14, 8, 6, 10, 11, 12, 13, 1, 4]);
makespan = 1229;
----------
assign = array1d(1..14 ,[6, 6, 1, 6, 6, 6, 1, 6, 1, 2, 3, 4, 5, 6]);
next = array1d(1..14 ,[2, 14, 9, 1, 8, 4, 3, 6, 10, 11, 12, 13, 5, 7]);
makespan = 1222;
----------
assign = array1d(1..14 ,[6, 6, 1, 6, 6, 6, 1, 6, 1, 2, 3, 4, 5, 6]);
next = array1d(1..14 ,[2, 14, 9, 1, 8, 4, 3, 6, 10, 11, 12, 13, 5, 7]);
makespan = 1213;
----------
assign = array1d(1..14 ,[6, 6, 1, 1, 6, 6, 6, 6, 1, 2, 3, 4, 5, 6]);
next = array1d(1..14 ,[2, 14, 9, 3, 7, 5, 1, 6, 10, 11, 12, 13, 8, 4]);
makespan = 1212;
----------
assign = array1d(1..14 ,[6, 6, 4, 6, 1, 6, 1, 6, 1, 2, 3, 4, 5, 6]);
next = array1d(1..14 ,[2, 14, 12, 1, 7, 4, 9, 6, 10, 11, 3, 13, 8, 5]);
makespan = 1198;
----------
assign = array1d(1..14 ,[6, 6, 2, 6, 1, 6, 1, 6, 1, 2, 3, 4, 5, 6]);
next = array1d(1..14 ,[2, 14, 10, 1, 7, 4, 9, 6, 3, 11, 12, 13, 8, 5]);
makespan = 1196;
----------
assign = array1d(1..14 ,[6, 6, 4, 6, 1, 6, 1, 6, 1, 2, 3, 4, 5, 6]);
next = array1d(1..14 ,[2, 14, 12, 1, 7, 4, 9, 6, 10, 11, 3, 13, 8, 5]);
makespan = 1189;
----------
assign = array1d(1..14 ,[6, 6, 5, 6, 1, 6, 1, 6, 1, 2, 3, 4, 5, 6]);
next = array1d(1..14 ,[2, 14, 13, 1, 7, 4, 9, 6, 10, 11, 12, 3, 8, 5]);
makespan = 1181;
----------
assign = array1d(1..14 ,[6, 6, 2, 6, 1, 6, 1, 6, 1, 2, 3, 4, 5, 6]);
next = array1d(1..14 ,[2, 14, 10, 1, 7, 4, 9, 6, 3, 11, 12, 13, 8, 5]);
makespan = 1170;
----------
assign = array1d(1..14 ,[6, 6, 5, 6, 1, 6, 1, 6, 1, 2, 3, 4, 5, 6]);
next = array1d(1..14 ,[2, 14, 13, 1, 7, 4, 9, 6, 10, 11, 12, 3, 8, 5]);
makespan = 1165;
----------
assign = array1d(1..14 ,[6, 6, 2, 6, 1, 6, 1, 6, 1, 2, 3, 4, 5, 6]);
next = array1d(1..14 ,[2, 14, 10, 1, 7, 4, 9, 6, 3, 11, 12, 13, 8, 5]);
makespan = 1163;
----------
assign = array1d(1..14 ,[6, 6, 5, 6, 1, 6, 1, 6, 1, 2, 3, 4, 5, 6]);
next = array1d(1..14 ,[2, 14, 13, 1, 7, 4, 9, 6, 10, 11, 12, 3, 8, 5]);
makespan = 1162;
----------
assign = array1d(1..14 ,[6, 6, 3, 6, 1, 6, 1, 6, 1, 2, 3, 4, 5, 6]);
next = array1d(1..14 ,[2, 14, 11, 1, 7, 4, 9, 6, 10, 3, 12, 13, 8, 5]);
makespan = 1161;
----------
assign = array1d(1..14 ,[6, 6, 4, 6, 1, 6, 1, 6, 1, 2, 3, 4, 5, 6]);
next = array1d(1..14 ,[2, 14, 12, 1, 7, 4, 9, 6, 10, 11, 3, 13, 8, 5]);
makespan = 1160;
----------
assign = array1d(1..14 ,[6, 6, 5, 6, 1, 6, 1, 6, 1, 2, 3, 4, 5, 6]);
next = array1d(1..14 ,[2, 14, 13, 1, 7, 4, 9, 6, 10, 11, 12, 3, 8, 5]);
makespan = 1158;
----------
assign = array1d(1..14 ,[6, 6, 2, 6, 1, 6, 1, 6, 1, 2, 3, 4, 5, 6]);
next = array1d(1..14 ,[2, 14, 10, 1, 7, 4, 9, 6, 3, 11, 12, 13, 8, 5]);
makespan = 1157;
----------
assign = array1d(1..14 ,[6, 6, 4, 6, 1, 6, 1, 6, 1, 2, 3, 4, 5, 6]);
next = array1d(1..14 ,[2, 14, 12, 1, 7, 4, 9, 6, 10, 11, 3, 13, 8, 5]);
makespan = 1156;
----------
assign = array1d(1..14 ,[6, 6, 5, 6, 1, 6, 1, 6, 1, 2, 3, 4, 5, 6]);
next = array1d(1..14 ,[2, 14, 13, 1, 7, 4, 9, 6, 10, 11, 12, 3, 8, 5]);
makespan = 1155;
----------
assign = array1d(1..14 ,[6, 6, 3, 6, 1, 6, 1, 6, 1, 2, 3, 4, 5, 6]);
next = array1d(1..14 ,[2, 14, 11, 1, 7, 4, 9, 6, 10, 3, 12, 13, 8, 5]);
makespan = 1154;
----------
assign = array1d(1..14 ,[6, 6, 5, 6, 1, 6, 1, 6, 1, 2, 3, 4, 5, 6]);
next = array1d(1..14 ,[2, 14, 13, 1, 7, 4, 9, 6, 10, 11, 12, 3, 8, 5]);
makespan = 1153;
----------
assign = array1d(1..14 ,[6, 6, 3, 6, 1, 6, 1, 6, 1, 2, 3, 4, 5, 6]);
next = array1d(1..14 ,[2, 14, 11, 1, 7, 4, 9, 6, 10, 3, 12, 13, 8, 5]);
makespan = 1151;
----------
assign = array1d(1..14 ,[6, 6, 4, 6, 1, 6, 1, 6, 1, 2, 3, 4, 5, 6]);
next = array1d(1..14 ,[2, 14, 12, 1, 7, 4, 9, 6, 10, 11, 3, 13, 8, 5]);
makespan = 1150;
----------
assign = array1d(1..14 ,[6, 6, 5, 6, 1, 6, 1, 6, 1, 2, 3, 4, 5, 6]);
next = array1d(1..14 ,[2, 14, 13, 1, 7, 4, 9, 6, 10, 11, 12, 3, 8, 5]);
makespan = 1148;
----------
assign = array1d(1..14 ,[6, 6, 2, 6, 1, 6, 1, 6, 1, 2, 3, 4, 5, 6]);
next = array1d(1..14 ,[2, 14, 10, 1, 7, 4, 9, 6, 3, 11, 12, 13, 8, 5]);
makespan = 1147;
----------
assign = array1d(1..14 ,[6, 6, 5, 6, 1, 6, 1, 6, 1, 2, 3, 4, 5, 6]);
next = array1d(1..14 ,[2, 14, 13, 1, 7, 4, 9, 6, 10, 11, 12, 3, 8, 5]);
makespan = 1146;
----------
assign = array1d(1..14 ,[6, 6, 2, 6, 1, 6, 1, 6, 1, 2, 3, 4, 5, 6]);
next = array1d(1..14 ,[2, 14, 10, 1, 7, 4, 9, 6, 3, 11, 12, 13, 8, 5]);
makespan = 1145;
----------
assign = array1d(1..14 ,[6, 6, 5, 6, 1, 6, 1, 6, 1, 2, 3, 4, 5, 6]);
next = array1d(1..14 ,[2, 14, 13, 1, 7, 4, 9, 6, 10, 11, 12, 3, 8, 5]);
makespan = 1143;
----------
assign = array1d(1..14 ,[6, 6, 2, 6, 1, 6, 1, 6, 1, 2, 3, 4, 5, 6]);
next = array1d(1..14 ,[2, 14, 10, 1, 7, 4, 9, 6, 3, 11, 12, 13, 8, 5]);
makespan = 1142;
----------
assign = array1d(1..14 ,[6, 6, 4, 6, 1, 6, 1, 6, 1, 2, 3, 4, 5, 6]);
next = array1d(1..14 ,[2, 14, 12, 1, 7, 4, 9, 6, 10, 11, 3, 13, 8, 5]);
makespan = 1141;
----------
assign = array1d(1..14 ,[6, 6, 2, 6, 1, 6, 1, 6, 1, 2, 3, 4, 5, 6]);
next = array1d(1..14 ,[2, 14, 10, 1, 7, 4, 9, 6, 3, 11, 12, 13, 8, 5]);
makespan = 1140;
----------
assign = array1d(1..14 ,[6, 6, 5, 6, 1, 6, 1, 6, 1, 2, 3, 4, 5, 6]);
next = array1d(1..14 ,[2, 14, 13, 1, 7, 4, 9, 6, 10, 11, 12, 3, 8, 5]);
makespan = 1138;
----------
assign = array1d(1..14 ,[6, 6, 2, 6, 1, 6, 1, 6, 1, 2, 3, 4, 5, 6]);
next = array1d(1..14 ,[2, 14, 10, 1, 7, 4, 9, 6, 3, 11, 12, 13, 8, 5]);
makespan = 1137;
----------
assign = array1d(1..14 ,[6, 6, 4, 6, 1, 6, 1, 6, 1, 2, 3, 4, 5, 6]);
next = array1d(1..14 ,[2, 14, 12, 1, 7, 4, 9, 6, 10, 11, 3, 13, 8, 5]);
makespan = 1136;
----------
assign = array1d(1..14 ,[6, 6, 5, 6, 1, 6, 1, 6, 1, 2, 3, 4, 5, 6]);
next = array1d(1..14 ,[2, 14, 13, 1, 7, 4, 9, 6, 10, 11, 12, 3, 8, 5]);
makespan = 1135;
----------
assign = array1d(1..14 ,[6, 6, 4, 6, 1, 6, 1, 6, 1, 2, 3, 4, 5, 6]);
next = array1d(1..14 ,[2, 14, 12, 1, 7, 4, 9, 6, 10, 11, 3, 13, 8, 5]);
makespan = 1133;
----------
assign = array1d(1..14 ,[6, 6, 2, 6, 1, 6, 1, 6, 1, 2, 3, 4, 5, 6]);
next = array1d(1..14 ,[2, 14, 10, 1, 7, 4, 9, 6, 3, 11, 12, 13, 8, 5]);
makespan = 1132;
----------
assign = array1d(1..14 ,[6, 6, 3, 6, 1, 6, 1, 6, 1, 2, 3, 4, 5, 6]);
next = array1d(1..14 ,[2, 14, 11, 1, 7, 4, 9, 6, 10, 3, 12, 13, 8, 5]);
makespan = 1131;
----------
assign = array1d(1..14 ,[6, 6, 2, 6, 1, 6, 1, 6, 1, 2, 3, 4, 5, 6]);
next = array1d(1..14 ,[2, 14, 10, 1, 7, 4, 9, 6, 3, 11, 12, 13, 8, 5]);
makespan = 1130;
----------
assign = array1d(1..14 ,[6, 6, 4, 6, 1, 6, 1, 6, 1, 2, 3, 4, 5, 6]);
next = array1d(1..14 ,[2, 14, 12, 1, 7, 4, 9, 6, 10, 11, 3, 13, 8, 5]);
makespan = 1129;
----------
assign = array1d(1..14 ,[6, 6, 5, 6, 1, 6, 1, 6, 1, 2, 3, 4, 5, 6]);
next = array1d(1..14 ,[2, 14, 13, 1, 7, 4, 9, 6, 10, 11, 12, 3, 8, 5]);
makespan = 1128;
----------
assign = array1d(1..14 ,[6, 6, 2, 6, 1, 6, 1, 6, 1, 2, 3, 4, 5, 6]);
next = array1d(1..14 ,[2, 14, 10, 1, 7, 4, 9, 6, 3, 11, 12, 13, 8, 5]);
makespan = 1127;
----------
assign = array1d(1..14 ,[6, 6, 5, 6, 1, 6, 1, 6, 1, 2, 3, 4, 5, 6]);
next = array1d(1..14 ,[2, 14, 13, 1, 7, 4, 9, 6, 10, 11, 12, 3, 8, 5]);
makespan = 1126;
----------
assign = array1d(1..14 ,[6, 6, 2, 6, 1, 6, 1, 6, 1, 2, 3, 4, 5, 6]);
next = array1d(1..14 ,[2, 14, 10, 1, 7, 4, 9, 6, 3, 11, 12, 13, 8, 5]);
makespan = 1125;
----------
assign = array1d(1..14 ,[6, 6, 3, 6, 1, 6, 1, 6, 1, 2, 3, 4, 5, 6]);
next = array1d(1..14 ,[2, 14, 11, 1, 7, 4, 9, 6, 10, 3, 12, 13, 8, 5]);
makespan = 1123;
----------
assign = array1d(1..14 ,[6, 6, 2, 6, 1, 6, 1, 6, 1, 2, 3, 4, 5, 6]);
next = array1d(1..14 ,[2, 14, 10, 1, 7, 4, 9, 6, 3, 11, 12, 13, 8, 5]);
makespan = 1122;
----------
assign = array1d(1..14 ,[6, 6, 4, 6, 1, 6, 1, 6, 1, 2, 3, 4, 5, 6]);
next = array1d(1..14 ,[2, 14, 12, 1, 7, 4, 9, 6, 10, 11, 3, 13, 8, 5]);
makespan = 1121;
----------
assign = array1d(1..14 ,[6, 6, 5, 6, 1, 6, 1, 6, 1, 2, 3, 4, 5, 6]);
next = array1d(1..14 ,[2, 14, 13, 1, 7, 4, 9, 6, 10, 11, 12, 3, 8, 5]);
makespan = 1120;
----------
assign = array1d(1..14 ,[6, 6, 4, 6, 1, 6, 1, 6, 1, 2, 3, 4, 5, 6]);
next = array1d(1..14 ,[2, 14, 12, 1, 7, 4, 9, 6, 10, 11, 3, 13, 8, 5]);
makespan = 1118;
----------
assign = array1d(1..14 ,[6, 6, 3, 6, 1, 6, 1, 6, 1, 2, 3, 4, 5, 6]);
next = array1d(1..14 ,[2, 14, 11, 1, 7, 4, 9, 6, 10, 3, 12, 13, 8, 5]);
makespan = 1113;
----------
assign = array1d(1..14 ,[6, 6, 4, 6, 1, 6, 1, 6, 1, 2, 3, 4, 5, 6]);
next = array1d(1..14 ,[2, 14, 12, 1, 7, 4, 9, 6, 10, 11, 3, 13, 8, 5]);
makespan = 1109;
----------
assign = array1d(1..14 ,[6, 6, 5, 6, 1, 6, 1, 6, 1, 2, 3, 4, 5, 6]);
next = array1d(1..14 ,[2, 14, 13, 1, 7, 4, 9, 6, 10, 11, 12, 3, 8, 5]);
makespan = 1108;
----------
assign = array1d(1..14 ,[6, 6, 2, 6, 1, 6, 1, 6, 1, 2, 3, 4, 5, 6]);
next = array1d(1..14 ,[2, 14, 10, 1, 7, 4, 9, 6, 3, 11, 12, 13, 8, 5]);
makespan = 1102;
----------
assign = array1d(1..14 ,[6, 6, 3, 6, 1, 6, 1, 6, 1, 2, 3, 4, 5, 6]);
next = array1d(1..14 ,[2, 14, 11, 1, 7, 4, 9, 6, 10, 3, 12, 13, 8, 5]);
makespan = 1099;
----------
assign = array1d(1..14 ,[6, 6, 2, 6, 1, 6, 1, 6, 1, 2, 3, 4, 5, 6]);
next = array1d(1..14 ,[2, 14, 10, 1, 7, 4, 9, 6, 3, 11, 12, 13, 8, 5]);
makespan = 1097;
----------
assign = array1d(1..14 ,[6, 6, 3, 6, 1, 6, 1, 6, 1, 2, 3, 4, 5, 6]);
next = array1d(1..14 ,[2, 14, 11, 1, 7, 4, 9, 6, 10, 3, 12, 13, 8, 5]);
makespan = 1093;
----------
assign = array1d(1..14 ,[6, 6, 5, 6, 1, 6, 1, 6, 1, 2, 3, 4, 5, 6]);
next = array1d(1..14 ,[2, 14, 13, 1, 7, 4, 9, 6, 10, 11, 12, 3, 8, 5]);
makespan = 1090;
----------
assign = array1d(1..14 ,[6, 6, 4, 6, 1, 6, 1, 6, 1, 2, 3, 4, 5, 6]);
next = array1d(1..14 ,[2, 14, 12, 1, 7, 4, 9, 6, 10, 11, 3, 13, 8, 5]);
makespan = 1081;
----------
assign = array1d(1..14 ,[6, 6, 5, 6, 1, 6, 1, 6, 1, 2, 3, 4, 5, 6]);
next = array1d(1..14 ,[2, 14, 13, 1, 7, 4, 9, 6, 10, 11, 12, 3, 8, 5]);
makespan = 1076;
----------
assign = array1d(1..14 ,[6, 6, 2, 6, 1, 6, 1, 6, 1, 2, 3, 4, 5, 6]);
next = array1d(1..14 ,[2, 14, 10, 1, 7, 4, 9, 6, 3, 11, 12, 13, 8, 5]);
makespan = 1073;
----------
assign = array1d(1..14 ,[6, 6, 5, 6, 1, 6, 1, 6, 1, 2, 3, 4, 5, 6]);
next = array1d(1..14 ,[2, 14, 13, 1, 7, 4, 9, 6, 10, 11, 12, 3, 8, 5]);
makespan = 1067;
----------
assign = array1d(1..14 ,[6, 6, 5, 6, 1, 6, 1, 6, 1, 2, 3, 4, 5, 6]);
next = array1d(1..14 ,[2, 14, 13, 1, 7, 4, 9, 6, 10, 11, 12, 3, 8, 5]);
makespan = 1064;
----------
assign = array1d(1..14 ,[6, 6, 5, 6, 1, 6, 1, 6, 1, 2, 3, 4, 5, 6]);
next = array1d(1..14 ,[2, 14, 13, 1, 7, 4, 9, 6, 10, 11, 12, 3, 8, 5]);
makespan = 1028;
----------
assign = array1d(1..14 ,[6, 6, 5, 6, 1, 6, 1, 6, 1, 2, 3, 4, 5, 6]);
next = array1d(1..14 ,[2, 14, 13, 1, 7, 4, 9, 6, 10, 11, 12, 3, 8, 5]);
makespan = 1026;
----------
assign = array1d(1..14 ,[6, 6, 2, 6, 1, 6, 1, 6, 1, 2, 3, 4, 5, 6]);
next = array1d(1..14 ,[2, 14, 10, 1, 7, 4, 9, 6, 3, 11, 12, 13, 8, 5]);
makespan = 1024;
----------
assign = array1d(1..14 ,[6, 6, 2, 6, 1, 6, 1, 6, 1, 2, 3, 4, 5, 6]);
next = array1d(1..14 ,[2, 14, 10, 1, 7, 4, 9, 6, 3, 11, 12, 13, 8, 5]);
makespan = 1021;
----------
assign = array1d(1..14 ,[6, 6, 2, 6, 1, 6, 1, 6, 1, 2, 3, 4, 5, 6]);
next = array1d(1..14 ,[2, 14, 10, 1, 7, 4, 9, 6, 3, 11, 12, 13, 8, 5]);
makespan = 1019;
----------
assign = array1d(1..14 ,[6, 6, 5, 6, 1, 6, 1, 6, 1, 2, 3, 4, 5, 6]);
next = array1d(1..14 ,[2, 14, 13, 1, 7, 4, 9, 6, 10, 11, 12, 3, 8, 5]);
makespan = 1018;
----------
assign = array1d(1..14 ,[6, 6, 2, 6, 1, 6, 1, 6, 1, 2, 3, 4, 5, 6]);
next = array1d(1..14 ,[2, 14, 10, 1, 7, 4, 9, 6, 3, 11, 12, 13, 8, 5]);
makespan = 1017;
----------
assign = array1d(1..14 ,[6, 6, 2, 6, 1, 6, 1, 6, 1, 2, 3, 4, 5, 6]);
next = array1d(1..14 ,[2, 14, 10, 1, 7, 4, 9, 6, 3, 11, 12, 13, 8, 5]);
makespan = 1016;
----------
assign = array1d(1..14 ,[6, 6, 2, 6, 1, 6, 1, 6, 1, 2, 3, 4, 5, 6]);
next = array1d(1..14 ,[2, 14, 10, 1, 7, 4, 9, 6, 3, 11, 12, 13, 8, 5]);
makespan = 1014;
----------
assign = array1d(1..14 ,[6, 6, 2, 6, 1, 6, 1, 6, 1, 2, 3, 4, 5, 6]);
next = array1d(1..14 ,[2, 14, 10, 1, 7, 4, 9, 6, 3, 11, 12, 13, 8, 5]);
makespan = 1013;
----------
assign = array1d(1..14 ,[6, 6, 2, 6, 1, 6, 1, 6, 1, 2, 3, 4, 5, 6]);
next = array1d(1..14 ,[2, 14, 10, 1, 7, 4, 9, 6, 3, 11, 12, 13, 8, 5]);
makespan = 1012;
----------
assign = array1d(1..14 ,[6, 6, 2, 6, 1, 6, 1, 6, 1, 2, 3, 4, 5, 6]);
next = array1d(1..14 ,[2, 14, 10, 1, 7, 4, 9, 6, 3, 11, 12, 13, 8, 5]);
makespan = 1011;
----------
assign = array1d(1..14 ,[6, 6, 2, 6, 1, 6, 1, 6, 1, 2, 3, 4, 5, 6]);
next = array1d(1..14 ,[2, 14, 10, 1, 7, 4, 9, 6, 3, 11, 12, 13, 8, 5]);
makespan = 1009;
----------
assign = array1d(1..14 ,[6, 6, 2, 6, 1, 6, 1, 6, 1, 2, 3, 4, 5, 6]);
next = array1d(1..14 ,[2, 14, 10, 1, 7, 4, 9, 6, 3, 11, 12, 13, 8, 5]);
makespan = 1008;
----------
assign = array1d(1..14 ,[6, 6, 2, 6, 1, 6, 1, 6, 1, 2, 3, 4, 5, 6]);
next = array1d(1..14 ,[2, 14, 10, 1, 7, 4, 9, 6, 3, 11, 12, 13, 8, 5]);
makespan = 1004;
----------
assign = array1d(1..14 ,[6, 6, 2, 6, 1, 6, 1, 6, 1, 2, 3, 4, 5, 6]);
next = array1d(1..14 ,[2, 4, 10, 8, 7, 14, 9, 6, 3, 11, 12, 13, 1, 5]);
makespan = 1003;
----------
assign = array1d(1..14 ,[6, 6, 1, 1, 1, 6, 1, 6, 1, 2, 3, 4, 5, 6]);
next = array1d(1..14 ,[2, 8, 9, 3, 7, 14, 4, 6, 10, 11, 12, 13, 1, 5]);
makespan = 1001;
----------
assign = array1d(1..14 ,[6, 6, 1, 1, 1, 6, 1, 6, 1, 2, 3, 4, 5, 6]);
next = array1d(1..14 ,[2, 8, 9, 3, 7, 14, 4, 6, 10, 11, 12, 13, 1, 5]);
makespan = 1000;
----------
assign = array1d(1..14 ,[6, 6, 4, 4, 4, 6, 4, 6, 1, 2, 3, 4, 5, 6]);
next = array1d(1..14 ,[2, 8, 5, 12, 7, 14, 4, 6, 10, 11, 3, 13, 1, 9]);
makespan = 999;
----------
assign = array1d(1..14 ,[6, 6, 5, 5, 5, 6, 5, 6, 1, 2, 3, 4, 5, 6]);
next = array1d(1..14 ,[2, 8, 5, 3, 7, 14, 13, 6, 10, 11, 12, 4, 1, 9]);
makespan = 998;
----------
assign = array1d(1..14 ,[6, 6, 5, 5, 5, 6, 5, 6, 1, 2, 3, 4, 5, 6]);
next = array1d(1..14 ,[2, 8, 5, 3, 7, 14, 13, 6, 10, 11, 12, 4, 1, 9]);
makespan = 996;
----------
assign = array1d(1..14 ,[6, 6, 2, 2, 2, 6, 2, 6, 1, 2, 3, 4, 5, 6]);
next = array1d(1..14 ,[2, 8, 5, 3, 7, 14, 10, 6, 4, 11, 12, 13, 1, 9]);
makespan = 995;
----------
assign = array1d(1..14 ,[6, 6, 5, 5, 5, 6, 5, 6, 1, 2, 3, 4, 5, 6]);
next = array1d(1..14 ,[2, 8, 5, 3, 7, 14, 13, 6, 10, 11, 12, 4, 1, 9]);
makespan = 994;
----------
assign = array1d(1..14 ,[6, 6, 2, 2, 2, 6, 2, 6, 1, 2, 3, 4, 5, 6]);
next = array1d(1..14 ,[2, 8, 5, 3, 7, 14, 10, 6, 4, 11, 12, 13, 1, 9]);
makespan = 993;
----------
assign = array1d(1..14 ,[6, 6, 5, 5, 5, 6, 5, 6, 1, 2, 3, 4, 5, 6]);
next = array1d(1..14 ,[2, 8, 5, 3, 7, 14, 13, 6, 10, 11, 12, 4, 1, 9]);
makespan = 992;
----------
assign = array1d(1..14 ,[6, 6, 2, 2, 2, 6, 2, 6, 1, 2, 3, 4, 5, 6]);
next = array1d(1..14 ,[2, 8, 5, 3, 7, 14, 10, 6, 4, 11, 12, 13, 1, 9]);
makespan = 991;
----------
assign = array1d(1..14 ,[6, 6, 5, 5, 5, 6, 5, 6, 1, 2, 3, 4, 5, 6]);
next = array1d(1..14 ,[2, 8, 5, 3, 7, 14, 13, 6, 10, 11, 12, 4, 1, 9]);
makespan = 989;
----------
assign = array1d(1..14 ,[6, 6, 2, 2, 2, 6, 2, 6, 1, 2, 3, 4, 5, 6]);
next = array1d(1..14 ,[2, 8, 5, 3, 7, 14, 10, 6, 4, 11, 12, 13, 1, 9]);
makespan = 988;
----------
assign = array1d(1..14 ,[6, 6, 5, 5, 5, 6, 5, 6, 1, 2, 3, 4, 5, 6]);
next = array1d(1..14 ,[2, 8, 5, 3, 7, 14, 13, 6, 10, 11, 12, 4, 1, 9]);
makespan = 986;
----------
assign = array1d(1..14 ,[6, 6, 2, 2, 2, 6, 2, 6, 1, 2, 3, 4, 5, 6]);
next = array1d(1..14 ,[2, 8, 5, 3, 7, 14, 10, 6, 4, 11, 12, 13, 1, 9]);
makespan = 985;
----------
assign = array1d(1..14 ,[6, 6, 2, 2, 2, 6, 2, 6, 1, 2, 3, 4, 5, 6]);
next = array1d(1..14 ,[2, 8, 5, 3, 7, 14, 10, 6, 4, 11, 12, 13, 1, 9]);
makespan = 984;
----------
assign = array1d(1..14 ,[6, 6, 3, 3, 3, 6, 3, 6, 1, 2, 3, 4, 5, 6]);
next = array1d(1..14 ,[2, 8, 5, 3, 7, 14, 11, 6, 10, 4, 12, 13, 1, 9]);
makespan = 981;
----------
assign = array1d(1..14 ,[6, 6, 5, 5, 5, 6, 5, 6, 1, 2, 3, 4, 5, 6]);
next = array1d(1..14 ,[2, 8, 5, 3, 7, 14, 13, 6, 10, 11, 12, 4, 1, 9]);
makespan = 979;
----------
assign = array1d(1..14 ,[6, 6, 2, 2, 2, 6, 2, 6, 1, 2, 3, 4, 5, 6]);
next = array1d(1..14 ,[2, 8, 5, 3, 7, 14, 10, 6, 4, 11, 12, 13, 1, 9]);
makespan = 976;
----------
assign = array1d(1..14 ,[6, 6, 5, 5, 5, 6, 5, 6, 1, 2, 3, 4, 5, 6]);
next = array1d(1..14 ,[2, 8, 5, 3, 7, 14, 13, 6, 10, 11, 12, 4, 1, 9]);
makespan = 975;
----------
assign = array1d(1..14 ,[6, 6, 4, 4, 4, 6, 4, 6, 1, 2, 3, 4, 5, 6]);
next = array1d(1..14 ,[2, 8, 5, 3, 7, 14, 12, 6, 10, 11, 4, 13, 1, 9]);
makespan = 970;
----------
assign = array1d(1..14 ,[6, 6, 5, 5, 5, 6, 5, 6, 1, 2, 3, 4, 5, 6]);
next = array1d(1..14 ,[2, 8, 5, 3, 7, 14, 13, 6, 10, 11, 12, 4, 1, 9]);
makespan = 969;
----------
assign = array1d(1..14 ,[6, 6, 4, 4, 4, 6, 4, 6, 1, 2, 3, 4, 5, 6]);
next = array1d(1..14 ,[2, 8, 5, 3, 7, 14, 12, 6, 10, 11, 4, 13, 1, 9]);
makespan = 962;
----------
assign = array1d(1..14 ,[6, 6, 3, 3, 3, 6, 3, 6, 1, 2, 3, 4, 5, 6]);
next = array1d(1..14 ,[2, 8, 5, 3, 7, 14, 11, 6, 10, 4, 12, 13, 1, 9]);
makespan = 947;
----------
assign = array1d(1..14 ,[6, 6, 2, 2, 2, 6, 2, 6, 1, 2, 3, 4, 5, 6]);
next = array1d(1..14 ,[2, 8, 5, 3, 7, 14, 10, 6, 4, 11, 12, 13, 1, 9]);
makespan = 937;
----------
assign = array1d(1..14 ,[6, 6, 3, 3, 3, 6, 3, 6, 1, 2, 3, 4, 5, 6]);
next = array1d(1..14 ,[2, 8, 5, 3, 7, 14, 11, 6, 10, 4, 12, 13, 1, 9]);
makespan = 935;
----------
assign = array1d(1..14 ,[6, 6, 2, 2, 2, 6, 2, 6, 1, 2, 3, 4, 5, 6]);
next = array1d(1..14 ,[2, 8, 5, 3, 7, 14, 10, 6, 4, 11, 12, 13, 1, 9]);
makespan = 927;
----------
assign = array1d(1..14 ,[6, 6, 3, 3, 3, 6, 3, 6, 1, 2, 3, 4, 5, 6]);
next = array1d(1..14 ,[2, 8, 5, 3, 7, 14, 11, 6, 10, 4, 12, 13, 1, 9]);
makespan = 905;
----------
assign = array1d(1..14 ,[6, 6, 2, 2, 2, 6, 2, 6, 1, 2, 3, 4, 5, 6]);
next = array1d(1..14 ,[2, 8, 5, 3, 7, 14, 10, 6, 4, 11, 12, 13, 1, 9]);
makespan = 885;
----------
assign = array1d(1..14 ,[6, 6, 3, 3, 3, 6, 3, 6, 1, 2, 3, 4, 5, 6]);
next = array1d(1..14 ,[2, 8, 5, 3, 7, 14, 11, 6, 10, 4, 12, 13, 1, 9]);
makespan = 884;
----------
assign = array1d(1..14 ,[6, 6, 3, 3, 3, 6, 3, 6, 1, 2, 3, 4, 5, 6]);
next = array1d(1..14 ,[2, 8, 5, 3, 7, 14, 11, 6, 10, 4, 12, 13, 1, 9]);
makespan = 882;
----------
assign = array1d(1..14 ,[6, 6, 2, 2, 2, 6, 2, 6, 1, 2, 3, 4, 5, 6]);
next = array1d(1..14 ,[2, 8, 5, 3, 7, 14, 10, 6, 4, 11, 12, 13, 1, 9]);
makespan = 881;
----------
assign = array1d(1..14 ,[6, 6, 2, 2, 2, 6, 2, 6, 1, 2, 3, 4, 5, 6]);
next = array1d(1..14 ,[2, 8, 5, 3, 7, 14, 10, 6, 4, 11, 12, 13, 1, 9]);
makespan = 880;
----------
assign = array1d(1..14 ,[6, 6, 4, 4, 4, 6, 4, 6, 1, 2, 3, 4, 5, 6]);
next = array1d(1..14 ,[2, 8, 5, 3, 7, 14, 12, 6, 10, 11, 4, 13, 1, 9]);
makespan = 876;
----------
assign = array1d(1..14 ,[6, 6, 4, 4, 4, 6, 4, 6, 1, 2, 3, 4, 5, 6]);
next = array1d(1..14 ,[2, 8, 5, 3, 7, 14, 12, 6, 10, 11, 4, 13, 1, 9]);
makespan = 875;
----------
assign = array1d(1..14 ,[6, 6, 4, 4, 4, 6, 4, 6, 1, 2, 3, 4, 5, 6]);
next = array1d(1..14 ,[2, 8, 5, 3, 7, 14, 12, 6, 10, 11, 4, 13, 1, 9]);
makespan = 872;
----------
assign = array1d(1..14 ,[6, 6, 4, 4, 4, 6, 4, 6, 1, 2, 3, 4, 5, 6]);
next = array1d(1..14 ,[2, 8, 5, 3, 7, 14, 12, 6, 10, 11, 4, 13, 1, 9]);
makespan = 868;
----------
assign = array1d(1..14 ,[6, 6, 3, 3, 3, 6, 3, 6, 1, 2, 3, 4, 5, 6]);
next = array1d(1..14 ,[2, 8, 5, 3, 7, 14, 11, 6, 10, 4, 12, 13, 1, 9]);
makespan = 867;
----------
assign = array1d(1..14 ,[6, 6, 4, 4, 4, 6, 4, 6, 1, 2, 3, 4, 5, 6]);
next = array1d(1..14 ,[2, 8, 5, 3, 7, 14, 12, 6, 10, 11, 4, 13, 1, 9]);
makespan = 866;
----------
assign = array1d(1..14 ,[6, 6, 5, 5, 5, 6, 5, 6, 1, 2, 3, 4, 5, 6]);
next = array1d(1..14 ,[2, 8, 5, 3, 7, 14, 13, 6, 10, 11, 12, 4, 1, 9]);
makespan = 864;
----------
assign = array1d(1..14 ,[6, 6, 2, 2, 2, 6, 2, 6, 1, 2, 3, 4, 5, 6]);
next = array1d(1..14 ,[2, 8, 5, 3, 7, 14, 10, 6, 4, 11, 12, 13, 1, 9]);
makespan = 862;
----------
assign = array1d(1..14 ,[6, 6, 5, 5, 5, 6, 5, 6, 1, 2, 3, 4, 5, 6]);
next = array1d(1..14 ,[2, 8, 5, 3, 7, 14, 13, 6, 10, 11, 12, 4, 1, 9]);
makespan = 859;
----------
assign = array1d(1..14 ,[6, 6, 3, 3, 3, 6, 3, 6, 1, 2, 3, 4, 5, 6]);
next = array1d(1..14 ,[2, 8, 5, 3, 7, 14, 11, 6, 10, 4, 12, 13, 1, 9]);
makespan = 857;
----------
assign = array1d(1..14 ,[6, 6, 5, 5, 5, 6, 5, 6, 1, 2, 3, 4, 5, 6]);
next = array1d(1..14 ,[2, 8, 5, 3, 7, 14, 13, 6, 10, 11, 12, 4, 1, 9]);
makespan = 856;
----------
assign = array1d(1..14 ,[6, 6, 3, 3, 3, 6, 3, 6, 1, 2, 3, 4, 5, 6]);
next = array1d(1..14 ,[2, 8, 5, 3, 7, 14, 11, 6, 10, 4, 12, 13, 1, 9]);
makespan = 855;
----------
assign = array1d(1..14 ,[6, 6, 5, 5, 5, 6, 5, 6, 1, 2, 3, 4, 5, 6]);
next = array1d(1..14 ,[2, 8, 5, 3, 7, 14, 13, 6, 10, 11, 12, 4, 1, 9]);
makespan = 854;
----------
assign = array1d(1..14 ,[6, 6, 3, 3, 3, 6, 3, 6, 1, 2, 3, 4, 5, 6]);
next = array1d(1..14 ,[2, 8, 5, 3, 7, 14, 11, 6, 10, 4, 12, 13, 1, 9]);
makespan = 852;
----------
assign = array1d(1..14 ,[6, 6, 5, 5, 5, 6, 5, 6, 1, 2, 3, 4, 5, 6]);
next = array1d(1..14 ,[2, 8, 5, 3, 7, 14, 13, 6, 10, 11, 12, 4, 1, 9]);
makespan = 851;
----------
assign = array1d(1..14 ,[6, 6, 2, 2, 2, 6, 2, 6, 1, 2, 3, 4, 5, 6]);
next = array1d(1..14 ,[2, 8, 5, 3, 7, 14, 10, 6, 4, 11, 12, 13, 1, 9]);
makespan = 850;
----------
assign = array1d(1..14 ,[6, 6, 5, 5, 5, 6, 5, 6, 1, 2, 3, 4, 5, 6]);
next = array1d(1..14 ,[2, 8, 5, 3, 7, 14, 13, 6, 10, 11, 12, 4, 1, 9]);
makespan = 849;
----------
assign = array1d(1..14 ,[6, 6, 2, 2, 2, 6, 2, 6, 1, 2, 3, 4, 5, 6]);
next = array1d(1..14 ,[2, 8, 5, 3, 7, 14, 10, 6, 4, 11, 12, 13, 1, 9]);
makespan = 847;
----------
assign = array1d(1..14 ,[6, 6, 5, 5, 5, 6, 5, 6, 1, 2, 3, 4, 5, 6]);
next = array1d(1..14 ,[2, 8, 5, 3, 7, 14, 13, 6, 10, 11, 12, 4, 1, 9]);
makespan = 845;
----------
assign = array1d(1..14 ,[6, 6, 3, 3, 3, 6, 3, 6, 1, 2, 3, 4, 5, 6]);
next = array1d(1..14 ,[2, 8, 5, 3, 7, 14, 11, 6, 10, 4, 12, 13, 1, 9]);
makespan = 842;
----------
assign = array1d(1..14 ,[6, 6, 5, 5, 5, 6, 5, 6, 1, 2, 3, 4, 5, 6]);
next = array1d(1..14 ,[2, 8, 5, 3, 7, 14, 13, 6, 10, 11, 12, 4, 1, 9]);
makespan = 839;
----------
assign = array1d(1..14 ,[6, 6, 3, 3, 3, 6, 3, 6, 1, 2, 3, 4, 5, 6]);
next = array1d(1..14 ,[2, 8, 5, 3, 7, 14, 11, 6, 10, 4, 12, 13, 1, 9]);
makespan = 833;
----------
assign = array1d(1..14 ,[6, 6, 5, 5, 5, 6, 5, 6, 1, 2, 3, 4, 5, 6]);
next = array1d(1..14 ,[2, 14, 5, 3, 7, 1, 13, 6, 10, 11, 12, 4, 8, 9]);
makespan = 825;
----------
assign = array1d(1..14 ,[6, 6, 3, 3, 3, 6, 3, 6, 1, 2, 3, 4, 5, 6]);
next = array1d(1..14 ,[2, 14, 5, 3, 7, 1, 11, 6, 10, 4, 12, 13, 8, 9]);
makespan = 818;
----------
assign = array1d(1..14 ,[6, 6, 5, 5, 5, 6, 5, 6, 1, 2, 3, 4, 5, 6]);
next = array1d(1..14 ,[14, 8, 5, 3, 7, 1, 13, 6, 10, 11, 12, 4, 2, 9]);
makespan = 815;
----------
assign = array1d(1..14 ,[6, 6, 3, 3, 3, 6, 3, 6, 1, 2, 3, 4, 5, 6]);
next = array1d(1..14 ,[14, 8, 5, 3, 7, 1, 11, 6, 10, 4, 12, 13, 2, 9]);
makespan = 813;
----------
assign = array1d(1..14 ,[6, 6, 4, 4, 4, 6, 4, 6, 1, 2, 3, 4, 5, 6]);
next = array1d(1..14 ,[8, 1, 5, 3, 7, 14, 12, 6, 10, 11, 4, 13, 2, 9]);
makespan = 791;
----------
assign = array1d(1..14 ,[6, 6, 4, 4, 4, 6, 4, 6, 1, 2, 3, 4, 5, 6]);
next = array1d(1..14 ,[8, 1, 5, 3, 7, 14, 12, 6, 10, 11, 4, 13, 2, 9]);
makespan = 786;
----------
assign = array1d(1..14 ,[6, 6, 4, 4, 4, 6, 4, 6, 1, 2, 3, 4, 5, 6]);
next = array1d(1..14 ,[8, 1, 5, 3, 7, 14, 12, 6, 10, 11, 4, 13, 2, 9]);
makespan = 783;
----------
assign = array1d(1..14 ,[6, 6, 3, 3, 3, 6, 3, 6, 1, 2, 3, 4, 5, 6]);
next = array1d(1..14 ,[14, 1, 5, 3, 7, 2, 11, 6, 10, 4, 12, 13, 8, 9]);
makespan = 782;
----------
assign = array1d(1..14 ,[6, 6, 4, 4, 4, 6, 4, 6, 1, 2, 3, 4, 5, 6]);
next = array1d(1..14 ,[14, 1, 5, 3, 7, 2, 12, 6, 10, 11, 4, 13, 8, 9]);
makespan = 780;
----------
assign = array1d(1..14 ,[6, 6, 4, 4, 4, 6, 4, 6, 1, 2, 3, 4, 5, 6]);
next = array1d(1..14 ,[14, 1, 5, 3, 7, 2, 12, 6, 10, 11, 4, 13, 8, 9]);
makespan = 778;
----------
assign = array1d(1..14 ,[6, 4, 5, 4, 6, 6, 4, 6, 1, 2, 3, 4, 5, 6]);
next = array1d(1..14 ,[5, 7, 13, 2, 8, 14, 12, 6, 10, 11, 4, 3, 1, 9]);
makespan = 777;
----------
assign = array1d(1..14 ,[4, 5, 4, 5, 6, 6, 6, 6, 1, 2, 3, 4, 5, 6]);
next = array1d(1..14 ,[12, 13, 1, 2, 14, 5, 8, 6, 10, 11, 3, 4, 7, 9]);
makespan = 769;
----------
assign = array1d(1..14 ,[6, 5, 6, 5, 3, 6, 5, 6, 1, 2, 3, 4, 5, 6]);
next = array1d(1..14 ,[14, 7, 1, 2, 11, 3, 13, 6, 10, 5, 12, 4, 8, 9]);
makespan = 768;
----------
assign = array1d(1..14 ,[6, 5, 6, 5, 3, 6, 5, 6, 1, 2, 3, 4, 5, 6]);
next = array1d(1..14 ,[14, 7, 1, 2, 11, 3, 13, 6, 10, 5, 12, 4, 8, 9]);
makespan = 766;
----------
assign = array1d(1..14 ,[6, 4, 5, 4, 5, 6, 6, 6, 1, 2, 3, 4, 5, 6]);
next = array1d(1..14 ,[7, 12, 5, 2, 13, 14, 8, 6, 10, 11, 4, 3, 1, 9]);
makespan = 765;
----------
assign = array1d(1..14 ,[6, 4, 5, 4, 5, 6, 6, 6, 1, 2, 3, 4, 5, 6]);
next = array1d(1..14 ,[7, 12, 5, 2, 13, 14, 8, 6, 10, 11, 4, 3, 1, 9]);
makespan = 762;
----------
assign = array1d(1..14 ,[6, 5, 4, 5, 4, 6, 6, 6, 1, 2, 3, 4, 5, 6]);
next = array1d(1..14 ,[7, 13, 5, 2, 12, 14, 8, 6, 10, 11, 3, 4, 1, 9]);
makespan = 755;
----------
assign = array1d(1..14 ,[6, 4, 5, 4, 5, 6, 5, 6, 1, 2, 3, 4, 5, 6]);
next = array1d(1..14 ,[8, 12, 13, 2, 7, 14, 3, 6, 10, 11, 4, 5, 1, 9]);
makespan = 747;
----------
assign = array1d(1..14 ,[6, 4, 5, 4, 5, 6, 5, 6, 1, 2, 3, 4, 5, 6]);
next = array1d(1..14 ,[14, 12, 13, 2, 7, 1, 3, 6, 10, 11, 4, 5, 8, 9]);
makespan = 739;
----------
assign = array1d(1..14 ,[5, 5, 5, 6, 4, 6, 6, 6, 1, 2, 3, 4, 5, 6]);
next = array1d(1..14 ,[13, 3, 1, 14, 12, 4, 8, 6, 10, 11, 5, 2, 7, 9]);
makespan = 734;
----------
assign = array1d(1..14 ,[5, 5, 5, 6, 4, 6, 6, 6, 1, 2, 3, 4, 5, 6]);
next = array1d(1..14 ,[13, 3, 1, 14, 12, 4, 8, 6, 10, 11, 5, 2, 7, 9]);
makespan = 728;
----------
assign = array1d(1..14 ,[5, 5, 5, 6, 4, 6, 6, 6, 1, 2, 3, 4, 5, 6]);
next = array1d(1..14 ,[13, 3, 1, 14, 12, 4, 8, 6, 10, 11, 5, 2, 7, 9]);
makespan = 726;
----------
assign = array1d(1..14 ,[5, 5, 5, 6, 4, 6, 6, 6, 1, 2, 3, 4, 5, 6]);
next = array1d(1..14 ,[13, 3, 1, 14, 12, 4, 8, 6, 10, 11, 5, 2, 7, 9]);
makespan = 724;
----------
assign = array1d(1..14 ,[5, 4, 5, 6, 2, 6, 5, 6, 1, 2, 3, 4, 5, 6]);
next = array1d(1..14 ,[7, 12, 1, 8, 10, 14, 13, 6, 5, 11, 2, 3, 4, 9]);
makespan = 715;
----------
assign = array1d(1..14 ,[5, 6, 5, 4, 2, 6, 5, 6, 1, 2, 3, 4, 5, 6]);
next = array1d(1..14 ,[7, 8, 1, 12, 10, 14, 13, 6, 5, 11, 4, 3, 2, 9]);
makespan = 713;
----------
assign = array1d(1..14 ,[5, 6, 5, 4, 2, 6, 5, 6, 1, 2, 3, 4, 5, 6]);
next = array1d(1..14 ,[7, 8, 1, 12, 10, 14, 13, 6, 5, 11, 4, 3, 2, 9]);
makespan = 709;
----------
assign = array1d(1..14 ,[5, 6, 5, 4, 2, 6, 5, 6, 1, 2, 3, 4, 5, 6]);
next = array1d(1..14 ,[7, 8, 1, 12, 10, 14, 13, 6, 5, 11, 4, 3, 2, 9]);
makespan = 704;
----------
assign = array1d(1..14 ,[5, 6, 5, 4, 2, 6, 5, 6, 1, 2, 3, 4, 5, 6]);
next = array1d(1..14 ,[7, 8, 1, 12, 10, 14, 13, 6, 5, 11, 4, 3, 2, 9]);
makespan = 703;
----------
assign = array1d(1..14 ,[5, 6, 5, 4, 2, 6, 5, 6, 1, 2, 3, 4, 5, 6]);
next = array1d(1..14 ,[7, 8, 1, 12, 10, 14, 13, 6, 5, 11, 4, 3, 2, 9]);
makespan = 697;
----------
assign = array1d(1..14 ,[5, 6, 5, 4, 2, 6, 5, 6, 1, 2, 3, 4, 5, 6]);
next = array1d(1..14 ,[7, 8, 1, 12, 10, 14, 13, 6, 5, 11, 4, 3, 2, 9]);
makespan = 695;
----------
assign = array1d(1..14 ,[5, 6, 5, 4, 2, 6, 5, 6, 1, 2, 3, 4, 5, 6]);
next = array1d(1..14 ,[7, 8, 1, 12, 10, 14, 13, 6, 5, 11, 4, 3, 2, 9]);
makespan = 694;
----------
assign = array1d(1..14 ,[5, 6, 5, 4, 2, 6, 5, 6, 1, 2, 3, 4, 5, 6]);
next = array1d(1..14 ,[7, 8, 1, 12, 10, 14, 13, 6, 5, 11, 4, 3, 2, 9]);
makespan = 692;
----------
assign = array1d(1..14 ,[5, 6, 5, 4, 2, 6, 5, 6, 1, 2, 3, 4, 5, 6]);
next = array1d(1..14 ,[7, 8, 1, 12, 10, 14, 13, 6, 5, 11, 4, 3, 2, 9]);
makespan = 683;
----------
assign = array1d(1..14 ,[5, 6, 5, 4, 2, 6, 5, 6, 1, 2, 3, 4, 5, 6]);
next = array1d(1..14 ,[7, 8, 1, 12, 10, 14, 13, 6, 5, 11, 4, 3, 2, 9]);
makespan = 680;
----------
assign = array1d(1..14 ,[5, 6, 5, 4, 2, 6, 5, 6, 1, 2, 3, 4, 5, 6]);
next = array1d(1..14 ,[7, 8, 1, 12, 10, 14, 13, 6, 5, 11, 4, 3, 2, 9]);
makespan = 676;
----------
assign = array1d(1..14 ,[5, 6, 5, 4, 2, 6, 5, 6, 1, 2, 3, 4, 5, 6]);
next = array1d(1..14 ,[7, 8, 1, 12, 10, 14, 13, 6, 5, 11, 4, 3, 2, 9]);
makespan = 671;
----------
assign = array1d(1..14 ,[5, 6, 5, 4, 2, 6, 5, 6, 1, 2, 3, 4, 5, 6]);
next = array1d(1..14 ,[7, 8, 1, 12, 10, 14, 13, 6, 5, 11, 4, 3, 2, 9]);
makespan = 667;
----------
assign = array1d(1..14 ,[5, 6, 5, 4, 2, 6, 5, 6, 1, 2, 3, 4, 5, 6]);
next = array1d(1..14 ,[7, 8, 1, 12, 10, 14, 13, 6, 5, 11, 4, 3, 2, 9]);
makespan = 642;
----------
assign = array1d(1..14 ,[5, 6, 5, 4, 2, 6, 5, 6, 1, 2, 3, 4, 5, 6]);
next = array1d(1..14 ,[7, 8, 1, 12, 10, 14, 13, 6, 5, 11, 4, 3, 2, 9]);
makespan = 641;
----------
assign = array1d(1..14 ,[5, 6, 5, 4, 2, 6, 5, 6, 1, 2, 3, 4, 5, 6]);
next = array1d(1..14 ,[7, 8, 1, 12, 10, 14, 13, 6, 5, 11, 4, 3, 2, 9]);
makespan = 640;
----------
assign = array1d(1..14 ,[5, 6, 5, 4, 2, 6, 5, 6, 1, 2, 3, 4, 5, 6]);
next = array1d(1..14 ,[7, 8, 1, 12, 10, 14, 13, 6, 5, 11, 4, 3, 2, 9]);
makespan = 638;
----------
assign = array1d(1..14 ,[5, 6, 5, 4, 2, 6, 5, 6, 1, 2, 3, 4, 5, 6]);
next = array1d(1..14 ,[7, 8, 1, 12, 10, 14, 13, 6, 5, 11, 4, 3, 2, 9]);
makespan = 634;
----------
assign = array1d(1..14 ,[5, 6, 5, 4, 2, 6, 5, 6, 1, 2, 3, 4, 5, 6]);
next = array1d(1..14 ,[7, 8, 1, 12, 10, 14, 13, 6, 5, 11, 4, 3, 2, 9]);
makespan = 633;
----------
assign = array1d(1..14 ,[5, 6, 5, 4, 2, 6, 5, 6, 1, 2, 3, 4, 5, 6]);
next = array1d(1..14 ,[7, 8, 1, 12, 10, 14, 13, 6, 5, 11, 4, 3, 2, 9]);
makespan = 625;
----------
assign = array1d(1..14 ,[5, 6, 5, 4, 2, 6, 5, 6, 1, 2, 3, 4, 5, 6]);
next = array1d(1..14 ,[7, 8, 1, 12, 10, 14, 13, 6, 5, 11, 4, 3, 2, 9]);
makespan = 613;
----------
assign = array1d(1..14 ,[5, 6, 5, 4, 2, 6, 5, 6, 1, 2, 3, 4, 5, 6]);
next = array1d(1..14 ,[7, 8, 1, 12, 10, 14, 13, 6, 5, 11, 4, 3, 2, 9]);
makespan = 609;
----------
assign = array1d(1..14 ,[5, 6, 5, 4, 2, 6, 5, 6, 1, 2, 3, 4, 5, 6]);
next = array1d(1..14 ,[7, 8, 1, 12, 10, 14, 13, 6, 5, 11, 4, 3, 2, 9]);
makespan = 604;
----------
assign = array1d(1..14 ,[5, 6, 5, 4, 2, 6, 5, 6, 1, 2, 3, 4, 5, 6]);
next = array1d(1..14 ,[7, 8, 1, 12, 10, 14, 13, 6, 5, 11, 4, 3, 2, 9]);
makespan = 600;
----------
assign = array1d(1..14 ,[5, 6, 5, 4, 2, 6, 5, 6, 1, 2, 3, 4, 5, 6]);
next = array1d(1..14 ,[7, 8, 1, 12, 10, 14, 13, 6, 5, 11, 4, 3, 2, 9]);
makespan = 599;
----------
assign = array1d(1..14 ,[3, 6, 3, 4, 5, 6, 3, 6, 1, 2, 3, 4, 5, 6]);
next = array1d(1..14 ,[7, 8, 1, 12, 13, 14, 11, 6, 10, 3, 4, 5, 2, 9]);
makespan = 594;
----------
assign = array1d(1..14 ,[3, 6, 3, 4, 5, 6, 3, 6, 1, 2, 3, 4, 5, 6]);
next = array1d(1..14 ,[7, 8, 1, 12, 13, 14, 11, 6, 10, 3, 4, 5, 2, 9]);
makespan = 584;
----------
assign = array1d(1..14 ,[3, 6, 3, 4, 5, 6, 3, 6, 1, 2, 3, 4, 5, 6]);
next = array1d(1..14 ,[7, 8, 1, 12, 13, 14, 11, 6, 10, 3, 4, 5, 2, 9]);
makespan = 576;
----------
assign = array1d(1..14 ,[3, 6, 3, 4, 5, 6, 3, 6, 1, 2, 3, 4, 5, 6]);
next = array1d(1..14 ,[7, 8, 1, 12, 13, 14, 11, 6, 10, 3, 4, 5, 2, 9]);
makespan = 575;
----------
assign = array1d(1..14 ,[3, 6, 3, 4, 5, 6, 3, 6, 1, 2, 3, 4, 5, 6]);
next = array1d(1..14 ,[7, 8, 1, 12, 13, 14, 11, 6, 10, 3, 4, 5, 2, 9]);
makespan = 572;
----------
assign = array1d(1..14 ,[3, 6, 3, 4, 5, 6, 3, 6, 1, 2, 3, 4, 5, 6]);
next = array1d(1..14 ,[7, 14, 1, 12, 13, 2, 11, 6, 10, 3, 4, 5, 8, 9]);
makespan = 561;
----------
assign = array1d(1..14 ,[3, 1, 3, 6, 4, 6, 3, 6, 1, 2, 3, 4, 5, 6]);
next = array1d(1..14 ,[7, 9, 1, 14, 12, 4, 11, 6, 10, 3, 5, 13, 8, 2]);
makespan = 557;
----------
assign = array1d(1..14 ,[3, 1, 3, 6, 4, 6, 3, 6, 1, 2, 3, 4, 5, 6]);
next = array1d(1..14 ,[7, 9, 1, 14, 12, 4, 11, 6, 10, 3, 5, 13, 8, 2]);
makespan = 553;
----------
assign = array1d(1..14 ,[3, 1, 3, 6, 4, 6, 3, 6, 1, 2, 3, 4, 5, 6]);
next = array1d(1..14 ,[7, 9, 1, 14, 12, 4, 11, 6, 10, 3, 5, 13, 8, 2]);
makespan = 546;
----------
assign = array1d(1..14 ,[3, 1, 3, 6, 4, 6, 3, 6, 1, 2, 3, 4, 5, 6]);
next = array1d(1..14 ,[7, 9, 1, 14, 12, 4, 11, 6, 10, 3, 5, 13, 8, 2]);
makespan = 540;
----------
assign = array1d(1..14 ,[5, 4, 5, 4, 3, 6, 6, 6, 1, 2, 3, 4, 5, 6]);
next = array1d(1..14 ,[13, 12, 1, 2, 11, 14, 8, 6, 10, 5, 4, 3, 7, 9]);
makespan = 530;
----------
assign = array1d(1..14 ,[6, 5, 6, 2, 4, 4, 3, 5, 1, 2, 3, 4, 5, 6]);
next = array1d(1..14 ,[14, 8, 1, 10, 12, 5, 11, 13, 4, 7, 6, 2, 3, 9]);
makespan = 529;
----------
assign = array1d(1..14 ,[2, 5, 2, 5, 4, 6, 3, 6, 1, 2, 3, 4, 5, 6]);
next = array1d(1..14 ,[10, 13, 1, 2, 12, 14, 11, 6, 3, 7, 5, 4, 8, 9]);
makespan = 528;
----------
assign = array1d(1..14 ,[4, 6, 4, 3, 5, 5, 3, 6, 1, 2, 3, 4, 5, 6]);
next = array1d(1..14 ,[12, 8, 1, 11, 13, 5, 4, 14, 10, 7, 3, 6, 2, 9]);
makespan = 518;
----------
assign = array1d(1..14 ,[6, 3, 6, 3, 5, 5, 4, 4, 1, 2, 3, 4, 5, 6]);
next = array1d(1..14 ,[14, 11, 1, 2, 13, 5, 12, 7, 10, 4, 8, 6, 3, 9]);
makespan = 514;
----------
assign = array1d(1..14 ,[3, 4, 6, 4, 5, 5, 3, 6, 1, 2, 3, 4, 5, 6]);
next = array1d(1..14 ,[7, 12, 8, 2, 13, 5, 11, 14, 10, 1, 4, 6, 3, 9]);
makespan = 511;
----------
assign = array1d(1..14 ,[4, 3, 6, 3, 5, 5, 4, 6, 1, 2, 3, 4, 5, 6]);
next = array1d(1..14 ,[7, 11, 8, 2, 13, 5, 12, 14, 10, 4, 1, 6, 3, 9]);
makespan = 509;
----------
assign = array1d(1..14 ,[5, 4, 1, 4, 6, 6, 5, 2, 1, 2, 3, 4, 5, 6]);
next = array1d(1..14 ,[7, 12, 9, 2, 14, 5, 13, 10, 8, 11, 4, 1, 6, 3]);
makespan = 505;
----------
assign = array1d(1..14 ,[6, 5, 2, 5, 4, 6, 4, 1, 1, 2, 3, 4, 5, 6]);
next = array1d(1..14 ,[6, 13, 10, 2, 7, 14, 12, 9, 3, 11, 5, 4, 1, 8]);
makespan = 504;
----------
assign = array1d(1..14 ,[6, 5, 2, 5, 4, 6, 4, 1, 1, 2, 3, 4, 5, 6]);
next = array1d(1..14 ,[6, 13, 10, 2, 7, 14, 12, 9, 3, 11, 5, 4, 1, 8]);
makespan = 500;
----------
assign = array1d(1..14 ,[6, 5, 2, 5, 4, 6, 4, 1, 1, 2, 3, 4, 5, 6]);
next = array1d(1..14 ,[6, 13, 10, 2, 7, 14, 12, 9, 3, 11, 5, 4, 1, 8]);
makespan = 498;
----------
assign = array1d(1..14 ,[6, 5, 2, 5, 4, 6, 4, 1, 1, 2, 3, 4, 5, 6]);
next = array1d(1..14 ,[6, 13, 10, 2, 7, 14, 12, 9, 3, 11, 5, 4, 1, 8]);
makespan = 497;
----------
assign = array1d(1..14 ,[6, 5, 2, 5, 4, 6, 4, 1, 1, 2, 3, 4, 5, 6]);
next = array1d(1..14 ,[6, 13, 10, 2, 7, 14, 12, 9, 3, 11, 5, 4, 1, 8]);
makespan = 496;
----------
assign = array1d(1..14 ,[6, 5, 2, 5, 4, 6, 4, 1, 1, 2, 3, 4, 5, 6]);
next = array1d(1..14 ,[6, 13, 10, 2, 7, 14, 12, 9, 3, 11, 5, 4, 1, 8]);
makespan = 494;
----------
assign = array1d(1..14 ,[6, 5, 2, 5, 4, 6, 4, 1, 1, 2, 3, 4, 5, 6]);
next = array1d(1..14 ,[6, 13, 10, 2, 7, 14, 12, 9, 3, 11, 5, 4, 1, 8]);
makespan = 491;
----------
assign = array1d(1..14 ,[6, 5, 2, 5, 4, 6, 4, 1, 1, 2, 3, 4, 5, 6]);
next = array1d(1..14 ,[6, 13, 10, 2, 7, 14, 12, 9, 3, 11, 5, 4, 1, 8]);
makespan = 488;
----------
assign = array1d(1..14 ,[6, 5, 2, 5, 4, 6, 4, 1, 1, 2, 3, 4, 5, 6]);
next = array1d(1..14 ,[6, 13, 10, 2, 7, 14, 12, 9, 3, 11, 5, 4, 1, 8]);
makespan = 483;
----------
assign = array1d(1..14 ,[6, 5, 2, 5, 4, 6, 4, 1, 1, 2, 3, 4, 5, 6]);
next = array1d(1..14 ,[6, 13, 10, 2, 7, 14, 12, 9, 3, 11, 5, 4, 1, 8]);
makespan = 482;
----------
assign = array1d(1..14 ,[6, 5, 2, 5, 4, 6, 4, 1, 1, 2, 3, 4, 5, 6]);
next = array1d(1..14 ,[6, 13, 10, 2, 7, 14, 12, 9, 3, 11, 5, 4, 1, 8]);
makespan = 481;
----------
assign = array1d(1..14 ,[6, 5, 2, 5, 4, 6, 4, 1, 1, 2, 3, 4, 5, 6]);
next = array1d(1..14 ,[6, 13, 10, 2, 7, 14, 12, 9, 3, 11, 5, 4, 1, 8]);
makespan = 480;
----------
assign = array1d(1..14 ,[6, 5, 2, 5, 4, 6, 4, 1, 1, 2, 3, 4, 5, 6]);
next = array1d(1..14 ,[6, 13, 10, 2, 7, 14, 12, 9, 3, 11, 5, 4, 1, 8]);
makespan = 479;
----------
assign = array1d(1..14 ,[6, 5, 2, 5, 4, 6, 4, 1, 1, 2, 3, 4, 5, 6]);
next = array1d(1..14 ,[6, 13, 10, 2, 7, 14, 12, 9, 3, 11, 5, 4, 1, 8]);
makespan = 478;
----------
assign = array1d(1..14 ,[6, 5, 2, 5, 4, 6, 4, 1, 1, 2, 3, 4, 5, 6]);
next = array1d(1..14 ,[6, 13, 10, 2, 7, 14, 12, 9, 3, 11, 5, 4, 1, 8]);
makespan = 476;
----------
assign = array1d(1..14 ,[6, 5, 2, 5, 4, 6, 4, 1, 1, 2, 3, 4, 5, 6]);
next = array1d(1..14 ,[6, 13, 10, 2, 7, 14, 12, 9, 3, 11, 5, 4, 1, 8]);
makespan = 471;
----------
assign = array1d(1..14 ,[6, 5, 2, 5, 4, 6, 4, 1, 1, 2, 3, 4, 5, 6]);
next = array1d(1..14 ,[6, 13, 10, 2, 7, 14, 12, 9, 3, 11, 5, 4, 1, 8]);
makespan = 469;
----------
assign = array1d(1..14 ,[6, 5, 2, 5, 4, 6, 4, 1, 1, 2, 3, 4, 5, 6]);
next = array1d(1..14 ,[6, 13, 10, 2, 7, 14, 12, 9, 3, 11, 5, 4, 1, 8]);
makespan = 463;
----------
assign = array1d(1..14 ,[6, 5, 2, 5, 4, 6, 4, 1, 1, 2, 3, 4, 5, 6]);
next = array1d(1..14 ,[6, 13, 10, 2, 7, 14, 12, 9, 3, 11, 5, 4, 1, 8]);
makespan = 438;
----------
assign = array1d(1..14 ,[6, 5, 2, 5, 4, 6, 4, 1, 1, 2, 3, 4, 5, 6]);
next = array1d(1..14 ,[6, 13, 10, 2, 7, 14, 12, 9, 3, 11, 5, 4, 1, 8]);
makespan = 413;
----------
assign = array1d(1..14 ,[6, 5, 2, 5, 4, 6, 4, 1, 1, 2, 3, 4, 5, 6]);
next = array1d(1..14 ,[6, 13, 10, 2, 7, 14, 12, 9, 3, 11, 5, 4, 1, 8]);
makespan = 410;
----------
assign = array1d(1..14 ,[6, 5, 2, 5, 4, 6, 4, 1, 1, 2, 3, 4, 5, 6]);
next = array1d(1..14 ,[6, 13, 10, 2, 7, 14, 12, 9, 3, 11, 5, 4, 1, 8]);
makespan = 405;
----------
assign = array1d(1..14 ,[6, 5, 2, 5, 4, 6, 4, 1, 1, 2, 3, 4, 5, 6]);
next = array1d(1..14 ,[6, 13, 10, 2, 7, 14, 12, 9, 3, 11, 5, 4, 1, 8]);
makespan = 401;
----------
assign = array1d(1..14 ,[6, 5, 2, 5, 4, 6, 4, 1, 1, 2, 3, 4, 5, 6]);
next = array1d(1..14 ,[6, 13, 10, 2, 7, 14, 12, 9, 3, 11, 5, 4, 1, 8]);
makespan = 400;
----------
assign = array1d(1..14 ,[6, 5, 2, 5, 4, 6, 4, 1, 1, 2, 3, 4, 5, 6]);
next = array1d(1..14 ,[6, 13, 10, 2, 7, 14, 12, 9, 3, 11, 5, 4, 1, 8]);
makespan = 397;
----------
assign = array1d(1..14 ,[6, 5, 2, 5, 4, 6, 4, 1, 1, 2, 3, 4, 5, 6]);
next = array1d(1..14 ,[6, 13, 10, 2, 7, 14, 12, 9, 3, 11, 5, 4, 1, 8]);
makespan = 394;
----------
assign = array1d(1..14 ,[6, 5, 2, 5, 4, 6, 4, 1, 1, 2, 3, 4, 5, 6]);
next = array1d(1..14 ,[6, 13, 10, 2, 7, 14, 12, 9, 3, 11, 5, 4, 1, 8]);
makespan = 391;
----------
assign = array1d(1..14 ,[3, 5, 4, 5, 6, 6, 1, 3, 1, 2, 3, 4, 5, 6]);
next = array1d(1..14 ,[8, 13, 12, 2, 14, 5, 9, 11, 10, 1, 3, 4, 6, 7]);
makespan = 386;
----------
assign = array1d(1..14 ,[4, 3, 5, 3, 6, 6, 1, 5, 1, 2, 3, 4, 5, 6]);
next = array1d(1..14 ,[12, 11, 8, 2, 14, 5, 9, 13, 10, 4, 1, 3, 6, 7]);
makespan = 384;
----------
assign = array1d(1..14 ,[4, 5, 2, 5, 6, 6, 1, 2, 1, 2, 3, 4, 5, 6]);
next = array1d(1..14 ,[12, 4, 8, 13, 14, 5, 9, 10, 3, 11, 1, 2, 6, 7]);
makespan = 383;
----------
assign = array1d(1..14 ,[4, 3, 5, 4, 6, 6, 1, 5, 1, 2, 3, 4, 5, 6]);
next = array1d(1..14 ,[12, 11, 8, 1, 14, 5, 9, 13, 10, 2, 4, 3, 6, 7]);
makespan = 382;
----------
assign = array1d(1..14 ,[4, 3, 5, 4, 6, 6, 1, 5, 1, 2, 3, 4, 5, 6]);
next = array1d(1..14 ,[12, 11, 8, 1, 14, 5, 9, 13, 10, 2, 4, 3, 6, 7]);
makespan = 372;
----------
assign = array1d(1..14 ,[4, 3, 5, 4, 6, 6, 1, 5, 1, 2, 3, 4, 5, 6]);
next = array1d(1..14 ,[12, 11, 8, 1, 14, 5, 9, 13, 10, 2, 4, 3, 6, 7]);
makespan = 370;
----------
assign = array1d(1..14 ,[4, 3, 5, 4, 6, 6, 1, 5, 1, 2, 3, 4, 5, 6]);
next = array1d(1..14 ,[12, 11, 8, 1, 14, 5, 9, 13, 10, 2, 4, 3, 6, 7]);
makespan = 366;
----------
assign = array1d(1..14 ,[4, 3, 5, 4, 6, 6, 1, 5, 1, 2, 3, 4, 5, 6]);
next = array1d(1..14 ,[12, 11, 8, 1, 14, 5, 9, 13, 10, 2, 4, 3, 6, 7]);
makespan = 364;
----------
assign = array1d(1..14 ,[4, 3, 5, 4, 6, 6, 1, 5, 1, 2, 3, 4, 5, 6]);
next = array1d(1..14 ,[12, 11, 8, 1, 14, 5, 9, 13, 10, 2, 4, 3, 6, 7]);
makespan = 363;
----------
assign = array1d(1..14 ,[4, 3, 5, 4, 6, 6, 1, 5, 1, 2, 3, 4, 5, 6]);
next = array1d(1..14 ,[12, 11, 8, 1, 14, 5, 9, 13, 10, 2, 4, 3, 6, 7]);
makespan = 361;
----------
assign = array1d(1..14 ,[4, 3, 5, 4, 6, 6, 1, 5, 1, 2, 3, 4, 5, 6]);
next = array1d(1..14 ,[12, 11, 8, 1, 14, 5, 9, 13, 10, 2, 4, 3, 6, 7]);
makespan = 360;
----------
assign = array1d(1..14 ,[4, 3, 5, 4, 6, 6, 1, 5, 1, 2, 3, 4, 5, 6]);
next = array1d(1..14 ,[12, 11, 8, 1, 14, 5, 9, 13, 10, 2, 4, 3, 6, 7]);
makespan = 356;
----------
assign = array1d(1..14 ,[4, 3, 5, 3, 6, 6, 1, 5, 1, 2, 3, 4, 5, 6]);
next = array1d(1..14 ,[12, 4, 8, 11, 14, 5, 9, 13, 10, 2, 1, 3, 6, 7]);
makespan = 354;
----------
assign = array1d(1..14 ,[3, 5, 1, 4, 3, 6, 4, 6, 1, 2, 3, 4, 5, 6]);
next = array1d(1..14 ,[11, 13, 9, 12, 1, 8, 4, 14, 10, 5, 7, 2, 6, 3]);
makespan = 350;
----------
assign = array1d(1..14 ,[5, 3, 1, 6, 4, 3, 6, 2, 1, 2, 3, 4, 5, 6]);
next = array1d(1..14 ,[13, 11, 9, 14, 12, 2, 4, 10, 8, 6, 5, 1, 7, 3]);
makespan = 348;
----------
assign = array1d(1..14 ,[3, 5, 3, 4, 6, 6, 2, 4, 1, 2, 3, 4, 5, 6]);
next = array1d(1..14 ,[11, 13, 1, 12, 6, 14, 10, 4, 7, 3, 8, 2, 5, 9]);
makespan = 347;
----------
assign = array1d(1..14 ,[6, 1, 5, 2, 4, 2, 4, 5, 1, 2, 3, 4, 5, 6]);
next = array1d(1..14 ,[14, 9, 13, 10, 7, 4, 12, 3, 6, 11, 5, 8, 1, 2]);
makespan = 345;
----------
assign = array1d(1..14 ,[6, 2, 5, 4, 3, 1, 4, 5, 1, 2, 3, 4, 5, 6]);
next = array1d(1..14 ,[14, 10, 13, 7, 11, 9, 12, 3, 2, 5, 4, 8, 1, 6]);
makespan = 343;
----------
assign = array1d(1..14 ,[6, 1, 3, 2, 4, 2, 3, 5, 1, 2, 3, 4, 5, 6]);
next = array1d(1..14 ,[14, 9, 11, 6, 12, 10, 3, 13, 4, 7, 5, 8, 1, 2]);
makespan = 342;
----------
assign = array1d(1..14 ,[3, 6, 3, 4, 1, 5, 4, 2, 1, 2, 3, 4, 5, 6]);
next = array1d(1..14 ,[11, 14, 1, 7, 9, 13, 12, 10, 8, 3, 4, 6, 2, 5]);
makespan = 341;
----------
assign = array1d(1..14 ,[3, 5, 3, 6, 1, 6, 4, 2, 1, 2, 3, 4, 5, 6]);
next = array1d(1..14 ,[11, 13, 1, 14, 9, 4, 12, 10, 8, 3, 7, 2, 6, 5]);
makespan = 340;
----------
assign = array1d(1..14 ,[3, 2, 3, 4, 5, 4, 6, 6, 1, 2, 3, 4, 5, 6]);
next = array1d(1..14 ,[11, 10, 1, 12, 13, 4, 8, 14, 2, 3, 6, 5, 7, 9]);
makespan = 338;
----------
assign = array1d(1..14 ,[4, 1, 2, 3, 5, 6, 3, 6, 1, 2, 3, 4, 5, 6]);
next = array1d(1..14 ,[12, 9, 10, 11, 13, 8, 4, 14, 3, 7, 1, 5, 6, 2]);
makespan = 337;
----------
assign = array1d(1..14 ,[4, 6, 5, 5, 1, 2, 2, 3, 1, 2, 3, 4, 5, 6]);
next = array1d(1..14 ,[12, 14, 13, 3, 9, 10, 6, 11, 7, 8, 1, 4, 2, 5]);
makespan = 336;
----------
assign = array1d(1..14 ,[3, 1, 3, 4, 5, 6, 6, 2, 1, 2, 3, 4, 5, 6]);
next = array1d(1..14 ,[11, 9, 1, 12, 13, 14, 6, 10, 8, 3, 4, 5, 7, 2]);
makespan = 335;
----------
assign = array1d(1..14 ,[5, 3, 2, 4, 6, 2, 6, 1, 1, 2, 3, 4, 5, 6]);
next = array1d(1..14 ,[13, 11, 10, 12, 7, 3, 14, 9, 6, 2, 4, 1, 5, 8]);
makespan = 334;
----------
assign = array1d(1..14 ,[1, 6, 5, 5, 4, 2, 2, 3, 1, 2, 3, 4, 5, 6]);
next = array1d(1..14 ,[9, 14, 4, 13, 12, 10, 6, 11, 7, 8, 5, 3, 2, 1]);
makespan = 333;
----------
assign = array1d(1..14 ,[3, 1, 3, 4, 5, 6, 4, 6, 1, 2, 3, 4, 5, 6]);
next = array1d(1..14 ,[11, 9, 1, 12, 13, 8, 4, 14, 10, 3, 7, 5, 6, 2]);
makespan = 332;
----------
assign = array1d(1..14 ,[3, 2, 3, 1, 6, 4, 6, 5, 1, 2, 3, 4, 5, 6]);
next = array1d(1..14 ,[11, 10, 1, 9, 7, 12, 14, 13, 2, 3, 6, 8, 5, 4]);
makespan = 331;
----------
assign = array1d(1..14 ,[3, 6, 3, 2, 1, 2, 5, 4, 1, 2, 3, 4, 5, 6]);
next = array1d(1..14 ,[11, 14, 1, 6, 9, 10, 13, 12, 4, 3, 8, 7, 2, 5]);
makespan = 330;
----------
assign = array1d(1..14 ,[1, 5, 4, 2, 6, 2, 6, 3, 1, 2, 3, 4, 5, 6]);
next = array1d(1..14 ,[9, 13, 12, 6, 7, 10, 14, 11, 4, 8, 3, 2, 5, 1]);
makespan = 329;
----------
assign = array1d(1..14 ,[1, 3, 2, 4, 6, 2, 4, 5, 1, 2, 3, 4, 5, 6]);
next = array1d(1..14 ,[9, 11, 10, 12, 14, 3, 4, 13, 6, 2, 7, 8, 5, 1]);
makespan = 328;
----------
assign = array1d(1..14 ,[3, 4, 3, 2, 1, 6, 5, 6, 1, 2, 3, 4, 5, 6]);
next = array1d(1..14 ,[11, 12, 1, 10, 9, 8, 13, 14, 4, 3, 2, 7, 6, 5]);
makespan = 327;
----------
assign = array1d(1..14 ,[1, 2, 5, 4, 3, 6, 4, 6, 1, 2, 3, 4, 5, 6]);
next = array1d(1..14 ,[9, 10, 13, 12, 11, 8, 4, 14, 2, 5, 7, 3, 6, 1]);
makespan = 325;
----------
assign = array1d(1..14 ,[3, 2, 6, 4, 1, 3, 4, 5, 1, 2, 3, 4, 5, 6]);
next = array1d(1..14 ,[11, 10, 14, 12, 9, 1, 4, 13, 2, 6, 7, 8, 3, 5]);
makespan = 324;
----------
assign = array1d(1..14 ,[3, 1, 3, 4, 2, 6, 5, 6, 1, 2, 3, 4, 5, 6]);
next = array1d(1..14 ,[11, 9, 1, 12, 10, 8, 13, 14, 5, 3, 4, 7, 6, 2]);
makespan = 323;
----------
assign = array1d(1..14 ,[3, 5, 1, 4, 2, 6, 4, 6, 1, 2, 3, 4, 5, 6]);
next = array1d(1..14 ,[11, 13, 9, 12, 10, 8, 4, 14, 5, 1, 7, 2, 6, 3]);
makespan = 322;
----------
assign = array1d(1..14 ,[3, 2, 3, 1, 4, 6, 6, 5, 1, 2, 3, 4, 5, 6]);
next = array1d(1..14 ,[11, 10, 1, 9, 12, 14, 6, 13, 2, 3, 5, 8, 7, 4]);
makespan = 321;
----------
assign = array1d(1..14 ,[3, 2, 5, 4, 6, 3, 4, 1, 1, 2, 3, 4, 5, 6]);
next = array1d(1..14 ,[11, 10, 13, 12, 14, 1, 4, 9, 2, 6, 7, 3, 5, 8]);
makespan = 320;
----------
assign = array1d(1..14 ,[3, 2, 5, 4, 6, 3, 4, 1, 1, 2, 3, 4, 5, 6]);
next = array1d(1..14 ,[11, 10, 13, 12, 14, 1, 4, 9, 2, 6, 7, 3, 5, 8]);
makespan = 319;
----------
assign = array1d(1..14 ,[3, 2, 5, 4, 6, 3, 4, 1, 1, 2, 3, 4, 5, 6]);
next = array1d(1..14 ,[11, 10, 13, 12, 14, 1, 4, 9, 2, 6, 7, 3, 5, 8]);
makespan = 318;
----------
assign = array1d(1..14 ,[3, 2, 5, 4, 6, 3, 4, 1, 1, 2, 3, 4, 5, 6]);
next = array1d(1..14 ,[11, 10, 13, 12, 14, 1, 4, 9, 2, 6, 7, 3, 5, 8]);
makespan = 317;
----------
assign = array1d(1..14 ,[3, 2, 5, 4, 6, 3, 4, 1, 1, 2, 3, 4, 5, 6]);
next = array1d(1..14 ,[11, 10, 13, 12, 14, 1, 4, 9, 2, 6, 7, 3, 5, 8]);
makespan = 316;
----------
assign = array1d(1..14 ,[3, 2, 5, 4, 6, 3, 4, 1, 1, 2, 3, 4, 5, 6]);
next = array1d(1..14 ,[11, 10, 13, 12, 14, 1, 4, 9, 2, 6, 7, 3, 5, 8]);
makespan = 315;
----------
assign = array1d(1..14 ,[3, 2, 5, 4, 6, 3, 4, 1, 1, 2, 3, 4, 5, 6]);
next = array1d(1..14 ,[11, 10, 13, 12, 14, 1, 4, 9, 2, 6, 7, 3, 5, 8]);
makespan = 314;
----------
==========
	Command being timed: "mzn-chuffed lbbd-datasets/Rabadi-2006/dzn-p-dominant/model.mzn lbbd-datasets/Rabadi-2006/dzn-p-dominant/8on6Rp50Rs50_5Ameer.dzn"
	User time (seconds): 0.68
	System time (seconds): 0.03
	Percent of CPU this job got: 4%
	Elapsed (wall clock) time (h:mm:ss or m:ss): 0:15.06
	Average shared text size (kbytes): 0
	Average unshared data size (kbytes): 0
	Average stack size (kbytes): 0
	Average total size (kbytes): 0
	Maximum resident set size (kbytes): 44608
	Average resident set size (kbytes): 0
	Major (requiring I/O) page faults: 0
	Minor (reclaiming a frame) page faults: 4231
	Voluntary context switches: 362
	Involuntary context switches: 4
	Swaps: 0
	File system inputs: 0
	File system outputs: 496
	Socket messages sent: 0
	Socket messages received: 0
	Signals delivered: 0
	Page size (bytes): 4096
	Exit status: 0
