+ /usr/bin/timeout 600 /usr/bin/time -v mzn-chuffed lbbd-datasets/Rabadi-2006/dzn-p-dominant/model.mzn lbbd-datasets/Rabadi-2006/dzn-p-dominant/11on6Rp50Rs50_6Ameer.dzn
% No search annotation given. Defaulting to VSIDS!
assign = array1d(1..17 ,[6, 6, 6, 6, 6, 6, 6, 6, 6, 6, 6, 1, 2, 3, 4, 5, 6]);
next = array1d(1..17 ,[2, 3, 4, 5, 6, 7, 8, 9, 10, 11, 17, 13, 14, 15, 16, 1, 12]);
makespan = 2395;
----------
assign = array1d(1..17 ,[6, 6, 6, 6, 6, 6, 6, 6, 6, 6, 6, 1, 2, 3, 4, 5, 6]);
next = array1d(1..17 ,[5, 7, 2, 3, 6, 4, 8, 9, 10, 11, 17, 13, 14, 15, 16, 1, 12]);
makespan = 2378;
----------
assign = array1d(1..17 ,[6, 6, 6, 6, 6, 6, 6, 6, 2, 6, 6, 1, 2, 3, 4, 5, 6]);
next = array1d(1..17 ,[3, 7, 5, 6, 2, 1, 11, 17, 13, 4, 8, 9, 14, 15, 16, 10, 12]);
makespan = 2273;
----------
assign = array1d(1..17 ,[6, 6, 6, 6, 6, 6, 6, 6, 5, 6, 5, 1, 2, 3, 4, 5, 6]);
next = array1d(1..17 ,[3, 7, 5, 6, 2, 10, 4, 1, 11, 17, 16, 13, 14, 15, 9, 8, 12]);
makespan = 2268;
----------
assign = array1d(1..17 ,[6, 6, 6, 6, 6, 6, 6, 6, 6, 6, 5, 1, 2, 3, 4, 5, 6]);
next = array1d(1..17 ,[3, 7, 5, 6, 2, 9, 4, 1, 10, 17, 16, 13, 14, 15, 11, 8, 12]);
makespan = 2262;
----------
assign = array1d(1..17 ,[6, 6, 6, 6, 6, 6, 6, 6, 6, 6, 3, 1, 2, 3, 4, 5, 6]);
next = array1d(1..17 ,[3, 7, 5, 6, 2, 9, 4, 1, 10, 17, 14, 13, 11, 15, 16, 8, 12]);
makespan = 2254;
----------
assign = array1d(1..17 ,[6, 6, 6, 6, 6, 6, 6, 6, 6, 6, 1, 1, 2, 3, 4, 5, 6]);
next = array1d(1..17 ,[3, 7, 5, 6, 2, 9, 4, 1, 10, 17, 12, 13, 14, 15, 16, 8, 11]);
makespan = 2253;
----------
assign = array1d(1..17 ,[6, 6, 6, 6, 6, 6, 6, 6, 6, 5, 6, 1, 2, 3, 4, 5, 6]);
next = array1d(1..17 ,[3, 7, 5, 6, 2, 9, 4, 1, 17, 16, 8, 13, 14, 15, 10, 11, 12]);
makespan = 2251;
----------
assign = array1d(1..17 ,[6, 6, 6, 6, 6, 6, 6, 6, 1, 6, 1, 1, 2, 3, 4, 5, 6]);
next = array1d(1..17 ,[3, 7, 5, 6, 2, 17, 4, 1, 11, 8, 12, 13, 14, 15, 16, 10, 9]);
makespan = 2248;
----------
assign = array1d(1..17 ,[6, 6, 6, 6, 6, 6, 6, 6, 6, 5, 6, 1, 2, 3, 4, 5, 6]);
next = array1d(1..17 ,[3, 7, 5, 6, 2, 9, 4, 1, 11, 16, 17, 13, 14, 15, 10, 8, 12]);
makespan = 2246;
----------
assign = array1d(1..17 ,[6, 6, 6, 6, 6, 6, 6, 6, 6, 2, 6, 1, 2, 3, 4, 5, 6]);
next = array1d(1..17 ,[3, 7, 5, 6, 2, 9, 4, 1, 11, 13, 17, 10, 14, 15, 16, 8, 12]);
makespan = 2245;
----------
assign = array1d(1..17 ,[6, 6, 6, 6, 6, 6, 6, 6, 6, 4, 6, 1, 2, 3, 4, 5, 6]);
next = array1d(1..17 ,[3, 7, 5, 6, 2, 9, 4, 1, 11, 15, 17, 13, 14, 10, 16, 8, 12]);
makespan = 2242;
----------
assign = array1d(1..17 ,[6, 6, 6, 6, 6, 6, 6, 6, 6, 1, 6, 1, 2, 3, 4, 5, 6]);
next = array1d(1..17 ,[3, 7, 5, 6, 2, 9, 4, 1, 11, 12, 17, 13, 14, 15, 16, 8, 10]);
makespan = 2241;
----------
assign = array1d(1..17 ,[6, 6, 6, 6, 6, 6, 6, 6, 6, 4, 6, 1, 2, 3, 4, 5, 6]);
next = array1d(1..17 ,[3, 7, 5, 6, 2, 9, 4, 1, 11, 15, 17, 13, 14, 10, 16, 8, 12]);
makespan = 2237;
----------
assign = array1d(1..17 ,[6, 6, 6, 6, 6, 6, 6, 6, 6, 2, 6, 1, 2, 3, 4, 5, 6]);
next = array1d(1..17 ,[3, 7, 5, 6, 2, 9, 4, 1, 11, 13, 17, 10, 14, 15, 16, 8, 12]);
makespan = 2235;
----------
assign = array1d(1..17 ,[6, 6, 6, 6, 6, 6, 6, 6, 6, 4, 6, 1, 2, 3, 4, 5, 6]);
next = array1d(1..17 ,[3, 7, 5, 6, 2, 9, 4, 1, 11, 15, 17, 13, 14, 10, 16, 8, 12]);
makespan = 2234;
----------
assign = array1d(1..17 ,[6, 6, 6, 6, 6, 6, 6, 6, 6, 2, 2, 1, 2, 3, 4, 5, 6]);
next = array1d(1..17 ,[3, 7, 5, 6, 2, 9, 4, 1, 17, 11, 13, 10, 14, 15, 16, 8, 12]);
makespan = 2233;
----------
assign = array1d(1..17 ,[6, 6, 6, 6, 6, 6, 6, 6, 1, 1, 6, 1, 2, 3, 4, 5, 6]);
next = array1d(1..17 ,[3, 7, 5, 6, 2, 11, 4, 1, 10, 12, 17, 13, 14, 15, 16, 8, 9]);
makespan = 2232;
----------
assign = array1d(1..17 ,[6, 6, 6, 6, 6, 6, 6, 6, 3, 3, 6, 1, 2, 3, 4, 5, 6]);
next = array1d(1..17 ,[3, 7, 5, 6, 2, 11, 4, 1, 10, 14, 17, 13, 9, 15, 16, 8, 12]);
makespan = 2231;
----------
assign = array1d(1..17 ,[6, 6, 6, 6, 6, 6, 6, 6, 1, 1, 6, 1, 2, 3, 4, 5, 6]);
next = array1d(1..17 ,[3, 7, 5, 6, 2, 11, 4, 1, 10, 12, 17, 13, 14, 15, 16, 8, 9]);
makespan = 2229;
----------
assign = array1d(1..17 ,[6, 6, 6, 6, 6, 6, 6, 6, 3, 3, 6, 1, 2, 3, 4, 5, 6]);
next = array1d(1..17 ,[3, 7, 5, 6, 2, 11, 4, 1, 10, 14, 17, 13, 9, 15, 16, 8, 12]);
makespan = 2227;
----------
assign = array1d(1..17 ,[6, 6, 6, 6, 6, 6, 6, 6, 1, 1, 6, 1, 2, 3, 4, 5, 6]);
next = array1d(1..17 ,[3, 7, 5, 6, 2, 11, 4, 1, 10, 12, 17, 13, 14, 15, 16, 8, 9]);
makespan = 2226;
----------
assign = array1d(1..17 ,[6, 6, 6, 6, 6, 6, 6, 6, 3, 3, 6, 1, 2, 3, 4, 5, 6]);
next = array1d(1..17 ,[3, 7, 5, 6, 2, 11, 4, 1, 10, 14, 17, 13, 9, 15, 16, 8, 12]);
makespan = 2218;
----------
assign = array1d(1..17 ,[6, 6, 6, 6, 6, 6, 6, 6, 1, 1, 6, 1, 2, 3, 4, 5, 6]);
next = array1d(1..17 ,[3, 7, 5, 6, 2, 11, 4, 1, 10, 12, 17, 13, 14, 15, 16, 8, 9]);
makespan = 2215;
----------
assign = array1d(1..17 ,[6, 6, 6, 6, 6, 6, 6, 6, 3, 3, 6, 1, 2, 3, 4, 5, 6]);
next = array1d(1..17 ,[3, 7, 5, 6, 2, 11, 4, 1, 10, 14, 17, 13, 9, 15, 16, 8, 12]);
makespan = 2213;
----------
assign = array1d(1..17 ,[6, 6, 6, 6, 6, 6, 6, 6, 1, 1, 6, 1, 2, 3, 4, 5, 6]);
next = array1d(1..17 ,[3, 7, 5, 6, 2, 11, 4, 1, 10, 12, 17, 13, 14, 15, 16, 8, 9]);
makespan = 2208;
----------
assign = array1d(1..17 ,[6, 6, 6, 6, 6, 6, 6, 6, 3, 3, 6, 1, 2, 3, 4, 5, 6]);
next = array1d(1..17 ,[3, 7, 5, 6, 2, 11, 4, 1, 10, 14, 17, 13, 9, 15, 16, 8, 12]);
makespan = 2207;
----------
assign = array1d(1..17 ,[6, 6, 6, 6, 6, 6, 6, 6, 1, 1, 6, 1, 2, 3, 4, 5, 6]);
next = array1d(1..17 ,[3, 7, 5, 6, 2, 11, 4, 1, 10, 12, 17, 13, 14, 15, 16, 8, 9]);
makespan = 2206;
----------
assign = array1d(1..17 ,[6, 6, 6, 6, 6, 6, 6, 6, 3, 3, 6, 1, 2, 3, 4, 5, 6]);
next = array1d(1..17 ,[3, 7, 5, 6, 2, 11, 4, 1, 10, 14, 17, 13, 9, 15, 16, 8, 12]);
makespan = 2201;
----------
assign = array1d(1..17 ,[6, 6, 6, 6, 6, 6, 6, 6, 1, 1, 6, 1, 2, 3, 4, 5, 6]);
next = array1d(1..17 ,[3, 7, 5, 6, 2, 11, 4, 1, 10, 12, 17, 13, 14, 15, 16, 8, 9]);
makespan = 2197;
----------
assign = array1d(1..17 ,[6, 6, 6, 6, 6, 6, 6, 6, 3, 3, 6, 1, 2, 3, 4, 5, 6]);
next = array1d(1..17 ,[3, 7, 5, 6, 2, 11, 4, 1, 10, 14, 17, 13, 9, 15, 16, 8, 12]);
makespan = 2195;
----------
assign = array1d(1..17 ,[6, 6, 6, 6, 6, 6, 6, 6, 1, 1, 6, 1, 2, 3, 4, 5, 6]);
next = array1d(1..17 ,[3, 7, 5, 6, 2, 11, 4, 1, 10, 12, 17, 13, 14, 15, 16, 8, 9]);
makespan = 2176;
----------
assign = array1d(1..17 ,[6, 6, 6, 6, 6, 6, 6, 6, 3, 3, 6, 1, 2, 3, 4, 5, 6]);
next = array1d(1..17 ,[3, 7, 5, 6, 2, 11, 4, 1, 10, 14, 17, 13, 9, 15, 16, 8, 12]);
makespan = 2173;
----------
assign = array1d(1..17 ,[6, 6, 6, 6, 6, 6, 6, 6, 2, 2, 6, 1, 2, 3, 4, 5, 6]);
next = array1d(1..17 ,[3, 7, 5, 6, 2, 11, 4, 1, 10, 13, 17, 9, 14, 15, 16, 8, 12]);
makespan = 2171;
----------
assign = array1d(1..17 ,[6, 6, 6, 6, 6, 6, 6, 6, 3, 3, 6, 1, 2, 3, 4, 5, 6]);
next = array1d(1..17 ,[3, 7, 5, 6, 2, 11, 4, 1, 10, 14, 17, 13, 9, 15, 16, 8, 12]);
makespan = 2169;
----------
assign = array1d(1..17 ,[6, 6, 6, 6, 6, 6, 6, 6, 2, 2, 6, 1, 2, 3, 4, 5, 6]);
next = array1d(1..17 ,[3, 7, 5, 6, 2, 11, 4, 1, 10, 13, 17, 9, 14, 15, 16, 8, 12]);
makespan = 2164;
----------
assign = array1d(1..17 ,[6, 6, 6, 6, 6, 6, 6, 6, 1, 1, 6, 1, 2, 3, 4, 5, 6]);
next = array1d(1..17 ,[3, 7, 5, 6, 2, 11, 4, 1, 10, 12, 17, 13, 14, 15, 16, 8, 9]);
makespan = 2161;
----------
assign = array1d(1..17 ,[6, 6, 6, 6, 6, 6, 6, 6, 4, 4, 6, 1, 2, 3, 4, 5, 6]);
next = array1d(1..17 ,[3, 7, 5, 6, 2, 11, 4, 1, 10, 15, 17, 13, 14, 9, 16, 8, 12]);
makespan = 2158;
----------
assign = array1d(1..17 ,[6, 6, 6, 6, 6, 6, 6, 6, 1, 1, 6, 1, 2, 3, 4, 5, 6]);
next = array1d(1..17 ,[3, 7, 5, 6, 2, 11, 4, 1, 10, 12, 17, 13, 14, 15, 16, 8, 9]);
makespan = 2157;
----------
assign = array1d(1..17 ,[6, 6, 6, 6, 6, 6, 6, 6, 4, 4, 6, 1, 2, 3, 4, 5, 6]);
next = array1d(1..17 ,[3, 7, 5, 6, 2, 11, 4, 1, 10, 15, 17, 13, 14, 9, 16, 8, 12]);
makespan = 2142;
----------
assign = array1d(1..17 ,[6, 6, 6, 6, 6, 6, 6, 6, 1, 1, 6, 1, 2, 3, 4, 5, 6]);
next = array1d(1..17 ,[3, 7, 5, 6, 2, 11, 4, 1, 10, 12, 17, 13, 14, 15, 16, 8, 9]);
makespan = 2139;
----------
assign = array1d(1..17 ,[6, 6, 6, 6, 6, 6, 6, 6, 2, 2, 6, 1, 2, 3, 4, 5, 6]);
next = array1d(1..17 ,[3, 7, 5, 6, 2, 11, 4, 1, 10, 13, 17, 9, 14, 15, 16, 8, 12]);
makespan = 2129;
----------
assign = array1d(1..17 ,[6, 6, 6, 6, 6, 6, 6, 6, 1, 1, 6, 1, 2, 3, 4, 5, 6]);
next = array1d(1..17 ,[3, 7, 5, 6, 2, 11, 4, 1, 10, 12, 17, 13, 14, 15, 16, 8, 9]);
makespan = 2128;
----------
assign = array1d(1..17 ,[6, 6, 6, 6, 6, 6, 6, 6, 2, 2, 6, 1, 2, 3, 4, 5, 6]);
next = array1d(1..17 ,[3, 7, 5, 6, 2, 11, 4, 1, 10, 13, 17, 9, 14, 15, 16, 8, 12]);
makespan = 2119;
----------
assign = array1d(1..17 ,[6, 6, 6, 6, 6, 6, 6, 6, 1, 1, 6, 1, 2, 3, 4, 5, 6]);
next = array1d(1..17 ,[3, 7, 5, 6, 2, 11, 4, 1, 10, 12, 17, 13, 14, 15, 16, 8, 9]);
makespan = 2115;
----------
assign = array1d(1..17 ,[6, 6, 6, 6, 6, 6, 6, 6, 2, 2, 6, 1, 2, 3, 4, 5, 6]);
next = array1d(1..17 ,[3, 7, 5, 6, 2, 11, 4, 1, 10, 13, 17, 9, 14, 15, 16, 8, 12]);
makespan = 2112;
----------
assign = array1d(1..17 ,[6, 6, 6, 6, 6, 6, 6, 6, 1, 1, 6, 1, 2, 3, 4, 5, 6]);
next = array1d(1..17 ,[3, 7, 5, 6, 2, 11, 4, 1, 10, 12, 17, 13, 14, 15, 16, 8, 9]);
makespan = 2094;
----------
assign = array1d(1..17 ,[6, 6, 6, 6, 6, 6, 6, 6, 2, 2, 6, 1, 2, 3, 4, 5, 6]);
next = array1d(1..17 ,[3, 7, 5, 6, 2, 11, 4, 1, 10, 13, 17, 9, 14, 15, 16, 8, 12]);
makespan = 2085;
----------
assign = array1d(1..17 ,[6, 6, 6, 6, 6, 6, 6, 6, 1, 1, 6, 1, 2, 3, 4, 5, 6]);
next = array1d(1..17 ,[3, 7, 5, 6, 2, 11, 4, 1, 10, 12, 17, 13, 14, 15, 16, 8, 9]);
makespan = 2084;
----------
assign = array1d(1..17 ,[6, 6, 6, 6, 6, 6, 6, 6, 2, 2, 6, 1, 2, 3, 4, 5, 6]);
next = array1d(1..17 ,[3, 7, 5, 6, 2, 11, 4, 1, 10, 13, 17, 9, 14, 15, 16, 8, 12]);
makespan = 2081;
----------
assign = array1d(1..17 ,[6, 6, 6, 6, 6, 6, 6, 6, 1, 1, 6, 1, 2, 3, 4, 5, 6]);
next = array1d(1..17 ,[3, 7, 5, 6, 2, 11, 4, 1, 10, 12, 17, 13, 14, 15, 16, 8, 9]);
makespan = 2080;
----------
assign = array1d(1..17 ,[6, 6, 6, 6, 6, 6, 6, 6, 2, 2, 6, 1, 2, 3, 4, 5, 6]);
next = array1d(1..17 ,[3, 7, 5, 6, 2, 11, 4, 1, 10, 13, 17, 9, 14, 15, 16, 8, 12]);
makespan = 2076;
----------
assign = array1d(1..17 ,[6, 6, 6, 6, 6, 6, 6, 6, 3, 3, 6, 1, 2, 3, 4, 5, 6]);
next = array1d(1..17 ,[3, 7, 5, 6, 2, 11, 4, 1, 10, 14, 17, 13, 9, 15, 16, 8, 12]);
makespan = 2075;
----------
assign = array1d(1..17 ,[6, 6, 6, 6, 6, 6, 6, 6, 1, 1, 1, 1, 2, 3, 4, 5, 6]);
next = array1d(1..17 ,[3, 7, 5, 6, 2, 17, 4, 1, 10, 11, 12, 13, 14, 15, 16, 8, 9]);
makespan = 2072;
----------
assign = array1d(1..17 ,[6, 6, 6, 6, 6, 6, 6, 6, 2, 2, 2, 1, 2, 3, 4, 5, 6]);
next = array1d(1..17 ,[3, 7, 5, 6, 2, 17, 4, 1, 10, 11, 13, 9, 14, 15, 16, 8, 12]);
makespan = 2061;
----------
assign = array1d(1..17 ,[6, 6, 6, 6, 6, 6, 6, 6, 2, 2, 2, 1, 2, 3, 4, 5, 6]);
next = array1d(1..17 ,[3, 7, 5, 6, 2, 17, 4, 1, 10, 11, 13, 9, 14, 15, 16, 8, 12]);
makespan = 2022;
----------
assign = array1d(1..17 ,[6, 6, 6, 6, 6, 6, 6, 6, 5, 5, 5, 1, 2, 3, 4, 5, 6]);
next = array1d(1..17 ,[3, 7, 5, 6, 2, 17, 4, 1, 10, 11, 16, 13, 14, 15, 9, 8, 12]);
makespan = 2005;
----------
assign = array1d(1..17 ,[6, 6, 6, 6, 6, 6, 6, 6, 4, 4, 4, 1, 2, 3, 4, 5, 6]);
next = array1d(1..17 ,[3, 7, 5, 6, 2, 17, 4, 1, 10, 11, 15, 13, 14, 9, 16, 8, 12]);
makespan = 2002;
----------
assign = array1d(1..17 ,[6, 6, 6, 6, 6, 6, 6, 6, 5, 5, 5, 1, 2, 3, 4, 5, 6]);
next = array1d(1..17 ,[3, 7, 5, 6, 2, 17, 4, 1, 10, 11, 16, 13, 14, 15, 9, 8, 12]);
makespan = 1985;
----------
assign = array1d(1..17 ,[6, 6, 6, 6, 6, 6, 6, 6, 5, 5, 5, 1, 2, 3, 4, 5, 6]);
next = array1d(1..17 ,[3, 7, 5, 6, 2, 17, 4, 1, 10, 11, 16, 13, 14, 15, 9, 8, 12]);
makespan = 1966;
----------
assign = array1d(1..17 ,[6, 6, 6, 6, 6, 6, 6, 6, 5, 5, 5, 1, 2, 3, 4, 5, 6]);
next = array1d(1..17 ,[3, 7, 5, 6, 2, 17, 4, 1, 10, 11, 16, 13, 14, 15, 9, 8, 12]);
makespan = 1963;
----------
assign = array1d(1..17 ,[6, 6, 6, 6, 6, 6, 6, 6, 5, 5, 5, 1, 2, 3, 4, 5, 6]);
next = array1d(1..17 ,[3, 7, 5, 6, 2, 17, 4, 1, 10, 11, 16, 13, 14, 15, 9, 8, 12]);
makespan = 1953;
----------
assign = array1d(1..17 ,[6, 6, 6, 6, 6, 6, 6, 6, 5, 5, 5, 1, 2, 3, 4, 5, 6]);
next = array1d(1..17 ,[3, 7, 5, 6, 2, 17, 4, 1, 10, 11, 16, 13, 14, 15, 9, 8, 12]);
makespan = 1949;
----------
assign = array1d(1..17 ,[6, 6, 6, 6, 6, 6, 6, 6, 5, 5, 5, 1, 2, 3, 4, 5, 6]);
next = array1d(1..17 ,[3, 7, 5, 6, 2, 17, 4, 1, 10, 11, 16, 13, 14, 15, 9, 8, 12]);
makespan = 1945;
----------
assign = array1d(1..17 ,[6, 6, 6, 6, 6, 6, 6, 6, 5, 5, 5, 1, 2, 3, 4, 5, 6]);
next = array1d(1..17 ,[3, 7, 5, 6, 2, 17, 4, 1, 10, 11, 16, 13, 14, 15, 9, 8, 12]);
makespan = 1935;
----------
assign = array1d(1..17 ,[6, 6, 6, 6, 6, 6, 6, 6, 5, 5, 5, 1, 2, 3, 4, 5, 6]);
next = array1d(1..17 ,[3, 7, 5, 6, 2, 17, 4, 1, 10, 11, 16, 13, 14, 15, 9, 8, 12]);
makespan = 1906;
----------
assign = array1d(1..17 ,[6, 6, 6, 6, 6, 6, 6, 6, 5, 5, 5, 1, 2, 3, 4, 5, 6]);
next = array1d(1..17 ,[3, 7, 5, 6, 2, 17, 4, 1, 10, 11, 16, 13, 14, 15, 9, 8, 12]);
makespan = 1871;
----------
assign = array1d(1..17 ,[6, 6, 6, 6, 6, 6, 6, 6, 5, 5, 5, 1, 2, 3, 4, 5, 6]);
next = array1d(1..17 ,[3, 7, 5, 6, 2, 17, 4, 1, 10, 11, 16, 13, 14, 15, 9, 8, 12]);
makespan = 1864;
----------
assign = array1d(1..17 ,[6, 6, 6, 6, 6, 6, 6, 6, 5, 5, 5, 1, 2, 3, 4, 5, 6]);
next = array1d(1..17 ,[3, 7, 5, 6, 2, 17, 4, 1, 10, 11, 16, 13, 14, 15, 9, 8, 12]);
makespan = 1847;
----------
assign = array1d(1..17 ,[6, 6, 6, 6, 6, 6, 6, 6, 5, 5, 5, 1, 2, 3, 4, 5, 6]);
next = array1d(1..17 ,[3, 7, 5, 6, 2, 17, 4, 1, 10, 11, 16, 13, 14, 15, 9, 8, 12]);
makespan = 1836;
----------
assign = array1d(1..17 ,[6, 6, 6, 6, 6, 6, 6, 6, 5, 5, 5, 1, 2, 3, 4, 5, 6]);
next = array1d(1..17 ,[3, 7, 5, 6, 2, 8, 4, 17, 10, 11, 16, 13, 14, 15, 9, 1, 12]);
makespan = 1803;
----------
assign = array1d(1..17 ,[6, 6, 6, 6, 6, 6, 6, 6, 1, 1, 1, 1, 2, 3, 4, 5, 6]);
next = array1d(1..17 ,[3, 7, 5, 6, 2, 8, 17, 1, 10, 11, 12, 13, 14, 15, 16, 4, 9]);
makespan = 1800;
----------
assign = array1d(1..17 ,[6, 6, 6, 6, 6, 6, 6, 4, 4, 4, 4, 1, 2, 3, 4, 5, 6]);
next = array1d(1..17 ,[3, 7, 5, 6, 2, 17, 4, 11, 10, 8, 15, 13, 14, 9, 16, 1, 12]);
makespan = 1796;
----------
assign = array1d(1..17 ,[6, 6, 6, 6, 6, 6, 6, 2, 2, 2, 2, 1, 2, 3, 4, 5, 6]);
next = array1d(1..17 ,[3, 7, 5, 6, 2, 17, 4, 11, 10, 8, 13, 9, 14, 15, 16, 1, 12]);
makespan = 1782;
----------
assign = array1d(1..17 ,[6, 6, 6, 6, 6, 6, 6, 5, 5, 5, 5, 1, 2, 3, 4, 5, 6]);
next = array1d(1..17 ,[3, 7, 5, 6, 2, 17, 4, 11, 10, 8, 16, 13, 14, 15, 9, 1, 12]);
makespan = 1779;
----------
assign = array1d(1..17 ,[6, 6, 6, 6, 6, 6, 6, 1, 1, 1, 1, 1, 2, 3, 4, 5, 6]);
next = array1d(1..17 ,[3, 7, 5, 6, 2, 17, 4, 11, 10, 8, 12, 13, 14, 15, 16, 1, 9]);
makespan = 1775;
----------
assign = array1d(1..17 ,[6, 6, 6, 6, 6, 6, 6, 3, 3, 3, 3, 1, 2, 3, 4, 5, 6]);
next = array1d(1..17 ,[3, 7, 5, 6, 2, 17, 4, 11, 10, 8, 14, 13, 9, 15, 16, 1, 12]);
makespan = 1772;
----------
assign = array1d(1..17 ,[6, 6, 6, 6, 6, 6, 6, 1, 1, 1, 1, 1, 2, 3, 4, 5, 6]);
next = array1d(1..17 ,[3, 7, 5, 6, 2, 17, 4, 11, 10, 8, 12, 13, 14, 15, 16, 1, 9]);
makespan = 1744;
----------
assign = array1d(1..17 ,[6, 6, 6, 6, 6, 6, 6, 3, 3, 3, 3, 1, 2, 3, 4, 5, 6]);
next = array1d(1..17 ,[3, 7, 5, 6, 2, 17, 4, 11, 10, 8, 14, 13, 9, 15, 16, 1, 12]);
makespan = 1740;
----------
assign = array1d(1..17 ,[6, 6, 6, 6, 6, 6, 6, 1, 1, 1, 1, 1, 2, 3, 4, 5, 6]);
next = array1d(1..17 ,[3, 7, 5, 6, 2, 17, 4, 11, 10, 8, 12, 13, 14, 15, 16, 1, 9]);
makespan = 1737;
----------
assign = array1d(1..17 ,[6, 6, 6, 6, 6, 6, 6, 5, 5, 5, 5, 1, 2, 3, 4, 5, 6]);
next = array1d(1..17 ,[3, 7, 5, 6, 2, 17, 4, 11, 10, 8, 16, 13, 14, 15, 9, 1, 12]);
makespan = 1718;
----------
assign = array1d(1..17 ,[6, 6, 6, 6, 6, 6, 6, 1, 1, 1, 1, 1, 2, 3, 4, 5, 6]);
next = array1d(1..17 ,[3, 7, 5, 6, 2, 17, 4, 11, 10, 8, 12, 13, 14, 15, 16, 1, 9]);
makespan = 1684;
----------
assign = array1d(1..17 ,[6, 6, 6, 6, 6, 6, 6, 5, 5, 5, 5, 1, 2, 3, 4, 5, 6]);
next = array1d(1..17 ,[3, 7, 5, 6, 2, 17, 4, 11, 10, 8, 16, 13, 14, 15, 9, 1, 12]);
makespan = 1656;
----------
assign = array1d(1..17 ,[6, 6, 6, 6, 6, 6, 6, 1, 1, 1, 1, 1, 2, 3, 4, 5, 6]);
next = array1d(1..17 ,[3, 7, 5, 6, 2, 17, 4, 11, 10, 8, 12, 13, 14, 15, 16, 1, 9]);
makespan = 1645;
----------
assign = array1d(1..17 ,[6, 6, 6, 6, 6, 6, 6, 5, 5, 5, 5, 1, 2, 3, 4, 5, 6]);
next = array1d(1..17 ,[3, 7, 5, 6, 2, 17, 4, 11, 10, 8, 16, 13, 14, 15, 9, 1, 12]);
makespan = 1641;
----------
assign = array1d(1..17 ,[6, 6, 6, 6, 6, 6, 6, 1, 1, 1, 1, 1, 2, 3, 4, 5, 6]);
next = array1d(1..17 ,[3, 7, 5, 6, 2, 17, 4, 11, 10, 8, 12, 13, 14, 15, 16, 1, 9]);
makespan = 1628;
----------
assign = array1d(1..17 ,[6, 6, 6, 6, 6, 6, 6, 3, 3, 3, 3, 1, 2, 3, 4, 5, 6]);
next = array1d(1..17 ,[3, 7, 5, 6, 2, 17, 4, 11, 10, 8, 14, 13, 9, 15, 16, 1, 12]);
makespan = 1624;
----------
assign = array1d(1..17 ,[6, 6, 6, 6, 6, 6, 6, 5, 5, 5, 5, 1, 2, 3, 4, 5, 6]);
next = array1d(1..17 ,[3, 7, 5, 6, 2, 17, 4, 11, 10, 8, 16, 13, 14, 15, 9, 1, 12]);
makespan = 1619;
----------
assign = array1d(1..17 ,[6, 6, 6, 6, 6, 6, 6, 3, 3, 3, 3, 1, 2, 3, 4, 5, 6]);
next = array1d(1..17 ,[3, 7, 5, 6, 2, 17, 4, 11, 10, 8, 14, 13, 9, 15, 16, 1, 12]);
makespan = 1601;
----------
assign = array1d(1..17 ,[6, 6, 6, 6, 6, 6, 6, 1, 1, 1, 1, 1, 2, 3, 4, 5, 6]);
next = array1d(1..17 ,[3, 7, 5, 6, 2, 17, 4, 11, 10, 8, 12, 13, 14, 15, 16, 1, 9]);
makespan = 1591;
----------
assign = array1d(1..17 ,[6, 6, 6, 6, 6, 6, 6, 3, 3, 3, 3, 1, 2, 3, 4, 5, 6]);
next = array1d(1..17 ,[3, 7, 5, 6, 2, 1, 17, 11, 10, 8, 14, 13, 9, 15, 16, 4, 12]);
makespan = 1571;
----------
assign = array1d(1..17 ,[6, 6, 6, 6, 6, 6, 5, 5, 6, 5, 5, 1, 2, 3, 4, 5, 6]);
next = array1d(1..17 ,[3, 17, 5, 6, 2, 9, 11, 16, 1, 8, 10, 13, 14, 15, 7, 4, 12]);
makespan = 1566;
----------
assign = array1d(1..17 ,[6, 6, 6, 6, 6, 6, 4, 6, 5, 5, 4, 1, 2, 3, 4, 5, 6]);
next = array1d(1..17 ,[3, 8, 5, 6, 2, 17, 11, 4, 10, 16, 15, 13, 14, 7, 9, 1, 12]);
makespan = 1564;
----------
assign = array1d(1..17 ,[6, 6, 6, 6, 6, 6, 5, 5, 5, 5, 5, 1, 2, 3, 4, 5, 6]);
next = array1d(1..17 ,[3, 4, 5, 6, 2, 17, 11, 7, 10, 8, 16, 13, 14, 15, 9, 1, 12]);
makespan = 1563;
----------
assign = array1d(1..17 ,[6, 6, 6, 6, 6, 6, 5, 5, 5, 5, 5, 1, 2, 3, 4, 5, 6]);
next = array1d(1..17 ,[3, 4, 5, 6, 2, 17, 9, 11, 10, 8, 16, 13, 14, 15, 7, 1, 12]);
makespan = 1525;
----------
assign = array1d(1..17 ,[6, 6, 6, 6, 6, 6, 3, 3, 3, 3, 3, 1, 2, 3, 4, 5, 6]);
next = array1d(1..17 ,[3, 4, 5, 6, 2, 17, 11, 7, 10, 8, 14, 13, 9, 15, 16, 1, 12]);
makespan = 1521;
----------
assign = array1d(1..17 ,[6, 6, 6, 6, 6, 6, 4, 4, 4, 4, 4, 1, 2, 3, 4, 5, 6]);
next = array1d(1..17 ,[3, 4, 5, 6, 2, 17, 11, 7, 10, 8, 15, 13, 14, 9, 16, 1, 12]);
makespan = 1516;
----------
assign = array1d(1..17 ,[6, 6, 6, 6, 6, 6, 3, 3, 3, 3, 3, 1, 2, 3, 4, 5, 6]);
next = array1d(1..17 ,[3, 4, 5, 6, 2, 17, 11, 7, 10, 8, 14, 13, 9, 15, 16, 1, 12]);
makespan = 1515;
----------
assign = array1d(1..17 ,[6, 6, 6, 6, 6, 6, 4, 4, 4, 4, 4, 1, 2, 3, 4, 5, 6]);
next = array1d(1..17 ,[3, 4, 5, 6, 2, 17, 11, 7, 10, 8, 15, 13, 14, 9, 16, 1, 12]);
makespan = 1507;
----------
assign = array1d(1..17 ,[6, 6, 6, 6, 6, 6, 3, 3, 3, 3, 3, 1, 2, 3, 4, 5, 6]);
next = array1d(1..17 ,[3, 4, 5, 6, 2, 17, 11, 7, 10, 8, 14, 13, 9, 15, 16, 1, 12]);
makespan = 1505;
----------
assign = array1d(1..17 ,[6, 6, 6, 6, 6, 6, 3, 3, 3, 3, 3, 1, 2, 3, 4, 5, 6]);
next = array1d(1..17 ,[3, 4, 5, 6, 2, 17, 11, 7, 10, 8, 14, 13, 9, 15, 16, 1, 12]);
makespan = 1497;
----------
assign = array1d(1..17 ,[6, 6, 6, 6, 6, 6, 4, 4, 4, 4, 4, 1, 2, 3, 4, 5, 6]);
next = array1d(1..17 ,[3, 4, 5, 6, 2, 17, 11, 7, 10, 8, 15, 13, 14, 9, 16, 1, 12]);
makespan = 1492;
----------
assign = array1d(1..17 ,[6, 6, 6, 6, 6, 6, 1, 1, 1, 1, 1, 1, 2, 3, 4, 5, 6]);
next = array1d(1..17 ,[3, 4, 5, 6, 2, 17, 11, 7, 10, 8, 12, 13, 14, 15, 16, 1, 9]);
makespan = 1459;
----------
assign = array1d(1..17 ,[6, 6, 6, 6, 6, 6, 4, 4, 4, 4, 4, 1, 2, 3, 4, 5, 6]);
next = array1d(1..17 ,[3, 4, 5, 6, 2, 17, 11, 7, 10, 8, 15, 13, 14, 9, 16, 1, 12]);
makespan = 1458;
----------
assign = array1d(1..17 ,[6, 6, 6, 6, 6, 6, 3, 3, 3, 3, 3, 1, 2, 3, 4, 5, 6]);
next = array1d(1..17 ,[3, 4, 5, 6, 2, 17, 11, 7, 10, 8, 14, 13, 9, 15, 16, 1, 12]);
makespan = 1450;
----------
assign = array1d(1..17 ,[6, 6, 6, 6, 6, 6, 4, 4, 4, 4, 4, 1, 2, 3, 4, 5, 6]);
next = array1d(1..17 ,[3, 4, 5, 6, 2, 17, 11, 7, 10, 8, 15, 13, 14, 9, 16, 1, 12]);
makespan = 1445;
----------
assign = array1d(1..17 ,[6, 6, 6, 6, 6, 6, 3, 3, 3, 3, 3, 1, 2, 3, 4, 5, 6]);
next = array1d(1..17 ,[3, 4, 5, 6, 2, 17, 11, 7, 10, 8, 14, 13, 9, 15, 16, 1, 12]);
makespan = 1441;
----------
assign = array1d(1..17 ,[6, 6, 6, 6, 6, 6, 4, 4, 4, 4, 4, 1, 2, 3, 4, 5, 6]);
next = array1d(1..17 ,[3, 4, 5, 6, 2, 17, 11, 7, 10, 8, 15, 13, 14, 9, 16, 1, 12]);
makespan = 1436;
----------
assign = array1d(1..17 ,[6, 6, 6, 6, 6, 6, 3, 3, 3, 3, 3, 1, 2, 3, 4, 5, 6]);
next = array1d(1..17 ,[3, 4, 5, 6, 2, 17, 11, 7, 10, 8, 14, 13, 9, 15, 16, 1, 12]);
makespan = 1419;
----------
assign = array1d(1..17 ,[6, 6, 6, 6, 6, 6, 4, 4, 4, 4, 4, 1, 2, 3, 4, 5, 6]);
next = array1d(1..17 ,[3, 4, 5, 6, 2, 17, 11, 7, 10, 8, 15, 13, 14, 9, 16, 1, 12]);
makespan = 1374;
----------
assign = array1d(1..17 ,[6, 6, 6, 6, 6, 6, 3, 3, 3, 3, 3, 1, 2, 3, 4, 5, 6]);
next = array1d(1..17 ,[3, 4, 5, 6, 2, 17, 11, 7, 10, 8, 14, 13, 9, 15, 16, 1, 12]);
makespan = 1372;
----------
assign = array1d(1..17 ,[6, 6, 6, 6, 6, 6, 4, 4, 4, 4, 4, 1, 2, 3, 4, 5, 6]);
next = array1d(1..17 ,[3, 17, 5, 6, 2, 1, 11, 7, 10, 8, 15, 13, 14, 9, 16, 4, 12]);
makespan = 1371;
----------
assign = array1d(1..17 ,[6, 6, 6, 6, 6, 6, 2, 2, 2, 2, 2, 1, 2, 3, 4, 5, 6]);
next = array1d(1..17 ,[3, 1, 5, 6, 4, 17, 11, 7, 10, 8, 13, 9, 14, 15, 16, 2, 12]);
makespan = 1365;
----------
assign = array1d(1..17 ,[6, 6, 6, 6, 6, 6, 5, 5, 5, 5, 5, 1, 2, 3, 4, 5, 6]);
next = array1d(1..17 ,[3, 1, 5, 6, 4, 17, 11, 7, 10, 8, 16, 13, 14, 15, 9, 2, 12]);
makespan = 1348;
----------
assign = array1d(1..17 ,[6, 6, 6, 6, 6, 6, 3, 3, 3, 3, 3, 1, 2, 3, 4, 5, 6]);
next = array1d(1..17 ,[3, 1, 5, 6, 4, 17, 11, 7, 10, 8, 14, 13, 9, 15, 16, 2, 12]);
makespan = 1347;
----------
assign = array1d(1..17 ,[6, 6, 6, 6, 6, 6, 5, 5, 5, 5, 5, 1, 2, 3, 4, 5, 6]);
next = array1d(1..17 ,[3, 17, 5, 6, 4, 2, 11, 7, 10, 8, 16, 13, 14, 15, 9, 1, 12]);
makespan = 1346;
----------
assign = array1d(1..17 ,[6, 6, 6, 6, 6, 6, 4, 4, 4, 4, 4, 1, 2, 3, 4, 5, 6]);
next = array1d(1..17 ,[3, 17, 5, 6, 4, 2, 11, 7, 10, 8, 15, 13, 14, 9, 16, 1, 12]);
makespan = 1343;
----------
assign = array1d(1..17 ,[6, 6, 6, 6, 6, 6, 5, 5, 5, 5, 5, 1, 2, 3, 4, 5, 6]);
next = array1d(1..17 ,[3, 17, 5, 6, 4, 2, 11, 7, 10, 8, 16, 13, 14, 15, 9, 1, 12]);
makespan = 1326;
----------
assign = array1d(1..17 ,[6, 6, 6, 6, 6, 6, 4, 4, 4, 4, 4, 1, 2, 3, 4, 5, 6]);
next = array1d(1..17 ,[3, 17, 5, 6, 4, 2, 11, 7, 10, 8, 15, 13, 14, 9, 16, 1, 12]);
makespan = 1323;
----------
assign = array1d(1..17 ,[6, 6, 6, 6, 6, 6, 5, 5, 5, 5, 5, 1, 2, 3, 4, 5, 6]);
next = array1d(1..17 ,[3, 17, 5, 6, 4, 2, 11, 7, 10, 8, 16, 13, 14, 15, 9, 1, 12]);
makespan = 1317;
----------
assign = array1d(1..17 ,[6, 1, 6, 6, 6, 6, 1, 1, 6, 1, 1, 1, 2, 3, 4, 5, 6]);
next = array1d(1..17 ,[3, 12, 5, 6, 9, 17, 2, 11, 4, 8, 7, 13, 14, 15, 16, 1, 10]);
makespan = 1306;
----------
assign = array1d(1..17 ,[6, 2, 6, 6, 6, 6, 2, 2, 2, 2, 2, 1, 2, 3, 4, 5, 6]);
next = array1d(1..17 ,[3, 11, 5, 6, 4, 17, 2, 7, 10, 8, 13, 9, 14, 15, 16, 1, 12]);
makespan = 1292;
----------
assign = array1d(1..17 ,[6, 5, 6, 6, 6, 6, 5, 5, 6, 5, 5, 1, 2, 3, 4, 5, 6]);
next = array1d(1..17 ,[3, 11, 5, 6, 4, 9, 2, 7, 17, 8, 16, 13, 14, 15, 10, 1, 12]);
makespan = 1289;
----------
assign = array1d(1..17 ,[6, 4, 6, 6, 6, 6, 4, 5, 5, 5, 4, 1, 2, 3, 4, 5, 6]);
next = array1d(1..17 ,[3, 11, 5, 6, 4, 17, 2, 9, 10, 16, 15, 13, 14, 7, 8, 1, 12]);
makespan = 1288;
----------
assign = array1d(1..17 ,[6, 1, 6, 6, 6, 6, 1, 1, 1, 1, 1, 1, 2, 3, 4, 5, 6]);
next = array1d(1..17 ,[3, 11, 5, 6, 4, 17, 9, 7, 2, 8, 12, 13, 14, 15, 16, 1, 10]);
makespan = 1282;
----------
assign = array1d(1..17 ,[6, 2, 6, 6, 6, 6, 2, 2, 2, 2, 2, 1, 2, 3, 4, 5, 6]);
next = array1d(1..17 ,[3, 11, 5, 6, 17, 1, 13, 9, 2, 8, 7, 10, 14, 15, 16, 4, 12]);
makespan = 1279;
----------
assign = array1d(1..17 ,[6, 1, 6, 6, 6, 6, 1, 1, 1, 1, 1, 1, 2, 3, 4, 5, 6]);
next = array1d(1..17 ,[3, 11, 5, 6, 17, 1, 12, 9, 2, 8, 7, 13, 14, 15, 16, 4, 10]);
makespan = 1278;
----------
assign = array1d(1..17 ,[6, 1, 6, 6, 6, 6, 1, 1, 1, 1, 1, 1, 2, 3, 4, 5, 6]);
next = array1d(1..17 ,[3, 11, 5, 6, 17, 1, 12, 9, 2, 8, 7, 13, 14, 15, 16, 4, 10]);
makespan = 1265;
----------
assign = array1d(1..17 ,[6, 4, 6, 6, 6, 6, 5, 4, 4, 4, 4, 1, 2, 3, 4, 5, 6]);
next = array1d(1..17 ,[3, 11, 5, 6, 17, 1, 16, 9, 2, 8, 15, 13, 14, 10, 7, 4, 12]);
makespan = 1262;
----------
assign = array1d(1..17 ,[6, 5, 6, 6, 6, 6, 2, 5, 5, 5, 5, 1, 2, 3, 4, 5, 6]);
next = array1d(1..17 ,[3, 11, 5, 6, 17, 1, 13, 9, 2, 8, 16, 7, 14, 15, 10, 4, 12]);
makespan = 1259;
----------
assign = array1d(1..17 ,[6, 5, 6, 6, 6, 6, 2, 5, 5, 5, 5, 1, 2, 3, 4, 5, 6]);
next = array1d(1..17 ,[3, 11, 5, 6, 17, 1, 13, 9, 2, 8, 16, 7, 14, 15, 10, 4, 12]);
makespan = 1256;
----------
assign = array1d(1..17 ,[6, 5, 6, 6, 6, 6, 2, 5, 5, 5, 5, 1, 2, 3, 4, 5, 6]);
next = array1d(1..17 ,[3, 11, 5, 6, 17, 1, 13, 9, 2, 8, 16, 7, 14, 15, 10, 4, 12]);
makespan = 1252;
----------
assign = array1d(1..17 ,[6, 5, 6, 6, 6, 6, 2, 5, 5, 5, 5, 1, 2, 3, 4, 5, 6]);
next = array1d(1..17 ,[3, 11, 5, 6, 17, 1, 13, 9, 2, 8, 16, 7, 14, 15, 10, 4, 12]);
makespan = 1230;
----------
assign = array1d(1..17 ,[6, 5, 6, 6, 6, 6, 2, 5, 5, 5, 5, 1, 2, 3, 4, 5, 6]);
next = array1d(1..17 ,[3, 11, 5, 6, 17, 1, 13, 9, 2, 8, 16, 7, 14, 15, 10, 4, 12]);
makespan = 1229;
----------
assign = array1d(1..17 ,[6, 5, 6, 6, 6, 6, 2, 5, 5, 5, 5, 1, 2, 3, 4, 5, 6]);
next = array1d(1..17 ,[3, 11, 5, 6, 17, 1, 13, 9, 2, 8, 16, 7, 14, 15, 10, 4, 12]);
makespan = 1220;
----------
assign = array1d(1..17 ,[6, 5, 6, 6, 6, 6, 2, 5, 5, 5, 5, 1, 2, 3, 4, 5, 6]);
next = array1d(1..17 ,[3, 11, 5, 6, 17, 1, 13, 9, 2, 8, 16, 7, 14, 15, 10, 4, 12]);
makespan = 1214;
----------
assign = array1d(1..17 ,[6, 5, 6, 6, 6, 6, 2, 5, 5, 5, 5, 1, 2, 3, 4, 5, 6]);
next = array1d(1..17 ,[3, 11, 5, 6, 17, 1, 13, 9, 2, 8, 16, 7, 14, 15, 10, 4, 12]);
makespan = 1205;
----------
assign = array1d(1..17 ,[6, 5, 6, 6, 6, 6, 2, 5, 5, 5, 5, 1, 2, 3, 4, 5, 6]);
next = array1d(1..17 ,[3, 11, 5, 6, 17, 1, 13, 9, 2, 8, 16, 7, 14, 15, 10, 4, 12]);
makespan = 1201;
----------
assign = array1d(1..17 ,[6, 5, 6, 6, 6, 6, 2, 5, 5, 5, 5, 1, 2, 3, 4, 5, 6]);
next = array1d(1..17 ,[3, 11, 5, 6, 17, 1, 13, 9, 2, 8, 16, 7, 14, 15, 10, 4, 12]);
makespan = 1199;
----------
assign = array1d(1..17 ,[6, 5, 6, 6, 6, 6, 2, 5, 5, 5, 5, 1, 2, 3, 4, 5, 6]);
next = array1d(1..17 ,[3, 11, 5, 6, 17, 1, 13, 9, 2, 8, 16, 7, 14, 15, 10, 4, 12]);
makespan = 1198;
----------
assign = array1d(1..17 ,[6, 5, 6, 6, 6, 6, 2, 5, 5, 5, 5, 1, 2, 3, 4, 5, 6]);
next = array1d(1..17 ,[3, 11, 5, 6, 17, 1, 13, 9, 2, 8, 16, 7, 14, 15, 10, 4, 12]);
makespan = 1197;
----------
assign = array1d(1..17 ,[6, 5, 6, 6, 6, 6, 2, 5, 5, 5, 5, 1, 2, 3, 4, 5, 6]);
next = array1d(1..17 ,[3, 11, 5, 6, 17, 1, 13, 9, 2, 8, 16, 7, 14, 15, 10, 4, 12]);
makespan = 1196;
----------
assign = array1d(1..17 ,[6, 5, 6, 6, 6, 6, 2, 5, 5, 5, 5, 1, 2, 3, 4, 5, 6]);
next = array1d(1..17 ,[3, 11, 5, 6, 17, 1, 13, 9, 2, 8, 16, 7, 14, 15, 10, 4, 12]);
makespan = 1195;
----------
assign = array1d(1..17 ,[6, 5, 6, 6, 6, 6, 2, 5, 5, 5, 5, 1, 2, 3, 4, 5, 6]);
next = array1d(1..17 ,[3, 11, 5, 6, 17, 1, 13, 9, 2, 8, 16, 7, 14, 15, 10, 4, 12]);
makespan = 1192;
----------
assign = array1d(1..17 ,[6, 5, 6, 6, 6, 6, 2, 5, 5, 5, 5, 1, 2, 3, 4, 5, 6]);
next = array1d(1..17 ,[3, 11, 5, 6, 17, 1, 13, 9, 2, 8, 16, 7, 14, 15, 10, 4, 12]);
makespan = 1181;
----------
assign = array1d(1..17 ,[6, 5, 6, 6, 6, 6, 2, 5, 5, 5, 5, 1, 2, 3, 4, 5, 6]);
next = array1d(1..17 ,[3, 11, 5, 6, 17, 1, 13, 9, 2, 8, 16, 7, 14, 15, 10, 4, 12]);
makespan = 1180;
----------
assign = array1d(1..17 ,[6, 5, 6, 6, 6, 6, 2, 5, 5, 5, 5, 1, 2, 3, 4, 5, 6]);
next = array1d(1..17 ,[3, 11, 5, 6, 17, 1, 13, 9, 2, 8, 16, 7, 14, 15, 10, 4, 12]);
makespan = 1175;
----------
assign = array1d(1..17 ,[6, 5, 6, 6, 6, 6, 2, 5, 5, 5, 5, 1, 2, 3, 4, 5, 6]);
next = array1d(1..17 ,[3, 11, 5, 6, 17, 1, 13, 9, 2, 8, 16, 7, 14, 15, 10, 4, 12]);
makespan = 1159;
----------
assign = array1d(1..17 ,[6, 5, 6, 6, 6, 6, 2, 5, 5, 5, 5, 1, 2, 3, 4, 5, 6]);
next = array1d(1..17 ,[3, 11, 5, 6, 17, 1, 13, 9, 2, 8, 16, 7, 14, 15, 10, 4, 12]);
makespan = 1127;
----------
assign = array1d(1..17 ,[6, 5, 6, 6, 6, 6, 2, 5, 5, 5, 5, 1, 2, 3, 4, 5, 6]);
next = array1d(1..17 ,[3, 11, 5, 6, 4, 17, 13, 9, 2, 8, 16, 7, 14, 15, 10, 1, 12]);
makespan = 1125;
----------
assign = array1d(1..17 ,[6, 4, 6, 6, 6, 6, 5, 4, 4, 4, 4, 1, 2, 3, 4, 5, 6]);
next = array1d(1..17 ,[3, 11, 5, 6, 4, 17, 16, 9, 2, 8, 15, 13, 14, 10, 7, 1, 12]);
makespan = 1103;
----------
assign = array1d(1..17 ,[5, 6, 1, 5, 5, 5, 5, 6, 6, 6, 6, 1, 2, 3, 4, 5, 6]);
next = array1d(1..17 ,[16, 11, 12, 6, 7, 1, 4, 9, 2, 8, 17, 13, 14, 15, 5, 10, 3]);
makespan = 1099;
----------
assign = array1d(1..17 ,[5, 6, 6, 1, 6, 1, 5, 5, 6, 6, 5, 1, 2, 3, 4, 5, 6]);
next = array1d(1..17 ,[16, 17, 5, 12, 9, 4, 1, 11, 2, 3, 7, 13, 14, 15, 8, 10, 6]);
makespan = 1085;
----------
assign = array1d(1..17 ,[4, 4, 6, 5, 6, 5, 6, 6, 4, 5, 6, 1, 2, 3, 4, 5, 6]);
next = array1d(1..17 ,[15, 1, 5, 6, 8, 16, 3, 17, 2, 4, 7, 13, 14, 9, 10, 11, 12]);
makespan = 1079;
----------
assign = array1d(1..17 ,[4, 6, 6, 4, 6, 6, 5, 4, 6, 4, 5, 1, 2, 3, 4, 5, 6]);
next = array1d(1..17 ,[15, 17, 5, 1, 9, 3, 16, 4, 2, 8, 7, 13, 14, 10, 11, 6, 12]);
makespan = 1076;
----------
assign = array1d(1..17 ,[6, 1, 6, 5, 6, 6, 1, 5, 6, 5, 5, 1, 2, 3, 4, 5, 6]);
next = array1d(1..17 ,[9, 7, 5, 10, 17, 1, 12, 16, 3, 8, 4, 13, 14, 15, 11, 6, 2]);
makespan = 1074;
----------
assign = array1d(1..17 ,[6, 1, 6, 5, 6, 6, 1, 4, 6, 4, 5, 1, 2, 3, 4, 5, 6]);
next = array1d(1..17 ,[9, 7, 5, 16, 17, 1, 12, 15, 3, 8, 4, 13, 14, 10, 11, 6, 2]);
makespan = 1073;
----------
assign = array1d(1..17 ,[6, 1, 6, 5, 6, 6, 1, 4, 6, 4, 5, 1, 2, 3, 4, 5, 6]);
next = array1d(1..17 ,[9, 7, 5, 16, 17, 1, 12, 15, 3, 8, 4, 13, 14, 10, 11, 6, 2]);
makespan = 1071;
----------
assign = array1d(1..17 ,[6, 1, 6, 5, 6, 6, 1, 4, 6, 4, 5, 1, 2, 3, 4, 5, 6]);
next = array1d(1..17 ,[9, 7, 5, 16, 17, 1, 12, 15, 3, 8, 4, 13, 14, 10, 11, 6, 2]);
makespan = 1069;
----------
assign = array1d(1..17 ,[6, 1, 6, 5, 6, 6, 1, 4, 6, 4, 5, 1, 2, 3, 4, 5, 6]);
next = array1d(1..17 ,[9, 7, 5, 16, 17, 1, 12, 15, 3, 8, 4, 13, 14, 10, 11, 6, 2]);
makespan = 1064;
----------
assign = array1d(1..17 ,[6, 1, 6, 5, 6, 6, 1, 4, 6, 4, 5, 1, 2, 3, 4, 5, 6]);
next = array1d(1..17 ,[9, 7, 5, 16, 17, 1, 12, 15, 3, 8, 4, 13, 14, 10, 11, 6, 2]);
makespan = 1060;
----------
assign = array1d(1..17 ,[6, 1, 6, 5, 6, 6, 1, 4, 6, 4, 5, 1, 2, 3, 4, 5, 6]);
next = array1d(1..17 ,[9, 7, 5, 16, 17, 1, 12, 15, 3, 8, 4, 13, 14, 10, 11, 6, 2]);
makespan = 1054;
----------
assign = array1d(1..17 ,[6, 1, 6, 5, 6, 6, 1, 4, 6, 4, 5, 1, 2, 3, 4, 5, 6]);
next = array1d(1..17 ,[9, 7, 5, 16, 17, 1, 12, 15, 3, 8, 4, 13, 14, 10, 11, 6, 2]);
makespan = 1048;
----------
assign = array1d(1..17 ,[6, 1, 6, 5, 6, 6, 1, 4, 6, 4, 5, 1, 2, 3, 4, 5, 6]);
next = array1d(1..17 ,[9, 7, 5, 16, 17, 1, 12, 15, 3, 8, 4, 13, 14, 10, 11, 6, 2]);
makespan = 1041;
----------
assign = array1d(1..17 ,[6, 1, 6, 1, 6, 6, 1, 4, 6, 4, 1, 1, 2, 3, 4, 5, 6]);
next = array1d(1..17 ,[6, 7, 5, 2, 17, 9, 12, 15, 3, 8, 4, 13, 14, 10, 16, 1, 11]);
makespan = 1039;
----------
assign = array1d(1..17 ,[1, 6, 6, 1, 6, 5, 6, 1, 6, 1, 1, 1, 2, 3, 4, 5, 6]);
next = array1d(1..17 ,[10, 9, 5, 1, 7, 16, 17, 12, 3, 8, 4, 13, 14, 15, 6, 2, 11]);
makespan = 1026;
----------
assign = array1d(1..17 ,[3, 6, 6, 3, 6, 5, 6, 3, 6, 3, 3, 1, 2, 3, 4, 5, 6]);
next = array1d(1..17 ,[10, 9, 5, 1, 7, 16, 17, 14, 3, 8, 4, 13, 11, 15, 6, 2, 12]);
makespan = 1022;
----------
assign = array1d(1..17 ,[3, 6, 6, 3, 6, 5, 6, 3, 6, 3, 3, 1, 2, 3, 4, 5, 6]);
next = array1d(1..17 ,[10, 9, 5, 1, 7, 16, 17, 14, 3, 8, 4, 13, 11, 15, 6, 2, 12]);
makespan = 1021;
----------
assign = array1d(1..17 ,[3, 6, 6, 3, 6, 5, 6, 3, 6, 3, 3, 1, 2, 3, 4, 5, 6]);
next = array1d(1..17 ,[10, 9, 5, 1, 7, 16, 17, 14, 3, 8, 4, 13, 11, 15, 6, 2, 12]);
makespan = 1016;
----------
assign = array1d(1..17 ,[3, 6, 6, 3, 6, 5, 6, 3, 6, 3, 3, 1, 2, 3, 4, 5, 6]);
next = array1d(1..17 ,[10, 17, 5, 1, 7, 16, 2, 14, 3, 8, 4, 13, 11, 15, 6, 9, 12]);
makespan = 1010;
----------
assign = array1d(1..17 ,[3, 6, 6, 3, 6, 5, 6, 3, 6, 3, 3, 1, 2, 3, 4, 5, 6]);
next = array1d(1..17 ,[10, 17, 5, 1, 7, 16, 2, 14, 3, 8, 4, 13, 11, 15, 6, 9, 12]);
makespan = 1008;
----------
assign = array1d(1..17 ,[3, 6, 6, 3, 6, 5, 6, 3, 6, 3, 3, 1, 2, 3, 4, 5, 6]);
next = array1d(1..17 ,[10, 17, 5, 1, 7, 16, 2, 14, 3, 8, 4, 13, 11, 15, 6, 9, 12]);
makespan = 1007;
----------
assign = array1d(1..17 ,[3, 6, 6, 3, 6, 5, 6, 3, 6, 3, 3, 1, 2, 3, 4, 5, 6]);
next = array1d(1..17 ,[10, 17, 5, 1, 7, 16, 2, 14, 3, 8, 4, 13, 11, 15, 6, 9, 12]);
makespan = 1004;
----------
assign = array1d(1..17 ,[5, 1, 6, 5, 6, 5, 1, 6, 1, 6, 5, 1, 2, 3, 4, 5, 6]);
next = array1d(1..17 ,[16, 7, 5, 1, 10, 11, 12, 17, 2, 8, 4, 13, 14, 15, 6, 3, 9]);
makespan = 1000;
----------
assign = array1d(1..17 ,[4, 6, 6, 5, 6, 5, 6, 4, 6, 4, 5, 1, 2, 3, 4, 5, 6]);
next = array1d(1..17 ,[10, 17, 5, 6, 7, 16, 2, 15, 3, 8, 4, 13, 14, 1, 11, 9, 12]);
makespan = 997;
----------
assign = array1d(1..17 ,[1, 1, 6, 5, 6, 1, 6, 1, 6, 1, 5, 1, 2, 3, 4, 5, 6]);
next = array1d(1..17 ,[10, 1, 5, 16, 7, 2, 17, 12, 3, 8, 4, 13, 14, 15, 11, 9, 6]);
makespan = 995;
----------
assign = array1d(1..17 ,[1, 1, 6, 6, 6, 1, 3, 1, 2, 1, 6, 1, 2, 3, 4, 5, 6]);
next = array1d(1..17 ,[10, 1, 5, 3, 17, 2, 14, 12, 13, 8, 4, 9, 7, 15, 16, 11, 6]);
makespan = 994;
----------
assign = array1d(1..17 ,[6, 5, 6, 2, 3, 5, 3, 6, 5, 6, 2, 1, 2, 3, 4, 5, 6]);
next = array1d(1..17 ,[10, 9, 1, 13, 7, 2, 14, 17, 16, 8, 4, 11, 5, 15, 6, 3, 12]);
makespan = 989;
----------
assign = array1d(1..17 ,[6, 6, 6, 5, 3, 5, 3, 5, 2, 6, 5, 1, 2, 3, 4, 5, 6]);
next = array1d(1..17 ,[10, 1, 17, 8, 7, 16, 14, 6, 13, 3, 4, 9, 5, 15, 11, 2, 12]);
makespan = 988;
----------
assign = array1d(1..17 ,[6, 5, 6, 5, 4, 5, 4, 4, 6, 6, 5, 1, 2, 3, 4, 5, 6]);
next = array1d(1..17 ,[10, 11, 17, 16, 7, 2, 15, 5, 3, 9, 4, 13, 14, 8, 6, 1, 12]);
makespan = 987;
----------
assign = array1d(1..17 ,[6, 5, 6, 4, 5, 5, 1, 5, 6, 6, 4, 1, 2, 3, 4, 5, 6]);
next = array1d(1..17 ,[10, 16, 17, 15, 2, 5, 12, 6, 3, 9, 4, 13, 14, 11, 8, 1, 7]);
makespan = 979;
----------
assign = array1d(1..17 ,[5, 6, 1, 5, 6, 6, 5, 6, 1, 2, 5, 1, 2, 3, 4, 5, 6]);
next = array1d(1..17 ,[7, 17, 12, 1, 2, 5, 16, 6, 3, 13, 4, 10, 14, 15, 11, 8, 9]);
makespan = 978;
----------
assign = array1d(1..17 ,[5, 6, 1, 5, 6, 6, 5, 6, 1, 2, 5, 1, 2, 3, 4, 5, 6]);
next = array1d(1..17 ,[7, 17, 12, 1, 2, 5, 16, 6, 3, 13, 4, 10, 14, 15, 11, 8, 9]);
makespan = 972;
----------
assign = array1d(1..17 ,[5, 6, 1, 5, 6, 6, 5, 6, 1, 2, 5, 1, 2, 3, 4, 5, 6]);
next = array1d(1..17 ,[7, 17, 12, 1, 2, 5, 16, 6, 3, 13, 4, 10, 14, 15, 11, 8, 9]);
makespan = 971;
----------
assign = array1d(1..17 ,[5, 6, 1, 5, 6, 6, 5, 6, 1, 2, 5, 1, 2, 3, 4, 5, 6]);
next = array1d(1..17 ,[7, 17, 12, 1, 2, 5, 16, 6, 3, 13, 4, 10, 14, 15, 11, 8, 9]);
makespan = 970;
----------
assign = array1d(1..17 ,[5, 6, 1, 5, 6, 6, 5, 6, 1, 2, 5, 1, 2, 3, 4, 5, 6]);
next = array1d(1..17 ,[7, 17, 12, 1, 2, 5, 16, 6, 3, 13, 4, 10, 14, 15, 11, 8, 9]);
makespan = 965;
----------
assign = array1d(1..17 ,[5, 6, 1, 5, 6, 6, 5, 6, 1, 2, 5, 1, 2, 3, 4, 5, 6]);
next = array1d(1..17 ,[7, 17, 12, 1, 2, 5, 16, 6, 3, 13, 4, 10, 14, 15, 11, 8, 9]);
makespan = 962;
----------
assign = array1d(1..17 ,[5, 6, 1, 5, 6, 6, 5, 6, 1, 2, 5, 1, 2, 3, 4, 5, 6]);
next = array1d(1..17 ,[7, 17, 12, 1, 2, 5, 16, 6, 3, 13, 4, 10, 14, 15, 11, 8, 9]);
makespan = 958;
----------
assign = array1d(1..17 ,[5, 6, 1, 5, 6, 6, 5, 6, 1, 2, 5, 1, 2, 3, 4, 5, 6]);
next = array1d(1..17 ,[7, 17, 12, 1, 2, 5, 16, 6, 3, 13, 4, 10, 14, 15, 11, 8, 9]);
makespan = 950;
----------
assign = array1d(1..17 ,[5, 6, 1, 5, 6, 6, 5, 6, 1, 2, 5, 1, 2, 3, 4, 5, 6]);
next = array1d(1..17 ,[7, 17, 12, 1, 2, 5, 16, 6, 3, 13, 4, 10, 14, 15, 11, 8, 9]);
makespan = 949;
----------
assign = array1d(1..17 ,[5, 6, 1, 5, 6, 6, 5, 6, 1, 2, 5, 1, 2, 3, 4, 5, 6]);
next = array1d(1..17 ,[7, 17, 12, 1, 2, 5, 16, 6, 3, 13, 4, 10, 14, 15, 11, 8, 9]);
makespan = 947;
----------
assign = array1d(1..17 ,[5, 6, 1, 5, 6, 6, 5, 6, 1, 2, 5, 1, 2, 3, 4, 5, 6]);
next = array1d(1..17 ,[7, 17, 12, 1, 2, 5, 16, 6, 3, 13, 4, 10, 14, 15, 11, 8, 9]);
makespan = 941;
----------
assign = array1d(1..17 ,[5, 6, 1, 5, 6, 6, 5, 6, 1, 2, 5, 1, 2, 3, 4, 5, 6]);
next = array1d(1..17 ,[7, 17, 12, 1, 2, 5, 16, 6, 3, 13, 4, 10, 14, 15, 11, 8, 9]);
makespan = 939;
----------
assign = array1d(1..17 ,[5, 6, 1, 5, 6, 6, 5, 6, 1, 2, 5, 1, 2, 3, 4, 5, 6]);
next = array1d(1..17 ,[7, 17, 12, 1, 2, 5, 16, 6, 3, 13, 4, 10, 14, 15, 11, 8, 9]);
makespan = 933;
----------
assign = array1d(1..17 ,[5, 6, 1, 5, 6, 6, 5, 6, 1, 2, 5, 1, 2, 3, 4, 5, 6]);
next = array1d(1..17 ,[7, 17, 12, 1, 2, 5, 16, 6, 3, 13, 4, 10, 14, 15, 11, 8, 9]);
makespan = 932;
----------
assign = array1d(1..17 ,[5, 6, 1, 5, 6, 6, 5, 6, 1, 2, 5, 1, 2, 3, 4, 5, 6]);
next = array1d(1..17 ,[7, 17, 12, 1, 2, 5, 16, 6, 3, 13, 4, 10, 14, 15, 11, 8, 9]);
makespan = 925;
----------
assign = array1d(1..17 ,[5, 6, 1, 5, 6, 6, 5, 6, 1, 2, 5, 1, 2, 3, 4, 5, 6]);
next = array1d(1..17 ,[7, 17, 12, 1, 2, 5, 16, 6, 3, 13, 4, 10, 14, 15, 11, 8, 9]);
makespan = 924;
----------
assign = array1d(1..17 ,[5, 6, 1, 5, 6, 6, 5, 6, 1, 2, 5, 1, 2, 3, 4, 5, 6]);
next = array1d(1..17 ,[7, 17, 12, 1, 2, 5, 16, 6, 3, 13, 4, 10, 14, 15, 11, 8, 9]);
makespan = 920;
----------
assign = array1d(1..17 ,[5, 6, 1, 5, 6, 6, 5, 6, 1, 2, 5, 1, 2, 3, 4, 5, 6]);
next = array1d(1..17 ,[7, 17, 12, 1, 2, 5, 16, 6, 3, 13, 4, 10, 14, 15, 11, 8, 9]);
makespan = 918;
----------
assign = array1d(1..17 ,[5, 6, 1, 5, 6, 6, 5, 6, 1, 2, 5, 1, 2, 3, 4, 5, 6]);
next = array1d(1..17 ,[7, 17, 12, 1, 2, 5, 16, 6, 3, 13, 4, 10, 14, 15, 11, 8, 9]);
makespan = 915;
----------
assign = array1d(1..17 ,[5, 6, 1, 5, 6, 6, 5, 6, 1, 2, 5, 1, 2, 3, 4, 5, 6]);
next = array1d(1..17 ,[7, 17, 12, 1, 2, 5, 16, 6, 3, 13, 4, 10, 14, 15, 11, 8, 9]);
makespan = 913;
----------
assign = array1d(1..17 ,[5, 6, 1, 5, 6, 6, 5, 6, 1, 2, 5, 1, 2, 3, 4, 5, 6]);
next = array1d(1..17 ,[7, 17, 12, 1, 2, 5, 16, 6, 3, 13, 4, 10, 14, 15, 11, 8, 9]);
makespan = 896;
----------
assign = array1d(1..17 ,[5, 6, 1, 5, 6, 6, 5, 6, 1, 2, 5, 1, 2, 3, 4, 5, 6]);
next = array1d(1..17 ,[7, 17, 12, 1, 2, 5, 16, 6, 3, 13, 4, 10, 14, 15, 11, 8, 9]);
makespan = 894;
----------
assign = array1d(1..17 ,[5, 6, 1, 5, 6, 6, 5, 6, 1, 2, 5, 1, 2, 3, 4, 5, 6]);
next = array1d(1..17 ,[7, 17, 12, 1, 2, 5, 16, 6, 3, 13, 4, 10, 14, 15, 11, 8, 9]);
makespan = 893;
----------
assign = array1d(1..17 ,[5, 6, 1, 5, 6, 6, 5, 6, 1, 2, 5, 1, 2, 3, 4, 5, 6]);
next = array1d(1..17 ,[7, 17, 12, 1, 2, 5, 16, 6, 3, 13, 4, 10, 14, 15, 11, 8, 9]);
makespan = 887;
----------
assign = array1d(1..17 ,[5, 6, 1, 5, 6, 6, 5, 6, 1, 2, 5, 1, 2, 3, 4, 5, 6]);
next = array1d(1..17 ,[7, 17, 12, 1, 2, 5, 16, 6, 3, 13, 4, 10, 14, 15, 11, 8, 9]);
makespan = 885;
----------
assign = array1d(1..17 ,[5, 6, 1, 5, 6, 6, 5, 6, 1, 2, 5, 1, 2, 3, 4, 5, 6]);
next = array1d(1..17 ,[7, 17, 12, 1, 2, 5, 16, 6, 3, 13, 4, 10, 14, 15, 11, 8, 9]);
makespan = 884;
----------
assign = array1d(1..17 ,[5, 6, 1, 5, 6, 6, 5, 6, 1, 2, 5, 1, 2, 3, 4, 5, 6]);
next = array1d(1..17 ,[7, 17, 12, 1, 2, 5, 16, 6, 3, 13, 4, 10, 14, 15, 11, 8, 9]);
makespan = 880;
----------
assign = array1d(1..17 ,[5, 6, 1, 5, 6, 6, 5, 6, 1, 2, 5, 1, 2, 3, 4, 5, 6]);
next = array1d(1..17 ,[7, 17, 12, 1, 2, 5, 16, 6, 3, 13, 4, 10, 14, 15, 11, 8, 9]);
makespan = 862;
----------
assign = array1d(1..17 ,[5, 6, 1, 5, 6, 6, 5, 6, 1, 2, 5, 1, 2, 3, 4, 5, 6]);
next = array1d(1..17 ,[7, 17, 12, 1, 2, 5, 16, 6, 3, 13, 4, 10, 14, 15, 11, 8, 9]);
makespan = 845;
----------
assign = array1d(1..17 ,[5, 6, 1, 5, 6, 6, 6, 5, 1, 2, 5, 1, 2, 3, 4, 5, 6]);
next = array1d(1..17 ,[8, 7, 12, 1, 2, 5, 17, 16, 3, 13, 4, 10, 14, 15, 11, 6, 9]);
makespan = 838;
----------
assign = array1d(1..17 ,[3, 6, 1, 5, 6, 6, 6, 5, 1, 2, 5, 1, 2, 3, 4, 5, 6]);
next = array1d(1..17 ,[14, 7, 12, 8, 2, 5, 17, 16, 3, 13, 4, 10, 1, 15, 11, 6, 9]);
makespan = 835;
----------
assign = array1d(1..17 ,[3, 6, 1, 6, 5, 5, 6, 5, 1, 2, 6, 1, 2, 3, 4, 5, 6]);
next = array1d(1..17 ,[14, 11, 12, 17, 16, 5, 2, 6, 3, 13, 4, 10, 1, 15, 8, 7, 9]);
makespan = 823;
----------
assign = array1d(1..17 ,[4, 4, 5, 4, 6, 6, 6, 6, 3, 2, 4, 1, 2, 3, 4, 5, 6]);
next = array1d(1..17 ,[15, 11, 16, 1, 17, 5, 8, 6, 14, 13, 4, 10, 9, 2, 3, 7, 12]);
makespan = 821;
----------
assign = array1d(1..17 ,[4, 4, 5, 4, 6, 6, 6, 6, 3, 2, 4, 1, 2, 3, 4, 5, 6]);
next = array1d(1..17 ,[15, 11, 16, 1, 17, 5, 8, 6, 14, 13, 4, 10, 9, 2, 3, 7, 12]);
makespan = 815;
----------
assign = array1d(1..17 ,[4, 4, 6, 4, 5, 5, 2, 6, 2, 6, 4, 1, 2, 3, 4, 5, 6]);
next = array1d(1..17 ,[15, 11, 10, 1, 16, 5, 9, 17, 13, 8, 4, 7, 14, 2, 6, 3, 12]);
makespan = 813;
----------
assign = array1d(1..17 ,[1, 5, 1, 5, 2, 6, 3, 6, 3, 6, 5, 1, 2, 3, 4, 5, 6]);
next = array1d(1..17 ,[3, 11, 12, 16, 13, 17, 14, 6, 7, 8, 4, 5, 9, 15, 2, 10, 1]);
makespan = 812;
----------
assign = array1d(1..17 ,[1, 5, 1, 5, 6, 3, 3, 6, 6, 6, 5, 1, 2, 3, 4, 5, 6]);
next = array1d(1..17 ,[3, 11, 12, 16, 9, 7, 14, 17, 10, 8, 4, 13, 6, 15, 2, 5, 1]);
makespan = 808;
----------
assign = array1d(1..17 ,[1, 5, 1, 1, 6, 4, 4, 6, 4, 6, 5, 1, 2, 3, 4, 5, 6]);
next = array1d(1..17 ,[3, 11, 12, 1, 10, 7, 9, 17, 15, 8, 16, 13, 14, 6, 2, 5, 4]);
makespan = 802;
----------
assign = array1d(1..17 ,[1, 4, 6, 4, 4, 5, 5, 6, 5, 6, 4, 1, 2, 3, 4, 5, 6]);
next = array1d(1..17 ,[12, 11, 10, 5, 15, 7, 9, 17, 16, 8, 4, 13, 14, 2, 6, 3, 1]);
makespan = 800;
----------
assign = array1d(1..17 ,[3, 4, 6, 4, 4, 3, 3, 6, 3, 6, 4, 1, 2, 3, 4, 5, 6]);
next = array1d(1..17 ,[14, 11, 10, 5, 15, 7, 9, 17, 1, 8, 4, 13, 6, 2, 16, 3, 12]);
makespan = 798;
----------
assign = array1d(1..17 ,[3, 4, 3, 4, 4, 6, 6, 3, 6, 3, 4, 1, 2, 3, 4, 5, 6]);
next = array1d(1..17 ,[3, 11, 14, 5, 15, 7, 9, 1, 17, 8, 4, 13, 10, 2, 16, 6, 12]);
makespan = 797;
----------
assign = array1d(1..17 ,[3, 5, 3, 5, 4, 6, 6, 3, 6, 3, 5, 1, 2, 3, 4, 5, 6]);
next = array1d(1..17 ,[3, 11, 14, 16, 15, 7, 9, 1, 17, 8, 4, 13, 10, 5, 2, 6, 12]);
makespan = 789;
----------
assign = array1d(1..17 ,[3, 4, 3, 4, 5, 6, 6, 3, 6, 3, 4, 1, 2, 3, 4, 5, 6]);
next = array1d(1..17 ,[3, 11, 14, 15, 16, 7, 9, 1, 17, 8, 4, 13, 10, 2, 5, 6, 12]);
makespan = 788;
----------
assign = array1d(1..17 ,[3, 4, 3, 4, 5, 6, 6, 3, 6, 3, 4, 1, 2, 3, 4, 5, 6]);
next = array1d(1..17 ,[3, 11, 14, 15, 16, 7, 9, 1, 17, 8, 4, 13, 10, 2, 5, 6, 12]);
makespan = 787;
----------
assign = array1d(1..17 ,[3, 4, 3, 4, 5, 6, 6, 3, 6, 3, 4, 1, 2, 3, 4, 5, 6]);
next = array1d(1..17 ,[3, 11, 14, 15, 16, 7, 9, 1, 17, 8, 4, 13, 10, 2, 5, 6, 12]);
makespan = 786;
----------
assign = array1d(1..17 ,[3, 4, 3, 4, 5, 6, 6, 3, 6, 3, 4, 1, 2, 3, 4, 5, 6]);
next = array1d(1..17 ,[3, 11, 14, 15, 16, 7, 9, 1, 17, 8, 4, 13, 10, 2, 5, 6, 12]);
makespan = 785;
----------
assign = array1d(1..17 ,[3, 4, 3, 4, 5, 6, 6, 3, 6, 3, 4, 1, 2, 3, 4, 5, 6]);
next = array1d(1..17 ,[3, 11, 14, 15, 16, 7, 9, 1, 17, 8, 4, 13, 10, 2, 5, 6, 12]);
makespan = 784;
----------
assign = array1d(1..17 ,[3, 4, 3, 4, 5, 6, 6, 3, 6, 3, 4, 1, 2, 3, 4, 5, 6]);
next = array1d(1..17 ,[3, 11, 14, 15, 16, 7, 9, 1, 17, 8, 4, 13, 10, 2, 5, 6, 12]);
makespan = 783;
----------
assign = array1d(1..17 ,[3, 4, 3, 4, 5, 6, 6, 3, 6, 3, 4, 1, 2, 3, 4, 5, 6]);
next = array1d(1..17 ,[3, 11, 14, 15, 16, 7, 9, 1, 17, 8, 4, 13, 10, 2, 5, 6, 12]);
makespan = 779;
----------
assign = array1d(1..17 ,[3, 4, 3, 4, 5, 6, 6, 3, 6, 3, 4, 1, 2, 3, 4, 5, 6]);
next = array1d(1..17 ,[3, 11, 14, 15, 16, 7, 9, 1, 17, 8, 4, 13, 10, 2, 5, 6, 12]);
makespan = 769;
----------
assign = array1d(1..17 ,[3, 4, 3, 4, 5, 6, 6, 3, 6, 3, 4, 1, 2, 3, 4, 5, 6]);
next = array1d(1..17 ,[3, 11, 14, 15, 16, 7, 9, 1, 17, 8, 4, 13, 10, 2, 5, 6, 12]);
makespan = 767;
----------
assign = array1d(1..17 ,[3, 4, 3, 4, 5, 6, 6, 3, 6, 3, 4, 1, 2, 3, 4, 5, 6]);
next = array1d(1..17 ,[3, 11, 14, 15, 16, 7, 9, 1, 17, 8, 4, 13, 10, 2, 5, 6, 12]);
makespan = 761;
----------
assign = array1d(1..17 ,[3, 4, 3, 4, 5, 6, 6, 3, 6, 3, 4, 1, 2, 3, 4, 5, 6]);
next = array1d(1..17 ,[3, 11, 14, 15, 16, 7, 9, 1, 17, 8, 4, 13, 10, 2, 5, 6, 12]);
makespan = 760;
----------
assign = array1d(1..17 ,[3, 4, 3, 4, 5, 6, 6, 3, 6, 3, 4, 1, 2, 3, 4, 5, 6]);
next = array1d(1..17 ,[3, 11, 14, 15, 16, 7, 9, 1, 17, 8, 4, 13, 10, 2, 5, 6, 12]);
makespan = 759;
----------
assign = array1d(1..17 ,[3, 4, 3, 4, 5, 6, 6, 3, 6, 3, 4, 1, 2, 3, 4, 5, 6]);
next = array1d(1..17 ,[3, 11, 14, 15, 16, 7, 9, 1, 17, 8, 4, 13, 10, 2, 5, 6, 12]);
makespan = 754;
----------
assign = array1d(1..17 ,[3, 4, 3, 4, 5, 6, 6, 3, 6, 3, 4, 1, 2, 3, 4, 5, 6]);
next = array1d(1..17 ,[3, 11, 14, 15, 16, 7, 9, 1, 17, 8, 4, 13, 10, 2, 5, 6, 12]);
makespan = 748;
----------
assign = array1d(1..17 ,[3, 4, 3, 4, 5, 6, 6, 3, 6, 3, 4, 1, 2, 3, 4, 5, 6]);
next = array1d(1..17 ,[3, 11, 14, 15, 16, 7, 9, 1, 17, 8, 4, 13, 10, 2, 5, 6, 12]);
makespan = 745;
----------
assign = array1d(1..17 ,[6, 4, 6, 4, 5, 3, 3, 5, 3, 5, 4, 1, 2, 3, 4, 5, 6]);
next = array1d(1..17 ,[3, 11, 17, 15, 10, 7, 9, 16, 14, 8, 4, 13, 6, 2, 5, 1, 12]);
makespan = 743;
----------
assign = array1d(1..17 ,[6, 4, 6, 4, 5, 3, 3, 5, 3, 5, 4, 1, 2, 3, 4, 5, 6]);
next = array1d(1..17 ,[3, 11, 17, 15, 10, 7, 9, 16, 14, 8, 4, 13, 6, 2, 5, 1, 12]);
makespan = 739;
----------
assign = array1d(1..17 ,[6, 4, 6, 4, 2, 5, 5, 2, 5, 2, 4, 1, 2, 3, 4, 5, 6]);
next = array1d(1..17 ,[3, 11, 17, 15, 10, 7, 9, 13, 16, 8, 4, 5, 14, 2, 6, 1, 12]);
makespan = 738;
----------
assign = array1d(1..17 ,[4, 3, 4, 3, 5, 6, 6, 5, 6, 5, 3, 1, 2, 3, 4, 5, 6]);
next = array1d(1..17 ,[3, 11, 15, 14, 10, 7, 9, 16, 17, 8, 4, 13, 2, 1, 5, 6, 12]);
makespan = 731;
----------
assign = array1d(1..17 ,[2, 5, 2, 5, 4, 6, 6, 4, 6, 4, 5, 1, 2, 3, 4, 5, 6]);
next = array1d(1..17 ,[3, 11, 13, 16, 10, 7, 9, 15, 17, 8, 4, 1, 14, 5, 2, 6, 12]);
makespan = 726;
----------
assign = array1d(1..17 ,[2, 5, 2, 5, 4, 6, 6, 4, 6, 4, 5, 1, 2, 3, 4, 5, 6]);
next = array1d(1..17 ,[3, 11, 13, 16, 10, 7, 9, 15, 17, 8, 4, 1, 14, 5, 2, 6, 12]);
makespan = 711;
----------
assign = array1d(1..17 ,[2, 5, 2, 5, 4, 6, 6, 4, 6, 4, 5, 1, 2, 3, 4, 5, 6]);
next = array1d(1..17 ,[3, 11, 13, 16, 10, 7, 9, 15, 17, 8, 4, 1, 14, 5, 2, 6, 12]);
makespan = 703;
----------
assign = array1d(1..17 ,[2, 5, 2, 5, 4, 6, 6, 4, 6, 4, 5, 1, 2, 3, 4, 5, 6]);
next = array1d(1..17 ,[3, 11, 13, 16, 10, 7, 9, 15, 17, 8, 4, 1, 14, 5, 2, 6, 12]);
makespan = 696;
----------
assign = array1d(1..17 ,[2, 5, 2, 5, 4, 6, 6, 4, 6, 4, 5, 1, 2, 3, 4, 5, 6]);
next = array1d(1..17 ,[3, 11, 13, 16, 10, 7, 9, 15, 17, 8, 4, 1, 14, 5, 2, 6, 12]);
makespan = 685;
----------
assign = array1d(1..17 ,[2, 5, 2, 5, 4, 6, 6, 4, 6, 4, 5, 1, 2, 3, 4, 5, 6]);
next = array1d(1..17 ,[3, 11, 13, 16, 10, 7, 9, 15, 17, 8, 4, 1, 14, 5, 2, 6, 12]);
makespan = 680;
----------
assign = array1d(1..17 ,[2, 5, 2, 5, 4, 6, 6, 4, 6, 4, 5, 1, 2, 3, 4, 5, 6]);
next = array1d(1..17 ,[3, 11, 13, 16, 10, 7, 9, 15, 17, 8, 4, 1, 14, 5, 2, 6, 12]);
makespan = 679;
----------
assign = array1d(1..17 ,[2, 5, 2, 5, 4, 6, 6, 4, 6, 4, 5, 1, 2, 3, 4, 5, 6]);
next = array1d(1..17 ,[3, 11, 13, 16, 10, 7, 9, 15, 17, 8, 4, 1, 14, 5, 2, 6, 12]);
makespan = 663;
----------
assign = array1d(1..17 ,[2, 5, 2, 5, 4, 6, 6, 4, 6, 4, 5, 1, 2, 3, 4, 5, 6]);
next = array1d(1..17 ,[3, 11, 13, 16, 10, 7, 9, 15, 17, 8, 4, 1, 14, 5, 2, 6, 12]);
makespan = 658;
----------
assign = array1d(1..17 ,[2, 5, 2, 5, 4, 6, 6, 4, 6, 4, 5, 1, 2, 3, 4, 5, 6]);
next = array1d(1..17 ,[3, 11, 13, 16, 10, 7, 9, 15, 17, 8, 4, 1, 14, 5, 2, 6, 12]);
makespan = 649;
----------
assign = array1d(1..17 ,[2, 5, 2, 5, 4, 6, 6, 4, 6, 4, 5, 1, 2, 3, 4, 5, 6]);
next = array1d(1..17 ,[3, 11, 13, 16, 10, 7, 9, 15, 17, 8, 4, 1, 14, 5, 2, 6, 12]);
makespan = 647;
----------
assign = array1d(1..17 ,[2, 5, 2, 5, 4, 6, 6, 4, 6, 4, 5, 1, 2, 3, 4, 5, 6]);
next = array1d(1..17 ,[3, 11, 13, 16, 10, 7, 9, 15, 17, 8, 4, 1, 14, 5, 2, 6, 12]);
makespan = 643;
----------
assign = array1d(1..17 ,[2, 5, 2, 5, 4, 6, 6, 4, 6, 4, 5, 1, 2, 3, 4, 5, 6]);
next = array1d(1..17 ,[3, 11, 13, 16, 10, 7, 9, 15, 17, 8, 4, 1, 14, 5, 2, 6, 12]);
makespan = 642;
----------
assign = array1d(1..17 ,[2, 5, 2, 5, 4, 6, 6, 4, 6, 4, 5, 1, 2, 3, 4, 5, 6]);
next = array1d(1..17 ,[3, 11, 13, 16, 10, 7, 9, 15, 17, 8, 4, 1, 14, 5, 2, 6, 12]);
makespan = 640;
----------
assign = array1d(1..17 ,[2, 5, 2, 5, 4, 6, 6, 4, 6, 4, 5, 1, 2, 3, 4, 5, 6]);
next = array1d(1..17 ,[3, 11, 13, 16, 10, 7, 9, 15, 17, 8, 4, 1, 14, 5, 2, 6, 12]);
makespan = 635;
----------
assign = array1d(1..17 ,[2, 5, 2, 5, 4, 6, 6, 4, 6, 4, 5, 1, 2, 3, 4, 5, 6]);
next = array1d(1..17 ,[3, 11, 13, 16, 10, 7, 9, 15, 17, 8, 4, 1, 14, 5, 2, 6, 12]);
makespan = 633;
----------
assign = array1d(1..17 ,[2, 5, 2, 5, 4, 6, 6, 4, 6, 4, 5, 1, 2, 3, 4, 5, 6]);
next = array1d(1..17 ,[3, 11, 13, 16, 10, 7, 9, 15, 17, 8, 4, 1, 14, 5, 2, 6, 12]);
makespan = 629;
----------
assign = array1d(1..17 ,[2, 5, 2, 5, 4, 6, 6, 4, 6, 4, 5, 1, 2, 3, 4, 5, 6]);
next = array1d(1..17 ,[3, 11, 13, 16, 10, 7, 9, 15, 17, 8, 4, 1, 14, 5, 2, 6, 12]);
makespan = 627;
----------
assign = array1d(1..17 ,[2, 5, 2, 5, 4, 6, 6, 4, 6, 4, 5, 1, 2, 3, 4, 5, 6]);
next = array1d(1..17 ,[3, 11, 13, 16, 10, 7, 9, 15, 17, 8, 4, 1, 14, 5, 2, 6, 12]);
makespan = 623;
----------
assign = array1d(1..17 ,[2, 5, 2, 5, 4, 6, 6, 4, 6, 4, 5, 1, 2, 3, 4, 5, 6]);
next = array1d(1..17 ,[3, 11, 13, 16, 10, 7, 9, 15, 17, 8, 4, 1, 14, 5, 2, 6, 12]);
makespan = 620;
----------
assign = array1d(1..17 ,[5, 6, 5, 6, 4, 3, 3, 4, 3, 4, 6, 1, 2, 3, 4, 5, 6]);
next = array1d(1..17 ,[3, 11, 16, 17, 10, 7, 9, 15, 14, 8, 4, 13, 6, 5, 1, 2, 12]);
makespan = 610;
----------
assign = array1d(1..17 ,[6, 4, 6, 4, 1, 3, 3, 1, 3, 1, 4, 1, 2, 3, 4, 5, 6]);
next = array1d(1..17 ,[3, 11, 17, 15, 10, 7, 9, 12, 14, 8, 4, 13, 6, 2, 16, 1, 5]);
makespan = 601;
----------
assign = array1d(1..17 ,[6, 4, 6, 4, 1, 3, 3, 1, 3, 1, 4, 1, 2, 3, 4, 5, 6]);
next = array1d(1..17 ,[3, 11, 17, 15, 10, 7, 9, 12, 14, 8, 4, 13, 6, 2, 16, 1, 5]);
makespan = 598;
----------
assign = array1d(1..17 ,[6, 4, 6, 4, 1, 3, 3, 1, 3, 1, 4, 1, 2, 3, 4, 5, 6]);
next = array1d(1..17 ,[3, 11, 17, 15, 10, 7, 9, 12, 14, 8, 4, 13, 6, 2, 16, 1, 5]);
makespan = 595;
----------
assign = array1d(1..17 ,[6, 4, 6, 4, 1, 3, 3, 1, 3, 1, 4, 1, 2, 3, 4, 5, 6]);
next = array1d(1..17 ,[3, 11, 17, 15, 10, 7, 9, 12, 14, 8, 4, 13, 6, 2, 16, 1, 5]);
makespan = 585;
----------
assign = array1d(1..17 ,[6, 4, 6, 4, 1, 3, 3, 1, 3, 1, 4, 1, 2, 3, 4, 5, 6]);
next = array1d(1..17 ,[3, 11, 17, 15, 10, 7, 9, 12, 14, 8, 4, 13, 6, 2, 16, 1, 5]);
makespan = 584;
----------
assign = array1d(1..17 ,[6, 4, 6, 4, 3, 1, 1, 3, 1, 3, 4, 1, 2, 3, 4, 5, 6]);
next = array1d(1..17 ,[3, 11, 17, 15, 10, 7, 9, 14, 12, 8, 4, 13, 5, 2, 16, 1, 6]);
makespan = 582;
----------
assign = array1d(1..17 ,[5, 4, 5, 4, 3, 6, 6, 3, 6, 3, 4, 1, 2, 3, 4, 5, 6]);
next = array1d(1..17 ,[3, 11, 16, 15, 10, 9, 6, 14, 17, 8, 4, 13, 5, 2, 1, 7, 12]);
makespan = 580;
----------
assign = array1d(1..17 ,[6, 4, 6, 4, 3, 1, 1, 3, 1, 3, 4, 1, 2, 3, 4, 5, 6]);
next = array1d(1..17 ,[3, 11, 17, 15, 10, 7, 9, 14, 12, 8, 4, 13, 5, 2, 16, 1, 6]);
makespan = 578;
----------
assign = array1d(1..17 ,[6, 4, 6, 4, 3, 1, 1, 3, 1, 3, 4, 1, 2, 3, 4, 5, 6]);
next = array1d(1..17 ,[3, 11, 17, 15, 10, 7, 9, 14, 12, 8, 4, 13, 5, 2, 16, 1, 6]);
makespan = 576;
----------
assign = array1d(1..17 ,[6, 4, 6, 4, 1, 2, 2, 1, 2, 1, 4, 1, 2, 3, 4, 5, 6]);
next = array1d(1..17 ,[3, 11, 17, 15, 10, 7, 9, 12, 13, 8, 4, 6, 14, 2, 16, 1, 5]);
makespan = 572;
----------
assign = array1d(1..17 ,[6, 4, 6, 4, 1, 2, 2, 1, 2, 1, 4, 1, 2, 3, 4, 5, 6]);
next = array1d(1..17 ,[3, 11, 17, 15, 10, 7, 9, 12, 13, 8, 4, 6, 14, 2, 16, 1, 5]);
makespan = 567;
----------
assign = array1d(1..17 ,[6, 4, 6, 4, 1, 2, 2, 1, 2, 1, 4, 1, 2, 3, 4, 5, 6]);
next = array1d(1..17 ,[3, 11, 17, 15, 10, 7, 9, 12, 13, 8, 4, 6, 14, 2, 16, 1, 5]);
makespan = 562;
----------
assign = array1d(1..17 ,[6, 4, 6, 4, 1, 2, 2, 1, 2, 1, 4, 1, 2, 3, 4, 5, 6]);
next = array1d(1..17 ,[3, 11, 17, 15, 10, 7, 9, 12, 13, 8, 4, 6, 14, 2, 16, 1, 5]);
makespan = 561;
----------
assign = array1d(1..17 ,[6, 4, 6, 4, 1, 5, 5, 1, 3, 1, 4, 1, 2, 3, 4, 5, 6]);
next = array1d(1..17 ,[3, 11, 17, 15, 10, 7, 16, 12, 14, 8, 4, 13, 9, 2, 6, 1, 5]);
makespan = 559;
----------
assign = array1d(1..17 ,[3, 2, 3, 4, 4, 5, 6, 3, 6, 4, 2, 1, 2, 3, 4, 5, 6]);
next = array1d(1..17 ,[3, 11, 14, 5, 10, 16, 9, 1, 17, 15, 13, 2, 8, 4, 6, 7, 12]);
makespan = 557;
----------
assign = array1d(1..17 ,[3, 4, 3, 4, 6, 5, 5, 3, 2, 6, 4, 1, 2, 3, 4, 5, 6]);
next = array1d(1..17 ,[3, 15, 14, 2, 10, 7, 16, 1, 13, 17, 4, 9, 8, 11, 6, 5, 12]);
makespan = 555;
----------
assign = array1d(1..17 ,[1, 3, 4, 3, 4, 5, 6, 6, 6, 5, 2, 1, 2, 3, 4, 5, 6]);
next = array1d(1..17 ,[12, 14, 5, 2, 15, 16, 8, 17, 7, 6, 13, 11, 4, 3, 10, 9, 1]);
makespan = 554;
----------
assign = array1d(1..17 ,[5, 6, 4, 5, 4, 5, 3, 2, 3, 6, 1, 1, 2, 3, 4, 5, 6]);
next = array1d(1..17 ,[6, 10, 5, 16, 15, 4, 14, 13, 7, 17, 12, 8, 9, 3, 1, 2, 11]);
makespan = 553;
----------
assign = array1d(1..17 ,[4, 2, 5, 3, 6, 3, 6, 4, 2, 5, 3, 1, 2, 3, 4, 5, 6]);
next = array1d(1..17 ,[8, 13, 16, 14, 7, 11, 17, 15, 2, 3, 4, 9, 6, 1, 10, 5, 12]);
makespan = 552;
----------
assign = array1d(1..17 ,[6, 1, 3, 5, 3, 4, 4, 6, 1, 4, 5, 1, 2, 3, 4, 5, 6]);
next = array1d(1..17 ,[8, 12, 5, 16, 14, 10, 6, 17, 2, 15, 4, 13, 3, 7, 11, 1, 9]);
makespan = 551;
----------
assign = array1d(1..17 ,[4, 4, 6, 2, 6, 3, 2, 3, 2, 5, 4, 1, 2, 3, 4, 5, 6]);
next = array1d(1..17 ,[11, 15, 5, 9, 17, 14, 13, 6, 7, 16, 2, 4, 8, 1, 10, 3, 12]);
makespan = 550;
----------
assign = array1d(1..17 ,[4, 5, 6, 3, 6, 1, 2, 4, 3, 5, 1, 1, 2, 3, 4, 5, 6]);
next = array1d(1..17 ,[15, 10, 5, 9, 17, 11, 13, 1, 14, 16, 12, 7, 4, 8, 2, 3, 6]);
makespan = 549;
----------
assign = array1d(1..17 ,[3, 5, 6, 5, 4, 4, 5, 3, 3, 6, 4, 1, 2, 3, 4, 5, 6]);
next = array1d(1..17 ,[14, 16, 17, 7, 6, 15, 2, 1, 8, 3, 5, 13, 9, 11, 4, 10, 12]);
makespan = 548;
----------
assign = array1d(1..17 ,[4, 5, 4, 3, 6, 2, 6, 3, 6, 5, 2, 1, 2, 3, 4, 5, 6]);
next = array1d(1..17 ,[15, 10, 1, 14, 17, 11, 5, 4, 7, 16, 13, 6, 8, 3, 2, 9, 12]);
makespan = 547;
----------
assign = array1d(1..17 ,[2, 5, 3, 4, 4, 6, 2, 3, 4, 5, 6, 1, 2, 3, 4, 5, 6]);
next = array1d(1..17 ,[7, 16, 14, 9, 15, 11, 13, 3, 5, 2, 17, 1, 8, 4, 10, 6, 12]);
makespan = 546;
----------
assign = array1d(1..17 ,[2, 4, 6, 4, 2, 1, 6, 5, 2, 5, 4, 1, 2, 3, 4, 5, 6]);
next = array1d(1..17 ,[13, 11, 7, 2, 1, 12, 17, 10, 5, 16, 15, 9, 14, 4, 8, 3, 6]);
makespan = 545;
----------
assign = array1d(1..17 ,[5, 2, 3, 2, 4, 4, 5, 6, 4, 2, 6, 1, 2, 3, 4, 5, 6]);
next = array1d(1..17 ,[7, 13, 14, 2, 6, 15, 16, 17, 5, 4, 8, 10, 3, 9, 1, 11, 12]);
makespan = 544;
----------
assign = array1d(1..17 ,[5, 3, 3, 4, 5, 6, 4, 6, 4, 3, 2, 1, 2, 3, 4, 5, 6]);
next = array1d(1..17 ,[5, 14, 2, 7, 16, 17, 9, 6, 15, 3, 13, 11, 10, 4, 1, 8, 12]);
makespan = 543;
----------
assign = array1d(1..17 ,[5, 5, 5, 1, 3, 1, 4, 3, 6, 1, 6, 1, 2, 3, 4, 5, 6]);
next = array1d(1..17 ,[3, 16, 2, 10, 14, 4, 15, 5, 11, 12, 17, 13, 8, 7, 1, 9, 6]);
makespan = 542;
----------
assign = array1d(1..17 ,[5, 6, 3, 1, 4, 1, 4, 5, 4, 1, 6, 1, 2, 3, 4, 5, 6]);
next = array1d(1..17 ,[16, 11, 14, 10, 15, 4, 9, 1, 5, 12, 17, 13, 3, 7, 8, 2, 6]);
makespan = 541;
----------
assign = array1d(1..17 ,[5, 5, 4, 3, 6, 3, 5, 4, 6, 3, 1, 1, 2, 3, 4, 5, 6]);
next = array1d(1..17 ,[7, 16, 8, 10, 17, 14, 2, 15, 5, 6, 12, 13, 4, 3, 1, 9, 11]);
makespan = 540;
----------
assign = array1d(1..17 ,[2, 6, 4, 5, 1, 1, 2, 4, 3, 5, 6, 1, 2, 3, 4, 5, 6]);
next = array1d(1..17 ,[7, 11, 8, 10, 6, 12, 13, 15, 14, 16, 17, 1, 9, 3, 4, 2, 5]);
makespan = 539;
----------
assign = array1d(1..17 ,[1, 6, 5, 4, 3, 5, 1, 2, 2, 4, 6, 1, 2, 3, 4, 5, 6]);
next = array1d(1..17 ,[7, 11, 6, 10, 14, 16, 12, 9, 13, 15, 17, 8, 5, 4, 3, 2, 1]);
makespan = 538;
----------
assign = array1d(1..17 ,[4, 6, 3, 2, 1, 5, 4, 2, 6, 5, 3, 1, 2, 3, 4, 5, 6]);
next = array1d(1..17 ,[15, 9, 11, 13, 12, 10, 1, 4, 17, 16, 14, 8, 3, 7, 6, 2, 5]);
makespan = 537;
----------
assign = array1d(1..17 ,[4, 4, 6, 3, 5, 2, 3, 5, 2, 1, 6, 1, 2, 3, 4, 5, 6]);
next = array1d(1..17 ,[15, 1, 11, 7, 16, 9, 14, 5, 13, 12, 17, 6, 4, 2, 8, 3, 10]);
makespan = 536;
----------
assign = array1d(1..17 ,[5, 6, 4, 3, 3, 4, 5, 1, 1, 1, 6, 1, 2, 3, 4, 5, 6]);
next = array1d(1..17 ,[7, 11, 15, 5, 14, 3, 16, 12, 10, 8, 17, 13, 4, 6, 1, 2, 9]);
makespan = 535;
----------
assign = array1d(1..17 ,[3, 2, 4, 6, 6, 1, 3, 5, 4, 5, 2, 1, 2, 3, 4, 5, 6]);
next = array1d(1..17 ,[7, 11, 9, 5, 17, 12, 14, 16, 15, 8, 13, 2, 1, 3, 10, 4, 6]);
makespan = 534;
----------
assign = array1d(1..17 ,[6, 6, 4, 2, 3, 5, 4, 2, 3, 1, 5, 1, 2, 3, 4, 5, 6]);
next = array1d(1..17 ,[17, 1, 15, 13, 14, 16, 3, 4, 5, 12, 6, 8, 9, 7, 11, 2, 10]);
makespan = 533;
----------
assign = array1d(1..17 ,[5, 4, 1, 6, 4, 2, 1, 6, 3, 5, 3, 1, 2, 3, 4, 5, 6]);
next = array1d(1..17 ,[16, 15, 12, 17, 2, 13, 3, 4, 11, 1, 14, 6, 9, 5, 10, 8, 7]);
makespan = 532;
----------
assign = array1d(1..17 ,[2, 2, 4, 3, 3, 5, 4, 1, 6, 5, 6, 1, 2, 3, 4, 5, 6]);
next = array1d(1..17 ,[13, 1, 15, 5, 14, 10, 3, 12, 11, 16, 17, 2, 4, 7, 6, 9, 8]);
makespan = 531;
----------
assign = array1d(1..17 ,[3, 6, 4, 5, 5, 2, 4, 3, 3, 2, 6, 1, 2, 3, 4, 5, 6]);
next = array1d(1..17 ,[9, 11, 7, 5, 16, 10, 15, 1, 14, 13, 17, 6, 8, 3, 4, 2, 12]);
makespan = 530;
----------
assign = array1d(1..17 ,[1, 6, 2, 2, 6, 5, 2, 4, 5, 4, 1, 1, 2, 3, 4, 5, 6]);
next = array1d(1..17 ,[11, 17, 7, 13, 2, 16, 4, 10, 6, 15, 12, 3, 14, 8, 9, 5, 1]);
makespan = 529;
----------
assign = array1d(1..17 ,[5, 4, 2, 2, 4, 1, 2, 6, 1, 6, 5, 1, 2, 3, 4, 5, 6]);
next = array1d(1..17 ,[11, 15, 7, 13, 2, 9, 4, 10, 12, 17, 16, 3, 14, 5, 1, 8, 6]);
makespan = 528;
----------
assign = array1d(1..17 ,[5, 4, 3, 2, 4, 1, 3, 6, 2, 6, 5, 1, 2, 3, 4, 5, 6]);
next = array1d(1..17 ,[11, 15, 7, 13, 2, 12, 14, 10, 4, 17, 16, 9, 3, 5, 1, 8, 6]);
makespan = 527;
----------
assign = array1d(1..17 ,[3, 6, 2, 4, 6, 5, 2, 1, 4, 1, 3, 1, 2, 3, 4, 5, 6]);
next = array1d(1..17 ,[11, 17, 7, 15, 2, 16, 13, 10, 4, 12, 14, 3, 1, 9, 6, 5, 8]);
makespan = 526;
----------
assign = array1d(1..17 ,[6, 1, 4, 5, 1, 2, 4, 3, 5, 3, 6, 1, 2, 3, 4, 5, 6]);
next = array1d(1..17 ,[11, 12, 7, 16, 2, 13, 15, 10, 4, 14, 17, 6, 8, 3, 9, 1, 5]);
makespan = 525;
----------
assign = array1d(1..17 ,[3, 4, 5, 6, 4, 1, 5, 1, 6, 2, 3, 1, 2, 3, 4, 5, 6]);
next = array1d(1..17 ,[11, 15, 7, 17, 2, 12, 16, 6, 4, 13, 14, 10, 1, 5, 3, 9, 8]);
makespan = 524;
----------
assign = array1d(1..17 ,[4, 4, 1, 2, 6, 3, 3, 5, 2, 5, 6, 1, 2, 3, 4, 5, 6]);
next = array1d(1..17 ,[15, 1, 12, 13, 17, 14, 6, 16, 4, 8, 5, 9, 7, 2, 10, 11, 3]);
makespan = 523;
----------
assign = array1d(1..17 ,[5, 2, 3, 4, 6, 2, 5, 1, 4, 1, 6, 1, 2, 3, 4, 5, 6]);
next = array1d(1..17 ,[16, 6, 14, 15, 17, 13, 1, 12, 4, 8, 5, 2, 3, 9, 7, 11, 10]);
makespan = 522;
----------
assign = array1d(1..17 ,[3, 6, 5, 1, 2, 6, 4, 4, 1, 5, 3, 1, 2, 3, 4, 5, 6]);
next = array1d(1..17 ,[14, 6, 16, 12, 13, 17, 8, 15, 4, 3, 1, 5, 11, 7, 10, 2, 9]);
makespan = 521;
----------
assign = array1d(1..17 ,[3, 1, 1, 4, 3, 2, 6, 5, 4, 5, 6, 1, 2, 3, 4, 5, 6]);
next = array1d(1..17 ,[14, 12, 2, 15, 1, 13, 17, 10, 4, 16, 7, 6, 5, 9, 8, 11, 3]);
makespan = 520;
----------
assign = array1d(1..17 ,[4, 3, 1, 5, 2, 4, 3, 6, 6, 5, 2, 1, 2, 3, 4, 5, 6]);
next = array1d(1..17 ,[15, 7, 12, 16, 11, 1, 14, 9, 17, 4, 13, 5, 2, 6, 10, 8, 3]);
makespan = 519;
----------
assign = array1d(1..17 ,[4, 6, 3, 6, 3, 2, 2, 5, 4, 1, 5, 1, 2, 3, 4, 5, 6]);
next = array1d(1..17 ,[9, 17, 5, 2, 14, 13, 6, 16, 15, 12, 8, 7, 3, 1, 11, 4, 10]);
makespan = 518;
----------
assign = array1d(1..17 ,[2, 3, 1, 6, 5, 1, 3, 4, 5, 6, 4, 1, 2, 3, 4, 5, 6]);
next = array1d(1..17 ,[13, 7, 12, 10, 9, 3, 14, 15, 16, 17, 8, 1, 2, 11, 5, 4, 6]);
makespan = 517;
----------
assign = array1d(1..17 ,[2, 5, 6, 4, 1, 3, 5, 4, 1, 6, 2, 1, 2, 3, 4, 5, 6]);
next = array1d(1..17 ,[11, 7, 17, 8, 9, 14, 16, 15, 12, 3, 13, 1, 6, 4, 2, 10, 5]);
makespan = 516;
----------
assign = array1d(1..17 ,[4, 2, 6, 3, 5, 6, 2, 3, 5, 1, 4, 1, 2, 3, 4, 5, 6]);
next = array1d(1..17 ,[11, 7, 6, 8, 9, 17, 13, 14, 16, 12, 15, 2, 4, 1, 5, 3, 10]);
makespan = 515;
----------
assign = array1d(1..17 ,[5, 1, 2, 3, 6, 5, 4, 3, 6, 2, 4, 1, 2, 3, 4, 5, 6]);
next = array1d(1..17 ,[16, 12, 10, 8, 9, 1, 15, 14, 17, 13, 7, 3, 4, 11, 6, 5, 2]);
makespan = 514;
----------
assign = array1d(1..17 ,[2, 6, 3, 4, 4, 4, 5, 6, 2, 3, 5, 1, 2, 3, 4, 5, 6]);
next = array1d(1..17 ,[13, 17, 10, 5, 6, 15, 16, 2, 1, 14, 7, 9, 3, 4, 11, 8, 12]);
makespan = 513;
----------
assign = array1d(1..17 ,[5, 3, 4, 2, 1, 2, 5, 6, 6, 4, 1, 1, 2, 3, 4, 5, 6]);
next = array1d(1..17 ,[7, 14, 10, 13, 11, 4, 16, 17, 8, 15, 12, 6, 2, 3, 1, 9, 5]);
makespan = 512;
----------
assign = array1d(1..17 ,[4, 6, 2, 6, 5, 4, 1, 1, 3, 2, 5, 1, 2, 3, 4, 5, 6]);
next = array1d(1..17 ,[15, 17, 10, 2, 11, 1, 8, 12, 14, 13, 16, 3, 9, 6, 5, 4, 7]);
makespan = 511;
----------
assign = array1d(1..17 ,[4, 6, 2, 6, 5, 4, 1, 1, 3, 2, 5, 1, 2, 3, 4, 5, 6]);
next = array1d(1..17 ,[15, 17, 10, 2, 11, 1, 8, 12, 14, 13, 16, 3, 9, 6, 5, 4, 7]);
makespan = 510;
----------
assign = array1d(1..17 ,[4, 2, 5, 2, 6, 4, 1, 1, 3, 5, 6, 1, 2, 3, 4, 5, 6]);
next = array1d(1..17 ,[15, 13, 10, 2, 11, 1, 8, 12, 14, 16, 17, 4, 9, 6, 3, 5, 7]);
makespan = 509;
----------
assign = array1d(1..17 ,[4, 6, 5, 6, 3, 4, 1, 1, 2, 5, 3, 1, 2, 3, 4, 5, 6]);
next = array1d(1..17 ,[15, 17, 10, 2, 11, 1, 8, 12, 13, 16, 14, 9, 5, 6, 3, 4, 7]);
makespan = 508;
----------
assign = array1d(1..17 ,[4, 6, 5, 6, 3, 4, 1, 1, 2, 5, 3, 1, 2, 3, 4, 5, 6]);
next = array1d(1..17 ,[15, 17, 10, 2, 11, 1, 8, 12, 13, 16, 14, 9, 5, 6, 3, 4, 7]);
makespan = 507;
----------
assign = array1d(1..17 ,[4, 6, 5, 6, 3, 4, 1, 1, 2, 5, 3, 1, 2, 3, 4, 5, 6]);
next = array1d(1..17 ,[15, 17, 10, 2, 11, 1, 8, 12, 13, 16, 14, 9, 5, 6, 3, 4, 7]);
makespan = 506;
----------
assign = array1d(1..17 ,[4, 6, 5, 6, 3, 4, 1, 1, 2, 5, 3, 1, 2, 3, 4, 5, 6]);
next = array1d(1..17 ,[15, 17, 10, 2, 11, 1, 8, 12, 13, 16, 14, 9, 5, 6, 3, 4, 7]);
makespan = 505;
----------
assign = array1d(1..17 ,[4, 6, 5, 6, 3, 4, 1, 1, 2, 5, 3, 1, 2, 3, 4, 5, 6]);
next = array1d(1..17 ,[15, 17, 10, 2, 11, 1, 8, 12, 13, 16, 14, 9, 5, 6, 3, 4, 7]);
makespan = 504;
----------
assign = array1d(1..17 ,[4, 6, 5, 6, 3, 4, 1, 1, 2, 5, 3, 1, 2, 3, 4, 5, 6]);
next = array1d(1..17 ,[15, 17, 10, 2, 11, 1, 8, 12, 13, 16, 14, 9, 5, 6, 3, 4, 7]);
makespan = 503;
----------
assign = array1d(1..17 ,[4, 6, 5, 6, 3, 4, 1, 1, 2, 5, 3, 1, 2, 3, 4, 5, 6]);
next = array1d(1..17 ,[15, 17, 10, 2, 11, 1, 8, 12, 13, 16, 14, 9, 5, 6, 3, 4, 7]);
makespan = 502;
----------
assign = array1d(1..17 ,[4, 6, 5, 6, 3, 4, 1, 1, 2, 5, 3, 1, 2, 3, 4, 5, 6]);
next = array1d(1..17 ,[15, 17, 10, 2, 11, 1, 8, 12, 13, 16, 14, 9, 5, 6, 3, 4, 7]);
makespan = 501;
----------
assign = array1d(1..17 ,[4, 6, 5, 6, 3, 4, 1, 1, 2, 5, 3, 1, 2, 3, 4, 5, 6]);
next = array1d(1..17 ,[15, 17, 10, 2, 11, 1, 8, 12, 13, 16, 14, 9, 5, 6, 3, 4, 7]);
makespan = 500;
----------
assign = array1d(1..17 ,[4, 6, 5, 6, 3, 4, 1, 1, 2, 5, 3, 1, 2, 3, 4, 5, 6]);
next = array1d(1..17 ,[15, 17, 10, 2, 11, 1, 8, 12, 13, 16, 14, 9, 5, 6, 3, 4, 7]);
makespan = 499;
----------
assign = array1d(1..17 ,[4, 6, 5, 6, 3, 4, 1, 1, 2, 5, 3, 1, 2, 3, 4, 5, 6]);
next = array1d(1..17 ,[15, 17, 10, 2, 11, 1, 8, 12, 13, 16, 14, 9, 5, 6, 3, 4, 7]);
makespan = 498;
----------
assign = array1d(1..17 ,[4, 6, 5, 6, 3, 4, 1, 1, 2, 5, 3, 1, 2, 3, 4, 5, 6]);
next = array1d(1..17 ,[15, 17, 10, 2, 11, 1, 8, 12, 13, 16, 14, 9, 5, 6, 3, 4, 7]);
makespan = 497;
----------
assign = array1d(1..17 ,[4, 6, 5, 6, 3, 4, 1, 1, 2, 5, 3, 1, 2, 3, 4, 5, 6]);
next = array1d(1..17 ,[15, 17, 10, 2, 11, 1, 8, 12, 13, 16, 14, 9, 5, 6, 3, 4, 7]);
makespan = 496;
----------
assign = array1d(1..17 ,[4, 6, 5, 6, 3, 4, 1, 1, 2, 5, 3, 1, 2, 3, 4, 5, 6]);
next = array1d(1..17 ,[15, 17, 10, 2, 11, 1, 8, 12, 13, 16, 14, 9, 5, 6, 3, 4, 7]);
makespan = 495;
----------
assign = array1d(1..17 ,[4, 6, 5, 6, 3, 4, 1, 1, 2, 5, 3, 1, 2, 3, 4, 5, 6]);
next = array1d(1..17 ,[15, 17, 10, 2, 11, 1, 8, 12, 13, 16, 14, 9, 5, 6, 3, 4, 7]);
makespan = 494;
----------
assign = array1d(1..17 ,[4, 6, 5, 6, 3, 4, 1, 1, 2, 5, 3, 1, 2, 3, 4, 5, 6]);
next = array1d(1..17 ,[15, 17, 10, 2, 11, 1, 8, 12, 13, 16, 14, 9, 5, 6, 3, 4, 7]);
makespan = 493;
----------
assign = array1d(1..17 ,[4, 6, 5, 6, 3, 4, 1, 1, 2, 5, 3, 1, 2, 3, 4, 5, 6]);
next = array1d(1..17 ,[15, 17, 10, 2, 11, 1, 8, 12, 13, 16, 14, 9, 5, 6, 3, 4, 7]);
makespan = 492;
----------
assign = array1d(1..17 ,[4, 6, 5, 6, 3, 4, 1, 1, 2, 5, 3, 1, 2, 3, 4, 5, 6]);
next = array1d(1..17 ,[15, 17, 10, 2, 11, 1, 8, 12, 13, 16, 14, 9, 5, 6, 3, 4, 7]);
makespan = 491;
----------
assign = array1d(1..17 ,[4, 6, 5, 6, 3, 4, 1, 1, 2, 5, 3, 1, 2, 3, 4, 5, 6]);
next = array1d(1..17 ,[15, 17, 10, 2, 11, 1, 8, 12, 13, 16, 14, 9, 5, 6, 3, 4, 7]);
makespan = 490;
----------
assign = array1d(1..17 ,[4, 6, 5, 6, 3, 4, 1, 1, 2, 5, 3, 1, 2, 3, 4, 5, 6]);
next = array1d(1..17 ,[15, 17, 10, 2, 11, 1, 8, 12, 13, 16, 14, 9, 5, 6, 3, 4, 7]);
makespan = 489;
----------
assign = array1d(1..17 ,[4, 6, 5, 6, 3, 4, 1, 1, 2, 5, 3, 1, 2, 3, 4, 5, 6]);
next = array1d(1..17 ,[15, 17, 10, 2, 11, 1, 8, 12, 13, 16, 14, 9, 5, 6, 3, 4, 7]);
makespan = 488;
----------
assign = array1d(1..17 ,[4, 6, 5, 6, 3, 4, 1, 1, 2, 5, 3, 1, 2, 3, 4, 5, 6]);
next = array1d(1..17 ,[15, 17, 10, 2, 11, 1, 8, 12, 13, 16, 14, 9, 5, 6, 3, 4, 7]);
makespan = 487;
----------
assign = array1d(1..17 ,[4, 6, 5, 6, 3, 4, 1, 1, 2, 5, 3, 1, 2, 3, 4, 5, 6]);
next = array1d(1..17 ,[15, 17, 10, 2, 11, 1, 8, 12, 13, 16, 14, 9, 5, 6, 3, 4, 7]);
makespan = 486;
----------
assign = array1d(1..17 ,[4, 6, 5, 6, 3, 4, 1, 1, 2, 5, 3, 1, 2, 3, 4, 5, 6]);
next = array1d(1..17 ,[15, 17, 10, 2, 11, 1, 8, 12, 13, 16, 14, 9, 5, 6, 3, 4, 7]);
makespan = 485;
----------
assign = array1d(1..17 ,[4, 6, 5, 6, 3, 4, 1, 1, 2, 5, 3, 1, 2, 3, 4, 5, 6]);
next = array1d(1..17 ,[15, 17, 10, 2, 11, 1, 8, 12, 13, 16, 14, 9, 5, 6, 3, 4, 7]);
makespan = 484;
----------
assign = array1d(1..17 ,[4, 6, 5, 6, 3, 4, 1, 1, 2, 5, 3, 1, 2, 3, 4, 5, 6]);
next = array1d(1..17 ,[15, 17, 10, 2, 11, 1, 8, 12, 13, 16, 14, 9, 5, 6, 3, 4, 7]);
makespan = 483;
----------
assign = array1d(1..17 ,[4, 6, 5, 6, 3, 4, 1, 1, 2, 5, 3, 1, 2, 3, 4, 5, 6]);
next = array1d(1..17 ,[15, 17, 10, 2, 11, 1, 8, 12, 13, 16, 14, 9, 5, 6, 3, 4, 7]);
makespan = 482;
----------
assign = array1d(1..17 ,[4, 6, 5, 6, 3, 4, 1, 1, 2, 5, 3, 1, 2, 3, 4, 5, 6]);
next = array1d(1..17 ,[15, 17, 10, 2, 11, 1, 8, 12, 13, 16, 14, 9, 5, 6, 3, 4, 7]);
makespan = 481;
----------
assign = array1d(1..17 ,[4, 6, 5, 6, 3, 4, 1, 1, 2, 5, 3, 1, 2, 3, 4, 5, 6]);
next = array1d(1..17 ,[15, 17, 10, 2, 11, 1, 8, 12, 13, 16, 14, 9, 5, 6, 3, 4, 7]);
makespan = 480;
----------
assign = array1d(1..17 ,[4, 6, 5, 6, 3, 4, 1, 1, 2, 5, 3, 1, 2, 3, 4, 5, 6]);
next = array1d(1..17 ,[15, 17, 10, 2, 11, 1, 8, 12, 13, 16, 14, 9, 5, 6, 3, 4, 7]);
makespan = 479;
----------
assign = array1d(1..17 ,[4, 6, 5, 6, 3, 4, 1, 1, 2, 5, 3, 1, 2, 3, 4, 5, 6]);
next = array1d(1..17 ,[15, 17, 10, 2, 11, 1, 8, 12, 13, 16, 14, 9, 5, 6, 3, 4, 7]);
makespan = 478;
----------
assign = array1d(1..17 ,[4, 6, 5, 6, 3, 4, 1, 1, 2, 5, 3, 1, 2, 3, 4, 5, 6]);
next = array1d(1..17 ,[15, 17, 10, 2, 11, 1, 8, 12, 13, 16, 14, 9, 5, 6, 3, 4, 7]);
makespan = 477;
----------
assign = array1d(1..17 ,[4, 6, 5, 6, 3, 4, 1, 1, 2, 5, 3, 1, 2, 3, 4, 5, 6]);
next = array1d(1..17 ,[15, 17, 10, 2, 11, 1, 8, 12, 13, 16, 14, 9, 5, 6, 3, 4, 7]);
makespan = 476;
----------
assign = array1d(1..17 ,[4, 6, 5, 6, 3, 4, 1, 1, 2, 5, 3, 1, 2, 3, 4, 5, 6]);
next = array1d(1..17 ,[15, 17, 10, 2, 11, 1, 8, 12, 13, 16, 14, 9, 5, 6, 3, 4, 7]);
makespan = 475;
----------
assign = array1d(1..17 ,[4, 6, 5, 6, 3, 4, 1, 1, 2, 5, 3, 1, 2, 3, 4, 5, 6]);
next = array1d(1..17 ,[15, 17, 10, 2, 11, 1, 8, 12, 13, 16, 14, 9, 5, 6, 3, 4, 7]);
makespan = 474;
----------
assign = array1d(1..17 ,[4, 6, 5, 6, 3, 4, 1, 1, 2, 5, 3, 1, 2, 3, 4, 5, 6]);
next = array1d(1..17 ,[15, 17, 10, 2, 11, 1, 8, 12, 13, 16, 14, 9, 5, 6, 3, 4, 7]);
makespan = 473;
----------
assign = array1d(1..17 ,[4, 6, 5, 6, 3, 4, 1, 1, 2, 5, 3, 1, 2, 3, 4, 5, 6]);
next = array1d(1..17 ,[15, 17, 10, 2, 11, 1, 8, 12, 13, 16, 14, 9, 5, 6, 3, 4, 7]);
makespan = 472;
----------
assign = array1d(1..17 ,[4, 6, 5, 6, 3, 4, 1, 1, 2, 5, 3, 1, 2, 3, 4, 5, 6]);
next = array1d(1..17 ,[15, 17, 10, 2, 11, 1, 8, 12, 13, 16, 14, 9, 5, 6, 3, 4, 7]);
makespan = 471;
----------
assign = array1d(1..17 ,[4, 6, 5, 6, 3, 4, 1, 1, 2, 5, 3, 1, 2, 3, 4, 5, 6]);
next = array1d(1..17 ,[15, 17, 10, 2, 11, 1, 8, 12, 13, 16, 14, 9, 5, 6, 3, 4, 7]);
makespan = 470;
----------
assign = array1d(1..17 ,[4, 6, 5, 6, 3, 4, 1, 1, 2, 5, 3, 1, 2, 3, 4, 5, 6]);
next = array1d(1..17 ,[15, 17, 10, 2, 11, 1, 8, 12, 13, 16, 14, 9, 5, 6, 3, 4, 7]);
makespan = 469;
----------
assign = array1d(1..17 ,[4, 6, 5, 6, 3, 4, 1, 1, 2, 5, 3, 1, 2, 3, 4, 5, 6]);
next = array1d(1..17 ,[15, 17, 10, 2, 11, 1, 8, 12, 13, 16, 14, 9, 5, 6, 3, 4, 7]);
makespan = 468;
----------
assign = array1d(1..17 ,[4, 6, 5, 6, 3, 4, 1, 1, 2, 5, 3, 1, 2, 3, 4, 5, 6]);
next = array1d(1..17 ,[15, 17, 10, 2, 11, 1, 8, 12, 13, 16, 14, 9, 5, 6, 3, 4, 7]);
makespan = 467;
----------
assign = array1d(1..17 ,[4, 6, 5, 6, 3, 4, 1, 1, 2, 5, 3, 1, 2, 3, 4, 5, 6]);
next = array1d(1..17 ,[15, 17, 10, 2, 11, 1, 8, 12, 13, 16, 14, 9, 5, 6, 3, 4, 7]);
makespan = 466;
----------
assign = array1d(1..17 ,[4, 6, 5, 6, 3, 4, 1, 1, 2, 5, 3, 1, 2, 3, 4, 5, 6]);
next = array1d(1..17 ,[15, 17, 10, 2, 11, 1, 8, 12, 13, 16, 14, 9, 5, 6, 3, 4, 7]);
makespan = 465;
----------
assign = array1d(1..17 ,[4, 6, 5, 6, 3, 4, 1, 1, 2, 5, 3, 1, 2, 3, 4, 5, 6]);
next = array1d(1..17 ,[15, 17, 10, 2, 11, 1, 8, 12, 13, 16, 14, 9, 5, 6, 3, 4, 7]);
makespan = 464;
----------
assign = array1d(1..17 ,[4, 6, 5, 6, 3, 4, 1, 1, 2, 5, 3, 1, 2, 3, 4, 5, 6]);
next = array1d(1..17 ,[15, 17, 10, 2, 11, 1, 8, 12, 13, 16, 14, 9, 5, 6, 3, 4, 7]);
makespan = 463;
----------
assign = array1d(1..17 ,[4, 6, 5, 6, 3, 4, 1, 1, 2, 5, 3, 1, 2, 3, 4, 5, 6]);
next = array1d(1..17 ,[15, 17, 10, 2, 11, 1, 8, 12, 13, 16, 14, 9, 5, 6, 3, 4, 7]);
makespan = 462;
----------
assign = array1d(1..17 ,[4, 6, 5, 6, 3, 4, 1, 1, 2, 5, 3, 1, 2, 3, 4, 5, 6]);
next = array1d(1..17 ,[15, 17, 10, 2, 11, 1, 8, 12, 13, 16, 14, 9, 5, 6, 3, 4, 7]);
makespan = 461;
----------
assign = array1d(1..17 ,[4, 6, 5, 6, 3, 4, 1, 1, 2, 5, 3, 1, 2, 3, 4, 5, 6]);
next = array1d(1..17 ,[15, 17, 10, 2, 11, 1, 8, 12, 13, 16, 14, 9, 5, 6, 3, 4, 7]);
makespan = 460;
----------
assign = array1d(1..17 ,[4, 6, 5, 6, 3, 4, 1, 1, 2, 5, 3, 1, 2, 3, 4, 5, 6]);
next = array1d(1..17 ,[15, 17, 10, 2, 11, 1, 8, 12, 13, 16, 14, 9, 5, 6, 3, 4, 7]);
makespan = 459;
----------
assign = array1d(1..17 ,[4, 6, 5, 6, 3, 4, 1, 1, 2, 5, 3, 1, 2, 3, 4, 5, 6]);
next = array1d(1..17 ,[15, 17, 10, 2, 11, 1, 8, 12, 13, 16, 14, 9, 5, 6, 3, 4, 7]);
makespan = 458;
----------
assign = array1d(1..17 ,[4, 6, 5, 6, 3, 4, 1, 1, 2, 5, 3, 1, 2, 3, 4, 5, 6]);
next = array1d(1..17 ,[15, 17, 10, 2, 11, 1, 8, 12, 13, 16, 14, 9, 5, 6, 3, 4, 7]);
makespan = 457;
----------
assign = array1d(1..17 ,[4, 6, 5, 6, 3, 4, 1, 1, 2, 5, 3, 1, 2, 3, 4, 5, 6]);
next = array1d(1..17 ,[15, 17, 10, 2, 11, 1, 8, 12, 13, 16, 14, 9, 5, 6, 3, 4, 7]);
makespan = 456;
----------
assign = array1d(1..17 ,[4, 6, 5, 6, 3, 4, 1, 1, 2, 5, 3, 1, 2, 3, 4, 5, 6]);
next = array1d(1..17 ,[15, 17, 10, 2, 11, 1, 8, 12, 13, 16, 14, 9, 5, 6, 3, 4, 7]);
makespan = 455;
----------
assign = array1d(1..17 ,[4, 6, 5, 6, 3, 4, 1, 1, 2, 5, 3, 1, 2, 3, 4, 5, 6]);
next = array1d(1..17 ,[15, 17, 10, 2, 11, 1, 8, 12, 13, 16, 14, 9, 5, 6, 3, 4, 7]);
makespan = 454;
----------
assign = array1d(1..17 ,[4, 6, 5, 6, 3, 4, 1, 1, 2, 5, 3, 1, 2, 3, 4, 5, 6]);
next = array1d(1..17 ,[15, 17, 10, 2, 11, 1, 8, 12, 13, 16, 14, 9, 5, 6, 3, 4, 7]);
makespan = 453;
----------
assign = array1d(1..17 ,[4, 6, 5, 6, 3, 4, 1, 1, 2, 5, 3, 1, 2, 3, 4, 5, 6]);
next = array1d(1..17 ,[15, 17, 10, 2, 11, 1, 8, 12, 13, 16, 14, 9, 5, 6, 3, 4, 7]);
makespan = 452;
----------
assign = array1d(1..17 ,[4, 6, 5, 6, 3, 4, 1, 1, 2, 5, 3, 1, 2, 3, 4, 5, 6]);
next = array1d(1..17 ,[15, 17, 10, 2, 11, 1, 8, 12, 13, 16, 14, 9, 5, 6, 3, 4, 7]);
makespan = 451;
----------
assign = array1d(1..17 ,[4, 6, 5, 6, 3, 4, 1, 1, 2, 5, 3, 1, 2, 3, 4, 5, 6]);
next = array1d(1..17 ,[15, 17, 10, 2, 11, 1, 8, 12, 13, 16, 14, 9, 5, 6, 3, 4, 7]);
makespan = 450;
----------
assign = array1d(1..17 ,[4, 6, 5, 6, 3, 4, 1, 1, 2, 5, 3, 1, 2, 3, 4, 5, 6]);
next = array1d(1..17 ,[15, 17, 10, 2, 11, 1, 8, 12, 13, 16, 14, 9, 5, 6, 3, 4, 7]);
makespan = 449;
----------
assign = array1d(1..17 ,[4, 6, 5, 6, 3, 4, 1, 1, 2, 5, 3, 1, 2, 3, 4, 5, 6]);
next = array1d(1..17 ,[15, 17, 10, 2, 11, 1, 8, 12, 13, 16, 14, 9, 5, 6, 3, 4, 7]);
makespan = 448;
----------
assign = array1d(1..17 ,[4, 6, 5, 6, 3, 4, 1, 1, 2, 5, 3, 1, 2, 3, 4, 5, 6]);
next = array1d(1..17 ,[15, 17, 10, 2, 11, 1, 8, 12, 13, 16, 14, 9, 5, 6, 3, 4, 7]);
makespan = 447;
----------
assign = array1d(1..17 ,[4, 6, 5, 6, 3, 4, 1, 1, 2, 5, 3, 1, 2, 3, 4, 5, 6]);
next = array1d(1..17 ,[15, 17, 10, 2, 11, 1, 8, 12, 13, 16, 14, 9, 5, 6, 3, 4, 7]);
makespan = 446;
----------
assign = array1d(1..17 ,[4, 6, 5, 6, 3, 4, 1, 1, 2, 5, 3, 1, 2, 3, 4, 5, 6]);
next = array1d(1..17 ,[15, 17, 10, 2, 11, 1, 8, 12, 13, 16, 14, 9, 5, 6, 3, 4, 7]);
makespan = 445;
----------
assign = array1d(1..17 ,[4, 6, 5, 6, 3, 4, 1, 1, 2, 5, 3, 1, 2, 3, 4, 5, 6]);
next = array1d(1..17 ,[15, 17, 10, 2, 11, 1, 8, 12, 13, 16, 14, 9, 5, 6, 3, 4, 7]);
makespan = 444;
----------
assign = array1d(1..17 ,[4, 6, 5, 6, 3, 4, 1, 1, 2, 5, 3, 1, 2, 3, 4, 5, 6]);
next = array1d(1..17 ,[15, 17, 10, 2, 11, 1, 8, 12, 13, 16, 14, 9, 5, 6, 3, 4, 7]);
makespan = 443;
----------
assign = array1d(1..17 ,[4, 6, 5, 6, 3, 4, 1, 1, 2, 5, 3, 1, 2, 3, 4, 5, 6]);
next = array1d(1..17 ,[15, 17, 10, 2, 11, 1, 8, 12, 13, 16, 14, 9, 5, 6, 3, 4, 7]);
makespan = 442;
----------
assign = array1d(1..17 ,[4, 6, 5, 6, 3, 4, 1, 1, 2, 5, 3, 1, 2, 3, 4, 5, 6]);
next = array1d(1..17 ,[15, 17, 10, 2, 11, 1, 8, 12, 13, 16, 14, 9, 5, 6, 3, 4, 7]);
makespan = 441;
----------
assign = array1d(1..17 ,[4, 6, 5, 6, 3, 4, 1, 1, 2, 5, 3, 1, 2, 3, 4, 5, 6]);
next = array1d(1..17 ,[15, 17, 10, 2, 11, 1, 8, 12, 13, 16, 14, 9, 5, 6, 3, 4, 7]);
makespan = 440;
----------
assign = array1d(1..17 ,[4, 6, 5, 6, 3, 4, 1, 1, 2, 5, 3, 1, 2, 3, 4, 5, 6]);
next = array1d(1..17 ,[15, 17, 10, 2, 11, 1, 8, 12, 13, 16, 14, 9, 5, 6, 3, 4, 7]);
makespan = 439;
----------
assign = array1d(1..17 ,[4, 6, 5, 6, 3, 4, 1, 1, 2, 5, 3, 1, 2, 3, 4, 5, 6]);
next = array1d(1..17 ,[15, 17, 10, 2, 11, 1, 8, 12, 13, 16, 14, 9, 5, 6, 3, 4, 7]);
makespan = 438;
----------
assign = array1d(1..17 ,[4, 6, 5, 6, 3, 4, 1, 1, 2, 5, 3, 1, 2, 3, 4, 5, 6]);
next = array1d(1..17 ,[15, 17, 10, 2, 11, 1, 8, 12, 13, 16, 14, 9, 5, 6, 3, 4, 7]);
makespan = 437;
----------
assign = array1d(1..17 ,[4, 6, 5, 6, 3, 4, 1, 1, 2, 5, 3, 1, 2, 3, 4, 5, 6]);
next = array1d(1..17 ,[15, 17, 10, 2, 11, 1, 8, 12, 13, 16, 14, 9, 5, 6, 3, 4, 7]);
makespan = 436;
----------
assign = array1d(1..17 ,[4, 6, 5, 6, 3, 4, 1, 1, 2, 5, 3, 1, 2, 3, 4, 5, 6]);
next = array1d(1..17 ,[15, 17, 10, 2, 11, 1, 8, 12, 13, 16, 14, 9, 5, 6, 3, 4, 7]);
makespan = 435;
----------
assign = array1d(1..17 ,[4, 6, 5, 6, 3, 4, 1, 1, 2, 5, 3, 1, 2, 3, 4, 5, 6]);
next = array1d(1..17 ,[15, 17, 10, 2, 11, 1, 8, 12, 13, 16, 14, 9, 5, 6, 3, 4, 7]);
makespan = 434;
----------
assign = array1d(1..17 ,[4, 6, 5, 6, 3, 4, 1, 1, 2, 5, 3, 1, 2, 3, 4, 5, 6]);
next = array1d(1..17 ,[15, 17, 10, 2, 11, 1, 8, 12, 13, 16, 14, 9, 5, 6, 3, 4, 7]);
makespan = 433;
----------
assign = array1d(1..17 ,[4, 6, 5, 6, 3, 4, 1, 1, 2, 5, 3, 1, 2, 3, 4, 5, 6]);
next = array1d(1..17 ,[15, 17, 10, 2, 11, 1, 8, 12, 13, 16, 14, 9, 5, 6, 3, 4, 7]);
makespan = 432;
----------
assign = array1d(1..17 ,[4, 6, 5, 6, 3, 4, 1, 1, 2, 5, 3, 1, 2, 3, 4, 5, 6]);
next = array1d(1..17 ,[15, 17, 10, 2, 11, 1, 8, 12, 13, 16, 14, 9, 5, 6, 3, 4, 7]);
makespan = 431;
----------
assign = array1d(1..17 ,[4, 6, 5, 6, 3, 4, 1, 1, 2, 5, 3, 1, 2, 3, 4, 5, 6]);
next = array1d(1..17 ,[15, 17, 10, 2, 11, 1, 8, 12, 13, 16, 14, 9, 5, 6, 3, 4, 7]);
makespan = 430;
----------
assign = array1d(1..17 ,[4, 6, 5, 6, 3, 4, 1, 1, 2, 5, 3, 1, 2, 3, 4, 5, 6]);
next = array1d(1..17 ,[15, 17, 10, 2, 11, 1, 8, 12, 13, 16, 14, 9, 5, 6, 3, 4, 7]);
makespan = 429;
----------
assign = array1d(1..17 ,[4, 6, 5, 6, 3, 4, 1, 1, 2, 5, 3, 1, 2, 3, 4, 5, 6]);
next = array1d(1..17 ,[15, 17, 10, 2, 11, 1, 8, 12, 13, 16, 14, 9, 5, 6, 3, 4, 7]);
makespan = 428;
----------
assign = array1d(1..17 ,[4, 6, 5, 6, 3, 4, 1, 1, 2, 5, 3, 1, 2, 3, 4, 5, 6]);
next = array1d(1..17 ,[15, 17, 10, 2, 11, 1, 8, 12, 13, 16, 14, 9, 5, 6, 3, 4, 7]);
makespan = 427;
----------
assign = array1d(1..17 ,[4, 6, 5, 6, 3, 4, 1, 1, 2, 5, 3, 1, 2, 3, 4, 5, 6]);
next = array1d(1..17 ,[15, 17, 10, 2, 11, 1, 8, 12, 13, 16, 14, 9, 5, 6, 3, 4, 7]);
makespan = 426;
----------
assign = array1d(1..17 ,[4, 6, 5, 6, 3, 4, 1, 1, 2, 5, 3, 1, 2, 3, 4, 5, 6]);
next = array1d(1..17 ,[15, 17, 10, 2, 11, 1, 8, 12, 13, 16, 14, 9, 5, 6, 3, 4, 7]);
makespan = 425;
----------
assign = array1d(1..17 ,[4, 6, 5, 6, 3, 4, 1, 1, 2, 5, 3, 1, 2, 3, 4, 5, 6]);
next = array1d(1..17 ,[15, 17, 10, 2, 11, 1, 8, 12, 13, 16, 14, 9, 5, 6, 3, 4, 7]);
makespan = 424;
----------
assign = array1d(1..17 ,[4, 6, 5, 6, 3, 4, 1, 1, 2, 5, 3, 1, 2, 3, 4, 5, 6]);
next = array1d(1..17 ,[15, 17, 10, 2, 11, 1, 8, 12, 13, 16, 14, 9, 5, 6, 3, 4, 7]);
makespan = 423;
----------
assign = array1d(1..17 ,[4, 6, 5, 6, 3, 4, 1, 1, 2, 5, 3, 1, 2, 3, 4, 5, 6]);
next = array1d(1..17 ,[15, 17, 10, 2, 11, 1, 8, 12, 13, 16, 14, 9, 5, 6, 3, 4, 7]);
makespan = 422;
----------
assign = array1d(1..17 ,[4, 6, 5, 6, 3, 4, 1, 1, 2, 5, 3, 1, 2, 3, 4, 5, 6]);
next = array1d(1..17 ,[15, 17, 10, 2, 11, 1, 8, 12, 13, 16, 14, 9, 5, 6, 3, 4, 7]);
makespan = 421;
----------
assign = array1d(1..17 ,[4, 6, 5, 6, 3, 4, 1, 1, 2, 5, 3, 1, 2, 3, 4, 5, 6]);
next = array1d(1..17 ,[15, 17, 10, 2, 11, 1, 8, 12, 13, 16, 14, 9, 5, 6, 3, 4, 7]);
makespan = 420;
----------
assign = array1d(1..17 ,[4, 6, 5, 6, 3, 4, 1, 1, 2, 5, 3, 1, 2, 3, 4, 5, 6]);
next = array1d(1..17 ,[15, 17, 10, 2, 11, 1, 8, 12, 13, 16, 14, 9, 5, 6, 3, 4, 7]);
makespan = 419;
----------
assign = array1d(1..17 ,[4, 6, 5, 6, 3, 4, 1, 1, 2, 5, 3, 1, 2, 3, 4, 5, 6]);
next = array1d(1..17 ,[15, 17, 10, 2, 11, 1, 8, 12, 13, 16, 14, 9, 5, 6, 3, 4, 7]);
makespan = 418;
----------
assign = array1d(1..17 ,[4, 6, 5, 6, 3, 4, 1, 1, 2, 5, 3, 1, 2, 3, 4, 5, 6]);
next = array1d(1..17 ,[15, 17, 10, 2, 11, 1, 8, 12, 13, 16, 14, 9, 5, 6, 3, 4, 7]);
makespan = 417;
----------
assign = array1d(1..17 ,[4, 6, 5, 6, 3, 4, 1, 1, 2, 5, 3, 1, 2, 3, 4, 5, 6]);
next = array1d(1..17 ,[15, 17, 10, 2, 11, 1, 8, 12, 13, 16, 14, 9, 5, 6, 3, 4, 7]);
makespan = 416;
----------
assign = array1d(1..17 ,[4, 6, 5, 6, 3, 4, 1, 1, 2, 5, 3, 1, 2, 3, 4, 5, 6]);
next = array1d(1..17 ,[15, 17, 10, 2, 11, 1, 8, 12, 13, 16, 14, 9, 5, 6, 3, 4, 7]);
makespan = 415;
----------
assign = array1d(1..17 ,[4, 6, 5, 6, 3, 4, 1, 1, 2, 5, 3, 1, 2, 3, 4, 5, 6]);
next = array1d(1..17 ,[15, 17, 10, 2, 11, 1, 8, 12, 13, 16, 14, 9, 5, 6, 3, 4, 7]);
makespan = 414;
----------
assign = array1d(1..17 ,[4, 6, 5, 6, 3, 4, 1, 1, 2, 5, 3, 1, 2, 3, 4, 5, 6]);
next = array1d(1..17 ,[15, 17, 10, 2, 11, 1, 8, 12, 13, 16, 14, 9, 5, 6, 3, 4, 7]);
makespan = 413;
----------
assign = array1d(1..17 ,[4, 6, 5, 6, 3, 4, 1, 1, 2, 5, 3, 1, 2, 3, 4, 5, 6]);
next = array1d(1..17 ,[15, 17, 10, 2, 11, 1, 8, 12, 13, 16, 14, 9, 5, 6, 3, 4, 7]);
makespan = 412;
----------
assign = array1d(1..17 ,[4, 6, 5, 6, 3, 4, 1, 1, 2, 5, 3, 1, 2, 3, 4, 5, 6]);
next = array1d(1..17 ,[15, 17, 10, 2, 11, 1, 8, 12, 13, 16, 14, 9, 5, 6, 3, 4, 7]);
makespan = 411;
----------
assign = array1d(1..17 ,[4, 6, 5, 6, 3, 4, 1, 1, 2, 5, 3, 1, 2, 3, 4, 5, 6]);
next = array1d(1..17 ,[15, 17, 10, 2, 11, 1, 8, 12, 13, 16, 14, 9, 5, 6, 3, 4, 7]);
makespan = 410;
----------
assign = array1d(1..17 ,[4, 6, 5, 6, 3, 4, 1, 1, 2, 5, 3, 1, 2, 3, 4, 5, 6]);
next = array1d(1..17 ,[15, 17, 10, 2, 11, 1, 8, 12, 13, 16, 14, 9, 5, 6, 3, 4, 7]);
makespan = 409;
----------
assign = array1d(1..17 ,[4, 6, 5, 6, 3, 4, 1, 1, 2, 5, 3, 1, 2, 3, 4, 5, 6]);
next = array1d(1..17 ,[15, 17, 10, 2, 11, 1, 8, 12, 13, 16, 14, 9, 5, 6, 3, 4, 7]);
makespan = 408;
----------
assign = array1d(1..17 ,[4, 6, 5, 6, 3, 4, 1, 1, 2, 5, 3, 1, 2, 3, 4, 5, 6]);
next = array1d(1..17 ,[15, 17, 10, 2, 11, 1, 8, 12, 13, 16, 14, 9, 5, 6, 3, 4, 7]);
makespan = 407;
----------
assign = array1d(1..17 ,[4, 6, 5, 6, 3, 4, 1, 1, 2, 5, 3, 1, 2, 3, 4, 5, 6]);
next = array1d(1..17 ,[15, 17, 10, 2, 11, 1, 8, 12, 13, 16, 14, 9, 5, 6, 3, 4, 7]);
makespan = 406;
----------
assign = array1d(1..17 ,[4, 6, 5, 6, 3, 4, 1, 1, 2, 5, 3, 1, 2, 3, 4, 5, 6]);
next = array1d(1..17 ,[15, 17, 10, 2, 11, 1, 8, 12, 13, 16, 14, 9, 5, 6, 3, 4, 7]);
makespan = 405;
----------
assign = array1d(1..17 ,[4, 6, 5, 6, 3, 4, 1, 1, 2, 5, 3, 1, 2, 3, 4, 5, 6]);
next = array1d(1..17 ,[15, 17, 10, 2, 11, 1, 8, 12, 13, 16, 14, 9, 5, 6, 3, 4, 7]);
makespan = 404;
----------
assign = array1d(1..17 ,[4, 6, 5, 6, 3, 4, 1, 1, 2, 5, 3, 1, 2, 3, 4, 5, 6]);
next = array1d(1..17 ,[15, 17, 10, 2, 11, 1, 8, 12, 13, 16, 14, 9, 5, 6, 3, 4, 7]);
makespan = 403;
----------
assign = array1d(1..17 ,[4, 6, 5, 6, 3, 4, 1, 1, 2, 5, 3, 1, 2, 3, 4, 5, 6]);
next = array1d(1..17 ,[15, 17, 10, 2, 11, 1, 8, 12, 13, 16, 14, 9, 5, 6, 3, 4, 7]);
makespan = 402;
----------
assign = array1d(1..17 ,[4, 6, 5, 6, 3, 4, 1, 1, 2, 5, 3, 1, 2, 3, 4, 5, 6]);
next = array1d(1..17 ,[15, 17, 10, 2, 11, 1, 8, 12, 13, 16, 14, 9, 5, 6, 3, 4, 7]);
makespan = 401;
----------
assign = array1d(1..17 ,[4, 6, 5, 6, 3, 4, 1, 1, 2, 5, 3, 1, 2, 3, 4, 5, 6]);
next = array1d(1..17 ,[15, 17, 10, 2, 11, 1, 8, 12, 13, 16, 14, 9, 5, 6, 3, 4, 7]);
makespan = 400;
----------
assign = array1d(1..17 ,[4, 6, 5, 6, 3, 4, 1, 1, 2, 5, 3, 1, 2, 3, 4, 5, 6]);
next = array1d(1..17 ,[15, 17, 10, 2, 11, 1, 8, 12, 13, 16, 14, 9, 5, 6, 3, 4, 7]);
makespan = 399;
----------
assign = array1d(1..17 ,[4, 6, 5, 6, 3, 4, 1, 1, 2, 5, 3, 1, 2, 3, 4, 5, 6]);
next = array1d(1..17 ,[15, 17, 10, 2, 11, 1, 8, 12, 13, 16, 14, 9, 5, 6, 3, 4, 7]);
makespan = 398;
----------
assign = array1d(1..17 ,[4, 2, 5, 2, 6, 4, 1, 1, 3, 5, 6, 1, 2, 3, 4, 5, 6]);
next = array1d(1..17 ,[15, 13, 10, 2, 11, 1, 8, 12, 14, 16, 17, 4, 9, 6, 3, 5, 7]);
makespan = 397;
----------
assign = array1d(1..17 ,[4, 2, 5, 2, 6, 4, 1, 1, 3, 5, 6, 1, 2, 3, 4, 5, 6]);
next = array1d(1..17 ,[15, 13, 10, 2, 11, 1, 8, 12, 14, 16, 17, 4, 9, 6, 3, 5, 7]);
makespan = 395;
----------
assign = array1d(1..17 ,[4, 2, 5, 2, 6, 4, 1, 1, 3, 5, 6, 1, 2, 3, 4, 5, 6]);
next = array1d(1..17 ,[15, 13, 10, 2, 11, 1, 8, 12, 14, 16, 17, 4, 9, 6, 3, 5, 7]);
makespan = 394;
----------
assign = array1d(1..17 ,[4, 2, 5, 2, 6, 4, 1, 1, 3, 5, 6, 1, 2, 3, 4, 5, 6]);
next = array1d(1..17 ,[15, 13, 10, 2, 11, 1, 8, 12, 14, 16, 17, 4, 9, 6, 3, 5, 7]);
makespan = 392;
----------
assign = array1d(1..17 ,[4, 2, 5, 2, 6, 4, 1, 1, 3, 5, 6, 1, 2, 3, 4, 5, 6]);
next = array1d(1..17 ,[15, 13, 10, 2, 11, 1, 8, 12, 14, 16, 17, 4, 9, 6, 3, 5, 7]);
makespan = 391;
----------
assign = array1d(1..17 ,[4, 2, 5, 2, 6, 4, 1, 1, 3, 5, 6, 1, 2, 3, 4, 5, 6]);
next = array1d(1..17 ,[15, 13, 10, 2, 11, 1, 8, 12, 14, 16, 17, 4, 9, 6, 3, 5, 7]);
makespan = 390;
----------
assign = array1d(1..17 ,[4, 2, 5, 2, 6, 4, 1, 1, 3, 5, 6, 1, 2, 3, 4, 5, 6]);
next = array1d(1..17 ,[15, 13, 10, 2, 11, 1, 8, 12, 14, 16, 17, 4, 9, 6, 3, 5, 7]);
makespan = 389;
----------
assign = array1d(1..17 ,[4, 2, 5, 2, 6, 4, 1, 1, 3, 5, 6, 1, 2, 3, 4, 5, 6]);
next = array1d(1..17 ,[15, 13, 10, 2, 11, 1, 8, 12, 14, 16, 17, 4, 9, 6, 3, 5, 7]);
makespan = 388;
----------
assign = array1d(1..17 ,[4, 2, 5, 2, 6, 4, 1, 1, 3, 5, 6, 1, 2, 3, 4, 5, 6]);
next = array1d(1..17 ,[15, 13, 10, 2, 11, 1, 8, 12, 14, 16, 17, 4, 9, 6, 3, 5, 7]);
makespan = 386;
----------
assign = array1d(1..17 ,[4, 2, 5, 2, 6, 4, 1, 1, 3, 5, 6, 1, 2, 3, 4, 5, 6]);
next = array1d(1..17 ,[15, 13, 10, 2, 11, 1, 8, 12, 14, 16, 17, 4, 9, 6, 3, 5, 7]);
makespan = 385;
----------
assign = array1d(1..17 ,[4, 2, 5, 2, 6, 4, 1, 1, 3, 5, 6, 1, 2, 3, 4, 5, 6]);
next = array1d(1..17 ,[15, 13, 10, 2, 11, 1, 8, 12, 14, 16, 17, 4, 9, 6, 3, 5, 7]);
makespan = 384;
----------
assign = array1d(1..17 ,[4, 2, 5, 2, 6, 4, 1, 1, 3, 5, 6, 1, 2, 3, 4, 5, 6]);
next = array1d(1..17 ,[15, 13, 10, 2, 11, 1, 8, 12, 14, 16, 17, 4, 9, 6, 3, 5, 7]);
makespan = 383;
----------
assign = array1d(1..17 ,[4, 2, 5, 2, 6, 4, 1, 1, 3, 5, 6, 1, 2, 3, 4, 5, 6]);
next = array1d(1..17 ,[15, 13, 10, 2, 11, 1, 8, 12, 14, 16, 17, 4, 9, 6, 3, 5, 7]);
makespan = 382;
----------
assign = array1d(1..17 ,[4, 2, 5, 2, 6, 4, 1, 1, 3, 5, 6, 1, 2, 3, 4, 5, 6]);
next = array1d(1..17 ,[15, 13, 10, 2, 11, 1, 8, 12, 14, 16, 17, 4, 9, 6, 3, 5, 7]);
makespan = 381;
----------
assign = array1d(1..17 ,[4, 2, 5, 2, 6, 4, 1, 1, 3, 5, 6, 1, 2, 3, 4, 5, 6]);
next = array1d(1..17 ,[15, 13, 10, 2, 11, 1, 8, 12, 14, 16, 17, 4, 9, 6, 3, 5, 7]);
makespan = 380;
----------
assign = array1d(1..17 ,[4, 5, 2, 5, 3, 4, 2, 1, 6, 6, 3, 1, 2, 3, 4, 5, 6]);
next = array1d(1..17 ,[15, 16, 13, 2, 11, 1, 3, 12, 10, 17, 14, 7, 5, 6, 4, 9, 8]);
makespan = 379;
----------
assign = array1d(1..17 ,[4, 5, 2, 5, 3, 4, 2, 1, 6, 6, 3, 1, 2, 3, 4, 5, 6]);
next = array1d(1..17 ,[15, 16, 13, 2, 11, 1, 3, 12, 10, 17, 14, 7, 5, 6, 4, 9, 8]);
makespan = 378;
----------
assign = array1d(1..17 ,[5, 1, 2, 1, 4, 5, 2, 3, 6, 6, 4, 1, 2, 3, 4, 5, 6]);
next = array1d(1..17 ,[6, 12, 13, 2, 11, 16, 3, 14, 10, 17, 15, 7, 8, 5, 1, 9, 4]);
makespan = 377;
----------
assign = array1d(1..17 ,[1, 5, 2, 5, 3, 4, 2, 4, 6, 6, 3, 1, 2, 3, 4, 5, 6]);
next = array1d(1..17 ,[12, 16, 13, 2, 11, 8, 3, 15, 10, 17, 14, 7, 5, 6, 4, 9, 1]);
makespan = 376;
----------
assign = array1d(1..17 ,[3, 5, 2, 5, 3, 1, 2, 4, 6, 6, 4, 1, 2, 3, 4, 5, 6]);
next = array1d(1..17 ,[5, 16, 13, 2, 14, 12, 3, 15, 10, 17, 8, 7, 1, 11, 4, 9, 6]);
makespan = 375;
----------
assign = array1d(1..17 ,[2, 2, 3, 5, 1, 4, 6, 5, 3, 6, 1, 1, 2, 3, 4, 5, 6]);
next = array1d(1..17 ,[13, 1, 14, 16, 11, 15, 10, 4, 3, 17, 12, 2, 9, 6, 8, 7, 5]);
makespan = 374;
----------
assign = array1d(1..17 ,[5, 5, 3, 4, 1, 6, 6, 4, 3, 2, 1, 1, 2, 3, 4, 5, 6]);
next = array1d(1..17 ,[16, 1, 9, 15, 11, 17, 6, 4, 14, 13, 12, 10, 3, 8, 2, 7, 5]);
makespan = 373;
----------
assign = array1d(1..17 ,[3, 4, 5, 1, 4, 6, 6, 1, 2, 3, 5, 1, 2, 3, 4, 5, 6]);
next = array1d(1..17 ,[10, 15, 16, 12, 2, 17, 6, 4, 13, 14, 3, 9, 1, 5, 11, 7, 8]);
makespan = 372;
----------
assign = array1d(1..17 ,[5, 4, 2, 1, 4, 1, 3, 3, 6, 6, 5, 1, 2, 3, 4, 5, 6]);
next = array1d(1..17 ,[16, 15, 13, 6, 2, 12, 14, 7, 17, 9, 1, 3, 8, 5, 11, 10, 4]);
makespan = 371;
----------
assign = array1d(1..17 ,[5, 3, 4, 1, 4, 1, 2, 3, 6, 6, 5, 1, 2, 3, 4, 5, 6]);
next = array1d(1..17 ,[16, 8, 5, 6, 15, 12, 13, 14, 10, 17, 1, 7, 2, 3, 11, 9, 4]);
makespan = 370;
----------
assign = array1d(1..17 ,[2, 3, 4, 5, 4, 5, 6, 3, 2, 6, 1, 1, 2, 3, 4, 5, 6]);
next = array1d(1..17 ,[9, 8, 5, 6, 15, 16, 10, 14, 13, 17, 12, 1, 2, 3, 4, 7, 11]);
makespan = 369;
----------
assign = array1d(1..17 ,[2, 4, 1, 3, 2, 3, 5, 5, 6, 6, 4, 1, 2, 3, 4, 5, 6]);
next = array1d(1..17 ,[5, 11, 12, 6, 13, 14, 8, 16, 10, 17, 15, 1, 4, 2, 7, 9, 3]);
makespan = 368;
----------
assign = array1d(1..17 ,[5, 1, 2, 3, 4, 3, 6, 5, 2, 6, 4, 1, 2, 3, 4, 5, 6]);
next = array1d(1..17 ,[8, 12, 9, 6, 11, 14, 10, 16, 13, 17, 15, 3, 4, 5, 1, 7, 2]);
makespan = 367;
----------
assign = array1d(1..17 ,[5, 6, 2, 1, 4, 1, 6, 3, 4, 3, 5, 1, 2, 3, 4, 5, 6]);
next = array1d(1..17 ,[16, 17, 13, 6, 9, 12, 2, 10, 15, 14, 1, 3, 8, 5, 11, 7, 4]);
makespan = 366;
----------
assign = array1d(1..17 ,[5, 6, 5, 2, 4, 2, 6, 3, 4, 3, 1, 1, 2, 3, 4, 5, 6]);
next = array1d(1..17 ,[3, 17, 16, 6, 9, 13, 2, 10, 15, 14, 12, 4, 8, 5, 1, 7, 11]);
makespan = 365;
----------
assign = array1d(1..17 ,[6, 5, 5, 2, 4, 2, 6, 3, 4, 3, 1, 1, 2, 3, 4, 5, 6]);
next = array1d(1..17 ,[7, 16, 2, 6, 9, 13, 17, 10, 15, 14, 12, 4, 8, 5, 3, 1, 11]);
makespan = 364;
----------
assign = array1d(1..17 ,[6, 1, 3, 5, 5, 4, 6, 2, 2, 4, 3, 1, 2, 3, 4, 5, 6]);
next = array1d(1..17 ,[7, 12, 11, 16, 4, 15, 17, 13, 8, 6, 14, 9, 3, 10, 5, 1, 2]);
makespan = 363;
----------
assign = array1d(1..17 ,[5, 2, 6, 3, 4, 1, 2, 4, 6, 3, 5, 1, 2, 3, 4, 5, 6]);
next = array1d(1..17 ,[16, 13, 17, 14, 15, 12, 2, 5, 3, 4, 1, 7, 10, 8, 11, 9, 6]);
makespan = 362;
----------
assign = array1d(1..17 ,[4, 6, 2, 5, 4, 5, 2, 3, 6, 3, 1, 1, 2, 3, 4, 5, 6]);
next = array1d(1..17 ,[5, 9, 13, 6, 15, 16, 3, 14, 17, 8, 12, 7, 10, 1, 4, 2, 11]);
makespan = 361;
----------
assign = array1d(1..17 ,[5, 1, 2, 5, 4, 6, 2, 3, 6, 3, 4, 1, 2, 3, 4, 5, 6]);
next = array1d(1..17 ,[4, 12, 13, 16, 11, 9, 3, 14, 17, 8, 15, 7, 10, 5, 1, 6, 2]);
makespan = 360;
----------
assign = array1d(1..17 ,[6, 3, 1, 3, 6, 1, 2, 5, 2, 4, 4, 1, 2, 3, 4, 5, 6]);
next = array1d(1..17 ,[5, 4, 6, 14, 17, 12, 9, 16, 13, 11, 15, 7, 2, 10, 8, 1, 3]);
makespan = 359;
----------
assign = array1d(1..17 ,[2, 5, 2, 5, 1, 4, 3, 3, 6, 6, 4, 1, 2, 3, 4, 5, 6]);
next = array1d(1..17 ,[13, 16, 1, 2, 12, 15, 14, 7, 10, 17, 6, 3, 8, 11, 4, 9, 5]);
makespan = 358;
----------
assign = array1d(1..17 ,[5, 4, 2, 3, 1, 4, 2, 5, 6, 3, 6, 1, 2, 3, 4, 5, 6]);
next = array1d(1..17 ,[8, 15, 7, 10, 12, 2, 13, 16, 11, 14, 17, 3, 4, 6, 1, 9, 5]);
makespan = 357;
----------
assign = array1d(1..17 ,[2, 5, 3, 4, 4, 3, 5, 1, 6, 1, 6, 1, 2, 3, 4, 5, 6]);
next = array1d(1..17 ,[13, 16, 6, 5, 15, 14, 2, 10, 11, 12, 17, 1, 3, 4, 7, 9, 8]);
makespan = 356;
----------
assign = array1d(1..17 ,[5, 2, 3, 4, 4, 3, 5, 1, 6, 1, 6, 1, 2, 3, 4, 5, 6]);
next = array1d(1..17 ,[16, 13, 6, 5, 15, 14, 1, 10, 11, 12, 17, 2, 3, 4, 7, 9, 8]);
makespan = 355;
----------
assign = array1d(1..17 ,[4, 6, 1, 2, 2, 1, 6, 3, 5, 3, 4, 1, 2, 3, 4, 5, 6]);
next = array1d(1..17 ,[11, 17, 6, 5, 13, 12, 2, 10, 16, 14, 15, 4, 8, 1, 9, 7, 3]);
makespan = 354;
----------
assign = array1d(1..17 ,[3, 2, 5, 5, 4, 3, 2, 4, 6, 1, 6, 1, 2, 3, 4, 5, 6]);
next = array1d(1..17 ,[6, 7, 4, 16, 15, 14, 13, 5, 11, 12, 17, 2, 1, 8, 3, 9, 10]);
makespan = 353;
----------
assign = array1d(1..17 ,[2, 4, 3, 3, 5, 4, 5, 1, 6, 2, 6, 1, 2, 3, 4, 5, 6]);
next = array1d(1..17 ,[10, 15, 14, 3, 16, 2, 5, 12, 11, 13, 17, 1, 4, 6, 7, 9, 8]);
makespan = 352;
----------
assign = array1d(1..17 ,[6, 4, 5, 5, 3, 4, 2, 3, 6, 1, 1, 1, 2, 3, 4, 5, 6]);
next = array1d(1..17 ,[9, 15, 4, 16, 8, 2, 13, 14, 17, 11, 12, 7, 5, 6, 3, 1, 10]);
makespan = 351;
----------
assign = array1d(1..17 ,[2, 4, 1, 2, 3, 1, 6, 3, 6, 5, 4, 1, 2, 3, 4, 5, 6]);
next = array1d(1..17 ,[13, 11, 6, 1, 8, 12, 17, 14, 7, 16, 15, 4, 5, 2, 10, 9, 3]);
makespan = 350;
----------
assign = array1d(1..17 ,[5, 5, 3, 4, 1, 3, 6, 1, 6, 4, 2, 1, 2, 3, 4, 5, 6]);
next = array1d(1..17 ,[16, 1, 6, 10, 8, 14, 17, 12, 7, 15, 13, 11, 3, 4, 2, 9, 5]);
makespan = 349;
----------
assign = array1d(1..17 ,[2, 5, 3, 4, 4, 1, 5, 6, 6, 2, 3, 1, 2, 3, 4, 5, 6]);
next = array1d(1..17 ,[10, 16, 14, 5, 15, 12, 2, 17, 8, 13, 3, 1, 11, 4, 7, 9, 6]);
makespan = 348;
----------
assign = array1d(1..17 ,[1, 5, 3, 6, 6, 3, 5, 4, 2, 2, 4, 1, 2, 3, 4, 5, 6]);
next = array1d(1..17 ,[12, 16, 6, 5, 17, 14, 2, 11, 13, 9, 15, 10, 3, 8, 7, 4, 1]);
makespan = 347;
----------
assign = array1d(1..17 ,[2, 6, 5, 5, 1, 2, 4, 3, 1, 3, 4, 1, 2, 3, 4, 5, 6]);
next = array1d(1..17 ,[13, 17, 4, 16, 9, 1, 11, 10, 12, 14, 15, 6, 8, 7, 3, 2, 5]);
makespan = 346;
----------
assign = array1d(1..17 ,[5, 3, 5, 2, 1, 4, 4, 6, 6, 2, 1, 1, 2, 3, 4, 5, 6]);
next = array1d(1..17 ,[3, 14, 16, 13, 11, 15, 6, 17, 8, 4, 12, 10, 2, 7, 1, 9, 5]);
makespan = 345;
----------
assign = array1d(1..17 ,[3, 2, 5, 5, 4, 3, 1, 2, 6, 4, 6, 1, 2, 3, 4, 5, 6]);
next = array1d(1..17 ,[6, 8, 4, 16, 10, 14, 12, 13, 11, 15, 17, 2, 1, 5, 3, 9, 7]);
makespan = 344;
----------
assign = array1d(1..17 ,[2, 6, 5, 5, 1, 3, 4, 3, 4, 2, 1, 1, 2, 3, 4, 5, 6]);
next = array1d(1..17 ,[10, 17, 4, 16, 11, 14, 9, 6, 15, 13, 12, 1, 8, 7, 3, 2, 5]);
makespan = 343;
----------
assign = array1d(1..17 ,[5, 4, 2, 4, 1, 6, 5, 2, 3, 3, 1, 1, 2, 3, 4, 5, 6]);
next = array1d(1..17 ,[7, 4, 13, 15, 11, 17, 16, 3, 14, 9, 12, 8, 10, 2, 1, 6, 5]);
makespan = 342;
----------
assign = array1d(1..17 ,[2, 6, 5, 5, 1, 3, 4, 3, 4, 2, 1, 1, 2, 3, 4, 5, 6]);
next = array1d(1..17 ,[10, 17, 4, 16, 11, 8, 9, 14, 15, 13, 12, 1, 6, 7, 3, 2, 5]);
makespan = 341;
----------
assign = array1d(1..17 ,[5, 5, 3, 2, 6, 4, 2, 3, 6, 1, 4, 1, 2, 3, 4, 5, 6]);
next = array1d(1..17 ,[2, 16, 8, 13, 9, 15, 4, 14, 17, 12, 6, 7, 3, 11, 1, 5, 10]);
makespan = 340;
----------
assign = array1d(1..17 ,[5, 5, 3, 2, 1, 1, 2, 4, 6, 3, 6, 1, 2, 3, 4, 5, 6]);
next = array1d(1..17 ,[2, 16, 10, 13, 12, 5, 4, 15, 11, 14, 17, 7, 3, 8, 1, 9, 6]);
makespan = 339;
----------
assign = array1d(1..17 ,[5, 6, 2, 4, 4, 3, 5, 1, 2, 1, 3, 1, 2, 3, 4, 5, 6]);
next = array1d(1..17 ,[7, 17, 9, 5, 15, 11, 16, 10, 13, 12, 14, 3, 6, 4, 1, 2, 8]);
makespan = 338;
----------
assign = array1d(1..17 ,[5, 4, 2, 1, 1, 6, 5, 3, 3, 2, 4, 1, 2, 3, 4, 5, 6]);
next = array1d(1..17 ,[7, 15, 13, 5, 12, 17, 16, 14, 8, 3, 2, 10, 9, 11, 1, 6, 4]);
makespan = 337;
----------
assign = array1d(1..17 ,[5, 4, 2, 4, 1, 1, 5, 2, 3, 3, 6, 1, 2, 3, 4, 5, 6]);
next = array1d(1..17 ,[7, 15, 8, 2, 12, 5, 16, 13, 14, 9, 17, 3, 10, 4, 1, 11, 6]);
makespan = 336;
----------
assign = array1d(1..17 ,[5, 6, 2, 1, 3, 4, 5, 1, 2, 3, 4, 1, 2, 3, 4, 5, 6]);
next = array1d(1..17 ,[7, 17, 9, 8, 14, 11, 16, 12, 13, 5, 15, 3, 10, 6, 1, 2, 4]);
makespan = 335;
----------
assign = array1d(1..17 ,[2, 2, 3, 1, 1, 4, 6, 3, 6, 5, 4, 1, 2, 3, 4, 5, 6]);
next = array1d(1..17 ,[13, 1, 8, 5, 12, 11, 17, 14, 7, 16, 15, 2, 3, 6, 10, 9, 4]);
makespan = 334;
----------
assign = array1d(1..17 ,[2, 2, 3, 4, 5, 4, 6, 1, 6, 1, 3, 1, 2, 3, 4, 5, 6]);
next = array1d(1..17 ,[2, 13, 14, 6, 16, 15, 17, 10, 7, 12, 3, 1, 11, 4, 5, 9, 8]);
makespan = 333;
----------
assign = array1d(1..17 ,[3, 5, 2, 5, 4, 4, 2, 1, 3, 1, 6, 1, 2, 3, 4, 5, 6]);
next = array1d(1..17 ,[9, 16, 7, 2, 6, 15, 13, 12, 14, 8, 17, 3, 1, 5, 4, 11, 10]);
makespan = 332;
----------
assign = array1d(1..17 ,[3, 5, 2, 5, 4, 4, 2, 1, 3, 1, 6, 1, 2, 3, 4, 5, 6]);
next = array1d(1..17 ,[9, 16, 7, 2, 6, 15, 13, 10, 14, 12, 17, 3, 1, 5, 4, 11, 8]);
makespan = 331;
----------
assign = array1d(1..17 ,[3, 5, 2, 5, 6, 4, 2, 1, 3, 1, 4, 1, 2, 3, 4, 5, 6]);
next = array1d(1..17 ,[9, 16, 7, 2, 17, 11, 13, 10, 14, 12, 15, 3, 1, 6, 4, 5, 8]);
makespan = 330;
----------
assign = array1d(1..17 ,[3, 5, 2, 5, 6, 4, 2, 1, 3, 1, 4, 1, 2, 3, 4, 5, 6]);
next = array1d(1..17 ,[9, 16, 7, 2, 17, 11, 13, 10, 14, 12, 15, 3, 1, 6, 4, 5, 8]);
makespan = 329;
----------
==========
	Command being timed: "mzn-chuffed lbbd-datasets/Rabadi-2006/dzn-p-dominant/model.mzn lbbd-datasets/Rabadi-2006/dzn-p-dominant/11on6Rp50Rs50_6Ameer.dzn"
	User time (seconds): 0.77
	System time (seconds): 0.05
	Percent of CPU this job got: 10%
	Elapsed (wall clock) time (h:mm:ss or m:ss): 0:08.09
	Average shared text size (kbytes): 0
	Average unshared data size (kbytes): 0
	Average stack size (kbytes): 0
	Average total size (kbytes): 0
	Maximum resident set size (kbytes): 57120
	Average resident set size (kbytes): 0
	Major (requiring I/O) page faults: 0
	Minor (reclaiming a frame) page faults: 5490
	Voluntary context switches: 508
	Involuntary context switches: 3
	Swaps: 0
	File system inputs: 0
	File system outputs: 864
	Socket messages sent: 0
	Socket messages received: 0
	Signals delivered: 0
	Page size (bytes): 4096
	Exit status: 0
