+ /usr/bin/timeout 600 /usr/bin/time -v mzn-chuffed lbbd-datasets/planningandscheduling/cost-insts/model.mzn lbbd-datasets/planningandscheduling/cost-insts/e45j9m4.dzn
% No search annotation given. Defaulting to VSIDS!
obj = 1666
----------
obj = 1610
----------
obj = 1609
----------
obj = 1594
----------
obj = 1593
----------
obj = 1563
----------
obj = 1545
----------
obj = 1543
----------
obj = 1531
----------
obj = 1521
----------
obj = 1520
----------
obj = 1518
----------
obj = 1514
----------
obj = 1510
----------
obj = 1500
----------
obj = 1498
----------
obj = 1494
----------
obj = 1491
----------
obj = 1487
----------
obj = 1482
----------
obj = 1473
----------
obj = 1459
----------
obj = 1447
----------
obj = 1441
----------
obj = 1432
----------
obj = 1428
----------
obj = 1427
----------
obj = 1423
----------
obj = 1420
----------
obj = 1419
----------
obj = 1415
----------
obj = 1413
----------
obj = 1410
----------
obj = 1408
----------
obj = 1405
----------
obj = 1397
----------
obj = 1369
----------
obj = 1360
----------
obj = 1355
----------
obj = 1352
----------
obj = 1350
----------
obj = 1339
----------
obj = 1336
----------
obj = 1327
----------
obj = 1321
----------
obj = 1317
----------
obj = 1316
----------
obj = 1315
----------
obj = 1314
----------
obj = 1310
----------
obj = 1309
----------
obj = 1305
----------
obj = 1301
----------
obj = 1300
----------
obj = 1296
----------
obj = 1288
----------
obj = 1279
----------
obj = 1275
----------
obj = 1274
----------
obj = 1264
----------
obj = 1259
----------
obj = 1255
----------
obj = 1253
----------
obj = 1238
----------
obj = 1234
----------
obj = 1229
----------
obj = 1214
----------
obj = 1212
----------
obj = 1211
----------
obj = 1210
----------
obj = 1195
----------
obj = 1191
----------
obj = 1190
----------
obj = 1187
----------
obj = 1185
----------
obj = 1184
----------
obj = 1182
----------
obj = 1180
----------
obj = 1179
----------
obj = 1177
----------
obj = 1176
----------
obj = 1174
----------
obj = 1173
----------
obj = 1172
----------
obj = 1171
----------
obj = 1170
----------
obj = 1166
----------
obj = 1163
----------
obj = 1156
----------
obj = 1154
----------
obj = 1152
----------
obj = 1151
----------
obj = 1132
----------
obj = 1130
----------
obj = 1122
----------
obj = 1121
----------
obj = 1120
----------
obj = 1105
----------
obj = 1103
----------
obj = 1102
----------
obj = 1099
----------
obj = 1097
----------
obj = 1094
----------
obj = 1090
----------
obj = 1089
----------
obj = 1088
----------
obj = 1085
----------
obj = 1083
----------
obj = 1082
----------
obj = 1080
----------
obj = 1078
----------
obj = 1077
----------
obj = 1076
----------
obj = 1070
----------
obj = 1069
----------
obj = 1067
----------
obj = 1065
----------
obj = 1064
----------
obj = 1063
----------
obj = 1061
----------
obj = 1059
----------
obj = 1058
----------
obj = 1057
----------
obj = 1056
----------
obj = 1054
----------
obj = 1053
----------
obj = 1049
----------
obj = 1048
----------
obj = 1046
----------
obj = 1045
----------
obj = 1043
----------
obj = 1042
----------
obj = 1040
----------
obj = 1039
----------
obj = 1038
----------
obj = 1037
----------
obj = 1036
----------
obj = 1035
----------
obj = 1034
----------
obj = 1033
----------
obj = 1032
----------
obj = 1031
----------
obj = 1029
----------
obj = 1028
----------
obj = 1027
----------
obj = 1026
----------
obj = 1025
----------
obj = 1024
----------
obj = 1022
----------
obj = 1021
----------
obj = 1019
----------
obj = 1018
----------
obj = 1017
----------
obj = 1016
----------
obj = 1015
----------
obj = 1014
----------
obj = 1013
----------
obj = 1012
----------
obj = 1011
----------
obj = 1010
----------
obj = 1009
----------
obj = 1008
----------
obj = 1007
----------
obj = 1006
----------
obj = 1005
----------
obj = 1004
----------
obj = 1003
----------
obj = 1002
----------
obj = 1001
----------
==========
	Command being timed: "mzn-chuffed lbbd-datasets/planningandscheduling/cost-insts/model.mzn lbbd-datasets/planningandscheduling/cost-insts/e45j9m4.dzn"
	User time (seconds): 0.47
	System time (seconds): 0.01
	Percent of CPU this job got: 0%
	Elapsed (wall clock) time (h:mm:ss or m:ss): 0:57.93
	Average shared text size (kbytes): 0
	Average unshared data size (kbytes): 0
	Average stack size (kbytes): 0
	Average total size (kbytes): 0
	Maximum resident set size (kbytes): 42864
	Average resident set size (kbytes): 0
	Major (requiring I/O) page faults: 0
	Minor (reclaiming a frame) page faults: 3939
	Voluntary context switches: 175
	Involuntary context switches: 3
	Swaps: 0
	File system inputs: 0
	File system outputs: 520
	Socket messages sent: 0
	Socket messages received: 0
	Signals delivered: 0
	Page size (bytes): 4096
	Exit status: 0
