+ /usr/bin/timeout 600 /usr/bin/time -v mzn-chuffed lbbd-datasets/Rabadi-2006/dzn-balanced/model.mzn lbbd-datasets/Rabadi-2006/dzn-balanced/11on2Rp50Rs50_4Ameer.dzn
% No search annotation given. Defaulting to VSIDS!
assign = array1d(1..13 ,[2, 2, 2, 2, 2, 2, 2, 2, 2, 2, 2, 1, 2]);
next = array1d(1..13 ,[2, 3, 4, 5, 6, 7, 8, 9, 10, 11, 13, 1, 12]);
makespan = 1541;
----------
assign = array1d(1..13 ,[2, 2, 2, 2, 2, 2, 2, 2, 2, 2, 2, 1, 2]);
next = array1d(1..13 ,[3, 4, 2, 5, 6, 7, 8, 9, 10, 11, 13, 1, 12]);
makespan = 1519;
----------
assign = array1d(1..13 ,[2, 2, 2, 2, 2, 2, 2, 2, 2, 2, 2, 1, 2]);
next = array1d(1..13 ,[2, 11, 4, 5, 6, 7, 8, 9, 10, 13, 3, 1, 12]);
makespan = 1470;
----------
assign = array1d(1..13 ,[2, 2, 2, 2, 2, 2, 2, 2, 1, 2, 2, 1, 2]);
next = array1d(1..13 ,[8, 10, 6, 11, 4, 1, 3, 13, 12, 7, 2, 5, 9]);
makespan = 1411;
----------
assign = array1d(1..13 ,[1, 2, 1, 2, 2, 1, 2, 2, 2, 2, 2, 1, 2]);
next = array1d(1..13 ,[12, 7, 6, 11, 4, 1, 8, 13, 10, 5, 2, 9, 3]);
makespan = 1387;
----------
assign = array1d(1..13 ,[2, 2, 2, 2, 2, 2, 2, 2, 2, 2, 1, 1, 2]);
next = array1d(1..13 ,[7, 6, 8, 1, 4, 3, 9, 5, 10, 13, 12, 2, 11]);
makespan = 1382;
----------
assign = array1d(1..13 ,[2, 2, 2, 2, 2, 2, 2, 2, 2, 2, 1, 1, 2]);
next = array1d(1..13 ,[7, 6, 8, 13, 4, 3, 5, 1, 10, 2, 12, 9, 11]);
makespan = 1378;
----------
assign = array1d(1..13 ,[2, 2, 1, 2, 2, 1, 2, 1, 2, 2, 2, 1, 2]);
next = array1d(1..13 ,[7, 9, 8, 11, 4, 3, 5, 12, 10, 13, 2, 1, 6]);
makespan = 1377;
----------
assign = array1d(1..13 ,[1, 2, 1, 2, 2, 1, 2, 1, 2, 2, 1, 1, 2]);
next = array1d(1..13 ,[11, 7, 8, 13, 4, 3, 5, 1, 10, 2, 12, 9, 6]);
makespan = 1376;
----------
assign = array1d(1..13 ,[1, 2, 1, 2, 2, 1, 2, 1, 2, 2, 1, 1, 2]);
next = array1d(1..13 ,[11, 7, 8, 13, 4, 3, 5, 1, 10, 2, 12, 9, 6]);
makespan = 1322;
----------
assign = array1d(1..13 ,[1, 2, 1, 2, 2, 1, 2, 1, 2, 2, 1, 1, 2]);
next = array1d(1..13 ,[11, 7, 8, 13, 4, 3, 5, 1, 10, 2, 12, 9, 6]);
makespan = 1320;
----------
assign = array1d(1..13 ,[1, 2, 1, 2, 2, 1, 2, 1, 2, 2, 1, 1, 2]);
next = array1d(1..13 ,[11, 7, 8, 13, 4, 3, 5, 1, 10, 2, 12, 9, 6]);
makespan = 1318;
----------
assign = array1d(1..13 ,[1, 2, 1, 2, 2, 1, 2, 1, 2, 2, 1, 1, 2]);
next = array1d(1..13 ,[11, 7, 8, 13, 4, 3, 5, 1, 10, 2, 12, 9, 6]);
makespan = 1291;
----------
assign = array1d(1..13 ,[1, 2, 1, 2, 2, 1, 2, 1, 2, 2, 1, 1, 2]);
next = array1d(1..13 ,[11, 7, 8, 13, 4, 3, 5, 1, 10, 2, 12, 9, 6]);
makespan = 1290;
----------
assign = array1d(1..13 ,[1, 2, 1, 2, 2, 1, 2, 1, 2, 2, 1, 1, 2]);
next = array1d(1..13 ,[11, 7, 8, 13, 4, 3, 5, 1, 10, 2, 12, 9, 6]);
makespan = 1256;
----------
assign = array1d(1..13 ,[1, 2, 1, 2, 2, 1, 2, 1, 2, 2, 2, 1, 2]);
next = array1d(1..13 ,[12, 9, 8, 11, 4, 3, 5, 1, 10, 13, 2, 7, 6]);
makespan = 1241;
----------
assign = array1d(1..13 ,[2, 2, 2, 2, 2, 1, 2, 2, 2, 1, 2, 1, 2]);
next = array1d(1..13 ,[3, 11, 9, 7, 1, 10, 8, 5, 13, 12, 4, 2, 6]);
makespan = 1239;
----------
assign = array1d(1..13 ,[2, 2, 1, 2, 2, 2, 2, 1, 2, 2, 2, 1, 2]);
next = array1d(1..13 ,[10, 9, 12, 7, 4, 2, 1, 3, 11, 6, 13, 5, 8]);
makespan = 1238;
----------
assign = array1d(1..13 ,[2, 2, 1, 2, 2, 2, 2, 1, 2, 2, 2, 1, 2]);
next = array1d(1..13 ,[10, 7, 8, 9, 13, 4, 1, 12, 11, 5, 2, 6, 3]);
makespan = 1237;
----------
assign = array1d(1..13 ,[2, 2, 2, 2, 2, 1, 2, 1, 2, 2, 2, 1, 2]);
next = array1d(1..13 ,[10, 9, 13, 1, 3, 8, 11, 12, 7, 5, 4, 2, 6]);
makespan = 1236;
----------
assign = array1d(1..13 ,[2, 2, 1, 2, 2, 2, 2, 2, 2, 1, 2, 1, 2]);
next = array1d(1..13 ,[4, 6, 10, 7, 1, 5, 8, 11, 2, 12, 13, 9, 3]);
makespan = 1235;
----------
assign = array1d(1..13 ,[2, 2, 2, 2, 2, 2, 2, 1, 2, 1, 2, 1, 2]);
next = array1d(1..13 ,[7, 1, 6, 2, 4, 9, 13, 10, 11, 12, 5, 3, 8]);
makespan = 1234;
----------
assign = array1d(1..13 ,[2, 2, 2, 2, 2, 2, 2, 1, 2, 1, 2, 1, 2]);
next = array1d(1..13 ,[3, 5, 9, 11, 4, 1, 13, 10, 7, 12, 6, 2, 8]);
makespan = 1233;
----------
assign = array1d(1..13 ,[1, 2, 1, 2, 2, 2, 1, 2, 2, 2, 2, 1, 2]);
next = array1d(1..13 ,[12, 6, 7, 13, 10, 8, 1, 11, 2, 4, 5, 9, 3]);
makespan = 1232;
----------
assign = array1d(1..13 ,[2, 2, 2, 2, 2, 2, 2, 1, 2, 1, 2, 1, 2]);
next = array1d(1..13 ,[7, 6, 9, 11, 1, 3, 13, 12, 4, 8, 5, 2, 10]);
makespan = 1231;
----------
assign = array1d(1..13 ,[1, 2, 2, 2, 1, 1, 2, 2, 2, 2, 2, 1, 2]);
next = array1d(1..13 ,[5, 9, 8, 2, 12, 1, 13, 11, 7, 3, 4, 10, 6]);
makespan = 1230;
----------
assign = array1d(1..13 ,[2, 2, 2, 2, 2, 2, 2, 1, 2, 1, 2, 1, 2]);
next = array1d(1..13 ,[3, 5, 9, 2, 6, 13, 11, 10, 4, 12, 1, 7, 8]);
makespan = 1229;
----------
assign = array1d(1..13 ,[2, 2, 2, 2, 2, 2, 2, 1, 2, 1, 2, 1, 2]);
next = array1d(1..13 ,[3, 9, 13, 6, 4, 2, 1, 12, 7, 8, 5, 11, 10]);
makespan = 1228;
----------
assign = array1d(1..13 ,[2, 2, 2, 2, 2, 2, 2, 1, 2, 1, 2, 1, 2]);
next = array1d(1..13 ,[3, 5, 11, 2, 7, 4, 1, 10, 6, 12, 13, 9, 8]);
makespan = 1226;
----------
assign = array1d(1..13 ,[2, 2, 2, 2, 2, 2, 2, 1, 2, 1, 2, 1, 2]);
next = array1d(1..13 ,[3, 7, 9, 1, 13, 11, 6, 12, 2, 8, 5, 4, 10]);
makespan = 1225;
----------
assign = array1d(1..13 ,[1, 2, 2, 2, 2, 2, 1, 2, 2, 1, 2, 1, 2]);
next = array1d(1..13 ,[10, 3, 8, 2, 13, 4, 1, 11, 6, 12, 5, 9, 7]);
makespan = 1220;
----------
assign = array1d(1..13 ,[2, 2, 1, 2, 2, 2, 1, 2, 1, 2, 2, 1, 2]);
next = array1d(1..13 ,[10, 6, 9, 2, 8, 13, 3, 11, 12, 5, 4, 1, 7]);
makespan = 1218;
----------
assign = array1d(1..13 ,[1, 2, 1, 2, 2, 2, 1, 2, 2, 2, 2, 1, 2]);
next = array1d(1..13 ,[3, 9, 12, 2, 6, 13, 1, 11, 8, 4, 5, 10, 7]);
makespan = 1217;
----------
