+ /usr/bin/timeout 600 /usr/bin/time -v mzn-chuffed lbbd-datasets/Rabadi-2006/dzn-p-dominant/model.mzn lbbd-datasets/Rabadi-2006/dzn-p-dominant/8on2Rp50Rs50_13Ameer.dzn
% No search annotation given. Defaulting to VSIDS!
assign = array1d(1..10 ,[2, 2, 2, 2, 2, 2, 2, 2, 1, 2]);
next = array1d(1..10 ,[2, 3, 4, 5, 6, 7, 8, 10, 1, 9]);
makespan = 1729;
----------
assign = array1d(1..10 ,[2, 2, 2, 2, 2, 2, 2, 2, 1, 2]);
next = array1d(1..10 ,[4, 3, 5, 2, 6, 7, 8, 10, 1, 9]);
makespan = 1725;
----------
assign = array1d(1..10 ,[1, 2, 1, 1, 2, 2, 2, 2, 1, 2]);
next = array1d(1..10 ,[4, 10, 9, 3, 6, 7, 8, 2, 5, 1]);
makespan = 1576;
----------
assign = array1d(1..10 ,[2, 1, 2, 2, 2, 2, 2, 2, 1, 2]);
next = array1d(1..10 ,[7, 9, 10, 6, 1, 3, 4, 5, 8, 2]);
makespan = 1570;
----------
assign = array1d(1..10 ,[2, 1, 2, 2, 2, 2, 2, 2, 1, 2]);
next = array1d(1..10 ,[7, 9, 4, 10, 6, 3, 8, 5, 1, 2]);
makespan = 1566;
----------
assign = array1d(1..10 ,[2, 2, 2, 2, 2, 1, 2, 2, 1, 2]);
next = array1d(1..10 ,[8, 5, 7, 1, 4, 9, 10, 3, 2, 6]);
makespan = 1565;
----------
assign = array1d(1..10 ,[2, 2, 2, 2, 2, 1, 2, 2, 1, 2]);
next = array1d(1..10 ,[8, 5, 7, 1, 4, 9, 10, 3, 2, 6]);
makespan = 1504;
----------
assign = array1d(1..10 ,[2, 2, 2, 2, 2, 1, 2, 2, 1, 2]);
next = array1d(1..10 ,[8, 5, 7, 10, 4, 9, 2, 3, 1, 6]);
makespan = 1503;
----------
assign = array1d(1..10 ,[2, 2, 2, 2, 2, 2, 1, 2, 1, 2]);
next = array1d(1..10 ,[8, 5, 6, 1, 4, 10, 9, 3, 2, 7]);
makespan = 1496;
----------
assign = array1d(1..10 ,[2, 2, 2, 2, 2, 2, 1, 2, 1, 2]);
next = array1d(1..10 ,[8, 5, 6, 1, 4, 10, 9, 3, 2, 7]);
makespan = 1479;
----------
assign = array1d(1..10 ,[2, 2, 2, 2, 2, 2, 1, 2, 1, 2]);
next = array1d(1..10 ,[8, 5, 10, 1, 4, 2, 9, 3, 6, 7]);
makespan = 1478;
----------
assign = array1d(1..10 ,[2, 2, 2, 2, 2, 2, 1, 2, 1, 2]);
next = array1d(1..10 ,[8, 5, 10, 1, 4, 2, 9, 3, 6, 7]);
makespan = 1460;
----------
assign = array1d(1..10 ,[2, 2, 2, 2, 2, 2, 1, 2, 1, 2]);
next = array1d(1..10 ,[8, 5, 10, 1, 4, 2, 9, 3, 6, 7]);
makespan = 1455;
----------
assign = array1d(1..10 ,[2, 2, 2, 2, 2, 2, 1, 2, 1, 2]);
next = array1d(1..10 ,[8, 5, 10, 1, 4, 2, 9, 3, 6, 7]);
makespan = 1450;
----------
assign = array1d(1..10 ,[2, 2, 2, 2, 2, 2, 1, 2, 1, 2]);
next = array1d(1..10 ,[8, 5, 10, 1, 4, 2, 9, 3, 6, 7]);
makespan = 1448;
----------
assign = array1d(1..10 ,[2, 2, 2, 2, 2, 1, 1, 2, 1, 2]);
next = array1d(1..10 ,[8, 5, 10, 1, 4, 7, 9, 3, 2, 6]);
makespan = 1447;
----------
assign = array1d(1..10 ,[2, 2, 2, 2, 2, 1, 1, 2, 1, 2]);
next = array1d(1..10 ,[8, 5, 10, 1, 4, 7, 9, 3, 2, 6]);
makespan = 1445;
----------
assign = array1d(1..10 ,[2, 2, 2, 2, 2, 1, 1, 2, 1, 2]);
next = array1d(1..10 ,[8, 5, 10, 1, 4, 7, 9, 3, 2, 6]);
makespan = 1444;
----------
assign = array1d(1..10 ,[2, 2, 2, 2, 2, 1, 1, 2, 1, 2]);
next = array1d(1..10 ,[8, 5, 10, 1, 4, 7, 9, 3, 2, 6]);
makespan = 1442;
----------
assign = array1d(1..10 ,[2, 2, 2, 2, 2, 1, 1, 2, 1, 2]);
next = array1d(1..10 ,[8, 5, 10, 1, 4, 7, 9, 3, 2, 6]);
makespan = 1441;
----------
assign = array1d(1..10 ,[2, 2, 2, 2, 2, 1, 1, 2, 1, 2]);
next = array1d(1..10 ,[8, 5, 10, 1, 4, 7, 9, 3, 2, 6]);
makespan = 1440;
----------
assign = array1d(1..10 ,[2, 2, 2, 2, 2, 1, 1, 2, 1, 2]);
next = array1d(1..10 ,[8, 5, 10, 1, 4, 7, 9, 3, 2, 6]);
makespan = 1439;
----------
assign = array1d(1..10 ,[2, 2, 2, 2, 2, 1, 1, 2, 1, 2]);
next = array1d(1..10 ,[8, 5, 10, 1, 4, 7, 9, 3, 2, 6]);
makespan = 1437;
----------
assign = array1d(1..10 ,[2, 2, 2, 2, 2, 1, 1, 2, 1, 2]);
next = array1d(1..10 ,[8, 5, 10, 1, 4, 7, 9, 3, 2, 6]);
makespan = 1435;
----------
assign = array1d(1..10 ,[2, 2, 2, 2, 2, 1, 1, 2, 1, 2]);
next = array1d(1..10 ,[8, 5, 10, 1, 4, 7, 9, 3, 2, 6]);
makespan = 1434;
----------
assign = array1d(1..10 ,[2, 2, 2, 2, 2, 1, 1, 2, 1, 2]);
next = array1d(1..10 ,[8, 5, 10, 1, 4, 7, 9, 3, 2, 6]);
makespan = 1433;
----------
assign = array1d(1..10 ,[2, 2, 2, 2, 2, 1, 1, 2, 1, 2]);
next = array1d(1..10 ,[8, 5, 10, 1, 4, 7, 9, 3, 2, 6]);
makespan = 1428;
----------
assign = array1d(1..10 ,[2, 2, 2, 2, 2, 1, 1, 2, 1, 2]);
next = array1d(1..10 ,[8, 5, 10, 1, 4, 7, 9, 3, 2, 6]);
makespan = 1427;
----------
assign = array1d(1..10 ,[2, 2, 2, 2, 2, 1, 1, 2, 1, 2]);
next = array1d(1..10 ,[8, 5, 10, 1, 4, 7, 9, 3, 2, 6]);
makespan = 1426;
----------
assign = array1d(1..10 ,[2, 2, 2, 2, 2, 1, 1, 2, 1, 2]);
next = array1d(1..10 ,[8, 5, 10, 1, 4, 7, 9, 3, 2, 6]);
makespan = 1424;
----------
assign = array1d(1..10 ,[2, 2, 2, 2, 2, 1, 1, 2, 1, 2]);
next = array1d(1..10 ,[8, 5, 10, 1, 4, 7, 9, 3, 2, 6]);
makespan = 1423;
----------
assign = array1d(1..10 ,[2, 2, 2, 2, 2, 1, 1, 2, 1, 2]);
next = array1d(1..10 ,[8, 5, 10, 1, 4, 7, 9, 3, 2, 6]);
makespan = 1415;
----------
assign = array1d(1..10 ,[2, 2, 2, 2, 2, 1, 1, 2, 1, 2]);
next = array1d(1..10 ,[8, 5, 10, 1, 4, 7, 9, 3, 2, 6]);
makespan = 1413;
----------
assign = array1d(1..10 ,[2, 2, 2, 2, 2, 1, 1, 2, 1, 2]);
next = array1d(1..10 ,[8, 5, 10, 1, 4, 7, 9, 3, 2, 6]);
makespan = 1412;
----------
assign = array1d(1..10 ,[2, 2, 2, 2, 2, 1, 1, 2, 1, 2]);
next = array1d(1..10 ,[8, 5, 10, 1, 4, 7, 9, 3, 2, 6]);
makespan = 1409;
----------
assign = array1d(1..10 ,[2, 2, 2, 2, 2, 1, 1, 2, 1, 2]);
next = array1d(1..10 ,[8, 5, 10, 1, 4, 7, 9, 3, 2, 6]);
makespan = 1389;
----------
assign = array1d(1..10 ,[2, 2, 2, 2, 2, 1, 1, 2, 1, 2]);
next = array1d(1..10 ,[8, 5, 10, 1, 4, 7, 9, 3, 2, 6]);
makespan = 1346;
----------
assign = array1d(1..10 ,[2, 2, 2, 2, 2, 1, 1, 2, 1, 2]);
next = array1d(1..10 ,[8, 5, 10, 1, 4, 7, 9, 3, 2, 6]);
makespan = 1331;
----------
assign = array1d(1..10 ,[2, 2, 2, 2, 2, 1, 1, 2, 1, 2]);
next = array1d(1..10 ,[8, 5, 10, 1, 4, 7, 9, 3, 2, 6]);
makespan = 1318;
----------
assign = array1d(1..10 ,[2, 2, 2, 2, 2, 1, 1, 2, 1, 2]);
next = array1d(1..10 ,[8, 5, 10, 1, 4, 7, 9, 3, 2, 6]);
makespan = 1310;
----------
assign = array1d(1..10 ,[2, 2, 2, 2, 2, 1, 1, 2, 1, 2]);
next = array1d(1..10 ,[8, 5, 10, 1, 4, 7, 9, 3, 2, 6]);
makespan = 1308;
----------
assign = array1d(1..10 ,[2, 2, 2, 2, 2, 1, 1, 2, 1, 2]);
next = array1d(1..10 ,[8, 5, 10, 1, 4, 7, 9, 3, 2, 6]);
makespan = 1307;
----------
assign = array1d(1..10 ,[2, 2, 2, 2, 2, 1, 1, 2, 1, 2]);
next = array1d(1..10 ,[8, 5, 10, 1, 4, 7, 9, 3, 2, 6]);
makespan = 1305;
----------
assign = array1d(1..10 ,[2, 2, 2, 2, 2, 1, 1, 2, 1, 2]);
next = array1d(1..10 ,[8, 5, 10, 1, 4, 7, 9, 3, 2, 6]);
makespan = 1303;
----------
assign = array1d(1..10 ,[2, 2, 2, 2, 2, 1, 1, 2, 1, 2]);
next = array1d(1..10 ,[8, 5, 10, 1, 4, 7, 9, 3, 2, 6]);
makespan = 1302;
----------
assign = array1d(1..10 ,[2, 2, 2, 2, 2, 1, 1, 2, 1, 2]);
next = array1d(1..10 ,[8, 5, 10, 1, 4, 7, 9, 3, 2, 6]);
makespan = 1300;
----------
assign = array1d(1..10 ,[2, 2, 2, 2, 2, 1, 1, 2, 1, 2]);
next = array1d(1..10 ,[8, 5, 10, 1, 4, 7, 9, 3, 2, 6]);
makespan = 1298;
----------
assign = array1d(1..10 ,[2, 2, 2, 2, 2, 1, 1, 2, 1, 2]);
next = array1d(1..10 ,[8, 5, 10, 1, 4, 7, 9, 3, 2, 6]);
makespan = 1297;
----------
assign = array1d(1..10 ,[2, 2, 2, 2, 2, 1, 1, 2, 1, 2]);
next = array1d(1..10 ,[8, 5, 10, 1, 4, 7, 9, 3, 2, 6]);
makespan = 1296;
----------
assign = array1d(1..10 ,[2, 2, 2, 2, 2, 1, 1, 2, 1, 2]);
next = array1d(1..10 ,[8, 5, 10, 1, 4, 7, 9, 3, 2, 6]);
makespan = 1295;
----------
assign = array1d(1..10 ,[2, 2, 2, 2, 2, 1, 1, 2, 1, 2]);
next = array1d(1..10 ,[8, 5, 10, 1, 4, 7, 9, 3, 2, 6]);
makespan = 1294;
----------
assign = array1d(1..10 ,[2, 2, 2, 2, 2, 1, 1, 2, 1, 2]);
next = array1d(1..10 ,[8, 5, 10, 1, 4, 7, 9, 3, 2, 6]);
makespan = 1292;
----------
assign = array1d(1..10 ,[2, 2, 2, 2, 2, 1, 1, 2, 1, 2]);
next = array1d(1..10 ,[8, 5, 10, 1, 4, 7, 9, 3, 2, 6]);
makespan = 1291;
----------
assign = array1d(1..10 ,[2, 2, 2, 2, 2, 1, 1, 2, 1, 2]);
next = array1d(1..10 ,[8, 5, 10, 1, 4, 7, 9, 3, 2, 6]);
makespan = 1290;
----------
assign = array1d(1..10 ,[2, 2, 2, 2, 2, 1, 1, 2, 1, 2]);
next = array1d(1..10 ,[8, 5, 10, 1, 4, 7, 9, 3, 2, 6]);
makespan = 1289;
----------
assign = array1d(1..10 ,[2, 2, 2, 2, 2, 1, 1, 2, 1, 2]);
next = array1d(1..10 ,[8, 5, 10, 1, 4, 7, 9, 3, 2, 6]);
makespan = 1287;
----------
assign = array1d(1..10 ,[2, 2, 2, 2, 2, 1, 1, 2, 1, 2]);
next = array1d(1..10 ,[8, 5, 10, 1, 4, 7, 9, 3, 2, 6]);
makespan = 1286;
----------
assign = array1d(1..10 ,[2, 2, 2, 2, 2, 1, 1, 2, 1, 2]);
next = array1d(1..10 ,[8, 5, 10, 1, 4, 7, 9, 3, 2, 6]);
makespan = 1285;
----------
assign = array1d(1..10 ,[2, 2, 2, 2, 2, 1, 1, 2, 1, 2]);
next = array1d(1..10 ,[8, 5, 10, 1, 4, 7, 9, 3, 2, 6]);
makespan = 1284;
----------
assign = array1d(1..10 ,[2, 2, 2, 2, 2, 1, 1, 2, 1, 2]);
next = array1d(1..10 ,[8, 5, 10, 1, 4, 7, 9, 3, 2, 6]);
makespan = 1283;
----------
assign = array1d(1..10 ,[2, 2, 2, 2, 2, 1, 1, 2, 1, 2]);
next = array1d(1..10 ,[8, 5, 10, 1, 4, 7, 9, 3, 2, 6]);
makespan = 1282;
----------
assign = array1d(1..10 ,[2, 2, 2, 2, 2, 1, 1, 2, 1, 2]);
next = array1d(1..10 ,[8, 5, 10, 1, 4, 7, 9, 3, 2, 6]);
makespan = 1281;
----------
assign = array1d(1..10 ,[2, 2, 2, 2, 2, 1, 1, 2, 1, 2]);
next = array1d(1..10 ,[8, 5, 10, 1, 4, 7, 9, 3, 2, 6]);
makespan = 1280;
----------
assign = array1d(1..10 ,[2, 2, 2, 2, 2, 1, 1, 2, 1, 2]);
next = array1d(1..10 ,[8, 5, 10, 1, 4, 7, 9, 3, 2, 6]);
makespan = 1278;
----------
assign = array1d(1..10 ,[2, 2, 2, 2, 2, 1, 1, 2, 1, 2]);
next = array1d(1..10 ,[8, 5, 10, 1, 4, 7, 9, 3, 2, 6]);
makespan = 1276;
----------
assign = array1d(1..10 ,[2, 2, 2, 2, 2, 1, 1, 2, 1, 2]);
next = array1d(1..10 ,[8, 5, 10, 1, 4, 7, 9, 3, 2, 6]);
makespan = 1275;
----------
assign = array1d(1..10 ,[2, 2, 2, 2, 2, 1, 1, 2, 1, 2]);
next = array1d(1..10 ,[8, 5, 10, 1, 4, 7, 9, 3, 2, 6]);
makespan = 1274;
----------
assign = array1d(1..10 ,[2, 2, 2, 2, 2, 1, 1, 2, 1, 2]);
next = array1d(1..10 ,[8, 5, 10, 1, 4, 7, 9, 3, 2, 6]);
makespan = 1273;
----------
assign = array1d(1..10 ,[2, 2, 2, 2, 2, 1, 1, 2, 1, 2]);
next = array1d(1..10 ,[8, 5, 10, 1, 4, 7, 9, 3, 2, 6]);
makespan = 1271;
----------
assign = array1d(1..10 ,[2, 2, 2, 2, 2, 1, 1, 2, 1, 2]);
next = array1d(1..10 ,[8, 5, 10, 1, 4, 7, 9, 3, 2, 6]);
makespan = 1270;
----------
assign = array1d(1..10 ,[2, 2, 2, 2, 2, 1, 1, 2, 1, 2]);
next = array1d(1..10 ,[8, 5, 10, 1, 4, 7, 9, 3, 2, 6]);
makespan = 1263;
----------
assign = array1d(1..10 ,[2, 2, 2, 2, 2, 1, 1, 2, 1, 2]);
next = array1d(1..10 ,[8, 5, 10, 1, 4, 7, 9, 3, 2, 6]);
makespan = 1262;
----------
assign = array1d(1..10 ,[2, 2, 2, 2, 2, 1, 1, 2, 1, 2]);
next = array1d(1..10 ,[8, 5, 10, 1, 4, 7, 9, 3, 2, 6]);
makespan = 1260;
----------
assign = array1d(1..10 ,[2, 2, 2, 2, 2, 1, 1, 2, 1, 2]);
next = array1d(1..10 ,[8, 5, 10, 1, 4, 7, 9, 3, 2, 6]);
makespan = 1259;
----------
assign = array1d(1..10 ,[2, 2, 2, 2, 2, 1, 1, 2, 1, 2]);
next = array1d(1..10 ,[8, 5, 10, 1, 4, 7, 9, 3, 2, 6]);
makespan = 1257;
----------
assign = array1d(1..10 ,[2, 1, 2, 2, 2, 2, 1, 2, 1, 2]);
next = array1d(1..10 ,[8, 7, 6, 1, 4, 10, 9, 3, 5, 2]);
makespan = 1249;
----------
assign = array1d(1..10 ,[2, 1, 2, 2, 2, 2, 1, 2, 1, 2]);
next = array1d(1..10 ,[8, 7, 6, 1, 4, 10, 9, 3, 5, 2]);
makespan = 1239;
----------
assign = array1d(1..10 ,[2, 1, 2, 2, 2, 1, 2, 2, 1, 2]);
next = array1d(1..10 ,[8, 6, 10, 1, 4, 9, 5, 3, 7, 2]);
makespan = 1231;
----------
assign = array1d(1..10 ,[2, 1, 2, 2, 2, 1, 1, 2, 1, 2]);
next = array1d(1..10 ,[8, 6, 10, 1, 4, 7, 9, 3, 5, 2]);
makespan = 1194;
----------
assign = array1d(1..10 ,[2, 1, 2, 2, 2, 1, 1, 2, 1, 2]);
next = array1d(1..10 ,[8, 6, 10, 1, 4, 7, 9, 3, 5, 2]);
makespan = 1183;
----------
assign = array1d(1..10 ,[2, 1, 2, 2, 2, 1, 1, 2, 1, 2]);
next = array1d(1..10 ,[8, 6, 10, 1, 4, 7, 9, 3, 5, 2]);
makespan = 1181;
----------
assign = array1d(1..10 ,[2, 1, 2, 2, 2, 1, 1, 2, 1, 2]);
next = array1d(1..10 ,[8, 6, 10, 1, 4, 7, 9, 3, 5, 2]);
makespan = 1169;
----------
assign = array1d(1..10 ,[2, 1, 2, 2, 2, 1, 1, 2, 1, 2]);
next = array1d(1..10 ,[8, 6, 10, 1, 4, 7, 9, 3, 5, 2]);
makespan = 1168;
----------
assign = array1d(1..10 ,[2, 1, 2, 2, 2, 1, 1, 2, 1, 2]);
next = array1d(1..10 ,[8, 6, 10, 1, 4, 7, 9, 3, 5, 2]);
makespan = 1166;
----------
assign = array1d(1..10 ,[2, 1, 2, 2, 2, 1, 1, 2, 1, 2]);
next = array1d(1..10 ,[8, 6, 10, 1, 4, 7, 9, 3, 5, 2]);
makespan = 1165;
----------
assign = array1d(1..10 ,[2, 1, 2, 2, 2, 1, 1, 2, 1, 2]);
next = array1d(1..10 ,[8, 6, 10, 1, 4, 7, 9, 3, 5, 2]);
makespan = 1158;
----------
assign = array1d(1..10 ,[2, 1, 2, 2, 2, 1, 1, 2, 1, 2]);
next = array1d(1..10 ,[8, 6, 10, 1, 4, 7, 9, 3, 5, 2]);
makespan = 1157;
----------
assign = array1d(1..10 ,[2, 1, 2, 2, 2, 1, 1, 2, 1, 2]);
next = array1d(1..10 ,[8, 6, 10, 1, 4, 7, 9, 3, 5, 2]);
makespan = 1155;
----------
assign = array1d(1..10 ,[2, 1, 2, 2, 2, 1, 1, 2, 1, 2]);
next = array1d(1..10 ,[8, 6, 10, 1, 4, 7, 9, 3, 5, 2]);
makespan = 1154;
----------
assign = array1d(1..10 ,[2, 1, 2, 2, 2, 1, 1, 2, 1, 2]);
next = array1d(1..10 ,[8, 6, 10, 1, 4, 7, 9, 3, 5, 2]);
makespan = 1153;
----------
assign = array1d(1..10 ,[2, 1, 2, 2, 2, 1, 1, 2, 1, 2]);
next = array1d(1..10 ,[8, 6, 10, 1, 4, 7, 9, 3, 5, 2]);
makespan = 1152;
----------
assign = array1d(1..10 ,[2, 1, 2, 2, 2, 1, 1, 2, 1, 2]);
next = array1d(1..10 ,[8, 6, 10, 1, 4, 7, 9, 3, 5, 2]);
makespan = 1150;
----------
assign = array1d(1..10 ,[2, 1, 2, 2, 2, 1, 1, 2, 1, 2]);
next = array1d(1..10 ,[8, 6, 10, 1, 4, 7, 9, 3, 5, 2]);
makespan = 1149;
----------
assign = array1d(1..10 ,[2, 1, 2, 2, 2, 1, 1, 2, 1, 2]);
next = array1d(1..10 ,[8, 6, 10, 1, 4, 7, 9, 3, 5, 2]);
makespan = 1148;
----------
assign = array1d(1..10 ,[2, 1, 2, 2, 2, 1, 1, 2, 1, 2]);
next = array1d(1..10 ,[8, 6, 10, 1, 4, 7, 9, 3, 5, 2]);
makespan = 1147;
----------
assign = array1d(1..10 ,[2, 1, 2, 2, 2, 1, 1, 2, 1, 2]);
next = array1d(1..10 ,[8, 6, 10, 1, 4, 7, 9, 3, 5, 2]);
makespan = 1146;
----------
assign = array1d(1..10 ,[2, 1, 2, 2, 2, 1, 1, 2, 1, 2]);
next = array1d(1..10 ,[8, 6, 10, 1, 4, 7, 9, 3, 5, 2]);
makespan = 1145;
----------
assign = array1d(1..10 ,[2, 1, 2, 2, 2, 1, 1, 2, 1, 2]);
next = array1d(1..10 ,[8, 6, 10, 1, 4, 7, 9, 3, 5, 2]);
makespan = 1144;
----------
assign = array1d(1..10 ,[2, 1, 2, 2, 2, 1, 1, 2, 1, 2]);
next = array1d(1..10 ,[8, 6, 10, 1, 4, 7, 9, 3, 5, 2]);
makespan = 1143;
----------
assign = array1d(1..10 ,[2, 1, 2, 2, 2, 1, 1, 2, 1, 2]);
next = array1d(1..10 ,[8, 6, 10, 1, 4, 7, 9, 3, 5, 2]);
makespan = 1142;
----------
assign = array1d(1..10 ,[2, 1, 2, 2, 2, 1, 1, 2, 1, 2]);
next = array1d(1..10 ,[8, 6, 10, 1, 4, 7, 9, 3, 5, 2]);
makespan = 1141;
----------
assign = array1d(1..10 ,[2, 1, 2, 2, 2, 1, 1, 2, 1, 2]);
next = array1d(1..10 ,[8, 6, 10, 1, 4, 7, 9, 3, 5, 2]);
makespan = 1139;
----------
assign = array1d(1..10 ,[2, 1, 2, 2, 2, 1, 1, 2, 1, 2]);
next = array1d(1..10 ,[8, 6, 10, 1, 4, 7, 9, 3, 5, 2]);
makespan = 1138;
----------
assign = array1d(1..10 ,[2, 1, 2, 2, 2, 1, 1, 2, 1, 2]);
next = array1d(1..10 ,[8, 6, 10, 1, 4, 7, 9, 3, 5, 2]);
makespan = 1137;
----------
assign = array1d(1..10 ,[2, 1, 2, 2, 2, 1, 1, 2, 1, 2]);
next = array1d(1..10 ,[8, 6, 10, 1, 4, 7, 9, 3, 5, 2]);
makespan = 1136;
----------
assign = array1d(1..10 ,[2, 1, 2, 2, 2, 1, 1, 2, 1, 2]);
next = array1d(1..10 ,[8, 6, 10, 1, 4, 7, 9, 3, 5, 2]);
makespan = 1134;
----------
assign = array1d(1..10 ,[2, 1, 2, 2, 2, 1, 1, 2, 1, 2]);
next = array1d(1..10 ,[8, 6, 10, 1, 4, 7, 9, 3, 5, 2]);
makespan = 1133;
----------
assign = array1d(1..10 ,[2, 1, 2, 2, 2, 1, 1, 2, 1, 2]);
next = array1d(1..10 ,[8, 6, 10, 1, 4, 7, 9, 3, 5, 2]);
makespan = 1132;
----------
assign = array1d(1..10 ,[2, 1, 2, 2, 2, 1, 1, 2, 1, 2]);
next = array1d(1..10 ,[8, 6, 10, 1, 4, 7, 9, 3, 5, 2]);
makespan = 1131;
----------
assign = array1d(1..10 ,[2, 1, 2, 2, 2, 1, 1, 2, 1, 2]);
next = array1d(1..10 ,[8, 6, 10, 1, 4, 7, 9, 3, 5, 2]);
makespan = 1130;
----------
assign = array1d(1..10 ,[2, 1, 2, 2, 2, 1, 1, 2, 1, 2]);
next = array1d(1..10 ,[8, 6, 10, 1, 4, 7, 9, 3, 5, 2]);
makespan = 1129;
----------
assign = array1d(1..10 ,[2, 1, 2, 2, 2, 1, 1, 2, 1, 2]);
next = array1d(1..10 ,[8, 6, 10, 1, 4, 7, 9, 3, 5, 2]);
makespan = 1128;
----------
assign = array1d(1..10 ,[2, 1, 2, 2, 2, 1, 1, 2, 1, 2]);
next = array1d(1..10 ,[8, 6, 10, 1, 4, 7, 9, 3, 5, 2]);
makespan = 1127;
----------
assign = array1d(1..10 ,[2, 1, 2, 2, 2, 1, 1, 2, 1, 2]);
next = array1d(1..10 ,[8, 6, 10, 1, 4, 7, 9, 3, 5, 2]);
makespan = 1126;
----------
assign = array1d(1..10 ,[2, 1, 2, 2, 2, 1, 1, 2, 1, 2]);
next = array1d(1..10 ,[8, 6, 10, 1, 4, 7, 9, 3, 5, 2]);
makespan = 1125;
----------
assign = array1d(1..10 ,[2, 1, 2, 2, 2, 1, 1, 2, 1, 2]);
next = array1d(1..10 ,[8, 6, 10, 1, 4, 7, 9, 3, 5, 2]);
makespan = 1123;
----------
assign = array1d(1..10 ,[2, 1, 2, 2, 2, 1, 1, 2, 1, 2]);
next = array1d(1..10 ,[8, 6, 10, 1, 4, 7, 9, 3, 5, 2]);
makespan = 1122;
----------
assign = array1d(1..10 ,[2, 1, 2, 2, 2, 1, 1, 2, 1, 2]);
next = array1d(1..10 ,[8, 6, 10, 1, 4, 7, 9, 3, 5, 2]);
makespan = 1121;
----------
assign = array1d(1..10 ,[2, 1, 2, 2, 2, 1, 1, 2, 1, 2]);
next = array1d(1..10 ,[8, 6, 10, 1, 4, 7, 9, 3, 5, 2]);
makespan = 1120;
----------
assign = array1d(1..10 ,[2, 1, 2, 2, 2, 1, 1, 2, 1, 2]);
next = array1d(1..10 ,[8, 6, 10, 1, 4, 7, 9, 3, 5, 2]);
makespan = 1118;
----------
assign = array1d(1..10 ,[2, 1, 2, 2, 2, 1, 1, 2, 1, 2]);
next = array1d(1..10 ,[8, 6, 10, 1, 4, 7, 9, 3, 5, 2]);
makespan = 1117;
----------
assign = array1d(1..10 ,[2, 1, 2, 2, 2, 1, 1, 2, 1, 2]);
next = array1d(1..10 ,[8, 6, 10, 1, 4, 7, 9, 3, 5, 2]);
makespan = 1110;
----------
assign = array1d(1..10 ,[2, 1, 2, 2, 2, 1, 1, 2, 1, 2]);
next = array1d(1..10 ,[8, 6, 10, 1, 4, 7, 9, 3, 5, 2]);
makespan = 1109;
----------
assign = array1d(1..10 ,[2, 1, 2, 2, 2, 1, 1, 2, 1, 2]);
next = array1d(1..10 ,[8, 6, 10, 1, 4, 7, 9, 3, 5, 2]);
makespan = 1107;
----------
assign = array1d(1..10 ,[2, 1, 2, 2, 2, 1, 1, 2, 1, 2]);
next = array1d(1..10 ,[8, 6, 10, 1, 4, 7, 9, 3, 5, 2]);
makespan = 1068;
----------
assign = array1d(1..10 ,[2, 1, 2, 2, 2, 1, 1, 2, 1, 2]);
next = array1d(1..10 ,[8, 6, 10, 1, 4, 7, 9, 3, 5, 2]);
makespan = 1030;
----------
assign = array1d(1..10 ,[2, 1, 2, 2, 2, 1, 1, 2, 1, 2]);
next = array1d(1..10 ,[8, 6, 10, 1, 4, 7, 9, 3, 5, 2]);
makespan = 1017;
----------
assign = array1d(1..10 ,[2, 1, 1, 2, 2, 1, 1, 2, 1, 2]);
next = array1d(1..10 ,[8, 7, 9, 1, 4, 3, 6, 10, 5, 2]);
makespan = 1016;
----------
assign = array1d(1..10 ,[2, 1, 1, 2, 2, 1, 1, 2, 1, 2]);
next = array1d(1..10 ,[8, 7, 9, 1, 4, 3, 6, 10, 5, 2]);
makespan = 1015;
----------
assign = array1d(1..10 ,[2, 1, 1, 2, 2, 1, 1, 2, 1, 2]);
next = array1d(1..10 ,[8, 7, 9, 1, 4, 3, 6, 10, 5, 2]);
makespan = 1013;
----------
assign = array1d(1..10 ,[2, 1, 1, 2, 2, 1, 1, 2, 1, 2]);
next = array1d(1..10 ,[8, 7, 9, 1, 4, 3, 6, 10, 5, 2]);
makespan = 1012;
----------
assign = array1d(1..10 ,[2, 1, 1, 2, 2, 1, 1, 2, 1, 2]);
next = array1d(1..10 ,[8, 7, 9, 1, 4, 3, 6, 10, 5, 2]);
makespan = 1005;
----------
assign = array1d(1..10 ,[2, 1, 1, 2, 2, 1, 1, 2, 1, 2]);
next = array1d(1..10 ,[8, 7, 9, 1, 4, 3, 6, 10, 5, 2]);
makespan = 1004;
----------
assign = array1d(1..10 ,[2, 1, 1, 2, 2, 1, 1, 2, 1, 2]);
next = array1d(1..10 ,[8, 7, 9, 1, 4, 3, 6, 10, 5, 2]);
makespan = 1002;
----------
assign = array1d(1..10 ,[2, 1, 1, 2, 2, 1, 1, 2, 1, 2]);
next = array1d(1..10 ,[8, 7, 9, 1, 4, 3, 6, 10, 5, 2]);
makespan = 1001;
----------
assign = array1d(1..10 ,[2, 1, 1, 2, 2, 1, 1, 2, 1, 2]);
next = array1d(1..10 ,[8, 7, 9, 1, 4, 3, 6, 10, 5, 2]);
makespan = 1000;
----------
assign = array1d(1..10 ,[2, 1, 1, 2, 2, 1, 1, 2, 1, 2]);
next = array1d(1..10 ,[8, 7, 9, 1, 4, 3, 6, 10, 5, 2]);
makespan = 999;
----------
assign = array1d(1..10 ,[2, 1, 1, 2, 2, 1, 1, 2, 1, 2]);
next = array1d(1..10 ,[8, 7, 9, 1, 4, 3, 6, 10, 5, 2]);
makespan = 997;
----------
assign = array1d(1..10 ,[2, 1, 1, 2, 2, 1, 1, 2, 1, 2]);
next = array1d(1..10 ,[8, 7, 9, 1, 4, 3, 6, 10, 5, 2]);
makespan = 995;
----------
assign = array1d(1..10 ,[2, 1, 1, 2, 2, 1, 1, 2, 1, 2]);
next = array1d(1..10 ,[8, 7, 9, 1, 4, 3, 6, 10, 5, 2]);
makespan = 994;
----------
assign = array1d(1..10 ,[2, 1, 1, 2, 2, 1, 1, 2, 1, 2]);
next = array1d(1..10 ,[8, 7, 9, 1, 4, 3, 6, 10, 5, 2]);
makespan = 993;
----------
assign = array1d(1..10 ,[2, 1, 1, 2, 2, 1, 1, 2, 1, 2]);
next = array1d(1..10 ,[8, 7, 9, 1, 4, 3, 6, 10, 5, 2]);
makespan = 992;
----------
assign = array1d(1..10 ,[2, 1, 1, 2, 2, 1, 1, 2, 1, 2]);
next = array1d(1..10 ,[8, 7, 9, 1, 4, 3, 6, 10, 5, 2]);
makespan = 991;
----------
assign = array1d(1..10 ,[2, 1, 1, 2, 2, 1, 1, 2, 1, 2]);
next = array1d(1..10 ,[8, 7, 9, 1, 4, 3, 6, 10, 5, 2]);
makespan = 990;
----------
assign = array1d(1..10 ,[2, 1, 1, 2, 2, 1, 1, 2, 1, 2]);
next = array1d(1..10 ,[8, 7, 9, 1, 4, 3, 6, 10, 5, 2]);
makespan = 989;
----------
assign = array1d(1..10 ,[2, 1, 1, 2, 2, 1, 1, 2, 1, 2]);
next = array1d(1..10 ,[8, 7, 9, 1, 4, 3, 6, 10, 5, 2]);
makespan = 988;
----------
assign = array1d(1..10 ,[2, 1, 1, 2, 2, 1, 1, 2, 1, 2]);
next = array1d(1..10 ,[8, 7, 9, 1, 4, 3, 6, 10, 5, 2]);
makespan = 986;
----------
assign = array1d(1..10 ,[2, 1, 1, 2, 2, 1, 1, 2, 1, 2]);
next = array1d(1..10 ,[8, 7, 9, 1, 4, 3, 6, 10, 5, 2]);
makespan = 985;
----------
assign = array1d(1..10 ,[2, 1, 1, 2, 2, 1, 1, 2, 1, 2]);
next = array1d(1..10 ,[8, 7, 9, 1, 4, 3, 6, 10, 5, 2]);
makespan = 984;
----------
assign = array1d(1..10 ,[2, 1, 1, 2, 2, 1, 1, 2, 1, 2]);
next = array1d(1..10 ,[8, 7, 9, 1, 4, 3, 6, 10, 5, 2]);
makespan = 983;
----------
assign = array1d(1..10 ,[2, 1, 1, 2, 2, 1, 1, 2, 1, 2]);
next = array1d(1..10 ,[8, 7, 9, 1, 4, 3, 6, 10, 5, 2]);
makespan = 981;
----------
assign = array1d(1..10 ,[2, 1, 1, 2, 2, 1, 1, 2, 1, 2]);
next = array1d(1..10 ,[8, 7, 9, 1, 4, 3, 6, 10, 5, 2]);
makespan = 980;
----------
assign = array1d(1..10 ,[2, 1, 1, 2, 2, 1, 1, 2, 1, 2]);
next = array1d(1..10 ,[8, 7, 9, 1, 4, 3, 6, 10, 5, 2]);
makespan = 979;
----------
assign = array1d(1..10 ,[2, 1, 1, 2, 2, 1, 1, 2, 1, 2]);
next = array1d(1..10 ,[8, 7, 9, 1, 4, 3, 6, 10, 5, 2]);
makespan = 978;
----------
assign = array1d(1..10 ,[2, 1, 1, 2, 2, 1, 1, 2, 1, 2]);
next = array1d(1..10 ,[8, 7, 9, 1, 4, 3, 6, 10, 5, 2]);
makespan = 977;
----------
assign = array1d(1..10 ,[2, 1, 1, 2, 2, 1, 1, 2, 1, 2]);
next = array1d(1..10 ,[8, 7, 9, 1, 4, 3, 6, 10, 5, 2]);
makespan = 975;
----------
assign = array1d(1..10 ,[2, 1, 1, 2, 2, 1, 1, 2, 1, 2]);
next = array1d(1..10 ,[8, 7, 9, 1, 4, 3, 6, 10, 5, 2]);
makespan = 973;
----------
assign = array1d(1..10 ,[2, 1, 1, 2, 2, 1, 1, 2, 1, 2]);
next = array1d(1..10 ,[8, 7, 9, 1, 4, 3, 6, 10, 5, 2]);
makespan = 972;
----------
assign = array1d(1..10 ,[2, 1, 1, 2, 2, 1, 1, 2, 1, 2]);
next = array1d(1..10 ,[8, 7, 9, 1, 4, 3, 6, 10, 5, 2]);
makespan = 970;
----------
assign = array1d(1..10 ,[2, 1, 1, 2, 2, 1, 1, 2, 1, 2]);
next = array1d(1..10 ,[8, 7, 9, 1, 4, 3, 6, 10, 5, 2]);
makespan = 968;
----------
assign = array1d(1..10 ,[2, 1, 1, 2, 2, 1, 1, 2, 1, 2]);
next = array1d(1..10 ,[8, 7, 9, 1, 4, 3, 6, 10, 5, 2]);
makespan = 965;
----------
assign = array1d(1..10 ,[2, 1, 1, 2, 2, 1, 1, 2, 1, 2]);
next = array1d(1..10 ,[8, 7, 9, 1, 4, 3, 6, 10, 5, 2]);
makespan = 957;
----------
assign = array1d(1..10 ,[2, 1, 1, 2, 2, 1, 1, 2, 1, 2]);
next = array1d(1..10 ,[8, 7, 9, 1, 4, 3, 6, 10, 5, 2]);
makespan = 954;
----------
assign = array1d(1..10 ,[2, 1, 1, 2, 2, 1, 1, 2, 1, 2]);
next = array1d(1..10 ,[8, 7, 9, 1, 4, 3, 6, 10, 5, 2]);
makespan = 951;
----------
assign = array1d(1..10 ,[2, 1, 1, 2, 2, 1, 1, 2, 1, 2]);
next = array1d(1..10 ,[8, 7, 9, 1, 4, 3, 6, 10, 5, 2]);
makespan = 937;
----------
assign = array1d(1..10 ,[2, 1, 1, 2, 2, 1, 1, 2, 1, 2]);
next = array1d(1..10 ,[8, 7, 9, 1, 4, 3, 6, 10, 5, 2]);
makespan = 922;
----------
assign = array1d(1..10 ,[2, 1, 1, 2, 2, 1, 1, 2, 1, 2]);
next = array1d(1..10 ,[8, 7, 9, 1, 4, 3, 6, 10, 5, 2]);
makespan = 874;
----------
assign = array1d(1..10 ,[2, 1, 1, 2, 2, 1, 1, 2, 1, 2]);
next = array1d(1..10 ,[8, 7, 9, 1, 4, 3, 6, 10, 5, 2]);
makespan = 866;
----------
assign = array1d(1..10 ,[2, 1, 1, 2, 2, 1, 1, 2, 1, 2]);
next = array1d(1..10 ,[8, 7, 9, 1, 4, 3, 6, 10, 5, 2]);
makespan = 863;
----------
assign = array1d(1..10 ,[2, 1, 1, 2, 2, 1, 1, 2, 1, 2]);
next = array1d(1..10 ,[8, 7, 9, 1, 4, 3, 6, 10, 5, 2]);
makespan = 862;
----------
assign = array1d(1..10 ,[2, 1, 1, 2, 2, 1, 1, 2, 1, 2]);
next = array1d(1..10 ,[8, 7, 9, 1, 4, 3, 6, 10, 5, 2]);
makespan = 860;
----------
assign = array1d(1..10 ,[2, 1, 1, 2, 2, 1, 1, 2, 1, 2]);
next = array1d(1..10 ,[8, 7, 9, 1, 4, 3, 6, 10, 5, 2]);
makespan = 852;
----------
assign = array1d(1..10 ,[2, 1, 1, 2, 2, 1, 1, 2, 1, 2]);
next = array1d(1..10 ,[8, 7, 9, 1, 4, 3, 6, 10, 5, 2]);
makespan = 851;
----------
assign = array1d(1..10 ,[2, 1, 1, 2, 2, 1, 1, 2, 1, 2]);
next = array1d(1..10 ,[8, 7, 9, 1, 4, 3, 6, 10, 5, 2]);
makespan = 849;
----------
assign = array1d(1..10 ,[2, 1, 1, 2, 2, 1, 1, 2, 1, 2]);
next = array1d(1..10 ,[8, 7, 9, 1, 4, 3, 6, 10, 5, 2]);
makespan = 848;
----------
assign = array1d(1..10 ,[2, 1, 1, 2, 2, 1, 1, 2, 1, 2]);
next = array1d(1..10 ,[8, 7, 9, 1, 4, 3, 6, 10, 5, 2]);
makespan = 847;
----------
assign = array1d(1..10 ,[2, 1, 1, 2, 2, 1, 1, 2, 1, 2]);
next = array1d(1..10 ,[8, 7, 9, 1, 4, 3, 6, 10, 5, 2]);
makespan = 845;
----------
assign = array1d(1..10 ,[2, 1, 1, 2, 2, 1, 1, 2, 1, 2]);
next = array1d(1..10 ,[8, 3, 9, 1, 4, 2, 6, 10, 5, 7]);
makespan = 842;
----------
assign = array1d(1..10 ,[2, 1, 1, 2, 2, 1, 1, 2, 1, 2]);
next = array1d(1..10 ,[8, 7, 9, 1, 4, 2, 3, 10, 5, 6]);
makespan = 841;
----------
assign = array1d(1..10 ,[2, 1, 1, 2, 2, 1, 1, 2, 1, 2]);
next = array1d(1..10 ,[8, 6, 2, 1, 4, 7, 9, 10, 5, 3]);
makespan = 840;
----------
assign = array1d(1..10 ,[2, 1, 1, 2, 2, 1, 1, 2, 1, 2]);
next = array1d(1..10 ,[8, 6, 2, 1, 4, 7, 9, 10, 5, 3]);
makespan = 838;
----------
assign = array1d(1..10 ,[2, 1, 1, 2, 2, 1, 1, 2, 1, 2]);
next = array1d(1..10 ,[8, 6, 2, 1, 4, 7, 9, 10, 5, 3]);
makespan = 836;
----------
assign = array1d(1..10 ,[2, 1, 1, 2, 2, 1, 1, 2, 1, 2]);
next = array1d(1..10 ,[8, 6, 2, 1, 4, 7, 9, 10, 5, 3]);
makespan = 835;
----------
assign = array1d(1..10 ,[2, 1, 1, 2, 2, 1, 1, 2, 1, 2]);
next = array1d(1..10 ,[8, 6, 2, 1, 4, 7, 9, 10, 5, 3]);
makespan = 833;
----------
assign = array1d(1..10 ,[2, 1, 1, 2, 2, 1, 1, 2, 1, 2]);
next = array1d(1..10 ,[8, 6, 2, 1, 4, 7, 9, 10, 5, 3]);
makespan = 831;
----------
assign = array1d(1..10 ,[2, 1, 1, 2, 2, 1, 1, 2, 1, 2]);
next = array1d(1..10 ,[8, 6, 2, 1, 4, 7, 9, 10, 5, 3]);
makespan = 830;
----------
assign = array1d(1..10 ,[2, 1, 1, 2, 2, 1, 1, 2, 1, 2]);
next = array1d(1..10 ,[8, 6, 2, 1, 4, 7, 9, 10, 5, 3]);
makespan = 828;
----------
assign = array1d(1..10 ,[2, 1, 1, 2, 2, 1, 1, 2, 1, 2]);
next = array1d(1..10 ,[8, 6, 2, 1, 4, 7, 9, 10, 5, 3]);
makespan = 827;
----------
assign = array1d(1..10 ,[2, 1, 1, 2, 2, 1, 1, 2, 1, 2]);
next = array1d(1..10 ,[8, 6, 2, 1, 4, 7, 9, 10, 5, 3]);
makespan = 825;
----------
assign = array1d(1..10 ,[2, 1, 1, 2, 2, 1, 1, 2, 1, 2]);
next = array1d(1..10 ,[8, 6, 2, 1, 4, 7, 9, 10, 5, 3]);
makespan = 820;
----------
assign = array1d(1..10 ,[2, 1, 1, 2, 2, 1, 1, 2, 1, 2]);
next = array1d(1..10 ,[8, 6, 2, 1, 4, 9, 3, 10, 5, 7]);
makespan = 815;
----------
assign = array1d(1..10 ,[2, 1, 1, 2, 2, 1, 1, 2, 1, 2]);
next = array1d(1..10 ,[8, 9, 2, 1, 4, 3, 6, 10, 5, 7]);
makespan = 808;
----------
assign = array1d(1..10 ,[2, 1, 1, 2, 2, 1, 1, 2, 1, 2]);
next = array1d(1..10 ,[8, 9, 6, 1, 4, 2, 3, 10, 5, 7]);
makespan = 796;
----------
assign = array1d(1..10 ,[1, 1, 1, 2, 2, 2, 1, 2, 1, 2]);
next = array1d(1..10 ,[7, 9, 2, 10, 4, 5, 3, 6, 8, 1]);
makespan = 794;
----------
assign = array1d(1..10 ,[2, 2, 1, 1, 1, 2, 1, 2, 1, 2]);
next = array1d(1..10 ,[10, 8, 9, 5, 7, 2, 3, 1, 6, 4]);
makespan = 793;
----------
assign = array1d(1..10 ,[2, 2, 1, 1, 1, 2, 1, 2, 1, 2]);
next = array1d(1..10 ,[10, 8, 9, 5, 7, 2, 3, 1, 6, 4]);
makespan = 790;
----------
assign = array1d(1..10 ,[2, 2, 1, 1, 1, 2, 1, 2, 1, 2]);
next = array1d(1..10 ,[6, 1, 9, 5, 7, 8, 3, 10, 2, 4]);
makespan = 789;
----------
assign = array1d(1..10 ,[2, 2, 1, 1, 1, 2, 1, 2, 1, 2]);
next = array1d(1..10 ,[10, 1, 9, 5, 7, 2, 3, 6, 8, 4]);
makespan = 788;
----------
assign = array1d(1..10 ,[1, 2, 2, 2, 1, 1, 1, 2, 1, 2]);
next = array1d(1..10 ,[7, 8, 10, 3, 1, 5, 9, 4, 2, 6]);
makespan = 787;
----------
assign = array1d(1..10 ,[1, 2, 1, 1, 2, 2, 1, 2, 1, 2]);
next = array1d(1..10 ,[9, 6, 1, 7, 2, 8, 3, 10, 5, 4]);
makespan = 786;
----------
assign = array1d(1..10 ,[1, 2, 1, 1, 2, 2, 1, 2, 1, 2]);
next = array1d(1..10 ,[9, 6, 7, 1, 2, 8, 4, 10, 5, 3]);
makespan = 785;
----------
assign = array1d(1..10 ,[2, 1, 1, 1, 2, 1, 2, 2, 1, 2]);
next = array1d(1..10 ,[5, 4, 6, 9, 8, 2, 10, 7, 1, 3]);
makespan = 783;
----------
assign = array1d(1..10 ,[2, 1, 2, 1, 2, 1, 1, 2, 1, 2]);
next = array1d(1..10 ,[5, 4, 10, 7, 3, 2, 9, 1, 8, 6]);
makespan = 782;
----------
assign = array1d(1..10 ,[1, 1, 2, 1, 2, 2, 1, 2, 1, 2]);
next = array1d(1..10 ,[7, 4, 10, 1, 3, 5, 9, 6, 8, 2]);
makespan = 781;
----------
assign = array1d(1..10 ,[1, 2, 1, 2, 1, 2, 2, 1, 1, 2]);
next = array1d(1..10 ,[8, 4, 5, 7, 1, 2, 10, 9, 6, 3]);
makespan = 780;
----------
assign = array1d(1..10 ,[2, 1, 1, 1, 2, 2, 1, 2, 1, 2]);
next = array1d(1..10 ,[10, 9, 2, 3, 8, 5, 4, 1, 6, 7]);
makespan = 779;
----------
assign = array1d(1..10 ,[2, 1, 2, 1, 2, 2, 1, 1, 1, 2]);
next = array1d(1..10 ,[10, 8, 1, 7, 3, 5, 9, 4, 6, 2]);
makespan = 778;
----------
assign = array1d(1..10 ,[2, 1, 2, 1, 2, 2, 1, 1, 1, 2]);
next = array1d(1..10 ,[10, 8, 1, 7, 3, 5, 9, 4, 6, 2]);
makespan = 777;
----------
assign = array1d(1..10 ,[2, 2, 1, 2, 1, 1, 1, 2, 1, 2]);
next = array1d(1..10 ,[10, 4, 6, 8, 7, 5, 9, 1, 2, 3]);
makespan = 776;
----------
assign = array1d(1..10 ,[1, 2, 1, 2, 1, 2, 1, 2, 1, 2]);
next = array1d(1..10 ,[7, 6, 5, 8, 1, 10, 9, 2, 4, 3]);
makespan = 775;
----------
assign = array1d(1..10 ,[1, 1, 1, 1, 2, 2, 2, 2, 1, 2]);
next = array1d(1..10 ,[9, 4, 2, 1, 10, 8, 5, 7, 6, 3]);
makespan = 774;
----------
assign = array1d(1..10 ,[1, 2, 2, 2, 1, 1, 1, 2, 1, 2]);
next = array1d(1..10 ,[7, 3, 10, 2, 1, 5, 9, 4, 8, 6]);
makespan = 773;
----------
assign = array1d(1..10 ,[2, 1, 1, 1, 2, 2, 1, 2, 1, 2]);
next = array1d(1..10 ,[5, 3, 7, 9, 10, 8, 4, 1, 6, 2]);
makespan = 772;
----------
assign = array1d(1..10 ,[2, 1, 1, 1, 2, 2, 1, 2, 1, 2]);
next = array1d(1..10 ,[5, 4, 7, 3, 10, 8, 9, 1, 6, 2]);
makespan = 771;
----------
assign = array1d(1..10 ,[1, 2, 1, 2, 1, 2, 1, 2, 1, 2]);
next = array1d(1..10 ,[7, 8, 5, 10, 1, 2, 9, 4, 6, 3]);
makespan = 770;
----------
assign = array1d(1..10 ,[1, 2, 1, 2, 1, 2, 1, 2, 1, 2]);
next = array1d(1..10 ,[7, 8, 5, 10, 1, 2, 9, 4, 6, 3]);
makespan = 769;
----------
assign = array1d(1..10 ,[2, 1, 1, 1, 2, 2, 1, 2, 1, 2]);
next = array1d(1..10 ,[5, 9, 2, 3, 10, 8, 4, 1, 6, 7]);
makespan = 768;
----------
assign = array1d(1..10 ,[2, 1, 1, 1, 2, 2, 1, 2, 1, 2]);
next = array1d(1..10 ,[5, 9, 2, 3, 10, 8, 4, 1, 6, 7]);
makespan = 767;
----------
assign = array1d(1..10 ,[2, 1, 1, 1, 2, 2, 1, 2, 1, 2]);
next = array1d(1..10 ,[5, 4, 2, 7, 10, 8, 9, 1, 6, 3]);
makespan = 766;
----------
assign = array1d(1..10 ,[1, 2, 1, 2, 1, 2, 1, 2, 1, 2]);
next = array1d(1..10 ,[7, 8, 5, 10, 1, 2, 9, 4, 6, 3]);
makespan = 765;
----------
assign = array1d(1..10 ,[1, 2, 1, 2, 1, 2, 1, 2, 1, 2]);
next = array1d(1..10 ,[7, 8, 5, 10, 1, 2, 9, 4, 6, 3]);
makespan = 764;
----------
assign = array1d(1..10 ,[2, 1, 1, 1, 2, 2, 1, 2, 1, 2]);
next = array1d(1..10 ,[5, 4, 2, 7, 10, 8, 9, 1, 6, 3]);
makespan = 763;
----------
assign = array1d(1..10 ,[1, 2, 1, 2, 1, 2, 1, 2, 1, 2]);
next = array1d(1..10 ,[7, 4, 5, 8, 1, 2, 9, 10, 6, 3]);
makespan = 762;
----------
assign = array1d(1..10 ,[1, 2, 1, 2, 1, 2, 1, 2, 1, 2]);
next = array1d(1..10 ,[7, 4, 5, 8, 1, 2, 9, 10, 6, 3]);
makespan = 761;
----------
assign = array1d(1..10 ,[1, 2, 1, 2, 1, 2, 1, 2, 1, 2]);
next = array1d(1..10 ,[7, 4, 5, 8, 1, 2, 9, 10, 6, 3]);
makespan = 760;
----------
assign = array1d(1..10 ,[1, 2, 1, 2, 1, 2, 1, 2, 1, 2]);
next = array1d(1..10 ,[7, 4, 5, 8, 1, 2, 9, 10, 6, 3]);
makespan = 759;
----------
assign = array1d(1..10 ,[1, 2, 1, 2, 1, 2, 1, 2, 1, 2]);
next = array1d(1..10 ,[7, 4, 5, 8, 1, 2, 9, 10, 6, 3]);
makespan = 758;
----------
assign = array1d(1..10 ,[1, 2, 1, 2, 1, 2, 1, 2, 1, 2]);
next = array1d(1..10 ,[7, 4, 5, 8, 1, 2, 9, 10, 6, 3]);
makespan = 757;
----------
assign = array1d(1..10 ,[1, 2, 1, 2, 1, 2, 1, 2, 1, 2]);
next = array1d(1..10 ,[7, 4, 5, 8, 1, 2, 9, 10, 6, 3]);
makespan = 756;
----------
assign = array1d(1..10 ,[1, 2, 1, 2, 1, 2, 1, 2, 1, 2]);
next = array1d(1..10 ,[7, 4, 5, 8, 1, 2, 9, 10, 6, 3]);
makespan = 755;
----------
assign = array1d(1..10 ,[1, 2, 1, 2, 1, 2, 1, 2, 1, 2]);
next = array1d(1..10 ,[7, 4, 5, 8, 1, 2, 9, 10, 6, 3]);
makespan = 754;
----------
assign = array1d(1..10 ,[1, 2, 1, 2, 1, 2, 1, 2, 1, 2]);
next = array1d(1..10 ,[7, 4, 5, 8, 1, 2, 9, 10, 6, 3]);
makespan = 753;
----------
==========
	Command being timed: "mzn-chuffed lbbd-datasets/Rabadi-2006/dzn-p-dominant/model.mzn lbbd-datasets/Rabadi-2006/dzn-p-dominant/8on2Rp50Rs50_13Ameer.dzn"
	User time (seconds): 0.32
	System time (seconds): 0.00
	Percent of CPU this job got: 8%
	Elapsed (wall clock) time (h:mm:ss or m:ss): 0:04.05
	Average shared text size (kbytes): 0
	Average unshared data size (kbytes): 0
	Average stack size (kbytes): 0
	Average total size (kbytes): 0
	Maximum resident set size (kbytes): 32352
	Average resident set size (kbytes): 0
	Major (requiring I/O) page faults: 0
	Minor (reclaiming a frame) page faults: 2869
	Voluntary context switches: 237
	Involuntary context switches: 2
	Swaps: 0
	File system inputs: 0
	File system outputs: 216
	Socket messages sent: 0
	Socket messages received: 0
	Signals delivered: 0
	Page size (bytes): 4096
	Exit status: 0
