+ /usr/bin/timeout 600 /usr/bin/time -v mzn-chuffed lbbd-datasets/planningandscheduling/cost-insts/model.mzn lbbd-datasets/planningandscheduling/cost-insts/c10j3m1.dzn
% No search annotation given. Defaulting to VSIDS!
obj = 416
----------
obj = 415
----------
obj = 396
----------
obj = 380
----------
obj = 379
----------
obj = 377
----------
obj = 374
----------
obj = 358
----------
obj = 352
----------
obj = 350
----------
obj = 335
----------
obj = 334
----------
obj = 332
----------
obj = 315
----------
obj = 311
----------
obj = 297
----------
obj = 295
----------
obj = 292
----------
obj = 290
----------
obj = 281
----------
obj = 274
----------
obj = 272
----------
==========
	Command being timed: "mzn-chuffed lbbd-datasets/planningandscheduling/cost-insts/model.mzn lbbd-datasets/planningandscheduling/cost-insts/c10j3m1.dzn"
	User time (seconds): 0.14
	System time (seconds): 0.00
	Percent of CPU this job got: 84%
	Elapsed (wall clock) time (h:mm:ss or m:ss): 0:00.17
	Average shared text size (kbytes): 0
	Average unshared data size (kbytes): 0
	Average stack size (kbytes): 0
	Average total size (kbytes): 0
	Maximum resident set size (kbytes): 23680
	Average resident set size (kbytes): 0
	Major (requiring I/O) page faults: 0
	Minor (reclaiming a frame) page faults: 2080
	Voluntary context switches: 28
	Involuntary context switches: 2
	Swaps: 0
	File system inputs: 0
	File system outputs: 48
	Socket messages sent: 0
	Socket messages received: 0
	Signals delivered: 0
	Page size (bytes): 4096
	Exit status: 0
