+ /usr/bin/timeout 600 /usr/bin/time -v mzn-chuffed lbbd-datasets/planningandscheduling/cost-insts/model.mzn lbbd-datasets/planningandscheduling/cost-insts/c24j4m2.dzn
% No search annotation given. Defaulting to VSIDS!
obj = 1314
----------
obj = 1266
----------
obj = 1259
----------
obj = 1213
----------
obj = 1202
----------
obj = 1174
----------
obj = 1172
----------
obj = 1161
----------
obj = 1159
----------
obj = 1152
----------
obj = 1150
----------
obj = 1120
----------
obj = 1118
----------
obj = 1116
----------
obj = 1114
----------
obj = 1111
----------
obj = 1109
----------
obj = 1103
----------
obj = 1078
----------
obj = 1076
----------
obj = 1073
----------
obj = 1071
----------
obj = 1065
----------
obj = 1063
----------
obj = 1049
----------
obj = 1047
----------
obj = 1032
----------
obj = 1030
----------
obj = 1021
----------
obj = 1020
----------
obj = 1009
----------
obj = 1008
----------
obj = 991
----------
obj = 975
----------
obj = 947
----------
obj = 946
----------
obj = 918
----------
obj = 916
----------
obj = 907
----------
obj = 896
----------
obj = 892
----------
obj = 861
----------
obj = 842
----------
obj = 840
----------
obj = 805
----------
obj = 792
----------
obj = 780
----------
obj = 771
----------
obj = 757
----------
obj = 750
----------
obj = 746
----------
obj = 734
----------
obj = 732
----------
obj = 729
----------
obj = 726
----------
obj = 723
----------
obj = 709
----------
obj = 702
----------
obj = 688
----------
obj = 687
----------
obj = 686
----------
obj = 677
----------
obj = 671
----------
obj = 667
----------
obj = 665
----------
obj = 663
----------
obj = 658
----------
obj = 652
----------
obj = 643
----------
obj = 637
----------
obj = 634
----------
obj = 632
----------
==========
	Command being timed: "mzn-chuffed lbbd-datasets/planningandscheduling/cost-insts/model.mzn lbbd-datasets/planningandscheduling/cost-insts/c24j4m2.dzn"
	User time (seconds): 0.30
	System time (seconds): 0.00
	Percent of CPU this job got: 4%
	Elapsed (wall clock) time (h:mm:ss or m:ss): 0:06.86
	Average shared text size (kbytes): 0
	Average unshared data size (kbytes): 0
	Average stack size (kbytes): 0
	Average total size (kbytes): 0
	Maximum resident set size (kbytes): 30256
	Average resident set size (kbytes): 0
	Major (requiring I/O) page faults: 0
	Minor (reclaiming a frame) page faults: 2637
	Voluntary context switches: 78
	Involuntary context switches: 3
	Swaps: 0
	File system inputs: 0
	File system outputs: 144
	Socket messages sent: 0
	Socket messages received: 0
	Signals delivered: 0
	Page size (bytes): 4096
	Exit status: 0
