+ /usr/bin/timeout 600 /usr/bin/time -v mzn-chuffed lbbd-datasets/Rabadi-2006/dzn-p-dominant/model.mzn lbbd-datasets/Rabadi-2006/dzn-p-dominant/11on6Rp50Rs50_14Ameer.dzn
% No search annotation given. Defaulting to VSIDS!
assign = array1d(1..17 ,[6, 6, 6, 6, 6, 6, 6, 6, 6, 6, 6, 1, 2, 3, 4, 5, 6]);
next = array1d(1..17 ,[2, 3, 4, 5, 6, 7, 8, 9, 10, 11, 17, 13, 14, 15, 16, 1, 12]);
makespan = 2449;
----------
assign = array1d(1..17 ,[6, 6, 6, 6, 6, 6, 6, 6, 6, 6, 6, 1, 2, 3, 4, 5, 6]);
next = array1d(1..17 ,[4, 5, 2, 3, 6, 7, 8, 9, 10, 11, 17, 13, 14, 15, 16, 1, 12]);
makespan = 2447;
----------
assign = array1d(1..17 ,[2, 5, 4, 5, 6, 6, 6, 6, 6, 6, 6, 1, 2, 3, 4, 5, 6]);
next = array1d(1..17 ,[13, 16, 15, 2, 6, 7, 8, 9, 10, 11, 17, 1, 14, 3, 4, 5, 12]);
makespan = 2239;
----------
