+ /usr/bin/timeout 600 /usr/bin/time -v mzn-chuffed lbbd-datasets/Rabadi-2006/dzn-p-dominant/model.mzn lbbd-datasets/Rabadi-2006/dzn-p-dominant/10on8Rp50Rs50_13Ameer.dzn
% No search annotation given. Defaulting to VSIDS!
assign = array1d(1..18 ,[8, 8, 8, 8, 8, 8, 8, 8, 8, 8, 1, 2, 3, 4, 5, 6, 7, 8]);
next = array1d(1..18 ,[2, 3, 4, 5, 6, 7, 8, 9, 10, 18, 12, 13, 14, 15, 16, 17, 1, 11]);
makespan = 2194;
----------
assign = array1d(1..18 ,[8, 8, 8, 8, 8, 8, 8, 8, 8, 8, 1, 2, 3, 4, 5, 6, 7, 8]);
next = array1d(1..18 ,[3, 4, 2, 5, 6, 7, 8, 9, 10, 18, 12, 13, 14, 15, 16, 17, 1, 11]);
makespan = 2152;
----------
assign = array1d(1..18 ,[8, 7, 8, 8, 8, 8, 8, 8, 8, 8, 1, 2, 3, 4, 5, 6, 7, 8]);
next = array1d(1..18 ,[4, 17, 8, 18, 6, 7, 10, 9, 1, 3, 12, 13, 14, 15, 16, 2, 5, 11]);
makespan = 2051;
----------
assign = array1d(1..18 ,[8, 8, 8, 8, 8, 8, 8, 8, 7, 8, 1, 2, 3, 4, 5, 6, 7, 8]);
next = array1d(1..18 ,[10, 3, 7, 2, 6, 1, 18, 4, 17, 8, 12, 13, 14, 15, 16, 9, 5, 11]);
makespan = 2048;
----------
assign = array1d(1..18 ,[8, 8, 8, 7, 8, 8, 8, 8, 8, 8, 1, 2, 3, 4, 5, 6, 7, 8]);
next = array1d(1..18 ,[7, 6, 2, 17, 9, 8, 18, 10, 3, 1, 12, 13, 14, 15, 16, 4, 5, 11]);
makespan = 2046;
----------
assign = array1d(1..18 ,[8, 8, 8, 5, 8, 8, 8, 8, 8, 8, 1, 2, 3, 4, 5, 6, 7, 8]);
next = array1d(1..18 ,[7, 6, 2, 15, 8, 18, 9, 10, 3, 1, 12, 13, 14, 4, 16, 17, 5, 11]);
makespan = 2041;
----------
assign = array1d(1..18 ,[8, 8, 8, 6, 8, 8, 8, 8, 8, 8, 1, 2, 3, 4, 5, 6, 7, 8]);
next = array1d(1..18 ,[18, 7, 2, 16, 9, 8, 6, 10, 3, 1, 12, 13, 14, 15, 4, 17, 5, 11]);
makespan = 2039;
----------
assign = array1d(1..18 ,[8, 8, 8, 8, 8, 8, 8, 8, 8, 1, 1, 2, 3, 4, 5, 6, 7, 8]);
next = array1d(1..18 ,[18, 6, 8, 2, 4, 1, 9, 7, 5, 11, 12, 13, 14, 15, 16, 17, 3, 10]);
makespan = 2031;
----------
assign = array1d(1..18 ,[8, 8, 8, 1, 8, 8, 8, 8, 8, 8, 1, 2, 3, 4, 5, 6, 7, 8]);
next = array1d(1..18 ,[7, 1, 9, 11, 8, 10, 6, 2, 18, 3, 12, 13, 14, 15, 16, 17, 5, 4]);
makespan = 2030;
----------
assign = array1d(1..18 ,[8, 8, 8, 1, 8, 8, 8, 8, 8, 8, 1, 2, 3, 4, 5, 6, 7, 8]);
next = array1d(1..18 ,[7, 1, 9, 11, 8, 2, 5, 10, 6, 18, 12, 13, 14, 15, 16, 17, 3, 4]);
makespan = 2028;
----------
assign = array1d(1..18 ,[8, 8, 8, 1, 8, 8, 8, 8, 8, 8, 1, 2, 3, 4, 5, 6, 7, 8]);
next = array1d(1..18 ,[7, 1, 9, 11, 8, 3, 6, 10, 18, 2, 12, 13, 14, 15, 16, 17, 5, 4]);
makespan = 2024;
----------
assign = array1d(1..18 ,[8, 8, 8, 1, 8, 8, 8, 8, 8, 8, 1, 2, 3, 4, 5, 6, 7, 8]);
next = array1d(1..18 ,[7, 18, 9, 11, 1, 2, 8, 10, 6, 3, 12, 13, 14, 15, 16, 17, 5, 4]);
makespan = 2023;
----------
assign = array1d(1..18 ,[8, 8, 8, 1, 8, 8, 8, 8, 8, 8, 1, 2, 3, 4, 5, 6, 7, 8]);
next = array1d(1..18 ,[7, 1, 9, 11, 8, 3, 18, 10, 5, 2, 12, 13, 14, 15, 16, 17, 6, 4]);
makespan = 2022;
----------
assign = array1d(1..18 ,[8, 8, 8, 1, 8, 8, 8, 8, 8, 8, 1, 2, 3, 4, 5, 6, 7, 8]);
next = array1d(1..18 ,[7, 1, 9, 11, 8, 3, 18, 10, 5, 2, 12, 13, 14, 15, 16, 17, 6, 4]);
makespan = 2019;
----------
assign = array1d(1..18 ,[8, 8, 8, 1, 8, 8, 8, 8, 8, 8, 1, 2, 3, 4, 5, 6, 7, 8]);
next = array1d(1..18 ,[7, 1, 9, 11, 8, 3, 18, 10, 5, 2, 12, 13, 14, 15, 16, 17, 6, 4]);
makespan = 2016;
----------
assign = array1d(1..18 ,[8, 8, 8, 1, 8, 8, 8, 8, 8, 8, 1, 2, 3, 4, 5, 6, 7, 8]);
next = array1d(1..18 ,[7, 1, 9, 11, 8, 3, 18, 10, 5, 2, 12, 13, 14, 15, 16, 17, 6, 4]);
makespan = 2015;
----------
assign = array1d(1..18 ,[8, 8, 8, 1, 8, 8, 8, 8, 8, 8, 1, 2, 3, 4, 5, 6, 7, 8]);
next = array1d(1..18 ,[7, 1, 9, 11, 8, 3, 5, 10, 18, 6, 12, 13, 14, 15, 16, 17, 2, 4]);
makespan = 2011;
----------
assign = array1d(1..18 ,[8, 8, 8, 1, 8, 8, 8, 8, 8, 8, 1, 2, 3, 4, 5, 6, 7, 8]);
next = array1d(1..18 ,[7, 1, 9, 11, 8, 3, 5, 10, 18, 6, 12, 13, 14, 15, 16, 17, 2, 4]);
makespan = 2010;
----------
assign = array1d(1..18 ,[8, 8, 8, 1, 8, 8, 8, 8, 8, 8, 1, 2, 3, 4, 5, 6, 7, 8]);
next = array1d(1..18 ,[7, 1, 9, 11, 8, 3, 5, 10, 18, 6, 12, 13, 14, 15, 16, 17, 2, 4]);
makespan = 2006;
----------
assign = array1d(1..18 ,[8, 8, 8, 1, 8, 8, 8, 8, 8, 8, 1, 2, 3, 4, 5, 6, 7, 8]);
next = array1d(1..18 ,[7, 1, 9, 11, 8, 3, 5, 10, 18, 6, 12, 13, 14, 15, 16, 17, 2, 4]);
makespan = 2005;
----------
assign = array1d(1..18 ,[8, 8, 8, 1, 8, 8, 8, 8, 8, 8, 1, 2, 3, 4, 5, 6, 7, 8]);
next = array1d(1..18 ,[7, 1, 9, 11, 8, 3, 5, 10, 18, 6, 12, 13, 14, 15, 16, 17, 2, 4]);
makespan = 1999;
----------
assign = array1d(1..18 ,[8, 8, 8, 1, 8, 8, 8, 8, 8, 8, 1, 2, 3, 4, 5, 6, 7, 8]);
next = array1d(1..18 ,[7, 1, 9, 11, 8, 3, 5, 10, 2, 18, 12, 13, 14, 15, 16, 17, 6, 4]);
makespan = 1991;
----------
assign = array1d(1..18 ,[8, 8, 8, 1, 8, 8, 8, 8, 8, 8, 1, 2, 3, 4, 5, 6, 7, 8]);
next = array1d(1..18 ,[7, 1, 9, 11, 8, 3, 5, 10, 2, 18, 12, 13, 14, 15, 16, 17, 6, 4]);
makespan = 1989;
----------
assign = array1d(1..18 ,[8, 8, 8, 1, 8, 8, 8, 8, 8, 8, 1, 2, 3, 4, 5, 6, 7, 8]);
next = array1d(1..18 ,[6, 1, 9, 11, 8, 3, 18, 10, 7, 2, 12, 13, 14, 15, 16, 17, 5, 4]);
makespan = 1988;
----------
assign = array1d(1..18 ,[8, 8, 8, 1, 8, 8, 8, 8, 8, 8, 1, 2, 3, 4, 5, 6, 7, 8]);
next = array1d(1..18 ,[6, 1, 9, 11, 8, 3, 5, 10, 18, 2, 12, 13, 14, 15, 16, 17, 7, 4]);
makespan = 1984;
----------
assign = array1d(1..18 ,[8, 8, 8, 1, 8, 8, 8, 8, 8, 8, 1, 2, 3, 4, 5, 6, 7, 8]);
next = array1d(1..18 ,[6, 1, 9, 11, 8, 3, 5, 10, 18, 2, 12, 13, 14, 15, 16, 17, 7, 4]);
makespan = 1975;
----------
assign = array1d(1..18 ,[8, 8, 8, 1, 8, 8, 8, 8, 8, 8, 1, 2, 3, 4, 5, 6, 7, 8]);
next = array1d(1..18 ,[6, 1, 9, 11, 8, 3, 5, 10, 18, 2, 12, 13, 14, 15, 16, 17, 7, 4]);
makespan = 1968;
----------
assign = array1d(1..18 ,[8, 8, 8, 1, 8, 8, 8, 8, 8, 8, 1, 2, 3, 4, 5, 6, 7, 8]);
next = array1d(1..18 ,[6, 1, 9, 11, 8, 3, 5, 10, 18, 2, 12, 13, 14, 15, 16, 17, 7, 4]);
makespan = 1959;
----------
assign = array1d(1..18 ,[8, 8, 8, 7, 8, 8, 1, 8, 8, 8, 1, 2, 3, 4, 5, 6, 7, 8]);
next = array1d(1..18 ,[6, 1, 9, 17, 8, 3, 11, 10, 18, 2, 12, 13, 14, 15, 16, 4, 5, 7]);
makespan = 1918;
----------
assign = array1d(1..18 ,[8, 8, 8, 7, 8, 8, 1, 8, 8, 8, 1, 2, 3, 4, 5, 6, 7, 8]);
next = array1d(1..18 ,[6, 1, 9, 17, 8, 3, 11, 10, 18, 2, 12, 13, 14, 15, 16, 4, 5, 7]);
makespan = 1904;
----------
assign = array1d(1..18 ,[8, 8, 8, 7, 8, 8, 1, 8, 8, 8, 1, 2, 3, 4, 5, 6, 7, 8]);
next = array1d(1..18 ,[6, 1, 9, 17, 8, 3, 11, 10, 18, 2, 12, 13, 14, 15, 16, 4, 5, 7]);
makespan = 1894;
----------
assign = array1d(1..18 ,[8, 8, 8, 7, 8, 8, 1, 8, 8, 8, 1, 2, 3, 4, 5, 6, 7, 8]);
next = array1d(1..18 ,[6, 1, 9, 17, 8, 3, 11, 10, 18, 2, 12, 13, 14, 15, 16, 4, 5, 7]);
makespan = 1881;
----------
assign = array1d(1..18 ,[8, 8, 8, 7, 8, 8, 1, 8, 8, 8, 1, 2, 3, 4, 5, 6, 7, 8]);
next = array1d(1..18 ,[6, 1, 9, 17, 8, 3, 11, 10, 18, 2, 12, 13, 14, 15, 16, 4, 5, 7]);
makespan = 1870;
----------
assign = array1d(1..18 ,[8, 8, 8, 7, 8, 8, 1, 8, 8, 8, 1, 2, 3, 4, 5, 6, 7, 8]);
next = array1d(1..18 ,[6, 1, 9, 17, 8, 3, 11, 10, 18, 2, 12, 13, 14, 15, 16, 4, 5, 7]);
makespan = 1861;
----------
assign = array1d(1..18 ,[8, 8, 8, 7, 8, 8, 1, 8, 8, 8, 1, 2, 3, 4, 5, 6, 7, 8]);
next = array1d(1..18 ,[6, 1, 9, 17, 8, 3, 11, 10, 18, 2, 12, 13, 14, 15, 16, 4, 5, 7]);
makespan = 1858;
----------
assign = array1d(1..18 ,[8, 8, 8, 7, 8, 8, 1, 8, 8, 8, 1, 2, 3, 4, 5, 6, 7, 8]);
next = array1d(1..18 ,[6, 1, 9, 17, 8, 3, 11, 10, 18, 2, 12, 13, 14, 15, 16, 4, 5, 7]);
makespan = 1854;
----------
assign = array1d(1..18 ,[8, 8, 8, 7, 8, 8, 1, 8, 8, 8, 1, 2, 3, 4, 5, 6, 7, 8]);
next = array1d(1..18 ,[6, 1, 9, 17, 8, 3, 11, 10, 18, 2, 12, 13, 14, 15, 16, 4, 5, 7]);
makespan = 1850;
----------
assign = array1d(1..18 ,[8, 8, 8, 7, 8, 8, 1, 8, 8, 8, 1, 2, 3, 4, 5, 6, 7, 8]);
next = array1d(1..18 ,[6, 1, 9, 17, 8, 3, 11, 10, 18, 2, 12, 13, 14, 15, 16, 4, 5, 7]);
makespan = 1845;
----------
assign = array1d(1..18 ,[8, 8, 8, 7, 8, 8, 1, 8, 8, 8, 1, 2, 3, 4, 5, 6, 7, 8]);
next = array1d(1..18 ,[6, 1, 9, 17, 8, 3, 11, 10, 18, 2, 12, 13, 14, 15, 16, 4, 5, 7]);
makespan = 1843;
----------
assign = array1d(1..18 ,[8, 8, 8, 7, 8, 8, 1, 8, 8, 8, 1, 2, 3, 4, 5, 6, 7, 8]);
next = array1d(1..18 ,[6, 1, 9, 17, 8, 3, 11, 10, 18, 2, 12, 13, 14, 15, 16, 4, 5, 7]);
makespan = 1836;
----------
assign = array1d(1..18 ,[8, 8, 8, 7, 8, 8, 1, 8, 8, 8, 1, 2, 3, 4, 5, 6, 7, 8]);
next = array1d(1..18 ,[6, 1, 9, 17, 8, 3, 11, 10, 18, 2, 12, 13, 14, 15, 16, 4, 5, 7]);
makespan = 1823;
----------
assign = array1d(1..18 ,[8, 8, 8, 7, 8, 8, 1, 8, 8, 8, 1, 2, 3, 4, 5, 6, 7, 8]);
next = array1d(1..18 ,[6, 1, 9, 17, 8, 3, 11, 10, 18, 2, 12, 13, 14, 15, 16, 4, 5, 7]);
makespan = 1818;
----------
assign = array1d(1..18 ,[8, 8, 8, 7, 8, 8, 1, 8, 8, 8, 1, 2, 3, 4, 5, 6, 7, 8]);
next = array1d(1..18 ,[6, 1, 9, 17, 8, 3, 11, 10, 18, 2, 12, 13, 14, 15, 16, 4, 5, 7]);
makespan = 1791;
----------
assign = array1d(1..18 ,[8, 8, 8, 7, 8, 8, 1, 8, 8, 8, 1, 2, 3, 4, 5, 6, 7, 8]);
next = array1d(1..18 ,[6, 1, 9, 17, 8, 3, 11, 10, 18, 2, 12, 13, 14, 15, 16, 4, 5, 7]);
makespan = 1788;
----------
assign = array1d(1..18 ,[8, 8, 8, 7, 8, 8, 1, 8, 8, 8, 1, 2, 3, 4, 5, 6, 7, 8]);
next = array1d(1..18 ,[6, 1, 9, 17, 8, 3, 11, 10, 18, 2, 12, 13, 14, 15, 16, 4, 5, 7]);
makespan = 1764;
----------
assign = array1d(1..18 ,[8, 8, 8, 7, 8, 8, 1, 8, 8, 8, 1, 2, 3, 4, 5, 6, 7, 8]);
next = array1d(1..18 ,[6, 1, 9, 17, 8, 3, 11, 10, 18, 2, 12, 13, 14, 15, 16, 4, 5, 7]);
makespan = 1757;
----------
assign = array1d(1..18 ,[8, 8, 8, 7, 8, 8, 1, 8, 8, 8, 1, 2, 3, 4, 5, 6, 7, 8]);
next = array1d(1..18 ,[5, 1, 9, 17, 6, 3, 11, 10, 18, 2, 12, 13, 14, 15, 16, 4, 8, 7]);
makespan = 1748;
----------
assign = array1d(1..18 ,[8, 1, 8, 7, 8, 8, 7, 8, 8, 8, 1, 2, 3, 4, 5, 6, 7, 8]);
next = array1d(1..18 ,[5, 11, 9, 7, 8, 3, 17, 10, 1, 18, 12, 13, 14, 15, 16, 4, 6, 2]);
makespan = 1744;
----------
assign = array1d(1..18 ,[8, 1, 8, 7, 8, 8, 7, 8, 8, 8, 1, 2, 3, 4, 5, 6, 7, 8]);
next = array1d(1..18 ,[5, 11, 9, 7, 8, 3, 17, 10, 1, 18, 12, 13, 14, 15, 16, 4, 6, 2]);
makespan = 1721;
----------
assign = array1d(1..18 ,[8, 1, 8, 7, 8, 8, 7, 8, 8, 8, 1, 2, 3, 4, 5, 6, 7, 8]);
next = array1d(1..18 ,[5, 11, 9, 7, 8, 3, 17, 10, 1, 18, 12, 13, 14, 15, 16, 4, 6, 2]);
makespan = 1720;
----------
assign = array1d(1..18 ,[8, 1, 8, 7, 8, 8, 7, 8, 8, 8, 1, 2, 3, 4, 5, 6, 7, 8]);
next = array1d(1..18 ,[5, 11, 9, 7, 8, 3, 17, 10, 1, 18, 12, 13, 14, 15, 16, 4, 6, 2]);
makespan = 1717;
----------
assign = array1d(1..18 ,[8, 1, 8, 7, 8, 8, 7, 8, 8, 8, 1, 2, 3, 4, 5, 6, 7, 8]);
next = array1d(1..18 ,[5, 11, 9, 7, 8, 3, 17, 10, 1, 18, 12, 13, 14, 15, 16, 4, 6, 2]);
makespan = 1713;
----------
assign = array1d(1..18 ,[8, 1, 8, 7, 8, 8, 7, 8, 8, 8, 1, 2, 3, 4, 5, 6, 7, 8]);
next = array1d(1..18 ,[5, 11, 9, 7, 8, 3, 17, 10, 1, 18, 12, 13, 14, 15, 16, 4, 6, 2]);
makespan = 1712;
----------
assign = array1d(1..18 ,[8, 1, 8, 7, 8, 8, 7, 8, 8, 8, 1, 2, 3, 4, 5, 6, 7, 8]);
next = array1d(1..18 ,[5, 11, 9, 7, 8, 3, 17, 10, 1, 18, 12, 13, 14, 15, 16, 4, 6, 2]);
makespan = 1710;
----------
assign = array1d(1..18 ,[8, 1, 8, 7, 8, 8, 7, 8, 8, 8, 1, 2, 3, 4, 5, 6, 7, 8]);
next = array1d(1..18 ,[5, 11, 9, 7, 8, 3, 17, 10, 1, 18, 12, 13, 14, 15, 16, 4, 6, 2]);
makespan = 1704;
----------
assign = array1d(1..18 ,[8, 1, 8, 7, 8, 8, 7, 8, 8, 8, 1, 2, 3, 4, 5, 6, 7, 8]);
next = array1d(1..18 ,[5, 11, 9, 7, 8, 3, 17, 10, 1, 18, 12, 13, 14, 15, 16, 4, 6, 2]);
makespan = 1697;
----------
assign = array1d(1..18 ,[8, 1, 8, 7, 8, 8, 7, 8, 8, 8, 1, 2, 3, 4, 5, 6, 7, 8]);
next = array1d(1..18 ,[5, 11, 9, 7, 8, 3, 17, 10, 1, 18, 12, 13, 14, 15, 16, 4, 6, 2]);
makespan = 1696;
----------
assign = array1d(1..18 ,[8, 1, 8, 7, 8, 8, 7, 8, 8, 8, 1, 2, 3, 4, 5, 6, 7, 8]);
next = array1d(1..18 ,[5, 11, 9, 7, 8, 3, 17, 10, 1, 18, 12, 13, 14, 15, 16, 4, 6, 2]);
makespan = 1693;
----------
assign = array1d(1..18 ,[8, 1, 8, 7, 8, 8, 7, 8, 8, 8, 1, 2, 3, 4, 5, 6, 7, 8]);
next = array1d(1..18 ,[5, 11, 9, 7, 8, 3, 17, 10, 1, 18, 12, 13, 14, 15, 16, 4, 6, 2]);
makespan = 1690;
----------
assign = array1d(1..18 ,[8, 1, 8, 7, 8, 8, 7, 8, 8, 8, 1, 2, 3, 4, 5, 6, 7, 8]);
next = array1d(1..18 ,[5, 11, 9, 7, 8, 3, 17, 10, 1, 18, 12, 13, 14, 15, 16, 4, 6, 2]);
makespan = 1689;
----------
assign = array1d(1..18 ,[8, 1, 8, 7, 8, 8, 7, 8, 8, 8, 1, 2, 3, 4, 5, 6, 7, 8]);
next = array1d(1..18 ,[5, 11, 9, 7, 8, 3, 17, 10, 1, 18, 12, 13, 14, 15, 16, 4, 6, 2]);
makespan = 1682;
----------
assign = array1d(1..18 ,[8, 1, 8, 7, 8, 8, 7, 8, 8, 8, 1, 2, 3, 4, 5, 6, 7, 8]);
next = array1d(1..18 ,[5, 11, 9, 7, 8, 3, 17, 10, 1, 18, 12, 13, 14, 15, 16, 4, 6, 2]);
makespan = 1681;
----------
assign = array1d(1..18 ,[8, 1, 8, 7, 8, 8, 7, 8, 8, 8, 1, 2, 3, 4, 5, 6, 7, 8]);
next = array1d(1..18 ,[5, 11, 9, 7, 8, 3, 17, 10, 1, 18, 12, 13, 14, 15, 16, 4, 6, 2]);
makespan = 1678;
----------
assign = array1d(1..18 ,[8, 1, 8, 7, 8, 8, 7, 8, 8, 8, 1, 2, 3, 4, 5, 6, 7, 8]);
next = array1d(1..18 ,[5, 11, 9, 7, 8, 3, 17, 10, 1, 18, 12, 13, 14, 15, 16, 4, 6, 2]);
makespan = 1668;
----------
assign = array1d(1..18 ,[8, 1, 8, 7, 8, 8, 7, 8, 8, 8, 1, 2, 3, 4, 5, 6, 7, 8]);
next = array1d(1..18 ,[5, 11, 9, 7, 8, 3, 17, 10, 1, 18, 12, 13, 14, 15, 16, 4, 6, 2]);
makespan = 1662;
----------
assign = array1d(1..18 ,[8, 1, 8, 7, 8, 8, 7, 8, 8, 8, 1, 2, 3, 4, 5, 6, 7, 8]);
next = array1d(1..18 ,[5, 11, 9, 7, 8, 3, 17, 10, 1, 18, 12, 13, 14, 15, 16, 4, 6, 2]);
makespan = 1661;
----------
assign = array1d(1..18 ,[8, 1, 8, 7, 8, 8, 7, 8, 8, 8, 1, 2, 3, 4, 5, 6, 7, 8]);
next = array1d(1..18 ,[5, 11, 9, 7, 8, 3, 17, 10, 1, 18, 12, 13, 14, 15, 16, 4, 6, 2]);
makespan = 1655;
----------
assign = array1d(1..18 ,[8, 1, 8, 7, 8, 8, 7, 8, 8, 8, 1, 2, 3, 4, 5, 6, 7, 8]);
next = array1d(1..18 ,[5, 11, 9, 7, 8, 3, 17, 10, 1, 18, 12, 13, 14, 15, 16, 4, 6, 2]);
makespan = 1642;
----------
assign = array1d(1..18 ,[8, 1, 8, 7, 8, 8, 7, 8, 8, 8, 1, 2, 3, 4, 5, 6, 7, 8]);
next = array1d(1..18 ,[5, 11, 9, 7, 8, 3, 17, 10, 1, 18, 12, 13, 14, 15, 16, 4, 6, 2]);
makespan = 1600;
----------
assign = array1d(1..18 ,[8, 1, 8, 7, 8, 8, 7, 8, 8, 8, 1, 2, 3, 4, 5, 6, 7, 8]);
next = array1d(1..18 ,[5, 11, 9, 7, 8, 3, 17, 10, 1, 18, 12, 13, 14, 15, 16, 4, 6, 2]);
makespan = 1585;
----------
assign = array1d(1..18 ,[8, 1, 8, 7, 8, 8, 7, 8, 8, 8, 1, 2, 3, 4, 5, 6, 7, 8]);
next = array1d(1..18 ,[5, 11, 9, 7, 8, 3, 17, 10, 1, 18, 12, 13, 14, 15, 16, 4, 6, 2]);
makespan = 1571;
----------
assign = array1d(1..18 ,[8, 1, 8, 7, 8, 8, 7, 8, 8, 8, 1, 2, 3, 4, 5, 6, 7, 8]);
next = array1d(1..18 ,[5, 11, 9, 7, 8, 3, 17, 10, 1, 18, 12, 13, 14, 15, 16, 4, 6, 2]);
makespan = 1570;
----------
assign = array1d(1..18 ,[8, 1, 8, 7, 8, 8, 7, 8, 8, 8, 1, 2, 3, 4, 5, 6, 7, 8]);
next = array1d(1..18 ,[5, 11, 9, 7, 8, 3, 17, 10, 1, 18, 12, 13, 14, 15, 16, 4, 6, 2]);
makespan = 1567;
----------
assign = array1d(1..18 ,[8, 1, 8, 7, 8, 8, 7, 8, 8, 8, 1, 2, 3, 4, 5, 6, 7, 8]);
next = array1d(1..18 ,[5, 11, 9, 7, 8, 3, 17, 10, 1, 18, 12, 13, 14, 15, 16, 4, 6, 2]);
makespan = 1566;
----------
assign = array1d(1..18 ,[8, 1, 8, 7, 8, 8, 7, 8, 8, 8, 1, 2, 3, 4, 5, 6, 7, 8]);
next = array1d(1..18 ,[5, 11, 9, 7, 8, 3, 17, 10, 1, 18, 12, 13, 14, 15, 16, 4, 6, 2]);
makespan = 1563;
----------
assign = array1d(1..18 ,[8, 1, 8, 7, 8, 8, 7, 8, 8, 8, 1, 2, 3, 4, 5, 6, 7, 8]);
next = array1d(1..18 ,[5, 11, 9, 7, 8, 3, 17, 10, 1, 18, 12, 13, 14, 15, 16, 4, 6, 2]);
makespan = 1560;
----------
assign = array1d(1..18 ,[8, 1, 8, 7, 8, 8, 7, 8, 8, 8, 1, 2, 3, 4, 5, 6, 7, 8]);
next = array1d(1..18 ,[5, 11, 9, 7, 8, 3, 17, 10, 1, 18, 12, 13, 14, 15, 16, 4, 6, 2]);
makespan = 1548;
----------
assign = array1d(1..18 ,[8, 1, 8, 7, 8, 8, 7, 8, 8, 8, 1, 2, 3, 4, 5, 6, 7, 8]);
next = array1d(1..18 ,[5, 11, 9, 7, 8, 3, 17, 10, 1, 18, 12, 13, 14, 15, 16, 4, 6, 2]);
makespan = 1547;
----------
assign = array1d(1..18 ,[8, 1, 8, 7, 8, 8, 7, 8, 8, 8, 1, 2, 3, 4, 5, 6, 7, 8]);
next = array1d(1..18 ,[5, 11, 9, 7, 8, 3, 17, 10, 1, 18, 12, 13, 14, 15, 16, 4, 6, 2]);
makespan = 1545;
----------
assign = array1d(1..18 ,[8, 1, 8, 7, 8, 8, 7, 8, 8, 8, 1, 2, 3, 4, 5, 6, 7, 8]);
next = array1d(1..18 ,[5, 11, 9, 7, 8, 3, 17, 10, 1, 18, 12, 13, 14, 15, 16, 4, 6, 2]);
makespan = 1544;
----------
assign = array1d(1..18 ,[8, 1, 8, 7, 8, 8, 7, 8, 8, 8, 1, 2, 3, 4, 5, 6, 7, 8]);
next = array1d(1..18 ,[5, 11, 9, 7, 8, 3, 17, 10, 1, 18, 12, 13, 14, 15, 16, 4, 6, 2]);
makespan = 1542;
----------
assign = array1d(1..18 ,[8, 1, 8, 7, 8, 8, 7, 8, 8, 8, 1, 2, 3, 4, 5, 6, 7, 8]);
next = array1d(1..18 ,[5, 11, 9, 7, 8, 3, 17, 10, 1, 18, 12, 13, 14, 15, 16, 4, 6, 2]);
makespan = 1541;
----------
assign = array1d(1..18 ,[8, 1, 8, 7, 8, 8, 7, 8, 8, 8, 1, 2, 3, 4, 5, 6, 7, 8]);
next = array1d(1..18 ,[5, 11, 9, 7, 8, 3, 17, 10, 1, 18, 12, 13, 14, 15, 16, 4, 6, 2]);
makespan = 1538;
----------
assign = array1d(1..18 ,[8, 1, 8, 7, 8, 8, 7, 8, 8, 8, 1, 2, 3, 4, 5, 6, 7, 8]);
next = array1d(1..18 ,[5, 11, 9, 7, 8, 3, 17, 10, 1, 18, 12, 13, 14, 15, 16, 4, 6, 2]);
makespan = 1536;
----------
assign = array1d(1..18 ,[8, 1, 8, 7, 8, 8, 7, 8, 8, 8, 1, 2, 3, 4, 5, 6, 7, 8]);
next = array1d(1..18 ,[5, 11, 9, 7, 8, 3, 17, 10, 1, 18, 12, 13, 14, 15, 16, 4, 6, 2]);
makespan = 1535;
----------
assign = array1d(1..18 ,[8, 1, 8, 7, 8, 8, 7, 8, 8, 8, 1, 2, 3, 4, 5, 6, 7, 8]);
next = array1d(1..18 ,[5, 11, 9, 7, 8, 3, 17, 10, 1, 18, 12, 13, 14, 15, 16, 4, 6, 2]);
makespan = 1529;
----------
assign = array1d(1..18 ,[8, 1, 8, 7, 8, 8, 7, 8, 8, 8, 1, 2, 3, 4, 5, 6, 7, 8]);
next = array1d(1..18 ,[5, 11, 9, 7, 8, 3, 17, 10, 1, 18, 12, 13, 14, 15, 16, 4, 6, 2]);
makespan = 1528;
----------
assign = array1d(1..18 ,[7, 1, 8, 7, 8, 8, 7, 8, 8, 8, 1, 2, 3, 4, 5, 6, 7, 8]);
next = array1d(1..18 ,[4, 11, 9, 7, 8, 3, 17, 10, 18, 6, 12, 13, 14, 15, 16, 1, 5, 2]);
makespan = 1527;
----------
assign = array1d(1..18 ,[4, 1, 8, 4, 8, 8, 4, 8, 8, 8, 1, 2, 3, 4, 5, 6, 7, 8]);
next = array1d(1..18 ,[4, 11, 9, 7, 8, 3, 14, 10, 18, 6, 12, 13, 1, 15, 16, 17, 5, 2]);
makespan = 1523;
----------
assign = array1d(1..18 ,[1, 1, 8, 1, 8, 8, 1, 8, 8, 8, 1, 2, 3, 4, 5, 6, 7, 8]);
next = array1d(1..18 ,[2, 4, 9, 7, 8, 3, 11, 10, 5, 18, 12, 13, 14, 15, 16, 17, 6, 1]);
makespan = 1522;
----------
assign = array1d(1..18 ,[1, 1, 8, 1, 8, 8, 1, 8, 8, 8, 1, 2, 3, 4, 5, 6, 7, 8]);
next = array1d(1..18 ,[2, 4, 9, 7, 8, 3, 11, 10, 5, 18, 12, 13, 14, 15, 16, 17, 6, 1]);
makespan = 1511;
----------
assign = array1d(1..18 ,[1, 1, 8, 1, 8, 8, 1, 8, 8, 8, 1, 2, 3, 4, 5, 6, 7, 8]);
next = array1d(1..18 ,[2, 4, 9, 7, 8, 3, 11, 10, 5, 18, 12, 13, 14, 15, 16, 17, 6, 1]);
makespan = 1505;
----------
assign = array1d(1..18 ,[1, 1, 8, 1, 8, 8, 1, 8, 8, 8, 1, 2, 3, 4, 5, 6, 7, 8]);
next = array1d(1..18 ,[2, 4, 9, 7, 8, 3, 11, 10, 5, 18, 12, 13, 14, 15, 16, 17, 6, 1]);
makespan = 1500;
----------
assign = array1d(1..18 ,[1, 1, 8, 1, 8, 8, 1, 8, 8, 8, 1, 2, 3, 4, 5, 6, 7, 8]);
next = array1d(1..18 ,[2, 4, 9, 7, 8, 3, 11, 10, 5, 18, 12, 13, 14, 15, 16, 17, 6, 1]);
makespan = 1495;
----------
assign = array1d(1..18 ,[1, 1, 8, 1, 8, 8, 1, 8, 8, 8, 1, 2, 3, 4, 5, 6, 7, 8]);
next = array1d(1..18 ,[2, 4, 9, 7, 8, 3, 11, 10, 5, 18, 12, 13, 14, 15, 16, 17, 6, 1]);
makespan = 1492;
----------
assign = array1d(1..18 ,[1, 1, 8, 1, 8, 8, 1, 8, 8, 8, 1, 2, 3, 4, 5, 6, 7, 8]);
next = array1d(1..18 ,[2, 4, 9, 7, 8, 3, 11, 10, 5, 18, 12, 13, 14, 15, 16, 17, 6, 1]);
makespan = 1483;
----------
assign = array1d(1..18 ,[1, 1, 8, 1, 8, 8, 1, 8, 8, 8, 1, 2, 3, 4, 5, 6, 7, 8]);
next = array1d(1..18 ,[2, 4, 9, 7, 8, 3, 11, 10, 5, 18, 12, 13, 14, 15, 16, 17, 6, 1]);
makespan = 1481;
----------
assign = array1d(1..18 ,[1, 1, 8, 1, 8, 8, 1, 8, 8, 8, 1, 2, 3, 4, 5, 6, 7, 8]);
next = array1d(1..18 ,[2, 4, 9, 7, 8, 3, 11, 10, 5, 18, 12, 13, 14, 15, 16, 17, 6, 1]);
makespan = 1473;
----------
assign = array1d(1..18 ,[1, 1, 8, 1, 8, 8, 1, 8, 8, 8, 1, 2, 3, 4, 5, 6, 7, 8]);
next = array1d(1..18 ,[2, 4, 9, 7, 8, 3, 11, 10, 5, 18, 12, 13, 14, 15, 16, 17, 6, 1]);
makespan = 1472;
----------
assign = array1d(1..18 ,[1, 1, 8, 1, 8, 8, 1, 8, 8, 8, 1, 2, 3, 4, 5, 6, 7, 8]);
next = array1d(1..18 ,[2, 4, 9, 7, 8, 3, 11, 10, 5, 18, 12, 13, 14, 15, 16, 17, 6, 1]);
makespan = 1458;
----------
assign = array1d(1..18 ,[1, 1, 8, 1, 8, 8, 1, 8, 8, 8, 1, 2, 3, 4, 5, 6, 7, 8]);
next = array1d(1..18 ,[2, 4, 9, 7, 8, 3, 11, 10, 5, 18, 12, 13, 14, 15, 16, 17, 6, 1]);
makespan = 1449;
----------
assign = array1d(1..18 ,[1, 1, 8, 1, 8, 8, 1, 8, 8, 8, 1, 2, 3, 4, 5, 6, 7, 8]);
next = array1d(1..18 ,[2, 4, 9, 7, 8, 3, 11, 10, 5, 18, 12, 13, 14, 15, 16, 17, 6, 1]);
makespan = 1433;
----------
assign = array1d(1..18 ,[1, 1, 8, 1, 8, 8, 1, 8, 8, 8, 1, 2, 3, 4, 5, 6, 7, 8]);
next = array1d(1..18 ,[2, 4, 9, 7, 8, 3, 11, 10, 5, 18, 12, 13, 14, 15, 16, 17, 6, 1]);
makespan = 1423;
----------
assign = array1d(1..18 ,[1, 1, 8, 1, 8, 8, 1, 8, 8, 8, 1, 2, 3, 4, 5, 6, 7, 8]);
next = array1d(1..18 ,[2, 4, 9, 7, 8, 3, 11, 10, 5, 18, 12, 13, 14, 15, 16, 17, 6, 1]);
makespan = 1422;
----------
assign = array1d(1..18 ,[1, 1, 8, 1, 8, 8, 1, 8, 8, 8, 1, 2, 3, 4, 5, 6, 7, 8]);
next = array1d(1..18 ,[2, 4, 9, 7, 8, 3, 11, 10, 5, 18, 12, 13, 14, 15, 16, 17, 6, 1]);
makespan = 1415;
----------
assign = array1d(1..18 ,[1, 1, 8, 1, 8, 8, 1, 8, 8, 8, 1, 2, 3, 4, 5, 6, 7, 8]);
next = array1d(1..18 ,[2, 4, 9, 7, 8, 3, 11, 10, 5, 18, 12, 13, 14, 15, 16, 17, 6, 1]);
makespan = 1414;
----------
assign = array1d(1..18 ,[1, 1, 8, 1, 8, 8, 1, 8, 8, 8, 1, 2, 3, 4, 5, 6, 7, 8]);
next = array1d(1..18 ,[2, 4, 9, 7, 8, 3, 11, 10, 5, 18, 12, 13, 14, 15, 16, 17, 6, 1]);
makespan = 1406;
----------
assign = array1d(1..18 ,[1, 1, 8, 1, 8, 8, 1, 8, 8, 8, 1, 2, 3, 4, 5, 6, 7, 8]);
next = array1d(1..18 ,[2, 4, 9, 7, 8, 3, 11, 10, 5, 18, 12, 13, 14, 15, 16, 17, 6, 1]);
makespan = 1405;
----------
assign = array1d(1..18 ,[1, 1, 8, 1, 8, 8, 1, 8, 8, 8, 1, 2, 3, 4, 5, 6, 7, 8]);
next = array1d(1..18 ,[2, 4, 9, 7, 8, 3, 11, 10, 5, 18, 12, 13, 14, 15, 16, 17, 6, 1]);
makespan = 1404;
----------
assign = array1d(1..18 ,[1, 1, 8, 1, 8, 8, 1, 8, 8, 8, 1, 2, 3, 4, 5, 6, 7, 8]);
next = array1d(1..18 ,[2, 4, 9, 7, 8, 3, 11, 10, 5, 18, 12, 13, 14, 15, 16, 17, 6, 1]);
makespan = 1402;
----------
assign = array1d(1..18 ,[1, 1, 8, 1, 8, 8, 1, 8, 8, 8, 1, 2, 3, 4, 5, 6, 7, 8]);
next = array1d(1..18 ,[2, 4, 9, 7, 8, 3, 11, 10, 5, 18, 12, 13, 14, 15, 16, 17, 6, 1]);
makespan = 1399;
----------
assign = array1d(1..18 ,[1, 1, 8, 1, 8, 8, 1, 8, 8, 8, 1, 2, 3, 4, 5, 6, 7, 8]);
next = array1d(1..18 ,[2, 4, 9, 7, 8, 3, 11, 10, 5, 18, 12, 13, 14, 15, 16, 17, 6, 1]);
makespan = 1394;
----------
assign = array1d(1..18 ,[1, 1, 8, 1, 8, 8, 1, 8, 8, 8, 1, 2, 3, 4, 5, 6, 7, 8]);
next = array1d(1..18 ,[2, 4, 9, 7, 8, 3, 11, 10, 5, 18, 12, 13, 14, 15, 16, 17, 6, 1]);
makespan = 1392;
----------
assign = array1d(1..18 ,[1, 1, 8, 1, 8, 8, 1, 8, 8, 8, 1, 2, 3, 4, 5, 6, 7, 8]);
next = array1d(1..18 ,[2, 4, 9, 7, 8, 3, 11, 10, 5, 18, 12, 13, 14, 15, 16, 17, 6, 1]);
makespan = 1389;
----------
assign = array1d(1..18 ,[1, 1, 8, 1, 8, 8, 1, 8, 8, 8, 1, 2, 3, 4, 5, 6, 7, 8]);
next = array1d(1..18 ,[2, 4, 9, 7, 8, 3, 11, 10, 5, 18, 12, 13, 14, 15, 16, 17, 6, 1]);
makespan = 1387;
----------
assign = array1d(1..18 ,[1, 1, 8, 1, 8, 8, 1, 8, 8, 8, 1, 2, 3, 4, 5, 6, 7, 8]);
next = array1d(1..18 ,[2, 4, 9, 7, 8, 3, 11, 10, 5, 18, 12, 13, 14, 15, 16, 17, 6, 1]);
makespan = 1381;
----------
assign = array1d(1..18 ,[1, 1, 8, 1, 8, 8, 1, 8, 8, 8, 1, 2, 3, 4, 5, 6, 7, 8]);
next = array1d(1..18 ,[2, 4, 9, 7, 8, 3, 11, 10, 5, 18, 12, 13, 14, 15, 16, 17, 6, 1]);
makespan = 1379;
----------
assign = array1d(1..18 ,[1, 1, 8, 1, 8, 8, 1, 8, 8, 8, 1, 2, 3, 4, 5, 6, 7, 8]);
next = array1d(1..18 ,[2, 4, 9, 7, 8, 3, 11, 10, 5, 18, 12, 13, 14, 15, 16, 17, 6, 1]);
makespan = 1374;
----------
assign = array1d(1..18 ,[1, 1, 8, 1, 8, 8, 1, 8, 8, 8, 1, 2, 3, 4, 5, 6, 7, 8]);
next = array1d(1..18 ,[2, 4, 9, 7, 8, 3, 11, 10, 5, 18, 12, 13, 14, 15, 16, 17, 6, 1]);
makespan = 1373;
----------
assign = array1d(1..18 ,[1, 1, 8, 1, 8, 8, 1, 8, 8, 8, 1, 2, 3, 4, 5, 6, 7, 8]);
next = array1d(1..18 ,[2, 4, 9, 7, 8, 3, 11, 10, 5, 18, 12, 13, 14, 15, 16, 17, 6, 1]);
makespan = 1370;
----------
assign = array1d(1..18 ,[1, 1, 8, 1, 8, 8, 1, 8, 8, 8, 1, 2, 3, 4, 5, 6, 7, 8]);
next = array1d(1..18 ,[2, 4, 9, 7, 8, 3, 11, 10, 5, 18, 12, 13, 14, 15, 16, 17, 6, 1]);
makespan = 1368;
----------
assign = array1d(1..18 ,[1, 1, 8, 1, 8, 8, 1, 8, 8, 8, 1, 2, 3, 4, 5, 6, 7, 8]);
next = array1d(1..18 ,[2, 4, 9, 7, 8, 3, 11, 10, 5, 18, 12, 13, 14, 15, 16, 17, 6, 1]);
makespan = 1363;
----------
assign = array1d(1..18 ,[1, 1, 8, 1, 8, 8, 1, 8, 8, 8, 1, 2, 3, 4, 5, 6, 7, 8]);
next = array1d(1..18 ,[2, 4, 9, 7, 8, 3, 11, 10, 5, 18, 12, 13, 14, 15, 16, 17, 6, 1]);
makespan = 1361;
----------
assign = array1d(1..18 ,[1, 1, 8, 1, 8, 8, 1, 8, 8, 8, 1, 2, 3, 4, 5, 6, 7, 8]);
next = array1d(1..18 ,[2, 4, 9, 7, 8, 3, 11, 10, 5, 18, 12, 13, 14, 15, 16, 17, 6, 1]);
makespan = 1342;
----------
assign = array1d(1..18 ,[1, 1, 8, 1, 8, 8, 1, 8, 8, 8, 1, 2, 3, 4, 5, 6, 7, 8]);
next = array1d(1..18 ,[2, 4, 9, 7, 8, 3, 11, 10, 5, 18, 12, 13, 14, 15, 16, 17, 6, 1]);
makespan = 1339;
----------
assign = array1d(1..18 ,[1, 1, 8, 1, 8, 8, 1, 8, 8, 8, 1, 2, 3, 4, 5, 6, 7, 8]);
next = array1d(1..18 ,[2, 4, 9, 7, 8, 3, 11, 10, 5, 18, 12, 13, 14, 15, 16, 17, 6, 1]);
makespan = 1337;
----------
assign = array1d(1..18 ,[1, 1, 8, 1, 8, 8, 1, 8, 8, 8, 1, 2, 3, 4, 5, 6, 7, 8]);
next = array1d(1..18 ,[2, 4, 9, 7, 8, 3, 11, 10, 18, 6, 12, 13, 14, 15, 16, 17, 5, 1]);
makespan = 1335;
----------
assign = array1d(1..18 ,[1, 1, 8, 1, 8, 8, 1, 8, 8, 8, 1, 2, 3, 4, 5, 6, 7, 8]);
next = array1d(1..18 ,[2, 4, 9, 7, 8, 3, 11, 10, 18, 6, 12, 13, 14, 15, 16, 17, 5, 1]);
makespan = 1327;
----------
assign = array1d(1..18 ,[2, 1, 8, 1, 8, 8, 1, 8, 8, 8, 1, 2, 3, 4, 5, 6, 7, 8]);
next = array1d(1..18 ,[12, 4, 9, 7, 8, 3, 11, 6, 18, 5, 1, 13, 14, 15, 16, 17, 10, 2]);
makespan = 1320;
----------
assign = array1d(1..18 ,[3, 1, 8, 1, 8, 8, 1, 8, 8, 8, 1, 2, 3, 4, 5, 6, 7, 8]);
next = array1d(1..18 ,[13, 4, 9, 7, 8, 3, 11, 6, 18, 5, 12, 1, 14, 15, 16, 17, 10, 2]);
makespan = 1308;
----------
assign = array1d(1..18 ,[2, 1, 8, 1, 8, 8, 1, 8, 8, 8, 1, 2, 3, 4, 5, 6, 7, 8]);
next = array1d(1..18 ,[12, 4, 9, 7, 8, 3, 11, 6, 18, 5, 1, 13, 14, 15, 16, 17, 10, 2]);
makespan = 1296;
----------
assign = array1d(1..18 ,[1, 1, 8, 1, 8, 8, 1, 8, 8, 1, 1, 2, 3, 4, 5, 6, 7, 8]);
next = array1d(1..18 ,[10, 4, 9, 7, 8, 3, 11, 6, 18, 2, 12, 13, 14, 15, 16, 17, 5, 1]);
makespan = 1295;
----------
assign = array1d(1..18 ,[1, 1, 8, 1, 8, 8, 1, 8, 8, 1, 1, 2, 3, 4, 5, 6, 7, 8]);
next = array1d(1..18 ,[10, 4, 9, 7, 8, 3, 11, 18, 5, 2, 12, 13, 14, 15, 16, 17, 6, 1]);
makespan = 1294;
----------
assign = array1d(1..18 ,[1, 1, 8, 1, 8, 8, 1, 8, 8, 1, 1, 2, 3, 4, 5, 6, 7, 8]);
next = array1d(1..18 ,[7, 4, 9, 1, 8, 3, 11, 18, 5, 2, 12, 13, 14, 15, 16, 17, 6, 10]);
makespan = 1292;
----------
assign = array1d(1..18 ,[1, 1, 8, 1, 8, 8, 1, 8, 8, 1, 1, 2, 3, 4, 5, 6, 7, 8]);
next = array1d(1..18 ,[7, 4, 9, 11, 8, 3, 10, 18, 5, 2, 12, 13, 14, 15, 16, 17, 6, 1]);
makespan = 1289;
----------
assign = array1d(1..18 ,[1, 1, 8, 1, 8, 8, 1, 8, 8, 1, 1, 2, 3, 4, 5, 6, 7, 8]);
next = array1d(1..18 ,[7, 4, 9, 11, 8, 3, 10, 18, 5, 2, 12, 13, 14, 15, 16, 17, 6, 1]);
makespan = 1276;
----------
assign = array1d(1..18 ,[1, 1, 8, 1, 8, 8, 1, 8, 8, 1, 1, 2, 3, 4, 5, 6, 7, 8]);
next = array1d(1..18 ,[7, 4, 9, 11, 8, 3, 10, 18, 5, 2, 12, 13, 14, 15, 16, 17, 6, 1]);
makespan = 1274;
----------
assign = array1d(1..18 ,[1, 1, 8, 1, 8, 8, 1, 8, 8, 1, 1, 2, 3, 4, 5, 6, 7, 8]);
next = array1d(1..18 ,[7, 4, 9, 11, 8, 3, 10, 18, 5, 2, 12, 13, 14, 15, 16, 17, 6, 1]);
makespan = 1272;
----------
assign = array1d(1..18 ,[1, 1, 8, 1, 8, 8, 1, 8, 8, 1, 1, 2, 3, 4, 5, 6, 7, 8]);
next = array1d(1..18 ,[7, 4, 9, 11, 8, 3, 10, 18, 5, 2, 12, 13, 14, 15, 16, 17, 6, 1]);
makespan = 1264;
----------
assign = array1d(1..18 ,[1, 1, 8, 1, 8, 8, 1, 8, 8, 1, 1, 2, 3, 4, 5, 6, 7, 8]);
next = array1d(1..18 ,[7, 4, 9, 11, 8, 3, 10, 18, 5, 2, 12, 13, 14, 15, 16, 17, 6, 1]);
makespan = 1258;
----------
assign = array1d(1..18 ,[1, 1, 8, 1, 8, 8, 1, 8, 8, 1, 1, 2, 3, 4, 5, 6, 7, 8]);
next = array1d(1..18 ,[7, 4, 9, 11, 8, 3, 10, 18, 5, 2, 12, 13, 14, 15, 16, 17, 6, 1]);
makespan = 1254;
----------
assign = array1d(1..18 ,[1, 1, 8, 1, 8, 8, 1, 8, 8, 1, 1, 2, 3, 4, 5, 6, 7, 8]);
next = array1d(1..18 ,[7, 4, 9, 11, 8, 3, 10, 18, 5, 2, 12, 13, 14, 15, 16, 17, 6, 1]);
makespan = 1251;
----------
assign = array1d(1..18 ,[1, 1, 8, 1, 8, 8, 1, 8, 8, 1, 1, 2, 3, 4, 5, 6, 7, 8]);
next = array1d(1..18 ,[7, 4, 9, 11, 8, 3, 10, 18, 5, 2, 12, 13, 14, 15, 16, 17, 6, 1]);
makespan = 1249;
----------
assign = array1d(1..18 ,[1, 1, 8, 1, 8, 8, 1, 8, 8, 1, 1, 2, 3, 4, 5, 6, 7, 8]);
next = array1d(1..18 ,[7, 4, 9, 11, 8, 3, 10, 18, 5, 2, 12, 13, 14, 15, 16, 17, 6, 1]);
makespan = 1246;
----------
assign = array1d(1..18 ,[1, 1, 8, 1, 8, 8, 1, 8, 8, 1, 1, 2, 3, 4, 5, 6, 7, 8]);
next = array1d(1..18 ,[7, 4, 9, 11, 8, 3, 10, 18, 5, 2, 12, 13, 14, 15, 16, 17, 6, 1]);
makespan = 1243;
----------
assign = array1d(1..18 ,[1, 1, 8, 1, 8, 8, 1, 8, 8, 1, 1, 2, 3, 4, 5, 6, 7, 8]);
next = array1d(1..18 ,[7, 4, 9, 11, 8, 3, 10, 18, 5, 2, 12, 13, 14, 15, 16, 17, 6, 1]);
makespan = 1242;
----------
assign = array1d(1..18 ,[1, 1, 8, 1, 8, 8, 1, 8, 8, 1, 1, 2, 3, 4, 5, 6, 7, 8]);
next = array1d(1..18 ,[7, 4, 9, 11, 8, 3, 10, 18, 5, 2, 12, 13, 14, 15, 16, 17, 6, 1]);
makespan = 1241;
----------
assign = array1d(1..18 ,[1, 1, 8, 1, 8, 8, 1, 8, 8, 1, 1, 2, 3, 4, 5, 6, 7, 8]);
next = array1d(1..18 ,[7, 4, 9, 11, 8, 3, 10, 18, 5, 2, 12, 13, 14, 15, 16, 17, 6, 1]);
makespan = 1240;
----------
assign = array1d(1..18 ,[1, 1, 8, 1, 8, 8, 1, 8, 8, 1, 1, 2, 3, 4, 5, 6, 7, 8]);
next = array1d(1..18 ,[7, 4, 9, 11, 8, 3, 10, 18, 5, 2, 12, 13, 14, 15, 16, 17, 6, 1]);
makespan = 1238;
----------
assign = array1d(1..18 ,[1, 1, 8, 1, 8, 8, 1, 8, 8, 1, 1, 2, 3, 4, 5, 6, 7, 8]);
next = array1d(1..18 ,[7, 4, 9, 11, 8, 3, 10, 18, 5, 2, 12, 13, 14, 15, 16, 17, 6, 1]);
makespan = 1237;
----------
assign = array1d(1..18 ,[1, 1, 8, 1, 8, 8, 1, 8, 8, 1, 1, 2, 3, 4, 5, 6, 7, 8]);
next = array1d(1..18 ,[7, 4, 9, 11, 8, 3, 10, 18, 5, 2, 12, 13, 14, 15, 16, 17, 6, 1]);
makespan = 1233;
----------
assign = array1d(1..18 ,[1, 1, 8, 1, 8, 8, 1, 8, 8, 1, 1, 2, 3, 4, 5, 6, 7, 8]);
next = array1d(1..18 ,[7, 4, 9, 11, 8, 3, 10, 18, 5, 2, 12, 13, 14, 15, 16, 17, 6, 1]);
makespan = 1228;
----------
assign = array1d(1..18 ,[1, 1, 8, 1, 8, 8, 1, 8, 8, 1, 1, 2, 3, 4, 5, 6, 7, 8]);
next = array1d(1..18 ,[7, 4, 9, 11, 8, 3, 10, 18, 5, 2, 12, 13, 14, 15, 16, 17, 6, 1]);
makespan = 1227;
----------
assign = array1d(1..18 ,[1, 1, 8, 1, 8, 8, 1, 8, 8, 1, 1, 2, 3, 4, 5, 6, 7, 8]);
next = array1d(1..18 ,[7, 4, 9, 11, 8, 3, 10, 18, 5, 2, 12, 13, 14, 15, 16, 17, 6, 1]);
makespan = 1213;
----------
assign = array1d(1..18 ,[1, 1, 8, 1, 8, 8, 1, 8, 8, 1, 1, 2, 3, 4, 5, 6, 7, 8]);
next = array1d(1..18 ,[7, 4, 9, 11, 8, 3, 10, 18, 5, 2, 12, 13, 14, 15, 16, 17, 6, 1]);
makespan = 1207;
----------
assign = array1d(1..18 ,[1, 1, 8, 1, 8, 8, 1, 8, 8, 1, 1, 2, 3, 4, 5, 6, 7, 8]);
next = array1d(1..18 ,[7, 4, 9, 11, 8, 3, 10, 18, 5, 2, 12, 13, 14, 15, 16, 17, 6, 1]);
makespan = 1206;
----------
assign = array1d(1..18 ,[1, 1, 8, 1, 8, 8, 1, 8, 8, 1, 1, 2, 3, 4, 5, 6, 7, 8]);
next = array1d(1..18 ,[7, 4, 9, 11, 8, 3, 10, 18, 5, 2, 12, 13, 14, 15, 16, 17, 6, 1]);
makespan = 1195;
----------
assign = array1d(1..18 ,[1, 1, 8, 1, 8, 8, 1, 8, 8, 1, 1, 2, 3, 4, 5, 6, 7, 8]);
next = array1d(1..18 ,[7, 4, 9, 11, 8, 3, 10, 18, 5, 2, 12, 13, 14, 15, 16, 17, 6, 1]);
makespan = 1193;
----------
assign = array1d(1..18 ,[1, 1, 8, 1, 8, 8, 1, 8, 8, 1, 1, 2, 3, 4, 5, 6, 7, 8]);
next = array1d(1..18 ,[7, 4, 9, 11, 8, 3, 10, 18, 5, 2, 12, 13, 14, 15, 16, 17, 6, 1]);
makespan = 1191;
----------
assign = array1d(1..18 ,[1, 1, 8, 1, 8, 8, 1, 8, 8, 1, 1, 2, 3, 4, 5, 6, 7, 8]);
next = array1d(1..18 ,[7, 4, 9, 11, 8, 3, 10, 18, 5, 2, 12, 13, 14, 15, 16, 17, 6, 1]);
makespan = 1175;
----------
assign = array1d(1..18 ,[1, 1, 8, 1, 8, 8, 1, 8, 8, 1, 1, 2, 3, 4, 5, 6, 7, 8]);
next = array1d(1..18 ,[7, 4, 9, 11, 8, 3, 10, 18, 5, 2, 12, 13, 14, 15, 16, 17, 6, 1]);
makespan = 1168;
----------
assign = array1d(1..18 ,[1, 1, 8, 1, 8, 8, 1, 8, 8, 1, 1, 2, 3, 4, 5, 6, 7, 8]);
next = array1d(1..18 ,[7, 4, 9, 11, 8, 3, 10, 18, 5, 2, 12, 13, 14, 15, 16, 17, 6, 1]);
makespan = 1161;
----------
assign = array1d(1..18 ,[1, 1, 8, 1, 8, 8, 1, 8, 8, 1, 1, 2, 3, 4, 5, 6, 7, 8]);
next = array1d(1..18 ,[7, 4, 9, 11, 8, 3, 10, 18, 5, 2, 12, 13, 14, 15, 16, 17, 6, 1]);
makespan = 1160;
----------
assign = array1d(1..18 ,[1, 1, 8, 1, 8, 8, 1, 8, 8, 1, 1, 2, 3, 4, 5, 6, 7, 8]);
next = array1d(1..18 ,[7, 4, 9, 11, 8, 3, 10, 18, 5, 2, 12, 13, 14, 15, 16, 17, 6, 1]);
makespan = 1159;
----------
assign = array1d(1..18 ,[1, 1, 8, 1, 8, 8, 1, 8, 8, 1, 1, 2, 3, 4, 5, 6, 7, 8]);
next = array1d(1..18 ,[7, 4, 9, 11, 8, 3, 10, 18, 5, 2, 12, 13, 14, 15, 16, 17, 6, 1]);
makespan = 1156;
----------
assign = array1d(1..18 ,[1, 1, 8, 1, 8, 8, 1, 8, 8, 1, 1, 2, 3, 4, 5, 6, 7, 8]);
next = array1d(1..18 ,[7, 4, 9, 11, 8, 3, 10, 18, 5, 2, 12, 13, 14, 15, 16, 17, 6, 1]);
makespan = 1147;
----------
assign = array1d(1..18 ,[1, 1, 8, 1, 8, 8, 1, 8, 8, 1, 1, 2, 3, 4, 5, 6, 7, 8]);
next = array1d(1..18 ,[7, 4, 9, 11, 8, 3, 10, 18, 5, 2, 12, 13, 14, 15, 16, 17, 6, 1]);
makespan = 1134;
----------
assign = array1d(1..18 ,[1, 1, 8, 1, 8, 8, 1, 8, 8, 1, 1, 2, 3, 4, 5, 6, 7, 8]);
next = array1d(1..18 ,[7, 4, 9, 11, 8, 3, 10, 18, 5, 2, 12, 13, 14, 15, 16, 17, 6, 1]);
makespan = 1128;
----------
assign = array1d(1..18 ,[1, 1, 8, 1, 8, 8, 1, 8, 8, 1, 1, 2, 3, 4, 5, 6, 7, 8]);
next = array1d(1..18 ,[7, 4, 9, 11, 8, 3, 10, 6, 18, 2, 12, 13, 14, 15, 16, 17, 5, 1]);
makespan = 1103;
----------
assign = array1d(1..18 ,[1, 1, 8, 1, 8, 8, 1, 8, 8, 1, 1, 2, 3, 4, 5, 6, 7, 8]);
next = array1d(1..18 ,[7, 4, 9, 11, 8, 3, 10, 6, 18, 2, 12, 13, 14, 15, 16, 17, 5, 1]);
makespan = 1101;
----------
assign = array1d(1..18 ,[1, 1, 8, 1, 8, 8, 1, 8, 8, 1, 1, 2, 3, 4, 5, 6, 7, 8]);
next = array1d(1..18 ,[7, 4, 18, 1, 8, 3, 11, 6, 5, 2, 12, 13, 14, 15, 16, 17, 9, 10]);
makespan = 1098;
----------
assign = array1d(1..18 ,[1, 1, 8, 1, 8, 8, 1, 8, 8, 1, 1, 2, 3, 4, 5, 6, 7, 8]);
next = array1d(1..18 ,[7, 4, 18, 1, 8, 3, 11, 6, 5, 2, 12, 13, 14, 15, 16, 17, 9, 10]);
makespan = 1097;
----------
assign = array1d(1..18 ,[1, 1, 8, 1, 8, 8, 1, 8, 8, 1, 1, 2, 3, 4, 5, 6, 7, 8]);
next = array1d(1..18 ,[7, 4, 18, 1, 8, 3, 11, 6, 5, 2, 12, 13, 14, 15, 16, 17, 9, 10]);
makespan = 1096;
----------
assign = array1d(1..18 ,[1, 1, 8, 1, 8, 8, 1, 8, 8, 1, 1, 2, 3, 4, 5, 6, 7, 8]);
next = array1d(1..18 ,[7, 4, 18, 1, 8, 3, 11, 6, 5, 2, 12, 13, 14, 15, 16, 17, 9, 10]);
makespan = 1094;
----------
assign = array1d(1..18 ,[1, 1, 8, 1, 8, 8, 1, 8, 8, 1, 1, 2, 3, 4, 5, 6, 7, 8]);
next = array1d(1..18 ,[7, 4, 18, 1, 8, 3, 11, 6, 5, 2, 12, 13, 14, 15, 16, 17, 9, 10]);
makespan = 1089;
----------
assign = array1d(1..18 ,[8, 4, 8, 4, 8, 8, 4, 8, 4, 4, 1, 2, 3, 4, 5, 6, 7, 8]);
next = array1d(1..18 ,[5, 4, 1, 10, 8, 3, 14, 18, 7, 9, 12, 13, 2, 15, 16, 17, 6, 11]);
makespan = 1088;
----------
assign = array1d(1..18 ,[8, 5, 8, 5, 8, 8, 5, 8, 5, 5, 1, 2, 3, 4, 5, 6, 7, 8]);
next = array1d(1..18 ,[5, 4, 1, 10, 8, 3, 15, 18, 7, 9, 12, 13, 14, 2, 16, 17, 6, 11]);
makespan = 1087;
----------
assign = array1d(1..18 ,[8, 7, 8, 7, 8, 8, 7, 8, 7, 7, 1, 2, 3, 4, 5, 6, 7, 8]);
next = array1d(1..18 ,[5, 4, 1, 10, 8, 3, 17, 18, 7, 9, 12, 13, 14, 15, 16, 2, 6, 11]);
makespan = 1084;
----------
assign = array1d(1..18 ,[8, 5, 8, 5, 8, 8, 5, 8, 5, 5, 1, 2, 3, 4, 5, 6, 7, 8]);
next = array1d(1..18 ,[5, 4, 18, 10, 8, 3, 15, 6, 7, 9, 12, 13, 14, 2, 16, 17, 1, 11]);
makespan = 1080;
----------
assign = array1d(1..18 ,[8, 3, 8, 3, 8, 8, 3, 8, 3, 3, 1, 2, 3, 4, 5, 6, 7, 8]);
next = array1d(1..18 ,[5, 4, 18, 10, 8, 3, 13, 6, 7, 9, 12, 2, 14, 15, 16, 17, 1, 11]);
makespan = 1077;
----------
assign = array1d(1..18 ,[2, 7, 8, 7, 8, 8, 2, 8, 2, 8, 1, 2, 3, 4, 5, 6, 7, 8]);
next = array1d(1..18 ,[9, 4, 18, 17, 8, 3, 12, 6, 7, 5, 1, 13, 14, 15, 16, 2, 10, 11]);
makespan = 1076;
----------
assign = array1d(1..18 ,[7, 5, 8, 5, 8, 8, 7, 8, 7, 8, 1, 2, 3, 4, 5, 6, 7, 8]);
next = array1d(1..18 ,[9, 4, 18, 15, 8, 3, 1, 6, 17, 5, 12, 13, 14, 2, 16, 7, 10, 11]);
makespan = 1072;
----------
assign = array1d(1..18 ,[7, 6, 8, 6, 8, 8, 7, 8, 7, 8, 1, 2, 3, 4, 5, 6, 7, 8]);
next = array1d(1..18 ,[9, 4, 18, 16, 8, 3, 1, 6, 17, 5, 12, 13, 14, 15, 2, 7, 10, 11]);
makespan = 1068;
----------
assign = array1d(1..18 ,[5, 5, 8, 5, 8, 8, 5, 8, 7, 5, 1, 2, 3, 4, 5, 6, 7, 8]);
next = array1d(1..18 ,[15, 4, 5, 10, 8, 3, 1, 18, 17, 7, 12, 13, 14, 2, 16, 9, 6, 11]);
makespan = 1065;
----------
assign = array1d(1..18 ,[5, 5, 8, 5, 8, 8, 5, 8, 4, 5, 1, 2, 3, 4, 5, 6, 7, 8]);
next = array1d(1..18 ,[15, 4, 5, 10, 8, 3, 1, 18, 14, 7, 12, 13, 9, 2, 16, 17, 6, 11]);
makespan = 1062;
----------
assign = array1d(1..18 ,[4, 4, 8, 4, 8, 8, 4, 8, 5, 4, 1, 2, 3, 4, 5, 6, 7, 8]);
next = array1d(1..18 ,[14, 4, 5, 10, 8, 3, 1, 18, 15, 7, 12, 13, 2, 9, 16, 17, 6, 11]);
makespan = 1055;
----------
assign = array1d(1..18 ,[5, 5, 8, 5, 8, 8, 5, 8, 6, 5, 1, 2, 3, 4, 5, 6, 7, 8]);
next = array1d(1..18 ,[15, 4, 5, 10, 8, 3, 1, 18, 16, 7, 12, 13, 14, 2, 9, 17, 6, 11]);
makespan = 1054;
----------
assign = array1d(1..18 ,[4, 4, 8, 4, 8, 8, 4, 8, 6, 4, 1, 2, 3, 4, 5, 6, 7, 8]);
next = array1d(1..18 ,[14, 4, 5, 10, 8, 3, 1, 18, 16, 7, 12, 13, 2, 15, 9, 17, 6, 11]);
makespan = 1051;
----------
assign = array1d(1..18 ,[7, 7, 8, 7, 8, 8, 7, 8, 6, 7, 1, 2, 3, 4, 5, 6, 7, 8]);
next = array1d(1..18 ,[17, 4, 5, 10, 8, 3, 1, 18, 16, 7, 12, 13, 14, 15, 9, 2, 6, 11]);
makespan = 1049;
----------
assign = array1d(1..18 ,[7, 7, 8, 7, 8, 8, 7, 8, 4, 7, 1, 2, 3, 4, 5, 6, 7, 8]);
next = array1d(1..18 ,[17, 4, 5, 10, 8, 3, 1, 18, 14, 7, 12, 13, 9, 15, 16, 2, 6, 11]);
makespan = 1045;
----------
assign = array1d(1..18 ,[4, 4, 8, 4, 8, 8, 4, 8, 6, 4, 1, 2, 3, 4, 5, 6, 7, 8]);
next = array1d(1..18 ,[14, 4, 5, 10, 8, 3, 1, 18, 16, 7, 12, 13, 2, 15, 9, 17, 6, 11]);
makespan = 1044;
----------
assign = array1d(1..18 ,[4, 4, 8, 4, 8, 8, 4, 8, 6, 4, 1, 2, 3, 4, 5, 6, 7, 8]);
next = array1d(1..18 ,[14, 4, 5, 10, 8, 3, 1, 18, 16, 7, 12, 13, 2, 15, 9, 17, 6, 11]);
makespan = 1037;
----------
assign = array1d(1..18 ,[3, 3, 8, 3, 8, 8, 3, 8, 4, 3, 1, 2, 3, 4, 5, 6, 7, 8]);
next = array1d(1..18 ,[13, 4, 5, 10, 8, 3, 1, 18, 14, 7, 12, 2, 9, 15, 16, 17, 6, 11]);
makespan = 1033;
----------
assign = array1d(1..18 ,[4, 4, 8, 4, 8, 8, 4, 8, 6, 4, 1, 2, 3, 4, 5, 6, 7, 8]);
next = array1d(1..18 ,[14, 4, 5, 10, 8, 3, 1, 18, 16, 7, 12, 13, 2, 15, 9, 17, 6, 11]);
makespan = 1030;
----------
assign = array1d(1..18 ,[3, 3, 8, 3, 8, 8, 3, 8, 4, 3, 1, 2, 3, 4, 5, 6, 7, 8]);
next = array1d(1..18 ,[13, 4, 5, 10, 8, 3, 1, 18, 14, 7, 12, 2, 9, 15, 16, 17, 6, 11]);
makespan = 1026;
----------
assign = array1d(1..18 ,[3, 3, 8, 3, 8, 8, 3, 8, 6, 3, 1, 2, 3, 4, 5, 6, 7, 8]);
next = array1d(1..18 ,[13, 4, 5, 10, 8, 3, 1, 18, 16, 7, 12, 2, 14, 15, 9, 17, 6, 11]);
makespan = 1021;
----------
assign = array1d(1..18 ,[3, 3, 8, 3, 8, 8, 3, 8, 4, 3, 1, 2, 3, 4, 5, 6, 7, 8]);
next = array1d(1..18 ,[13, 4, 5, 10, 8, 3, 1, 18, 14, 7, 12, 2, 9, 15, 16, 17, 6, 11]);
makespan = 1020;
----------
assign = array1d(1..18 ,[3, 3, 8, 3, 8, 8, 3, 8, 4, 3, 1, 2, 3, 4, 5, 6, 7, 8]);
next = array1d(1..18 ,[13, 4, 5, 10, 8, 3, 1, 18, 14, 7, 12, 2, 9, 15, 16, 17, 6, 11]);
makespan = 1018;
----------
assign = array1d(1..18 ,[3, 3, 8, 3, 8, 8, 3, 8, 6, 3, 1, 2, 3, 4, 5, 6, 7, 8]);
next = array1d(1..18 ,[13, 4, 5, 10, 8, 3, 1, 18, 16, 7, 12, 2, 14, 15, 9, 17, 6, 11]);
makespan = 1013;
----------
assign = array1d(1..18 ,[3, 3, 8, 3, 8, 8, 3, 8, 4, 3, 1, 2, 3, 4, 5, 6, 7, 8]);
next = array1d(1..18 ,[13, 4, 5, 10, 8, 3, 1, 18, 14, 7, 12, 2, 9, 15, 16, 17, 6, 11]);
makespan = 1012;
----------
assign = array1d(1..18 ,[3, 3, 8, 3, 8, 8, 3, 8, 6, 3, 1, 2, 3, 4, 5, 6, 7, 8]);
next = array1d(1..18 ,[13, 4, 5, 10, 8, 3, 1, 18, 16, 7, 12, 2, 14, 15, 9, 17, 6, 11]);
makespan = 1009;
----------
assign = array1d(1..18 ,[3, 3, 8, 3, 8, 8, 3, 8, 4, 3, 1, 2, 3, 4, 5, 6, 7, 8]);
next = array1d(1..18 ,[13, 4, 5, 10, 8, 3, 1, 18, 14, 7, 12, 2, 9, 15, 16, 17, 6, 11]);
makespan = 1001;
----------
assign = array1d(1..18 ,[3, 3, 8, 3, 8, 8, 3, 8, 6, 3, 1, 2, 3, 4, 5, 6, 7, 8]);
next = array1d(1..18 ,[13, 4, 5, 10, 8, 3, 1, 18, 16, 7, 12, 2, 14, 15, 9, 17, 6, 11]);
makespan = 1000;
----------
assign = array1d(1..18 ,[3, 3, 8, 3, 8, 8, 3, 8, 4, 3, 1, 2, 3, 4, 5, 6, 7, 8]);
next = array1d(1..18 ,[13, 4, 5, 10, 8, 3, 1, 18, 14, 7, 12, 2, 9, 15, 16, 17, 6, 11]);
makespan = 999;
----------
assign = array1d(1..18 ,[3, 3, 8, 3, 8, 8, 3, 8, 6, 3, 1, 2, 3, 4, 5, 6, 7, 8]);
next = array1d(1..18 ,[13, 4, 5, 10, 8, 3, 1, 18, 16, 7, 12, 2, 14, 15, 9, 17, 6, 11]);
makespan = 985;
----------
assign = array1d(1..18 ,[3, 3, 8, 3, 8, 8, 3, 8, 4, 3, 1, 2, 3, 4, 5, 6, 7, 8]);
next = array1d(1..18 ,[13, 4, 5, 10, 8, 3, 1, 18, 14, 7, 12, 2, 9, 15, 16, 17, 6, 11]);
makespan = 978;
----------
assign = array1d(1..18 ,[3, 3, 8, 3, 8, 8, 3, 8, 6, 3, 1, 2, 3, 4, 5, 6, 7, 8]);
next = array1d(1..18 ,[13, 4, 5, 10, 8, 3, 1, 18, 16, 7, 12, 2, 14, 15, 9, 17, 6, 11]);
makespan = 966;
----------
assign = array1d(1..18 ,[3, 3, 8, 3, 8, 8, 3, 8, 1, 3, 1, 2, 3, 4, 5, 6, 7, 8]);
next = array1d(1..18 ,[2, 13, 5, 10, 8, 3, 1, 18, 11, 7, 12, 4, 14, 15, 16, 17, 6, 9]);
makespan = 965;
----------
assign = array1d(1..18 ,[3, 3, 2, 3, 2, 8, 3, 2, 8, 3, 1, 2, 3, 4, 5, 6, 7, 8]);
next = array1d(1..18 ,[2, 13, 5, 10, 8, 18, 1, 12, 6, 7, 3, 4, 14, 15, 16, 17, 9, 11]);
makespan = 964;
----------
assign = array1d(1..18 ,[8, 8, 7, 6, 7, 7, 8, 2, 8, 6, 1, 2, 3, 4, 5, 6, 7, 8]);
next = array1d(1..18 ,[2, 9, 5, 10, 17, 3, 1, 12, 18, 16, 8, 13, 14, 15, 4, 6, 7, 11]);
makespan = 963;
----------
assign = array1d(1..18 ,[3, 3, 8, 8, 8, 3, 3, 2, 3, 8, 1, 2, 3, 4, 5, 6, 7, 8]);
next = array1d(1..18 ,[2, 9, 5, 10, 4, 13, 1, 12, 6, 18, 8, 7, 14, 15, 16, 17, 3, 11]);
makespan = 962;
----------
assign = array1d(1..18 ,[3, 3, 8, 8, 8, 3, 3, 2, 3, 8, 1, 2, 3, 4, 5, 6, 7, 8]);
next = array1d(1..18 ,[2, 9, 5, 10, 4, 13, 1, 12, 6, 18, 8, 7, 14, 15, 16, 17, 3, 11]);
makespan = 957;
----------
assign = array1d(1..18 ,[3, 3, 8, 8, 8, 3, 3, 2, 3, 8, 1, 2, 3, 4, 5, 6, 7, 8]);
next = array1d(1..18 ,[2, 9, 5, 10, 4, 13, 1, 12, 6, 18, 8, 7, 14, 15, 16, 17, 3, 11]);
makespan = 955;
----------
assign = array1d(1..18 ,[3, 3, 8, 8, 8, 3, 3, 2, 3, 8, 1, 2, 3, 4, 5, 6, 7, 8]);
next = array1d(1..18 ,[2, 9, 5, 10, 4, 13, 1, 12, 6, 18, 8, 7, 14, 15, 16, 17, 3, 11]);
makespan = 951;
----------
assign = array1d(1..18 ,[3, 3, 8, 8, 8, 3, 3, 2, 3, 8, 1, 2, 3, 4, 5, 6, 7, 8]);
next = array1d(1..18 ,[2, 9, 5, 10, 4, 13, 1, 12, 6, 18, 8, 7, 14, 15, 16, 17, 3, 11]);
makespan = 950;
----------
assign = array1d(1..18 ,[3, 3, 8, 8, 8, 3, 3, 2, 3, 8, 1, 2, 3, 4, 5, 6, 7, 8]);
next = array1d(1..18 ,[2, 9, 5, 10, 4, 13, 1, 12, 6, 18, 8, 7, 14, 15, 16, 17, 3, 11]);
makespan = 947;
----------
assign = array1d(1..18 ,[3, 3, 8, 8, 8, 3, 3, 2, 3, 8, 1, 2, 3, 4, 5, 6, 7, 8]);
next = array1d(1..18 ,[2, 9, 5, 10, 4, 13, 1, 12, 6, 18, 8, 7, 14, 15, 16, 17, 3, 11]);
makespan = 946;
----------
assign = array1d(1..18 ,[3, 3, 8, 8, 8, 3, 3, 2, 3, 8, 1, 2, 3, 4, 5, 6, 7, 8]);
next = array1d(1..18 ,[2, 9, 5, 10, 4, 13, 1, 12, 6, 18, 8, 7, 14, 15, 16, 17, 3, 11]);
makespan = 940;
----------
assign = array1d(1..18 ,[3, 3, 8, 8, 8, 3, 3, 2, 3, 8, 1, 2, 3, 4, 5, 6, 7, 8]);
next = array1d(1..18 ,[2, 9, 5, 10, 4, 13, 1, 12, 6, 18, 8, 7, 14, 15, 16, 17, 3, 11]);
makespan = 939;
----------
assign = array1d(1..18 ,[3, 3, 8, 8, 8, 3, 3, 2, 3, 8, 1, 2, 3, 4, 5, 6, 7, 8]);
next = array1d(1..18 ,[2, 9, 5, 10, 4, 13, 1, 12, 6, 18, 8, 7, 14, 15, 16, 17, 3, 11]);
makespan = 935;
----------
assign = array1d(1..18 ,[3, 3, 8, 8, 8, 3, 3, 2, 3, 8, 1, 2, 3, 4, 5, 6, 7, 8]);
next = array1d(1..18 ,[2, 9, 5, 10, 4, 13, 1, 12, 6, 18, 8, 7, 14, 15, 16, 17, 3, 11]);
makespan = 932;
----------
assign = array1d(1..18 ,[3, 3, 8, 8, 8, 3, 3, 2, 3, 8, 1, 2, 3, 4, 5, 6, 7, 8]);
next = array1d(1..18 ,[2, 9, 5, 10, 4, 13, 1, 12, 6, 18, 8, 7, 14, 15, 16, 17, 3, 11]);
makespan = 928;
----------
assign = array1d(1..18 ,[7, 7, 4, 8, 4, 4, 7, 8, 7, 8, 1, 2, 3, 4, 5, 6, 7, 8]);
next = array1d(1..18 ,[2, 9, 5, 10, 14, 3, 1, 4, 17, 18, 12, 13, 6, 15, 16, 7, 8, 11]);
makespan = 925;
----------
assign = array1d(1..18 ,[7, 7, 4, 8, 4, 4, 7, 8, 7, 8, 1, 2, 3, 4, 5, 6, 7, 8]);
next = array1d(1..18 ,[2, 9, 5, 10, 14, 3, 1, 4, 17, 18, 12, 13, 6, 15, 16, 7, 8, 11]);
makespan = 920;
----------
assign = array1d(1..18 ,[7, 7, 5, 8, 5, 5, 7, 8, 7, 8, 1, 2, 3, 4, 5, 6, 7, 8]);
next = array1d(1..18 ,[2, 9, 5, 10, 15, 3, 1, 4, 17, 18, 12, 13, 14, 6, 16, 7, 8, 11]);
makespan = 919;
----------
assign = array1d(1..18 ,[7, 7, 5, 8, 5, 5, 7, 8, 7, 8, 1, 2, 3, 4, 5, 6, 7, 8]);
next = array1d(1..18 ,[2, 9, 5, 10, 15, 3, 1, 4, 17, 18, 12, 13, 14, 6, 16, 7, 8, 11]);
makespan = 915;
----------
assign = array1d(1..18 ,[7, 7, 5, 8, 5, 5, 7, 8, 7, 8, 1, 2, 3, 4, 5, 6, 7, 8]);
next = array1d(1..18 ,[2, 9, 5, 10, 15, 3, 1, 4, 17, 18, 12, 13, 14, 6, 16, 7, 8, 11]);
makespan = 913;
----------
assign = array1d(1..18 ,[7, 7, 5, 8, 5, 5, 7, 8, 7, 8, 1, 2, 3, 4, 5, 6, 7, 8]);
next = array1d(1..18 ,[2, 9, 5, 10, 15, 3, 1, 4, 17, 18, 12, 13, 14, 6, 16, 7, 8, 11]);
makespan = 912;
----------
assign = array1d(1..18 ,[7, 7, 5, 8, 5, 5, 7, 8, 7, 8, 1, 2, 3, 4, 5, 6, 7, 8]);
next = array1d(1..18 ,[2, 9, 5, 10, 15, 3, 1, 4, 17, 18, 12, 13, 14, 6, 16, 7, 8, 11]);
makespan = 907;
----------
assign = array1d(1..18 ,[7, 7, 5, 8, 5, 5, 7, 8, 7, 8, 1, 2, 3, 4, 5, 6, 7, 8]);
next = array1d(1..18 ,[2, 9, 5, 10, 15, 3, 1, 4, 17, 18, 12, 13, 14, 6, 16, 7, 8, 11]);
makespan = 906;
----------
assign = array1d(1..18 ,[7, 7, 5, 8, 5, 5, 7, 8, 7, 8, 1, 2, 3, 4, 5, 6, 7, 8]);
next = array1d(1..18 ,[2, 9, 5, 10, 15, 3, 1, 4, 17, 18, 12, 13, 14, 6, 16, 7, 8, 11]);
makespan = 905;
----------
assign = array1d(1..18 ,[7, 7, 5, 8, 5, 5, 7, 8, 7, 8, 1, 2, 3, 4, 5, 6, 7, 8]);
next = array1d(1..18 ,[2, 9, 5, 10, 15, 3, 1, 4, 17, 18, 12, 13, 14, 6, 16, 7, 8, 11]);
makespan = 904;
----------
assign = array1d(1..18 ,[7, 7, 5, 8, 5, 5, 7, 8, 7, 8, 1, 2, 3, 4, 5, 6, 7, 8]);
next = array1d(1..18 ,[2, 9, 5, 10, 15, 3, 1, 4, 17, 18, 12, 13, 14, 6, 16, 7, 8, 11]);
makespan = 901;
----------
assign = array1d(1..18 ,[7, 7, 5, 8, 5, 5, 7, 8, 7, 8, 1, 2, 3, 4, 5, 6, 7, 8]);
next = array1d(1..18 ,[2, 9, 5, 10, 15, 3, 1, 4, 17, 18, 12, 13, 14, 6, 16, 7, 8, 11]);
makespan = 893;
----------
assign = array1d(1..18 ,[7, 7, 5, 8, 5, 5, 7, 8, 7, 8, 1, 2, 3, 4, 5, 6, 7, 8]);
next = array1d(1..18 ,[2, 9, 5, 10, 15, 3, 1, 4, 17, 18, 12, 13, 14, 6, 16, 7, 8, 11]);
makespan = 879;
----------
assign = array1d(1..18 ,[7, 7, 5, 8, 5, 5, 7, 8, 7, 8, 1, 2, 3, 4, 5, 6, 7, 8]);
next = array1d(1..18 ,[2, 9, 5, 10, 15, 3, 1, 4, 17, 18, 12, 13, 14, 6, 16, 7, 8, 11]);
makespan = 836;
----------
assign = array1d(1..18 ,[5, 5, 4, 8, 4, 4, 5, 8, 5, 8, 1, 2, 3, 4, 5, 6, 7, 8]);
next = array1d(1..18 ,[2, 9, 5, 10, 14, 3, 1, 4, 15, 18, 12, 13, 6, 7, 16, 17, 8, 11]);
makespan = 826;
----------
assign = array1d(1..18 ,[6, 6, 4, 8, 4, 4, 6, 8, 6, 8, 1, 2, 3, 4, 5, 6, 7, 8]);
next = array1d(1..18 ,[2, 9, 5, 10, 14, 3, 1, 4, 16, 18, 12, 13, 6, 15, 7, 17, 8, 11]);
makespan = 817;
----------
assign = array1d(1..18 ,[6, 6, 4, 8, 4, 4, 6, 8, 6, 8, 1, 2, 3, 4, 5, 6, 7, 8]);
next = array1d(1..18 ,[2, 9, 5, 10, 14, 3, 1, 4, 16, 18, 12, 13, 6, 15, 7, 17, 8, 11]);
makespan = 810;
----------
assign = array1d(1..18 ,[8, 8, 7, 2, 7, 7, 8, 2, 8, 2, 1, 2, 3, 4, 5, 6, 7, 8]);
next = array1d(1..18 ,[2, 9, 5, 10, 17, 3, 1, 4, 18, 12, 8, 13, 14, 15, 16, 6, 7, 11]);
makespan = 797;
----------
assign = array1d(1..18 ,[8, 8, 7, 2, 7, 7, 8, 2, 8, 2, 1, 2, 3, 4, 5, 6, 7, 8]);
next = array1d(1..18 ,[2, 9, 5, 10, 17, 3, 1, 4, 18, 12, 8, 13, 14, 15, 16, 6, 7, 11]);
makespan = 796;
----------
assign = array1d(1..18 ,[8, 8, 7, 2, 7, 7, 8, 2, 8, 2, 1, 2, 3, 4, 5, 6, 7, 8]);
next = array1d(1..18 ,[2, 9, 5, 10, 17, 3, 1, 4, 18, 12, 8, 13, 14, 15, 16, 6, 7, 11]);
makespan = 790;
----------
assign = array1d(1..18 ,[8, 8, 7, 2, 7, 7, 8, 2, 8, 2, 1, 2, 3, 4, 5, 6, 7, 8]);
next = array1d(1..18 ,[2, 9, 5, 10, 17, 3, 1, 4, 18, 12, 8, 13, 14, 15, 16, 6, 7, 11]);
makespan = 789;
----------
assign = array1d(1..18 ,[8, 8, 7, 2, 7, 7, 8, 2, 8, 2, 1, 2, 3, 4, 5, 6, 7, 8]);
next = array1d(1..18 ,[2, 9, 5, 10, 17, 3, 1, 4, 18, 12, 8, 13, 14, 15, 16, 6, 7, 11]);
makespan = 787;
----------
assign = array1d(1..18 ,[8, 8, 7, 2, 7, 7, 8, 2, 8, 2, 1, 2, 3, 4, 5, 6, 7, 8]);
next = array1d(1..18 ,[2, 9, 5, 10, 17, 3, 1, 4, 18, 12, 8, 13, 14, 15, 16, 6, 7, 11]);
makespan = 773;
----------
assign = array1d(1..18 ,[8, 8, 7, 2, 7, 7, 8, 2, 8, 2, 1, 2, 3, 4, 5, 6, 7, 8]);
next = array1d(1..18 ,[2, 9, 5, 10, 17, 3, 1, 4, 18, 12, 8, 13, 14, 15, 16, 6, 7, 11]);
makespan = 772;
----------
assign = array1d(1..18 ,[8, 8, 7, 2, 7, 7, 8, 2, 8, 2, 1, 2, 3, 4, 5, 6, 7, 8]);
next = array1d(1..18 ,[2, 9, 5, 10, 17, 3, 1, 4, 18, 12, 8, 13, 14, 15, 16, 6, 7, 11]);
makespan = 765;
----------
assign = array1d(1..18 ,[8, 8, 7, 2, 7, 7, 8, 2, 8, 2, 1, 2, 3, 4, 5, 6, 7, 8]);
next = array1d(1..18 ,[2, 9, 5, 10, 17, 3, 1, 4, 18, 12, 8, 13, 14, 15, 16, 6, 7, 11]);
makespan = 764;
----------
assign = array1d(1..18 ,[3, 3, 7, 8, 7, 7, 3, 8, 3, 8, 1, 2, 3, 4, 5, 6, 7, 8]);
next = array1d(1..18 ,[2, 9, 5, 10, 17, 3, 1, 4, 13, 18, 12, 7, 14, 15, 16, 6, 8, 11]);
makespan = 757;
----------
assign = array1d(1..18 ,[3, 3, 7, 8, 7, 7, 3, 8, 3, 8, 1, 2, 3, 4, 5, 6, 7, 8]);
next = array1d(1..18 ,[2, 9, 5, 10, 17, 3, 1, 4, 13, 18, 12, 7, 14, 15, 16, 6, 8, 11]);
makespan = 750;
----------
assign = array1d(1..18 ,[3, 3, 7, 8, 7, 7, 3, 8, 3, 8, 1, 2, 3, 4, 5, 6, 7, 8]);
next = array1d(1..18 ,[2, 9, 5, 10, 17, 3, 1, 4, 13, 18, 12, 7, 14, 15, 16, 6, 8, 11]);
makespan = 746;
----------
assign = array1d(1..18 ,[3, 3, 7, 8, 7, 7, 3, 8, 3, 8, 1, 2, 3, 4, 5, 6, 7, 8]);
next = array1d(1..18 ,[2, 9, 5, 10, 17, 3, 1, 4, 13, 18, 12, 7, 14, 15, 16, 6, 8, 11]);
makespan = 745;
----------
assign = array1d(1..18 ,[3, 3, 7, 8, 7, 7, 3, 8, 3, 8, 1, 2, 3, 4, 5, 6, 7, 8]);
next = array1d(1..18 ,[2, 9, 5, 10, 17, 3, 1, 4, 13, 18, 12, 7, 14, 15, 16, 6, 8, 11]);
makespan = 738;
----------
assign = array1d(1..18 ,[3, 3, 7, 8, 7, 7, 3, 8, 3, 8, 1, 2, 3, 4, 5, 6, 7, 8]);
next = array1d(1..18 ,[2, 9, 5, 10, 17, 3, 1, 4, 13, 18, 12, 7, 14, 15, 16, 6, 8, 11]);
makespan = 723;
----------
assign = array1d(1..18 ,[3, 3, 7, 8, 7, 7, 3, 8, 3, 8, 1, 2, 3, 4, 5, 6, 7, 8]);
next = array1d(1..18 ,[2, 9, 5, 10, 17, 3, 1, 4, 13, 18, 12, 7, 14, 15, 16, 6, 8, 11]);
makespan = 720;
----------
assign = array1d(1..18 ,[8, 8, 4, 2, 4, 7, 8, 2, 7, 2, 1, 2, 3, 4, 5, 6, 7, 8]);
next = array1d(1..18 ,[2, 18, 5, 10, 14, 17, 1, 4, 6, 12, 8, 13, 3, 15, 16, 9, 7, 11]);
makespan = 719;
----------
assign = array1d(1..18 ,[7, 8, 3, 4, 3, 8, 7, 4, 8, 4, 1, 2, 3, 4, 5, 6, 7, 8]);
next = array1d(1..18 ,[17, 9, 5, 10, 13, 18, 1, 4, 6, 14, 12, 3, 8, 15, 16, 7, 2, 11]);
makespan = 699;
----------
assign = array1d(1..18 ,[7, 7, 6, 8, 6, 6, 5, 8, 7, 8, 1, 2, 3, 4, 5, 6, 7, 8]);
next = array1d(1..18 ,[2, 9, 5, 10, 16, 3, 15, 4, 17, 18, 12, 13, 14, 7, 6, 1, 8, 11]);
makespan = 694;
----------
assign = array1d(1..18 ,[8, 8, 7, 1, 7, 7, 6, 1, 8, 1, 1, 2, 3, 4, 5, 6, 7, 8]);
next = array1d(1..18 ,[2, 9, 5, 10, 17, 3, 16, 4, 18, 11, 12, 13, 14, 15, 7, 6, 1, 8]);
makespan = 692;
----------
assign = array1d(1..18 ,[8, 8, 6, 7, 6, 6, 5, 7, 8, 7, 1, 2, 3, 4, 5, 6, 7, 8]);
next = array1d(1..18 ,[2, 9, 5, 10, 16, 3, 15, 4, 18, 17, 12, 13, 14, 7, 6, 8, 1, 11]);
makespan = 686;
----------
assign = array1d(1..18 ,[3, 3, 7, 8, 7, 7, 6, 8, 3, 8, 1, 2, 3, 4, 5, 6, 7, 8]);
next = array1d(1..18 ,[2, 9, 5, 10, 17, 3, 16, 4, 13, 18, 12, 1, 14, 15, 7, 6, 8, 11]);
makespan = 685;
----------
assign = array1d(1..18 ,[3, 3, 7, 8, 7, 7, 6, 8, 3, 8, 1, 2, 3, 4, 5, 6, 7, 8]);
next = array1d(1..18 ,[2, 9, 5, 10, 17, 3, 16, 4, 13, 18, 12, 1, 14, 15, 7, 6, 8, 11]);
makespan = 679;
----------
assign = array1d(1..18 ,[3, 3, 7, 8, 7, 7, 6, 8, 3, 8, 1, 2, 3, 4, 5, 6, 7, 8]);
next = array1d(1..18 ,[2, 9, 5, 10, 17, 3, 16, 4, 13, 18, 12, 1, 14, 15, 7, 6, 8, 11]);
makespan = 678;
----------
assign = array1d(1..18 ,[3, 3, 7, 8, 7, 7, 6, 8, 3, 8, 1, 2, 3, 4, 5, 6, 7, 8]);
next = array1d(1..18 ,[2, 9, 5, 10, 17, 3, 16, 4, 13, 18, 12, 1, 14, 15, 7, 6, 8, 11]);
makespan = 676;
----------
assign = array1d(1..18 ,[3, 3, 7, 8, 7, 7, 6, 8, 3, 8, 1, 2, 3, 4, 5, 6, 7, 8]);
next = array1d(1..18 ,[2, 9, 5, 10, 17, 3, 16, 4, 13, 18, 12, 1, 14, 15, 7, 6, 8, 11]);
makespan = 667;
----------
assign = array1d(1..18 ,[3, 3, 7, 8, 7, 7, 6, 8, 3, 8, 1, 2, 3, 4, 5, 6, 7, 8]);
next = array1d(1..18 ,[2, 9, 5, 10, 17, 3, 16, 4, 13, 18, 12, 1, 14, 15, 7, 6, 8, 11]);
makespan = 651;
----------
assign = array1d(1..18 ,[3, 3, 7, 8, 7, 7, 6, 8, 3, 8, 1, 2, 3, 4, 5, 6, 7, 8]);
next = array1d(1..18 ,[2, 9, 5, 10, 17, 3, 16, 4, 13, 18, 12, 1, 14, 15, 7, 6, 8, 11]);
makespan = 650;
----------
assign = array1d(1..18 ,[3, 3, 7, 8, 7, 7, 6, 8, 3, 8, 1, 2, 3, 4, 5, 6, 7, 8]);
next = array1d(1..18 ,[2, 9, 5, 10, 17, 3, 16, 4, 13, 18, 12, 1, 14, 15, 7, 6, 8, 11]);
makespan = 641;
----------
assign = array1d(1..18 ,[3, 3, 7, 8, 7, 7, 6, 8, 3, 8, 1, 2, 3, 4, 5, 6, 7, 8]);
next = array1d(1..18 ,[2, 9, 5, 10, 17, 3, 16, 4, 13, 18, 12, 1, 14, 15, 7, 6, 8, 11]);
makespan = 638;
----------
assign = array1d(1..18 ,[3, 3, 7, 8, 7, 7, 6, 8, 3, 8, 1, 2, 3, 4, 5, 6, 7, 8]);
next = array1d(1..18 ,[2, 9, 5, 10, 17, 3, 16, 4, 13, 18, 12, 1, 14, 15, 7, 6, 8, 11]);
makespan = 630;
----------
assign = array1d(1..18 ,[3, 3, 7, 8, 7, 7, 6, 8, 3, 8, 1, 2, 3, 4, 5, 6, 7, 8]);
next = array1d(1..18 ,[2, 9, 5, 10, 17, 3, 16, 4, 13, 18, 12, 1, 14, 15, 7, 6, 8, 11]);
makespan = 627;
----------
assign = array1d(1..18 ,[3, 3, 7, 8, 7, 7, 6, 8, 3, 8, 1, 2, 3, 4, 5, 6, 7, 8]);
next = array1d(1..18 ,[2, 9, 5, 10, 17, 3, 16, 4, 13, 18, 12, 1, 14, 15, 7, 6, 8, 11]);
makespan = 624;
----------
assign = array1d(1..18 ,[3, 3, 7, 8, 7, 7, 6, 8, 3, 8, 1, 2, 3, 4, 5, 6, 7, 8]);
next = array1d(1..18 ,[2, 9, 5, 10, 17, 3, 16, 4, 13, 18, 12, 1, 14, 15, 7, 6, 8, 11]);
makespan = 616;
----------
assign = array1d(1..18 ,[2, 5, 7, 8, 7, 5, 6, 8, 5, 8, 1, 2, 3, 4, 5, 6, 7, 8]);
next = array1d(1..18 ,[12, 9, 5, 10, 17, 15, 16, 4, 6, 18, 1, 13, 14, 2, 7, 3, 8, 11]);
makespan = 613;
----------
assign = array1d(1..18 ,[6, 6, 7, 8, 7, 2, 6, 8, 7, 8, 1, 2, 3, 4, 5, 6, 7, 8]);
next = array1d(1..18 ,[2, 16, 5, 10, 17, 12, 1, 4, 3, 18, 6, 13, 14, 15, 7, 9, 8, 11]);
makespan = 609;
----------
assign = array1d(1..18 ,[6, 6, 7, 8, 7, 2, 6, 8, 2, 8, 1, 2, 3, 4, 5, 6, 7, 8]);
next = array1d(1..18 ,[2, 16, 5, 10, 17, 12, 1, 4, 6, 18, 9, 13, 14, 15, 7, 3, 8, 11]);
makespan = 607;
----------
assign = array1d(1..18 ,[6, 6, 7, 8, 7, 2, 6, 8, 2, 8, 1, 2, 3, 4, 5, 6, 7, 8]);
next = array1d(1..18 ,[2, 16, 5, 10, 17, 12, 1, 4, 6, 18, 9, 13, 14, 15, 7, 3, 8, 11]);
makespan = 604;
----------
assign = array1d(1..18 ,[6, 6, 7, 8, 7, 2, 6, 8, 2, 8, 1, 2, 3, 4, 5, 6, 7, 8]);
next = array1d(1..18 ,[2, 16, 5, 10, 17, 12, 1, 4, 6, 18, 9, 13, 14, 15, 7, 3, 8, 11]);
makespan = 599;
----------
assign = array1d(1..18 ,[6, 6, 8, 7, 8, 2, 6, 7, 2, 7, 1, 2, 3, 4, 5, 6, 7, 8]);
next = array1d(1..18 ,[2, 16, 5, 10, 18, 12, 1, 4, 6, 17, 9, 13, 14, 15, 7, 8, 3, 11]);
makespan = 592;
----------
assign = array1d(1..18 ,[8, 8, 3, 7, 3, 2, 8, 7, 2, 7, 1, 2, 3, 4, 5, 6, 7, 8]);
next = array1d(1..18 ,[2, 18, 5, 10, 13, 12, 1, 4, 6, 17, 9, 3, 14, 15, 16, 8, 7, 11]);
makespan = 587;
----------
assign = array1d(1..18 ,[7, 7, 3, 6, 3, 2, 8, 6, 7, 6, 1, 2, 3, 4, 5, 6, 7, 8]);
next = array1d(1..18 ,[2, 9, 5, 10, 13, 12, 18, 4, 17, 16, 6, 3, 14, 15, 8, 1, 7, 11]);
makespan = 583;
----------
assign = array1d(1..18 ,[5, 5, 6, 3, 6, 2, 8, 3, 8, 3, 1, 2, 3, 4, 5, 6, 7, 8]);
next = array1d(1..18 ,[2, 15, 5, 10, 16, 12, 9, 4, 18, 13, 6, 8, 14, 1, 3, 17, 7, 11]);
makespan = 581;
----------
assign = array1d(1..18 ,[6, 6, 4, 5, 4, 4, 8, 5, 8, 5, 1, 2, 3, 4, 5, 6, 7, 8]);
next = array1d(1..18 ,[2, 16, 5, 10, 14, 3, 9, 4, 18, 15, 12, 13, 6, 8, 1, 17, 7, 11]);
makespan = 580;
----------
assign = array1d(1..18 ,[8, 8, 4, 5, 4, 4, 7, 5, 8, 5, 1, 2, 3, 4, 5, 6, 7, 8]);
next = array1d(1..18 ,[2, 18, 5, 10, 14, 3, 17, 4, 1, 15, 12, 13, 6, 8, 16, 7, 9, 11]);
makespan = 577;
----------
assign = array1d(1..18 ,[8, 8, 4, 5, 4, 4, 6, 5, 6, 5, 1, 2, 3, 4, 5, 6, 7, 8]);
next = array1d(1..18 ,[2, 18, 5, 10, 14, 3, 16, 4, 7, 15, 12, 13, 6, 8, 9, 17, 1, 11]);
makespan = 574;
----------
assign = array1d(1..18 ,[8, 8, 1, 5, 1, 1, 6, 5, 6, 5, 1, 2, 3, 4, 5, 6, 7, 8]);
next = array1d(1..18 ,[2, 18, 5, 10, 11, 3, 16, 4, 7, 15, 12, 13, 14, 8, 9, 17, 1, 6]);
makespan = 572;
----------
assign = array1d(1..18 ,[8, 8, 1, 5, 1, 1, 6, 5, 6, 5, 1, 2, 3, 4, 5, 6, 7, 8]);
next = array1d(1..18 ,[2, 18, 5, 10, 11, 3, 16, 4, 7, 15, 12, 13, 14, 8, 9, 17, 1, 6]);
makespan = 568;
----------
assign = array1d(1..18 ,[7, 6, 6, 7, 6, 8, 8, 4, 7, 5, 1, 2, 3, 4, 5, 6, 7, 8]);
next = array1d(1..18 ,[9, 16, 5, 17, 2, 18, 6, 14, 4, 15, 12, 13, 8, 10, 3, 1, 7, 11]);
makespan = 567;
----------
assign = array1d(1..18 ,[1, 8, 5, 8, 1, 5, 7, 6, 7, 1, 1, 2, 3, 4, 5, 6, 7, 8]);
next = array1d(1..18 ,[10, 18, 15, 2, 1, 3, 17, 16, 7, 11, 12, 13, 14, 6, 8, 9, 4, 5]);
makespan = 566;
----------
assign = array1d(1..18 ,[7, 6, 8, 8, 7, 1, 1, 6, 1, 8, 1, 2, 3, 4, 5, 6, 7, 8]);
next = array1d(1..18 ,[17, 16, 18, 3, 1, 9, 6, 2, 11, 4, 12, 13, 14, 15, 8, 5, 10, 7]);
makespan = 564;
----------
assign = array1d(1..18 ,[7, 5, 6, 7, 7, 8, 8, 6, 5, 5, 1, 2, 3, 4, 5, 6, 7, 8]);
next = array1d(1..18 ,[17, 10, 16, 5, 1, 18, 6, 3, 15, 9, 12, 13, 14, 2, 8, 4, 7, 11]);
makespan = 560;
----------
assign = array1d(1..18 ,[6, 8, 7, 2, 2, 6, 3, 7, 8, 8, 1, 2, 3, 4, 5, 6, 7, 8]);
next = array1d(1..18 ,[6, 10, 17, 5, 12, 16, 13, 3, 18, 9, 4, 7, 14, 15, 1, 8, 2, 11]);
makespan = 558;
----------
assign = array1d(1..18 ,[3, 5, 1, 8, 8, 1, 2, 1, 5, 5, 1, 2, 3, 4, 5, 6, 7, 8]);
next = array1d(1..18 ,[13, 10, 6, 5, 18, 11, 12, 3, 15, 9, 7, 1, 14, 2, 16, 17, 4, 8]);
makespan = 557;
----------
assign = array1d(1..18 ,[3, 5, 1, 8, 8, 1, 6, 1, 5, 5, 1, 2, 3, 4, 5, 6, 7, 8]);
next = array1d(1..18 ,[13, 10, 6, 5, 18, 11, 16, 3, 15, 9, 12, 1, 14, 2, 7, 17, 4, 8]);
makespan = 555;
----------
assign = array1d(1..18 ,[3, 8, 1, 7, 7, 1, 5, 1, 8, 8, 1, 2, 3, 4, 5, 6, 7, 8]);
next = array1d(1..18 ,[13, 10, 6, 5, 17, 11, 15, 3, 18, 9, 12, 1, 14, 7, 16, 4, 2, 8]);
makespan = 554;
----------
assign = array1d(1..18 ,[3, 8, 1, 7, 7, 1, 5, 1, 8, 8, 1, 2, 3, 4, 5, 6, 7, 8]);
next = array1d(1..18 ,[13, 10, 6, 5, 17, 11, 15, 3, 18, 9, 12, 1, 14, 7, 16, 4, 2, 8]);
makespan = 553;
----------
assign = array1d(1..18 ,[3, 8, 1, 7, 7, 1, 5, 1, 8, 8, 1, 2, 3, 4, 5, 6, 7, 8]);
next = array1d(1..18 ,[13, 10, 6, 5, 17, 11, 15, 3, 18, 9, 12, 1, 14, 7, 16, 4, 2, 8]);
makespan = 552;
----------
assign = array1d(1..18 ,[3, 8, 1, 7, 7, 1, 5, 1, 8, 8, 1, 2, 3, 4, 5, 6, 7, 8]);
next = array1d(1..18 ,[13, 10, 6, 5, 17, 11, 15, 3, 18, 9, 12, 1, 14, 7, 16, 4, 2, 8]);
makespan = 547;
----------
assign = array1d(1..18 ,[3, 8, 1, 7, 7, 1, 5, 1, 8, 8, 1, 2, 3, 4, 5, 6, 7, 8]);
next = array1d(1..18 ,[13, 10, 6, 5, 17, 11, 15, 3, 18, 9, 12, 1, 14, 7, 16, 4, 2, 8]);
makespan = 546;
----------
assign = array1d(1..18 ,[3, 8, 1, 7, 7, 1, 5, 1, 8, 8, 1, 2, 3, 4, 5, 6, 7, 8]);
next = array1d(1..18 ,[13, 10, 6, 5, 17, 11, 15, 3, 18, 9, 12, 1, 14, 7, 16, 4, 2, 8]);
makespan = 544;
----------
assign = array1d(1..18 ,[3, 8, 1, 7, 7, 1, 5, 1, 8, 8, 1, 2, 3, 4, 5, 6, 7, 8]);
next = array1d(1..18 ,[13, 10, 6, 5, 17, 11, 15, 3, 18, 9, 12, 1, 14, 7, 16, 4, 2, 8]);
makespan = 543;
----------
assign = array1d(1..18 ,[3, 8, 1, 7, 7, 1, 5, 1, 8, 8, 1, 2, 3, 4, 5, 6, 7, 8]);
next = array1d(1..18 ,[13, 10, 6, 5, 17, 11, 15, 3, 18, 9, 12, 1, 14, 7, 16, 4, 2, 8]);
makespan = 542;
----------
assign = array1d(1..18 ,[3, 8, 1, 7, 7, 1, 5, 1, 8, 8, 1, 2, 3, 4, 5, 6, 7, 8]);
next = array1d(1..18 ,[13, 10, 6, 5, 17, 11, 15, 3, 18, 9, 12, 1, 14, 7, 16, 4, 2, 8]);
makespan = 538;
----------
assign = array1d(1..18 ,[3, 8, 1, 4, 4, 1, 8, 1, 7, 7, 1, 2, 3, 4, 5, 6, 7, 8]);
next = array1d(1..18 ,[13, 18, 6, 5, 14, 11, 2, 3, 17, 9, 12, 1, 4, 15, 16, 10, 7, 8]);
makespan = 536;
----------
assign = array1d(1..18 ,[1, 7, 6, 1, 1, 5, 7, 6, 8, 8, 1, 2, 3, 4, 5, 6, 7, 8]);
next = array1d(1..18 ,[11, 17, 16, 5, 1, 15, 2, 3, 10, 18, 12, 13, 14, 6, 8, 7, 9, 4]);
makespan = 535;
----------
assign = array1d(1..18 ,[1, 7, 8, 1, 1, 5, 2, 8, 4, 5, 1, 2, 3, 4, 5, 6, 7, 8]);
next = array1d(1..18 ,[11, 17, 18, 5, 1, 15, 12, 3, 14, 6, 7, 13, 9, 10, 16, 2, 8, 4]);
makespan = 534;
----------
assign = array1d(1..18 ,[1, 7, 8, 1, 1, 5, 2, 8, 5, 2, 1, 2, 3, 4, 5, 6, 7, 8]);
next = array1d(1..18 ,[11, 17, 18, 5, 1, 15, 10, 3, 6, 12, 7, 13, 14, 9, 16, 2, 8, 4]);
makespan = 533;
----------
assign = array1d(1..18 ,[8, 5, 7, 7, 7, 8, 3, 3, 3, 5, 1, 2, 3, 4, 5, 6, 7, 8]);
next = array1d(1..18 ,[6, 15, 4, 5, 17, 18, 8, 13, 7, 2, 12, 9, 14, 10, 16, 3, 1, 11]);
makespan = 532;
----------
assign = array1d(1..18 ,[7, 5, 6, 8, 8, 7, 3, 3, 3, 6, 1, 2, 3, 4, 5, 6, 7, 8]);
next = array1d(1..18 ,[6, 15, 16, 5, 18, 17, 8, 13, 7, 3, 12, 9, 14, 2, 10, 1, 4, 11]);
makespan = 530;
----------
assign = array1d(1..18 ,[8, 6, 7, 7, 7, 6, 3, 3, 3, 8, 1, 2, 3, 4, 5, 6, 7, 8]);
next = array1d(1..18 ,[18, 16, 4, 5, 17, 2, 8, 13, 7, 1, 12, 9, 14, 15, 6, 3, 10, 11]);
makespan = 529;
----------
assign = array1d(1..18 ,[6, 8, 7, 7, 7, 8, 5, 6, 5, 2, 1, 2, 3, 4, 5, 6, 7, 8]);
next = array1d(1..18 ,[16, 18, 4, 5, 17, 2, 15, 1, 7, 12, 10, 13, 14, 9, 8, 3, 6, 11]);
makespan = 528;
----------
assign = array1d(1..18 ,[1, 5, 7, 7, 7, 8, 1, 8, 1, 5, 1, 2, 3, 4, 5, 6, 7, 8]);
next = array1d(1..18 ,[9, 10, 4, 5, 17, 8, 11, 18, 7, 15, 12, 13, 14, 2, 16, 3, 6, 1]);
makespan = 527;
----------
assign = array1d(1..18 ,[8, 7, 1, 4, 4, 4, 6, 1, 8, 7, 1, 2, 3, 4, 5, 6, 7, 8]);
next = array1d(1..18 ,[9, 10, 11, 5, 6, 14, 16, 3, 18, 17, 12, 13, 4, 15, 7, 2, 1, 8]);
makespan = 523;
----------
assign = array1d(1..18 ,[2, 8, 7, 4, 4, 4, 6, 6, 1, 8, 1, 2, 3, 4, 5, 6, 7, 8]);
next = array1d(1..18 ,[12, 10, 17, 5, 6, 14, 8, 16, 11, 18, 1, 13, 4, 15, 7, 3, 2, 9]);
makespan = 522;
----------
assign = array1d(1..18 ,[3, 8, 1, 7, 7, 8, 6, 1, 2, 6, 1, 2, 3, 4, 5, 6, 7, 8]);
next = array1d(1..18 ,[13, 18, 11, 5, 17, 2, 16, 3, 12, 7, 9, 1, 14, 15, 10, 4, 6, 8]);
makespan = 521;
----------
assign = array1d(1..18 ,[3, 8, 1, 7, 7, 8, 6, 1, 2, 6, 1, 2, 3, 4, 5, 6, 7, 8]);
next = array1d(1..18 ,[13, 18, 11, 5, 17, 2, 16, 3, 12, 7, 9, 1, 14, 15, 10, 4, 6, 8]);
makespan = 520;
----------
assign = array1d(1..18 ,[3, 8, 1, 7, 7, 8, 6, 1, 2, 6, 1, 2, 3, 4, 5, 6, 7, 8]);
next = array1d(1..18 ,[13, 18, 11, 5, 17, 2, 16, 3, 12, 7, 9, 1, 14, 15, 10, 4, 6, 8]);
makespan = 517;
----------
assign = array1d(1..18 ,[3, 8, 1, 7, 7, 8, 6, 1, 2, 6, 1, 2, 3, 4, 5, 6, 7, 8]);
next = array1d(1..18 ,[13, 18, 11, 5, 17, 2, 16, 3, 12, 7, 9, 1, 14, 15, 10, 4, 6, 8]);
makespan = 516;
----------
assign = array1d(1..18 ,[3, 8, 1, 7, 7, 8, 6, 1, 2, 6, 1, 2, 3, 4, 5, 6, 7, 8]);
next = array1d(1..18 ,[13, 18, 11, 5, 17, 2, 16, 3, 12, 7, 9, 1, 14, 15, 10, 4, 6, 8]);
makespan = 515;
----------
assign = array1d(1..18 ,[3, 8, 1, 7, 7, 8, 6, 1, 2, 6, 1, 2, 3, 4, 5, 6, 7, 8]);
next = array1d(1..18 ,[13, 18, 11, 5, 17, 2, 16, 3, 12, 7, 9, 1, 14, 15, 10, 4, 6, 8]);
makespan = 512;
----------
assign = array1d(1..18 ,[3, 8, 1, 7, 7, 8, 6, 1, 2, 6, 1, 2, 3, 4, 5, 6, 7, 8]);
next = array1d(1..18 ,[13, 18, 11, 5, 17, 2, 16, 3, 12, 7, 9, 1, 14, 15, 10, 4, 6, 8]);
makespan = 511;
----------
assign = array1d(1..18 ,[3, 8, 1, 7, 7, 8, 6, 1, 2, 6, 1, 2, 3, 4, 5, 6, 7, 8]);
next = array1d(1..18 ,[13, 18, 11, 5, 17, 2, 16, 3, 12, 7, 9, 1, 14, 15, 10, 4, 6, 8]);
makespan = 509;
----------
assign = array1d(1..18 ,[3, 8, 1, 7, 7, 8, 6, 1, 2, 6, 1, 2, 3, 4, 5, 6, 7, 8]);
next = array1d(1..18 ,[13, 18, 11, 5, 17, 2, 16, 3, 12, 7, 9, 1, 14, 15, 10, 4, 6, 8]);
makespan = 508;
----------
assign = array1d(1..18 ,[3, 8, 1, 7, 7, 8, 6, 1, 2, 6, 1, 2, 3, 4, 5, 6, 7, 8]);
next = array1d(1..18 ,[13, 18, 11, 5, 17, 2, 16, 3, 12, 7, 9, 1, 14, 15, 10, 4, 6, 8]);
makespan = 504;
----------
assign = array1d(1..18 ,[3, 8, 1, 7, 7, 8, 6, 1, 2, 6, 1, 2, 3, 4, 5, 6, 7, 8]);
next = array1d(1..18 ,[13, 18, 11, 5, 17, 2, 16, 3, 12, 7, 9, 1, 14, 15, 10, 4, 6, 8]);
makespan = 503;
----------
assign = array1d(1..18 ,[3, 8, 1, 7, 7, 8, 6, 1, 2, 6, 1, 2, 3, 4, 5, 6, 7, 8]);
next = array1d(1..18 ,[13, 18, 11, 5, 17, 2, 16, 3, 12, 7, 9, 1, 14, 15, 10, 4, 6, 8]);
makespan = 501;
----------
assign = array1d(1..18 ,[3, 8, 1, 7, 7, 8, 6, 1, 2, 6, 1, 2, 3, 4, 5, 6, 7, 8]);
next = array1d(1..18 ,[13, 18, 11, 5, 17, 2, 16, 3, 12, 7, 9, 1, 14, 15, 10, 4, 6, 8]);
makespan = 499;
----------
assign = array1d(1..18 ,[3, 8, 1, 7, 7, 8, 6, 1, 2, 6, 1, 2, 3, 4, 5, 6, 7, 8]);
next = array1d(1..18 ,[13, 18, 11, 5, 17, 2, 16, 3, 12, 7, 9, 1, 14, 15, 10, 4, 6, 8]);
makespan = 498;
----------
assign = array1d(1..18 ,[3, 8, 1, 7, 7, 8, 6, 1, 2, 6, 1, 2, 3, 4, 5, 6, 7, 8]);
next = array1d(1..18 ,[13, 18, 11, 5, 17, 2, 16, 3, 12, 7, 9, 1, 14, 15, 10, 4, 6, 8]);
makespan = 497;
----------
assign = array1d(1..18 ,[3, 8, 1, 7, 7, 8, 6, 1, 2, 6, 1, 2, 3, 4, 5, 6, 7, 8]);
next = array1d(1..18 ,[13, 18, 11, 5, 17, 2, 16, 3, 12, 7, 9, 1, 14, 15, 10, 4, 6, 8]);
makespan = 495;
----------
assign = array1d(1..18 ,[3, 8, 1, 7, 7, 8, 6, 1, 2, 6, 1, 2, 3, 4, 5, 6, 7, 8]);
next = array1d(1..18 ,[13, 18, 11, 5, 17, 2, 16, 3, 12, 7, 9, 1, 14, 15, 10, 4, 6, 8]);
makespan = 491;
----------
assign = array1d(1..18 ,[3, 8, 1, 7, 7, 8, 6, 1, 2, 6, 1, 2, 3, 4, 5, 6, 7, 8]);
next = array1d(1..18 ,[13, 18, 11, 5, 17, 2, 16, 3, 12, 7, 9, 1, 14, 15, 10, 4, 6, 8]);
makespan = 490;
----------
assign = array1d(1..18 ,[3, 8, 1, 7, 7, 8, 6, 1, 2, 6, 1, 2, 3, 4, 5, 6, 7, 8]);
next = array1d(1..18 ,[13, 18, 11, 5, 17, 2, 16, 3, 12, 7, 9, 1, 14, 15, 10, 4, 6, 8]);
makespan = 482;
----------
assign = array1d(1..18 ,[3, 8, 1, 7, 7, 8, 6, 1, 2, 6, 1, 2, 3, 4, 5, 6, 7, 8]);
next = array1d(1..18 ,[13, 18, 11, 5, 17, 2, 16, 3, 12, 7, 9, 1, 14, 15, 10, 4, 6, 8]);
makespan = 480;
----------
assign = array1d(1..18 ,[3, 8, 1, 7, 7, 8, 6, 1, 2, 6, 1, 2, 3, 4, 5, 6, 7, 8]);
next = array1d(1..18 ,[13, 18, 11, 5, 17, 2, 16, 3, 12, 7, 9, 1, 14, 15, 10, 4, 6, 8]);
makespan = 477;
----------
assign = array1d(1..18 ,[3, 8, 1, 7, 7, 8, 6, 1, 2, 6, 1, 2, 3, 4, 5, 6, 7, 8]);
next = array1d(1..18 ,[13, 18, 11, 5, 17, 2, 16, 3, 12, 7, 9, 1, 14, 15, 10, 4, 6, 8]);
makespan = 475;
----------
assign = array1d(1..18 ,[3, 8, 1, 7, 7, 8, 6, 1, 2, 6, 1, 2, 3, 4, 5, 6, 7, 8]);
next = array1d(1..18 ,[13, 18, 11, 5, 17, 2, 16, 3, 12, 7, 9, 1, 14, 15, 10, 4, 6, 8]);
makespan = 470;
----------
assign = array1d(1..18 ,[3, 8, 1, 7, 7, 8, 6, 1, 2, 6, 1, 2, 3, 4, 5, 6, 7, 8]);
next = array1d(1..18 ,[13, 18, 11, 5, 17, 2, 16, 3, 12, 7, 9, 1, 14, 15, 10, 4, 6, 8]);
makespan = 469;
----------
assign = array1d(1..18 ,[3, 8, 1, 7, 7, 8, 6, 1, 2, 6, 1, 2, 3, 4, 5, 6, 7, 8]);
next = array1d(1..18 ,[13, 18, 11, 5, 17, 2, 16, 3, 12, 7, 9, 1, 14, 15, 10, 4, 6, 8]);
makespan = 468;
----------
assign = array1d(1..18 ,[3, 8, 1, 7, 7, 8, 6, 1, 2, 6, 1, 2, 3, 4, 5, 6, 7, 8]);
next = array1d(1..18 ,[13, 18, 11, 5, 17, 2, 16, 3, 12, 7, 9, 1, 14, 15, 10, 4, 6, 8]);
makespan = 466;
----------
assign = array1d(1..18 ,[3, 8, 1, 7, 7, 8, 6, 1, 2, 6, 1, 2, 3, 4, 5, 6, 7, 8]);
next = array1d(1..18 ,[13, 18, 11, 5, 17, 2, 16, 3, 12, 7, 9, 1, 14, 15, 10, 4, 6, 8]);
makespan = 462;
----------
assign = array1d(1..18 ,[3, 8, 1, 7, 7, 8, 6, 1, 2, 6, 1, 2, 3, 4, 5, 6, 7, 8]);
next = array1d(1..18 ,[13, 18, 11, 5, 17, 2, 16, 3, 12, 7, 9, 1, 14, 15, 10, 4, 6, 8]);
makespan = 459;
----------
assign = array1d(1..18 ,[3, 8, 1, 7, 7, 8, 6, 1, 2, 6, 1, 2, 3, 4, 5, 6, 7, 8]);
next = array1d(1..18 ,[13, 18, 11, 5, 17, 2, 16, 3, 12, 7, 9, 1, 14, 15, 10, 4, 6, 8]);
makespan = 449;
----------
assign = array1d(1..18 ,[3, 8, 1, 7, 7, 8, 6, 1, 2, 6, 1, 2, 3, 4, 5, 6, 7, 8]);
next = array1d(1..18 ,[13, 18, 11, 5, 17, 2, 16, 3, 12, 7, 9, 1, 14, 15, 10, 4, 6, 8]);
makespan = 446;
----------
assign = array1d(1..18 ,[3, 8, 1, 7, 7, 8, 6, 1, 2, 6, 1, 2, 3, 4, 5, 6, 7, 8]);
next = array1d(1..18 ,[13, 18, 11, 5, 17, 2, 16, 3, 12, 7, 9, 1, 14, 15, 10, 4, 6, 8]);
makespan = 444;
----------
assign = array1d(1..18 ,[3, 8, 1, 7, 7, 8, 6, 1, 2, 6, 1, 2, 3, 4, 5, 6, 7, 8]);
next = array1d(1..18 ,[13, 18, 11, 5, 17, 2, 16, 3, 12, 7, 9, 1, 14, 15, 10, 4, 6, 8]);
makespan = 440;
----------
assign = array1d(1..18 ,[3, 8, 1, 7, 7, 8, 6, 1, 2, 6, 1, 2, 3, 4, 5, 6, 7, 8]);
next = array1d(1..18 ,[13, 18, 11, 5, 17, 2, 16, 3, 12, 7, 9, 1, 14, 15, 10, 4, 6, 8]);
makespan = 439;
----------
assign = array1d(1..18 ,[3, 8, 1, 7, 7, 8, 6, 1, 2, 6, 1, 2, 3, 4, 5, 6, 7, 8]);
next = array1d(1..18 ,[13, 18, 11, 5, 17, 2, 16, 3, 12, 7, 9, 1, 14, 15, 10, 4, 6, 8]);
makespan = 437;
----------
assign = array1d(1..18 ,[3, 8, 1, 7, 7, 8, 6, 1, 2, 6, 1, 2, 3, 4, 5, 6, 7, 8]);
next = array1d(1..18 ,[13, 18, 11, 5, 17, 2, 16, 3, 12, 7, 9, 1, 14, 15, 10, 4, 6, 8]);
makespan = 432;
----------
assign = array1d(1..18 ,[3, 8, 1, 7, 7, 8, 6, 1, 2, 6, 1, 2, 3, 4, 5, 6, 7, 8]);
next = array1d(1..18 ,[13, 18, 11, 5, 17, 2, 16, 3, 12, 7, 9, 1, 14, 15, 10, 4, 6, 8]);
makespan = 431;
----------
assign = array1d(1..18 ,[3, 8, 1, 7, 7, 8, 6, 1, 2, 6, 1, 2, 3, 4, 5, 6, 7, 8]);
next = array1d(1..18 ,[13, 18, 11, 5, 17, 2, 16, 3, 12, 7, 9, 1, 14, 15, 10, 4, 6, 8]);
makespan = 428;
----------
assign = array1d(1..18 ,[3, 8, 1, 7, 7, 8, 6, 1, 2, 6, 1, 2, 3, 4, 5, 6, 7, 8]);
next = array1d(1..18 ,[13, 18, 11, 5, 17, 2, 16, 3, 12, 7, 9, 1, 14, 15, 10, 4, 6, 8]);
makespan = 427;
----------
assign = array1d(1..18 ,[3, 8, 1, 7, 7, 8, 6, 1, 2, 6, 1, 2, 3, 4, 5, 6, 7, 8]);
next = array1d(1..18 ,[13, 18, 11, 5, 17, 2, 16, 3, 12, 7, 9, 1, 14, 15, 10, 4, 6, 8]);
makespan = 424;
----------
assign = array1d(1..18 ,[3, 8, 1, 7, 7, 8, 6, 1, 2, 6, 1, 2, 3, 4, 5, 6, 7, 8]);
next = array1d(1..18 ,[13, 18, 11, 5, 17, 2, 16, 3, 12, 7, 9, 1, 14, 15, 10, 4, 6, 8]);
makespan = 421;
----------
assign = array1d(1..18 ,[3, 8, 1, 7, 7, 8, 6, 1, 2, 6, 1, 2, 3, 4, 5, 6, 7, 8]);
next = array1d(1..18 ,[13, 18, 11, 5, 17, 2, 16, 3, 12, 7, 9, 1, 14, 15, 10, 4, 6, 8]);
makespan = 419;
----------
assign = array1d(1..18 ,[3, 7, 1, 6, 6, 7, 8, 1, 2, 8, 1, 2, 3, 4, 5, 6, 7, 8]);
next = array1d(1..18 ,[13, 17, 11, 5, 16, 2, 18, 3, 12, 7, 9, 1, 14, 15, 4, 6, 10, 8]);
makespan = 418;
----------
assign = array1d(1..18 ,[3, 7, 1, 8, 8, 7, 6, 1, 2, 6, 1, 2, 3, 4, 5, 6, 7, 8]);
next = array1d(1..18 ,[13, 17, 11, 5, 18, 2, 16, 3, 12, 7, 9, 1, 14, 15, 10, 6, 4, 8]);
makespan = 417;
----------
assign = array1d(1..18 ,[3, 7, 1, 8, 8, 7, 6, 1, 2, 6, 1, 2, 3, 4, 5, 6, 7, 8]);
next = array1d(1..18 ,[13, 17, 11, 5, 18, 2, 16, 3, 12, 7, 9, 1, 14, 15, 10, 6, 4, 8]);
makespan = 414;
----------
assign = array1d(1..18 ,[3, 7, 1, 8, 8, 7, 6, 1, 2, 6, 1, 2, 3, 4, 5, 6, 7, 8]);
next = array1d(1..18 ,[13, 17, 11, 5, 18, 2, 16, 3, 12, 7, 9, 1, 14, 15, 10, 6, 4, 8]);
makespan = 411;
----------
assign = array1d(1..18 ,[3, 7, 1, 8, 8, 7, 6, 1, 2, 6, 1, 2, 3, 4, 5, 6, 7, 8]);
next = array1d(1..18 ,[13, 17, 11, 5, 18, 2, 16, 3, 12, 7, 9, 1, 14, 15, 10, 6, 4, 8]);
makespan = 409;
----------
assign = array1d(1..18 ,[6, 7, 1, 8, 8, 7, 5, 1, 6, 5, 1, 2, 3, 4, 5, 6, 7, 8]);
next = array1d(1..18 ,[16, 17, 11, 5, 18, 2, 15, 3, 1, 7, 12, 13, 14, 10, 9, 6, 4, 8]);
makespan = 406;
----------
assign = array1d(1..18 ,[8, 5, 6, 7, 6, 5, 7, 8, 4, 3, 1, 2, 3, 4, 5, 6, 7, 8]);
next = array1d(1..18 ,[8, 15, 16, 7, 3, 2, 17, 18, 14, 13, 12, 10, 9, 6, 5, 4, 1, 11]);
makespan = 405;
----------
assign = array1d(1..18 ,[8, 5, 1, 4, 6, 5, 7, 8, 6, 7, 1, 2, 3, 4, 5, 6, 7, 8]);
next = array1d(1..18 ,[8, 15, 11, 14, 9, 2, 10, 18, 16, 17, 12, 13, 4, 6, 5, 7, 1, 3]);
makespan = 404;
----------
assign = array1d(1..18 ,[8, 7, 6, 5, 6, 7, 8, 1, 5, 4, 1, 2, 3, 4, 5, 6, 7, 8]);
next = array1d(1..18 ,[7, 17, 16, 9, 3, 2, 18, 11, 15, 14, 12, 13, 10, 4, 5, 6, 1, 8]);
makespan = 403;
----------
assign = array1d(1..18 ,[8, 6, 3, 5, 4, 7, 7, 1, 8, 6, 1, 2, 3, 4, 5, 6, 7, 8]);
next = array1d(1..18 ,[9, 10, 13, 15, 14, 17, 6, 11, 18, 16, 12, 3, 5, 4, 2, 7, 1, 8]);
makespan = 402;
----------
assign = array1d(1..18 ,[8, 6, 3, 1, 1, 7, 5, 7, 8, 6, 1, 2, 3, 4, 5, 6, 7, 8]);
next = array1d(1..18 ,[9, 10, 13, 5, 11, 8, 15, 17, 18, 16, 12, 3, 14, 7, 2, 6, 1, 4]);
makespan = 401;
----------
assign = array1d(1..18 ,[3, 6, 6, 7, 8, 7, 5, 5, 8, 3, 1, 2, 3, 4, 5, 6, 7, 8]);
next = array1d(1..18 ,[10, 3, 16, 6, 18, 17, 8, 15, 5, 13, 12, 1, 14, 7, 2, 4, 9, 11]);
makespan = 399;
----------
assign = array1d(1..18 ,[3, 3, 6, 7, 6, 7, 8, 8, 5, 5, 1, 2, 3, 4, 5, 6, 7, 8]);
next = array1d(1..18 ,[13, 1, 16, 6, 3, 17, 8, 18, 10, 15, 12, 2, 14, 9, 5, 4, 7, 11]);
makespan = 398;
----------
assign = array1d(1..18 ,[7, 7, 6, 5, 6, 5, 8, 8, 4, 4, 1, 2, 3, 4, 5, 6, 7, 8]);
next = array1d(1..18 ,[17, 1, 16, 6, 3, 15, 8, 18, 10, 14, 12, 13, 9, 4, 5, 2, 7, 11]);
makespan = 397;
----------
assign = array1d(1..18 ,[2, 2, 6, 7, 6, 7, 8, 8, 1, 3, 1, 2, 3, 4, 5, 6, 7, 8]);
next = array1d(1..18 ,[12, 1, 16, 6, 3, 17, 8, 18, 11, 13, 2, 10, 14, 15, 5, 4, 7, 9]);
makespan = 396;
----------
assign = array1d(1..18 ,[7, 7, 6, 8, 4, 8, 3, 3, 1, 2, 1, 2, 3, 4, 5, 6, 7, 8]);
next = array1d(1..18 ,[17, 1, 16, 6, 14, 18, 8, 13, 11, 12, 10, 7, 5, 15, 3, 2, 4, 9]);
makespan = 395;
----------
assign = array1d(1..18 ,[6, 6, 8, 7, 8, 5, 3, 3, 5, 7, 1, 2, 3, 4, 5, 6, 7, 8]);
next = array1d(1..18 ,[2, 16, 18, 17, 3, 9, 8, 13, 15, 4, 12, 7, 14, 6, 1, 10, 5, 11]);
makespan = 393;
----------
assign = array1d(1..18 ,[8, 6, 8, 7, 7, 4, 3, 3, 5, 6, 1, 2, 3, 4, 5, 6, 7, 8]);
next = array1d(1..18 ,[18, 10, 1, 17, 4, 14, 8, 13, 15, 16, 12, 7, 6, 9, 2, 5, 3, 11]);
makespan = 392;
----------
assign = array1d(1..18 ,[6, 6, 5, 4, 7, 8, 3, 3, 5, 4, 1, 2, 3, 4, 5, 6, 7, 8]);
next = array1d(1..18 ,[16, 1, 9, 14, 17, 18, 8, 13, 15, 4, 12, 7, 10, 3, 2, 5, 6, 11]);
makespan = 389;
----------
assign = array1d(1..18 ,[8, 8, 7, 5, 6, 6, 3, 3, 7, 5, 1, 2, 3, 4, 5, 6, 7, 8]);
next = array1d(1..18 ,[18, 1, 17, 15, 6, 16, 8, 13, 3, 4, 12, 7, 14, 10, 5, 9, 2, 11]);
makespan = 388;
----------
assign = array1d(1..18 ,[2, 8, 2, 6, 7, 7, 5, 6, 1, 8, 1, 2, 3, 4, 5, 6, 7, 8]);
next = array1d(1..18 ,[12, 10, 1, 8, 6, 17, 15, 16, 11, 18, 3, 13, 14, 7, 4, 5, 2, 9]);
makespan = 387;
----------
assign = array1d(1..18 ,[2, 8, 2, 6, 7, 7, 5, 6, 1, 8, 1, 2, 3, 4, 5, 6, 7, 8]);
next = array1d(1..18 ,[12, 10, 1, 8, 6, 17, 15, 16, 11, 18, 3, 13, 14, 7, 4, 5, 2, 9]);
makespan = 386;
----------
assign = array1d(1..18 ,[2, 8, 2, 7, 6, 6, 5, 7, 5, 8, 1, 2, 3, 4, 5, 6, 7, 8]);
next = array1d(1..18 ,[12, 10, 1, 8, 6, 16, 9, 17, 15, 18, 3, 13, 14, 7, 5, 4, 2, 11]);
makespan = 385;
----------
assign = array1d(1..18 ,[5, 6, 5, 1, 7, 8, 6, 1, 7, 8, 1, 2, 3, 4, 5, 6, 7, 8]);
next = array1d(1..18 ,[15, 16, 1, 8, 17, 10, 2, 11, 5, 18, 12, 13, 14, 3, 7, 9, 6, 4]);
makespan = 383;
----------
assign = array1d(1..18 ,[2, 8, 2, 7, 1, 1, 6, 7, 8, 5, 1, 2, 3, 4, 5, 6, 7, 8]);
next = array1d(1..18 ,[12, 9, 1, 8, 6, 11, 16, 17, 18, 15, 3, 13, 14, 10, 7, 4, 2, 5]);
makespan = 381;
----------
assign = array1d(1..18 ,[5, 6, 5, 7, 2, 1, 8, 7, 6, 8, 1, 2, 3, 4, 5, 6, 7, 8]);
next = array1d(1..18 ,[15, 16, 1, 8, 12, 11, 18, 17, 2, 7, 5, 13, 14, 3, 9, 4, 10, 6]);
makespan = 380;
----------
assign = array1d(1..18 ,[4, 6, 4, 7, 5, 2, 8, 7, 6, 8, 1, 2, 3, 4, 5, 6, 7, 8]);
next = array1d(1..18 ,[14, 16, 1, 8, 15, 12, 18, 17, 2, 7, 6, 13, 3, 5, 9, 4, 10, 11]);
makespan = 379;
----------
assign = array1d(1..18 ,[4, 6, 4, 7, 1, 1, 8, 7, 6, 8, 1, 2, 3, 4, 5, 6, 7, 8]);
next = array1d(1..18 ,[14, 16, 1, 8, 6, 11, 18, 17, 2, 7, 12, 13, 3, 15, 9, 4, 10, 5]);
makespan = 378;
----------
assign = array1d(1..18 ,[7, 4, 7, 6, 5, 4, 8, 6, 8, 1, 1, 2, 3, 4, 5, 6, 7, 8]);
next = array1d(1..18 ,[17, 6, 1, 8, 15, 14, 18, 16, 7, 11, 12, 13, 2, 5, 4, 3, 9, 10]);
makespan = 377;
----------
assign = array1d(1..18 ,[7, 4, 7, 6, 2, 4, 8, 6, 8, 2, 1, 2, 3, 4, 5, 6, 7, 8]);
next = array1d(1..18 ,[17, 6, 1, 8, 12, 14, 9, 16, 18, 5, 10, 13, 2, 15, 4, 3, 7, 11]);
makespan = 376;
----------
assign = array1d(1..18 ,[1, 4, 1, 6, 8, 4, 8, 6, 5, 7, 1, 2, 3, 4, 5, 6, 7, 8]);
next = array1d(1..18 ,[11, 6, 1, 8, 18, 14, 5, 16, 15, 17, 12, 13, 2, 9, 4, 10, 7, 3]);
makespan = 375;
----------
assign = array1d(1..18 ,[8, 4, 7, 5, 6, 4, 6, 5, 8, 7, 1, 2, 3, 4, 5, 6, 7, 8]);
next = array1d(1..18 ,[9, 6, 10, 8, 16, 14, 5, 15, 18, 17, 12, 13, 2, 4, 7, 3, 1, 11]);
makespan = 374;
----------
assign = array1d(1..18 ,[3, 6, 7, 6, 4, 5, 8, 8, 4, 7, 1, 2, 3, 4, 5, 6, 7, 8]);
next = array1d(1..18 ,[13, 16, 10, 2, 9, 15, 18, 7, 14, 17, 12, 1, 5, 6, 4, 3, 8, 11]);
makespan = 373;
----------
assign = array1d(1..18 ,[7, 3, 5, 7, 8, 3, 6, 6, 8, 4, 1, 2, 3, 4, 5, 6, 7, 8]);
next = array1d(1..18 ,[4, 6, 15, 17, 9, 13, 8, 16, 18, 14, 12, 2, 10, 3, 7, 1, 5, 11]);
makespan = 372;
----------
assign = array1d(1..18 ,[7, 3, 1, 7, 8, 3, 5, 5, 8, 6, 1, 2, 3, 4, 5, 6, 7, 8]);
next = array1d(1..18 ,[4, 6, 11, 17, 9, 13, 8, 15, 18, 16, 12, 2, 14, 7, 10, 1, 5, 3]);
makespan = 371;
----------
assign = array1d(1..18 ,[7, 3, 1, 7, 8, 3, 5, 5, 8, 6, 1, 2, 3, 4, 5, 6, 7, 8]);
next = array1d(1..18 ,[4, 6, 11, 17, 9, 13, 8, 15, 18, 16, 12, 2, 14, 7, 10, 1, 5, 3]);
makespan = 370;
----------
assign = array1d(1..18 ,[7, 3, 1, 7, 8, 3, 5, 5, 8, 6, 1, 2, 3, 4, 5, 6, 7, 8]);
next = array1d(1..18 ,[4, 6, 11, 17, 9, 13, 8, 15, 18, 16, 12, 2, 14, 7, 10, 1, 5, 3]);
makespan = 369;
----------
assign = array1d(1..18 ,[7, 3, 1, 7, 8, 3, 6, 6, 8, 5, 1, 2, 3, 4, 5, 6, 7, 8]);
next = array1d(1..18 ,[4, 6, 11, 17, 9, 13, 8, 16, 18, 15, 12, 2, 14, 10, 7, 1, 5, 3]);
makespan = 368;
----------
assign = array1d(1..18 ,[7, 3, 1, 7, 8, 3, 6, 6, 8, 5, 1, 2, 3, 4, 5, 6, 7, 8]);
next = array1d(1..18 ,[4, 6, 11, 17, 9, 13, 8, 16, 18, 15, 12, 2, 14, 10, 7, 1, 5, 3]);
makespan = 367;
----------
assign = array1d(1..18 ,[7, 3, 1, 7, 8, 3, 6, 6, 8, 5, 1, 2, 3, 4, 5, 6, 7, 8]);
next = array1d(1..18 ,[4, 6, 11, 17, 9, 13, 8, 16, 18, 15, 12, 2, 14, 10, 7, 1, 5, 3]);
makespan = 366;
----------
assign = array1d(1..18 ,[8, 3, 1, 1, 4, 3, 6, 6, 4, 8, 1, 2, 3, 4, 5, 6, 7, 8]);
next = array1d(1..18 ,[10, 6, 11, 3, 9, 13, 8, 16, 14, 18, 12, 2, 5, 15, 7, 17, 1, 4]);
makespan = 365;
----------
assign = array1d(1..18 ,[8, 3, 8, 1, 4, 3, 6, 6, 4, 7, 1, 2, 3, 4, 5, 6, 7, 8]);
next = array1d(1..18 ,[18, 6, 1, 11, 9, 13, 8, 16, 14, 17, 12, 2, 5, 15, 7, 10, 3, 4]);
makespan = 364;
----------
assign = array1d(1..18 ,[8, 3, 8, 1, 4, 3, 6, 6, 4, 7, 1, 2, 3, 4, 5, 6, 7, 8]);
next = array1d(1..18 ,[18, 6, 1, 11, 9, 13, 8, 16, 14, 17, 12, 2, 5, 15, 7, 10, 3, 4]);
makespan = 362;
----------
assign = array1d(1..18 ,[8, 3, 7, 7, 1, 3, 6, 6, 1, 8, 1, 2, 3, 4, 5, 6, 7, 8]);
next = array1d(1..18 ,[10, 6, 17, 3, 9, 13, 8, 16, 11, 18, 12, 2, 14, 15, 7, 4, 1, 5]);
makespan = 361;
----------
assign = array1d(1..18 ,[8, 3, 2, 2, 1, 3, 6, 6, 1, 8, 1, 2, 3, 4, 5, 6, 7, 8]);
next = array1d(1..18 ,[10, 6, 12, 3, 9, 13, 8, 16, 11, 18, 4, 2, 14, 15, 7, 17, 1, 5]);
makespan = 360;
----------
assign = array1d(1..18 ,[7, 6, 8, 4, 7, 5, 4, 5, 2, 8, 1, 2, 3, 4, 5, 6, 7, 8]);
next = array1d(1..18 ,[5, 16, 18, 7, 17, 15, 14, 6, 12, 3, 9, 13, 4, 8, 2, 1, 10, 11]);
makespan = 359;
----------
assign = array1d(1..18 ,[7, 3, 5, 4, 6, 6, 4, 8, 3, 5, 1, 2, 3, 4, 5, 6, 7, 8]);
next = array1d(1..18 ,[17, 13, 15, 7, 16, 5, 14, 18, 2, 3, 12, 9, 4, 10, 6, 1, 8, 11]);
makespan = 358;
----------
assign = array1d(1..18 ,[3, 8, 7, 5, 4, 4, 6, 3, 8, 5, 1, 2, 3, 4, 5, 6, 7, 8]);
next = array1d(1..18 ,[13, 9, 17, 10, 6, 14, 16, 1, 18, 15, 12, 8, 5, 4, 7, 3, 2, 11]);
makespan = 357;
----------
assign = array1d(1..18 ,[3, 8, 7, 5, 4, 1, 1, 3, 4, 5, 1, 2, 3, 4, 5, 6, 7, 8]);
next = array1d(1..18 ,[13, 18, 17, 10, 14, 7, 11, 1, 5, 15, 12, 8, 9, 4, 16, 3, 2, 6]);
makespan = 356;
----------
assign = array1d(1..18 ,[3, 1, 8, 5, 8, 1, 6, 3, 7, 5, 1, 2, 3, 4, 5, 6, 7, 8]);
next = array1d(1..18 ,[13, 6, 18, 10, 3, 11, 16, 1, 17, 15, 12, 8, 14, 4, 7, 9, 5, 2]);
makespan = 354;
----------
assign = array1d(1..18 ,[8, 6, 8, 7, 1, 3, 6, 5, 7, 5, 1, 2, 3, 4, 5, 6, 7, 8]);
next = array1d(1..18 ,[18, 16, 1, 17, 11, 13, 2, 15, 4, 8, 12, 6, 14, 10, 7, 9, 3, 5]);
makespan = 353;
----------
assign = array1d(1..18 ,[8, 6, 1, 7, 4, 1, 3, 6, 8, 7, 1, 2, 3, 4, 5, 6, 7, 8]);
next = array1d(1..18 ,[18, 8, 6, 10, 14, 11, 13, 16, 1, 17, 12, 7, 5, 15, 2, 4, 9, 3]);
makespan = 352;
----------
assign = array1d(1..18 ,[4, 6, 5, 3, 8, 2, 3, 6, 7, 8, 1, 2, 3, 4, 5, 6, 7, 8]);
next = array1d(1..18 ,[14, 8, 15, 7, 18, 12, 13, 16, 17, 5, 6, 4, 1, 3, 2, 9, 10, 11]);
makespan = 351;
----------
assign = array1d(1..18 ,[1, 3, 4, 3, 4, 8, 5, 7, 2, 6, 1, 2, 3, 4, 5, 6, 7, 8]);
next = array1d(1..18 ,[11, 4, 5, 13, 14, 18, 15, 17, 12, 16, 9, 2, 3, 7, 10, 8, 6, 1]);
makespan = 350;
----------
assign = array1d(1..18 ,[3, 7, 6, 7, 8, 5, 2, 5, 4, 3, 1, 2, 3, 4, 5, 6, 7, 8]);
next = array1d(1..18 ,[13, 4, 16, 17, 18, 15, 12, 6, 14, 1, 7, 10, 9, 8, 3, 2, 5, 11]);
makespan = 347;
----------
assign = array1d(1..18 ,[3, 1, 4, 7, 6, 1, 8, 6, 7, 3, 1, 2, 3, 4, 5, 6, 7, 8]);
next = array1d(1..18 ,[13, 6, 14, 17, 8, 11, 18, 16, 4, 1, 12, 10, 3, 15, 5, 9, 7, 2]);
makespan = 346;
----------
assign = array1d(1..18 ,[1, 6, 1, 8, 6, 3, 5, 7, 3, 4, 1, 2, 3, 4, 5, 6, 7, 8]);
next = array1d(1..18 ,[3, 16, 11, 18, 2, 13, 15, 17, 6, 14, 12, 9, 10, 7, 5, 8, 4, 1]);
makespan = 345;
----------
assign = array1d(1..18 ,[1, 8, 6, 1, 4, 3, 4, 5, 3, 7, 1, 2, 3, 4, 5, 6, 7, 8]);
next = array1d(1..18 ,[4, 18, 16, 11, 14, 13, 5, 15, 6, 17, 12, 9, 7, 8, 3, 10, 2, 1]);
makespan = 344;
----------
assign = array1d(1..18 ,[7, 6, 8, 4, 7, 3, 6, 5, 3, 8, 1, 2, 3, 4, 5, 6, 7, 8]);
next = array1d(1..18 ,[5, 16, 18, 14, 17, 13, 2, 15, 6, 3, 12, 9, 4, 8, 7, 1, 10, 11]);
makespan = 343;
----------
assign = array1d(1..18 ,[7, 1, 8, 1, 7, 3, 6, 6, 3, 8, 1, 2, 3, 4, 5, 6, 7, 8]);
next = array1d(1..18 ,[5, 4, 18, 11, 17, 13, 8, 16, 6, 3, 12, 9, 14, 15, 7, 1, 10, 2]);
makespan = 342;
----------
assign = array1d(1..18 ,[7, 1, 8, 1, 4, 3, 3, 6, 6, 8, 1, 2, 3, 4, 5, 6, 7, 8]);
next = array1d(1..18 ,[17, 4, 18, 11, 14, 7, 13, 9, 16, 3, 12, 6, 5, 15, 8, 1, 10, 2]);
makespan = 341;
----------
assign = array1d(1..18 ,[8, 5, 7, 7, 6, 3, 3, 4, 8, 1, 1, 2, 3, 4, 5, 6, 7, 8]);
next = array1d(1..18 ,[9, 15, 4, 17, 16, 7, 13, 14, 18, 11, 12, 6, 8, 2, 5, 3, 1, 10]);
makespan = 339;
----------
assign = array1d(1..18 ,[8, 1, 7, 7, 1, 2, 3, 5, 8, 3, 1, 2, 3, 4, 5, 6, 7, 8]);
next = array1d(1..18 ,[9, 11, 4, 17, 2, 12, 10, 15, 18, 13, 6, 7, 14, 8, 16, 3, 1, 5]);
makespan = 338;
----------
assign = array1d(1..18 ,[8, 1, 7, 7, 1, 2, 3, 5, 8, 3, 1, 2, 3, 4, 5, 6, 7, 8]);
next = array1d(1..18 ,[9, 11, 4, 17, 2, 12, 10, 15, 18, 13, 6, 7, 14, 8, 16, 3, 1, 5]);
makespan = 337;
----------
assign = array1d(1..18 ,[8, 1, 7, 7, 1, 2, 3, 5, 8, 3, 1, 2, 3, 4, 5, 6, 7, 8]);
next = array1d(1..18 ,[9, 11, 4, 17, 2, 12, 10, 15, 18, 13, 6, 7, 14, 8, 16, 3, 1, 5]);
makespan = 336;
----------
assign = array1d(1..18 ,[8, 1, 7, 7, 1, 2, 3, 5, 5, 3, 1, 2, 3, 4, 5, 6, 7, 8]);
next = array1d(1..18 ,[18, 11, 4, 17, 2, 12, 10, 9, 15, 13, 6, 7, 14, 8, 16, 3, 1, 5]);
makespan = 335;
----------
assign = array1d(1..18 ,[8, 1, 7, 7, 1, 2, 3, 5, 5, 3, 1, 2, 3, 4, 5, 6, 7, 8]);
next = array1d(1..18 ,[18, 11, 4, 17, 2, 12, 10, 9, 15, 13, 6, 7, 14, 8, 16, 3, 1, 5]);
makespan = 334;
----------
assign = array1d(1..18 ,[8, 1, 7, 7, 1, 2, 3, 5, 5, 3, 1, 2, 3, 4, 5, 6, 7, 8]);
next = array1d(1..18 ,[18, 11, 4, 17, 2, 12, 10, 9, 15, 13, 6, 7, 14, 8, 16, 3, 1, 5]);
makespan = 333;
----------
assign = array1d(1..18 ,[8, 1, 7, 7, 1, 2, 3, 5, 5, 3, 1, 2, 3, 4, 5, 6, 7, 8]);
next = array1d(1..18 ,[18, 11, 4, 17, 2, 12, 10, 9, 15, 13, 6, 7, 14, 8, 16, 3, 1, 5]);
makespan = 332;
----------
assign = array1d(1..18 ,[8, 7, 1, 1, 4, 5, 3, 6, 2, 3, 1, 2, 3, 4, 5, 6, 7, 8]);
next = array1d(1..18 ,[18, 17, 4, 11, 14, 15, 10, 16, 12, 13, 9, 7, 5, 6, 8, 2, 1, 3]);
makespan = 331;
----------
assign = array1d(1..18 ,[5, 4, 1, 1, 2, 7, 3, 8, 6, 3, 1, 2, 3, 4, 5, 6, 7, 8]);
next = array1d(1..18 ,[15, 14, 4, 11, 12, 17, 10, 18, 16, 13, 5, 7, 2, 1, 9, 6, 8, 3]);
makespan = 329;
----------
assign = array1d(1..18 ,[8, 7, 1, 4, 4, 5, 1, 2, 6, 3, 1, 2, 3, 4, 5, 6, 7, 8]);
next = array1d(1..18 ,[18, 17, 7, 5, 14, 15, 11, 12, 16, 13, 8, 10, 4, 6, 9, 2, 1, 3]);
makespan = 328;
----------
assign = array1d(1..18 ,[3, 1, 2, 4, 5, 6, 4, 7, 8, 8, 1, 2, 3, 4, 5, 6, 7, 8]);
next = array1d(1..18 ,[13, 11, 12, 14, 15, 16, 4, 17, 18, 9, 3, 1, 7, 5, 6, 8, 10, 2]);
makespan = 327;
----------
assign = array1d(1..18 ,[6, 2, 1, 7, 7, 3, 5, 4, 8, 8, 1, 2, 3, 4, 5, 6, 7, 8]);
next = array1d(1..18 ,[16, 12, 11, 5, 17, 13, 15, 14, 18, 9, 2, 6, 8, 7, 1, 4, 10, 3]);
makespan = 326;
----------
assign = array1d(1..18 ,[5, 6, 1, 7, 7, 4, 1, 2, 8, 8, 1, 2, 3, 4, 5, 6, 7, 8]);
next = array1d(1..18 ,[15, 16, 11, 5, 17, 14, 3, 12, 18, 9, 8, 13, 6, 1, 2, 4, 10, 7]);
makespan = 325;
----------
assign = array1d(1..18 ,[8, 2, 5, 7, 7, 1, 4, 3, 1, 6, 1, 2, 3, 4, 5, 6, 7, 8]);
next = array1d(1..18 ,[18, 12, 15, 5, 17, 9, 14, 13, 11, 16, 2, 8, 7, 3, 10, 4, 1, 6]);
makespan = 324;
----------
assign = array1d(1..18 ,[8, 4, 3, 7, 7, 1, 6, 2, 1, 5, 1, 2, 3, 4, 5, 6, 7, 8]);
next = array1d(1..18 ,[18, 14, 13, 5, 17, 9, 16, 12, 11, 15, 8, 3, 2, 10, 7, 4, 1, 6]);
makespan = 323;
----------
assign = array1d(1..18 ,[1, 1, 8, 6, 3, 4, 2, 5, 5, 7, 1, 2, 3, 4, 5, 6, 7, 8]);
next = array1d(1..18 ,[11, 1, 18, 16, 13, 14, 12, 9, 15, 17, 7, 5, 6, 8, 4, 10, 3, 2]);
makespan = 322;
----------
assign = array1d(1..18 ,[3, 3, 1, 8, 6, 5, 1, 7, 2, 4, 1, 2, 3, 4, 5, 6, 7, 8]);
next = array1d(1..18 ,[2, 13, 7, 18, 16, 15, 11, 17, 12, 14, 9, 1, 10, 6, 5, 8, 4, 3]);
makespan = 321;
----------
assign = array1d(1..18 ,[8, 3, 1, 7, 7, 5, 1, 2, 4, 6, 1, 2, 3, 4, 5, 6, 7, 8]);
next = array1d(1..18 ,[18, 13, 7, 5, 17, 15, 11, 12, 14, 16, 8, 2, 9, 6, 10, 4, 1, 3]);
makespan = 320;
----------
assign = array1d(1..18 ,[1, 3, 6, 1, 7, 5, 3, 2, 8, 8, 1, 2, 3, 4, 5, 6, 7, 8]);
next = array1d(1..18 ,[4, 13, 16, 11, 17, 15, 2, 12, 18, 9, 8, 7, 14, 6, 3, 5, 10, 1]);
makespan = 319;
----------
assign = array1d(1..18 ,[1, 3, 8, 1, 4, 2, 3, 5, 6, 7, 1, 2, 3, 4, 5, 6, 7, 8]);
next = array1d(1..18 ,[4, 13, 18, 11, 14, 12, 2, 15, 16, 17, 6, 7, 5, 8, 9, 10, 3, 1]);
makespan = 318;
----------
assign = array1d(1..18 ,[1, 3, 7, 6, 2, 4, 8, 5, 1, 5, 1, 2, 3, 4, 5, 6, 7, 8]);
next = array1d(1..18 ,[9, 13, 17, 16, 12, 14, 18, 10, 11, 15, 5, 2, 6, 8, 4, 3, 7, 1]);
makespan = 317;
----------
assign = array1d(1..18 ,[3, 3, 6, 1, 2, 4, 8, 5, 5, 7, 1, 2, 3, 4, 5, 6, 7, 8]);
next = array1d(1..18 ,[2, 13, 16, 11, 12, 14, 18, 9, 15, 17, 5, 1, 6, 8, 3, 10, 7, 4]);
makespan = 316;
----------
assign = array1d(1..18 ,[1, 7, 6, 2, 3, 4, 8, 5, 1, 5, 1, 2, 3, 4, 5, 6, 7, 8]);
next = array1d(1..18 ,[9, 17, 16, 12, 13, 14, 18, 10, 11, 15, 4, 5, 6, 8, 3, 2, 7, 1]);
makespan = 315;
----------
assign = array1d(1..18 ,[3, 3, 2, 1, 4, 6, 8, 5, 7, 5, 1, 2, 3, 4, 5, 6, 7, 8]);
next = array1d(1..18 ,[2, 13, 12, 11, 14, 16, 18, 10, 17, 15, 3, 1, 5, 8, 6, 9, 7, 4]);
makespan = 314;
----------
==========
	Command being timed: "mzn-chuffed lbbd-datasets/Rabadi-2006/dzn-p-dominant/model.mzn lbbd-datasets/Rabadi-2006/dzn-p-dominant/10on8Rp50Rs50_13Ameer.dzn"
	User time (seconds): 1.13
	System time (seconds): 0.04
	Percent of CPU this job got: 27%
	Elapsed (wall clock) time (h:mm:ss or m:ss): 0:04.21
	Average shared text size (kbytes): 0
	Average unshared data size (kbytes): 0
	Average stack size (kbytes): 0
	Average total size (kbytes): 0
	Maximum resident set size (kbytes): 59968
	Average resident set size (kbytes): 0
	Major (requiring I/O) page faults: 0
	Minor (reclaiming a frame) page faults: 6044
	Voluntary context switches: 448
	Involuntary context switches: 8
	Swaps: 0
	File system inputs: 0
	File system outputs: 912
	Socket messages sent: 0
	Socket messages received: 0
	Signals delivered: 0
	Page size (bytes): 4096
	Exit status: 0
