+ /usr/bin/timeout 600 /usr/bin/time -v mzn-chuffed lbbd-datasets/Rabadi-2006/dzn-s-dominant/model.mzn lbbd-datasets/Rabadi-2006/dzn-s-dominant/7on2Rp50Rs50_10Ameer.dzn
% No search annotation given. Defaulting to VSIDS!
assign = array1d(1..9 ,[2, 2, 2, 2, 2, 2, 2, 1, 2]);
next = array1d(1..9 ,[2, 3, 4, 5, 6, 7, 9, 1, 8]);
makespan = 1415;
----------
assign = array1d(1..9 ,[2, 2, 2, 2, 2, 2, 2, 1, 2]);
next = array1d(1..9 ,[4, 6, 2, 5, 3, 7, 9, 1, 8]);
makespan = 1408;
----------
assign = array1d(1..9 ,[2, 2, 2, 2, 2, 2, 1, 1, 2]);
next = array1d(1..9 ,[4, 1, 6, 3, 2, 9, 8, 5, 7]);
makespan = 1350;
----------
assign = array1d(1..9 ,[2, 2, 2, 2, 2, 2, 1, 1, 2]);
next = array1d(1..9 ,[4, 1, 6, 3, 2, 9, 8, 5, 7]);
makespan = 1348;
----------
assign = array1d(1..9 ,[2, 2, 2, 2, 2, 2, 1, 1, 2]);
next = array1d(1..9 ,[4, 1, 6, 3, 2, 9, 8, 5, 7]);
makespan = 1347;
----------
assign = array1d(1..9 ,[2, 2, 2, 2, 2, 2, 1, 1, 2]);
next = array1d(1..9 ,[4, 1, 6, 3, 2, 9, 8, 5, 7]);
makespan = 1336;
----------
assign = array1d(1..9 ,[2, 2, 2, 2, 2, 2, 1, 1, 2]);
next = array1d(1..9 ,[4, 1, 6, 3, 2, 9, 8, 5, 7]);
makespan = 1330;
----------
assign = array1d(1..9 ,[2, 2, 2, 2, 2, 2, 1, 1, 2]);
next = array1d(1..9 ,[4, 1, 6, 3, 2, 9, 8, 5, 7]);
makespan = 1329;
----------
assign = array1d(1..9 ,[2, 2, 2, 2, 2, 2, 1, 1, 2]);
next = array1d(1..9 ,[4, 1, 6, 3, 2, 9, 8, 5, 7]);
makespan = 1317;
----------
assign = array1d(1..9 ,[2, 2, 2, 2, 2, 2, 1, 1, 2]);
next = array1d(1..9 ,[4, 1, 6, 3, 2, 9, 8, 5, 7]);
makespan = 1283;
----------
assign = array1d(1..9 ,[2, 2, 2, 2, 2, 2, 1, 1, 2]);
next = array1d(1..9 ,[4, 1, 6, 3, 2, 9, 8, 5, 7]);
makespan = 1282;
----------
assign = array1d(1..9 ,[2, 2, 2, 2, 2, 2, 1, 1, 2]);
next = array1d(1..9 ,[4, 1, 6, 3, 2, 9, 8, 5, 7]);
makespan = 1280;
----------
assign = array1d(1..9 ,[2, 2, 2, 2, 2, 2, 1, 1, 2]);
next = array1d(1..9 ,[4, 1, 6, 3, 2, 9, 8, 5, 7]);
makespan = 1271;
----------
assign = array1d(1..9 ,[2, 2, 2, 2, 2, 2, 1, 1, 2]);
next = array1d(1..9 ,[4, 1, 6, 3, 2, 9, 8, 5, 7]);
makespan = 1269;
----------
assign = array1d(1..9 ,[2, 2, 2, 2, 2, 2, 1, 1, 2]);
next = array1d(1..9 ,[4, 1, 6, 3, 2, 9, 8, 5, 7]);
makespan = 1268;
----------
assign = array1d(1..9 ,[2, 2, 2, 2, 2, 2, 1, 1, 2]);
next = array1d(1..9 ,[4, 1, 6, 3, 2, 9, 8, 5, 7]);
makespan = 1265;
----------
assign = array1d(1..9 ,[2, 2, 2, 2, 2, 2, 1, 1, 2]);
next = array1d(1..9 ,[4, 1, 6, 3, 2, 9, 8, 5, 7]);
makespan = 1264;
----------
assign = array1d(1..9 ,[2, 2, 2, 2, 2, 2, 1, 1, 2]);
next = array1d(1..9 ,[4, 1, 6, 3, 2, 9, 8, 5, 7]);
makespan = 1263;
----------
assign = array1d(1..9 ,[2, 2, 2, 2, 2, 2, 1, 1, 2]);
next = array1d(1..9 ,[4, 1, 6, 3, 2, 9, 8, 5, 7]);
makespan = 1262;
----------
assign = array1d(1..9 ,[2, 2, 2, 2, 2, 2, 1, 1, 2]);
next = array1d(1..9 ,[4, 1, 6, 3, 2, 9, 8, 5, 7]);
makespan = 1261;
----------
assign = array1d(1..9 ,[2, 2, 2, 2, 2, 2, 1, 1, 2]);
next = array1d(1..9 ,[4, 1, 6, 3, 2, 9, 8, 5, 7]);
makespan = 1252;
----------
assign = array1d(1..9 ,[2, 2, 2, 2, 2, 2, 1, 1, 2]);
next = array1d(1..9 ,[4, 1, 6, 3, 2, 9, 8, 5, 7]);
makespan = 1251;
----------
assign = array1d(1..9 ,[2, 2, 2, 2, 2, 2, 1, 1, 2]);
next = array1d(1..9 ,[4, 1, 6, 3, 2, 9, 8, 5, 7]);
makespan = 1250;
----------
assign = array1d(1..9 ,[2, 2, 2, 2, 2, 2, 1, 1, 2]);
next = array1d(1..9 ,[4, 1, 6, 3, 2, 9, 8, 5, 7]);
makespan = 1249;
----------
assign = array1d(1..9 ,[2, 2, 2, 2, 2, 2, 1, 1, 2]);
next = array1d(1..9 ,[4, 1, 6, 3, 2, 9, 8, 5, 7]);
makespan = 1244;
----------
assign = array1d(1..9 ,[2, 2, 2, 2, 2, 2, 1, 1, 2]);
next = array1d(1..9 ,[4, 1, 6, 3, 2, 9, 8, 5, 7]);
makespan = 1238;
----------
assign = array1d(1..9 ,[2, 2, 2, 2, 2, 2, 1, 1, 2]);
next = array1d(1..9 ,[4, 1, 6, 3, 2, 9, 8, 5, 7]);
makespan = 1232;
----------
assign = array1d(1..9 ,[2, 2, 2, 2, 2, 2, 1, 1, 2]);
next = array1d(1..9 ,[4, 1, 6, 3, 2, 9, 8, 5, 7]);
makespan = 1231;
----------
assign = array1d(1..9 ,[2, 2, 2, 2, 2, 2, 1, 1, 2]);
next = array1d(1..9 ,[4, 1, 6, 3, 2, 9, 8, 5, 7]);
makespan = 1222;
----------
assign = array1d(1..9 ,[2, 2, 2, 2, 2, 1, 2, 1, 2]);
next = array1d(1..9 ,[4, 1, 9, 3, 2, 8, 5, 7, 6]);
makespan = 1215;
----------
assign = array1d(1..9 ,[2, 2, 2, 2, 2, 1, 2, 1, 2]);
next = array1d(1..9 ,[4, 1, 9, 3, 2, 8, 5, 7, 6]);
makespan = 1205;
----------
assign = array1d(1..9 ,[2, 2, 2, 2, 2, 1, 1, 1, 2]);
next = array1d(1..9 ,[4, 1, 9, 3, 2, 7, 8, 5, 6]);
makespan = 1204;
----------
assign = array1d(1..9 ,[2, 2, 2, 2, 2, 1, 1, 1, 2]);
next = array1d(1..9 ,[4, 1, 9, 3, 2, 7, 8, 5, 6]);
makespan = 1203;
----------
assign = array1d(1..9 ,[2, 2, 2, 2, 2, 1, 1, 1, 2]);
next = array1d(1..9 ,[4, 1, 9, 3, 2, 7, 8, 5, 6]);
makespan = 1201;
----------
assign = array1d(1..9 ,[2, 2, 2, 2, 2, 1, 1, 1, 2]);
next = array1d(1..9 ,[4, 1, 9, 3, 2, 7, 8, 5, 6]);
makespan = 1198;
----------
assign = array1d(1..9 ,[2, 2, 2, 2, 2, 1, 1, 1, 2]);
next = array1d(1..9 ,[4, 1, 9, 3, 2, 7, 8, 5, 6]);
makespan = 1197;
----------
assign = array1d(1..9 ,[2, 2, 2, 2, 2, 1, 1, 1, 2]);
next = array1d(1..9 ,[4, 1, 9, 3, 2, 7, 8, 5, 6]);
makespan = 1196;
----------
assign = array1d(1..9 ,[2, 2, 2, 2, 2, 1, 1, 1, 2]);
next = array1d(1..9 ,[4, 1, 9, 3, 2, 7, 8, 5, 6]);
makespan = 1195;
----------
assign = array1d(1..9 ,[2, 2, 2, 2, 2, 1, 1, 1, 2]);
next = array1d(1..9 ,[4, 1, 9, 3, 2, 7, 8, 5, 6]);
makespan = 1194;
----------
assign = array1d(1..9 ,[2, 2, 2, 2, 2, 1, 1, 1, 2]);
next = array1d(1..9 ,[4, 1, 9, 3, 2, 7, 8, 5, 6]);
makespan = 1186;
----------
assign = array1d(1..9 ,[2, 2, 2, 2, 2, 1, 1, 1, 2]);
next = array1d(1..9 ,[4, 1, 9, 3, 2, 7, 8, 5, 6]);
makespan = 1185;
----------
assign = array1d(1..9 ,[2, 2, 2, 2, 2, 1, 1, 1, 2]);
next = array1d(1..9 ,[4, 1, 9, 3, 2, 7, 8, 5, 6]);
makespan = 1184;
----------
assign = array1d(1..9 ,[2, 2, 2, 2, 2, 1, 1, 1, 2]);
next = array1d(1..9 ,[4, 1, 9, 3, 2, 7, 8, 5, 6]);
makespan = 1183;
----------
assign = array1d(1..9 ,[2, 2, 2, 2, 2, 1, 1, 1, 2]);
next = array1d(1..9 ,[4, 1, 9, 3, 2, 7, 8, 5, 6]);
makespan = 1182;
----------
assign = array1d(1..9 ,[2, 2, 2, 2, 2, 1, 1, 1, 2]);
next = array1d(1..9 ,[4, 1, 9, 3, 2, 7, 8, 5, 6]);
makespan = 1179;
----------
assign = array1d(1..9 ,[2, 2, 2, 2, 2, 1, 1, 1, 2]);
next = array1d(1..9 ,[4, 1, 9, 3, 2, 7, 8, 5, 6]);
makespan = 1177;
----------
assign = array1d(1..9 ,[2, 2, 2, 2, 2, 1, 1, 1, 2]);
next = array1d(1..9 ,[4, 1, 9, 3, 2, 7, 8, 5, 6]);
makespan = 1176;
----------
assign = array1d(1..9 ,[2, 2, 2, 2, 2, 1, 1, 1, 2]);
next = array1d(1..9 ,[4, 1, 9, 3, 2, 7, 8, 5, 6]);
makespan = 1173;
----------
assign = array1d(1..9 ,[2, 2, 2, 2, 2, 1, 1, 1, 2]);
next = array1d(1..9 ,[4, 1, 9, 3, 2, 7, 8, 5, 6]);
makespan = 1171;
----------
assign = array1d(1..9 ,[2, 2, 2, 2, 2, 1, 1, 1, 2]);
next = array1d(1..9 ,[4, 1, 9, 3, 2, 7, 8, 5, 6]);
makespan = 1170;
----------
assign = array1d(1..9 ,[2, 2, 2, 2, 2, 1, 1, 1, 2]);
next = array1d(1..9 ,[4, 1, 9, 3, 2, 7, 8, 5, 6]);
makespan = 1167;
----------
assign = array1d(1..9 ,[2, 2, 2, 2, 2, 1, 1, 1, 2]);
next = array1d(1..9 ,[4, 1, 9, 3, 2, 7, 8, 5, 6]);
makespan = 1166;
----------
assign = array1d(1..9 ,[2, 2, 2, 2, 2, 1, 1, 1, 2]);
next = array1d(1..9 ,[4, 1, 9, 3, 2, 7, 8, 5, 6]);
makespan = 1165;
----------
assign = array1d(1..9 ,[2, 2, 2, 2, 2, 1, 1, 1, 2]);
next = array1d(1..9 ,[4, 1, 9, 3, 2, 7, 8, 5, 6]);
makespan = 1164;
----------
assign = array1d(1..9 ,[2, 2, 2, 2, 2, 1, 1, 1, 2]);
next = array1d(1..9 ,[4, 1, 9, 3, 2, 7, 8, 5, 6]);
makespan = 1163;
----------
assign = array1d(1..9 ,[2, 2, 2, 2, 2, 1, 1, 1, 2]);
next = array1d(1..9 ,[4, 1, 9, 3, 2, 7, 8, 5, 6]);
makespan = 1153;
----------
assign = array1d(1..9 ,[2, 2, 2, 2, 2, 1, 1, 1, 2]);
next = array1d(1..9 ,[4, 1, 9, 3, 2, 7, 8, 5, 6]);
makespan = 1152;
----------
assign = array1d(1..9 ,[2, 2, 2, 2, 2, 1, 1, 1, 2]);
next = array1d(1..9 ,[4, 1, 9, 3, 2, 7, 8, 5, 6]);
makespan = 1146;
----------
assign = array1d(1..9 ,[2, 2, 2, 2, 2, 1, 1, 1, 2]);
next = array1d(1..9 ,[4, 1, 9, 3, 2, 7, 8, 5, 6]);
makespan = 1136;
----------
assign = array1d(1..9 ,[2, 2, 2, 2, 2, 1, 1, 1, 2]);
next = array1d(1..9 ,[4, 1, 9, 3, 2, 7, 8, 5, 6]);
makespan = 1134;
----------
assign = array1d(1..9 ,[2, 2, 2, 2, 2, 1, 1, 1, 2]);
next = array1d(1..9 ,[4, 1, 9, 3, 2, 7, 8, 5, 6]);
makespan = 1130;
----------
assign = array1d(1..9 ,[2, 2, 2, 2, 2, 1, 1, 1, 2]);
next = array1d(1..9 ,[4, 1, 9, 3, 2, 7, 8, 5, 6]);
makespan = 1129;
----------
assign = array1d(1..9 ,[2, 2, 2, 2, 2, 1, 1, 1, 2]);
next = array1d(1..9 ,[4, 1, 9, 3, 2, 7, 8, 5, 6]);
makespan = 1119;
----------
assign = array1d(1..9 ,[2, 2, 2, 2, 2, 1, 1, 1, 2]);
next = array1d(1..9 ,[4, 1, 9, 3, 2, 7, 8, 5, 6]);
makespan = 1118;
----------
assign = array1d(1..9 ,[2, 2, 2, 2, 2, 1, 1, 1, 2]);
next = array1d(1..9 ,[4, 1, 9, 3, 2, 7, 8, 5, 6]);
makespan = 1117;
----------
assign = array1d(1..9 ,[2, 2, 2, 2, 2, 1, 1, 1, 2]);
next = array1d(1..9 ,[4, 1, 9, 3, 2, 7, 8, 5, 6]);
makespan = 1116;
----------
assign = array1d(1..9 ,[2, 2, 2, 2, 2, 1, 1, 1, 2]);
next = array1d(1..9 ,[4, 1, 9, 3, 2, 7, 8, 5, 6]);
makespan = 1112;
----------
assign = array1d(1..9 ,[2, 2, 2, 2, 2, 1, 1, 1, 2]);
next = array1d(1..9 ,[4, 1, 9, 3, 2, 7, 8, 5, 6]);
makespan = 1111;
----------
assign = array1d(1..9 ,[2, 2, 2, 2, 2, 1, 1, 1, 2]);
next = array1d(1..9 ,[4, 1, 9, 3, 2, 7, 8, 5, 6]);
makespan = 1109;
----------
assign = array1d(1..9 ,[2, 2, 2, 2, 2, 1, 1, 1, 2]);
next = array1d(1..9 ,[4, 1, 9, 3, 2, 7, 8, 5, 6]);
makespan = 1106;
----------
assign = array1d(1..9 ,[2, 2, 2, 2, 2, 1, 1, 1, 2]);
next = array1d(1..9 ,[4, 1, 9, 3, 2, 7, 8, 5, 6]);
makespan = 1105;
----------
assign = array1d(1..9 ,[2, 2, 2, 2, 2, 1, 1, 1, 2]);
next = array1d(1..9 ,[4, 1, 9, 3, 2, 7, 8, 5, 6]);
makespan = 1103;
----------
assign = array1d(1..9 ,[2, 2, 2, 2, 2, 1, 1, 1, 2]);
next = array1d(1..9 ,[4, 1, 9, 3, 2, 7, 8, 5, 6]);
makespan = 1100;
----------
assign = array1d(1..9 ,[2, 2, 2, 2, 2, 1, 1, 1, 2]);
next = array1d(1..9 ,[4, 1, 9, 3, 2, 7, 8, 5, 6]);
makespan = 1099;
----------
assign = array1d(1..9 ,[2, 2, 2, 2, 2, 1, 1, 1, 2]);
next = array1d(1..9 ,[4, 1, 9, 3, 2, 7, 8, 5, 6]);
makespan = 1098;
----------
assign = array1d(1..9 ,[2, 2, 2, 2, 2, 1, 1, 1, 2]);
next = array1d(1..9 ,[4, 1, 9, 3, 2, 7, 8, 5, 6]);
makespan = 1097;
----------
assign = array1d(1..9 ,[2, 2, 2, 2, 2, 1, 1, 1, 2]);
next = array1d(1..9 ,[4, 1, 9, 3, 2, 7, 8, 5, 6]);
makespan = 1096;
----------
assign = array1d(1..9 ,[2, 2, 2, 2, 2, 1, 1, 1, 2]);
next = array1d(1..9 ,[4, 1, 9, 3, 2, 7, 8, 5, 6]);
makespan = 1088;
----------
assign = array1d(1..9 ,[2, 2, 2, 2, 2, 1, 1, 1, 2]);
next = array1d(1..9 ,[4, 1, 9, 3, 2, 7, 8, 5, 6]);
makespan = 1087;
----------
assign = array1d(1..9 ,[2, 2, 2, 2, 2, 1, 1, 1, 2]);
next = array1d(1..9 ,[4, 1, 9, 3, 2, 7, 8, 5, 6]);
makespan = 1086;
----------
assign = array1d(1..9 ,[2, 2, 2, 2, 2, 1, 1, 1, 2]);
next = array1d(1..9 ,[4, 1, 9, 3, 2, 7, 8, 5, 6]);
makespan = 1085;
----------
assign = array1d(1..9 ,[2, 2, 2, 2, 2, 1, 1, 1, 2]);
next = array1d(1..9 ,[4, 1, 9, 3, 2, 7, 8, 5, 6]);
makespan = 1084;
----------
assign = array1d(1..9 ,[2, 2, 2, 2, 2, 1, 1, 1, 2]);
next = array1d(1..9 ,[4, 1, 9, 3, 2, 7, 8, 5, 6]);
makespan = 1081;
----------
assign = array1d(1..9 ,[2, 2, 2, 2, 2, 1, 1, 1, 2]);
next = array1d(1..9 ,[4, 1, 9, 3, 2, 7, 8, 5, 6]);
makespan = 1079;
----------
assign = array1d(1..9 ,[2, 2, 2, 2, 2, 1, 1, 1, 2]);
next = array1d(1..9 ,[4, 1, 9, 3, 2, 7, 8, 5, 6]);
makespan = 1078;
----------
assign = array1d(1..9 ,[2, 2, 2, 2, 2, 1, 1, 1, 2]);
next = array1d(1..9 ,[4, 1, 9, 3, 2, 7, 8, 5, 6]);
makespan = 1069;
----------
assign = array1d(1..9 ,[2, 2, 2, 2, 2, 1, 1, 1, 2]);
next = array1d(1..9 ,[4, 1, 9, 3, 2, 7, 8, 5, 6]);
makespan = 1067;
----------
assign = array1d(1..9 ,[2, 2, 2, 2, 2, 1, 1, 1, 2]);
next = array1d(1..9 ,[4, 1, 9, 3, 2, 7, 8, 5, 6]);
makespan = 1051;
----------
assign = array1d(1..9 ,[2, 2, 2, 2, 2, 1, 1, 1, 2]);
next = array1d(1..9 ,[4, 1, 9, 3, 2, 7, 8, 5, 6]);
makespan = 1049;
----------
assign = array1d(1..9 ,[2, 2, 2, 2, 2, 1, 1, 1, 2]);
next = array1d(1..9 ,[4, 1, 9, 3, 2, 7, 8, 5, 6]);
makespan = 1044;
----------
assign = array1d(1..9 ,[2, 2, 2, 2, 2, 1, 1, 1, 2]);
next = array1d(1..9 ,[4, 1, 9, 3, 2, 7, 8, 5, 6]);
makespan = 1038;
----------
assign = array1d(1..9 ,[2, 2, 2, 2, 2, 1, 1, 1, 2]);
next = array1d(1..9 ,[4, 1, 9, 3, 2, 7, 8, 5, 6]);
makespan = 1033;
----------
assign = array1d(1..9 ,[2, 2, 2, 2, 2, 1, 1, 1, 2]);
next = array1d(1..9 ,[4, 1, 9, 3, 2, 7, 8, 5, 6]);
makespan = 1032;
----------
assign = array1d(1..9 ,[2, 2, 2, 2, 2, 1, 1, 1, 2]);
next = array1d(1..9 ,[4, 1, 9, 3, 2, 7, 8, 5, 6]);
makespan = 1031;
----------
assign = array1d(1..9 ,[2, 2, 2, 2, 2, 1, 1, 1, 2]);
next = array1d(1..9 ,[4, 1, 9, 3, 2, 7, 8, 5, 6]);
makespan = 1029;
----------
assign = array1d(1..9 ,[2, 2, 2, 2, 2, 1, 1, 1, 2]);
next = array1d(1..9 ,[4, 1, 9, 3, 2, 7, 8, 5, 6]);
makespan = 1021;
----------
assign = array1d(1..9 ,[2, 2, 2, 2, 2, 1, 1, 1, 2]);
next = array1d(1..9 ,[4, 1, 9, 3, 2, 7, 8, 5, 6]);
makespan = 1020;
----------
assign = array1d(1..9 ,[2, 2, 2, 2, 2, 1, 1, 1, 2]);
next = array1d(1..9 ,[4, 1, 9, 3, 2, 7, 8, 5, 6]);
makespan = 1019;
----------
assign = array1d(1..9 ,[2, 2, 2, 2, 2, 1, 1, 1, 2]);
next = array1d(1..9 ,[4, 1, 9, 3, 2, 7, 8, 5, 6]);
makespan = 1018;
----------
assign = array1d(1..9 ,[2, 2, 2, 2, 2, 1, 1, 1, 2]);
next = array1d(1..9 ,[4, 1, 9, 3, 2, 7, 8, 5, 6]);
makespan = 1017;
----------
assign = array1d(1..9 ,[2, 2, 2, 2, 2, 1, 1, 1, 2]);
next = array1d(1..9 ,[4, 1, 9, 3, 2, 7, 8, 5, 6]);
makespan = 1014;
----------
assign = array1d(1..9 ,[2, 2, 2, 2, 2, 1, 1, 1, 2]);
next = array1d(1..9 ,[4, 1, 9, 3, 2, 7, 8, 5, 6]);
makespan = 1013;
----------
assign = array1d(1..9 ,[2, 2, 2, 2, 2, 1, 1, 1, 2]);
next = array1d(1..9 ,[4, 1, 9, 3, 2, 7, 8, 5, 6]);
makespan = 1011;
----------
assign = array1d(1..9 ,[2, 2, 2, 2, 2, 1, 1, 1, 2]);
next = array1d(1..9 ,[4, 1, 9, 3, 2, 7, 8, 5, 6]);
makespan = 1002;
----------
assign = array1d(1..9 ,[2, 2, 2, 2, 2, 1, 1, 1, 2]);
next = array1d(1..9 ,[4, 1, 9, 3, 2, 7, 8, 5, 6]);
makespan = 1000;
----------
assign = array1d(1..9 ,[2, 2, 2, 2, 2, 1, 1, 1, 2]);
next = array1d(1..9 ,[4, 1, 9, 3, 2, 7, 8, 5, 6]);
makespan = 999;
----------
assign = array1d(1..9 ,[2, 2, 2, 2, 2, 1, 1, 1, 2]);
next = array1d(1..9 ,[4, 1, 9, 3, 2, 7, 8, 5, 6]);
makespan = 991;
----------
assign = array1d(1..9 ,[2, 2, 2, 2, 2, 1, 1, 1, 2]);
next = array1d(1..9 ,[4, 1, 9, 3, 2, 7, 8, 5, 6]);
makespan = 984;
----------
assign = array1d(1..9 ,[2, 2, 2, 2, 1, 1, 2, 1, 2]);
next = array1d(1..9 ,[4, 1, 9, 3, 6, 8, 2, 7, 5]);
makespan = 976;
----------
assign = array1d(1..9 ,[2, 2, 2, 2, 1, 1, 2, 1, 2]);
next = array1d(1..9 ,[4, 1, 9, 3, 6, 8, 2, 7, 5]);
makespan = 955;
----------
assign = array1d(1..9 ,[2, 2, 2, 2, 1, 1, 1, 1, 2]);
next = array1d(1..9 ,[4, 1, 9, 3, 7, 5, 8, 2, 6]);
makespan = 916;
----------
assign = array1d(1..9 ,[2, 2, 2, 2, 1, 1, 1, 1, 2]);
next = array1d(1..9 ,[4, 1, 9, 3, 7, 5, 8, 2, 6]);
makespan = 914;
----------
assign = array1d(1..9 ,[2, 2, 2, 2, 1, 1, 1, 1, 2]);
next = array1d(1..9 ,[4, 1, 9, 3, 7, 5, 8, 2, 6]);
makespan = 896;
----------
assign = array1d(1..9 ,[2, 2, 2, 2, 1, 1, 1, 1, 2]);
next = array1d(1..9 ,[4, 1, 9, 3, 7, 5, 8, 2, 6]);
makespan = 876;
----------
assign = array1d(1..9 ,[2, 2, 2, 2, 1, 1, 1, 1, 2]);
next = array1d(1..9 ,[4, 1, 9, 3, 7, 5, 8, 2, 6]);
makespan = 867;
----------
assign = array1d(1..9 ,[2, 2, 2, 2, 1, 1, 1, 1, 2]);
next = array1d(1..9 ,[4, 1, 9, 3, 7, 5, 8, 2, 6]);
makespan = 865;
----------
assign = array1d(1..9 ,[2, 2, 2, 2, 1, 1, 1, 1, 2]);
next = array1d(1..9 ,[4, 1, 9, 3, 7, 5, 8, 2, 6]);
makespan = 857;
----------
assign = array1d(1..9 ,[2, 2, 2, 2, 1, 1, 1, 1, 2]);
next = array1d(1..9 ,[4, 1, 9, 3, 7, 5, 8, 2, 6]);
makespan = 850;
----------
assign = array1d(1..9 ,[2, 2, 2, 2, 1, 1, 1, 1, 2]);
next = array1d(1..9 ,[4, 1, 9, 3, 7, 5, 8, 2, 6]);
makespan = 849;
----------
assign = array1d(1..9 ,[2, 2, 2, 2, 1, 1, 1, 1, 2]);
next = array1d(1..9 ,[4, 1, 9, 3, 7, 5, 8, 2, 6]);
makespan = 846;
----------
assign = array1d(1..9 ,[2, 2, 2, 2, 1, 1, 1, 1, 2]);
next = array1d(1..9 ,[4, 1, 9, 3, 7, 5, 8, 2, 6]);
makespan = 842;
----------
assign = array1d(1..9 ,[2, 2, 2, 2, 1, 1, 1, 1, 2]);
next = array1d(1..9 ,[4, 1, 9, 3, 7, 5, 8, 2, 6]);
makespan = 831;
----------
assign = array1d(1..9 ,[2, 2, 2, 2, 1, 1, 1, 1, 2]);
next = array1d(1..9 ,[4, 1, 9, 3, 7, 5, 8, 2, 6]);
makespan = 829;
----------
assign = array1d(1..9 ,[2, 2, 2, 2, 1, 1, 1, 1, 2]);
next = array1d(1..9 ,[4, 1, 9, 3, 7, 5, 8, 2, 6]);
makespan = 764;
----------
assign = array1d(1..9 ,[2, 2, 2, 2, 1, 1, 1, 1, 2]);
next = array1d(1..9 ,[4, 1, 2, 9, 7, 5, 8, 3, 6]);
makespan = 732;
----------
assign = array1d(1..9 ,[2, 2, 1, 2, 1, 1, 2, 1, 2]);
next = array1d(1..9 ,[4, 1, 8, 9, 6, 3, 2, 7, 5]);
makespan = 722;
----------
assign = array1d(1..9 ,[2, 2, 1, 1, 1, 2, 1, 1, 2]);
next = array1d(1..9 ,[6, 1, 8, 7, 4, 9, 3, 2, 5]);
makespan = 720;
----------
assign = array1d(1..9 ,[2, 2, 1, 1, 2, 1, 1, 1, 2]);
next = array1d(1..9 ,[9, 1, 8, 7, 2, 4, 3, 5, 6]);
makespan = 717;
----------
assign = array1d(1..9 ,[2, 2, 1, 1, 2, 1, 1, 1, 2]);
next = array1d(1..9 ,[9, 1, 8, 7, 2, 4, 3, 5, 6]);
makespan = 708;
----------
assign = array1d(1..9 ,[1, 2, 2, 1, 1, 1, 2, 1, 2]);
next = array1d(1..9 ,[8, 9, 7, 5, 1, 4, 2, 3, 6]);
makespan = 707;
----------
assign = array1d(1..9 ,[1, 2, 2, 1, 1, 1, 2, 1, 2]);
next = array1d(1..9 ,[8, 9, 7, 5, 1, 4, 2, 3, 6]);
makespan = 705;
----------
assign = array1d(1..9 ,[1, 2, 2, 1, 1, 1, 2, 1, 2]);
next = array1d(1..9 ,[8, 9, 2, 5, 1, 4, 3, 7, 6]);
makespan = 704;
----------
assign = array1d(1..9 ,[1, 2, 2, 1, 1, 1, 2, 1, 2]);
next = array1d(1..9 ,[8, 7, 9, 5, 1, 4, 3, 2, 6]);
makespan = 703;
----------
assign = array1d(1..9 ,[1, 2, 1, 1, 2, 2, 1, 1, 2]);
next = array1d(1..9 ,[8, 6, 1, 7, 9, 5, 3, 2, 4]);
makespan = 702;
----------
assign = array1d(1..9 ,[1, 2, 2, 1, 1, 2, 2, 1, 2]);
next = array1d(1..9 ,[5, 6, 9, 8, 4, 3, 2, 7, 1]);
makespan = 701;
----------
assign = array1d(1..9 ,[1, 2, 1, 1, 2, 2, 2, 1, 2]);
next = array1d(1..9 ,[4, 6, 8, 3, 7, 9, 2, 5, 1]);
makespan = 700;
----------
assign = array1d(1..9 ,[1, 2, 1, 1, 2, 2, 2, 1, 2]);
next = array1d(1..9 ,[4, 6, 8, 3, 7, 9, 2, 5, 1]);
makespan = 699;
----------
assign = array1d(1..9 ,[1, 2, 1, 1, 2, 2, 1, 1, 2]);
next = array1d(1..9 ,[8, 6, 1, 7, 2, 9, 3, 5, 4]);
makespan = 698;
----------
assign = array1d(1..9 ,[1, 2, 1, 1, 2, 2, 1, 1, 2]);
next = array1d(1..9 ,[8, 5, 1, 7, 6, 9, 3, 2, 4]);
makespan = 697;
----------
assign = array1d(1..9 ,[1, 2, 1, 1, 2, 2, 1, 1, 2]);
next = array1d(1..9 ,[8, 9, 1, 7, 6, 2, 3, 5, 4]);
makespan = 696;
----------
assign = array1d(1..9 ,[1, 2, 1, 1, 2, 2, 1, 1, 2]);
next = array1d(1..9 ,[8, 9, 1, 7, 6, 2, 3, 5, 4]);
makespan = 695;
----------
assign = array1d(1..9 ,[1, 2, 1, 1, 2, 2, 1, 1, 2]);
next = array1d(1..9 ,[8, 9, 1, 7, 6, 2, 3, 5, 4]);
makespan = 694;
----------
assign = array1d(1..9 ,[1, 2, 1, 1, 2, 2, 1, 1, 2]);
next = array1d(1..9 ,[8, 9, 1, 7, 6, 2, 3, 5, 4]);
makespan = 693;
----------
assign = array1d(1..9 ,[1, 2, 1, 1, 2, 2, 1, 1, 2]);
next = array1d(1..9 ,[8, 9, 1, 7, 6, 2, 3, 5, 4]);
makespan = 692;
----------
assign = array1d(1..9 ,[1, 2, 1, 1, 2, 2, 1, 1, 2]);
next = array1d(1..9 ,[8, 9, 1, 7, 6, 2, 3, 5, 4]);
makespan = 691;
----------
assign = array1d(1..9 ,[1, 2, 1, 1, 2, 2, 1, 1, 2]);
next = array1d(1..9 ,[8, 9, 1, 7, 6, 2, 3, 5, 4]);
makespan = 690;
----------
assign = array1d(1..9 ,[1, 2, 1, 1, 2, 2, 1, 1, 2]);
next = array1d(1..9 ,[8, 9, 1, 7, 6, 2, 3, 5, 4]);
makespan = 689;
----------
assign = array1d(1..9 ,[1, 2, 1, 1, 2, 2, 1, 1, 2]);
next = array1d(1..9 ,[8, 9, 1, 7, 6, 2, 3, 5, 4]);
makespan = 688;
----------
assign = array1d(1..9 ,[1, 2, 1, 1, 2, 2, 1, 1, 2]);
next = array1d(1..9 ,[8, 9, 1, 7, 6, 2, 3, 5, 4]);
makespan = 687;
----------
assign = array1d(1..9 ,[1, 2, 1, 1, 2, 2, 1, 1, 2]);
next = array1d(1..9 ,[8, 9, 1, 7, 6, 2, 3, 5, 4]);
makespan = 686;
----------
assign = array1d(1..9 ,[1, 2, 1, 1, 2, 2, 1, 1, 2]);
next = array1d(1..9 ,[8, 9, 1, 7, 6, 2, 3, 5, 4]);
makespan = 685;
----------
assign = array1d(1..9 ,[1, 2, 1, 1, 2, 2, 1, 1, 2]);
next = array1d(1..9 ,[8, 9, 1, 7, 6, 2, 3, 5, 4]);
makespan = 684;
----------
assign = array1d(1..9 ,[1, 2, 1, 1, 2, 2, 1, 1, 2]);
next = array1d(1..9 ,[8, 9, 1, 7, 6, 2, 3, 5, 4]);
makespan = 683;
----------
assign = array1d(1..9 ,[1, 2, 1, 1, 2, 2, 1, 1, 2]);
next = array1d(1..9 ,[8, 9, 1, 7, 6, 2, 3, 5, 4]);
makespan = 682;
----------
assign = array1d(1..9 ,[1, 2, 1, 1, 2, 2, 1, 1, 2]);
next = array1d(1..9 ,[8, 9, 1, 7, 6, 2, 3, 5, 4]);
makespan = 681;
----------
assign = array1d(1..9 ,[1, 2, 1, 1, 2, 2, 1, 1, 2]);
next = array1d(1..9 ,[8, 9, 1, 7, 6, 2, 3, 5, 4]);
makespan = 680;
----------
==========
	Command being timed: "mzn-chuffed lbbd-datasets/Rabadi-2006/dzn-s-dominant/model.mzn lbbd-datasets/Rabadi-2006/dzn-s-dominant/7on2Rp50Rs50_10Ameer.dzn"
	User time (seconds): 0.26
	System time (seconds): 0.00
	Percent of CPU this job got: 16%
	Elapsed (wall clock) time (h:mm:ss or m:ss): 0:01.67
	Average shared text size (kbytes): 0
	Average unshared data size (kbytes): 0
	Average stack size (kbytes): 0
	Average total size (kbytes): 0
	Maximum resident set size (kbytes): 31072
	Average resident set size (kbytes): 0
	Major (requiring I/O) page faults: 0
	Minor (reclaiming a frame) page faults: 2717
	Voluntary context switches: 162
	Involuntary context switches: 2
	Swaps: 0
	File system inputs: 0
	File system outputs: 168
	Socket messages sent: 0
	Socket messages received: 0
	Signals delivered: 0
	Page size (bytes): 4096
	Exit status: 0
