+ /usr/bin/timeout 600 /usr/bin/time -v mzn-chuffed lbbd-datasets/sscplp/trucks-dzn/model.mzn lbbd-datasets/sscplp/trucks-dzn/p07-l100-c300-correlated.dzn
% No search annotation given. Defaulting to VSIDS!
source = [15, 15, 2, 9, 14, 12, 14, 15, 6, 14, 14, 6, 6, 6, 5, 15, 6, 6, 6, 6, 14, 3, 13, 14, 5, 1, 6, 13, 14, 15]
open = [true, true, true, false, true, true, false, false, true, false, false, true, true, true, true]
trucks_used = [1, 1, 1, 0, 2, 9, 0, 0, 1, 0, 0, 1, 2, 7, 5]
truck_assigned = [4, 4, 1, 1, 6, 1, 5, 3, 9, 5, 4, 7, 8, 6, 2, 5, 8, 3, 9, 7, 6, 1, 2, 6, 2, 1, 9, 2, 7, 5]
obj = 17223
----------
source = [15, 6, 3, 6, 3, 5, 15, 6, 6, 3, 3, 6, 15, 1, 6, 13, 6, 12, 6, 6, 2, 15, 1, 1, 6, 3, 13, 6, 15, 15]
open = [true, true, true, false, true, true, false, false, false, false, false, true, true, false, true]
trucks_used = [3, 1, 5, 0, 1, 11, 0, 0, 0, 0, 0, 1, 2, 0, 6]
truck_assigned = [1, 9, 5, 10, 4, 1, 6, 11, 11, 5, 5, 8, 5, 3, 9, 2, 7, 1, 10, 9, 1, 5, 3, 3, 11, 2, 2, 10, 6, 4]
obj = 15832
----------
source = [6, 6, 3, 6, 3, 1, 1, 6, 6, 3, 3, 6, 3, 13, 6, 1, 3, 1, 6, 3, 1, 6, 1, 3, 6, 13, 1, 6, 1, 6]
open = [true, false, true, false, false, true, false, false, false, false, false, false, true, false, false]
trucks_used = [8, 0, 8, 0, 0, 12, 0, 0, 0, 0, 0, 0, 2, 0, 0]
truck_assigned = [10, 10, 7, 11, 7, 8, 5, 12, 12, 8, 6, 9, 8, 2, 10, 8, 7, 7, 11, 8, 7, 6, 7, 1, 12, 1, 8, 11, 6, 9]
obj = 14400
----------
source = [3, 1, 3, 6, 6, 6, 3, 6, 1, 3, 6, 3, 3, 3, 3, 1, 6, 1, 6, 3, 1, 3, 6, 6, 1, 1, 7, 1, 11, 11]
open = [true, false, true, false, false, true, true, false, false, false, true, false, false, false, false]
trucks_used = [8, 0, 10, 0, 0, 8, 1, 0, 0, 0, 1, 0, 0, 0, 0]
truck_assigned = [9, 7, 10, 7, 7, 8, 8, 8, 7, 10, 6, 9, 10, 6, 8, 8, 6, 5, 5, 9, 8, 8, 8, 8, 7, 8, 1, 6, 1, 1]
obj = 14392
----------
source = [3, 1, 3, 6, 6, 6, 3, 6, 6, 1, 6, 3, 3, 3, 1, 1, 6, 1, 6, 7, 1, 1, 6, 7, 1, 1, 3, 3, 3, 3]
open = [true, false, true, false, false, true, true, false, false, false, false, false, false, false, false]
trucks_used = [9, 0, 10, 0, 0, 9, 2, 0, 0, 0, 0, 0, 0, 0, 0]
truck_assigned = [10, 8, 8, 8, 7, 8, 9, 9, 9, 7, 7, 10, 10, 9, 7, 9, 4, 8, 8, 2, 9, 4, 9, 2, 8, 9, 9, 3, 8, 1]
obj = 14390
----------
