+ /usr/bin/timeout 600 /usr/bin/time -v mzn-chuffed lbbd-datasets/sscplp/trucks-dzn/model.mzn lbbd-datasets/sscplp/trucks-dzn/p14-l50-c80-correlated.dzn
% No search annotation given. Defaulting to VSIDS!
source = [1, 8, 8, 8, 8, 8, 15, 15, 14, 5, 8, 15, 14, 14, 15, 14, 15, 8, 14, 14, 15, 15, 14, 15, 8, 14, 15, 15, 14, 14]
open = [true, false, false, false, true, false, false, true, false, false, false, false, false, true, true]
trucks_used = [1, 0, 0, 0, 1, 0, 0, 8, 0, 0, 0, 0, 0, 10, 10]
truck_assigned = [1, 7, 5, 2, 4, 4, 10, 10, 7, 1, 8, 7, 8, 9, 5, 6, 8, 6, 4, 6, 7, 9, 10, 4, 6, 9, 3, 6, 5, 10]
obj = 7908
----------
source = [14, 15, 14, 14, 15, 15, 15, 15, 14, 15, 1, 14, 14, 8, 8, 14, 15, 14, 14, 14, 7, 15, 14, 15, 14, 14, 15, 14, 8, 14]
open = [true, false, false, false, false, false, true, true, false, false, false, false, false, true, true]
trucks_used = [1, 0, 0, 0, 0, 0, 1, 3, 0, 0, 0, 0, 0, 15, 10]
truck_assigned = [9, 9, 10, 12, 8, 5, 6, 8, 13, 9, 1, 7, 14, 2, 3, 11, 10, 13, 8, 11, 1, 3, 15, 4, 6, 15, 7, 5, 1, 12]
obj = 7895
----------
source = [14, 15, 14, 14, 15, 15, 15, 15, 14, 14, 8, 14, 14, 8, 2, 14, 15, 14, 14, 15, 8, 15, 14, 15, 14, 15, 15, 14, 2, 14]
open = [false, true, false, false, false, false, false, true, false, false, false, false, false, true, true]
trucks_used = [0, 2, 0, 0, 0, 0, 0, 3, 0, 0, 0, 0, 0, 14, 11]
truck_assigned = [13, 11, 11, 11, 11, 7, 9, 9, 9, 7, 3, 10, 8, 2, 1, 9, 5, 12, 12, 3, 1, 8, 14, 6, 14, 4, 10, 3, 2, 6]
obj = 7836
----------
source = [14, 5, 14, 14, 14, 14, 5, 14, 14, 15, 15, 14, 14, 15, 7, 15, 2, 14, 14, 14, 15, 14, 2, 15, 14, 2, 2, 14, 7, 14]
open = [false, true, false, false, true, false, true, false, false, false, false, false, false, true, true]
trucks_used = [0, 3, 0, 0, 2, 0, 2, 0, 0, 0, 0, 0, 0, 16, 5]
truck_assigned = [14, 2, 13, 13, 5, 12, 1, 11, 12, 1, 2, 15, 8, 5, 2, 4, 3, 16, 16, 4, 5, 10, 3, 3, 7, 2, 1, 1, 1, 9]
obj = 7808
----------
source = [15, 14, 15, 15, 5, 5, 15, 14, 15, 10, 15, 15, 15, 15, 15, 15, 14, 15, 10, 5, 14, 15, 15, 15, 15, 4, 4, 14, 14, 10]
open = [false, false, false, true, true, false, false, false, false, true, false, false, false, true, true]
trucks_used = [0, 0, 0, 2, 3, 0, 0, 0, 0, 3, 0, 0, 0, 4, 16]
truck_assigned = [7, 4, 9, 9, 3, 2, 14, 3, 14, 3, 8, 12, 6, 12, 10, 15, 1, 1, 1, 3, 2, 13, 7, 16, 11, 2, 1, 4, 2, 3]
obj = 7784
----------
source = [10, 14, 15, 15, 5, 5, 14, 14, 14, 14, 15, 5, 15, 10, 15, 14, 15, 14, 10, 5, 15, 15, 15, 4, 5, 10, 15, 15, 14, 4]
open = [false, false, false, true, true, false, false, false, false, true, false, false, false, true, true]
trucks_used = [0, 0, 0, 1, 5, 0, 0, 0, 0, 4, 0, 0, 0, 5, 11]
truck_assigned = [4, 3, 10, 10, 4, 5, 2, 1, 5, 3, 4, 3, 8, 2, 11, 4, 6, 4, 3, 4, 2, 7, 8, 1, 5, 1, 5, 9, 5, 1]
obj = 7712
----------
