+ /usr/bin/timeout 600 /usr/bin/time -v mzn-chuffed lbbd-datasets/planningandscheduling/cost-insts/model.mzn lbbd-datasets/planningandscheduling/cost-insts/c24j4m1.dzn
% No search annotation given. Defaulting to VSIDS!
obj = 1289
----------
obj = 1285
----------
obj = 1265
----------
obj = 1246
----------
obj = 1239
----------
obj = 1214
----------
obj = 1205
----------
obj = 1185
----------
obj = 1173
----------
obj = 1144
----------
obj = 1139
----------
obj = 1125
----------
obj = 1111
----------
obj = 1091
----------
obj = 1077
----------
obj = 1070
----------
obj = 1056
----------
obj = 1051
----------
obj = 1037
----------
obj = 1024
----------
obj = 1020
----------
obj = 977
----------
obj = 976
----------
obj = 964
----------
obj = 956
----------
obj = 933
----------
obj = 928
----------
obj = 924
----------
obj = 882
----------
obj = 863
----------
obj = 856
----------
obj = 844
----------
obj = 843
----------
obj = 830
----------
obj = 829
----------
obj = 828
----------
obj = 797
----------
obj = 794
----------
obj = 789
----------
obj = 787
----------
obj = 778
----------
obj = 776
----------
obj = 767
----------
obj = 763
----------
obj = 762
----------
obj = 760
----------
obj = 759
----------
obj = 743
----------
obj = 740
----------
obj = 731
----------
obj = 722
----------
obj = 713
----------
obj = 705
----------
obj = 703
----------
obj = 691
----------
obj = 689
----------
obj = 684
----------
==========
	Command being timed: "mzn-chuffed lbbd-datasets/planningandscheduling/cost-insts/model.mzn lbbd-datasets/planningandscheduling/cost-insts/c24j4m1.dzn"
	User time (seconds): 0.28
	System time (seconds): 0.00
	Percent of CPU this job got: 1%
	Elapsed (wall clock) time (h:mm:ss or m:ss): 0:17.71
	Average shared text size (kbytes): 0
	Average unshared data size (kbytes): 0
	Average stack size (kbytes): 0
	Average total size (kbytes): 0
	Maximum resident set size (kbytes): 30368
	Average resident set size (kbytes): 0
	Major (requiring I/O) page faults: 0
	Minor (reclaiming a frame) page faults: 2649
	Voluntary context switches: 63
	Involuntary context switches: 2
	Swaps: 0
	File system inputs: 0
	File system outputs: 144
	Socket messages sent: 0
	Socket messages received: 0
	Signals delivered: 0
	Page size (bytes): 4096
	Exit status: 0
