+ /usr/bin/timeout 600 /usr/bin/time -v mzn-chuffed lbbd-datasets/Rabadi-2006/dzn-p-dominant/model.mzn lbbd-datasets/Rabadi-2006/dzn-p-dominant/9on4Rp50Rs50_10Ameer.dzn
% No search annotation given. Defaulting to VSIDS!
assign = array1d(1..13 ,[4, 4, 4, 4, 4, 4, 4, 4, 4, 1, 2, 3, 4]);
next = array1d(1..13 ,[2, 3, 4, 5, 6, 7, 8, 9, 13, 11, 12, 1, 10]);
makespan = 1996;
----------
assign = array1d(1..13 ,[4, 4, 4, 4, 4, 4, 4, 4, 4, 1, 2, 3, 4]);
next = array1d(1..13 ,[3, 4, 2, 5, 6, 7, 8, 9, 13, 11, 12, 1, 10]);
makespan = 1966;
----------
assign = array1d(1..13 ,[1, 4, 4, 4, 4, 4, 4, 4, 4, 1, 2, 3, 4]);
next = array1d(1..13 ,[10, 13, 4, 2, 7, 8, 9, 5, 3, 11, 12, 6, 1]);
makespan = 1871;
----------
assign = array1d(1..13 ,[4, 4, 4, 3, 4, 4, 4, 4, 4, 1, 2, 3, 4]);
next = array1d(1..13 ,[3, 13, 9, 12, 1, 7, 8, 5, 2, 11, 4, 6, 10]);
makespan = 1861;
----------
assign = array1d(1..13 ,[4, 4, 4, 4, 1, 4, 4, 4, 4, 1, 2, 3, 4]);
next = array1d(1..13 ,[4, 1, 6, 8, 10, 7, 9, 13, 2, 11, 12, 3, 5]);
makespan = 1856;
----------
assign = array1d(1..13 ,[4, 4, 4, 4, 4, 4, 4, 1, 4, 1, 2, 3, 4]);
next = array1d(1..13 ,[4, 13, 2, 5, 7, 1, 9, 10, 3, 11, 12, 6, 8]);
makespan = 1855;
----------
assign = array1d(1..13 ,[4, 4, 4, 4, 4, 4, 4, 1, 4, 1, 2, 3, 4]);
next = array1d(1..13 ,[4, 5, 9, 13, 1, 7, 3, 10, 2, 11, 12, 6, 8]);
makespan = 1854;
----------
assign = array1d(1..13 ,[4, 4, 4, 4, 4, 1, 4, 4, 4, 1, 2, 3, 4]);
next = array1d(1..13 ,[4, 5, 7, 3, 8, 10, 9, 1, 13, 11, 12, 2, 6]);
makespan = 1853;
----------
assign = array1d(1..13 ,[4, 4, 4, 3, 4, 4, 4, 4, 4, 1, 2, 3, 4]);
next = array1d(1..13 ,[13, 3, 8, 12, 1, 7, 9, 5, 2, 11, 4, 6, 10]);
makespan = 1851;
----------
assign = array1d(1..13 ,[4, 1, 4, 4, 4, 4, 4, 4, 4, 1, 2, 3, 4]);
next = array1d(1..13 ,[4, 10, 7, 3, 1, 8, 9, 5, 13, 11, 12, 6, 2]);
makespan = 1847;
----------
assign = array1d(1..13 ,[4, 4, 4, 4, 4, 4, 1, 4, 4, 1, 2, 3, 4]);
next = array1d(1..13 ,[4, 9, 8, 2, 1, 3, 10, 5, 13, 11, 12, 6, 7]);
makespan = 1843;
----------
assign = array1d(1..13 ,[4, 4, 4, 4, 1, 4, 4, 4, 4, 1, 2, 3, 4]);
next = array1d(1..13 ,[4, 13, 6, 8, 10, 7, 9, 3, 2, 11, 12, 1, 5]);
makespan = 1842;
----------
assign = array1d(1..13 ,[4, 1, 4, 4, 4, 4, 4, 4, 4, 1, 2, 3, 4]);
next = array1d(1..13 ,[4, 10, 7, 5, 8, 9, 1, 13, 3, 11, 12, 6, 2]);
makespan = 1841;
----------
assign = array1d(1..13 ,[4, 1, 4, 4, 4, 4, 4, 4, 4, 1, 2, 3, 4]);
next = array1d(1..13 ,[4, 10, 8, 7, 13, 1, 9, 5, 3, 11, 12, 6, 2]);
makespan = 1838;
----------
assign = array1d(1..13 ,[4, 4, 4, 4, 1, 4, 4, 4, 4, 1, 2, 3, 4]);
next = array1d(1..13 ,[4, 6, 8, 7, 10, 3, 9, 13, 2, 11, 12, 1, 5]);
makespan = 1833;
----------
assign = array1d(1..13 ,[4, 4, 4, 4, 2, 4, 4, 4, 4, 1, 2, 3, 4]);
next = array1d(1..13 ,[4, 1, 6, 8, 11, 7, 9, 13, 2, 5, 12, 3, 10]);
makespan = 1832;
----------
assign = array1d(1..13 ,[4, 4, 4, 4, 4, 1, 4, 4, 4, 1, 2, 3, 4]);
next = array1d(1..13 ,[2, 9, 7, 3, 1, 10, 8, 5, 13, 11, 12, 4, 6]);
makespan = 1831;
----------
assign = array1d(1..13 ,[4, 4, 4, 4, 1, 4, 4, 4, 4, 1, 2, 3, 4]);
next = array1d(1..13 ,[4, 9, 13, 2, 10, 7, 1, 6, 3, 11, 12, 8, 5]);
makespan = 1828;
----------
assign = array1d(1..13 ,[4, 4, 1, 4, 4, 4, 4, 4, 4, 1, 2, 3, 4]);
next = array1d(1..13 ,[4, 13, 10, 8, 7, 2, 9, 5, 6, 11, 12, 1, 3]);
makespan = 1827;
----------
assign = array1d(1..13 ,[4, 4, 1, 4, 4, 4, 4, 4, 4, 1, 2, 3, 4]);
next = array1d(1..13 ,[4, 6, 10, 5, 7, 1, 9, 13, 8, 11, 12, 2, 3]);
makespan = 1826;
----------
assign = array1d(1..13 ,[4, 4, 1, 4, 4, 4, 4, 4, 4, 1, 2, 3, 4]);
next = array1d(1..13 ,[4, 6, 10, 2, 7, 13, 1, 5, 8, 11, 12, 9, 3]);
makespan = 1825;
----------
assign = array1d(1..13 ,[4, 1, 4, 4, 4, 4, 4, 4, 4, 1, 2, 3, 4]);
next = array1d(1..13 ,[8, 10, 1, 13, 4, 9, 3, 5, 7, 11, 12, 6, 2]);
makespan = 1767;
----------
assign = array1d(1..13 ,[4, 3, 4, 4, 4, 4, 4, 4, 4, 1, 2, 3, 4]);
next = array1d(1..13 ,[8, 12, 1, 13, 4, 9, 3, 5, 7, 11, 2, 6, 10]);
makespan = 1731;
----------
assign = array1d(1..13 ,[4, 3, 4, 4, 4, 4, 4, 4, 4, 1, 2, 3, 4]);
next = array1d(1..13 ,[8, 12, 1, 13, 4, 9, 3, 5, 7, 11, 2, 6, 10]);
makespan = 1728;
----------
assign = array1d(1..13 ,[4, 2, 4, 4, 4, 4, 4, 4, 4, 1, 2, 3, 4]);
next = array1d(1..13 ,[8, 11, 1, 13, 4, 9, 3, 5, 7, 2, 12, 6, 10]);
makespan = 1717;
----------
assign = array1d(1..13 ,[4, 1, 4, 4, 4, 4, 4, 4, 4, 1, 2, 3, 4]);
next = array1d(1..13 ,[8, 10, 1, 13, 4, 9, 3, 5, 7, 11, 12, 6, 2]);
makespan = 1716;
----------
assign = array1d(1..13 ,[4, 3, 4, 4, 4, 4, 4, 4, 4, 1, 2, 3, 4]);
next = array1d(1..13 ,[8, 12, 1, 13, 4, 9, 3, 5, 7, 11, 2, 6, 10]);
makespan = 1713;
----------
assign = array1d(1..13 ,[4, 1, 4, 4, 4, 4, 4, 4, 4, 1, 2, 3, 4]);
next = array1d(1..13 ,[8, 10, 1, 13, 4, 9, 3, 5, 7, 11, 12, 6, 2]);
makespan = 1709;
----------
assign = array1d(1..13 ,[4, 1, 4, 4, 4, 4, 4, 4, 4, 1, 2, 3, 4]);
next = array1d(1..13 ,[8, 10, 1, 13, 4, 9, 3, 5, 7, 11, 12, 6, 2]);
makespan = 1706;
----------
assign = array1d(1..13 ,[4, 3, 4, 4, 4, 4, 4, 4, 4, 1, 2, 3, 4]);
next = array1d(1..13 ,[8, 12, 1, 13, 4, 9, 3, 5, 7, 11, 2, 6, 10]);
makespan = 1703;
----------
assign = array1d(1..13 ,[4, 1, 4, 4, 4, 4, 4, 4, 4, 1, 2, 3, 4]);
next = array1d(1..13 ,[8, 10, 1, 13, 4, 9, 3, 5, 7, 11, 12, 6, 2]);
makespan = 1702;
----------
assign = array1d(1..13 ,[4, 3, 4, 4, 4, 4, 4, 4, 4, 1, 2, 3, 4]);
next = array1d(1..13 ,[8, 12, 1, 13, 4, 9, 3, 5, 7, 11, 2, 6, 10]);
makespan = 1701;
----------
assign = array1d(1..13 ,[4, 2, 4, 4, 4, 4, 4, 4, 4, 1, 2, 3, 4]);
next = array1d(1..13 ,[8, 11, 1, 13, 4, 9, 3, 5, 7, 2, 12, 6, 10]);
makespan = 1700;
----------
assign = array1d(1..13 ,[4, 1, 4, 4, 4, 4, 4, 4, 4, 1, 2, 3, 4]);
next = array1d(1..13 ,[8, 10, 1, 13, 4, 9, 3, 5, 7, 11, 12, 6, 2]);
makespan = 1699;
----------
assign = array1d(1..13 ,[4, 2, 4, 4, 4, 4, 4, 4, 4, 1, 2, 3, 4]);
next = array1d(1..13 ,[8, 11, 1, 13, 4, 9, 3, 5, 7, 2, 12, 6, 10]);
makespan = 1698;
----------
assign = array1d(1..13 ,[4, 1, 4, 4, 4, 4, 4, 4, 4, 1, 2, 3, 4]);
next = array1d(1..13 ,[8, 10, 1, 13, 4, 9, 3, 5, 7, 11, 12, 6, 2]);
makespan = 1691;
----------
assign = array1d(1..13 ,[4, 2, 4, 4, 4, 4, 4, 4, 4, 1, 2, 3, 4]);
next = array1d(1..13 ,[8, 11, 1, 13, 4, 9, 3, 5, 7, 2, 12, 6, 10]);
makespan = 1688;
----------
assign = array1d(1..13 ,[4, 2, 4, 4, 4, 4, 4, 4, 4, 1, 2, 3, 4]);
next = array1d(1..13 ,[8, 11, 1, 13, 4, 9, 3, 5, 7, 2, 12, 6, 10]);
makespan = 1687;
----------
assign = array1d(1..13 ,[4, 3, 4, 4, 4, 4, 4, 4, 4, 1, 2, 3, 4]);
next = array1d(1..13 ,[8, 12, 1, 6, 4, 9, 3, 13, 7, 11, 2, 5, 10]);
makespan = 1685;
----------
assign = array1d(1..13 ,[4, 1, 4, 4, 4, 4, 4, 4, 4, 1, 2, 3, 4]);
next = array1d(1..13 ,[8, 10, 1, 6, 4, 9, 3, 13, 7, 11, 12, 5, 2]);
makespan = 1684;
----------
assign = array1d(1..13 ,[4, 3, 4, 4, 4, 4, 4, 4, 4, 1, 2, 3, 4]);
next = array1d(1..13 ,[8, 12, 1, 6, 4, 9, 3, 13, 7, 11, 2, 5, 10]);
makespan = 1682;
----------
assign = array1d(1..13 ,[4, 1, 4, 4, 4, 4, 4, 4, 4, 1, 2, 3, 4]);
next = array1d(1..13 ,[8, 10, 1, 6, 4, 9, 3, 13, 7, 11, 12, 5, 2]);
makespan = 1677;
----------
assign = array1d(1..13 ,[4, 3, 4, 4, 4, 4, 4, 4, 4, 1, 2, 3, 4]);
next = array1d(1..13 ,[8, 12, 1, 6, 4, 9, 3, 13, 7, 11, 2, 5, 10]);
makespan = 1676;
----------
assign = array1d(1..13 ,[4, 1, 4, 4, 4, 4, 4, 4, 4, 1, 2, 3, 4]);
next = array1d(1..13 ,[8, 10, 1, 6, 4, 9, 3, 13, 7, 11, 12, 5, 2]);
makespan = 1674;
----------
assign = array1d(1..13 ,[4, 3, 4, 4, 4, 4, 4, 4, 4, 1, 2, 3, 4]);
next = array1d(1..13 ,[8, 12, 1, 6, 4, 9, 3, 13, 7, 11, 2, 5, 10]);
makespan = 1673;
----------
assign = array1d(1..13 ,[4, 1, 4, 4, 4, 4, 4, 4, 4, 1, 2, 3, 4]);
next = array1d(1..13 ,[8, 10, 1, 6, 4, 9, 3, 13, 7, 11, 12, 5, 2]);
makespan = 1672;
----------
assign = array1d(1..13 ,[4, 3, 4, 4, 4, 4, 4, 4, 4, 1, 2, 3, 4]);
next = array1d(1..13 ,[8, 12, 1, 6, 4, 9, 3, 13, 7, 11, 2, 5, 10]);
makespan = 1671;
----------
assign = array1d(1..13 ,[4, 1, 4, 4, 4, 4, 4, 4, 4, 1, 2, 3, 4]);
next = array1d(1..13 ,[8, 10, 1, 6, 4, 9, 3, 13, 7, 11, 12, 5, 2]);
makespan = 1670;
----------
assign = array1d(1..13 ,[4, 3, 4, 4, 4, 4, 4, 4, 4, 1, 2, 3, 4]);
next = array1d(1..13 ,[8, 12, 1, 6, 4, 9, 3, 13, 7, 11, 2, 5, 10]);
makespan = 1663;
----------
assign = array1d(1..13 ,[4, 1, 4, 4, 4, 4, 4, 4, 4, 1, 2, 3, 4]);
next = array1d(1..13 ,[8, 10, 1, 6, 4, 9, 3, 13, 7, 11, 12, 5, 2]);
makespan = 1662;
----------
assign = array1d(1..13 ,[4, 3, 4, 4, 4, 4, 4, 4, 4, 1, 2, 3, 4]);
next = array1d(1..13 ,[8, 12, 1, 6, 4, 9, 3, 13, 7, 11, 2, 5, 10]);
makespan = 1660;
----------
assign = array1d(1..13 ,[4, 1, 4, 4, 4, 4, 4, 4, 4, 1, 2, 3, 4]);
next = array1d(1..13 ,[8, 10, 1, 6, 4, 9, 3, 13, 7, 11, 12, 5, 2]);
makespan = 1659;
----------
assign = array1d(1..13 ,[4, 3, 4, 4, 4, 4, 4, 4, 4, 1, 2, 3, 4]);
next = array1d(1..13 ,[8, 12, 1, 6, 4, 9, 3, 13, 7, 11, 2, 5, 10]);
makespan = 1657;
----------
assign = array1d(1..13 ,[4, 1, 4, 4, 4, 4, 4, 4, 4, 1, 2, 3, 4]);
next = array1d(1..13 ,[8, 10, 1, 6, 4, 9, 3, 13, 7, 11, 12, 5, 2]);
makespan = 1656;
----------
assign = array1d(1..13 ,[4, 1, 4, 4, 4, 4, 4, 4, 4, 1, 2, 3, 4]);
next = array1d(1..13 ,[8, 10, 1, 6, 4, 9, 3, 13, 7, 11, 12, 5, 2]);
makespan = 1654;
----------
assign = array1d(1..13 ,[4, 1, 4, 4, 4, 4, 1, 4, 4, 1, 2, 3, 4]);
next = array1d(1..13 ,[8, 7, 1, 6, 4, 9, 10, 5, 13, 11, 12, 3, 2]);
makespan = 1647;
----------
assign = array1d(1..13 ,[4, 2, 4, 4, 4, 4, 2, 4, 4, 1, 2, 3, 4]);
next = array1d(1..13 ,[8, 7, 1, 6, 4, 9, 11, 5, 13, 2, 12, 3, 10]);
makespan = 1621;
----------
assign = array1d(1..13 ,[4, 3, 4, 4, 4, 4, 3, 4, 4, 1, 2, 3, 4]);
next = array1d(1..13 ,[8, 7, 1, 6, 4, 9, 12, 5, 13, 11, 2, 3, 10]);
makespan = 1598;
----------
assign = array1d(1..13 ,[4, 3, 4, 4, 4, 4, 3, 4, 4, 1, 2, 3, 4]);
next = array1d(1..13 ,[8, 7, 1, 6, 4, 9, 12, 5, 13, 11, 2, 3, 10]);
makespan = 1588;
----------
assign = array1d(1..13 ,[4, 2, 4, 4, 4, 4, 2, 4, 4, 1, 2, 3, 4]);
next = array1d(1..13 ,[8, 7, 1, 6, 4, 9, 11, 5, 13, 2, 12, 3, 10]);
makespan = 1578;
----------
assign = array1d(1..13 ,[4, 1, 4, 4, 4, 4, 1, 4, 4, 1, 2, 3, 4]);
next = array1d(1..13 ,[8, 7, 1, 6, 4, 9, 10, 5, 13, 11, 12, 3, 2]);
makespan = 1577;
----------
assign = array1d(1..13 ,[4, 3, 4, 4, 4, 4, 3, 4, 4, 1, 2, 3, 4]);
next = array1d(1..13 ,[8, 7, 1, 6, 4, 9, 12, 5, 13, 11, 2, 3, 10]);
makespan = 1576;
----------
assign = array1d(1..13 ,[4, 2, 4, 4, 4, 4, 2, 4, 4, 1, 2, 3, 4]);
next = array1d(1..13 ,[8, 7, 1, 6, 4, 9, 11, 5, 13, 2, 12, 3, 10]);
makespan = 1574;
----------
assign = array1d(1..13 ,[4, 3, 4, 4, 4, 4, 3, 4, 4, 1, 2, 3, 4]);
next = array1d(1..13 ,[8, 7, 1, 6, 4, 9, 12, 5, 13, 11, 2, 3, 10]);
makespan = 1573;
----------
assign = array1d(1..13 ,[4, 3, 4, 4, 4, 4, 3, 4, 4, 1, 2, 3, 4]);
next = array1d(1..13 ,[8, 7, 1, 6, 4, 9, 12, 5, 13, 11, 2, 3, 10]);
makespan = 1566;
----------
assign = array1d(1..13 ,[4, 3, 4, 4, 4, 4, 3, 4, 4, 1, 2, 3, 4]);
next = array1d(1..13 ,[8, 7, 1, 6, 4, 9, 12, 5, 13, 11, 2, 3, 10]);
makespan = 1563;
----------
assign = array1d(1..13 ,[4, 3, 4, 4, 4, 4, 3, 4, 4, 1, 2, 3, 4]);
next = array1d(1..13 ,[8, 7, 1, 6, 4, 9, 12, 5, 13, 11, 2, 3, 10]);
makespan = 1562;
----------
assign = array1d(1..13 ,[4, 2, 4, 4, 4, 4, 2, 4, 4, 1, 2, 3, 4]);
next = array1d(1..13 ,[8, 7, 1, 6, 4, 9, 11, 5, 13, 2, 12, 3, 10]);
makespan = 1560;
----------
assign = array1d(1..13 ,[4, 3, 4, 4, 4, 4, 3, 4, 4, 1, 2, 3, 4]);
next = array1d(1..13 ,[8, 7, 1, 6, 4, 9, 12, 5, 13, 11, 2, 3, 10]);
makespan = 1559;
----------
assign = array1d(1..13 ,[4, 1, 4, 4, 4, 4, 1, 4, 4, 1, 2, 3, 4]);
next = array1d(1..13 ,[8, 7, 1, 6, 4, 9, 10, 5, 13, 11, 12, 3, 2]);
makespan = 1558;
----------
assign = array1d(1..13 ,[4, 3, 4, 4, 4, 4, 3, 4, 4, 1, 2, 3, 4]);
next = array1d(1..13 ,[8, 7, 1, 6, 4, 9, 12, 5, 13, 11, 2, 3, 10]);
makespan = 1557;
----------
assign = array1d(1..13 ,[4, 1, 4, 4, 4, 4, 1, 4, 4, 1, 2, 3, 4]);
next = array1d(1..13 ,[8, 7, 1, 6, 4, 9, 10, 5, 13, 11, 12, 3, 2]);
makespan = 1552;
----------
assign = array1d(1..13 ,[4, 3, 4, 4, 4, 4, 3, 4, 4, 1, 2, 3, 4]);
next = array1d(1..13 ,[8, 7, 1, 6, 4, 9, 12, 5, 13, 11, 2, 3, 10]);
makespan = 1551;
----------
assign = array1d(1..13 ,[4, 1, 4, 4, 4, 4, 1, 4, 4, 1, 2, 3, 4]);
next = array1d(1..13 ,[8, 7, 1, 6, 4, 9, 10, 5, 13, 11, 12, 3, 2]);
makespan = 1549;
----------
assign = array1d(1..13 ,[4, 3, 4, 4, 4, 4, 3, 4, 4, 1, 2, 3, 4]);
next = array1d(1..13 ,[8, 7, 1, 6, 4, 9, 12, 5, 13, 11, 2, 3, 10]);
makespan = 1548;
----------
assign = array1d(1..13 ,[4, 1, 4, 4, 4, 4, 1, 4, 4, 1, 2, 3, 4]);
next = array1d(1..13 ,[8, 7, 1, 6, 4, 9, 10, 5, 13, 11, 12, 3, 2]);
makespan = 1547;
----------
assign = array1d(1..13 ,[4, 3, 4, 4, 4, 4, 3, 4, 4, 1, 2, 3, 4]);
next = array1d(1..13 ,[8, 7, 1, 6, 4, 9, 12, 5, 13, 11, 2, 3, 10]);
makespan = 1546;
----------
assign = array1d(1..13 ,[4, 1, 4, 4, 4, 4, 1, 4, 4, 1, 2, 3, 4]);
next = array1d(1..13 ,[8, 7, 1, 6, 4, 9, 10, 5, 13, 11, 12, 3, 2]);
makespan = 1545;
----------
assign = array1d(1..13 ,[4, 3, 4, 4, 4, 4, 3, 4, 4, 1, 2, 3, 4]);
next = array1d(1..13 ,[8, 7, 1, 6, 4, 9, 12, 5, 13, 11, 2, 3, 10]);
makespan = 1544;
----------
assign = array1d(1..13 ,[4, 1, 4, 4, 4, 4, 1, 4, 4, 1, 2, 3, 4]);
next = array1d(1..13 ,[8, 7, 1, 6, 4, 9, 10, 5, 13, 11, 12, 3, 2]);
makespan = 1542;
----------
assign = array1d(1..13 ,[4, 3, 4, 4, 4, 4, 3, 4, 4, 1, 2, 3, 4]);
next = array1d(1..13 ,[8, 7, 1, 6, 4, 9, 12, 5, 13, 11, 2, 3, 10]);
makespan = 1541;
----------
assign = array1d(1..13 ,[4, 1, 4, 4, 4, 4, 1, 4, 4, 1, 2, 3, 4]);
next = array1d(1..13 ,[8, 7, 1, 6, 4, 9, 10, 5, 13, 11, 12, 3, 2]);
makespan = 1538;
----------
assign = array1d(1..13 ,[4, 3, 4, 4, 4, 4, 3, 4, 4, 1, 2, 3, 4]);
next = array1d(1..13 ,[8, 7, 1, 6, 4, 9, 12, 5, 13, 11, 2, 3, 10]);
makespan = 1537;
----------
assign = array1d(1..13 ,[4, 1, 4, 4, 4, 4, 1, 4, 4, 1, 2, 3, 4]);
next = array1d(1..13 ,[8, 7, 1, 6, 4, 9, 10, 5, 13, 11, 12, 3, 2]);
makespan = 1536;
----------
assign = array1d(1..13 ,[4, 3, 4, 4, 4, 4, 3, 4, 4, 1, 2, 3, 4]);
next = array1d(1..13 ,[8, 7, 1, 6, 4, 9, 12, 5, 13, 11, 2, 3, 10]);
makespan = 1535;
----------
assign = array1d(1..13 ,[4, 1, 4, 4, 4, 4, 1, 4, 4, 1, 2, 3, 4]);
next = array1d(1..13 ,[8, 7, 1, 6, 4, 9, 10, 5, 13, 11, 12, 3, 2]);
makespan = 1534;
----------
assign = array1d(1..13 ,[4, 3, 4, 4, 4, 4, 3, 4, 4, 1, 2, 3, 4]);
next = array1d(1..13 ,[8, 7, 1, 6, 4, 9, 12, 5, 13, 11, 2, 3, 10]);
makespan = 1533;
----------
assign = array1d(1..13 ,[4, 1, 4, 4, 4, 4, 1, 4, 4, 1, 2, 3, 4]);
next = array1d(1..13 ,[8, 7, 1, 6, 4, 9, 10, 5, 13, 11, 12, 3, 2]);
makespan = 1532;
----------
assign = array1d(1..13 ,[4, 3, 4, 4, 4, 4, 3, 4, 4, 1, 2, 3, 4]);
next = array1d(1..13 ,[8, 7, 1, 6, 4, 9, 12, 5, 13, 11, 2, 3, 10]);
makespan = 1531;
----------
assign = array1d(1..13 ,[4, 1, 4, 4, 4, 4, 1, 4, 4, 1, 2, 3, 4]);
next = array1d(1..13 ,[8, 7, 1, 6, 4, 9, 10, 5, 13, 11, 12, 3, 2]);
makespan = 1530;
----------
assign = array1d(1..13 ,[4, 3, 4, 4, 4, 4, 3, 4, 4, 1, 2, 3, 4]);
next = array1d(1..13 ,[8, 7, 1, 6, 4, 9, 12, 5, 13, 11, 2, 3, 10]);
makespan = 1529;
----------
assign = array1d(1..13 ,[4, 1, 4, 4, 4, 4, 1, 4, 4, 1, 2, 3, 4]);
next = array1d(1..13 ,[8, 7, 1, 6, 4, 9, 10, 5, 13, 11, 12, 3, 2]);
makespan = 1528;
----------
assign = array1d(1..13 ,[4, 3, 4, 4, 4, 4, 3, 4, 4, 1, 2, 3, 4]);
next = array1d(1..13 ,[8, 7, 1, 6, 4, 9, 12, 5, 13, 11, 2, 3, 10]);
makespan = 1527;
----------
assign = array1d(1..13 ,[4, 1, 4, 4, 4, 4, 1, 4, 4, 1, 2, 3, 4]);
next = array1d(1..13 ,[8, 7, 1, 6, 4, 9, 10, 5, 13, 11, 12, 3, 2]);
makespan = 1523;
----------
assign = array1d(1..13 ,[4, 3, 4, 4, 4, 4, 3, 4, 4, 1, 2, 3, 4]);
next = array1d(1..13 ,[8, 7, 1, 6, 4, 9, 12, 5, 13, 11, 2, 3, 10]);
makespan = 1522;
----------
assign = array1d(1..13 ,[4, 1, 4, 4, 4, 4, 1, 4, 4, 1, 2, 3, 4]);
next = array1d(1..13 ,[8, 7, 1, 6, 4, 9, 10, 5, 13, 11, 12, 3, 2]);
makespan = 1520;
----------
assign = array1d(1..13 ,[4, 3, 4, 4, 4, 4, 3, 4, 4, 1, 2, 3, 4]);
next = array1d(1..13 ,[8, 7, 1, 6, 4, 9, 12, 5, 13, 11, 2, 3, 10]);
makespan = 1519;
----------
assign = array1d(1..13 ,[4, 1, 4, 4, 4, 4, 1, 4, 4, 1, 2, 3, 4]);
next = array1d(1..13 ,[8, 7, 1, 6, 4, 9, 10, 5, 13, 11, 12, 3, 2]);
makespan = 1518;
----------
assign = array1d(1..13 ,[4, 3, 4, 4, 4, 4, 3, 4, 4, 1, 2, 3, 4]);
next = array1d(1..13 ,[8, 7, 1, 6, 4, 9, 12, 5, 13, 11, 2, 3, 10]);
makespan = 1517;
----------
assign = array1d(1..13 ,[4, 3, 4, 4, 4, 4, 3, 4, 4, 1, 2, 3, 4]);
next = array1d(1..13 ,[8, 7, 1, 6, 4, 9, 12, 5, 13, 11, 2, 3, 10]);
makespan = 1516;
----------
assign = array1d(1..13 ,[4, 3, 4, 4, 4, 4, 3, 4, 4, 1, 2, 3, 4]);
next = array1d(1..13 ,[8, 7, 1, 6, 4, 9, 12, 5, 13, 11, 2, 3, 10]);
makespan = 1514;
----------
assign = array1d(1..13 ,[4, 3, 4, 4, 4, 4, 3, 4, 4, 1, 2, 3, 4]);
next = array1d(1..13 ,[8, 7, 1, 6, 4, 9, 12, 5, 13, 11, 2, 3, 10]);
makespan = 1513;
----------
assign = array1d(1..13 ,[4, 3, 4, 4, 4, 4, 3, 4, 4, 1, 2, 3, 4]);
next = array1d(1..13 ,[8, 7, 1, 6, 4, 9, 12, 5, 13, 11, 2, 3, 10]);
makespan = 1509;
----------
assign = array1d(1..13 ,[4, 3, 4, 4, 4, 4, 3, 4, 4, 1, 2, 3, 4]);
next = array1d(1..13 ,[8, 7, 1, 6, 4, 9, 12, 5, 13, 11, 2, 3, 10]);
makespan = 1508;
----------
assign = array1d(1..13 ,[4, 3, 4, 4, 4, 4, 3, 4, 4, 1, 2, 3, 4]);
next = array1d(1..13 ,[8, 7, 1, 6, 4, 9, 12, 5, 13, 11, 2, 3, 10]);
makespan = 1507;
----------
assign = array1d(1..13 ,[4, 3, 4, 4, 4, 4, 3, 4, 4, 1, 2, 3, 4]);
next = array1d(1..13 ,[8, 7, 1, 6, 4, 9, 12, 5, 13, 11, 2, 3, 10]);
makespan = 1506;
----------
assign = array1d(1..13 ,[4, 3, 4, 4, 4, 4, 3, 4, 4, 1, 2, 3, 4]);
next = array1d(1..13 ,[8, 7, 1, 6, 4, 9, 12, 5, 13, 11, 2, 3, 10]);
makespan = 1505;
----------
assign = array1d(1..13 ,[4, 3, 4, 4, 4, 4, 3, 4, 4, 1, 2, 3, 4]);
next = array1d(1..13 ,[8, 7, 1, 6, 4, 9, 12, 5, 13, 11, 2, 3, 10]);
makespan = 1504;
----------
assign = array1d(1..13 ,[4, 3, 4, 4, 4, 4, 3, 4, 4, 1, 2, 3, 4]);
next = array1d(1..13 ,[8, 7, 1, 6, 4, 9, 12, 5, 13, 11, 2, 3, 10]);
makespan = 1503;
----------
assign = array1d(1..13 ,[4, 2, 4, 4, 4, 4, 2, 4, 4, 1, 2, 3, 4]);
next = array1d(1..13 ,[8, 7, 1, 6, 4, 9, 11, 5, 13, 2, 12, 3, 10]);
makespan = 1502;
----------
assign = array1d(1..13 ,[4, 2, 4, 4, 4, 4, 2, 4, 4, 1, 2, 3, 4]);
next = array1d(1..13 ,[8, 7, 1, 6, 4, 9, 11, 5, 13, 2, 12, 3, 10]);
makespan = 1501;
----------
assign = array1d(1..13 ,[4, 3, 4, 4, 4, 4, 3, 4, 4, 1, 2, 3, 4]);
next = array1d(1..13 ,[8, 7, 1, 6, 4, 9, 12, 5, 13, 11, 2, 3, 10]);
makespan = 1494;
----------
assign = array1d(1..13 ,[4, 2, 4, 4, 4, 4, 2, 4, 4, 1, 2, 3, 4]);
next = array1d(1..13 ,[8, 7, 1, 6, 4, 9, 11, 5, 13, 2, 12, 3, 10]);
makespan = 1492;
----------
assign = array1d(1..13 ,[4, 3, 4, 4, 4, 4, 3, 4, 4, 1, 2, 3, 4]);
next = array1d(1..13 ,[8, 7, 1, 6, 4, 9, 12, 5, 13, 11, 2, 3, 10]);
makespan = 1491;
----------
assign = array1d(1..13 ,[4, 3, 4, 4, 4, 4, 3, 4, 4, 1, 2, 3, 4]);
next = array1d(1..13 ,[8, 7, 1, 6, 4, 9, 12, 5, 13, 11, 2, 3, 10]);
makespan = 1489;
----------
assign = array1d(1..13 ,[4, 3, 4, 4, 4, 4, 3, 4, 4, 1, 2, 3, 4]);
next = array1d(1..13 ,[8, 7, 1, 6, 4, 9, 12, 5, 13, 11, 2, 3, 10]);
makespan = 1488;
----------
assign = array1d(1..13 ,[4, 3, 4, 4, 4, 4, 3, 4, 4, 1, 2, 3, 4]);
next = array1d(1..13 ,[8, 7, 1, 6, 4, 9, 12, 5, 13, 11, 2, 3, 10]);
makespan = 1479;
----------
assign = array1d(1..13 ,[4, 3, 4, 4, 4, 4, 3, 4, 4, 1, 2, 3, 4]);
next = array1d(1..13 ,[8, 7, 1, 6, 4, 9, 12, 13, 3, 11, 2, 5, 10]);
makespan = 1476;
----------
assign = array1d(1..13 ,[4, 2, 4, 4, 4, 4, 2, 4, 4, 1, 2, 3, 4]);
next = array1d(1..13 ,[8, 7, 1, 13, 4, 9, 11, 6, 5, 2, 12, 3, 10]);
makespan = 1475;
----------
assign = array1d(1..13 ,[4, 2, 4, 4, 4, 4, 2, 4, 4, 1, 2, 3, 4]);
next = array1d(1..13 ,[8, 7, 1, 13, 4, 9, 11, 6, 5, 2, 12, 3, 10]);
makespan = 1474;
----------
assign = array1d(1..13 ,[4, 2, 4, 4, 4, 4, 2, 4, 4, 1, 2, 3, 4]);
next = array1d(1..13 ,[8, 7, 1, 13, 4, 9, 11, 6, 5, 2, 12, 3, 10]);
makespan = 1473;
----------
assign = array1d(1..13 ,[4, 2, 4, 4, 4, 4, 2, 4, 4, 1, 2, 3, 4]);
next = array1d(1..13 ,[8, 7, 1, 13, 4, 9, 11, 6, 5, 2, 12, 3, 10]);
makespan = 1461;
----------
assign = array1d(1..13 ,[4, 2, 4, 4, 4, 4, 2, 4, 4, 1, 2, 3, 4]);
next = array1d(1..13 ,[8, 7, 1, 13, 4, 9, 11, 6, 5, 2, 12, 3, 10]);
makespan = 1460;
----------
assign = array1d(1..13 ,[4, 3, 4, 4, 4, 4, 4, 3, 4, 1, 2, 3, 4]);
next = array1d(1..13 ,[13, 8, 1, 6, 4, 9, 3, 12, 7, 11, 2, 5, 10]);
makespan = 1443;
----------
assign = array1d(1..13 ,[4, 1, 4, 4, 4, 4, 4, 1, 4, 1, 2, 3, 4]);
next = array1d(1..13 ,[5, 8, 1, 6, 4, 9, 3, 10, 13, 11, 12, 7, 2]);
makespan = 1442;
----------
assign = array1d(1..13 ,[4, 3, 4, 4, 4, 4, 4, 3, 4, 1, 2, 3, 4]);
next = array1d(1..13 ,[5, 8, 1, 6, 4, 9, 3, 12, 13, 11, 2, 7, 10]);
makespan = 1438;
----------
assign = array1d(1..13 ,[4, 3, 4, 4, 4, 4, 3, 3, 4, 1, 2, 3, 4]);
next = array1d(1..13 ,[13, 7, 1, 6, 4, 9, 8, 12, 3, 11, 2, 5, 10]);
makespan = 1434;
----------
assign = array1d(1..13 ,[4, 3, 4, 4, 4, 4, 3, 3, 4, 1, 2, 3, 4]);
next = array1d(1..13 ,[13, 7, 1, 6, 4, 9, 8, 12, 3, 11, 2, 5, 10]);
makespan = 1433;
----------
assign = array1d(1..13 ,[4, 3, 4, 4, 4, 4, 3, 3, 4, 1, 2, 3, 4]);
next = array1d(1..13 ,[13, 7, 1, 6, 4, 9, 8, 12, 3, 11, 2, 5, 10]);
makespan = 1423;
----------
assign = array1d(1..13 ,[4, 3, 4, 4, 4, 4, 3, 3, 4, 1, 2, 3, 4]);
next = array1d(1..13 ,[13, 7, 1, 6, 4, 9, 8, 12, 3, 11, 2, 5, 10]);
makespan = 1422;
----------
assign = array1d(1..13 ,[4, 3, 4, 4, 4, 4, 3, 3, 4, 1, 2, 3, 4]);
next = array1d(1..13 ,[13, 7, 1, 6, 4, 9, 8, 12, 3, 11, 2, 5, 10]);
makespan = 1420;
----------
assign = array1d(1..13 ,[4, 3, 4, 4, 4, 4, 3, 3, 4, 1, 2, 3, 4]);
next = array1d(1..13 ,[13, 7, 1, 6, 4, 9, 8, 12, 3, 11, 2, 5, 10]);
makespan = 1419;
----------
assign = array1d(1..13 ,[4, 3, 4, 4, 4, 4, 3, 3, 4, 1, 2, 3, 4]);
next = array1d(1..13 ,[13, 7, 1, 6, 4, 9, 8, 12, 3, 11, 2, 5, 10]);
makespan = 1417;
----------
assign = array1d(1..13 ,[4, 3, 4, 4, 4, 4, 3, 3, 4, 1, 2, 3, 4]);
next = array1d(1..13 ,[13, 7, 1, 6, 4, 9, 8, 12, 3, 11, 2, 5, 10]);
makespan = 1412;
----------
assign = array1d(1..13 ,[4, 3, 4, 4, 4, 4, 3, 3, 4, 1, 2, 3, 4]);
next = array1d(1..13 ,[13, 7, 1, 6, 4, 9, 8, 12, 3, 11, 2, 5, 10]);
makespan = 1411;
----------
assign = array1d(1..13 ,[4, 3, 4, 4, 4, 4, 3, 3, 4, 1, 2, 3, 4]);
next = array1d(1..13 ,[13, 7, 1, 6, 4, 9, 8, 12, 3, 11, 2, 5, 10]);
makespan = 1409;
----------
assign = array1d(1..13 ,[4, 3, 4, 4, 4, 4, 3, 3, 4, 1, 2, 3, 4]);
next = array1d(1..13 ,[13, 7, 1, 6, 4, 9, 8, 12, 3, 11, 2, 5, 10]);
makespan = 1408;
----------
assign = array1d(1..13 ,[4, 3, 4, 4, 4, 4, 3, 3, 4, 1, 2, 3, 4]);
next = array1d(1..13 ,[13, 7, 1, 6, 4, 9, 8, 12, 3, 11, 2, 5, 10]);
makespan = 1407;
----------
assign = array1d(1..13 ,[4, 3, 4, 4, 4, 4, 3, 3, 4, 1, 2, 3, 4]);
next = array1d(1..13 ,[13, 7, 1, 6, 4, 9, 8, 12, 3, 11, 2, 5, 10]);
makespan = 1406;
----------
assign = array1d(1..13 ,[4, 3, 4, 4, 4, 4, 3, 3, 4, 1, 2, 3, 4]);
next = array1d(1..13 ,[13, 7, 1, 6, 4, 9, 8, 12, 3, 11, 2, 5, 10]);
makespan = 1405;
----------
assign = array1d(1..13 ,[4, 3, 4, 4, 4, 4, 3, 3, 4, 1, 2, 3, 4]);
next = array1d(1..13 ,[13, 7, 1, 6, 4, 9, 8, 12, 3, 11, 2, 5, 10]);
makespan = 1404;
----------
assign = array1d(1..13 ,[4, 3, 4, 4, 4, 4, 3, 3, 4, 1, 2, 3, 4]);
next = array1d(1..13 ,[13, 7, 1, 6, 4, 9, 8, 12, 3, 11, 2, 5, 10]);
makespan = 1403;
----------
assign = array1d(1..13 ,[4, 3, 4, 4, 4, 4, 3, 3, 4, 1, 2, 3, 4]);
next = array1d(1..13 ,[13, 7, 1, 6, 4, 9, 8, 12, 3, 11, 2, 5, 10]);
makespan = 1402;
----------
assign = array1d(1..13 ,[4, 3, 4, 4, 4, 4, 3, 3, 4, 1, 2, 3, 4]);
next = array1d(1..13 ,[13, 7, 1, 6, 4, 9, 8, 12, 3, 11, 2, 5, 10]);
makespan = 1398;
----------
assign = array1d(1..13 ,[4, 3, 4, 4, 4, 4, 3, 3, 4, 1, 2, 3, 4]);
next = array1d(1..13 ,[13, 7, 1, 6, 4, 9, 8, 12, 3, 11, 2, 5, 10]);
makespan = 1397;
----------
assign = array1d(1..13 ,[4, 3, 4, 4, 4, 4, 3, 3, 4, 1, 2, 3, 4]);
next = array1d(1..13 ,[13, 7, 1, 6, 4, 9, 8, 12, 3, 11, 2, 5, 10]);
makespan = 1395;
----------
assign = array1d(1..13 ,[4, 3, 4, 4, 4, 4, 3, 3, 4, 1, 2, 3, 4]);
next = array1d(1..13 ,[13, 7, 1, 6, 4, 9, 8, 12, 3, 11, 2, 5, 10]);
makespan = 1394;
----------
assign = array1d(1..13 ,[4, 3, 4, 4, 4, 4, 3, 3, 4, 1, 2, 3, 4]);
next = array1d(1..13 ,[13, 7, 1, 6, 4, 9, 8, 12, 3, 11, 2, 5, 10]);
makespan = 1393;
----------
assign = array1d(1..13 ,[4, 3, 4, 4, 4, 4, 3, 3, 4, 1, 2, 3, 4]);
next = array1d(1..13 ,[13, 7, 1, 6, 4, 9, 8, 12, 3, 11, 2, 5, 10]);
makespan = 1392;
----------
assign = array1d(1..13 ,[4, 3, 4, 4, 4, 4, 3, 3, 4, 1, 2, 3, 4]);
next = array1d(1..13 ,[13, 7, 1, 6, 4, 9, 8, 12, 3, 11, 2, 5, 10]);
makespan = 1391;
----------
assign = array1d(1..13 ,[4, 3, 4, 4, 4, 4, 3, 3, 4, 1, 2, 3, 4]);
next = array1d(1..13 ,[13, 7, 1, 6, 4, 9, 8, 12, 3, 11, 2, 5, 10]);
makespan = 1390;
----------
assign = array1d(1..13 ,[4, 3, 4, 4, 4, 4, 3, 3, 4, 1, 2, 3, 4]);
next = array1d(1..13 ,[13, 7, 1, 6, 4, 9, 8, 12, 3, 11, 2, 5, 10]);
makespan = 1389;
----------
assign = array1d(1..13 ,[4, 3, 4, 4, 4, 4, 3, 3, 4, 1, 2, 3, 4]);
next = array1d(1..13 ,[13, 7, 1, 6, 4, 9, 8, 12, 3, 11, 2, 5, 10]);
makespan = 1388;
----------
assign = array1d(1..13 ,[4, 3, 4, 4, 4, 4, 3, 3, 4, 1, 2, 3, 4]);
next = array1d(1..13 ,[13, 7, 1, 6, 4, 9, 8, 12, 3, 11, 2, 5, 10]);
makespan = 1387;
----------
assign = array1d(1..13 ,[4, 3, 4, 4, 4, 4, 3, 3, 4, 1, 2, 3, 4]);
next = array1d(1..13 ,[13, 7, 1, 6, 4, 9, 8, 12, 3, 11, 2, 5, 10]);
makespan = 1386;
----------
assign = array1d(1..13 ,[4, 3, 4, 4, 4, 4, 3, 3, 4, 1, 2, 3, 4]);
next = array1d(1..13 ,[13, 7, 1, 6, 4, 9, 8, 12, 3, 11, 2, 5, 10]);
makespan = 1384;
----------
assign = array1d(1..13 ,[4, 3, 4, 4, 4, 4, 3, 3, 4, 1, 2, 3, 4]);
next = array1d(1..13 ,[13, 7, 1, 6, 4, 9, 8, 12, 3, 11, 2, 5, 10]);
makespan = 1383;
----------
assign = array1d(1..13 ,[4, 3, 4, 4, 4, 4, 3, 3, 4, 1, 2, 3, 4]);
next = array1d(1..13 ,[13, 7, 1, 6, 4, 9, 8, 12, 3, 11, 2, 5, 10]);
makespan = 1382;
----------
assign = array1d(1..13 ,[4, 3, 4, 4, 4, 4, 3, 3, 4, 1, 2, 3, 4]);
next = array1d(1..13 ,[13, 7, 1, 6, 4, 9, 8, 12, 3, 11, 2, 5, 10]);
makespan = 1381;
----------
assign = array1d(1..13 ,[4, 3, 4, 4, 4, 4, 3, 3, 4, 1, 2, 3, 4]);
next = array1d(1..13 ,[13, 7, 1, 6, 4, 9, 8, 12, 3, 11, 2, 5, 10]);
makespan = 1380;
----------
assign = array1d(1..13 ,[4, 3, 4, 4, 4, 4, 3, 3, 4, 1, 2, 3, 4]);
next = array1d(1..13 ,[13, 7, 1, 6, 4, 9, 8, 12, 3, 11, 2, 5, 10]);
makespan = 1379;
----------
assign = array1d(1..13 ,[4, 3, 4, 4, 4, 4, 3, 3, 4, 1, 2, 3, 4]);
next = array1d(1..13 ,[13, 7, 1, 6, 4, 9, 8, 12, 3, 11, 2, 5, 10]);
makespan = 1378;
----------
assign = array1d(1..13 ,[4, 3, 4, 4, 4, 4, 3, 3, 4, 1, 2, 3, 4]);
next = array1d(1..13 ,[13, 7, 1, 6, 4, 9, 8, 12, 3, 11, 2, 5, 10]);
makespan = 1377;
----------
assign = array1d(1..13 ,[4, 3, 4, 4, 4, 4, 3, 3, 4, 1, 2, 3, 4]);
next = array1d(1..13 ,[13, 7, 1, 6, 4, 9, 8, 12, 3, 11, 2, 5, 10]);
makespan = 1376;
----------
assign = array1d(1..13 ,[4, 3, 4, 4, 4, 4, 3, 3, 4, 1, 2, 3, 4]);
next = array1d(1..13 ,[13, 7, 1, 6, 4, 9, 8, 12, 3, 11, 2, 5, 10]);
makespan = 1375;
----------
assign = array1d(1..13 ,[4, 3, 4, 4, 4, 4, 3, 3, 4, 1, 2, 3, 4]);
next = array1d(1..13 ,[13, 7, 1, 6, 4, 9, 8, 12, 3, 11, 2, 5, 10]);
makespan = 1374;
----------
assign = array1d(1..13 ,[4, 3, 4, 4, 4, 4, 3, 3, 4, 1, 2, 3, 4]);
next = array1d(1..13 ,[13, 7, 1, 6, 4, 9, 8, 12, 3, 11, 2, 5, 10]);
makespan = 1373;
----------
assign = array1d(1..13 ,[4, 3, 4, 4, 4, 4, 3, 3, 4, 1, 2, 3, 4]);
next = array1d(1..13 ,[13, 7, 1, 6, 4, 9, 8, 12, 3, 11, 2, 5, 10]);
makespan = 1369;
----------
assign = array1d(1..13 ,[4, 3, 4, 4, 4, 4, 3, 3, 4, 1, 2, 3, 4]);
next = array1d(1..13 ,[13, 7, 1, 6, 4, 9, 8, 12, 3, 11, 2, 5, 10]);
makespan = 1368;
----------
assign = array1d(1..13 ,[4, 3, 4, 4, 4, 4, 3, 3, 4, 1, 2, 3, 4]);
next = array1d(1..13 ,[13, 7, 1, 6, 4, 9, 8, 12, 3, 11, 2, 5, 10]);
makespan = 1367;
----------
assign = array1d(1..13 ,[4, 3, 4, 4, 4, 4, 3, 3, 4, 1, 2, 3, 4]);
next = array1d(1..13 ,[13, 7, 1, 6, 4, 9, 8, 12, 3, 11, 2, 5, 10]);
makespan = 1366;
----------
assign = array1d(1..13 ,[4, 3, 4, 4, 4, 4, 3, 3, 4, 1, 2, 3, 4]);
next = array1d(1..13 ,[13, 7, 1, 6, 4, 9, 8, 12, 3, 11, 2, 5, 10]);
makespan = 1365;
----------
assign = array1d(1..13 ,[4, 3, 4, 4, 4, 4, 3, 3, 4, 1, 2, 3, 4]);
next = array1d(1..13 ,[13, 7, 1, 6, 4, 9, 8, 12, 3, 11, 2, 5, 10]);
makespan = 1364;
----------
assign = array1d(1..13 ,[4, 3, 4, 4, 4, 4, 3, 3, 4, 1, 2, 3, 4]);
next = array1d(1..13 ,[13, 7, 1, 6, 4, 9, 8, 12, 3, 11, 2, 5, 10]);
makespan = 1363;
----------
assign = array1d(1..13 ,[4, 3, 4, 4, 4, 4, 3, 3, 4, 1, 2, 3, 4]);
next = array1d(1..13 ,[13, 7, 1, 6, 4, 9, 8, 12, 3, 11, 2, 5, 10]);
makespan = 1362;
----------
assign = array1d(1..13 ,[4, 3, 4, 4, 4, 4, 3, 3, 4, 1, 2, 3, 4]);
next = array1d(1..13 ,[13, 7, 1, 6, 4, 9, 8, 12, 3, 11, 2, 5, 10]);
makespan = 1361;
----------
assign = array1d(1..13 ,[4, 3, 4, 4, 4, 4, 3, 3, 4, 1, 2, 3, 4]);
next = array1d(1..13 ,[13, 7, 1, 6, 4, 9, 8, 12, 3, 11, 2, 5, 10]);
makespan = 1360;
----------
assign = array1d(1..13 ,[4, 3, 4, 4, 4, 4, 3, 3, 4, 1, 2, 3, 4]);
next = array1d(1..13 ,[13, 7, 1, 6, 4, 9, 8, 12, 3, 11, 2, 5, 10]);
makespan = 1359;
----------
assign = array1d(1..13 ,[4, 3, 4, 4, 4, 4, 3, 3, 4, 1, 2, 3, 4]);
next = array1d(1..13 ,[13, 7, 1, 6, 4, 9, 8, 12, 3, 11, 2, 5, 10]);
makespan = 1358;
----------
assign = array1d(1..13 ,[4, 3, 4, 4, 4, 4, 3, 3, 4, 1, 2, 3, 4]);
next = array1d(1..13 ,[13, 7, 1, 6, 4, 9, 8, 12, 3, 11, 2, 5, 10]);
makespan = 1354;
----------
assign = array1d(1..13 ,[4, 3, 4, 4, 4, 4, 3, 3, 4, 1, 2, 3, 4]);
next = array1d(1..13 ,[13, 7, 1, 6, 4, 9, 8, 12, 3, 11, 2, 5, 10]);
makespan = 1353;
----------
assign = array1d(1..13 ,[4, 3, 4, 4, 4, 4, 3, 3, 4, 1, 2, 3, 4]);
next = array1d(1..13 ,[13, 7, 1, 6, 4, 9, 8, 12, 3, 11, 2, 5, 10]);
makespan = 1352;
----------
assign = array1d(1..13 ,[4, 3, 4, 4, 4, 4, 3, 3, 4, 1, 2, 3, 4]);
next = array1d(1..13 ,[13, 7, 1, 6, 4, 9, 8, 12, 3, 11, 2, 5, 10]);
makespan = 1351;
----------
assign = array1d(1..13 ,[4, 3, 4, 4, 4, 4, 3, 3, 4, 1, 2, 3, 4]);
next = array1d(1..13 ,[13, 7, 1, 6, 4, 9, 8, 12, 3, 11, 2, 5, 10]);
makespan = 1350;
----------
assign = array1d(1..13 ,[4, 3, 4, 4, 4, 4, 3, 3, 4, 1, 2, 3, 4]);
next = array1d(1..13 ,[13, 7, 1, 6, 4, 9, 8, 12, 3, 11, 2, 5, 10]);
makespan = 1349;
----------
assign = array1d(1..13 ,[4, 3, 4, 4, 4, 4, 3, 3, 4, 1, 2, 3, 4]);
next = array1d(1..13 ,[13, 7, 1, 6, 4, 9, 8, 12, 3, 11, 2, 5, 10]);
makespan = 1348;
----------
assign = array1d(1..13 ,[4, 3, 4, 4, 4, 4, 3, 3, 4, 1, 2, 3, 4]);
next = array1d(1..13 ,[13, 7, 1, 6, 4, 9, 8, 12, 3, 11, 2, 5, 10]);
makespan = 1347;
----------
assign = array1d(1..13 ,[4, 3, 4, 4, 4, 4, 3, 3, 4, 1, 2, 3, 4]);
next = array1d(1..13 ,[13, 7, 1, 6, 4, 9, 8, 12, 3, 11, 2, 5, 10]);
makespan = 1345;
----------
assign = array1d(1..13 ,[4, 3, 4, 4, 4, 4, 3, 3, 4, 1, 2, 3, 4]);
next = array1d(1..13 ,[13, 7, 1, 6, 4, 9, 8, 12, 3, 11, 2, 5, 10]);
makespan = 1340;
----------
assign = array1d(1..13 ,[4, 3, 4, 4, 4, 4, 3, 3, 4, 1, 2, 3, 4]);
next = array1d(1..13 ,[13, 7, 1, 6, 4, 9, 8, 12, 3, 11, 2, 5, 10]);
makespan = 1339;
----------
assign = array1d(1..13 ,[4, 3, 4, 4, 4, 4, 3, 3, 4, 1, 2, 3, 4]);
next = array1d(1..13 ,[13, 7, 1, 6, 4, 9, 8, 12, 3, 11, 2, 5, 10]);
makespan = 1338;
----------
assign = array1d(1..13 ,[4, 3, 4, 4, 4, 4, 3, 3, 4, 1, 2, 3, 4]);
next = array1d(1..13 ,[13, 7, 1, 6, 4, 9, 8, 12, 3, 11, 2, 5, 10]);
makespan = 1337;
----------
assign = array1d(1..13 ,[4, 3, 4, 4, 4, 4, 3, 3, 4, 1, 2, 3, 4]);
next = array1d(1..13 ,[13, 7, 1, 6, 4, 9, 8, 12, 3, 11, 2, 5, 10]);
makespan = 1336;
----------
assign = array1d(1..13 ,[4, 3, 4, 4, 4, 4, 3, 3, 4, 1, 2, 3, 4]);
next = array1d(1..13 ,[13, 7, 1, 6, 4, 9, 8, 12, 3, 11, 2, 5, 10]);
makespan = 1334;
----------
assign = array1d(1..13 ,[4, 3, 4, 4, 4, 4, 3, 3, 4, 1, 2, 3, 4]);
next = array1d(1..13 ,[13, 7, 1, 6, 4, 9, 8, 12, 3, 11, 2, 5, 10]);
makespan = 1333;
----------
assign = array1d(1..13 ,[4, 3, 4, 4, 4, 4, 3, 3, 4, 1, 2, 3, 4]);
next = array1d(1..13 ,[13, 7, 1, 6, 4, 9, 8, 12, 3, 11, 2, 5, 10]);
makespan = 1330;
----------
assign = array1d(1..13 ,[4, 3, 4, 4, 4, 4, 3, 3, 4, 1, 2, 3, 4]);
next = array1d(1..13 ,[13, 7, 1, 6, 4, 9, 8, 12, 3, 11, 2, 5, 10]);
makespan = 1323;
----------
assign = array1d(1..13 ,[4, 3, 4, 4, 4, 4, 3, 3, 4, 1, 2, 3, 4]);
next = array1d(1..13 ,[13, 7, 1, 6, 4, 9, 8, 12, 3, 11, 2, 5, 10]);
makespan = 1322;
----------
assign = array1d(1..13 ,[4, 3, 4, 4, 4, 4, 3, 3, 4, 1, 2, 3, 4]);
next = array1d(1..13 ,[13, 7, 1, 6, 4, 9, 8, 12, 3, 11, 2, 5, 10]);
makespan = 1307;
----------
assign = array1d(1..13 ,[4, 3, 4, 4, 4, 4, 3, 3, 4, 1, 2, 3, 4]);
next = array1d(1..13 ,[13, 7, 1, 6, 4, 9, 8, 12, 3, 11, 2, 5, 10]);
makespan = 1285;
----------
assign = array1d(1..13 ,[4, 3, 4, 4, 4, 4, 3, 3, 4, 1, 2, 3, 4]);
next = array1d(1..13 ,[13, 7, 1, 6, 4, 9, 8, 12, 3, 11, 2, 5, 10]);
makespan = 1279;
----------
assign = array1d(1..13 ,[4, 3, 4, 4, 4, 4, 3, 3, 4, 1, 2, 3, 4]);
next = array1d(1..13 ,[13, 7, 1, 6, 4, 9, 8, 12, 3, 11, 2, 5, 10]);
makespan = 1278;
----------
assign = array1d(1..13 ,[4, 3, 4, 4, 4, 4, 3, 3, 4, 1, 2, 3, 4]);
next = array1d(1..13 ,[13, 7, 1, 6, 4, 9, 8, 12, 3, 11, 2, 5, 10]);
makespan = 1269;
----------
assign = array1d(1..13 ,[4, 3, 4, 4, 4, 4, 3, 3, 4, 1, 2, 3, 4]);
next = array1d(1..13 ,[13, 7, 1, 6, 4, 9, 8, 12, 3, 11, 2, 5, 10]);
makespan = 1268;
----------
assign = array1d(1..13 ,[4, 3, 4, 4, 4, 4, 3, 3, 4, 1, 2, 3, 4]);
next = array1d(1..13 ,[13, 7, 1, 6, 4, 9, 8, 12, 3, 11, 2, 5, 10]);
makespan = 1267;
----------
assign = array1d(1..13 ,[4, 3, 4, 4, 4, 4, 3, 3, 4, 1, 2, 3, 4]);
next = array1d(1..13 ,[13, 7, 1, 6, 4, 9, 8, 12, 3, 11, 2, 5, 10]);
makespan = 1266;
----------
assign = array1d(1..13 ,[4, 3, 4, 4, 4, 4, 3, 3, 4, 1, 2, 3, 4]);
next = array1d(1..13 ,[13, 7, 1, 6, 4, 9, 8, 12, 3, 11, 2, 5, 10]);
makespan = 1265;
----------
assign = array1d(1..13 ,[4, 3, 4, 4, 4, 4, 3, 3, 4, 1, 2, 3, 4]);
next = array1d(1..13 ,[5, 7, 1, 6, 4, 9, 8, 12, 13, 11, 2, 3, 10]);
makespan = 1264;
----------
assign = array1d(1..13 ,[4, 3, 4, 4, 4, 4, 3, 3, 4, 1, 2, 3, 4]);
next = array1d(1..13 ,[5, 7, 1, 6, 4, 9, 8, 12, 13, 11, 2, 3, 10]);
makespan = 1263;
----------
assign = array1d(1..13 ,[4, 3, 4, 4, 4, 4, 3, 3, 4, 1, 2, 3, 4]);
next = array1d(1..13 ,[5, 7, 1, 6, 4, 9, 8, 12, 13, 11, 2, 3, 10]);
makespan = 1262;
----------
assign = array1d(1..13 ,[4, 3, 4, 4, 4, 4, 3, 3, 4, 1, 2, 3, 4]);
next = array1d(1..13 ,[5, 7, 1, 6, 4, 9, 8, 12, 13, 11, 2, 3, 10]);
makespan = 1257;
----------
assign = array1d(1..13 ,[4, 3, 4, 4, 4, 4, 3, 3, 4, 1, 2, 3, 4]);
next = array1d(1..13 ,[5, 7, 1, 6, 4, 9, 8, 12, 13, 11, 2, 3, 10]);
makespan = 1255;
----------
assign = array1d(1..13 ,[4, 3, 4, 4, 4, 4, 3, 3, 4, 1, 2, 3, 4]);
next = array1d(1..13 ,[5, 7, 1, 6, 4, 9, 8, 12, 13, 11, 2, 3, 10]);
makespan = 1254;
----------
assign = array1d(1..13 ,[4, 3, 4, 4, 4, 4, 3, 3, 4, 1, 2, 3, 4]);
next = array1d(1..13 ,[5, 7, 1, 6, 4, 9, 8, 12, 13, 11, 2, 3, 10]);
makespan = 1253;
----------
assign = array1d(1..13 ,[4, 3, 4, 4, 4, 4, 3, 3, 4, 1, 2, 3, 4]);
next = array1d(1..13 ,[5, 7, 1, 6, 4, 9, 8, 12, 13, 11, 2, 3, 10]);
makespan = 1252;
----------
assign = array1d(1..13 ,[4, 3, 4, 4, 4, 4, 3, 3, 4, 1, 2, 3, 4]);
next = array1d(1..13 ,[5, 7, 1, 6, 4, 9, 8, 12, 13, 11, 2, 3, 10]);
makespan = 1251;
----------
assign = array1d(1..13 ,[4, 3, 4, 4, 4, 4, 3, 3, 4, 1, 2, 3, 4]);
next = array1d(1..13 ,[5, 7, 1, 6, 4, 9, 8, 12, 13, 11, 2, 3, 10]);
makespan = 1250;
----------
assign = array1d(1..13 ,[4, 3, 4, 4, 4, 4, 3, 3, 4, 1, 2, 3, 4]);
next = array1d(1..13 ,[5, 7, 1, 6, 4, 9, 8, 12, 13, 11, 2, 3, 10]);
makespan = 1249;
----------
assign = array1d(1..13 ,[4, 3, 4, 4, 4, 4, 3, 3, 4, 1, 2, 3, 4]);
next = array1d(1..13 ,[5, 7, 1, 6, 4, 9, 8, 12, 13, 11, 2, 3, 10]);
makespan = 1248;
----------
assign = array1d(1..13 ,[4, 3, 4, 4, 4, 4, 3, 3, 4, 1, 2, 3, 4]);
next = array1d(1..13 ,[5, 7, 1, 6, 4, 9, 8, 12, 13, 11, 2, 3, 10]);
makespan = 1244;
----------
assign = array1d(1..13 ,[4, 3, 4, 4, 4, 4, 3, 3, 4, 1, 2, 3, 4]);
next = array1d(1..13 ,[5, 7, 1, 6, 4, 9, 8, 12, 13, 11, 2, 3, 10]);
makespan = 1243;
----------
assign = array1d(1..13 ,[4, 3, 4, 4, 4, 4, 3, 3, 4, 1, 2, 3, 4]);
next = array1d(1..13 ,[5, 7, 1, 6, 4, 9, 8, 12, 13, 11, 2, 3, 10]);
makespan = 1242;
----------
assign = array1d(1..13 ,[4, 3, 4, 4, 4, 4, 3, 3, 4, 1, 2, 3, 4]);
next = array1d(1..13 ,[5, 7, 1, 6, 4, 9, 8, 12, 13, 11, 2, 3, 10]);
makespan = 1241;
----------
assign = array1d(1..13 ,[4, 3, 4, 4, 4, 4, 3, 3, 4, 1, 2, 3, 4]);
next = array1d(1..13 ,[5, 7, 1, 6, 4, 9, 8, 12, 13, 11, 2, 3, 10]);
makespan = 1240;
----------
assign = array1d(1..13 ,[4, 3, 4, 4, 4, 4, 3, 3, 4, 1, 2, 3, 4]);
next = array1d(1..13 ,[5, 7, 1, 6, 4, 9, 8, 12, 13, 11, 2, 3, 10]);
makespan = 1239;
----------
assign = array1d(1..13 ,[4, 3, 4, 4, 4, 4, 3, 3, 4, 1, 2, 3, 4]);
next = array1d(1..13 ,[5, 7, 1, 6, 4, 9, 8, 12, 13, 11, 2, 3, 10]);
makespan = 1238;
----------
assign = array1d(1..13 ,[4, 3, 4, 4, 4, 4, 3, 3, 4, 1, 2, 3, 4]);
next = array1d(1..13 ,[5, 7, 1, 6, 4, 9, 8, 12, 13, 11, 2, 3, 10]);
makespan = 1237;
----------
assign = array1d(1..13 ,[4, 3, 4, 4, 4, 4, 3, 3, 4, 1, 2, 3, 4]);
next = array1d(1..13 ,[5, 7, 1, 6, 4, 9, 8, 12, 13, 11, 2, 3, 10]);
makespan = 1236;
----------
assign = array1d(1..13 ,[4, 3, 4, 4, 4, 4, 3, 3, 4, 1, 2, 3, 4]);
next = array1d(1..13 ,[5, 7, 1, 6, 4, 9, 8, 12, 13, 11, 2, 3, 10]);
makespan = 1235;
----------
assign = array1d(1..13 ,[4, 3, 4, 4, 4, 4, 3, 3, 4, 1, 2, 3, 4]);
next = array1d(1..13 ,[5, 7, 1, 6, 4, 9, 8, 12, 13, 11, 2, 3, 10]);
makespan = 1234;
----------
assign = array1d(1..13 ,[4, 3, 4, 4, 4, 4, 3, 3, 4, 1, 2, 3, 4]);
next = array1d(1..13 ,[5, 7, 1, 6, 4, 9, 8, 12, 13, 11, 2, 3, 10]);
makespan = 1233;
----------
assign = array1d(1..13 ,[4, 3, 4, 4, 4, 4, 3, 3, 4, 1, 2, 3, 4]);
next = array1d(1..13 ,[5, 7, 1, 6, 4, 9, 8, 12, 13, 11, 2, 3, 10]);
makespan = 1231;
----------
assign = array1d(1..13 ,[4, 3, 4, 4, 4, 4, 3, 3, 3, 1, 2, 3, 4]);
next = array1d(1..13 ,[5, 9, 1, 6, 4, 13, 8, 12, 7, 11, 2, 3, 10]);
makespan = 1229;
----------
assign = array1d(1..13 ,[4, 3, 4, 4, 4, 4, 3, 3, 3, 1, 2, 3, 4]);
next = array1d(1..13 ,[5, 9, 1, 6, 4, 13, 8, 12, 7, 11, 2, 3, 10]);
makespan = 1228;
----------
assign = array1d(1..13 ,[4, 3, 4, 4, 4, 4, 3, 3, 3, 1, 2, 3, 4]);
next = array1d(1..13 ,[5, 9, 1, 6, 4, 13, 8, 12, 7, 11, 2, 3, 10]);
makespan = 1227;
----------
assign = array1d(1..13 ,[4, 3, 4, 4, 4, 4, 3, 3, 3, 1, 2, 3, 4]);
next = array1d(1..13 ,[5, 9, 1, 6, 4, 13, 8, 12, 7, 11, 2, 3, 10]);
makespan = 1226;
----------
assign = array1d(1..13 ,[4, 3, 4, 4, 4, 4, 3, 3, 3, 1, 2, 3, 4]);
next = array1d(1..13 ,[5, 9, 1, 6, 4, 13, 8, 12, 7, 11, 2, 3, 10]);
makespan = 1225;
----------
assign = array1d(1..13 ,[4, 3, 4, 4, 4, 4, 3, 3, 3, 1, 2, 3, 4]);
next = array1d(1..13 ,[5, 9, 1, 6, 4, 13, 8, 12, 7, 11, 2, 3, 10]);
makespan = 1224;
----------
assign = array1d(1..13 ,[4, 3, 4, 4, 4, 4, 3, 3, 3, 1, 2, 3, 4]);
next = array1d(1..13 ,[5, 9, 1, 6, 4, 13, 8, 12, 7, 11, 2, 3, 10]);
makespan = 1223;
----------
assign = array1d(1..13 ,[4, 3, 4, 4, 4, 4, 3, 3, 3, 1, 2, 3, 4]);
next = array1d(1..13 ,[5, 9, 1, 6, 4, 13, 8, 12, 7, 11, 2, 3, 10]);
makespan = 1222;
----------
assign = array1d(1..13 ,[4, 3, 4, 4, 4, 4, 3, 3, 3, 1, 2, 3, 4]);
next = array1d(1..13 ,[5, 9, 1, 6, 4, 13, 8, 12, 7, 11, 2, 3, 10]);
makespan = 1221;
----------
assign = array1d(1..13 ,[4, 3, 4, 4, 4, 4, 3, 3, 3, 1, 2, 3, 4]);
next = array1d(1..13 ,[5, 9, 1, 6, 4, 13, 8, 12, 7, 11, 2, 3, 10]);
makespan = 1220;
----------
assign = array1d(1..13 ,[4, 3, 4, 4, 4, 4, 3, 3, 3, 1, 2, 3, 4]);
next = array1d(1..13 ,[5, 9, 1, 6, 4, 13, 8, 12, 7, 11, 2, 3, 10]);
makespan = 1219;
----------
assign = array1d(1..13 ,[4, 3, 4, 4, 4, 4, 3, 3, 3, 1, 2, 3, 4]);
next = array1d(1..13 ,[5, 9, 1, 6, 4, 13, 8, 12, 7, 11, 2, 3, 10]);
makespan = 1218;
----------
assign = array1d(1..13 ,[4, 3, 4, 4, 4, 4, 3, 3, 3, 1, 2, 3, 4]);
next = array1d(1..13 ,[5, 9, 1, 6, 4, 13, 8, 12, 7, 11, 2, 3, 10]);
makespan = 1215;
----------
assign = array1d(1..13 ,[4, 3, 4, 4, 4, 4, 3, 3, 3, 1, 2, 3, 4]);
next = array1d(1..13 ,[5, 9, 1, 6, 4, 13, 8, 12, 7, 11, 2, 3, 10]);
makespan = 1214;
----------
assign = array1d(1..13 ,[4, 3, 4, 4, 4, 4, 3, 3, 3, 1, 2, 3, 4]);
next = array1d(1..13 ,[5, 9, 1, 6, 4, 13, 8, 12, 7, 11, 2, 3, 10]);
makespan = 1213;
----------
assign = array1d(1..13 ,[4, 3, 4, 4, 4, 4, 3, 3, 3, 1, 2, 3, 4]);
next = array1d(1..13 ,[5, 9, 1, 6, 4, 13, 8, 12, 7, 11, 2, 3, 10]);
makespan = 1212;
----------
assign = array1d(1..13 ,[4, 3, 4, 4, 4, 4, 3, 3, 3, 1, 2, 3, 4]);
next = array1d(1..13 ,[5, 9, 1, 6, 4, 13, 8, 12, 7, 11, 2, 3, 10]);
makespan = 1211;
----------
assign = array1d(1..13 ,[4, 3, 4, 4, 4, 4, 3, 3, 3, 1, 2, 3, 4]);
next = array1d(1..13 ,[5, 9, 1, 6, 4, 13, 8, 12, 7, 11, 2, 3, 10]);
makespan = 1210;
----------
assign = array1d(1..13 ,[4, 3, 4, 4, 4, 4, 3, 3, 3, 1, 2, 3, 4]);
next = array1d(1..13 ,[5, 9, 1, 6, 4, 13, 8, 12, 7, 11, 2, 3, 10]);
makespan = 1209;
----------
assign = array1d(1..13 ,[4, 3, 4, 4, 4, 4, 3, 3, 3, 1, 2, 3, 4]);
next = array1d(1..13 ,[5, 9, 1, 6, 4, 13, 8, 12, 7, 11, 2, 3, 10]);
makespan = 1208;
----------
assign = array1d(1..13 ,[4, 3, 4, 4, 4, 4, 3, 3, 3, 1, 2, 3, 4]);
next = array1d(1..13 ,[5, 9, 1, 6, 4, 13, 8, 12, 7, 11, 2, 3, 10]);
makespan = 1207;
----------
assign = array1d(1..13 ,[4, 3, 4, 4, 4, 4, 3, 3, 3, 1, 2, 3, 4]);
next = array1d(1..13 ,[5, 9, 1, 6, 4, 13, 8, 12, 7, 11, 2, 3, 10]);
makespan = 1205;
----------
assign = array1d(1..13 ,[4, 3, 4, 4, 4, 4, 3, 3, 3, 1, 2, 3, 4]);
next = array1d(1..13 ,[5, 9, 1, 6, 4, 13, 8, 12, 7, 11, 2, 3, 10]);
makespan = 1204;
----------
assign = array1d(1..13 ,[4, 3, 4, 4, 4, 4, 3, 3, 3, 1, 2, 3, 4]);
next = array1d(1..13 ,[5, 9, 1, 6, 4, 13, 8, 12, 7, 11, 2, 3, 10]);
makespan = 1200;
----------
assign = array1d(1..13 ,[4, 3, 4, 4, 4, 4, 3, 3, 3, 1, 2, 3, 4]);
next = array1d(1..13 ,[5, 9, 1, 6, 4, 13, 8, 12, 7, 11, 2, 3, 10]);
makespan = 1199;
----------
assign = array1d(1..13 ,[4, 3, 4, 4, 4, 4, 3, 3, 3, 1, 2, 3, 4]);
next = array1d(1..13 ,[5, 9, 1, 6, 4, 13, 8, 12, 7, 11, 2, 3, 10]);
makespan = 1198;
----------
assign = array1d(1..13 ,[4, 3, 4, 4, 4, 4, 3, 3, 3, 1, 2, 3, 4]);
next = array1d(1..13 ,[5, 9, 1, 6, 4, 13, 8, 12, 7, 11, 2, 3, 10]);
makespan = 1197;
----------
assign = array1d(1..13 ,[4, 3, 4, 4, 4, 4, 3, 3, 3, 1, 2, 3, 4]);
next = array1d(1..13 ,[5, 9, 1, 6, 4, 13, 8, 12, 7, 11, 2, 3, 10]);
makespan = 1196;
----------
assign = array1d(1..13 ,[4, 3, 4, 4, 4, 4, 3, 3, 3, 1, 2, 3, 4]);
next = array1d(1..13 ,[5, 9, 1, 6, 4, 13, 8, 12, 7, 11, 2, 3, 10]);
makespan = 1195;
----------
assign = array1d(1..13 ,[4, 3, 4, 4, 4, 4, 3, 3, 3, 1, 2, 3, 4]);
next = array1d(1..13 ,[5, 9, 1, 6, 4, 13, 8, 12, 7, 11, 2, 3, 10]);
makespan = 1194;
----------
assign = array1d(1..13 ,[4, 3, 4, 4, 4, 4, 3, 3, 3, 1, 2, 3, 4]);
next = array1d(1..13 ,[5, 9, 1, 6, 4, 13, 8, 12, 7, 11, 2, 3, 10]);
makespan = 1193;
----------
assign = array1d(1..13 ,[4, 3, 4, 4, 4, 4, 3, 3, 3, 1, 2, 3, 4]);
next = array1d(1..13 ,[5, 9, 1, 6, 4, 13, 8, 12, 7, 11, 2, 3, 10]);
makespan = 1191;
----------
assign = array1d(1..13 ,[4, 3, 4, 4, 4, 4, 3, 3, 3, 1, 2, 3, 4]);
next = array1d(1..13 ,[5, 9, 1, 6, 4, 13, 8, 12, 7, 11, 2, 3, 10]);
makespan = 1190;
----------
assign = array1d(1..13 ,[4, 3, 4, 4, 4, 4, 3, 3, 3, 1, 2, 3, 4]);
next = array1d(1..13 ,[5, 9, 1, 6, 4, 13, 8, 12, 7, 11, 2, 3, 10]);
makespan = 1185;
----------
assign = array1d(1..13 ,[4, 3, 4, 4, 4, 4, 3, 3, 3, 1, 2, 3, 4]);
next = array1d(1..13 ,[5, 9, 1, 6, 4, 13, 8, 12, 7, 11, 2, 3, 10]);
makespan = 1183;
----------
assign = array1d(1..13 ,[4, 3, 4, 4, 4, 4, 3, 3, 3, 1, 2, 3, 4]);
next = array1d(1..13 ,[5, 9, 1, 6, 4, 13, 8, 12, 7, 11, 2, 3, 10]);
makespan = 1182;
----------
assign = array1d(1..13 ,[4, 3, 4, 4, 4, 4, 3, 3, 3, 1, 2, 3, 4]);
next = array1d(1..13 ,[5, 9, 1, 6, 4, 13, 8, 12, 7, 11, 2, 3, 10]);
makespan = 1180;
----------
assign = array1d(1..13 ,[4, 3, 4, 4, 4, 4, 3, 3, 3, 1, 2, 3, 4]);
next = array1d(1..13 ,[5, 9, 1, 6, 4, 13, 8, 12, 7, 11, 2, 3, 10]);
makespan = 1179;
----------
assign = array1d(1..13 ,[4, 3, 4, 4, 4, 4, 3, 3, 3, 1, 2, 3, 4]);
next = array1d(1..13 ,[5, 9, 1, 6, 4, 13, 8, 12, 7, 11, 2, 3, 10]);
makespan = 1169;
----------
assign = array1d(1..13 ,[4, 3, 4, 4, 4, 4, 3, 3, 3, 1, 2, 3, 4]);
next = array1d(1..13 ,[5, 9, 1, 6, 4, 13, 8, 12, 7, 11, 2, 3, 10]);
makespan = 1168;
----------
assign = array1d(1..13 ,[4, 3, 4, 4, 4, 4, 3, 3, 3, 1, 2, 3, 4]);
next = array1d(1..13 ,[5, 9, 1, 6, 4, 13, 8, 12, 7, 11, 2, 3, 10]);
makespan = 1152;
----------
assign = array1d(1..13 ,[4, 3, 4, 4, 4, 4, 3, 3, 3, 1, 2, 3, 4]);
next = array1d(1..13 ,[5, 9, 1, 6, 4, 13, 8, 12, 7, 11, 2, 3, 10]);
makespan = 1143;
----------
assign = array1d(1..13 ,[4, 3, 4, 4, 4, 4, 3, 3, 3, 1, 2, 3, 4]);
next = array1d(1..13 ,[5, 9, 1, 6, 4, 13, 8, 12, 7, 11, 2, 3, 10]);
makespan = 1139;
----------
assign = array1d(1..13 ,[4, 3, 4, 4, 4, 4, 3, 3, 3, 1, 2, 3, 4]);
next = array1d(1..13 ,[5, 9, 1, 6, 4, 13, 8, 12, 7, 11, 2, 3, 10]);
makespan = 1133;
----------
assign = array1d(1..13 ,[4, 3, 4, 4, 4, 4, 3, 3, 3, 1, 2, 3, 4]);
next = array1d(1..13 ,[5, 9, 1, 6, 4, 13, 8, 12, 7, 11, 2, 3, 10]);
makespan = 1131;
----------
assign = array1d(1..13 ,[4, 3, 4, 4, 4, 4, 3, 3, 3, 1, 2, 3, 4]);
next = array1d(1..13 ,[5, 9, 1, 6, 4, 13, 8, 12, 7, 11, 2, 3, 10]);
makespan = 1123;
----------
assign = array1d(1..13 ,[4, 3, 4, 4, 4, 4, 3, 3, 3, 1, 2, 3, 4]);
next = array1d(1..13 ,[5, 9, 1, 6, 4, 13, 8, 12, 7, 11, 2, 3, 10]);
makespan = 1119;
----------
assign = array1d(1..13 ,[4, 3, 4, 4, 4, 4, 3, 3, 3, 1, 2, 3, 4]);
next = array1d(1..13 ,[5, 9, 1, 6, 4, 13, 8, 12, 7, 11, 2, 3, 10]);
makespan = 1118;
----------
assign = array1d(1..13 ,[4, 3, 4, 4, 4, 4, 3, 3, 3, 1, 2, 3, 4]);
next = array1d(1..13 ,[5, 9, 1, 6, 4, 13, 8, 12, 7, 11, 2, 3, 10]);
makespan = 1114;
----------
assign = array1d(1..13 ,[4, 3, 4, 4, 4, 4, 3, 3, 3, 1, 2, 3, 4]);
next = array1d(1..13 ,[5, 9, 1, 6, 4, 13, 8, 12, 7, 11, 2, 3, 10]);
makespan = 1111;
----------
assign = array1d(1..13 ,[4, 3, 4, 4, 4, 4, 3, 3, 3, 1, 2, 3, 4]);
next = array1d(1..13 ,[5, 9, 1, 6, 4, 13, 8, 12, 7, 11, 2, 3, 10]);
makespan = 1110;
----------
assign = array1d(1..13 ,[4, 3, 4, 4, 4, 4, 3, 3, 3, 1, 2, 3, 4]);
next = array1d(1..13 ,[5, 9, 1, 6, 4, 13, 8, 12, 7, 11, 2, 3, 10]);
makespan = 1108;
----------
assign = array1d(1..13 ,[4, 3, 4, 4, 4, 4, 3, 3, 3, 1, 2, 3, 4]);
next = array1d(1..13 ,[5, 9, 1, 6, 4, 13, 8, 12, 7, 11, 2, 3, 10]);
makespan = 1101;
----------
assign = array1d(1..13 ,[4, 3, 4, 4, 4, 4, 3, 3, 3, 1, 2, 3, 4]);
next = array1d(1..13 ,[5, 9, 1, 6, 4, 13, 8, 12, 7, 11, 2, 3, 10]);
makespan = 1100;
----------
assign = array1d(1..13 ,[4, 3, 4, 4, 4, 4, 3, 3, 3, 1, 2, 3, 4]);
next = array1d(1..13 ,[5, 9, 1, 6, 4, 13, 8, 12, 7, 11, 2, 3, 10]);
makespan = 1099;
----------
assign = array1d(1..13 ,[4, 3, 4, 4, 4, 4, 3, 3, 3, 1, 2, 3, 4]);
next = array1d(1..13 ,[5, 9, 1, 6, 4, 13, 8, 12, 7, 11, 2, 3, 10]);
makespan = 1098;
----------
assign = array1d(1..13 ,[4, 3, 4, 4, 4, 4, 3, 3, 3, 1, 2, 3, 4]);
next = array1d(1..13 ,[5, 9, 1, 6, 4, 13, 8, 12, 7, 11, 2, 3, 10]);
makespan = 1097;
----------
assign = array1d(1..13 ,[4, 3, 4, 4, 4, 4, 3, 3, 3, 1, 2, 3, 4]);
next = array1d(1..13 ,[5, 9, 1, 6, 4, 13, 8, 12, 7, 11, 2, 3, 10]);
makespan = 1096;
----------
assign = array1d(1..13 ,[4, 3, 4, 4, 4, 4, 3, 3, 3, 1, 2, 3, 4]);
next = array1d(1..13 ,[5, 9, 1, 6, 4, 13, 8, 12, 7, 11, 2, 3, 10]);
makespan = 1095;
----------
assign = array1d(1..13 ,[4, 3, 4, 4, 4, 4, 3, 3, 3, 1, 2, 3, 4]);
next = array1d(1..13 ,[5, 9, 1, 6, 4, 13, 8, 12, 7, 11, 2, 3, 10]);
makespan = 1094;
----------
assign = array1d(1..13 ,[4, 3, 4, 4, 4, 4, 3, 3, 3, 1, 2, 3, 4]);
next = array1d(1..13 ,[5, 9, 1, 6, 4, 13, 8, 12, 7, 11, 2, 3, 10]);
makespan = 1093;
----------
assign = array1d(1..13 ,[4, 3, 4, 4, 4, 4, 3, 3, 3, 1, 2, 3, 4]);
next = array1d(1..13 ,[5, 9, 1, 6, 4, 13, 8, 12, 7, 11, 2, 3, 10]);
makespan = 1089;
----------
assign = array1d(1..13 ,[4, 3, 4, 4, 4, 4, 3, 3, 3, 1, 2, 3, 4]);
next = array1d(1..13 ,[5, 9, 1, 6, 4, 13, 8, 12, 7, 11, 2, 3, 10]);
makespan = 1088;
----------
assign = array1d(1..13 ,[4, 3, 4, 4, 4, 4, 3, 3, 3, 1, 2, 3, 4]);
next = array1d(1..13 ,[5, 9, 1, 6, 4, 13, 8, 12, 7, 11, 2, 3, 10]);
makespan = 1086;
----------
assign = array1d(1..13 ,[4, 3, 4, 4, 4, 4, 3, 3, 3, 1, 2, 3, 4]);
next = array1d(1..13 ,[5, 9, 1, 6, 4, 13, 8, 12, 7, 11, 2, 3, 10]);
makespan = 1085;
----------
assign = array1d(1..13 ,[4, 3, 4, 4, 4, 4, 3, 3, 3, 1, 2, 3, 4]);
next = array1d(1..13 ,[5, 9, 1, 6, 4, 13, 8, 12, 7, 11, 2, 3, 10]);
makespan = 1084;
----------
assign = array1d(1..13 ,[4, 3, 4, 4, 4, 4, 3, 3, 3, 1, 2, 3, 4]);
next = array1d(1..13 ,[5, 9, 1, 6, 4, 13, 8, 12, 7, 11, 2, 3, 10]);
makespan = 1083;
----------
assign = array1d(1..13 ,[4, 3, 4, 4, 4, 4, 3, 3, 3, 1, 2, 3, 4]);
next = array1d(1..13 ,[5, 9, 1, 6, 4, 13, 8, 12, 7, 11, 2, 3, 10]);
makespan = 1082;
----------
assign = array1d(1..13 ,[4, 3, 4, 4, 4, 4, 3, 3, 3, 1, 2, 3, 4]);
next = array1d(1..13 ,[5, 9, 1, 6, 4, 13, 8, 12, 7, 11, 2, 3, 10]);
makespan = 1080;
----------
assign = array1d(1..13 ,[4, 3, 4, 4, 4, 4, 3, 3, 3, 1, 2, 3, 4]);
next = array1d(1..13 ,[5, 9, 1, 6, 4, 13, 8, 12, 7, 11, 2, 3, 10]);
makespan = 1079;
----------
assign = array1d(1..13 ,[4, 3, 4, 4, 4, 4, 3, 3, 3, 1, 2, 3, 4]);
next = array1d(1..13 ,[5, 9, 1, 6, 4, 13, 8, 12, 7, 11, 2, 3, 10]);
makespan = 1075;
----------
assign = array1d(1..13 ,[4, 3, 4, 4, 4, 4, 3, 3, 3, 1, 2, 3, 4]);
next = array1d(1..13 ,[5, 9, 1, 6, 4, 13, 8, 12, 7, 11, 2, 3, 10]);
makespan = 1074;
----------
assign = array1d(1..13 ,[4, 3, 4, 4, 4, 4, 3, 3, 3, 1, 2, 3, 4]);
next = array1d(1..13 ,[5, 9, 1, 6, 4, 13, 8, 12, 7, 11, 2, 3, 10]);
makespan = 1073;
----------
assign = array1d(1..13 ,[4, 3, 4, 4, 4, 4, 3, 3, 3, 1, 2, 3, 4]);
next = array1d(1..13 ,[5, 9, 1, 6, 4, 13, 8, 12, 7, 11, 2, 3, 10]);
makespan = 1072;
----------
assign = array1d(1..13 ,[4, 3, 4, 4, 4, 4, 3, 3, 3, 1, 2, 3, 4]);
next = array1d(1..13 ,[5, 9, 1, 6, 4, 13, 8, 12, 7, 11, 2, 3, 10]);
makespan = 1071;
----------
assign = array1d(1..13 ,[4, 3, 4, 4, 4, 4, 3, 3, 3, 1, 2, 3, 4]);
next = array1d(1..13 ,[5, 9, 1, 6, 4, 13, 8, 12, 7, 11, 2, 3, 10]);
makespan = 1070;
----------
assign = array1d(1..13 ,[4, 3, 4, 4, 4, 4, 3, 3, 3, 1, 2, 3, 4]);
next = array1d(1..13 ,[5, 9, 1, 6, 4, 13, 8, 12, 7, 11, 2, 3, 10]);
makespan = 1069;
----------
assign = array1d(1..13 ,[4, 3, 4, 4, 4, 4, 3, 3, 3, 1, 2, 3, 4]);
next = array1d(1..13 ,[5, 9, 1, 6, 4, 13, 8, 12, 7, 11, 2, 3, 10]);
makespan = 1068;
----------
assign = array1d(1..13 ,[4, 3, 4, 4, 4, 4, 3, 3, 3, 1, 2, 3, 4]);
next = array1d(1..13 ,[5, 9, 1, 6, 4, 13, 8, 12, 7, 11, 2, 3, 10]);
makespan = 1067;
----------
assign = array1d(1..13 ,[4, 3, 4, 4, 4, 4, 3, 3, 3, 1, 2, 3, 4]);
next = array1d(1..13 ,[5, 9, 1, 6, 4, 13, 8, 12, 7, 11, 2, 3, 10]);
makespan = 1066;
----------
assign = array1d(1..13 ,[4, 3, 4, 4, 4, 4, 3, 3, 3, 1, 2, 3, 4]);
next = array1d(1..13 ,[5, 9, 1, 6, 4, 13, 8, 12, 7, 11, 2, 3, 10]);
makespan = 1065;
----------
assign = array1d(1..13 ,[4, 3, 4, 4, 4, 4, 3, 3, 3, 1, 2, 3, 4]);
next = array1d(1..13 ,[5, 9, 1, 6, 4, 13, 8, 12, 7, 11, 2, 3, 10]);
makespan = 1064;
----------
assign = array1d(1..13 ,[4, 3, 4, 4, 4, 4, 3, 3, 3, 1, 2, 3, 4]);
next = array1d(1..13 ,[5, 9, 1, 6, 4, 13, 8, 12, 7, 11, 2, 3, 10]);
makespan = 1060;
----------
assign = array1d(1..13 ,[4, 3, 4, 4, 4, 4, 3, 3, 3, 1, 2, 3, 4]);
next = array1d(1..13 ,[5, 9, 1, 6, 4, 13, 8, 12, 7, 11, 2, 3, 10]);
makespan = 1058;
----------
assign = array1d(1..13 ,[4, 3, 4, 4, 4, 4, 3, 3, 3, 1, 2, 3, 4]);
next = array1d(1..13 ,[5, 9, 1, 6, 4, 13, 8, 12, 7, 11, 2, 3, 10]);
makespan = 1057;
----------
assign = array1d(1..13 ,[4, 3, 4, 4, 4, 4, 3, 3, 3, 1, 2, 3, 4]);
next = array1d(1..13 ,[5, 9, 1, 6, 4, 13, 8, 12, 7, 11, 2, 3, 10]);
makespan = 1056;
----------
assign = array1d(1..13 ,[4, 3, 4, 4, 4, 4, 3, 3, 3, 1, 2, 3, 4]);
next = array1d(1..13 ,[5, 9, 1, 6, 4, 13, 8, 12, 7, 11, 2, 3, 10]);
makespan = 1055;
----------
assign = array1d(1..13 ,[4, 3, 4, 4, 4, 4, 3, 3, 3, 1, 2, 3, 4]);
next = array1d(1..13 ,[5, 9, 1, 6, 4, 13, 8, 12, 7, 11, 2, 3, 10]);
makespan = 1054;
----------
assign = array1d(1..13 ,[4, 3, 4, 4, 4, 4, 3, 3, 3, 1, 2, 3, 4]);
next = array1d(1..13 ,[5, 9, 1, 6, 4, 13, 8, 12, 7, 11, 2, 3, 10]);
makespan = 1053;
----------
assign = array1d(1..13 ,[4, 3, 4, 4, 4, 4, 3, 3, 3, 1, 2, 3, 4]);
next = array1d(1..13 ,[5, 9, 1, 6, 4, 13, 8, 12, 7, 11, 2, 3, 10]);
makespan = 1052;
----------
assign = array1d(1..13 ,[4, 3, 4, 4, 4, 4, 3, 3, 3, 1, 2, 3, 4]);
next = array1d(1..13 ,[5, 9, 1, 6, 4, 13, 8, 12, 7, 11, 2, 3, 10]);
makespan = 1051;
----------
assign = array1d(1..13 ,[4, 3, 4, 4, 4, 4, 3, 3, 3, 1, 2, 3, 4]);
next = array1d(1..13 ,[5, 9, 1, 6, 4, 13, 8, 12, 7, 11, 2, 3, 10]);
makespan = 1050;
----------
assign = array1d(1..13 ,[4, 3, 4, 4, 4, 4, 3, 3, 3, 1, 2, 3, 4]);
next = array1d(1..13 ,[5, 9, 1, 6, 4, 13, 8, 12, 7, 11, 2, 3, 10]);
makespan = 1045;
----------
assign = array1d(1..13 ,[4, 3, 4, 4, 4, 4, 3, 3, 3, 1, 2, 3, 4]);
next = array1d(1..13 ,[5, 9, 1, 6, 4, 13, 8, 12, 7, 11, 2, 3, 10]);
makespan = 1044;
----------
assign = array1d(1..13 ,[4, 3, 4, 4, 4, 4, 3, 3, 3, 1, 2, 3, 4]);
next = array1d(1..13 ,[5, 9, 1, 6, 4, 13, 8, 12, 7, 11, 2, 3, 10]);
makespan = 1043;
----------
assign = array1d(1..13 ,[4, 3, 4, 4, 4, 4, 3, 3, 3, 1, 2, 3, 4]);
next = array1d(1..13 ,[5, 9, 1, 6, 4, 13, 8, 12, 7, 11, 2, 3, 10]);
makespan = 1042;
----------
assign = array1d(1..13 ,[4, 3, 4, 4, 4, 4, 3, 3, 3, 1, 2, 3, 4]);
next = array1d(1..13 ,[5, 9, 1, 6, 4, 13, 8, 12, 7, 11, 2, 3, 10]);
makespan = 1040;
----------
assign = array1d(1..13 ,[4, 3, 4, 4, 4, 1, 1, 1, 4, 1, 2, 3, 4]);
next = array1d(1..13 ,[5, 12, 1, 13, 4, 7, 8, 10, 3, 11, 2, 9, 6]);
makespan = 1039;
----------
assign = array1d(1..13 ,[4, 3, 4, 4, 4, 1, 1, 1, 4, 1, 2, 3, 4]);
next = array1d(1..13 ,[5, 12, 1, 13, 4, 7, 8, 10, 3, 11, 2, 9, 6]);
makespan = 1036;
----------
assign = array1d(1..13 ,[4, 3, 4, 4, 4, 1, 1, 1, 4, 1, 2, 3, 4]);
next = array1d(1..13 ,[5, 12, 1, 13, 4, 7, 8, 10, 3, 11, 2, 9, 6]);
makespan = 1033;
----------
assign = array1d(1..13 ,[4, 3, 4, 4, 4, 1, 1, 1, 4, 1, 2, 3, 4]);
next = array1d(1..13 ,[5, 12, 1, 13, 4, 7, 8, 10, 3, 11, 2, 9, 6]);
makespan = 1030;
----------
assign = array1d(1..13 ,[4, 3, 4, 4, 4, 2, 2, 2, 2, 1, 2, 3, 4]);
next = array1d(1..13 ,[5, 12, 1, 13, 4, 9, 11, 6, 7, 8, 2, 3, 10]);
makespan = 1029;
----------
assign = array1d(1..13 ,[4, 2, 4, 4, 4, 3, 2, 3, 3, 1, 2, 3, 4]);
next = array1d(1..13 ,[5, 11, 1, 13, 4, 9, 2, 6, 12, 7, 8, 3, 10]);
makespan = 1028;
----------
assign = array1d(1..13 ,[4, 3, 4, 4, 4, 2, 3, 2, 2, 1, 2, 3, 4]);
next = array1d(1..13 ,[5, 12, 1, 13, 4, 9, 2, 6, 11, 8, 7, 3, 10]);
makespan = 1026;
----------
assign = array1d(1..13 ,[4, 3, 4, 4, 4, 1, 3, 1, 1, 1, 2, 3, 4]);
next = array1d(1..13 ,[5, 12, 1, 13, 4, 9, 2, 6, 10, 11, 7, 3, 8]);
makespan = 1025;
----------
assign = array1d(1..13 ,[3, 4, 3, 2, 3, 4, 4, 4, 4, 1, 2, 3, 4]);
next = array1d(1..13 ,[5, 8, 12, 11, 3, 9, 2, 6, 13, 4, 1, 7, 10]);
makespan = 1019;
----------
assign = array1d(1..13 ,[4, 4, 4, 2, 1, 1, 4, 1, 1, 1, 2, 3, 4]);
next = array1d(1..13 ,[13, 3, 1, 11, 8, 9, 2, 6, 10, 4, 12, 7, 5]);
makespan = 1017;
----------
assign = array1d(1..13 ,[4, 4, 4, 2, 1, 1, 4, 1, 1, 1, 2, 3, 4]);
next = array1d(1..13 ,[13, 3, 1, 11, 8, 9, 2, 6, 10, 4, 12, 7, 5]);
makespan = 1014;
----------
assign = array1d(1..13 ,[4, 4, 4, 2, 1, 1, 4, 1, 1, 1, 2, 3, 4]);
next = array1d(1..13 ,[13, 3, 1, 11, 8, 9, 2, 6, 10, 4, 12, 7, 5]);
makespan = 990;
----------
assign = array1d(1..13 ,[4, 4, 4, 2, 1, 1, 4, 1, 1, 1, 2, 3, 4]);
next = array1d(1..13 ,[13, 3, 1, 11, 8, 9, 2, 6, 10, 4, 12, 7, 5]);
makespan = 988;
----------
assign = array1d(1..13 ,[4, 4, 4, 2, 1, 1, 4, 1, 1, 1, 2, 3, 4]);
next = array1d(1..13 ,[13, 3, 1, 11, 8, 9, 2, 6, 10, 4, 12, 7, 5]);
makespan = 987;
----------
assign = array1d(1..13 ,[4, 4, 4, 2, 1, 1, 4, 1, 1, 1, 2, 3, 4]);
next = array1d(1..13 ,[13, 3, 1, 11, 8, 9, 2, 6, 10, 4, 12, 7, 5]);
makespan = 978;
----------
assign = array1d(1..13 ,[4, 4, 4, 2, 1, 1, 4, 1, 1, 1, 2, 3, 4]);
next = array1d(1..13 ,[13, 3, 1, 11, 8, 9, 2, 6, 10, 4, 12, 7, 5]);
makespan = 977;
----------
assign = array1d(1..13 ,[4, 4, 4, 2, 1, 1, 4, 1, 1, 1, 2, 3, 4]);
next = array1d(1..13 ,[13, 3, 1, 11, 8, 9, 2, 6, 10, 4, 12, 7, 5]);
makespan = 974;
----------
assign = array1d(1..13 ,[4, 4, 4, 2, 1, 1, 4, 1, 1, 1, 2, 3, 4]);
next = array1d(1..13 ,[13, 3, 1, 11, 8, 9, 2, 6, 10, 4, 12, 7, 5]);
makespan = 962;
----------
assign = array1d(1..13 ,[4, 4, 4, 2, 1, 1, 4, 1, 1, 1, 2, 3, 4]);
next = array1d(1..13 ,[13, 3, 1, 11, 8, 9, 2, 6, 10, 4, 12, 7, 5]);
makespan = 946;
----------
assign = array1d(1..13 ,[4, 4, 4, 2, 1, 1, 4, 1, 1, 1, 2, 3, 4]);
next = array1d(1..13 ,[13, 3, 1, 11, 8, 9, 2, 6, 10, 4, 12, 7, 5]);
makespan = 945;
----------
assign = array1d(1..13 ,[4, 4, 4, 2, 1, 1, 4, 1, 1, 1, 2, 3, 4]);
next = array1d(1..13 ,[13, 3, 1, 11, 8, 9, 2, 6, 10, 4, 12, 7, 5]);
makespan = 943;
----------
assign = array1d(1..13 ,[4, 4, 4, 2, 1, 1, 4, 1, 1, 1, 2, 3, 4]);
next = array1d(1..13 ,[13, 3, 1, 11, 8, 9, 2, 6, 10, 4, 12, 7, 5]);
makespan = 942;
----------
assign = array1d(1..13 ,[4, 4, 4, 2, 1, 1, 4, 1, 1, 1, 2, 3, 4]);
next = array1d(1..13 ,[13, 3, 1, 11, 8, 9, 2, 6, 10, 4, 12, 7, 5]);
makespan = 941;
----------
assign = array1d(1..13 ,[4, 4, 4, 2, 1, 1, 4, 1, 1, 1, 2, 3, 4]);
next = array1d(1..13 ,[13, 3, 1, 11, 8, 9, 2, 6, 10, 4, 12, 7, 5]);
makespan = 940;
----------
assign = array1d(1..13 ,[4, 4, 4, 2, 1, 1, 4, 1, 1, 1, 2, 3, 4]);
next = array1d(1..13 ,[13, 3, 1, 11, 8, 9, 2, 6, 10, 4, 12, 7, 5]);
makespan = 939;
----------
assign = array1d(1..13 ,[4, 4, 4, 2, 1, 1, 4, 1, 1, 1, 2, 3, 4]);
next = array1d(1..13 ,[13, 3, 1, 11, 8, 9, 2, 6, 10, 4, 12, 7, 5]);
makespan = 935;
----------
assign = array1d(1..13 ,[4, 4, 4, 2, 1, 1, 4, 1, 1, 1, 2, 3, 4]);
next = array1d(1..13 ,[13, 3, 1, 11, 8, 9, 2, 6, 10, 4, 12, 7, 5]);
makespan = 932;
----------
assign = array1d(1..13 ,[4, 4, 4, 2, 1, 1, 4, 1, 1, 1, 2, 3, 4]);
next = array1d(1..13 ,[13, 3, 1, 11, 8, 9, 2, 6, 10, 4, 12, 7, 5]);
makespan = 931;
----------
assign = array1d(1..13 ,[4, 4, 4, 2, 1, 1, 4, 1, 1, 1, 2, 3, 4]);
next = array1d(1..13 ,[13, 3, 1, 11, 8, 9, 2, 6, 10, 4, 12, 7, 5]);
makespan = 930;
----------
assign = array1d(1..13 ,[4, 4, 4, 2, 1, 1, 4, 1, 1, 1, 2, 3, 4]);
next = array1d(1..13 ,[13, 3, 1, 11, 8, 9, 2, 6, 10, 4, 12, 7, 5]);
makespan = 929;
----------
assign = array1d(1..13 ,[4, 4, 4, 2, 1, 1, 4, 1, 1, 1, 2, 3, 4]);
next = array1d(1..13 ,[13, 3, 1, 11, 8, 9, 2, 6, 10, 4, 12, 7, 5]);
makespan = 928;
----------
assign = array1d(1..13 ,[4, 4, 4, 2, 1, 1, 4, 1, 1, 1, 2, 3, 4]);
next = array1d(1..13 ,[13, 3, 1, 11, 8, 9, 2, 6, 10, 4, 12, 7, 5]);
makespan = 925;
----------
assign = array1d(1..13 ,[4, 4, 4, 2, 1, 1, 4, 1, 1, 1, 2, 3, 4]);
next = array1d(1..13 ,[13, 3, 1, 11, 8, 9, 2, 6, 10, 4, 12, 7, 5]);
makespan = 920;
----------
assign = array1d(1..13 ,[4, 4, 4, 2, 1, 1, 4, 1, 1, 1, 2, 3, 4]);
next = array1d(1..13 ,[13, 3, 1, 11, 8, 9, 2, 6, 10, 4, 12, 7, 5]);
makespan = 919;
----------
assign = array1d(1..13 ,[4, 4, 4, 1, 3, 3, 4, 3, 3, 1, 2, 3, 4]);
next = array1d(1..13 ,[13, 3, 1, 10, 8, 9, 2, 6, 12, 11, 5, 7, 4]);
makespan = 918;
----------
assign = array1d(1..13 ,[4, 4, 4, 1, 3, 3, 4, 3, 3, 1, 2, 3, 4]);
next = array1d(1..13 ,[13, 3, 1, 10, 8, 9, 2, 6, 12, 11, 5, 7, 4]);
makespan = 917;
----------
assign = array1d(1..13 ,[1, 1, 1, 2, 4, 4, 1, 4, 4, 1, 2, 3, 4]);
next = array1d(1..13 ,[10, 3, 1, 11, 8, 9, 2, 6, 13, 4, 12, 5, 7]);
makespan = 915;
----------
assign = array1d(1..13 ,[1, 1, 1, 2, 4, 4, 1, 4, 4, 1, 2, 3, 4]);
next = array1d(1..13 ,[10, 3, 1, 11, 8, 9, 2, 6, 13, 4, 12, 5, 7]);
makespan = 914;
----------
assign = array1d(1..13 ,[1, 1, 1, 2, 4, 4, 1, 4, 4, 1, 2, 3, 4]);
next = array1d(1..13 ,[10, 3, 1, 11, 8, 9, 2, 6, 13, 4, 12, 5, 7]);
makespan = 912;
----------
assign = array1d(1..13 ,[1, 1, 1, 2, 4, 4, 1, 4, 4, 1, 2, 3, 4]);
next = array1d(1..13 ,[10, 3, 1, 11, 8, 9, 2, 6, 13, 4, 12, 5, 7]);
makespan = 911;
----------
assign = array1d(1..13 ,[1, 1, 1, 2, 4, 4, 1, 4, 4, 1, 2, 3, 4]);
next = array1d(1..13 ,[10, 3, 1, 11, 8, 9, 2, 6, 13, 4, 12, 5, 7]);
makespan = 910;
----------
assign = array1d(1..13 ,[1, 1, 1, 2, 4, 4, 1, 4, 4, 1, 2, 3, 4]);
next = array1d(1..13 ,[10, 3, 1, 11, 8, 9, 2, 6, 13, 4, 12, 5, 7]);
makespan = 908;
----------
assign = array1d(1..13 ,[1, 1, 1, 2, 4, 4, 1, 4, 4, 1, 2, 3, 4]);
next = array1d(1..13 ,[10, 3, 1, 11, 8, 9, 2, 6, 13, 4, 12, 5, 7]);
makespan = 907;
----------
assign = array1d(1..13 ,[1, 1, 1, 2, 4, 4, 1, 4, 4, 1, 2, 3, 4]);
next = array1d(1..13 ,[10, 3, 1, 11, 8, 9, 2, 6, 13, 4, 12, 5, 7]);
makespan = 904;
----------
assign = array1d(1..13 ,[1, 1, 1, 2, 4, 4, 1, 4, 4, 1, 2, 3, 4]);
next = array1d(1..13 ,[10, 3, 1, 11, 8, 9, 2, 6, 13, 4, 12, 5, 7]);
makespan = 903;
----------
assign = array1d(1..13 ,[1, 1, 1, 2, 4, 4, 1, 4, 4, 1, 2, 3, 4]);
next = array1d(1..13 ,[10, 3, 1, 11, 8, 9, 2, 6, 13, 4, 12, 5, 7]);
makespan = 902;
----------
assign = array1d(1..13 ,[1, 1, 1, 2, 4, 4, 1, 4, 4, 1, 2, 3, 4]);
next = array1d(1..13 ,[10, 3, 1, 11, 8, 9, 2, 6, 13, 4, 12, 5, 7]);
makespan = 901;
----------
assign = array1d(1..13 ,[1, 1, 1, 2, 4, 4, 1, 4, 4, 1, 2, 3, 4]);
next = array1d(1..13 ,[10, 3, 1, 11, 8, 9, 2, 6, 13, 4, 12, 5, 7]);
makespan = 900;
----------
assign = array1d(1..13 ,[1, 1, 1, 2, 4, 4, 1, 4, 4, 1, 2, 3, 4]);
next = array1d(1..13 ,[10, 3, 1, 11, 8, 9, 2, 6, 13, 4, 12, 5, 7]);
makespan = 899;
----------
assign = array1d(1..13 ,[1, 1, 1, 2, 4, 4, 1, 4, 4, 1, 2, 3, 4]);
next = array1d(1..13 ,[10, 3, 1, 11, 8, 9, 2, 6, 13, 4, 12, 5, 7]);
makespan = 896;
----------
assign = array1d(1..13 ,[1, 1, 1, 2, 4, 4, 1, 4, 4, 1, 2, 3, 4]);
next = array1d(1..13 ,[10, 3, 1, 11, 8, 9, 2, 6, 13, 4, 12, 5, 7]);
makespan = 889;
----------
assign = array1d(1..13 ,[1, 1, 1, 2, 4, 4, 1, 4, 4, 1, 2, 3, 4]);
next = array1d(1..13 ,[10, 3, 1, 11, 8, 9, 2, 6, 13, 4, 12, 5, 7]);
makespan = 886;
----------
assign = array1d(1..13 ,[1, 1, 1, 2, 4, 4, 1, 4, 4, 1, 2, 3, 4]);
next = array1d(1..13 ,[10, 3, 1, 11, 8, 9, 2, 6, 13, 4, 12, 5, 7]);
makespan = 885;
----------
assign = array1d(1..13 ,[1, 1, 1, 2, 4, 4, 1, 4, 4, 1, 2, 3, 4]);
next = array1d(1..13 ,[10, 3, 1, 11, 8, 9, 2, 6, 13, 4, 12, 5, 7]);
makespan = 880;
----------
assign = array1d(1..13 ,[1, 1, 1, 2, 4, 4, 1, 4, 4, 1, 2, 3, 4]);
next = array1d(1..13 ,[10, 3, 1, 11, 8, 9, 2, 6, 13, 4, 12, 5, 7]);
makespan = 879;
----------
assign = array1d(1..13 ,[1, 1, 1, 2, 4, 4, 1, 4, 4, 1, 2, 3, 4]);
next = array1d(1..13 ,[10, 3, 1, 11, 8, 9, 2, 6, 13, 4, 12, 5, 7]);
makespan = 878;
----------
assign = array1d(1..13 ,[1, 1, 1, 2, 4, 4, 1, 4, 4, 1, 2, 3, 4]);
next = array1d(1..13 ,[10, 3, 1, 11, 8, 9, 2, 6, 13, 4, 12, 5, 7]);
makespan = 877;
----------
assign = array1d(1..13 ,[1, 1, 1, 2, 4, 4, 1, 4, 4, 1, 2, 3, 4]);
next = array1d(1..13 ,[10, 3, 1, 11, 8, 9, 2, 6, 13, 4, 12, 5, 7]);
makespan = 875;
----------
assign = array1d(1..13 ,[1, 1, 1, 2, 4, 4, 1, 4, 4, 1, 2, 3, 4]);
next = array1d(1..13 ,[10, 3, 1, 11, 8, 9, 2, 6, 13, 4, 12, 5, 7]);
makespan = 874;
----------
assign = array1d(1..13 ,[1, 1, 1, 2, 4, 4, 1, 4, 4, 1, 2, 3, 4]);
next = array1d(1..13 ,[10, 3, 1, 11, 8, 9, 2, 6, 13, 4, 12, 5, 7]);
makespan = 871;
----------
assign = array1d(1..13 ,[1, 1, 1, 2, 4, 4, 1, 4, 4, 1, 2, 3, 4]);
next = array1d(1..13 ,[10, 3, 1, 11, 8, 9, 2, 6, 13, 4, 12, 5, 7]);
makespan = 844;
----------
assign = array1d(1..13 ,[1, 3, 3, 1, 4, 4, 3, 4, 4, 1, 2, 3, 4]);
next = array1d(1..13 ,[10, 3, 12, 1, 8, 9, 2, 6, 13, 11, 7, 5, 4]);
makespan = 829;
----------
assign = array1d(1..13 ,[4, 4, 4, 1, 3, 3, 4, 3, 3, 1, 2, 3, 4]);
next = array1d(1..13 ,[13, 3, 1, 10, 8, 9, 2, 6, 12, 11, 5, 7, 4]);
makespan = 827;
----------
assign = array1d(1..13 ,[4, 4, 4, 1, 3, 3, 4, 3, 3, 1, 2, 3, 4]);
next = array1d(1..13 ,[13, 3, 1, 10, 8, 9, 2, 6, 12, 11, 5, 7, 4]);
makespan = 823;
----------
assign = array1d(1..13 ,[2, 4, 4, 1, 3, 3, 4, 3, 3, 1, 2, 3, 4]);
next = array1d(1..13 ,[11, 3, 13, 10, 8, 9, 2, 6, 12, 1, 5, 7, 4]);
makespan = 819;
----------
assign = array1d(1..13 ,[4, 1, 1, 3, 3, 4, 1, 4, 4, 1, 2, 3, 4]);
next = array1d(1..13 ,[13, 3, 10, 5, 12, 9, 2, 6, 1, 11, 4, 8, 7]);
makespan = 816;
----------
assign = array1d(1..13 ,[4, 1, 1, 3, 3, 4, 1, 4, 4, 1, 2, 3, 4]);
next = array1d(1..13 ,[13, 3, 10, 5, 12, 9, 2, 6, 1, 11, 4, 8, 7]);
makespan = 796;
----------
assign = array1d(1..13 ,[4, 1, 1, 3, 3, 4, 1, 4, 4, 1, 2, 3, 4]);
next = array1d(1..13 ,[13, 3, 10, 5, 12, 9, 2, 6, 1, 11, 4, 8, 7]);
makespan = 794;
----------
assign = array1d(1..13 ,[4, 1, 1, 3, 3, 4, 1, 4, 4, 1, 2, 3, 4]);
next = array1d(1..13 ,[13, 3, 10, 5, 12, 9, 2, 6, 1, 11, 4, 8, 7]);
makespan = 777;
----------
assign = array1d(1..13 ,[4, 1, 1, 3, 3, 4, 1, 4, 4, 1, 2, 3, 4]);
next = array1d(1..13 ,[13, 3, 10, 5, 12, 9, 2, 6, 1, 11, 4, 8, 7]);
makespan = 772;
----------
assign = array1d(1..13 ,[3, 2, 2, 3, 3, 4, 2, 4, 4, 1, 2, 3, 4]);
next = array1d(1..13 ,[4, 3, 11, 5, 12, 9, 2, 6, 13, 7, 1, 8, 10]);
makespan = 770;
----------
assign = array1d(1..13 ,[3, 4, 4, 3, 3, 1, 4, 1, 1, 1, 2, 3, 4]);
next = array1d(1..13 ,[4, 3, 13, 5, 12, 9, 2, 6, 10, 11, 1, 7, 8]);
makespan = 768;
----------
assign = array1d(1..13 ,[3, 4, 4, 3, 3, 1, 4, 1, 1, 1, 2, 3, 4]);
next = array1d(1..13 ,[4, 3, 13, 5, 12, 9, 2, 6, 10, 11, 1, 7, 8]);
makespan = 767;
----------
assign = array1d(1..13 ,[3, 4, 4, 3, 3, 1, 4, 1, 1, 1, 2, 3, 4]);
next = array1d(1..13 ,[4, 3, 13, 5, 12, 9, 2, 6, 10, 11, 1, 7, 8]);
makespan = 760;
----------
assign = array1d(1..13 ,[2, 3, 2, 1, 3, 4, 3, 4, 4, 1, 2, 3, 4]);
next = array1d(1..13 ,[11, 12, 1, 10, 7, 9, 2, 6, 13, 3, 5, 8, 4]);
makespan = 757;
----------
assign = array1d(1..13 ,[2, 4, 2, 1, 4, 3, 4, 3, 3, 1, 2, 3, 4]);
next = array1d(1..13 ,[11, 13, 1, 10, 7, 9, 2, 6, 12, 3, 8, 5, 4]);
makespan = 756;
----------
assign = array1d(1..13 ,[2, 4, 2, 1, 4, 3, 4, 3, 3, 1, 2, 3, 4]);
next = array1d(1..13 ,[11, 13, 1, 10, 7, 9, 2, 6, 12, 3, 8, 5, 4]);
makespan = 745;
----------
assign = array1d(1..13 ,[3, 2, 3, 3, 2, 4, 2, 4, 4, 1, 2, 3, 4]);
next = array1d(1..13 ,[4, 11, 1, 12, 7, 9, 2, 6, 13, 5, 3, 8, 10]);
makespan = 744;
----------
assign = array1d(1..13 ,[2, 4, 2, 1, 4, 3, 4, 3, 3, 1, 2, 3, 4]);
next = array1d(1..13 ,[11, 13, 1, 10, 7, 9, 2, 6, 12, 3, 8, 5, 4]);
makespan = 740;
----------
assign = array1d(1..13 ,[2, 4, 2, 1, 4, 3, 4, 3, 3, 1, 2, 3, 4]);
next = array1d(1..13 ,[11, 13, 1, 10, 7, 9, 2, 6, 12, 3, 8, 5, 4]);
makespan = 738;
----------
assign = array1d(1..13 ,[2, 4, 2, 1, 4, 3, 4, 3, 3, 1, 2, 3, 4]);
next = array1d(1..13 ,[11, 13, 1, 10, 7, 9, 2, 6, 12, 3, 8, 5, 4]);
makespan = 734;
----------
assign = array1d(1..13 ,[2, 4, 2, 1, 4, 3, 4, 3, 3, 1, 2, 3, 4]);
next = array1d(1..13 ,[11, 13, 1, 10, 7, 9, 2, 6, 12, 3, 8, 5, 4]);
makespan = 729;
----------
assign = array1d(1..13 ,[2, 4, 2, 1, 4, 3, 4, 3, 3, 1, 2, 3, 4]);
next = array1d(1..13 ,[11, 13, 1, 10, 7, 9, 2, 6, 12, 3, 8, 5, 4]);
makespan = 728;
----------
assign = array1d(1..13 ,[2, 4, 2, 1, 4, 3, 4, 3, 3, 1, 2, 3, 4]);
next = array1d(1..13 ,[11, 13, 1, 10, 7, 9, 2, 6, 12, 3, 8, 5, 4]);
makespan = 727;
----------
assign = array1d(1..13 ,[2, 4, 2, 1, 4, 3, 4, 3, 3, 1, 2, 3, 4]);
next = array1d(1..13 ,[11, 13, 1, 10, 7, 9, 2, 6, 12, 3, 8, 5, 4]);
makespan = 723;
----------
assign = array1d(1..13 ,[2, 4, 2, 1, 4, 3, 4, 3, 3, 1, 2, 3, 4]);
next = array1d(1..13 ,[11, 13, 1, 10, 7, 9, 2, 6, 12, 3, 8, 5, 4]);
makespan = 717;
----------
assign = array1d(1..13 ,[2, 4, 2, 1, 4, 3, 4, 3, 3, 1, 2, 3, 4]);
next = array1d(1..13 ,[11, 13, 1, 10, 7, 9, 2, 6, 12, 3, 8, 5, 4]);
makespan = 715;
----------
assign = array1d(1..13 ,[2, 4, 2, 1, 4, 3, 4, 3, 3, 1, 2, 3, 4]);
next = array1d(1..13 ,[11, 13, 1, 10, 7, 9, 2, 6, 12, 3, 8, 5, 4]);
makespan = 709;
----------
assign = array1d(1..13 ,[2, 4, 2, 1, 4, 3, 4, 3, 3, 1, 2, 3, 4]);
next = array1d(1..13 ,[11, 13, 1, 10, 7, 9, 2, 6, 12, 3, 8, 5, 4]);
makespan = 707;
----------
assign = array1d(1..13 ,[2, 4, 2, 1, 4, 3, 4, 3, 3, 1, 2, 3, 4]);
next = array1d(1..13 ,[11, 13, 1, 10, 7, 9, 2, 6, 12, 3, 8, 5, 4]);
makespan = 701;
----------
assign = array1d(1..13 ,[2, 4, 2, 1, 4, 3, 4, 3, 3, 1, 2, 3, 4]);
next = array1d(1..13 ,[11, 13, 1, 10, 7, 9, 2, 6, 12, 3, 8, 5, 4]);
makespan = 700;
----------
assign = array1d(1..13 ,[2, 4, 2, 1, 4, 3, 4, 3, 3, 1, 2, 3, 4]);
next = array1d(1..13 ,[11, 13, 1, 10, 7, 9, 2, 6, 12, 3, 8, 5, 4]);
makespan = 679;
----------
assign = array1d(1..13 ,[2, 4, 2, 1, 4, 3, 4, 3, 3, 1, 2, 3, 4]);
next = array1d(1..13 ,[11, 13, 1, 10, 7, 9, 2, 6, 12, 3, 8, 5, 4]);
makespan = 677;
----------
assign = array1d(1..13 ,[2, 4, 2, 1, 4, 3, 4, 3, 3, 1, 2, 3, 4]);
next = array1d(1..13 ,[11, 13, 1, 10, 7, 9, 2, 6, 12, 3, 8, 5, 4]);
makespan = 674;
----------
assign = array1d(1..13 ,[2, 4, 2, 1, 4, 3, 4, 3, 3, 1, 2, 3, 4]);
next = array1d(1..13 ,[11, 13, 1, 10, 7, 9, 2, 6, 12, 3, 8, 5, 4]);
makespan = 672;
----------
assign = array1d(1..13 ,[2, 4, 2, 1, 4, 3, 4, 3, 3, 1, 2, 3, 4]);
next = array1d(1..13 ,[11, 13, 1, 10, 7, 9, 2, 6, 12, 3, 8, 5, 4]);
makespan = 668;
----------
assign = array1d(1..13 ,[2, 4, 2, 1, 4, 3, 4, 3, 3, 1, 2, 3, 4]);
next = array1d(1..13 ,[11, 13, 1, 10, 7, 9, 2, 6, 12, 3, 8, 5, 4]);
makespan = 667;
----------
assign = array1d(1..13 ,[2, 4, 2, 1, 4, 3, 4, 3, 3, 1, 2, 3, 4]);
next = array1d(1..13 ,[11, 13, 1, 10, 7, 9, 2, 6, 12, 3, 8, 5, 4]);
makespan = 665;
----------
assign = array1d(1..13 ,[2, 4, 2, 1, 4, 3, 4, 3, 3, 1, 2, 3, 4]);
next = array1d(1..13 ,[11, 13, 1, 10, 7, 9, 2, 6, 12, 3, 8, 5, 4]);
makespan = 661;
----------
assign = array1d(1..13 ,[2, 4, 2, 1, 4, 3, 4, 3, 3, 1, 2, 3, 4]);
next = array1d(1..13 ,[11, 13, 1, 10, 7, 9, 2, 6, 12, 3, 8, 5, 4]);
makespan = 655;
----------
assign = array1d(1..13 ,[3, 2, 3, 3, 2, 4, 2, 4, 4, 1, 2, 3, 4]);
next = array1d(1..13 ,[4, 11, 1, 12, 7, 9, 2, 6, 13, 5, 3, 8, 10]);
makespan = 649;
----------
assign = array1d(1..13 ,[3, 2, 3, 3, 2, 4, 2, 4, 4, 1, 2, 3, 4]);
next = array1d(1..13 ,[12, 11, 1, 3, 7, 9, 2, 6, 13, 5, 4, 8, 10]);
makespan = 648;
----------
assign = array1d(1..13 ,[3, 2, 3, 3, 2, 4, 2, 4, 4, 1, 2, 3, 4]);
next = array1d(1..13 ,[3, 11, 4, 12, 7, 9, 2, 6, 13, 5, 1, 8, 10]);
makespan = 641;
----------
assign = array1d(1..13 ,[2, 4, 4, 2, 2, 3, 4, 3, 3, 1, 2, 3, 4]);
next = array1d(1..13 ,[4, 3, 13, 5, 11, 9, 2, 6, 12, 1, 8, 7, 10]);
makespan = 639;
----------
assign = array1d(1..13 ,[2, 4, 4, 2, 2, 3, 4, 3, 3, 1, 2, 3, 4]);
next = array1d(1..13 ,[4, 3, 13, 5, 11, 9, 2, 6, 12, 1, 8, 7, 10]);
makespan = 630;
----------
assign = array1d(1..13 ,[2, 4, 4, 2, 2, 3, 4, 3, 3, 1, 2, 3, 4]);
next = array1d(1..13 ,[4, 3, 13, 5, 11, 9, 2, 6, 12, 1, 8, 7, 10]);
makespan = 628;
----------
assign = array1d(1..13 ,[2, 4, 4, 2, 2, 3, 4, 3, 3, 1, 2, 3, 4]);
next = array1d(1..13 ,[4, 3, 13, 5, 11, 9, 2, 6, 12, 1, 8, 7, 10]);
makespan = 621;
----------
assign = array1d(1..13 ,[2, 4, 4, 2, 2, 3, 4, 3, 3, 1, 2, 3, 4]);
next = array1d(1..13 ,[4, 3, 13, 5, 11, 9, 2, 6, 12, 1, 8, 7, 10]);
makespan = 616;
----------
assign = array1d(1..13 ,[4, 4, 3, 3, 3, 2, 4, 2, 2, 1, 2, 3, 4]);
next = array1d(1..13 ,[13, 1, 12, 5, 3, 9, 2, 6, 11, 8, 4, 7, 10]);
makespan = 606;
----------
assign = array1d(1..13 ,[1, 2, 2, 2, 4, 3, 4, 3, 3, 1, 2, 3, 4]);
next = array1d(1..13 ,[10, 3, 4, 11, 7, 9, 13, 6, 12, 2, 8, 5, 1]);
makespan = 601;
----------
assign = array1d(1..13 ,[1, 2, 2, 2, 4, 3, 4, 3, 3, 1, 2, 3, 4]);
next = array1d(1..13 ,[10, 3, 4, 11, 7, 9, 13, 6, 12, 2, 8, 5, 1]);
makespan = 598;
----------
assign = array1d(1..13 ,[1, 2, 2, 2, 4, 3, 4, 3, 3, 1, 2, 3, 4]);
next = array1d(1..13 ,[10, 3, 4, 11, 7, 9, 13, 6, 12, 2, 8, 5, 1]);
makespan = 596;
----------
assign = array1d(1..13 ,[1, 2, 2, 2, 4, 3, 4, 4, 3, 1, 2, 3, 4]);
next = array1d(1..13 ,[10, 3, 4, 11, 13, 9, 5, 7, 12, 2, 6, 8, 1]);
makespan = 594;
----------
assign = array1d(1..13 ,[1, 2, 2, 2, 4, 3, 4, 4, 3, 1, 2, 3, 4]);
next = array1d(1..13 ,[10, 3, 4, 11, 13, 9, 5, 7, 12, 2, 6, 8, 1]);
makespan = 591;
----------
assign = array1d(1..13 ,[2, 1, 1, 1, 4, 3, 4, 4, 3, 1, 2, 3, 4]);
next = array1d(1..13 ,[11, 3, 4, 10, 13, 9, 5, 7, 12, 1, 6, 8, 2]);
makespan = 589;
----------
assign = array1d(1..13 ,[2, 1, 1, 1, 4, 3, 4, 4, 3, 1, 2, 3, 4]);
next = array1d(1..13 ,[11, 3, 4, 10, 13, 9, 5, 7, 12, 1, 6, 8, 2]);
makespan = 588;
----------
assign = array1d(1..13 ,[2, 1, 1, 1, 4, 3, 4, 4, 3, 1, 2, 3, 4]);
next = array1d(1..13 ,[11, 3, 4, 10, 13, 9, 5, 7, 12, 1, 6, 8, 2]);
makespan = 586;
----------
assign = array1d(1..13 ,[2, 1, 1, 1, 4, 3, 4, 4, 3, 1, 2, 3, 4]);
next = array1d(1..13 ,[11, 3, 4, 10, 13, 9, 5, 7, 12, 1, 6, 8, 2]);
makespan = 585;
----------
assign = array1d(1..13 ,[2, 1, 1, 1, 4, 3, 4, 4, 3, 1, 2, 3, 4]);
next = array1d(1..13 ,[11, 3, 4, 10, 13, 9, 5, 7, 12, 1, 6, 8, 2]);
makespan = 577;
----------
assign = array1d(1..13 ,[1, 2, 2, 1, 4, 3, 3, 4, 3, 1, 2, 3, 4]);
next = array1d(1..13 ,[4, 3, 11, 10, 8, 9, 12, 13, 7, 2, 6, 5, 1]);
makespan = 572;
----------
assign = array1d(1..13 ,[4, 1, 1, 1, 4, 3, 3, 4, 3, 1, 2, 3, 4]);
next = array1d(1..13 ,[5, 3, 4, 10, 13, 9, 12, 1, 7, 11, 6, 8, 2]);
makespan = 569;
----------
assign = array1d(1..13 ,[4, 3, 3, 2, 4, 1, 2, 4, 3, 1, 2, 3, 4]);
next = array1d(1..13 ,[5, 3, 9, 11, 13, 10, 4, 1, 12, 7, 2, 8, 6]);
makespan = 566;
----------
assign = array1d(1..13 ,[4, 3, 3, 2, 4, 1, 2, 1, 4, 1, 2, 3, 4]);
next = array1d(1..13 ,[5, 3, 12, 11, 13, 10, 4, 6, 1, 7, 2, 9, 8]);
makespan = 563;
----------
assign = array1d(1..13 ,[2, 1, 1, 3, 4, 2, 3, 4, 4, 1, 2, 3, 4]);
next = array1d(1..13 ,[11, 3, 10, 12, 13, 1, 4, 9, 5, 6, 7, 8, 2]);
makespan = 561;
----------
assign = array1d(1..13 ,[2, 1, 1, 3, 4, 2, 3, 4, 3, 1, 2, 3, 4]);
next = array1d(1..13 ,[11, 3, 10, 9, 8, 1, 4, 13, 12, 6, 7, 5, 2]);
makespan = 559;
----------
assign = array1d(1..13 ,[2, 1, 1, 3, 4, 2, 3, 4, 3, 1, 2, 3, 4]);
next = array1d(1..13 ,[11, 3, 10, 9, 8, 1, 4, 13, 12, 6, 7, 5, 2]);
makespan = 558;
----------
assign = array1d(1..13 ,[2, 1, 1, 3, 4, 2, 3, 4, 3, 1, 2, 3, 4]);
next = array1d(1..13 ,[11, 3, 10, 9, 8, 1, 4, 13, 12, 6, 7, 5, 2]);
makespan = 551;
----------
assign = array1d(1..13 ,[1, 1, 2, 3, 4, 2, 3, 4, 1, 1, 2, 3, 4]);
next = array1d(1..13 ,[10, 9, 6, 12, 8, 11, 4, 13, 1, 3, 7, 5, 2]);
makespan = 549;
----------
assign = array1d(1..13 ,[4, 2, 1, 3, 4, 1, 3, 2, 3, 1, 2, 3, 4]);
next = array1d(1..13 ,[5, 8, 10, 9, 13, 3, 12, 11, 7, 2, 4, 1, 6]);
makespan = 548;
----------
assign = array1d(1..13 ,[2, 3, 4, 2, 2, 4, 1, 3, 1, 1, 2, 3, 4]);
next = array1d(1..13 ,[4, 8, 13, 11, 1, 3, 10, 12, 7, 5, 2, 6, 9]);
makespan = 547;
----------
assign = array1d(1..13 ,[1, 1, 4, 1, 2, 3, 2, 3, 4, 1, 2, 3, 4]);
next = array1d(1..13 ,[4, 1, 9, 10, 7, 12, 11, 6, 13, 5, 8, 3, 2]);
makespan = 546;
----------
assign = array1d(1..13 ,[1, 1, 4, 1, 2, 4, 2, 3, 3, 1, 2, 3, 4]);
next = array1d(1..13 ,[2, 10, 13, 1, 7, 3, 11, 12, 8, 5, 9, 6, 4]);
makespan = 545;
----------
assign = array1d(1..13 ,[3, 1, 4, 1, 2, 4, 2, 1, 3, 1, 2, 3, 4]);
next = array1d(1..13 ,[12, 10, 13, 2, 7, 3, 11, 4, 1, 5, 9, 6, 8]);
makespan = 544;
----------
assign = array1d(1..13 ,[2, 4, 2, 3, 2, 1, 4, 1, 3, 1, 2, 3, 4]);
next = array1d(1..13 ,[3, 7, 5, 12, 11, 8, 13, 10, 4, 1, 9, 2, 6]);
makespan = 543;
----------
assign = array1d(1..13 ,[2, 1, 4, 3, 4, 3, 1, 2, 3, 1, 2, 3, 4]);
next = array1d(1..13 ,[8, 7, 13, 12, 3, 4, 10, 11, 6, 1, 9, 5, 2]);
makespan = 542;
----------
assign = array1d(1..13 ,[1, 1, 3, 4, 1, 4, 2, 3, 2, 1, 2, 3, 4]);
next = array1d(1..13 ,[2, 10, 12, 13, 1, 4, 9, 3, 11, 7, 8, 6, 5]);
makespan = 541;
----------
assign = array1d(1..13 ,[1, 1, 3, 1, 4, 3, 2, 4, 2, 1, 2, 3, 4]);
next = array1d(1..13 ,[2, 10, 12, 1, 13, 3, 9, 5, 11, 7, 6, 8, 4]);
makespan = 540;
----------
assign = array1d(1..13 ,[1, 1, 3, 1, 4, 3, 2, 4, 2, 1, 2, 3, 4]);
next = array1d(1..13 ,[2, 10, 12, 1, 13, 3, 9, 5, 11, 7, 6, 8, 4]);
makespan = 539;
----------
assign = array1d(1..13 ,[1, 1, 3, 1, 4, 3, 2, 4, 2, 1, 2, 3, 4]);
next = array1d(1..13 ,[2, 10, 12, 1, 13, 3, 9, 5, 11, 7, 6, 8, 4]);
makespan = 538;
----------
assign = array1d(1..13 ,[1, 1, 3, 1, 4, 3, 2, 4, 2, 1, 2, 3, 4]);
next = array1d(1..13 ,[2, 10, 12, 1, 13, 3, 9, 5, 11, 7, 6, 8, 4]);
makespan = 537;
----------
assign = array1d(1..13 ,[1, 1, 3, 1, 4, 3, 2, 4, 2, 1, 2, 3, 4]);
next = array1d(1..13 ,[2, 10, 12, 1, 13, 3, 9, 5, 11, 7, 6, 8, 4]);
makespan = 536;
----------
assign = array1d(1..13 ,[1, 1, 3, 1, 4, 3, 2, 4, 2, 1, 2, 3, 4]);
next = array1d(1..13 ,[2, 10, 12, 1, 13, 3, 9, 5, 11, 7, 6, 8, 4]);
makespan = 535;
----------
assign = array1d(1..13 ,[1, 1, 3, 1, 4, 3, 2, 4, 2, 1, 2, 3, 4]);
next = array1d(1..13 ,[2, 10, 12, 1, 13, 3, 9, 5, 11, 7, 6, 8, 4]);
makespan = 534;
----------
assign = array1d(1..13 ,[1, 1, 3, 1, 4, 3, 2, 4, 2, 1, 2, 3, 4]);
next = array1d(1..13 ,[2, 10, 12, 1, 13, 3, 9, 5, 11, 7, 6, 8, 4]);
makespan = 533;
----------
assign = array1d(1..13 ,[1, 1, 3, 1, 4, 3, 2, 4, 2, 1, 2, 3, 4]);
next = array1d(1..13 ,[2, 10, 12, 1, 13, 3, 9, 5, 11, 7, 6, 8, 4]);
makespan = 532;
----------
assign = array1d(1..13 ,[1, 1, 3, 1, 4, 3, 2, 4, 2, 1, 2, 3, 4]);
next = array1d(1..13 ,[2, 10, 12, 1, 13, 3, 9, 5, 11, 7, 6, 8, 4]);
makespan = 531;
----------
assign = array1d(1..13 ,[1, 1, 3, 1, 4, 3, 2, 4, 2, 1, 2, 3, 4]);
next = array1d(1..13 ,[2, 10, 12, 1, 13, 3, 9, 5, 11, 7, 6, 8, 4]);
makespan = 530;
----------
assign = array1d(1..13 ,[1, 1, 3, 1, 4, 3, 2, 4, 2, 1, 2, 3, 4]);
next = array1d(1..13 ,[2, 10, 12, 1, 13, 3, 9, 5, 11, 7, 6, 8, 4]);
makespan = 529;
----------
assign = array1d(1..13 ,[1, 1, 3, 1, 4, 3, 2, 4, 2, 1, 2, 3, 4]);
next = array1d(1..13 ,[2, 4, 12, 10, 13, 3, 9, 5, 11, 7, 6, 8, 1]);
makespan = 528;
----------
assign = array1d(1..13 ,[1, 1, 3, 1, 2, 3, 4, 2, 4, 1, 2, 3, 4]);
next = array1d(1..13 ,[2, 4, 12, 10, 11, 3, 9, 5, 13, 8, 6, 7, 1]);
makespan = 527;
----------
assign = array1d(1..13 ,[1, 1, 3, 1, 4, 3, 2, 4, 2, 1, 2, 3, 4]);
next = array1d(1..13 ,[2, 4, 12, 10, 13, 3, 9, 5, 11, 7, 6, 8, 1]);
makespan = 526;
----------
assign = array1d(1..13 ,[1, 1, 3, 1, 4, 3, 2, 4, 2, 1, 2, 3, 4]);
next = array1d(1..13 ,[10, 4, 6, 1, 13, 12, 9, 5, 11, 7, 3, 8, 2]);
makespan = 525;
----------
assign = array1d(1..13 ,[1, 1, 3, 1, 2, 2, 4, 4, 3, 1, 2, 3, 4]);
next = array1d(1..13 ,[10, 4, 9, 1, 6, 11, 8, 13, 12, 5, 3, 7, 2]);
makespan = 524;
----------
assign = array1d(1..13 ,[4, 2, 3, 1, 1, 2, 3, 4, 4, 1, 2, 3, 4]);
next = array1d(1..13 ,[13, 6, 12, 10, 4, 11, 3, 9, 1, 2, 7, 8, 5]);
makespan = 523;
----------
assign = array1d(1..13 ,[1, 1, 3, 1, 2, 2, 4, 4, 3, 1, 2, 3, 4]);
next = array1d(1..13 ,[10, 1, 9, 2, 11, 5, 8, 13, 12, 6, 3, 7, 4]);
makespan = 522;
----------
assign = array1d(1..13 ,[1, 1, 3, 1, 4, 2, 4, 3, 2, 1, 2, 3, 4]);
next = array1d(1..13 ,[10, 1, 8, 2, 7, 9, 13, 12, 11, 6, 3, 5, 4]);
makespan = 521;
----------
assign = array1d(1..13 ,[2, 3, 2, 1, 2, 4, 3, 1, 4, 1, 2, 3, 4]);
next = array1d(1..13 ,[3, 12, 11, 10, 1, 9, 2, 4, 13, 5, 7, 6, 8]);
makespan = 520;
----------
assign = array1d(1..13 ,[1, 1, 4, 1, 4, 2, 3, 3, 2, 1, 2, 3, 4]);
next = array1d(1..13 ,[10, 1, 5, 2, 13, 11, 12, 7, 6, 9, 8, 3, 4]);
makespan = 519;
----------
assign = array1d(1..13 ,[1, 1, 4, 1, 2, 2, 3, 3, 4, 1, 2, 3, 4]);
next = array1d(1..13 ,[10, 1, 9, 2, 11, 5, 8, 12, 13, 6, 7, 3, 4]);
makespan = 518;
----------
assign = array1d(1..13 ,[1, 1, 4, 1, 3, 4, 2, 2, 3, 1, 2, 3, 4]);
next = array1d(1..13 ,[10, 1, 6, 2, 9, 13, 8, 11, 12, 7, 5, 3, 4]);
makespan = 517;
----------
assign = array1d(1..13 ,[1, 1, 3, 1, 2, 2, 4, 4, 3, 1, 2, 3, 4]);
next = array1d(1..13 ,[10, 1, 9, 2, 6, 11, 8, 13, 12, 5, 3, 7, 4]);
makespan = 516;
----------
assign = array1d(1..13 ,[2, 3, 2, 3, 2, 1, 4, 4, 1, 1, 2, 3, 4]);
next = array1d(1..13 ,[3, 12, 11, 2, 1, 9, 13, 7, 10, 5, 4, 8, 6]);
makespan = 515;
----------
assign = array1d(1..13 ,[1, 1, 3, 1, 4, 3, 2, 2, 4, 1, 2, 3, 4]);
next = array1d(1..13 ,[10, 1, 12, 2, 9, 3, 8, 11, 13, 7, 6, 5, 4]);
makespan = 514;
----------
assign = array1d(1..13 ,[1, 1, 3, 1, 3, 4, 2, 4, 2, 1, 2, 3, 4]);
next = array1d(1..13 ,[10, 1, 5, 2, 12, 8, 11, 13, 7, 9, 3, 6, 4]);
makespan = 513;
----------
==========
	Command being timed: "mzn-chuffed lbbd-datasets/Rabadi-2006/dzn-p-dominant/model.mzn lbbd-datasets/Rabadi-2006/dzn-p-dominant/9on4Rp50Rs50_10Ameer.dzn"
	User time (seconds): 0.64
	System time (seconds): 0.03
	Percent of CPU this job got: 0%
	Elapsed (wall clock) time (h:mm:ss or m:ss): 1:59.19
	Average shared text size (kbytes): 0
	Average unshared data size (kbytes): 0
	Average stack size (kbytes): 0
	Average total size (kbytes): 0
	Maximum resident set size (kbytes): 43200
	Average resident set size (kbytes): 0
	Major (requiring I/O) page faults: 0
	Minor (reclaiming a frame) page faults: 3905
	Voluntary context switches: 498
	Involuntary context switches: 2
	Swaps: 0
	File system inputs: 0
	File system outputs: 504
	Socket messages sent: 0
	Socket messages received: 0
	Signals delivered: 0
	Page size (bytes): 4096
	Exit status: 0
