+ /usr/bin/timeout 600 /usr/bin/time -v mzn-chuffed lbbd-datasets/sscplp/trucks-dzn/model.mzn lbbd-datasets/sscplp/trucks-dzn/p03-l40-c50-uncorrelated.dzn
% No search annotation given. Defaulting to VSIDS!
source = [9, 10, 8, 9, 3, 9, 10, 8, 3, 3, 10, 3, 10, 9, 9, 8, 3, 10, 7, 8]
open = [false, false, true, false, false, false, true, true, true, true]
trucks_used = [0, 0, 5, 0, 0, 0, 1, 4, 5, 5]
truck_assigned = [2, 3, 3, 3, 5, 5, 4, 4, 2, 4, 5, 3, 5, 4, 5, 2, 3, 4, 1, 4]
obj = 6043
----------
source = [9, 3, 9, 10, 5, 5, 3, 10, 9, 3, 7, 5, 10, 3, 10, 10, 9, 3, 5, 9]
open = [false, false, true, false, true, false, true, false, true, true]
trucks_used = [0, 0, 5, 0, 4, 0, 1, 0, 5, 5]
truck_assigned = [5, 3, 3, 4, 2, 1, 4, 5, 5, 5, 1, 4, 5, 2, 3, 1, 4, 3, 3, 4]
obj = 5842
----------
source = [5, 3, 9, 10, 5, 5, 10, 10, 9, 3, 7, 5, 7, 3, 10, 9, 9, 10, 5, 9]
open = [false, false, true, false, true, false, true, false, true, true]
trucks_used = [0, 0, 2, 0, 5, 0, 1, 0, 4, 5]
truck_assigned = [4, 2, 3, 2, 3, 2, 5, 4, 2, 1, 1, 5, 1, 2, 3, 1, 4, 5, 4, 4]
obj = 5795
----------
source = [5, 3, 9, 5, 5, 5, 3, 10, 9, 3, 7, 10, 7, 3, 10, 9, 3, 10, 5, 9]
open = [false, false, true, false, true, false, true, false, true, true]
trucks_used = [0, 0, 3, 0, 5, 0, 1, 0, 4, 3]
truck_assigned = [3, 1, 1, 4, 2, 5, 3, 2, 4, 2, 1, 1, 1, 1, 3, 3, 3, 2, 3, 2]
obj = 5756
----------
source = [5, 3, 9, 5, 5, 5, 3, 10, 9, 3, 7, 10, 7, 3, 10, 9, 9, 10, 5, 9]
open = [false, false, true, false, true, false, true, false, true, true]
trucks_used = [0, 0, 3, 0, 5, 0, 1, 0, 4, 3]
truck_assigned = [1, 1, 1, 5, 3, 2, 3, 3, 4, 2, 1, 3, 1, 3, 2, 3, 4, 1, 4, 2]
obj = 5755
----------
source = [5, 3, 9, 5, 5, 5, 10, 10, 9, 3, 7, 10, 3, 3, 10, 9, 5, 10, 9, 9]
open = [false, false, true, false, true, false, true, false, true, true]
trucks_used = [0, 0, 3, 0, 5, 0, 1, 0, 5, 3]
truck_assigned = [4, 3, 2, 5, 2, 3, 1, 3, 4, 2, 1, 3, 1, 3, 2, 5, 4, 1, 1, 3]
obj = 5754
----------
source = [3, 10, 9, 10, 5, 5, 10, 3, 9, 3, 5, 3, 5, 1, 1, 9, 5, 9, 10, 9]
open = [true, false, true, false, true, false, false, false, true, true]
trucks_used = [2, 0, 3, 0, 5, 0, 0, 0, 5, 4]
truck_assigned = [3, 3, 4, 4, 4, 2, 1, 2, 2, 1, 4, 3, 5, 2, 2, 5, 3, 3, 2, 1]
obj = 5714
----------
source = [9, 1, 9, 10, 5, 9, 5, 3, 9, 5, 5, 3, 10, 10, 10, 9, 3, 10, 5, 1]
open = [true, false, true, false, true, false, false, false, true, true]
trucks_used = [2, 0, 3, 0, 5, 0, 0, 0, 5, 3]
truck_assigned = [5, 2, 5, 3, 5, 4, 3, 2, 2, 4, 5, 3, 3, 1, 2, 3, 3, 1, 4, 2]
obj = 5712
----------
source = [3, 10, 5, 10, 5, 9, 3, 3, 9, 1, 5, 3, 3, 1, 9, 5, 5, 9, 10, 9]
open = [true, false, true, false, true, false, false, false, true, true]
trucks_used = [2, 0, 5, 0, 5, 0, 0, 0, 5, 3]
truck_assigned = [5, 1, 2, 2, 5, 5, 3, 5, 4, 2, 5, 4, 2, 2, 5, 4, 3, 3, 3, 2]
obj = 5567
----------
source = [3, 10, 9, 5, 5, 9, 9, 3, 9, 1, 5, 3, 10, 1, 3, 5, 5, 3, 10, 9]
open = [true, false, true, false, true, false, false, false, true, true]
trucks_used = [2, 0, 3, 0, 5, 0, 0, 0, 5, 2]
truck_assigned = [1, 1, 3, 2, 3, 5, 1, 2, 4, 2, 4, 1, 1, 2, 3, 5, 4, 2, 2, 2]
obj = 5539
----------
source = [3, 1, 5, 5, 5, 9, 5, 3, 9, 3, 5, 3, 10, 1, 3, 9, 10, 9, 10, 9]
open = [true, false, true, false, true, false, false, false, true, true]
trucks_used = [2, 0, 4, 0, 5, 0, 0, 0, 5, 3]
truck_assigned = [3, 1, 3, 4, 2, 5, 5, 3, 2, 1, 4, 2, 2, 2, 4, 1, 2, 4, 3, 3]
obj = 5523
----------
source = [3, 10, 5, 5, 5, 9, 5, 3, 9, 3, 3, 1, 9, 1, 3, 5, 10, 9, 10, 9]
open = [true, false, true, false, true, false, false, false, true, true]
trucks_used = [2, 0, 4, 0, 5, 0, 0, 0, 5, 2]
truck_assigned = [2, 1, 3, 4, 2, 1, 5, 2, 3, 3, 1, 2, 5, 1, 4, 1, 1, 4, 2, 2]
obj = 5515
----------
source = [3, 10, 5, 9, 5, 9, 5, 3, 9, 5, 3, 3, 9, 1, 3, 5, 10, 1, 10, 9]
open = [true, false, true, false, true, false, false, false, true, true]
trucks_used = [2, 0, 4, 0, 5, 0, 0, 0, 5, 2]
truck_assigned = [2, 1, 5, 1, 2, 3, 4, 1, 4, 5, 4, 2, 5, 2, 3, 3, 1, 1, 2, 2]
obj = 5488
----------
source = [3, 1, 5, 9, 5, 9, 5, 3, 9, 3, 3, 10, 9, 1, 3, 5, 10, 5, 10, 9]
open = [true, false, true, false, true, false, false, false, true, true]
trucks_used = [2, 0, 4, 0, 5, 0, 0, 0, 5, 2]
truck_assigned = [2, 2, 3, 5, 2, 4, 4, 2, 3, 4, 1, 1, 1, 2, 3, 5, 1, 3, 2, 2]
obj = 5456
----------
source = [3, 1, 5, 9, 3, 9, 5, 3, 9, 3, 5, 10, 9, 1, 3, 5, 10, 5, 10, 9]
open = [true, false, true, false, true, false, false, false, true, true]
trucks_used = [2, 0, 5, 0, 4, 0, 0, 0, 5, 2]
truck_assigned = [2, 2, 3, 5, 3, 4, 4, 2, 3, 5, 1, 1, 1, 2, 4, 2, 1, 3, 2, 2]
obj = 5448
----------
source = [3, 1, 5, 9, 5, 9, 5, 3, 5, 3, 3, 10, 9, 1, 9, 5, 10, 3, 10, 9]
open = [true, false, true, false, true, false, false, false, true, true]
trucks_used = [2, 0, 5, 0, 4, 0, 0, 0, 5, 3]
truck_assigned = [4, 2, 1, 2, 2, 3, 4, 4, 4, 5, 3, 2, 4, 2, 5, 3, 2, 2, 3, 5]
obj = 5440
----------
source = [3, 10, 5, 9, 5, 9, 5, 3, 5, 3, 3, 3, 9, 1, 9, 5, 10, 9, 10, 1]
open = [true, false, true, false, true, false, false, false, true, true]
trucks_used = [2, 0, 5, 0, 4, 0, 0, 0, 5, 2]
truck_assigned = [5, 1, 4, 3, 2, 4, 1, 5, 4, 3, 4, 2, 5, 2, 5, 3, 1, 2, 2, 1]
obj = 5426
----------
source = [3, 10, 5, 9, 5, 9, 5, 3, 5, 3, 3, 3, 9, 1, 9, 5, 10, 1, 10, 9]
open = [true, false, true, false, true, false, false, false, true, true]
trucks_used = [2, 0, 5, 0, 4, 0, 0, 0, 5, 2]
truck_assigned = [4, 1, 1, 4, 2, 3, 3, 2, 3, 3, 5, 4, 5, 2, 3, 4, 1, 1, 2, 2]
obj = 5384
----------
source = [3, 10, 5, 9, 5, 9, 5, 3, 1, 3, 3, 3, 9, 1, 9, 5, 10, 5, 10, 9]
open = [true, false, true, false, true, false, false, false, true, true]
trucks_used = [2, 0, 5, 0, 4, 0, 0, 0, 5, 2]
truck_assigned = [4, 1, 1, 4, 2, 3, 3, 2, 1, 3, 5, 4, 5, 2, 5, 4, 1, 2, 2, 2]
obj = 5355
----------
source = [3, 10, 5, 9, 5, 9, 5, 3, 3, 5, 3, 3, 9, 1, 9, 5, 10, 1, 10, 9]
open = [true, false, true, false, true, false, false, false, true, true]
trucks_used = [2, 0, 5, 0, 4, 0, 0, 0, 5, 2]
truck_assigned = [4, 1, 1, 4, 2, 3, 3, 3, 3, 3, 5, 4, 5, 2, 4, 4, 1, 1, 2, 2]
obj = 5354
----------
source = [3, 1, 5, 9, 5, 9, 5, 3, 3, 3, 3, 10, 9, 1, 9, 5, 10, 5, 10, 9]
open = [true, false, true, false, true, false, false, false, true, true]
trucks_used = [2, 0, 5, 0, 4, 0, 0, 0, 5, 2]
truck_assigned = [4, 2, 1, 4, 2, 3, 3, 2, 4, 3, 5, 1, 5, 2, 5, 4, 1, 2, 2, 2]
obj = 5322
----------
source = [3, 1, 5, 9, 5, 9, 5, 3, 3, 3, 3, 10, 9, 1, 9, 5, 10, 5, 10, 9]
open = [true, false, true, false, true, false, false, false, true, true]
trucks_used = [1, 0, 5, 0, 4, 0, 0, 0, 5, 2]
truck_assigned = [2, 1, 3, 4, 1, 3, 4, 5, 5, 3, 4, 1, 5, 1, 4, 2, 1, 3, 2, 2]
obj = 5272
----------
source = [3, 1, 5, 10, 5, 9, 5, 3, 3, 3, 3, 10, 9, 1, 9, 5, 9, 5, 10, 9]
open = [true, false, true, false, true, false, false, false, true, true]
trucks_used = [2, 0, 5, 0, 5, 0, 0, 0, 3, 2]
truck_assigned = [2, 2, 5, 1, 4, 2, 3, 5, 5, 3, 4, 1, 3, 2, 3, 2, 3, 5, 2, 1]
obj = 5268
----------
source = [3, 1, 5, 10, 5, 9, 5, 3, 3, 3, 3, 10, 9, 1, 9, 5, 10, 5, 10, 9]
open = [true, false, true, false, true, false, false, false, true, true]
trucks_used = [2, 0, 5, 0, 4, 0, 0, 0, 3, 3]
truck_assigned = [2, 2, 3, 1, 2, 2, 1, 5, 5, 3, 4, 2, 1, 2, 3, 4, 2, 3, 3, 3]
obj = 5237
----------
source = [3, 1, 5, 10, 5, 9, 5, 3, 3, 3, 3, 10, 9, 1, 9, 5, 5, 9, 10, 9]
open = [true, false, true, false, true, false, false, false, true, true]
trucks_used = [1, 0, 4, 0, 5, 0, 0, 0, 4, 2]
truck_assigned = [2, 1, 5, 2, 1, 1, 3, 4, 4, 3, 1, 2, 4, 1, 4, 4, 2, 2, 1, 3]
obj = 5195
----------
source = [9, 1, 5, 10, 5, 9, 9, 3, 3, 3, 3, 10, 9, 1, 9, 5, 5, 5, 10, 9]
open = [true, false, true, false, true, false, false, false, true, true]
trucks_used = [1, 0, 3, 0, 5, 0, 0, 0, 3, 2]
truck_assigned = [3, 1, 5, 2, 3, 1, 2, 1, 1, 2, 3, 2, 2, 1, 1, 4, 2, 5, 1, 3]
obj = 5182
----------
source = [9, 1, 5, 10, 5, 9, 5, 3, 3, 3, 3, 10, 9, 1, 9, 5, 9, 5, 10, 9]
open = [true, false, true, false, true, false, false, false, true, true]
trucks_used = [1, 0, 3, 0, 5, 0, 0, 0, 3, 2]
truck_assigned = [2, 1, 5, 2, 2, 1, 3, 1, 1, 2, 3, 2, 2, 1, 3, 4, 1, 5, 1, 3]
obj = 5168
----------
source = [3, 1, 5, 10, 5, 9, 5, 3, 3, 5, 3, 10, 9, 1, 9, 5, 9, 3, 10, 9]
open = [true, false, true, false, true, false, false, false, true, true]
trucks_used = [1, 0, 3, 0, 5, 0, 0, 0, 3, 2]
truck_assigned = [1, 1, 5, 2, 2, 1, 3, 2, 2, 5, 3, 2, 2, 1, 3, 4, 2, 1, 1, 3]
obj = 5156
----------
source = [3, 10, 9, 5, 5, 5, 3, 3, 9, 3, 3, 10, 9, 3, 9, 5, 10, 5, 10, 9]
open = [false, false, true, false, true, false, false, false, true, true]
trucks_used = [0, 0, 5, 0, 5, 0, 0, 0, 4, 3]
truck_assigned = [5, 3, 4, 4, 2, 3, 5, 2, 1, 4, 3, 3, 3, 2, 4, 5, 1, 4, 2, 2]
obj = 5140
----------
source = [9, 10, 9, 5, 5, 5, 3, 3, 3, 3, 10, 10, 9, 3, 9, 5, 5, 9, 10, 9]
open = [false, false, true, false, true, false, false, false, true, true]
trucks_used = [0, 0, 3, 0, 5, 0, 0, 0, 4, 3]
truck_assigned = [4, 2, 3, 4, 1, 5, 2, 3, 2, 1, 1, 2, 4, 3, 3, 3, 2, 1, 3, 2]
obj = 5129
----------
source = [9, 10, 5, 5, 5, 9, 5, 3, 3, 3, 5, 10, 9, 9, 9, 3, 10, 3, 10, 9]
open = [false, false, true, false, true, false, false, false, true, true]
trucks_used = [0, 0, 3, 0, 5, 0, 0, 0, 5, 3]
truck_assigned = [3, 3, 4, 5, 2, 4, 3, 3, 3, 1, 5, 3, 3, 5, 5, 2, 1, 2, 2, 2]
obj = 5095
----------
source = [3, 10, 5, 10, 5, 9, 9, 3, 3, 3, 5, 10, 9, 9, 10, 5, 5, 9, 3, 9]
open = [false, false, true, false, true, false, false, false, true, true]
trucks_used = [0, 0, 5, 0, 4, 0, 0, 0, 6, 3]
truck_assigned = [3, 3, 3, 2, 4, 5, 4, 2, 3, 4, 4, 3, 4, 6, 1, 1, 2, 2, 5, 3]
obj = 5094
----------
source = [5, 10, 5, 10, 3, 9, 3, 5, 9, 3, 3, 10, 5, 10, 9, 9, 3, 5, 3, 9]
open = [false, false, true, false, true, false, false, false, true, true]
trucks_used = [0, 0, 6, 0, 4, 0, 0, 0, 5, 3]
truck_assigned = [4, 1, 4, 2, 3, 3, 6, 1, 2, 4, 2, 3, 3, 3, 5, 5, 6, 2, 5, 4]
obj = 5045
----------
source = [3, 10, 5, 10, 3, 5, 9, 3, 5, 3, 3, 10, 10, 9, 9, 5, 3, 9, 9, 9]
open = [false, false, true, false, true, false, false, false, true, true]
trucks_used = [0, 0, 6, 0, 3, 0, 0, 0, 6, 2]
truck_assigned = [3, 2, 2, 1, 5, 3, 6, 3, 3, 6, 4, 2, 1, 4, 4, 1, 2, 2, 5, 6]
obj = 5038
----------
source = [3, 10, 5, 10, 5, 9, 9, 3, 5, 5, 3, 10, 3, 3, 9, 9, 3, 10, 9, 9]
open = [false, false, true, false, true, false, false, false, true, true]
trucks_used = [0, 0, 6, 0, 2, 0, 0, 0, 6, 2]
truck_assigned = [6, 2, 2, 1, 1, 3, 5, 6, 2, 1, 5, 2, 4, 4, 5, 2, 3, 1, 6, 4]
obj = 5022
----------
source = [5, 10, 5, 10, 3, 9, 9, 3, 5, 5, 3, 10, 10, 3, 9, 9, 3, 3, 9, 9]
open = [false, false, true, false, true, false, false, false, true, true]
trucks_used = [0, 0, 6, 0, 2, 0, 0, 0, 6, 2]
truck_assigned = [1, 2, 2, 1, 4, 3, 5, 6, 1, 2, 5, 2, 1, 6, 5, 2, 3, 3, 6, 4]
obj = 4989
----------
source = [3, 10, 5, 10, 3, 9, 9, 3, 5, 3, 5, 10, 5, 3, 9, 9, 3, 10, 9, 9]
open = [false, false, true, false, true, false, false, false, true, true]
trucks_used = [0, 0, 6, 0, 3, 0, 0, 0, 4, 2]
truck_assigned = [4, 2, 3, 1, 5, 3, 4, 6, 3, 2, 2, 2, 1, 6, 3, 2, 3, 1, 1, 4]
obj = 4976
----------
source = [3, 10, 5, 10, 3, 9, 9, 3, 5, 3, 3, 10, 5, 10, 9, 9, 3, 5, 9, 9]
open = [false, false, true, false, true, false, false, false, true, true]
trucks_used = [0, 0, 6, 0, 3, 0, 0, 0, 4, 3]
truck_assigned = [2, 2, 3, 3, 5, 1, 4, 6, 3, 3, 4, 3, 1, 1, 2, 2, 6, 2, 3, 4]
obj = 4973
----------
source = [3, 10, 5, 10, 5, 9, 9, 3, 5, 5, 3, 10, 3, 9, 9, 9, 3, 10, 3, 9]
open = [false, false, true, false, true, false, false, false, true, true]
trucks_used = [0, 0, 6, 0, 2, 0, 0, 0, 4, 2]
truck_assigned = [4, 2, 2, 1, 1, 4, 2, 6, 2, 1, 5, 2, 4, 1, 4, 3, 6, 1, 3, 2]
obj = 4949
----------
source = [3, 10, 5, 10, 5, 9, 9, 3, 5, 5, 3, 10, 3, 3, 9, 9, 3, 10, 9, 9]
open = [false, false, true, false, true, false, false, false, true, true]
trucks_used = [0, 0, 6, 0, 2, 0, 0, 0, 4, 2]
truck_assigned = [5, 2, 2, 1, 1, 4, 3, 6, 2, 1, 4, 2, 3, 5, 4, 3, 6, 1, 1, 2]
obj = 4922
----------
source = [3, 10, 5, 10, 3, 9, 9, 5, 3, 3, 5, 10, 3, 9, 9, 9, 3, 10, 5, 9]
open = [false, false, true, false, true, false, false, false, true, true]
trucks_used = [0, 0, 6, 0, 3, 0, 0, 0, 4, 2]
truck_assigned = [6, 2, 3, 1, 5, 4, 3, 1, 6, 4, 3, 2, 3, 2, 4, 3, 6, 1, 2, 1]
obj = 4897
----------
source = [3, 10, 5, 5, 3, 9, 9, 5, 3, 3, 5, 10, 3, 10, 9, 9, 3, 10, 9, 9]
open = [false, false, true, false, true, false, false, false, true, true]
trucks_used = [0, 0, 6, 0, 3, 0, 0, 0, 4, 2]
truck_assigned = [4, 2, 2, 1, 3, 2, 4, 3, 4, 5, 2, 2, 6, 1, 2, 1, 6, 1, 3, 4]
obj = 4888
----------
source = [3, 10, 5, 10, 3, 9, 9, 3, 3, 5, 3, 5, 5, 3, 9, 9, 10, 10, 9, 9]
open = [false, false, true, false, true, false, false, false, true, true]
trucks_used = [0, 0, 6, 0, 3, 0, 0, 0, 4, 2]
truck_assigned = [6, 2, 3, 1, 5, 2, 4, 3, 6, 3, 4, 1, 2, 6, 2, 1, 1, 2, 3, 4]
obj = 4865
----------
source = [3, 3, 9, 5, 10, 9, 10, 10, 5, 3, 3, 5, 10, 9, 9, 5, 10, 10, 3, 9]
open = [false, false, true, false, true, false, false, false, true, true]
trucks_used = [0, 0, 4, 0, 3, 0, 0, 0, 4, 3]
truck_assigned = [2, 2, 1, 1, 2, 3, 1, 3, 3, 4, 1, 3, 1, 4, 4, 2, 2, 3, 3, 2]
obj = 4863
----------
source = [3, 3, 9, 10, 10, 9, 5, 10, 5, 5, 3, 5, 3, 9, 9, 3, 10, 10, 3, 9]
open = [false, false, true, false, true, false, false, false, true, true]
trucks_used = [0, 0, 4, 0, 2, 0, 0, 0, 5, 3]
truck_assigned = [2, 4, 2, 3, 1, 3, 1, 2, 2, 1, 3, 2, 2, 4, 5, 4, 3, 2, 1, 5]
obj = 4851
----------
source = [3, 3, 9, 10, 3, 9, 5, 10, 5, 5, 3, 5, 10, 3, 9, 10, 9, 10, 3, 9]
open = [false, false, true, false, true, false, false, false, true, true]
trucks_used = [0, 0, 5, 0, 3, 0, 0, 0, 3, 4]
truck_assigned = [5, 5, 2, 4, 4, 3, 2, 3, 3, 2, 1, 3, 3, 2, 3, 2, 2, 4, 3, 1]
obj = 4828
----------
source = [3, 3, 9, 10, 3, 9, 5, 10, 5, 5, 3, 5, 10, 3, 9, 10, 9, 10, 3, 9]
open = [false, false, true, false, true, false, false, false, true, true]
trucks_used = [0, 0, 5, 0, 3, 0, 0, 0, 3, 3]
truck_assigned = [1, 3, 3, 3, 4, 1, 2, 2, 3, 3, 2, 1, 2, 3, 2, 1, 3, 3, 5, 2]
obj = 4778
----------
source = [3, 3, 9, 10, 3, 9, 5, 5, 5, 5, 3, 10, 10, 3, 9, 10, 9, 10, 3, 9]
open = [false, false, true, false, true, false, false, false, true, true]
trucks_used = [0, 0, 5, 0, 3, 0, 0, 0, 3, 3]
truck_assigned = [4, 4, 1, 1, 1, 3, 3, 2, 3, 1, 3, 3, 3, 2, 2, 2, 3, 3, 5, 2]
obj = 4750
----------
source = [3, 3, 9, 10, 5, 9, 5, 5, 3, 5, 5, 10, 10, 3, 9, 10, 9, 10, 3, 9]
open = [false, false, true, false, true, false, false, false, true, true]
trucks_used = [0, 0, 3, 0, 3, 0, 0, 0, 4, 3]
truck_assigned = [3, 1, 4, 1, 1, 3, 3, 2, 3, 3, 1, 3, 3, 3, 4, 2, 3, 3, 2, 2]
obj = 4743
----------
source = [3, 3, 9, 10, 5, 9, 5, 5, 3, 5, 5, 10, 10, 3, 9, 10, 9, 10, 3, 9]
open = [false, false, true, false, true, false, false, false, true, true]
trucks_used = [0, 0, 3, 0, 3, 0, 0, 0, 3, 3]
truck_assigned = [3, 1, 1, 1, 2, 3, 1, 3, 3, 1, 2, 3, 3, 3, 3, 2, 2, 3, 2, 2]
obj = 4693
----------
source = [3, 10, 9, 10, 3, 9, 5, 5, 3, 5, 3, 10, 5, 3, 9, 5, 9, 10, 3, 9]
open = [false, false, true, false, true, false, false, false, true, true]
trucks_used = [0, 0, 4, 0, 4, 0, 0, 0, 3, 3]
truck_assigned = [2, 1, 2, 3, 3, 1, 3, 2, 2, 3, 1, 3, 1, 2, 3, 4, 2, 2, 4, 3]
obj = 4684
----------
source = [3, 10, 9, 10, 3, 9, 5, 5, 3, 5, 3, 10, 5, 3, 9, 5, 9, 10, 3, 9]
open = [false, false, true, false, true, false, false, false, true, true]
trucks_used = [0, 0, 4, 0, 4, 0, 0, 0, 3, 2]
truck_assigned = [2, 1, 1, 2, 4, 2, 3, 2, 2, 3, 3, 2, 1, 2, 3, 4, 2, 1, 1, 3]
obj = 4634
----------
source = [3, 10, 9, 5, 3, 9, 5, 10, 3, 5, 3, 10, 5, 3, 9, 5, 10, 9, 3, 9]
open = [false, false, true, false, true, false, false, false, true, true]
trucks_used = [0, 0, 4, 0, 4, 0, 0, 0, 4, 2]
truck_assigned = [4, 1, 3, 4, 3, 2, 1, 2, 4, 4, 2, 2, 2, 4, 3, 3, 1, 4, 1, 1]
obj = 4633
----------
source = [3, 10, 5, 5, 3, 9, 9, 10, 3, 5, 3, 10, 9, 3, 9, 5, 10, 9, 3, 9]
open = [false, false, true, false, true, false, false, false, true, true]
trucks_used = [0, 0, 4, 0, 3, 0, 0, 0, 4, 2]
truck_assigned = [2, 1, 3, 1, 4, 3, 2, 2, 2, 3, 3, 2, 1, 2, 3, 2, 1, 4, 1, 2]
obj = 4631
----------
source = [3, 3, 5, 10, 10, 9, 9, 10, 3, 5, 3, 10, 10, 3, 9, 9, 5, 5, 9, 9]
open = [false, false, true, false, true, false, false, false, true, true]
trucks_used = [0, 0, 3, 0, 2, 0, 0, 0, 4, 3]
truck_assigned = [3, 3, 2, 3, 1, 4, 3, 2, 1, 2, 2, 2, 3, 1, 4, 3, 1, 1, 1, 2]
obj = 4622
----------
source = [3, 3, 9, 5, 5, 9, 5, 10, 3, 5, 3, 10, 10, 3, 9, 10, 10, 5, 9, 9]
open = [false, false, true, false, true, false, false, false, true, true]
trucks_used = [0, 0, 3, 0, 3, 0, 0, 0, 4, 2]
truck_assigned = [2, 1, 3, 3, 2, 1, 1, 2, 2, 2, 3, 2, 1, 2, 3, 1, 1, 3, 4, 2]
obj = 4620
----------
