+ /usr/bin/timeout 600 /usr/bin/time -v mzn-chuffed lbbd-datasets/Rabadi-2006/dzn-s-dominant/model.mzn lbbd-datasets/Rabadi-2006/dzn-s-dominant/6on2Rp50Rs50_13Ameer.dzn
% No search annotation given. Defaulting to VSIDS!
assign = array1d(1..8 ,[2, 2, 2, 2, 2, 2, 1, 2]);
next = array1d(1..8 ,[2, 3, 4, 5, 6, 8, 1, 7]);
makespan = 1142;
----------
assign = array1d(1..8 ,[2, 2, 2, 2, 2, 2, 1, 2]);
next = array1d(1..8 ,[4, 3, 5, 2, 6, 8, 1, 7]);
makespan = 1140;
----------
assign = array1d(1..8 ,[1, 1, 1, 1, 2, 2, 1, 2]);
next = array1d(1..8 ,[4, 1, 7, 3, 6, 8, 5, 2]);
makespan = 953;
----------
assign = array1d(1..8 ,[2, 2, 2, 2, 1, 2, 1, 2]);
next = array1d(1..8 ,[3, 1, 8, 2, 7, 4, 6, 5]);
makespan = 952;
----------
assign = array1d(1..8 ,[2, 2, 2, 2, 1, 2, 1, 2]);
next = array1d(1..8 ,[3, 1, 8, 2, 7, 4, 6, 5]);
makespan = 951;
----------
assign = array1d(1..8 ,[2, 2, 2, 2, 1, 2, 1, 2]);
next = array1d(1..8 ,[3, 1, 8, 2, 7, 4, 6, 5]);
makespan = 950;
----------
assign = array1d(1..8 ,[2, 2, 2, 2, 1, 2, 1, 2]);
next = array1d(1..8 ,[3, 1, 8, 2, 7, 4, 6, 5]);
makespan = 942;
----------
assign = array1d(1..8 ,[2, 2, 2, 2, 1, 2, 1, 2]);
next = array1d(1..8 ,[3, 1, 8, 2, 7, 4, 6, 5]);
makespan = 941;
----------
assign = array1d(1..8 ,[2, 2, 2, 2, 1, 2, 1, 2]);
next = array1d(1..8 ,[3, 1, 8, 2, 7, 4, 6, 5]);
makespan = 940;
----------
assign = array1d(1..8 ,[2, 2, 2, 2, 1, 2, 1, 2]);
next = array1d(1..8 ,[3, 1, 8, 2, 7, 4, 6, 5]);
makespan = 939;
----------
assign = array1d(1..8 ,[2, 2, 2, 2, 1, 2, 1, 2]);
next = array1d(1..8 ,[3, 1, 8, 2, 7, 4, 6, 5]);
makespan = 938;
----------
assign = array1d(1..8 ,[2, 2, 2, 2, 1, 2, 1, 2]);
next = array1d(1..8 ,[3, 1, 8, 2, 7, 4, 6, 5]);
makespan = 927;
----------
assign = array1d(1..8 ,[2, 2, 2, 2, 1, 2, 1, 2]);
next = array1d(1..8 ,[3, 1, 6, 8, 7, 4, 2, 5]);
makespan = 906;
----------
assign = array1d(1..8 ,[2, 2, 2, 1, 2, 1, 1, 2]);
next = array1d(1..8 ,[3, 1, 8, 6, 2, 7, 5, 4]);
makespan = 901;
----------
assign = array1d(1..8 ,[2, 2, 2, 1, 2, 1, 1, 2]);
next = array1d(1..8 ,[3, 1, 8, 6, 2, 7, 5, 4]);
makespan = 900;
----------
assign = array1d(1..8 ,[2, 2, 2, 1, 2, 1, 1, 2]);
next = array1d(1..8 ,[3, 1, 8, 6, 2, 7, 5, 4]);
makespan = 899;
----------
assign = array1d(1..8 ,[2, 2, 2, 1, 2, 1, 1, 2]);
next = array1d(1..8 ,[3, 1, 8, 6, 2, 7, 5, 4]);
makespan = 898;
----------
assign = array1d(1..8 ,[2, 2, 2, 1, 2, 1, 1, 2]);
next = array1d(1..8 ,[3, 1, 8, 6, 2, 7, 5, 4]);
makespan = 890;
----------
assign = array1d(1..8 ,[2, 2, 2, 1, 2, 1, 1, 2]);
next = array1d(1..8 ,[3, 1, 8, 6, 2, 7, 5, 4]);
makespan = 889;
----------
assign = array1d(1..8 ,[2, 2, 2, 1, 2, 1, 1, 2]);
next = array1d(1..8 ,[3, 1, 8, 6, 2, 7, 5, 4]);
makespan = 888;
----------
assign = array1d(1..8 ,[2, 2, 2, 1, 2, 1, 1, 2]);
next = array1d(1..8 ,[3, 1, 8, 6, 2, 7, 5, 4]);
makespan = 887;
----------
assign = array1d(1..8 ,[2, 2, 2, 1, 2, 1, 1, 2]);
next = array1d(1..8 ,[3, 1, 8, 6, 2, 7, 5, 4]);
makespan = 886;
----------
assign = array1d(1..8 ,[2, 2, 2, 1, 2, 1, 1, 2]);
next = array1d(1..8 ,[3, 1, 8, 6, 2, 7, 5, 4]);
makespan = 878;
----------
assign = array1d(1..8 ,[2, 2, 2, 1, 2, 1, 1, 2]);
next = array1d(1..8 ,[3, 1, 8, 6, 2, 7, 5, 4]);
makespan = 876;
----------
assign = array1d(1..8 ,[2, 2, 2, 1, 2, 1, 1, 2]);
next = array1d(1..8 ,[3, 1, 8, 6, 2, 7, 5, 4]);
makespan = 875;
----------
assign = array1d(1..8 ,[2, 2, 2, 1, 2, 1, 1, 2]);
next = array1d(1..8 ,[3, 1, 8, 6, 2, 7, 5, 4]);
makespan = 832;
----------
assign = array1d(1..8 ,[2, 2, 2, 1, 2, 1, 1, 2]);
next = array1d(1..8 ,[3, 1, 8, 6, 2, 7, 5, 4]);
makespan = 824;
----------
assign = array1d(1..8 ,[2, 2, 2, 1, 2, 1, 1, 2]);
next = array1d(1..8 ,[3, 1, 8, 6, 2, 7, 5, 4]);
makespan = 823;
----------
assign = array1d(1..8 ,[2, 2, 2, 1, 2, 1, 1, 2]);
next = array1d(1..8 ,[3, 1, 8, 6, 2, 7, 5, 4]);
makespan = 813;
----------
assign = array1d(1..8 ,[2, 2, 2, 1, 2, 1, 1, 2]);
next = array1d(1..8 ,[3, 1, 8, 6, 2, 7, 5, 4]);
makespan = 796;
----------
assign = array1d(1..8 ,[2, 2, 2, 1, 2, 1, 1, 2]);
next = array1d(1..8 ,[3, 1, 8, 6, 2, 7, 5, 4]);
makespan = 767;
----------
assign = array1d(1..8 ,[2, 2, 2, 1, 2, 1, 1, 2]);
next = array1d(1..8 ,[3, 1, 8, 6, 2, 7, 5, 4]);
makespan = 761;
----------
assign = array1d(1..8 ,[2, 2, 2, 1, 2, 1, 1, 2]);
next = array1d(1..8 ,[3, 1, 8, 6, 2, 7, 5, 4]);
makespan = 751;
----------
assign = array1d(1..8 ,[2, 2, 2, 2, 1, 1, 1, 2]);
next = array1d(1..8 ,[3, 1, 8, 2, 6, 7, 4, 5]);
makespan = 736;
----------
assign = array1d(1..8 ,[2, 2, 2, 1, 1, 2, 1, 2]);
next = array1d(1..8 ,[3, 1, 6, 7, 4, 8, 2, 5]);
makespan = 705;
----------
assign = array1d(1..8 ,[2, 2, 2, 1, 1, 1, 1, 2]);
next = array1d(1..8 ,[3, 1, 8, 7, 6, 4, 2, 5]);
makespan = 693;
----------
assign = array1d(1..8 ,[2, 2, 2, 1, 1, 1, 1, 2]);
next = array1d(1..8 ,[3, 1, 8, 7, 6, 4, 2, 5]);
makespan = 677;
----------
assign = array1d(1..8 ,[2, 2, 2, 1, 1, 1, 1, 2]);
next = array1d(1..8 ,[3, 1, 8, 7, 6, 4, 2, 5]);
makespan = 641;
----------
assign = array1d(1..8 ,[2, 2, 2, 1, 1, 1, 1, 2]);
next = array1d(1..8 ,[3, 1, 8, 7, 6, 4, 2, 5]);
makespan = 628;
----------
assign = array1d(1..8 ,[2, 2, 2, 1, 1, 1, 1, 2]);
next = array1d(1..8 ,[3, 1, 8, 7, 6, 4, 2, 5]);
makespan = 579;
----------
assign = array1d(1..8 ,[2, 2, 2, 1, 1, 1, 1, 2]);
next = array1d(1..8 ,[3, 1, 8, 7, 6, 4, 2, 5]);
makespan = 576;
----------
assign = array1d(1..8 ,[2, 2, 2, 1, 1, 1, 1, 2]);
next = array1d(1..8 ,[3, 1, 8, 7, 6, 4, 2, 5]);
makespan = 566;
----------
assign = array1d(1..8 ,[2, 2, 2, 1, 1, 1, 1, 2]);
next = array1d(1..8 ,[3, 1, 8, 7, 6, 4, 2, 5]);
makespan = 551;
----------
assign = array1d(1..8 ,[2, 2, 2, 1, 1, 1, 1, 2]);
next = array1d(1..8 ,[3, 1, 8, 7, 6, 4, 2, 5]);
makespan = 536;
----------
assign = array1d(1..8 ,[2, 2, 2, 1, 1, 1, 1, 2]);
next = array1d(1..8 ,[3, 1, 8, 7, 6, 4, 2, 5]);
makespan = 514;
----------
assign = array1d(1..8 ,[2, 1, 2, 1, 1, 2, 1, 2]);
next = array1d(1..8 ,[3, 5, 6, 2, 7, 8, 1, 4]);
makespan = 509;
----------
assign = array1d(1..8 ,[2, 1, 2, 2, 1, 1, 1, 2]);
next = array1d(1..8 ,[3, 5, 8, 1, 7, 2, 4, 6]);
makespan = 506;
----------
assign = array1d(1..8 ,[1, 2, 2, 1, 2, 1, 1, 2]);
next = array1d(1..8 ,[7, 3, 5, 1, 8, 4, 2, 6]);
makespan = 505;
----------
assign = array1d(1..8 ,[1, 2, 2, 2, 1, 1, 1, 2]);
next = array1d(1..8 ,[6, 3, 8, 2, 1, 7, 4, 5]);
makespan = 503;
----------
assign = array1d(1..8 ,[1, 2, 2, 1, 1, 2, 1, 2]);
next = array1d(1..8 ,[5, 3, 8, 1, 7, 2, 6, 4]);
makespan = 501;
----------
assign = array1d(1..8 ,[1, 2, 2, 1, 1, 2, 1, 2]);
next = array1d(1..8 ,[5, 3, 8, 1, 7, 2, 6, 4]);
makespan = 500;
----------
assign = array1d(1..8 ,[1, 2, 2, 1, 1, 2, 1, 2]);
next = array1d(1..8 ,[5, 3, 8, 1, 7, 2, 6, 4]);
makespan = 498;
----------
assign = array1d(1..8 ,[1, 2, 2, 1, 1, 2, 1, 2]);
next = array1d(1..8 ,[4, 3, 8, 7, 1, 2, 6, 5]);
makespan = 483;
----------
==========
	Command being timed: "mzn-chuffed lbbd-datasets/Rabadi-2006/dzn-s-dominant/model.mzn lbbd-datasets/Rabadi-2006/dzn-s-dominant/6on2Rp50Rs50_13Ameer.dzn"
	User time (seconds): 0.21
	System time (seconds): 0.00
	Percent of CPU this job got: 78%
	Elapsed (wall clock) time (h:mm:ss or m:ss): 0:00.28
	Average shared text size (kbytes): 0
	Average unshared data size (kbytes): 0
	Average stack size (kbytes): 0
	Average total size (kbytes): 0
	Maximum resident set size (kbytes): 29616
	Average resident set size (kbytes): 0
	Major (requiring I/O) page faults: 0
	Minor (reclaiming a frame) page faults: 2557
	Voluntary context switches: 56
	Involuntary context switches: 3
	Swaps: 0
	File system inputs: 0
	File system outputs: 104
	Socket messages sent: 0
	Socket messages received: 0
	Signals delivered: 0
	Page size (bytes): 4096
	Exit status: 0
