+ /usr/bin/timeout 600 /usr/bin/time -v mzn-chuffed lbbd-datasets/planningandscheduling/cost-insts/model.mzn lbbd-datasets/planningandscheduling/cost-insts/df24j3m3.dzn
% No search annotation given. Defaulting to VSIDS!
obj = 1021
----------
obj = 998
----------
obj = 981
----------
obj = 969
----------
obj = 959
----------
obj = 952
----------
obj = 945
----------
obj = 934
----------
obj = 932
----------
obj = 927
----------
obj = 911
----------
obj = 904
----------
obj = 893
----------
obj = 886
----------
obj = 875
----------
obj = 868
----------
obj = 863
----------
obj = 857
----------
obj = 851
----------
obj = 844
----------
obj = 839
----------
obj = 833
----------
obj = 830
----------
obj = 828
----------
obj = 821
----------
obj = 812
----------
obj = 805
----------
obj = 802
----------
obj = 800
----------
obj = 793
----------
obj = 790
----------
obj = 788
----------
obj = 781
----------
obj = 779
----------
obj = 777
----------
obj = 774
----------
obj = 772
----------
obj = 765
----------
obj = 760
----------
obj = 759
----------
obj = 754
----------
obj = 748
----------
obj = 747
----------
obj = 744
----------
obj = 742
----------
obj = 735
----------
obj = 733
----------
obj = 731
----------
obj = 724
----------
obj = 721
----------
obj = 718
----------
obj = 715
----------
obj = 706
----------
obj = 704
----------
obj = 700
----------
obj = 688
----------
obj = 683
----------
obj = 678
----------
obj = 675
----------
obj = 666
----------
obj = 664
----------
obj = 662
----------
obj = 661
----------
obj = 659
----------
obj = 658
----------
obj = 655
----------
obj = 653
----------
obj = 650
----------
obj = 648
----------
obj = 647
----------
obj = 645
----------
obj = 642
----------
obj = 640
----------
obj = 639
----------
obj = 637
----------
obj = 632
----------
obj = 630
----------
obj = 628
----------
obj = 626
----------
obj = 624
----------
obj = 622
----------
obj = 621
----------
obj = 619
----------
obj = 617
----------
obj = 616
----------
obj = 613
----------
obj = 611
----------
==========
	Command being timed: "mzn-chuffed lbbd-datasets/planningandscheduling/cost-insts/model.mzn lbbd-datasets/planningandscheduling/cost-insts/df24j3m3.dzn"
	User time (seconds): 0.25
	System time (seconds): 0.01
	Percent of CPU this job got: 42%
	Elapsed (wall clock) time (h:mm:ss or m:ss): 0:00.62
	Average shared text size (kbytes): 0
	Average unshared data size (kbytes): 0
	Average stack size (kbytes): 0
	Average total size (kbytes): 0
	Maximum resident set size (kbytes): 29440
	Average resident set size (kbytes): 0
	Major (requiring I/O) page faults: 0
	Minor (reclaiming a frame) page faults: 2540
	Voluntary context switches: 92
	Involuntary context switches: 3
	Swaps: 0
	File system inputs: 0
	File system outputs: 112
	Socket messages sent: 0
	Socket messages received: 0
	Signals delivered: 0
	Page size (bytes): 4096
	Exit status: 0
