+ /usr/bin/timeout 600 /usr/bin/time -v mzn-chuffed lbbd-datasets/Rabadi-2006/dzn-balanced/model.mzn lbbd-datasets/Rabadi-2006/dzn-balanced/8on4Rp50Rs50_4Ameer.dzn
% No search annotation given. Defaulting to VSIDS!
assign = array1d(1..12 ,[4, 4, 4, 4, 4, 4, 4, 4, 1, 2, 3, 4]);
next = array1d(1..12 ,[2, 3, 4, 5, 6, 7, 8, 12, 10, 11, 1, 9]);
makespan = 1153;
----------
assign = array1d(1..12 ,[4, 4, 4, 4, 4, 4, 4, 4, 1, 2, 3, 4]);
next = array1d(1..12 ,[4, 3, 5, 2, 6, 7, 8, 12, 10, 11, 1, 9]);
makespan = 1146;
----------
assign = array1d(1..12 ,[4, 1, 4, 4, 4, 4, 4, 4, 1, 2, 3, 4]);
next = array1d(1..12 ,[3, 9, 12, 5, 6, 8, 1, 7, 10, 11, 4, 2]);
makespan = 1103;
----------
assign = array1d(1..12 ,[4, 4, 4, 1, 4, 4, 4, 4, 1, 2, 3, 4]);
next = array1d(1..12 ,[7, 1, 8, 9, 12, 2, 5, 6, 10, 11, 3, 4]);
makespan = 1092;
----------
assign = array1d(1..12 ,[4, 2, 4, 4, 4, 4, 4, 4, 1, 2, 3, 4]);
next = array1d(1..12 ,[4, 10, 7, 6, 8, 12, 1, 3, 2, 11, 5, 9]);
makespan = 1085;
----------
assign = array1d(1..12 ,[4, 4, 4, 1, 4, 4, 4, 4, 1, 2, 3, 4]);
next = array1d(1..12 ,[8, 1, 7, 9, 3, 12, 2, 6, 10, 11, 5, 4]);
makespan = 1080;
----------
assign = array1d(1..12 ,[4, 1, 4, 4, 4, 4, 4, 4, 1, 2, 3, 4]);
next = array1d(1..12 ,[12, 9, 6, 5, 3, 8, 1, 7, 10, 11, 4, 2]);
makespan = 1078;
----------
assign = array1d(1..12 ,[4, 3, 4, 4, 4, 4, 4, 4, 1, 2, 3, 4]);
next = array1d(1..12 ,[8, 11, 1, 5, 6, 12, 4, 7, 10, 2, 3, 9]);
makespan = 1075;
----------
assign = array1d(1..12 ,[4, 1, 4, 4, 4, 4, 4, 4, 1, 2, 3, 4]);
next = array1d(1..12 ,[4, 9, 7, 5, 8, 12, 1, 6, 10, 11, 3, 2]);
makespan = 1071;
----------
assign = array1d(1..12 ,[4, 1, 4, 4, 4, 4, 4, 4, 1, 2, 3, 4]);
next = array1d(1..12 ,[3, 9, 8, 5, 1, 12, 6, 7, 10, 11, 4, 2]);
makespan = 1065;
----------
assign = array1d(1..12 ,[4, 1, 4, 4, 4, 4, 4, 4, 1, 2, 3, 4]);
next = array1d(1..12 ,[3, 9, 5, 6, 8, 12, 4, 7, 10, 11, 1, 2]);
makespan = 1064;
----------
assign = array1d(1..12 ,[4, 1, 4, 4, 4, 4, 4, 4, 1, 2, 3, 4]);
next = array1d(1..12 ,[3, 9, 8, 6, 1, 12, 4, 7, 10, 11, 5, 2]);
makespan = 1062;
----------
assign = array1d(1..12 ,[4, 1, 4, 4, 4, 4, 4, 4, 1, 2, 3, 4]);
next = array1d(1..12 ,[4, 9, 12, 6, 8, 3, 1, 7, 10, 11, 5, 2]);
makespan = 1061;
----------
assign = array1d(1..12 ,[4, 3, 4, 4, 4, 4, 4, 4, 1, 2, 3, 4]);
next = array1d(1..12 ,[4, 11, 8, 12, 6, 1, 5, 7, 10, 2, 3, 9]);
makespan = 1060;
----------
assign = array1d(1..12 ,[4, 4, 4, 4, 3, 4, 4, 4, 1, 2, 3, 4]);
next = array1d(1..12 ,[4, 1, 8, 6, 11, 7, 12, 2, 10, 5, 3, 9]);
makespan = 1059;
----------
assign = array1d(1..12 ,[4, 3, 4, 4, 4, 4, 4, 4, 1, 2, 3, 4]);
next = array1d(1..12 ,[3, 11, 12, 5, 6, 7, 1, 4, 10, 2, 8, 9]);
makespan = 1058;
----------
assign = array1d(1..12 ,[4, 1, 4, 4, 4, 4, 4, 4, 1, 2, 3, 4]);
next = array1d(1..12 ,[12, 9, 6, 5, 8, 7, 1, 3, 10, 11, 4, 2]);
makespan = 1057;
----------
assign = array1d(1..12 ,[4, 2, 4, 4, 4, 4, 4, 4, 1, 2, 3, 4]);
next = array1d(1..12 ,[12, 10, 6, 5, 8, 7, 1, 3, 2, 11, 4, 9]);
makespan = 1056;
----------
assign = array1d(1..12 ,[4, 3, 4, 4, 4, 4, 4, 4, 1, 2, 3, 4]);
next = array1d(1..12 ,[3, 11, 8, 5, 1, 12, 6, 7, 10, 2, 4, 9]);
makespan = 1054;
----------
assign = array1d(1..12 ,[4, 4, 4, 1, 4, 4, 4, 4, 1, 2, 3, 4]);
next = array1d(1..12 ,[6, 7, 12, 9, 3, 5, 8, 1, 10, 11, 2, 4]);
makespan = 1042;
----------
assign = array1d(1..12 ,[4, 4, 4, 1, 4, 4, 4, 4, 1, 2, 3, 4]);
next = array1d(1..12 ,[6, 7, 12, 9, 3, 5, 8, 1, 10, 11, 2, 4]);
makespan = 1028;
----------
assign = array1d(1..12 ,[4, 4, 4, 1, 4, 4, 4, 4, 1, 2, 3, 4]);
next = array1d(1..12 ,[6, 7, 12, 9, 3, 5, 8, 1, 10, 11, 2, 4]);
makespan = 1025;
----------
assign = array1d(1..12 ,[4, 4, 4, 1, 4, 4, 4, 4, 1, 2, 3, 4]);
next = array1d(1..12 ,[6, 7, 12, 9, 3, 5, 8, 1, 10, 11, 2, 4]);
makespan = 1021;
----------
assign = array1d(1..12 ,[4, 4, 4, 1, 4, 4, 4, 4, 1, 2, 3, 4]);
next = array1d(1..12 ,[6, 7, 12, 9, 3, 5, 8, 1, 10, 11, 2, 4]);
makespan = 1017;
----------
assign = array1d(1..12 ,[4, 4, 4, 1, 4, 4, 4, 4, 1, 2, 3, 4]);
next = array1d(1..12 ,[6, 7, 12, 9, 3, 5, 8, 1, 10, 11, 2, 4]);
makespan = 1014;
----------
assign = array1d(1..12 ,[4, 4, 4, 1, 4, 4, 4, 4, 1, 2, 3, 4]);
next = array1d(1..12 ,[6, 7, 12, 9, 3, 5, 8, 1, 10, 11, 2, 4]);
makespan = 1010;
----------
assign = array1d(1..12 ,[4, 4, 4, 1, 4, 4, 4, 4, 1, 2, 3, 4]);
next = array1d(1..12 ,[6, 7, 12, 9, 3, 5, 8, 1, 10, 11, 2, 4]);
makespan = 1007;
----------
assign = array1d(1..12 ,[4, 4, 4, 1, 4, 4, 4, 4, 1, 2, 3, 4]);
next = array1d(1..12 ,[6, 7, 12, 9, 3, 5, 8, 1, 10, 11, 2, 4]);
makespan = 1004;
----------
assign = array1d(1..12 ,[4, 4, 4, 1, 4, 4, 4, 4, 1, 2, 3, 4]);
next = array1d(1..12 ,[6, 7, 12, 9, 3, 5, 8, 1, 10, 11, 2, 4]);
makespan = 1003;
----------
assign = array1d(1..12 ,[4, 4, 4, 1, 4, 4, 4, 4, 1, 2, 3, 4]);
next = array1d(1..12 ,[6, 7, 12, 9, 3, 5, 8, 1, 10, 11, 2, 4]);
makespan = 1000;
----------
assign = array1d(1..12 ,[4, 4, 4, 1, 4, 4, 4, 4, 1, 2, 3, 4]);
next = array1d(1..12 ,[6, 7, 12, 9, 3, 5, 8, 1, 10, 11, 2, 4]);
makespan = 996;
----------
assign = array1d(1..12 ,[4, 4, 4, 1, 4, 4, 4, 4, 1, 2, 3, 4]);
next = array1d(1..12 ,[6, 7, 12, 9, 3, 5, 8, 1, 10, 11, 2, 4]);
makespan = 993;
----------
assign = array1d(1..12 ,[4, 4, 4, 1, 4, 4, 4, 4, 1, 2, 3, 4]);
next = array1d(1..12 ,[6, 7, 12, 9, 3, 5, 8, 1, 10, 11, 2, 4]);
makespan = 989;
----------
assign = array1d(1..12 ,[4, 4, 4, 1, 4, 4, 4, 4, 1, 2, 3, 4]);
next = array1d(1..12 ,[6, 7, 12, 9, 3, 5, 8, 1, 10, 11, 2, 4]);
makespan = 986;
----------
assign = array1d(1..12 ,[4, 4, 4, 1, 4, 4, 4, 4, 1, 2, 3, 4]);
next = array1d(1..12 ,[6, 7, 12, 9, 3, 5, 8, 1, 10, 11, 2, 4]);
makespan = 982;
----------
assign = array1d(1..12 ,[4, 4, 4, 1, 4, 4, 4, 4, 1, 2, 3, 4]);
next = array1d(1..12 ,[6, 7, 12, 9, 3, 5, 8, 1, 10, 11, 2, 4]);
makespan = 979;
----------
assign = array1d(1..12 ,[4, 4, 4, 1, 4, 4, 4, 4, 1, 2, 3, 4]);
next = array1d(1..12 ,[6, 7, 12, 9, 3, 5, 8, 1, 10, 11, 2, 4]);
makespan = 976;
----------
assign = array1d(1..12 ,[4, 4, 4, 1, 4, 4, 4, 4, 1, 2, 3, 4]);
next = array1d(1..12 ,[6, 7, 12, 9, 3, 5, 8, 1, 10, 11, 2, 4]);
makespan = 975;
----------
assign = array1d(1..12 ,[4, 4, 4, 1, 4, 4, 4, 4, 1, 2, 3, 4]);
next = array1d(1..12 ,[6, 7, 12, 9, 3, 5, 8, 1, 10, 11, 2, 4]);
makespan = 972;
----------
assign = array1d(1..12 ,[4, 4, 4, 1, 4, 4, 4, 4, 1, 2, 3, 4]);
next = array1d(1..12 ,[6, 7, 12, 9, 3, 5, 8, 1, 10, 11, 2, 4]);
makespan = 968;
----------
assign = array1d(1..12 ,[4, 4, 4, 1, 4, 4, 4, 4, 1, 2, 3, 4]);
next = array1d(1..12 ,[6, 7, 12, 9, 3, 5, 8, 1, 10, 11, 2, 4]);
makespan = 967;
----------
assign = array1d(1..12 ,[4, 4, 4, 1, 4, 4, 4, 4, 1, 2, 3, 4]);
next = array1d(1..12 ,[6, 7, 12, 9, 3, 5, 8, 1, 10, 11, 2, 4]);
makespan = 965;
----------
assign = array1d(1..12 ,[4, 4, 4, 1, 4, 4, 4, 4, 1, 2, 3, 4]);
next = array1d(1..12 ,[6, 7, 12, 9, 3, 5, 8, 1, 10, 11, 2, 4]);
makespan = 964;
----------
assign = array1d(1..12 ,[4, 4, 4, 1, 4, 4, 4, 4, 1, 2, 3, 4]);
next = array1d(1..12 ,[6, 7, 12, 9, 3, 5, 8, 1, 10, 11, 2, 4]);
makespan = 960;
----------
assign = array1d(1..12 ,[4, 4, 4, 1, 4, 4, 4, 4, 1, 2, 3, 4]);
next = array1d(1..12 ,[6, 7, 12, 9, 3, 5, 8, 1, 10, 11, 2, 4]);
makespan = 958;
----------
assign = array1d(1..12 ,[4, 4, 4, 1, 4, 4, 4, 4, 1, 2, 3, 4]);
next = array1d(1..12 ,[6, 7, 12, 9, 3, 5, 8, 1, 10, 11, 2, 4]);
makespan = 953;
----------
assign = array1d(1..12 ,[4, 4, 4, 1, 4, 4, 4, 4, 1, 2, 3, 4]);
next = array1d(1..12 ,[6, 7, 12, 9, 3, 5, 8, 1, 10, 11, 2, 4]);
makespan = 950;
----------
assign = array1d(1..12 ,[4, 4, 4, 1, 4, 4, 4, 4, 1, 2, 3, 4]);
next = array1d(1..12 ,[6, 7, 12, 9, 3, 5, 8, 1, 10, 11, 2, 4]);
makespan = 946;
----------
assign = array1d(1..12 ,[4, 4, 4, 1, 4, 4, 4, 4, 1, 2, 3, 4]);
next = array1d(1..12 ,[6, 7, 12, 9, 3, 5, 8, 1, 10, 11, 2, 4]);
makespan = 943;
----------
assign = array1d(1..12 ,[4, 4, 4, 1, 4, 4, 4, 4, 1, 2, 3, 4]);
next = array1d(1..12 ,[6, 7, 12, 9, 3, 5, 8, 1, 10, 11, 2, 4]);
makespan = 939;
----------
assign = array1d(1..12 ,[4, 4, 4, 1, 4, 4, 4, 4, 1, 2, 3, 4]);
next = array1d(1..12 ,[6, 7, 12, 9, 3, 5, 8, 1, 10, 11, 2, 4]);
makespan = 936;
----------
assign = array1d(1..12 ,[4, 4, 4, 1, 4, 4, 4, 4, 1, 2, 3, 4]);
next = array1d(1..12 ,[6, 7, 12, 9, 3, 5, 8, 1, 10, 11, 2, 4]);
makespan = 935;
----------
assign = array1d(1..12 ,[4, 4, 4, 1, 4, 4, 4, 4, 1, 2, 3, 4]);
next = array1d(1..12 ,[6, 7, 12, 9, 3, 5, 8, 1, 10, 11, 2, 4]);
makespan = 934;
----------
assign = array1d(1..12 ,[4, 1, 4, 4, 4, 4, 4, 4, 1, 2, 3, 4]);
next = array1d(1..12 ,[6, 9, 4, 12, 3, 5, 8, 1, 10, 11, 7, 2]);
makespan = 932;
----------
assign = array1d(1..12 ,[4, 1, 4, 4, 4, 4, 4, 4, 1, 2, 3, 4]);
next = array1d(1..12 ,[6, 9, 4, 12, 3, 5, 8, 1, 10, 11, 7, 2]);
makespan = 929;
----------
assign = array1d(1..12 ,[4, 1, 4, 4, 4, 4, 4, 4, 1, 2, 3, 4]);
next = array1d(1..12 ,[6, 9, 4, 12, 3, 5, 8, 1, 10, 11, 7, 2]);
makespan = 928;
----------
assign = array1d(1..12 ,[4, 1, 4, 4, 4, 4, 4, 4, 1, 2, 3, 4]);
next = array1d(1..12 ,[6, 9, 4, 12, 3, 5, 8, 1, 10, 11, 7, 2]);
makespan = 926;
----------
assign = array1d(1..12 ,[4, 1, 4, 4, 4, 4, 4, 4, 1, 2, 3, 4]);
next = array1d(1..12 ,[6, 9, 4, 12, 3, 5, 8, 1, 10, 11, 7, 2]);
makespan = 925;
----------
assign = array1d(1..12 ,[4, 1, 4, 4, 4, 4, 4, 4, 1, 2, 3, 4]);
next = array1d(1..12 ,[6, 9, 4, 12, 3, 5, 8, 1, 10, 11, 7, 2]);
makespan = 922;
----------
assign = array1d(1..12 ,[4, 1, 4, 4, 4, 4, 4, 4, 1, 2, 3, 4]);
next = array1d(1..12 ,[6, 9, 4, 12, 3, 5, 8, 1, 10, 11, 7, 2]);
makespan = 921;
----------
assign = array1d(1..12 ,[4, 1, 4, 4, 4, 4, 4, 4, 1, 2, 3, 4]);
next = array1d(1..12 ,[6, 9, 4, 12, 3, 5, 8, 1, 10, 11, 7, 2]);
makespan = 918;
----------
assign = array1d(1..12 ,[4, 1, 4, 4, 4, 4, 4, 4, 1, 2, 3, 4]);
next = array1d(1..12 ,[6, 9, 4, 12, 3, 5, 8, 1, 10, 11, 7, 2]);
makespan = 915;
----------
assign = array1d(1..12 ,[4, 1, 4, 4, 4, 4, 4, 4, 1, 2, 3, 4]);
next = array1d(1..12 ,[6, 9, 4, 12, 3, 5, 8, 1, 10, 11, 7, 2]);
makespan = 914;
----------
assign = array1d(1..12 ,[4, 1, 4, 4, 4, 4, 4, 4, 1, 2, 3, 4]);
next = array1d(1..12 ,[6, 9, 4, 12, 3, 5, 8, 1, 10, 11, 7, 2]);
makespan = 911;
----------
assign = array1d(1..12 ,[4, 1, 4, 4, 4, 4, 4, 4, 1, 2, 3, 4]);
next = array1d(1..12 ,[6, 9, 4, 12, 3, 5, 8, 1, 10, 11, 7, 2]);
makespan = 908;
----------
assign = array1d(1..12 ,[4, 1, 4, 4, 4, 4, 4, 4, 1, 2, 3, 4]);
next = array1d(1..12 ,[6, 9, 4, 12, 3, 5, 8, 1, 10, 11, 7, 2]);
makespan = 907;
----------
assign = array1d(1..12 ,[4, 1, 4, 4, 4, 4, 4, 4, 1, 2, 3, 4]);
next = array1d(1..12 ,[6, 9, 4, 12, 3, 5, 8, 1, 10, 11, 7, 2]);
makespan = 904;
----------
assign = array1d(1..12 ,[4, 1, 4, 4, 4, 4, 4, 4, 1, 2, 3, 4]);
next = array1d(1..12 ,[6, 9, 4, 12, 3, 5, 8, 1, 10, 11, 7, 2]);
makespan = 901;
----------
assign = array1d(1..12 ,[4, 1, 4, 4, 4, 4, 4, 4, 1, 2, 3, 4]);
next = array1d(1..12 ,[6, 9, 4, 12, 3, 5, 8, 1, 10, 11, 7, 2]);
makespan = 900;
----------
assign = array1d(1..12 ,[4, 1, 4, 4, 4, 4, 4, 4, 1, 2, 3, 4]);
next = array1d(1..12 ,[6, 9, 4, 12, 3, 5, 8, 1, 10, 11, 7, 2]);
makespan = 897;
----------
assign = array1d(1..12 ,[4, 1, 4, 4, 4, 4, 4, 4, 1, 2, 3, 4]);
next = array1d(1..12 ,[6, 9, 4, 12, 3, 5, 8, 1, 10, 11, 7, 2]);
makespan = 894;
----------
assign = array1d(1..12 ,[4, 1, 4, 4, 4, 4, 4, 4, 1, 2, 3, 4]);
next = array1d(1..12 ,[6, 9, 4, 12, 3, 5, 8, 1, 10, 11, 7, 2]);
makespan = 893;
----------
assign = array1d(1..12 ,[4, 1, 4, 4, 4, 4, 4, 4, 1, 2, 3, 4]);
next = array1d(1..12 ,[6, 9, 4, 12, 3, 5, 8, 1, 10, 11, 7, 2]);
makespan = 891;
----------
assign = array1d(1..12 ,[4, 1, 4, 4, 4, 4, 4, 4, 1, 2, 3, 4]);
next = array1d(1..12 ,[6, 9, 12, 7, 3, 5, 8, 1, 10, 11, 4, 2]);
makespan = 890;
----------
assign = array1d(1..12 ,[4, 1, 4, 4, 4, 4, 4, 4, 1, 2, 3, 4]);
next = array1d(1..12 ,[6, 9, 12, 7, 3, 5, 8, 1, 10, 11, 4, 2]);
makespan = 889;
----------
assign = array1d(1..12 ,[4, 1, 4, 4, 4, 4, 4, 4, 1, 2, 3, 4]);
next = array1d(1..12 ,[6, 9, 12, 7, 3, 5, 8, 1, 10, 11, 4, 2]);
makespan = 887;
----------
assign = array1d(1..12 ,[4, 1, 4, 4, 4, 4, 4, 4, 1, 2, 3, 4]);
next = array1d(1..12 ,[6, 9, 12, 7, 3, 5, 8, 1, 10, 11, 4, 2]);
makespan = 886;
----------
assign = array1d(1..12 ,[4, 1, 4, 4, 4, 4, 4, 4, 1, 2, 3, 4]);
next = array1d(1..12 ,[6, 9, 12, 7, 3, 5, 8, 1, 10, 11, 4, 2]);
makespan = 885;
----------
assign = array1d(1..12 ,[4, 1, 4, 4, 4, 4, 4, 4, 1, 2, 3, 4]);
next = array1d(1..12 ,[6, 9, 12, 7, 3, 5, 8, 1, 10, 11, 4, 2]);
makespan = 884;
----------
assign = array1d(1..12 ,[4, 1, 4, 1, 4, 4, 4, 4, 1, 2, 3, 4]);
next = array1d(1..12 ,[6, 9, 12, 2, 3, 5, 8, 1, 10, 11, 7, 4]);
makespan = 883;
----------
assign = array1d(1..12 ,[4, 1, 4, 1, 4, 4, 4, 4, 1, 2, 3, 4]);
next = array1d(1..12 ,[6, 9, 12, 2, 3, 5, 8, 1, 10, 11, 7, 4]);
makespan = 882;
----------
assign = array1d(1..12 ,[4, 1, 4, 1, 4, 4, 4, 4, 1, 2, 3, 4]);
next = array1d(1..12 ,[6, 9, 12, 2, 3, 5, 8, 1, 10, 11, 7, 4]);
makespan = 880;
----------
assign = array1d(1..12 ,[4, 1, 4, 1, 4, 4, 4, 4, 1, 2, 3, 4]);
next = array1d(1..12 ,[6, 9, 12, 2, 3, 5, 8, 1, 10, 11, 7, 4]);
makespan = 878;
----------
assign = array1d(1..12 ,[4, 1, 4, 1, 4, 4, 4, 4, 1, 2, 3, 4]);
next = array1d(1..12 ,[6, 9, 12, 2, 3, 5, 8, 1, 10, 11, 7, 4]);
makespan = 876;
----------
assign = array1d(1..12 ,[4, 1, 4, 1, 4, 4, 4, 4, 1, 2, 3, 4]);
next = array1d(1..12 ,[6, 9, 12, 2, 3, 5, 8, 1, 10, 11, 7, 4]);
makespan = 875;
----------
assign = array1d(1..12 ,[4, 1, 4, 1, 4, 4, 4, 4, 1, 2, 3, 4]);
next = array1d(1..12 ,[6, 9, 12, 2, 3, 5, 8, 1, 10, 11, 7, 4]);
makespan = 871;
----------
assign = array1d(1..12 ,[4, 1, 4, 1, 4, 4, 4, 4, 1, 2, 3, 4]);
next = array1d(1..12 ,[6, 9, 12, 2, 3, 5, 8, 1, 10, 11, 7, 4]);
makespan = 869;
----------
assign = array1d(1..12 ,[4, 1, 4, 1, 4, 4, 4, 4, 1, 2, 3, 4]);
next = array1d(1..12 ,[6, 9, 12, 2, 3, 5, 8, 1, 10, 11, 7, 4]);
makespan = 868;
----------
assign = array1d(1..12 ,[4, 1, 4, 1, 4, 4, 4, 4, 1, 2, 3, 4]);
next = array1d(1..12 ,[6, 9, 12, 2, 3, 5, 8, 1, 10, 11, 7, 4]);
makespan = 865;
----------
assign = array1d(1..12 ,[4, 1, 4, 1, 4, 4, 4, 4, 1, 2, 3, 4]);
next = array1d(1..12 ,[6, 9, 12, 2, 3, 5, 8, 1, 10, 11, 7, 4]);
makespan = 864;
----------
assign = array1d(1..12 ,[4, 1, 4, 1, 4, 4, 4, 4, 1, 2, 3, 4]);
next = array1d(1..12 ,[6, 9, 12, 2, 3, 5, 8, 1, 10, 11, 7, 4]);
makespan = 861;
----------
assign = array1d(1..12 ,[4, 1, 4, 1, 4, 4, 4, 4, 1, 2, 3, 4]);
next = array1d(1..12 ,[6, 9, 12, 2, 3, 5, 8, 1, 10, 11, 7, 4]);
makespan = 857;
----------
assign = array1d(1..12 ,[4, 1, 4, 1, 4, 4, 4, 4, 1, 2, 3, 4]);
next = array1d(1..12 ,[6, 9, 12, 2, 3, 5, 8, 1, 10, 11, 7, 4]);
makespan = 854;
----------
assign = array1d(1..12 ,[4, 1, 4, 1, 4, 4, 4, 4, 1, 2, 3, 4]);
next = array1d(1..12 ,[6, 9, 12, 2, 3, 5, 8, 1, 10, 11, 7, 4]);
makespan = 851;
----------
assign = array1d(1..12 ,[4, 1, 4, 1, 4, 4, 4, 4, 1, 2, 3, 4]);
next = array1d(1..12 ,[6, 9, 12, 2, 3, 5, 8, 1, 10, 11, 7, 4]);
makespan = 850;
----------
assign = array1d(1..12 ,[4, 1, 4, 1, 4, 4, 4, 4, 1, 2, 3, 4]);
next = array1d(1..12 ,[6, 9, 12, 2, 3, 5, 8, 1, 10, 11, 7, 4]);
makespan = 847;
----------
assign = array1d(1..12 ,[4, 1, 4, 1, 4, 4, 4, 4, 1, 2, 3, 4]);
next = array1d(1..12 ,[6, 9, 12, 2, 3, 5, 8, 1, 10, 11, 7, 4]);
makespan = 846;
----------
assign = array1d(1..12 ,[4, 1, 4, 1, 4, 4, 4, 4, 1, 2, 3, 4]);
next = array1d(1..12 ,[6, 9, 12, 2, 3, 5, 8, 1, 10, 11, 7, 4]);
makespan = 844;
----------
assign = array1d(1..12 ,[4, 1, 4, 1, 4, 4, 4, 4, 1, 2, 3, 4]);
next = array1d(1..12 ,[6, 9, 12, 2, 3, 5, 8, 1, 10, 11, 7, 4]);
makespan = 843;
----------
assign = array1d(1..12 ,[4, 1, 4, 1, 4, 4, 4, 4, 1, 2, 3, 4]);
next = array1d(1..12 ,[6, 9, 12, 2, 3, 5, 8, 1, 10, 11, 7, 4]);
makespan = 841;
----------
assign = array1d(1..12 ,[4, 1, 4, 1, 4, 4, 4, 4, 1, 2, 3, 4]);
next = array1d(1..12 ,[6, 9, 12, 2, 3, 5, 8, 1, 10, 11, 7, 4]);
makespan = 840;
----------
assign = array1d(1..12 ,[4, 1, 4, 1, 4, 4, 4, 4, 1, 2, 3, 4]);
next = array1d(1..12 ,[6, 9, 12, 2, 3, 5, 8, 1, 10, 11, 7, 4]);
makespan = 839;
----------
assign = array1d(1..12 ,[4, 1, 4, 1, 4, 4, 4, 4, 1, 2, 3, 4]);
next = array1d(1..12 ,[6, 9, 12, 2, 3, 5, 8, 1, 10, 11, 7, 4]);
makespan = 837;
----------
assign = array1d(1..12 ,[4, 1, 4, 1, 4, 4, 4, 4, 1, 2, 3, 4]);
next = array1d(1..12 ,[6, 9, 12, 2, 3, 5, 8, 1, 10, 11, 7, 4]);
makespan = 836;
----------
assign = array1d(1..12 ,[4, 1, 4, 1, 4, 4, 4, 4, 1, 2, 3, 4]);
next = array1d(1..12 ,[6, 9, 12, 2, 3, 5, 8, 1, 10, 11, 7, 4]);
makespan = 833;
----------
assign = array1d(1..12 ,[4, 1, 4, 1, 4, 4, 4, 4, 1, 2, 3, 4]);
next = array1d(1..12 ,[6, 9, 12, 2, 3, 5, 8, 1, 10, 11, 7, 4]);
makespan = 832;
----------
assign = array1d(1..12 ,[4, 1, 4, 1, 4, 4, 4, 4, 1, 2, 3, 4]);
next = array1d(1..12 ,[6, 9, 12, 2, 3, 5, 8, 1, 10, 11, 7, 4]);
makespan = 830;
----------
assign = array1d(1..12 ,[4, 1, 4, 1, 4, 4, 4, 4, 1, 2, 3, 4]);
next = array1d(1..12 ,[6, 9, 12, 2, 3, 5, 8, 1, 10, 11, 7, 4]);
makespan = 829;
----------
assign = array1d(1..12 ,[4, 1, 4, 1, 4, 4, 4, 4, 1, 2, 3, 4]);
next = array1d(1..12 ,[6, 9, 12, 2, 3, 5, 8, 1, 10, 11, 7, 4]);
makespan = 826;
----------
assign = array1d(1..12 ,[4, 1, 4, 1, 4, 4, 4, 4, 1, 2, 3, 4]);
next = array1d(1..12 ,[6, 9, 12, 2, 3, 5, 8, 1, 10, 11, 7, 4]);
makespan = 825;
----------
assign = array1d(1..12 ,[4, 1, 4, 1, 4, 4, 4, 4, 1, 2, 3, 4]);
next = array1d(1..12 ,[6, 9, 12, 2, 3, 5, 8, 1, 10, 11, 7, 4]);
makespan = 822;
----------
assign = array1d(1..12 ,[4, 1, 4, 1, 4, 4, 4, 4, 1, 2, 3, 4]);
next = array1d(1..12 ,[6, 9, 12, 2, 3, 5, 8, 1, 10, 11, 7, 4]);
makespan = 819;
----------
assign = array1d(1..12 ,[4, 1, 4, 1, 4, 4, 4, 4, 1, 2, 3, 4]);
next = array1d(1..12 ,[6, 9, 12, 2, 3, 5, 8, 1, 10, 11, 7, 4]);
makespan = 815;
----------
assign = array1d(1..12 ,[4, 1, 4, 1, 4, 4, 4, 4, 1, 2, 3, 4]);
next = array1d(1..12 ,[6, 9, 12, 2, 3, 5, 8, 1, 10, 11, 7, 4]);
makespan = 812;
----------
assign = array1d(1..12 ,[4, 1, 4, 1, 4, 4, 4, 4, 1, 2, 3, 4]);
next = array1d(1..12 ,[6, 9, 12, 2, 3, 5, 8, 1, 10, 11, 7, 4]);
makespan = 811;
----------
assign = array1d(1..12 ,[4, 1, 4, 1, 4, 4, 4, 4, 1, 2, 3, 4]);
next = array1d(1..12 ,[6, 9, 12, 2, 3, 5, 8, 1, 10, 11, 7, 4]);
makespan = 808;
----------
assign = array1d(1..12 ,[4, 1, 4, 1, 4, 4, 4, 4, 1, 2, 3, 4]);
next = array1d(1..12 ,[6, 9, 12, 2, 3, 5, 8, 1, 10, 11, 7, 4]);
makespan = 807;
----------
assign = array1d(1..12 ,[4, 1, 4, 1, 4, 4, 4, 4, 1, 2, 3, 4]);
next = array1d(1..12 ,[6, 9, 12, 2, 3, 5, 8, 1, 10, 11, 7, 4]);
makespan = 805;
----------
assign = array1d(1..12 ,[4, 1, 4, 1, 4, 4, 4, 4, 1, 2, 3, 4]);
next = array1d(1..12 ,[6, 9, 12, 2, 3, 5, 8, 1, 10, 11, 7, 4]);
makespan = 801;
----------
assign = array1d(1..12 ,[4, 1, 4, 1, 4, 4, 4, 4, 1, 2, 3, 4]);
next = array1d(1..12 ,[6, 9, 12, 2, 3, 5, 8, 1, 10, 11, 7, 4]);
makespan = 800;
----------
assign = array1d(1..12 ,[4, 1, 4, 1, 4, 4, 4, 4, 1, 2, 3, 4]);
next = array1d(1..12 ,[6, 9, 12, 2, 3, 5, 8, 1, 10, 11, 7, 4]);
makespan = 798;
----------
assign = array1d(1..12 ,[4, 1, 4, 1, 4, 4, 4, 4, 1, 2, 3, 4]);
next = array1d(1..12 ,[6, 9, 12, 2, 3, 5, 8, 1, 10, 11, 7, 4]);
makespan = 796;
----------
assign = array1d(1..12 ,[4, 1, 4, 1, 4, 4, 4, 4, 1, 2, 3, 4]);
next = array1d(1..12 ,[6, 9, 12, 2, 3, 5, 8, 1, 10, 11, 7, 4]);
makespan = 794;
----------
assign = array1d(1..12 ,[4, 1, 4, 1, 4, 4, 4, 4, 1, 2, 3, 4]);
next = array1d(1..12 ,[6, 9, 12, 2, 3, 5, 8, 1, 10, 11, 7, 4]);
makespan = 793;
----------
assign = array1d(1..12 ,[4, 1, 4, 1, 4, 4, 4, 4, 1, 2, 3, 4]);
next = array1d(1..12 ,[6, 9, 12, 2, 3, 5, 8, 1, 10, 11, 7, 4]);
makespan = 791;
----------
assign = array1d(1..12 ,[4, 1, 4, 1, 4, 4, 4, 4, 1, 2, 3, 4]);
next = array1d(1..12 ,[6, 9, 12, 2, 3, 5, 8, 1, 10, 11, 7, 4]);
makespan = 790;
----------
assign = array1d(1..12 ,[4, 1, 4, 1, 4, 4, 4, 4, 1, 2, 3, 4]);
next = array1d(1..12 ,[6, 9, 12, 2, 3, 5, 8, 1, 10, 11, 7, 4]);
makespan = 789;
----------
assign = array1d(1..12 ,[4, 1, 4, 1, 4, 4, 4, 4, 1, 2, 3, 4]);
next = array1d(1..12 ,[6, 9, 12, 2, 3, 5, 8, 1, 10, 11, 7, 4]);
makespan = 787;
----------
assign = array1d(1..12 ,[4, 1, 4, 1, 4, 4, 4, 4, 1, 2, 3, 4]);
next = array1d(1..12 ,[6, 9, 12, 2, 3, 5, 8, 1, 10, 11, 7, 4]);
makespan = 786;
----------
assign = array1d(1..12 ,[4, 1, 4, 1, 4, 4, 4, 4, 1, 2, 3, 4]);
next = array1d(1..12 ,[6, 9, 12, 2, 3, 5, 8, 1, 10, 11, 7, 4]);
makespan = 783;
----------
assign = array1d(1..12 ,[4, 1, 4, 1, 4, 4, 4, 4, 1, 2, 3, 4]);
next = array1d(1..12 ,[6, 9, 12, 2, 3, 5, 8, 1, 10, 11, 7, 4]);
makespan = 782;
----------
assign = array1d(1..12 ,[4, 1, 4, 1, 4, 4, 4, 4, 1, 2, 3, 4]);
next = array1d(1..12 ,[6, 9, 12, 2, 3, 5, 8, 1, 10, 11, 7, 4]);
makespan = 780;
----------
assign = array1d(1..12 ,[4, 1, 4, 1, 4, 4, 4, 4, 1, 2, 3, 4]);
next = array1d(1..12 ,[6, 9, 12, 2, 3, 5, 8, 1, 10, 11, 7, 4]);
makespan = 779;
----------
assign = array1d(1..12 ,[4, 1, 4, 1, 4, 4, 4, 4, 1, 2, 3, 4]);
next = array1d(1..12 ,[6, 9, 12, 2, 3, 5, 8, 1, 10, 11, 7, 4]);
makespan = 776;
----------
assign = array1d(1..12 ,[4, 1, 4, 1, 4, 4, 4, 4, 1, 2, 3, 4]);
next = array1d(1..12 ,[6, 9, 12, 2, 3, 5, 8, 1, 10, 11, 7, 4]);
makespan = 775;
----------
assign = array1d(1..12 ,[4, 1, 4, 1, 4, 4, 4, 4, 1, 2, 3, 4]);
next = array1d(1..12 ,[6, 9, 12, 2, 3, 5, 8, 1, 10, 11, 7, 4]);
makespan = 772;
----------
assign = array1d(1..12 ,[4, 1, 4, 1, 4, 4, 4, 4, 1, 2, 3, 4]);
next = array1d(1..12 ,[6, 9, 12, 2, 3, 5, 8, 1, 10, 11, 7, 4]);
makespan = 769;
----------
assign = array1d(1..12 ,[4, 1, 4, 1, 4, 4, 4, 4, 1, 2, 3, 4]);
next = array1d(1..12 ,[6, 9, 12, 2, 3, 5, 8, 1, 10, 11, 7, 4]);
makespan = 768;
----------
assign = array1d(1..12 ,[4, 1, 4, 1, 4, 4, 4, 4, 1, 2, 3, 4]);
next = array1d(1..12 ,[6, 9, 12, 2, 3, 5, 8, 1, 10, 11, 7, 4]);
makespan = 765;
----------
assign = array1d(1..12 ,[4, 1, 4, 1, 4, 4, 4, 4, 1, 2, 3, 4]);
next = array1d(1..12 ,[6, 9, 12, 2, 3, 5, 8, 1, 10, 11, 7, 4]);
makespan = 762;
----------
assign = array1d(1..12 ,[4, 1, 4, 1, 4, 4, 4, 4, 1, 2, 3, 4]);
next = array1d(1..12 ,[6, 9, 12, 2, 3, 5, 8, 1, 10, 11, 7, 4]);
makespan = 761;
----------
assign = array1d(1..12 ,[4, 1, 4, 1, 4, 4, 4, 4, 1, 2, 3, 4]);
next = array1d(1..12 ,[6, 9, 12, 2, 3, 5, 8, 1, 10, 11, 7, 4]);
makespan = 758;
----------
assign = array1d(1..12 ,[4, 1, 4, 1, 4, 4, 4, 4, 1, 2, 3, 4]);
next = array1d(1..12 ,[6, 9, 12, 2, 3, 5, 8, 1, 10, 11, 7, 4]);
makespan = 755;
----------
assign = array1d(1..12 ,[4, 1, 4, 1, 4, 4, 4, 4, 1, 2, 3, 4]);
next = array1d(1..12 ,[6, 9, 12, 2, 3, 5, 8, 1, 10, 11, 7, 4]);
makespan = 754;
----------
assign = array1d(1..12 ,[4, 1, 4, 1, 4, 4, 4, 4, 1, 2, 3, 4]);
next = array1d(1..12 ,[6, 9, 12, 2, 3, 5, 8, 1, 10, 11, 7, 4]);
makespan = 751;
----------
assign = array1d(1..12 ,[4, 1, 4, 1, 4, 4, 4, 4, 1, 2, 3, 4]);
next = array1d(1..12 ,[6, 9, 12, 2, 3, 5, 8, 1, 10, 11, 7, 4]);
makespan = 750;
----------
assign = array1d(1..12 ,[4, 1, 4, 1, 4, 4, 4, 4, 1, 2, 3, 4]);
next = array1d(1..12 ,[6, 9, 12, 2, 3, 5, 8, 1, 10, 11, 7, 4]);
makespan = 748;
----------
assign = array1d(1..12 ,[4, 1, 4, 1, 4, 4, 4, 4, 1, 2, 3, 4]);
next = array1d(1..12 ,[6, 9, 12, 2, 3, 5, 8, 1, 10, 11, 7, 4]);
makespan = 747;
----------
assign = array1d(1..12 ,[4, 2, 4, 2, 4, 4, 2, 4, 1, 2, 3, 4]);
next = array1d(1..12 ,[6, 7, 12, 2, 3, 5, 10, 1, 4, 11, 8, 9]);
makespan = 744;
----------
assign = array1d(1..12 ,[4, 2, 4, 2, 4, 4, 2, 4, 1, 2, 3, 4]);
next = array1d(1..12 ,[6, 7, 12, 2, 3, 5, 10, 1, 4, 11, 8, 9]);
makespan = 741;
----------
assign = array1d(1..12 ,[4, 2, 4, 2, 4, 4, 2, 4, 1, 2, 3, 4]);
next = array1d(1..12 ,[6, 7, 12, 2, 3, 5, 10, 1, 4, 11, 8, 9]);
makespan = 737;
----------
assign = array1d(1..12 ,[4, 2, 4, 2, 4, 4, 2, 4, 1, 2, 3, 4]);
next = array1d(1..12 ,[6, 7, 12, 2, 3, 5, 10, 1, 4, 11, 8, 9]);
makespan = 733;
----------
assign = array1d(1..12 ,[4, 2, 4, 2, 4, 4, 2, 4, 1, 2, 3, 4]);
next = array1d(1..12 ,[6, 7, 12, 2, 3, 5, 10, 1, 4, 11, 8, 9]);
makespan = 730;
----------
assign = array1d(1..12 ,[4, 2, 4, 2, 4, 4, 2, 4, 1, 2, 3, 4]);
next = array1d(1..12 ,[6, 7, 12, 2, 3, 5, 10, 1, 4, 11, 8, 9]);
makespan = 726;
----------
assign = array1d(1..12 ,[4, 2, 4, 2, 4, 4, 2, 4, 1, 2, 3, 4]);
next = array1d(1..12 ,[6, 7, 12, 2, 3, 5, 10, 1, 4, 11, 8, 9]);
makespan = 723;
----------
assign = array1d(1..12 ,[4, 2, 4, 2, 4, 4, 2, 4, 1, 2, 3, 4]);
next = array1d(1..12 ,[6, 7, 12, 2, 3, 5, 10, 1, 4, 11, 8, 9]);
makespan = 718;
----------
assign = array1d(1..12 ,[4, 2, 4, 2, 4, 4, 2, 4, 1, 2, 3, 4]);
next = array1d(1..12 ,[6, 7, 12, 2, 3, 5, 10, 1, 4, 11, 8, 9]);
makespan = 716;
----------
assign = array1d(1..12 ,[4, 2, 4, 2, 4, 4, 2, 4, 1, 2, 3, 4]);
next = array1d(1..12 ,[6, 7, 12, 2, 3, 5, 10, 1, 4, 11, 8, 9]);
makespan = 712;
----------
assign = array1d(1..12 ,[4, 2, 4, 2, 4, 4, 2, 4, 1, 2, 3, 4]);
next = array1d(1..12 ,[6, 7, 12, 2, 3, 5, 10, 1, 4, 11, 8, 9]);
makespan = 711;
----------
assign = array1d(1..12 ,[4, 2, 4, 2, 4, 4, 2, 4, 1, 2, 3, 4]);
next = array1d(1..12 ,[6, 7, 12, 2, 3, 5, 10, 1, 4, 11, 8, 9]);
makespan = 709;
----------
assign = array1d(1..12 ,[4, 2, 4, 2, 4, 4, 2, 4, 1, 2, 3, 4]);
next = array1d(1..12 ,[6, 7, 12, 2, 3, 5, 10, 1, 4, 11, 8, 9]);
makespan = 708;
----------
assign = array1d(1..12 ,[4, 2, 4, 2, 4, 4, 2, 4, 1, 2, 3, 4]);
next = array1d(1..12 ,[6, 7, 12, 2, 3, 5, 10, 1, 4, 11, 8, 9]);
makespan = 704;
----------
assign = array1d(1..12 ,[4, 2, 4, 2, 4, 4, 2, 4, 1, 2, 3, 4]);
next = array1d(1..12 ,[6, 7, 12, 2, 3, 5, 10, 1, 4, 11, 8, 9]);
makespan = 702;
----------
assign = array1d(1..12 ,[4, 2, 4, 2, 4, 4, 2, 4, 1, 2, 3, 4]);
next = array1d(1..12 ,[6, 7, 12, 2, 3, 5, 10, 1, 4, 11, 8, 9]);
makespan = 701;
----------
assign = array1d(1..12 ,[4, 2, 4, 2, 4, 4, 2, 4, 1, 2, 3, 4]);
next = array1d(1..12 ,[6, 7, 12, 2, 3, 5, 10, 1, 4, 11, 8, 9]);
makespan = 697;
----------
assign = array1d(1..12 ,[4, 2, 4, 2, 4, 4, 2, 4, 1, 2, 3, 4]);
next = array1d(1..12 ,[6, 7, 12, 2, 3, 5, 10, 1, 4, 11, 8, 9]);
makespan = 694;
----------
assign = array1d(1..12 ,[4, 2, 4, 2, 4, 4, 2, 4, 1, 2, 3, 4]);
next = array1d(1..12 ,[6, 7, 12, 2, 3, 5, 10, 1, 4, 11, 8, 9]);
makespan = 692;
----------
assign = array1d(1..12 ,[4, 2, 4, 2, 4, 4, 2, 4, 1, 2, 3, 4]);
next = array1d(1..12 ,[6, 7, 12, 2, 3, 5, 10, 1, 4, 11, 8, 9]);
makespan = 687;
----------
assign = array1d(1..12 ,[4, 2, 4, 2, 4, 4, 2, 4, 1, 2, 3, 4]);
next = array1d(1..12 ,[6, 7, 12, 2, 3, 5, 10, 1, 4, 11, 8, 9]);
makespan = 685;
----------
assign = array1d(1..12 ,[4, 2, 4, 2, 4, 4, 2, 4, 1, 2, 3, 4]);
next = array1d(1..12 ,[6, 7, 12, 2, 3, 5, 10, 1, 4, 11, 8, 9]);
makespan = 683;
----------
assign = array1d(1..12 ,[4, 2, 4, 2, 4, 4, 2, 4, 1, 2, 3, 4]);
next = array1d(1..12 ,[6, 7, 12, 2, 3, 5, 10, 1, 4, 11, 8, 9]);
makespan = 680;
----------
assign = array1d(1..12 ,[4, 2, 4, 2, 4, 4, 2, 4, 1, 2, 3, 4]);
next = array1d(1..12 ,[6, 7, 12, 2, 3, 5, 10, 1, 4, 11, 8, 9]);
makespan = 678;
----------
assign = array1d(1..12 ,[4, 2, 4, 2, 4, 4, 2, 4, 1, 2, 3, 4]);
next = array1d(1..12 ,[6, 7, 12, 2, 3, 5, 10, 1, 4, 11, 8, 9]);
makespan = 676;
----------
assign = array1d(1..12 ,[4, 2, 4, 2, 4, 4, 2, 4, 1, 2, 3, 4]);
next = array1d(1..12 ,[6, 7, 12, 2, 3, 5, 10, 1, 4, 11, 8, 9]);
makespan = 673;
----------
assign = array1d(1..12 ,[4, 2, 4, 2, 4, 4, 2, 4, 1, 2, 3, 4]);
next = array1d(1..12 ,[6, 7, 12, 2, 3, 5, 10, 1, 4, 11, 8, 9]);
makespan = 672;
----------
assign = array1d(1..12 ,[4, 2, 4, 2, 4, 4, 2, 4, 1, 2, 3, 4]);
next = array1d(1..12 ,[6, 7, 12, 2, 3, 5, 10, 1, 4, 11, 8, 9]);
makespan = 669;
----------
assign = array1d(1..12 ,[4, 2, 4, 2, 4, 4, 2, 4, 1, 2, 3, 4]);
next = array1d(1..12 ,[6, 7, 12, 2, 3, 5, 10, 1, 4, 11, 8, 9]);
makespan = 666;
----------
assign = array1d(1..12 ,[4, 2, 4, 2, 4, 4, 2, 4, 1, 2, 3, 4]);
next = array1d(1..12 ,[6, 7, 12, 2, 3, 5, 10, 1, 4, 11, 8, 9]);
makespan = 662;
----------
assign = array1d(1..12 ,[4, 2, 4, 2, 4, 4, 2, 4, 1, 2, 3, 4]);
next = array1d(1..12 ,[6, 7, 12, 2, 3, 5, 10, 1, 4, 11, 8, 9]);
makespan = 659;
----------
assign = array1d(1..12 ,[4, 2, 4, 2, 4, 4, 2, 4, 1, 2, 3, 4]);
next = array1d(1..12 ,[6, 7, 12, 2, 3, 5, 10, 1, 4, 11, 8, 9]);
makespan = 655;
----------
assign = array1d(1..12 ,[4, 2, 4, 2, 4, 4, 2, 4, 1, 2, 3, 4]);
next = array1d(1..12 ,[6, 7, 12, 2, 3, 5, 10, 1, 4, 11, 8, 9]);
makespan = 651;
----------
assign = array1d(1..12 ,[4, 2, 4, 2, 4, 4, 2, 4, 1, 2, 3, 4]);
next = array1d(1..12 ,[6, 7, 12, 2, 3, 5, 10, 1, 4, 11, 8, 9]);
makespan = 648;
----------
assign = array1d(1..12 ,[4, 2, 4, 2, 4, 4, 2, 4, 1, 2, 3, 4]);
next = array1d(1..12 ,[6, 7, 12, 2, 3, 5, 10, 1, 4, 11, 8, 9]);
makespan = 642;
----------
assign = array1d(1..12 ,[4, 2, 4, 2, 4, 4, 2, 4, 1, 2, 3, 4]);
next = array1d(1..12 ,[6, 7, 12, 2, 3, 5, 10, 1, 4, 11, 8, 9]);
makespan = 634;
----------
assign = array1d(1..12 ,[4, 2, 4, 2, 4, 4, 2, 4, 1, 2, 3, 4]);
next = array1d(1..12 ,[6, 7, 12, 2, 3, 5, 10, 1, 4, 11, 8, 9]);
makespan = 630;
----------
assign = array1d(1..12 ,[4, 2, 4, 2, 4, 4, 2, 4, 1, 2, 3, 4]);
next = array1d(1..12 ,[6, 7, 12, 2, 3, 5, 10, 1, 4, 11, 8, 9]);
makespan = 619;
----------
assign = array1d(1..12 ,[4, 2, 4, 2, 4, 4, 2, 4, 1, 2, 3, 4]);
next = array1d(1..12 ,[6, 7, 12, 2, 3, 5, 10, 1, 4, 11, 8, 9]);
makespan = 603;
----------
assign = array1d(1..12 ,[4, 2, 1, 1, 4, 4, 4, 4, 1, 2, 3, 4]);
next = array1d(1..12 ,[6, 10, 4, 9, 12, 5, 8, 1, 2, 11, 7, 3]);
makespan = 594;
----------
assign = array1d(1..12 ,[4, 1, 3, 3, 4, 4, 4, 4, 1, 2, 3, 4]);
next = array1d(1..12 ,[6, 9, 4, 11, 12, 5, 8, 1, 10, 3, 7, 2]);
makespan = 585;
----------
assign = array1d(1..12 ,[4, 1, 3, 3, 4, 4, 3, 4, 1, 2, 3, 4]);
next = array1d(1..12 ,[6, 9, 7, 3, 12, 5, 11, 1, 10, 4, 8, 2]);
makespan = 569;
----------
assign = array1d(1..12 ,[4, 1, 3, 3, 4, 4, 3, 4, 1, 2, 3, 4]);
next = array1d(1..12 ,[6, 9, 7, 3, 12, 5, 11, 1, 10, 4, 8, 2]);
makespan = 553;
----------
assign = array1d(1..12 ,[4, 1, 3, 3, 4, 4, 3, 4, 1, 2, 3, 4]);
next = array1d(1..12 ,[6, 9, 7, 3, 12, 5, 11, 1, 10, 4, 8, 2]);
makespan = 540;
----------
assign = array1d(1..12 ,[4, 1, 3, 3, 4, 4, 3, 4, 1, 2, 3, 4]);
next = array1d(1..12 ,[6, 9, 7, 3, 12, 5, 11, 1, 10, 4, 8, 2]);
makespan = 530;
----------
assign = array1d(1..12 ,[4, 1, 3, 3, 4, 4, 3, 4, 1, 2, 3, 4]);
next = array1d(1..12 ,[6, 9, 7, 3, 12, 5, 11, 1, 10, 4, 8, 2]);
makespan = 525;
----------
assign = array1d(1..12 ,[4, 1, 3, 3, 4, 4, 3, 4, 1, 2, 3, 4]);
next = array1d(1..12 ,[6, 9, 7, 3, 12, 5, 11, 1, 10, 4, 8, 2]);
makespan = 523;
----------
assign = array1d(1..12 ,[4, 1, 3, 3, 4, 4, 3, 4, 1, 2, 3, 4]);
next = array1d(1..12 ,[6, 9, 7, 3, 12, 5, 11, 1, 10, 4, 8, 2]);
makespan = 519;
----------
assign = array1d(1..12 ,[4, 1, 3, 3, 4, 4, 3, 4, 1, 2, 3, 4]);
next = array1d(1..12 ,[6, 9, 7, 3, 12, 5, 11, 1, 10, 4, 8, 2]);
makespan = 470;
----------
assign = array1d(1..12 ,[4, 1, 3, 3, 4, 4, 3, 4, 1, 2, 3, 4]);
next = array1d(1..12 ,[6, 9, 7, 3, 12, 5, 11, 1, 10, 4, 8, 2]);
makespan = 469;
----------
assign = array1d(1..12 ,[4, 1, 3, 3, 4, 4, 3, 4, 1, 2, 3, 4]);
next = array1d(1..12 ,[6, 9, 7, 3, 12, 5, 11, 1, 10, 4, 8, 2]);
makespan = 441;
----------
assign = array1d(1..12 ,[4, 2, 4, 2, 1, 4, 1, 4, 1, 2, 3, 4]);
next = array1d(1..12 ,[6, 10, 12, 2, 7, 3, 9, 1, 4, 11, 8, 5]);
makespan = 436;
----------
assign = array1d(1..12 ,[4, 2, 3, 2, 3, 4, 3, 4, 1, 2, 3, 4]);
next = array1d(1..12 ,[6, 10, 11, 2, 7, 12, 3, 1, 4, 5, 8, 9]);
makespan = 415;
----------
assign = array1d(1..12 ,[4, 2, 3, 2, 3, 4, 3, 4, 1, 2, 3, 4]);
next = array1d(1..12 ,[6, 10, 11, 2, 7, 12, 3, 1, 4, 5, 8, 9]);
makespan = 394;
----------
assign = array1d(1..12 ,[4, 2, 3, 2, 3, 4, 3, 4, 1, 2, 3, 4]);
next = array1d(1..12 ,[6, 10, 11, 2, 7, 12, 3, 1, 4, 5, 8, 9]);
makespan = 392;
----------
assign = array1d(1..12 ,[4, 2, 3, 2, 3, 4, 3, 4, 1, 2, 3, 4]);
next = array1d(1..12 ,[6, 10, 11, 2, 7, 12, 3, 1, 4, 5, 8, 9]);
makespan = 391;
----------
assign = array1d(1..12 ,[4, 2, 3, 2, 3, 4, 3, 4, 1, 2, 3, 4]);
next = array1d(1..12 ,[6, 10, 11, 2, 7, 12, 3, 1, 4, 5, 8, 9]);
makespan = 384;
----------
assign = array1d(1..12 ,[4, 2, 3, 2, 3, 4, 3, 4, 1, 2, 3, 4]);
next = array1d(1..12 ,[6, 10, 11, 2, 7, 12, 3, 1, 4, 5, 8, 9]);
makespan = 373;
----------
assign = array1d(1..12 ,[4, 2, 3, 2, 3, 4, 3, 4, 1, 2, 3, 4]);
next = array1d(1..12 ,[6, 10, 11, 2, 7, 12, 3, 1, 4, 5, 8, 9]);
makespan = 319;
----------
assign = array1d(1..12 ,[4, 2, 3, 2, 3, 4, 3, 4, 1, 2, 3, 4]);
next = array1d(1..12 ,[6, 10, 5, 2, 7, 12, 11, 1, 4, 3, 8, 9]);
makespan = 317;
----------
assign = array1d(1..12 ,[4, 2, 3, 2, 3, 4, 3, 4, 1, 2, 3, 4]);
next = array1d(1..12 ,[6, 10, 5, 2, 7, 12, 11, 1, 4, 3, 8, 9]);
makespan = 310;
----------
assign = array1d(1..12 ,[4, 1, 3, 3, 2, 4, 2, 4, 1, 2, 3, 4]);
next = array1d(1..12 ,[6, 9, 4, 11, 7, 12, 10, 1, 5, 3, 8, 2]);
makespan = 295;
----------
assign = array1d(1..12 ,[2, 2, 4, 3, 3, 1, 4, 1, 1, 2, 3, 4]);
next = array1d(1..12 ,[2, 10, 12, 11, 4, 8, 3, 9, 1, 5, 7, 6]);
makespan = 280;
----------
assign = array1d(1..12 ,[3, 3, 1, 1, 4, 2, 4, 2, 1, 2, 3, 4]);
next = array1d(1..12 ,[2, 11, 4, 9, 7, 8, 12, 10, 6, 1, 5, 3]);
makespan = 277;
----------
assign = array1d(1..12 ,[3, 3, 1, 2, 2, 4, 1, 4, 1, 2, 3, 4]);
next = array1d(1..12 ,[2, 11, 9, 5, 10, 8, 3, 12, 4, 1, 6, 7]);
makespan = 262;
----------
assign = array1d(1..12 ,[3, 1, 4, 3, 1, 2, 4, 2, 1, 2, 3, 4]);
next = array1d(1..12 ,[4, 5, 12, 11, 9, 8, 3, 10, 6, 1, 7, 2]);
makespan = 258;
----------
assign = array1d(1..12 ,[1, 1, 4, 4, 2, 3, 2, 3, 1, 2, 3, 4]);
next = array1d(1..12 ,[2, 9, 4, 12, 7, 8, 10, 11, 5, 6, 3, 1]);
makespan = 252;
----------
assign = array1d(1..12 ,[4, 3, 2, 2, 4, 1, 3, 1, 1, 2, 3, 4]);
next = array1d(1..12 ,[12, 7, 4, 10, 1, 8, 11, 9, 3, 2, 5, 6]);
makespan = 251;
----------
assign = array1d(1..12 ,[4, 3, 1, 2, 4, 2, 1, 3, 1, 2, 3, 4]);
next = array1d(1..12 ,[5, 11, 7, 10, 12, 4, 9, 2, 6, 8, 1, 3]);
makespan = 250;
----------
assign = array1d(1..12 ,[4, 3, 2, 3, 4, 1, 2, 1, 1, 2, 3, 4]);
next = array1d(1..12 ,[5, 4, 7, 11, 12, 8, 10, 9, 3, 2, 1, 6]);
makespan = 249;
----------
assign = array1d(1..12 ,[4, 3, 2, 3, 4, 1, 2, 1, 1, 2, 3, 4]);
next = array1d(1..12 ,[5, 4, 7, 11, 12, 8, 10, 9, 3, 2, 1, 6]);
makespan = 246;
----------
assign = array1d(1..12 ,[4, 3, 2, 3, 4, 1, 2, 1, 1, 2, 3, 4]);
next = array1d(1..12 ,[5, 4, 7, 11, 12, 8, 10, 9, 3, 2, 1, 6]);
makespan = 245;
----------
assign = array1d(1..12 ,[4, 3, 2, 3, 4, 1, 2, 1, 1, 2, 3, 4]);
next = array1d(1..12 ,[5, 4, 7, 11, 12, 8, 10, 9, 3, 2, 1, 6]);
makespan = 242;
----------
assign = array1d(1..12 ,[4, 3, 2, 3, 4, 1, 2, 1, 1, 2, 3, 4]);
next = array1d(1..12 ,[5, 4, 7, 11, 12, 8, 10, 9, 3, 2, 1, 6]);
makespan = 240;
----------
assign = array1d(1..12 ,[4, 3, 2, 3, 4, 1, 2, 1, 1, 2, 3, 4]);
next = array1d(1..12 ,[5, 4, 7, 11, 12, 8, 10, 9, 3, 2, 1, 6]);
makespan = 239;
----------
assign = array1d(1..12 ,[4, 3, 2, 3, 4, 1, 2, 1, 1, 2, 3, 4]);
next = array1d(1..12 ,[5, 4, 7, 11, 12, 8, 10, 9, 3, 2, 1, 6]);
makespan = 238;
----------
assign = array1d(1..12 ,[4, 3, 2, 3, 4, 1, 2, 1, 1, 2, 3, 4]);
next = array1d(1..12 ,[5, 4, 7, 11, 12, 8, 10, 9, 3, 2, 1, 6]);
makespan = 237;
----------
assign = array1d(1..12 ,[4, 3, 2, 3, 4, 1, 2, 1, 1, 2, 3, 4]);
next = array1d(1..12 ,[5, 4, 7, 11, 12, 8, 10, 9, 3, 2, 1, 6]);
makespan = 235;
----------
assign = array1d(1..12 ,[4, 3, 2, 3, 4, 1, 2, 1, 1, 2, 3, 4]);
next = array1d(1..12 ,[5, 4, 7, 11, 12, 8, 10, 9, 3, 2, 1, 6]);
makespan = 234;
----------
assign = array1d(1..12 ,[4, 3, 2, 3, 4, 1, 2, 1, 1, 2, 3, 4]);
next = array1d(1..12 ,[5, 4, 7, 11, 12, 8, 10, 9, 3, 2, 1, 6]);
makespan = 233;
----------
assign = array1d(1..12 ,[4, 3, 2, 3, 4, 1, 2, 1, 1, 2, 3, 4]);
next = array1d(1..12 ,[5, 4, 7, 11, 12, 8, 10, 9, 3, 2, 1, 6]);
makespan = 232;
----------
assign = array1d(1..12 ,[4, 3, 2, 3, 4, 1, 2, 1, 1, 2, 3, 4]);
next = array1d(1..12 ,[5, 4, 7, 11, 12, 8, 10, 9, 3, 2, 1, 6]);
makespan = 231;
----------
assign = array1d(1..12 ,[4, 3, 2, 3, 4, 1, 2, 1, 1, 2, 3, 4]);
next = array1d(1..12 ,[5, 4, 7, 11, 12, 8, 10, 9, 3, 2, 1, 6]);
makespan = 230;
----------
assign = array1d(1..12 ,[4, 3, 2, 3, 4, 1, 2, 1, 1, 2, 3, 4]);
next = array1d(1..12 ,[5, 4, 7, 11, 12, 8, 10, 9, 3, 2, 1, 6]);
makespan = 228;
----------
assign = array1d(1..12 ,[4, 3, 2, 3, 4, 1, 2, 1, 1, 2, 3, 4]);
next = array1d(1..12 ,[5, 4, 7, 11, 12, 8, 10, 9, 3, 2, 1, 6]);
makespan = 227;
----------
assign = array1d(1..12 ,[4, 3, 2, 3, 4, 1, 2, 1, 1, 2, 3, 4]);
next = array1d(1..12 ,[5, 4, 7, 11, 12, 8, 10, 9, 3, 2, 1, 6]);
makespan = 226;
----------
assign = array1d(1..12 ,[4, 3, 2, 3, 4, 1, 2, 1, 1, 2, 3, 4]);
next = array1d(1..12 ,[5, 4, 7, 11, 12, 8, 10, 9, 3, 2, 1, 6]);
makespan = 222;
----------
assign = array1d(1..12 ,[4, 3, 2, 3, 4, 1, 2, 1, 1, 2, 3, 4]);
next = array1d(1..12 ,[5, 4, 7, 11, 12, 8, 10, 9, 3, 2, 1, 6]);
makespan = 221;
----------
assign = array1d(1..12 ,[4, 3, 2, 3, 4, 1, 2, 1, 1, 2, 3, 4]);
next = array1d(1..12 ,[5, 4, 7, 11, 12, 8, 10, 9, 3, 2, 1, 6]);
makespan = 220;
----------
assign = array1d(1..12 ,[4, 3, 2, 3, 4, 1, 2, 1, 1, 2, 3, 4]);
next = array1d(1..12 ,[5, 4, 7, 11, 12, 8, 10, 9, 3, 2, 1, 6]);
makespan = 219;
----------
assign = array1d(1..12 ,[4, 3, 2, 3, 4, 1, 2, 1, 1, 2, 3, 4]);
next = array1d(1..12 ,[5, 11, 7, 2, 12, 8, 10, 9, 3, 4, 1, 6]);
makespan = 218;
----------
assign = array1d(1..12 ,[4, 2, 1, 3, 4, 3, 1, 2, 1, 2, 3, 4]);
next = array1d(1..12 ,[5, 10, 7, 11, 12, 4, 9, 2, 8, 6, 1, 3]);
makespan = 217;
----------
assign = array1d(1..12 ,[3, 1, 2, 1, 2, 4, 3, 4, 1, 2, 3, 4]);
next = array1d(1..12 ,[7, 4, 5, 9, 10, 8, 11, 12, 3, 1, 6, 2]);
makespan = 216;
----------
assign = array1d(1..12 ,[1, 2, 4, 3, 1, 4, 3, 2, 1, 2, 3, 4]);
next = array1d(1..12 ,[9, 10, 12, 7, 1, 3, 11, 2, 8, 4, 6, 5]);
makespan = 215;
----------
assign = array1d(1..12 ,[3, 1, 2, 1, 2, 4, 3, 4, 1, 2, 3, 4]);
next = array1d(1..12 ,[7, 4, 5, 9, 10, 12, 11, 6, 3, 1, 8, 2]);
makespan = 214;
----------
assign = array1d(1..12 ,[4, 1, 2, 1, 4, 2, 3, 3, 1, 2, 3, 4]);
next = array1d(1..12 ,[5, 4, 6, 9, 12, 10, 8, 11, 3, 7, 1, 2]);
makespan = 213;
----------
assign = array1d(1..12 ,[4, 1, 2, 1, 4, 2, 3, 3, 1, 2, 3, 4]);
next = array1d(1..12 ,[5, 4, 6, 9, 12, 10, 8, 11, 3, 7, 1, 2]);
makespan = 212;
----------
assign = array1d(1..12 ,[1, 1, 2, 2, 4, 4, 3, 3, 1, 2, 3, 4]);
next = array1d(1..12 ,[2, 9, 4, 10, 12, 5, 8, 11, 3, 7, 6, 1]);
makespan = 211;
----------
assign = array1d(1..12 ,[3, 2, 2, 3, 4, 4, 1, 1, 1, 2, 3, 4]);
next = array1d(1..12 ,[11, 3, 10, 1, 12, 5, 8, 9, 2, 4, 6, 7]);
makespan = 210;
----------
assign = array1d(1..12 ,[4, 3, 2, 2, 3, 4, 1, 1, 1, 2, 3, 4]);
next = array1d(1..12 ,[6, 5, 10, 3, 11, 12, 8, 9, 4, 2, 1, 7]);
makespan = 209;
----------
assign = array1d(1..12 ,[1, 1, 2, 4, 2, 4, 3, 3, 1, 2, 3, 4]);
next = array1d(1..12 ,[2, 9, 5, 12, 10, 4, 8, 11, 3, 7, 6, 1]);
makespan = 208;
----------
assign = array1d(1..12 ,[4, 2, 3, 1, 2, 4, 1, 3, 1, 2, 3, 4]);
next = array1d(1..12 ,[6, 10, 11, 9, 2, 12, 4, 3, 5, 8, 1, 7]);
makespan = 207;
----------
assign = array1d(1..12 ,[4, 2, 2, 3, 3, 4, 1, 1, 1, 2, 3, 4]);
next = array1d(1..12 ,[6, 3, 10, 11, 4, 12, 8, 9, 2, 5, 1, 7]);
makespan = 206;
----------
assign = array1d(1..12 ,[4, 3, 2, 2, 3, 1, 1, 4, 1, 2, 3, 4]);
next = array1d(1..12 ,[12, 5, 4, 10, 11, 7, 9, 1, 3, 2, 8, 6]);
makespan = 205;
----------
assign = array1d(1..12 ,[1, 3, 2, 4, 3, 4, 1, 2, 1, 2, 3, 4]);
next = array1d(1..12 ,[7, 5, 8, 12, 11, 4, 9, 10, 3, 2, 6, 1]);
makespan = 204;
----------
assign = array1d(1..12 ,[4, 3, 2, 2, 3, 4, 1, 1, 1, 2, 3, 4]);
next = array1d(1..12 ,[6, 5, 10, 3, 11, 12, 8, 9, 4, 2, 1, 7]);
makespan = 203;
----------
assign = array1d(1..12 ,[4, 2, 3, 3, 2, 1, 1, 4, 1, 2, 3, 4]);
next = array1d(1..12 ,[12, 5, 4, 11, 10, 7, 9, 1, 2, 3, 8, 6]);
makespan = 202;
----------
assign = array1d(1..12 ,[4, 3, 2, 1, 3, 2, 1, 4, 1, 2, 3, 4]);
next = array1d(1..12 ,[12, 5, 6, 7, 11, 10, 9, 1, 3, 2, 8, 4]);
makespan = 201;
----------
assign = array1d(1..12 ,[4, 1, 2, 1, 2, 4, 3, 3, 1, 2, 3, 4]);
next = array1d(1..12 ,[6, 4, 10, 9, 3, 12, 8, 11, 5, 7, 1, 2]);
makespan = 200;
----------
assign = array1d(1..12 ,[4, 2, 3, 1, 2, 4, 1, 3, 1, 2, 3, 4]);
next = array1d(1..12 ,[6, 5, 11, 7, 10, 12, 9, 3, 2, 8, 1, 4]);
makespan = 199;
----------
assign = array1d(1..12 ,[4, 3, 2, 1, 3, 4, 1, 2, 1, 2, 3, 4]);
next = array1d(1..12 ,[6, 5, 8, 7, 11, 12, 9, 10, 3, 2, 1, 4]);
makespan = 198;
----------
assign = array1d(1..12 ,[1, 2, 4, 3, 2, 4, 1, 3, 1, 2, 3, 4]);
next = array1d(1..12 ,[7, 5, 12, 8, 10, 3, 9, 11, 2, 4, 6, 1]);
makespan = 197;
----------
assign = array1d(1..12 ,[1, 1, 2, 4, 3, 4, 3, 2, 1, 2, 3, 4]);
next = array1d(1..12 ,[2, 9, 8, 12, 7, 4, 11, 10, 3, 5, 6, 1]);
makespan = 196;
----------
assign = array1d(1..12 ,[4, 1, 2, 3, 2, 1, 3, 4, 1, 2, 3, 4]);
next = array1d(1..12 ,[12, 9, 5, 7, 10, 2, 11, 1, 3, 4, 8, 6]);
makespan = 195;
----------
assign = array1d(1..12 ,[1, 1, 2, 4, 3, 4, 3, 2, 1, 2, 3, 4]);
next = array1d(1..12 ,[2, 9, 8, 12, 7, 4, 11, 10, 3, 5, 6, 1]);
makespan = 194;
----------
assign = array1d(1..12 ,[1, 1, 2, 4, 3, 4, 3, 2, 1, 2, 3, 4]);
next = array1d(1..12 ,[2, 9, 8, 12, 7, 4, 11, 10, 3, 5, 6, 1]);
makespan = 193;
----------
assign = array1d(1..12 ,[1, 1, 2, 4, 3, 4, 3, 2, 1, 2, 3, 4]);
next = array1d(1..12 ,[2, 9, 8, 12, 7, 4, 11, 10, 3, 5, 6, 1]);
makespan = 192;
----------
assign = array1d(1..12 ,[1, 1, 2, 4, 3, 4, 3, 2, 1, 2, 3, 4]);
next = array1d(1..12 ,[2, 9, 8, 12, 7, 4, 11, 10, 3, 5, 6, 1]);
makespan = 191;
----------
assign = array1d(1..12 ,[1, 1, 2, 4, 2, 4, 3, 3, 1, 2, 3, 4]);
next = array1d(1..12 ,[2, 9, 5, 12, 10, 4, 8, 11, 3, 7, 6, 1]);
makespan = 190;
----------
assign = array1d(1..12 ,[1, 1, 2, 4, 2, 4, 3, 3, 1, 2, 3, 4]);
next = array1d(1..12 ,[2, 9, 5, 12, 10, 4, 8, 11, 3, 7, 6, 1]);
makespan = 189;
----------
assign = array1d(1..12 ,[1, 1, 2, 4, 2, 4, 3, 3, 1, 2, 3, 4]);
next = array1d(1..12 ,[2, 9, 5, 12, 10, 4, 8, 11, 3, 7, 6, 1]);
makespan = 188;
----------
assign = array1d(1..12 ,[1, 1, 2, 4, 2, 4, 3, 3, 1, 2, 3, 4]);
next = array1d(1..12 ,[2, 9, 5, 12, 10, 4, 8, 11, 3, 7, 6, 1]);
makespan = 187;
----------
assign = array1d(1..12 ,[1, 1, 2, 4, 2, 4, 3, 3, 1, 2, 3, 4]);
next = array1d(1..12 ,[2, 9, 5, 12, 10, 4, 8, 11, 3, 7, 6, 1]);
makespan = 186;
----------
assign = array1d(1..12 ,[1, 1, 2, 4, 2, 4, 3, 3, 1, 2, 3, 4]);
next = array1d(1..12 ,[2, 9, 5, 12, 10, 4, 8, 11, 3, 7, 6, 1]);
makespan = 185;
----------
assign = array1d(1..12 ,[1, 1, 2, 4, 2, 4, 3, 3, 1, 2, 3, 4]);
next = array1d(1..12 ,[2, 9, 5, 12, 10, 4, 8, 11, 3, 7, 6, 1]);
makespan = 182;
----------
assign = array1d(1..12 ,[1, 1, 2, 4, 2, 4, 3, 3, 1, 2, 3, 4]);
next = array1d(1..12 ,[2, 9, 5, 12, 10, 4, 8, 11, 3, 7, 6, 1]);
makespan = 181;
----------
assign = array1d(1..12 ,[1, 1, 2, 4, 2, 4, 3, 3, 1, 2, 3, 4]);
next = array1d(1..12 ,[2, 9, 5, 12, 10, 4, 8, 11, 3, 7, 6, 1]);
makespan = 180;
----------
==========
	Command being timed: "mzn-chuffed lbbd-datasets/Rabadi-2006/dzn-balanced/model.mzn lbbd-datasets/Rabadi-2006/dzn-balanced/8on4Rp50Rs50_4Ameer.dzn"
	User time (seconds): 0.49
	System time (seconds): 0.02
	Percent of CPU this job got: 7%
	Elapsed (wall clock) time (h:mm:ss or m:ss): 0:06.93
	Average shared text size (kbytes): 0
	Average unshared data size (kbytes): 0
	Average stack size (kbytes): 0
	Average total size (kbytes): 0
	Maximum resident set size (kbytes): 35984
	Average resident set size (kbytes): 0
	Major (requiring I/O) page faults: 0
	Minor (reclaiming a frame) page faults: 3366
	Voluntary context switches: 275
	Involuntary context switches: 5
	Swaps: 0
	File system inputs: 0
	File system outputs: 352
	Socket messages sent: 0
	Socket messages received: 0
	Signals delivered: 0
	Page size (bytes): 4096
	Exit status: 0
