+ /usr/bin/timeout 600 /usr/bin/time -v mzn-chuffed lbbd-datasets/Rabadi-2006/dzn-s-dominant/model.mzn lbbd-datasets/Rabadi-2006/dzn-s-dominant/8on2Rp50Rs50_5Ameer.dzn
% No search annotation given. Defaulting to VSIDS!
assign = array1d(1..10 ,[2, 2, 2, 2, 2, 2, 2, 2, 1, 2]);
next = array1d(1..10 ,[2, 3, 4, 5, 6, 7, 8, 10, 1, 9]);
makespan = 1666;
----------
assign = array1d(1..10 ,[2, 2, 2, 2, 2, 2, 2, 2, 1, 2]);
next = array1d(1..10 ,[2, 4, 5, 3, 6, 7, 8, 10, 1, 9]);
makespan = 1646;
----------
assign = array1d(1..10 ,[1, 2, 2, 2, 2, 2, 2, 2, 1, 2]);
next = array1d(1..10 ,[9, 7, 6, 2, 3, 8, 5, 10, 4, 1]);
makespan = 1611;
----------
assign = array1d(1..10 ,[1, 2, 2, 2, 2, 2, 2, 2, 1, 2]);
next = array1d(1..10 ,[9, 7, 6, 2, 3, 8, 5, 10, 4, 1]);
makespan = 1601;
----------
assign = array1d(1..10 ,[1, 2, 2, 2, 2, 2, 2, 2, 1, 2]);
next = array1d(1..10 ,[9, 7, 6, 2, 3, 8, 5, 10, 4, 1]);
makespan = 1590;
----------
assign = array1d(1..10 ,[1, 2, 2, 2, 2, 2, 2, 2, 1, 2]);
next = array1d(1..10 ,[9, 7, 6, 2, 3, 8, 5, 10, 4, 1]);
makespan = 1580;
----------
assign = array1d(1..10 ,[1, 2, 2, 2, 2, 2, 2, 2, 1, 2]);
next = array1d(1..10 ,[9, 7, 6, 2, 3, 8, 5, 10, 4, 1]);
makespan = 1574;
----------
assign = array1d(1..10 ,[1, 2, 2, 2, 2, 2, 2, 2, 1, 2]);
next = array1d(1..10 ,[9, 7, 6, 2, 3, 8, 5, 10, 4, 1]);
makespan = 1572;
----------
assign = array1d(1..10 ,[1, 2, 2, 2, 2, 2, 2, 2, 1, 2]);
next = array1d(1..10 ,[9, 7, 6, 2, 3, 8, 5, 10, 4, 1]);
makespan = 1569;
----------
assign = array1d(1..10 ,[1, 2, 2, 2, 2, 2, 2, 2, 1, 2]);
next = array1d(1..10 ,[9, 7, 6, 2, 3, 8, 5, 10, 4, 1]);
makespan = 1546;
----------
assign = array1d(1..10 ,[1, 2, 2, 2, 2, 2, 2, 2, 1, 2]);
next = array1d(1..10 ,[9, 7, 6, 2, 3, 8, 5, 10, 4, 1]);
makespan = 1536;
----------
assign = array1d(1..10 ,[1, 2, 2, 2, 2, 2, 2, 2, 1, 2]);
next = array1d(1..10 ,[9, 7, 6, 2, 3, 8, 5, 10, 4, 1]);
makespan = 1535;
----------
assign = array1d(1..10 ,[1, 2, 2, 2, 2, 2, 2, 2, 1, 2]);
next = array1d(1..10 ,[9, 7, 6, 2, 3, 8, 5, 10, 4, 1]);
makespan = 1525;
----------
assign = array1d(1..10 ,[1, 2, 2, 2, 2, 2, 2, 2, 1, 2]);
next = array1d(1..10 ,[9, 7, 6, 2, 3, 8, 5, 10, 4, 1]);
makespan = 1522;
----------
assign = array1d(1..10 ,[1, 2, 2, 2, 2, 2, 2, 2, 1, 2]);
next = array1d(1..10 ,[9, 7, 10, 2, 3, 8, 5, 4, 6, 1]);
makespan = 1519;
----------
assign = array1d(1..10 ,[1, 2, 2, 2, 2, 2, 2, 2, 1, 2]);
next = array1d(1..10 ,[9, 7, 10, 2, 3, 8, 5, 4, 6, 1]);
makespan = 1518;
----------
assign = array1d(1..10 ,[1, 2, 2, 2, 2, 2, 2, 2, 1, 2]);
next = array1d(1..10 ,[9, 10, 4, 2, 3, 8, 5, 7, 6, 1]);
makespan = 1517;
----------
assign = array1d(1..10 ,[1, 2, 2, 2, 2, 2, 2, 2, 1, 2]);
next = array1d(1..10 ,[9, 10, 4, 2, 3, 8, 5, 7, 6, 1]);
makespan = 1515;
----------
assign = array1d(1..10 ,[1, 2, 2, 2, 2, 2, 2, 2, 1, 2]);
next = array1d(1..10 ,[9, 10, 4, 2, 3, 8, 5, 7, 6, 1]);
makespan = 1514;
----------
assign = array1d(1..10 ,[1, 2, 2, 2, 2, 2, 2, 2, 1, 2]);
next = array1d(1..10 ,[9, 10, 4, 2, 3, 8, 5, 7, 6, 1]);
makespan = 1509;
----------
assign = array1d(1..10 ,[1, 2, 2, 2, 2, 2, 2, 2, 1, 2]);
next = array1d(1..10 ,[9, 10, 4, 2, 3, 8, 5, 7, 6, 1]);
makespan = 1507;
----------
assign = array1d(1..10 ,[1, 2, 2, 2, 2, 2, 2, 2, 1, 2]);
next = array1d(1..10 ,[9, 10, 4, 2, 3, 8, 5, 7, 6, 1]);
makespan = 1504;
----------
assign = array1d(1..10 ,[1, 2, 2, 2, 2, 2, 2, 2, 1, 2]);
next = array1d(1..10 ,[9, 10, 4, 2, 3, 8, 5, 7, 6, 1]);
makespan = 1498;
----------
assign = array1d(1..10 ,[1, 2, 2, 2, 2, 2, 2, 2, 1, 2]);
next = array1d(1..10 ,[9, 10, 4, 2, 3, 8, 5, 7, 6, 1]);
makespan = 1496;
----------
assign = array1d(1..10 ,[1, 2, 2, 2, 2, 2, 2, 2, 1, 2]);
next = array1d(1..10 ,[9, 10, 4, 2, 3, 8, 5, 7, 6, 1]);
makespan = 1493;
----------
assign = array1d(1..10 ,[1, 2, 2, 2, 2, 2, 2, 2, 1, 2]);
next = array1d(1..10 ,[9, 10, 4, 2, 3, 8, 5, 7, 6, 1]);
makespan = 1489;
----------
assign = array1d(1..10 ,[1, 1, 2, 2, 2, 2, 2, 2, 1, 2]);
next = array1d(1..10 ,[9, 1, 6, 10, 3, 8, 5, 4, 7, 2]);
makespan = 1488;
----------
assign = array1d(1..10 ,[1, 1, 2, 2, 2, 2, 2, 2, 1, 2]);
next = array1d(1..10 ,[9, 1, 6, 10, 3, 8, 5, 4, 7, 2]);
makespan = 1486;
----------
assign = array1d(1..10 ,[1, 1, 2, 2, 2, 2, 2, 2, 1, 2]);
next = array1d(1..10 ,[9, 1, 6, 10, 3, 8, 5, 4, 7, 2]);
makespan = 1483;
----------
assign = array1d(1..10 ,[1, 1, 2, 2, 2, 2, 2, 2, 1, 2]);
next = array1d(1..10 ,[9, 1, 6, 10, 3, 8, 5, 4, 7, 2]);
makespan = 1481;
----------
assign = array1d(1..10 ,[1, 1, 2, 2, 2, 2, 2, 2, 1, 2]);
next = array1d(1..10 ,[9, 1, 6, 10, 3, 8, 5, 4, 7, 2]);
makespan = 1480;
----------
assign = array1d(1..10 ,[1, 1, 2, 2, 2, 2, 2, 2, 1, 2]);
next = array1d(1..10 ,[9, 1, 6, 10, 3, 8, 5, 4, 7, 2]);
makespan = 1477;
----------
assign = array1d(1..10 ,[1, 1, 2, 2, 2, 2, 2, 2, 1, 2]);
next = array1d(1..10 ,[9, 1, 6, 10, 3, 8, 5, 4, 7, 2]);
makespan = 1475;
----------
assign = array1d(1..10 ,[1, 1, 2, 2, 2, 2, 2, 2, 1, 2]);
next = array1d(1..10 ,[9, 1, 6, 10, 3, 8, 5, 4, 7, 2]);
makespan = 1470;
----------
assign = array1d(1..10 ,[1, 1, 2, 2, 2, 2, 2, 2, 1, 2]);
next = array1d(1..10 ,[9, 1, 6, 10, 3, 8, 5, 4, 7, 2]);
makespan = 1460;
----------
assign = array1d(1..10 ,[1, 1, 2, 2, 2, 2, 2, 2, 1, 2]);
next = array1d(1..10 ,[9, 1, 6, 10, 3, 8, 5, 4, 7, 2]);
makespan = 1454;
----------
assign = array1d(1..10 ,[1, 1, 2, 2, 2, 2, 2, 2, 1, 2]);
next = array1d(1..10 ,[9, 1, 6, 10, 3, 8, 5, 4, 7, 2]);
makespan = 1452;
----------
assign = array1d(1..10 ,[1, 1, 2, 2, 2, 2, 2, 2, 1, 2]);
next = array1d(1..10 ,[9, 1, 6, 10, 3, 8, 5, 4, 7, 2]);
makespan = 1450;
----------
assign = array1d(1..10 ,[1, 1, 2, 2, 2, 2, 2, 2, 1, 2]);
next = array1d(1..10 ,[9, 1, 6, 10, 3, 8, 5, 4, 7, 2]);
makespan = 1449;
----------
assign = array1d(1..10 ,[1, 1, 2, 2, 2, 2, 2, 2, 1, 2]);
next = array1d(1..10 ,[9, 1, 6, 10, 3, 8, 5, 4, 7, 2]);
makespan = 1444;
----------
assign = array1d(1..10 ,[1, 1, 2, 2, 2, 2, 2, 2, 1, 2]);
next = array1d(1..10 ,[9, 1, 6, 10, 3, 8, 5, 4, 7, 2]);
makespan = 1443;
----------
assign = array1d(1..10 ,[1, 1, 2, 2, 2, 2, 2, 2, 1, 2]);
next = array1d(1..10 ,[9, 1, 6, 10, 3, 8, 5, 4, 7, 2]);
makespan = 1442;
----------
assign = array1d(1..10 ,[1, 1, 2, 2, 2, 2, 2, 2, 1, 2]);
next = array1d(1..10 ,[9, 1, 6, 10, 3, 8, 5, 4, 7, 2]);
makespan = 1441;
----------
assign = array1d(1..10 ,[1, 1, 2, 2, 2, 2, 2, 2, 1, 2]);
next = array1d(1..10 ,[9, 1, 6, 10, 3, 8, 5, 4, 7, 2]);
makespan = 1439;
----------
assign = array1d(1..10 ,[1, 1, 2, 2, 2, 2, 2, 2, 1, 2]);
next = array1d(1..10 ,[9, 1, 6, 10, 3, 8, 5, 4, 7, 2]);
makespan = 1438;
----------
assign = array1d(1..10 ,[1, 1, 2, 2, 2, 2, 2, 2, 1, 2]);
next = array1d(1..10 ,[9, 1, 6, 10, 3, 8, 5, 4, 7, 2]);
makespan = 1433;
----------
assign = array1d(1..10 ,[1, 1, 2, 2, 2, 2, 2, 2, 1, 2]);
next = array1d(1..10 ,[9, 1, 6, 10, 3, 8, 5, 4, 7, 2]);
makespan = 1431;
----------
assign = array1d(1..10 ,[1, 1, 2, 2, 2, 2, 2, 2, 1, 2]);
next = array1d(1..10 ,[9, 1, 6, 10, 3, 8, 5, 4, 7, 2]);
makespan = 1428;
----------
assign = array1d(1..10 ,[1, 1, 2, 2, 2, 2, 2, 2, 1, 2]);
next = array1d(1..10 ,[9, 1, 6, 10, 3, 8, 5, 4, 7, 2]);
makespan = 1425;
----------
assign = array1d(1..10 ,[1, 1, 2, 2, 2, 2, 2, 2, 1, 2]);
next = array1d(1..10 ,[9, 1, 6, 10, 3, 8, 5, 4, 7, 2]);
makespan = 1423;
----------
assign = array1d(1..10 ,[1, 1, 2, 2, 2, 2, 2, 2, 1, 2]);
next = array1d(1..10 ,[9, 1, 6, 10, 3, 8, 5, 4, 7, 2]);
makespan = 1422;
----------
assign = array1d(1..10 ,[1, 1, 2, 2, 2, 2, 2, 2, 1, 2]);
next = array1d(1..10 ,[9, 1, 6, 10, 3, 8, 5, 4, 7, 2]);
makespan = 1421;
----------
assign = array1d(1..10 ,[1, 1, 2, 2, 2, 2, 2, 2, 1, 2]);
next = array1d(1..10 ,[9, 1, 6, 10, 3, 8, 5, 4, 7, 2]);
makespan = 1420;
----------
assign = array1d(1..10 ,[1, 1, 2, 2, 2, 2, 2, 2, 1, 2]);
next = array1d(1..10 ,[9, 1, 6, 10, 3, 8, 5, 4, 7, 2]);
makespan = 1418;
----------
assign = array1d(1..10 ,[1, 1, 2, 2, 2, 2, 2, 2, 1, 2]);
next = array1d(1..10 ,[9, 1, 6, 10, 3, 8, 5, 4, 7, 2]);
makespan = 1415;
----------
assign = array1d(1..10 ,[1, 1, 2, 2, 2, 2, 2, 2, 1, 2]);
next = array1d(1..10 ,[9, 1, 6, 10, 3, 8, 5, 4, 7, 2]);
makespan = 1412;
----------
assign = array1d(1..10 ,[1, 1, 2, 2, 2, 2, 2, 2, 1, 2]);
next = array1d(1..10 ,[9, 1, 6, 10, 3, 8, 5, 4, 7, 2]);
makespan = 1410;
----------
assign = array1d(1..10 ,[1, 1, 2, 2, 2, 2, 2, 2, 1, 2]);
next = array1d(1..10 ,[9, 1, 6, 10, 3, 8, 5, 4, 7, 2]);
makespan = 1407;
----------
assign = array1d(1..10 ,[1, 1, 2, 2, 2, 2, 2, 2, 1, 2]);
next = array1d(1..10 ,[9, 1, 6, 10, 3, 8, 5, 4, 7, 2]);
makespan = 1405;
----------
assign = array1d(1..10 ,[1, 1, 2, 2, 2, 2, 2, 2, 1, 2]);
next = array1d(1..10 ,[9, 1, 6, 10, 3, 8, 5, 4, 7, 2]);
makespan = 1404;
----------
assign = array1d(1..10 ,[1, 1, 2, 2, 2, 2, 2, 2, 1, 2]);
next = array1d(1..10 ,[9, 1, 6, 10, 3, 8, 5, 4, 7, 2]);
makespan = 1401;
----------
assign = array1d(1..10 ,[1, 1, 2, 2, 2, 2, 2, 2, 1, 2]);
next = array1d(1..10 ,[9, 1, 6, 10, 3, 8, 5, 4, 7, 2]);
makespan = 1399;
----------
assign = array1d(1..10 ,[1, 1, 2, 2, 2, 2, 2, 2, 1, 2]);
next = array1d(1..10 ,[9, 1, 6, 10, 3, 8, 5, 4, 7, 2]);
makespan = 1395;
----------
assign = array1d(1..10 ,[1, 1, 2, 2, 2, 2, 2, 2, 1, 2]);
next = array1d(1..10 ,[9, 1, 6, 10, 3, 8, 5, 4, 7, 2]);
makespan = 1394;
----------
assign = array1d(1..10 ,[1, 1, 2, 2, 2, 2, 2, 2, 1, 2]);
next = array1d(1..10 ,[9, 1, 6, 10, 3, 8, 5, 4, 7, 2]);
makespan = 1391;
----------
assign = array1d(1..10 ,[1, 1, 2, 2, 2, 2, 2, 2, 1, 2]);
next = array1d(1..10 ,[9, 1, 6, 10, 3, 8, 5, 4, 7, 2]);
makespan = 1389;
----------
assign = array1d(1..10 ,[1, 1, 2, 2, 2, 2, 2, 2, 1, 2]);
next = array1d(1..10 ,[9, 1, 6, 10, 3, 8, 5, 4, 7, 2]);
makespan = 1387;
----------
assign = array1d(1..10 ,[1, 1, 2, 2, 2, 2, 2, 2, 1, 2]);
next = array1d(1..10 ,[9, 1, 6, 10, 3, 8, 5, 4, 7, 2]);
makespan = 1384;
----------
assign = array1d(1..10 ,[1, 1, 2, 2, 2, 2, 2, 2, 1, 2]);
next = array1d(1..10 ,[9, 1, 6, 10, 3, 8, 5, 4, 7, 2]);
makespan = 1383;
----------
assign = array1d(1..10 ,[1, 1, 2, 2, 2, 2, 2, 2, 1, 2]);
next = array1d(1..10 ,[9, 1, 6, 10, 3, 8, 5, 4, 7, 2]);
makespan = 1380;
----------
assign = array1d(1..10 ,[1, 1, 2, 2, 2, 2, 2, 2, 1, 2]);
next = array1d(1..10 ,[9, 1, 6, 10, 3, 8, 5, 4, 7, 2]);
makespan = 1378;
----------
assign = array1d(1..10 ,[1, 1, 2, 2, 2, 2, 2, 2, 1, 2]);
next = array1d(1..10 ,[9, 1, 6, 10, 3, 8, 5, 4, 7, 2]);
makespan = 1376;
----------
assign = array1d(1..10 ,[1, 1, 2, 2, 2, 2, 2, 2, 1, 2]);
next = array1d(1..10 ,[9, 1, 6, 10, 3, 8, 5, 4, 7, 2]);
makespan = 1374;
----------
assign = array1d(1..10 ,[1, 1, 2, 2, 2, 2, 2, 2, 1, 2]);
next = array1d(1..10 ,[9, 1, 6, 10, 3, 8, 5, 4, 7, 2]);
makespan = 1373;
----------
assign = array1d(1..10 ,[1, 1, 2, 2, 2, 2, 2, 2, 1, 2]);
next = array1d(1..10 ,[9, 1, 6, 10, 3, 8, 5, 4, 7, 2]);
makespan = 1368;
----------
assign = array1d(1..10 ,[1, 1, 2, 2, 2, 2, 2, 2, 1, 2]);
next = array1d(1..10 ,[9, 1, 6, 10, 3, 8, 5, 4, 7, 2]);
makespan = 1366;
----------
assign = array1d(1..10 ,[1, 1, 2, 2, 2, 2, 2, 2, 1, 2]);
next = array1d(1..10 ,[9, 1, 6, 10, 3, 8, 5, 4, 7, 2]);
makespan = 1363;
----------
assign = array1d(1..10 ,[1, 1, 2, 2, 2, 2, 2, 2, 1, 2]);
next = array1d(1..10 ,[9, 1, 6, 10, 3, 8, 5, 4, 7, 2]);
makespan = 1362;
----------
assign = array1d(1..10 ,[1, 1, 2, 2, 2, 2, 2, 2, 1, 2]);
next = array1d(1..10 ,[9, 1, 6, 10, 3, 8, 5, 4, 7, 2]);
makespan = 1360;
----------
assign = array1d(1..10 ,[1, 1, 2, 2, 2, 2, 2, 2, 1, 2]);
next = array1d(1..10 ,[9, 1, 6, 10, 3, 8, 5, 4, 7, 2]);
makespan = 1358;
----------
assign = array1d(1..10 ,[1, 1, 2, 2, 2, 2, 2, 2, 1, 2]);
next = array1d(1..10 ,[9, 1, 6, 10, 3, 8, 5, 4, 7, 2]);
makespan = 1357;
----------
assign = array1d(1..10 ,[1, 1, 2, 2, 2, 2, 2, 2, 1, 2]);
next = array1d(1..10 ,[9, 1, 6, 10, 3, 8, 5, 4, 7, 2]);
makespan = 1356;
----------
assign = array1d(1..10 ,[1, 1, 2, 2, 2, 2, 2, 2, 1, 2]);
next = array1d(1..10 ,[9, 1, 6, 10, 3, 8, 5, 4, 7, 2]);
makespan = 1355;
----------
assign = array1d(1..10 ,[1, 1, 2, 2, 2, 2, 2, 2, 1, 2]);
next = array1d(1..10 ,[9, 1, 6, 10, 3, 8, 5, 4, 7, 2]);
makespan = 1353;
----------
assign = array1d(1..10 ,[1, 1, 2, 2, 2, 2, 2, 2, 1, 2]);
next = array1d(1..10 ,[9, 1, 6, 10, 3, 8, 5, 4, 7, 2]);
makespan = 1352;
----------
assign = array1d(1..10 ,[1, 1, 2, 2, 2, 2, 2, 2, 1, 2]);
next = array1d(1..10 ,[9, 1, 6, 10, 3, 8, 5, 4, 7, 2]);
makespan = 1350;
----------
assign = array1d(1..10 ,[1, 1, 2, 2, 2, 2, 2, 2, 1, 2]);
next = array1d(1..10 ,[9, 1, 6, 10, 3, 8, 5, 4, 7, 2]);
makespan = 1349;
----------
assign = array1d(1..10 ,[1, 1, 2, 2, 2, 2, 2, 2, 1, 2]);
next = array1d(1..10 ,[9, 1, 6, 10, 3, 8, 5, 4, 7, 2]);
makespan = 1347;
----------
assign = array1d(1..10 ,[1, 1, 2, 2, 2, 2, 2, 2, 1, 2]);
next = array1d(1..10 ,[9, 1, 6, 10, 3, 8, 5, 4, 7, 2]);
makespan = 1346;
----------
assign = array1d(1..10 ,[1, 1, 2, 2, 2, 2, 2, 2, 1, 2]);
next = array1d(1..10 ,[9, 1, 6, 10, 3, 8, 5, 4, 7, 2]);
makespan = 1345;
----------
assign = array1d(1..10 ,[1, 1, 2, 2, 2, 2, 2, 2, 1, 2]);
next = array1d(1..10 ,[9, 1, 6, 10, 3, 8, 5, 4, 7, 2]);
makespan = 1344;
----------
assign = array1d(1..10 ,[1, 1, 2, 2, 2, 2, 2, 2, 1, 2]);
next = array1d(1..10 ,[9, 1, 6, 10, 3, 8, 5, 4, 7, 2]);
makespan = 1342;
----------
assign = array1d(1..10 ,[1, 1, 2, 2, 2, 2, 2, 2, 1, 2]);
next = array1d(1..10 ,[9, 1, 6, 10, 3, 8, 5, 4, 7, 2]);
makespan = 1339;
----------
assign = array1d(1..10 ,[1, 1, 2, 2, 2, 2, 2, 2, 1, 2]);
next = array1d(1..10 ,[9, 1, 6, 10, 3, 8, 5, 4, 7, 2]);
makespan = 1336;
----------
assign = array1d(1..10 ,[1, 1, 2, 2, 2, 2, 2, 2, 1, 2]);
next = array1d(1..10 ,[9, 1, 6, 10, 3, 8, 5, 4, 7, 2]);
makespan = 1334;
----------
assign = array1d(1..10 ,[1, 1, 2, 2, 2, 2, 2, 2, 1, 2]);
next = array1d(1..10 ,[9, 1, 6, 10, 3, 8, 5, 4, 7, 2]);
makespan = 1329;
----------
assign = array1d(1..10 ,[1, 1, 2, 2, 2, 2, 2, 2, 1, 2]);
next = array1d(1..10 ,[9, 1, 6, 10, 3, 8, 5, 4, 7, 2]);
makespan = 1328;
----------
assign = array1d(1..10 ,[1, 1, 2, 2, 2, 2, 2, 2, 1, 2]);
next = array1d(1..10 ,[9, 1, 6, 10, 3, 8, 5, 4, 7, 2]);
makespan = 1326;
----------
assign = array1d(1..10 ,[1, 1, 2, 2, 2, 2, 2, 2, 1, 2]);
next = array1d(1..10 ,[9, 1, 6, 10, 3, 8, 5, 4, 7, 2]);
makespan = 1324;
----------
assign = array1d(1..10 ,[1, 1, 2, 2, 2, 2, 2, 2, 1, 2]);
next = array1d(1..10 ,[9, 1, 6, 10, 3, 8, 5, 4, 7, 2]);
makespan = 1319;
----------
assign = array1d(1..10 ,[1, 1, 2, 2, 2, 2, 2, 2, 1, 2]);
next = array1d(1..10 ,[9, 1, 6, 10, 3, 8, 5, 4, 7, 2]);
makespan = 1318;
----------
assign = array1d(1..10 ,[1, 1, 2, 2, 2, 2, 2, 2, 1, 2]);
next = array1d(1..10 ,[9, 1, 6, 10, 3, 8, 5, 4, 7, 2]);
makespan = 1315;
----------
assign = array1d(1..10 ,[1, 1, 2, 2, 2, 2, 2, 2, 1, 2]);
next = array1d(1..10 ,[9, 1, 6, 10, 3, 8, 5, 4, 7, 2]);
makespan = 1313;
----------
assign = array1d(1..10 ,[1, 1, 2, 2, 2, 2, 2, 2, 1, 2]);
next = array1d(1..10 ,[9, 1, 6, 10, 3, 8, 5, 4, 7, 2]);
makespan = 1311;
----------
assign = array1d(1..10 ,[1, 1, 2, 2, 2, 2, 2, 2, 1, 2]);
next = array1d(1..10 ,[9, 1, 6, 10, 3, 8, 5, 4, 7, 2]);
makespan = 1308;
----------
assign = array1d(1..10 ,[1, 1, 2, 2, 2, 2, 2, 2, 1, 2]);
next = array1d(1..10 ,[9, 1, 6, 10, 3, 8, 5, 4, 7, 2]);
makespan = 1307;
----------
assign = array1d(1..10 ,[1, 1, 2, 2, 2, 2, 2, 2, 1, 2]);
next = array1d(1..10 ,[9, 1, 6, 10, 3, 8, 5, 4, 7, 2]);
makespan = 1303;
----------
assign = array1d(1..10 ,[1, 1, 2, 2, 2, 2, 2, 2, 1, 2]);
next = array1d(1..10 ,[9, 1, 6, 10, 3, 8, 5, 4, 7, 2]);
makespan = 1301;
----------
assign = array1d(1..10 ,[1, 1, 2, 2, 2, 2, 2, 2, 1, 2]);
next = array1d(1..10 ,[9, 1, 6, 10, 3, 8, 5, 4, 7, 2]);
makespan = 1300;
----------
assign = array1d(1..10 ,[2, 1, 2, 1, 2, 2, 2, 2, 1, 2]);
next = array1d(1..10 ,[7, 4, 6, 9, 3, 8, 5, 10, 1, 2]);
makespan = 1298;
----------
assign = array1d(1..10 ,[2, 1, 2, 1, 2, 2, 2, 2, 1, 2]);
next = array1d(1..10 ,[10, 4, 6, 9, 3, 8, 5, 1, 7, 2]);
makespan = 1297;
----------
assign = array1d(1..10 ,[2, 1, 2, 1, 2, 2, 2, 2, 1, 2]);
next = array1d(1..10 ,[10, 4, 6, 9, 3, 8, 5, 1, 7, 2]);
makespan = 1295;
----------
assign = array1d(1..10 ,[2, 1, 2, 1, 2, 2, 2, 2, 1, 2]);
next = array1d(1..10 ,[10, 4, 6, 9, 3, 8, 5, 1, 7, 2]);
makespan = 1292;
----------
assign = array1d(1..10 ,[2, 1, 2, 1, 2, 2, 2, 2, 1, 2]);
next = array1d(1..10 ,[10, 4, 6, 9, 3, 8, 5, 1, 7, 2]);
makespan = 1290;
----------
assign = array1d(1..10 ,[2, 1, 2, 1, 2, 2, 2, 2, 1, 2]);
next = array1d(1..10 ,[10, 4, 6, 9, 3, 8, 5, 1, 7, 2]);
makespan = 1289;
----------
assign = array1d(1..10 ,[2, 1, 2, 1, 2, 2, 2, 2, 1, 2]);
next = array1d(1..10 ,[10, 4, 6, 9, 3, 8, 5, 1, 7, 2]);
makespan = 1287;
----------
assign = array1d(1..10 ,[2, 1, 2, 1, 2, 2, 2, 2, 1, 2]);
next = array1d(1..10 ,[10, 4, 6, 9, 3, 8, 5, 1, 7, 2]);
makespan = 1284;
----------
assign = array1d(1..10 ,[2, 1, 2, 1, 2, 2, 2, 2, 1, 2]);
next = array1d(1..10 ,[10, 4, 6, 9, 3, 8, 5, 1, 7, 2]);
makespan = 1283;
----------
assign = array1d(1..10 ,[1, 1, 2, 1, 2, 2, 2, 2, 1, 2]);
next = array1d(1..10 ,[4, 1, 6, 9, 3, 8, 5, 10, 7, 2]);
makespan = 1282;
----------
assign = array1d(1..10 ,[1, 1, 2, 1, 2, 2, 2, 2, 1, 2]);
next = array1d(1..10 ,[4, 1, 6, 9, 3, 8, 5, 10, 7, 2]);
makespan = 1281;
----------
assign = array1d(1..10 ,[1, 1, 2, 1, 2, 2, 2, 2, 1, 2]);
next = array1d(1..10 ,[4, 1, 6, 9, 3, 8, 5, 10, 7, 2]);
makespan = 1280;
----------
assign = array1d(1..10 ,[1, 1, 2, 1, 2, 2, 2, 2, 1, 2]);
next = array1d(1..10 ,[4, 1, 6, 9, 3, 8, 5, 10, 7, 2]);
makespan = 1279;
----------
assign = array1d(1..10 ,[1, 1, 2, 1, 2, 2, 2, 2, 1, 2]);
next = array1d(1..10 ,[4, 1, 6, 9, 3, 8, 5, 10, 7, 2]);
makespan = 1277;
----------
assign = array1d(1..10 ,[1, 1, 2, 1, 2, 2, 2, 2, 1, 2]);
next = array1d(1..10 ,[4, 1, 6, 9, 3, 8, 5, 10, 7, 2]);
makespan = 1274;
----------
assign = array1d(1..10 ,[1, 1, 2, 1, 2, 2, 2, 2, 1, 2]);
next = array1d(1..10 ,[4, 1, 6, 9, 3, 8, 5, 10, 7, 2]);
makespan = 1271;
----------
assign = array1d(1..10 ,[1, 1, 2, 1, 2, 2, 2, 2, 1, 2]);
next = array1d(1..10 ,[4, 1, 6, 9, 3, 8, 5, 10, 7, 2]);
makespan = 1269;
----------
assign = array1d(1..10 ,[1, 1, 2, 1, 2, 2, 2, 2, 1, 2]);
next = array1d(1..10 ,[4, 1, 6, 9, 3, 8, 5, 10, 7, 2]);
makespan = 1264;
----------
assign = array1d(1..10 ,[1, 1, 2, 1, 2, 2, 2, 2, 1, 2]);
next = array1d(1..10 ,[4, 1, 6, 9, 3, 8, 5, 10, 7, 2]);
makespan = 1263;
----------
assign = array1d(1..10 ,[1, 1, 2, 1, 2, 2, 2, 2, 1, 2]);
next = array1d(1..10 ,[4, 1, 6, 9, 3, 8, 5, 10, 7, 2]);
makespan = 1261;
----------
assign = array1d(1..10 ,[1, 1, 2, 1, 2, 2, 2, 2, 1, 2]);
next = array1d(1..10 ,[4, 1, 6, 9, 3, 8, 5, 10, 7, 2]);
makespan = 1260;
----------
assign = array1d(1..10 ,[1, 1, 2, 1, 2, 2, 2, 2, 1, 2]);
next = array1d(1..10 ,[4, 1, 6, 9, 3, 8, 5, 10, 7, 2]);
makespan = 1259;
----------
assign = array1d(1..10 ,[1, 1, 2, 1, 2, 2, 2, 2, 1, 2]);
next = array1d(1..10 ,[4, 1, 6, 9, 3, 8, 5, 10, 7, 2]);
makespan = 1258;
----------
assign = array1d(1..10 ,[1, 1, 2, 1, 2, 2, 2, 2, 1, 2]);
next = array1d(1..10 ,[4, 1, 6, 9, 3, 8, 5, 10, 7, 2]);
makespan = 1253;
----------
assign = array1d(1..10 ,[1, 1, 2, 1, 2, 2, 2, 2, 1, 2]);
next = array1d(1..10 ,[4, 1, 6, 9, 3, 8, 5, 10, 7, 2]);
makespan = 1252;
----------
assign = array1d(1..10 ,[1, 1, 2, 1, 2, 2, 2, 2, 1, 2]);
next = array1d(1..10 ,[4, 1, 6, 9, 3, 8, 5, 10, 7, 2]);
makespan = 1250;
----------
assign = array1d(1..10 ,[1, 1, 2, 1, 2, 2, 2, 2, 1, 2]);
next = array1d(1..10 ,[4, 1, 6, 9, 3, 8, 5, 10, 7, 2]);
makespan = 1248;
----------
assign = array1d(1..10 ,[1, 1, 2, 1, 2, 2, 2, 2, 1, 2]);
next = array1d(1..10 ,[4, 1, 6, 9, 3, 8, 5, 10, 7, 2]);
makespan = 1242;
----------
assign = array1d(1..10 ,[1, 1, 2, 1, 2, 2, 2, 2, 1, 2]);
next = array1d(1..10 ,[4, 1, 6, 9, 3, 8, 5, 10, 7, 2]);
makespan = 1232;
----------
assign = array1d(1..10 ,[1, 1, 2, 1, 2, 2, 2, 2, 1, 2]);
next = array1d(1..10 ,[4, 1, 6, 9, 3, 8, 5, 10, 7, 2]);
makespan = 1227;
----------
assign = array1d(1..10 ,[1, 1, 2, 1, 2, 2, 2, 2, 1, 2]);
next = array1d(1..10 ,[4, 1, 6, 9, 3, 8, 5, 10, 7, 2]);
makespan = 1225;
----------
assign = array1d(1..10 ,[1, 1, 2, 1, 2, 2, 2, 2, 1, 2]);
next = array1d(1..10 ,[4, 1, 6, 9, 3, 8, 5, 10, 7, 2]);
makespan = 1222;
----------
assign = array1d(1..10 ,[1, 1, 2, 1, 2, 2, 2, 2, 1, 2]);
next = array1d(1..10 ,[4, 1, 6, 9, 3, 8, 5, 10, 7, 2]);
makespan = 1221;
----------
assign = array1d(1..10 ,[1, 1, 2, 1, 2, 2, 2, 2, 1, 2]);
next = array1d(1..10 ,[4, 1, 6, 9, 3, 8, 5, 10, 7, 2]);
makespan = 1220;
----------
assign = array1d(1..10 ,[1, 1, 2, 1, 2, 2, 2, 2, 1, 2]);
next = array1d(1..10 ,[4, 1, 6, 9, 3, 8, 5, 10, 7, 2]);
makespan = 1219;
----------
assign = array1d(1..10 ,[1, 1, 2, 1, 2, 2, 2, 2, 1, 2]);
next = array1d(1..10 ,[4, 1, 6, 9, 3, 8, 5, 10, 7, 2]);
makespan = 1217;
----------
assign = array1d(1..10 ,[1, 1, 2, 1, 2, 2, 2, 2, 1, 2]);
next = array1d(1..10 ,[4, 1, 6, 9, 3, 8, 5, 10, 7, 2]);
makespan = 1216;
----------
assign = array1d(1..10 ,[1, 1, 2, 1, 2, 2, 2, 2, 1, 2]);
next = array1d(1..10 ,[4, 1, 6, 9, 3, 8, 5, 10, 7, 2]);
makespan = 1214;
----------
assign = array1d(1..10 ,[1, 1, 2, 1, 2, 2, 2, 2, 1, 2]);
next = array1d(1..10 ,[4, 1, 6, 9, 3, 8, 5, 10, 7, 2]);
makespan = 1213;
----------
assign = array1d(1..10 ,[1, 1, 2, 1, 2, 2, 2, 2, 1, 2]);
next = array1d(1..10 ,[4, 1, 6, 9, 3, 8, 5, 10, 7, 2]);
makespan = 1209;
----------
assign = array1d(1..10 ,[1, 1, 2, 1, 2, 2, 2, 2, 1, 2]);
next = array1d(1..10 ,[4, 1, 6, 9, 3, 8, 5, 10, 7, 2]);
makespan = 1206;
----------
assign = array1d(1..10 ,[1, 1, 2, 1, 2, 2, 2, 2, 1, 2]);
next = array1d(1..10 ,[4, 1, 6, 9, 3, 8, 5, 10, 7, 2]);
makespan = 1205;
----------
assign = array1d(1..10 ,[1, 1, 2, 1, 2, 2, 2, 2, 1, 2]);
next = array1d(1..10 ,[4, 1, 6, 9, 3, 8, 5, 10, 7, 2]);
makespan = 1204;
----------
assign = array1d(1..10 ,[1, 1, 2, 1, 2, 2, 2, 2, 1, 2]);
next = array1d(1..10 ,[4, 1, 6, 9, 3, 8, 5, 10, 7, 2]);
makespan = 1198;
----------
assign = array1d(1..10 ,[1, 1, 2, 1, 2, 2, 2, 2, 1, 2]);
next = array1d(1..10 ,[4, 1, 6, 9, 3, 8, 5, 10, 7, 2]);
makespan = 1195;
----------
assign = array1d(1..10 ,[1, 1, 2, 1, 2, 2, 2, 2, 1, 2]);
next = array1d(1..10 ,[4, 1, 6, 9, 3, 8, 5, 10, 7, 2]);
makespan = 1193;
----------
assign = array1d(1..10 ,[1, 1, 2, 1, 2, 2, 2, 2, 1, 2]);
next = array1d(1..10 ,[4, 1, 6, 9, 3, 8, 5, 10, 7, 2]);
makespan = 1188;
----------
assign = array1d(1..10 ,[1, 1, 2, 1, 2, 2, 2, 2, 1, 2]);
next = array1d(1..10 ,[4, 1, 6, 9, 3, 8, 5, 10, 7, 2]);
makespan = 1187;
----------
assign = array1d(1..10 ,[1, 1, 2, 1, 2, 2, 2, 2, 1, 2]);
next = array1d(1..10 ,[4, 1, 6, 9, 3, 8, 5, 10, 7, 2]);
makespan = 1185;
----------
assign = array1d(1..10 ,[1, 1, 2, 1, 2, 2, 2, 2, 1, 2]);
next = array1d(1..10 ,[4, 1, 6, 9, 3, 8, 5, 10, 7, 2]);
makespan = 1183;
----------
assign = array1d(1..10 ,[1, 1, 2, 1, 2, 2, 2, 2, 1, 2]);
next = array1d(1..10 ,[4, 1, 6, 9, 3, 8, 5, 10, 7, 2]);
makespan = 1177;
----------
assign = array1d(1..10 ,[1, 1, 2, 1, 2, 2, 2, 2, 1, 2]);
next = array1d(1..10 ,[4, 1, 6, 9, 3, 8, 5, 10, 7, 2]);
makespan = 1167;
----------
assign = array1d(1..10 ,[1, 1, 2, 1, 2, 2, 2, 2, 1, 2]);
next = array1d(1..10 ,[4, 1, 6, 9, 3, 8, 5, 10, 7, 2]);
makespan = 1166;
----------
assign = array1d(1..10 ,[1, 1, 2, 1, 2, 2, 2, 2, 1, 2]);
next = array1d(1..10 ,[4, 1, 6, 9, 3, 8, 5, 10, 7, 2]);
makespan = 1156;
----------
assign = array1d(1..10 ,[1, 1, 2, 1, 2, 2, 2, 2, 1, 2]);
next = array1d(1..10 ,[4, 1, 6, 9, 3, 8, 5, 10, 7, 2]);
makespan = 1140;
----------
assign = array1d(1..10 ,[1, 1, 2, 1, 2, 2, 2, 2, 1, 2]);
next = array1d(1..10 ,[4, 1, 6, 9, 3, 8, 5, 10, 7, 2]);
makespan = 1134;
----------
assign = array1d(1..10 ,[1, 1, 2, 1, 2, 2, 2, 2, 1, 2]);
next = array1d(1..10 ,[4, 1, 6, 9, 3, 8, 5, 10, 7, 2]);
makespan = 1071;
----------
assign = array1d(1..10 ,[1, 1, 2, 1, 2, 2, 2, 2, 1, 2]);
next = array1d(1..10 ,[4, 1, 6, 9, 3, 8, 5, 10, 7, 2]);
makespan = 1058;
----------
assign = array1d(1..10 ,[1, 1, 2, 1, 2, 2, 2, 2, 1, 2]);
next = array1d(1..10 ,[4, 1, 10, 9, 3, 8, 5, 7, 6, 2]);
makespan = 1049;
----------
assign = array1d(1..10 ,[1, 1, 2, 1, 2, 2, 2, 2, 1, 2]);
next = array1d(1..10 ,[4, 1, 10, 9, 3, 8, 5, 7, 6, 2]);
makespan = 1039;
----------
assign = array1d(1..10 ,[1, 1, 2, 1, 2, 2, 2, 2, 1, 2]);
next = array1d(1..10 ,[4, 1, 10, 9, 3, 8, 5, 7, 6, 2]);
makespan = 1036;
----------
assign = array1d(1..10 ,[1, 1, 2, 1, 2, 2, 2, 2, 1, 2]);
next = array1d(1..10 ,[4, 1, 10, 9, 3, 8, 5, 7, 6, 2]);
makespan = 1025;
----------
assign = array1d(1..10 ,[1, 1, 2, 1, 2, 2, 2, 1, 1, 2]);
next = array1d(1..10 ,[8, 9, 6, 1, 3, 10, 5, 2, 7, 4]);
makespan = 984;
----------
assign = array1d(1..10 ,[1, 1, 2, 1, 2, 2, 2, 1, 1, 2]);
next = array1d(1..10 ,[8, 9, 6, 1, 3, 10, 5, 2, 7, 4]);
makespan = 979;
----------
assign = array1d(1..10 ,[1, 1, 2, 1, 2, 2, 2, 1, 1, 2]);
next = array1d(1..10 ,[8, 9, 6, 1, 3, 10, 5, 2, 7, 4]);
makespan = 974;
----------
assign = array1d(1..10 ,[1, 1, 2, 1, 2, 2, 2, 1, 1, 2]);
next = array1d(1..10 ,[8, 9, 6, 1, 3, 10, 5, 2, 7, 4]);
makespan = 968;
----------
assign = array1d(1..10 ,[1, 1, 2, 1, 2, 2, 2, 1, 1, 2]);
next = array1d(1..10 ,[8, 9, 6, 1, 3, 10, 5, 2, 7, 4]);
makespan = 964;
----------
assign = array1d(1..10 ,[1, 1, 2, 1, 2, 2, 2, 1, 1, 2]);
next = array1d(1..10 ,[8, 9, 6, 1, 3, 10, 5, 2, 7, 4]);
makespan = 930;
----------
assign = array1d(1..10 ,[1, 1, 2, 1, 2, 2, 2, 1, 1, 2]);
next = array1d(1..10 ,[8, 9, 6, 1, 3, 10, 5, 2, 7, 4]);
makespan = 913;
----------
assign = array1d(1..10 ,[1, 1, 2, 1, 2, 2, 2, 1, 1, 2]);
next = array1d(1..10 ,[8, 9, 6, 1, 3, 10, 5, 2, 7, 4]);
makespan = 901;
----------
assign = array1d(1..10 ,[1, 1, 2, 1, 2, 2, 2, 1, 1, 2]);
next = array1d(1..10 ,[8, 9, 6, 1, 3, 10, 5, 2, 7, 4]);
makespan = 898;
----------
assign = array1d(1..10 ,[1, 1, 2, 1, 2, 2, 2, 1, 1, 2]);
next = array1d(1..10 ,[8, 9, 6, 1, 3, 10, 5, 2, 7, 4]);
makespan = 882;
----------
assign = array1d(1..10 ,[1, 1, 2, 1, 2, 2, 2, 1, 1, 2]);
next = array1d(1..10 ,[8, 9, 6, 1, 3, 10, 5, 2, 7, 4]);
makespan = 880;
----------
assign = array1d(1..10 ,[1, 1, 2, 1, 2, 2, 2, 1, 1, 2]);
next = array1d(1..10 ,[8, 9, 6, 1, 3, 10, 5, 2, 7, 4]);
makespan = 878;
----------
assign = array1d(1..10 ,[1, 1, 2, 1, 2, 2, 2, 1, 1, 2]);
next = array1d(1..10 ,[8, 9, 6, 1, 3, 10, 5, 2, 7, 4]);
makespan = 874;
----------
assign = array1d(1..10 ,[1, 1, 2, 1, 2, 2, 2, 1, 1, 2]);
next = array1d(1..10 ,[8, 9, 6, 1, 3, 10, 5, 2, 7, 4]);
makespan = 869;
----------
assign = array1d(1..10 ,[1, 1, 2, 1, 2, 2, 2, 1, 1, 2]);
next = array1d(1..10 ,[8, 9, 6, 1, 3, 10, 5, 2, 7, 4]);
makespan = 866;
----------
assign = array1d(1..10 ,[1, 1, 2, 1, 2, 2, 2, 1, 1, 2]);
next = array1d(1..10 ,[8, 9, 6, 1, 3, 10, 5, 2, 7, 4]);
makespan = 815;
----------
assign = array1d(1..10 ,[1, 1, 2, 1, 2, 2, 2, 1, 1, 2]);
next = array1d(1..10 ,[8, 9, 6, 1, 3, 10, 5, 2, 7, 4]);
makespan = 804;
----------
assign = array1d(1..10 ,[1, 1, 2, 1, 2, 2, 2, 1, 1, 2]);
next = array1d(1..10 ,[8, 9, 6, 1, 3, 10, 5, 2, 7, 4]);
makespan = 802;
----------
assign = array1d(1..10 ,[1, 1, 2, 1, 2, 2, 2, 1, 1, 2]);
next = array1d(1..10 ,[8, 9, 10, 1, 3, 7, 5, 2, 6, 4]);
makespan = 789;
----------
assign = array1d(1..10 ,[1, 1, 2, 1, 2, 1, 2, 2, 1, 2]);
next = array1d(1..10 ,[9, 4, 10, 1, 3, 2, 5, 7, 8, 6]);
makespan = 783;
----------
assign = array1d(1..10 ,[1, 1, 2, 1, 2, 1, 2, 2, 1, 2]);
next = array1d(1..10 ,[9, 4, 10, 1, 3, 2, 5, 7, 8, 6]);
makespan = 774;
----------
assign = array1d(1..10 ,[1, 2, 2, 1, 2, 1, 2, 1, 1, 2]);
next = array1d(1..10 ,[6, 7, 10, 8, 3, 9, 5, 1, 2, 4]);
makespan = 766;
----------
assign = array1d(1..10 ,[2, 2, 1, 2, 1, 2, 1, 1, 1, 2]);
next = array1d(1..10 ,[4, 1, 8, 10, 7, 2, 9, 5, 6, 3]);
makespan = 764;
----------
assign = array1d(1..10 ,[1, 1, 2, 2, 2, 1, 2, 1, 1, 2]);
next = array1d(1..10 ,[6, 8, 10, 3, 4, 2, 5, 9, 7, 1]);
makespan = 755;
----------
assign = array1d(1..10 ,[1, 1, 2, 1, 2, 1, 2, 2, 1, 2]);
next = array1d(1..10 ,[9, 4, 8, 6, 10, 1, 5, 7, 3, 2]);
makespan = 753;
----------
assign = array1d(1..10 ,[1, 1, 2, 1, 2, 1, 2, 2, 1, 2]);
next = array1d(1..10 ,[9, 4, 8, 6, 10, 1, 5, 7, 3, 2]);
makespan = 752;
----------
assign = array1d(1..10 ,[1, 1, 2, 1, 2, 1, 2, 2, 1, 2]);
next = array1d(1..10 ,[9, 4, 8, 6, 10, 1, 5, 7, 3, 2]);
makespan = 749;
----------
assign = array1d(1..10 ,[1, 1, 2, 1, 2, 1, 2, 2, 1, 2]);
next = array1d(1..10 ,[9, 4, 8, 6, 10, 1, 5, 7, 3, 2]);
makespan = 746;
----------
assign = array1d(1..10 ,[1, 1, 2, 1, 2, 1, 2, 2, 1, 2]);
next = array1d(1..10 ,[9, 4, 8, 6, 10, 1, 5, 7, 3, 2]);
makespan = 744;
----------
assign = array1d(1..10 ,[1, 1, 2, 1, 2, 1, 2, 2, 1, 2]);
next = array1d(1..10 ,[9, 4, 8, 6, 10, 1, 5, 7, 3, 2]);
makespan = 743;
----------
assign = array1d(1..10 ,[1, 1, 2, 1, 2, 1, 2, 2, 1, 2]);
next = array1d(1..10 ,[9, 4, 8, 6, 10, 1, 5, 7, 3, 2]);
makespan = 739;
----------
assign = array1d(1..10 ,[1, 1, 2, 1, 2, 1, 2, 2, 1, 2]);
next = array1d(1..10 ,[9, 4, 8, 6, 10, 1, 5, 7, 3, 2]);
makespan = 732;
----------
assign = array1d(1..10 ,[1, 1, 2, 1, 1, 2, 2, 2, 1, 2]);
next = array1d(1..10 ,[9, 4, 8, 5, 1, 3, 10, 7, 6, 2]);
makespan = 731;
----------
assign = array1d(1..10 ,[1, 1, 2, 1, 1, 2, 2, 2, 1, 2]);
next = array1d(1..10 ,[9, 4, 8, 5, 1, 3, 10, 7, 6, 2]);
makespan = 725;
----------
assign = array1d(1..10 ,[2, 1, 2, 1, 1, 1, 2, 2, 1, 2]);
next = array1d(1..10 ,[10, 5, 8, 9, 6, 4, 1, 7, 3, 2]);
makespan = 723;
----------
assign = array1d(1..10 ,[1, 2, 2, 1, 2, 2, 1, 1, 1, 2]);
next = array1d(1..10 ,[7, 5, 10, 9, 6, 3, 8, 4, 2, 1]);
makespan = 721;
----------
assign = array1d(1..10 ,[1, 2, 2, 1, 2, 2, 1, 1, 1, 2]);
next = array1d(1..10 ,[8, 5, 10, 7, 6, 3, 9, 4, 2, 1]);
makespan = 720;
----------
assign = array1d(1..10 ,[1, 2, 2, 1, 2, 2, 1, 1, 1, 2]);
next = array1d(1..10 ,[8, 5, 10, 7, 6, 3, 9, 4, 2, 1]);
makespan = 719;
----------
assign = array1d(1..10 ,[1, 2, 2, 1, 2, 2, 1, 1, 1, 2]);
next = array1d(1..10 ,[8, 5, 10, 9, 6, 3, 1, 4, 2, 7]);
makespan = 718;
----------
assign = array1d(1..10 ,[1, 2, 2, 1, 2, 2, 1, 1, 1, 2]);
next = array1d(1..10 ,[8, 5, 10, 9, 6, 3, 1, 4, 2, 7]);
makespan = 717;
----------
assign = array1d(1..10 ,[1, 2, 2, 1, 2, 2, 1, 1, 1, 2]);
next = array1d(1..10 ,[8, 5, 10, 9, 6, 3, 1, 4, 2, 7]);
makespan = 716;
----------
assign = array1d(1..10 ,[1, 2, 2, 1, 2, 2, 1, 1, 1, 2]);
next = array1d(1..10 ,[8, 5, 10, 9, 6, 3, 1, 4, 2, 7]);
makespan = 714;
----------
assign = array1d(1..10 ,[1, 2, 2, 1, 2, 2, 1, 1, 1, 2]);
next = array1d(1..10 ,[8, 5, 10, 9, 6, 3, 1, 4, 2, 7]);
makespan = 710;
----------
assign = array1d(1..10 ,[1, 2, 2, 1, 2, 2, 1, 1, 1, 2]);
next = array1d(1..10 ,[8, 5, 10, 9, 6, 3, 1, 4, 2, 7]);
makespan = 709;
----------
assign = array1d(1..10 ,[1, 2, 2, 1, 2, 2, 1, 1, 1, 2]);
next = array1d(1..10 ,[8, 5, 10, 9, 6, 3, 1, 4, 2, 7]);
makespan = 707;
----------
assign = array1d(1..10 ,[1, 2, 2, 1, 2, 2, 1, 1, 1, 2]);
next = array1d(1..10 ,[8, 5, 10, 9, 6, 3, 1, 4, 2, 7]);
makespan = 706;
----------
assign = array1d(1..10 ,[1, 2, 2, 1, 2, 2, 1, 1, 1, 2]);
next = array1d(1..10 ,[7, 5, 10, 1, 6, 3, 9, 4, 2, 8]);
makespan = 705;
----------
assign = array1d(1..10 ,[1, 2, 2, 1, 2, 1, 2, 1, 1, 2]);
next = array1d(1..10 ,[4, 5, 10, 8, 7, 1, 3, 9, 2, 6]);
makespan = 704;
----------
assign = array1d(1..10 ,[1, 2, 2, 1, 2, 1, 2, 1, 1, 2]);
next = array1d(1..10 ,[6, 5, 10, 8, 7, 4, 3, 9, 2, 1]);
makespan = 703;
----------
assign = array1d(1..10 ,[1, 2, 2, 1, 2, 1, 2, 1, 1, 2]);
next = array1d(1..10 ,[6, 5, 10, 8, 7, 4, 3, 9, 2, 1]);
makespan = 702;
----------
assign = array1d(1..10 ,[2, 1, 2, 2, 2, 1, 1, 1, 1, 2]);
next = array1d(1..10 ,[4, 7, 10, 3, 1, 8, 9, 2, 5, 6]);
makespan = 701;
----------
assign = array1d(1..10 ,[2, 1, 2, 2, 2, 1, 1, 1, 1, 2]);
next = array1d(1..10 ,[4, 7, 10, 3, 1, 8, 9, 2, 5, 6]);
makespan = 700;
----------
assign = array1d(1..10 ,[2, 1, 2, 2, 2, 1, 1, 1, 1, 2]);
next = array1d(1..10 ,[4, 7, 10, 3, 1, 8, 9, 2, 5, 6]);
makespan = 699;
----------
assign = array1d(1..10 ,[2, 1, 2, 2, 2, 1, 1, 1, 1, 2]);
next = array1d(1..10 ,[4, 7, 10, 3, 1, 8, 9, 2, 5, 6]);
makespan = 698;
----------
assign = array1d(1..10 ,[1, 2, 2, 1, 2, 1, 2, 1, 1, 2]);
next = array1d(1..10 ,[6, 5, 10, 9, 7, 8, 3, 4, 2, 1]);
makespan = 697;
----------
assign = array1d(1..10 ,[1, 2, 2, 1, 2, 1, 2, 1, 1, 2]);
next = array1d(1..10 ,[6, 5, 10, 9, 7, 8, 3, 4, 2, 1]);
makespan = 696;
----------
assign = array1d(1..10 ,[1, 2, 2, 1, 2, 1, 2, 1, 1, 2]);
next = array1d(1..10 ,[6, 5, 10, 9, 7, 8, 3, 4, 2, 1]);
makespan = 695;
----------
assign = array1d(1..10 ,[1, 2, 2, 2, 2, 1, 1, 1, 1, 2]);
next = array1d(1..10 ,[6, 5, 10, 3, 4, 8, 1, 9, 2, 7]);
makespan = 694;
----------
assign = array1d(1..10 ,[1, 2, 2, 1, 2, 1, 2, 1, 1, 2]);
next = array1d(1..10 ,[6, 5, 10, 9, 7, 8, 3, 4, 2, 1]);
makespan = 693;
----------
assign = array1d(1..10 ,[1, 2, 2, 1, 2, 1, 2, 1, 1, 2]);
next = array1d(1..10 ,[6, 5, 10, 9, 7, 8, 3, 4, 2, 1]);
makespan = 692;
----------
assign = array1d(1..10 ,[1, 2, 2, 2, 2, 1, 1, 1, 1, 2]);
next = array1d(1..10 ,[6, 5, 10, 3, 4, 8, 1, 9, 2, 7]);
makespan = 691;
----------
assign = array1d(1..10 ,[1, 2, 2, 2, 2, 1, 1, 1, 1, 2]);
next = array1d(1..10 ,[6, 5, 10, 3, 4, 8, 1, 9, 2, 7]);
makespan = 690;
----------
assign = array1d(1..10 ,[1, 2, 2, 2, 2, 1, 1, 1, 1, 2]);
next = array1d(1..10 ,[6, 5, 10, 3, 4, 8, 1, 9, 2, 7]);
makespan = 689;
----------
assign = array1d(1..10 ,[1, 2, 2, 2, 2, 1, 1, 1, 1, 2]);
next = array1d(1..10 ,[6, 5, 10, 3, 4, 8, 1, 9, 2, 7]);
makespan = 688;
----------
assign = array1d(1..10 ,[1, 2, 2, 2, 2, 1, 1, 1, 1, 2]);
next = array1d(1..10 ,[6, 5, 10, 3, 4, 8, 1, 9, 2, 7]);
makespan = 687;
----------
==========
	Command being timed: "mzn-chuffed lbbd-datasets/Rabadi-2006/dzn-s-dominant/model.mzn lbbd-datasets/Rabadi-2006/dzn-s-dominant/8on2Rp50Rs50_5Ameer.dzn"
	User time (seconds): 0.32
	System time (seconds): 0.02
	Percent of CPU this job got: 2%
	Elapsed (wall clock) time (h:mm:ss or m:ss): 0:14.70
	Average shared text size (kbytes): 0
	Average unshared data size (kbytes): 0
	Average stack size (kbytes): 0
	Average total size (kbytes): 0
	Maximum resident set size (kbytes): 32400
	Average resident set size (kbytes): 0
	Major (requiring I/O) page faults: 0
	Minor (reclaiming a frame) page faults: 2873
	Voluntary context switches: 242
	Involuntary context switches: 4
	Swaps: 0
	File system inputs: 0
	File system outputs: 216
	Socket messages sent: 0
	Socket messages received: 0
	Signals delivered: 0
	Page size (bytes): 4096
	Exit status: 0
