+ /usr/bin/timeout 600 /usr/bin/time -v mzn-chuffed lbbd-datasets/sscplp/trucks-dzn/model.mzn lbbd-datasets/sscplp/trucks-dzn/p08-l40-c100-correlated.dzn
% No search annotation given. Defaulting to VSIDS!
source = [1, 4, 15, 15, 4, 4, 15, 15, 15, 15, 1, 1, 1, 1, 14, 1, 1, 14, 1, 1, 1, 1, 1, 8, 1, 1, 8, 15, 11, 14]
open = [true, false, false, true, false, false, false, true, false, false, true, false, false, true, true]
trucks_used = [14, 0, 0, 3, 0, 0, 0, 2, 0, 0, 1, 0, 0, 3, 7]
truck_assigned = [4, 2, 6, 5, 1, 3, 4, 7, 5, 4, 14, 8, 13, 7, 3, 7, 6, 2, 14, 10, 12, 9, 13, 1, 8, 11, 2, 3, 1, 1]
obj = 9121
----------
source = [1, 1, 1, 4, 1, 1, 4, 1, 1, 1, 1, 1, 1, 1, 1, 1, 1, 15, 1, 1, 1, 1, 4, 4, 1, 4, 1, 1, 4, 1]
open = [true, false, false, true, false, false, false, false, false, false, false, false, false, false, true]
trucks_used = [23, 0, 0, 6, 0, 0, 0, 0, 0, 0, 0, 0, 0, 0, 1]
truck_assigned = [21, 16, 18, 6, 9, 13, 5, 14, 20, 8, 23, 4, 12, 21, 22, 22, 15, 1, 23, 10, 19, 17, 4, 3, 11, 1, 6, 16, 2, 11]
obj = 6955
----------
source = [1, 1, 1, 4, 1, 1, 1, 1, 1, 1, 1, 1, 1, 1, 1, 1, 4, 14, 4, 1, 1, 1, 4, 4, 1, 4, 1, 4, 4, 1]
open = [true, false, false, true, false, false, false, false, false, false, false, false, false, true, false]
trucks_used = [21, 0, 0, 8, 0, 0, 0, 0, 0, 0, 0, 0, 0, 1, 0]
truck_assigned = [17, 8, 10, 6, 15, 19, 17, 16, 18, 12, 8, 9, 13, 7, 6, 3, 2, 1, 3, 14, 11, 21, 8, 4, 20, 5, 2, 5, 7, 20]
obj = 6760
----------
source = [1, 4, 1, 4, 4, 1, 4, 1, 1, 1, 1, 1, 1, 4, 1, 4, 1, 13, 1, 1, 1, 1, 1, 13, 1, 1, 1, 1, 13, 1]
open = [true, false, false, true, false, false, false, false, false, false, false, false, true, false, false]
trucks_used = [21, 0, 0, 6, 0, 0, 0, 0, 0, 0, 0, 0, 3, 0, 0]
truck_assigned = [18, 6, 5, 2, 3, 21, 5, 16, 15, 12, 18, 7, 14, 3, 13, 4, 17, 1, 8, 20, 9, 10, 14, 2, 17, 8, 11, 19, 3, 19]
obj = 6546
----------
source = [1, 13, 1, 4, 13, 1, 4, 1, 1, 1, 1, 1, 1, 1, 1, 1, 1, 13, 1, 1, 1, 1, 1, 13, 1, 1, 1, 1, 13, 1]
open = [true, false, false, true, false, false, false, false, false, false, false, false, true, false, false]
trucks_used = [22, 0, 0, 2, 0, 0, 0, 0, 0, 0, 0, 0, 5, 0, 0]
truck_assigned = [22, 2, 7, 2, 1, 9, 1, 18, 16, 4, 12, 10, 14, 8, 19, 19, 21, 5, 17, 11, 15, 13, 21, 3, 12, 22, 20, 6, 4, 17]
obj = 6480
----------
source = [1, 1, 1, 1, 1, 1, 1, 1, 1, 1, 1, 1, 1, 1, 1, 1, 1, 4, 1, 1, 1, 1, 1, 4, 1, 1, 1, 1, 4, 1]
open = [true, false, false, true, false, false, false, false, false, false, false, false, false, false, false]
trucks_used = [27, 0, 0, 3, 0, 0, 0, 0, 0, 0, 0, 0, 0, 0, 0]
truck_assigned = [25, 24, 13, 22, 23, 14, 16, 15, 19, 7, 12, 17, 27, 16, 21, 21, 3, 1, 26, 10, 20, 18, 27, 3, 22, 25, 11, 24, 2, 26]
obj = 5740
----------
source = [1, 1, 1, 1, 1, 1, 1, 1, 1, 1, 1, 1, 1, 1, 1, 1, 1, 13, 1, 1, 1, 1, 1, 13, 1, 1, 1, 1, 13, 1]
open = [true, false, false, false, false, false, false, false, false, false, false, false, true, false, false]
trucks_used = [27, 0, 0, 0, 0, 0, 0, 0, 0, 0, 0, 0, 3, 0, 0]
truck_assigned = [17, 12, 14, 24, 15, 16, 2, 19, 23, 8, 17, 18, 13, 27, 22, 22, 20, 1, 2, 25, 21, 26, 26, 3, 24, 12, 11, 27, 2, 10]
obj = 4866
----------
source = [1, 1, 13, 1, 1, 1, 1, 1, 13, 1, 1, 1, 1, 1, 1, 1, 1, 8, 1, 1, 8, 13, 1, 13, 1, 1, 1, 1, 13, 1]
open = [true, false, false, false, false, false, false, true, false, false, false, false, true, false, false]
trucks_used = [18, 0, 0, 0, 0, 0, 0, 2, 0, 0, 0, 0, 5, 0, 0]
truck_assigned = [9, 18, 3, 9, 17, 6, 14, 15, 3, 4, 18, 10, 16, 3, 8, 5, 11, 2, 2, 7, 1, 2, 16, 4, 11, 13, 12, 13, 5, 14]
obj = 4809
----------
source = [1, 1, 13, 1, 1, 1, 1, 1, 1, 1, 1, 1, 1, 1, 1, 1, 1, 13, 1, 1, 1, 1, 1, 13, 1, 1, 1, 1, 13, 1]
open = [true, false, false, false, false, false, false, false, false, false, false, false, true, false, false]
trucks_used = [26, 0, 0, 0, 0, 0, 0, 0, 0, 0, 0, 0, 4, 0, 0]
truck_assigned = [26, 23, 4, 14, 21, 10, 24, 22, 12, 20, 24, 13, 18, 15, 9, 19, 16, 2, 19, 11, 2, 17, 13, 3, 23, 25, 7, 25, 1, 26]
obj = 4807
----------
source = [1, 1, 1, 1, 1, 1, 1, 1, 1, 1, 1, 1, 1, 1, 1, 1, 1, 2, 1, 1, 1, 1, 1, 2, 1, 1, 1, 1, 2, 1]
open = [true, true, false, false, false, false, false, false, false, false, false, false, false, false, false]
trucks_used = [26, 3, 0, 0, 0, 0, 0, 0, 0, 0, 0, 0, 0, 0, 0]
truck_assigned = [15, 10, 9, 15, 13, 26, 8, 12, 14, 24, 25, 17, 23, 19, 18, 22, 22, 1, 25, 11, 16, 21, 23, 3, 17, 8, 20, 19, 2, 10]
obj = 4724
----------
source = [1, 1, 1, 1, 1, 1, 1, 1, 1, 1, 2, 1, 1, 1, 1, 1, 2, 2, 1, 1, 1, 1, 1, 8, 1, 1, 1, 2, 8, 1]
open = [true, true, false, false, false, false, false, true, false, false, false, false, false, false, false]
trucks_used = [18, 4, 0, 0, 0, 0, 0, 1, 0, 0, 0, 0, 0, 0, 0]
truck_assigned = [15, 12, 13, 18, 16, 4, 18, 14, 17, 6, 3, 1, 11, 8, 10, 8, 2, 4, 3, 7, 9, 5, 5, 1, 10, 12, 2, 1, 1, 15]
obj = 4718
----------
source = [1, 2, 1, 1, 1, 1, 1, 1, 1, 1, 2, 1, 1, 1, 1, 1, 2, 8, 1, 1, 1, 1, 1, 8, 1, 1, 1, 1, 2, 1]
open = [true, true, false, false, false, false, false, true, false, false, false, false, false, false, false]
trucks_used = [18, 4, 0, 0, 0, 0, 0, 1, 0, 0, 0, 0, 0, 0, 0]
truck_assigned = [5, 2, 4, 6, 16, 15, 6, 3, 18, 10, 4, 7, 2, 13, 12, 12, 3, 1, 14, 8, 17, 9, 17, 1, 13, 5, 11, 1, 1, 14]
obj = 4694
----------
source = [1, 1, 1, 1, 1, 1, 1, 1, 1, 1, 1, 1, 1, 1, 1, 1, 1, 12, 1, 1, 1, 1, 1, 12, 1, 1, 1, 1, 12, 1]
open = [true, false, false, false, false, false, false, false, false, false, false, true, false, false, false]
trucks_used = [25, 0, 0, 0, 0, 0, 0, 0, 0, 0, 0, 2, 0, 0, 0]
truck_assigned = [13, 9, 19, 17, 14, 10, 25, 16, 15, 11, 13, 12, 2, 23, 21, 21, 4, 1, 24, 20, 8, 22, 22, 2, 17, 24, 18, 25, 1, 23]
obj = 4693
----------
source = [1, 1, 1, 1, 1, 1, 1, 12, 1, 1, 1, 1, 1, 1, 1, 1, 1, 12, 1, 12, 1, 1, 1, 12, 1, 1, 1, 1, 12, 1]
open = [true, false, false, false, false, false, false, false, false, false, false, true, false, false, false]
trucks_used = [25, 0, 0, 0, 0, 0, 0, 0, 0, 0, 0, 3, 0, 0, 0]
truck_assigned = [18, 15, 25, 18, 16, 9, 22, 3, 21, 17, 15, 13, 2, 10, 14, 23, 20, 2, 22, 3, 1, 11, 24, 1, 23, 12, 19, 24, 2, 12]
obj = 4691
----------
source = [1, 1, 1, 1, 1, 1, 1, 1, 1, 1, 1, 1, 1, 1, 1, 1, 1, 13, 1, 1, 1, 1, 1, 13, 1, 1, 1, 13, 13, 1]
open = [true, false, false, false, false, false, false, false, false, false, false, false, true, false, false]
trucks_used = [25, 0, 0, 0, 0, 0, 0, 0, 0, 0, 0, 0, 3, 0, 0]
truck_assigned = [20, 22, 25, 15, 16, 2, 15, 7, 24, 19, 23, 17, 8, 22, 18, 18, 21, 2, 9, 12, 3, 13, 13, 3, 21, 20, 14, 2, 1, 23]
obj = 4677
----------
source = [1, 1, 1, 1, 1, 1, 1, 1, 13, 1, 1, 1, 1, 1, 1, 1, 1, 13, 1, 1, 1, 13, 1, 13, 1, 1, 1, 1, 13, 1]
open = [true, false, false, false, false, false, false, false, false, false, false, false, true, false, false]
trucks_used = [23, 0, 0, 0, 0, 0, 0, 0, 0, 0, 0, 0, 5, 0, 0]
truck_assigned = [13, 15, 11, 17, 21, 14, 13, 16, 3, 22, 18, 19, 7, 6, 20, 20, 12, 3, 18, 8, 23, 2, 23, 5, 19, 15, 10, 9, 4, 17]
obj = 4606
----------
source = [1, 13, 1, 13, 1, 1, 1, 1, 1, 1, 1, 1, 1, 1, 1, 1, 1, 13, 1, 1, 1, 13, 1, 13, 1, 1, 1, 1, 13, 1]
open = [true, false, false, false, false, false, false, false, false, false, false, false, true, false, false]
trucks_used = [20, 0, 0, 0, 0, 0, 0, 0, 0, 0, 0, 0, 6, 0, 0]
truck_assigned = [15, 1, 16, 3, 8, 4, 14, 9, 13, 7, 10, 18, 12, 15, 17, 20, 20, 2, 19, 6, 5, 4, 17, 6, 18, 10, 11, 19, 5, 14]
obj = 4518
----------
source = [1, 1, 1, 13, 1, 1, 1, 1, 1, 1, 1, 1, 1, 1, 1, 1, 1, 13, 1, 1, 1, 13, 1, 13, 1, 1, 1, 1, 13, 1]
open = [true, false, false, false, false, false, false, false, false, false, false, false, true, false, false]
trucks_used = [21, 0, 0, 0, 0, 0, 0, 0, 0, 0, 0, 0, 5, 0, 0]
truck_assigned = [7, 11, 12, 5, 17, 16, 14, 13, 19, 9, 7, 20, 5, 14, 8, 20, 21, 3, 3, 10, 18, 4, 18, 2, 21, 11, 6, 15, 1, 15]
obj = 4461
----------
source = [1, 1, 1, 1, 1, 1, 1, 1, 1, 1, 1, 1, 1, 1, 1, 1, 13, 13, 1, 1, 1, 1, 1, 13, 1, 1, 1, 1, 13, 1]
open = [true, false, false, false, false, false, false, false, false, false, false, false, true, false, false]
trucks_used = [23, 0, 0, 0, 0, 0, 0, 0, 0, 0, 0, 0, 3, 0, 0]
truck_assigned = [18, 18, 21, 12, 8, 22, 20, 16, 6, 14, 13, 7, 9, 20, 23, 13, 1, 1, 17, 15, 3, 11, 12, 3, 23, 19, 10, 17, 2, 19]
obj = 4451
----------
source = [1, 1, 1, 1, 1, 13, 1, 1, 1, 1, 1, 1, 1, 1, 1, 1, 13, 13, 1, 1, 1, 1, 1, 13, 1, 1, 1, 1, 13, 1]
open = [true, false, false, false, false, false, false, false, false, false, false, false, true, false, false]
trucks_used = [21, 0, 0, 0, 0, 0, 0, 0, 0, 0, 0, 0, 5, 0, 0]
truck_assigned = [8, 12, 6, 17, 11, 2, 5, 2, 14, 15, 16, 9, 19, 21, 10, 17, 5, 5, 16, 7, 18, 20, 20, 3, 10, 12, 13, 21, 4, 8]
obj = 4431
----------
source = [1, 1, 1, 1, 1, 13, 1, 1, 1, 1, 1, 1, 1, 1, 1, 1, 1, 13, 1, 1, 1, 1, 1, 13, 1, 1, 1, 13, 13, 1]
open = [true, false, false, false, false, false, false, false, false, false, false, false, true, false, false]
trucks_used = [20, 0, 0, 0, 0, 0, 0, 0, 0, 0, 0, 0, 5, 0, 0]
truck_assigned = [4, 2, 19, 15, 9, 5, 1, 18, 7, 13, 2, 11, 16, 6, 12, 6, 17, 4, 14, 10, 8, 3, 16, 2, 17, 14, 20, 4, 3, 15]
obj = 4357
----------
source = [1, 1, 1, 1, 1, 1, 1, 1, 1, 1, 1, 1, 1, 1, 1, 1, 1, 12, 1, 1, 1, 1, 1, 12, 1, 1, 12, 1, 12, 1]
open = [true, false, false, false, false, false, false, false, false, false, false, true, false, false, false]
trucks_used = [22, 0, 0, 0, 0, 0, 0, 0, 0, 0, 0, 2, 0, 0, 0]
truck_assigned = [5, 1, 2, 18, 12, 9, 18, 20, 21, 14, 19, 8, 17, 7, 16, 16, 22, 1, 15, 11, 10, 13, 17, 2, 22, 19, 2, 7, 1, 15]
obj = 4315
----------
source = [1, 1, 1, 1, 1, 1, 1, 1, 1, 1, 1, 1, 1, 1, 1, 1, 1, 2, 1, 1, 1, 1, 1, 2, 1, 1, 1, 1, 2, 1]
open = [true, true, false, false, false, false, false, false, false, false, false, false, false, false, false]
trucks_used = [21, 3, 0, 0, 0, 0, 0, 0, 0, 0, 0, 0, 0, 0, 0]
truck_assigned = [8, 7, 16, 2, 12, 21, 6, 20, 11, 4, 7, 19, 13, 17, 5, 19, 9, 1, 8, 15, 18, 10, 18, 2, 9, 3, 14, 17, 3, 6]
obj = 4224
----------
