+ /usr/bin/timeout 600 /usr/bin/time -v mzn-chuffed lbbd-datasets/planningandscheduling/makespan-insts/model.mzn lbbd-datasets/planningandscheduling/makespan-insts/c30j3m1.dzn
% No search annotation given. Defaulting to VSIDS!
obj = 67
----------
obj = 66
----------
obj = 65
----------
obj = 64
----------
obj = 63
----------
obj = 62
----------
obj = 61
----------
obj = 60
----------
obj = 59
----------
obj = 58
----------
obj = 57
----------
obj = 56
----------
obj = 55
----------
obj = 54
----------
obj = 53
----------
obj = 52
----------
obj = 51
----------
obj = 50
----------
obj = 49
----------
obj = 48
----------
obj = 47
----------
obj = 46
----------
obj = 45
----------
obj = 44
----------
obj = 43
----------
obj = 42
----------
obj = 41
----------
obj = 40
----------
obj = 39
----------
obj = 38
----------
obj = 37
----------
obj = 36
----------
