+ /usr/bin/timeout 600 /usr/bin/time -v mzn-chuffed lbbd-datasets/Rabadi-2006/dzn-balanced/model.mzn lbbd-datasets/Rabadi-2006/dzn-balanced/6on2Rp50Rs50_8Ameer.dzn
% No search annotation given. Defaulting to VSIDS!
assign = array1d(1..8 ,[2, 2, 2, 2, 2, 2, 1, 2]);
next = array1d(1..8 ,[2, 3, 4, 5, 6, 8, 1, 7]);
makespan = 858;
----------
assign = array1d(1..8 ,[2, 2, 2, 2, 2, 2, 1, 2]);
next = array1d(1..8 ,[4, 3, 5, 2, 6, 8, 1, 7]);
makespan = 848;
----------
assign = array1d(1..8 ,[1, 1, 1, 1, 1, 1, 1, 2]);
next = array1d(1..8 ,[7, 5, 6, 3, 1, 2, 8, 4]);
makespan = 814;
----------
assign = array1d(1..8 ,[2, 2, 2, 1, 2, 2, 1, 2]);
next = array1d(1..8 ,[5, 6, 1, 7, 2, 8, 3, 4]);
makespan = 802;
----------
assign = array1d(1..8 ,[2, 2, 2, 1, 2, 2, 1, 2]);
next = array1d(1..8 ,[5, 6, 1, 7, 2, 8, 3, 4]);
makespan = 797;
----------
assign = array1d(1..8 ,[2, 2, 2, 1, 2, 2, 1, 2]);
next = array1d(1..8 ,[5, 6, 1, 7, 2, 8, 3, 4]);
makespan = 780;
----------
assign = array1d(1..8 ,[2, 2, 2, 1, 2, 2, 1, 2]);
next = array1d(1..8 ,[5, 6, 1, 7, 2, 8, 3, 4]);
makespan = 777;
----------
assign = array1d(1..8 ,[2, 2, 2, 1, 2, 2, 1, 2]);
next = array1d(1..8 ,[5, 6, 1, 7, 2, 8, 3, 4]);
makespan = 759;
----------
assign = array1d(1..8 ,[2, 2, 2, 1, 2, 2, 1, 2]);
next = array1d(1..8 ,[5, 6, 1, 7, 2, 8, 3, 4]);
makespan = 741;
----------
assign = array1d(1..8 ,[2, 2, 2, 1, 2, 2, 1, 2]);
next = array1d(1..8 ,[5, 6, 1, 7, 2, 8, 3, 4]);
makespan = 724;
----------
assign = array1d(1..8 ,[2, 2, 2, 1, 2, 2, 1, 2]);
next = array1d(1..8 ,[5, 6, 1, 7, 2, 8, 3, 4]);
makespan = 723;
----------
assign = array1d(1..8 ,[2, 2, 2, 1, 2, 2, 1, 2]);
next = array1d(1..8 ,[5, 8, 1, 7, 2, 3, 6, 4]);
makespan = 721;
----------
assign = array1d(1..8 ,[2, 2, 2, 1, 2, 2, 1, 2]);
next = array1d(1..8 ,[5, 8, 1, 7, 2, 3, 6, 4]);
makespan = 719;
----------
assign = array1d(1..8 ,[2, 2, 2, 1, 2, 2, 1, 2]);
next = array1d(1..8 ,[5, 8, 1, 7, 2, 3, 6, 4]);
makespan = 716;
----------
assign = array1d(1..8 ,[2, 2, 2, 1, 2, 2, 1, 2]);
next = array1d(1..8 ,[5, 8, 1, 7, 2, 3, 6, 4]);
makespan = 703;
----------
assign = array1d(1..8 ,[2, 2, 2, 1, 2, 2, 1, 2]);
next = array1d(1..8 ,[5, 8, 1, 7, 2, 3, 6, 4]);
makespan = 699;
----------
assign = array1d(1..8 ,[2, 2, 2, 1, 2, 2, 1, 2]);
next = array1d(1..8 ,[5, 8, 1, 7, 2, 3, 6, 4]);
makespan = 698;
----------
assign = array1d(1..8 ,[2, 2, 2, 1, 2, 2, 1, 2]);
next = array1d(1..8 ,[5, 8, 1, 7, 2, 3, 6, 4]);
makespan = 689;
----------
assign = array1d(1..8 ,[2, 2, 2, 1, 2, 1, 1, 2]);
next = array1d(1..8 ,[5, 8, 1, 7, 2, 4, 3, 6]);
makespan = 681;
----------
assign = array1d(1..8 ,[2, 2, 2, 1, 2, 1, 1, 2]);
next = array1d(1..8 ,[5, 8, 1, 7, 2, 4, 3, 6]);
makespan = 678;
----------
assign = array1d(1..8 ,[2, 2, 2, 1, 2, 1, 1, 2]);
next = array1d(1..8 ,[5, 8, 1, 7, 2, 4, 3, 6]);
makespan = 672;
----------
assign = array1d(1..8 ,[2, 2, 2, 1, 2, 1, 1, 2]);
next = array1d(1..8 ,[5, 8, 1, 7, 2, 4, 3, 6]);
makespan = 663;
----------
assign = array1d(1..8 ,[2, 2, 2, 1, 2, 1, 1, 2]);
next = array1d(1..8 ,[5, 8, 1, 7, 2, 4, 3, 6]);
makespan = 660;
----------
assign = array1d(1..8 ,[2, 2, 2, 1, 2, 1, 1, 2]);
next = array1d(1..8 ,[5, 8, 1, 7, 2, 4, 3, 6]);
makespan = 646;
----------
assign = array1d(1..8 ,[2, 2, 2, 1, 2, 1, 1, 2]);
next = array1d(1..8 ,[5, 8, 1, 7, 2, 4, 3, 6]);
makespan = 643;
----------
assign = array1d(1..8 ,[2, 2, 2, 1, 2, 1, 1, 2]);
next = array1d(1..8 ,[5, 8, 1, 7, 2, 4, 3, 6]);
makespan = 642;
----------
assign = array1d(1..8 ,[2, 2, 2, 1, 2, 1, 1, 2]);
next = array1d(1..8 ,[5, 8, 1, 7, 2, 4, 3, 6]);
makespan = 638;
----------
assign = array1d(1..8 ,[2, 2, 2, 1, 2, 1, 1, 2]);
next = array1d(1..8 ,[5, 8, 1, 7, 2, 4, 3, 6]);
makespan = 625;
----------
assign = array1d(1..8 ,[2, 2, 2, 1, 2, 1, 1, 2]);
next = array1d(1..8 ,[5, 8, 1, 7, 2, 4, 3, 6]);
makespan = 622;
----------
assign = array1d(1..8 ,[2, 2, 2, 1, 2, 1, 1, 2]);
next = array1d(1..8 ,[5, 8, 1, 7, 2, 4, 3, 6]);
makespan = 620;
----------
assign = array1d(1..8 ,[2, 2, 2, 1, 2, 1, 1, 2]);
next = array1d(1..8 ,[5, 8, 1, 7, 2, 4, 3, 6]);
makespan = 617;
----------
assign = array1d(1..8 ,[2, 2, 2, 1, 2, 1, 1, 2]);
next = array1d(1..8 ,[5, 8, 1, 7, 2, 4, 3, 6]);
makespan = 610;
----------
assign = array1d(1..8 ,[2, 2, 2, 1, 2, 1, 1, 2]);
next = array1d(1..8 ,[5, 8, 1, 7, 2, 4, 3, 6]);
makespan = 604;
----------
assign = array1d(1..8 ,[2, 2, 2, 1, 2, 1, 1, 2]);
next = array1d(1..8 ,[5, 8, 1, 7, 2, 4, 3, 6]);
makespan = 600;
----------
assign = array1d(1..8 ,[2, 2, 2, 1, 2, 1, 1, 2]);
next = array1d(1..8 ,[5, 8, 1, 7, 2, 4, 3, 6]);
makespan = 599;
----------
assign = array1d(1..8 ,[2, 2, 2, 1, 2, 1, 1, 2]);
next = array1d(1..8 ,[5, 8, 1, 7, 2, 4, 3, 6]);
makespan = 582;
----------
assign = array1d(1..8 ,[2, 2, 2, 1, 2, 1, 1, 2]);
next = array1d(1..8 ,[5, 8, 1, 7, 2, 4, 3, 6]);
makespan = 579;
----------
assign = array1d(1..8 ,[2, 2, 2, 1, 2, 1, 1, 2]);
next = array1d(1..8 ,[5, 8, 1, 7, 2, 4, 3, 6]);
makespan = 564;
----------
assign = array1d(1..8 ,[2, 2, 2, 1, 2, 1, 1, 2]);
next = array1d(1..8 ,[5, 8, 1, 7, 2, 4, 3, 6]);
makespan = 561;
----------
assign = array1d(1..8 ,[2, 2, 2, 1, 2, 1, 1, 2]);
next = array1d(1..8 ,[5, 8, 1, 7, 2, 4, 3, 6]);
makespan = 553;
----------
assign = array1d(1..8 ,[2, 2, 2, 1, 2, 1, 1, 2]);
next = array1d(1..8 ,[5, 8, 1, 7, 2, 4, 3, 6]);
makespan = 547;
----------
assign = array1d(1..8 ,[2, 1, 2, 1, 2, 1, 1, 2]);
next = array1d(1..8 ,[5, 4, 1, 7, 8, 2, 3, 6]);
makespan = 544;
----------
assign = array1d(1..8 ,[2, 1, 2, 1, 2, 1, 1, 2]);
next = array1d(1..8 ,[5, 4, 1, 7, 8, 2, 3, 6]);
makespan = 543;
----------
assign = array1d(1..8 ,[2, 1, 2, 1, 2, 1, 1, 2]);
next = array1d(1..8 ,[5, 4, 1, 7, 8, 2, 3, 6]);
makespan = 539;
----------
assign = array1d(1..8 ,[2, 1, 2, 1, 2, 1, 1, 2]);
next = array1d(1..8 ,[5, 4, 1, 7, 8, 2, 3, 6]);
makespan = 526;
----------
assign = array1d(1..8 ,[2, 1, 2, 1, 2, 1, 1, 2]);
next = array1d(1..8 ,[5, 4, 1, 7, 8, 2, 3, 6]);
makespan = 524;
----------
assign = array1d(1..8 ,[2, 1, 2, 1, 2, 1, 1, 2]);
next = array1d(1..8 ,[5, 4, 1, 7, 8, 2, 3, 6]);
makespan = 523;
----------
assign = array1d(1..8 ,[2, 1, 2, 1, 2, 1, 1, 2]);
next = array1d(1..8 ,[5, 4, 1, 7, 8, 2, 3, 6]);
makespan = 521;
----------
assign = array1d(1..8 ,[2, 1, 2, 1, 2, 1, 1, 2]);
next = array1d(1..8 ,[5, 4, 1, 7, 8, 2, 3, 6]);
makespan = 518;
----------
assign = array1d(1..8 ,[2, 1, 2, 1, 2, 1, 1, 2]);
next = array1d(1..8 ,[5, 4, 1, 7, 8, 2, 3, 6]);
makespan = 513;
----------
assign = array1d(1..8 ,[2, 1, 2, 1, 2, 1, 1, 2]);
next = array1d(1..8 ,[5, 4, 1, 7, 8, 2, 3, 6]);
makespan = 501;
----------
assign = array1d(1..8 ,[2, 1, 2, 1, 2, 1, 1, 2]);
next = array1d(1..8 ,[5, 4, 1, 7, 8, 2, 3, 6]);
makespan = 492;
----------
assign = array1d(1..8 ,[2, 1, 2, 1, 2, 1, 1, 2]);
next = array1d(1..8 ,[5, 4, 1, 7, 8, 2, 3, 6]);
makespan = 483;
----------
assign = array1d(1..8 ,[2, 1, 2, 1, 2, 1, 1, 2]);
next = array1d(1..8 ,[5, 4, 1, 7, 8, 2, 3, 6]);
makespan = 475;
----------
assign = array1d(1..8 ,[2, 1, 2, 1, 2, 1, 1, 2]);
next = array1d(1..8 ,[5, 4, 1, 7, 8, 2, 3, 6]);
makespan = 474;
----------
assign = array1d(1..8 ,[2, 1, 2, 1, 2, 1, 1, 2]);
next = array1d(1..8 ,[5, 4, 1, 7, 8, 2, 3, 6]);
makespan = 454;
----------
assign = array1d(1..8 ,[2, 1, 2, 1, 2, 1, 1, 2]);
next = array1d(1..8 ,[5, 4, 1, 7, 8, 2, 3, 6]);
makespan = 414;
----------
assign = array1d(1..8 ,[2, 1, 2, 1, 2, 1, 1, 2]);
next = array1d(1..8 ,[5, 4, 8, 7, 3, 2, 1, 6]);
makespan = 407;
----------
assign = array1d(1..8 ,[2, 1, 2, 1, 2, 1, 1, 2]);
next = array1d(1..8 ,[5, 6, 8, 7, 3, 4, 1, 2]);
makespan = 391;
----------
assign = array1d(1..8 ,[2, 1, 2, 1, 2, 1, 1, 2]);
next = array1d(1..8 ,[5, 6, 8, 2, 3, 7, 1, 4]);
makespan = 384;
----------
assign = array1d(1..8 ,[2, 1, 2, 1, 2, 1, 1, 2]);
next = array1d(1..8 ,[5, 6, 8, 2, 3, 7, 1, 4]);
makespan = 382;
----------
assign = array1d(1..8 ,[2, 1, 2, 1, 2, 1, 1, 2]);
next = array1d(1..8 ,[5, 6, 8, 2, 3, 7, 1, 4]);
makespan = 379;
----------
assign = array1d(1..8 ,[2, 2, 1, 1, 2, 1, 1, 2]);
next = array1d(1..8 ,[5, 8, 4, 6, 2, 7, 1, 3]);
makespan = 376;
----------
assign = array1d(1..8 ,[2, 2, 1, 1, 2, 1, 1, 2]);
next = array1d(1..8 ,[5, 8, 4, 6, 2, 7, 1, 3]);
makespan = 375;
----------
assign = array1d(1..8 ,[2, 2, 1, 1, 2, 1, 1, 2]);
next = array1d(1..8 ,[5, 8, 4, 6, 2, 7, 1, 3]);
makespan = 373;
----------
assign = array1d(1..8 ,[2, 2, 1, 1, 2, 1, 1, 2]);
next = array1d(1..8 ,[8, 1, 6, 3, 2, 7, 5, 4]);
makespan = 369;
----------
assign = array1d(1..8 ,[1, 2, 1, 2, 2, 1, 1, 2]);
next = array1d(1..8 ,[3, 4, 6, 5, 8, 7, 2, 1]);
makespan = 365;
----------
assign = array1d(1..8 ,[1, 2, 1, 2, 2, 1, 1, 2]);
next = array1d(1..8 ,[3, 4, 6, 5, 8, 7, 2, 1]);
makespan = 363;
----------
assign = array1d(1..8 ,[1, 2, 1, 2, 2, 1, 1, 2]);
next = array1d(1..8 ,[3, 4, 6, 5, 8, 7, 2, 1]);
makespan = 362;
----------
assign = array1d(1..8 ,[1, 2, 1, 2, 2, 1, 1, 2]);
next = array1d(1..8 ,[3, 4, 6, 5, 8, 7, 2, 1]);
makespan = 356;
----------
assign = array1d(1..8 ,[1, 2, 1, 2, 2, 1, 1, 2]);
next = array1d(1..8 ,[3, 5, 6, 2, 8, 7, 4, 1]);
makespan = 353;
----------
assign = array1d(1..8 ,[1, 2, 1, 2, 1, 2, 1, 2]);
next = array1d(1..8 ,[7, 8, 1, 2, 3, 4, 6, 5]);
makespan = 350;
----------
assign = array1d(1..8 ,[1, 2, 1, 2, 2, 1, 1, 2]);
next = array1d(1..8 ,[3, 8, 6, 5, 2, 7, 4, 1]);
makespan = 349;
----------
assign = array1d(1..8 ,[1, 2, 2, 1, 2, 1, 1, 2]);
next = array1d(1..8 ,[6, 8, 5, 1, 2, 7, 3, 4]);
makespan = 348;
----------
assign = array1d(1..8 ,[1, 1, 1, 2, 2, 2, 1, 2]);
next = array1d(1..8 ,[7, 3, 1, 5, 8, 4, 6, 2]);
makespan = 345;
----------
assign = array1d(1..8 ,[1, 1, 1, 2, 2, 2, 1, 2]);
next = array1d(1..8 ,[7, 3, 1, 5, 8, 4, 6, 2]);
makespan = 342;
----------
assign = array1d(1..8 ,[1, 1, 1, 2, 2, 2, 1, 2]);
next = array1d(1..8 ,[7, 3, 1, 5, 8, 4, 6, 2]);
makespan = 341;
----------
assign = array1d(1..8 ,[1, 1, 1, 2, 2, 2, 1, 2]);
next = array1d(1..8 ,[7, 3, 1, 5, 8, 4, 6, 2]);
makespan = 340;
----------
assign = array1d(1..8 ,[1, 2, 1, 1, 2, 2, 1, 2]);
next = array1d(1..8 ,[4, 5, 1, 7, 8, 2, 6, 3]);
makespan = 339;
----------
assign = array1d(1..8 ,[1, 2, 1, 1, 2, 2, 1, 2]);
next = array1d(1..8 ,[4, 5, 1, 7, 8, 2, 6, 3]);
makespan = 335;
----------
assign = array1d(1..8 ,[1, 2, 1, 1, 2, 2, 1, 2]);
next = array1d(1..8 ,[4, 5, 1, 7, 8, 2, 6, 3]);
makespan = 332;
----------
assign = array1d(1..8 ,[1, 2, 1, 1, 2, 2, 1, 2]);
next = array1d(1..8 ,[4, 8, 1, 7, 2, 5, 6, 3]);
makespan = 331;
----------
assign = array1d(1..8 ,[1, 2, 1, 1, 2, 2, 1, 2]);
next = array1d(1..8 ,[3, 8, 7, 1, 6, 2, 5, 4]);
makespan = 330;
----------
assign = array1d(1..8 ,[1, 2, 1, 1, 2, 2, 1, 2]);
next = array1d(1..8 ,[3, 8, 7, 1, 6, 2, 5, 4]);
makespan = 329;
----------
assign = array1d(1..8 ,[1, 2, 1, 1, 2, 2, 1, 2]);
next = array1d(1..8 ,[3, 8, 7, 1, 6, 2, 5, 4]);
makespan = 328;
----------
assign = array1d(1..8 ,[1, 2, 1, 1, 2, 2, 1, 2]);
next = array1d(1..8 ,[3, 8, 7, 1, 2, 5, 6, 4]);
makespan = 326;
----------
assign = array1d(1..8 ,[1, 2, 1, 1, 2, 2, 1, 2]);
next = array1d(1..8 ,[3, 8, 7, 1, 2, 5, 6, 4]);
makespan = 324;
----------
assign = array1d(1..8 ,[1, 2, 1, 1, 2, 2, 1, 2]);
next = array1d(1..8 ,[3, 8, 7, 1, 2, 5, 6, 4]);
makespan = 323;
----------
assign = array1d(1..8 ,[1, 2, 1, 1, 2, 2, 1, 2]);
next = array1d(1..8 ,[3, 8, 7, 1, 2, 5, 6, 4]);
makespan = 321;
----------
assign = array1d(1..8 ,[1, 2, 1, 1, 2, 2, 1, 2]);
next = array1d(1..8 ,[3, 8, 7, 1, 2, 5, 6, 4]);
makespan = 320;
----------
assign = array1d(1..8 ,[1, 2, 1, 1, 2, 2, 1, 2]);
next = array1d(1..8 ,[3, 8, 7, 1, 2, 5, 6, 4]);
makespan = 319;
----------
==========
	Command being timed: "mzn-chuffed lbbd-datasets/Rabadi-2006/dzn-balanced/model.mzn lbbd-datasets/Rabadi-2006/dzn-balanced/6on2Rp50Rs50_8Ameer.dzn"
	User time (seconds): 0.21
	System time (seconds): 0.01
	Percent of CPU this job got: 72%
	Elapsed (wall clock) time (h:mm:ss or m:ss): 0:00.30
	Average shared text size (kbytes): 0
	Average unshared data size (kbytes): 0
	Average stack size (kbytes): 0
	Average total size (kbytes): 0
	Maximum resident set size (kbytes): 29696
	Average resident set size (kbytes): 0
	Major (requiring I/O) page faults: 0
	Minor (reclaiming a frame) page faults: 2580
	Voluntary context switches: 95
	Involuntary context switches: 2
	Swaps: 0
	File system inputs: 0
	File system outputs: 112
	Socket messages sent: 0
	Socket messages received: 0
	Signals delivered: 0
	Page size (bytes): 4096
	Exit status: 0
