+ /usr/bin/timeout 600 /usr/bin/time -v mzn-chuffed lbbd-datasets/planningandscheduling/cost-insts/model.mzn lbbd-datasets/planningandscheduling/cost-insts/de18j3m3.dzn
% No search annotation given. Defaulting to VSIDS!
obj = 654
----------
obj = 632
----------
obj = 630
----------
obj = 608
----------
obj = 599
----------
obj = 597
----------
obj = 575
----------
obj = 557
----------
obj = 540
----------
obj = 539
----------
obj = 537
----------
obj = 515
----------
obj = 507
----------
obj = 502
----------
==========
	Command being timed: "mzn-chuffed lbbd-datasets/planningandscheduling/cost-insts/model.mzn lbbd-datasets/planningandscheduling/cost-insts/de18j3m3.dzn"
	User time (seconds): 0.20
	System time (seconds): 0.00
	Percent of CPU this job got: 80%
	Elapsed (wall clock) time (h:mm:ss or m:ss): 0:00.25
	Average shared text size (kbytes): 0
	Average unshared data size (kbytes): 0
	Average stack size (kbytes): 0
	Average total size (kbytes): 0
	Maximum resident set size (kbytes): 28752
	Average resident set size (kbytes): 0
	Major (requiring I/O) page faults: 0
	Minor (reclaiming a frame) page faults: 2448
	Voluntary context switches: 20
	Involuntary context switches: 2
	Swaps: 0
	File system inputs: 0
	File system outputs: 88
	Socket messages sent: 0
	Socket messages received: 0
	Signals delivered: 0
	Page size (bytes): 4096
	Exit status: 0
