+ /usr/bin/timeout 600 /usr/bin/time -v mzn-chuffed lbbd-datasets/Rabadi-2006/dzn-p-dominant/model.mzn lbbd-datasets/Rabadi-2006/dzn-p-dominant/9on6Rp50Rs50_6Ameer.dzn
% No search annotation given. Defaulting to VSIDS!
assign = array1d(1..15 ,[6, 6, 6, 6, 6, 6, 6, 6, 6, 1, 2, 3, 4, 5, 6]);
next = array1d(1..15 ,[2, 3, 4, 5, 6, 7, 8, 9, 15, 11, 12, 13, 14, 1, 10]);
makespan = 1971;
----------
assign = array1d(1..15 ,[6, 6, 6, 6, 6, 6, 6, 6, 6, 1, 2, 3, 4, 5, 6]);
next = array1d(1..15 ,[3, 4, 2, 5, 6, 7, 8, 9, 15, 11, 12, 13, 14, 1, 10]);
makespan = 1923;
----------
assign = array1d(1..15 ,[6, 6, 6, 6, 6, 6, 6, 1, 6, 1, 2, 3, 4, 5, 6]);
next = array1d(1..15 ,[6, 1, 4, 9, 15, 5, 3, 10, 2, 11, 12, 13, 14, 7, 8]);
makespan = 1836;
----------
assign = array1d(1..15 ,[6, 6, 6, 6, 2, 6, 6, 6, 6, 1, 2, 3, 4, 5, 6]);
next = array1d(1..15 ,[6, 7, 8, 9, 11, 2, 15, 1, 3, 5, 12, 13, 14, 4, 10]);
makespan = 1832;
----------
assign = array1d(1..15 ,[6, 6, 6, 2, 6, 6, 6, 6, 6, 1, 2, 3, 4, 5, 6]);
next = array1d(1..15 ,[6, 1, 15, 11, 2, 9, 8, 5, 3, 4, 12, 13, 14, 7, 10]);
makespan = 1831;
----------
assign = array1d(1..15 ,[6, 6, 6, 1, 6, 6, 6, 6, 6, 1, 2, 3, 4, 5, 6]);
next = array1d(1..15 ,[6, 9, 8, 10, 1, 15, 2, 7, 5, 11, 12, 13, 14, 3, 4]);
makespan = 1829;
----------
assign = array1d(1..15 ,[6, 1, 6, 6, 6, 6, 6, 6, 6, 1, 2, 3, 4, 5, 6]);
next = array1d(1..15 ,[6, 10, 8, 9, 1, 15, 3, 4, 5, 11, 12, 13, 14, 7, 2]);
makespan = 1827;
----------
assign = array1d(1..15 ,[1, 6, 6, 6, 6, 6, 6, 6, 6, 1, 2, 3, 4, 5, 6]);
next = array1d(1..15 ,[10, 7, 8, 9, 2, 15, 6, 5, 3, 11, 12, 13, 14, 4, 1]);
makespan = 1823;
----------
assign = array1d(1..15 ,[6, 1, 6, 6, 6, 6, 6, 6, 6, 1, 2, 3, 4, 5, 6]);
next = array1d(1..15 ,[6, 10, 4, 9, 15, 7, 3, 1, 5, 11, 12, 13, 14, 8, 2]);
makespan = 1822;
----------
assign = array1d(1..15 ,[6, 6, 6, 6, 6, 5, 6, 6, 6, 1, 2, 3, 4, 5, 6]);
next = array1d(1..15 ,[3, 7, 15, 9, 2, 14, 1, 4, 5, 11, 12, 13, 6, 8, 10]);
makespan = 1819;
----------
assign = array1d(1..15 ,[1, 6, 6, 6, 6, 6, 6, 6, 6, 1, 2, 3, 4, 5, 6]);
next = array1d(1..15 ,[10, 7, 15, 9, 2, 4, 3, 6, 5, 11, 12, 13, 14, 8, 1]);
makespan = 1817;
----------
assign = array1d(1..15 ,[6, 1, 6, 6, 6, 6, 6, 6, 6, 1, 2, 3, 4, 5, 6]);
next = array1d(1..15 ,[4, 10, 15, 9, 1, 7, 3, 5, 6, 11, 12, 13, 14, 8, 2]);
makespan = 1816;
----------
assign = array1d(1..15 ,[1, 6, 6, 6, 6, 6, 6, 6, 6, 1, 2, 3, 4, 5, 6]);
next = array1d(1..15 ,[10, 6, 8, 9, 2, 7, 15, 5, 3, 11, 12, 13, 14, 4, 1]);
makespan = 1815;
----------
assign = array1d(1..15 ,[6, 6, 6, 1, 6, 6, 6, 6, 6, 1, 2, 3, 4, 5, 6]);
next = array1d(1..15 ,[9, 3, 15, 10, 7, 2, 8, 1, 6, 11, 12, 13, 14, 5, 4]);
makespan = 1814;
----------
assign = array1d(1..15 ,[2, 6, 6, 6, 6, 6, 6, 6, 6, 1, 2, 3, 4, 5, 6]);
next = array1d(1..15 ,[11, 4, 15, 9, 6, 7, 2, 5, 3, 1, 12, 13, 14, 8, 10]);
makespan = 1813;
----------
assign = array1d(1..15 ,[1, 6, 6, 6, 6, 6, 6, 6, 6, 1, 2, 3, 4, 5, 6]);
next = array1d(1..15 ,[10, 6, 8, 9, 2, 4, 3, 5, 15, 11, 12, 13, 14, 7, 1]);
makespan = 1812;
----------
assign = array1d(1..15 ,[6, 6, 6, 5, 6, 6, 6, 6, 6, 1, 2, 3, 4, 5, 6]);
next = array1d(1..15 ,[9, 7, 15, 14, 3, 2, 5, 1, 6, 11, 12, 13, 4, 8, 10]);
makespan = 1805;
----------
assign = array1d(1..15 ,[6, 1, 6, 6, 6, 6, 6, 6, 6, 1, 2, 3, 4, 5, 6]);
next = array1d(1..15 ,[6, 10, 4, 9, 1, 7, 15, 5, 8, 11, 12, 13, 14, 3, 2]);
makespan = 1801;
----------
assign = array1d(1..15 ,[6, 4, 6, 6, 6, 6, 6, 6, 6, 1, 2, 3, 4, 5, 6]);
next = array1d(1..15 ,[6, 13, 15, 9, 1, 4, 3, 5, 7, 11, 12, 2, 14, 8, 10]);
makespan = 1798;
----------
assign = array1d(1..15 ,[6, 6, 6, 3, 6, 6, 6, 6, 6, 1, 2, 3, 4, 5, 6]);
next = array1d(1..15 ,[6, 3, 1, 12, 15, 7, 5, 9, 2, 11, 4, 13, 14, 8, 10]);
makespan = 1797;
----------
assign = array1d(1..15 ,[6, 6, 6, 3, 6, 6, 6, 6, 6, 1, 2, 3, 4, 5, 6]);
next = array1d(1..15 ,[6, 3, 1, 12, 15, 7, 5, 9, 2, 11, 4, 13, 14, 8, 10]);
makespan = 1795;
----------
assign = array1d(1..15 ,[6, 6, 6, 3, 6, 6, 6, 6, 6, 1, 2, 3, 4, 5, 6]);
next = array1d(1..15 ,[6, 3, 1, 12, 15, 7, 5, 9, 2, 11, 4, 13, 14, 8, 10]);
makespan = 1750;
----------
assign = array1d(1..15 ,[6, 6, 6, 3, 6, 6, 6, 6, 6, 1, 2, 3, 4, 5, 6]);
next = array1d(1..15 ,[6, 3, 1, 12, 15, 7, 5, 9, 2, 11, 4, 13, 14, 8, 10]);
makespan = 1746;
----------
assign = array1d(1..15 ,[6, 6, 6, 3, 6, 6, 6, 6, 6, 1, 2, 3, 4, 5, 6]);
next = array1d(1..15 ,[6, 3, 1, 12, 15, 7, 5, 9, 2, 11, 4, 13, 14, 8, 10]);
makespan = 1725;
----------
assign = array1d(1..15 ,[6, 6, 6, 3, 6, 6, 6, 6, 6, 1, 2, 3, 4, 5, 6]);
next = array1d(1..15 ,[6, 3, 1, 12, 15, 7, 5, 9, 2, 11, 4, 13, 14, 8, 10]);
makespan = 1709;
----------
assign = array1d(1..15 ,[6, 6, 6, 3, 6, 6, 6, 6, 6, 1, 2, 3, 4, 5, 6]);
next = array1d(1..15 ,[6, 3, 1, 12, 8, 15, 5, 9, 2, 11, 4, 13, 14, 7, 10]);
makespan = 1696;
----------
assign = array1d(1..15 ,[6, 6, 6, 3, 6, 6, 6, 6, 6, 1, 2, 3, 4, 5, 6]);
next = array1d(1..15 ,[6, 3, 1, 12, 8, 15, 5, 9, 2, 11, 4, 13, 14, 7, 10]);
makespan = 1692;
----------
assign = array1d(1..15 ,[6, 6, 6, 3, 6, 6, 6, 6, 6, 1, 2, 3, 4, 5, 6]);
next = array1d(1..15 ,[6, 3, 15, 12, 8, 7, 5, 9, 2, 11, 4, 13, 14, 1, 10]);
makespan = 1688;
----------
assign = array1d(1..15 ,[6, 6, 6, 3, 6, 6, 6, 6, 6, 1, 2, 3, 4, 5, 6]);
next = array1d(1..15 ,[6, 3, 15, 12, 8, 7, 5, 9, 2, 11, 4, 13, 14, 1, 10]);
makespan = 1684;
----------
assign = array1d(1..15 ,[6, 6, 6, 3, 6, 6, 6, 6, 6, 1, 2, 3, 4, 5, 6]);
next = array1d(1..15 ,[6, 3, 15, 12, 8, 7, 5, 9, 2, 11, 4, 13, 14, 1, 10]);
makespan = 1683;
----------
assign = array1d(1..15 ,[6, 6, 5, 5, 6, 6, 6, 6, 6, 1, 2, 3, 4, 5, 6]);
next = array1d(1..15 ,[6, 15, 14, 3, 8, 7, 5, 9, 2, 11, 12, 13, 4, 1, 10]);
makespan = 1682;
----------
assign = array1d(1..15 ,[6, 6, 5, 5, 6, 6, 6, 6, 6, 1, 2, 3, 4, 5, 6]);
next = array1d(1..15 ,[6, 15, 14, 3, 8, 7, 5, 9, 2, 11, 12, 13, 4, 1, 10]);
makespan = 1681;
----------
assign = array1d(1..15 ,[6, 6, 5, 5, 6, 6, 6, 6, 6, 1, 2, 3, 4, 5, 6]);
next = array1d(1..15 ,[6, 15, 14, 3, 8, 7, 5, 9, 2, 11, 12, 13, 4, 1, 10]);
makespan = 1679;
----------
assign = array1d(1..15 ,[6, 6, 5, 5, 6, 6, 6, 6, 6, 1, 2, 3, 4, 5, 6]);
next = array1d(1..15 ,[6, 15, 14, 3, 8, 7, 5, 9, 2, 11, 12, 13, 4, 1, 10]);
makespan = 1677;
----------
assign = array1d(1..15 ,[6, 6, 5, 5, 6, 6, 6, 6, 6, 1, 2, 3, 4, 5, 6]);
next = array1d(1..15 ,[6, 15, 14, 3, 8, 7, 5, 9, 2, 11, 12, 13, 4, 1, 10]);
makespan = 1676;
----------
assign = array1d(1..15 ,[6, 6, 5, 5, 6, 6, 6, 6, 6, 1, 2, 3, 4, 5, 6]);
next = array1d(1..15 ,[6, 15, 14, 3, 8, 7, 5, 9, 2, 11, 12, 13, 4, 1, 10]);
makespan = 1675;
----------
assign = array1d(1..15 ,[6, 6, 5, 5, 6, 6, 6, 6, 6, 1, 2, 3, 4, 5, 6]);
next = array1d(1..15 ,[6, 15, 14, 3, 8, 7, 5, 9, 2, 11, 12, 13, 4, 1, 10]);
makespan = 1674;
----------
assign = array1d(1..15 ,[6, 6, 5, 5, 6, 6, 6, 6, 6, 1, 2, 3, 4, 5, 6]);
next = array1d(1..15 ,[6, 15, 14, 3, 8, 7, 5, 9, 2, 11, 12, 13, 4, 1, 10]);
makespan = 1672;
----------
assign = array1d(1..15 ,[6, 6, 5, 5, 6, 6, 6, 6, 6, 1, 2, 3, 4, 5, 6]);
next = array1d(1..15 ,[6, 15, 14, 3, 8, 7, 5, 9, 2, 11, 12, 13, 4, 1, 10]);
makespan = 1669;
----------
assign = array1d(1..15 ,[6, 6, 5, 5, 6, 6, 6, 6, 6, 1, 2, 3, 4, 5, 6]);
next = array1d(1..15 ,[6, 15, 14, 3, 8, 7, 5, 9, 2, 11, 12, 13, 4, 1, 10]);
makespan = 1668;
----------
assign = array1d(1..15 ,[6, 6, 5, 5, 6, 6, 6, 6, 6, 1, 2, 3, 4, 5, 6]);
next = array1d(1..15 ,[6, 15, 14, 3, 8, 7, 5, 9, 2, 11, 12, 13, 4, 1, 10]);
makespan = 1666;
----------
assign = array1d(1..15 ,[6, 6, 5, 5, 6, 6, 6, 6, 6, 1, 2, 3, 4, 5, 6]);
next = array1d(1..15 ,[6, 15, 14, 3, 8, 7, 5, 9, 2, 11, 12, 13, 4, 1, 10]);
makespan = 1664;
----------
assign = array1d(1..15 ,[6, 6, 5, 5, 6, 6, 6, 6, 6, 1, 2, 3, 4, 5, 6]);
next = array1d(1..15 ,[6, 15, 14, 3, 8, 7, 5, 9, 2, 11, 12, 13, 4, 1, 10]);
makespan = 1662;
----------
assign = array1d(1..15 ,[6, 6, 5, 5, 6, 6, 6, 6, 6, 1, 2, 3, 4, 5, 6]);
next = array1d(1..15 ,[6, 15, 14, 3, 8, 7, 5, 9, 2, 11, 12, 13, 4, 1, 10]);
makespan = 1660;
----------
assign = array1d(1..15 ,[6, 6, 5, 5, 6, 6, 6, 6, 6, 1, 2, 3, 4, 5, 6]);
next = array1d(1..15 ,[6, 15, 14, 3, 8, 7, 5, 9, 2, 11, 12, 13, 4, 1, 10]);
makespan = 1659;
----------
assign = array1d(1..15 ,[6, 6, 5, 5, 6, 6, 6, 6, 6, 1, 2, 3, 4, 5, 6]);
next = array1d(1..15 ,[6, 15, 14, 3, 8, 7, 5, 9, 2, 11, 12, 13, 4, 1, 10]);
makespan = 1658;
----------
assign = array1d(1..15 ,[6, 6, 5, 5, 6, 6, 6, 6, 6, 1, 2, 3, 4, 5, 6]);
next = array1d(1..15 ,[6, 15, 14, 3, 8, 7, 5, 9, 2, 11, 12, 13, 4, 1, 10]);
makespan = 1657;
----------
assign = array1d(1..15 ,[6, 6, 5, 5, 6, 6, 6, 6, 6, 1, 2, 3, 4, 5, 6]);
next = array1d(1..15 ,[6, 15, 14, 3, 8, 7, 5, 9, 2, 11, 12, 13, 4, 1, 10]);
makespan = 1655;
----------
assign = array1d(1..15 ,[6, 6, 5, 5, 6, 6, 6, 6, 6, 1, 2, 3, 4, 5, 6]);
next = array1d(1..15 ,[6, 15, 14, 3, 8, 7, 5, 9, 2, 11, 12, 13, 4, 1, 10]);
makespan = 1649;
----------
assign = array1d(1..15 ,[6, 6, 5, 5, 6, 6, 6, 6, 6, 1, 2, 3, 4, 5, 6]);
next = array1d(1..15 ,[6, 15, 14, 3, 8, 7, 5, 9, 2, 11, 12, 13, 4, 1, 10]);
makespan = 1646;
----------
assign = array1d(1..15 ,[6, 6, 5, 5, 6, 6, 6, 6, 6, 1, 2, 3, 4, 5, 6]);
next = array1d(1..15 ,[6, 15, 14, 3, 8, 7, 5, 9, 2, 11, 12, 13, 4, 1, 10]);
makespan = 1643;
----------
assign = array1d(1..15 ,[6, 6, 5, 5, 6, 6, 6, 6, 6, 1, 2, 3, 4, 5, 6]);
next = array1d(1..15 ,[6, 15, 14, 3, 8, 7, 5, 9, 2, 11, 12, 13, 4, 1, 10]);
makespan = 1642;
----------
assign = array1d(1..15 ,[6, 6, 5, 5, 6, 6, 6, 6, 6, 1, 2, 3, 4, 5, 6]);
next = array1d(1..15 ,[6, 15, 14, 3, 8, 7, 5, 9, 2, 11, 12, 13, 4, 1, 10]);
makespan = 1641;
----------
assign = array1d(1..15 ,[6, 6, 5, 5, 6, 6, 6, 6, 6, 1, 2, 3, 4, 5, 6]);
next = array1d(1..15 ,[6, 15, 14, 3, 8, 7, 5, 9, 2, 11, 12, 13, 4, 1, 10]);
makespan = 1640;
----------
assign = array1d(1..15 ,[6, 6, 5, 5, 6, 6, 6, 6, 6, 1, 2, 3, 4, 5, 6]);
next = array1d(1..15 ,[6, 15, 14, 3, 8, 7, 5, 9, 2, 11, 12, 13, 4, 1, 10]);
makespan = 1638;
----------
assign = array1d(1..15 ,[6, 6, 5, 5, 6, 6, 6, 6, 6, 1, 2, 3, 4, 5, 6]);
next = array1d(1..15 ,[6, 15, 14, 3, 8, 7, 5, 9, 2, 11, 12, 13, 4, 1, 10]);
makespan = 1620;
----------
assign = array1d(1..15 ,[6, 6, 5, 5, 6, 6, 6, 6, 6, 1, 2, 3, 4, 5, 6]);
next = array1d(1..15 ,[6, 15, 14, 3, 8, 7, 5, 9, 2, 11, 12, 13, 4, 1, 10]);
makespan = 1572;
----------
assign = array1d(1..15 ,[6, 6, 5, 5, 6, 6, 6, 6, 6, 1, 2, 3, 4, 5, 6]);
next = array1d(1..15 ,[6, 15, 14, 3, 8, 7, 5, 9, 2, 11, 12, 13, 4, 1, 10]);
makespan = 1564;
----------
assign = array1d(1..15 ,[6, 6, 5, 5, 6, 6, 6, 6, 6, 1, 2, 3, 4, 5, 6]);
next = array1d(1..15 ,[6, 15, 14, 3, 8, 7, 5, 9, 2, 11, 12, 13, 4, 1, 10]);
makespan = 1563;
----------
assign = array1d(1..15 ,[6, 6, 5, 5, 6, 6, 6, 6, 6, 1, 2, 3, 4, 5, 6]);
next = array1d(1..15 ,[6, 15, 14, 3, 8, 7, 5, 9, 2, 11, 12, 13, 4, 1, 10]);
makespan = 1548;
----------
assign = array1d(1..15 ,[6, 6, 5, 5, 6, 6, 6, 6, 6, 1, 2, 3, 4, 5, 6]);
next = array1d(1..15 ,[6, 15, 14, 3, 8, 7, 5, 9, 2, 11, 12, 13, 4, 1, 10]);
makespan = 1542;
----------
assign = array1d(1..15 ,[6, 6, 5, 5, 6, 6, 6, 6, 6, 1, 2, 3, 4, 5, 6]);
next = array1d(1..15 ,[6, 15, 14, 3, 8, 7, 5, 9, 2, 11, 12, 13, 4, 1, 10]);
makespan = 1541;
----------
assign = array1d(1..15 ,[6, 6, 5, 5, 6, 6, 6, 6, 6, 1, 2, 3, 4, 5, 6]);
next = array1d(1..15 ,[6, 15, 14, 3, 8, 7, 5, 9, 2, 11, 12, 13, 4, 1, 10]);
makespan = 1540;
----------
assign = array1d(1..15 ,[6, 6, 5, 5, 6, 6, 6, 6, 6, 1, 2, 3, 4, 5, 6]);
next = array1d(1..15 ,[6, 15, 14, 3, 8, 7, 5, 9, 2, 11, 12, 13, 4, 1, 10]);
makespan = 1539;
----------
assign = array1d(1..15 ,[6, 6, 5, 5, 6, 6, 6, 6, 6, 1, 2, 3, 4, 5, 6]);
next = array1d(1..15 ,[6, 15, 14, 3, 8, 7, 5, 9, 2, 11, 12, 13, 4, 1, 10]);
makespan = 1537;
----------
assign = array1d(1..15 ,[6, 6, 5, 5, 6, 6, 6, 6, 6, 1, 2, 3, 4, 5, 6]);
next = array1d(1..15 ,[6, 15, 14, 3, 8, 7, 5, 9, 2, 11, 12, 13, 4, 1, 10]);
makespan = 1536;
----------
assign = array1d(1..15 ,[6, 6, 5, 5, 6, 6, 6, 6, 6, 1, 2, 3, 4, 5, 6]);
next = array1d(1..15 ,[6, 15, 14, 3, 8, 7, 5, 9, 2, 11, 12, 13, 4, 1, 10]);
makespan = 1535;
----------
assign = array1d(1..15 ,[6, 6, 5, 5, 6, 6, 6, 6, 6, 1, 2, 3, 4, 5, 6]);
next = array1d(1..15 ,[6, 15, 14, 3, 8, 7, 5, 9, 2, 11, 12, 13, 4, 1, 10]);
makespan = 1534;
----------
assign = array1d(1..15 ,[6, 6, 5, 5, 6, 6, 6, 6, 6, 1, 2, 3, 4, 5, 6]);
next = array1d(1..15 ,[6, 15, 14, 3, 8, 7, 5, 9, 2, 11, 12, 13, 4, 1, 10]);
makespan = 1533;
----------
assign = array1d(1..15 ,[6, 6, 5, 5, 6, 6, 6, 6, 6, 1, 2, 3, 4, 5, 6]);
next = array1d(1..15 ,[6, 15, 14, 3, 8, 7, 5, 9, 2, 11, 12, 13, 4, 1, 10]);
makespan = 1531;
----------
assign = array1d(1..15 ,[6, 6, 5, 5, 6, 6, 6, 6, 6, 1, 2, 3, 4, 5, 6]);
next = array1d(1..15 ,[6, 15, 14, 3, 8, 7, 5, 9, 2, 11, 12, 13, 4, 1, 10]);
makespan = 1529;
----------
assign = array1d(1..15 ,[6, 6, 5, 5, 6, 6, 6, 6, 6, 1, 2, 3, 4, 5, 6]);
next = array1d(1..15 ,[6, 15, 14, 3, 8, 7, 5, 9, 2, 11, 12, 13, 4, 1, 10]);
makespan = 1528;
----------
assign = array1d(1..15 ,[6, 6, 5, 5, 6, 6, 6, 6, 6, 1, 2, 3, 4, 5, 6]);
next = array1d(1..15 ,[6, 15, 14, 3, 8, 7, 5, 9, 2, 11, 12, 13, 4, 1, 10]);
makespan = 1527;
----------
assign = array1d(1..15 ,[6, 6, 5, 5, 6, 6, 6, 6, 6, 1, 2, 3, 4, 5, 6]);
next = array1d(1..15 ,[6, 15, 14, 3, 8, 7, 5, 9, 2, 11, 12, 13, 4, 1, 10]);
makespan = 1526;
----------
assign = array1d(1..15 ,[6, 6, 5, 5, 6, 6, 6, 6, 6, 1, 2, 3, 4, 5, 6]);
next = array1d(1..15 ,[6, 15, 14, 3, 8, 7, 5, 9, 2, 11, 12, 13, 4, 1, 10]);
makespan = 1525;
----------
assign = array1d(1..15 ,[6, 6, 5, 5, 6, 6, 6, 6, 6, 1, 2, 3, 4, 5, 6]);
next = array1d(1..15 ,[6, 15, 14, 3, 8, 7, 5, 9, 2, 11, 12, 13, 4, 1, 10]);
makespan = 1524;
----------
assign = array1d(1..15 ,[6, 6, 5, 5, 6, 6, 6, 6, 6, 1, 2, 3, 4, 5, 6]);
next = array1d(1..15 ,[6, 15, 14, 3, 8, 7, 5, 9, 2, 11, 12, 13, 4, 1, 10]);
makespan = 1523;
----------
assign = array1d(1..15 ,[6, 6, 5, 5, 6, 6, 6, 6, 6, 1, 2, 3, 4, 5, 6]);
next = array1d(1..15 ,[6, 15, 14, 3, 8, 7, 5, 9, 2, 11, 12, 13, 4, 1, 10]);
makespan = 1522;
----------
assign = array1d(1..15 ,[6, 6, 5, 5, 6, 6, 6, 6, 6, 1, 2, 3, 4, 5, 6]);
next = array1d(1..15 ,[6, 15, 14, 3, 8, 7, 5, 9, 2, 11, 12, 13, 4, 1, 10]);
makespan = 1521;
----------
assign = array1d(1..15 ,[6, 6, 5, 5, 6, 6, 6, 6, 6, 1, 2, 3, 4, 5, 6]);
next = array1d(1..15 ,[6, 15, 14, 3, 8, 7, 5, 9, 2, 11, 12, 13, 4, 1, 10]);
makespan = 1520;
----------
assign = array1d(1..15 ,[6, 6, 5, 5, 6, 6, 6, 6, 6, 1, 2, 3, 4, 5, 6]);
next = array1d(1..15 ,[6, 15, 14, 3, 8, 7, 5, 9, 2, 11, 12, 13, 4, 1, 10]);
makespan = 1519;
----------
assign = array1d(1..15 ,[6, 6, 5, 5, 6, 6, 6, 6, 6, 1, 2, 3, 4, 5, 6]);
next = array1d(1..15 ,[6, 15, 14, 3, 8, 7, 5, 9, 2, 11, 12, 13, 4, 1, 10]);
makespan = 1518;
----------
assign = array1d(1..15 ,[6, 6, 5, 5, 6, 6, 6, 6, 6, 1, 2, 3, 4, 5, 6]);
next = array1d(1..15 ,[6, 15, 14, 3, 8, 7, 5, 9, 2, 11, 12, 13, 4, 1, 10]);
makespan = 1517;
----------
assign = array1d(1..15 ,[6, 6, 5, 5, 6, 6, 6, 6, 6, 1, 2, 3, 4, 5, 6]);
next = array1d(1..15 ,[6, 15, 14, 3, 8, 7, 5, 9, 2, 11, 12, 13, 4, 1, 10]);
makespan = 1516;
----------
assign = array1d(1..15 ,[6, 6, 5, 5, 6, 6, 6, 6, 6, 1, 2, 3, 4, 5, 6]);
next = array1d(1..15 ,[6, 15, 14, 3, 8, 7, 5, 9, 2, 11, 12, 13, 4, 1, 10]);
makespan = 1515;
----------
assign = array1d(1..15 ,[6, 6, 5, 5, 6, 6, 6, 6, 6, 1, 2, 3, 4, 5, 6]);
next = array1d(1..15 ,[6, 15, 14, 3, 8, 7, 5, 9, 2, 11, 12, 13, 4, 1, 10]);
makespan = 1514;
----------
assign = array1d(1..15 ,[6, 6, 5, 5, 6, 6, 6, 6, 6, 1, 2, 3, 4, 5, 6]);
next = array1d(1..15 ,[6, 15, 14, 3, 8, 7, 5, 9, 2, 11, 12, 13, 4, 1, 10]);
makespan = 1512;
----------
assign = array1d(1..15 ,[6, 6, 5, 5, 6, 6, 6, 6, 6, 1, 2, 3, 4, 5, 6]);
next = array1d(1..15 ,[6, 15, 14, 3, 8, 7, 5, 9, 2, 11, 12, 13, 4, 1, 10]);
makespan = 1511;
----------
assign = array1d(1..15 ,[6, 6, 5, 5, 6, 6, 6, 6, 6, 1, 2, 3, 4, 5, 6]);
next = array1d(1..15 ,[6, 15, 14, 3, 8, 7, 5, 9, 2, 11, 12, 13, 4, 1, 10]);
makespan = 1510;
----------
assign = array1d(1..15 ,[6, 6, 5, 5, 6, 6, 6, 6, 6, 1, 2, 3, 4, 5, 6]);
next = array1d(1..15 ,[6, 15, 14, 3, 8, 7, 5, 9, 2, 11, 12, 13, 4, 1, 10]);
makespan = 1509;
----------
assign = array1d(1..15 ,[6, 6, 5, 5, 6, 6, 6, 6, 6, 1, 2, 3, 4, 5, 6]);
next = array1d(1..15 ,[6, 15, 14, 3, 8, 7, 5, 9, 2, 11, 12, 13, 4, 1, 10]);
makespan = 1508;
----------
assign = array1d(1..15 ,[6, 6, 5, 5, 6, 6, 6, 6, 6, 1, 2, 3, 4, 5, 6]);
next = array1d(1..15 ,[6, 15, 14, 3, 8, 7, 5, 9, 2, 11, 12, 13, 4, 1, 10]);
makespan = 1507;
----------
assign = array1d(1..15 ,[6, 6, 5, 5, 6, 6, 6, 6, 6, 1, 2, 3, 4, 5, 6]);
next = array1d(1..15 ,[6, 15, 14, 3, 8, 7, 5, 9, 2, 11, 12, 13, 4, 1, 10]);
makespan = 1505;
----------
assign = array1d(1..15 ,[6, 6, 5, 5, 6, 6, 6, 6, 6, 1, 2, 3, 4, 5, 6]);
next = array1d(1..15 ,[6, 15, 14, 3, 8, 7, 5, 9, 2, 11, 12, 13, 4, 1, 10]);
makespan = 1503;
----------
assign = array1d(1..15 ,[6, 6, 5, 5, 6, 6, 6, 6, 6, 1, 2, 3, 4, 5, 6]);
next = array1d(1..15 ,[6, 15, 14, 3, 8, 7, 5, 9, 2, 11, 12, 13, 4, 1, 10]);
makespan = 1502;
----------
assign = array1d(1..15 ,[6, 6, 5, 5, 6, 6, 6, 6, 6, 1, 2, 3, 4, 5, 6]);
next = array1d(1..15 ,[6, 15, 14, 3, 8, 7, 5, 9, 2, 11, 12, 13, 4, 1, 10]);
makespan = 1501;
----------
assign = array1d(1..15 ,[6, 6, 5, 5, 6, 6, 6, 6, 6, 1, 2, 3, 4, 5, 6]);
next = array1d(1..15 ,[6, 15, 14, 3, 8, 7, 5, 9, 2, 11, 12, 13, 4, 1, 10]);
makespan = 1500;
----------
assign = array1d(1..15 ,[6, 6, 5, 5, 6, 6, 6, 6, 6, 1, 2, 3, 4, 5, 6]);
next = array1d(1..15 ,[6, 15, 14, 3, 8, 7, 5, 9, 2, 11, 12, 13, 4, 1, 10]);
makespan = 1498;
----------
assign = array1d(1..15 ,[6, 6, 5, 5, 6, 6, 6, 6, 6, 1, 2, 3, 4, 5, 6]);
next = array1d(1..15 ,[6, 15, 14, 3, 8, 7, 5, 9, 2, 11, 12, 13, 4, 1, 10]);
makespan = 1496;
----------
assign = array1d(1..15 ,[6, 6, 5, 5, 6, 6, 6, 6, 6, 1, 2, 3, 4, 5, 6]);
next = array1d(1..15 ,[6, 15, 14, 3, 8, 7, 5, 9, 2, 11, 12, 13, 4, 1, 10]);
makespan = 1495;
----------
assign = array1d(1..15 ,[6, 6, 5, 5, 6, 6, 6, 6, 6, 1, 2, 3, 4, 5, 6]);
next = array1d(1..15 ,[6, 15, 14, 3, 8, 7, 5, 9, 2, 11, 12, 13, 4, 1, 10]);
makespan = 1494;
----------
assign = array1d(1..15 ,[6, 6, 5, 5, 6, 6, 6, 6, 6, 1, 2, 3, 4, 5, 6]);
next = array1d(1..15 ,[6, 15, 14, 3, 8, 7, 5, 9, 2, 11, 12, 13, 4, 1, 10]);
makespan = 1492;
----------
assign = array1d(1..15 ,[6, 6, 5, 5, 6, 6, 6, 6, 6, 1, 2, 3, 4, 5, 6]);
next = array1d(1..15 ,[6, 15, 14, 3, 8, 7, 5, 9, 2, 11, 12, 13, 4, 1, 10]);
makespan = 1490;
----------
assign = array1d(1..15 ,[6, 6, 5, 5, 6, 6, 6, 6, 6, 1, 2, 3, 4, 5, 6]);
next = array1d(1..15 ,[6, 15, 14, 3, 8, 7, 5, 9, 2, 11, 12, 13, 4, 1, 10]);
makespan = 1488;
----------
assign = array1d(1..15 ,[6, 6, 5, 5, 6, 6, 6, 6, 6, 1, 2, 3, 4, 5, 6]);
next = array1d(1..15 ,[6, 15, 14, 3, 8, 7, 5, 9, 2, 11, 12, 13, 4, 1, 10]);
makespan = 1486;
----------
assign = array1d(1..15 ,[6, 6, 5, 5, 6, 6, 6, 6, 6, 1, 2, 3, 4, 5, 6]);
next = array1d(1..15 ,[6, 15, 14, 3, 8, 7, 5, 9, 2, 11, 12, 13, 4, 1, 10]);
makespan = 1485;
----------
assign = array1d(1..15 ,[6, 6, 5, 5, 6, 6, 6, 6, 6, 1, 2, 3, 4, 5, 6]);
next = array1d(1..15 ,[6, 15, 14, 3, 8, 7, 5, 9, 2, 11, 12, 13, 4, 1, 10]);
makespan = 1484;
----------
assign = array1d(1..15 ,[6, 6, 5, 5, 6, 6, 6, 6, 6, 1, 2, 3, 4, 5, 6]);
next = array1d(1..15 ,[6, 15, 14, 3, 8, 7, 5, 9, 2, 11, 12, 13, 4, 1, 10]);
makespan = 1483;
----------
assign = array1d(1..15 ,[6, 6, 5, 5, 6, 6, 6, 6, 6, 1, 2, 3, 4, 5, 6]);
next = array1d(1..15 ,[6, 15, 14, 3, 8, 7, 5, 9, 2, 11, 12, 13, 4, 1, 10]);
makespan = 1481;
----------
assign = array1d(1..15 ,[6, 6, 5, 5, 6, 6, 6, 6, 6, 1, 2, 3, 4, 5, 6]);
next = array1d(1..15 ,[6, 15, 14, 3, 8, 7, 5, 9, 2, 11, 12, 13, 4, 1, 10]);
makespan = 1466;
----------
assign = array1d(1..15 ,[6, 6, 5, 5, 6, 6, 6, 5, 6, 1, 2, 3, 4, 5, 6]);
next = array1d(1..15 ,[6, 1, 14, 8, 15, 7, 5, 3, 2, 11, 12, 13, 4, 9, 10]);
makespan = 1459;
----------
assign = array1d(1..15 ,[6, 6, 5, 5, 6, 6, 6, 5, 6, 1, 2, 3, 4, 5, 6]);
next = array1d(1..15 ,[6, 1, 14, 8, 15, 7, 5, 3, 2, 11, 12, 13, 4, 9, 10]);
makespan = 1452;
----------
assign = array1d(1..15 ,[6, 6, 5, 5, 6, 6, 6, 5, 6, 1, 2, 3, 4, 5, 6]);
next = array1d(1..15 ,[6, 1, 14, 8, 15, 7, 5, 3, 2, 11, 12, 13, 4, 9, 10]);
makespan = 1429;
----------
assign = array1d(1..15 ,[6, 6, 5, 5, 6, 6, 6, 5, 6, 1, 2, 3, 4, 5, 6]);
next = array1d(1..15 ,[6, 1, 14, 8, 15, 7, 5, 3, 2, 11, 12, 13, 4, 9, 10]);
makespan = 1415;
----------
assign = array1d(1..15 ,[6, 6, 5, 5, 6, 6, 6, 5, 6, 1, 2, 3, 4, 5, 6]);
next = array1d(1..15 ,[6, 1, 14, 8, 15, 7, 5, 3, 2, 11, 12, 13, 4, 9, 10]);
makespan = 1400;
----------
assign = array1d(1..15 ,[6, 6, 5, 5, 6, 6, 6, 5, 6, 1, 2, 3, 4, 5, 6]);
next = array1d(1..15 ,[6, 1, 14, 8, 15, 7, 5, 3, 2, 11, 12, 13, 4, 9, 10]);
makespan = 1394;
----------
assign = array1d(1..15 ,[6, 6, 5, 5, 6, 6, 6, 5, 6, 1, 2, 3, 4, 5, 6]);
next = array1d(1..15 ,[6, 1, 14, 8, 15, 7, 5, 3, 2, 11, 12, 13, 4, 9, 10]);
makespan = 1393;
----------
assign = array1d(1..15 ,[6, 6, 5, 5, 6, 6, 6, 5, 6, 1, 2, 3, 4, 5, 6]);
next = array1d(1..15 ,[6, 1, 14, 8, 15, 7, 5, 3, 2, 11, 12, 13, 4, 9, 10]);
makespan = 1391;
----------
assign = array1d(1..15 ,[6, 6, 5, 5, 6, 6, 6, 5, 6, 1, 2, 3, 4, 5, 6]);
next = array1d(1..15 ,[6, 1, 14, 8, 15, 7, 5, 3, 2, 11, 12, 13, 4, 9, 10]);
makespan = 1389;
----------
assign = array1d(1..15 ,[6, 6, 5, 5, 6, 6, 6, 5, 6, 1, 2, 3, 4, 5, 6]);
next = array1d(1..15 ,[6, 1, 14, 8, 15, 7, 5, 3, 2, 11, 12, 13, 4, 9, 10]);
makespan = 1387;
----------
assign = array1d(1..15 ,[6, 6, 5, 5, 6, 6, 6, 5, 6, 1, 2, 3, 4, 5, 6]);
next = array1d(1..15 ,[6, 1, 14, 8, 15, 7, 5, 3, 2, 11, 12, 13, 4, 9, 10]);
makespan = 1386;
----------
assign = array1d(1..15 ,[6, 6, 5, 5, 6, 6, 6, 5, 6, 1, 2, 3, 4, 5, 6]);
next = array1d(1..15 ,[6, 1, 14, 8, 15, 7, 5, 3, 2, 11, 12, 13, 4, 9, 10]);
makespan = 1385;
----------
assign = array1d(1..15 ,[6, 6, 5, 5, 6, 6, 6, 5, 6, 1, 2, 3, 4, 5, 6]);
next = array1d(1..15 ,[6, 1, 14, 8, 15, 7, 5, 3, 2, 11, 12, 13, 4, 9, 10]);
makespan = 1384;
----------
assign = array1d(1..15 ,[6, 6, 5, 5, 6, 6, 6, 5, 6, 1, 2, 3, 4, 5, 6]);
next = array1d(1..15 ,[6, 1, 14, 8, 15, 7, 5, 3, 2, 11, 12, 13, 4, 9, 10]);
makespan = 1383;
----------
assign = array1d(1..15 ,[6, 6, 5, 5, 6, 6, 6, 5, 6, 1, 2, 3, 4, 5, 6]);
next = array1d(1..15 ,[6, 1, 14, 8, 15, 7, 5, 3, 2, 11, 12, 13, 4, 9, 10]);
makespan = 1382;
----------
assign = array1d(1..15 ,[6, 6, 5, 5, 6, 6, 6, 5, 6, 1, 2, 3, 4, 5, 6]);
next = array1d(1..15 ,[6, 1, 14, 8, 15, 7, 5, 3, 2, 11, 12, 13, 4, 9, 10]);
makespan = 1381;
----------
assign = array1d(1..15 ,[6, 6, 5, 5, 6, 6, 6, 5, 6, 1, 2, 3, 4, 5, 6]);
next = array1d(1..15 ,[6, 1, 14, 8, 15, 7, 5, 3, 2, 11, 12, 13, 4, 9, 10]);
makespan = 1380;
----------
assign = array1d(1..15 ,[6, 6, 5, 5, 6, 6, 6, 5, 6, 1, 2, 3, 4, 5, 6]);
next = array1d(1..15 ,[6, 1, 14, 8, 15, 7, 5, 3, 2, 11, 12, 13, 4, 9, 10]);
makespan = 1379;
----------
assign = array1d(1..15 ,[6, 6, 5, 5, 6, 6, 6, 5, 6, 1, 2, 3, 4, 5, 6]);
next = array1d(1..15 ,[6, 1, 14, 8, 15, 7, 5, 3, 2, 11, 12, 13, 4, 9, 10]);
makespan = 1378;
----------
assign = array1d(1..15 ,[6, 6, 5, 5, 6, 6, 6, 5, 6, 1, 2, 3, 4, 5, 6]);
next = array1d(1..15 ,[6, 1, 14, 8, 15, 7, 5, 3, 2, 11, 12, 13, 4, 9, 10]);
makespan = 1377;
----------
assign = array1d(1..15 ,[6, 6, 5, 5, 6, 6, 6, 5, 6, 1, 2, 3, 4, 5, 6]);
next = array1d(1..15 ,[6, 1, 14, 8, 15, 7, 5, 3, 2, 11, 12, 13, 4, 9, 10]);
makespan = 1376;
----------
assign = array1d(1..15 ,[6, 6, 5, 5, 6, 6, 6, 5, 6, 1, 2, 3, 4, 5, 6]);
next = array1d(1..15 ,[6, 1, 14, 8, 15, 7, 5, 3, 2, 11, 12, 13, 4, 9, 10]);
makespan = 1375;
----------
assign = array1d(1..15 ,[6, 6, 5, 5, 6, 6, 6, 5, 6, 1, 2, 3, 4, 5, 6]);
next = array1d(1..15 ,[6, 1, 14, 8, 15, 7, 5, 3, 2, 11, 12, 13, 4, 9, 10]);
makespan = 1374;
----------
assign = array1d(1..15 ,[6, 6, 5, 5, 6, 6, 6, 5, 6, 1, 2, 3, 4, 5, 6]);
next = array1d(1..15 ,[6, 1, 14, 8, 15, 7, 5, 3, 2, 11, 12, 13, 4, 9, 10]);
makespan = 1372;
----------
assign = array1d(1..15 ,[6, 6, 5, 5, 6, 6, 6, 5, 6, 1, 2, 3, 4, 5, 6]);
next = array1d(1..15 ,[6, 1, 14, 8, 15, 7, 5, 3, 2, 11, 12, 13, 4, 9, 10]);
makespan = 1371;
----------
assign = array1d(1..15 ,[6, 6, 5, 5, 6, 6, 6, 5, 6, 1, 2, 3, 4, 5, 6]);
next = array1d(1..15 ,[6, 1, 14, 8, 15, 7, 5, 3, 2, 11, 12, 13, 4, 9, 10]);
makespan = 1370;
----------
assign = array1d(1..15 ,[6, 6, 5, 5, 6, 6, 6, 5, 6, 1, 2, 3, 4, 5, 6]);
next = array1d(1..15 ,[6, 1, 14, 8, 15, 7, 5, 3, 2, 11, 12, 13, 4, 9, 10]);
makespan = 1369;
----------
assign = array1d(1..15 ,[6, 6, 5, 5, 6, 6, 6, 5, 6, 1, 2, 3, 4, 5, 6]);
next = array1d(1..15 ,[6, 1, 14, 8, 15, 7, 5, 3, 2, 11, 12, 13, 4, 9, 10]);
makespan = 1368;
----------
assign = array1d(1..15 ,[6, 6, 5, 5, 6, 6, 6, 5, 6, 1, 2, 3, 4, 5, 6]);
next = array1d(1..15 ,[6, 1, 14, 8, 15, 7, 5, 3, 2, 11, 12, 13, 4, 9, 10]);
makespan = 1367;
----------
assign = array1d(1..15 ,[6, 6, 5, 5, 6, 6, 6, 5, 6, 1, 2, 3, 4, 5, 6]);
next = array1d(1..15 ,[6, 1, 14, 8, 15, 7, 5, 3, 2, 11, 12, 13, 4, 9, 10]);
makespan = 1366;
----------
assign = array1d(1..15 ,[6, 6, 5, 5, 6, 6, 6, 5, 6, 1, 2, 3, 4, 5, 6]);
next = array1d(1..15 ,[6, 1, 14, 8, 15, 7, 5, 3, 2, 11, 12, 13, 4, 9, 10]);
makespan = 1365;
----------
assign = array1d(1..15 ,[6, 6, 5, 5, 6, 6, 6, 5, 6, 1, 2, 3, 4, 5, 6]);
next = array1d(1..15 ,[6, 1, 14, 8, 15, 7, 5, 3, 2, 11, 12, 13, 4, 9, 10]);
makespan = 1364;
----------
assign = array1d(1..15 ,[6, 6, 5, 5, 6, 6, 6, 5, 6, 1, 2, 3, 4, 5, 6]);
next = array1d(1..15 ,[6, 1, 14, 8, 15, 7, 5, 3, 2, 11, 12, 13, 4, 9, 10]);
makespan = 1363;
----------
assign = array1d(1..15 ,[6, 6, 5, 5, 6, 6, 6, 5, 6, 1, 2, 3, 4, 5, 6]);
next = array1d(1..15 ,[6, 1, 14, 8, 15, 7, 5, 3, 2, 11, 12, 13, 4, 9, 10]);
makespan = 1362;
----------
assign = array1d(1..15 ,[6, 6, 5, 5, 6, 6, 6, 5, 6, 1, 2, 3, 4, 5, 6]);
next = array1d(1..15 ,[6, 1, 14, 8, 15, 7, 5, 3, 2, 11, 12, 13, 4, 9, 10]);
makespan = 1361;
----------
assign = array1d(1..15 ,[6, 6, 5, 5, 6, 6, 6, 5, 6, 1, 2, 3, 4, 5, 6]);
next = array1d(1..15 ,[6, 1, 14, 8, 15, 7, 5, 3, 2, 11, 12, 13, 4, 9, 10]);
makespan = 1360;
----------
assign = array1d(1..15 ,[6, 6, 5, 5, 6, 6, 6, 5, 6, 1, 2, 3, 4, 5, 6]);
next = array1d(1..15 ,[6, 1, 14, 8, 15, 7, 5, 3, 2, 11, 12, 13, 4, 9, 10]);
makespan = 1359;
----------
assign = array1d(1..15 ,[6, 6, 5, 5, 6, 6, 6, 5, 6, 1, 2, 3, 4, 5, 6]);
next = array1d(1..15 ,[6, 1, 14, 8, 15, 7, 5, 3, 2, 11, 12, 13, 4, 9, 10]);
makespan = 1357;
----------
assign = array1d(1..15 ,[6, 6, 5, 5, 6, 6, 6, 5, 6, 1, 2, 3, 4, 5, 6]);
next = array1d(1..15 ,[6, 1, 14, 8, 15, 7, 5, 3, 2, 11, 12, 13, 4, 9, 10]);
makespan = 1356;
----------
assign = array1d(1..15 ,[6, 6, 5, 5, 6, 6, 6, 5, 6, 1, 2, 3, 4, 5, 6]);
next = array1d(1..15 ,[6, 1, 14, 8, 15, 7, 5, 3, 2, 11, 12, 13, 4, 9, 10]);
makespan = 1355;
----------
assign = array1d(1..15 ,[6, 6, 5, 5, 6, 6, 6, 5, 6, 1, 2, 3, 4, 5, 6]);
next = array1d(1..15 ,[6, 1, 14, 8, 15, 7, 5, 3, 2, 11, 12, 13, 4, 9, 10]);
makespan = 1354;
----------
assign = array1d(1..15 ,[6, 6, 5, 5, 6, 6, 6, 5, 6, 1, 2, 3, 4, 5, 6]);
next = array1d(1..15 ,[6, 1, 14, 8, 15, 7, 5, 3, 2, 11, 12, 13, 4, 9, 10]);
makespan = 1353;
----------
assign = array1d(1..15 ,[6, 6, 5, 5, 6, 6, 6, 5, 6, 1, 2, 3, 4, 5, 6]);
next = array1d(1..15 ,[6, 1, 14, 8, 15, 7, 5, 3, 2, 11, 12, 13, 4, 9, 10]);
makespan = 1352;
----------
assign = array1d(1..15 ,[6, 6, 5, 5, 6, 6, 6, 5, 6, 1, 2, 3, 4, 5, 6]);
next = array1d(1..15 ,[6, 1, 14, 8, 15, 7, 5, 3, 2, 11, 12, 13, 4, 9, 10]);
makespan = 1351;
----------
assign = array1d(1..15 ,[6, 6, 5, 5, 6, 6, 6, 5, 6, 1, 2, 3, 4, 5, 6]);
next = array1d(1..15 ,[6, 1, 14, 8, 15, 7, 5, 3, 2, 11, 12, 13, 4, 9, 10]);
makespan = 1350;
----------
assign = array1d(1..15 ,[6, 6, 5, 5, 6, 6, 6, 5, 6, 1, 2, 3, 4, 5, 6]);
next = array1d(1..15 ,[6, 1, 14, 8, 15, 7, 5, 3, 2, 11, 12, 13, 4, 9, 10]);
makespan = 1349;
----------
assign = array1d(1..15 ,[6, 6, 5, 5, 6, 6, 6, 5, 6, 1, 2, 3, 4, 5, 6]);
next = array1d(1..15 ,[6, 1, 14, 8, 15, 7, 5, 3, 2, 11, 12, 13, 4, 9, 10]);
makespan = 1348;
----------
assign = array1d(1..15 ,[6, 6, 5, 5, 6, 6, 6, 5, 6, 1, 2, 3, 4, 5, 6]);
next = array1d(1..15 ,[6, 1, 14, 8, 15, 7, 5, 3, 2, 11, 12, 13, 4, 9, 10]);
makespan = 1347;
----------
assign = array1d(1..15 ,[6, 6, 5, 5, 6, 6, 6, 5, 6, 1, 2, 3, 4, 5, 6]);
next = array1d(1..15 ,[6, 1, 14, 8, 15, 7, 5, 3, 2, 11, 12, 13, 4, 9, 10]);
makespan = 1346;
----------
assign = array1d(1..15 ,[6, 6, 5, 5, 6, 6, 6, 5, 6, 1, 2, 3, 4, 5, 6]);
next = array1d(1..15 ,[6, 1, 14, 8, 15, 7, 5, 3, 2, 11, 12, 13, 4, 9, 10]);
makespan = 1345;
----------
assign = array1d(1..15 ,[6, 6, 5, 5, 6, 6, 6, 5, 6, 1, 2, 3, 4, 5, 6]);
next = array1d(1..15 ,[6, 1, 14, 8, 15, 7, 5, 3, 2, 11, 12, 13, 4, 9, 10]);
makespan = 1344;
----------
assign = array1d(1..15 ,[6, 6, 5, 5, 6, 6, 6, 5, 6, 1, 2, 3, 4, 5, 6]);
next = array1d(1..15 ,[6, 1, 14, 8, 15, 7, 5, 3, 2, 11, 12, 13, 4, 9, 10]);
makespan = 1343;
----------
assign = array1d(1..15 ,[6, 6, 5, 5, 6, 6, 6, 5, 6, 1, 2, 3, 4, 5, 6]);
next = array1d(1..15 ,[6, 1, 14, 8, 15, 7, 5, 3, 2, 11, 12, 13, 4, 9, 10]);
makespan = 1342;
----------
assign = array1d(1..15 ,[6, 6, 5, 5, 6, 6, 6, 5, 6, 1, 2, 3, 4, 5, 6]);
next = array1d(1..15 ,[6, 1, 14, 8, 15, 7, 5, 3, 2, 11, 12, 13, 4, 9, 10]);
makespan = 1341;
----------
assign = array1d(1..15 ,[6, 6, 5, 5, 6, 6, 6, 5, 6, 1, 2, 3, 4, 5, 6]);
next = array1d(1..15 ,[6, 1, 14, 8, 15, 7, 5, 3, 2, 11, 12, 13, 4, 9, 10]);
makespan = 1340;
----------
assign = array1d(1..15 ,[6, 6, 5, 5, 6, 6, 6, 5, 6, 1, 2, 3, 4, 5, 6]);
next = array1d(1..15 ,[6, 1, 14, 8, 15, 7, 5, 3, 2, 11, 12, 13, 4, 9, 10]);
makespan = 1338;
----------
assign = array1d(1..15 ,[6, 6, 5, 5, 6, 6, 6, 5, 6, 1, 2, 3, 4, 5, 6]);
next = array1d(1..15 ,[6, 1, 14, 8, 15, 7, 5, 3, 2, 11, 12, 13, 4, 9, 10]);
makespan = 1337;
----------
assign = array1d(1..15 ,[6, 6, 5, 5, 6, 6, 6, 5, 6, 1, 2, 3, 4, 5, 6]);
next = array1d(1..15 ,[6, 1, 14, 8, 15, 7, 5, 3, 2, 11, 12, 13, 4, 9, 10]);
makespan = 1336;
----------
assign = array1d(1..15 ,[6, 6, 5, 5, 6, 6, 6, 5, 6, 1, 2, 3, 4, 5, 6]);
next = array1d(1..15 ,[6, 1, 14, 8, 15, 7, 5, 3, 2, 11, 12, 13, 4, 9, 10]);
makespan = 1335;
----------
assign = array1d(1..15 ,[6, 6, 5, 5, 6, 6, 6, 5, 6, 1, 2, 3, 4, 5, 6]);
next = array1d(1..15 ,[6, 1, 14, 8, 15, 7, 5, 3, 2, 11, 12, 13, 4, 9, 10]);
makespan = 1333;
----------
assign = array1d(1..15 ,[6, 6, 5, 5, 6, 6, 6, 5, 6, 1, 2, 3, 4, 5, 6]);
next = array1d(1..15 ,[6, 1, 14, 8, 15, 7, 5, 3, 2, 11, 12, 13, 4, 9, 10]);
makespan = 1331;
----------
assign = array1d(1..15 ,[6, 6, 5, 5, 6, 6, 6, 5, 6, 1, 2, 3, 4, 5, 6]);
next = array1d(1..15 ,[6, 1, 14, 8, 15, 7, 5, 3, 2, 11, 12, 13, 4, 9, 10]);
makespan = 1329;
----------
assign = array1d(1..15 ,[6, 6, 5, 5, 6, 6, 6, 5, 6, 1, 2, 3, 4, 5, 6]);
next = array1d(1..15 ,[6, 1, 14, 8, 15, 7, 5, 3, 2, 11, 12, 13, 4, 9, 10]);
makespan = 1327;
----------
assign = array1d(1..15 ,[6, 6, 5, 5, 6, 6, 6, 5, 6, 1, 2, 3, 4, 5, 6]);
next = array1d(1..15 ,[6, 1, 14, 8, 15, 7, 5, 3, 2, 11, 12, 13, 4, 9, 10]);
makespan = 1326;
----------
assign = array1d(1..15 ,[6, 6, 5, 5, 6, 6, 6, 5, 6, 1, 2, 3, 4, 5, 6]);
next = array1d(1..15 ,[6, 1, 14, 8, 15, 7, 5, 3, 2, 11, 12, 13, 4, 9, 10]);
makespan = 1311;
----------
assign = array1d(1..15 ,[6, 6, 5, 5, 6, 6, 6, 5, 6, 1, 2, 3, 4, 5, 6]);
next = array1d(1..15 ,[6, 15, 14, 8, 9, 7, 5, 3, 2, 11, 12, 13, 4, 1, 10]);
makespan = 1304;
----------
assign = array1d(1..15 ,[6, 6, 5, 5, 6, 6, 6, 5, 6, 1, 2, 3, 4, 5, 6]);
next = array1d(1..15 ,[6, 15, 14, 8, 9, 7, 5, 3, 2, 11, 12, 13, 4, 1, 10]);
makespan = 1299;
----------
assign = array1d(1..15 ,[6, 6, 5, 5, 6, 6, 6, 5, 6, 1, 2, 3, 4, 5, 6]);
next = array1d(1..15 ,[6, 5, 14, 8, 15, 7, 9, 3, 2, 11, 12, 13, 4, 1, 10]);
makespan = 1296;
----------
assign = array1d(1..15 ,[6, 6, 5, 5, 6, 6, 6, 5, 6, 1, 2, 3, 4, 5, 6]);
next = array1d(1..15 ,[6, 5, 14, 8, 15, 7, 9, 3, 2, 11, 12, 13, 4, 1, 10]);
makespan = 1292;
----------
assign = array1d(1..15 ,[6, 6, 5, 5, 6, 6, 6, 5, 6, 1, 2, 3, 4, 5, 6]);
next = array1d(1..15 ,[6, 5, 14, 8, 15, 7, 9, 3, 2, 11, 12, 13, 4, 1, 10]);
makespan = 1288;
----------
assign = array1d(1..15 ,[6, 6, 5, 5, 6, 6, 6, 5, 6, 1, 2, 3, 4, 5, 6]);
next = array1d(1..15 ,[6, 5, 14, 8, 15, 7, 9, 3, 2, 11, 12, 13, 4, 1, 10]);
makespan = 1286;
----------
assign = array1d(1..15 ,[6, 6, 5, 5, 5, 6, 6, 5, 6, 1, 2, 3, 4, 5, 6]);
next = array1d(1..15 ,[6, 1, 5, 3, 8, 7, 15, 14, 2, 11, 12, 13, 4, 9, 10]);
makespan = 1246;
----------
assign = array1d(1..15 ,[6, 6, 5, 5, 5, 6, 6, 5, 6, 1, 2, 3, 4, 5, 6]);
next = array1d(1..15 ,[6, 1, 5, 3, 8, 7, 15, 14, 2, 11, 12, 13, 4, 9, 10]);
makespan = 1245;
----------
assign = array1d(1..15 ,[6, 6, 5, 5, 5, 6, 6, 5, 6, 1, 2, 3, 4, 5, 6]);
next = array1d(1..15 ,[6, 1, 5, 3, 8, 7, 15, 14, 2, 11, 12, 13, 4, 9, 10]);
makespan = 1243;
----------
assign = array1d(1..15 ,[6, 6, 5, 5, 5, 6, 6, 5, 6, 1, 2, 3, 4, 5, 6]);
next = array1d(1..15 ,[6, 1, 5, 3, 8, 7, 15, 14, 2, 11, 12, 13, 4, 9, 10]);
makespan = 1241;
----------
assign = array1d(1..15 ,[6, 6, 5, 5, 5, 6, 6, 5, 6, 1, 2, 3, 4, 5, 6]);
next = array1d(1..15 ,[6, 1, 5, 3, 8, 7, 15, 14, 2, 11, 12, 13, 4, 9, 10]);
makespan = 1239;
----------
assign = array1d(1..15 ,[6, 6, 5, 5, 5, 6, 6, 5, 6, 1, 2, 3, 4, 5, 6]);
next = array1d(1..15 ,[6, 1, 5, 3, 8, 7, 15, 14, 2, 11, 12, 13, 4, 9, 10]);
makespan = 1237;
----------
assign = array1d(1..15 ,[6, 6, 5, 5, 5, 6, 6, 5, 6, 1, 2, 3, 4, 5, 6]);
next = array1d(1..15 ,[6, 1, 5, 3, 8, 7, 15, 14, 2, 11, 12, 13, 4, 9, 10]);
makespan = 1236;
----------
assign = array1d(1..15 ,[6, 6, 5, 5, 5, 6, 6, 5, 6, 1, 2, 3, 4, 5, 6]);
next = array1d(1..15 ,[6, 1, 5, 3, 8, 7, 15, 14, 2, 11, 12, 13, 4, 9, 10]);
makespan = 1235;
----------
assign = array1d(1..15 ,[6, 6, 5, 5, 5, 6, 6, 5, 6, 1, 2, 3, 4, 5, 6]);
next = array1d(1..15 ,[6, 1, 5, 3, 8, 7, 15, 14, 2, 11, 12, 13, 4, 9, 10]);
makespan = 1234;
----------
assign = array1d(1..15 ,[6, 6, 5, 5, 5, 6, 6, 5, 6, 1, 2, 3, 4, 5, 6]);
next = array1d(1..15 ,[6, 1, 5, 3, 8, 7, 15, 14, 2, 11, 12, 13, 4, 9, 10]);
makespan = 1232;
----------
assign = array1d(1..15 ,[6, 6, 5, 5, 5, 6, 6, 5, 6, 1, 2, 3, 4, 5, 6]);
next = array1d(1..15 ,[6, 1, 5, 3, 8, 7, 15, 14, 2, 11, 12, 13, 4, 9, 10]);
makespan = 1231;
----------
assign = array1d(1..15 ,[6, 6, 5, 5, 5, 6, 6, 5, 6, 1, 2, 3, 4, 5, 6]);
next = array1d(1..15 ,[6, 1, 5, 3, 8, 7, 15, 14, 2, 11, 12, 13, 4, 9, 10]);
makespan = 1230;
----------
assign = array1d(1..15 ,[6, 6, 5, 5, 5, 6, 6, 5, 6, 1, 2, 3, 4, 5, 6]);
next = array1d(1..15 ,[6, 1, 5, 3, 8, 7, 15, 14, 2, 11, 12, 13, 4, 9, 10]);
makespan = 1229;
----------
assign = array1d(1..15 ,[6, 6, 5, 5, 5, 6, 6, 5, 6, 1, 2, 3, 4, 5, 6]);
next = array1d(1..15 ,[6, 1, 5, 3, 8, 7, 15, 14, 2, 11, 12, 13, 4, 9, 10]);
makespan = 1228;
----------
assign = array1d(1..15 ,[6, 6, 5, 5, 5, 6, 6, 5, 6, 1, 2, 3, 4, 5, 6]);
next = array1d(1..15 ,[6, 1, 5, 3, 8, 7, 15, 14, 2, 11, 12, 13, 4, 9, 10]);
makespan = 1227;
----------
assign = array1d(1..15 ,[6, 6, 5, 5, 5, 6, 6, 5, 6, 1, 2, 3, 4, 5, 6]);
next = array1d(1..15 ,[6, 1, 5, 3, 8, 7, 15, 14, 2, 11, 12, 13, 4, 9, 10]);
makespan = 1226;
----------
assign = array1d(1..15 ,[6, 6, 5, 5, 5, 6, 6, 5, 6, 1, 2, 3, 4, 5, 6]);
next = array1d(1..15 ,[6, 1, 5, 3, 8, 7, 15, 14, 2, 11, 12, 13, 4, 9, 10]);
makespan = 1225;
----------
assign = array1d(1..15 ,[6, 6, 5, 5, 5, 6, 6, 5, 6, 1, 2, 3, 4, 5, 6]);
next = array1d(1..15 ,[6, 1, 5, 3, 8, 7, 15, 14, 2, 11, 12, 13, 4, 9, 10]);
makespan = 1224;
----------
assign = array1d(1..15 ,[6, 6, 5, 5, 5, 6, 6, 5, 6, 1, 2, 3, 4, 5, 6]);
next = array1d(1..15 ,[6, 1, 5, 3, 8, 7, 15, 14, 2, 11, 12, 13, 4, 9, 10]);
makespan = 1223;
----------
assign = array1d(1..15 ,[6, 6, 5, 5, 5, 6, 6, 5, 6, 1, 2, 3, 4, 5, 6]);
next = array1d(1..15 ,[6, 1, 5, 3, 8, 7, 15, 14, 2, 11, 12, 13, 4, 9, 10]);
makespan = 1222;
----------
assign = array1d(1..15 ,[6, 6, 5, 5, 5, 6, 6, 5, 6, 1, 2, 3, 4, 5, 6]);
next = array1d(1..15 ,[6, 1, 5, 3, 8, 7, 15, 14, 2, 11, 12, 13, 4, 9, 10]);
makespan = 1221;
----------
assign = array1d(1..15 ,[6, 6, 5, 5, 5, 6, 6, 5, 6, 1, 2, 3, 4, 5, 6]);
next = array1d(1..15 ,[6, 1, 5, 3, 8, 7, 15, 14, 2, 11, 12, 13, 4, 9, 10]);
makespan = 1220;
----------
assign = array1d(1..15 ,[6, 6, 5, 5, 5, 6, 6, 5, 6, 1, 2, 3, 4, 5, 6]);
next = array1d(1..15 ,[6, 1, 5, 3, 8, 7, 15, 14, 2, 11, 12, 13, 4, 9, 10]);
makespan = 1219;
----------
assign = array1d(1..15 ,[6, 6, 5, 5, 5, 6, 6, 5, 6, 1, 2, 3, 4, 5, 6]);
next = array1d(1..15 ,[6, 1, 5, 3, 8, 7, 15, 14, 2, 11, 12, 13, 4, 9, 10]);
makespan = 1218;
----------
assign = array1d(1..15 ,[6, 6, 5, 5, 5, 6, 6, 5, 6, 1, 2, 3, 4, 5, 6]);
next = array1d(1..15 ,[6, 1, 5, 3, 8, 7, 15, 14, 2, 11, 12, 13, 4, 9, 10]);
makespan = 1217;
----------
assign = array1d(1..15 ,[6, 6, 5, 5, 5, 6, 6, 5, 6, 1, 2, 3, 4, 5, 6]);
next = array1d(1..15 ,[6, 1, 5, 3, 8, 7, 15, 14, 2, 11, 12, 13, 4, 9, 10]);
makespan = 1216;
----------
assign = array1d(1..15 ,[6, 6, 5, 5, 5, 6, 6, 5, 6, 1, 2, 3, 4, 5, 6]);
next = array1d(1..15 ,[6, 1, 5, 3, 8, 7, 15, 14, 2, 11, 12, 13, 4, 9, 10]);
makespan = 1215;
----------
assign = array1d(1..15 ,[6, 6, 5, 5, 5, 6, 6, 5, 6, 1, 2, 3, 4, 5, 6]);
next = array1d(1..15 ,[6, 1, 5, 3, 8, 7, 15, 14, 2, 11, 12, 13, 4, 9, 10]);
makespan = 1213;
----------
assign = array1d(1..15 ,[6, 6, 5, 5, 5, 6, 6, 5, 6, 1, 2, 3, 4, 5, 6]);
next = array1d(1..15 ,[6, 1, 5, 3, 8, 7, 15, 14, 2, 11, 12, 13, 4, 9, 10]);
makespan = 1212;
----------
assign = array1d(1..15 ,[6, 6, 5, 5, 5, 6, 6, 5, 6, 1, 2, 3, 4, 5, 6]);
next = array1d(1..15 ,[6, 1, 5, 3, 8, 7, 15, 14, 2, 11, 12, 13, 4, 9, 10]);
makespan = 1211;
----------
assign = array1d(1..15 ,[6, 6, 5, 5, 5, 6, 6, 5, 6, 1, 2, 3, 4, 5, 6]);
next = array1d(1..15 ,[6, 1, 5, 3, 8, 7, 15, 14, 2, 11, 12, 13, 4, 9, 10]);
makespan = 1210;
----------
assign = array1d(1..15 ,[6, 6, 5, 5, 5, 6, 6, 5, 6, 1, 2, 3, 4, 5, 6]);
next = array1d(1..15 ,[6, 1, 5, 3, 8, 7, 15, 14, 2, 11, 12, 13, 4, 9, 10]);
makespan = 1209;
----------
assign = array1d(1..15 ,[6, 6, 5, 5, 5, 6, 6, 5, 6, 1, 2, 3, 4, 5, 6]);
next = array1d(1..15 ,[6, 1, 5, 3, 8, 7, 15, 14, 2, 11, 12, 13, 4, 9, 10]);
makespan = 1208;
----------
assign = array1d(1..15 ,[6, 6, 5, 5, 5, 6, 6, 5, 6, 1, 2, 3, 4, 5, 6]);
next = array1d(1..15 ,[6, 1, 5, 3, 8, 7, 15, 14, 2, 11, 12, 13, 4, 9, 10]);
makespan = 1207;
----------
assign = array1d(1..15 ,[6, 6, 5, 5, 5, 6, 6, 5, 6, 1, 2, 3, 4, 5, 6]);
next = array1d(1..15 ,[6, 1, 5, 3, 8, 7, 15, 14, 2, 11, 12, 13, 4, 9, 10]);
makespan = 1206;
----------
assign = array1d(1..15 ,[6, 6, 5, 5, 5, 6, 6, 5, 6, 1, 2, 3, 4, 5, 6]);
next = array1d(1..15 ,[6, 1, 5, 3, 8, 7, 15, 14, 2, 11, 12, 13, 4, 9, 10]);
makespan = 1205;
----------
assign = array1d(1..15 ,[6, 6, 5, 5, 5, 6, 6, 5, 6, 1, 2, 3, 4, 5, 6]);
next = array1d(1..15 ,[6, 1, 5, 3, 8, 7, 15, 14, 2, 11, 12, 13, 4, 9, 10]);
makespan = 1204;
----------
assign = array1d(1..15 ,[6, 6, 5, 5, 5, 6, 6, 5, 6, 1, 2, 3, 4, 5, 6]);
next = array1d(1..15 ,[6, 1, 5, 3, 8, 7, 15, 14, 2, 11, 12, 13, 4, 9, 10]);
makespan = 1203;
----------
assign = array1d(1..15 ,[6, 6, 5, 5, 5, 6, 6, 5, 6, 1, 2, 3, 4, 5, 6]);
next = array1d(1..15 ,[6, 1, 5, 3, 8, 7, 15, 14, 2, 11, 12, 13, 4, 9, 10]);
makespan = 1202;
----------
assign = array1d(1..15 ,[6, 6, 5, 5, 5, 6, 6, 5, 6, 1, 2, 3, 4, 5, 6]);
next = array1d(1..15 ,[6, 1, 5, 3, 8, 7, 15, 14, 2, 11, 12, 13, 4, 9, 10]);
makespan = 1201;
----------
assign = array1d(1..15 ,[6, 6, 5, 5, 5, 6, 6, 5, 6, 1, 2, 3, 4, 5, 6]);
next = array1d(1..15 ,[6, 1, 5, 3, 8, 7, 15, 14, 2, 11, 12, 13, 4, 9, 10]);
makespan = 1200;
----------
assign = array1d(1..15 ,[6, 6, 5, 5, 5, 6, 6, 5, 6, 1, 2, 3, 4, 5, 6]);
next = array1d(1..15 ,[6, 1, 5, 3, 8, 7, 15, 14, 2, 11, 12, 13, 4, 9, 10]);
makespan = 1198;
----------
assign = array1d(1..15 ,[6, 6, 5, 5, 5, 6, 6, 5, 6, 1, 2, 3, 4, 5, 6]);
next = array1d(1..15 ,[6, 1, 5, 3, 8, 7, 15, 14, 2, 11, 12, 13, 4, 9, 10]);
makespan = 1197;
----------
assign = array1d(1..15 ,[6, 6, 5, 5, 5, 6, 6, 5, 6, 1, 2, 3, 4, 5, 6]);
next = array1d(1..15 ,[6, 1, 5, 3, 8, 7, 15, 14, 2, 11, 12, 13, 4, 9, 10]);
makespan = 1196;
----------
assign = array1d(1..15 ,[6, 6, 5, 5, 5, 6, 6, 5, 6, 1, 2, 3, 4, 5, 6]);
next = array1d(1..15 ,[6, 1, 5, 3, 8, 7, 15, 14, 2, 11, 12, 13, 4, 9, 10]);
makespan = 1195;
----------
assign = array1d(1..15 ,[6, 6, 5, 5, 5, 6, 6, 5, 6, 1, 2, 3, 4, 5, 6]);
next = array1d(1..15 ,[6, 1, 5, 3, 8, 7, 15, 14, 2, 11, 12, 13, 4, 9, 10]);
makespan = 1194;
----------
assign = array1d(1..15 ,[6, 6, 5, 5, 5, 6, 6, 5, 6, 1, 2, 3, 4, 5, 6]);
next = array1d(1..15 ,[6, 1, 5, 3, 8, 7, 15, 14, 2, 11, 12, 13, 4, 9, 10]);
makespan = 1193;
----------
assign = array1d(1..15 ,[6, 6, 5, 5, 5, 6, 6, 5, 6, 1, 2, 3, 4, 5, 6]);
next = array1d(1..15 ,[6, 1, 5, 3, 8, 7, 15, 14, 2, 11, 12, 13, 4, 9, 10]);
makespan = 1192;
----------
assign = array1d(1..15 ,[6, 6, 5, 5, 5, 6, 6, 5, 6, 1, 2, 3, 4, 5, 6]);
next = array1d(1..15 ,[6, 1, 5, 3, 8, 7, 15, 14, 2, 11, 12, 13, 4, 9, 10]);
makespan = 1191;
----------
assign = array1d(1..15 ,[6, 6, 5, 5, 5, 6, 6, 5, 6, 1, 2, 3, 4, 5, 6]);
next = array1d(1..15 ,[6, 1, 5, 3, 8, 7, 15, 14, 2, 11, 12, 13, 4, 9, 10]);
makespan = 1190;
----------
assign = array1d(1..15 ,[6, 6, 5, 5, 5, 6, 6, 5, 6, 1, 2, 3, 4, 5, 6]);
next = array1d(1..15 ,[6, 1, 5, 3, 8, 7, 15, 14, 2, 11, 12, 13, 4, 9, 10]);
makespan = 1189;
----------
assign = array1d(1..15 ,[6, 6, 5, 5, 5, 6, 6, 5, 6, 1, 2, 3, 4, 5, 6]);
next = array1d(1..15 ,[6, 1, 5, 3, 8, 7, 15, 14, 2, 11, 12, 13, 4, 9, 10]);
makespan = 1188;
----------
assign = array1d(1..15 ,[6, 6, 5, 5, 5, 6, 6, 5, 6, 1, 2, 3, 4, 5, 6]);
next = array1d(1..15 ,[6, 1, 5, 3, 8, 7, 15, 14, 2, 11, 12, 13, 4, 9, 10]);
makespan = 1187;
----------
assign = array1d(1..15 ,[6, 6, 5, 5, 5, 6, 6, 5, 6, 1, 2, 3, 4, 5, 6]);
next = array1d(1..15 ,[6, 1, 5, 3, 8, 7, 15, 14, 2, 11, 12, 13, 4, 9, 10]);
makespan = 1186;
----------
assign = array1d(1..15 ,[6, 6, 5, 5, 5, 6, 6, 5, 6, 1, 2, 3, 4, 5, 6]);
next = array1d(1..15 ,[6, 1, 5, 3, 8, 7, 15, 14, 2, 11, 12, 13, 4, 9, 10]);
makespan = 1185;
----------
assign = array1d(1..15 ,[6, 6, 5, 5, 5, 6, 6, 5, 6, 1, 2, 3, 4, 5, 6]);
next = array1d(1..15 ,[6, 1, 5, 3, 8, 7, 15, 14, 2, 11, 12, 13, 4, 9, 10]);
makespan = 1183;
----------
assign = array1d(1..15 ,[6, 6, 5, 5, 5, 6, 6, 5, 6, 1, 2, 3, 4, 5, 6]);
next = array1d(1..15 ,[6, 1, 5, 3, 8, 7, 15, 14, 2, 11, 12, 13, 4, 9, 10]);
makespan = 1181;
----------
assign = array1d(1..15 ,[6, 6, 5, 5, 5, 6, 6, 5, 6, 1, 2, 3, 4, 5, 6]);
next = array1d(1..15 ,[6, 1, 5, 3, 8, 7, 15, 14, 2, 11, 12, 13, 4, 9, 10]);
makespan = 1179;
----------
assign = array1d(1..15 ,[6, 6, 5, 5, 5, 6, 6, 5, 6, 1, 2, 3, 4, 5, 6]);
next = array1d(1..15 ,[6, 1, 5, 3, 8, 7, 15, 14, 2, 11, 12, 13, 4, 9, 10]);
makespan = 1178;
----------
assign = array1d(1..15 ,[6, 6, 5, 5, 5, 6, 6, 5, 6, 1, 2, 3, 4, 5, 6]);
next = array1d(1..15 ,[6, 1, 5, 3, 8, 7, 15, 14, 2, 11, 12, 13, 4, 9, 10]);
makespan = 1172;
----------
assign = array1d(1..15 ,[6, 6, 5, 5, 5, 6, 6, 5, 6, 1, 2, 3, 4, 5, 6]);
next = array1d(1..15 ,[6, 1, 5, 3, 8, 7, 15, 14, 2, 11, 12, 13, 4, 9, 10]);
makespan = 1161;
----------
assign = array1d(1..15 ,[6, 6, 5, 5, 5, 6, 6, 5, 6, 1, 2, 3, 4, 5, 6]);
next = array1d(1..15 ,[6, 1, 5, 3, 8, 7, 15, 14, 2, 11, 12, 13, 4, 9, 10]);
makespan = 1148;
----------
assign = array1d(1..15 ,[6, 6, 5, 5, 5, 6, 6, 5, 6, 1, 2, 3, 4, 5, 6]);
next = array1d(1..15 ,[6, 1, 5, 3, 8, 7, 15, 14, 2, 11, 12, 13, 4, 9, 10]);
makespan = 1138;
----------
assign = array1d(1..15 ,[6, 6, 5, 5, 5, 6, 6, 5, 6, 1, 2, 3, 4, 5, 6]);
next = array1d(1..15 ,[6, 1, 5, 3, 8, 7, 15, 14, 2, 11, 12, 13, 4, 9, 10]);
makespan = 1108;
----------
assign = array1d(1..15 ,[6, 6, 5, 5, 5, 6, 6, 5, 6, 1, 2, 3, 4, 5, 6]);
next = array1d(1..15 ,[6, 15, 5, 3, 8, 7, 9, 14, 2, 11, 12, 13, 4, 1, 10]);
makespan = 1102;
----------
assign = array1d(1..15 ,[6, 6, 5, 5, 5, 6, 6, 5, 6, 1, 2, 3, 4, 5, 6]);
next = array1d(1..15 ,[6, 15, 14, 5, 8, 7, 9, 3, 2, 11, 12, 13, 4, 1, 10]);
makespan = 1093;
----------
assign = array1d(1..15 ,[6, 6, 5, 5, 5, 6, 6, 5, 6, 1, 2, 3, 4, 5, 6]);
next = array1d(1..15 ,[6, 15, 14, 5, 8, 7, 9, 3, 2, 11, 12, 13, 4, 1, 10]);
makespan = 1091;
----------
assign = array1d(1..15 ,[6, 6, 5, 5, 5, 6, 6, 5, 6, 1, 2, 3, 4, 5, 6]);
next = array1d(1..15 ,[6, 15, 14, 5, 8, 7, 9, 3, 2, 11, 12, 13, 4, 1, 10]);
makespan = 1089;
----------
assign = array1d(1..15 ,[6, 6, 5, 5, 5, 6, 6, 5, 6, 1, 2, 3, 4, 5, 6]);
next = array1d(1..15 ,[6, 15, 14, 5, 8, 7, 9, 3, 2, 11, 12, 13, 4, 1, 10]);
makespan = 1088;
----------
assign = array1d(1..15 ,[6, 6, 5, 5, 5, 6, 6, 5, 6, 1, 2, 3, 4, 5, 6]);
next = array1d(1..15 ,[6, 15, 14, 5, 8, 7, 9, 3, 2, 11, 12, 13, 4, 1, 10]);
makespan = 1087;
----------
assign = array1d(1..15 ,[6, 6, 5, 5, 5, 6, 6, 5, 6, 1, 2, 3, 4, 5, 6]);
next = array1d(1..15 ,[6, 15, 14, 5, 8, 7, 9, 3, 2, 11, 12, 13, 4, 1, 10]);
makespan = 1086;
----------
assign = array1d(1..15 ,[6, 6, 5, 5, 5, 6, 6, 5, 6, 1, 2, 3, 4, 5, 6]);
next = array1d(1..15 ,[6, 15, 14, 5, 8, 7, 9, 3, 2, 11, 12, 13, 4, 1, 10]);
makespan = 1084;
----------
assign = array1d(1..15 ,[6, 6, 5, 5, 5, 6, 6, 5, 6, 1, 2, 3, 4, 5, 6]);
next = array1d(1..15 ,[6, 15, 14, 5, 8, 7, 9, 3, 2, 11, 12, 13, 4, 1, 10]);
makespan = 1082;
----------
assign = array1d(1..15 ,[6, 6, 5, 5, 5, 6, 6, 5, 6, 1, 2, 3, 4, 5, 6]);
next = array1d(1..15 ,[6, 15, 14, 5, 8, 7, 9, 3, 2, 11, 12, 13, 4, 1, 10]);
makespan = 1080;
----------
assign = array1d(1..15 ,[6, 6, 5, 5, 5, 6, 6, 5, 6, 1, 2, 3, 4, 5, 6]);
next = array1d(1..15 ,[6, 15, 14, 5, 8, 7, 9, 3, 2, 11, 12, 13, 4, 1, 10]);
makespan = 1079;
----------
assign = array1d(1..15 ,[6, 6, 5, 5, 5, 6, 6, 5, 6, 1, 2, 3, 4, 5, 6]);
next = array1d(1..15 ,[6, 15, 14, 5, 8, 7, 9, 3, 2, 11, 12, 13, 4, 1, 10]);
makespan = 1078;
----------
assign = array1d(1..15 ,[6, 6, 5, 5, 5, 6, 6, 5, 6, 1, 2, 3, 4, 5, 6]);
next = array1d(1..15 ,[6, 15, 14, 5, 8, 7, 9, 3, 2, 11, 12, 13, 4, 1, 10]);
makespan = 1077;
----------
assign = array1d(1..15 ,[6, 6, 5, 5, 5, 6, 6, 5, 6, 1, 2, 3, 4, 5, 6]);
next = array1d(1..15 ,[6, 15, 14, 5, 8, 7, 9, 3, 2, 11, 12, 13, 4, 1, 10]);
makespan = 1074;
----------
assign = array1d(1..15 ,[6, 6, 5, 5, 5, 6, 6, 5, 6, 1, 2, 3, 4, 5, 6]);
next = array1d(1..15 ,[6, 15, 14, 5, 8, 7, 9, 3, 2, 11, 12, 13, 4, 1, 10]);
makespan = 1072;
----------
assign = array1d(1..15 ,[6, 6, 5, 5, 5, 6, 6, 5, 6, 1, 2, 3, 4, 5, 6]);
next = array1d(1..15 ,[6, 15, 14, 5, 8, 7, 9, 3, 2, 11, 12, 13, 4, 1, 10]);
makespan = 1071;
----------
assign = array1d(1..15 ,[6, 6, 5, 5, 5, 6, 5, 5, 6, 1, 2, 3, 4, 5, 6]);
next = array1d(1..15 ,[6, 1, 7, 3, 8, 15, 5, 14, 2, 11, 12, 13, 4, 9, 10]);
makespan = 1070;
----------
assign = array1d(1..15 ,[6, 6, 5, 5, 5, 6, 5, 5, 6, 1, 2, 3, 4, 5, 6]);
next = array1d(1..15 ,[6, 1, 7, 5, 8, 15, 14, 3, 2, 11, 12, 13, 4, 9, 10]);
makespan = 1069;
----------
assign = array1d(1..15 ,[6, 6, 4, 4, 4, 6, 4, 4, 6, 1, 2, 3, 4, 5, 6]);
next = array1d(1..15 ,[6, 1, 7, 5, 8, 15, 13, 3, 2, 11, 12, 4, 14, 9, 10]);
makespan = 1067;
----------
assign = array1d(1..15 ,[6, 6, 5, 5, 5, 6, 5, 5, 6, 1, 2, 3, 4, 5, 6]);
next = array1d(1..15 ,[6, 1, 7, 5, 8, 15, 14, 3, 2, 11, 12, 13, 4, 9, 10]);
makespan = 1065;
----------
assign = array1d(1..15 ,[6, 6, 4, 4, 4, 6, 4, 4, 6, 1, 2, 3, 4, 5, 6]);
next = array1d(1..15 ,[6, 1, 7, 5, 8, 15, 13, 3, 2, 11, 12, 4, 14, 9, 10]);
makespan = 1064;
----------
assign = array1d(1..15 ,[6, 6, 5, 5, 5, 6, 5, 5, 6, 1, 2, 3, 4, 5, 6]);
next = array1d(1..15 ,[6, 1, 7, 3, 8, 15, 5, 14, 2, 11, 12, 13, 4, 9, 10]);
makespan = 1063;
----------
assign = array1d(1..15 ,[6, 6, 5, 5, 5, 6, 5, 5, 6, 1, 2, 3, 4, 5, 6]);
next = array1d(1..15 ,[6, 1, 7, 3, 8, 15, 5, 14, 2, 11, 12, 13, 4, 9, 10]);
makespan = 1062;
----------
assign = array1d(1..15 ,[6, 6, 5, 5, 5, 6, 5, 5, 6, 1, 2, 3, 4, 5, 6]);
next = array1d(1..15 ,[6, 1, 7, 3, 8, 15, 5, 14, 2, 11, 12, 13, 4, 9, 10]);
makespan = 1061;
----------
assign = array1d(1..15 ,[6, 6, 5, 5, 5, 6, 5, 5, 6, 1, 2, 3, 4, 5, 6]);
next = array1d(1..15 ,[6, 1, 7, 3, 8, 15, 5, 14, 2, 11, 12, 13, 4, 9, 10]);
makespan = 1060;
----------
assign = array1d(1..15 ,[6, 6, 5, 5, 5, 6, 5, 5, 6, 1, 2, 3, 4, 5, 6]);
next = array1d(1..15 ,[6, 1, 7, 3, 8, 15, 5, 14, 2, 11, 12, 13, 4, 9, 10]);
makespan = 1059;
----------
assign = array1d(1..15 ,[6, 6, 5, 5, 5, 6, 5, 5, 6, 1, 2, 3, 4, 5, 6]);
next = array1d(1..15 ,[6, 1, 7, 3, 8, 15, 5, 14, 2, 11, 12, 13, 4, 9, 10]);
makespan = 1058;
----------
assign = array1d(1..15 ,[6, 6, 5, 5, 5, 6, 5, 5, 6, 1, 2, 3, 4, 5, 6]);
next = array1d(1..15 ,[6, 1, 7, 3, 8, 15, 5, 14, 2, 11, 12, 13, 4, 9, 10]);
makespan = 1057;
----------
assign = array1d(1..15 ,[6, 6, 5, 5, 5, 6, 5, 5, 6, 1, 2, 3, 4, 5, 6]);
next = array1d(1..15 ,[6, 1, 7, 3, 8, 15, 5, 14, 2, 11, 12, 13, 4, 9, 10]);
makespan = 1056;
----------
assign = array1d(1..15 ,[6, 6, 5, 5, 5, 6, 5, 5, 6, 1, 2, 3, 4, 5, 6]);
next = array1d(1..15 ,[6, 1, 7, 3, 8, 15, 5, 14, 2, 11, 12, 13, 4, 9, 10]);
makespan = 1055;
----------
assign = array1d(1..15 ,[6, 6, 5, 5, 5, 6, 5, 5, 6, 1, 2, 3, 4, 5, 6]);
next = array1d(1..15 ,[6, 1, 7, 3, 8, 15, 5, 14, 2, 11, 12, 13, 4, 9, 10]);
makespan = 1054;
----------
assign = array1d(1..15 ,[6, 6, 5, 5, 5, 6, 5, 5, 6, 1, 2, 3, 4, 5, 6]);
next = array1d(1..15 ,[6, 1, 7, 3, 8, 15, 5, 14, 2, 11, 12, 13, 4, 9, 10]);
makespan = 1053;
----------
assign = array1d(1..15 ,[6, 6, 5, 5, 5, 6, 5, 5, 6, 1, 2, 3, 4, 5, 6]);
next = array1d(1..15 ,[6, 1, 7, 3, 8, 15, 5, 14, 2, 11, 12, 13, 4, 9, 10]);
makespan = 1052;
----------
assign = array1d(1..15 ,[6, 6, 5, 5, 5, 6, 5, 5, 6, 1, 2, 3, 4, 5, 6]);
next = array1d(1..15 ,[6, 1, 7, 3, 8, 15, 5, 14, 2, 11, 12, 13, 4, 9, 10]);
makespan = 1051;
----------
assign = array1d(1..15 ,[6, 6, 5, 5, 5, 6, 5, 5, 6, 1, 2, 3, 4, 5, 6]);
next = array1d(1..15 ,[6, 1, 7, 3, 8, 15, 5, 14, 2, 11, 12, 13, 4, 9, 10]);
makespan = 1050;
----------
assign = array1d(1..15 ,[6, 6, 5, 5, 5, 6, 5, 5, 6, 1, 2, 3, 4, 5, 6]);
next = array1d(1..15 ,[6, 1, 7, 3, 8, 15, 5, 14, 2, 11, 12, 13, 4, 9, 10]);
makespan = 1049;
----------
assign = array1d(1..15 ,[6, 6, 5, 5, 5, 6, 5, 5, 6, 1, 2, 3, 4, 5, 6]);
next = array1d(1..15 ,[6, 1, 7, 3, 8, 15, 5, 14, 2, 11, 12, 13, 4, 9, 10]);
makespan = 1048;
----------
assign = array1d(1..15 ,[6, 6, 5, 5, 5, 6, 5, 5, 6, 1, 2, 3, 4, 5, 6]);
next = array1d(1..15 ,[6, 1, 7, 3, 8, 15, 5, 14, 2, 11, 12, 13, 4, 9, 10]);
makespan = 1047;
----------
assign = array1d(1..15 ,[6, 6, 5, 5, 5, 6, 5, 5, 6, 1, 2, 3, 4, 5, 6]);
next = array1d(1..15 ,[6, 1, 7, 3, 8, 15, 5, 14, 2, 11, 12, 13, 4, 9, 10]);
makespan = 1046;
----------
assign = array1d(1..15 ,[6, 6, 5, 5, 5, 6, 5, 5, 6, 1, 2, 3, 4, 5, 6]);
next = array1d(1..15 ,[6, 1, 7, 3, 8, 15, 5, 14, 2, 11, 12, 13, 4, 9, 10]);
makespan = 1045;
----------
assign = array1d(1..15 ,[6, 6, 5, 5, 5, 6, 5, 5, 6, 1, 2, 3, 4, 5, 6]);
next = array1d(1..15 ,[6, 1, 7, 3, 8, 15, 5, 14, 2, 11, 12, 13, 4, 9, 10]);
makespan = 1044;
----------
assign = array1d(1..15 ,[6, 6, 5, 5, 5, 6, 5, 5, 6, 1, 2, 3, 4, 5, 6]);
next = array1d(1..15 ,[6, 1, 7, 3, 8, 15, 5, 14, 2, 11, 12, 13, 4, 9, 10]);
makespan = 1043;
----------
assign = array1d(1..15 ,[6, 6, 5, 5, 5, 6, 5, 5, 6, 1, 2, 3, 4, 5, 6]);
next = array1d(1..15 ,[6, 1, 7, 3, 8, 15, 5, 14, 2, 11, 12, 13, 4, 9, 10]);
makespan = 1042;
----------
assign = array1d(1..15 ,[6, 6, 5, 5, 5, 6, 5, 5, 6, 1, 2, 3, 4, 5, 6]);
next = array1d(1..15 ,[6, 1, 7, 3, 8, 15, 5, 14, 2, 11, 12, 13, 4, 9, 10]);
makespan = 1041;
----------
assign = array1d(1..15 ,[6, 6, 5, 5, 5, 6, 5, 5, 6, 1, 2, 3, 4, 5, 6]);
next = array1d(1..15 ,[6, 1, 7, 3, 8, 15, 5, 14, 2, 11, 12, 13, 4, 9, 10]);
makespan = 1040;
----------
assign = array1d(1..15 ,[6, 6, 5, 5, 5, 6, 5, 5, 6, 1, 2, 3, 4, 5, 6]);
next = array1d(1..15 ,[6, 1, 7, 3, 8, 15, 5, 14, 2, 11, 12, 13, 4, 9, 10]);
makespan = 1039;
----------
assign = array1d(1..15 ,[6, 6, 5, 5, 5, 6, 5, 5, 6, 1, 2, 3, 4, 5, 6]);
next = array1d(1..15 ,[6, 1, 7, 3, 8, 15, 5, 14, 2, 11, 12, 13, 4, 9, 10]);
makespan = 1038;
----------
assign = array1d(1..15 ,[6, 6, 5, 5, 5, 6, 5, 5, 6, 1, 2, 3, 4, 5, 6]);
next = array1d(1..15 ,[6, 1, 7, 3, 8, 15, 5, 14, 2, 11, 12, 13, 4, 9, 10]);
makespan = 1037;
----------
assign = array1d(1..15 ,[6, 6, 5, 5, 5, 6, 5, 5, 6, 1, 2, 3, 4, 5, 6]);
next = array1d(1..15 ,[6, 1, 7, 3, 8, 15, 5, 14, 2, 11, 12, 13, 4, 9, 10]);
makespan = 1035;
----------
assign = array1d(1..15 ,[6, 6, 5, 5, 5, 6, 5, 5, 6, 1, 2, 3, 4, 5, 6]);
next = array1d(1..15 ,[6, 1, 7, 3, 8, 15, 5, 14, 2, 11, 12, 13, 4, 9, 10]);
makespan = 1034;
----------
assign = array1d(1..15 ,[6, 6, 5, 3, 5, 6, 5, 5, 6, 1, 2, 3, 4, 5, 6]);
next = array1d(1..15 ,[6, 1, 7, 12, 8, 15, 5, 14, 2, 11, 4, 13, 3, 9, 10]);
makespan = 1033;
----------
assign = array1d(1..15 ,[6, 6, 3, 5, 3, 6, 3, 3, 6, 1, 2, 3, 4, 5, 6]);
next = array1d(1..15 ,[6, 1, 7, 14, 8, 15, 5, 12, 2, 11, 3, 13, 4, 9, 10]);
makespan = 1032;
----------
assign = array1d(1..15 ,[6, 6, 3, 5, 3, 6, 3, 3, 6, 1, 2, 3, 4, 5, 6]);
next = array1d(1..15 ,[6, 1, 7, 14, 8, 15, 5, 12, 2, 11, 3, 13, 4, 9, 10]);
makespan = 1030;
----------
assign = array1d(1..15 ,[6, 6, 3, 5, 3, 6, 3, 3, 6, 1, 2, 3, 4, 5, 6]);
next = array1d(1..15 ,[6, 1, 7, 14, 8, 15, 5, 12, 2, 11, 3, 13, 4, 9, 10]);
makespan = 1024;
----------
assign = array1d(1..15 ,[6, 6, 3, 5, 3, 6, 3, 3, 6, 1, 2, 3, 4, 5, 6]);
next = array1d(1..15 ,[6, 1, 7, 14, 8, 15, 5, 12, 2, 11, 3, 13, 4, 9, 10]);
makespan = 1023;
----------
assign = array1d(1..15 ,[6, 6, 3, 5, 3, 6, 3, 3, 6, 1, 2, 3, 4, 5, 6]);
next = array1d(1..15 ,[6, 1, 7, 14, 8, 15, 5, 12, 2, 11, 3, 13, 4, 9, 10]);
makespan = 1013;
----------
assign = array1d(1..15 ,[6, 6, 3, 5, 3, 6, 3, 3, 6, 1, 2, 3, 4, 5, 6]);
next = array1d(1..15 ,[6, 1, 7, 14, 8, 15, 5, 12, 2, 11, 3, 13, 4, 9, 10]);
makespan = 1009;
----------
assign = array1d(1..15 ,[6, 6, 3, 5, 3, 6, 3, 3, 6, 1, 2, 3, 4, 5, 6]);
next = array1d(1..15 ,[6, 1, 7, 14, 8, 15, 5, 12, 2, 11, 3, 13, 4, 9, 10]);
makespan = 964;
----------
assign = array1d(1..15 ,[6, 6, 3, 5, 3, 6, 3, 3, 6, 1, 2, 3, 4, 5, 6]);
next = array1d(1..15 ,[6, 1, 7, 14, 8, 15, 5, 12, 2, 11, 3, 13, 4, 9, 10]);
makespan = 963;
----------
assign = array1d(1..15 ,[6, 6, 3, 5, 3, 6, 3, 3, 6, 1, 2, 3, 4, 5, 6]);
next = array1d(1..15 ,[6, 1, 7, 14, 8, 15, 5, 12, 2, 11, 3, 13, 4, 9, 10]);
makespan = 958;
----------
assign = array1d(1..15 ,[6, 6, 3, 5, 3, 6, 3, 3, 6, 1, 2, 3, 4, 5, 6]);
next = array1d(1..15 ,[6, 1, 7, 14, 8, 15, 5, 12, 2, 11, 3, 13, 4, 9, 10]);
makespan = 950;
----------
assign = array1d(1..15 ,[6, 6, 3, 5, 3, 6, 3, 3, 6, 1, 2, 3, 4, 5, 6]);
next = array1d(1..15 ,[6, 1, 7, 14, 8, 15, 5, 12, 2, 11, 3, 13, 4, 9, 10]);
makespan = 945;
----------
assign = array1d(1..15 ,[6, 6, 3, 5, 3, 6, 3, 3, 6, 1, 2, 3, 4, 5, 6]);
next = array1d(1..15 ,[6, 1, 7, 14, 8, 15, 5, 12, 2, 11, 3, 13, 4, 9, 10]);
makespan = 934;
----------
assign = array1d(1..15 ,[6, 6, 3, 5, 3, 6, 3, 3, 6, 1, 2, 3, 4, 5, 6]);
next = array1d(1..15 ,[6, 1, 7, 14, 8, 15, 5, 12, 2, 11, 3, 13, 4, 9, 10]);
makespan = 933;
----------
assign = array1d(1..15 ,[6, 6, 3, 5, 3, 6, 3, 3, 6, 1, 2, 3, 4, 5, 6]);
next = array1d(1..15 ,[6, 1, 7, 14, 8, 15, 5, 12, 2, 11, 3, 13, 4, 9, 10]);
makespan = 932;
----------
assign = array1d(1..15 ,[6, 6, 3, 5, 3, 6, 3, 3, 6, 1, 2, 3, 4, 5, 6]);
next = array1d(1..15 ,[6, 1, 7, 14, 8, 15, 5, 12, 2, 11, 3, 13, 4, 9, 10]);
makespan = 930;
----------
assign = array1d(1..15 ,[6, 6, 3, 5, 3, 6, 3, 3, 6, 1, 2, 3, 4, 5, 6]);
next = array1d(1..15 ,[6, 1, 7, 14, 8, 15, 5, 12, 2, 11, 3, 13, 4, 9, 10]);
makespan = 929;
----------
assign = array1d(1..15 ,[6, 6, 3, 5, 3, 6, 3, 3, 6, 1, 2, 3, 4, 5, 6]);
next = array1d(1..15 ,[6, 1, 7, 14, 8, 15, 5, 12, 2, 11, 3, 13, 4, 9, 10]);
makespan = 923;
----------
assign = array1d(1..15 ,[6, 6, 3, 5, 3, 6, 3, 3, 6, 1, 2, 3, 4, 5, 6]);
next = array1d(1..15 ,[6, 1, 7, 14, 8, 15, 5, 12, 2, 11, 3, 13, 4, 9, 10]);
makespan = 917;
----------
assign = array1d(1..15 ,[6, 6, 3, 5, 3, 6, 3, 3, 6, 1, 2, 3, 4, 5, 6]);
next = array1d(1..15 ,[6, 1, 7, 14, 8, 15, 5, 12, 2, 11, 3, 13, 4, 9, 10]);
makespan = 915;
----------
assign = array1d(1..15 ,[6, 6, 3, 5, 3, 6, 3, 3, 6, 1, 2, 3, 4, 5, 6]);
next = array1d(1..15 ,[6, 1, 7, 14, 8, 15, 5, 12, 2, 11, 3, 13, 4, 9, 10]);
makespan = 914;
----------
assign = array1d(1..15 ,[6, 6, 3, 5, 3, 6, 3, 3, 6, 1, 2, 3, 4, 5, 6]);
next = array1d(1..15 ,[6, 1, 7, 14, 8, 15, 5, 12, 2, 11, 3, 13, 4, 9, 10]);
makespan = 913;
----------
assign = array1d(1..15 ,[6, 6, 3, 5, 3, 6, 3, 3, 6, 1, 2, 3, 4, 5, 6]);
next = array1d(1..15 ,[6, 1, 7, 14, 8, 15, 5, 12, 2, 11, 3, 13, 4, 9, 10]);
makespan = 912;
----------
assign = array1d(1..15 ,[6, 6, 3, 5, 3, 6, 3, 3, 6, 1, 2, 3, 4, 5, 6]);
next = array1d(1..15 ,[6, 1, 7, 14, 8, 15, 5, 12, 2, 11, 3, 13, 4, 9, 10]);
makespan = 910;
----------
assign = array1d(1..15 ,[6, 6, 3, 5, 3, 6, 3, 3, 6, 1, 2, 3, 4, 5, 6]);
next = array1d(1..15 ,[6, 1, 7, 14, 8, 15, 5, 12, 2, 11, 3, 13, 4, 9, 10]);
makespan = 908;
----------
assign = array1d(1..15 ,[6, 6, 3, 5, 3, 6, 3, 3, 6, 1, 2, 3, 4, 5, 6]);
next = array1d(1..15 ,[6, 1, 7, 14, 8, 15, 5, 12, 2, 11, 3, 13, 4, 9, 10]);
makespan = 906;
----------
assign = array1d(1..15 ,[6, 6, 3, 5, 3, 6, 3, 3, 6, 1, 2, 3, 4, 5, 6]);
next = array1d(1..15 ,[6, 1, 7, 14, 8, 15, 5, 12, 2, 11, 3, 13, 4, 9, 10]);
makespan = 905;
----------
assign = array1d(1..15 ,[6, 6, 3, 5, 3, 6, 3, 3, 6, 1, 2, 3, 4, 5, 6]);
next = array1d(1..15 ,[6, 15, 7, 14, 8, 9, 5, 12, 2, 11, 3, 13, 4, 1, 10]);
makespan = 904;
----------
assign = array1d(1..15 ,[6, 6, 3, 5, 3, 6, 3, 3, 6, 1, 2, 3, 4, 5, 6]);
next = array1d(1..15 ,[6, 15, 7, 14, 8, 9, 5, 12, 2, 11, 3, 13, 4, 1, 10]);
makespan = 903;
----------
assign = array1d(1..15 ,[6, 6, 3, 5, 3, 6, 3, 3, 6, 1, 2, 3, 4, 5, 6]);
next = array1d(1..15 ,[6, 15, 7, 14, 8, 9, 5, 12, 2, 11, 3, 13, 4, 1, 10]);
makespan = 900;
----------
assign = array1d(1..15 ,[6, 6, 3, 5, 3, 6, 3, 3, 6, 1, 2, 3, 4, 5, 6]);
next = array1d(1..15 ,[6, 15, 7, 14, 8, 9, 5, 12, 2, 11, 3, 13, 4, 1, 10]);
makespan = 898;
----------
assign = array1d(1..15 ,[6, 6, 3, 5, 3, 6, 3, 3, 6, 1, 2, 3, 4, 5, 6]);
next = array1d(1..15 ,[6, 15, 7, 14, 8, 9, 5, 12, 2, 11, 3, 13, 4, 1, 10]);
makespan = 897;
----------
assign = array1d(1..15 ,[6, 6, 3, 5, 3, 6, 3, 3, 6, 1, 2, 3, 4, 5, 6]);
next = array1d(1..15 ,[6, 15, 7, 14, 8, 9, 5, 12, 2, 11, 3, 13, 4, 1, 10]);
makespan = 896;
----------
assign = array1d(1..15 ,[6, 6, 3, 5, 3, 6, 3, 3, 6, 1, 2, 3, 4, 5, 6]);
next = array1d(1..15 ,[6, 15, 7, 14, 8, 9, 5, 12, 2, 11, 3, 13, 4, 1, 10]);
makespan = 895;
----------
assign = array1d(1..15 ,[6, 6, 3, 5, 3, 6, 3, 3, 6, 1, 2, 3, 4, 5, 6]);
next = array1d(1..15 ,[6, 15, 7, 14, 8, 9, 5, 12, 2, 11, 3, 13, 4, 1, 10]);
makespan = 893;
----------
assign = array1d(1..15 ,[6, 6, 3, 5, 3, 6, 3, 3, 6, 1, 2, 3, 4, 5, 6]);
next = array1d(1..15 ,[6, 15, 7, 14, 8, 9, 5, 12, 2, 11, 3, 13, 4, 1, 10]);
makespan = 891;
----------
assign = array1d(1..15 ,[6, 6, 3, 5, 3, 6, 3, 3, 6, 1, 2, 3, 4, 5, 6]);
next = array1d(1..15 ,[6, 15, 7, 14, 8, 9, 5, 12, 2, 11, 3, 13, 4, 1, 10]);
makespan = 890;
----------
assign = array1d(1..15 ,[6, 6, 3, 5, 3, 6, 3, 3, 6, 1, 2, 3, 4, 5, 6]);
next = array1d(1..15 ,[6, 15, 7, 14, 8, 9, 5, 12, 2, 11, 3, 13, 4, 1, 10]);
makespan = 889;
----------
assign = array1d(1..15 ,[6, 6, 3, 5, 3, 6, 3, 3, 6, 1, 2, 3, 4, 5, 6]);
next = array1d(1..15 ,[6, 15, 7, 14, 8, 9, 5, 12, 2, 11, 3, 13, 4, 1, 10]);
makespan = 884;
----------
assign = array1d(1..15 ,[6, 6, 3, 5, 3, 6, 3, 3, 6, 1, 2, 3, 4, 5, 6]);
next = array1d(1..15 ,[6, 15, 7, 14, 8, 9, 5, 12, 2, 11, 3, 13, 4, 1, 10]);
makespan = 881;
----------
assign = array1d(1..15 ,[6, 6, 5, 5, 5, 6, 3, 6, 5, 1, 2, 3, 4, 5, 6]);
next = array1d(1..15 ,[6, 15, 9, 14, 4, 2, 12, 1, 5, 11, 7, 13, 3, 8, 10]);
makespan = 879;
----------
assign = array1d(1..15 ,[6, 6, 5, 5, 5, 6, 1, 6, 5, 1, 2, 3, 4, 5, 6]);
next = array1d(1..15 ,[6, 8, 9, 14, 4, 15, 10, 1, 5, 11, 12, 13, 3, 2, 7]);
makespan = 876;
----------
assign = array1d(1..15 ,[6, 6, 5, 5, 5, 6, 4, 6, 5, 1, 2, 3, 4, 5, 6]);
next = array1d(1..15 ,[6, 8, 9, 14, 4, 15, 13, 1, 5, 11, 12, 7, 3, 2, 10]);
makespan = 869;
----------
assign = array1d(1..15 ,[6, 6, 5, 5, 5, 6, 1, 6, 5, 1, 2, 3, 4, 5, 6]);
next = array1d(1..15 ,[6, 8, 9, 14, 4, 15, 10, 1, 5, 11, 12, 13, 3, 2, 7]);
makespan = 866;
----------
assign = array1d(1..15 ,[6, 6, 5, 5, 5, 6, 3, 6, 5, 1, 2, 3, 4, 5, 6]);
next = array1d(1..15 ,[6, 8, 9, 14, 4, 15, 12, 1, 5, 11, 7, 13, 3, 2, 10]);
makespan = 855;
----------
assign = array1d(1..15 ,[6, 6, 5, 5, 5, 6, 4, 4, 5, 1, 2, 3, 4, 5, 6]);
next = array1d(1..15 ,[6, 1, 9, 14, 4, 15, 13, 7, 5, 11, 12, 8, 3, 2, 10]);
makespan = 849;
----------
assign = array1d(1..15 ,[6, 6, 5, 5, 5, 6, 3, 6, 5, 1, 2, 3, 4, 5, 6]);
next = array1d(1..15 ,[6, 15, 9, 14, 4, 8, 12, 2, 5, 11, 7, 13, 3, 1, 10]);
makespan = 840;
----------
assign = array1d(1..15 ,[6, 4, 5, 5, 5, 6, 6, 6, 5, 1, 2, 3, 4, 5, 6]);
next = array1d(1..15 ,[6, 13, 9, 14, 4, 15, 8, 1, 5, 11, 12, 2, 3, 7, 10]);
makespan = 828;
----------
assign = array1d(1..15 ,[5, 5, 6, 6, 6, 3, 4, 5, 6, 1, 2, 3, 4, 5, 6]);
next = array1d(1..15 ,[14, 1, 9, 15, 4, 12, 13, 2, 5, 11, 6, 7, 8, 3, 10]);
makespan = 826;
----------
assign = array1d(1..15 ,[5, 5, 6, 6, 6, 4, 2, 5, 6, 1, 2, 3, 4, 5, 6]);
next = array1d(1..15 ,[14, 1, 9, 15, 4, 13, 11, 2, 5, 7, 12, 6, 8, 3, 10]);
makespan = 823;
----------
assign = array1d(1..15 ,[6, 6, 5, 5, 5, 2, 6, 6, 5, 1, 2, 3, 4, 5, 6]);
next = array1d(1..15 ,[7, 15, 9, 14, 4, 11, 8, 2, 5, 6, 12, 13, 3, 1, 10]);
makespan = 811;
----------
assign = array1d(1..15 ,[6, 6, 5, 5, 5, 2, 6, 6, 5, 1, 2, 3, 4, 5, 6]);
next = array1d(1..15 ,[7, 15, 9, 14, 4, 11, 8, 2, 5, 6, 12, 13, 3, 1, 10]);
makespan = 810;
----------
assign = array1d(1..15 ,[6, 6, 2, 2, 2, 3, 6, 6, 2, 1, 2, 3, 4, 5, 6]);
next = array1d(1..15 ,[7, 15, 9, 11, 4, 12, 8, 2, 5, 3, 6, 13, 14, 1, 10]);
makespan = 808;
----------
assign = array1d(1..15 ,[6, 6, 2, 2, 2, 3, 6, 6, 2, 1, 2, 3, 4, 5, 6]);
next = array1d(1..15 ,[7, 15, 9, 11, 4, 12, 8, 2, 5, 3, 6, 13, 14, 1, 10]);
makespan = 806;
----------
assign = array1d(1..15 ,[6, 6, 2, 2, 2, 3, 6, 6, 2, 1, 2, 3, 4, 5, 6]);
next = array1d(1..15 ,[7, 15, 9, 11, 4, 12, 8, 2, 5, 3, 6, 13, 14, 1, 10]);
makespan = 805;
----------
assign = array1d(1..15 ,[6, 6, 2, 2, 2, 3, 6, 6, 2, 1, 2, 3, 4, 5, 6]);
next = array1d(1..15 ,[7, 15, 9, 11, 4, 12, 8, 2, 5, 3, 6, 13, 14, 1, 10]);
makespan = 800;
----------
assign = array1d(1..15 ,[6, 6, 2, 2, 2, 3, 6, 6, 2, 1, 2, 3, 4, 5, 6]);
next = array1d(1..15 ,[7, 15, 9, 11, 4, 12, 8, 2, 5, 3, 6, 13, 14, 1, 10]);
makespan = 797;
----------
assign = array1d(1..15 ,[4, 6, 2, 2, 2, 6, 4, 6, 2, 1, 2, 3, 4, 5, 6]);
next = array1d(1..15 ,[7, 6, 9, 11, 4, 15, 13, 2, 5, 3, 12, 1, 14, 8, 10]);
makespan = 784;
----------
assign = array1d(1..15 ,[6, 6, 2, 2, 2, 4, 6, 3, 2, 1, 2, 3, 4, 5, 6]);
next = array1d(1..15 ,[7, 1, 9, 11, 4, 13, 15, 12, 5, 3, 8, 6, 14, 2, 10]);
makespan = 764;
----------
assign = array1d(1..15 ,[6, 6, 4, 5, 4, 5, 5, 6, 4, 1, 2, 3, 4, 5, 6]);
next = array1d(1..15 ,[8, 15, 9, 7, 13, 4, 14, 2, 5, 11, 12, 3, 6, 1, 10]);
makespan = 761;
----------
assign = array1d(1..15 ,[6, 6, 4, 5, 4, 5, 5, 6, 4, 1, 2, 3, 4, 5, 6]);
next = array1d(1..15 ,[15, 8, 9, 7, 13, 4, 14, 1, 5, 11, 12, 3, 6, 2, 10]);
makespan = 759;
----------
assign = array1d(1..15 ,[6, 6, 5, 4, 5, 4, 4, 6, 5, 1, 2, 3, 4, 5, 6]);
next = array1d(1..15 ,[15, 8, 9, 6, 14, 7, 13, 1, 5, 11, 12, 4, 3, 2, 10]);
makespan = 758;
----------
assign = array1d(1..15 ,[6, 4, 5, 4, 5, 6, 6, 3, 5, 1, 2, 3, 4, 5, 6]);
next = array1d(1..15 ,[6, 4, 9, 13, 14, 7, 15, 12, 5, 11, 8, 2, 3, 1, 10]);
makespan = 751;
----------
assign = array1d(1..15 ,[6, 4, 5, 4, 6, 6, 3, 3, 5, 1, 2, 3, 4, 5, 6]);
next = array1d(1..15 ,[6, 4, 9, 13, 1, 15, 8, 12, 14, 11, 7, 2, 3, 5, 10]);
makespan = 748;
----------
assign = array1d(1..15 ,[6, 4, 3, 4, 6, 5, 5, 5, 3, 1, 2, 3, 4, 5, 6]);
next = array1d(1..15 ,[15, 4, 9, 13, 1, 7, 8, 14, 12, 11, 3, 2, 6, 5, 10]);
makespan = 747;
----------
assign = array1d(1..15 ,[3, 4, 5, 4, 3, 6, 6, 6, 5, 1, 2, 3, 4, 5, 6]);
next = array1d(1..15 ,[12, 4, 9, 13, 1, 7, 8, 15, 14, 11, 5, 2, 3, 6, 10]);
makespan = 746;
----------
assign = array1d(1..15 ,[3, 6, 5, 6, 3, 4, 4, 4, 5, 1, 2, 3, 4, 5, 6]);
next = array1d(1..15 ,[12, 4, 9, 15, 1, 7, 8, 13, 14, 11, 5, 6, 3, 2, 10]);
makespan = 745;
----------
assign = array1d(1..15 ,[6, 1, 5, 1, 6, 4, 4, 4, 5, 1, 2, 3, 4, 5, 6]);
next = array1d(1..15 ,[15, 4, 9, 10, 1, 7, 8, 13, 14, 11, 12, 6, 3, 5, 2]);
makespan = 744;
----------
assign = array1d(1..15 ,[6, 1, 5, 1, 6, 4, 4, 4, 5, 1, 2, 3, 4, 5, 6]);
next = array1d(1..15 ,[15, 4, 9, 10, 1, 7, 8, 13, 14, 11, 12, 6, 3, 5, 2]);
makespan = 743;
----------
assign = array1d(1..15 ,[6, 1, 5, 1, 6, 4, 4, 4, 5, 1, 2, 3, 4, 5, 6]);
next = array1d(1..15 ,[15, 4, 9, 10, 1, 7, 8, 13, 14, 11, 12, 6, 3, 5, 2]);
makespan = 742;
----------
assign = array1d(1..15 ,[6, 1, 5, 1, 6, 4, 4, 4, 5, 1, 2, 3, 4, 5, 6]);
next = array1d(1..15 ,[15, 4, 9, 10, 1, 7, 8, 13, 14, 11, 12, 6, 3, 5, 2]);
makespan = 735;
----------
assign = array1d(1..15 ,[6, 1, 5, 1, 6, 4, 4, 4, 5, 1, 2, 3, 4, 5, 6]);
next = array1d(1..15 ,[15, 4, 9, 10, 1, 7, 8, 13, 14, 11, 12, 6, 3, 5, 2]);
makespan = 734;
----------
assign = array1d(1..15 ,[6, 1, 5, 1, 6, 4, 4, 4, 5, 1, 2, 3, 4, 5, 6]);
next = array1d(1..15 ,[15, 4, 9, 10, 1, 7, 8, 13, 14, 11, 12, 6, 3, 5, 2]);
makespan = 733;
----------
assign = array1d(1..15 ,[6, 1, 5, 1, 6, 4, 4, 4, 5, 1, 2, 3, 4, 5, 6]);
next = array1d(1..15 ,[15, 4, 9, 10, 1, 7, 8, 13, 14, 11, 12, 6, 3, 5, 2]);
makespan = 730;
----------
assign = array1d(1..15 ,[6, 1, 5, 1, 6, 4, 4, 4, 5, 1, 2, 3, 4, 5, 6]);
next = array1d(1..15 ,[15, 4, 9, 10, 1, 7, 8, 13, 14, 11, 12, 6, 3, 5, 2]);
makespan = 727;
----------
assign = array1d(1..15 ,[6, 1, 5, 1, 6, 4, 4, 4, 5, 1, 2, 3, 4, 5, 6]);
next = array1d(1..15 ,[15, 4, 9, 10, 1, 7, 8, 13, 14, 11, 12, 6, 3, 5, 2]);
makespan = 725;
----------
assign = array1d(1..15 ,[6, 1, 5, 1, 6, 4, 4, 4, 5, 1, 2, 3, 4, 5, 6]);
next = array1d(1..15 ,[15, 4, 9, 10, 1, 7, 8, 13, 14, 11, 12, 6, 3, 5, 2]);
makespan = 721;
----------
assign = array1d(1..15 ,[6, 1, 5, 1, 6, 4, 4, 4, 5, 1, 2, 3, 4, 5, 6]);
next = array1d(1..15 ,[15, 4, 9, 10, 1, 7, 8, 13, 14, 11, 12, 6, 3, 5, 2]);
makespan = 720;
----------
assign = array1d(1..15 ,[6, 1, 5, 1, 6, 4, 4, 4, 5, 1, 2, 3, 4, 5, 6]);
next = array1d(1..15 ,[15, 4, 9, 10, 1, 7, 8, 13, 14, 11, 12, 6, 3, 5, 2]);
makespan = 719;
----------
assign = array1d(1..15 ,[6, 1, 5, 1, 6, 4, 4, 4, 5, 1, 2, 3, 4, 5, 6]);
next = array1d(1..15 ,[15, 4, 9, 10, 1, 7, 8, 13, 14, 11, 12, 6, 3, 5, 2]);
makespan = 716;
----------
assign = array1d(1..15 ,[6, 1, 5, 1, 6, 4, 4, 4, 5, 1, 2, 3, 4, 5, 6]);
next = array1d(1..15 ,[15, 4, 9, 10, 1, 7, 8, 13, 14, 11, 12, 6, 3, 5, 2]);
makespan = 714;
----------
assign = array1d(1..15 ,[6, 1, 5, 1, 6, 4, 4, 4, 5, 1, 2, 3, 4, 5, 6]);
next = array1d(1..15 ,[15, 4, 9, 10, 1, 7, 8, 13, 14, 11, 12, 6, 3, 5, 2]);
makespan = 712;
----------
assign = array1d(1..15 ,[6, 1, 5, 1, 6, 4, 4, 4, 5, 1, 2, 3, 4, 5, 6]);
next = array1d(1..15 ,[15, 4, 9, 10, 1, 7, 8, 13, 14, 11, 12, 6, 3, 5, 2]);
makespan = 694;
----------
assign = array1d(1..15 ,[6, 1, 5, 1, 6, 4, 4, 4, 5, 1, 2, 3, 4, 5, 6]);
next = array1d(1..15 ,[15, 4, 9, 10, 1, 7, 8, 13, 14, 11, 12, 6, 3, 5, 2]);
makespan = 689;
----------
assign = array1d(1..15 ,[6, 1, 5, 1, 6, 4, 4, 4, 5, 1, 2, 3, 4, 5, 6]);
next = array1d(1..15 ,[15, 4, 9, 10, 1, 7, 8, 13, 14, 11, 12, 6, 3, 5, 2]);
makespan = 680;
----------
assign = array1d(1..15 ,[6, 1, 5, 1, 6, 4, 4, 4, 5, 1, 2, 3, 4, 5, 6]);
next = array1d(1..15 ,[15, 4, 9, 10, 1, 7, 8, 13, 14, 11, 12, 6, 3, 5, 2]);
makespan = 677;
----------
assign = array1d(1..15 ,[6, 1, 5, 1, 6, 4, 4, 4, 5, 1, 2, 3, 4, 5, 6]);
next = array1d(1..15 ,[15, 4, 9, 10, 1, 7, 8, 13, 14, 11, 12, 6, 3, 5, 2]);
makespan = 674;
----------
assign = array1d(1..15 ,[6, 1, 5, 1, 6, 4, 4, 4, 5, 1, 2, 3, 4, 5, 6]);
next = array1d(1..15 ,[15, 4, 9, 10, 1, 7, 8, 13, 14, 11, 12, 6, 3, 5, 2]);
makespan = 670;
----------
assign = array1d(1..15 ,[6, 1, 5, 1, 6, 4, 4, 4, 5, 1, 2, 3, 4, 5, 6]);
next = array1d(1..15 ,[15, 4, 9, 10, 1, 7, 8, 13, 14, 11, 12, 6, 3, 5, 2]);
makespan = 669;
----------
assign = array1d(1..15 ,[6, 1, 5, 1, 6, 4, 4, 4, 5, 1, 2, 3, 4, 5, 6]);
next = array1d(1..15 ,[15, 4, 9, 10, 1, 7, 8, 13, 14, 11, 12, 6, 3, 5, 2]);
makespan = 667;
----------
assign = array1d(1..15 ,[6, 1, 5, 1, 6, 4, 4, 4, 5, 1, 2, 3, 4, 5, 6]);
next = array1d(1..15 ,[15, 4, 9, 10, 1, 7, 8, 13, 14, 11, 12, 6, 3, 5, 2]);
makespan = 656;
----------
assign = array1d(1..15 ,[6, 1, 5, 1, 6, 4, 4, 4, 5, 1, 2, 3, 4, 5, 6]);
next = array1d(1..15 ,[15, 4, 9, 10, 1, 7, 8, 13, 14, 11, 12, 6, 3, 5, 2]);
makespan = 655;
----------
assign = array1d(1..15 ,[6, 1, 5, 1, 6, 4, 4, 4, 5, 1, 2, 3, 4, 5, 6]);
next = array1d(1..15 ,[15, 4, 9, 10, 1, 7, 8, 13, 14, 11, 12, 6, 3, 5, 2]);
makespan = 653;
----------
assign = array1d(1..15 ,[6, 1, 5, 1, 6, 4, 4, 4, 5, 1, 2, 3, 4, 5, 6]);
next = array1d(1..15 ,[15, 4, 9, 10, 1, 7, 8, 13, 14, 11, 12, 6, 3, 5, 2]);
makespan = 650;
----------
assign = array1d(1..15 ,[6, 1, 5, 1, 6, 4, 4, 4, 5, 1, 2, 3, 4, 5, 6]);
next = array1d(1..15 ,[15, 4, 9, 10, 1, 7, 8, 13, 14, 11, 12, 6, 3, 5, 2]);
makespan = 632;
----------
assign = array1d(1..15 ,[6, 1, 5, 1, 6, 4, 4, 4, 5, 1, 2, 3, 4, 5, 6]);
next = array1d(1..15 ,[15, 4, 9, 10, 1, 7, 8, 13, 14, 11, 12, 6, 3, 5, 2]);
makespan = 626;
----------
assign = array1d(1..15 ,[6, 1, 5, 1, 6, 4, 4, 4, 5, 1, 2, 3, 4, 5, 6]);
next = array1d(1..15 ,[15, 4, 9, 10, 1, 7, 8, 13, 14, 11, 12, 6, 3, 5, 2]);
makespan = 624;
----------
assign = array1d(1..15 ,[6, 1, 5, 1, 6, 4, 4, 4, 5, 1, 2, 3, 4, 5, 6]);
next = array1d(1..15 ,[15, 4, 9, 10, 1, 7, 8, 13, 14, 11, 12, 6, 3, 5, 2]);
makespan = 615;
----------
assign = array1d(1..15 ,[6, 1, 5, 1, 6, 4, 4, 4, 5, 1, 2, 3, 4, 5, 6]);
next = array1d(1..15 ,[15, 4, 9, 10, 1, 7, 8, 13, 14, 11, 12, 6, 3, 5, 2]);
makespan = 610;
----------
assign = array1d(1..15 ,[6, 1, 5, 1, 6, 4, 4, 4, 5, 1, 2, 3, 4, 5, 6]);
next = array1d(1..15 ,[15, 4, 9, 10, 1, 7, 8, 13, 14, 11, 12, 6, 3, 5, 2]);
makespan = 609;
----------
assign = array1d(1..15 ,[6, 1, 5, 1, 6, 4, 4, 4, 5, 1, 2, 3, 4, 5, 6]);
next = array1d(1..15 ,[15, 4, 9, 10, 1, 7, 8, 13, 14, 11, 12, 6, 3, 5, 2]);
makespan = 608;
----------
assign = array1d(1..15 ,[6, 1, 5, 1, 6, 4, 4, 4, 5, 1, 2, 3, 4, 5, 6]);
next = array1d(1..15 ,[15, 4, 9, 10, 1, 7, 8, 13, 14, 11, 12, 6, 3, 5, 2]);
makespan = 607;
----------
assign = array1d(1..15 ,[6, 1, 5, 1, 6, 4, 4, 4, 5, 1, 2, 3, 4, 5, 6]);
next = array1d(1..15 ,[15, 4, 9, 10, 1, 7, 8, 13, 14, 11, 12, 6, 3, 5, 2]);
makespan = 604;
----------
assign = array1d(1..15 ,[6, 1, 5, 1, 6, 4, 4, 4, 5, 1, 2, 3, 4, 5, 6]);
next = array1d(1..15 ,[15, 4, 9, 10, 1, 7, 8, 13, 14, 11, 12, 6, 3, 5, 2]);
makespan = 601;
----------
assign = array1d(1..15 ,[6, 1, 5, 1, 6, 4, 4, 4, 5, 1, 2, 3, 4, 5, 6]);
next = array1d(1..15 ,[15, 4, 9, 10, 1, 7, 8, 13, 14, 11, 12, 6, 3, 5, 2]);
makespan = 600;
----------
assign = array1d(1..15 ,[6, 4, 5, 4, 6, 3, 3, 3, 5, 1, 2, 3, 4, 5, 6]);
next = array1d(1..15 ,[15, 4, 9, 13, 1, 7, 8, 12, 14, 11, 6, 2, 3, 5, 10]);
makespan = 588;
----------
assign = array1d(1..15 ,[6, 4, 5, 4, 6, 3, 3, 3, 5, 1, 2, 3, 4, 5, 6]);
next = array1d(1..15 ,[15, 4, 9, 13, 1, 7, 8, 12, 14, 11, 6, 2, 3, 5, 10]);
makespan = 587;
----------
assign = array1d(1..15 ,[6, 4, 5, 4, 6, 3, 3, 3, 5, 1, 2, 3, 4, 5, 6]);
next = array1d(1..15 ,[15, 4, 9, 13, 1, 7, 8, 12, 14, 11, 6, 2, 3, 5, 10]);
makespan = 585;
----------
assign = array1d(1..15 ,[6, 4, 5, 4, 6, 3, 3, 3, 5, 1, 2, 3, 4, 5, 6]);
next = array1d(1..15 ,[15, 4, 9, 13, 1, 7, 8, 12, 14, 11, 6, 2, 3, 5, 10]);
makespan = 581;
----------
assign = array1d(1..15 ,[6, 4, 5, 4, 6, 3, 3, 3, 5, 1, 2, 3, 4, 5, 6]);
next = array1d(1..15 ,[15, 4, 9, 13, 1, 7, 8, 12, 14, 11, 6, 2, 3, 5, 10]);
makespan = 579;
----------
assign = array1d(1..15 ,[6, 4, 5, 4, 6, 3, 3, 3, 5, 1, 2, 3, 4, 5, 6]);
next = array1d(1..15 ,[15, 4, 9, 13, 1, 7, 8, 12, 14, 11, 6, 2, 3, 5, 10]);
makespan = 567;
----------
assign = array1d(1..15 ,[6, 4, 5, 4, 6, 2, 2, 2, 5, 1, 2, 3, 4, 5, 6]);
next = array1d(1..15 ,[15, 4, 9, 13, 1, 7, 8, 11, 14, 6, 12, 2, 3, 5, 10]);
makespan = 562;
----------
assign = array1d(1..15 ,[6, 4, 5, 4, 6, 2, 2, 2, 5, 1, 2, 3, 4, 5, 6]);
next = array1d(1..15 ,[15, 4, 9, 13, 1, 7, 8, 11, 14, 6, 12, 2, 3, 5, 10]);
makespan = 561;
----------
assign = array1d(1..15 ,[6, 4, 5, 4, 6, 2, 2, 2, 5, 1, 2, 3, 4, 5, 6]);
next = array1d(1..15 ,[15, 4, 9, 13, 1, 7, 8, 11, 14, 6, 12, 2, 3, 5, 10]);
makespan = 554;
----------
assign = array1d(1..15 ,[6, 4, 5, 4, 6, 2, 2, 2, 5, 1, 2, 3, 4, 5, 6]);
next = array1d(1..15 ,[15, 4, 9, 13, 1, 7, 8, 11, 14, 6, 12, 2, 3, 5, 10]);
makespan = 547;
----------
assign = array1d(1..15 ,[6, 4, 5, 4, 6, 2, 2, 2, 5, 1, 2, 3, 4, 5, 6]);
next = array1d(1..15 ,[15, 4, 9, 13, 1, 7, 8, 11, 14, 6, 12, 2, 3, 5, 10]);
makespan = 545;
----------
assign = array1d(1..15 ,[6, 4, 5, 4, 6, 2, 2, 2, 5, 1, 2, 3, 4, 5, 6]);
next = array1d(1..15 ,[15, 4, 9, 13, 1, 7, 8, 11, 14, 6, 12, 2, 3, 5, 10]);
makespan = 540;
----------
assign = array1d(1..15 ,[4, 1, 6, 1, 4, 5, 5, 6, 3, 1, 2, 3, 4, 5, 6]);
next = array1d(1..15 ,[13, 4, 8, 10, 1, 7, 14, 15, 12, 11, 9, 5, 6, 3, 2]);
makespan = 537;
----------
assign = array1d(1..15 ,[2, 6, 5, 6, 3, 5, 4, 4, 2, 1, 2, 3, 4, 5, 6]);
next = array1d(1..15 ,[9, 4, 6, 15, 12, 14, 8, 13, 11, 1, 5, 7, 3, 2, 10]);
makespan = 529;
----------
assign = array1d(1..15 ,[6, 2, 2, 4, 6, 3, 5, 5, 4, 1, 2, 3, 4, 5, 6]);
next = array1d(1..15 ,[15, 3, 11, 9, 1, 12, 8, 14, 13, 2, 6, 4, 7, 5, 10]);
makespan = 527;
----------
assign = array1d(1..15 ,[2, 4, 5, 4, 6, 5, 1, 6, 2, 1, 2, 3, 4, 5, 6]);
next = array1d(1..15 ,[9, 13, 6, 2, 15, 14, 10, 5, 11, 1, 12, 4, 3, 8, 7]);
makespan = 526;
----------
assign = array1d(1..15 ,[6, 5, 5, 2, 3, 6, 4, 3, 4, 1, 2, 3, 4, 5, 6]);
next = array1d(1..15 ,[15, 3, 14, 11, 12, 1, 13, 5, 7, 4, 8, 9, 2, 6, 10]);
makespan = 525;
----------
assign = array1d(1..15 ,[1, 3, 4, 1, 6, 4, 5, 6, 5, 1, 2, 3, 4, 5, 6]);
next = array1d(1..15 ,[4, 12, 6, 10, 15, 13, 14, 5, 7, 11, 2, 3, 9, 8, 1]);
makespan = 524;
----------
assign = array1d(1..15 ,[6, 6, 4, 5, 1, 4, 3, 5, 1, 1, 2, 3, 4, 5, 6]);
next = array1d(1..15 ,[15, 1, 6, 14, 9, 13, 12, 4, 10, 11, 7, 3, 8, 2, 5]);
makespan = 523;
----------
assign = array1d(1..15 ,[6, 6, 5, 4, 3, 5, 4, 3, 1, 1, 2, 3, 4, 5, 6]);
next = array1d(1..15 ,[15, 1, 14, 7, 12, 3, 13, 5, 10, 11, 8, 4, 6, 2, 9]);
makespan = 522;
----------
assign = array1d(1..15 ,[4, 4, 6, 5, 3, 6, 3, 1, 5, 1, 2, 3, 4, 5, 6]);
next = array1d(1..15 ,[13, 1, 6, 9, 12, 15, 5, 10, 14, 11, 7, 2, 4, 3, 8]);
makespan = 520;
----------
assign = array1d(1..15 ,[6, 6, 3, 4, 5, 3, 5, 1, 4, 1, 2, 3, 4, 5, 6]);
next = array1d(1..15 ,[15, 1, 6, 9, 14, 12, 5, 10, 13, 11, 3, 4, 7, 2, 8]);
makespan = 519;
----------
assign = array1d(1..15 ,[1, 1, 6, 5, 3, 6, 4, 4, 5, 1, 2, 3, 4, 5, 6]);
next = array1d(1..15 ,[10, 1, 6, 14, 12, 15, 13, 7, 4, 11, 5, 8, 9, 3, 2]);
makespan = 518;
----------
assign = array1d(1..15 ,[2, 2, 5, 5, 6, 3, 6, 4, 3, 1, 2, 3, 4, 5, 6]);
next = array1d(1..15 ,[11, 1, 14, 3, 15, 9, 5, 13, 12, 2, 6, 8, 4, 7, 10]);
makespan = 516;
----------
assign = array1d(1..15 ,[6, 6, 3, 3, 1, 5, 4, 4, 5, 1, 2, 3, 4, 5, 6]);
next = array1d(1..15 ,[15, 1, 12, 3, 10, 9, 13, 7, 14, 11, 4, 8, 6, 2, 5]);
makespan = 513;
----------
assign = array1d(1..15 ,[3, 1, 4, 4, 5, 5, 6, 6, 1, 1, 2, 3, 4, 5, 6]);
next = array1d(1..15 ,[12, 10, 13, 3, 6, 14, 15, 7, 2, 11, 1, 4, 5, 8, 9]);
makespan = 512;
----------
assign = array1d(1..15 ,[5, 6, 5, 4, 2, 2, 1, 4, 6, 1, 2, 3, 4, 5, 6]);
next = array1d(1..15 ,[14, 15, 1, 13, 6, 11, 10, 4, 2, 5, 12, 8, 3, 9, 7]);
makespan = 511;
----------
assign = array1d(1..15 ,[5, 6, 5, 4, 2, 4, 1, 1, 6, 1, 2, 3, 4, 5, 6]);
next = array1d(1..15 ,[3, 9, 14, 13, 11, 4, 10, 7, 15, 5, 12, 6, 1, 2, 8]);
makespan = 509;
----------
assign = array1d(1..15 ,[5, 6, 5, 4, 1, 4, 1, 2, 6, 1, 2, 3, 4, 5, 6]);
next = array1d(1..15 ,[14, 15, 1, 13, 10, 4, 5, 11, 2, 8, 12, 6, 3, 9, 7]);
makespan = 506;
----------
assign = array1d(1..15 ,[3, 6, 5, 4, 5, 4, 3, 2, 6, 1, 2, 3, 4, 5, 6]);
next = array1d(1..15 ,[12, 15, 5, 13, 14, 4, 1, 11, 2, 8, 7, 6, 3, 9, 10]);
makespan = 503;
----------
assign = array1d(1..15 ,[6, 4, 5, 2, 4, 2, 6, 5, 3, 1, 2, 3, 4, 5, 6]);
next = array1d(1..15 ,[15, 5, 8, 11, 13, 4, 1, 14, 12, 6, 9, 2, 3, 7, 10]);
makespan = 502;
----------
assign = array1d(1..15 ,[3, 4, 5, 6, 4, 6, 2, 2, 5, 1, 2, 3, 4, 5, 6]);
next = array1d(1..15 ,[12, 5, 9, 15, 13, 4, 11, 7, 14, 8, 1, 2, 3, 6, 10]);
makespan = 501;
----------
assign = array1d(1..15 ,[3, 6, 5, 4, 6, 4, 2, 1, 5, 1, 2, 3, 4, 5, 6]);
next = array1d(1..15 ,[12, 5, 9, 13, 15, 4, 11, 10, 14, 7, 1, 6, 3, 2, 8]);
makespan = 500;
----------
assign = array1d(1..15 ,[5, 2, 4, 6, 2, 6, 3, 4, 5, 1, 2, 3, 4, 5, 6]);
next = array1d(1..15 ,[9, 5, 8, 15, 11, 4, 12, 13, 14, 2, 7, 3, 1, 6, 10]);
makespan = 498;
----------
assign = array1d(1..15 ,[5, 2, 3, 6, 2, 6, 4, 4, 5, 1, 2, 3, 4, 5, 6]);
next = array1d(1..15 ,[9, 5, 12, 6, 11, 15, 13, 7, 14, 2, 3, 8, 1, 4, 10]);
makespan = 497;
----------
assign = array1d(1..15 ,[6, 2, 3, 4, 2, 4, 5, 5, 6, 1, 2, 3, 4, 5, 6]);
next = array1d(1..15 ,[9, 5, 12, 6, 11, 13, 14, 7, 15, 2, 3, 4, 8, 1, 10]);
makespan = 496;
----------
assign = array1d(1..15 ,[6, 2, 3, 4, 2, 4, 5, 5, 6, 1, 2, 3, 4, 5, 6]);
next = array1d(1..15 ,[15, 5, 12, 6, 11, 13, 14, 7, 1, 2, 3, 4, 8, 9, 10]);
makespan = 495;
----------
assign = array1d(1..15 ,[6, 3, 1, 4, 1, 4, 5, 5, 6, 1, 2, 3, 4, 5, 6]);
next = array1d(1..15 ,[9, 12, 5, 6, 10, 13, 14, 7, 15, 11, 2, 4, 8, 1, 3]);
makespan = 493;
----------
assign = array1d(1..15 ,[6, 5, 4, 5, 1, 4, 3, 3, 6, 1, 2, 3, 4, 5, 6]);
next = array1d(1..15 ,[9, 4, 6, 14, 10, 13, 12, 7, 15, 11, 8, 3, 2, 1, 5]);
makespan = 492;
----------
assign = array1d(1..15 ,[6, 5, 4, 5, 1, 4, 3, 3, 6, 1, 2, 3, 4, 5, 6]);
next = array1d(1..15 ,[9, 4, 6, 14, 10, 13, 12, 7, 15, 11, 8, 3, 2, 1, 5]);
makespan = 491;
----------
assign = array1d(1..15 ,[6, 5, 4, 5, 1, 4, 3, 3, 6, 1, 2, 3, 4, 5, 6]);
next = array1d(1..15 ,[9, 4, 6, 14, 10, 13, 12, 7, 15, 11, 8, 3, 2, 1, 5]);
makespan = 488;
----------
assign = array1d(1..15 ,[6, 5, 4, 5, 1, 4, 3, 3, 6, 1, 2, 3, 4, 5, 6]);
next = array1d(1..15 ,[9, 4, 6, 14, 10, 13, 12, 7, 15, 11, 8, 3, 2, 1, 5]);
makespan = 486;
----------
assign = array1d(1..15 ,[6, 5, 4, 5, 1, 4, 3, 3, 6, 1, 2, 3, 4, 5, 6]);
next = array1d(1..15 ,[9, 4, 6, 14, 10, 13, 12, 7, 15, 11, 8, 3, 2, 1, 5]);
makespan = 485;
----------
assign = array1d(1..15 ,[6, 5, 4, 5, 1, 4, 3, 3, 6, 1, 2, 3, 4, 5, 6]);
next = array1d(1..15 ,[9, 4, 6, 14, 10, 13, 12, 7, 15, 11, 8, 3, 2, 1, 5]);
makespan = 484;
----------
assign = array1d(1..15 ,[6, 5, 4, 5, 1, 4, 3, 3, 6, 1, 2, 3, 4, 5, 6]);
next = array1d(1..15 ,[9, 4, 6, 14, 10, 13, 12, 7, 15, 11, 8, 3, 2, 1, 5]);
makespan = 483;
----------
assign = array1d(1..15 ,[6, 5, 4, 5, 1, 4, 3, 3, 6, 1, 2, 3, 4, 5, 6]);
next = array1d(1..15 ,[9, 4, 6, 14, 10, 13, 12, 7, 15, 11, 8, 3, 2, 1, 5]);
makespan = 482;
----------
assign = array1d(1..15 ,[6, 5, 4, 5, 1, 4, 3, 3, 6, 1, 2, 3, 4, 5, 6]);
next = array1d(1..15 ,[9, 4, 6, 14, 10, 13, 12, 7, 15, 11, 8, 3, 2, 1, 5]);
makespan = 481;
----------
assign = array1d(1..15 ,[6, 5, 4, 5, 1, 4, 3, 3, 6, 1, 2, 3, 4, 5, 6]);
next = array1d(1..15 ,[9, 4, 6, 14, 10, 13, 12, 7, 15, 11, 8, 3, 2, 1, 5]);
makespan = 480;
----------
assign = array1d(1..15 ,[6, 5, 4, 5, 1, 4, 3, 3, 6, 1, 2, 3, 4, 5, 6]);
next = array1d(1..15 ,[9, 4, 6, 14, 10, 13, 12, 7, 15, 11, 8, 3, 2, 1, 5]);
makespan = 479;
----------
assign = array1d(1..15 ,[6, 5, 4, 5, 1, 4, 3, 3, 6, 1, 2, 3, 4, 5, 6]);
next = array1d(1..15 ,[9, 4, 6, 14, 10, 13, 12, 7, 15, 11, 8, 3, 2, 1, 5]);
makespan = 478;
----------
assign = array1d(1..15 ,[6, 5, 4, 5, 1, 4, 3, 3, 6, 1, 2, 3, 4, 5, 6]);
next = array1d(1..15 ,[9, 4, 6, 14, 10, 13, 12, 7, 15, 11, 8, 3, 2, 1, 5]);
makespan = 477;
----------
assign = array1d(1..15 ,[6, 5, 4, 5, 1, 4, 3, 3, 6, 1, 2, 3, 4, 5, 6]);
next = array1d(1..15 ,[9, 4, 6, 14, 10, 13, 12, 7, 15, 11, 8, 3, 2, 1, 5]);
makespan = 476;
----------
assign = array1d(1..15 ,[6, 5, 4, 5, 1, 4, 3, 3, 6, 1, 2, 3, 4, 5, 6]);
next = array1d(1..15 ,[9, 4, 6, 14, 10, 13, 12, 7, 15, 11, 8, 3, 2, 1, 5]);
makespan = 475;
----------
assign = array1d(1..15 ,[6, 5, 4, 5, 1, 4, 3, 3, 6, 1, 2, 3, 4, 5, 6]);
next = array1d(1..15 ,[9, 4, 6, 14, 10, 13, 12, 7, 15, 11, 8, 3, 2, 1, 5]);
makespan = 474;
----------
assign = array1d(1..15 ,[6, 5, 4, 5, 1, 4, 3, 3, 6, 1, 2, 3, 4, 5, 6]);
next = array1d(1..15 ,[9, 4, 6, 14, 10, 13, 12, 7, 15, 11, 8, 3, 2, 1, 5]);
makespan = 473;
----------
assign = array1d(1..15 ,[6, 5, 4, 5, 1, 4, 3, 3, 6, 1, 2, 3, 4, 5, 6]);
next = array1d(1..15 ,[9, 4, 6, 14, 10, 13, 12, 7, 15, 11, 8, 3, 2, 1, 5]);
makespan = 472;
----------
assign = array1d(1..15 ,[6, 5, 4, 5, 1, 4, 3, 3, 6, 1, 2, 3, 4, 5, 6]);
next = array1d(1..15 ,[9, 4, 6, 14, 10, 13, 12, 7, 15, 11, 8, 3, 2, 1, 5]);
makespan = 471;
----------
assign = array1d(1..15 ,[6, 5, 4, 5, 1, 4, 3, 3, 6, 1, 2, 3, 4, 5, 6]);
next = array1d(1..15 ,[9, 4, 6, 14, 10, 13, 12, 7, 15, 11, 8, 3, 2, 1, 5]);
makespan = 470;
----------
assign = array1d(1..15 ,[6, 5, 4, 5, 1, 4, 3, 3, 6, 1, 2, 3, 4, 5, 6]);
next = array1d(1..15 ,[9, 4, 6, 14, 10, 13, 12, 7, 15, 11, 8, 3, 2, 1, 5]);
makespan = 469;
----------
assign = array1d(1..15 ,[6, 5, 4, 5, 1, 4, 3, 3, 6, 1, 2, 3, 4, 5, 6]);
next = array1d(1..15 ,[9, 4, 6, 14, 10, 13, 12, 7, 15, 11, 8, 3, 2, 1, 5]);
makespan = 468;
----------
assign = array1d(1..15 ,[6, 5, 4, 5, 1, 4, 3, 3, 6, 1, 2, 3, 4, 5, 6]);
next = array1d(1..15 ,[9, 4, 6, 14, 10, 13, 12, 7, 15, 11, 8, 3, 2, 1, 5]);
makespan = 467;
----------
assign = array1d(1..15 ,[6, 5, 4, 5, 1, 4, 3, 3, 6, 1, 2, 3, 4, 5, 6]);
next = array1d(1..15 ,[9, 4, 6, 14, 10, 13, 12, 7, 15, 11, 8, 3, 2, 1, 5]);
makespan = 466;
----------
assign = array1d(1..15 ,[6, 5, 4, 5, 1, 4, 3, 3, 6, 1, 2, 3, 4, 5, 6]);
next = array1d(1..15 ,[9, 4, 6, 14, 10, 13, 12, 7, 15, 11, 8, 3, 2, 1, 5]);
makespan = 465;
----------
assign = array1d(1..15 ,[6, 5, 4, 5, 1, 4, 3, 3, 6, 1, 2, 3, 4, 5, 6]);
next = array1d(1..15 ,[9, 4, 6, 14, 10, 13, 12, 7, 15, 11, 8, 3, 2, 1, 5]);
makespan = 464;
----------
assign = array1d(1..15 ,[6, 5, 4, 5, 1, 4, 3, 3, 6, 1, 2, 3, 4, 5, 6]);
next = array1d(1..15 ,[9, 4, 6, 14, 10, 13, 12, 7, 15, 11, 8, 3, 2, 1, 5]);
makespan = 462;
----------
assign = array1d(1..15 ,[6, 5, 4, 5, 1, 4, 3, 3, 6, 1, 2, 3, 4, 5, 6]);
next = array1d(1..15 ,[9, 4, 6, 14, 10, 13, 12, 7, 15, 11, 8, 3, 2, 1, 5]);
makespan = 460;
----------
assign = array1d(1..15 ,[6, 5, 4, 5, 1, 4, 3, 3, 6, 1, 2, 3, 4, 5, 6]);
next = array1d(1..15 ,[9, 4, 6, 14, 10, 13, 12, 7, 15, 11, 8, 3, 2, 1, 5]);
makespan = 459;
----------
assign = array1d(1..15 ,[6, 5, 4, 5, 1, 4, 3, 3, 6, 1, 2, 3, 4, 5, 6]);
next = array1d(1..15 ,[9, 4, 6, 14, 10, 13, 12, 7, 15, 11, 8, 3, 2, 1, 5]);
makespan = 457;
----------
assign = array1d(1..15 ,[6, 5, 4, 5, 1, 4, 3, 3, 6, 1, 2, 3, 4, 5, 6]);
next = array1d(1..15 ,[9, 4, 6, 14, 10, 13, 12, 7, 15, 11, 8, 3, 2, 1, 5]);
makespan = 456;
----------
assign = array1d(1..15 ,[6, 5, 4, 5, 1, 4, 3, 3, 6, 1, 2, 3, 4, 5, 6]);
next = array1d(1..15 ,[9, 4, 6, 14, 10, 13, 12, 7, 15, 11, 8, 3, 2, 1, 5]);
makespan = 455;
----------
assign = array1d(1..15 ,[6, 5, 4, 5, 1, 4, 3, 3, 6, 1, 2, 3, 4, 5, 6]);
next = array1d(1..15 ,[9, 4, 6, 14, 10, 13, 12, 7, 15, 11, 8, 3, 2, 1, 5]);
makespan = 453;
----------
assign = array1d(1..15 ,[6, 5, 4, 5, 1, 4, 3, 3, 6, 1, 2, 3, 4, 5, 6]);
next = array1d(1..15 ,[9, 4, 6, 14, 10, 13, 12, 7, 15, 11, 8, 3, 2, 1, 5]);
makespan = 452;
----------
assign = array1d(1..15 ,[6, 5, 4, 5, 1, 4, 3, 3, 6, 1, 2, 3, 4, 5, 6]);
next = array1d(1..15 ,[9, 4, 6, 14, 10, 13, 12, 7, 15, 11, 8, 3, 2, 1, 5]);
makespan = 451;
----------
assign = array1d(1..15 ,[6, 5, 4, 5, 1, 4, 3, 3, 6, 1, 2, 3, 4, 5, 6]);
next = array1d(1..15 ,[9, 4, 6, 14, 10, 13, 12, 7, 15, 11, 8, 3, 2, 1, 5]);
makespan = 448;
----------
assign = array1d(1..15 ,[6, 5, 4, 5, 1, 4, 3, 3, 6, 1, 2, 3, 4, 5, 6]);
next = array1d(1..15 ,[9, 4, 6, 14, 10, 13, 12, 7, 15, 11, 8, 3, 2, 1, 5]);
makespan = 447;
----------
assign = array1d(1..15 ,[6, 5, 4, 5, 1, 4, 3, 3, 6, 1, 2, 3, 4, 5, 6]);
next = array1d(1..15 ,[9, 4, 6, 14, 10, 13, 12, 7, 15, 11, 8, 3, 2, 1, 5]);
makespan = 446;
----------
assign = array1d(1..15 ,[6, 5, 4, 5, 1, 4, 3, 3, 6, 1, 2, 3, 4, 5, 6]);
next = array1d(1..15 ,[9, 4, 6, 14, 10, 13, 12, 7, 15, 11, 8, 3, 2, 1, 5]);
makespan = 445;
----------
assign = array1d(1..15 ,[6, 5, 4, 5, 1, 4, 3, 3, 6, 1, 2, 3, 4, 5, 6]);
next = array1d(1..15 ,[9, 4, 6, 14, 10, 13, 12, 7, 15, 11, 8, 3, 2, 1, 5]);
makespan = 444;
----------
assign = array1d(1..15 ,[6, 5, 4, 5, 1, 4, 3, 3, 6, 1, 2, 3, 4, 5, 6]);
next = array1d(1..15 ,[9, 4, 6, 14, 10, 13, 12, 7, 15, 11, 8, 3, 2, 1, 5]);
makespan = 443;
----------
assign = array1d(1..15 ,[6, 5, 4, 5, 1, 4, 3, 3, 6, 1, 2, 3, 4, 5, 6]);
next = array1d(1..15 ,[9, 4, 6, 14, 10, 13, 12, 7, 15, 11, 8, 3, 2, 1, 5]);
makespan = 441;
----------
assign = array1d(1..15 ,[6, 5, 4, 5, 1, 4, 3, 3, 6, 1, 2, 3, 4, 5, 6]);
next = array1d(1..15 ,[9, 4, 6, 14, 10, 13, 12, 7, 15, 11, 8, 3, 2, 1, 5]);
makespan = 440;
----------
assign = array1d(1..15 ,[6, 5, 4, 5, 1, 4, 3, 3, 6, 1, 2, 3, 4, 5, 6]);
next = array1d(1..15 ,[9, 4, 6, 14, 10, 13, 12, 7, 15, 11, 8, 3, 2, 1, 5]);
makespan = 439;
----------
assign = array1d(1..15 ,[6, 5, 4, 5, 1, 4, 3, 3, 6, 1, 2, 3, 4, 5, 6]);
next = array1d(1..15 ,[9, 4, 6, 14, 10, 13, 12, 7, 15, 11, 8, 3, 2, 1, 5]);
makespan = 437;
----------
assign = array1d(1..15 ,[6, 5, 4, 5, 1, 4, 3, 3, 6, 1, 2, 3, 4, 5, 6]);
next = array1d(1..15 ,[9, 4, 6, 14, 10, 13, 12, 7, 15, 11, 8, 3, 2, 1, 5]);
makespan = 430;
----------
assign = array1d(1..15 ,[6, 5, 4, 5, 1, 4, 3, 3, 6, 1, 2, 3, 4, 5, 6]);
next = array1d(1..15 ,[9, 4, 6, 14, 10, 13, 12, 7, 15, 11, 8, 3, 2, 1, 5]);
makespan = 429;
----------
assign = array1d(1..15 ,[6, 5, 4, 5, 1, 4, 3, 3, 6, 1, 2, 3, 4, 5, 6]);
next = array1d(1..15 ,[9, 4, 6, 14, 10, 13, 12, 7, 15, 11, 8, 3, 2, 1, 5]);
makespan = 428;
----------
assign = array1d(1..15 ,[6, 5, 4, 5, 1, 4, 3, 3, 6, 1, 2, 3, 4, 5, 6]);
next = array1d(1..15 ,[9, 4, 6, 14, 10, 13, 12, 7, 15, 11, 8, 3, 2, 1, 5]);
makespan = 427;
----------
assign = array1d(1..15 ,[6, 5, 4, 5, 1, 4, 3, 3, 6, 1, 2, 3, 4, 5, 6]);
next = array1d(1..15 ,[9, 4, 6, 14, 10, 13, 12, 7, 15, 11, 8, 3, 2, 1, 5]);
makespan = 426;
----------
assign = array1d(1..15 ,[6, 5, 4, 5, 1, 4, 3, 3, 6, 1, 2, 3, 4, 5, 6]);
next = array1d(1..15 ,[9, 4, 6, 14, 10, 13, 12, 7, 15, 11, 8, 3, 2, 1, 5]);
makespan = 424;
----------
assign = array1d(1..15 ,[6, 5, 4, 5, 1, 4, 3, 3, 6, 1, 2, 3, 4, 5, 6]);
next = array1d(1..15 ,[9, 4, 6, 14, 10, 13, 12, 7, 15, 11, 8, 3, 2, 1, 5]);
makespan = 418;
----------
assign = array1d(1..15 ,[6, 5, 4, 5, 1, 4, 3, 3, 6, 1, 2, 3, 4, 5, 6]);
next = array1d(1..15 ,[9, 4, 6, 14, 10, 13, 12, 7, 15, 11, 8, 3, 2, 1, 5]);
makespan = 414;
----------
assign = array1d(1..15 ,[6, 5, 4, 5, 1, 4, 3, 3, 6, 1, 2, 3, 4, 5, 6]);
next = array1d(1..15 ,[9, 4, 6, 14, 10, 13, 12, 7, 15, 11, 8, 3, 2, 1, 5]);
makespan = 413;
----------
assign = array1d(1..15 ,[6, 5, 4, 5, 1, 4, 3, 3, 6, 1, 2, 3, 4, 5, 6]);
next = array1d(1..15 ,[9, 4, 6, 14, 10, 13, 12, 7, 15, 11, 8, 3, 2, 1, 5]);
makespan = 407;
----------
assign = array1d(1..15 ,[6, 5, 4, 5, 1, 4, 3, 3, 6, 1, 2, 3, 4, 5, 6]);
next = array1d(1..15 ,[9, 4, 6, 14, 10, 13, 12, 7, 15, 11, 8, 3, 2, 1, 5]);
makespan = 406;
----------
assign = array1d(1..15 ,[6, 5, 4, 5, 1, 4, 3, 3, 6, 1, 2, 3, 4, 5, 6]);
next = array1d(1..15 ,[9, 4, 6, 14, 10, 13, 12, 7, 15, 11, 8, 3, 2, 1, 5]);
makespan = 405;
----------
assign = array1d(1..15 ,[6, 5, 4, 5, 1, 4, 3, 3, 6, 1, 2, 3, 4, 5, 6]);
next = array1d(1..15 ,[9, 4, 6, 14, 10, 13, 12, 7, 15, 11, 8, 3, 2, 1, 5]);
makespan = 404;
----------
assign = array1d(1..15 ,[6, 5, 4, 5, 1, 4, 3, 3, 6, 1, 2, 3, 4, 5, 6]);
next = array1d(1..15 ,[9, 4, 6, 14, 10, 13, 12, 7, 15, 11, 8, 3, 2, 1, 5]);
makespan = 401;
----------
assign = array1d(1..15 ,[6, 5, 4, 5, 1, 4, 3, 3, 6, 1, 2, 3, 4, 5, 6]);
next = array1d(1..15 ,[9, 4, 6, 14, 10, 13, 12, 7, 15, 11, 8, 3, 2, 1, 5]);
makespan = 398;
----------
assign = array1d(1..15 ,[6, 5, 4, 5, 1, 4, 3, 3, 6, 1, 2, 3, 4, 5, 6]);
next = array1d(1..15 ,[9, 4, 6, 14, 10, 13, 12, 7, 15, 11, 8, 3, 2, 1, 5]);
makespan = 395;
----------
assign = array1d(1..15 ,[6, 5, 4, 5, 1, 4, 3, 3, 6, 1, 2, 3, 4, 5, 6]);
next = array1d(1..15 ,[9, 4, 6, 14, 10, 13, 12, 7, 15, 11, 8, 3, 2, 1, 5]);
makespan = 394;
----------
assign = array1d(1..15 ,[6, 5, 4, 5, 1, 4, 3, 3, 6, 1, 2, 3, 4, 5, 6]);
next = array1d(1..15 ,[9, 4, 6, 14, 10, 13, 12, 7, 15, 11, 8, 3, 2, 1, 5]);
makespan = 393;
----------
assign = array1d(1..15 ,[6, 5, 4, 5, 1, 4, 3, 3, 6, 1, 2, 3, 4, 5, 6]);
next = array1d(1..15 ,[9, 4, 6, 14, 10, 13, 12, 7, 15, 11, 8, 3, 2, 1, 5]);
makespan = 391;
----------
assign = array1d(1..15 ,[6, 5, 4, 5, 1, 4, 3, 3, 6, 1, 2, 3, 4, 5, 6]);
next = array1d(1..15 ,[9, 4, 6, 14, 10, 13, 12, 7, 15, 11, 8, 3, 2, 1, 5]);
makespan = 390;
----------
assign = array1d(1..15 ,[6, 5, 4, 5, 1, 4, 3, 3, 6, 1, 2, 3, 4, 5, 6]);
next = array1d(1..15 ,[9, 4, 6, 14, 10, 13, 12, 7, 15, 11, 8, 3, 2, 1, 5]);
makespan = 389;
----------
assign = array1d(1..15 ,[6, 5, 4, 5, 1, 4, 3, 3, 6, 1, 2, 3, 4, 5, 6]);
next = array1d(1..15 ,[9, 4, 6, 14, 10, 13, 12, 7, 15, 11, 8, 3, 2, 1, 5]);
makespan = 388;
----------
assign = array1d(1..15 ,[6, 5, 4, 5, 1, 4, 3, 3, 6, 1, 2, 3, 4, 5, 6]);
next = array1d(1..15 ,[9, 4, 6, 14, 10, 13, 12, 7, 15, 11, 8, 3, 2, 1, 5]);
makespan = 387;
----------
assign = array1d(1..15 ,[6, 5, 4, 5, 1, 4, 3, 3, 6, 1, 2, 3, 4, 5, 6]);
next = array1d(1..15 ,[9, 4, 6, 14, 10, 13, 12, 7, 15, 11, 8, 3, 2, 1, 5]);
makespan = 385;
----------
assign = array1d(1..15 ,[6, 5, 4, 5, 1, 4, 3, 3, 6, 1, 2, 3, 4, 5, 6]);
next = array1d(1..15 ,[9, 4, 6, 14, 10, 13, 12, 7, 15, 11, 8, 3, 2, 1, 5]);
makespan = 384;
----------
assign = array1d(1..15 ,[3, 2, 6, 2, 4, 4, 5, 5, 6, 1, 2, 3, 4, 5, 6]);
next = array1d(1..15 ,[12, 4, 9, 11, 6, 13, 14, 7, 15, 2, 1, 5, 8, 3, 10]);
makespan = 383;
----------
assign = array1d(1..15 ,[3, 4, 5, 6, 5, 4, 1, 1, 6, 1, 2, 3, 4, 5, 6]);
next = array1d(1..15 ,[12, 13, 5, 15, 14, 2, 10, 7, 4, 11, 1, 6, 3, 9, 8]);
makespan = 382;
----------
assign = array1d(1..15 ,[4, 2, 5, 2, 5, 4, 3, 3, 6, 1, 2, 3, 4, 5, 6]);
next = array1d(1..15 ,[13, 4, 5, 11, 14, 1, 12, 7, 15, 2, 8, 6, 3, 9, 10]);
makespan = 381;
----------
assign = array1d(1..15 ,[4, 2, 6, 2, 5, 4, 3, 3, 6, 1, 2, 3, 4, 5, 6]);
next = array1d(1..15 ,[13, 4, 9, 11, 14, 1, 12, 7, 15, 2, 8, 6, 5, 3, 10]);
makespan = 378;
----------
assign = array1d(1..15 ,[4, 2, 6, 2, 5, 4, 3, 3, 6, 1, 2, 3, 4, 5, 6]);
next = array1d(1..15 ,[13, 4, 9, 11, 14, 1, 12, 7, 15, 2, 8, 6, 5, 3, 10]);
makespan = 377;
----------
assign = array1d(1..15 ,[4, 2, 6, 2, 5, 4, 3, 3, 6, 1, 2, 3, 4, 5, 6]);
next = array1d(1..15 ,[13, 4, 9, 11, 14, 1, 12, 7, 15, 2, 8, 6, 5, 3, 10]);
makespan = 373;
----------
assign = array1d(1..15 ,[4, 2, 6, 2, 5, 4, 3, 3, 6, 1, 2, 3, 4, 5, 6]);
next = array1d(1..15 ,[13, 4, 9, 11, 14, 1, 12, 7, 15, 2, 8, 6, 5, 3, 10]);
makespan = 372;
----------
assign = array1d(1..15 ,[4, 2, 6, 2, 5, 4, 3, 3, 6, 1, 2, 3, 4, 5, 6]);
next = array1d(1..15 ,[13, 4, 9, 11, 14, 1, 12, 7, 15, 2, 8, 6, 5, 3, 10]);
makespan = 371;
----------
assign = array1d(1..15 ,[4, 2, 6, 2, 5, 4, 3, 3, 6, 1, 2, 3, 4, 5, 6]);
next = array1d(1..15 ,[13, 4, 9, 11, 14, 1, 12, 7, 15, 2, 8, 6, 5, 3, 10]);
makespan = 368;
----------
assign = array1d(1..15 ,[4, 2, 6, 2, 5, 4, 3, 3, 6, 1, 2, 3, 4, 5, 6]);
next = array1d(1..15 ,[13, 4, 9, 11, 14, 1, 12, 7, 15, 2, 8, 6, 5, 3, 10]);
makespan = 367;
----------
assign = array1d(1..15 ,[4, 2, 6, 2, 5, 4, 3, 3, 6, 1, 2, 3, 4, 5, 6]);
next = array1d(1..15 ,[6, 4, 9, 11, 14, 13, 12, 7, 15, 2, 8, 1, 5, 3, 10]);
makespan = 366;
----------
assign = array1d(1..15 ,[4, 2, 6, 2, 5, 4, 5, 3, 6, 1, 2, 3, 4, 5, 6]);
next = array1d(1..15 ,[6, 4, 9, 11, 14, 13, 5, 12, 15, 2, 8, 1, 7, 3, 10]);
makespan = 365;
----------
assign = array1d(1..15 ,[4, 2, 3, 2, 5, 4, 5, 6, 6, 1, 2, 3, 4, 5, 6]);
next = array1d(1..15 ,[6, 4, 12, 11, 14, 13, 5, 9, 15, 2, 3, 1, 7, 8, 10]);
makespan = 364;
----------
assign = array1d(1..15 ,[6, 4, 2, 4, 5, 5, 3, 3, 2, 1, 2, 3, 4, 5, 6]);
next = array1d(1..15 ,[15, 4, 9, 13, 6, 14, 12, 7, 11, 3, 8, 2, 5, 1, 10]);
makespan = 363;
----------
assign = array1d(1..15 ,[6, 4, 2, 4, 5, 3, 5, 3, 2, 1, 2, 3, 4, 5, 6]);
next = array1d(1..15 ,[15, 4, 9, 13, 14, 8, 5, 12, 11, 3, 6, 2, 7, 1, 10]);
makespan = 362;
----------
assign = array1d(1..15 ,[6, 4, 3, 5, 2, 4, 1, 6, 2, 1, 2, 3, 4, 5, 6]);
next = array1d(1..15 ,[8, 6, 12, 14, 11, 13, 10, 15, 5, 9, 3, 2, 4, 1, 7]);
makespan = 361;
----------
assign = array1d(1..15 ,[2, 4, 3, 5, 6, 1, 6, 3, 4, 1, 2, 3, 4, 5, 6]);
next = array1d(1..15 ,[11, 9, 12, 14, 7, 10, 15, 3, 13, 1, 8, 2, 4, 5, 6]);
makespan = 360;
----------
assign = array1d(1..15 ,[4, 1, 2, 5, 3, 2, 4, 6, 6, 1, 2, 3, 4, 5, 6]);
next = array1d(1..15 ,[7, 10, 11, 14, 12, 3, 13, 9, 15, 6, 5, 1, 4, 8, 2]);
makespan = 359;
----------
assign = array1d(1..15 ,[2, 3, 6, 5, 4, 4, 1, 6, 2, 1, 2, 3, 4, 5, 6]);
next = array1d(1..15 ,[9, 12, 15, 14, 6, 13, 10, 3, 11, 1, 2, 5, 4, 8, 7]);
makespan = 358;
----------
assign = array1d(1..15 ,[2, 4, 6, 5, 4, 6, 1, 3, 2, 1, 2, 3, 4, 5, 6]);
next = array1d(1..15 ,[9, 13, 15, 14, 2, 3, 10, 12, 11, 1, 8, 5, 4, 6, 7]);
makespan = 357;
----------
assign = array1d(1..15 ,[2, 6, 3, 5, 4, 4, 1, 1, 2, 1, 2, 3, 4, 5, 6]);
next = array1d(1..15 ,[9, 15, 12, 14, 6, 13, 8, 10, 11, 1, 3, 5, 4, 2, 7]);
makespan = 355;
----------
assign = array1d(1..15 ,[3, 1, 5, 4, 6, 4, 5, 6, 2, 1, 2, 3, 4, 5, 6]);
next = array1d(1..15 ,[12, 10, 7, 6, 8, 13, 14, 15, 11, 9, 1, 4, 3, 5, 2]);
makespan = 354;
----------
assign = array1d(1..15 ,[2, 3, 5, 4, 6, 4, 5, 6, 1, 1, 2, 3, 4, 5, 6]);
next = array1d(1..15 ,[11, 12, 7, 6, 8, 13, 14, 15, 10, 1, 2, 4, 3, 5, 9]);
makespan = 353;
----------
assign = array1d(1..15 ,[4, 1, 6, 2, 3, 4, 6, 3, 5, 1, 2, 3, 4, 5, 6]);
next = array1d(1..15 ,[6, 10, 7, 11, 8, 13, 15, 12, 14, 4, 5, 1, 9, 3, 2]);
makespan = 352;
----------
assign = array1d(1..15 ,[4, 1, 2, 2, 3, 4, 6, 5, 6, 1, 2, 3, 4, 5, 6]);
next = array1d(1..15 ,[6, 10, 4, 11, 12, 13, 9, 14, 15, 3, 5, 1, 8, 7, 2]);
makespan = 349;
----------
assign = array1d(1..15 ,[1, 5, 3, 4, 4, 2, 1, 2, 6, 1, 2, 3, 4, 5, 6]);
next = array1d(1..15 ,[7, 14, 12, 13, 4, 11, 10, 6, 15, 8, 3, 5, 2, 9, 1]);
makespan = 348;
----------
assign = array1d(1..15 ,[4, 5, 6, 2, 3, 4, 5, 6, 2, 1, 2, 3, 4, 5, 6]);
next = array1d(1..15 ,[6, 7, 15, 11, 12, 13, 14, 3, 4, 9, 5, 1, 2, 8, 10]);
makespan = 346;
----------
assign = array1d(1..15 ,[6, 4, 4, 1, 5, 2, 1, 3, 2, 1, 2, 3, 4, 5, 6]);
next = array1d(1..15 ,[15, 13, 2, 7, 14, 9, 10, 12, 11, 6, 8, 3, 5, 1, 4]);
makespan = 345;
----------
assign = array1d(1..15 ,[1, 4, 5, 6, 2, 3, 5, 6, 4, 1, 2, 3, 4, 5, 6]);
next = array1d(1..15 ,[10, 9, 7, 8, 11, 12, 14, 15, 13, 5, 6, 2, 3, 4, 1]);
makespan = 344;
----------
assign = array1d(1..15 ,[6, 3, 5, 4, 4, 2, 5, 1, 2, 1, 2, 3, 4, 5, 6]);
next = array1d(1..15 ,[15, 12, 7, 13, 4, 11, 14, 10, 6, 9, 2, 5, 3, 1, 8]);
makespan = 343;
----------
assign = array1d(1..15 ,[3, 4, 5, 1, 6, 2, 5, 6, 4, 1, 2, 3, 4, 5, 6]);
next = array1d(1..15 ,[12, 9, 7, 10, 8, 11, 14, 15, 13, 6, 1, 2, 3, 5, 4]);
makespan = 342;
----------
assign = array1d(1..15 ,[3, 4, 5, 1, 6, 2, 5, 6, 4, 1, 2, 3, 4, 5, 6]);
next = array1d(1..15 ,[12, 9, 7, 10, 8, 11, 14, 15, 13, 6, 1, 2, 3, 5, 4]);
makespan = 341;
----------
assign = array1d(1..15 ,[3, 4, 5, 1, 6, 2, 5, 6, 4, 1, 2, 3, 4, 5, 6]);
next = array1d(1..15 ,[12, 9, 7, 10, 8, 11, 14, 15, 13, 6, 1, 2, 3, 5, 4]);
makespan = 340;
----------
assign = array1d(1..15 ,[3, 4, 5, 1, 6, 2, 5, 6, 4, 1, 2, 3, 4, 5, 6]);
next = array1d(1..15 ,[12, 9, 7, 10, 8, 11, 14, 15, 13, 6, 1, 2, 3, 5, 4]);
makespan = 339;
----------
assign = array1d(1..15 ,[1, 4, 5, 2, 6, 2, 5, 3, 4, 1, 2, 3, 4, 5, 6]);
next = array1d(1..15 ,[10, 9, 7, 6, 15, 11, 14, 12, 13, 4, 8, 2, 3, 5, 1]);
makespan = 338;
----------
assign = array1d(1..15 ,[5, 4, 1, 2, 6, 2, 3, 3, 4, 1, 2, 3, 4, 5, 6]);
next = array1d(1..15 ,[14, 9, 10, 6, 15, 11, 12, 7, 13, 4, 8, 2, 1, 5, 3]);
makespan = 337;
----------
assign = array1d(1..15 ,[1, 3, 2, 5, 4, 4, 1, 6, 2, 1, 2, 3, 4, 5, 6]);
next = array1d(1..15 ,[7, 12, 9, 14, 6, 13, 10, 15, 11, 3, 2, 5, 4, 8, 1]);
makespan = 336;
----------
assign = array1d(1..15 ,[1, 4, 2, 3, 5, 4, 1, 6, 2, 1, 2, 3, 4, 5, 6]);
next = array1d(1..15 ,[7, 6, 9, 12, 14, 13, 10, 15, 11, 3, 4, 2, 5, 8, 1]);
makespan = 335;
----------
assign = array1d(1..15 ,[6, 1, 2, 5, 4, 4, 3, 3, 2, 1, 2, 3, 4, 5, 6]);
next = array1d(1..15 ,[15, 10, 9, 14, 6, 13, 8, 12, 11, 3, 7, 5, 4, 1, 2]);
makespan = 334;
----------
assign = array1d(1..15 ,[1, 4, 5, 2, 3, 2, 5, 6, 4, 1, 2, 3, 4, 5, 6]);
next = array1d(1..15 ,[10, 13, 7, 6, 12, 11, 14, 15, 2, 4, 5, 9, 3, 8, 1]);
makespan = 333;
----------
assign = array1d(1..15 ,[6, 4, 1, 2, 5, 2, 3, 3, 4, 1, 2, 3, 4, 5, 6]);
next = array1d(1..15 ,[15, 13, 10, 6, 14, 11, 12, 7, 2, 4, 8, 9, 5, 1, 3]);
makespan = 332;
----------
assign = array1d(1..15 ,[1, 4, 5, 2, 6, 4, 5, 3, 2, 1, 2, 3, 4, 5, 6]);
next = array1d(1..15 ,[10, 6, 7, 11, 15, 13, 14, 12, 4, 9, 8, 2, 3, 5, 1]);
makespan = 330;
----------
assign = array1d(1..15 ,[3, 4, 5, 2, 6, 4, 5, 1, 2, 1, 2, 3, 4, 5, 6]);
next = array1d(1..15 ,[12, 6, 7, 11, 15, 13, 14, 10, 4, 9, 1, 2, 3, 5, 8]);
makespan = 329;
----------
==========
	Command being timed: "mzn-chuffed lbbd-datasets/Rabadi-2006/dzn-p-dominant/model.mzn lbbd-datasets/Rabadi-2006/dzn-p-dominant/9on6Rp50Rs50_6Ameer.dzn"
	User time (seconds): 0.88
	System time (seconds): 0.04
	Percent of CPU this job got: 0%
	Elapsed (wall clock) time (h:mm:ss or m:ss): 2:31.82
	Average shared text size (kbytes): 0
	Average unshared data size (kbytes): 0
	Average stack size (kbytes): 0
	Average total size (kbytes): 0
	Maximum resident set size (kbytes): 48352
	Average resident set size (kbytes): 0
	Major (requiring I/O) page faults: 0
	Minor (reclaiming a frame) page faults: 4715
	Voluntary context switches: 557
	Involuntary context switches: 7
	Swaps: 0
	File system inputs: 0
	File system outputs: 712
	Socket messages sent: 0
	Socket messages received: 0
	Signals delivered: 0
	Page size (bytes): 4096
	Exit status: 0
