+ /usr/bin/timeout 600 /usr/bin/time -v mzn-chuffed lbbd-datasets/sscplp/trucks-dzn/model.mzn lbbd-datasets/sscplp/trucks-dzn/p25-l50-c150-correlated.dzn
% No search annotation given. Defaulting to VSIDS!
source = [20, 20, 20, 4, 4, 20, 20, 4, 19, 15, 20, 20, 4, 4, 19, 4, 19, 20, 20, 4, 4, 20, 4, 4, 19, 20, 4, 20, 19, 19, 20, 19, 19, 19, 4, 19, 20, 4, 14, 20]
open = [false, false, false, true, false, false, false, false, false, false, false, false, false, true, true, false, false, false, true, true]
trucks_used = [0, 0, 0, 13, 0, 0, 0, 0, 0, 0, 0, 0, 0, 1, 1, 0, 0, 0, 10, 15]
truck_assigned = [6, 9, 14, 7, 3, 13, 15, 12, 10, 1, 7, 2, 11, 13, 4, 6, 8, 11, 12, 9, 10, 10, 5, 9, 9, 5, 2, 8, 7, 5, 15, 1, 6, 2, 13, 8, 4, 8, 1, 3]
obj = 18321
----------
source = [20, 20, 19, 4, 4, 20, 19, 4, 19, 20, 20, 20, 4, 20, 19, 4, 4, 4, 20, 4, 4, 19, 4, 4, 19, 20, 20, 19, 4, 19, 19, 19, 19, 4, 19, 4, 20, 4, 19, 20]
open = [false, false, false, true, false, false, false, false, false, false, false, false, false, false, false, false, false, false, true, true]
trucks_used = [0, 0, 0, 15, 0, 0, 0, 0, 0, 0, 0, 0, 0, 0, 0, 0, 0, 0, 13, 12]
truck_assigned = [10, 1, 13, 8, 15, 5, 12, 14, 13, 3, 8, 7, 13, 6, 9, 11, 7, 2, 4, 15, 12, 8, 9, 11, 5, 12, 11, 2, 6, 7, 12, 10, 11, 7, 6, 3, 11, 10, 4, 9]
obj = 14663
----------
source = [4, 20, 4, 20, 4, 20, 19, 4, 19, 20, 20, 20, 20, 20, 19, 20, 20, 20, 20, 4, 4, 19, 20, 19, 19, 20, 4, 19, 19, 19, 19, 19, 19, 4, 19, 19, 4, 20, 19, 20]
open = [false, false, false, true, false, false, false, false, false, false, false, false, false, false, false, false, false, false, true, true]
trucks_used = [0, 0, 0, 8, 0, 0, 0, 0, 0, 0, 0, 0, 0, 0, 0, 0, 0, 0, 15, 16]
truck_assigned = [2, 15, 7, 13, 4, 9, 13, 5, 15, 16, 1, 11, 8, 7, 10, 14, 10, 2, 6, 6, 8, 9, 4, 15, 6, 3, 3, 14, 2, 5, 14, 11, 12, 4, 8, 13, 6, 5, 7, 12]
obj = 14613
----------
source = [4, 6, 4, 4, 4, 20, 20, 4, 20, 6, 20, 20, 20, 20, 4, 20, 20, 20, 20, 4, 6, 20, 20, 1, 6, 20, 4, 20, 4, 6, 20, 20, 1, 4, 4, 4, 4, 20, 1, 20]
open = [true, false, false, true, false, true, false, false, false, false, false, false, false, false, false, false, false, false, false, true]
trucks_used = [3, 0, 0, 13, 0, 3, 0, 0, 0, 0, 0, 0, 0, 0, 0, 0, 0, 0, 0, 18]
truck_assigned = [10, 2, 11, 13, 7, 12, 10, 9, 4, 3, 7, 14, 9, 18, 6, 11, 13, 8, 15, 7, 3, 5, 16, 2, 1, 6, 10, 17, 8, 2, 15, 18, 3, 6, 12, 2, 12, 10, 1, 2]
obj = 14566
----------
source = [4, 20, 4, 6, 20, 4, 4, 20, 20, 6, 20, 20, 20, 10, 4, 20, 20, 20, 4, 4, 20, 20, 6, 20, 6, 20, 6, 20, 4, 6, 4, 4, 4, 4, 4, 4, 4, 4, 4, 20]
open = [false, false, false, true, false, true, false, false, false, true, false, false, false, false, false, false, false, false, false, true]
trucks_used = [0, 0, 0, 16, 0, 4, 0, 0, 0, 1, 0, 0, 0, 0, 0, 0, 0, 0, 0, 16]
truck_assigned = [15, 8, 11, 4, 16, 13, 14, 4, 3, 4, 2, 5, 15, 1, 15, 12, 7, 6, 10, 16, 16, 9, 2, 11, 3, 13, 1, 14, 9, 1, 4, 8, 3, 10, 13, 12, 16, 7, 12, 10]
obj = 14434
----------
source = [20, 20, 20, 20, 4, 4, 4, 20, 4, 1, 20, 4, 20, 4, 20, 4, 20, 4, 6, 4, 4, 20, 6, 20, 6, 20, 20, 4, 4, 6, 20, 4, 4, 4, 4, 1, 6, 4, 20, 20]
open = [true, false, false, true, false, true, false, false, false, false, false, false, false, false, false, false, false, false, false, true]
trucks_used = [1, 0, 0, 17, 0, 4, 0, 0, 0, 0, 0, 0, 0, 0, 0, 0, 0, 0, 0, 16]
truck_assigned = [15, 9, 8, 14, 6, 17, 16, 10, 7, 1, 5, 13, 16, 14, 16, 9, 12, 13, 4, 14, 11, 1, 2, 13, 3, 6, 15, 15, 12, 4, 7, 15, 9, 7, 17, 1, 4, 10, 3, 11]
obj = 14432
----------
source = [2, 20, 20, 4, 20, 4, 20, 20, 4, 2, 20, 4, 4, 4, 20, 4, 15, 4, 4, 4, 4, 4, 2, 4, 15, 20, 2, 20, 20, 2, 20, 4, 4, 4, 20, 10, 20, 4, 20, 20]
open = [false, true, false, true, false, false, false, false, false, true, false, false, false, false, true, false, false, false, false, true]
trucks_used = [0, 4, 0, 15, 0, 0, 0, 0, 0, 1, 0, 0, 0, 0, 2, 0, 0, 0, 0, 10]
truck_assigned = [4, 4, 8, 8, 10, 9, 9, 10, 11, 2, 7, 12, 10, 15, 7, 9, 2, 13, 2, 15, 14, 7, 3, 5, 1, 1, 1, 5, 9, 4, 3, 12, 7, 11, 5, 1, 3, 13, 6, 2]
obj = 14413
----------
source = [2, 4, 2, 4, 20, 4, 2, 2, 4, 20, 20, 4, 4, 4, 20, 4, 4, 4, 4, 4, 4, 4, 20, 4, 20, 2, 2, 4, 2, 2, 2, 4, 4, 4, 20, 20, 20, 4, 2, 20]
open = [false, true, false, true, false, false, false, false, false, false, false, false, false, false, false, false, false, false, false, true]
trucks_used = [0, 10, 0, 20, 0, 0, 0, 0, 0, 0, 0, 0, 0, 0, 0, 0, 0, 0, 0, 10]
truck_assigned = [8, 11, 6, 16, 9, 19, 8, 7, 14, 6, 5, 18, 12, 20, 10, 10, 14, 18, 10, 13, 15, 20, 2, 19, 10, 5, 9, 8, 10, 9, 2, 17, 11, 13, 9, 9, 7, 17, 4, 8]
obj = 14325
----------
