+ /usr/bin/timeout 600 /usr/bin/time -v mzn-chuffed lbbd-datasets/Rabadi-2006/dzn-balanced/model.mzn lbbd-datasets/Rabadi-2006/dzn-balanced/9on4Rp50Rs50_10Ameer.dzn
% No search annotation given. Defaulting to VSIDS!
assign = array1d(1..13 ,[4, 4, 4, 4, 4, 4, 4, 4, 4, 1, 2, 3, 4]);
next = array1d(1..13 ,[2, 3, 4, 5, 6, 7, 8, 9, 13, 11, 12, 1, 10]);
makespan = 1257;
----------
assign = array1d(1..13 ,[4, 4, 4, 4, 4, 4, 4, 4, 4, 1, 2, 3, 4]);
next = array1d(1..13 ,[3, 4, 2, 5, 6, 7, 8, 9, 13, 11, 12, 1, 10]);
makespan = 1208;
----------
assign = array1d(1..13 ,[4, 4, 4, 4, 3, 4, 4, 4, 4, 1, 2, 3, 4]);
next = array1d(1..13 ,[2, 6, 4, 8, 12, 7, 13, 9, 1, 11, 5, 3, 10]);
makespan = 1181;
----------
assign = array1d(1..13 ,[4, 3, 4, 4, 4, 4, 4, 4, 4, 1, 2, 3, 4]);
next = array1d(1..13 ,[7, 12, 4, 5, 6, 1, 13, 9, 3, 11, 2, 8, 10]);
makespan = 1168;
----------
assign = array1d(1..13 ,[4, 3, 4, 4, 4, 4, 4, 4, 4, 1, 2, 3, 4]);
next = array1d(1..13 ,[13, 12, 8, 5, 6, 7, 3, 9, 1, 11, 2, 4, 10]);
makespan = 1146;
----------
assign = array1d(1..13 ,[4, 3, 4, 4, 4, 4, 4, 4, 4, 1, 2, 3, 4]);
next = array1d(1..13 ,[8, 12, 4, 6, 3, 13, 1, 9, 5, 11, 2, 7, 10]);
makespan = 1145;
----------
assign = array1d(1..13 ,[4, 3, 4, 4, 4, 4, 3, 4, 4, 1, 2, 3, 4]);
next = array1d(1..13 ,[8, 7, 4, 6, 13, 1, 12, 9, 5, 11, 2, 3, 10]);
makespan = 1144;
----------
assign = array1d(1..13 ,[4, 4, 3, 4, 4, 4, 4, 4, 4, 1, 2, 3, 4]);
next = array1d(1..13 ,[8, 4, 12, 6, 7, 9, 1, 13, 5, 11, 3, 2, 10]);
makespan = 1143;
----------
assign = array1d(1..13 ,[4, 4, 2, 4, 4, 4, 4, 4, 4, 1, 2, 3, 4]);
next = array1d(1..13 ,[8, 4, 11, 6, 7, 9, 1, 13, 5, 3, 12, 2, 10]);
makespan = 1132;
----------
assign = array1d(1..13 ,[4, 3, 3, 4, 4, 4, 4, 4, 4, 1, 2, 3, 4]);
next = array1d(1..13 ,[8, 3, 12, 6, 7, 9, 1, 13, 5, 11, 2, 4, 10]);
makespan = 1119;
----------
assign = array1d(1..13 ,[4, 1, 3, 4, 4, 4, 4, 4, 4, 1, 2, 3, 4]);
next = array1d(1..13 ,[8, 10, 12, 6, 7, 9, 1, 13, 5, 11, 3, 4, 2]);
makespan = 1110;
----------
assign = array1d(1..13 ,[4, 3, 1, 4, 4, 4, 4, 4, 4, 1, 2, 3, 4]);
next = array1d(1..13 ,[8, 12, 10, 6, 7, 9, 1, 13, 5, 11, 2, 4, 3]);
makespan = 1107;
----------
assign = array1d(1..13 ,[4, 3, 1, 4, 4, 4, 4, 4, 4, 1, 2, 3, 4]);
next = array1d(1..13 ,[8, 12, 10, 6, 7, 9, 1, 13, 5, 11, 2, 4, 3]);
makespan = 1078;
----------
assign = array1d(1..13 ,[4, 3, 1, 4, 4, 4, 4, 4, 4, 1, 2, 3, 4]);
next = array1d(1..13 ,[8, 12, 10, 6, 7, 9, 1, 13, 5, 11, 2, 4, 3]);
makespan = 1072;
----------
assign = array1d(1..13 ,[4, 3, 1, 4, 4, 4, 4, 4, 4, 1, 2, 3, 4]);
next = array1d(1..13 ,[8, 12, 10, 6, 7, 9, 1, 13, 5, 11, 2, 4, 3]);
makespan = 1067;
----------
assign = array1d(1..13 ,[4, 3, 1, 4, 4, 4, 4, 4, 4, 1, 2, 3, 4]);
next = array1d(1..13 ,[8, 12, 10, 6, 7, 9, 1, 13, 5, 11, 2, 4, 3]);
makespan = 1052;
----------
assign = array1d(1..13 ,[4, 3, 1, 4, 4, 4, 4, 4, 4, 1, 2, 3, 4]);
next = array1d(1..13 ,[8, 12, 10, 6, 7, 9, 1, 13, 5, 11, 2, 4, 3]);
makespan = 1050;
----------
assign = array1d(1..13 ,[4, 3, 1, 4, 4, 4, 4, 4, 4, 1, 2, 3, 4]);
next = array1d(1..13 ,[8, 12, 10, 6, 7, 9, 1, 13, 5, 11, 2, 4, 3]);
makespan = 1047;
----------
assign = array1d(1..13 ,[4, 3, 1, 4, 4, 4, 4, 4, 4, 1, 2, 3, 4]);
next = array1d(1..13 ,[8, 12, 10, 6, 7, 9, 1, 13, 5, 11, 2, 4, 3]);
makespan = 1045;
----------
assign = array1d(1..13 ,[4, 3, 1, 4, 4, 4, 4, 4, 4, 1, 2, 3, 4]);
next = array1d(1..13 ,[8, 12, 10, 6, 7, 9, 1, 13, 5, 11, 2, 4, 3]);
makespan = 1011;
----------
assign = array1d(1..13 ,[4, 3, 1, 4, 4, 4, 4, 4, 4, 1, 2, 3, 4]);
next = array1d(1..13 ,[8, 12, 10, 6, 7, 9, 1, 13, 5, 11, 2, 4, 3]);
makespan = 1003;
----------
assign = array1d(1..13 ,[4, 3, 1, 4, 4, 4, 4, 4, 4, 1, 2, 3, 4]);
next = array1d(1..13 ,[8, 12, 10, 6, 7, 9, 1, 13, 5, 11, 2, 4, 3]);
makespan = 989;
----------
assign = array1d(1..13 ,[4, 3, 1, 4, 4, 4, 4, 4, 4, 1, 2, 3, 4]);
next = array1d(1..13 ,[8, 12, 10, 6, 7, 9, 1, 13, 5, 11, 2, 4, 3]);
makespan = 988;
----------
assign = array1d(1..13 ,[4, 3, 1, 4, 4, 4, 4, 4, 4, 1, 2, 3, 4]);
next = array1d(1..13 ,[8, 12, 10, 6, 7, 9, 1, 13, 5, 11, 2, 4, 3]);
makespan = 986;
----------
assign = array1d(1..13 ,[4, 3, 1, 4, 4, 4, 4, 4, 4, 1, 2, 3, 4]);
next = array1d(1..13 ,[13, 12, 10, 6, 7, 9, 1, 4, 5, 11, 2, 8, 3]);
makespan = 981;
----------
assign = array1d(1..13 ,[4, 1, 4, 4, 4, 4, 4, 1, 4, 1, 2, 3, 4]);
next = array1d(1..13 ,[4, 8, 13, 6, 7, 3, 1, 10, 5, 11, 12, 9, 2]);
makespan = 979;
----------
assign = array1d(1..13 ,[4, 1, 4, 4, 4, 4, 4, 1, 4, 1, 2, 3, 4]);
next = array1d(1..13 ,[4, 8, 13, 6, 7, 3, 1, 10, 5, 11, 12, 9, 2]);
makespan = 965;
----------
assign = array1d(1..13 ,[4, 1, 4, 4, 4, 4, 4, 1, 4, 1, 2, 3, 4]);
next = array1d(1..13 ,[4, 8, 13, 6, 7, 3, 1, 10, 5, 11, 12, 9, 2]);
makespan = 943;
----------
assign = array1d(1..13 ,[4, 3, 1, 4, 4, 4, 4, 4, 4, 1, 2, 3, 4]);
next = array1d(1..13 ,[4, 12, 10, 6, 7, 13, 1, 9, 5, 11, 2, 8, 3]);
makespan = 942;
----------
assign = array1d(1..13 ,[4, 4, 3, 4, 4, 4, 4, 3, 4, 1, 2, 3, 4]);
next = array1d(1..13 ,[4, 7, 8, 6, 2, 13, 1, 12, 5, 11, 3, 9, 10]);
makespan = 937;
----------
assign = array1d(1..13 ,[4, 3, 1, 4, 4, 4, 4, 3, 4, 1, 2, 3, 4]);
next = array1d(1..13 ,[4, 8, 10, 6, 13, 9, 1, 12, 5, 11, 2, 7, 3]);
makespan = 934;
----------
assign = array1d(1..13 ,[4, 1, 2, 4, 4, 4, 4, 2, 4, 1, 2, 3, 4]);
next = array1d(1..13 ,[4, 10, 8, 6, 13, 9, 1, 11, 5, 3, 12, 7, 2]);
makespan = 929;
----------
assign = array1d(1..13 ,[4, 4, 3, 4, 4, 4, 4, 3, 4, 1, 2, 3, 4]);
next = array1d(1..13 ,[4, 7, 8, 6, 2, 13, 1, 12, 5, 11, 3, 9, 10]);
makespan = 927;
----------
assign = array1d(1..13 ,[4, 4, 3, 4, 4, 4, 4, 3, 4, 1, 2, 3, 4]);
next = array1d(1..13 ,[4, 7, 8, 6, 2, 13, 1, 12, 5, 11, 3, 9, 10]);
makespan = 924;
----------
assign = array1d(1..13 ,[4, 1, 1, 4, 4, 4, 4, 1, 4, 1, 2, 3, 4]);
next = array1d(1..13 ,[4, 10, 8, 6, 13, 9, 1, 2, 5, 11, 12, 7, 3]);
makespan = 923;
----------
assign = array1d(1..13 ,[4, 1, 1, 4, 4, 4, 4, 1, 4, 1, 2, 3, 4]);
next = array1d(1..13 ,[4, 10, 8, 6, 13, 9, 1, 2, 5, 11, 12, 7, 3]);
makespan = 922;
----------
assign = array1d(1..13 ,[4, 1, 2, 4, 4, 4, 4, 2, 4, 1, 2, 3, 4]);
next = array1d(1..13 ,[4, 10, 8, 6, 13, 9, 1, 11, 5, 3, 12, 7, 2]);
makespan = 916;
----------
assign = array1d(1..13 ,[4, 1, 2, 4, 4, 4, 4, 2, 4, 1, 2, 3, 4]);
next = array1d(1..13 ,[4, 10, 8, 6, 13, 9, 1, 11, 5, 3, 12, 7, 2]);
makespan = 911;
----------
assign = array1d(1..13 ,[4, 1, 1, 4, 4, 4, 4, 1, 4, 1, 2, 3, 4]);
next = array1d(1..13 ,[4, 10, 8, 6, 13, 9, 1, 2, 5, 11, 12, 7, 3]);
makespan = 909;
----------
assign = array1d(1..13 ,[4, 1, 1, 4, 4, 4, 4, 1, 4, 1, 2, 3, 4]);
next = array1d(1..13 ,[4, 10, 8, 6, 13, 9, 1, 2, 5, 11, 12, 7, 3]);
makespan = 907;
----------
assign = array1d(1..13 ,[4, 1, 1, 4, 4, 4, 4, 1, 4, 1, 2, 3, 4]);
next = array1d(1..13 ,[4, 10, 8, 6, 13, 9, 1, 2, 5, 11, 12, 7, 3]);
makespan = 904;
----------
assign = array1d(1..13 ,[4, 1, 1, 4, 4, 4, 4, 1, 4, 1, 2, 3, 4]);
next = array1d(1..13 ,[4, 10, 8, 6, 13, 9, 1, 2, 5, 11, 12, 7, 3]);
makespan = 901;
----------
assign = array1d(1..13 ,[4, 1, 2, 4, 4, 4, 4, 2, 4, 1, 2, 3, 4]);
next = array1d(1..13 ,[4, 10, 8, 6, 13, 9, 1, 11, 5, 3, 12, 7, 2]);
makespan = 896;
----------
assign = array1d(1..13 ,[4, 1, 1, 4, 4, 4, 4, 1, 4, 1, 2, 3, 4]);
next = array1d(1..13 ,[4, 10, 8, 6, 13, 9, 1, 2, 5, 11, 12, 7, 3]);
makespan = 883;
----------
assign = array1d(1..13 ,[4, 1, 2, 4, 4, 4, 4, 2, 4, 1, 2, 3, 4]);
next = array1d(1..13 ,[4, 10, 8, 6, 13, 9, 1, 11, 5, 3, 12, 7, 2]);
makespan = 880;
----------
assign = array1d(1..13 ,[4, 1, 1, 4, 4, 4, 4, 1, 4, 1, 2, 3, 4]);
next = array1d(1..13 ,[4, 10, 8, 6, 13, 9, 1, 2, 5, 11, 12, 7, 3]);
makespan = 870;
----------
assign = array1d(1..13 ,[4, 1, 2, 4, 4, 4, 4, 2, 4, 1, 2, 3, 4]);
next = array1d(1..13 ,[4, 10, 8, 6, 13, 9, 1, 11, 5, 3, 12, 7, 2]);
makespan = 852;
----------
assign = array1d(1..13 ,[4, 1, 1, 4, 4, 4, 4, 1, 4, 1, 2, 3, 4]);
next = array1d(1..13 ,[4, 10, 8, 6, 13, 9, 1, 2, 5, 11, 12, 7, 3]);
makespan = 847;
----------
assign = array1d(1..13 ,[4, 1, 1, 4, 4, 4, 4, 1, 4, 1, 2, 3, 4]);
next = array1d(1..13 ,[4, 10, 8, 6, 13, 9, 1, 2, 5, 11, 12, 7, 3]);
makespan = 843;
----------
assign = array1d(1..13 ,[4, 1, 1, 4, 4, 4, 4, 1, 4, 1, 2, 3, 4]);
next = array1d(1..13 ,[4, 10, 8, 6, 13, 9, 1, 2, 5, 11, 12, 7, 3]);
makespan = 832;
----------
assign = array1d(1..13 ,[4, 1, 2, 4, 4, 4, 4, 2, 4, 1, 2, 3, 4]);
next = array1d(1..13 ,[4, 10, 8, 6, 13, 9, 1, 11, 5, 3, 12, 7, 2]);
makespan = 830;
----------
assign = array1d(1..13 ,[4, 1, 1, 4, 4, 4, 4, 1, 4, 1, 2, 3, 4]);
next = array1d(1..13 ,[4, 10, 8, 6, 13, 9, 1, 2, 5, 11, 12, 7, 3]);
makespan = 829;
----------
assign = array1d(1..13 ,[4, 1, 2, 4, 4, 4, 4, 2, 4, 1, 2, 3, 4]);
next = array1d(1..13 ,[4, 10, 8, 6, 13, 9, 1, 11, 5, 3, 12, 7, 2]);
makespan = 828;
----------
assign = array1d(1..13 ,[4, 1, 1, 4, 4, 4, 4, 1, 4, 1, 2, 3, 4]);
next = array1d(1..13 ,[4, 10, 8, 6, 13, 9, 1, 2, 5, 11, 12, 7, 3]);
makespan = 821;
----------
assign = array1d(1..13 ,[4, 1, 2, 4, 4, 4, 4, 2, 4, 1, 2, 3, 4]);
next = array1d(1..13 ,[4, 10, 8, 6, 7, 13, 1, 11, 5, 3, 12, 9, 2]);
makespan = 819;
----------
assign = array1d(1..13 ,[4, 1, 2, 4, 4, 4, 4, 2, 4, 1, 2, 3, 4]);
next = array1d(1..13 ,[4, 10, 8, 6, 7, 13, 1, 11, 5, 3, 12, 9, 2]);
makespan = 816;
----------
assign = array1d(1..13 ,[4, 1, 1, 4, 4, 4, 4, 1, 4, 1, 2, 3, 4]);
next = array1d(1..13 ,[4, 10, 8, 6, 7, 13, 1, 2, 5, 11, 12, 9, 3]);
makespan = 814;
----------
assign = array1d(1..13 ,[4, 1, 2, 4, 4, 4, 4, 2, 4, 1, 2, 3, 4]);
next = array1d(1..13 ,[4, 10, 8, 6, 7, 13, 1, 11, 5, 3, 12, 9, 2]);
makespan = 803;
----------
assign = array1d(1..13 ,[4, 1, 1, 4, 4, 4, 4, 1, 4, 1, 2, 3, 4]);
next = array1d(1..13 ,[4, 10, 8, 6, 7, 13, 1, 2, 5, 11, 12, 9, 3]);
makespan = 795;
----------
assign = array1d(1..13 ,[4, 1, 2, 4, 4, 4, 4, 2, 4, 1, 2, 3, 4]);
next = array1d(1..13 ,[4, 10, 8, 6, 7, 13, 1, 11, 5, 3, 12, 9, 2]);
makespan = 791;
----------
assign = array1d(1..13 ,[4, 1, 1, 4, 4, 1, 4, 4, 4, 1, 2, 3, 4]);
next = array1d(1..13 ,[4, 6, 10, 9, 13, 3, 1, 7, 5, 11, 12, 8, 2]);
makespan = 788;
----------
assign = array1d(1..13 ,[4, 1, 1, 4, 4, 1, 4, 4, 4, 1, 2, 3, 4]);
next = array1d(1..13 ,[4, 6, 10, 9, 13, 3, 1, 7, 5, 11, 12, 8, 2]);
makespan = 786;
----------
assign = array1d(1..13 ,[4, 4, 1, 4, 4, 1, 4, 1, 4, 1, 2, 3, 4]);
next = array1d(1..13 ,[4, 7, 8, 9, 13, 3, 1, 10, 5, 11, 12, 2, 6]);
makespan = 779;
----------
assign = array1d(1..13 ,[4, 1, 1, 4, 4, 1, 4, 1, 4, 1, 2, 3, 4]);
next = array1d(1..13 ,[4, 8, 10, 9, 13, 3, 1, 6, 5, 11, 12, 7, 2]);
makespan = 775;
----------
assign = array1d(1..13 ,[4, 1, 1, 4, 4, 1, 4, 1, 4, 1, 2, 3, 4]);
next = array1d(1..13 ,[4, 8, 10, 9, 13, 2, 1, 3, 5, 11, 12, 7, 6]);
makespan = 766;
----------
assign = array1d(1..13 ,[4, 1, 1, 4, 4, 1, 4, 1, 4, 1, 2, 3, 4]);
next = array1d(1..13 ,[4, 8, 6, 9, 13, 10, 1, 3, 5, 11, 12, 7, 2]);
makespan = 764;
----------
assign = array1d(1..13 ,[4, 1, 1, 4, 4, 1, 4, 1, 4, 1, 2, 3, 4]);
next = array1d(1..13 ,[4, 8, 6, 9, 13, 10, 1, 3, 5, 11, 12, 7, 2]);
makespan = 757;
----------
assign = array1d(1..13 ,[4, 1, 1, 4, 4, 1, 4, 1, 4, 1, 2, 3, 4]);
next = array1d(1..13 ,[4, 8, 6, 9, 13, 10, 1, 3, 5, 11, 12, 7, 2]);
makespan = 755;
----------
assign = array1d(1..13 ,[4, 1, 1, 4, 4, 1, 4, 1, 4, 1, 2, 3, 4]);
next = array1d(1..13 ,[4, 8, 6, 9, 13, 10, 1, 3, 5, 11, 12, 7, 2]);
makespan = 754;
----------
assign = array1d(1..13 ,[4, 1, 1, 4, 4, 1, 4, 1, 4, 1, 2, 3, 4]);
next = array1d(1..13 ,[4, 8, 6, 9, 13, 10, 1, 3, 5, 11, 12, 7, 2]);
makespan = 748;
----------
assign = array1d(1..13 ,[4, 1, 1, 4, 4, 1, 4, 1, 4, 1, 2, 3, 4]);
next = array1d(1..13 ,[4, 8, 6, 9, 13, 10, 1, 3, 5, 11, 12, 7, 2]);
makespan = 743;
----------
assign = array1d(1..13 ,[4, 1, 1, 4, 4, 1, 4, 1, 4, 1, 2, 3, 4]);
next = array1d(1..13 ,[4, 8, 6, 9, 13, 10, 1, 3, 5, 11, 12, 7, 2]);
makespan = 742;
----------
assign = array1d(1..13 ,[4, 1, 1, 4, 4, 1, 4, 1, 4, 1, 2, 3, 4]);
next = array1d(1..13 ,[4, 8, 6, 9, 13, 10, 1, 3, 5, 11, 12, 7, 2]);
makespan = 741;
----------
assign = array1d(1..13 ,[4, 1, 1, 4, 4, 1, 4, 1, 4, 1, 2, 3, 4]);
next = array1d(1..13 ,[4, 8, 6, 9, 13, 10, 1, 3, 5, 11, 12, 7, 2]);
makespan = 739;
----------
assign = array1d(1..13 ,[4, 1, 1, 4, 4, 1, 4, 1, 4, 1, 2, 3, 4]);
next = array1d(1..13 ,[4, 8, 6, 9, 13, 10, 1, 3, 5, 11, 12, 7, 2]);
makespan = 737;
----------
assign = array1d(1..13 ,[4, 1, 1, 4, 4, 1, 4, 1, 4, 1, 2, 3, 4]);
next = array1d(1..13 ,[4, 8, 6, 9, 13, 10, 1, 3, 5, 11, 12, 7, 2]);
makespan = 732;
----------
assign = array1d(1..13 ,[4, 1, 1, 4, 4, 1, 4, 1, 4, 1, 2, 3, 4]);
next = array1d(1..13 ,[4, 8, 6, 9, 13, 10, 1, 3, 5, 11, 12, 7, 2]);
makespan = 729;
----------
assign = array1d(1..13 ,[4, 1, 1, 4, 4, 1, 4, 1, 4, 1, 2, 3, 4]);
next = array1d(1..13 ,[4, 8, 6, 9, 13, 10, 1, 3, 5, 11, 12, 7, 2]);
makespan = 726;
----------
assign = array1d(1..13 ,[4, 1, 1, 4, 4, 1, 4, 1, 4, 1, 2, 3, 4]);
next = array1d(1..13 ,[4, 8, 6, 9, 13, 10, 1, 3, 5, 11, 12, 7, 2]);
makespan = 711;
----------
assign = array1d(1..13 ,[4, 1, 1, 4, 4, 1, 4, 1, 4, 1, 2, 3, 4]);
next = array1d(1..13 ,[4, 8, 6, 9, 13, 10, 1, 3, 5, 11, 12, 7, 2]);
makespan = 695;
----------
assign = array1d(1..13 ,[4, 1, 1, 4, 4, 1, 4, 1, 4, 1, 2, 3, 4]);
next = array1d(1..13 ,[4, 8, 6, 9, 13, 10, 1, 3, 5, 11, 12, 7, 2]);
makespan = 682;
----------
assign = array1d(1..13 ,[4, 1, 1, 4, 4, 1, 4, 1, 4, 1, 2, 3, 4]);
next = array1d(1..13 ,[4, 8, 6, 9, 13, 10, 1, 3, 5, 11, 12, 7, 2]);
makespan = 678;
----------
assign = array1d(1..13 ,[4, 1, 1, 4, 4, 1, 4, 1, 4, 1, 2, 3, 4]);
next = array1d(1..13 ,[4, 8, 6, 9, 13, 10, 1, 3, 5, 11, 12, 7, 2]);
makespan = 677;
----------
assign = array1d(1..13 ,[4, 1, 1, 4, 4, 1, 4, 1, 4, 1, 2, 3, 4]);
next = array1d(1..13 ,[4, 8, 6, 9, 13, 10, 1, 3, 5, 11, 12, 7, 2]);
makespan = 675;
----------
assign = array1d(1..13 ,[4, 1, 1, 4, 4, 1, 4, 1, 4, 1, 2, 3, 4]);
next = array1d(1..13 ,[4, 8, 6, 9, 13, 10, 1, 3, 5, 11, 12, 7, 2]);
makespan = 672;
----------
assign = array1d(1..13 ,[4, 1, 1, 4, 4, 1, 4, 1, 4, 1, 2, 3, 4]);
next = array1d(1..13 ,[4, 8, 6, 9, 13, 10, 1, 3, 5, 11, 12, 7, 2]);
makespan = 665;
----------
assign = array1d(1..13 ,[4, 1, 1, 4, 4, 1, 4, 1, 4, 1, 2, 3, 4]);
next = array1d(1..13 ,[4, 8, 6, 9, 13, 10, 1, 3, 5, 11, 12, 7, 2]);
makespan = 662;
----------
assign = array1d(1..13 ,[4, 1, 1, 4, 4, 1, 4, 1, 4, 1, 2, 3, 4]);
next = array1d(1..13 ,[4, 8, 6, 9, 13, 10, 1, 3, 5, 11, 12, 7, 2]);
makespan = 652;
----------
assign = array1d(1..13 ,[4, 1, 1, 4, 4, 1, 4, 1, 4, 1, 2, 3, 4]);
next = array1d(1..13 ,[4, 8, 6, 13, 7, 10, 1, 3, 5, 11, 12, 9, 2]);
makespan = 650;
----------
assign = array1d(1..13 ,[4, 1, 1, 4, 4, 1, 4, 1, 4, 1, 2, 3, 4]);
next = array1d(1..13 ,[13, 10, 6, 9, 7, 2, 1, 3, 5, 11, 12, 4, 8]);
makespan = 645;
----------
assign = array1d(1..13 ,[4, 1, 1, 4, 4, 1, 4, 1, 4, 1, 2, 3, 4]);
next = array1d(1..13 ,[13, 10, 6, 9, 7, 2, 1, 3, 5, 11, 12, 4, 8]);
makespan = 642;
----------
assign = array1d(1..13 ,[4, 1, 1, 1, 4, 1, 4, 1, 4, 1, 2, 3, 4]);
next = array1d(1..13 ,[9, 3, 4, 10, 13, 8, 1, 2, 5, 11, 12, 7, 6]);
makespan = 627;
----------
assign = array1d(1..13 ,[4, 1, 1, 1, 4, 1, 4, 1, 4, 1, 2, 3, 4]);
next = array1d(1..13 ,[9, 3, 4, 10, 13, 8, 1, 2, 5, 11, 12, 7, 6]);
makespan = 617;
----------
assign = array1d(1..13 ,[4, 2, 2, 3, 4, 2, 4, 2, 4, 1, 2, 3, 4]);
next = array1d(1..13 ,[9, 3, 11, 12, 13, 8, 1, 2, 5, 6, 4, 7, 10]);
makespan = 616;
----------
assign = array1d(1..13 ,[4, 3, 3, 2, 4, 3, 4, 3, 4, 1, 2, 3, 4]);
next = array1d(1..13 ,[9, 3, 12, 11, 13, 8, 1, 2, 5, 4, 6, 7, 10]);
makespan = 614;
----------
assign = array1d(1..13 ,[4, 2, 2, 3, 4, 2, 4, 2, 4, 1, 2, 3, 4]);
next = array1d(1..13 ,[9, 3, 11, 12, 13, 8, 1, 2, 5, 6, 4, 7, 10]);
makespan = 613;
----------
assign = array1d(1..13 ,[4, 3, 3, 2, 4, 3, 4, 3, 4, 1, 2, 3, 4]);
next = array1d(1..13 ,[9, 3, 12, 11, 13, 8, 1, 2, 5, 4, 6, 7, 10]);
makespan = 611;
----------
assign = array1d(1..13 ,[4, 2, 2, 3, 4, 2, 4, 2, 4, 1, 2, 3, 4]);
next = array1d(1..13 ,[9, 3, 11, 12, 13, 8, 1, 2, 5, 6, 4, 7, 10]);
makespan = 600;
----------
assign = array1d(1..13 ,[4, 3, 3, 2, 4, 3, 4, 3, 4, 1, 2, 3, 4]);
next = array1d(1..13 ,[9, 3, 12, 11, 13, 8, 1, 2, 5, 4, 6, 7, 10]);
makespan = 598;
----------
assign = array1d(1..13 ,[4, 2, 2, 3, 4, 2, 4, 2, 4, 1, 2, 3, 4]);
next = array1d(1..13 ,[9, 3, 11, 12, 13, 8, 1, 2, 5, 6, 4, 7, 10]);
makespan = 589;
----------
assign = array1d(1..13 ,[4, 3, 3, 2, 4, 3, 4, 3, 4, 1, 2, 3, 4]);
next = array1d(1..13 ,[9, 3, 12, 11, 13, 8, 1, 2, 5, 4, 6, 7, 10]);
makespan = 581;
----------
assign = array1d(1..13 ,[4, 2, 2, 3, 4, 2, 4, 2, 4, 1, 2, 3, 4]);
next = array1d(1..13 ,[9, 3, 11, 12, 13, 8, 1, 2, 5, 6, 4, 7, 10]);
makespan = 577;
----------
assign = array1d(1..13 ,[4, 2, 2, 3, 4, 2, 4, 2, 4, 1, 2, 3, 4]);
next = array1d(1..13 ,[9, 3, 11, 12, 13, 8, 1, 2, 5, 6, 4, 7, 10]);
makespan = 562;
----------
assign = array1d(1..13 ,[4, 1, 1, 3, 4, 1, 4, 1, 4, 1, 2, 3, 4]);
next = array1d(1..13 ,[9, 3, 10, 12, 13, 8, 1, 2, 5, 11, 4, 7, 6]);
makespan = 555;
----------
assign = array1d(1..13 ,[4, 1, 1, 3, 4, 1, 4, 1, 4, 1, 2, 3, 4]);
next = array1d(1..13 ,[13, 3, 10, 12, 7, 8, 1, 2, 5, 11, 4, 9, 6]);
makespan = 550;
----------
assign = array1d(1..13 ,[4, 1, 4, 3, 3, 4, 4, 1, 1, 1, 2, 3, 4]);
next = array1d(1..13 ,[3, 10, 13, 12, 4, 7, 1, 2, 8, 11, 5, 6, 9]);
makespan = 547;
----------
assign = array1d(1..13 ,[4, 4, 4, 1, 2, 1, 4, 1, 1, 1, 2, 3, 4]);
next = array1d(1..13 ,[3, 13, 2, 10, 11, 8, 1, 4, 6, 5, 12, 7, 9]);
makespan = 544;
----------
assign = array1d(1..13 ,[4, 4, 3, 2, 3, 4, 4, 2, 2, 1, 2, 3, 4]);
next = array1d(1..13 ,[2, 13, 12, 11, 3, 7, 1, 4, 8, 9, 5, 6, 10]);
makespan = 541;
----------
assign = array1d(1..13 ,[4, 3, 2, 4, 3, 3, 4, 4, 3, 1, 2, 3, 4]);
next = array1d(1..13 ,[4, 12, 11, 13, 6, 2, 1, 7, 5, 3, 9, 8, 10]);
makespan = 538;
----------
assign = array1d(1..13 ,[4, 2, 4, 1, 4, 3, 4, 1, 3, 1, 2, 3, 4]);
next = array1d(1..13 ,[3, 11, 13, 10, 7, 12, 1, 4, 6, 2, 9, 5, 8]);
makespan = 536;
----------
assign = array1d(1..13 ,[4, 3, 2, 4, 4, 2, 4, 1, 2, 1, 2, 3, 4]);
next = array1d(1..13 ,[5, 12, 9, 13, 4, 3, 1, 10, 11, 6, 2, 7, 8]);
makespan = 535;
----------
assign = array1d(1..13 ,[4, 2, 4, 1, 4, 1, 4, 1, 1, 1, 2, 3, 4]);
next = array1d(1..13 ,[13, 11, 7, 9, 3, 10, 1, 4, 6, 2, 12, 5, 8]);
makespan = 534;
----------
assign = array1d(1..13 ,[4, 3, 4, 2, 4, 3, 4, 2, 3, 1, 2, 3, 4]);
next = array1d(1..13 ,[13, 12, 7, 11, 3, 2, 1, 4, 6, 8, 9, 5, 10]);
makespan = 533;
----------
assign = array1d(1..13 ,[4, 2, 2, 1, 4, 4, 4, 1, 1, 1, 2, 3, 4]);
next = array1d(1..13 ,[13, 11, 2, 9, 7, 5, 1, 10, 8, 3, 12, 6, 4]);
makespan = 532;
----------
assign = array1d(1..13 ,[4, 1, 4, 2, 1, 2, 4, 1, 1, 1, 2, 3, 4]);
next = array1d(1..13 ,[13, 10, 7, 11, 9, 4, 1, 2, 8, 6, 12, 3, 5]);
makespan = 531;
----------
assign = array1d(1..13 ,[4, 4, 3, 3, 4, 3, 4, 1, 1, 1, 2, 3, 4]);
next = array1d(1..13 ,[13, 7, 4, 12, 2, 3, 1, 10, 8, 11, 6, 5, 9]);
makespan = 530;
----------
assign = array1d(1..13 ,[4, 4, 3, 3, 3, 3, 4, 4, 2, 1, 2, 3, 4]);
next = array1d(1..13 ,[13, 8, 4, 5, 12, 3, 1, 7, 11, 9, 6, 2, 10]);
makespan = 529;
----------
assign = array1d(1..13 ,[4, 3, 4, 2, 4, 1, 4, 3, 3, 1, 2, 3, 4]);
next = array1d(1..13 ,[3, 12, 13, 11, 7, 10, 1, 2, 8, 4, 9, 5, 6]);
makespan = 528;
----------
assign = array1d(1..13 ,[4, 4, 3, 3, 3, 4, 4, 2, 3, 1, 2, 3, 4]);
next = array1d(1..13 ,[6, 7, 4, 5, 9, 13, 1, 11, 12, 8, 3, 2, 10]);
makespan = 527;
----------
assign = array1d(1..13 ,[4, 1, 3, 3, 4, 3, 4, 1, 4, 1, 2, 3, 4]);
next = array1d(1..13 ,[13, 10, 4, 12, 7, 3, 1, 2, 5, 11, 6, 9, 8]);
makespan = 526;
----------
assign = array1d(1..13 ,[4, 3, 2, 4, 4, 2, 4, 3, 2, 1, 2, 3, 4]);
next = array1d(1..13 ,[4, 12, 11, 5, 13, 3, 1, 2, 6, 9, 8, 7, 10]);
makespan = 525;
----------
assign = array1d(1..13 ,[4, 3, 3, 2, 4, 3, 4, 4, 3, 1, 2, 3, 4]);
next = array1d(1..13 ,[5, 12, 2, 11, 13, 3, 1, 7, 6, 4, 9, 8, 10]);
makespan = 524;
----------
assign = array1d(1..13 ,[4, 4, 1, 2, 2, 4, 4, 2, 2, 1, 2, 3, 4]);
next = array1d(1..13 ,[6, 7, 10, 5, 9, 13, 1, 11, 8, 4, 12, 2, 3]);
makespan = 523;
----------
assign = array1d(1..13 ,[4, 3, 2, 2, 4, 2, 4, 3, 4, 1, 2, 3, 4]);
next = array1d(1..13 ,[13, 8, 4, 11, 7, 3, 1, 12, 5, 6, 2, 9, 10]);
makespan = 522;
----------
assign = array1d(1..13 ,[4, 3, 4, 2, 2, 4, 4, 2, 2, 1, 2, 3, 4]);
next = array1d(1..13 ,[3, 12, 6, 5, 9, 13, 1, 4, 11, 8, 2, 7, 10]);
makespan = 521;
----------
assign = array1d(1..13 ,[4, 3, 4, 2, 4, 3, 4, 2, 3, 1, 2, 3, 4]);
next = array1d(1..13 ,[3, 12, 13, 11, 7, 2, 1, 4, 6, 8, 9, 5, 10]);
makespan = 520;
----------
assign = array1d(1..13 ,[4, 1, 4, 3, 4, 3, 4, 3, 3, 1, 2, 3, 4]);
next = array1d(1..13 ,[3, 10, 13, 9, 7, 12, 1, 4, 6, 11, 8, 5, 2]);
makespan = 516;
----------
assign = array1d(1..13 ,[4, 1, 4, 3, 4, 3, 4, 3, 3, 1, 2, 3, 4]);
next = array1d(1..13 ,[3, 10, 13, 9, 7, 12, 1, 4, 6, 11, 8, 5, 2]);
makespan = 515;
----------
assign = array1d(1..13 ,[4, 1, 4, 3, 4, 3, 4, 3, 3, 1, 2, 3, 4]);
next = array1d(1..13 ,[3, 10, 13, 9, 7, 12, 1, 4, 6, 11, 8, 5, 2]);
makespan = 513;
----------
assign = array1d(1..13 ,[4, 1, 4, 3, 4, 3, 4, 3, 3, 1, 2, 3, 4]);
next = array1d(1..13 ,[3, 10, 13, 9, 7, 12, 1, 4, 6, 11, 8, 5, 2]);
makespan = 512;
----------
assign = array1d(1..13 ,[4, 1, 4, 3, 4, 3, 4, 3, 3, 1, 2, 3, 4]);
next = array1d(1..13 ,[3, 10, 13, 9, 7, 12, 1, 4, 6, 11, 8, 5, 2]);
makespan = 511;
----------
assign = array1d(1..13 ,[4, 1, 4, 3, 4, 3, 4, 3, 3, 1, 2, 3, 4]);
next = array1d(1..13 ,[3, 10, 13, 9, 7, 12, 1, 4, 6, 11, 8, 5, 2]);
makespan = 509;
----------
assign = array1d(1..13 ,[4, 1, 4, 3, 4, 3, 4, 3, 3, 1, 2, 3, 4]);
next = array1d(1..13 ,[3, 10, 13, 9, 7, 12, 1, 4, 6, 11, 8, 5, 2]);
makespan = 508;
----------
assign = array1d(1..13 ,[4, 1, 4, 3, 4, 3, 4, 3, 3, 1, 2, 3, 4]);
next = array1d(1..13 ,[5, 10, 13, 9, 3, 12, 1, 4, 6, 11, 8, 7, 2]);
makespan = 507;
----------
assign = array1d(1..13 ,[4, 1, 4, 3, 4, 3, 4, 3, 3, 1, 2, 3, 4]);
next = array1d(1..13 ,[5, 10, 13, 9, 3, 12, 1, 4, 6, 11, 8, 7, 2]);
makespan = 505;
----------
assign = array1d(1..13 ,[4, 1, 4, 3, 4, 3, 4, 3, 3, 1, 2, 3, 4]);
next = array1d(1..13 ,[5, 10, 13, 9, 3, 12, 1, 4, 6, 11, 8, 7, 2]);
makespan = 503;
----------
assign = array1d(1..13 ,[4, 1, 4, 3, 4, 3, 4, 3, 3, 1, 2, 3, 4]);
next = array1d(1..13 ,[5, 10, 13, 9, 3, 12, 1, 4, 6, 11, 8, 7, 2]);
makespan = 502;
----------
assign = array1d(1..13 ,[4, 3, 4, 3, 2, 2, 4, 3, 2, 1, 2, 3, 4]);
next = array1d(1..13 ,[3, 8, 13, 12, 6, 11, 1, 4, 5, 9, 2, 7, 10]);
makespan = 501;
----------
assign = array1d(1..13 ,[2, 1, 1, 1, 4, 4, 1, 4, 4, 1, 2, 3, 4]);
next = array1d(1..13 ,[11, 4, 10, 3, 6, 13, 2, 9, 5, 1, 12, 8, 7]);
makespan = 496;
----------
assign = array1d(1..13 ,[3, 2, 3, 4, 4, 4, 2, 4, 2, 1, 2, 3, 4]);
next = array1d(1..13 ,[3, 9, 12, 13, 4, 5, 2, 6, 11, 7, 1, 8, 10]);
makespan = 495;
----------
assign = array1d(1..13 ,[4, 1, 4, 3, 3, 2, 4, 1, 3, 1, 2, 3, 4]);
next = array1d(1..13 ,[13, 10, 1, 9, 4, 11, 3, 2, 12, 6, 5, 7, 8]);
makespan = 492;
----------
assign = array1d(1..13 ,[2, 3, 3, 4, 4, 2, 3, 4, 4, 1, 2, 3, 4]);
next = array1d(1..13 ,[11, 7, 2, 13, 4, 1, 12, 5, 8, 6, 3, 9, 10]);
makespan = 491;
----------
assign = array1d(1..13 ,[4, 3, 3, 4, 4, 4, 3, 2, 2, 1, 2, 3, 4]);
next = array1d(1..13 ,[5, 7, 2, 6, 4, 13, 12, 9, 11, 8, 3, 1, 10]);
makespan = 490;
----------
assign = array1d(1..13 ,[2, 3, 3, 4, 4, 2, 4, 4, 2, 1, 2, 3, 4]);
next = array1d(1..13 ,[6, 12, 2, 5, 7, 11, 8, 13, 1, 9, 3, 4, 10]);
makespan = 489;
----------
assign = array1d(1..13 ,[2, 3, 3, 4, 4, 3, 4, 4, 2, 1, 2, 3, 4]);
next = array1d(1..13 ,[11, 12, 6, 5, 7, 2, 8, 13, 1, 9, 3, 4, 10]);
makespan = 488;
----------
assign = array1d(1..13 ,[2, 3, 3, 4, 4, 3, 4, 4, 2, 1, 2, 3, 4]);
next = array1d(1..13 ,[11, 12, 6, 5, 7, 2, 8, 13, 1, 9, 3, 4, 10]);
makespan = 487;
----------
assign = array1d(1..13 ,[2, 3, 3, 4, 4, 3, 4, 4, 2, 1, 2, 3, 4]);
next = array1d(1..13 ,[11, 12, 6, 5, 7, 2, 8, 13, 1, 9, 3, 4, 10]);
makespan = 486;
----------
assign = array1d(1..13 ,[2, 3, 3, 4, 4, 3, 4, 4, 2, 1, 2, 3, 4]);
next = array1d(1..13 ,[11, 12, 6, 5, 7, 2, 8, 13, 1, 9, 3, 4, 10]);
makespan = 484;
----------
assign = array1d(1..13 ,[2, 3, 3, 4, 4, 3, 4, 4, 2, 1, 2, 3, 4]);
next = array1d(1..13 ,[11, 12, 6, 5, 7, 2, 8, 13, 1, 9, 3, 4, 10]);
makespan = 483;
----------
assign = array1d(1..13 ,[2, 3, 3, 4, 4, 3, 4, 4, 2, 1, 2, 3, 4]);
next = array1d(1..13 ,[11, 12, 6, 5, 7, 2, 8, 13, 1, 9, 3, 4, 10]);
makespan = 482;
----------
assign = array1d(1..13 ,[2, 3, 3, 4, 4, 3, 4, 4, 2, 1, 2, 3, 4]);
next = array1d(1..13 ,[11, 12, 6, 5, 7, 2, 8, 13, 1, 9, 3, 4, 10]);
makespan = 480;
----------
assign = array1d(1..13 ,[2, 3, 3, 4, 4, 3, 4, 4, 2, 1, 2, 3, 4]);
next = array1d(1..13 ,[11, 12, 6, 5, 7, 2, 8, 13, 1, 9, 3, 4, 10]);
makespan = 479;
----------
assign = array1d(1..13 ,[2, 3, 3, 4, 4, 3, 4, 4, 2, 1, 2, 3, 4]);
next = array1d(1..13 ,[11, 12, 6, 5, 7, 2, 8, 13, 1, 9, 3, 4, 10]);
makespan = 477;
----------
assign = array1d(1..13 ,[2, 3, 3, 4, 4, 3, 4, 4, 2, 1, 2, 3, 4]);
next = array1d(1..13 ,[11, 12, 6, 5, 7, 2, 8, 13, 1, 9, 3, 4, 10]);
makespan = 476;
----------
assign = array1d(1..13 ,[2, 3, 3, 4, 4, 3, 4, 4, 2, 1, 2, 3, 4]);
next = array1d(1..13 ,[11, 12, 6, 5, 7, 2, 8, 13, 1, 9, 3, 4, 10]);
makespan = 475;
----------
assign = array1d(1..13 ,[2, 3, 3, 4, 4, 3, 4, 4, 2, 1, 2, 3, 4]);
next = array1d(1..13 ,[11, 12, 6, 5, 7, 2, 8, 13, 1, 9, 3, 4, 10]);
makespan = 474;
----------
assign = array1d(1..13 ,[2, 3, 3, 4, 4, 3, 4, 4, 2, 1, 2, 3, 4]);
next = array1d(1..13 ,[11, 12, 6, 5, 7, 2, 8, 13, 1, 9, 3, 4, 10]);
makespan = 473;
----------
assign = array1d(1..13 ,[2, 3, 3, 4, 4, 3, 4, 4, 2, 1, 2, 3, 4]);
next = array1d(1..13 ,[11, 12, 6, 5, 7, 2, 8, 13, 1, 9, 3, 4, 10]);
makespan = 472;
----------
assign = array1d(1..13 ,[2, 3, 3, 4, 4, 3, 4, 4, 2, 1, 2, 3, 4]);
next = array1d(1..13 ,[11, 12, 6, 5, 7, 2, 8, 13, 1, 9, 3, 4, 10]);
makespan = 471;
----------
assign = array1d(1..13 ,[2, 3, 3, 4, 4, 3, 4, 4, 2, 1, 2, 3, 4]);
next = array1d(1..13 ,[11, 12, 6, 5, 7, 2, 8, 13, 1, 9, 3, 4, 10]);
makespan = 470;
----------
assign = array1d(1..13 ,[2, 3, 3, 4, 4, 3, 4, 4, 2, 1, 2, 3, 4]);
next = array1d(1..13 ,[11, 12, 6, 5, 7, 2, 8, 13, 1, 9, 3, 4, 10]);
makespan = 469;
----------
assign = array1d(1..13 ,[3, 3, 2, 4, 3, 2, 4, 4, 2, 1, 2, 3, 4]);
next = array1d(1..13 ,[12, 1, 9, 13, 2, 3, 8, 4, 11, 6, 5, 7, 10]);
makespan = 468;
----------
assign = array1d(1..13 ,[4, 3, 3, 2, 2, 2, 4, 4, 3, 1, 2, 3, 4]);
next = array1d(1..13 ,[13, 12, 2, 11, 4, 5, 8, 1, 3, 6, 9, 7, 10]);
makespan = 467;
----------
assign = array1d(1..13 ,[3, 4, 3, 4, 4, 4, 2, 2, 3, 1, 2, 3, 4]);
next = array1d(1..13 ,[3, 6, 9, 13, 4, 5, 11, 7, 12, 8, 1, 2, 10]);
makespan = 466;
----------
assign = array1d(1..13 ,[2, 4, 4, 3, 4, 4, 2, 2, 3, 1, 2, 3, 4]);
next = array1d(1..13 ,[11, 13, 2, 12, 3, 5, 1, 7, 4, 8, 9, 6, 10]);
makespan = 464;
----------
assign = array1d(1..13 ,[3, 4, 2, 2, 4, 4, 3, 3, 4, 1, 2, 3, 4]);
next = array1d(1..13 ,[12, 13, 11, 3, 2, 5, 1, 7, 6, 4, 8, 9, 10]);
makespan = 463;
----------
assign = array1d(1..13 ,[3, 4, 4, 2, 2, 4, 3, 3, 2, 1, 2, 3, 4]);
next = array1d(1..13 ,[12, 6, 2, 11, 4, 13, 1, 7, 5, 9, 8, 3, 10]);
makespan = 462;
----------
assign = array1d(1..13 ,[4, 2, 2, 3, 2, 1, 4, 4, 3, 1, 2, 3, 4]);
next = array1d(1..13 ,[13, 11, 2, 9, 3, 10, 1, 7, 12, 5, 4, 8, 6]);
makespan = 461;
----------
assign = array1d(1..13 ,[4, 3, 3, 4, 3, 1, 1, 1, 4, 1, 2, 3, 4]);
next = array1d(1..13 ,[9, 12, 2, 1, 3, 8, 10, 7, 13, 11, 5, 4, 6]);
makespan = 460;
----------
assign = array1d(1..13 ,[4, 2, 3, 3, 4, 2, 4, 2, 3, 1, 2, 3, 4]);
next = array1d(1..13 ,[13, 6, 12, 3, 7, 8, 1, 11, 4, 2, 9, 5, 10]);
makespan = 459;
----------
assign = array1d(1..13 ,[1, 4, 3, 3, 2, 4, 1, 4, 3, 1, 2, 3, 4]);
next = array1d(1..13 ,[10, 6, 12, 3, 11, 8, 1, 13, 4, 5, 9, 2, 7]);
makespan = 458;
----------
assign = array1d(1..13 ,[4, 3, 3, 2, 2, 3, 4, 2, 4, 1, 2, 3, 4]);
next = array1d(1..13 ,[9, 6, 2, 5, 11, 12, 1, 4, 13, 8, 3, 7, 10]);
makespan = 457;
----------
assign = array1d(1..13 ,[4, 3, 3, 1, 4, 1, 4, 1, 3, 1, 2, 3, 4]);
next = array1d(1..13 ,[7, 12, 2, 10, 13, 8, 5, 4, 3, 11, 9, 1, 6]);
makespan = 456;
----------
assign = array1d(1..13 ,[3, 4, 4, 3, 2, 2, 3, 2, 4, 1, 2, 3, 4]);
next = array1d(1..13 ,[7, 13, 2, 1, 11, 8, 12, 5, 3, 6, 4, 9, 10]);
makespan = 455;
----------
assign = array1d(1..13 ,[3, 1, 1, 3, 4, 4, 3, 4, 1, 1, 2, 3, 4]);
next = array1d(1..13 ,[7, 10, 2, 1, 13, 8, 12, 5, 3, 11, 4, 6, 9]);
makespan = 454;
----------
assign = array1d(1..13 ,[4, 2, 2, 4, 3, 3, 4, 3, 2, 1, 2, 3, 4]);
next = array1d(1..13 ,[7, 11, 9, 1, 12, 8, 13, 5, 2, 3, 6, 4, 10]);
makespan = 453;
----------
assign = array1d(1..13 ,[2, 3, 3, 2, 4, 4, 2, 4, 3, 1, 2, 3, 4]);
next = array1d(1..13 ,[7, 12, 9, 1, 13, 8, 11, 5, 2, 4, 3, 6, 10]);
makespan = 452;
----------
assign = array1d(1..13 ,[3, 4, 2, 3, 2, 4, 3, 4, 2, 1, 2, 3, 4]);
next = array1d(1..13 ,[7, 6, 5, 1, 9, 8, 12, 13, 11, 3, 4, 2, 10]);
makespan = 451;
----------
assign = array1d(1..13 ,[4, 2, 3, 4, 3, 2, 4, 2, 3, 1, 2, 3, 4]);
next = array1d(1..13 ,[7, 6, 5, 1, 9, 8, 13, 11, 12, 2, 3, 4, 10]);
makespan = 450;
----------
assign = array1d(1..13 ,[2, 4, 3, 2, 3, 4, 2, 4, 3, 1, 2, 3, 4]);
next = array1d(1..13 ,[7, 6, 5, 1, 9, 8, 11, 13, 12, 4, 3, 2, 10]);
makespan = 448;
----------
assign = array1d(1..13 ,[3, 4, 2, 3, 2, 4, 3, 4, 2, 1, 2, 3, 4]);
next = array1d(1..13 ,[7, 6, 5, 1, 9, 8, 12, 13, 11, 3, 4, 2, 10]);
makespan = 447;
----------
assign = array1d(1..13 ,[3, 4, 2, 3, 2, 4, 3, 4, 2, 1, 2, 3, 4]);
next = array1d(1..13 ,[7, 6, 5, 1, 9, 8, 12, 13, 11, 3, 4, 2, 10]);
makespan = 446;
----------
assign = array1d(1..13 ,[3, 4, 2, 3, 2, 4, 3, 4, 2, 1, 2, 3, 4]);
next = array1d(1..13 ,[7, 6, 5, 1, 9, 8, 12, 13, 11, 3, 4, 2, 10]);
makespan = 445;
----------
assign = array1d(1..13 ,[3, 4, 2, 3, 2, 4, 3, 4, 2, 1, 2, 3, 4]);
next = array1d(1..13 ,[7, 6, 5, 1, 9, 8, 12, 13, 11, 3, 4, 2, 10]);
makespan = 444;
----------
assign = array1d(1..13 ,[3, 4, 2, 3, 2, 4, 3, 4, 2, 1, 2, 3, 4]);
next = array1d(1..13 ,[7, 6, 5, 1, 9, 8, 12, 13, 11, 3, 4, 2, 10]);
makespan = 443;
----------
assign = array1d(1..13 ,[3, 4, 2, 3, 2, 4, 3, 4, 2, 1, 2, 3, 4]);
next = array1d(1..13 ,[7, 6, 5, 1, 9, 8, 12, 13, 11, 3, 4, 2, 10]);
makespan = 442;
----------
assign = array1d(1..13 ,[3, 4, 2, 3, 2, 4, 3, 4, 2, 1, 2, 3, 4]);
next = array1d(1..13 ,[7, 6, 5, 1, 9, 8, 12, 13, 11, 3, 4, 2, 10]);
makespan = 441;
----------
assign = array1d(1..13 ,[3, 4, 2, 3, 2, 4, 3, 4, 2, 1, 2, 3, 4]);
next = array1d(1..13 ,[7, 6, 5, 1, 9, 8, 12, 13, 11, 3, 4, 2, 10]);
makespan = 440;
----------
assign = array1d(1..13 ,[3, 4, 2, 3, 2, 4, 3, 4, 2, 1, 2, 3, 4]);
next = array1d(1..13 ,[7, 6, 5, 1, 9, 8, 12, 13, 11, 3, 4, 2, 10]);
makespan = 439;
----------
assign = array1d(1..13 ,[3, 4, 2, 3, 2, 4, 3, 4, 2, 1, 2, 3, 4]);
next = array1d(1..13 ,[7, 6, 5, 1, 9, 8, 12, 13, 11, 3, 4, 2, 10]);
makespan = 438;
----------
assign = array1d(1..13 ,[3, 4, 2, 3, 2, 4, 3, 4, 2, 1, 2, 3, 4]);
next = array1d(1..13 ,[7, 6, 5, 1, 9, 8, 12, 13, 11, 3, 4, 2, 10]);
makespan = 436;
----------
assign = array1d(1..13 ,[3, 4, 2, 3, 2, 4, 3, 4, 2, 1, 2, 3, 4]);
next = array1d(1..13 ,[7, 6, 5, 1, 9, 8, 12, 13, 11, 3, 4, 2, 10]);
makespan = 435;
----------
assign = array1d(1..13 ,[3, 4, 2, 3, 2, 4, 3, 4, 2, 1, 2, 3, 4]);
next = array1d(1..13 ,[7, 6, 5, 1, 9, 8, 12, 13, 11, 3, 4, 2, 10]);
makespan = 433;
----------
assign = array1d(1..13 ,[3, 4, 2, 3, 2, 4, 3, 4, 2, 1, 2, 3, 4]);
next = array1d(1..13 ,[7, 6, 5, 1, 9, 8, 12, 13, 11, 3, 4, 2, 10]);
makespan = 432;
----------
assign = array1d(1..13 ,[3, 4, 2, 3, 2, 4, 3, 4, 2, 1, 2, 3, 4]);
next = array1d(1..13 ,[7, 6, 5, 1, 9, 8, 12, 13, 11, 3, 4, 2, 10]);
makespan = 429;
----------
assign = array1d(1..13 ,[3, 4, 2, 3, 2, 4, 3, 4, 2, 1, 2, 3, 4]);
next = array1d(1..13 ,[7, 6, 5, 1, 9, 8, 12, 13, 11, 3, 4, 2, 10]);
makespan = 427;
----------
assign = array1d(1..13 ,[3, 4, 2, 3, 2, 4, 3, 4, 2, 1, 2, 3, 4]);
next = array1d(1..13 ,[7, 6, 5, 1, 9, 8, 12, 13, 11, 3, 4, 2, 10]);
makespan = 426;
----------
assign = array1d(1..13 ,[3, 4, 2, 3, 2, 4, 3, 4, 2, 1, 2, 3, 4]);
next = array1d(1..13 ,[7, 6, 5, 1, 9, 8, 12, 13, 11, 3, 4, 2, 10]);
makespan = 425;
----------
assign = array1d(1..13 ,[3, 4, 2, 3, 2, 4, 3, 4, 2, 1, 2, 3, 4]);
next = array1d(1..13 ,[7, 6, 5, 1, 9, 8, 12, 13, 11, 3, 4, 2, 10]);
makespan = 424;
----------
assign = array1d(1..13 ,[3, 4, 2, 3, 2, 4, 3, 4, 2, 1, 2, 3, 4]);
next = array1d(1..13 ,[7, 6, 5, 1, 9, 8, 12, 13, 11, 3, 4, 2, 10]);
makespan = 422;
----------
assign = array1d(1..13 ,[3, 4, 2, 3, 2, 4, 3, 4, 2, 1, 2, 3, 4]);
next = array1d(1..13 ,[7, 6, 5, 1, 9, 8, 12, 13, 11, 3, 4, 2, 10]);
makespan = 421;
----------
assign = array1d(1..13 ,[3, 4, 2, 3, 2, 4, 3, 4, 2, 1, 2, 3, 4]);
next = array1d(1..13 ,[12, 6, 11, 1, 9, 8, 4, 13, 3, 5, 7, 2, 10]);
makespan = 420;
----------
assign = array1d(1..13 ,[4, 2, 3, 4, 3, 2, 4, 2, 3, 1, 2, 3, 4]);
next = array1d(1..13 ,[7, 6, 9, 1, 3, 8, 13, 11, 12, 2, 5, 4, 10]);
makespan = 419;
----------
assign = array1d(1..13 ,[2, 2, 3, 4, 4, 3, 2, 3, 4, 1, 2, 3, 4]);
next = array1d(1..13 ,[7, 11, 12, 13, 4, 8, 2, 3, 5, 1, 6, 9, 10]);
makespan = 418;
----------
assign = array1d(1..13 ,[3, 4, 4, 3, 2, 4, 2, 1, 3, 1, 2, 3, 4]);
next = array1d(1..13 ,[12, 13, 2, 1, 7, 3, 11, 10, 4, 5, 9, 6, 8]);
makespan = 417;
----------
assign = array1d(1..13 ,[1, 2, 4, 2, 4, 3, 3, 3, 4, 1, 2, 3, 4]);
next = array1d(1..13 ,[10, 11, 13, 2, 9, 8, 6, 12, 3, 4, 7, 5, 1]);
makespan = 416;
----------
assign = array1d(1..13 ,[4, 3, 1, 3, 1, 4, 3, 4, 1, 1, 2, 3, 4]);
next = array1d(1..13 ,[6, 7, 10, 2, 9, 8, 12, 13, 3, 11, 4, 1, 5]);
makespan = 415;
----------
assign = array1d(1..13 ,[4, 3, 1, 3, 1, 4, 3, 4, 1, 1, 2, 3, 4]);
next = array1d(1..13 ,[6, 7, 10, 2, 9, 8, 12, 13, 3, 11, 4, 1, 5]);
makespan = 414;
----------
assign = array1d(1..13 ,[4, 3, 1, 3, 1, 4, 3, 4, 1, 1, 2, 3, 4]);
next = array1d(1..13 ,[6, 7, 10, 2, 9, 8, 12, 13, 3, 11, 4, 1, 5]);
makespan = 413;
----------
assign = array1d(1..13 ,[4, 3, 1, 3, 1, 4, 3, 4, 1, 1, 2, 3, 4]);
next = array1d(1..13 ,[6, 7, 10, 2, 9, 8, 12, 13, 3, 11, 4, 1, 5]);
makespan = 412;
----------
assign = array1d(1..13 ,[4, 3, 2, 3, 2, 4, 3, 4, 2, 1, 2, 3, 4]);
next = array1d(1..13 ,[6, 7, 11, 2, 9, 8, 12, 13, 3, 5, 4, 1, 10]);
makespan = 411;
----------
assign = array1d(1..13 ,[4, 3, 2, 3, 2, 4, 3, 4, 2, 1, 2, 3, 4]);
next = array1d(1..13 ,[6, 7, 11, 2, 9, 8, 12, 13, 3, 5, 4, 1, 10]);
makespan = 410;
----------
assign = array1d(1..13 ,[4, 3, 2, 3, 2, 4, 3, 4, 2, 1, 2, 3, 4]);
next = array1d(1..13 ,[6, 7, 11, 2, 9, 8, 12, 13, 3, 5, 4, 1, 10]);
makespan = 409;
----------
assign = array1d(1..13 ,[4, 3, 2, 3, 2, 4, 3, 4, 2, 1, 2, 3, 4]);
next = array1d(1..13 ,[6, 7, 11, 2, 9, 8, 12, 13, 3, 5, 4, 1, 10]);
makespan = 407;
----------
assign = array1d(1..13 ,[4, 3, 2, 3, 2, 4, 3, 4, 2, 1, 2, 3, 4]);
next = array1d(1..13 ,[6, 7, 11, 2, 9, 8, 12, 13, 3, 5, 4, 1, 10]);
makespan = 406;
----------
assign = array1d(1..13 ,[4, 3, 2, 3, 2, 4, 3, 4, 2, 1, 2, 3, 4]);
next = array1d(1..13 ,[6, 7, 11, 2, 9, 8, 12, 13, 3, 5, 4, 1, 10]);
makespan = 405;
----------
assign = array1d(1..13 ,[4, 3, 2, 3, 2, 4, 3, 4, 2, 1, 2, 3, 4]);
next = array1d(1..13 ,[6, 7, 11, 2, 9, 8, 12, 13, 3, 5, 4, 1, 10]);
makespan = 404;
----------
assign = array1d(1..13 ,[4, 3, 2, 3, 2, 4, 3, 4, 2, 1, 2, 3, 4]);
next = array1d(1..13 ,[6, 7, 11, 2, 9, 8, 12, 13, 3, 5, 4, 1, 10]);
makespan = 403;
----------
assign = array1d(1..13 ,[4, 3, 2, 3, 2, 4, 3, 4, 2, 1, 2, 3, 4]);
next = array1d(1..13 ,[6, 7, 11, 2, 9, 8, 12, 13, 3, 5, 4, 1, 10]);
makespan = 402;
----------
assign = array1d(1..13 ,[4, 3, 2, 3, 2, 4, 3, 4, 2, 1, 2, 3, 4]);
next = array1d(1..13 ,[6, 7, 11, 2, 9, 8, 12, 13, 3, 5, 4, 1, 10]);
makespan = 401;
----------
assign = array1d(1..13 ,[4, 3, 2, 3, 2, 4, 3, 4, 2, 1, 2, 3, 4]);
next = array1d(1..13 ,[6, 7, 11, 2, 9, 8, 12, 13, 3, 5, 4, 1, 10]);
makespan = 400;
----------
assign = array1d(1..13 ,[4, 3, 2, 3, 2, 4, 3, 4, 2, 1, 2, 3, 4]);
next = array1d(1..13 ,[6, 7, 11, 2, 9, 8, 12, 13, 3, 5, 4, 1, 10]);
makespan = 399;
----------
assign = array1d(1..13 ,[4, 3, 2, 3, 2, 4, 3, 4, 2, 1, 2, 3, 4]);
next = array1d(1..13 ,[6, 7, 11, 2, 9, 8, 12, 13, 3, 5, 4, 1, 10]);
makespan = 398;
----------
assign = array1d(1..13 ,[4, 3, 2, 3, 2, 4, 3, 4, 2, 1, 2, 3, 4]);
next = array1d(1..13 ,[6, 7, 11, 2, 9, 8, 12, 13, 3, 5, 4, 1, 10]);
makespan = 397;
----------
assign = array1d(1..13 ,[4, 3, 2, 3, 2, 4, 3, 4, 2, 1, 2, 3, 4]);
next = array1d(1..13 ,[6, 7, 11, 2, 9, 8, 12, 13, 3, 5, 4, 1, 10]);
makespan = 396;
----------
assign = array1d(1..13 ,[4, 3, 2, 3, 2, 4, 3, 4, 2, 1, 2, 3, 4]);
next = array1d(1..13 ,[6, 7, 11, 2, 9, 8, 12, 13, 3, 5, 4, 1, 10]);
makespan = 395;
----------
assign = array1d(1..13 ,[4, 3, 2, 3, 2, 4, 3, 4, 2, 1, 2, 3, 4]);
next = array1d(1..13 ,[6, 7, 11, 2, 9, 8, 12, 13, 3, 5, 4, 1, 10]);
makespan = 394;
----------
assign = array1d(1..13 ,[4, 3, 2, 3, 2, 4, 3, 4, 2, 1, 2, 3, 4]);
next = array1d(1..13 ,[6, 7, 11, 2, 9, 8, 12, 13, 3, 5, 4, 1, 10]);
makespan = 393;
----------
assign = array1d(1..13 ,[4, 3, 2, 3, 2, 4, 3, 4, 2, 1, 2, 3, 4]);
next = array1d(1..13 ,[6, 7, 11, 2, 9, 8, 12, 13, 3, 5, 4, 1, 10]);
makespan = 392;
----------
assign = array1d(1..13 ,[4, 3, 2, 3, 2, 4, 3, 4, 2, 1, 2, 3, 4]);
next = array1d(1..13 ,[6, 7, 11, 2, 9, 8, 12, 13, 3, 5, 4, 1, 10]);
makespan = 391;
----------
assign = array1d(1..13 ,[4, 3, 2, 3, 2, 4, 3, 4, 2, 1, 2, 3, 4]);
next = array1d(1..13 ,[6, 7, 11, 2, 9, 8, 12, 13, 3, 5, 4, 1, 10]);
makespan = 390;
----------
assign = array1d(1..13 ,[4, 3, 2, 3, 2, 4, 3, 4, 2, 1, 2, 3, 4]);
next = array1d(1..13 ,[6, 7, 11, 2, 9, 8, 12, 13, 3, 5, 4, 1, 10]);
makespan = 389;
----------
assign = array1d(1..13 ,[4, 3, 2, 3, 2, 4, 3, 4, 2, 1, 2, 3, 4]);
next = array1d(1..13 ,[6, 7, 11, 2, 9, 8, 12, 13, 3, 5, 4, 1, 10]);
makespan = 388;
----------
assign = array1d(1..13 ,[4, 3, 2, 3, 2, 4, 3, 4, 2, 1, 2, 3, 4]);
next = array1d(1..13 ,[6, 7, 11, 2, 9, 8, 12, 13, 3, 5, 4, 1, 10]);
makespan = 387;
----------
assign = array1d(1..13 ,[4, 3, 2, 3, 2, 4, 3, 4, 2, 1, 2, 3, 4]);
next = array1d(1..13 ,[6, 7, 11, 2, 9, 8, 12, 13, 3, 5, 4, 1, 10]);
makespan = 386;
----------
assign = array1d(1..13 ,[4, 3, 2, 3, 2, 4, 3, 4, 2, 1, 2, 3, 4]);
next = array1d(1..13 ,[6, 7, 11, 2, 9, 8, 12, 13, 3, 5, 4, 1, 10]);
makespan = 385;
----------
assign = array1d(1..13 ,[4, 3, 2, 3, 2, 4, 3, 4, 2, 1, 2, 3, 4]);
next = array1d(1..13 ,[6, 7, 11, 2, 9, 8, 12, 13, 3, 5, 4, 1, 10]);
makespan = 384;
----------
assign = array1d(1..13 ,[4, 3, 2, 3, 2, 4, 3, 4, 2, 1, 2, 3, 4]);
next = array1d(1..13 ,[6, 7, 11, 2, 9, 8, 12, 13, 3, 5, 4, 1, 10]);
makespan = 382;
----------
assign = array1d(1..13 ,[4, 3, 2, 3, 2, 4, 3, 4, 2, 1, 2, 3, 4]);
next = array1d(1..13 ,[6, 7, 11, 2, 9, 8, 12, 13, 3, 5, 4, 1, 10]);
makespan = 381;
----------
assign = array1d(1..13 ,[4, 3, 2, 3, 2, 4, 3, 4, 2, 1, 2, 3, 4]);
next = array1d(1..13 ,[6, 7, 11, 2, 9, 8, 12, 13, 3, 5, 4, 1, 10]);
makespan = 380;
----------
assign = array1d(1..13 ,[1, 3, 4, 3, 3, 4, 1, 4, 2, 1, 2, 3, 4]);
next = array1d(1..13 ,[7, 5, 6, 2, 12, 8, 10, 13, 11, 9, 4, 3, 1]);
makespan = 379;
----------
assign = array1d(1..13 ,[2, 1, 3, 1, 1, 4, 3, 4, 4, 1, 2, 3, 4]);
next = array1d(1..13 ,[11, 10, 12, 2, 4, 8, 3, 13, 6, 1, 7, 9, 5]);
makespan = 378;
----------
assign = array1d(1..13 ,[2, 2, 3, 2, 1, 4, 3, 4, 1, 1, 2, 3, 4]);
next = array1d(1..13 ,[11, 1, 12, 2, 9, 8, 3, 13, 10, 4, 7, 6, 5]);
makespan = 376;
----------
assign = array1d(1..13 ,[2, 3, 4, 3, 2, 1, 4, 1, 2, 1, 2, 3, 4]);
next = array1d(1..13 ,[11, 12, 13, 2, 9, 8, 3, 10, 1, 5, 4, 7, 6]);
makespan = 375;
----------
assign = array1d(1..13 ,[2, 3, 4, 3, 2, 1, 4, 1, 2, 1, 2, 3, 4]);
next = array1d(1..13 ,[11, 12, 13, 2, 9, 8, 3, 10, 1, 5, 4, 7, 6]);
makespan = 372;
----------
assign = array1d(1..13 ,[2, 3, 4, 3, 2, 1, 4, 1, 2, 1, 2, 3, 4]);
next = array1d(1..13 ,[11, 12, 13, 2, 9, 8, 3, 10, 1, 5, 4, 7, 6]);
makespan = 371;
----------
assign = array1d(1..13 ,[2, 3, 4, 3, 2, 1, 4, 1, 2, 1, 2, 3, 4]);
next = array1d(1..13 ,[11, 12, 13, 2, 9, 8, 3, 10, 1, 5, 4, 7, 6]);
makespan = 370;
----------
assign = array1d(1..13 ,[2, 3, 4, 3, 2, 1, 4, 1, 2, 1, 2, 3, 4]);
next = array1d(1..13 ,[11, 12, 13, 2, 9, 8, 3, 10, 1, 5, 4, 7, 6]);
makespan = 369;
----------
assign = array1d(1..13 ,[2, 3, 4, 3, 2, 1, 4, 1, 2, 1, 2, 3, 4]);
next = array1d(1..13 ,[11, 12, 13, 2, 9, 8, 3, 10, 1, 5, 4, 7, 6]);
makespan = 368;
----------
assign = array1d(1..13 ,[2, 3, 4, 3, 2, 1, 4, 1, 2, 1, 2, 3, 4]);
next = array1d(1..13 ,[11, 12, 13, 2, 9, 8, 3, 10, 1, 5, 4, 7, 6]);
makespan = 367;
----------
assign = array1d(1..13 ,[2, 3, 4, 3, 2, 1, 4, 1, 2, 1, 2, 3, 4]);
next = array1d(1..13 ,[11, 12, 13, 2, 9, 8, 3, 10, 1, 5, 4, 7, 6]);
makespan = 363;
----------
assign = array1d(1..13 ,[2, 3, 4, 3, 2, 1, 4, 1, 2, 1, 2, 3, 4]);
next = array1d(1..13 ,[11, 12, 13, 2, 9, 8, 3, 10, 1, 5, 4, 7, 6]);
makespan = 362;
----------
assign = array1d(1..13 ,[2, 3, 4, 3, 2, 1, 4, 1, 2, 1, 2, 3, 4]);
next = array1d(1..13 ,[11, 12, 13, 2, 9, 8, 3, 10, 1, 5, 4, 7, 6]);
makespan = 361;
----------
assign = array1d(1..13 ,[3, 2, 4, 1, 2, 1, 4, 1, 2, 1, 2, 3, 4]);
next = array1d(1..13 ,[12, 5, 13, 6, 9, 8, 3, 10, 11, 2, 1, 7, 4]);
makespan = 359;
----------
assign = array1d(1..13 ,[4, 3, 2, 2, 1, 1, 3, 1, 4, 1, 2, 3, 4]);
next = array1d(1..13 ,[9, 7, 11, 3, 10, 8, 12, 5, 13, 4, 2, 1, 6]);
makespan = 358;
----------
assign = array1d(1..13 ,[4, 1, 2, 1, 3, 2, 1, 3, 4, 1, 2, 3, 4]);
next = array1d(1..13 ,[9, 7, 6, 10, 12, 11, 4, 5, 13, 3, 8, 1, 2]);
makespan = 356;
----------
assign = array1d(1..13 ,[1, 4, 3, 3, 4, 3, 4, 1, 2, 1, 2, 3, 4]);
next = array1d(1..13 ,[8, 7, 6, 3, 2, 12, 13, 10, 11, 9, 4, 5, 1]);
makespan = 355;
----------
assign = array1d(1..13 ,[1, 4, 3, 3, 4, 3, 4, 1, 2, 1, 2, 3, 4]);
next = array1d(1..13 ,[8, 7, 6, 3, 2, 12, 13, 10, 11, 9, 4, 5, 1]);
makespan = 354;
----------
assign = array1d(1..13 ,[2, 2, 4, 4, 2, 4, 3, 1, 1, 1, 2, 3, 4]);
next = array1d(1..13 ,[11, 1, 6, 3, 2, 13, 12, 10, 8, 5, 7, 4, 9]);
makespan = 353;
----------
assign = array1d(1..13 ,[1, 4, 3, 4, 4, 3, 1, 2, 3, 1, 2, 3, 4]);
next = array1d(1..13 ,[10, 13, 6, 5, 2, 12, 1, 11, 3, 8, 9, 4, 7]);
makespan = 352;
----------
assign = array1d(1..13 ,[4, 2, 2, 4, 4, 3, 3, 1, 3, 1, 2, 3, 4]);
next = array1d(1..13 ,[13, 3, 11, 5, 1, 12, 6, 10, 7, 2, 9, 4, 8]);
makespan = 351;
----------
assign = array1d(1..13 ,[1, 2, 4, 3, 4, 4, 1, 2, 3, 1, 2, 3, 4]);
next = array1d(1..13 ,[7, 8, 5, 12, 6, 13, 10, 11, 4, 2, 9, 3, 1]);
makespan = 350;
----------
assign = array1d(1..13 ,[2, 1, 4, 1, 3, 2, 4, 3, 1, 1, 2, 3, 4]);
next = array1d(1..13 ,[6, 10, 13, 2, 12, 11, 3, 5, 4, 1, 8, 7, 9]);
makespan = 349;
----------
assign = array1d(1..13 ,[2, 1, 3, 1, 4, 4, 2, 4, 1, 1, 2, 3, 4]);
next = array1d(1..13 ,[7, 10, 12, 2, 8, 13, 11, 6, 4, 1, 3, 5, 9]);
makespan = 348;
----------
assign = array1d(1..13 ,[4, 1, 2, 1, 3, 4, 2, 3, 1, 1, 2, 3, 4]);
next = array1d(1..13 ,[6, 10, 11, 2, 12, 13, 3, 5, 4, 7, 8, 1, 9]);
makespan = 347;
----------
assign = array1d(1..13 ,[1, 4, 2, 4, 2, 3, 1, 3, 4, 1, 2, 3, 4]);
next = array1d(1..13 ,[7, 13, 11, 9, 3, 12, 10, 6, 2, 5, 8, 4, 1]);
makespan = 346;
----------
assign = array1d(1..13 ,[1, 2, 3, 3, 4, 4, 4, 3, 2, 1, 2, 3, 4]);
next = array1d(1..13 ,[10, 11, 4, 8, 7, 5, 13, 12, 2, 9, 3, 6, 1]);
makespan = 345;
----------
assign = array1d(1..13 ,[1, 2, 3, 3, 4, 4, 4, 3, 2, 1, 2, 3, 4]);
next = array1d(1..13 ,[10, 11, 4, 8, 7, 5, 13, 12, 2, 9, 3, 6, 1]);
makespan = 344;
----------
assign = array1d(1..13 ,[1, 2, 3, 3, 4, 4, 4, 3, 2, 1, 2, 3, 4]);
next = array1d(1..13 ,[10, 11, 4, 8, 7, 5, 13, 12, 2, 9, 3, 6, 1]);
makespan = 343;
----------
assign = array1d(1..13 ,[1, 2, 3, 3, 4, 4, 4, 3, 2, 1, 2, 3, 4]);
next = array1d(1..13 ,[10, 11, 4, 8, 7, 5, 13, 12, 2, 9, 3, 6, 1]);
makespan = 341;
----------
assign = array1d(1..13 ,[1, 2, 3, 3, 4, 4, 4, 3, 2, 1, 2, 3, 4]);
next = array1d(1..13 ,[10, 11, 4, 8, 7, 5, 13, 12, 2, 9, 3, 6, 1]);
makespan = 340;
----------
assign = array1d(1..13 ,[1, 2, 3, 3, 4, 4, 4, 3, 2, 1, 2, 3, 4]);
next = array1d(1..13 ,[10, 11, 4, 8, 7, 5, 13, 12, 2, 9, 3, 6, 1]);
makespan = 339;
----------
assign = array1d(1..13 ,[1, 2, 3, 3, 4, 4, 4, 3, 2, 1, 2, 3, 4]);
next = array1d(1..13 ,[10, 11, 4, 8, 7, 5, 13, 12, 2, 9, 3, 6, 1]);
makespan = 338;
----------
assign = array1d(1..13 ,[3, 3, 1, 4, 4, 2, 4, 2, 1, 1, 2, 3, 4]);
next = array1d(1..13 ,[2, 12, 10, 5, 7, 11, 13, 6, 3, 8, 1, 4, 9]);
makespan = 337;
----------
assign = array1d(1..13 ,[4, 4, 2, 1, 2, 3, 1, 3, 2, 1, 2, 3, 4]);
next = array1d(1..13 ,[2, 13, 5, 7, 11, 12, 10, 6, 3, 9, 8, 1, 4]);
makespan = 336;
----------
assign = array1d(1..13 ,[2, 2, 3, 3, 3, 4, 1, 4, 4, 1, 2, 3, 4]);
next = array1d(1..13 ,[2, 11, 4, 12, 3, 13, 10, 6, 8, 1, 5, 9, 7]);
makespan = 335;
----------
assign = array1d(1..13 ,[3, 3, 2, 4, 4, 4, 1, 1, 2, 1, 2, 3, 4]);
next = array1d(1..13 ,[2, 12, 11, 13, 4, 5, 8, 10, 3, 9, 1, 6, 7]);
makespan = 334;
----------
assign = array1d(1..13 ,[2, 4, 3, 4, 2, 1, 1, 1, 3, 1, 2, 3, 4]);
next = array1d(1..13 ,[11, 4, 12, 13, 1, 7, 8, 10, 3, 5, 9, 2, 6]);
makespan = 333;
----------
assign = array1d(1..13 ,[2, 3, 2, 1, 1, 4, 4, 1, 3, 1, 2, 3, 4]);
next = array1d(1..13 ,[3, 9, 11, 8, 4, 7, 13, 10, 12, 1, 2, 6, 5]);
makespan = 332;
----------
assign = array1d(1..13 ,[3, 1, 2, 1, 4, 3, 2, 4, 1, 1, 2, 3, 4]);
next = array1d(1..13 ,[6, 9, 11, 10, 13, 12, 3, 5, 4, 7, 1, 8, 2]);
makespan = 331;
----------
assign = array1d(1..13 ,[3, 1, 3, 1, 4, 2, 2, 4, 1, 1, 2, 3, 4]);
next = array1d(1..13 ,[12, 9, 1, 10, 13, 7, 11, 5, 4, 6, 3, 8, 2]);
makespan = 330;
----------
assign = array1d(1..13 ,[3, 1, 4, 1, 2, 2, 4, 3, 1, 1, 2, 3, 4]);
next = array1d(1..13 ,[8, 9, 13, 10, 11, 5, 3, 12, 4, 6, 1, 7, 2]);
makespan = 329;
----------
assign = array1d(1..13 ,[3, 2, 2, 4, 3, 1, 1, 4, 1, 1, 2, 3, 4]);
next = array1d(1..13 ,[12, 3, 11, 8, 1, 10, 6, 13, 7, 2, 5, 4, 9]);
makespan = 328;
----------
assign = array1d(1..13 ,[4, 2, 3, 1, 3, 2, 4, 1, 3, 1, 2, 3, 4]);
next = array1d(1..13 ,[7, 11, 9, 8, 3, 2, 13, 10, 12, 6, 5, 1, 4]);
makespan = 327;
----------
assign = array1d(1..13 ,[4, 2, 3, 1, 3, 2, 4, 1, 3, 1, 2, 3, 4]);
next = array1d(1..13 ,[7, 11, 9, 8, 3, 2, 13, 10, 12, 6, 5, 1, 4]);
makespan = 326;
----------
assign = array1d(1..13 ,[1, 2, 3, 3, 4, 2, 4, 1, 3, 1, 2, 3, 4]);
next = array1d(1..13 ,[8, 11, 9, 3, 13, 2, 5, 10, 12, 6, 4, 7, 1]);
makespan = 325;
----------
assign = array1d(1..13 ,[3, 4, 2, 1, 2, 3, 1, 4, 3, 1, 2, 3, 4]);
next = array1d(1..13 ,[12, 8, 11, 7, 3, 1, 10, 13, 6, 5, 9, 2, 4]);
makespan = 324;
----------
assign = array1d(1..13 ,[2, 2, 4, 4, 4, 3, 1, 2, 3, 1, 2, 3, 4]);
next = array1d(1..13 ,[2, 11, 13, 5, 3, 12, 10, 1, 6, 8, 9, 4, 7]);
makespan = 323;
----------
assign = array1d(1..13 ,[4, 4, 3, 1, 2, 2, 1, 3, 1, 1, 2, 3, 4]);
next = array1d(1..13 ,[2, 13, 12, 7, 11, 5, 10, 3, 4, 6, 8, 1, 9]);
makespan = 322;
----------
assign = array1d(1..13 ,[3, 2, 1, 4, 4, 4, 2, 3, 1, 1, 2, 3, 4]);
next = array1d(1..13 ,[12, 7, 9, 5, 6, 13, 11, 1, 10, 2, 8, 4, 3]);
makespan = 321;
----------
assign = array1d(1..13 ,[2, 4, 2, 1, 4, 3, 3, 1, 1, 1, 2, 3, 4]);
next = array1d(1..13 ,[3, 13, 11, 8, 2, 12, 6, 10, 4, 1, 7, 5, 9]);
makespan = 320;
----------
assign = array1d(1..13 ,[2, 4, 2, 1, 3, 3, 4, 1, 1, 1, 2, 3, 4]);
next = array1d(1..13 ,[3, 7, 11, 8, 12, 5, 13, 10, 4, 1, 6, 2, 9]);
makespan = 319;
----------
assign = array1d(1..13 ,[1, 2, 1, 3, 2, 4, 4, 3, 2, 1, 2, 3, 4]);
next = array1d(1..13 ,[3, 5, 10, 8, 9, 13, 6, 12, 11, 2, 4, 7, 1]);
makespan = 318;
----------
assign = array1d(1..13 ,[4, 4, 2, 1, 3, 1, 1, 2, 3, 1, 2, 3, 4]);
next = array1d(1..13 ,[2, 13, 11, 7, 9, 10, 6, 3, 12, 8, 5, 1, 4]);
makespan = 317;
----------
assign = array1d(1..13 ,[2, 4, 4, 3, 2, 1, 1, 1, 3, 1, 2, 3, 4]);
next = array1d(1..13 ,[11, 13, 2, 12, 1, 8, 10, 7, 4, 5, 9, 3, 6]);
makespan = 316;
----------
assign = array1d(1..13 ,[3, 2, 1, 4, 4, 4, 1, 2, 3, 1, 2, 3, 4]);
next = array1d(1..13 ,[12, 8, 7, 5, 6, 13, 10, 11, 1, 2, 9, 4, 3]);
makespan = 315;
----------
assign = array1d(1..13 ,[4, 2, 3, 2, 1, 1, 3, 4, 2, 1, 2, 3, 4]);
next = array1d(1..13 ,[8, 4, 7, 9, 10, 5, 12, 13, 11, 2, 3, 1, 6]);
makespan = 314;
----------
assign = array1d(1..13 ,[4, 1, 2, 3, 3, 4, 1, 2, 1, 1, 2, 3, 4]);
next = array1d(1..13 ,[6, 9, 11, 12, 4, 13, 2, 3, 10, 8, 5, 1, 7]);
makespan = 313;
----------
assign = array1d(1..13 ,[2, 3, 4, 1, 2, 1, 1, 4, 3, 1, 2, 3, 4]);
next = array1d(1..13 ,[5, 9, 13, 7, 11, 10, 6, 3, 12, 1, 2, 8, 4]);
makespan = 312;
----------
assign = array1d(1..13 ,[2, 4, 1, 4, 4, 3, 3, 2, 1, 1, 2, 3, 4]);
next = array1d(1..13 ,[8, 13, 9, 5, 2, 12, 6, 11, 10, 1, 7, 4, 3]);
makespan = 311;
----------
assign = array1d(1..13 ,[1, 4, 1, 4, 2, 3, 3, 2, 2, 1, 2, 3, 4]);
next = array1d(1..13 ,[10, 4, 1, 13, 8, 12, 6, 9, 11, 5, 7, 2, 3]);
makespan = 310;
----------
assign = array1d(1..13 ,[2, 1, 3, 3, 1, 3, 2, 4, 4, 1, 2, 3, 4]);
next = array1d(1..13 ,[7, 5, 4, 6, 10, 12, 11, 13, 8, 1, 3, 9, 2]);
makespan = 309;
----------
assign = array1d(1..13 ,[4, 2, 3, 2, 3, 4, 1, 1, 1, 1, 2, 3, 4]);
next = array1d(1..13 ,[13, 4, 12, 11, 3, 1, 10, 7, 8, 2, 5, 6, 9]);
makespan = 308;
----------
assign = array1d(1..13 ,[2, 4, 3, 4, 3, 1, 1, 1, 2, 1, 2, 3, 4]);
next = array1d(1..13 ,[11, 4, 12, 13, 3, 8, 10, 7, 1, 9, 5, 2, 6]);
makespan = 307;
----------
assign = array1d(1..13 ,[4, 1, 3, 3, 1, 3, 2, 4, 2, 1, 2, 3, 4]);
next = array1d(1..13 ,[8, 5, 4, 6, 10, 12, 9, 13, 11, 7, 3, 1, 2]);
makespan = 306;
----------
assign = array1d(1..13 ,[2, 4, 3, 4, 2, 1, 1, 1, 3, 1, 2, 3, 4]);
next = array1d(1..13 ,[11, 4, 12, 13, 1, 10, 6, 7, 3, 5, 9, 2, 8]);
makespan = 305;
----------
assign = array1d(1..13 ,[4, 2, 3, 1, 2, 3, 4, 1, 3, 1, 2, 3, 4]);
next = array1d(1..13 ,[7, 11, 9, 8, 2, 12, 13, 10, 6, 5, 3, 1, 4]);
makespan = 304;
----------
assign = array1d(1..13 ,[2, 4, 3, 3, 4, 1, 1, 1, 2, 1, 2, 3, 4]);
next = array1d(1..13 ,[11, 13, 4, 12, 2, 10, 6, 7, 1, 9, 3, 5, 8]);
makespan = 303;
----------
assign = array1d(1..13 ,[3, 2, 4, 1, 3, 2, 1, 4, 1, 1, 2, 3, 4]);
next = array1d(1..13 ,[5, 11, 13, 7, 12, 2, 10, 3, 4, 6, 1, 8, 9]);
makespan = 302;
----------
assign = array1d(1..13 ,[3, 1, 4, 1, 3, 2, 1, 4, 2, 1, 2, 3, 4]);
next = array1d(1..13 ,[5, 4, 13, 10, 12, 9, 2, 3, 11, 6, 1, 8, 7]);
makespan = 301;
----------
assign = array1d(1..13 ,[4, 3, 2, 4, 2, 1, 1, 1, 3, 1, 2, 3, 4]);
next = array1d(1..13 ,[4, 9, 11, 13, 3, 10, 6, 7, 12, 5, 2, 1, 8]);
makespan = 300;
----------
assign = array1d(1..13 ,[4, 3, 3, 1, 2, 2, 1, 1, 4, 1, 2, 3, 4]);
next = array1d(1..13 ,[13, 3, 12, 8, 6, 11, 10, 7, 1, 5, 2, 9, 4]);
makespan = 299;
----------
assign = array1d(1..13 ,[2, 1, 3, 1, 2, 3, 1, 4, 4, 1, 2, 3, 4]);
next = array1d(1..13 ,[5, 4, 12, 10, 11, 3, 2, 13, 8, 1, 6, 9, 7]);
makespan = 298;
----------
assign = array1d(1..13 ,[2, 4, 3, 1, 2, 3, 4, 1, 3, 1, 2, 3, 4]);
next = array1d(1..13 ,[5, 7, 9, 8, 11, 12, 13, 10, 6, 1, 3, 2, 4]);
makespan = 297;
----------
assign = array1d(1..13 ,[3, 2, 2, 4, 4, 1, 1, 1, 3, 1, 2, 3, 4]);
next = array1d(1..13 ,[9, 3, 11, 5, 13, 10, 6, 7, 12, 2, 1, 4, 8]);
makespan = 296;
----------
assign = array1d(1..13 ,[4, 2, 2, 4, 3, 1, 1, 1, 3, 1, 2, 3, 4]);
next = array1d(1..13 ,[4, 3, 11, 13, 12, 10, 6, 7, 5, 2, 9, 1, 8]);
makespan = 295;
----------
assign = array1d(1..13 ,[2, 1, 3, 1, 4, 3, 4, 2, 3, 1, 2, 3, 4]);
next = array1d(1..13 ,[11, 10, 9, 2, 13, 12, 5, 1, 6, 8, 3, 7, 4]);
makespan = 294;
----------
assign = array1d(1..13 ,[3, 2, 2, 1, 4, 3, 1, 1, 4, 1, 2, 3, 4]);
next = array1d(1..13 ,[6, 3, 11, 8, 9, 12, 10, 7, 13, 2, 1, 5, 4]);
makespan = 293;
----------
assign = array1d(1..13 ,[3, 4, 4, 2, 2, 3, 1, 1, 1, 1, 2, 3, 4]);
next = array1d(1..13 ,[12, 3, 13, 11, 4, 1, 10, 7, 8, 5, 6, 2, 9]);
makespan = 292;
----------
assign = array1d(1..13 ,[3, 1, 2, 4, 2, 4, 1, 1, 3, 1, 2, 3, 4]);
next = array1d(1..13 ,[9, 8, 11, 6, 3, 13, 10, 7, 12, 5, 1, 4, 2]);
makespan = 291;
----------
assign = array1d(1..13 ,[3, 2, 4, 1, 2, 3, 1, 1, 4, 1, 2, 3, 4]);
next = array1d(1..13 ,[12, 5, 13, 8, 11, 1, 10, 7, 3, 2, 6, 9, 4]);
makespan = 290;
----------
assign = array1d(1..13 ,[2, 1, 3, 4, 1, 3, 4, 2, 3, 1, 2, 3, 4]);
next = array1d(1..13 ,[11, 5, 9, 13, 10, 12, 4, 1, 6, 8, 3, 7, 2]);
makespan = 289;
----------
assign = array1d(1..13 ,[2, 4, 3, 1, 2, 3, 1, 4, 3, 1, 2, 3, 4]);
next = array1d(1..13 ,[5, 8, 9, 10, 11, 12, 4, 13, 6, 1, 3, 2, 7]);
makespan = 288;
----------
assign = array1d(1..13 ,[4, 1, 3, 2, 2, 3, 4, 1, 3, 1, 2, 3, 4]);
next = array1d(1..13 ,[7, 10, 9, 11, 4, 12, 13, 2, 6, 5, 3, 1, 8]);
makespan = 287;
----------
assign = array1d(1..13 ,[4, 2, 3, 4, 1, 3, 2, 1, 3, 1, 2, 3, 4]);
next = array1d(1..13 ,[4, 11, 9, 13, 8, 12, 2, 10, 6, 7, 3, 1, 5]);
makespan = 286;
----------
assign = array1d(1..13 ,[4, 1, 3, 2, 4, 3, 2, 1, 3, 1, 2, 3, 4]);
next = array1d(1..13 ,[13, 10, 9, 11, 1, 12, 4, 2, 6, 7, 3, 5, 8]);
makespan = 285;
----------
assign = array1d(1..13 ,[4, 2, 3, 1, 4, 3, 1, 2, 3, 1, 2, 3, 4]);
next = array1d(1..13 ,[5, 8, 9, 10, 13, 12, 4, 11, 6, 2, 3, 1, 7]);
makespan = 284;
----------
assign = array1d(1..13 ,[4, 2, 3, 1, 1, 3, 2, 4, 3, 1, 2, 3, 4]);
next = array1d(1..13 ,[8, 7, 9, 10, 4, 12, 11, 13, 6, 2, 3, 1, 5]);
makespan = 283;
----------
assign = array1d(1..13 ,[1, 1, 3, 2, 4, 3, 2, 4, 3, 1, 2, 3, 4]);
next = array1d(1..13 ,[2, 10, 9, 7, 8, 12, 11, 13, 6, 4, 3, 5, 1]);
makespan = 282;
----------
assign = array1d(1..13 ,[4, 1, 3, 2, 1, 3, 2, 4, 3, 1, 2, 3, 4]);
next = array1d(1..13 ,[8, 5, 9, 11, 10, 12, 4, 13, 6, 7, 3, 1, 2]);
makespan = 281;
----------
==========
	Command being timed: "mzn-chuffed lbbd-datasets/Rabadi-2006/dzn-balanced/model.mzn lbbd-datasets/Rabadi-2006/dzn-balanced/9on4Rp50Rs50_10Ameer.dzn"
	User time (seconds): 0.58
	System time (seconds): 0.03
	Percent of CPU this job got: 4%
	Elapsed (wall clock) time (h:mm:ss or m:ss): 0:12.88
	Average shared text size (kbytes): 0
	Average unshared data size (kbytes): 0
	Average stack size (kbytes): 0
	Average total size (kbytes): 0
	Maximum resident set size (kbytes): 41840
	Average resident set size (kbytes): 0
	Major (requiring I/O) page faults: 0
	Minor (reclaiming a frame) page faults: 3825
	Voluntary context switches: 335
	Involuntary context switches: 3
	Swaps: 0
	File system inputs: 0
	File system outputs: 440
	Socket messages sent: 0
	Socket messages received: 0
	Signals delivered: 0
	Page size (bytes): 4096
	Exit status: 0
