+ /usr/bin/timeout 600 /usr/bin/time -v mzn-chuffed lbbd-datasets/Rabadi-2006/dzn-balanced/model.mzn lbbd-datasets/Rabadi-2006/dzn-balanced/11on4Rp50Rs50_1Ameer.dzn
% No search annotation given. Defaulting to VSIDS!
assign = array1d(1..15 ,[4, 4, 4, 4, 4, 4, 4, 4, 4, 4, 4, 1, 2, 3, 4]);
next = array1d(1..15 ,[2, 3, 4, 5, 6, 7, 8, 9, 10, 11, 15, 13, 14, 1, 12]);
makespan = 1584;
----------
assign = array1d(1..15 ,[4, 4, 4, 4, 4, 4, 4, 4, 4, 4, 4, 1, 2, 3, 4]);
next = array1d(1..15 ,[3, 4, 2, 5, 6, 7, 8, 9, 10, 11, 15, 13, 14, 1, 12]);
makespan = 1570;
----------
assign = array1d(1..15 ,[4, 4, 4, 4, 4, 4, 2, 4, 4, 4, 4, 1, 2, 3, 4]);
next = array1d(1..15 ,[10, 9, 5, 1, 11, 2, 13, 4, 15, 3, 6, 7, 14, 8, 12]);
makespan = 1510;
----------
assign = array1d(1..15 ,[4, 4, 4, 4, 4, 4, 3, 4, 4, 4, 4, 1, 2, 3, 4]);
next = array1d(1..15 ,[15, 9, 5, 8, 10, 2, 14, 1, 3, 4, 6, 13, 7, 11, 12]);
makespan = 1509;
----------
assign = array1d(1..15 ,[4, 4, 1, 4, 4, 4, 4, 4, 4, 4, 4, 1, 2, 3, 4]);
next = array1d(1..15 ,[15, 4, 12, 7, 8, 9, 5, 11, 2, 6, 1, 13, 14, 10, 3]);
makespan = 1508;
----------
assign = array1d(1..15 ,[4, 4, 1, 4, 4, 4, 4, 4, 4, 4, 4, 1, 2, 3, 4]);
next = array1d(1..15 ,[11, 6, 12, 8, 1, 5, 15, 2, 4, 9, 7, 13, 14, 10, 3]);
makespan = 1507;
----------
assign = array1d(1..15 ,[4, 4, 4, 3, 4, 4, 4, 4, 4, 4, 4, 1, 2, 3, 4]);
next = array1d(1..15 ,[8, 9, 6, 14, 7, 2, 11, 10, 1, 5, 15, 13, 4, 3, 12]);
makespan = 1502;
----------
assign = array1d(1..15 ,[4, 4, 4, 3, 4, 4, 4, 4, 4, 4, 4, 1, 2, 3, 4]);
next = array1d(1..15 ,[2, 15, 6, 14, 1, 8, 5, 7, 10, 3, 9, 13, 4, 11, 12]);
makespan = 1500;
----------
assign = array1d(1..15 ,[4, 4, 4, 4, 3, 4, 4, 4, 4, 4, 4, 1, 2, 3, 4]);
next = array1d(1..15 ,[7, 4, 15, 10, 14, 2, 9, 11, 3, 8, 1, 13, 5, 6, 12]);
makespan = 1497;
----------
assign = array1d(1..15 ,[4, 4, 4, 4, 3, 4, 4, 4, 4, 4, 4, 1, 2, 3, 4]);
next = array1d(1..15 ,[6, 9, 10, 7, 14, 2, 3, 4, 8, 11, 15, 13, 5, 1, 12]);
makespan = 1489;
----------
assign = array1d(1..15 ,[4, 4, 4, 4, 3, 4, 4, 4, 4, 4, 4, 1, 2, 3, 4]);
next = array1d(1..15 ,[2, 9, 7, 15, 14, 10, 4, 3, 11, 1, 8, 13, 5, 6, 12]);
makespan = 1488;
----------
assign = array1d(1..15 ,[4, 4, 4, 4, 1, 4, 4, 4, 4, 4, 4, 1, 2, 3, 4]);
next = array1d(1..15 ,[6, 4, 1, 15, 12, 11, 8, 9, 2, 7, 10, 13, 14, 3, 5]);
makespan = 1486;
----------
assign = array1d(1..15 ,[4, 4, 4, 4, 1, 4, 4, 4, 4, 4, 4, 1, 2, 3, 4]);
next = array1d(1..15 ,[8, 1, 6, 10, 12, 15, 3, 4, 7, 9, 2, 13, 14, 11, 5]);
makespan = 1484;
----------
assign = array1d(1..15 ,[4, 4, 4, 4, 4, 1, 4, 4, 4, 4, 4, 1, 2, 3, 4]);
next = array1d(1..15 ,[15, 9, 10, 1, 7, 12, 11, 2, 4, 8, 3, 13, 14, 5, 6]);
makespan = 1482;
----------
assign = array1d(1..15 ,[4, 4, 4, 3, 4, 4, 4, 4, 4, 4, 4, 1, 2, 3, 4]);
next = array1d(1..15 ,[11, 9, 10, 14, 8, 2, 15, 1, 5, 7, 3, 13, 4, 6, 12]);
makespan = 1481;
----------
assign = array1d(1..15 ,[4, 4, 4, 4, 4, 4, 4, 4, 4, 1, 4, 1, 2, 3, 4]);
next = array1d(1..15 ,[2, 15, 6, 11, 9, 1, 4, 7, 8, 12, 3, 13, 14, 5, 10]);
makespan = 1480;
----------
assign = array1d(1..15 ,[4, 4, 4, 4, 1, 4, 4, 4, 4, 4, 4, 1, 2, 3, 4]);
next = array1d(1..15 ,[10, 8, 6, 1, 12, 7, 9, 15, 11, 2, 4, 13, 14, 3, 5]);
makespan = 1479;
----------
assign = array1d(1..15 ,[4, 4, 4, 4, 4, 1, 4, 4, 4, 4, 4, 1, 2, 3, 4]);
next = array1d(1..15 ,[3, 9, 7, 15, 8, 12, 5, 10, 1, 4, 2, 13, 14, 11, 6]);
makespan = 1478;
----------
assign = array1d(1..15 ,[4, 4, 4, 4, 4, 4, 4, 4, 4, 1, 4, 1, 2, 3, 4]);
next = array1d(1..15 ,[11, 6, 7, 15, 9, 4, 2, 5, 3, 12, 8, 13, 14, 1, 10]);
makespan = 1477;
----------
assign = array1d(1..15 ,[4, 4, 4, 4, 4, 1, 4, 4, 4, 4, 4, 1, 2, 3, 4]);
next = array1d(1..15 ,[8, 4, 1, 5, 7, 12, 10, 9, 2, 11, 15, 13, 14, 3, 6]);
makespan = 1476;
----------
assign = array1d(1..15 ,[4, 4, 4, 4, 4, 1, 4, 4, 4, 4, 4, 1, 2, 3, 4]);
next = array1d(1..15 ,[5, 11, 4, 10, 15, 12, 2, 9, 7, 8, 1, 13, 14, 3, 6]);
makespan = 1475;
----------
assign = array1d(1..15 ,[4, 4, 4, 4, 1, 4, 4, 4, 4, 4, 4, 1, 2, 3, 4]);
next = array1d(1..15 ,[7, 15, 10, 8, 12, 1, 9, 2, 4, 6, 3, 13, 14, 11, 5]);
makespan = 1474;
----------
assign = array1d(1..15 ,[4, 4, 1, 4, 4, 4, 4, 1, 4, 4, 4, 1, 2, 3, 4]);
next = array1d(1..15 ,[2, 4, 8, 10, 9, 1, 5, 12, 15, 11, 7, 13, 14, 6, 3]);
makespan = 1473;
----------
assign = array1d(1..15 ,[4, 4, 1, 1, 4, 4, 4, 4, 4, 4, 4, 1, 2, 3, 4]);
next = array1d(1..15 ,[2, 9, 4, 12, 8, 1, 5, 15, 10, 7, 6, 13, 14, 11, 3]);
makespan = 1472;
----------
assign = array1d(1..15 ,[4, 4, 2, 4, 4, 4, 4, 3, 4, 4, 4, 1, 2, 3, 4]);
next = array1d(1..15 ,[10, 4, 13, 15, 1, 11, 5, 14, 2, 9, 7, 3, 8, 6, 12]);
makespan = 1470;
----------
assign = array1d(1..15 ,[4, 4, 3, 4, 4, 3, 4, 4, 4, 4, 4, 1, 2, 3, 4]);
next = array1d(1..15 ,[11, 4, 6, 1, 10, 14, 5, 9, 2, 15, 7, 13, 3, 8, 12]);
makespan = 1468;
----------
assign = array1d(1..15 ,[4, 4, 3, 4, 4, 4, 4, 3, 4, 4, 4, 1, 2, 3, 4]);
next = array1d(1..15 ,[7, 4, 8, 10, 9, 1, 5, 14, 2, 15, 6, 13, 3, 11, 12]);
makespan = 1466;
----------
