+ /usr/bin/timeout 600 /usr/bin/time -v mzn-chuffed lbbd-datasets/planningandscheduling/cost-insts/model.mzn lbbd-datasets/planningandscheduling/cost-insts/c20j3m5.dzn
% No search annotation given. Defaulting to VSIDS!
obj = 728
----------
obj = 716
----------
obj = 713
----------
obj = 701
----------
obj = 688
----------
obj = 674
----------
obj = 666
----------
obj = 637
----------
obj = 620
----------
obj = 572
----------
obj = 568
----------
obj = 563
----------
obj = 562
----------
obj = 537
----------
obj = 513
----------
obj = 508
----------
obj = 483
----------
obj = 476
----------
obj = 465
----------
obj = 460
----------
obj = 459
----------
obj = 457
----------
obj = 443
----------
obj = 442
----------
obj = 431
----------
obj = 430
----------
obj = 427
----------
obj = 419
----------
obj = 408
----------
obj = 405
----------
==========
	Command being timed: "mzn-chuffed lbbd-datasets/planningandscheduling/cost-insts/model.mzn lbbd-datasets/planningandscheduling/cost-insts/c20j3m5.dzn"
	User time (seconds): 0.22
	System time (seconds): 0.00
	Percent of CPU this job got: 2%
	Elapsed (wall clock) time (h:mm:ss or m:ss): 0:09.43
	Average shared text size (kbytes): 0
	Average unshared data size (kbytes): 0
	Average stack size (kbytes): 0
	Average total size (kbytes): 0
	Maximum resident set size (kbytes): 28976
	Average resident set size (kbytes): 0
	Major (requiring I/O) page faults: 0
	Minor (reclaiming a frame) page faults: 2481
	Voluntary context switches: 36
	Involuntary context switches: 4
	Swaps: 0
	File system inputs: 0
	File system outputs: 96
	Socket messages sent: 0
	Socket messages received: 0
	Signals delivered: 0
	Page size (bytes): 4096
	Exit status: 0
