+ /usr/bin/timeout 600 /usr/bin/time -v mzn-chuffed lbbd-datasets/planningandscheduling/cost-insts/model.mzn lbbd-datasets/planningandscheduling/cost-insts/de26j3m2.dzn
% No search annotation given. Defaulting to VSIDS!
obj = 980
----------
obj = 979
----------
obj = 967
----------
obj = 966
----------
obj = 963
----------
obj = 957
----------
obj = 917
----------
obj = 905
----------
obj = 898
----------
obj = 886
----------
obj = 875
----------
obj = 858
----------
obj = 855
----------
obj = 842
----------
obj = 839
----------
obj = 831
----------
obj = 823
----------
obj = 807
----------
obj = 791
----------
obj = 787
----------
obj = 769
----------
obj = 752
----------
obj = 728
----------
obj = 726
----------
obj = 712
----------
obj = 705
----------
obj = 691
----------
obj = 678
----------
obj = 675
----------
obj = 668
----------
obj = 654
----------
obj = 647
----------
obj = 646
----------
obj = 634
----------
obj = 632
----------
obj = 619
----------
obj = 614
----------
obj = 602
----------
obj = 597
----------
obj = 594
----------
obj = 588
----------
obj = 583
----------
obj = 581
----------
obj = 580
----------
obj = 578
----------
obj = 575
----------
obj = 572
----------
==========
	Command being timed: "mzn-chuffed lbbd-datasets/planningandscheduling/cost-insts/model.mzn lbbd-datasets/planningandscheduling/cost-insts/de26j3m2.dzn"
	User time (seconds): 0.25
	System time (seconds): 0.01
	Percent of CPU this job got: 0%
	Elapsed (wall clock) time (h:mm:ss or m:ss): 2:09.17
	Average shared text size (kbytes): 0
	Average unshared data size (kbytes): 0
	Average stack size (kbytes): 0
	Average total size (kbytes): 0
	Maximum resident set size (kbytes): 29744
	Average resident set size (kbytes): 0
	Major (requiring I/O) page faults: 0
	Minor (reclaiming a frame) page faults: 2568
	Voluntary context switches: 53
	Involuntary context switches: 2
	Swaps: 0
	File system inputs: 0
	File system outputs: 152
	Socket messages sent: 0
	Socket messages received: 0
	Signals delivered: 0
	Page size (bytes): 4096
	Exit status: 0
