+ /usr/bin/timeout 600 /usr/bin/time -v mzn-chuffed lbbd-datasets/Rabadi-2006/dzn-s-dominant/model.mzn lbbd-datasets/Rabadi-2006/dzn-s-dominant/10on2Rp50Rs50_15Ameer.dzn
% No search annotation given. Defaulting to VSIDS!
assign = array1d(1..12 ,[2, 2, 2, 2, 2, 2, 2, 2, 2, 2, 1, 2]);
next = array1d(1..12 ,[2, 3, 4, 5, 6, 7, 8, 9, 10, 12, 1, 11]);
makespan = 2044;
----------
assign = array1d(1..12 ,[2, 2, 2, 2, 2, 2, 2, 2, 2, 2, 1, 2]);
next = array1d(1..12 ,[3, 4, 2, 5, 6, 7, 8, 9, 10, 12, 1, 11]);
makespan = 2007;
----------
assign = array1d(1..12 ,[2, 2, 2, 1, 2, 2, 2, 2, 2, 2, 1, 2]);
next = array1d(1..12 ,[2, 10, 5, 11, 1, 3, 12, 7, 6, 8, 9, 4]);
makespan = 1991;
----------
assign = array1d(1..12 ,[2, 2, 2, 1, 2, 2, 2, 2, 2, 2, 1, 2]);
next = array1d(1..12 ,[5, 8, 1, 11, 10, 3, 2, 12, 7, 9, 6, 4]);
makespan = 1989;
----------
assign = array1d(1..12 ,[2, 2, 2, 1, 2, 2, 2, 2, 2, 2, 1, 2]);
next = array1d(1..12 ,[9, 8, 10, 11, 1, 2, 3, 7, 6, 12, 5, 4]);
makespan = 1985;
----------
assign = array1d(1..12 ,[2, 2, 2, 2, 1, 2, 2, 2, 2, 2, 1, 2]);
next = array1d(1..12 ,[9, 1, 4, 7, 11, 3, 2, 12, 10, 8, 6, 5]);
makespan = 1982;
----------
assign = array1d(1..12 ,[2, 2, 2, 1, 2, 2, 2, 2, 2, 2, 1, 2]);
next = array1d(1..12 ,[12, 8, 7, 11, 1, 10, 2, 5, 3, 9, 6, 4]);
makespan = 1975;
----------
assign = array1d(1..12 ,[2, 2, 2, 2, 1, 2, 2, 2, 2, 2, 1, 2]);
next = array1d(1..12 ,[9, 10, 1, 12, 11, 2, 4, 7, 6, 8, 3, 5]);
makespan = 1974;
----------
assign = array1d(1..12 ,[2, 2, 2, 2, 2, 2, 2, 2, 2, 1, 1, 2]);
next = array1d(1..12 ,[9, 4, 7, 8, 1, 3, 2, 12, 6, 11, 5, 10]);
makespan = 1973;
----------
assign = array1d(1..12 ,[2, 2, 2, 1, 2, 2, 2, 2, 2, 2, 1, 2]);
next = array1d(1..12 ,[5, 10, 1, 11, 6, 12, 2, 7, 3, 9, 8, 4]);
makespan = 1966;
----------
assign = array1d(1..12 ,[2, 2, 2, 1, 2, 2, 2, 2, 2, 2, 1, 2]);
next = array1d(1..12 ,[9, 8, 5, 11, 1, 2, 3, 7, 10, 12, 6, 4]);
makespan = 1964;
----------
assign = array1d(1..12 ,[2, 2, 2, 1, 2, 2, 2, 2, 2, 2, 1, 2]);
next = array1d(1..12 ,[9, 10, 1, 11, 12, 3, 5, 7, 2, 8, 6, 4]);
makespan = 1963;
----------
assign = array1d(1..12 ,[2, 2, 2, 1, 2, 2, 2, 2, 2, 2, 1, 2]);
next = array1d(1..12 ,[9, 12, 5, 11, 1, 10, 2, 7, 6, 8, 3, 4]);
makespan = 1962;
----------
assign = array1d(1..12 ,[2, 2, 2, 2, 2, 2, 2, 2, 1, 2, 1, 2]);
next = array1d(1..12 ,[5, 10, 4, 7, 2, 3, 1, 12, 11, 8, 6, 9]);
makespan = 1958;
----------
assign = array1d(1..12 ,[2, 2, 2, 1, 2, 2, 2, 2, 2, 2, 1, 2]);
next = array1d(1..12 ,[7, 10, 5, 11, 1, 8, 2, 12, 6, 9, 3, 4]);
makespan = 1957;
----------
