+ /usr/bin/timeout 600 /usr/bin/time -v mzn-chuffed lbbd-datasets/Rabadi-2006/dzn-s-dominant/model.mzn lbbd-datasets/Rabadi-2006/dzn-s-dominant/11on8Rp50Rs50_14Ameer.dzn
% No search annotation given. Defaulting to VSIDS!
assign = array1d(1..19 ,[8, 8, 8, 8, 8, 8, 8, 8, 8, 8, 8, 1, 2, 3, 4, 5, 6, 7, 8]);
next = array1d(1..19 ,[2, 3, 4, 5, 6, 7, 8, 9, 10, 11, 19, 13, 14, 15, 16, 17, 18, 1, 12]);
makespan = 2426;
----------
assign = array1d(1..19 ,[8, 8, 8, 8, 8, 8, 8, 8, 8, 8, 8, 1, 2, 3, 4, 5, 6, 7, 8]);
next = array1d(1..19 ,[3, 4, 2, 5, 6, 7, 8, 9, 10, 11, 19, 13, 14, 15, 16, 17, 18, 1, 12]);
makespan = 2349;
----------
