+ /usr/bin/timeout 600 /usr/bin/time -v mzn-chuffed lbbd-datasets/planningandscheduling/cost-insts/model.mzn lbbd-datasets/planningandscheduling/cost-insts/de14j3m1.dzn
% No search annotation given. Defaulting to VSIDS!
obj = 482
----------
obj = 478
----------
obj = 471
----------
obj = 463
----------
obj = 456
----------
obj = 450
----------
obj = 446
----------
obj = 439
----------
obj = 438
----------
obj = 427
----------
obj = 414
----------
obj = 399
----------
obj = 398
----------
obj = 383
----------
obj = 378
----------
obj = 377
----------
obj = 371
----------
obj = 362
----------
==========
	Command being timed: "mzn-chuffed lbbd-datasets/planningandscheduling/cost-insts/model.mzn lbbd-datasets/planningandscheduling/cost-insts/de14j3m1.dzn"
	User time (seconds): 0.11
	System time (seconds): 0.00
	Percent of CPU this job got: 88%
	Elapsed (wall clock) time (h:mm:ss or m:ss): 0:00.13
	Average shared text size (kbytes): 0
	Average unshared data size (kbytes): 0
	Average stack size (kbytes): 0
	Average total size (kbytes): 0
	Maximum resident set size (kbytes): 28176
	Average resident set size (kbytes): 0
	Major (requiring I/O) page faults: 0
	Minor (reclaiming a frame) page faults: 2389
	Voluntary context switches: 24
	Involuntary context switches: 2
	Swaps: 0
	File system inputs: 0
	File system outputs: 64
	Socket messages sent: 0
	Socket messages received: 0
	Signals delivered: 0
	Page size (bytes): 4096
	Exit status: 0
