+ /usr/bin/timeout 600 /usr/bin/time -v mzn-chuffed lbbd-datasets/sscplp/trucks-dzn/model.mzn lbbd-datasets/sscplp/trucks-dzn/p07-l50-c150-correlated.dzn
% No search annotation given. Defaulting to VSIDS!
source = [15, 15, 15, 3, 5, 7, 14, 14, 14, 14, 14, 14, 14, 14, 14, 3, 3, 2, 14, 3, 3, 3, 3, 7, 3, 15, 7, 2, 3, 15]
open = [false, true, true, false, true, false, true, false, false, false, false, false, false, true, true]
trucks_used = [0, 2, 9, 0, 1, 0, 3, 0, 0, 0, 0, 0, 0, 10, 5]
truck_assigned = [1, 2, 3, 6, 1, 3, 9, 7, 10, 4, 2, 8, 10, 6, 5, 9, 8, 2, 6, 7, 2, 4, 7, 2, 5, 5, 1, 1, 9, 4]
obj = 9512
----------
source = [15, 15, 15, 14, 3, 7, 14, 14, 7, 14, 14, 14, 14, 14, 14, 3, 3, 7, 15, 7, 3, 3, 3, 7, 3, 15, 3, 14, 14, 3]
open = [false, false, true, false, false, false, true, false, false, false, false, false, false, true, true]
trucks_used = [0, 0, 9, 0, 0, 0, 5, 0, 0, 0, 0, 0, 0, 11, 5]
truck_assigned = [3, 1, 4, 9, 9, 3, 11, 9, 4, 4, 6, 10, 3, 8, 5, 8, 3, 4, 5, 5, 9, 7, 5, 5, 6, 2, 4, 6, 7, 8]
obj = 9049
----------
source = [7, 14, 14, 14, 7, 14, 3, 3, 7, 7, 7, 14, 14, 3, 3, 7, 3, 14, 3, 14, 7, 7, 7, 15, 7, 14, 3, 14, 3, 3]
open = [false, false, true, false, false, false, true, false, false, false, false, false, false, true, true]
trucks_used = [0, 0, 9, 0, 0, 0, 10, 0, 0, 0, 0, 0, 0, 10, 1]
truck_assigned = [8, 1, 7, 10, 8, 9, 8, 3, 9, 10, 5, 6, 10, 6, 4, 9, 5, 8, 9, 4, 10, 6, 7, 1, 2, 8, 7, 7, 4, 8]
obj = 8820
----------
source = [7, 3, 14, 3, 7, 14, 3, 2, 7, 7, 14, 3, 7, 3, 7, 7, 14, 14, 7, 14, 7, 7, 7, 14, 3, 3, 3, 14, 3, 14]
open = [false, true, true, false, false, false, true, false, false, false, false, false, false, true, false]
trucks_used = [0, 1, 9, 0, 0, 0, 11, 0, 0, 0, 0, 0, 0, 9, 0]
truck_assigned = [9, 1, 7, 6, 10, 4, 7, 1, 10, 11, 2, 9, 7, 4, 5, 9, 9, 8, 8, 5, 11, 6, 4, 6, 8, 7, 5, 7, 6, 9]
obj = 8730
----------
source = [7, 3, 7, 3, 14, 7, 3, 7, 14, 14, 7, 3, 7, 3, 7, 14, 7, 2, 14, 14, 14, 7, 14, 14, 3, 3, 3, 3, 3, 7]
open = [false, true, true, false, false, false, true, false, false, false, false, false, false, true, false]
trucks_used = [0, 1, 10, 0, 0, 0, 10, 0, 0, 0, 0, 0, 0, 9, 0]
truck_assigned = [4, 8, 1, 6, 9, 10, 8, 5, 8, 9, 7, 10, 8, 4, 7, 7, 9, 1, 8, 6, 1, 6, 5, 4, 9, 7, 5, 3, 7, 9]
obj = 8720
----------
source = [7, 7, 7, 3, 14, 3, 7, 7, 14, 14, 7, 14, 7, 3, 14, 14, 14, 2, 14, 3, 3, 7, 14, 7, 7, 14, 3, 3, 3, 7]
open = [false, true, true, false, false, false, true, false, false, false, false, false, false, true, false]
trucks_used = [0, 1, 8, 0, 0, 0, 11, 0, 0, 0, 0, 0, 0, 10, 0]
truck_assigned = [6, 3, 10, 8, 1, 4, 4, 11, 1, 8, 8, 9, 9, 5, 10, 7, 8, 1, 7, 7, 3, 7, 6, 8, 5, 9, 7, 6, 8, 11]
obj = 8699
----------
source = [7, 7, 3, 3, 14, 3, 7, 7, 2, 14, 3, 14, 3, 14, 14, 14, 14, 7, 14, 14, 3, 3, 3, 7, 7, 7, 7, 14, 3, 14]
open = [false, true, true, false, false, false, true, false, false, false, false, false, false, true, false]
trucks_used = [0, 1, 9, 0, 0, 0, 9, 0, 0, 0, 0, 0, 0, 11, 0]
truck_assigned = [7, 8, 6, 9, 10, 5, 6, 5, 1, 7, 6, 10, 4, 9, 11, 6, 9, 8, 7, 5, 8, 7, 4, 9, 9, 4, 3, 8, 9, 8]
obj = 8559
----------
source = [14, 7, 3, 14, 14, 3, 2, 7, 7, 3, 3, 7, 3, 14, 3, 14, 14, 7, 14, 14, 14, 7, 3, 3, 7, 7, 7, 14, 7, 14]
open = [false, true, true, false, false, false, true, false, false, false, false, false, false, true, false]
trucks_used = [0, 1, 8, 0, 0, 0, 10, 0, 0, 0, 0, 0, 0, 11, 0]
truck_assigned = [6, 8, 8, 6, 5, 6, 1, 10, 9, 4, 8, 4, 7, 10, 2, 8, 8, 10, 10, 9, 9, 3, 7, 5, 7, 5, 6, 11, 1, 11]
obj = 8540
----------
source = [14, 7, 14, 7, 12, 5, 7, 15, 7, 14, 14, 7, 14, 14, 7, 15, 15, 7, 14, 2, 15, 7, 12, 14, 7, 7, 7, 14, 14, 14]
open = [false, true, false, false, true, false, true, false, false, false, false, true, false, true, true]
trucks_used = [0, 1, 0, 0, 1, 0, 11, 0, 0, 0, 0, 2, 0, 11, 3]
truck_assigned = [7, 9, 10, 3, 2, 1, 5, 3, 11, 10, 7, 10, 5, 11, 10, 2, 1, 11, 11, 1, 1, 4, 2, 8, 8, 6, 7, 2, 9, 6]
obj = 8536
----------
source = [14, 7, 15, 7, 11, 15, 14, 11, 7, 15, 14, 7, 7, 14, 14, 7, 7, 14, 14, 14, 14, 7, 11, 15, 7, 7, 7, 14, 14, 11]
open = [false, false, false, false, false, false, true, false, false, false, true, false, false, true, true]
trucks_used = [0, 0, 0, 0, 0, 0, 11, 0, 0, 0, 3, 0, 0, 11, 4]
truck_assigned = [9, 6, 2, 7, 1, 4, 10, 2, 11, 1, 9, 4, 8, 7, 5, 11, 3, 3, 7, 8, 10, 10, 3, 3, 5, 2, 9, 4, 11, 3]
obj = 8526
----------
source = [7, 7, 14, 7, 7, 2, 7, 6, 6, 14, 14, 7, 7, 14, 14, 14, 7, 6, 14, 6, 6, 7, 14, 6, 7, 7, 7, 14, 14, 14]
open = [false, true, false, false, false, true, true, false, false, false, false, false, false, true, false]
trucks_used = [0, 1, 0, 0, 0, 5, 12, 0, 0, 0, 0, 0, 0, 11, 0]
truck_assigned = [4, 9, 8, 10, 12, 1, 6, 5, 4, 8, 3, 8, 2, 5, 9, 10, 12, 3, 10, 2, 1, 3, 11, 4, 7, 11, 5, 7, 6, 7]
obj = 8480
----------
source = [7, 7, 14, 7, 7, 6, 7, 6, 6, 14, 14, 7, 7, 14, 14, 14, 7, 6, 14, 6, 6, 7, 14, 6, 7, 7, 7, 14, 14, 14]
open = [false, false, false, false, false, true, true, false, false, false, false, false, false, true, false]
trucks_used = [0, 0, 0, 0, 0, 7, 12, 0, 0, 0, 0, 0, 0, 11, 0]
truck_assigned = [8, 5, 9, 4, 11, 7, 1, 7, 5, 8, 4, 7, 6, 11, 7, 6, 11, 4, 11, 3, 6, 12, 5, 6, 3, 9, 10, 8, 10, 9]
obj = 8406
----------
source = [7, 7, 14, 7, 7, 6, 7, 7, 7, 6, 7, 7, 7, 6, 14, 14, 6, 14, 14, 14, 6, 7, 14, 6, 14, 6, 6, 14, 14, 14]
open = [false, false, false, false, false, true, true, false, false, false, false, false, false, true, false]
trucks_used = [0, 0, 0, 0, 0, 8, 11, 0, 0, 0, 0, 0, 0, 11, 0]
truck_assigned = [11, 10, 10, 3, 11, 8, 5, 4, 6, 7, 2, 9, 8, 6, 8, 7, 4, 4, 9, 11, 5, 7, 6, 8, 11, 8, 5, 10, 5, 9]
obj = 8384
----------
source = [14, 14, 14, 7, 14, 14, 7, 7, 7, 6, 6, 14, 14, 6, 6, 6, 6, 14, 7, 7, 6, 7, 6, 14, 6, 7, 12, 6, 14, 7]
open = [false, false, false, false, false, true, true, false, false, false, false, true, false, true, false]
trucks_used = [0, 0, 0, 0, 0, 10, 8, 0, 0, 0, 0, 1, 0, 7, 0]
truck_assigned = [3, 2, 2, 3, 5, 4, 6, 5, 7, 8, 4, 5, 3, 10, 5, 6, 9, 7, 2, 1, 7, 8, 7, 1, 1, 4, 1, 5, 6, 6]
obj = 8296
----------
source = [14, 14, 14, 6, 15, 14, 15, 7, 15, 6, 7, 14, 14, 6, 6, 7, 6, 14, 15, 14, 7, 15, 6, 14, 6, 6, 6, 6, 14, 7]
open = [false, false, false, false, false, true, true, false, false, false, false, false, false, true, true]
trucks_used = [0, 0, 0, 0, 0, 10, 3, 0, 0, 0, 0, 0, 0, 10, 4]
truck_assigned = [4, 8, 8, 5, 1, 6, 3, 3, 3, 9, 2, 7, 4, 8, 7, 3, 10, 10, 4, 3, 1, 2, 5, 5, 6, 4, 6, 7, 9, 2]
obj = 8294
----------
source = [14, 11, 14, 6, 15, 14, 15, 14, 6, 11, 11, 15, 11, 14, 6, 15, 14, 11, 15, 14, 6, 15, 6, 14, 6, 6, 6, 6, 11, 14]
open = [false, false, false, false, false, true, false, false, false, false, true, false, false, true, true]
trucks_used = [0, 0, 0, 0, 0, 9, 0, 0, 0, 0, 6, 0, 0, 9, 5]
truck_assigned = [5, 2, 6, 6, 2, 7, 4, 5, 5, 4, 5, 4, 6, 4, 9, 3, 4, 3, 5, 8, 8, 1, 8, 9, 7, 6, 7, 9, 5, 6]
obj = 8263
----------
source = [11, 11, 14, 6, 14, 14, 11, 6, 15, 11, 11, 5, 11, 5, 6, 6, 14, 14, 14, 6, 14, 11, 6, 15, 6, 14, 6, 15, 6, 6]
open = [false, false, false, false, true, true, false, false, false, false, true, false, false, true, true]
trucks_used = [0, 0, 0, 0, 2, 10, 0, 0, 0, 0, 7, 0, 0, 7, 3]
truck_assigned = [7, 5, 7, 7, 5, 5, 3, 8, 2, 4, 7, 2, 6, 1, 4, 10, 7, 6, 4, 9, 7, 2, 7, 3, 6, 6, 9, 3, 3, 6]
obj = 8259
----------
source = [12, 6, 14, 6, 14, 2, 11, 6, 11, 11, 6, 5, 14, 6, 6, 6, 5, 12, 14, 6, 14, 6, 14, 14, 6, 11, 14, 14, 6, 14]
open = [false, true, false, false, true, true, false, false, false, false, true, true, false, true, false]
trucks_used = [0, 1, 0, 0, 2, 11, 0, 0, 0, 0, 4, 1, 0, 8, 0]
truck_assigned = [1, 4, 8, 5, 8, 1, 2, 6, 3, 1, 7, 2, 4, 8, 3, 11, 1, 1, 6, 10, 8, 1, 3, 5, 2, 4, 7, 4, 9, 6]
obj = 8231
----------
source = [6, 6, 14, 6, 14, 15, 11, 6, 15, 11, 6, 14, 14, 6, 6, 6, 14, 11, 6, 14, 14, 6, 14, 11, 6, 15, 14, 14, 6, 11]
open = [false, false, false, false, false, true, false, false, false, false, true, false, false, true, true]
trucks_used = [0, 0, 0, 0, 0, 12, 0, 0, 0, 0, 5, 0, 0, 10, 2]
truck_assigned = [9, 6, 5, 10, 10, 1, 3, 11, 2, 4, 12, 10, 7, 4, 7, 1, 9, 5, 5, 6, 6, 8, 8, 2, 9, 2, 9, 7, 3, 5]
obj = 8228
----------
source = [14, 14, 6, 14, 14, 6, 11, 6, 15, 11, 6, 14, 14, 6, 6, 11, 14, 12, 14, 15, 14, 11, 14, 11, 6, 6, 14, 6, 14, 15]
open = [false, false, false, false, false, true, false, false, false, false, true, true, false, true, true]
trucks_used = [0, 0, 0, 0, 0, 9, 0, 0, 0, 0, 4, 1, 0, 12, 2]
truck_assigned = [10, 6, 8, 8, 10, 5, 4, 5, 2, 1, 4, 12, 8, 6, 9, 3, 11, 1, 5, 2, 12, 3, 9, 2, 7, 7, 11, 9, 7, 1]
obj = 8227
----------
source = [14, 14, 6, 6, 14, 6, 15, 6, 15, 14, 14, 6, 14, 6, 12, 14, 14, 11, 6, 12, 14, 14, 15, 11, 6, 6, 15, 6, 11, 14]
open = [false, false, false, false, false, true, false, false, false, false, true, true, false, true, true]
trucks_used = [0, 0, 0, 0, 0, 10, 0, 0, 0, 0, 2, 2, 0, 11, 3]
truck_assigned = [11, 8, 9, 3, 9, 7, 1, 4, 2, 10, 8, 7, 11, 8, 1, 9, 10, 2, 6, 2, 9, 7, 2, 1, 5, 10, 3, 10, 2, 6]
obj = 8208
----------
source = [14, 14, 6, 14, 14, 11, 15, 6, 11, 14, 14, 6, 6, 6, 14, 14, 14, 15, 6, 15, 14, 14, 11, 15, 6, 6, 11, 6, 14, 6]
open = [false, false, false, false, false, true, false, false, false, false, true, false, false, true, true]
trucks_used = [0, 0, 0, 0, 0, 10, 0, 0, 0, 0, 3, 0, 0, 12, 4]
truck_assigned = [1, 9, 5, 9, 10, 1, 4, 7, 2, 11, 6, 10, 4, 9, 5, 10, 11, 3, 8, 2, 10, 12, 3, 1, 6, 10, 3, 4, 8, 6]
obj = 8194
----------
source = [14, 14, 6, 14, 14, 11, 11, 6, 15, 14, 14, 6, 6, 6, 14, 14, 14, 15, 6, 2, 14, 14, 11, 15, 6, 6, 11, 6, 14, 6]
open = [false, true, false, false, false, true, false, false, false, false, true, false, false, true, true]
trucks_used = [0, 1, 0, 0, 0, 10, 0, 0, 0, 0, 3, 0, 0, 12, 2]
truck_assigned = [10, 12, 8, 11, 8, 1, 2, 5, 2, 11, 10, 2, 7, 6, 6, 12, 8, 1, 10, 1, 8, 7, 3, 2, 9, 4, 3, 7, 9, 9]
obj = 8190
----------
source = [14, 6, 6, 14, 15, 11, 6, 6, 15, 14, 14, 6, 6, 6, 14, 11, 15, 14, 14, 15, 11, 6, 14, 14, 6, 11, 14, 6, 14, 6]
open = [false, false, false, false, false, true, false, false, false, false, true, false, false, true, true]
trucks_used = [0, 0, 0, 0, 0, 11, 0, 0, 0, 0, 3, 0, 0, 11, 3]
truck_assigned = [9, 8, 9, 6, 3, 2, 3, 6, 2, 6, 9, 5, 11, 4, 3, 2, 3, 11, 4, 2, 1, 7, 5, 10, 10, 3, 8, 10, 7, 11]
obj = 8093
----------
source = [11, 6, 14, 14, 11, 6, 15, 6, 5, 14, 14, 6, 6, 6, 14, 11, 15, 14, 11, 15, 11, 6, 14, 6, 15, 11, 14, 15, 14, 14]
open = [false, false, false, false, true, true, false, false, false, false, true, false, false, true, true]
trucks_used = [0, 0, 0, 0, 1, 8, 0, 0, 0, 0, 6, 0, 0, 9, 3]
truck_assigned = [6, 5, 5, 6, 3, 7, 2, 7, 1, 5, 6, 3, 6, 4, 4, 4, 3, 8, 4, 3, 5, 8, 2, 6, 1, 6, 7, 2, 9, 3]
obj = 8067
----------
source = [6, 6, 14, 14, 9, 9, 15, 6, 9, 14, 14, 6, 6, 6, 14, 6, 15, 14, 6, 15, 6, 6, 14, 6, 15, 9, 14, 15, 14, 14]
open = [false, false, false, false, false, true, false, false, true, false, false, false, false, true, true]
trucks_used = [0, 0, 0, 0, 0, 10, 0, 0, 2, 0, 0, 0, 0, 10, 5]
truck_assigned = [4, 6, 8, 7, 1, 2, 5, 2, 2, 3, 8, 7, 10, 5, 4, 8, 4, 9, 1, 4, 3, 9, 6, 10, 3, 1, 10, 5, 5, 7]
obj = 8013
----------
source = [6, 6, 14, 14, 12, 9, 14, 6, 9, 9, 2, 6, 6, 6, 14, 6, 14, 14, 6, 14, 6, 6, 14, 6, 14, 9, 12, 14, 14, 2]
open = [false, true, false, false, false, true, false, false, true, false, false, true, false, true, false]
trucks_used = [0, 1, 0, 0, 0, 11, 0, 0, 3, 0, 0, 2, 0, 9, 0]
truck_assigned = [11, 7, 9, 4, 2, 3, 7, 3, 3, 2, 1, 8, 11, 6, 1, 9, 4, 8, 4, 5, 5, 10, 6, 9, 7, 2, 1, 9, 3, 1]
obj = 7960
----------
source = [9, 14, 14, 14, 12, 9, 14, 10, 9, 10, 13, 12, 14, 13, 10, 10, 11, 14, 10, 14, 13, 9, 14, 10, 14, 9, 11, 14, 14, 10]
open = [false, false, false, false, false, false, false, false, true, true, true, true, true, true, false]
trucks_used = [0, 0, 0, 0, 0, 0, 0, 0, 4, 4, 1, 1, 2, 8, 0]
truck_assigned = [2, 5, 2, 7, 1, 4, 8, 4, 3, 2, 1, 1, 7, 2, 1, 2, 1, 4, 3, 3, 2, 3, 1, 4, 8, 4, 1, 5, 6, 3]
obj = 7956
----------
source = [14, 14, 14, 14, 7, 11, 10, 10, 7, 15, 15, 14, 14, 11, 11, 10, 11, 14, 10, 14, 7, 14, 14, 10, 7, 15, 10, 14, 14, 10]
open = [false, false, false, false, false, false, true, false, false, true, true, false, false, true, true]
trucks_used = [0, 0, 0, 0, 0, 0, 2, 0, 0, 4, 2, 0, 0, 12, 2]
truck_assigned = [1, 11, 8, 10, 1, 2, 2, 3, 1, 2, 1, 5, 10, 1, 1, 2, 2, 6, 4, 7, 2, 4, 12, 4, 2, 1, 1, 11, 9, 4]
obj = 7878
----------
source = [13, 14, 14, 11, 15, 14, 10, 10, 15, 13, 13, 14, 14, 11, 11, 10, 13, 14, 10, 14, 15, 14, 14, 10, 15, 13, 11, 11, 14, 11]
open = [false, false, false, false, false, false, false, false, false, true, true, false, true, true, true]
trucks_used = [0, 0, 0, 0, 0, 0, 0, 0, 0, 3, 4, 0, 3, 9, 3]
truck_assigned = [1, 3, 9, 4, 1, 6, 3, 2, 3, 3, 2, 5, 9, 2, 3, 1, 1, 7, 3, 8, 2, 1, 2, 2, 3, 3, 4, 3, 4, 3]
obj = 7863
----------
source = [14, 14, 14, 11, 15, 10, 10, 13, 15, 13, 13, 14, 14, 11, 11, 10, 15, 14, 14, 14, 15, 14, 14, 10, 14, 13, 11, 11, 14, 11]
open = [false, false, false, false, false, false, false, false, false, true, true, false, true, true, true]
trucks_used = [0, 0, 0, 0, 0, 0, 0, 0, 0, 2, 5, 0, 3, 9, 3]
truck_assigned = [2, 6, 1, 5, 2, 1, 2, 1, 2, 3, 2, 8, 6, 3, 4, 2, 3, 3, 2, 4, 3, 7, 9, 1, 8, 3, 5, 4, 5, 4]
obj = 7848
----------
source = [14, 14, 14, 14, 7, 8, 8, 8, 7, 8, 8, 14, 14, 7, 14, 7, 7, 14, 14, 14, 7, 14, 7, 7, 14, 8, 8, 8, 14, 7]
open = [false, false, false, false, false, false, true, true, false, false, false, false, false, true, false]
trucks_used = [0, 0, 0, 0, 0, 0, 7, 5, 0, 0, 0, 0, 0, 13, 0]
truck_assigned = [9, 7, 9, 6, 6, 2, 3, 1, 4, 4, 5, 13, 7, 7, 8, 6, 5, 12, 4, 10, 7, 11, 3, 6, 13, 4, 5, 3, 1, 5]
obj = 7819
----------
source = [11, 7, 14, 11, 7, 8, 7, 8, 14, 8, 8, 8, 12, 7, 14, 7, 14, 7, 8, 7, 7, 14, 11, 7, 14, 8, 8, 14, 11, 11]
open = [false, false, false, false, false, false, true, true, false, false, true, true, false, true, false]
trucks_used = [0, 0, 0, 0, 0, 0, 8, 7, 0, 0, 2, 1, 0, 4, 0]
truck_assigned = [1, 5, 3, 2, 8, 4, 8, 5, 3, 3, 7, 4, 1, 6, 1, 5, 4, 4, 7, 7, 7, 2, 1, 6, 4, 6, 6, 4, 2, 2]
obj = 7817
----------
source = [7, 7, 14, 14, 7, 8, 7, 8, 8, 8, 8, 8, 14, 7, 14, 7, 14, 7, 14, 7, 7, 14, 8, 7, 14, 2, 8, 14, 14, 14]
open = [false, true, false, false, false, false, true, true, false, false, false, false, false, true, false]
trucks_used = [0, 1, 0, 0, 0, 0, 10, 6, 0, 0, 0, 0, 0, 8, 0]
truck_assigned = [3, 8, 8, 4, 9, 3, 9, 6, 5, 5, 4, 3, 6, 7, 7, 7, 8, 6, 6, 10, 10, 5, 2, 8, 8, 1, 4, 4, 2, 3]
obj = 7802
----------
source = [14, 14, 14, 14, 11, 15, 7, 7, 15, 7, 7, 12, 14, 11, 14, 15, 14, 7, 14, 7, 12, 14, 11, 11, 14, 7, 7, 14, 14, 14]
open = [false, false, false, false, false, false, true, false, false, false, true, true, false, true, true]
trucks_used = [0, 0, 0, 0, 0, 0, 8, 0, 0, 0, 3, 2, 0, 9, 2]
truck_assigned = [4, 2, 9, 9, 2, 1, 2, 3, 1, 6, 8, 2, 7, 1, 8, 2, 2, 8, 7, 7, 2, 6, 3, 3, 4, 4, 5, 5, 3, 5]
obj = 7798
----------
source = [14, 14, 14, 14, 11, 14, 7, 7, 15, 7, 7, 11, 14, 11, 11, 15, 14, 7, 14, 5, 7, 15, 11, 7, 14, 15, 11, 14, 14, 14]
open = [false, false, false, false, true, false, true, false, false, false, true, false, false, true, true]
trucks_used = [0, 0, 0, 0, 1, 0, 4, 0, 0, 0, 6, 0, 0, 11, 3]
truck_assigned = [9, 11, 10, 11, 5, 7, 4, 2, 1, 1, 3, 3, 10, 6, 6, 3, 9, 4, 8, 1, 3, 2, 4, 1, 7, 1, 4, 6, 5, 8]
obj = 7761
----------
source = [14, 14, 14, 14, 6, 14, 6, 6, 15, 6, 11, 11, 14, 15, 14, 11, 14, 11, 14, 6, 6, 15, 6, 6, 14, 15, 11, 14, 11, 14]
open = [false, false, false, false, false, true, false, false, false, false, true, false, false, true, true]
trucks_used = [0, 0, 0, 0, 0, 6, 0, 0, 0, 0, 5, 0, 0, 12, 4]
truck_assigned = [10, 11, 6, 11, 2, 8, 4, 5, 4, 6, 2, 5, 12, 2, 7, 3, 12, 4, 10, 1, 3, 3, 3, 2, 12, 4, 3, 9, 4, 9]
obj = 7756
----------
source = [11, 14, 14, 6, 14, 6, 6, 6, 6, 6, 11, 5, 14, 15, 14, 11, 14, 11, 14, 2, 6, 15, 15, 6, 2, 15, 11, 14, 11, 5]
open = [false, true, false, false, true, true, false, false, false, false, true, false, false, true, true]
trucks_used = [0, 2, 0, 0, 2, 7, 0, 0, 0, 0, 6, 0, 0, 4, 4]
truck_assigned = [4, 3, 4, 4, 3, 7, 5, 7, 2, 6, 6, 2, 4, 1, 1, 6, 3, 5, 2, 2, 3, 3, 4, 4, 2, 2, 4, 2, 5, 1]
obj = 7748
----------
source = [11, 14, 14, 6, 14, 6, 6, 6, 6, 6, 5, 5, 14, 11, 14, 11, 14, 11, 14, 6, 2, 15, 15, 6, 2, 15, 11, 14, 11, 15]
open = [false, true, false, false, true, true, false, false, false, false, true, false, false, true, true]
trucks_used = [0, 2, 0, 0, 2, 7, 0, 0, 0, 0, 6, 0, 0, 4, 4]
truck_assigned = [6, 3, 4, 5, 3, 7, 2, 4, 6, 3, 2, 2, 4, 3, 1, 6, 3, 5, 2, 7, 2, 4, 2, 6, 1, 3, 4, 2, 5, 1]
obj = 7739
----------
source = [11, 14, 5, 6, 2, 6, 6, 6, 6, 6, 14, 2, 14, 14, 14, 11, 14, 11, 14, 6, 14, 15, 11, 6, 5, 15, 11, 15, 11, 15]
open = [false, true, false, false, true, true, false, false, false, false, true, false, false, true, true]
trucks_used = [0, 2, 0, 0, 2, 8, 0, 0, 0, 0, 6, 0, 0, 4, 3]
truck_assigned = [5, 3, 2, 6, 2, 7, 4, 5, 7, 3, 4, 1, 4, 2, 1, 4, 3, 6, 2, 8, 3, 3, 5, 8, 1, 1, 4, 2, 6, 2]
obj = 7723
----------
