+ /usr/bin/timeout 600 /usr/bin/time -v mzn-chuffed lbbd-datasets/planningandscheduling/cost-insts/model.mzn lbbd-datasets/planningandscheduling/cost-insts/e15j3m1.dzn
% No search annotation given. Defaulting to VSIDS!
obj = 585
----------
obj = 562
----------
obj = 553
----------
obj = 541
----------
obj = 532
----------
obj = 527
----------
obj = 504
----------
obj = 481
----------
obj = 465
----------
obj = 456
----------
obj = 453
----------
obj = 450
----------
obj = 441
----------
obj = 429
----------
obj = 419
----------
obj = 411
----------
obj = 409
----------
obj = 408
----------
obj = 405
----------
obj = 400
----------
==========
	Command being timed: "mzn-chuffed lbbd-datasets/planningandscheduling/cost-insts/model.mzn lbbd-datasets/planningandscheduling/cost-insts/e15j3m1.dzn"
	User time (seconds): 0.19
	System time (seconds): 0.00
	Percent of CPU this job got: 66%
	Elapsed (wall clock) time (h:mm:ss or m:ss): 0:00.30
	Average shared text size (kbytes): 0
	Average unshared data size (kbytes): 0
	Average stack size (kbytes): 0
	Average total size (kbytes): 0
	Maximum resident set size (kbytes): 28304
	Average resident set size (kbytes): 0
	Major (requiring I/O) page faults: 0
	Minor (reclaiming a frame) page faults: 2406
	Voluntary context switches: 26
	Involuntary context switches: 4
	Swaps: 0
	File system inputs: 0
	File system outputs: 72
	Socket messages sent: 0
	Socket messages received: 0
	Signals delivered: 0
	Page size (bytes): 4096
	Exit status: 0
