+ /usr/bin/timeout 600 /usr/bin/time -v mzn-chuffed lbbd-datasets/Rabadi-2006/dzn-s-dominant/model.mzn lbbd-datasets/Rabadi-2006/dzn-s-dominant/8on4Rp50Rs50_15Ameer.dzn
% No search annotation given. Defaulting to VSIDS!
assign = array1d(1..12 ,[4, 4, 4, 4, 4, 4, 4, 4, 1, 2, 3, 4]);
next = array1d(1..12 ,[2, 3, 4, 5, 6, 7, 8, 12, 10, 11, 1, 9]);
makespan = 1660;
----------
assign = array1d(1..12 ,[4, 4, 4, 4, 4, 4, 4, 4, 1, 2, 3, 4]);
next = array1d(1..12 ,[3, 4, 2, 5, 6, 7, 8, 12, 10, 11, 1, 9]);
makespan = 1637;
----------
assign = array1d(1..12 ,[4, 4, 4, 4, 2, 4, 4, 4, 1, 2, 3, 4]);
next = array1d(1..12 ,[2, 6, 4, 1, 10, 7, 12, 3, 5, 11, 8, 9]);
makespan = 1603;
----------
assign = array1d(1..12 ,[2, 2, 4, 4, 4, 2, 2, 4, 1, 2, 3, 4]);
next = array1d(1..12 ,[10, 6, 4, 5, 12, 7, 1, 3, 2, 11, 8, 9]);
makespan = 1466;
----------
assign = array1d(1..12 ,[4, 1, 4, 4, 4, 1, 1, 4, 1, 2, 3, 4]);
next = array1d(1..12 ,[12, 6, 1, 5, 8, 7, 9, 3, 10, 11, 4, 2]);
makespan = 1369;
----------
assign = array1d(1..12 ,[4, 2, 4, 4, 4, 2, 2, 4, 1, 2, 3, 4]);
next = array1d(1..12 ,[8, 6, 4, 5, 12, 7, 10, 3, 2, 11, 1, 9]);
makespan = 1334;
----------
assign = array1d(1..12 ,[4, 1, 4, 4, 4, 1, 1, 4, 1, 2, 3, 4]);
next = array1d(1..12 ,[8, 6, 4, 5, 12, 7, 9, 3, 10, 11, 1, 2]);
makespan = 1228;
----------
assign = array1d(1..12 ,[4, 2, 4, 4, 4, 2, 2, 4, 1, 2, 3, 4]);
next = array1d(1..12 ,[8, 6, 4, 5, 12, 7, 10, 3, 2, 11, 1, 9]);
makespan = 1218;
----------
assign = array1d(1..12 ,[2, 4, 2, 4, 4, 4, 4, 2, 1, 2, 3, 4]);
next = array1d(1..12 ,[8, 6, 10, 5, 2, 7, 12, 3, 1, 11, 4, 9]);
makespan = 1194;
----------
assign = array1d(1..12 ,[4, 2, 4, 4, 4, 2, 2, 4, 1, 2, 3, 4]);
next = array1d(1..12 ,[8, 6, 4, 5, 12, 7, 10, 3, 2, 11, 1, 9]);
makespan = 1161;
----------
assign = array1d(1..12 ,[1, 4, 1, 4, 4, 4, 4, 1, 1, 2, 3, 4]);
next = array1d(1..12 ,[8, 6, 9, 5, 2, 7, 12, 3, 10, 11, 4, 1]);
makespan = 1059;
----------
assign = array1d(1..12 ,[3, 4, 3, 4, 4, 4, 4, 3, 1, 2, 3, 4]);
next = array1d(1..12 ,[8, 6, 11, 5, 2, 7, 12, 3, 10, 1, 4, 9]);
makespan = 1043;
----------
assign = array1d(1..12 ,[1, 4, 1, 4, 4, 4, 4, 1, 1, 2, 3, 4]);
next = array1d(1..12 ,[8, 6, 9, 5, 2, 7, 12, 3, 10, 11, 4, 1]);
makespan = 1015;
----------
assign = array1d(1..12 ,[3, 4, 3, 4, 4, 4, 4, 3, 1, 2, 3, 4]);
next = array1d(1..12 ,[8, 6, 11, 5, 2, 7, 12, 3, 10, 1, 4, 9]);
makespan = 1001;
----------
assign = array1d(1..12 ,[2, 4, 4, 4, 4, 4, 1, 2, 1, 2, 3, 4]);
next = array1d(1..12 ,[8, 6, 4, 5, 2, 12, 9, 10, 1, 11, 3, 7]);
makespan = 991;
----------
assign = array1d(1..12 ,[1, 4, 4, 4, 4, 4, 3, 1, 1, 2, 3, 4]);
next = array1d(1..12 ,[8, 6, 4, 5, 2, 12, 11, 9, 10, 7, 3, 1]);
makespan = 984;
----------
assign = array1d(1..12 ,[2, 4, 4, 4, 4, 4, 3, 2, 1, 2, 3, 4]);
next = array1d(1..12 ,[8, 6, 4, 5, 2, 12, 11, 10, 1, 7, 3, 9]);
makespan = 983;
----------
assign = array1d(1..12 ,[1, 4, 4, 4, 4, 4, 3, 1, 1, 2, 3, 4]);
next = array1d(1..12 ,[8, 6, 4, 5, 2, 12, 11, 9, 10, 7, 3, 1]);
makespan = 981;
----------
assign = array1d(1..12 ,[2, 4, 4, 4, 4, 4, 3, 2, 1, 2, 3, 4]);
next = array1d(1..12 ,[8, 6, 12, 5, 2, 3, 11, 10, 1, 7, 4, 9]);
makespan = 976;
----------
assign = array1d(1..12 ,[2, 4, 4, 4, 4, 4, 1, 2, 1, 2, 3, 4]);
next = array1d(1..12 ,[8, 3, 4, 5, 6, 12, 9, 10, 1, 11, 2, 7]);
makespan = 961;
----------
assign = array1d(1..12 ,[2, 4, 4, 4, 4, 4, 2, 1, 1, 2, 3, 4]);
next = array1d(1..12 ,[7, 12, 4, 5, 2, 3, 10, 9, 1, 11, 6, 8]);
makespan = 960;
----------
assign = array1d(1..12 ,[4, 1, 4, 4, 4, 1, 4, 1, 1, 2, 3, 4]);
next = array1d(1..12 ,[12, 6, 4, 5, 1, 9, 3, 2, 10, 11, 7, 8]);
makespan = 957;
----------
assign = array1d(1..12 ,[4, 1, 4, 4, 4, 1, 4, 1, 1, 2, 3, 4]);
next = array1d(1..12 ,[12, 6, 4, 5, 1, 9, 3, 2, 10, 11, 7, 8]);
makespan = 950;
----------
assign = array1d(1..12 ,[3, 1, 4, 4, 4, 1, 4, 1, 1, 2, 3, 4]);
next = array1d(1..12 ,[11, 6, 4, 5, 12, 9, 3, 2, 10, 1, 7, 8]);
makespan = 941;
----------
assign = array1d(1..12 ,[2, 1, 4, 4, 4, 1, 4, 1, 1, 2, 3, 4]);
next = array1d(1..12 ,[10, 6, 4, 5, 12, 9, 3, 2, 1, 11, 7, 8]);
makespan = 940;
----------
assign = array1d(1..12 ,[3, 1, 4, 4, 4, 1, 4, 1, 1, 2, 3, 4]);
next = array1d(1..12 ,[11, 6, 4, 5, 12, 9, 3, 2, 10, 1, 7, 8]);
makespan = 939;
----------
assign = array1d(1..12 ,[2, 1, 4, 4, 4, 1, 4, 1, 1, 2, 3, 4]);
next = array1d(1..12 ,[10, 6, 4, 5, 12, 9, 3, 2, 1, 11, 7, 8]);
makespan = 921;
----------
assign = array1d(1..12 ,[3, 1, 4, 4, 4, 1, 4, 1, 1, 2, 3, 4]);
next = array1d(1..12 ,[11, 6, 4, 5, 12, 9, 3, 2, 10, 1, 7, 8]);
makespan = 920;
----------
assign = array1d(1..12 ,[2, 1, 4, 4, 4, 1, 4, 1, 1, 2, 3, 4]);
next = array1d(1..12 ,[10, 6, 4, 5, 12, 9, 3, 2, 1, 11, 7, 8]);
makespan = 917;
----------
assign = array1d(1..12 ,[3, 1, 4, 4, 4, 1, 4, 1, 1, 2, 3, 4]);
next = array1d(1..12 ,[11, 6, 4, 5, 12, 9, 3, 2, 10, 1, 7, 8]);
makespan = 912;
----------
assign = array1d(1..12 ,[2, 1, 4, 4, 4, 1, 4, 1, 1, 2, 3, 4]);
next = array1d(1..12 ,[10, 6, 4, 5, 12, 9, 3, 2, 1, 11, 7, 8]);
makespan = 907;
----------
assign = array1d(1..12 ,[3, 1, 4, 4, 4, 1, 4, 1, 1, 2, 3, 4]);
next = array1d(1..12 ,[11, 6, 4, 5, 12, 9, 3, 2, 10, 1, 7, 8]);
makespan = 903;
----------
assign = array1d(1..12 ,[2, 1, 4, 4, 4, 1, 4, 1, 1, 2, 3, 4]);
next = array1d(1..12 ,[10, 6, 4, 5, 12, 9, 3, 2, 1, 11, 7, 8]);
makespan = 900;
----------
assign = array1d(1..12 ,[3, 1, 4, 4, 4, 1, 4, 1, 1, 2, 3, 4]);
next = array1d(1..12 ,[11, 6, 4, 5, 12, 9, 3, 2, 10, 1, 7, 8]);
makespan = 898;
----------
assign = array1d(1..12 ,[2, 1, 4, 4, 4, 1, 4, 1, 1, 2, 3, 4]);
next = array1d(1..12 ,[10, 6, 4, 5, 12, 9, 3, 2, 1, 11, 7, 8]);
makespan = 895;
----------
assign = array1d(1..12 ,[3, 1, 4, 4, 4, 1, 4, 1, 1, 2, 3, 4]);
next = array1d(1..12 ,[11, 6, 4, 5, 12, 9, 3, 2, 10, 1, 7, 8]);
makespan = 892;
----------
assign = array1d(1..12 ,[2, 1, 4, 4, 4, 1, 4, 1, 1, 2, 3, 4]);
next = array1d(1..12 ,[10, 6, 4, 5, 12, 9, 3, 2, 1, 11, 7, 8]);
makespan = 891;
----------
assign = array1d(1..12 ,[3, 1, 4, 4, 4, 1, 4, 1, 1, 2, 3, 4]);
next = array1d(1..12 ,[11, 6, 4, 5, 12, 9, 3, 2, 10, 1, 7, 8]);
makespan = 885;
----------
assign = array1d(1..12 ,[2, 1, 4, 4, 4, 1, 4, 1, 1, 2, 3, 4]);
next = array1d(1..12 ,[10, 6, 4, 5, 12, 9, 3, 2, 1, 11, 7, 8]);
makespan = 879;
----------
assign = array1d(1..12 ,[3, 1, 4, 4, 4, 1, 4, 1, 1, 2, 3, 4]);
next = array1d(1..12 ,[11, 6, 4, 5, 12, 9, 3, 2, 10, 1, 7, 8]);
makespan = 878;
----------
assign = array1d(1..12 ,[2, 1, 4, 4, 4, 1, 4, 1, 1, 2, 3, 4]);
next = array1d(1..12 ,[10, 6, 4, 5, 12, 9, 3, 2, 1, 11, 7, 8]);
makespan = 865;
----------
assign = array1d(1..12 ,[3, 1, 4, 4, 4, 1, 4, 1, 1, 2, 3, 4]);
next = array1d(1..12 ,[11, 6, 4, 5, 12, 9, 3, 2, 10, 1, 7, 8]);
makespan = 845;
----------
assign = array1d(1..12 ,[2, 1, 4, 4, 4, 1, 4, 1, 1, 2, 3, 4]);
next = array1d(1..12 ,[10, 6, 4, 5, 12, 9, 3, 2, 1, 11, 7, 8]);
makespan = 827;
----------
assign = array1d(1..12 ,[3, 1, 4, 4, 4, 1, 4, 1, 1, 2, 3, 4]);
next = array1d(1..12 ,[11, 6, 4, 5, 12, 9, 3, 2, 10, 1, 7, 8]);
makespan = 823;
----------
assign = array1d(1..12 ,[2, 1, 4, 4, 4, 1, 4, 1, 1, 2, 3, 4]);
next = array1d(1..12 ,[10, 6, 4, 5, 12, 9, 3, 2, 1, 11, 7, 8]);
makespan = 821;
----------
assign = array1d(1..12 ,[3, 1, 4, 4, 4, 1, 4, 1, 1, 2, 3, 4]);
next = array1d(1..12 ,[11, 6, 4, 5, 12, 9, 3, 2, 10, 1, 7, 8]);
makespan = 820;
----------
assign = array1d(1..12 ,[2, 1, 4, 4, 4, 1, 4, 1, 1, 2, 3, 4]);
next = array1d(1..12 ,[10, 6, 4, 5, 12, 9, 3, 2, 1, 11, 7, 8]);
makespan = 803;
----------
assign = array1d(1..12 ,[3, 1, 4, 4, 4, 1, 4, 1, 1, 2, 3, 4]);
next = array1d(1..12 ,[11, 6, 4, 5, 12, 9, 3, 2, 10, 1, 7, 8]);
makespan = 787;
----------
assign = array1d(1..12 ,[2, 1, 4, 4, 4, 1, 4, 1, 1, 2, 3, 4]);
next = array1d(1..12 ,[10, 6, 4, 5, 12, 9, 3, 2, 1, 11, 7, 8]);
makespan = 764;
----------
assign = array1d(1..12 ,[3, 1, 4, 4, 4, 1, 4, 1, 1, 2, 3, 4]);
next = array1d(1..12 ,[11, 6, 4, 5, 12, 9, 3, 2, 10, 1, 7, 8]);
makespan = 756;
----------
assign = array1d(1..12 ,[2, 1, 4, 4, 4, 1, 4, 1, 1, 2, 3, 4]);
next = array1d(1..12 ,[10, 6, 4, 5, 12, 9, 3, 2, 1, 11, 7, 8]);
makespan = 748;
----------
assign = array1d(1..12 ,[3, 1, 4, 4, 4, 1, 4, 1, 1, 2, 3, 4]);
next = array1d(1..12 ,[11, 6, 4, 5, 12, 9, 3, 2, 10, 1, 7, 8]);
makespan = 745;
----------
assign = array1d(1..12 ,[2, 1, 4, 4, 4, 1, 4, 1, 1, 2, 3, 4]);
next = array1d(1..12 ,[10, 6, 4, 5, 7, 9, 12, 2, 1, 11, 3, 8]);
makespan = 739;
----------
assign = array1d(1..12 ,[3, 1, 4, 4, 4, 1, 4, 1, 1, 2, 3, 4]);
next = array1d(1..12 ,[11, 6, 4, 5, 7, 9, 12, 2, 10, 1, 3, 8]);
makespan = 738;
----------
assign = array1d(1..12 ,[4, 1, 4, 4, 4, 1, 3, 1, 1, 2, 3, 4]);
next = array1d(1..12 ,[3, 6, 4, 5, 12, 9, 11, 2, 10, 7, 1, 8]);
makespan = 726;
----------
assign = array1d(1..12 ,[4, 1, 4, 4, 4, 1, 1, 2, 1, 2, 3, 4]);
next = array1d(1..12 ,[12, 6, 4, 5, 1, 9, 2, 10, 8, 11, 3, 7]);
makespan = 724;
----------
assign = array1d(1..12 ,[3, 1, 4, 4, 4, 1, 1, 2, 1, 2, 3, 4]);
next = array1d(1..12 ,[11, 6, 4, 5, 12, 9, 2, 10, 8, 1, 3, 7]);
makespan = 691;
----------
assign = array1d(1..12 ,[3, 1, 4, 4, 4, 1, 1, 2, 1, 2, 3, 4]);
next = array1d(1..12 ,[11, 6, 4, 5, 12, 9, 2, 10, 8, 1, 3, 7]);
makespan = 672;
----------
assign = array1d(1..12 ,[1, 3, 4, 4, 4, 3, 3, 2, 1, 2, 3, 4]);
next = array1d(1..12 ,[9, 6, 4, 5, 12, 11, 2, 10, 8, 7, 3, 1]);
makespan = 630;
----------
assign = array1d(1..12 ,[1, 3, 4, 4, 4, 3, 3, 2, 1, 2, 3, 4]);
next = array1d(1..12 ,[9, 6, 4, 5, 12, 11, 2, 10, 8, 7, 3, 1]);
makespan = 617;
----------
assign = array1d(1..12 ,[1, 3, 4, 4, 4, 3, 3, 2, 1, 2, 3, 4]);
next = array1d(1..12 ,[9, 6, 4, 5, 12, 11, 2, 10, 8, 7, 3, 1]);
makespan = 611;
----------
assign = array1d(1..12 ,[1, 3, 4, 4, 4, 3, 3, 2, 1, 2, 3, 4]);
next = array1d(1..12 ,[9, 6, 4, 5, 12, 11, 2, 10, 8, 7, 3, 1]);
makespan = 610;
----------
assign = array1d(1..12 ,[1, 2, 4, 4, 4, 2, 2, 3, 1, 2, 3, 4]);
next = array1d(1..12 ,[9, 6, 4, 5, 12, 10, 2, 11, 7, 8, 3, 1]);
makespan = 594;
----------
assign = array1d(1..12 ,[1, 3, 4, 4, 4, 3, 3, 2, 1, 2, 3, 4]);
next = array1d(1..12 ,[9, 6, 4, 5, 12, 11, 2, 10, 8, 7, 3, 1]);
makespan = 574;
----------
assign = array1d(1..12 ,[1, 2, 4, 4, 4, 2, 2, 3, 1, 2, 3, 4]);
next = array1d(1..12 ,[9, 6, 4, 5, 12, 10, 2, 11, 7, 8, 3, 1]);
makespan = 548;
----------
assign = array1d(1..12 ,[1, 3, 4, 4, 4, 3, 3, 2, 1, 2, 3, 4]);
next = array1d(1..12 ,[9, 6, 4, 5, 12, 11, 2, 10, 8, 7, 3, 1]);
makespan = 536;
----------
assign = array1d(1..12 ,[1, 2, 4, 4, 4, 2, 2, 3, 1, 2, 3, 4]);
next = array1d(1..12 ,[9, 6, 4, 5, 12, 10, 2, 11, 7, 8, 3, 1]);
makespan = 535;
----------
assign = array1d(1..12 ,[1, 3, 4, 4, 4, 3, 3, 2, 1, 2, 3, 4]);
next = array1d(1..12 ,[9, 6, 4, 5, 12, 11, 2, 10, 8, 7, 3, 1]);
makespan = 529;
----------
assign = array1d(1..12 ,[1, 2, 4, 4, 4, 2, 2, 3, 1, 2, 3, 4]);
next = array1d(1..12 ,[9, 6, 4, 5, 12, 10, 2, 11, 7, 8, 3, 1]);
makespan = 519;
----------
assign = array1d(1..12 ,[4, 3, 2, 4, 4, 3, 3, 2, 1, 2, 3, 4]);
next = array1d(1..12 ,[12, 7, 10, 5, 1, 11, 6, 3, 8, 2, 4, 9]);
makespan = 516;
----------
assign = array1d(1..12 ,[3, 2, 2, 4, 4, 1, 2, 4, 1, 2, 3, 4]);
next = array1d(1..12 ,[11, 7, 10, 5, 12, 9, 3, 4, 2, 1, 8, 6]);
makespan = 513;
----------
assign = array1d(1..12 ,[4, 3, 3, 4, 4, 2, 3, 2, 1, 2, 3, 4]);
next = array1d(1..12 ,[12, 7, 11, 5, 1, 10, 3, 6, 8, 2, 4, 9]);
makespan = 496;
----------
assign = array1d(1..12 ,[3, 2, 2, 4, 4, 1, 2, 4, 1, 2, 3, 4]);
next = array1d(1..12 ,[11, 7, 10, 5, 12, 9, 3, 4, 2, 1, 8, 6]);
makespan = 493;
----------
assign = array1d(1..12 ,[1, 3, 3, 4, 4, 2, 3, 2, 1, 2, 3, 4]);
next = array1d(1..12 ,[9, 7, 11, 5, 12, 10, 3, 6, 8, 2, 4, 1]);
makespan = 492;
----------
assign = array1d(1..12 ,[3, 2, 2, 4, 4, 1, 2, 3, 1, 2, 3, 4]);
next = array1d(1..12 ,[11, 7, 10, 5, 12, 9, 3, 1, 2, 8, 4, 6]);
makespan = 484;
----------
assign = array1d(1..12 ,[1, 3, 2, 4, 4, 1, 3, 2, 1, 2, 3, 4]);
next = array1d(1..12 ,[9, 7, 10, 5, 12, 1, 11, 3, 8, 2, 4, 6]);
makespan = 474;
----------
assign = array1d(1..12 ,[3, 4, 3, 4, 1, 3, 2, 1, 1, 2, 3, 4]);
next = array1d(1..12 ,[3, 4, 6, 12, 9, 11, 10, 5, 7, 1, 2, 8]);
makespan = 473;
----------
assign = array1d(1..12 ,[4, 2, 3, 1, 1, 2, 4, 3, 1, 2, 3, 4]);
next = array1d(1..12 ,[7, 10, 11, 9, 4, 2, 12, 3, 6, 8, 1, 5]);
makespan = 472;
----------
assign = array1d(1..12 ,[1, 4, 3, 2, 1, 4, 2, 3, 1, 2, 3, 4]);
next = array1d(1..12 ,[9, 12, 11, 10, 1, 2, 4, 3, 7, 8, 6, 5]);
makespan = 471;
----------
assign = array1d(1..12 ,[1, 2, 4, 3, 1, 2, 3, 4, 1, 2, 3, 4]);
next = array1d(1..12 ,[5, 10, 12, 11, 9, 2, 4, 3, 6, 7, 8, 1]);
makespan = 464;
----------
assign = array1d(1..12 ,[1, 2, 3, 4, 4, 2, 1, 3, 1, 2, 3, 4]);
next = array1d(1..12 ,[9, 6, 11, 5, 12, 10, 1, 3, 2, 8, 4, 7]);
makespan = 459;
----------
assign = array1d(1..12 ,[4, 3, 2, 2, 4, 1, 3, 1, 1, 2, 3, 4]);
next = array1d(1..12 ,[5, 7, 4, 10, 12, 8, 11, 9, 3, 2, 1, 6]);
makespan = 458;
----------
assign = array1d(1..12 ,[4, 2, 2, 3, 4, 1, 1, 3, 1, 2, 3, 4]);
next = array1d(1..12 ,[5, 3, 10, 11, 12, 7, 9, 4, 2, 8, 1, 6]);
makespan = 457;
----------
assign = array1d(1..12 ,[1, 3, 3, 4, 1, 2, 2, 4, 1, 2, 3, 4]);
next = array1d(1..12 ,[5, 3, 11, 12, 9, 7, 10, 4, 6, 2, 8, 1]);
makespan = 456;
----------
assign = array1d(1..12 ,[1, 3, 3, 4, 4, 1, 2, 2, 1, 2, 3, 4]);
next = array1d(1..12 ,[9, 3, 11, 5, 12, 1, 8, 10, 7, 2, 4, 6]);
makespan = 455;
----------
assign = array1d(1..12 ,[2, 4, 4, 2, 1, 1, 3, 3, 1, 2, 3, 4]);
next = array1d(1..12 ,[4, 3, 12, 10, 6, 9, 8, 11, 1, 7, 2, 5]);
makespan = 454;
----------
assign = array1d(1..12 ,[2, 3, 2, 1, 4, 3, 4, 1, 1, 2, 3, 4]);
next = array1d(1..12 ,[10, 6, 1, 9, 7, 11, 12, 4, 3, 2, 5, 8]);
makespan = 444;
----------
assign = array1d(1..12 ,[3, 4, 2, 4, 1, 3, 1, 2, 1, 2, 3, 4]);
next = array1d(1..12 ,[6, 12, 10, 2, 7, 11, 9, 3, 8, 1, 4, 5]);
makespan = 443;
----------
assign = array1d(1..12 ,[1, 1, 2, 4, 3, 2, 4, 3, 1, 2, 3, 4]);
next = array1d(1..12 ,[9, 1, 10, 12, 11, 3, 4, 5, 6, 8, 7, 2]);
makespan = 442;
----------
assign = array1d(1..12 ,[2, 2, 4, 1, 3, 4, 1, 3, 1, 2, 3, 4]);
next = array1d(1..12 ,[2, 10, 12, 9, 11, 3, 4, 5, 1, 8, 6, 7]);
makespan = 441;
----------
assign = array1d(1..12 ,[1, 1, 4, 2, 3, 4, 2, 3, 1, 2, 3, 4]);
next = array1d(1..12 ,[2, 9, 12, 10, 11, 3, 4, 5, 7, 8, 6, 1]);
makespan = 440;
----------
assign = array1d(1..12 ,[3, 3, 4, 2, 1, 4, 2, 1, 1, 2, 3, 4]);
next = array1d(1..12 ,[2, 11, 12, 10, 9, 3, 4, 5, 7, 1, 6, 8]);
makespan = 437;
----------
assign = array1d(1..12 ,[3, 3, 2, 4, 1, 1, 4, 2, 1, 2, 3, 4]);
next = array1d(1..12 ,[2, 11, 8, 12, 6, 9, 4, 10, 3, 1, 7, 5]);
makespan = 436;
----------
assign = array1d(1..12 ,[2, 4, 3, 2, 1, 1, 4, 3, 1, 2, 3, 4]);
next = array1d(1..12 ,[10, 7, 8, 1, 6, 9, 12, 11, 4, 3, 2, 5]);
makespan = 435;
----------
assign = array1d(1..12 ,[2, 4, 4, 3, 1, 2, 3, 1, 1, 2, 3, 4]);
next = array1d(1..12 ,[10, 12, 2, 11, 9, 1, 4, 5, 6, 7, 3, 8]);
makespan = 433;
----------
assign = array1d(1..12 ,[3, 1, 2, 4, 3, 1, 4, 2, 1, 2, 3, 4]);
next = array1d(1..12 ,[11, 9, 8, 12, 1, 2, 4, 10, 3, 5, 7, 6]);
makespan = 427;
----------
assign = array1d(1..12 ,[1, 4, 1, 2, 3, 4, 2, 3, 1, 2, 3, 4]);
next = array1d(1..12 ,[9, 12, 1, 10, 8, 2, 4, 11, 7, 5, 6, 3]);
makespan = 426;
----------
assign = array1d(1..12 ,[1, 4, 1, 2, 3, 4, 2, 3, 1, 2, 3, 4]);
next = array1d(1..12 ,[9, 12, 1, 10, 8, 2, 4, 11, 7, 5, 6, 3]);
makespan = 423;
----------
assign = array1d(1..12 ,[1, 4, 1, 2, 3, 4, 2, 3, 1, 2, 3, 4]);
next = array1d(1..12 ,[9, 12, 1, 10, 8, 2, 4, 11, 7, 5, 6, 3]);
makespan = 422;
----------
assign = array1d(1..12 ,[1, 4, 1, 2, 3, 4, 2, 3, 1, 2, 3, 4]);
next = array1d(1..12 ,[9, 12, 1, 10, 8, 2, 4, 11, 7, 5, 6, 3]);
makespan = 420;
----------
assign = array1d(1..12 ,[1, 4, 1, 2, 3, 4, 2, 3, 1, 2, 3, 4]);
next = array1d(1..12 ,[9, 12, 1, 10, 8, 2, 4, 11, 7, 5, 6, 3]);
makespan = 419;
----------
assign = array1d(1..12 ,[1, 4, 1, 2, 3, 4, 2, 3, 1, 2, 3, 4]);
next = array1d(1..12 ,[9, 12, 1, 10, 8, 2, 4, 11, 7, 5, 6, 3]);
makespan = 418;
----------
assign = array1d(1..12 ,[1, 4, 1, 2, 3, 4, 2, 3, 1, 2, 3, 4]);
next = array1d(1..12 ,[9, 12, 1, 10, 8, 2, 4, 11, 7, 5, 6, 3]);
makespan = 417;
----------
assign = array1d(1..12 ,[1, 4, 1, 2, 3, 4, 2, 3, 1, 2, 3, 4]);
next = array1d(1..12 ,[9, 12, 1, 10, 8, 2, 4, 11, 7, 5, 6, 3]);
makespan = 416;
----------
assign = array1d(1..12 ,[1, 4, 1, 2, 3, 4, 2, 3, 1, 2, 3, 4]);
next = array1d(1..12 ,[9, 12, 1, 10, 8, 2, 4, 11, 7, 5, 6, 3]);
makespan = 413;
----------
assign = array1d(1..12 ,[1, 4, 1, 2, 3, 4, 2, 3, 1, 2, 3, 4]);
next = array1d(1..12 ,[9, 12, 1, 10, 8, 2, 4, 11, 7, 5, 6, 3]);
makespan = 412;
----------
assign = array1d(1..12 ,[1, 4, 1, 2, 3, 4, 2, 3, 1, 2, 3, 4]);
next = array1d(1..12 ,[9, 12, 1, 10, 8, 2, 4, 11, 7, 5, 6, 3]);
makespan = 411;
----------
assign = array1d(1..12 ,[1, 4, 1, 2, 3, 4, 2, 3, 1, 2, 3, 4]);
next = array1d(1..12 ,[9, 12, 1, 10, 8, 2, 4, 11, 7, 5, 6, 3]);
makespan = 410;
----------
assign = array1d(1..12 ,[1, 4, 1, 2, 3, 4, 2, 3, 1, 2, 3, 4]);
next = array1d(1..12 ,[9, 12, 1, 10, 8, 2, 4, 11, 7, 5, 6, 3]);
makespan = 407;
----------
assign = array1d(1..12 ,[1, 4, 1, 2, 3, 4, 2, 3, 1, 2, 3, 4]);
next = array1d(1..12 ,[9, 12, 1, 10, 8, 2, 4, 11, 7, 5, 6, 3]);
makespan = 405;
----------
assign = array1d(1..12 ,[1, 4, 1, 2, 3, 4, 2, 3, 1, 2, 3, 4]);
next = array1d(1..12 ,[9, 12, 1, 10, 8, 2, 4, 11, 7, 5, 6, 3]);
makespan = 404;
----------
assign = array1d(1..12 ,[1, 4, 1, 2, 3, 4, 2, 3, 1, 2, 3, 4]);
next = array1d(1..12 ,[9, 12, 1, 10, 8, 2, 4, 11, 7, 5, 6, 3]);
makespan = 402;
----------
assign = array1d(1..12 ,[1, 4, 1, 2, 3, 4, 2, 3, 1, 2, 3, 4]);
next = array1d(1..12 ,[9, 12, 1, 10, 8, 2, 4, 11, 7, 5, 6, 3]);
makespan = 400;
----------
assign = array1d(1..12 ,[1, 4, 1, 2, 3, 4, 2, 3, 1, 2, 3, 4]);
next = array1d(1..12 ,[9, 12, 1, 10, 8, 2, 4, 11, 7, 5, 6, 3]);
makespan = 399;
----------
assign = array1d(1..12 ,[1, 4, 1, 2, 3, 4, 2, 3, 1, 2, 3, 4]);
next = array1d(1..12 ,[9, 12, 1, 10, 8, 2, 4, 11, 7, 5, 6, 3]);
makespan = 398;
----------
assign = array1d(1..12 ,[1, 4, 1, 2, 3, 4, 2, 3, 1, 2, 3, 4]);
next = array1d(1..12 ,[9, 12, 1, 10, 8, 2, 4, 11, 7, 5, 6, 3]);
makespan = 397;
----------
assign = array1d(1..12 ,[1, 4, 1, 2, 3, 4, 2, 3, 1, 2, 3, 4]);
next = array1d(1..12 ,[9, 12, 1, 10, 8, 2, 4, 11, 7, 5, 6, 3]);
makespan = 396;
----------
assign = array1d(1..12 ,[1, 4, 1, 2, 3, 4, 2, 3, 1, 2, 3, 4]);
next = array1d(1..12 ,[9, 12, 1, 10, 8, 2, 4, 11, 7, 5, 6, 3]);
makespan = 393;
----------
assign = array1d(1..12 ,[1, 4, 1, 2, 3, 4, 2, 3, 1, 2, 3, 4]);
next = array1d(1..12 ,[9, 12, 1, 10, 8, 2, 4, 11, 7, 5, 6, 3]);
makespan = 391;
----------
assign = array1d(1..12 ,[1, 4, 1, 2, 3, 4, 2, 3, 1, 2, 3, 4]);
next = array1d(1..12 ,[9, 12, 1, 10, 8, 2, 4, 11, 7, 5, 6, 3]);
makespan = 390;
----------
assign = array1d(1..12 ,[1, 4, 1, 2, 3, 4, 2, 3, 1, 2, 3, 4]);
next = array1d(1..12 ,[9, 12, 1, 10, 8, 2, 4, 11, 7, 5, 6, 3]);
makespan = 389;
----------
assign = array1d(1..12 ,[1, 4, 1, 2, 3, 4, 2, 3, 1, 2, 3, 4]);
next = array1d(1..12 ,[9, 12, 1, 10, 8, 2, 4, 11, 7, 5, 6, 3]);
makespan = 388;
----------
assign = array1d(1..12 ,[1, 4, 1, 2, 3, 4, 2, 3, 1, 2, 3, 4]);
next = array1d(1..12 ,[9, 12, 1, 10, 8, 2, 4, 11, 7, 5, 6, 3]);
makespan = 387;
----------
assign = array1d(1..12 ,[1, 4, 1, 2, 3, 4, 2, 3, 1, 2, 3, 4]);
next = array1d(1..12 ,[9, 12, 1, 10, 8, 2, 4, 11, 7, 5, 6, 3]);
makespan = 386;
----------
assign = array1d(1..12 ,[1, 4, 1, 2, 3, 4, 2, 3, 1, 2, 3, 4]);
next = array1d(1..12 ,[9, 12, 1, 10, 8, 2, 4, 11, 7, 5, 6, 3]);
makespan = 385;
----------
assign = array1d(1..12 ,[1, 4, 1, 2, 3, 4, 2, 3, 1, 2, 3, 4]);
next = array1d(1..12 ,[9, 12, 1, 10, 8, 2, 4, 11, 7, 5, 6, 3]);
makespan = 384;
----------
assign = array1d(1..12 ,[1, 4, 1, 2, 3, 4, 2, 3, 1, 2, 3, 4]);
next = array1d(1..12 ,[9, 12, 1, 10, 8, 2, 4, 11, 7, 5, 6, 3]);
makespan = 383;
----------
assign = array1d(1..12 ,[1, 4, 1, 2, 3, 4, 2, 3, 1, 2, 3, 4]);
next = array1d(1..12 ,[9, 12, 1, 10, 8, 2, 4, 11, 7, 5, 6, 3]);
makespan = 382;
----------
assign = array1d(1..12 ,[1, 4, 1, 2, 3, 4, 2, 3, 1, 2, 3, 4]);
next = array1d(1..12 ,[9, 12, 1, 10, 8, 2, 4, 11, 7, 5, 6, 3]);
makespan = 381;
----------
assign = array1d(1..12 ,[1, 4, 1, 2, 3, 4, 2, 3, 1, 2, 3, 4]);
next = array1d(1..12 ,[9, 12, 1, 10, 8, 2, 4, 11, 7, 5, 6, 3]);
makespan = 380;
----------
assign = array1d(1..12 ,[1, 4, 1, 2, 3, 4, 2, 3, 1, 2, 3, 4]);
next = array1d(1..12 ,[9, 12, 1, 10, 8, 2, 4, 11, 7, 5, 6, 3]);
makespan = 377;
----------
assign = array1d(1..12 ,[1, 4, 1, 2, 3, 4, 2, 3, 1, 2, 3, 4]);
next = array1d(1..12 ,[9, 12, 1, 10, 8, 2, 4, 11, 7, 5, 6, 3]);
makespan = 376;
----------
assign = array1d(1..12 ,[1, 4, 1, 2, 3, 4, 2, 3, 1, 2, 3, 4]);
next = array1d(1..12 ,[9, 12, 1, 10, 8, 2, 4, 11, 7, 5, 6, 3]);
makespan = 374;
----------
assign = array1d(1..12 ,[1, 4, 1, 2, 3, 4, 2, 3, 1, 2, 3, 4]);
next = array1d(1..12 ,[9, 12, 1, 10, 8, 2, 4, 11, 7, 5, 6, 3]);
makespan = 373;
----------
assign = array1d(1..12 ,[1, 4, 1, 2, 3, 4, 2, 3, 1, 2, 3, 4]);
next = array1d(1..12 ,[9, 12, 1, 10, 8, 2, 4, 11, 7, 5, 6, 3]);
makespan = 372;
----------
assign = array1d(1..12 ,[1, 4, 1, 2, 3, 4, 2, 3, 1, 2, 3, 4]);
next = array1d(1..12 ,[9, 12, 1, 10, 8, 2, 4, 11, 7, 5, 6, 3]);
makespan = 370;
----------
assign = array1d(1..12 ,[1, 4, 1, 2, 3, 4, 2, 3, 1, 2, 3, 4]);
next = array1d(1..12 ,[9, 12, 1, 10, 8, 2, 4, 11, 7, 5, 6, 3]);
makespan = 369;
----------
assign = array1d(1..12 ,[1, 4, 1, 2, 3, 4, 2, 3, 1, 2, 3, 4]);
next = array1d(1..12 ,[9, 12, 1, 10, 8, 2, 4, 11, 7, 5, 6, 3]);
makespan = 368;
----------
assign = array1d(1..12 ,[1, 4, 1, 2, 3, 4, 2, 3, 1, 2, 3, 4]);
next = array1d(1..12 ,[9, 12, 1, 10, 8, 2, 4, 11, 7, 5, 6, 3]);
makespan = 367;
----------
assign = array1d(1..12 ,[1, 4, 1, 2, 3, 4, 2, 3, 1, 2, 3, 4]);
next = array1d(1..12 ,[9, 12, 1, 10, 8, 2, 4, 11, 7, 5, 6, 3]);
makespan = 366;
----------
assign = array1d(1..12 ,[1, 4, 1, 2, 3, 4, 2, 3, 1, 2, 3, 4]);
next = array1d(1..12 ,[9, 12, 1, 10, 8, 2, 4, 11, 7, 5, 6, 3]);
makespan = 365;
----------
assign = array1d(1..12 ,[1, 4, 1, 2, 3, 4, 2, 3, 1, 2, 3, 4]);
next = array1d(1..12 ,[9, 12, 1, 10, 8, 2, 4, 11, 7, 5, 6, 3]);
makespan = 363;
----------
assign = array1d(1..12 ,[1, 4, 1, 2, 3, 4, 2, 3, 1, 2, 3, 4]);
next = array1d(1..12 ,[9, 12, 1, 10, 8, 2, 4, 11, 7, 5, 6, 3]);
makespan = 362;
----------
assign = array1d(1..12 ,[1, 4, 1, 2, 3, 4, 2, 3, 1, 2, 3, 4]);
next = array1d(1..12 ,[9, 12, 1, 10, 8, 2, 4, 11, 7, 5, 6, 3]);
makespan = 360;
----------
assign = array1d(1..12 ,[1, 4, 1, 2, 3, 4, 2, 3, 1, 2, 3, 4]);
next = array1d(1..12 ,[9, 12, 1, 10, 8, 2, 4, 11, 7, 5, 6, 3]);
makespan = 359;
----------
assign = array1d(1..12 ,[1, 4, 1, 2, 3, 4, 2, 3, 1, 2, 3, 4]);
next = array1d(1..12 ,[9, 12, 1, 10, 8, 2, 4, 11, 7, 5, 6, 3]);
makespan = 358;
----------
assign = array1d(1..12 ,[1, 4, 1, 2, 3, 4, 2, 3, 1, 2, 3, 4]);
next = array1d(1..12 ,[9, 12, 1, 10, 8, 2, 4, 11, 7, 5, 6, 3]);
makespan = 355;
----------
assign = array1d(1..12 ,[1, 4, 1, 2, 3, 4, 2, 3, 1, 2, 3, 4]);
next = array1d(1..12 ,[9, 12, 1, 10, 8, 2, 4, 11, 7, 5, 6, 3]);
makespan = 354;
----------
assign = array1d(1..12 ,[1, 4, 1, 2, 3, 4, 2, 3, 1, 2, 3, 4]);
next = array1d(1..12 ,[9, 12, 1, 10, 8, 2, 4, 11, 7, 5, 6, 3]);
makespan = 353;
----------
assign = array1d(1..12 ,[1, 4, 1, 2, 3, 4, 2, 3, 1, 2, 3, 4]);
next = array1d(1..12 ,[9, 12, 1, 10, 8, 2, 4, 11, 7, 5, 6, 3]);
makespan = 351;
----------
assign = array1d(1..12 ,[1, 4, 1, 2, 3, 4, 2, 3, 1, 2, 3, 4]);
next = array1d(1..12 ,[9, 12, 1, 10, 8, 2, 4, 11, 7, 5, 6, 3]);
makespan = 350;
----------
assign = array1d(1..12 ,[1, 4, 1, 2, 3, 4, 2, 3, 1, 2, 3, 4]);
next = array1d(1..12 ,[9, 12, 1, 10, 8, 2, 4, 11, 7, 5, 6, 3]);
makespan = 349;
----------
assign = array1d(1..12 ,[1, 4, 1, 2, 3, 4, 2, 3, 1, 2, 3, 4]);
next = array1d(1..12 ,[9, 12, 1, 10, 8, 2, 4, 11, 7, 5, 6, 3]);
makespan = 348;
----------
assign = array1d(1..12 ,[1, 4, 1, 2, 3, 4, 2, 3, 1, 2, 3, 4]);
next = array1d(1..12 ,[9, 12, 1, 10, 8, 2, 4, 11, 7, 5, 6, 3]);
makespan = 347;
----------
assign = array1d(1..12 ,[1, 4, 1, 2, 3, 4, 2, 3, 1, 2, 3, 4]);
next = array1d(1..12 ,[9, 12, 1, 10, 8, 2, 4, 11, 7, 5, 6, 3]);
makespan = 346;
----------
assign = array1d(1..12 ,[1, 4, 1, 2, 3, 4, 2, 3, 1, 2, 3, 4]);
next = array1d(1..12 ,[9, 12, 1, 10, 8, 2, 4, 11, 7, 5, 6, 3]);
makespan = 345;
----------
assign = array1d(1..12 ,[1, 4, 1, 2, 3, 4, 2, 3, 1, 2, 3, 4]);
next = array1d(1..12 ,[9, 12, 1, 10, 8, 2, 4, 11, 7, 5, 6, 3]);
makespan = 343;
----------
assign = array1d(1..12 ,[1, 4, 1, 2, 3, 4, 2, 3, 1, 2, 3, 4]);
next = array1d(1..12 ,[9, 12, 1, 10, 8, 2, 4, 11, 7, 5, 6, 3]);
makespan = 342;
----------
assign = array1d(1..12 ,[1, 4, 1, 2, 3, 4, 2, 3, 1, 2, 3, 4]);
next = array1d(1..12 ,[9, 12, 1, 10, 8, 2, 4, 11, 7, 5, 6, 3]);
makespan = 341;
----------
assign = array1d(1..12 ,[1, 4, 1, 2, 3, 4, 2, 3, 1, 2, 3, 4]);
next = array1d(1..12 ,[9, 12, 1, 10, 8, 2, 4, 11, 7, 5, 6, 3]);
makespan = 340;
----------
assign = array1d(1..12 ,[1, 4, 1, 2, 3, 4, 2, 3, 1, 2, 3, 4]);
next = array1d(1..12 ,[9, 12, 1, 10, 8, 2, 4, 11, 7, 5, 6, 3]);
makespan = 339;
----------
assign = array1d(1..12 ,[1, 4, 1, 2, 3, 4, 2, 3, 1, 2, 3, 4]);
next = array1d(1..12 ,[9, 12, 1, 10, 8, 2, 4, 11, 7, 5, 6, 3]);
makespan = 338;
----------
assign = array1d(1..12 ,[1, 4, 1, 2, 3, 4, 2, 3, 1, 2, 3, 4]);
next = array1d(1..12 ,[9, 12, 1, 10, 8, 2, 4, 11, 7, 5, 6, 3]);
makespan = 337;
----------
assign = array1d(1..12 ,[1, 4, 1, 2, 3, 4, 2, 3, 1, 2, 3, 4]);
next = array1d(1..12 ,[9, 12, 1, 10, 8, 2, 4, 11, 7, 5, 6, 3]);
makespan = 336;
----------
assign = array1d(1..12 ,[1, 4, 1, 2, 3, 4, 2, 3, 1, 2, 3, 4]);
next = array1d(1..12 ,[9, 12, 1, 10, 8, 2, 4, 11, 7, 5, 6, 3]);
makespan = 335;
----------
assign = array1d(1..12 ,[1, 4, 1, 2, 3, 4, 2, 3, 1, 2, 3, 4]);
next = array1d(1..12 ,[9, 12, 1, 10, 8, 2, 4, 11, 7, 5, 6, 3]);
makespan = 331;
----------
assign = array1d(1..12 ,[1, 4, 1, 2, 3, 4, 2, 3, 1, 2, 3, 4]);
next = array1d(1..12 ,[9, 12, 1, 10, 8, 2, 4, 11, 7, 5, 6, 3]);
makespan = 330;
----------
assign = array1d(1..12 ,[1, 4, 1, 2, 3, 4, 2, 3, 1, 2, 3, 4]);
next = array1d(1..12 ,[9, 12, 1, 10, 8, 2, 4, 11, 7, 5, 6, 3]);
makespan = 328;
----------
assign = array1d(1..12 ,[1, 4, 1, 2, 3, 4, 2, 3, 1, 2, 3, 4]);
next = array1d(1..12 ,[9, 12, 1, 10, 8, 2, 4, 11, 7, 5, 6, 3]);
makespan = 327;
----------
assign = array1d(1..12 ,[1, 4, 1, 2, 3, 4, 2, 3, 1, 2, 3, 4]);
next = array1d(1..12 ,[9, 12, 1, 10, 8, 2, 4, 11, 7, 5, 6, 3]);
makespan = 326;
----------
assign = array1d(1..12 ,[1, 4, 1, 2, 3, 4, 2, 3, 1, 2, 3, 4]);
next = array1d(1..12 ,[9, 12, 1, 10, 8, 2, 4, 11, 7, 5, 6, 3]);
makespan = 325;
----------
assign = array1d(1..12 ,[1, 4, 1, 2, 3, 4, 2, 3, 1, 2, 3, 4]);
next = array1d(1..12 ,[9, 12, 1, 10, 8, 2, 4, 11, 7, 5, 6, 3]);
makespan = 323;
----------
assign = array1d(1..12 ,[1, 4, 1, 2, 3, 4, 2, 3, 1, 2, 3, 4]);
next = array1d(1..12 ,[9, 12, 1, 10, 8, 2, 4, 11, 7, 5, 6, 3]);
makespan = 322;
----------
assign = array1d(1..12 ,[1, 4, 1, 2, 3, 4, 2, 3, 1, 2, 3, 4]);
next = array1d(1..12 ,[9, 12, 1, 10, 8, 2, 4, 11, 7, 5, 6, 3]);
makespan = 318;
----------
assign = array1d(1..12 ,[1, 4, 3, 2, 3, 4, 2, 1, 1, 2, 3, 4]);
next = array1d(1..12 ,[9, 12, 11, 10, 3, 2, 4, 1, 7, 5, 6, 8]);
makespan = 317;
----------
assign = array1d(1..12 ,[1, 2, 4, 3, 4, 2, 3, 1, 1, 2, 3, 4]);
next = array1d(1..12 ,[8, 10, 12, 11, 3, 2, 4, 9, 6, 7, 5, 1]);
makespan = 316;
----------
assign = array1d(1..12 ,[2, 2, 4, 3, 4, 1, 3, 1, 1, 2, 3, 4]);
next = array1d(1..12 ,[10, 1, 12, 11, 3, 9, 4, 6, 2, 7, 5, 8]);
makespan = 315;
----------
assign = array1d(1..12 ,[2, 2, 4, 3, 4, 1, 3, 1, 1, 2, 3, 4]);
next = array1d(1..12 ,[10, 1, 12, 11, 3, 9, 4, 6, 2, 7, 5, 8]);
makespan = 314;
----------
assign = array1d(1..12 ,[2, 2, 4, 3, 4, 1, 3, 1, 1, 2, 3, 4]);
next = array1d(1..12 ,[10, 1, 12, 11, 3, 9, 4, 6, 2, 7, 5, 8]);
makespan = 313;
----------
assign = array1d(1..12 ,[2, 2, 4, 3, 4, 1, 3, 1, 1, 2, 3, 4]);
next = array1d(1..12 ,[10, 1, 12, 11, 3, 9, 4, 6, 2, 7, 5, 8]);
makespan = 312;
----------
assign = array1d(1..12 ,[2, 2, 4, 3, 4, 1, 3, 1, 1, 2, 3, 4]);
next = array1d(1..12 ,[10, 1, 12, 11, 3, 9, 4, 6, 2, 7, 5, 8]);
makespan = 311;
----------
assign = array1d(1..12 ,[1, 2, 4, 3, 4, 2, 3, 1, 1, 2, 3, 4]);
next = array1d(1..12 ,[8, 10, 12, 11, 3, 2, 4, 9, 6, 7, 5, 1]);
makespan = 310;
----------
assign = array1d(1..12 ,[3, 2, 2, 1, 3, 4, 1, 4, 1, 2, 3, 4]);
next = array1d(1..12 ,[5, 10, 2, 9, 11, 12, 4, 6, 3, 1, 8, 7]);
makespan = 309;
----------
assign = array1d(1..12 ,[3, 2, 2, 1, 3, 4, 1, 4, 1, 2, 3, 4]);
next = array1d(1..12 ,[5, 10, 2, 9, 11, 12, 4, 6, 3, 1, 8, 7]);
makespan = 307;
----------
assign = array1d(1..12 ,[3, 2, 2, 1, 3, 4, 1, 4, 1, 2, 3, 4]);
next = array1d(1..12 ,[5, 10, 2, 9, 11, 12, 4, 6, 3, 1, 8, 7]);
makespan = 306;
----------
assign = array1d(1..12 ,[3, 2, 2, 1, 3, 4, 1, 4, 1, 2, 3, 4]);
next = array1d(1..12 ,[5, 10, 2, 9, 11, 12, 4, 6, 3, 1, 8, 7]);
makespan = 304;
----------
assign = array1d(1..12 ,[3, 2, 2, 1, 3, 4, 1, 4, 1, 2, 3, 4]);
next = array1d(1..12 ,[5, 10, 2, 9, 11, 12, 4, 6, 3, 1, 8, 7]);
makespan = 301;
----------
assign = array1d(1..12 ,[3, 2, 2, 1, 3, 4, 1, 4, 1, 2, 3, 4]);
next = array1d(1..12 ,[5, 10, 2, 9, 11, 12, 4, 6, 3, 1, 8, 7]);
makespan = 299;
----------
assign = array1d(1..12 ,[3, 2, 2, 1, 3, 4, 1, 4, 1, 2, 3, 4]);
next = array1d(1..12 ,[5, 10, 2, 9, 11, 12, 4, 6, 3, 1, 8, 7]);
makespan = 298;
----------
assign = array1d(1..12 ,[1, 2, 2, 3, 1, 4, 3, 4, 1, 2, 3, 4]);
next = array1d(1..12 ,[5, 10, 2, 11, 9, 12, 4, 6, 3, 7, 8, 1]);
makespan = 296;
----------
assign = array1d(1..12 ,[3, 1, 2, 2, 3, 4, 1, 4, 1, 2, 3, 4]);
next = array1d(1..12 ,[5, 9, 4, 10, 11, 12, 2, 6, 3, 1, 8, 7]);
makespan = 293;
----------
assign = array1d(1..12 ,[1, 2, 2, 3, 1, 4, 3, 4, 1, 2, 3, 4]);
next = array1d(1..12 ,[5, 10, 2, 11, 9, 12, 4, 6, 3, 7, 8, 1]);
makespan = 292;
----------
assign = array1d(1..12 ,[1, 2, 2, 3, 1, 4, 3, 4, 1, 2, 3, 4]);
next = array1d(1..12 ,[5, 10, 2, 11, 9, 12, 4, 6, 3, 7, 8, 1]);
makespan = 291;
----------
assign = array1d(1..12 ,[1, 2, 2, 3, 1, 4, 3, 4, 1, 2, 3, 4]);
next = array1d(1..12 ,[5, 10, 2, 11, 9, 12, 4, 6, 3, 7, 8, 1]);
makespan = 290;
----------
assign = array1d(1..12 ,[1, 2, 2, 3, 1, 4, 3, 4, 1, 2, 3, 4]);
next = array1d(1..12 ,[5, 10, 2, 11, 9, 12, 4, 6, 3, 7, 8, 1]);
makespan = 289;
----------
assign = array1d(1..12 ,[1, 2, 2, 3, 1, 4, 3, 4, 1, 2, 3, 4]);
next = array1d(1..12 ,[5, 10, 2, 11, 9, 12, 4, 6, 3, 7, 8, 1]);
makespan = 286;
----------
assign = array1d(1..12 ,[1, 2, 2, 3, 1, 4, 3, 4, 1, 2, 3, 4]);
next = array1d(1..12 ,[5, 10, 2, 11, 9, 12, 4, 6, 3, 7, 8, 1]);
makespan = 285;
----------
assign = array1d(1..12 ,[1, 2, 2, 3, 1, 4, 3, 4, 1, 2, 3, 4]);
next = array1d(1..12 ,[5, 10, 2, 11, 9, 12, 4, 6, 3, 7, 8, 1]);
makespan = 284;
----------
assign = array1d(1..12 ,[1, 2, 2, 3, 1, 4, 3, 4, 1, 2, 3, 4]);
next = array1d(1..12 ,[5, 3, 10, 11, 9, 12, 4, 6, 2, 7, 8, 1]);
makespan = 281;
----------
assign = array1d(1..12 ,[1, 2, 2, 3, 1, 4, 3, 4, 1, 2, 3, 4]);
next = array1d(1..12 ,[5, 3, 10, 11, 9, 8, 4, 12, 2, 7, 6, 1]);
makespan = 280;
----------
assign = array1d(1..12 ,[2, 2, 1, 3, 4, 1, 3, 4, 1, 2, 3, 4]);
next = array1d(1..12 ,[10, 1, 9, 11, 12, 3, 4, 5, 2, 7, 8, 6]);
makespan = 279;
----------
assign = array1d(1..12 ,[1, 2, 2, 3, 4, 1, 3, 4, 1, 2, 3, 4]);
next = array1d(1..12 ,[6, 3, 10, 11, 12, 9, 4, 5, 2, 7, 8, 1]);
makespan = 278;
----------
assign = array1d(1..12 ,[1, 2, 2, 3, 4, 1, 3, 4, 1, 2, 3, 4]);
next = array1d(1..12 ,[6, 3, 10, 11, 12, 9, 4, 5, 2, 7, 8, 1]);
makespan = 277;
----------
assign = array1d(1..12 ,[1, 2, 2, 3, 4, 1, 3, 4, 1, 2, 3, 4]);
next = array1d(1..12 ,[6, 3, 10, 11, 12, 9, 4, 5, 2, 7, 8, 1]);
makespan = 276;
----------
==========
	Command being timed: "mzn-chuffed lbbd-datasets/Rabadi-2006/dzn-s-dominant/model.mzn lbbd-datasets/Rabadi-2006/dzn-s-dominant/8on4Rp50Rs50_15Ameer.dzn"
	User time (seconds): 0.46
	System time (seconds): 0.02
	Percent of CPU this job got: 55%
	Elapsed (wall clock) time (h:mm:ss or m:ss): 0:00.88
	Average shared text size (kbytes): 0
	Average unshared data size (kbytes): 0
	Average stack size (kbytes): 0
	Average total size (kbytes): 0
	Maximum resident set size (kbytes): 35504
	Average resident set size (kbytes): 0
	Major (requiring I/O) page faults: 0
	Minor (reclaiming a frame) page faults: 3291
	Voluntary context switches: 210
	Involuntary context switches: 2
	Swaps: 0
	File system inputs: 0
	File system outputs: 328
	Socket messages sent: 0
	Socket messages received: 0
	Signals delivered: 0
	Page size (bytes): 4096
	Exit status: 0
