+ /usr/bin/timeout 600 /usr/bin/time -v mzn-chuffed lbbd-datasets/Rabadi-2006/dzn-balanced/model.mzn lbbd-datasets/Rabadi-2006/dzn-balanced/9on4Rp50Rs50_7Ameer.dzn
% No search annotation given. Defaulting to VSIDS!
assign = array1d(1..13 ,[4, 4, 4, 4, 4, 4, 4, 4, 4, 1, 2, 3, 4]);
next = array1d(1..13 ,[2, 3, 4, 5, 6, 7, 8, 9, 13, 11, 12, 1, 10]);
makespan = 1202;
----------
assign = array1d(1..13 ,[4, 4, 4, 4, 4, 4, 4, 4, 4, 1, 2, 3, 4]);
next = array1d(1..13 ,[4, 5, 6, 2, 3, 7, 8, 9, 13, 11, 12, 1, 10]);
makespan = 1201;
----------
assign = array1d(1..13 ,[4, 4, 4, 4, 4, 4, 3, 4, 4, 1, 2, 3, 4]);
next = array1d(1..13 ,[4, 3, 1, 9, 2, 5, 12, 6, 13, 11, 7, 8, 10]);
makespan = 1167;
----------
assign = array1d(1..13 ,[4, 4, 4, 4, 4, 4, 4, 1, 4, 1, 2, 3, 4]);
next = array1d(1..13 ,[13, 4, 1, 9, 7, 3, 2, 10, 6, 11, 12, 5, 8]);
makespan = 1149;
----------
assign = array1d(1..13 ,[4, 4, 4, 4, 4, 4, 4, 1, 4, 1, 2, 3, 4]);
next = array1d(1..13 ,[2, 7, 13, 6, 1, 3, 9, 10, 4, 11, 12, 5, 8]);
makespan = 1147;
----------
assign = array1d(1..13 ,[4, 4, 4, 4, 2, 4, 4, 4, 4, 1, 2, 3, 4]);
next = array1d(1..13 ,[13, 1, 7, 9, 11, 8, 4, 3, 2, 5, 12, 6, 10]);
makespan = 1145;
----------
assign = array1d(1..13 ,[4, 4, 4, 4, 4, 4, 4, 3, 4, 1, 2, 3, 4]);
next = array1d(1..13 ,[2, 4, 1, 5, 7, 3, 9, 12, 13, 11, 8, 6, 10]);
makespan = 1140;
----------
assign = array1d(1..13 ,[4, 4, 4, 4, 1, 4, 4, 4, 4, 1, 2, 3, 4]);
next = array1d(1..13 ,[4, 9, 1, 8, 10, 3, 2, 13, 6, 11, 12, 7, 5]);
makespan = 1139;
----------
assign = array1d(1..13 ,[4, 4, 4, 4, 4, 4, 4, 3, 4, 1, 2, 3, 4]);
next = array1d(1..13 ,[13, 3, 5, 2, 1, 4, 9, 12, 6, 11, 8, 7, 10]);
makespan = 1138;
----------
assign = array1d(1..13 ,[4, 4, 4, 4, 1, 4, 4, 4, 4, 1, 2, 3, 4]);
next = array1d(1..13 ,[3, 13, 8, 7, 10, 1, 9, 2, 6, 11, 12, 4, 5]);
makespan = 1137;
----------
assign = array1d(1..13 ,[4, 4, 4, 4, 1, 4, 4, 4, 4, 1, 2, 3, 4]);
next = array1d(1..13 ,[13, 7, 2, 3, 10, 8, 1, 4, 6, 11, 12, 9, 5]);
makespan = 1136;
----------
assign = array1d(1..13 ,[4, 4, 4, 4, 1, 4, 4, 4, 4, 1, 2, 3, 4]);
next = array1d(1..13 ,[2, 7, 8, 6, 10, 9, 4, 1, 13, 11, 12, 3, 5]);
makespan = 1135;
----------
assign = array1d(1..13 ,[4, 4, 4, 4, 4, 4, 4, 1, 4, 1, 2, 3, 4]);
next = array1d(1..13 ,[6, 7, 2, 9, 13, 3, 5, 10, 1, 11, 12, 4, 8]);
makespan = 1134;
----------
assign = array1d(1..13 ,[4, 4, 4, 4, 4, 4, 4, 2, 4, 1, 2, 3, 4]);
next = array1d(1..13 ,[13, 1, 7, 6, 3, 5, 9, 11, 2, 8, 12, 4, 10]);
makespan = 1133;
----------
assign = array1d(1..13 ,[4, 4, 4, 4, 4, 4, 4, 4, 1, 1, 2, 3, 4]);
next = array1d(1..13 ,[13, 7, 1, 3, 2, 4, 6, 5, 10, 11, 12, 8, 9]);
makespan = 1130;
----------
assign = array1d(1..13 ,[4, 4, 4, 4, 4, 4, 4, 4, 1, 1, 2, 3, 4]);
next = array1d(1..13 ,[6, 13, 1, 2, 8, 7, 5, 4, 10, 11, 12, 3, 9]);
makespan = 1124;
----------
assign = array1d(1..13 ,[4, 4, 4, 4, 4, 4, 4, 4, 1, 1, 2, 3, 4]);
next = array1d(1..13 ,[3, 1, 8, 6, 13, 5, 4, 7, 10, 11, 12, 2, 9]);
makespan = 1123;
----------
assign = array1d(1..13 ,[4, 4, 4, 4, 4, 4, 4, 4, 3, 1, 2, 3, 4]);
next = array1d(1..13 ,[3, 7, 13, 8, 1, 4, 5, 2, 12, 11, 9, 6, 10]);
makespan = 1121;
----------
assign = array1d(1..13 ,[4, 4, 4, 4, 4, 4, 4, 4, 3, 1, 2, 3, 4]);
next = array1d(1..13 ,[3, 7, 13, 2, 6, 8, 1, 4, 12, 11, 9, 5, 10]);
makespan = 1113;
----------
assign = array1d(1..13 ,[4, 4, 4, 4, 4, 4, 4, 4, 3, 1, 2, 3, 4]);
next = array1d(1..13 ,[7, 13, 1, 6, 3, 5, 8, 2, 12, 11, 9, 4, 10]);
makespan = 1108;
----------
assign = array1d(1..13 ,[4, 4, 4, 4, 4, 4, 4, 4, 1, 1, 2, 3, 4]);
next = array1d(1..13 ,[3, 7, 2, 1, 13, 8, 5, 4, 10, 11, 12, 6, 9]);
makespan = 1106;
----------
assign = array1d(1..13 ,[4, 4, 4, 4, 4, 4, 4, 4, 1, 1, 2, 3, 4]);
next = array1d(1..13 ,[4, 1, 13, 3, 7, 5, 8, 2, 10, 11, 12, 6, 9]);
makespan = 1105;
----------
assign = array1d(1..13 ,[4, 4, 4, 4, 4, 4, 4, 4, 1, 1, 2, 3, 4]);
next = array1d(1..13 ,[13, 8, 1, 3, 2, 7, 5, 4, 10, 11, 12, 6, 9]);
makespan = 1104;
----------
assign = array1d(1..13 ,[4, 4, 4, 4, 4, 4, 2, 4, 4, 1, 2, 3, 4]);
next = array1d(1..13 ,[3, 13, 9, 1, 6, 2, 11, 4, 5, 7, 12, 8, 10]);
makespan = 1094;
----------
assign = array1d(1..13 ,[4, 4, 4, 4, 4, 4, 2, 4, 4, 1, 2, 3, 4]);
next = array1d(1..13 ,[3, 13, 9, 1, 6, 2, 11, 4, 5, 7, 12, 8, 10]);
makespan = 1092;
----------
assign = array1d(1..13 ,[4, 4, 4, 4, 4, 4, 2, 4, 4, 1, 2, 3, 4]);
next = array1d(1..13 ,[3, 13, 9, 1, 6, 2, 11, 4, 5, 7, 12, 8, 10]);
makespan = 1090;
----------
assign = array1d(1..13 ,[4, 4, 4, 4, 4, 4, 2, 4, 4, 1, 2, 3, 4]);
next = array1d(1..13 ,[3, 13, 9, 1, 6, 2, 11, 4, 5, 7, 12, 8, 10]);
makespan = 1087;
----------
assign = array1d(1..13 ,[4, 4, 4, 4, 4, 4, 2, 4, 4, 1, 2, 3, 4]);
next = array1d(1..13 ,[3, 13, 9, 1, 6, 2, 11, 4, 5, 7, 12, 8, 10]);
makespan = 1085;
----------
assign = array1d(1..13 ,[4, 4, 4, 4, 4, 4, 2, 4, 4, 1, 2, 3, 4]);
next = array1d(1..13 ,[3, 13, 9, 1, 6, 2, 11, 4, 5, 7, 12, 8, 10]);
makespan = 1083;
----------
assign = array1d(1..13 ,[4, 4, 4, 4, 4, 4, 2, 4, 4, 1, 2, 3, 4]);
next = array1d(1..13 ,[3, 13, 9, 1, 6, 2, 11, 4, 5, 7, 12, 8, 10]);
makespan = 1082;
----------
assign = array1d(1..13 ,[4, 4, 4, 4, 4, 4, 2, 4, 4, 1, 2, 3, 4]);
next = array1d(1..13 ,[3, 13, 9, 1, 6, 2, 11, 4, 5, 7, 12, 8, 10]);
makespan = 1080;
----------
assign = array1d(1..13 ,[4, 4, 4, 4, 4, 4, 2, 4, 4, 1, 2, 3, 4]);
next = array1d(1..13 ,[3, 13, 9, 1, 6, 2, 11, 4, 5, 7, 12, 8, 10]);
makespan = 1078;
----------
assign = array1d(1..13 ,[4, 4, 4, 4, 4, 4, 2, 4, 4, 1, 2, 3, 4]);
next = array1d(1..13 ,[3, 13, 9, 1, 6, 2, 11, 4, 5, 7, 12, 8, 10]);
makespan = 1076;
----------
assign = array1d(1..13 ,[4, 4, 4, 4, 4, 4, 2, 4, 4, 1, 2, 3, 4]);
next = array1d(1..13 ,[3, 13, 9, 1, 6, 2, 11, 4, 5, 7, 12, 8, 10]);
makespan = 1073;
----------
assign = array1d(1..13 ,[4, 4, 4, 4, 4, 4, 2, 4, 4, 1, 2, 3, 4]);
next = array1d(1..13 ,[3, 13, 9, 1, 6, 2, 11, 4, 5, 7, 12, 8, 10]);
makespan = 1071;
----------
assign = array1d(1..13 ,[4, 4, 4, 4, 4, 4, 2, 4, 4, 1, 2, 3, 4]);
next = array1d(1..13 ,[3, 13, 9, 1, 6, 2, 11, 4, 5, 7, 12, 8, 10]);
makespan = 1068;
----------
assign = array1d(1..13 ,[4, 4, 4, 4, 4, 4, 2, 4, 4, 1, 2, 3, 4]);
next = array1d(1..13 ,[3, 13, 9, 1, 6, 2, 11, 4, 5, 7, 12, 8, 10]);
makespan = 1066;
----------
assign = array1d(1..13 ,[4, 4, 4, 4, 4, 4, 2, 4, 4, 1, 2, 3, 4]);
next = array1d(1..13 ,[3, 13, 9, 1, 6, 2, 11, 4, 5, 7, 12, 8, 10]);
makespan = 1064;
----------
assign = array1d(1..13 ,[4, 4, 4, 4, 4, 4, 2, 4, 4, 1, 2, 3, 4]);
next = array1d(1..13 ,[3, 13, 9, 1, 6, 2, 11, 4, 5, 7, 12, 8, 10]);
makespan = 1060;
----------
assign = array1d(1..13 ,[4, 4, 4, 4, 4, 4, 2, 4, 4, 1, 2, 3, 4]);
next = array1d(1..13 ,[3, 13, 9, 1, 6, 2, 11, 4, 5, 7, 12, 8, 10]);
makespan = 1059;
----------
assign = array1d(1..13 ,[4, 4, 4, 4, 4, 4, 2, 4, 4, 1, 2, 3, 4]);
next = array1d(1..13 ,[3, 13, 9, 1, 6, 2, 11, 4, 5, 7, 12, 8, 10]);
makespan = 1058;
----------
assign = array1d(1..13 ,[4, 4, 4, 4, 4, 4, 2, 4, 4, 1, 2, 3, 4]);
next = array1d(1..13 ,[3, 13, 9, 1, 6, 2, 11, 4, 5, 7, 12, 8, 10]);
makespan = 1056;
----------
assign = array1d(1..13 ,[4, 4, 4, 4, 4, 4, 2, 4, 4, 1, 2, 3, 4]);
next = array1d(1..13 ,[3, 13, 9, 1, 6, 2, 11, 4, 5, 7, 12, 8, 10]);
makespan = 1054;
----------
assign = array1d(1..13 ,[4, 4, 4, 4, 4, 4, 2, 4, 4, 1, 2, 3, 4]);
next = array1d(1..13 ,[3, 13, 9, 1, 6, 2, 11, 4, 5, 7, 12, 8, 10]);
makespan = 1052;
----------
assign = array1d(1..13 ,[4, 4, 4, 4, 4, 4, 2, 4, 4, 1, 2, 3, 4]);
next = array1d(1..13 ,[3, 13, 9, 1, 6, 2, 11, 4, 5, 7, 12, 8, 10]);
makespan = 1051;
----------
assign = array1d(1..13 ,[4, 4, 4, 4, 4, 4, 2, 4, 4, 1, 2, 3, 4]);
next = array1d(1..13 ,[3, 8, 9, 1, 13, 2, 11, 4, 5, 7, 12, 6, 10]);
makespan = 1049;
----------
assign = array1d(1..13 ,[4, 4, 4, 4, 4, 4, 2, 4, 4, 1, 2, 3, 4]);
next = array1d(1..13 ,[3, 8, 9, 1, 13, 2, 11, 4, 5, 7, 12, 6, 10]);
makespan = 1047;
----------
assign = array1d(1..13 ,[4, 4, 4, 4, 4, 4, 2, 4, 4, 1, 2, 3, 4]);
next = array1d(1..13 ,[3, 8, 9, 1, 13, 2, 11, 4, 5, 7, 12, 6, 10]);
makespan = 1046;
----------
assign = array1d(1..13 ,[4, 4, 4, 4, 4, 4, 2, 4, 4, 1, 2, 3, 4]);
next = array1d(1..13 ,[3, 8, 9, 1, 13, 2, 11, 4, 5, 7, 12, 6, 10]);
makespan = 1044;
----------
assign = array1d(1..13 ,[4, 4, 4, 4, 4, 4, 2, 4, 4, 1, 2, 3, 4]);
next = array1d(1..13 ,[3, 8, 9, 1, 13, 2, 11, 4, 5, 7, 12, 6, 10]);
makespan = 1042;
----------
assign = array1d(1..13 ,[4, 4, 4, 4, 4, 4, 2, 4, 4, 1, 2, 3, 4]);
next = array1d(1..13 ,[3, 8, 9, 1, 13, 2, 11, 4, 5, 7, 12, 6, 10]);
makespan = 1041;
----------
assign = array1d(1..13 ,[4, 3, 4, 4, 4, 3, 4, 4, 4, 1, 2, 3, 4]);
next = array1d(1..13 ,[3, 6, 9, 1, 13, 12, 8, 4, 5, 11, 2, 7, 10]);
makespan = 1037;
----------
assign = array1d(1..13 ,[4, 3, 4, 4, 4, 3, 4, 4, 4, 1, 2, 3, 4]);
next = array1d(1..13 ,[3, 6, 9, 1, 13, 12, 8, 4, 5, 11, 2, 7, 10]);
makespan = 1035;
----------
assign = array1d(1..13 ,[4, 3, 4, 4, 4, 3, 4, 4, 4, 1, 2, 3, 4]);
next = array1d(1..13 ,[3, 6, 9, 1, 13, 12, 8, 4, 5, 11, 2, 7, 10]);
makespan = 1033;
----------
assign = array1d(1..13 ,[4, 3, 4, 4, 4, 3, 4, 4, 4, 1, 2, 3, 4]);
next = array1d(1..13 ,[3, 6, 9, 1, 13, 12, 8, 4, 5, 11, 2, 7, 10]);
makespan = 1032;
----------
assign = array1d(1..13 ,[4, 3, 4, 4, 4, 3, 4, 4, 4, 1, 2, 3, 4]);
next = array1d(1..13 ,[3, 6, 9, 1, 13, 12, 8, 4, 5, 11, 2, 7, 10]);
makespan = 1030;
----------
assign = array1d(1..13 ,[4, 3, 4, 4, 4, 3, 4, 4, 4, 1, 2, 3, 4]);
next = array1d(1..13 ,[3, 6, 9, 1, 13, 12, 8, 4, 5, 11, 2, 7, 10]);
makespan = 1028;
----------
assign = array1d(1..13 ,[4, 3, 4, 4, 4, 3, 4, 4, 4, 1, 2, 3, 4]);
next = array1d(1..13 ,[3, 6, 9, 1, 13, 12, 8, 4, 5, 11, 2, 7, 10]);
makespan = 1027;
----------
assign = array1d(1..13 ,[4, 3, 4, 4, 4, 3, 4, 4, 4, 1, 2, 3, 4]);
next = array1d(1..13 ,[3, 6, 9, 1, 13, 12, 8, 4, 5, 11, 2, 7, 10]);
makespan = 1025;
----------
assign = array1d(1..13 ,[4, 3, 4, 4, 4, 3, 4, 4, 4, 1, 2, 3, 4]);
next = array1d(1..13 ,[3, 6, 9, 1, 13, 12, 8, 4, 5, 11, 2, 7, 10]);
makespan = 1024;
----------
assign = array1d(1..13 ,[4, 3, 4, 4, 4, 3, 4, 4, 4, 1, 2, 3, 4]);
next = array1d(1..13 ,[3, 6, 9, 1, 13, 12, 8, 4, 5, 11, 2, 7, 10]);
makespan = 1023;
----------
assign = array1d(1..13 ,[4, 3, 4, 4, 4, 3, 4, 4, 4, 1, 2, 3, 4]);
next = array1d(1..13 ,[3, 6, 9, 1, 13, 12, 8, 4, 5, 11, 2, 7, 10]);
makespan = 1021;
----------
assign = array1d(1..13 ,[4, 3, 4, 4, 4, 3, 4, 4, 4, 1, 2, 3, 4]);
next = array1d(1..13 ,[3, 6, 9, 1, 13, 12, 8, 4, 5, 11, 2, 7, 10]);
makespan = 1020;
----------
assign = array1d(1..13 ,[4, 3, 4, 4, 4, 3, 4, 4, 4, 1, 2, 3, 4]);
next = array1d(1..13 ,[3, 6, 9, 1, 13, 12, 8, 4, 5, 11, 2, 7, 10]);
makespan = 1018;
----------
assign = array1d(1..13 ,[4, 3, 4, 4, 4, 3, 4, 4, 4, 1, 2, 3, 4]);
next = array1d(1..13 ,[3, 6, 9, 1, 13, 12, 8, 4, 5, 11, 2, 7, 10]);
makespan = 1016;
----------
assign = array1d(1..13 ,[4, 3, 4, 4, 4, 3, 4, 4, 4, 1, 2, 3, 4]);
next = array1d(1..13 ,[3, 6, 9, 1, 13, 12, 8, 4, 5, 11, 2, 7, 10]);
makespan = 1015;
----------
assign = array1d(1..13 ,[4, 3, 4, 4, 4, 3, 4, 4, 4, 1, 2, 3, 4]);
next = array1d(1..13 ,[3, 6, 9, 1, 13, 12, 8, 4, 5, 11, 2, 7, 10]);
makespan = 1014;
----------
assign = array1d(1..13 ,[4, 3, 4, 4, 4, 3, 4, 4, 4, 1, 2, 3, 4]);
next = array1d(1..13 ,[3, 6, 9, 1, 13, 12, 8, 4, 5, 11, 2, 7, 10]);
makespan = 1013;
----------
assign = array1d(1..13 ,[4, 3, 4, 4, 4, 3, 4, 4, 4, 1, 2, 3, 4]);
next = array1d(1..13 ,[3, 6, 9, 1, 13, 12, 8, 4, 5, 11, 2, 7, 10]);
makespan = 1011;
----------
assign = array1d(1..13 ,[4, 3, 4, 4, 4, 3, 4, 4, 4, 1, 2, 3, 4]);
next = array1d(1..13 ,[3, 6, 9, 1, 13, 12, 8, 4, 5, 11, 2, 7, 10]);
makespan = 1009;
----------
assign = array1d(1..13 ,[4, 3, 4, 4, 4, 3, 4, 4, 4, 1, 2, 3, 4]);
next = array1d(1..13 ,[3, 6, 9, 1, 13, 12, 8, 4, 5, 11, 2, 7, 10]);
makespan = 1006;
----------
assign = array1d(1..13 ,[4, 3, 4, 4, 4, 3, 4, 4, 4, 1, 2, 3, 4]);
next = array1d(1..13 ,[3, 6, 9, 1, 13, 12, 8, 4, 5, 11, 2, 7, 10]);
makespan = 1005;
----------
assign = array1d(1..13 ,[4, 3, 4, 4, 4, 3, 4, 4, 4, 1, 2, 3, 4]);
next = array1d(1..13 ,[3, 6, 9, 1, 13, 12, 8, 4, 5, 11, 2, 7, 10]);
makespan = 1004;
----------
assign = array1d(1..13 ,[4, 3, 4, 4, 4, 3, 4, 4, 4, 1, 2, 3, 4]);
next = array1d(1..13 ,[3, 6, 9, 1, 13, 12, 8, 4, 5, 11, 2, 7, 10]);
makespan = 1003;
----------
assign = array1d(1..13 ,[4, 3, 4, 4, 4, 3, 4, 4, 4, 1, 2, 3, 4]);
next = array1d(1..13 ,[3, 6, 9, 1, 13, 12, 8, 4, 5, 11, 2, 7, 10]);
makespan = 1002;
----------
assign = array1d(1..13 ,[4, 3, 4, 4, 4, 3, 4, 4, 4, 1, 2, 3, 4]);
next = array1d(1..13 ,[3, 6, 9, 1, 13, 12, 8, 4, 5, 11, 2, 7, 10]);
makespan = 1001;
----------
assign = array1d(1..13 ,[4, 3, 4, 4, 4, 3, 4, 4, 4, 1, 2, 3, 4]);
next = array1d(1..13 ,[3, 6, 9, 1, 13, 12, 8, 4, 5, 11, 2, 7, 10]);
makespan = 999;
----------
assign = array1d(1..13 ,[4, 3, 4, 4, 4, 3, 4, 4, 4, 1, 2, 3, 4]);
next = array1d(1..13 ,[3, 6, 9, 1, 13, 12, 8, 4, 5, 11, 2, 7, 10]);
makespan = 998;
----------
assign = array1d(1..13 ,[4, 3, 4, 4, 4, 3, 4, 4, 4, 1, 2, 3, 4]);
next = array1d(1..13 ,[3, 6, 9, 1, 13, 12, 8, 4, 5, 11, 2, 7, 10]);
makespan = 997;
----------
assign = array1d(1..13 ,[4, 3, 4, 4, 4, 3, 4, 4, 4, 1, 2, 3, 4]);
next = array1d(1..13 ,[3, 6, 9, 1, 13, 12, 8, 4, 5, 11, 2, 7, 10]);
makespan = 996;
----------
assign = array1d(1..13 ,[4, 3, 4, 4, 4, 3, 4, 4, 4, 1, 2, 3, 4]);
next = array1d(1..13 ,[3, 6, 9, 1, 13, 12, 8, 4, 5, 11, 2, 7, 10]);
makespan = 995;
----------
assign = array1d(1..13 ,[4, 3, 4, 4, 4, 3, 4, 4, 4, 1, 2, 3, 4]);
next = array1d(1..13 ,[3, 6, 9, 1, 13, 12, 8, 4, 5, 11, 2, 7, 10]);
makespan = 994;
----------
assign = array1d(1..13 ,[4, 3, 4, 4, 4, 3, 4, 4, 4, 1, 2, 3, 4]);
next = array1d(1..13 ,[3, 6, 9, 1, 13, 12, 8, 4, 5, 11, 2, 7, 10]);
makespan = 993;
----------
assign = array1d(1..13 ,[4, 3, 4, 4, 4, 3, 4, 4, 4, 1, 2, 3, 4]);
next = array1d(1..13 ,[3, 6, 9, 1, 13, 12, 8, 4, 5, 11, 2, 7, 10]);
makespan = 992;
----------
assign = array1d(1..13 ,[4, 3, 4, 4, 4, 3, 4, 4, 4, 1, 2, 3, 4]);
next = array1d(1..13 ,[3, 6, 9, 1, 13, 12, 8, 4, 5, 11, 2, 7, 10]);
makespan = 991;
----------
assign = array1d(1..13 ,[4, 3, 4, 4, 4, 3, 4, 4, 4, 1, 2, 3, 4]);
next = array1d(1..13 ,[3, 6, 9, 1, 13, 12, 8, 4, 5, 11, 2, 7, 10]);
makespan = 990;
----------
assign = array1d(1..13 ,[4, 3, 4, 4, 4, 3, 4, 4, 4, 1, 2, 3, 4]);
next = array1d(1..13 ,[3, 6, 9, 1, 13, 12, 8, 4, 5, 11, 2, 7, 10]);
makespan = 989;
----------
assign = array1d(1..13 ,[4, 3, 4, 4, 4, 3, 4, 4, 4, 1, 2, 3, 4]);
next = array1d(1..13 ,[3, 6, 9, 1, 13, 12, 8, 4, 5, 11, 2, 7, 10]);
makespan = 987;
----------
assign = array1d(1..13 ,[4, 3, 4, 4, 4, 3, 4, 4, 4, 1, 2, 3, 4]);
next = array1d(1..13 ,[3, 6, 9, 1, 13, 12, 8, 4, 5, 11, 2, 7, 10]);
makespan = 985;
----------
assign = array1d(1..13 ,[4, 3, 4, 4, 4, 3, 4, 4, 4, 1, 2, 3, 4]);
next = array1d(1..13 ,[3, 6, 9, 1, 13, 12, 8, 4, 5, 11, 2, 7, 10]);
makespan = 984;
----------
assign = array1d(1..13 ,[4, 3, 4, 4, 4, 3, 4, 4, 4, 1, 2, 3, 4]);
next = array1d(1..13 ,[3, 6, 9, 1, 13, 12, 8, 4, 5, 11, 2, 7, 10]);
makespan = 982;
----------
assign = array1d(1..13 ,[4, 3, 4, 4, 4, 3, 4, 4, 4, 1, 2, 3, 4]);
next = array1d(1..13 ,[3, 6, 9, 1, 13, 12, 8, 4, 5, 11, 2, 7, 10]);
makespan = 980;
----------
assign = array1d(1..13 ,[4, 3, 4, 4, 4, 3, 4, 4, 4, 1, 2, 3, 4]);
next = array1d(1..13 ,[3, 6, 9, 1, 13, 12, 8, 4, 5, 11, 2, 7, 10]);
makespan = 979;
----------
assign = array1d(1..13 ,[4, 3, 4, 4, 4, 3, 4, 4, 4, 1, 2, 3, 4]);
next = array1d(1..13 ,[3, 6, 9, 1, 13, 12, 8, 4, 5, 11, 2, 7, 10]);
makespan = 978;
----------
assign = array1d(1..13 ,[4, 3, 4, 4, 4, 3, 4, 4, 4, 1, 2, 3, 4]);
next = array1d(1..13 ,[3, 6, 9, 1, 13, 12, 8, 4, 5, 11, 2, 7, 10]);
makespan = 977;
----------
assign = array1d(1..13 ,[4, 3, 4, 4, 4, 3, 4, 4, 4, 1, 2, 3, 4]);
next = array1d(1..13 ,[3, 6, 9, 1, 13, 12, 8, 4, 5, 11, 2, 7, 10]);
makespan = 976;
----------
assign = array1d(1..13 ,[4, 3, 4, 4, 4, 3, 4, 4, 4, 1, 2, 3, 4]);
next = array1d(1..13 ,[3, 6, 9, 1, 13, 12, 8, 4, 5, 11, 2, 7, 10]);
makespan = 975;
----------
assign = array1d(1..13 ,[4, 3, 4, 4, 4, 3, 4, 4, 4, 1, 2, 3, 4]);
next = array1d(1..13 ,[3, 6, 9, 1, 13, 12, 8, 4, 5, 11, 2, 7, 10]);
makespan = 973;
----------
assign = array1d(1..13 ,[4, 3, 4, 4, 4, 3, 4, 4, 4, 1, 2, 3, 4]);
next = array1d(1..13 ,[3, 6, 9, 1, 13, 12, 8, 4, 5, 11, 2, 7, 10]);
makespan = 971;
----------
assign = array1d(1..13 ,[4, 3, 4, 4, 4, 3, 4, 4, 4, 1, 2, 3, 4]);
next = array1d(1..13 ,[3, 6, 9, 1, 13, 12, 8, 4, 5, 11, 2, 7, 10]);
makespan = 970;
----------
assign = array1d(1..13 ,[4, 3, 4, 4, 4, 3, 4, 4, 4, 1, 2, 3, 4]);
next = array1d(1..13 ,[3, 6, 9, 1, 13, 12, 8, 4, 5, 11, 2, 7, 10]);
makespan = 968;
----------
assign = array1d(1..13 ,[4, 3, 4, 4, 4, 3, 4, 4, 4, 1, 2, 3, 4]);
next = array1d(1..13 ,[3, 6, 9, 1, 13, 12, 8, 4, 5, 11, 2, 7, 10]);
makespan = 966;
----------
assign = array1d(1..13 ,[4, 3, 4, 4, 4, 3, 4, 4, 4, 1, 2, 3, 4]);
next = array1d(1..13 ,[3, 6, 9, 1, 13, 12, 8, 4, 5, 11, 2, 7, 10]);
makespan = 965;
----------
assign = array1d(1..13 ,[4, 3, 4, 4, 4, 3, 4, 4, 4, 1, 2, 3, 4]);
next = array1d(1..13 ,[3, 6, 9, 1, 13, 12, 8, 4, 5, 11, 2, 7, 10]);
makespan = 963;
----------
assign = array1d(1..13 ,[4, 3, 4, 4, 4, 3, 4, 4, 4, 1, 2, 3, 4]);
next = array1d(1..13 ,[3, 6, 9, 1, 13, 12, 8, 4, 5, 11, 2, 7, 10]);
makespan = 962;
----------
assign = array1d(1..13 ,[4, 3, 4, 4, 4, 3, 4, 4, 4, 1, 2, 3, 4]);
next = array1d(1..13 ,[3, 6, 9, 1, 13, 12, 8, 4, 5, 11, 2, 7, 10]);
makespan = 961;
----------
assign = array1d(1..13 ,[4, 3, 4, 4, 4, 3, 4, 4, 4, 1, 2, 3, 4]);
next = array1d(1..13 ,[3, 6, 9, 1, 13, 12, 8, 4, 5, 11, 2, 7, 10]);
makespan = 960;
----------
assign = array1d(1..13 ,[4, 3, 4, 4, 4, 3, 4, 4, 4, 1, 2, 3, 4]);
next = array1d(1..13 ,[3, 6, 9, 1, 13, 12, 8, 4, 5, 11, 2, 7, 10]);
makespan = 959;
----------
assign = array1d(1..13 ,[4, 3, 4, 4, 4, 3, 4, 4, 4, 1, 2, 3, 4]);
next = array1d(1..13 ,[3, 6, 9, 1, 13, 12, 8, 4, 5, 11, 2, 7, 10]);
makespan = 958;
----------
assign = array1d(1..13 ,[4, 3, 4, 4, 4, 3, 4, 4, 4, 1, 2, 3, 4]);
next = array1d(1..13 ,[3, 6, 9, 1, 13, 12, 8, 4, 5, 11, 2, 7, 10]);
makespan = 956;
----------
assign = array1d(1..13 ,[4, 3, 4, 4, 4, 3, 4, 4, 4, 1, 2, 3, 4]);
next = array1d(1..13 ,[3, 6, 9, 1, 13, 12, 8, 4, 5, 11, 2, 7, 10]);
makespan = 954;
----------
assign = array1d(1..13 ,[4, 3, 4, 4, 4, 3, 4, 4, 4, 1, 2, 3, 4]);
next = array1d(1..13 ,[3, 6, 9, 1, 13, 12, 8, 4, 5, 11, 2, 7, 10]);
makespan = 953;
----------
assign = array1d(1..13 ,[4, 3, 4, 4, 4, 3, 4, 4, 4, 1, 2, 3, 4]);
next = array1d(1..13 ,[3, 6, 9, 1, 13, 12, 8, 4, 5, 11, 2, 7, 10]);
makespan = 951;
----------
assign = array1d(1..13 ,[4, 3, 4, 4, 4, 3, 4, 4, 4, 1, 2, 3, 4]);
next = array1d(1..13 ,[3, 6, 9, 1, 13, 12, 8, 4, 5, 11, 2, 7, 10]);
makespan = 949;
----------
assign = array1d(1..13 ,[4, 3, 4, 4, 4, 3, 4, 4, 4, 1, 2, 3, 4]);
next = array1d(1..13 ,[3, 6, 9, 1, 13, 12, 8, 4, 5, 11, 2, 7, 10]);
makespan = 948;
----------
assign = array1d(1..13 ,[4, 3, 4, 4, 4, 3, 4, 4, 4, 1, 2, 3, 4]);
next = array1d(1..13 ,[3, 6, 9, 1, 13, 12, 8, 4, 5, 11, 2, 7, 10]);
makespan = 947;
----------
assign = array1d(1..13 ,[4, 3, 4, 4, 4, 3, 4, 4, 4, 1, 2, 3, 4]);
next = array1d(1..13 ,[3, 6, 9, 1, 13, 12, 8, 4, 5, 11, 2, 7, 10]);
makespan = 946;
----------
assign = array1d(1..13 ,[4, 3, 4, 4, 4, 3, 4, 4, 4, 1, 2, 3, 4]);
next = array1d(1..13 ,[3, 6, 9, 1, 13, 12, 8, 4, 5, 11, 2, 7, 10]);
makespan = 944;
----------
assign = array1d(1..13 ,[4, 3, 4, 4, 4, 3, 4, 4, 4, 1, 2, 3, 4]);
next = array1d(1..13 ,[3, 6, 9, 1, 13, 12, 8, 4, 5, 11, 2, 7, 10]);
makespan = 943;
----------
assign = array1d(1..13 ,[4, 3, 4, 4, 4, 3, 4, 4, 4, 1, 2, 3, 4]);
next = array1d(1..13 ,[3, 6, 9, 1, 13, 12, 8, 4, 5, 11, 2, 7, 10]);
makespan = 942;
----------
assign = array1d(1..13 ,[4, 3, 4, 4, 4, 3, 4, 4, 4, 1, 2, 3, 4]);
next = array1d(1..13 ,[3, 6, 9, 1, 13, 12, 8, 4, 5, 11, 2, 7, 10]);
makespan = 941;
----------
assign = array1d(1..13 ,[4, 3, 4, 4, 4, 3, 4, 4, 4, 1, 2, 3, 4]);
next = array1d(1..13 ,[3, 6, 9, 1, 13, 12, 8, 4, 5, 11, 2, 7, 10]);
makespan = 940;
----------
assign = array1d(1..13 ,[4, 3, 4, 4, 4, 3, 4, 4, 4, 1, 2, 3, 4]);
next = array1d(1..13 ,[3, 6, 9, 1, 13, 12, 8, 4, 5, 11, 2, 7, 10]);
makespan = 939;
----------
assign = array1d(1..13 ,[4, 3, 4, 4, 4, 3, 4, 4, 4, 1, 2, 3, 4]);
next = array1d(1..13 ,[3, 6, 9, 1, 13, 12, 8, 4, 5, 11, 2, 7, 10]);
makespan = 938;
----------
assign = array1d(1..13 ,[4, 3, 4, 4, 4, 3, 4, 4, 4, 1, 2, 3, 4]);
next = array1d(1..13 ,[3, 6, 9, 1, 13, 12, 8, 4, 5, 11, 2, 7, 10]);
makespan = 937;
----------
assign = array1d(1..13 ,[4, 3, 4, 4, 4, 3, 4, 4, 4, 1, 2, 3, 4]);
next = array1d(1..13 ,[3, 6, 9, 1, 13, 12, 8, 4, 5, 11, 2, 7, 10]);
makespan = 936;
----------
assign = array1d(1..13 ,[4, 3, 4, 4, 4, 3, 4, 4, 4, 1, 2, 3, 4]);
next = array1d(1..13 ,[3, 6, 9, 1, 13, 12, 8, 4, 5, 11, 2, 7, 10]);
makespan = 935;
----------
assign = array1d(1..13 ,[4, 3, 4, 4, 4, 3, 4, 4, 4, 1, 2, 3, 4]);
next = array1d(1..13 ,[3, 6, 9, 1, 13, 12, 8, 4, 5, 11, 2, 7, 10]);
makespan = 934;
----------
assign = array1d(1..13 ,[4, 3, 4, 4, 4, 3, 4, 4, 4, 1, 2, 3, 4]);
next = array1d(1..13 ,[3, 6, 9, 1, 13, 12, 8, 4, 5, 11, 2, 7, 10]);
makespan = 933;
----------
assign = array1d(1..13 ,[4, 3, 4, 4, 4, 3, 4, 4, 4, 1, 2, 3, 4]);
next = array1d(1..13 ,[3, 6, 9, 1, 13, 12, 8, 4, 5, 11, 2, 7, 10]);
makespan = 932;
----------
assign = array1d(1..13 ,[4, 3, 4, 4, 4, 3, 4, 4, 4, 1, 2, 3, 4]);
next = array1d(1..13 ,[3, 6, 9, 1, 13, 12, 8, 4, 5, 11, 2, 7, 10]);
makespan = 931;
----------
assign = array1d(1..13 ,[4, 3, 4, 4, 4, 3, 4, 4, 4, 1, 2, 3, 4]);
next = array1d(1..13 ,[3, 6, 9, 1, 13, 12, 8, 4, 5, 11, 2, 7, 10]);
makespan = 930;
----------
assign = array1d(1..13 ,[4, 3, 4, 4, 4, 3, 4, 4, 4, 1, 2, 3, 4]);
next = array1d(1..13 ,[3, 6, 9, 1, 13, 12, 8, 4, 5, 11, 2, 7, 10]);
makespan = 929;
----------
assign = array1d(1..13 ,[4, 3, 4, 4, 4, 3, 4, 4, 4, 1, 2, 3, 4]);
next = array1d(1..13 ,[3, 6, 9, 1, 13, 12, 8, 4, 5, 11, 2, 7, 10]);
makespan = 928;
----------
assign = array1d(1..13 ,[4, 3, 4, 4, 4, 3, 4, 4, 4, 1, 2, 3, 4]);
next = array1d(1..13 ,[3, 6, 9, 1, 13, 12, 8, 4, 5, 11, 2, 7, 10]);
makespan = 927;
----------
assign = array1d(1..13 ,[4, 3, 4, 4, 4, 3, 3, 4, 4, 1, 2, 3, 4]);
next = array1d(1..13 ,[3, 12, 9, 1, 13, 2, 6, 4, 5, 11, 7, 8, 10]);
makespan = 925;
----------
assign = array1d(1..13 ,[4, 3, 4, 4, 4, 3, 3, 4, 4, 1, 2, 3, 4]);
next = array1d(1..13 ,[3, 12, 9, 1, 13, 2, 6, 4, 5, 11, 7, 8, 10]);
makespan = 924;
----------
assign = array1d(1..13 ,[4, 3, 4, 4, 4, 3, 3, 4, 4, 1, 2, 3, 4]);
next = array1d(1..13 ,[3, 12, 9, 1, 13, 2, 6, 4, 5, 11, 7, 8, 10]);
makespan = 923;
----------
assign = array1d(1..13 ,[4, 3, 4, 4, 4, 3, 3, 4, 4, 1, 2, 3, 4]);
next = array1d(1..13 ,[3, 12, 9, 1, 13, 2, 6, 4, 5, 11, 7, 8, 10]);
makespan = 922;
----------
assign = array1d(1..13 ,[4, 1, 4, 4, 4, 1, 1, 4, 4, 1, 2, 3, 4]);
next = array1d(1..13 ,[3, 10, 9, 1, 13, 2, 6, 4, 5, 11, 12, 8, 7]);
makespan = 920;
----------
assign = array1d(1..13 ,[4, 3, 4, 4, 4, 3, 3, 4, 4, 1, 2, 3, 4]);
next = array1d(1..13 ,[3, 12, 9, 1, 13, 2, 6, 4, 5, 11, 7, 8, 10]);
makespan = 918;
----------
assign = array1d(1..13 ,[4, 1, 4, 4, 4, 1, 1, 4, 4, 1, 2, 3, 4]);
next = array1d(1..13 ,[3, 10, 9, 1, 13, 2, 6, 4, 5, 11, 12, 8, 7]);
makespan = 917;
----------
assign = array1d(1..13 ,[4, 3, 4, 4, 4, 3, 3, 4, 4, 1, 2, 3, 4]);
next = array1d(1..13 ,[3, 12, 9, 1, 13, 2, 6, 4, 5, 11, 7, 8, 10]);
makespan = 916;
----------
assign = array1d(1..13 ,[4, 1, 4, 4, 4, 1, 1, 4, 4, 1, 2, 3, 4]);
next = array1d(1..13 ,[3, 10, 9, 1, 13, 2, 6, 4, 5, 11, 12, 8, 7]);
makespan = 915;
----------
assign = array1d(1..13 ,[4, 3, 4, 4, 4, 3, 3, 4, 4, 1, 2, 3, 4]);
next = array1d(1..13 ,[3, 12, 9, 1, 13, 2, 6, 4, 5, 11, 7, 8, 10]);
makespan = 913;
----------
assign = array1d(1..13 ,[4, 3, 4, 4, 4, 3, 3, 4, 4, 1, 2, 3, 4]);
next = array1d(1..13 ,[3, 12, 9, 1, 13, 2, 6, 4, 5, 11, 7, 8, 10]);
makespan = 912;
----------
assign = array1d(1..13 ,[4, 1, 4, 4, 4, 1, 1, 4, 4, 1, 2, 3, 4]);
next = array1d(1..13 ,[3, 10, 9, 1, 13, 2, 6, 4, 5, 11, 12, 8, 7]);
makespan = 911;
----------
assign = array1d(1..13 ,[4, 3, 4, 4, 4, 3, 3, 4, 4, 1, 2, 3, 4]);
next = array1d(1..13 ,[3, 12, 9, 1, 13, 2, 6, 4, 5, 11, 7, 8, 10]);
makespan = 910;
----------
assign = array1d(1..13 ,[4, 3, 4, 4, 4, 3, 3, 4, 4, 1, 2, 3, 4]);
next = array1d(1..13 ,[3, 12, 9, 1, 13, 2, 6, 4, 5, 11, 7, 8, 10]);
makespan = 908;
----------
assign = array1d(1..13 ,[4, 1, 4, 4, 4, 1, 1, 4, 4, 1, 2, 3, 4]);
next = array1d(1..13 ,[3, 10, 9, 1, 13, 2, 6, 4, 5, 11, 12, 8, 7]);
makespan = 907;
----------
assign = array1d(1..13 ,[4, 1, 4, 4, 4, 1, 1, 4, 4, 1, 2, 3, 4]);
next = array1d(1..13 ,[3, 10, 9, 1, 13, 2, 6, 4, 5, 11, 12, 8, 7]);
makespan = 906;
----------
assign = array1d(1..13 ,[4, 1, 4, 4, 4, 1, 1, 4, 4, 1, 2, 3, 4]);
next = array1d(1..13 ,[3, 10, 9, 1, 13, 2, 6, 4, 5, 11, 12, 8, 7]);
makespan = 905;
----------
assign = array1d(1..13 ,[4, 2, 4, 4, 4, 2, 2, 4, 4, 1, 2, 3, 4]);
next = array1d(1..13 ,[3, 11, 9, 1, 13, 2, 6, 4, 5, 7, 12, 8, 10]);
makespan = 904;
----------
assign = array1d(1..13 ,[4, 2, 4, 4, 4, 2, 2, 4, 4, 1, 2, 3, 4]);
next = array1d(1..13 ,[3, 11, 9, 1, 13, 2, 6, 4, 5, 7, 12, 8, 10]);
makespan = 903;
----------
assign = array1d(1..13 ,[4, 3, 4, 4, 4, 3, 3, 4, 4, 1, 2, 3, 4]);
next = array1d(1..13 ,[3, 12, 9, 1, 13, 2, 6, 4, 5, 11, 7, 8, 10]);
makespan = 901;
----------
assign = array1d(1..13 ,[4, 2, 4, 4, 4, 2, 2, 4, 4, 1, 2, 3, 4]);
next = array1d(1..13 ,[3, 11, 9, 1, 13, 2, 6, 4, 5, 7, 12, 8, 10]);
makespan = 900;
----------
assign = array1d(1..13 ,[4, 3, 4, 4, 4, 3, 3, 4, 4, 1, 2, 3, 4]);
next = array1d(1..13 ,[3, 12, 9, 1, 13, 2, 6, 4, 5, 11, 7, 8, 10]);
makespan = 899;
----------
assign = array1d(1..13 ,[4, 1, 4, 4, 4, 1, 1, 4, 4, 1, 2, 3, 4]);
next = array1d(1..13 ,[3, 10, 9, 1, 13, 2, 6, 4, 5, 11, 12, 8, 7]);
makespan = 898;
----------
assign = array1d(1..13 ,[4, 3, 4, 4, 4, 3, 3, 4, 4, 1, 2, 3, 4]);
next = array1d(1..13 ,[3, 12, 9, 1, 13, 2, 6, 4, 5, 11, 7, 8, 10]);
makespan = 897;
----------
assign = array1d(1..13 ,[4, 1, 4, 4, 4, 1, 1, 4, 4, 1, 2, 3, 4]);
next = array1d(1..13 ,[3, 10, 9, 1, 13, 2, 6, 4, 5, 11, 12, 8, 7]);
makespan = 896;
----------
assign = array1d(1..13 ,[4, 3, 4, 4, 4, 3, 3, 4, 4, 1, 2, 3, 4]);
next = array1d(1..13 ,[3, 12, 9, 1, 13, 2, 6, 4, 5, 11, 7, 8, 10]);
makespan = 895;
----------
assign = array1d(1..13 ,[4, 1, 4, 4, 4, 1, 1, 4, 4, 1, 2, 3, 4]);
next = array1d(1..13 ,[3, 10, 9, 1, 13, 2, 6, 4, 5, 11, 12, 8, 7]);
makespan = 894;
----------
assign = array1d(1..13 ,[4, 2, 4, 4, 4, 2, 2, 4, 4, 1, 2, 3, 4]);
next = array1d(1..13 ,[3, 11, 9, 1, 13, 2, 6, 4, 5, 7, 12, 8, 10]);
makespan = 893;
----------
assign = array1d(1..13 ,[4, 3, 4, 4, 4, 3, 3, 4, 4, 1, 2, 3, 4]);
next = array1d(1..13 ,[3, 12, 9, 1, 13, 2, 6, 4, 5, 11, 7, 8, 10]);
makespan = 892;
----------
assign = array1d(1..13 ,[4, 1, 4, 4, 4, 1, 1, 4, 4, 1, 2, 3, 4]);
next = array1d(1..13 ,[3, 10, 9, 1, 13, 2, 6, 4, 5, 11, 12, 8, 7]);
makespan = 891;
----------
assign = array1d(1..13 ,[4, 3, 4, 4, 4, 3, 3, 4, 4, 1, 2, 3, 4]);
next = array1d(1..13 ,[3, 12, 9, 1, 13, 2, 6, 4, 5, 11, 7, 8, 10]);
makespan = 889;
----------
assign = array1d(1..13 ,[4, 2, 4, 4, 4, 2, 2, 4, 4, 1, 2, 3, 4]);
next = array1d(1..13 ,[3, 11, 9, 1, 13, 2, 6, 4, 5, 7, 12, 8, 10]);
makespan = 887;
----------
assign = array1d(1..13 ,[4, 3, 4, 4, 4, 3, 3, 4, 4, 1, 2, 3, 4]);
next = array1d(1..13 ,[3, 12, 9, 1, 13, 2, 6, 4, 5, 11, 7, 8, 10]);
makespan = 886;
----------
assign = array1d(1..13 ,[4, 1, 4, 4, 4, 1, 1, 4, 4, 1, 2, 3, 4]);
next = array1d(1..13 ,[3, 10, 9, 1, 13, 2, 6, 4, 5, 11, 12, 8, 7]);
makespan = 884;
----------
assign = array1d(1..13 ,[4, 3, 4, 4, 4, 3, 3, 4, 4, 1, 2, 3, 4]);
next = array1d(1..13 ,[3, 12, 9, 1, 13, 2, 6, 4, 5, 11, 7, 8, 10]);
makespan = 882;
----------
assign = array1d(1..13 ,[4, 1, 4, 4, 4, 1, 1, 4, 4, 1, 2, 3, 4]);
next = array1d(1..13 ,[3, 10, 9, 1, 13, 2, 6, 4, 5, 11, 12, 8, 7]);
makespan = 881;
----------
assign = array1d(1..13 ,[4, 3, 4, 4, 4, 3, 3, 4, 4, 1, 2, 3, 4]);
next = array1d(1..13 ,[3, 12, 9, 1, 13, 2, 6, 4, 5, 11, 7, 8, 10]);
makespan = 880;
----------
assign = array1d(1..13 ,[4, 1, 4, 4, 4, 1, 1, 4, 4, 1, 2, 3, 4]);
next = array1d(1..13 ,[3, 10, 9, 1, 13, 2, 6, 4, 5, 11, 12, 8, 7]);
makespan = 879;
----------
assign = array1d(1..13 ,[4, 3, 4, 4, 4, 3, 3, 4, 4, 1, 2, 3, 4]);
next = array1d(1..13 ,[3, 12, 9, 1, 13, 2, 6, 4, 5, 11, 7, 8, 10]);
makespan = 878;
----------
assign = array1d(1..13 ,[4, 1, 4, 4, 4, 1, 1, 4, 4, 1, 2, 3, 4]);
next = array1d(1..13 ,[3, 10, 9, 1, 13, 2, 6, 4, 5, 11, 12, 8, 7]);
makespan = 877;
----------
assign = array1d(1..13 ,[4, 3, 4, 4, 4, 3, 3, 4, 4, 1, 2, 3, 4]);
next = array1d(1..13 ,[3, 12, 9, 1, 13, 2, 6, 4, 5, 11, 7, 8, 10]);
makespan = 876;
----------
assign = array1d(1..13 ,[4, 1, 4, 4, 4, 1, 1, 4, 4, 1, 2, 3, 4]);
next = array1d(1..13 ,[3, 10, 9, 1, 13, 2, 6, 4, 5, 11, 12, 8, 7]);
makespan = 875;
----------
assign = array1d(1..13 ,[4, 3, 4, 4, 4, 3, 3, 4, 4, 1, 2, 3, 4]);
next = array1d(1..13 ,[3, 12, 9, 1, 13, 2, 6, 4, 5, 11, 7, 8, 10]);
makespan = 874;
----------
assign = array1d(1..13 ,[4, 1, 4, 4, 4, 1, 1, 4, 4, 1, 2, 3, 4]);
next = array1d(1..13 ,[3, 10, 9, 1, 13, 2, 6, 4, 5, 11, 12, 8, 7]);
makespan = 873;
----------
assign = array1d(1..13 ,[4, 3, 4, 4, 4, 3, 3, 4, 4, 1, 2, 3, 4]);
next = array1d(1..13 ,[3, 12, 9, 1, 13, 2, 6, 4, 5, 11, 7, 8, 10]);
makespan = 872;
----------
assign = array1d(1..13 ,[4, 1, 4, 4, 4, 1, 1, 4, 4, 1, 2, 3, 4]);
next = array1d(1..13 ,[3, 10, 9, 1, 13, 2, 6, 4, 5, 11, 12, 8, 7]);
makespan = 870;
----------
assign = array1d(1..13 ,[4, 3, 4, 4, 4, 3, 3, 4, 4, 1, 2, 3, 4]);
next = array1d(1..13 ,[3, 12, 9, 1, 13, 2, 6, 4, 5, 11, 7, 8, 10]);
makespan = 869;
----------
assign = array1d(1..13 ,[4, 1, 4, 4, 4, 1, 1, 4, 4, 1, 2, 3, 4]);
next = array1d(1..13 ,[3, 10, 9, 1, 13, 2, 6, 4, 5, 11, 12, 8, 7]);
makespan = 868;
----------
assign = array1d(1..13 ,[4, 3, 4, 4, 4, 3, 3, 4, 4, 1, 2, 3, 4]);
next = array1d(1..13 ,[3, 12, 9, 1, 13, 2, 6, 4, 5, 11, 7, 8, 10]);
makespan = 867;
----------
assign = array1d(1..13 ,[4, 1, 4, 4, 4, 1, 1, 4, 4, 1, 2, 3, 4]);
next = array1d(1..13 ,[3, 10, 9, 1, 13, 2, 6, 4, 5, 11, 12, 8, 7]);
makespan = 866;
----------
assign = array1d(1..13 ,[4, 3, 4, 4, 4, 3, 3, 4, 4, 1, 2, 3, 4]);
next = array1d(1..13 ,[3, 12, 9, 1, 13, 2, 6, 4, 5, 11, 7, 8, 10]);
makespan = 865;
----------
assign = array1d(1..13 ,[4, 1, 4, 4, 4, 1, 1, 4, 4, 1, 2, 3, 4]);
next = array1d(1..13 ,[3, 10, 9, 1, 13, 2, 6, 4, 5, 11, 12, 8, 7]);
makespan = 863;
----------
assign = array1d(1..13 ,[4, 3, 4, 4, 4, 3, 3, 4, 4, 1, 2, 3, 4]);
next = array1d(1..13 ,[3, 12, 9, 1, 13, 2, 6, 4, 5, 11, 7, 8, 10]);
makespan = 862;
----------
assign = array1d(1..13 ,[4, 1, 4, 4, 4, 1, 1, 4, 4, 1, 2, 3, 4]);
next = array1d(1..13 ,[3, 10, 9, 1, 13, 2, 6, 4, 5, 11, 12, 8, 7]);
makespan = 861;
----------
assign = array1d(1..13 ,[4, 3, 4, 4, 4, 3, 3, 4, 4, 1, 2, 3, 4]);
next = array1d(1..13 ,[3, 12, 9, 1, 13, 2, 6, 4, 5, 11, 7, 8, 10]);
makespan = 860;
----------
assign = array1d(1..13 ,[4, 1, 4, 4, 4, 1, 1, 4, 4, 1, 2, 3, 4]);
next = array1d(1..13 ,[3, 10, 9, 1, 13, 2, 6, 4, 5, 11, 12, 8, 7]);
makespan = 858;
----------
assign = array1d(1..13 ,[4, 3, 4, 4, 4, 3, 3, 4, 4, 1, 2, 3, 4]);
next = array1d(1..13 ,[3, 12, 9, 1, 13, 2, 6, 4, 5, 11, 7, 8, 10]);
makespan = 857;
----------
assign = array1d(1..13 ,[4, 1, 4, 4, 4, 1, 1, 4, 4, 1, 2, 3, 4]);
next = array1d(1..13 ,[3, 10, 9, 1, 13, 2, 6, 4, 5, 11, 12, 8, 7]);
makespan = 856;
----------
assign = array1d(1..13 ,[4, 3, 4, 4, 4, 3, 3, 4, 4, 1, 2, 3, 4]);
next = array1d(1..13 ,[3, 12, 9, 1, 13, 2, 6, 4, 5, 11, 7, 8, 10]);
makespan = 855;
----------
assign = array1d(1..13 ,[4, 1, 4, 4, 4, 1, 1, 4, 4, 1, 2, 3, 4]);
next = array1d(1..13 ,[3, 10, 9, 1, 13, 2, 6, 4, 5, 11, 12, 8, 7]);
makespan = 853;
----------
assign = array1d(1..13 ,[4, 3, 4, 4, 4, 3, 3, 4, 4, 1, 2, 3, 4]);
next = array1d(1..13 ,[3, 12, 9, 1, 13, 2, 6, 4, 5, 11, 7, 8, 10]);
makespan = 851;
----------
assign = array1d(1..13 ,[4, 1, 4, 4, 4, 1, 1, 4, 4, 1, 2, 3, 4]);
next = array1d(1..13 ,[3, 10, 9, 1, 13, 2, 6, 4, 5, 11, 12, 8, 7]);
makespan = 850;
----------
assign = array1d(1..13 ,[4, 3, 4, 4, 4, 3, 3, 4, 4, 1, 2, 3, 4]);
next = array1d(1..13 ,[3, 12, 9, 1, 13, 2, 6, 4, 5, 11, 7, 8, 10]);
makespan = 849;
----------
assign = array1d(1..13 ,[4, 1, 4, 4, 4, 1, 1, 4, 4, 1, 2, 3, 4]);
next = array1d(1..13 ,[3, 10, 9, 1, 13, 2, 6, 4, 5, 11, 12, 8, 7]);
makespan = 848;
----------
assign = array1d(1..13 ,[4, 1, 4, 4, 4, 1, 1, 4, 4, 1, 2, 3, 4]);
next = array1d(1..13 ,[3, 10, 9, 1, 13, 2, 6, 4, 5, 11, 12, 8, 7]);
makespan = 846;
----------
assign = array1d(1..13 ,[4, 3, 4, 4, 4, 3, 3, 4, 4, 1, 2, 3, 4]);
next = array1d(1..13 ,[3, 12, 9, 1, 13, 2, 6, 4, 5, 11, 7, 8, 10]);
makespan = 845;
----------
assign = array1d(1..13 ,[4, 3, 4, 4, 4, 3, 3, 4, 4, 1, 2, 3, 4]);
next = array1d(1..13 ,[3, 12, 9, 1, 13, 2, 6, 4, 5, 11, 7, 8, 10]);
makespan = 844;
----------
assign = array1d(1..13 ,[4, 1, 4, 4, 4, 1, 1, 4, 4, 1, 2, 3, 4]);
next = array1d(1..13 ,[3, 10, 9, 1, 13, 2, 6, 4, 5, 11, 12, 8, 7]);
makespan = 843;
----------
assign = array1d(1..13 ,[4, 3, 4, 4, 4, 3, 3, 4, 4, 1, 2, 3, 4]);
next = array1d(1..13 ,[3, 12, 9, 1, 13, 2, 6, 4, 5, 11, 7, 8, 10]);
makespan = 842;
----------
assign = array1d(1..13 ,[4, 3, 4, 4, 4, 3, 3, 4, 4, 1, 2, 3, 4]);
next = array1d(1..13 ,[3, 12, 9, 1, 13, 2, 6, 4, 5, 11, 7, 8, 10]);
makespan = 841;
----------
assign = array1d(1..13 ,[4, 3, 4, 4, 4, 3, 3, 4, 4, 1, 2, 3, 4]);
next = array1d(1..13 ,[3, 12, 9, 1, 13, 2, 6, 4, 5, 11, 7, 8, 10]);
makespan = 840;
----------
assign = array1d(1..13 ,[4, 1, 4, 4, 4, 1, 1, 4, 4, 1, 2, 3, 4]);
next = array1d(1..13 ,[3, 10, 9, 1, 13, 2, 6, 4, 5, 11, 12, 8, 7]);
makespan = 839;
----------
assign = array1d(1..13 ,[4, 3, 4, 4, 4, 3, 3, 4, 4, 1, 2, 3, 4]);
next = array1d(1..13 ,[3, 12, 9, 1, 13, 2, 6, 4, 5, 11, 7, 8, 10]);
makespan = 838;
----------
assign = array1d(1..13 ,[4, 1, 4, 4, 4, 1, 1, 4, 4, 1, 2, 3, 4]);
next = array1d(1..13 ,[3, 10, 9, 1, 13, 2, 6, 4, 5, 11, 12, 8, 7]);
makespan = 837;
----------
assign = array1d(1..13 ,[4, 1, 4, 4, 4, 1, 1, 4, 4, 1, 2, 3, 4]);
next = array1d(1..13 ,[3, 10, 9, 1, 13, 2, 6, 4, 5, 11, 12, 8, 7]);
makespan = 836;
----------
assign = array1d(1..13 ,[4, 1, 4, 4, 4, 1, 1, 4, 4, 1, 2, 3, 4]);
next = array1d(1..13 ,[3, 10, 9, 1, 13, 2, 6, 4, 5, 11, 12, 8, 7]);
makespan = 835;
----------
assign = array1d(1..13 ,[4, 3, 4, 4, 4, 3, 3, 4, 4, 1, 2, 3, 4]);
next = array1d(1..13 ,[3, 12, 9, 1, 13, 2, 6, 4, 5, 11, 7, 8, 10]);
makespan = 834;
----------
assign = array1d(1..13 ,[4, 1, 4, 4, 4, 1, 1, 4, 4, 1, 2, 3, 4]);
next = array1d(1..13 ,[3, 10, 9, 1, 13, 2, 6, 4, 5, 11, 12, 8, 7]);
makespan = 833;
----------
assign = array1d(1..13 ,[4, 1, 4, 4, 4, 1, 1, 4, 4, 1, 2, 3, 4]);
next = array1d(1..13 ,[3, 10, 9, 1, 13, 2, 6, 4, 5, 11, 12, 8, 7]);
makespan = 832;
----------
assign = array1d(1..13 ,[4, 3, 4, 4, 4, 3, 3, 4, 4, 1, 2, 3, 4]);
next = array1d(1..13 ,[3, 12, 9, 1, 13, 2, 6, 4, 5, 11, 7, 8, 10]);
makespan = 831;
----------
assign = array1d(1..13 ,[4, 1, 4, 4, 4, 1, 1, 4, 4, 1, 2, 3, 4]);
next = array1d(1..13 ,[3, 10, 9, 1, 13, 2, 6, 4, 5, 11, 12, 8, 7]);
makespan = 830;
----------
assign = array1d(1..13 ,[4, 2, 4, 4, 4, 2, 2, 4, 4, 1, 2, 3, 4]);
next = array1d(1..13 ,[3, 11, 9, 1, 13, 2, 6, 4, 5, 7, 12, 8, 10]);
makespan = 829;
----------
assign = array1d(1..13 ,[4, 3, 4, 4, 4, 3, 3, 4, 4, 1, 2, 3, 4]);
next = array1d(1..13 ,[3, 12, 9, 1, 13, 2, 6, 4, 5, 11, 7, 8, 10]);
makespan = 827;
----------
assign = array1d(1..13 ,[4, 1, 4, 4, 4, 1, 1, 4, 4, 1, 2, 3, 4]);
next = array1d(1..13 ,[3, 10, 9, 1, 13, 2, 6, 4, 5, 11, 12, 8, 7]);
makespan = 826;
----------
assign = array1d(1..13 ,[4, 1, 4, 4, 4, 1, 1, 4, 4, 1, 2, 3, 4]);
next = array1d(1..13 ,[3, 10, 9, 1, 13, 2, 6, 4, 5, 11, 12, 8, 7]);
makespan = 825;
----------
assign = array1d(1..13 ,[4, 1, 4, 4, 4, 1, 1, 4, 4, 1, 2, 3, 4]);
next = array1d(1..13 ,[3, 10, 9, 1, 13, 2, 6, 4, 5, 11, 12, 8, 7]);
makespan = 824;
----------
assign = array1d(1..13 ,[4, 1, 4, 4, 4, 1, 1, 4, 4, 1, 2, 3, 4]);
next = array1d(1..13 ,[3, 10, 9, 1, 13, 2, 6, 4, 5, 11, 12, 8, 7]);
makespan = 822;
----------
assign = array1d(1..13 ,[4, 1, 4, 4, 4, 1, 1, 4, 4, 1, 2, 3, 4]);
next = array1d(1..13 ,[3, 10, 9, 1, 13, 2, 6, 4, 5, 11, 12, 8, 7]);
makespan = 820;
----------
assign = array1d(1..13 ,[4, 1, 4, 4, 4, 1, 1, 4, 4, 1, 2, 3, 4]);
next = array1d(1..13 ,[3, 10, 9, 1, 13, 2, 6, 4, 5, 11, 12, 8, 7]);
makespan = 819;
----------
assign = array1d(1..13 ,[4, 1, 4, 4, 4, 1, 1, 4, 4, 1, 2, 3, 4]);
next = array1d(1..13 ,[3, 10, 9, 1, 13, 2, 6, 4, 5, 11, 12, 8, 7]);
makespan = 817;
----------
assign = array1d(1..13 ,[4, 1, 4, 4, 4, 1, 1, 4, 4, 1, 2, 3, 4]);
next = array1d(1..13 ,[3, 10, 9, 1, 13, 2, 6, 4, 5, 11, 12, 8, 7]);
makespan = 815;
----------
assign = array1d(1..13 ,[4, 1, 4, 4, 4, 1, 1, 4, 4, 1, 2, 3, 4]);
next = array1d(1..13 ,[3, 10, 9, 1, 13, 2, 6, 4, 5, 11, 12, 8, 7]);
makespan = 814;
----------
assign = array1d(1..13 ,[4, 2, 4, 4, 4, 2, 2, 4, 4, 1, 2, 3, 4]);
next = array1d(1..13 ,[3, 11, 9, 1, 13, 2, 6, 4, 5, 7, 12, 8, 10]);
makespan = 813;
----------
assign = array1d(1..13 ,[4, 1, 4, 4, 4, 1, 1, 4, 4, 1, 2, 3, 4]);
next = array1d(1..13 ,[3, 10, 9, 1, 13, 2, 6, 4, 5, 11, 12, 8, 7]);
makespan = 812;
----------
assign = array1d(1..13 ,[4, 2, 4, 4, 4, 2, 2, 4, 4, 1, 2, 3, 4]);
next = array1d(1..13 ,[3, 11, 9, 1, 13, 2, 6, 4, 5, 7, 12, 8, 10]);
makespan = 811;
----------
assign = array1d(1..13 ,[4, 1, 4, 4, 4, 1, 1, 4, 4, 1, 2, 3, 4]);
next = array1d(1..13 ,[3, 10, 9, 1, 13, 2, 6, 4, 5, 11, 12, 8, 7]);
makespan = 810;
----------
assign = array1d(1..13 ,[4, 2, 4, 4, 4, 2, 2, 4, 4, 1, 2, 3, 4]);
next = array1d(1..13 ,[3, 11, 9, 1, 13, 2, 6, 4, 5, 7, 12, 8, 10]);
makespan = 808;
----------
assign = array1d(1..13 ,[4, 3, 4, 4, 4, 3, 3, 4, 4, 1, 2, 3, 4]);
next = array1d(1..13 ,[13, 6, 9, 1, 8, 12, 2, 4, 5, 11, 7, 3, 10]);
makespan = 807;
----------
assign = array1d(1..13 ,[4, 3, 4, 4, 4, 3, 3, 4, 4, 1, 2, 3, 4]);
next = array1d(1..13 ,[13, 6, 9, 1, 8, 12, 2, 4, 5, 11, 7, 3, 10]);
makespan = 805;
----------
assign = array1d(1..13 ,[4, 3, 4, 4, 4, 3, 3, 4, 4, 1, 2, 3, 4]);
next = array1d(1..13 ,[13, 6, 9, 1, 8, 12, 2, 4, 5, 11, 7, 3, 10]);
makespan = 803;
----------
assign = array1d(1..13 ,[4, 3, 4, 4, 4, 3, 3, 4, 4, 1, 2, 3, 4]);
next = array1d(1..13 ,[13, 6, 9, 1, 8, 12, 2, 4, 5, 11, 7, 3, 10]);
makespan = 800;
----------
assign = array1d(1..13 ,[4, 3, 4, 4, 4, 3, 3, 4, 4, 1, 2, 3, 4]);
next = array1d(1..13 ,[13, 6, 9, 1, 8, 12, 2, 4, 5, 11, 7, 3, 10]);
makespan = 798;
----------
assign = array1d(1..13 ,[4, 3, 4, 4, 4, 3, 3, 4, 4, 1, 2, 3, 4]);
next = array1d(1..13 ,[13, 6, 9, 1, 8, 12, 2, 4, 5, 11, 7, 3, 10]);
makespan = 796;
----------
assign = array1d(1..13 ,[4, 3, 4, 4, 4, 3, 3, 4, 4, 1, 2, 3, 4]);
next = array1d(1..13 ,[13, 6, 9, 1, 8, 12, 2, 4, 5, 11, 7, 3, 10]);
makespan = 795;
----------
assign = array1d(1..13 ,[4, 3, 4, 4, 4, 3, 3, 4, 4, 1, 2, 3, 4]);
next = array1d(1..13 ,[13, 6, 9, 1, 8, 12, 2, 4, 5, 11, 7, 3, 10]);
makespan = 794;
----------
assign = array1d(1..13 ,[4, 3, 4, 4, 4, 3, 3, 4, 4, 1, 2, 3, 4]);
next = array1d(1..13 ,[13, 6, 9, 1, 8, 12, 2, 4, 5, 11, 7, 3, 10]);
makespan = 793;
----------
assign = array1d(1..13 ,[4, 3, 4, 4, 4, 3, 3, 4, 4, 1, 2, 3, 4]);
next = array1d(1..13 ,[13, 6, 9, 1, 8, 12, 2, 4, 5, 11, 7, 3, 10]);
makespan = 791;
----------
assign = array1d(1..13 ,[4, 3, 4, 4, 4, 3, 3, 4, 4, 1, 2, 3, 4]);
next = array1d(1..13 ,[13, 6, 9, 1, 8, 12, 2, 4, 5, 11, 7, 3, 10]);
makespan = 789;
----------
assign = array1d(1..13 ,[4, 3, 4, 4, 4, 3, 3, 4, 4, 1, 2, 3, 4]);
next = array1d(1..13 ,[13, 6, 9, 1, 8, 12, 2, 4, 5, 11, 7, 3, 10]);
makespan = 788;
----------
assign = array1d(1..13 ,[4, 3, 4, 4, 4, 3, 3, 4, 4, 1, 2, 3, 4]);
next = array1d(1..13 ,[13, 6, 9, 1, 8, 12, 2, 4, 5, 11, 7, 3, 10]);
makespan = 786;
----------
assign = array1d(1..13 ,[4, 3, 4, 4, 4, 3, 3, 4, 4, 1, 2, 3, 4]);
next = array1d(1..13 ,[13, 6, 9, 1, 8, 12, 2, 4, 5, 11, 7, 3, 10]);
makespan = 784;
----------
assign = array1d(1..13 ,[4, 2, 4, 4, 4, 2, 2, 4, 4, 1, 2, 3, 4]);
next = array1d(1..13 ,[8, 6, 9, 13, 1, 7, 11, 4, 5, 2, 12, 3, 10]);
makespan = 783;
----------
assign = array1d(1..13 ,[4, 2, 4, 4, 4, 2, 2, 4, 4, 1, 2, 3, 4]);
next = array1d(1..13 ,[8, 6, 9, 13, 1, 7, 11, 4, 5, 2, 12, 3, 10]);
makespan = 782;
----------
assign = array1d(1..13 ,[4, 2, 4, 4, 4, 2, 2, 4, 4, 1, 2, 3, 4]);
next = array1d(1..13 ,[8, 6, 9, 13, 1, 7, 11, 4, 5, 2, 12, 3, 10]);
makespan = 781;
----------
assign = array1d(1..13 ,[4, 2, 4, 4, 4, 2, 2, 4, 4, 1, 2, 3, 4]);
next = array1d(1..13 ,[8, 6, 9, 13, 1, 7, 11, 4, 5, 2, 12, 3, 10]);
makespan = 780;
----------
assign = array1d(1..13 ,[4, 2, 4, 4, 4, 2, 2, 4, 4, 1, 2, 3, 4]);
next = array1d(1..13 ,[8, 6, 9, 13, 1, 7, 11, 4, 5, 2, 12, 3, 10]);
makespan = 779;
----------
assign = array1d(1..13 ,[4, 2, 4, 4, 4, 2, 2, 4, 4, 1, 2, 3, 4]);
next = array1d(1..13 ,[8, 6, 9, 13, 1, 7, 11, 4, 5, 2, 12, 3, 10]);
makespan = 778;
----------
assign = array1d(1..13 ,[4, 2, 4, 4, 4, 2, 2, 4, 4, 1, 2, 3, 4]);
next = array1d(1..13 ,[8, 6, 9, 13, 1, 7, 11, 4, 5, 2, 12, 3, 10]);
makespan = 777;
----------
assign = array1d(1..13 ,[2, 1, 4, 4, 4, 1, 4, 4, 4, 1, 2, 3, 4]);
next = array1d(1..13 ,[11, 10, 9, 3, 13, 2, 8, 4, 5, 1, 12, 7, 6]);
makespan = 776;
----------
assign = array1d(1..13 ,[2, 1, 4, 4, 4, 1, 4, 4, 4, 1, 2, 3, 4]);
next = array1d(1..13 ,[11, 10, 9, 3, 13, 2, 8, 4, 5, 1, 12, 7, 6]);
makespan = 775;
----------
assign = array1d(1..13 ,[2, 1, 4, 4, 4, 1, 4, 4, 4, 1, 2, 3, 4]);
next = array1d(1..13 ,[11, 10, 9, 3, 13, 2, 8, 4, 5, 1, 12, 7, 6]);
makespan = 774;
----------
assign = array1d(1..13 ,[2, 1, 4, 4, 4, 1, 4, 4, 4, 1, 2, 3, 4]);
next = array1d(1..13 ,[11, 10, 9, 3, 13, 2, 8, 4, 5, 1, 12, 7, 6]);
makespan = 772;
----------
assign = array1d(1..13 ,[2, 1, 4, 4, 4, 1, 4, 4, 4, 1, 2, 3, 4]);
next = array1d(1..13 ,[11, 10, 9, 3, 13, 2, 8, 4, 5, 1, 12, 7, 6]);
makespan = 771;
----------
assign = array1d(1..13 ,[2, 1, 4, 4, 4, 1, 4, 4, 4, 1, 2, 3, 4]);
next = array1d(1..13 ,[11, 10, 9, 3, 13, 2, 8, 4, 5, 1, 12, 7, 6]);
makespan = 770;
----------
assign = array1d(1..13 ,[2, 1, 4, 4, 4, 1, 4, 4, 4, 1, 2, 3, 4]);
next = array1d(1..13 ,[11, 10, 9, 3, 13, 2, 8, 4, 5, 1, 12, 7, 6]);
makespan = 769;
----------
assign = array1d(1..13 ,[2, 1, 4, 4, 4, 1, 4, 4, 4, 1, 2, 3, 4]);
next = array1d(1..13 ,[11, 10, 9, 13, 7, 2, 8, 4, 5, 1, 12, 3, 6]);
makespan = 768;
----------
assign = array1d(1..13 ,[2, 1, 4, 4, 4, 1, 4, 4, 4, 1, 2, 3, 4]);
next = array1d(1..13 ,[11, 10, 9, 13, 7, 2, 8, 4, 5, 1, 12, 3, 6]);
makespan = 767;
----------
assign = array1d(1..13 ,[2, 1, 4, 4, 4, 1, 4, 4, 4, 1, 2, 3, 4]);
next = array1d(1..13 ,[11, 10, 9, 13, 7, 2, 8, 4, 5, 1, 12, 3, 6]);
makespan = 766;
----------
assign = array1d(1..13 ,[2, 1, 4, 4, 4, 1, 4, 4, 4, 1, 2, 3, 4]);
next = array1d(1..13 ,[11, 10, 9, 13, 7, 2, 8, 4, 5, 1, 12, 3, 6]);
makespan = 764;
----------
assign = array1d(1..13 ,[2, 1, 4, 4, 4, 1, 4, 4, 4, 1, 2, 3, 4]);
next = array1d(1..13 ,[11, 10, 9, 13, 7, 2, 8, 4, 5, 1, 12, 3, 6]);
makespan = 763;
----------
assign = array1d(1..13 ,[2, 1, 4, 4, 4, 1, 4, 4, 4, 1, 2, 3, 4]);
next = array1d(1..13 ,[11, 10, 9, 13, 7, 2, 8, 4, 5, 1, 12, 3, 6]);
makespan = 762;
----------
assign = array1d(1..13 ,[2, 1, 4, 4, 4, 1, 4, 4, 4, 1, 2, 3, 4]);
next = array1d(1..13 ,[11, 10, 9, 13, 7, 2, 8, 4, 5, 1, 12, 3, 6]);
makespan = 760;
----------
assign = array1d(1..13 ,[2, 1, 4, 4, 4, 1, 4, 4, 4, 1, 2, 3, 4]);
next = array1d(1..13 ,[11, 10, 9, 13, 7, 2, 8, 4, 5, 1, 12, 3, 6]);
makespan = 759;
----------
assign = array1d(1..13 ,[2, 1, 4, 4, 4, 1, 4, 4, 4, 1, 2, 3, 4]);
next = array1d(1..13 ,[11, 10, 9, 13, 7, 2, 8, 4, 5, 1, 12, 3, 6]);
makespan = 758;
----------
assign = array1d(1..13 ,[2, 1, 4, 4, 4, 1, 4, 4, 4, 1, 2, 3, 4]);
next = array1d(1..13 ,[11, 10, 9, 13, 7, 2, 8, 4, 5, 1, 12, 3, 6]);
makespan = 757;
----------
assign = array1d(1..13 ,[2, 1, 4, 4, 4, 1, 4, 4, 4, 1, 2, 3, 4]);
next = array1d(1..13 ,[11, 10, 9, 13, 7, 2, 8, 4, 5, 1, 12, 3, 6]);
makespan = 755;
----------
assign = array1d(1..13 ,[2, 1, 4, 4, 4, 1, 4, 4, 4, 1, 2, 3, 4]);
next = array1d(1..13 ,[11, 10, 9, 13, 7, 2, 8, 4, 5, 1, 12, 3, 6]);
makespan = 753;
----------
assign = array1d(1..13 ,[2, 1, 4, 4, 4, 1, 4, 4, 4, 1, 2, 3, 4]);
next = array1d(1..13 ,[11, 10, 9, 13, 7, 2, 8, 4, 5, 1, 12, 3, 6]);
makespan = 752;
----------
assign = array1d(1..13 ,[2, 1, 4, 4, 4, 1, 4, 4, 4, 1, 2, 3, 4]);
next = array1d(1..13 ,[11, 10, 9, 13, 7, 2, 8, 4, 5, 1, 12, 3, 6]);
makespan = 751;
----------
assign = array1d(1..13 ,[2, 1, 4, 4, 4, 1, 4, 4, 4, 1, 2, 3, 4]);
next = array1d(1..13 ,[11, 10, 9, 13, 7, 2, 8, 4, 5, 1, 12, 3, 6]);
makespan = 750;
----------
assign = array1d(1..13 ,[2, 1, 4, 4, 4, 1, 4, 4, 4, 1, 2, 3, 4]);
next = array1d(1..13 ,[11, 10, 9, 13, 7, 2, 8, 4, 5, 1, 12, 3, 6]);
makespan = 749;
----------
assign = array1d(1..13 ,[2, 1, 4, 4, 4, 1, 4, 4, 4, 1, 2, 3, 4]);
next = array1d(1..13 ,[11, 10, 9, 13, 7, 2, 8, 4, 5, 1, 12, 3, 6]);
makespan = 748;
----------
assign = array1d(1..13 ,[2, 1, 4, 4, 4, 1, 4, 4, 4, 1, 2, 3, 4]);
next = array1d(1..13 ,[11, 10, 9, 7, 13, 2, 3, 4, 5, 1, 12, 8, 6]);
makespan = 746;
----------
assign = array1d(1..13 ,[2, 1, 4, 4, 4, 1, 4, 4, 4, 1, 2, 3, 4]);
next = array1d(1..13 ,[11, 10, 9, 7, 13, 2, 3, 4, 5, 1, 12, 8, 6]);
makespan = 745;
----------
assign = array1d(1..13 ,[2, 1, 4, 4, 4, 1, 4, 4, 4, 1, 2, 3, 4]);
next = array1d(1..13 ,[11, 10, 9, 7, 13, 2, 3, 4, 5, 1, 12, 8, 6]);
makespan = 743;
----------
assign = array1d(1..13 ,[2, 1, 4, 4, 4, 1, 4, 4, 4, 1, 2, 3, 4]);
next = array1d(1..13 ,[11, 10, 9, 7, 13, 2, 3, 4, 5, 1, 12, 8, 6]);
makespan = 741;
----------
assign = array1d(1..13 ,[2, 2, 4, 4, 4, 1, 2, 4, 4, 1, 2, 3, 4]);
next = array1d(1..13 ,[7, 11, 9, 3, 13, 10, 2, 4, 5, 1, 12, 8, 6]);
makespan = 739;
----------
assign = array1d(1..13 ,[2, 2, 4, 4, 4, 1, 2, 4, 4, 1, 2, 3, 4]);
next = array1d(1..13 ,[7, 11, 9, 3, 13, 10, 2, 4, 5, 1, 12, 8, 6]);
makespan = 738;
----------
assign = array1d(1..13 ,[2, 2, 4, 4, 4, 1, 2, 4, 4, 1, 2, 3, 4]);
next = array1d(1..13 ,[7, 11, 9, 3, 13, 10, 2, 4, 5, 1, 12, 8, 6]);
makespan = 736;
----------
assign = array1d(1..13 ,[2, 2, 4, 4, 4, 1, 2, 4, 4, 1, 2, 3, 4]);
next = array1d(1..13 ,[7, 11, 9, 3, 13, 10, 2, 4, 5, 1, 12, 8, 6]);
makespan = 731;
----------
assign = array1d(1..13 ,[2, 2, 4, 4, 4, 1, 2, 4, 4, 1, 2, 3, 4]);
next = array1d(1..13 ,[7, 11, 9, 3, 13, 10, 2, 4, 5, 1, 12, 8, 6]);
makespan = 729;
----------
assign = array1d(1..13 ,[2, 2, 4, 4, 4, 1, 2, 4, 4, 1, 2, 3, 4]);
next = array1d(1..13 ,[7, 11, 9, 3, 13, 10, 2, 4, 5, 1, 12, 8, 6]);
makespan = 727;
----------
assign = array1d(1..13 ,[2, 2, 4, 4, 4, 1, 2, 4, 4, 1, 2, 3, 4]);
next = array1d(1..13 ,[7, 11, 9, 3, 13, 10, 2, 4, 5, 1, 12, 8, 6]);
makespan = 726;
----------
assign = array1d(1..13 ,[2, 2, 4, 4, 4, 1, 2, 4, 4, 1, 2, 3, 4]);
next = array1d(1..13 ,[7, 11, 9, 3, 13, 10, 2, 4, 5, 1, 12, 8, 6]);
makespan = 724;
----------
assign = array1d(1..13 ,[2, 2, 4, 4, 4, 1, 2, 4, 4, 1, 2, 3, 4]);
next = array1d(1..13 ,[7, 11, 9, 3, 13, 10, 2, 4, 5, 1, 12, 8, 6]);
makespan = 722;
----------
assign = array1d(1..13 ,[2, 2, 4, 4, 4, 1, 2, 4, 4, 1, 2, 3, 4]);
next = array1d(1..13 ,[7, 11, 9, 3, 13, 10, 2, 4, 5, 1, 12, 8, 6]);
makespan = 721;
----------
assign = array1d(1..13 ,[2, 2, 4, 4, 4, 1, 2, 4, 4, 1, 2, 3, 4]);
next = array1d(1..13 ,[7, 11, 9, 3, 13, 10, 2, 4, 5, 1, 12, 8, 6]);
makespan = 720;
----------
assign = array1d(1..13 ,[2, 2, 4, 4, 4, 1, 2, 4, 4, 1, 2, 3, 4]);
next = array1d(1..13 ,[7, 11, 9, 3, 13, 10, 2, 4, 5, 1, 12, 8, 6]);
makespan = 719;
----------
assign = array1d(1..13 ,[2, 2, 4, 4, 4, 1, 2, 4, 4, 1, 2, 3, 4]);
next = array1d(1..13 ,[7, 11, 9, 3, 13, 10, 2, 4, 5, 1, 12, 8, 6]);
makespan = 717;
----------
assign = array1d(1..13 ,[2, 2, 4, 4, 4, 1, 2, 4, 4, 1, 2, 3, 4]);
next = array1d(1..13 ,[7, 11, 9, 3, 13, 10, 2, 4, 5, 1, 12, 8, 6]);
makespan = 715;
----------
assign = array1d(1..13 ,[2, 2, 4, 4, 4, 1, 2, 4, 4, 1, 2, 3, 4]);
next = array1d(1..13 ,[7, 11, 9, 3, 13, 10, 2, 4, 5, 1, 12, 8, 6]);
makespan = 714;
----------
assign = array1d(1..13 ,[2, 2, 4, 4, 4, 1, 2, 4, 4, 1, 2, 3, 4]);
next = array1d(1..13 ,[7, 11, 9, 3, 13, 10, 2, 4, 5, 1, 12, 8, 6]);
makespan = 713;
----------
assign = array1d(1..13 ,[2, 2, 4, 4, 4, 1, 2, 4, 4, 1, 2, 3, 4]);
next = array1d(1..13 ,[7, 11, 9, 3, 13, 10, 2, 4, 5, 1, 12, 8, 6]);
makespan = 709;
----------
assign = array1d(1..13 ,[2, 2, 4, 4, 4, 1, 2, 4, 4, 1, 2, 3, 4]);
next = array1d(1..13 ,[7, 11, 9, 3, 13, 10, 2, 4, 5, 1, 12, 8, 6]);
makespan = 707;
----------
assign = array1d(1..13 ,[2, 2, 4, 4, 4, 1, 2, 4, 4, 1, 2, 3, 4]);
next = array1d(1..13 ,[7, 11, 9, 3, 13, 10, 2, 4, 5, 1, 12, 8, 6]);
makespan = 706;
----------
assign = array1d(1..13 ,[2, 2, 4, 4, 4, 1, 2, 4, 4, 1, 2, 3, 4]);
next = array1d(1..13 ,[7, 11, 9, 3, 13, 10, 2, 4, 5, 1, 12, 8, 6]);
makespan = 705;
----------
assign = array1d(1..13 ,[2, 2, 4, 4, 4, 1, 2, 4, 4, 1, 2, 3, 4]);
next = array1d(1..13 ,[7, 11, 9, 3, 13, 10, 2, 4, 5, 1, 12, 8, 6]);
makespan = 704;
----------
assign = array1d(1..13 ,[2, 2, 4, 4, 4, 1, 2, 4, 4, 1, 2, 3, 4]);
next = array1d(1..13 ,[7, 11, 9, 3, 13, 10, 2, 4, 5, 1, 12, 8, 6]);
makespan = 702;
----------
assign = array1d(1..13 ,[2, 2, 4, 4, 4, 1, 2, 4, 4, 1, 2, 3, 4]);
next = array1d(1..13 ,[7, 11, 9, 3, 13, 10, 2, 4, 5, 1, 12, 8, 6]);
makespan = 700;
----------
assign = array1d(1..13 ,[2, 2, 4, 4, 4, 1, 2, 4, 4, 1, 2, 3, 4]);
next = array1d(1..13 ,[7, 11, 9, 3, 13, 10, 2, 4, 5, 1, 12, 8, 6]);
makespan = 699;
----------
assign = array1d(1..13 ,[2, 2, 4, 4, 4, 1, 2, 4, 4, 1, 2, 3, 4]);
next = array1d(1..13 ,[7, 11, 9, 3, 13, 10, 2, 4, 5, 1, 12, 8, 6]);
makespan = 698;
----------
assign = array1d(1..13 ,[2, 2, 4, 4, 4, 1, 2, 4, 4, 1, 2, 3, 4]);
next = array1d(1..13 ,[7, 11, 9, 3, 13, 10, 2, 4, 5, 1, 12, 8, 6]);
makespan = 697;
----------
assign = array1d(1..13 ,[2, 2, 4, 4, 4, 1, 2, 4, 4, 1, 2, 3, 4]);
next = array1d(1..13 ,[7, 11, 9, 3, 13, 10, 2, 4, 5, 1, 12, 8, 6]);
makespan = 696;
----------
assign = array1d(1..13 ,[2, 2, 4, 4, 4, 1, 2, 4, 4, 1, 2, 3, 4]);
next = array1d(1..13 ,[7, 11, 9, 3, 13, 10, 2, 4, 5, 1, 12, 8, 6]);
makespan = 695;
----------
assign = array1d(1..13 ,[2, 2, 4, 4, 4, 1, 2, 4, 4, 1, 2, 3, 4]);
next = array1d(1..13 ,[7, 11, 9, 3, 13, 10, 2, 4, 5, 1, 12, 8, 6]);
makespan = 693;
----------
assign = array1d(1..13 ,[2, 2, 4, 4, 4, 1, 2, 4, 4, 1, 2, 3, 4]);
next = array1d(1..13 ,[7, 11, 9, 3, 13, 10, 2, 4, 5, 1, 12, 8, 6]);
makespan = 691;
----------
assign = array1d(1..13 ,[2, 2, 4, 4, 4, 1, 2, 4, 4, 1, 2, 3, 4]);
next = array1d(1..13 ,[7, 11, 9, 3, 13, 10, 2, 4, 5, 1, 12, 8, 6]);
makespan = 690;
----------
assign = array1d(1..13 ,[2, 2, 4, 4, 4, 1, 2, 4, 4, 1, 2, 3, 4]);
next = array1d(1..13 ,[7, 11, 9, 3, 13, 10, 2, 4, 5, 1, 12, 8, 6]);
makespan = 688;
----------
assign = array1d(1..13 ,[2, 2, 4, 4, 4, 1, 2, 4, 4, 1, 2, 3, 4]);
next = array1d(1..13 ,[7, 11, 9, 3, 13, 10, 2, 4, 5, 1, 12, 8, 6]);
makespan = 686;
----------
assign = array1d(1..13 ,[2, 2, 4, 4, 4, 1, 2, 4, 4, 1, 2, 3, 4]);
next = array1d(1..13 ,[7, 11, 9, 3, 13, 10, 2, 4, 5, 1, 12, 8, 6]);
makespan = 683;
----------
assign = array1d(1..13 ,[2, 2, 4, 4, 4, 1, 2, 4, 4, 1, 2, 3, 4]);
next = array1d(1..13 ,[7, 11, 9, 3, 13, 10, 2, 4, 5, 1, 12, 8, 6]);
makespan = 681;
----------
assign = array1d(1..13 ,[2, 2, 4, 4, 4, 1, 2, 4, 4, 1, 2, 3, 4]);
next = array1d(1..13 ,[7, 11, 9, 3, 13, 10, 2, 4, 5, 1, 12, 8, 6]);
makespan = 679;
----------
assign = array1d(1..13 ,[2, 2, 4, 4, 4, 1, 2, 4, 4, 1, 2, 3, 4]);
next = array1d(1..13 ,[7, 11, 9, 3, 13, 10, 2, 4, 5, 1, 12, 8, 6]);
makespan = 677;
----------
assign = array1d(1..13 ,[2, 2, 4, 4, 4, 1, 2, 4, 4, 1, 2, 3, 4]);
next = array1d(1..13 ,[7, 11, 9, 3, 13, 10, 2, 4, 5, 1, 12, 8, 6]);
makespan = 670;
----------
assign = array1d(1..13 ,[2, 2, 4, 4, 4, 1, 2, 4, 4, 1, 2, 3, 4]);
next = array1d(1..13 ,[7, 11, 9, 3, 13, 10, 2, 4, 5, 1, 12, 8, 6]);
makespan = 660;
----------
assign = array1d(1..13 ,[2, 2, 4, 4, 4, 1, 2, 4, 4, 1, 2, 3, 4]);
next = array1d(1..13 ,[7, 11, 9, 3, 13, 10, 2, 4, 5, 1, 12, 8, 6]);
makespan = 651;
----------
assign = array1d(1..13 ,[2, 2, 4, 4, 4, 1, 2, 4, 4, 1, 2, 3, 4]);
next = array1d(1..13 ,[7, 11, 9, 3, 13, 10, 2, 4, 5, 1, 12, 8, 6]);
makespan = 650;
----------
assign = array1d(1..13 ,[2, 2, 4, 4, 4, 1, 2, 4, 4, 1, 2, 3, 4]);
next = array1d(1..13 ,[7, 11, 9, 13, 8, 10, 2, 4, 5, 1, 12, 3, 6]);
makespan = 633;
----------
assign = array1d(1..13 ,[3, 1, 3, 4, 4, 1, 3, 4, 4, 1, 2, 3, 4]);
next = array1d(1..13 ,[7, 6, 12, 13, 8, 10, 3, 4, 5, 11, 1, 9, 2]);
makespan = 631;
----------
assign = array1d(1..13 ,[3, 1, 1, 4, 4, 2, 1, 4, 4, 1, 2, 3, 4]);
next = array1d(1..13 ,[12, 10, 7, 13, 8, 11, 2, 4, 5, 6, 1, 9, 3]);
makespan = 629;
----------
assign = array1d(1..13 ,[3, 1, 1, 4, 4, 2, 1, 4, 4, 1, 2, 3, 4]);
next = array1d(1..13 ,[12, 10, 7, 13, 8, 11, 2, 4, 5, 6, 1, 9, 3]);
makespan = 617;
----------
assign = array1d(1..13 ,[3, 1, 1, 4, 4, 2, 1, 4, 4, 1, 2, 3, 4]);
next = array1d(1..13 ,[12, 10, 7, 13, 8, 11, 2, 4, 5, 6, 1, 9, 3]);
makespan = 601;
----------
assign = array1d(1..13 ,[3, 1, 1, 4, 4, 2, 1, 4, 4, 1, 2, 3, 4]);
next = array1d(1..13 ,[12, 10, 7, 13, 8, 11, 2, 4, 5, 6, 1, 9, 3]);
makespan = 576;
----------
assign = array1d(1..13 ,[3, 1, 1, 4, 4, 2, 1, 4, 4, 1, 2, 3, 4]);
next = array1d(1..13 ,[12, 10, 7, 13, 8, 11, 2, 4, 5, 6, 1, 9, 3]);
makespan = 574;
----------
assign = array1d(1..13 ,[3, 1, 1, 4, 4, 2, 1, 4, 4, 1, 2, 3, 4]);
next = array1d(1..13 ,[12, 10, 7, 13, 8, 11, 2, 4, 5, 6, 1, 9, 3]);
makespan = 571;
----------
assign = array1d(1..13 ,[3, 1, 1, 4, 4, 2, 1, 4, 4, 1, 2, 3, 4]);
next = array1d(1..13 ,[12, 10, 7, 13, 8, 11, 2, 4, 5, 6, 1, 9, 3]);
makespan = 567;
----------
assign = array1d(1..13 ,[3, 1, 1, 4, 4, 2, 1, 4, 4, 1, 2, 3, 4]);
next = array1d(1..13 ,[12, 10, 7, 13, 8, 11, 2, 4, 5, 6, 1, 9, 3]);
makespan = 565;
----------
assign = array1d(1..13 ,[3, 1, 1, 4, 4, 2, 1, 4, 4, 1, 2, 3, 4]);
next = array1d(1..13 ,[12, 10, 7, 13, 8, 11, 2, 4, 5, 6, 1, 9, 3]);
makespan = 563;
----------
assign = array1d(1..13 ,[3, 1, 1, 4, 4, 2, 1, 4, 4, 1, 2, 3, 4]);
next = array1d(1..13 ,[12, 10, 7, 13, 8, 11, 2, 4, 5, 6, 1, 9, 3]);
makespan = 562;
----------
assign = array1d(1..13 ,[3, 1, 1, 4, 4, 2, 1, 4, 4, 1, 2, 3, 4]);
next = array1d(1..13 ,[12, 10, 7, 13, 8, 11, 2, 4, 5, 6, 1, 9, 3]);
makespan = 544;
----------
assign = array1d(1..13 ,[3, 1, 1, 4, 4, 2, 1, 4, 4, 1, 2, 3, 4]);
next = array1d(1..13 ,[12, 10, 7, 13, 8, 11, 2, 4, 5, 6, 1, 9, 3]);
makespan = 542;
----------
assign = array1d(1..13 ,[3, 1, 1, 4, 4, 2, 1, 4, 4, 1, 2, 3, 4]);
next = array1d(1..13 ,[12, 10, 7, 13, 8, 11, 2, 4, 5, 6, 1, 9, 3]);
makespan = 526;
----------
assign = array1d(1..13 ,[3, 1, 3, 4, 4, 2, 4, 1, 4, 1, 2, 3, 4]);
next = array1d(1..13 ,[3, 10, 12, 7, 13, 11, 9, 2, 5, 6, 1, 4, 8]);
makespan = 512;
----------
assign = array1d(1..13 ,[2, 2, 4, 4, 1, 4, 2, 4, 1, 1, 2, 3, 4]);
next = array1d(1..13 ,[2, 11, 8, 13, 10, 3, 1, 4, 5, 7, 12, 6, 9]);
makespan = 510;
----------
assign = array1d(1..13 ,[1, 4, 1, 1, 3, 4, 4, 4, 3, 1, 2, 3, 4]);
next = array1d(1..13 ,[10, 7, 1, 3, 9, 8, 13, 2, 12, 11, 5, 6, 4]);
makespan = 509;
----------
assign = array1d(1..13 ,[1, 4, 4, 1, 3, 4, 4, 1, 3, 1, 2, 3, 4]);
next = array1d(1..13 ,[10, 7, 2, 1, 9, 3, 13, 4, 12, 11, 5, 6, 8]);
makespan = 507;
----------
assign = array1d(1..13 ,[3, 4, 3, 3, 2, 4, 4, 4, 2, 1, 2, 3, 4]);
next = array1d(1..13 ,[4, 7, 1, 12, 11, 8, 13, 2, 5, 9, 3, 6, 10]);
makespan = 506;
----------
assign = array1d(1..13 ,[1, 4, 4, 4, 3, 4, 3, 2, 2, 1, 2, 3, 4]);
next = array1d(1..13 ,[10, 3, 13, 2, 12, 4, 5, 11, 8, 9, 7, 6, 1]);
makespan = 505;
----------
assign = array1d(1..13 ,[1, 4, 4, 4, 2, 4, 2, 2, 2, 1, 2, 3, 4]);
next = array1d(1..13 ,[10, 3, 13, 2, 11, 4, 5, 9, 7, 8, 12, 6, 1]);
makespan = 504;
----------
assign = array1d(1..13 ,[1, 2, 4, 4, 2, 4, 4, 2, 2, 1, 2, 3, 4]);
next = array1d(1..13 ,[10, 5, 7, 6, 11, 3, 13, 9, 2, 8, 12, 4, 1]);
makespan = 503;
----------
assign = array1d(1..13 ,[1, 4, 4, 4, 3, 4, 1, 1, 1, 1, 2, 3, 4]);
next = array1d(1..13 ,[9, 3, 13, 2, 12, 4, 1, 7, 10, 11, 5, 6, 8]);
makespan = 502;
----------
assign = array1d(1..13 ,[1, 4, 4, 4, 3, 4, 1, 1, 1, 1, 2, 3, 4]);
next = array1d(1..13 ,[9, 3, 13, 2, 12, 4, 1, 7, 10, 11, 5, 6, 8]);
makespan = 501;
----------
assign = array1d(1..13 ,[1, 4, 4, 4, 3, 4, 1, 1, 1, 1, 2, 3, 4]);
next = array1d(1..13 ,[9, 3, 13, 2, 12, 4, 1, 7, 10, 11, 5, 6, 8]);
makespan = 500;
----------
assign = array1d(1..13 ,[2, 2, 4, 4, 3, 4, 4, 3, 2, 1, 2, 3, 4]);
next = array1d(1..13 ,[11, 1, 7, 6, 12, 3, 13, 5, 2, 9, 8, 4, 10]);
makespan = 498;
----------
assign = array1d(1..13 ,[3, 4, 4, 2, 2, 4, 4, 3, 3, 1, 2, 3, 4]);
next = array1d(1..13 ,[8, 7, 2, 11, 4, 3, 13, 9, 12, 5, 1, 6, 10]);
makespan = 497;
----------
assign = array1d(1..13 ,[2, 3, 4, 4, 2, 4, 4, 3, 3, 1, 2, 3, 4]);
next = array1d(1..13 ,[11, 12, 7, 6, 1, 3, 13, 9, 2, 5, 8, 4, 10]);
makespan = 495;
----------
assign = array1d(1..13 ,[3, 3, 4, 4, 2, 4, 4, 2, 3, 1, 2, 3, 4]);
next = array1d(1..13 ,[12, 1, 7, 6, 11, 3, 13, 5, 2, 8, 9, 4, 10]);
makespan = 494;
----------
assign = array1d(1..13 ,[3, 4, 4, 1, 1, 4, 4, 3, 3, 1, 2, 3, 4]);
next = array1d(1..13 ,[8, 7, 2, 5, 10, 3, 13, 9, 12, 11, 1, 6, 4]);
makespan = 493;
----------
assign = array1d(1..13 ,[3, 4, 4, 2, 2, 4, 4, 3, 3, 1, 2, 3, 4]);
next = array1d(1..13 ,[9, 7, 2, 5, 11, 3, 13, 12, 8, 4, 1, 6, 10]);
makespan = 490;
----------
assign = array1d(1..13 ,[3, 4, 1, 4, 4, 4, 2, 3, 3, 1, 2, 3, 4]);
next = array1d(1..13 ,[8, 5, 10, 13, 4, 2, 11, 9, 12, 7, 1, 6, 3]);
makespan = 489;
----------
assign = array1d(1..13 ,[3, 4, 1, 4, 4, 4, 2, 3, 3, 1, 2, 3, 4]);
next = array1d(1..13 ,[8, 5, 10, 13, 4, 2, 11, 9, 12, 7, 1, 6, 3]);
makespan = 488;
----------
assign = array1d(1..13 ,[3, 4, 1, 4, 4, 4, 2, 3, 3, 1, 2, 3, 4]);
next = array1d(1..13 ,[8, 5, 10, 13, 4, 2, 11, 9, 12, 7, 1, 6, 3]);
makespan = 486;
----------
assign = array1d(1..13 ,[3, 4, 1, 4, 4, 4, 2, 3, 3, 1, 2, 3, 4]);
next = array1d(1..13 ,[8, 5, 10, 13, 4, 2, 11, 9, 12, 7, 1, 6, 3]);
makespan = 485;
----------
assign = array1d(1..13 ,[3, 4, 1, 4, 4, 4, 2, 3, 3, 1, 2, 3, 4]);
next = array1d(1..13 ,[8, 5, 10, 13, 4, 2, 11, 9, 12, 7, 1, 6, 3]);
makespan = 484;
----------
assign = array1d(1..13 ,[3, 4, 1, 4, 4, 4, 2, 3, 3, 1, 2, 3, 4]);
next = array1d(1..13 ,[8, 5, 10, 13, 4, 2, 11, 9, 12, 7, 1, 6, 3]);
makespan = 483;
----------
assign = array1d(1..13 ,[3, 4, 1, 4, 4, 4, 2, 3, 3, 1, 2, 3, 4]);
next = array1d(1..13 ,[8, 5, 10, 13, 4, 2, 11, 9, 12, 7, 1, 6, 3]);
makespan = 481;
----------
assign = array1d(1..13 ,[3, 4, 1, 4, 4, 4, 2, 3, 3, 1, 2, 3, 4]);
next = array1d(1..13 ,[8, 5, 10, 13, 4, 2, 11, 9, 12, 7, 1, 6, 3]);
makespan = 480;
----------
assign = array1d(1..13 ,[3, 4, 1, 4, 4, 4, 2, 3, 3, 1, 2, 3, 4]);
next = array1d(1..13 ,[8, 5, 10, 13, 4, 2, 11, 9, 12, 7, 1, 6, 3]);
makespan = 479;
----------
assign = array1d(1..13 ,[3, 4, 1, 4, 4, 4, 2, 3, 3, 1, 2, 3, 4]);
next = array1d(1..13 ,[8, 5, 10, 13, 4, 2, 11, 9, 12, 7, 1, 6, 3]);
makespan = 478;
----------
assign = array1d(1..13 ,[3, 4, 1, 4, 4, 4, 2, 3, 3, 1, 2, 3, 4]);
next = array1d(1..13 ,[8, 5, 10, 13, 4, 2, 11, 9, 12, 7, 1, 6, 3]);
makespan = 476;
----------
assign = array1d(1..13 ,[3, 4, 1, 4, 4, 4, 2, 3, 3, 1, 2, 3, 4]);
next = array1d(1..13 ,[8, 5, 10, 13, 4, 2, 11, 9, 12, 7, 1, 6, 3]);
makespan = 475;
----------
assign = array1d(1..13 ,[3, 4, 1, 4, 4, 4, 2, 3, 3, 1, 2, 3, 4]);
next = array1d(1..13 ,[8, 5, 10, 13, 4, 2, 11, 9, 12, 7, 1, 6, 3]);
makespan = 474;
----------
assign = array1d(1..13 ,[3, 4, 1, 4, 4, 4, 2, 3, 3, 1, 2, 3, 4]);
next = array1d(1..13 ,[8, 5, 10, 13, 4, 2, 11, 9, 12, 7, 1, 6, 3]);
makespan = 473;
----------
assign = array1d(1..13 ,[3, 4, 1, 4, 4, 4, 2, 3, 3, 1, 2, 3, 4]);
next = array1d(1..13 ,[8, 5, 10, 13, 4, 2, 11, 9, 12, 7, 1, 6, 3]);
makespan = 472;
----------
assign = array1d(1..13 ,[3, 4, 1, 4, 4, 4, 2, 3, 3, 1, 2, 3, 4]);
next = array1d(1..13 ,[8, 5, 10, 13, 4, 2, 11, 9, 12, 7, 1, 6, 3]);
makespan = 471;
----------
assign = array1d(1..13 ,[3, 4, 1, 4, 4, 4, 2, 3, 3, 1, 2, 3, 4]);
next = array1d(1..13 ,[8, 5, 10, 13, 4, 2, 11, 9, 12, 7, 1, 6, 3]);
makespan = 470;
----------
assign = array1d(1..13 ,[3, 4, 1, 4, 4, 4, 2, 3, 3, 1, 2, 3, 4]);
next = array1d(1..13 ,[8, 5, 10, 13, 4, 2, 11, 9, 12, 7, 1, 6, 3]);
makespan = 469;
----------
assign = array1d(1..13 ,[3, 4, 1, 4, 4, 4, 2, 3, 3, 1, 2, 3, 4]);
next = array1d(1..13 ,[8, 5, 10, 13, 4, 2, 11, 9, 12, 7, 1, 6, 3]);
makespan = 468;
----------
assign = array1d(1..13 ,[3, 4, 1, 4, 4, 4, 2, 3, 3, 1, 2, 3, 4]);
next = array1d(1..13 ,[8, 5, 10, 13, 4, 2, 11, 9, 12, 7, 1, 6, 3]);
makespan = 467;
----------
assign = array1d(1..13 ,[3, 4, 1, 4, 4, 4, 2, 3, 3, 1, 2, 3, 4]);
next = array1d(1..13 ,[8, 5, 10, 13, 4, 2, 11, 9, 12, 7, 1, 6, 3]);
makespan = 466;
----------
assign = array1d(1..13 ,[3, 4, 1, 4, 4, 4, 2, 3, 3, 1, 2, 3, 4]);
next = array1d(1..13 ,[8, 5, 10, 13, 4, 2, 11, 9, 12, 7, 1, 6, 3]);
makespan = 465;
----------
assign = array1d(1..13 ,[3, 4, 1, 4, 4, 4, 2, 3, 3, 1, 2, 3, 4]);
next = array1d(1..13 ,[8, 5, 10, 13, 4, 2, 11, 9, 12, 7, 1, 6, 3]);
makespan = 464;
----------
assign = array1d(1..13 ,[3, 4, 1, 4, 4, 4, 2, 3, 3, 1, 2, 3, 4]);
next = array1d(1..13 ,[8, 5, 10, 13, 4, 2, 11, 9, 12, 7, 1, 6, 3]);
makespan = 462;
----------
assign = array1d(1..13 ,[3, 4, 1, 4, 4, 4, 2, 3, 3, 1, 2, 3, 4]);
next = array1d(1..13 ,[8, 5, 10, 13, 4, 2, 11, 9, 12, 7, 1, 6, 3]);
makespan = 461;
----------
assign = array1d(1..13 ,[3, 4, 1, 4, 4, 4, 2, 3, 3, 1, 2, 3, 4]);
next = array1d(1..13 ,[8, 5, 10, 13, 4, 2, 11, 9, 12, 7, 1, 6, 3]);
makespan = 460;
----------
assign = array1d(1..13 ,[3, 4, 1, 4, 4, 4, 2, 3, 3, 1, 2, 3, 4]);
next = array1d(1..13 ,[8, 5, 10, 13, 4, 2, 11, 9, 12, 7, 1, 6, 3]);
makespan = 459;
----------
assign = array1d(1..13 ,[3, 4, 1, 4, 4, 4, 2, 3, 3, 1, 2, 3, 4]);
next = array1d(1..13 ,[8, 5, 10, 13, 4, 2, 11, 9, 12, 7, 1, 6, 3]);
makespan = 458;
----------
assign = array1d(1..13 ,[3, 4, 1, 4, 4, 4, 2, 3, 3, 1, 2, 3, 4]);
next = array1d(1..13 ,[8, 5, 10, 13, 4, 2, 11, 9, 12, 7, 1, 6, 3]);
makespan = 457;
----------
assign = array1d(1..13 ,[3, 4, 1, 4, 4, 4, 2, 3, 3, 1, 2, 3, 4]);
next = array1d(1..13 ,[8, 5, 10, 13, 4, 2, 11, 9, 12, 7, 1, 6, 3]);
makespan = 455;
----------
assign = array1d(1..13 ,[3, 4, 1, 4, 4, 4, 2, 3, 3, 1, 2, 3, 4]);
next = array1d(1..13 ,[8, 5, 10, 13, 4, 2, 11, 9, 12, 7, 1, 6, 3]);
makespan = 454;
----------
assign = array1d(1..13 ,[3, 4, 1, 4, 4, 4, 2, 3, 3, 1, 2, 3, 4]);
next = array1d(1..13 ,[8, 5, 10, 13, 4, 2, 11, 9, 12, 7, 1, 6, 3]);
makespan = 452;
----------
assign = array1d(1..13 ,[3, 4, 1, 4, 4, 4, 2, 3, 3, 1, 2, 3, 4]);
next = array1d(1..13 ,[8, 5, 10, 13, 4, 2, 11, 9, 12, 7, 1, 6, 3]);
makespan = 450;
----------
assign = array1d(1..13 ,[3, 4, 1, 4, 4, 4, 2, 3, 3, 1, 2, 3, 4]);
next = array1d(1..13 ,[8, 5, 10, 13, 4, 2, 11, 9, 12, 7, 1, 6, 3]);
makespan = 449;
----------
assign = array1d(1..13 ,[3, 4, 1, 4, 4, 4, 2, 3, 3, 1, 2, 3, 4]);
next = array1d(1..13 ,[8, 5, 10, 13, 4, 2, 11, 9, 12, 7, 1, 6, 3]);
makespan = 448;
----------
assign = array1d(1..13 ,[3, 4, 1, 4, 4, 4, 2, 3, 3, 1, 2, 3, 4]);
next = array1d(1..13 ,[8, 5, 10, 13, 4, 2, 11, 9, 12, 7, 1, 6, 3]);
makespan = 447;
----------
assign = array1d(1..13 ,[3, 4, 1, 4, 4, 4, 2, 3, 3, 1, 2, 3, 4]);
next = array1d(1..13 ,[8, 5, 10, 13, 4, 2, 11, 9, 12, 7, 1, 6, 3]);
makespan = 446;
----------
assign = array1d(1..13 ,[3, 4, 1, 4, 4, 1, 2, 3, 3, 1, 2, 3, 4]);
next = array1d(1..13 ,[8, 5, 10, 13, 4, 3, 11, 9, 12, 7, 1, 2, 6]);
makespan = 445;
----------
assign = array1d(1..13 ,[3, 4, 2, 4, 4, 2, 2, 3, 3, 1, 2, 3, 4]);
next = array1d(1..13 ,[8, 5, 7, 13, 4, 3, 11, 9, 12, 6, 1, 2, 10]);
makespan = 443;
----------
assign = array1d(1..13 ,[3, 4, 1, 4, 4, 1, 2, 3, 3, 1, 2, 3, 4]);
next = array1d(1..13 ,[8, 5, 10, 13, 4, 3, 11, 9, 12, 7, 1, 2, 6]);
makespan = 440;
----------
assign = array1d(1..13 ,[3, 4, 2, 4, 4, 2, 2, 3, 3, 1, 2, 3, 4]);
next = array1d(1..13 ,[8, 5, 7, 13, 4, 3, 11, 9, 12, 6, 1, 2, 10]);
makespan = 438;
----------
assign = array1d(1..13 ,[3, 4, 1, 4, 4, 1, 2, 3, 3, 1, 2, 3, 4]);
next = array1d(1..13 ,[8, 5, 10, 13, 4, 3, 11, 9, 12, 7, 1, 2, 6]);
makespan = 436;
----------
assign = array1d(1..13 ,[3, 4, 2, 4, 4, 2, 2, 3, 3, 1, 2, 3, 4]);
next = array1d(1..13 ,[8, 5, 7, 13, 4, 3, 11, 9, 12, 6, 1, 2, 10]);
makespan = 435;
----------
assign = array1d(1..13 ,[3, 4, 1, 4, 4, 1, 2, 3, 3, 1, 2, 3, 4]);
next = array1d(1..13 ,[8, 5, 10, 13, 4, 3, 11, 9, 12, 7, 1, 2, 6]);
makespan = 433;
----------
assign = array1d(1..13 ,[3, 4, 2, 4, 4, 2, 2, 3, 3, 1, 2, 3, 4]);
next = array1d(1..13 ,[8, 5, 7, 13, 4, 3, 11, 9, 12, 6, 1, 2, 10]);
makespan = 431;
----------
assign = array1d(1..13 ,[3, 4, 1, 4, 4, 1, 2, 3, 3, 1, 2, 3, 4]);
next = array1d(1..13 ,[8, 5, 10, 13, 4, 3, 11, 9, 12, 7, 1, 2, 6]);
makespan = 428;
----------
assign = array1d(1..13 ,[3, 4, 2, 4, 4, 2, 2, 3, 3, 1, 2, 3, 4]);
next = array1d(1..13 ,[8, 5, 7, 13, 4, 3, 11, 9, 12, 6, 1, 2, 10]);
makespan = 426;
----------
assign = array1d(1..13 ,[3, 4, 1, 4, 4, 1, 2, 3, 3, 1, 2, 3, 4]);
next = array1d(1..13 ,[8, 5, 10, 13, 4, 3, 11, 9, 12, 7, 1, 2, 6]);
makespan = 423;
----------
assign = array1d(1..13 ,[3, 4, 2, 4, 4, 2, 2, 3, 3, 1, 2, 3, 4]);
next = array1d(1..13 ,[8, 5, 7, 13, 4, 3, 11, 9, 12, 6, 1, 2, 10]);
makespan = 421;
----------
assign = array1d(1..13 ,[3, 4, 1, 4, 4, 1, 2, 3, 3, 1, 2, 3, 4]);
next = array1d(1..13 ,[8, 5, 10, 13, 4, 3, 11, 9, 12, 7, 1, 2, 6]);
makespan = 420;
----------
assign = array1d(1..13 ,[3, 4, 2, 4, 4, 2, 2, 3, 3, 1, 2, 3, 4]);
next = array1d(1..13 ,[8, 5, 7, 13, 4, 3, 11, 9, 12, 6, 1, 2, 10]);
makespan = 419;
----------
assign = array1d(1..13 ,[3, 4, 1, 4, 4, 1, 2, 3, 3, 1, 2, 3, 4]);
next = array1d(1..13 ,[8, 5, 10, 13, 4, 3, 11, 9, 12, 7, 1, 2, 6]);
makespan = 417;
----------
assign = array1d(1..13 ,[3, 4, 2, 4, 4, 2, 2, 3, 3, 1, 2, 3, 4]);
next = array1d(1..13 ,[8, 5, 7, 13, 4, 3, 11, 9, 12, 6, 1, 2, 10]);
makespan = 416;
----------
assign = array1d(1..13 ,[3, 4, 1, 4, 4, 1, 2, 3, 3, 1, 2, 3, 4]);
next = array1d(1..13 ,[8, 5, 10, 13, 4, 3, 11, 9, 12, 7, 1, 2, 6]);
makespan = 414;
----------
assign = array1d(1..13 ,[3, 4, 2, 4, 4, 2, 2, 3, 3, 1, 2, 3, 4]);
next = array1d(1..13 ,[8, 5, 7, 13, 4, 3, 11, 9, 12, 6, 1, 2, 10]);
makespan = 412;
----------
assign = array1d(1..13 ,[3, 4, 1, 4, 4, 1, 2, 3, 3, 1, 2, 3, 4]);
next = array1d(1..13 ,[8, 5, 10, 13, 4, 3, 11, 9, 12, 7, 1, 2, 6]);
makespan = 411;
----------
assign = array1d(1..13 ,[3, 4, 2, 4, 4, 2, 2, 3, 3, 1, 2, 3, 4]);
next = array1d(1..13 ,[8, 5, 7, 13, 4, 3, 11, 9, 12, 6, 1, 2, 10]);
makespan = 410;
----------
assign = array1d(1..13 ,[3, 2, 4, 4, 1, 4, 2, 3, 3, 1, 2, 3, 4]);
next = array1d(1..13 ,[9, 7, 6, 13, 10, 4, 11, 12, 8, 2, 1, 3, 5]);
makespan = 409;
----------
assign = array1d(1..13 ,[3, 4, 4, 3, 1, 2, 2, 4, 2, 1, 2, 3, 4]);
next = array1d(1..13 ,[4, 8, 13, 12, 10, 7, 11, 3, 6, 9, 1, 2, 5]);
makespan = 407;
----------
assign = array1d(1..13 ,[4, 2, 4, 4, 2, 3, 3, 2, 3, 1, 2, 3, 4]);
next = array1d(1..13 ,[13, 8, 1, 3, 11, 7, 12, 5, 6, 2, 9, 4, 10]);
makespan = 406;
----------
assign = array1d(1..13 ,[2, 2, 4, 4, 2, 4, 3, 3, 3, 1, 2, 3, 4]);
next = array1d(1..13 ,[5, 11, 13, 6, 2, 3, 9, 12, 8, 1, 7, 4, 10]);
makespan = 404;
----------
assign = array1d(1..13 ,[2, 2, 4, 4, 2, 4, 3, 3, 3, 1, 2, 3, 4]);
next = array1d(1..13 ,[5, 11, 13, 6, 2, 3, 9, 12, 8, 1, 7, 4, 10]);
makespan = 403;
----------
assign = array1d(1..13 ,[2, 2, 4, 4, 2, 4, 3, 3, 3, 1, 2, 3, 4]);
next = array1d(1..13 ,[5, 11, 13, 6, 2, 3, 9, 12, 8, 1, 7, 4, 10]);
makespan = 402;
----------
assign = array1d(1..13 ,[2, 2, 4, 4, 2, 4, 3, 3, 3, 1, 2, 3, 4]);
next = array1d(1..13 ,[5, 11, 13, 6, 2, 3, 9, 12, 8, 1, 7, 4, 10]);
makespan = 400;
----------
assign = array1d(1..13 ,[2, 2, 4, 4, 2, 4, 3, 3, 3, 1, 2, 3, 4]);
next = array1d(1..13 ,[5, 11, 13, 6, 2, 3, 9, 12, 8, 1, 7, 4, 10]);
makespan = 399;
----------
assign = array1d(1..13 ,[2, 2, 4, 4, 2, 4, 3, 3, 3, 1, 2, 3, 4]);
next = array1d(1..13 ,[5, 11, 13, 6, 2, 3, 9, 12, 8, 1, 7, 4, 10]);
makespan = 397;
----------
assign = array1d(1..13 ,[2, 2, 4, 4, 2, 4, 3, 3, 3, 1, 2, 3, 4]);
next = array1d(1..13 ,[5, 11, 13, 6, 2, 3, 9, 12, 8, 1, 7, 4, 10]);
makespan = 396;
----------
assign = array1d(1..13 ,[2, 2, 4, 4, 2, 4, 3, 3, 3, 1, 2, 3, 4]);
next = array1d(1..13 ,[5, 11, 13, 6, 2, 3, 9, 12, 8, 1, 7, 4, 10]);
makespan = 395;
----------
assign = array1d(1..13 ,[2, 2, 4, 4, 2, 4, 3, 3, 3, 1, 2, 3, 4]);
next = array1d(1..13 ,[5, 11, 13, 6, 2, 3, 9, 12, 8, 1, 7, 4, 10]);
makespan = 392;
----------
assign = array1d(1..13 ,[2, 2, 4, 4, 2, 4, 3, 3, 3, 1, 2, 3, 4]);
next = array1d(1..13 ,[5, 11, 13, 6, 2, 3, 9, 12, 8, 1, 7, 4, 10]);
makespan = 391;
----------
assign = array1d(1..13 ,[2, 2, 4, 4, 2, 4, 3, 3, 3, 1, 2, 3, 4]);
next = array1d(1..13 ,[5, 11, 13, 6, 2, 3, 9, 12, 8, 1, 7, 4, 10]);
makespan = 390;
----------
assign = array1d(1..13 ,[2, 2, 4, 4, 2, 4, 3, 3, 3, 1, 2, 3, 4]);
next = array1d(1..13 ,[5, 11, 13, 6, 2, 3, 9, 12, 8, 1, 7, 4, 10]);
makespan = 388;
----------
assign = array1d(1..13 ,[3, 3, 4, 4, 2, 4, 1, 1, 1, 1, 2, 3, 4]);
next = array1d(1..13 ,[2, 12, 13, 6, 11, 3, 9, 10, 8, 5, 1, 4, 7]);
makespan = 385;
----------
assign = array1d(1..13 ,[3, 3, 4, 4, 2, 4, 1, 1, 1, 1, 2, 3, 4]);
next = array1d(1..13 ,[2, 12, 13, 6, 11, 3, 9, 10, 8, 5, 1, 4, 7]);
makespan = 384;
----------
assign = array1d(1..13 ,[3, 3, 4, 4, 2, 4, 1, 1, 1, 1, 2, 3, 4]);
next = array1d(1..13 ,[2, 12, 13, 6, 11, 3, 9, 10, 8, 5, 1, 4, 7]);
makespan = 383;
----------
assign = array1d(1..13 ,[3, 3, 4, 4, 2, 4, 1, 1, 1, 1, 2, 3, 4]);
next = array1d(1..13 ,[2, 12, 13, 6, 11, 3, 9, 10, 8, 5, 1, 4, 7]);
makespan = 381;
----------
assign = array1d(1..13 ,[3, 3, 4, 4, 2, 4, 1, 1, 1, 1, 2, 3, 4]);
next = array1d(1..13 ,[2, 12, 13, 6, 11, 3, 9, 10, 8, 5, 1, 4, 7]);
makespan = 380;
----------
assign = array1d(1..13 ,[3, 3, 4, 4, 2, 4, 1, 1, 1, 1, 2, 3, 4]);
next = array1d(1..13 ,[2, 12, 13, 6, 11, 3, 9, 10, 8, 5, 1, 4, 7]);
makespan = 378;
----------
assign = array1d(1..13 ,[3, 3, 4, 4, 2, 4, 1, 1, 1, 1, 2, 3, 4]);
next = array1d(1..13 ,[2, 12, 13, 6, 11, 3, 9, 10, 8, 5, 1, 4, 7]);
makespan = 377;
----------
assign = array1d(1..13 ,[3, 3, 4, 4, 2, 4, 1, 1, 1, 1, 2, 3, 4]);
next = array1d(1..13 ,[2, 12, 13, 6, 11, 3, 9, 10, 8, 5, 1, 4, 7]);
makespan = 376;
----------
assign = array1d(1..13 ,[2, 2, 4, 4, 1, 4, 2, 3, 3, 1, 2, 3, 4]);
next = array1d(1..13 ,[11, 7, 13, 6, 10, 3, 1, 12, 8, 2, 9, 4, 5]);
makespan = 371;
----------
assign = array1d(1..13 ,[1, 3, 4, 1, 2, 4, 3, 4, 3, 1, 2, 3, 4]);
next = array1d(1..13 ,[4, 7, 8, 10, 11, 3, 9, 13, 12, 5, 2, 6, 1]);
makespan = 370;
----------
assign = array1d(1..13 ,[2, 3, 4, 4, 2, 4, 3, 2, 3, 1, 2, 3, 4]);
next = array1d(1..13 ,[8, 7, 13, 6, 11, 3, 9, 5, 12, 1, 2, 4, 10]);
makespan = 369;
----------
assign = array1d(1..13 ,[1, 3, 4, 1, 2, 4, 3, 4, 3, 1, 2, 3, 4]);
next = array1d(1..13 ,[4, 7, 8, 10, 11, 3, 9, 13, 12, 5, 2, 6, 1]);
makespan = 366;
----------
assign = array1d(1..13 ,[1, 3, 4, 1, 2, 4, 3, 4, 3, 1, 2, 3, 4]);
next = array1d(1..13 ,[4, 7, 8, 10, 11, 3, 9, 13, 12, 5, 2, 6, 1]);
makespan = 364;
----------
assign = array1d(1..13 ,[1, 3, 4, 1, 2, 4, 3, 4, 3, 1, 2, 3, 4]);
next = array1d(1..13 ,[4, 7, 8, 10, 11, 3, 9, 13, 12, 5, 2, 6, 1]);
makespan = 362;
----------
assign = array1d(1..13 ,[1, 3, 4, 1, 2, 4, 3, 4, 3, 1, 2, 3, 4]);
next = array1d(1..13 ,[4, 12, 8, 10, 11, 3, 9, 13, 2, 5, 7, 6, 1]);
makespan = 359;
----------
assign = array1d(1..13 ,[1, 3, 4, 1, 2, 4, 3, 4, 3, 1, 2, 3, 4]);
next = array1d(1..13 ,[4, 12, 8, 10, 11, 3, 9, 13, 2, 5, 7, 6, 1]);
makespan = 358;
----------
assign = array1d(1..13 ,[3, 1, 4, 4, 2, 4, 1, 1, 3, 1, 2, 3, 4]);
next = array1d(1..13 ,[12, 7, 13, 3, 11, 4, 10, 2, 1, 5, 9, 6, 8]);
makespan = 357;
----------
assign = array1d(1..13 ,[3, 1, 4, 4, 2, 4, 1, 1, 3, 1, 2, 3, 4]);
next = array1d(1..13 ,[12, 7, 13, 3, 11, 4, 10, 2, 1, 5, 9, 6, 8]);
makespan = 356;
----------
assign = array1d(1..13 ,[3, 1, 4, 4, 2, 4, 1, 1, 3, 1, 2, 3, 4]);
next = array1d(1..13 ,[12, 7, 13, 3, 11, 4, 10, 2, 1, 5, 9, 6, 8]);
makespan = 355;
----------
assign = array1d(1..13 ,[1, 1, 4, 3, 3, 2, 4, 4, 2, 1, 2, 3, 4]);
next = array1d(1..13 ,[10, 1, 8, 5, 12, 11, 3, 13, 6, 9, 4, 7, 2]);
makespan = 352;
----------
assign = array1d(1..13 ,[2, 2, 1, 3, 3, 4, 1, 1, 4, 1, 2, 3, 4]);
next = array1d(1..13 ,[11, 1, 8, 12, 4, 13, 10, 7, 6, 2, 5, 9, 3]);
makespan = 350;
----------
assign = array1d(1..13 ,[2, 2, 1, 3, 3, 4, 1, 1, 4, 1, 2, 3, 4]);
next = array1d(1..13 ,[11, 1, 8, 12, 4, 13, 10, 7, 6, 2, 5, 9, 3]);
makespan = 348;
----------
assign = array1d(1..13 ,[2, 2, 1, 3, 3, 4, 1, 1, 4, 1, 2, 3, 4]);
next = array1d(1..13 ,[11, 1, 8, 12, 4, 13, 10, 7, 6, 2, 5, 9, 3]);
makespan = 346;
----------
assign = array1d(1..13 ,[3, 3, 2, 1, 1, 4, 1, 2, 4, 1, 2, 3, 4]);
next = array1d(1..13 ,[12, 1, 8, 5, 7, 13, 10, 11, 6, 3, 2, 9, 4]);
makespan = 345;
----------
assign = array1d(1..13 ,[1, 3, 4, 1, 3, 2, 4, 4, 2, 1, 2, 3, 4]);
next = array1d(1..13 ,[10, 12, 8, 1, 2, 9, 13, 7, 11, 6, 5, 3, 4]);
makespan = 344;
----------
assign = array1d(1..13 ,[4, 3, 1, 2, 4, 3, 4, 1, 3, 1, 2, 3, 4]);
next = array1d(1..13 ,[5, 12, 8, 11, 13, 9, 1, 10, 2, 4, 6, 7, 3]);
makespan = 343;
----------
assign = array1d(1..13 ,[4, 1, 1, 2, 4, 3, 2, 1, 3, 1, 2, 3, 4]);
next = array1d(1..13 ,[5, 8, 2, 11, 13, 9, 4, 10, 12, 7, 6, 1, 3]);
makespan = 342;
----------
assign = array1d(1..13 ,[4, 3, 2, 4, 1, 1, 4, 3, 2, 1, 2, 3, 4]);
next = array1d(1..13 ,[13, 8, 9, 1, 6, 10, 4, 12, 11, 3, 2, 7, 5]);
makespan = 341;
----------
assign = array1d(1..13 ,[2, 3, 4, 4, 2, 4, 1, 3, 2, 1, 2, 3, 4]);
next = array1d(1..13 ,[5, 8, 6, 3, 9, 13, 10, 12, 11, 1, 2, 4, 7]);
makespan = 340;
----------
assign = array1d(1..13 ,[2, 3, 4, 4, 2, 4, 1, 3, 2, 1, 2, 3, 4]);
next = array1d(1..13 ,[5, 8, 6, 3, 9, 13, 10, 12, 11, 1, 2, 4, 7]);
makespan = 338;
----------
assign = array1d(1..13 ,[2, 3, 4, 4, 2, 4, 1, 3, 2, 1, 2, 3, 4]);
next = array1d(1..13 ,[5, 8, 6, 3, 9, 13, 10, 12, 11, 1, 2, 4, 7]);
makespan = 336;
----------
assign = array1d(1..13 ,[2, 3, 4, 4, 2, 4, 1, 3, 2, 1, 2, 3, 4]);
next = array1d(1..13 ,[5, 8, 6, 3, 9, 13, 10, 12, 11, 1, 2, 4, 7]);
makespan = 334;
----------
assign = array1d(1..13 ,[2, 3, 4, 4, 2, 4, 1, 3, 2, 1, 2, 3, 4]);
next = array1d(1..13 ,[5, 8, 6, 3, 9, 13, 10, 12, 11, 1, 2, 4, 7]);
makespan = 333;
----------
assign = array1d(1..13 ,[2, 3, 4, 4, 2, 4, 1, 3, 2, 1, 2, 3, 4]);
next = array1d(1..13 ,[5, 8, 6, 3, 9, 13, 10, 12, 11, 1, 2, 4, 7]);
makespan = 331;
----------
assign = array1d(1..13 ,[2, 3, 4, 4, 2, 4, 1, 3, 2, 1, 2, 3, 4]);
next = array1d(1..13 ,[5, 8, 6, 3, 9, 13, 10, 12, 11, 1, 2, 4, 7]);
makespan = 330;
----------
assign = array1d(1..13 ,[2, 3, 4, 4, 2, 4, 1, 3, 2, 1, 2, 3, 4]);
next = array1d(1..13 ,[5, 8, 6, 3, 9, 13, 10, 12, 11, 1, 2, 4, 7]);
makespan = 329;
----------
assign = array1d(1..13 ,[2, 3, 4, 4, 2, 4, 1, 3, 2, 1, 2, 3, 4]);
next = array1d(1..13 ,[5, 8, 6, 3, 9, 13, 10, 12, 11, 1, 2, 4, 7]);
makespan = 328;
----------
assign = array1d(1..13 ,[2, 3, 4, 4, 2, 4, 1, 3, 2, 1, 2, 3, 4]);
next = array1d(1..13 ,[5, 8, 6, 3, 9, 13, 10, 12, 11, 1, 2, 4, 7]);
makespan = 326;
----------
assign = array1d(1..13 ,[2, 3, 4, 4, 2, 4, 1, 3, 2, 1, 2, 3, 4]);
next = array1d(1..13 ,[5, 8, 6, 3, 9, 13, 10, 12, 11, 1, 2, 4, 7]);
makespan = 324;
----------
assign = array1d(1..13 ,[2, 3, 4, 4, 2, 4, 1, 3, 2, 1, 2, 3, 4]);
next = array1d(1..13 ,[5, 8, 6, 3, 9, 13, 10, 12, 11, 1, 2, 4, 7]);
makespan = 322;
----------
assign = array1d(1..13 ,[4, 2, 4, 1, 3, 4, 1, 2, 3, 1, 2, 3, 4]);
next = array1d(1..13 ,[13, 8, 6, 10, 9, 1, 4, 11, 12, 2, 5, 3, 7]);
makespan = 321;
----------
assign = array1d(1..13 ,[4, 3, 4, 2, 3, 4, 2, 1, 1, 1, 2, 3, 4]);
next = array1d(1..13 ,[13, 12, 6, 11, 2, 1, 4, 10, 8, 7, 5, 3, 9]);
makespan = 320;
----------
assign = array1d(1..13 ,[2, 3, 2, 4, 3, 4, 4, 1, 1, 1, 2, 3, 4]);
next = array1d(1..13 ,[3, 12, 11, 13, 2, 7, 4, 10, 8, 1, 5, 6, 9]);
makespan = 319;
----------
assign = array1d(1..13 ,[4, 2, 4, 1, 2, 3, 3, 1, 1, 1, 2, 3, 4]);
next = array1d(1..13 ,[3, 11, 13, 8, 2, 12, 6, 10, 4, 5, 7, 1, 9]);
makespan = 317;
----------
assign = array1d(1..13 ,[1, 2, 1, 4, 3, 4, 4, 3, 2, 1, 2, 3, 4]);
next = array1d(1..13 ,[10, 9, 1, 7, 12, 13, 6, 5, 11, 2, 8, 4, 3]);
makespan = 316;
----------
assign = array1d(1..13 ,[1, 2, 1, 4, 3, 4, 4, 3, 2, 1, 2, 3, 4]);
next = array1d(1..13 ,[3, 9, 10, 7, 12, 13, 6, 5, 11, 2, 8, 4, 1]);
makespan = 314;
----------
assign = array1d(1..13 ,[1, 3, 2, 4, 3, 4, 4, 1, 2, 1, 2, 3, 4]);
next = array1d(1..13 ,[8, 12, 9, 7, 2, 13, 6, 10, 11, 3, 5, 4, 1]);
makespan = 313;
----------
assign = array1d(1..13 ,[3, 1, 2, 4, 1, 4, 4, 3, 2, 1, 2, 3, 4]);
next = array1d(1..13 ,[8, 10, 11, 7, 2, 13, 6, 12, 3, 9, 1, 4, 5]);
makespan = 312;
----------
assign = array1d(1..13 ,[3, 1, 2, 4, 1, 4, 4, 3, 2, 1, 2, 3, 4]);
next = array1d(1..13 ,[8, 10, 11, 7, 2, 13, 6, 12, 3, 9, 1, 4, 5]);
makespan = 311;
----------
assign = array1d(1..13 ,[3, 1, 2, 4, 1, 4, 4, 3, 2, 1, 2, 3, 4]);
next = array1d(1..13 ,[8, 10, 11, 7, 2, 13, 6, 12, 3, 9, 1, 4, 5]);
makespan = 310;
----------
assign = array1d(1..13 ,[3, 1, 2, 4, 1, 4, 4, 3, 2, 1, 2, 3, 4]);
next = array1d(1..13 ,[8, 10, 11, 7, 2, 13, 6, 12, 3, 9, 1, 4, 5]);
makespan = 309;
----------
assign = array1d(1..13 ,[3, 1, 2, 4, 1, 4, 4, 3, 2, 1, 2, 3, 4]);
next = array1d(1..13 ,[8, 10, 11, 7, 2, 13, 6, 12, 3, 9, 1, 4, 5]);
makespan = 308;
----------
assign = array1d(1..13 ,[3, 1, 2, 4, 1, 4, 4, 3, 2, 1, 2, 3, 4]);
next = array1d(1..13 ,[8, 10, 11, 7, 2, 13, 6, 12, 3, 9, 1, 4, 5]);
makespan = 307;
----------
assign = array1d(1..13 ,[3, 1, 2, 4, 1, 4, 4, 3, 2, 1, 2, 3, 4]);
next = array1d(1..13 ,[8, 10, 11, 7, 2, 13, 6, 12, 3, 9, 1, 4, 5]);
makespan = 306;
----------
assign = array1d(1..13 ,[3, 1, 2, 4, 1, 4, 4, 3, 2, 1, 2, 3, 4]);
next = array1d(1..13 ,[8, 10, 11, 7, 2, 13, 6, 12, 3, 9, 1, 4, 5]);
makespan = 305;
----------
assign = array1d(1..13 ,[3, 1, 2, 4, 1, 4, 4, 3, 2, 1, 2, 3, 4]);
next = array1d(1..13 ,[8, 10, 11, 7, 2, 13, 6, 12, 3, 9, 1, 4, 5]);
makespan = 304;
----------
assign = array1d(1..13 ,[3, 1, 2, 4, 1, 4, 4, 3, 2, 1, 2, 3, 4]);
next = array1d(1..13 ,[8, 10, 11, 7, 2, 13, 6, 12, 3, 9, 1, 4, 5]);
makespan = 302;
----------
assign = array1d(1..13 ,[3, 1, 2, 4, 1, 4, 4, 3, 2, 1, 2, 3, 4]);
next = array1d(1..13 ,[8, 10, 11, 7, 2, 13, 6, 12, 3, 9, 1, 4, 5]);
makespan = 301;
----------
assign = array1d(1..13 ,[3, 1, 2, 4, 1, 4, 4, 3, 2, 1, 2, 3, 4]);
next = array1d(1..13 ,[8, 10, 11, 7, 2, 13, 6, 12, 3, 9, 1, 4, 5]);
makespan = 300;
----------
assign = array1d(1..13 ,[3, 1, 2, 4, 1, 4, 4, 3, 2, 1, 2, 3, 4]);
next = array1d(1..13 ,[8, 10, 11, 7, 2, 13, 6, 12, 3, 9, 1, 4, 5]);
makespan = 299;
----------
assign = array1d(1..13 ,[3, 1, 2, 4, 1, 4, 4, 3, 2, 1, 2, 3, 4]);
next = array1d(1..13 ,[8, 10, 11, 7, 2, 13, 6, 12, 3, 9, 1, 4, 5]);
makespan = 298;
----------
assign = array1d(1..13 ,[3, 1, 2, 4, 1, 4, 4, 3, 2, 1, 2, 3, 4]);
next = array1d(1..13 ,[8, 10, 11, 7, 2, 13, 6, 12, 3, 9, 1, 4, 5]);
makespan = 297;
----------
assign = array1d(1..13 ,[3, 1, 2, 4, 1, 4, 4, 3, 2, 1, 2, 3, 4]);
next = array1d(1..13 ,[8, 10, 11, 7, 2, 13, 6, 12, 3, 9, 1, 4, 5]);
makespan = 296;
----------
assign = array1d(1..13 ,[3, 1, 2, 4, 1, 4, 4, 3, 2, 1, 2, 3, 4]);
next = array1d(1..13 ,[8, 10, 11, 7, 2, 13, 6, 12, 3, 9, 1, 4, 5]);
makespan = 295;
----------
assign = array1d(1..13 ,[3, 1, 2, 4, 1, 4, 4, 3, 2, 1, 2, 3, 4]);
next = array1d(1..13 ,[8, 10, 11, 7, 2, 13, 6, 12, 3, 9, 1, 4, 5]);
makespan = 294;
----------
assign = array1d(1..13 ,[3, 1, 2, 4, 1, 4, 4, 3, 2, 1, 2, 3, 4]);
next = array1d(1..13 ,[8, 10, 11, 7, 2, 13, 6, 12, 3, 9, 1, 4, 5]);
makespan = 293;
----------
assign = array1d(1..13 ,[3, 1, 2, 4, 1, 4, 4, 3, 2, 1, 2, 3, 4]);
next = array1d(1..13 ,[8, 10, 11, 7, 2, 13, 6, 12, 3, 9, 1, 4, 5]);
makespan = 292;
----------
assign = array1d(1..13 ,[2, 1, 4, 3, 1, 4, 4, 3, 2, 1, 2, 3, 4]);
next = array1d(1..13 ,[11, 10, 6, 12, 2, 7, 13, 4, 1, 9, 8, 3, 5]);
makespan = 291;
----------
assign = array1d(1..13 ,[2, 4, 1, 2, 1, 4, 4, 3, 3, 1, 2, 3, 4]);
next = array1d(1..13 ,[4, 13, 5, 11, 10, 7, 2, 9, 12, 1, 8, 6, 3]);
makespan = 290;
----------
assign = array1d(1..13 ,[2, 4, 1, 2, 1, 4, 4, 3, 3, 1, 2, 3, 4]);
next = array1d(1..13 ,[4, 13, 5, 11, 10, 2, 6, 9, 12, 1, 8, 7, 3]);
makespan = 289;
----------
assign = array1d(1..13 ,[3, 2, 2, 1, 1, 4, 3, 1, 4, 1, 2, 3, 4]);
next = array1d(1..13 ,[12, 3, 11, 8, 4, 9, 1, 10, 13, 2, 7, 6, 5]);
makespan = 288;
----------
assign = array1d(1..13 ,[2, 4, 2, 3, 1, 4, 4, 3, 1, 1, 2, 3, 4]);
next = array1d(1..13 ,[11, 6, 1, 8, 9, 13, 2, 12, 10, 3, 4, 7, 5]);
makespan = 287;
----------
assign = array1d(1..13 ,[2, 4, 1, 2, 3, 4, 4, 1, 3, 1, 2, 3, 4]);
next = array1d(1..13 ,[4, 6, 10, 11, 9, 13, 2, 3, 12, 1, 5, 7, 8]);
makespan = 286;
----------
assign = array1d(1..13 ,[2, 2, 4, 3, 3, 4, 4, 1, 1, 1, 2, 3, 4]);
next = array1d(1..13 ,[2, 11, 6, 12, 4, 13, 3, 9, 10, 1, 5, 7, 8]);
makespan = 285;
----------
assign = array1d(1..13 ,[2, 1, 4, 3, 1, 4, 4, 3, 2, 1, 2, 3, 4]);
next = array1d(1..13 ,[9, 10, 6, 8, 2, 13, 3, 12, 11, 1, 4, 7, 5]);
makespan = 284;
----------
assign = array1d(1..13 ,[2, 1, 4, 1, 3, 4, 4, 2, 3, 1, 2, 3, 4]);
next = array1d(1..13 ,[8, 10, 6, 2, 9, 13, 3, 11, 12, 1, 5, 7, 4]);
makespan = 283;
----------
assign = array1d(1..13 ,[3, 2, 4, 2, 1, 4, 4, 3, 1, 1, 2, 3, 4]);
next = array1d(1..13 ,[12, 11, 6, 2, 9, 13, 3, 1, 10, 4, 8, 7, 5]);
makespan = 282;
----------
assign = array1d(1..13 ,[3, 4, 1, 2, 1, 4, 4, 2, 3, 1, 2, 3, 4]);
next = array1d(1..13 ,[9, 6, 10, 8, 3, 13, 2, 11, 12, 4, 1, 7, 5]);
makespan = 281;
----------
assign = array1d(1..13 ,[2, 4, 1, 3, 2, 4, 4, 1, 3, 1, 2, 3, 4]);
next = array1d(1..13 ,[5, 13, 10, 12, 11, 2, 6, 3, 4, 1, 9, 7, 8]);
makespan = 280;
----------
assign = array1d(1..13 ,[1, 4, 3, 2, 1, 4, 4, 2, 3, 1, 2, 3, 4]);
next = array1d(1..13 ,[5, 13, 12, 8, 10, 2, 6, 11, 3, 4, 9, 7, 1]);
makespan = 279;
----------
assign = array1d(1..13 ,[3, 4, 1, 1, 2, 4, 4, 2, 3, 1, 2, 3, 4]);
next = array1d(1..13 ,[9, 13, 4, 10, 8, 2, 6, 11, 12, 5, 1, 7, 3]);
makespan = 278;
----------
assign = array1d(1..13 ,[1, 4, 3, 3, 2, 4, 4, 1, 2, 1, 2, 3, 4]);
next = array1d(1..13 ,[8, 6, 12, 3, 9, 13, 2, 10, 11, 5, 4, 7, 1]);
makespan = 277;
----------
assign = array1d(1..13 ,[3, 4, 2, 1, 2, 4, 4, 3, 1, 1, 2, 3, 4]);
next = array1d(1..13 ,[8, 6, 11, 9, 3, 13, 2, 12, 10, 5, 1, 7, 4]);
makespan = 276;
----------
assign = array1d(1..13 ,[1, 4, 1, 3, 2, 4, 4, 2, 3, 1, 2, 3, 4]);
next = array1d(1..13 ,[10, 6, 1, 12, 11, 13, 2, 5, 4, 8, 9, 7, 3]);
makespan = 275;
----------
assign = array1d(1..13 ,[3, 4, 3, 2, 1, 4, 4, 2, 1, 1, 2, 3, 4]);
next = array1d(1..13 ,[3, 6, 12, 8, 9, 13, 2, 11, 10, 4, 1, 7, 5]);
makespan = 274;
----------
==========
	Command being timed: "mzn-chuffed lbbd-datasets/Rabadi-2006/dzn-balanced/model.mzn lbbd-datasets/Rabadi-2006/dzn-balanced/9on4Rp50Rs50_7Ameer.dzn"
	User time (seconds): 0.66
	System time (seconds): 0.02
	Percent of CPU this job got: 0%
	Elapsed (wall clock) time (h:mm:ss or m:ss): 1:50.21
	Average shared text size (kbytes): 0
	Average unshared data size (kbytes): 0
	Average stack size (kbytes): 0
	Average total size (kbytes): 0
	Maximum resident set size (kbytes): 43152
	Average resident set size (kbytes): 0
	Major (requiring I/O) page faults: 0
	Minor (reclaiming a frame) page faults: 3906
	Voluntary context switches: 517
	Involuntary context switches: 3
	Swaps: 0
	File system inputs: 0
	File system outputs: 504
	Socket messages sent: 0
	Socket messages received: 0
	Signals delivered: 0
	Page size (bytes): 4096
	Exit status: 0
