+ /usr/bin/timeout 600 /usr/bin/time -v mzn-chuffed lbbd-datasets/Rabadi-2006/dzn-p-dominant/model.mzn lbbd-datasets/Rabadi-2006/dzn-p-dominant/9on4Rp50Rs50_5Ameer.dzn
% No search annotation given. Defaulting to VSIDS!
assign = array1d(1..13 ,[4, 4, 4, 4, 4, 4, 4, 4, 4, 1, 2, 3, 4]);
next = array1d(1..13 ,[2, 3, 4, 5, 6, 7, 8, 9, 13, 11, 12, 1, 10]);
makespan = 1967;
----------
assign = array1d(1..13 ,[4, 4, 4, 4, 4, 4, 4, 4, 4, 1, 2, 3, 4]);
next = array1d(1..13 ,[3, 4, 2, 5, 6, 7, 8, 9, 13, 11, 12, 1, 10]);
makespan = 1909;
----------
assign = array1d(1..13 ,[4, 4, 1, 4, 4, 4, 4, 4, 4, 1, 2, 3, 4]);
next = array1d(1..13 ,[6, 9, 10, 8, 2, 5, 1, 13, 4, 11, 12, 7, 3]);
makespan = 1835;
----------
assign = array1d(1..13 ,[4, 4, 2, 4, 4, 4, 4, 4, 4, 1, 2, 3, 4]);
next = array1d(1..13 ,[7, 1, 11, 2, 9, 5, 8, 13, 4, 3, 12, 6, 10]);
makespan = 1829;
----------
assign = array1d(1..13 ,[4, 4, 4, 4, 4, 4, 1, 4, 4, 1, 2, 3, 4]);
next = array1d(1..13 ,[5, 8, 1, 13, 9, 2, 10, 4, 6, 11, 12, 3, 7]);
makespan = 1827;
----------
assign = array1d(1..13 ,[4, 4, 4, 4, 4, 4, 3, 4, 4, 1, 2, 3, 4]);
next = array1d(1..13 ,[13, 9, 4, 5, 2, 1, 12, 3, 6, 11, 7, 8, 10]);
makespan = 1826;
----------
assign = array1d(1..13 ,[4, 4, 4, 2, 4, 4, 4, 4, 4, 1, 2, 3, 4]);
next = array1d(1..13 ,[6, 5, 1, 11, 9, 8, 13, 2, 7, 4, 12, 3, 10]);
makespan = 1822;
----------
assign = array1d(1..13 ,[4, 4, 3, 4, 4, 4, 4, 4, 4, 1, 2, 3, 4]);
next = array1d(1..13 ,[7, 9, 12, 5, 2, 8, 13, 4, 1, 11, 3, 6, 10]);
makespan = 1821;
----------
assign = array1d(1..13 ,[4, 4, 4, 3, 4, 4, 4, 4, 4, 1, 2, 3, 4]);
next = array1d(1..13 ,[6, 9, 1, 12, 8, 7, 13, 3, 5, 11, 4, 2, 10]);
makespan = 1820;
----------
assign = array1d(1..13 ,[4, 4, 4, 1, 4, 4, 4, 4, 4, 1, 2, 3, 4]);
next = array1d(1..13 ,[5, 1, 8, 10, 9, 7, 13, 2, 6, 11, 12, 3, 4]);
makespan = 1819;
----------
assign = array1d(1..13 ,[4, 4, 4, 2, 4, 4, 4, 4, 4, 1, 2, 3, 4]);
next = array1d(1..13 ,[9, 8, 1, 11, 2, 13, 5, 3, 6, 4, 12, 7, 10]);
makespan = 1818;
----------
assign = array1d(1..13 ,[4, 4, 1, 4, 4, 4, 4, 4, 4, 1, 2, 3, 4]);
next = array1d(1..13 ,[9, 7, 10, 8, 2, 5, 1, 13, 4, 11, 12, 6, 3]);
makespan = 1817;
----------
assign = array1d(1..13 ,[4, 3, 4, 4, 4, 4, 4, 4, 4, 1, 2, 3, 4]);
next = array1d(1..13 ,[3, 12, 8, 7, 9, 1, 13, 4, 6, 11, 2, 5, 10]);
makespan = 1813;
----------
assign = array1d(1..13 ,[4, 4, 3, 4, 4, 4, 4, 4, 4, 1, 2, 3, 4]);
next = array1d(1..13 ,[7, 8, 12, 5, 9, 1, 2, 13, 6, 11, 3, 4, 10]);
makespan = 1812;
----------
assign = array1d(1..13 ,[4, 4, 2, 4, 4, 4, 4, 4, 4, 1, 2, 3, 4]);
next = array1d(1..13 ,[7, 6, 11, 2, 9, 1, 13, 4, 8, 3, 12, 5, 10]);
makespan = 1810;
----------
assign = array1d(1..13 ,[4, 3, 4, 4, 4, 4, 4, 4, 4, 1, 2, 3, 4]);
next = array1d(1..13 ,[7, 12, 1, 13, 8, 5, 9, 4, 6, 11, 2, 3, 10]);
makespan = 1795;
----------
assign = array1d(1..13 ,[4, 3, 4, 4, 4, 4, 4, 4, 4, 1, 2, 3, 4]);
next = array1d(1..13 ,[7, 12, 1, 13, 8, 5, 9, 4, 6, 11, 2, 3, 10]);
makespan = 1794;
----------
assign = array1d(1..13 ,[4, 4, 4, 4, 4, 4, 4, 1, 4, 1, 2, 3, 4]);
next = array1d(1..13 ,[4, 1, 13, 9, 2, 5, 6, 10, 3, 11, 12, 7, 8]);
makespan = 1759;
----------
assign = array1d(1..13 ,[4, 4, 4, 4, 4, 4, 4, 1, 4, 1, 2, 3, 4]);
next = array1d(1..13 ,[2, 4, 5, 9, 1, 3, 6, 10, 13, 11, 12, 7, 8]);
makespan = 1742;
----------
assign = array1d(1..13 ,[4, 4, 4, 4, 4, 4, 4, 1, 4, 1, 2, 3, 4]);
next = array1d(1..13 ,[2, 4, 1, 9, 3, 5, 6, 10, 13, 11, 12, 7, 8]);
makespan = 1718;
----------
assign = array1d(1..13 ,[4, 4, 1, 4, 4, 4, 4, 4, 4, 1, 2, 3, 4]);
next = array1d(1..13 ,[4, 1, 10, 9, 2, 5, 6, 7, 13, 11, 12, 8, 3]);
makespan = 1717;
----------
assign = array1d(1..13 ,[4, 4, 3, 4, 4, 4, 4, 3, 4, 1, 2, 3, 4]);
next = array1d(1..13 ,[4, 1, 8, 9, 2, 5, 6, 12, 13, 11, 3, 7, 10]);
makespan = 1703;
----------
assign = array1d(1..13 ,[4, 4, 1, 4, 4, 4, 4, 1, 4, 1, 2, 3, 4]);
next = array1d(1..13 ,[4, 1, 8, 9, 2, 5, 6, 10, 13, 11, 12, 7, 3]);
makespan = 1697;
----------
assign = array1d(1..13 ,[4, 4, 3, 4, 4, 4, 4, 3, 4, 1, 2, 3, 4]);
next = array1d(1..13 ,[4, 1, 8, 9, 2, 5, 6, 12, 13, 11, 3, 7, 10]);
makespan = 1694;
----------
assign = array1d(1..13 ,[4, 4, 1, 4, 4, 4, 4, 1, 4, 1, 2, 3, 4]);
next = array1d(1..13 ,[4, 1, 8, 9, 2, 5, 6, 10, 13, 11, 12, 7, 3]);
makespan = 1690;
----------
assign = array1d(1..13 ,[4, 4, 3, 4, 4, 4, 4, 3, 4, 1, 2, 3, 4]);
next = array1d(1..13 ,[4, 1, 8, 9, 2, 5, 6, 12, 13, 11, 3, 7, 10]);
makespan = 1688;
----------
assign = array1d(1..13 ,[4, 4, 1, 4, 4, 4, 4, 1, 4, 1, 2, 3, 4]);
next = array1d(1..13 ,[4, 1, 8, 9, 2, 5, 6, 10, 13, 11, 12, 7, 3]);
makespan = 1685;
----------
assign = array1d(1..13 ,[4, 4, 3, 4, 4, 4, 4, 3, 4, 1, 2, 3, 4]);
next = array1d(1..13 ,[4, 1, 8, 9, 2, 5, 6, 12, 13, 11, 3, 7, 10]);
makespan = 1684;
----------
assign = array1d(1..13 ,[4, 4, 1, 4, 4, 4, 4, 1, 4, 1, 2, 3, 4]);
next = array1d(1..13 ,[4, 1, 8, 9, 2, 5, 6, 10, 13, 11, 12, 7, 3]);
makespan = 1682;
----------
assign = array1d(1..13 ,[4, 4, 3, 4, 4, 4, 4, 3, 4, 1, 2, 3, 4]);
next = array1d(1..13 ,[4, 1, 8, 9, 2, 5, 6, 12, 13, 11, 3, 7, 10]);
makespan = 1681;
----------
assign = array1d(1..13 ,[4, 4, 1, 4, 4, 4, 4, 1, 4, 1, 2, 3, 4]);
next = array1d(1..13 ,[4, 1, 8, 9, 2, 5, 6, 10, 13, 11, 12, 7, 3]);
makespan = 1679;
----------
assign = array1d(1..13 ,[4, 4, 3, 4, 4, 4, 4, 3, 4, 1, 2, 3, 4]);
next = array1d(1..13 ,[4, 1, 8, 9, 2, 5, 6, 12, 13, 11, 3, 7, 10]);
makespan = 1678;
----------
assign = array1d(1..13 ,[4, 4, 1, 4, 4, 4, 4, 1, 4, 1, 2, 3, 4]);
next = array1d(1..13 ,[4, 1, 8, 9, 2, 5, 6, 10, 13, 11, 12, 7, 3]);
makespan = 1676;
----------
assign = array1d(1..13 ,[4, 4, 3, 4, 4, 4, 4, 3, 4, 1, 2, 3, 4]);
next = array1d(1..13 ,[4, 1, 8, 9, 2, 5, 6, 12, 13, 11, 3, 7, 10]);
makespan = 1675;
----------
assign = array1d(1..13 ,[4, 4, 3, 4, 4, 4, 4, 3, 4, 1, 2, 3, 4]);
next = array1d(1..13 ,[4, 1, 8, 9, 2, 5, 6, 12, 13, 11, 3, 7, 10]);
makespan = 1672;
----------
assign = array1d(1..13 ,[4, 4, 3, 4, 4, 4, 4, 3, 4, 1, 2, 3, 4]);
next = array1d(1..13 ,[4, 1, 8, 9, 2, 5, 6, 12, 13, 11, 3, 7, 10]);
makespan = 1669;
----------
assign = array1d(1..13 ,[4, 4, 1, 4, 4, 4, 4, 1, 4, 1, 2, 3, 4]);
next = array1d(1..13 ,[4, 1, 8, 9, 2, 5, 6, 10, 13, 11, 12, 7, 3]);
makespan = 1665;
----------
assign = array1d(1..13 ,[4, 4, 1, 4, 4, 4, 4, 1, 4, 1, 2, 3, 4]);
next = array1d(1..13 ,[4, 1, 8, 9, 2, 5, 6, 10, 13, 11, 12, 7, 3]);
makespan = 1663;
----------
assign = array1d(1..13 ,[4, 4, 1, 4, 4, 4, 4, 1, 4, 1, 2, 3, 4]);
next = array1d(1..13 ,[4, 1, 8, 9, 2, 5, 6, 10, 13, 11, 12, 7, 3]);
makespan = 1662;
----------
assign = array1d(1..13 ,[4, 4, 1, 4, 4, 4, 4, 1, 4, 1, 2, 3, 4]);
next = array1d(1..13 ,[4, 1, 8, 9, 2, 5, 6, 10, 13, 11, 12, 7, 3]);
makespan = 1660;
----------
assign = array1d(1..13 ,[4, 4, 1, 4, 4, 4, 4, 1, 4, 1, 2, 3, 4]);
next = array1d(1..13 ,[4, 1, 8, 9, 2, 5, 6, 10, 13, 11, 12, 7, 3]);
makespan = 1657;
----------
assign = array1d(1..13 ,[4, 4, 2, 4, 4, 4, 4, 2, 4, 1, 2, 3, 4]);
next = array1d(1..13 ,[4, 1, 8, 9, 2, 5, 6, 11, 13, 3, 12, 7, 10]);
makespan = 1656;
----------
assign = array1d(1..13 ,[4, 4, 1, 4, 4, 4, 4, 1, 4, 1, 2, 3, 4]);
next = array1d(1..13 ,[4, 1, 8, 9, 2, 5, 6, 10, 13, 11, 12, 7, 3]);
makespan = 1654;
----------
assign = array1d(1..13 ,[4, 4, 2, 4, 4, 4, 4, 2, 4, 1, 2, 3, 4]);
next = array1d(1..13 ,[4, 1, 8, 9, 2, 5, 6, 11, 13, 3, 12, 7, 10]);
makespan = 1653;
----------
assign = array1d(1..13 ,[4, 4, 1, 4, 4, 4, 4, 1, 4, 1, 2, 3, 4]);
next = array1d(1..13 ,[4, 1, 8, 9, 2, 5, 6, 10, 13, 11, 12, 7, 3]);
makespan = 1650;
----------
assign = array1d(1..13 ,[4, 4, 2, 4, 4, 4, 4, 2, 4, 1, 2, 3, 4]);
next = array1d(1..13 ,[4, 1, 8, 9, 2, 5, 6, 11, 13, 3, 12, 7, 10]);
makespan = 1649;
----------
assign = array1d(1..13 ,[4, 4, 1, 4, 4, 4, 4, 1, 4, 1, 2, 3, 4]);
next = array1d(1..13 ,[4, 1, 8, 9, 2, 5, 6, 10, 13, 11, 12, 7, 3]);
makespan = 1645;
----------
assign = array1d(1..13 ,[4, 4, 2, 4, 4, 4, 4, 2, 4, 1, 2, 3, 4]);
next = array1d(1..13 ,[4, 1, 8, 9, 2, 5, 6, 11, 13, 3, 12, 7, 10]);
makespan = 1644;
----------
assign = array1d(1..13 ,[4, 4, 3, 4, 4, 4, 4, 3, 4, 1, 2, 3, 4]);
next = array1d(1..13 ,[4, 1, 8, 9, 2, 5, 6, 12, 13, 11, 3, 7, 10]);
makespan = 1643;
----------
assign = array1d(1..13 ,[4, 4, 3, 4, 4, 4, 4, 3, 4, 1, 2, 3, 4]);
next = array1d(1..13 ,[4, 1, 8, 9, 2, 5, 6, 12, 13, 11, 3, 7, 10]);
makespan = 1638;
----------
assign = array1d(1..13 ,[4, 4, 1, 4, 4, 4, 4, 1, 4, 1, 2, 3, 4]);
next = array1d(1..13 ,[4, 1, 8, 9, 2, 5, 6, 10, 13, 11, 12, 7, 3]);
makespan = 1637;
----------
assign = array1d(1..13 ,[4, 4, 1, 4, 4, 4, 4, 1, 4, 1, 2, 3, 4]);
next = array1d(1..13 ,[4, 1, 8, 9, 2, 5, 6, 10, 13, 11, 12, 7, 3]);
makespan = 1622;
----------
assign = array1d(1..13 ,[4, 4, 1, 4, 4, 4, 4, 1, 4, 1, 2, 3, 4]);
next = array1d(1..13 ,[4, 1, 8, 9, 2, 5, 6, 10, 13, 11, 12, 7, 3]);
makespan = 1599;
----------
assign = array1d(1..13 ,[4, 4, 3, 4, 4, 4, 4, 3, 4, 1, 2, 3, 4]);
next = array1d(1..13 ,[4, 1, 8, 9, 2, 5, 6, 12, 13, 11, 3, 7, 10]);
makespan = 1588;
----------
assign = array1d(1..13 ,[4, 4, 3, 4, 4, 4, 4, 3, 4, 1, 2, 3, 4]);
next = array1d(1..13 ,[4, 1, 8, 9, 2, 5, 6, 12, 13, 11, 3, 7, 10]);
makespan = 1565;
----------
assign = array1d(1..13 ,[4, 4, 2, 4, 4, 4, 4, 2, 4, 1, 2, 3, 4]);
next = array1d(1..13 ,[4, 1, 8, 9, 2, 5, 6, 11, 13, 3, 12, 7, 10]);
makespan = 1562;
----------
assign = array1d(1..13 ,[4, 4, 1, 4, 4, 4, 4, 1, 4, 1, 2, 3, 4]);
next = array1d(1..13 ,[4, 1, 8, 9, 2, 5, 6, 10, 13, 11, 12, 7, 3]);
makespan = 1558;
----------
assign = array1d(1..13 ,[4, 4, 1, 4, 4, 4, 4, 1, 4, 1, 2, 3, 4]);
next = array1d(1..13 ,[4, 1, 8, 9, 2, 5, 6, 10, 13, 11, 12, 7, 3]);
makespan = 1556;
----------
assign = array1d(1..13 ,[4, 4, 3, 4, 4, 4, 4, 3, 4, 1, 2, 3, 4]);
next = array1d(1..13 ,[4, 1, 8, 9, 2, 5, 6, 12, 13, 11, 3, 7, 10]);
makespan = 1553;
----------
assign = array1d(1..13 ,[4, 4, 1, 4, 4, 4, 4, 1, 4, 1, 2, 3, 4]);
next = array1d(1..13 ,[4, 1, 8, 9, 2, 5, 6, 10, 13, 11, 12, 7, 3]);
makespan = 1552;
----------
assign = array1d(1..13 ,[4, 4, 2, 4, 4, 4, 4, 2, 4, 1, 2, 3, 4]);
next = array1d(1..13 ,[4, 1, 8, 9, 2, 5, 6, 11, 13, 3, 12, 7, 10]);
makespan = 1549;
----------
assign = array1d(1..13 ,[4, 4, 3, 4, 4, 4, 4, 3, 4, 1, 2, 3, 4]);
next = array1d(1..13 ,[4, 1, 8, 9, 2, 5, 6, 12, 13, 11, 3, 7, 10]);
makespan = 1548;
----------
assign = array1d(1..13 ,[4, 4, 1, 4, 4, 4, 4, 1, 4, 1, 2, 3, 4]);
next = array1d(1..13 ,[4, 1, 8, 9, 2, 5, 6, 10, 13, 11, 12, 7, 3]);
makespan = 1547;
----------
assign = array1d(1..13 ,[4, 4, 3, 4, 4, 4, 4, 3, 4, 1, 2, 3, 4]);
next = array1d(1..13 ,[4, 1, 8, 9, 2, 5, 6, 12, 13, 11, 3, 7, 10]);
makespan = 1546;
----------
assign = array1d(1..13 ,[4, 4, 1, 4, 4, 4, 4, 1, 4, 1, 2, 3, 4]);
next = array1d(1..13 ,[4, 1, 8, 9, 2, 5, 6, 10, 13, 11, 12, 7, 3]);
makespan = 1544;
----------
assign = array1d(1..13 ,[4, 4, 3, 4, 4, 4, 4, 3, 4, 1, 2, 3, 4]);
next = array1d(1..13 ,[4, 1, 8, 9, 2, 5, 6, 12, 13, 11, 3, 7, 10]);
makespan = 1543;
----------
assign = array1d(1..13 ,[4, 4, 1, 4, 4, 4, 4, 1, 4, 1, 2, 3, 4]);
next = array1d(1..13 ,[4, 1, 8, 9, 2, 5, 6, 10, 13, 11, 12, 7, 3]);
makespan = 1540;
----------
assign = array1d(1..13 ,[4, 4, 3, 4, 4, 4, 4, 3, 4, 1, 2, 3, 4]);
next = array1d(1..13 ,[4, 1, 8, 9, 2, 5, 6, 12, 13, 11, 3, 7, 10]);
makespan = 1538;
----------
assign = array1d(1..13 ,[4, 4, 3, 4, 4, 4, 4, 3, 4, 1, 2, 3, 4]);
next = array1d(1..13 ,[4, 1, 8, 9, 2, 5, 6, 12, 13, 11, 3, 7, 10]);
makespan = 1537;
----------
assign = array1d(1..13 ,[4, 4, 3, 4, 4, 4, 4, 3, 4, 1, 2, 3, 4]);
next = array1d(1..13 ,[4, 1, 8, 9, 2, 5, 6, 12, 13, 11, 3, 7, 10]);
makespan = 1534;
----------
assign = array1d(1..13 ,[4, 4, 1, 4, 4, 4, 4, 1, 4, 1, 2, 3, 4]);
next = array1d(1..13 ,[4, 1, 8, 9, 2, 5, 6, 10, 13, 11, 12, 7, 3]);
makespan = 1533;
----------
assign = array1d(1..13 ,[4, 4, 1, 4, 4, 4, 4, 1, 4, 1, 2, 3, 4]);
next = array1d(1..13 ,[4, 1, 8, 9, 2, 5, 6, 10, 13, 11, 12, 7, 3]);
makespan = 1531;
----------
assign = array1d(1..13 ,[4, 4, 1, 4, 4, 4, 4, 1, 4, 1, 2, 3, 4]);
next = array1d(1..13 ,[4, 1, 8, 9, 2, 5, 6, 10, 13, 11, 12, 7, 3]);
makespan = 1530;
----------
assign = array1d(1..13 ,[4, 4, 2, 4, 4, 4, 4, 2, 4, 1, 2, 3, 4]);
next = array1d(1..13 ,[4, 1, 8, 9, 2, 5, 6, 11, 13, 3, 12, 7, 10]);
makespan = 1528;
----------
assign = array1d(1..13 ,[4, 4, 1, 4, 4, 4, 4, 1, 4, 1, 2, 3, 4]);
next = array1d(1..13 ,[4, 1, 8, 9, 2, 5, 6, 10, 13, 11, 12, 7, 3]);
makespan = 1527;
----------
assign = array1d(1..13 ,[4, 4, 2, 4, 4, 4, 4, 2, 4, 1, 2, 3, 4]);
next = array1d(1..13 ,[4, 1, 8, 9, 2, 5, 6, 11, 13, 3, 12, 7, 10]);
makespan = 1525;
----------
assign = array1d(1..13 ,[4, 4, 1, 4, 4, 4, 4, 1, 4, 1, 2, 3, 4]);
next = array1d(1..13 ,[4, 1, 8, 9, 2, 5, 6, 10, 13, 11, 12, 7, 3]);
makespan = 1524;
----------
assign = array1d(1..13 ,[4, 4, 2, 4, 4, 4, 4, 2, 4, 1, 2, 3, 4]);
next = array1d(1..13 ,[4, 1, 8, 9, 2, 5, 6, 11, 13, 3, 12, 7, 10]);
makespan = 1522;
----------
assign = array1d(1..13 ,[4, 4, 1, 4, 4, 4, 4, 1, 4, 1, 2, 3, 4]);
next = array1d(1..13 ,[4, 1, 8, 9, 2, 5, 6, 10, 13, 11, 12, 7, 3]);
makespan = 1521;
----------
assign = array1d(1..13 ,[4, 4, 2, 4, 4, 4, 4, 2, 4, 1, 2, 3, 4]);
next = array1d(1..13 ,[4, 1, 8, 9, 2, 5, 6, 11, 13, 3, 12, 7, 10]);
makespan = 1519;
----------
assign = array1d(1..13 ,[4, 4, 1, 4, 4, 4, 4, 1, 4, 1, 2, 3, 4]);
next = array1d(1..13 ,[4, 1, 8, 9, 2, 5, 6, 10, 13, 11, 12, 7, 3]);
makespan = 1518;
----------
assign = array1d(1..13 ,[4, 4, 1, 4, 4, 4, 3, 4, 4, 1, 2, 3, 4]);
next = array1d(1..13 ,[4, 1, 10, 9, 2, 5, 12, 13, 8, 11, 7, 6, 3]);
makespan = 1517;
----------
assign = array1d(1..13 ,[4, 4, 1, 4, 4, 4, 3, 4, 4, 1, 2, 3, 4]);
next = array1d(1..13 ,[4, 1, 10, 9, 2, 5, 12, 13, 8, 11, 7, 6, 3]);
makespan = 1516;
----------
assign = array1d(1..13 ,[4, 4, 1, 4, 4, 4, 3, 4, 4, 1, 2, 3, 4]);
next = array1d(1..13 ,[4, 1, 10, 9, 2, 5, 12, 13, 8, 11, 7, 6, 3]);
makespan = 1515;
----------
assign = array1d(1..13 ,[4, 4, 1, 4, 4, 4, 3, 4, 4, 1, 2, 3, 4]);
next = array1d(1..13 ,[4, 1, 10, 9, 2, 5, 12, 13, 8, 11, 7, 6, 3]);
makespan = 1513;
----------
assign = array1d(1..13 ,[4, 4, 1, 4, 4, 4, 3, 4, 4, 1, 2, 3, 4]);
next = array1d(1..13 ,[4, 1, 10, 9, 2, 5, 12, 13, 8, 11, 7, 6, 3]);
makespan = 1512;
----------
assign = array1d(1..13 ,[4, 4, 1, 4, 4, 4, 3, 4, 4, 1, 2, 3, 4]);
next = array1d(1..13 ,[4, 1, 10, 9, 2, 5, 12, 13, 8, 11, 7, 6, 3]);
makespan = 1511;
----------
assign = array1d(1..13 ,[4, 4, 1, 4, 4, 4, 3, 4, 4, 1, 2, 3, 4]);
next = array1d(1..13 ,[4, 1, 10, 9, 2, 5, 12, 13, 8, 11, 7, 6, 3]);
makespan = 1509;
----------
assign = array1d(1..13 ,[4, 4, 1, 4, 4, 4, 3, 4, 4, 1, 2, 3, 4]);
next = array1d(1..13 ,[4, 1, 10, 9, 2, 5, 12, 13, 8, 11, 7, 6, 3]);
makespan = 1508;
----------
assign = array1d(1..13 ,[4, 4, 1, 4, 4, 4, 3, 4, 4, 1, 2, 3, 4]);
next = array1d(1..13 ,[4, 1, 10, 9, 2, 5, 12, 13, 8, 11, 7, 6, 3]);
makespan = 1507;
----------
assign = array1d(1..13 ,[4, 4, 1, 4, 4, 4, 3, 4, 4, 1, 2, 3, 4]);
next = array1d(1..13 ,[4, 1, 10, 9, 2, 5, 12, 13, 8, 11, 7, 6, 3]);
makespan = 1506;
----------
assign = array1d(1..13 ,[4, 4, 3, 4, 4, 4, 1, 1, 4, 1, 2, 3, 4]);
next = array1d(1..13 ,[4, 1, 12, 9, 2, 5, 8, 10, 13, 11, 3, 6, 7]);
makespan = 1505;
----------
assign = array1d(1..13 ,[4, 4, 3, 4, 4, 4, 1, 1, 4, 1, 2, 3, 4]);
next = array1d(1..13 ,[4, 1, 12, 9, 2, 5, 8, 10, 13, 11, 3, 6, 7]);
makespan = 1504;
----------
assign = array1d(1..13 ,[4, 4, 3, 4, 4, 4, 1, 1, 4, 1, 2, 3, 4]);
next = array1d(1..13 ,[4, 1, 12, 9, 2, 5, 8, 10, 13, 11, 3, 6, 7]);
makespan = 1503;
----------
assign = array1d(1..13 ,[4, 4, 3, 4, 4, 4, 1, 1, 4, 1, 2, 3, 4]);
next = array1d(1..13 ,[4, 1, 12, 9, 2, 5, 8, 10, 13, 11, 3, 6, 7]);
makespan = 1502;
----------
assign = array1d(1..13 ,[4, 4, 3, 4, 4, 4, 2, 2, 4, 1, 2, 3, 4]);
next = array1d(1..13 ,[4, 1, 12, 9, 2, 5, 8, 11, 13, 7, 3, 6, 10]);
makespan = 1500;
----------
assign = array1d(1..13 ,[4, 4, 3, 4, 4, 4, 2, 2, 4, 1, 2, 3, 4]);
next = array1d(1..13 ,[4, 1, 12, 9, 2, 5, 8, 11, 13, 7, 3, 6, 10]);
makespan = 1499;
----------
assign = array1d(1..13 ,[4, 4, 3, 4, 4, 4, 1, 1, 4, 1, 2, 3, 4]);
next = array1d(1..13 ,[4, 1, 12, 9, 2, 5, 8, 10, 13, 11, 3, 6, 7]);
makespan = 1497;
----------
assign = array1d(1..13 ,[4, 4, 3, 4, 4, 4, 2, 2, 4, 1, 2, 3, 4]);
next = array1d(1..13 ,[4, 1, 12, 9, 2, 5, 8, 11, 13, 7, 3, 6, 10]);
makespan = 1496;
----------
assign = array1d(1..13 ,[4, 4, 3, 4, 4, 4, 1, 1, 4, 1, 2, 3, 4]);
next = array1d(1..13 ,[4, 1, 12, 9, 2, 5, 8, 10, 13, 11, 3, 6, 7]);
makespan = 1493;
----------
assign = array1d(1..13 ,[4, 4, 3, 4, 4, 4, 2, 2, 4, 1, 2, 3, 4]);
next = array1d(1..13 ,[4, 1, 12, 9, 2, 5, 8, 11, 13, 7, 3, 6, 10]);
makespan = 1492;
----------
assign = array1d(1..13 ,[4, 4, 3, 4, 4, 4, 1, 1, 4, 1, 2, 3, 4]);
next = array1d(1..13 ,[4, 1, 12, 9, 2, 5, 8, 10, 13, 11, 3, 6, 7]);
makespan = 1490;
----------
assign = array1d(1..13 ,[4, 4, 3, 4, 4, 4, 2, 2, 4, 1, 2, 3, 4]);
next = array1d(1..13 ,[4, 1, 12, 9, 2, 5, 8, 11, 13, 7, 3, 6, 10]);
makespan = 1488;
----------
assign = array1d(1..13 ,[4, 4, 3, 4, 4, 4, 1, 1, 4, 1, 2, 3, 4]);
next = array1d(1..13 ,[4, 1, 12, 9, 2, 5, 8, 10, 13, 11, 3, 6, 7]);
makespan = 1487;
----------
assign = array1d(1..13 ,[4, 4, 3, 4, 4, 4, 2, 2, 4, 1, 2, 3, 4]);
next = array1d(1..13 ,[4, 1, 12, 9, 2, 5, 8, 11, 13, 7, 3, 6, 10]);
makespan = 1484;
----------
assign = array1d(1..13 ,[4, 4, 3, 4, 4, 4, 1, 1, 4, 1, 2, 3, 4]);
next = array1d(1..13 ,[4, 1, 12, 9, 2, 5, 8, 10, 13, 11, 3, 6, 7]);
makespan = 1481;
----------
assign = array1d(1..13 ,[4, 4, 3, 4, 4, 4, 2, 2, 4, 1, 2, 3, 4]);
next = array1d(1..13 ,[4, 1, 12, 9, 2, 5, 8, 11, 13, 7, 3, 6, 10]);
makespan = 1477;
----------
assign = array1d(1..13 ,[4, 4, 3, 4, 4, 4, 1, 1, 4, 1, 2, 3, 4]);
next = array1d(1..13 ,[4, 1, 12, 9, 2, 5, 8, 10, 13, 11, 3, 6, 7]);
makespan = 1472;
----------
assign = array1d(1..13 ,[4, 4, 3, 4, 4, 4, 2, 2, 4, 1, 2, 3, 4]);
next = array1d(1..13 ,[4, 1, 12, 9, 2, 5, 8, 11, 13, 7, 3, 6, 10]);
makespan = 1467;
----------
assign = array1d(1..13 ,[4, 4, 3, 4, 4, 4, 1, 1, 4, 1, 2, 3, 4]);
next = array1d(1..13 ,[4, 1, 12, 9, 2, 5, 8, 10, 13, 11, 3, 6, 7]);
makespan = 1465;
----------
assign = array1d(1..13 ,[4, 4, 3, 4, 4, 4, 2, 2, 4, 1, 2, 3, 4]);
next = array1d(1..13 ,[4, 1, 12, 9, 2, 5, 8, 11, 13, 7, 3, 6, 10]);
makespan = 1451;
----------
assign = array1d(1..13 ,[4, 4, 3, 4, 4, 4, 1, 1, 4, 1, 2, 3, 4]);
next = array1d(1..13 ,[4, 1, 12, 9, 2, 5, 8, 10, 13, 11, 3, 6, 7]);
makespan = 1435;
----------
assign = array1d(1..13 ,[4, 4, 3, 4, 4, 4, 2, 2, 4, 1, 2, 3, 4]);
next = array1d(1..13 ,[4, 1, 12, 9, 2, 5, 8, 11, 13, 7, 3, 6, 10]);
makespan = 1429;
----------
assign = array1d(1..13 ,[4, 4, 3, 4, 4, 4, 1, 1, 4, 1, 2, 3, 4]);
next = array1d(1..13 ,[4, 1, 12, 9, 2, 5, 8, 10, 13, 11, 3, 6, 7]);
makespan = 1426;
----------
assign = array1d(1..13 ,[4, 4, 3, 4, 4, 4, 2, 2, 4, 1, 2, 3, 4]);
next = array1d(1..13 ,[4, 1, 12, 9, 2, 5, 8, 11, 13, 7, 3, 6, 10]);
makespan = 1424;
----------
assign = array1d(1..13 ,[4, 4, 3, 4, 4, 4, 1, 1, 4, 1, 2, 3, 4]);
next = array1d(1..13 ,[4, 1, 12, 9, 2, 5, 8, 10, 13, 11, 3, 6, 7]);
makespan = 1421;
----------
assign = array1d(1..13 ,[4, 4, 3, 4, 4, 4, 2, 2, 4, 1, 2, 3, 4]);
next = array1d(1..13 ,[4, 1, 12, 9, 2, 5, 8, 11, 13, 7, 3, 6, 10]);
makespan = 1420;
----------
assign = array1d(1..13 ,[4, 4, 3, 4, 4, 4, 1, 1, 4, 1, 2, 3, 4]);
next = array1d(1..13 ,[4, 1, 12, 9, 2, 5, 8, 10, 13, 11, 3, 6, 7]);
makespan = 1417;
----------
assign = array1d(1..13 ,[4, 4, 3, 4, 4, 4, 2, 2, 4, 1, 2, 3, 4]);
next = array1d(1..13 ,[4, 1, 12, 9, 2, 5, 8, 11, 13, 7, 3, 6, 10]);
makespan = 1415;
----------
assign = array1d(1..13 ,[4, 4, 3, 4, 4, 4, 1, 1, 4, 1, 2, 3, 4]);
next = array1d(1..13 ,[4, 1, 12, 9, 2, 5, 8, 10, 13, 11, 3, 6, 7]);
makespan = 1412;
----------
assign = array1d(1..13 ,[4, 4, 3, 4, 4, 4, 2, 2, 4, 1, 2, 3, 4]);
next = array1d(1..13 ,[4, 1, 12, 9, 2, 5, 8, 11, 13, 7, 3, 6, 10]);
makespan = 1411;
----------
assign = array1d(1..13 ,[4, 4, 3, 4, 4, 4, 1, 1, 4, 1, 2, 3, 4]);
next = array1d(1..13 ,[4, 1, 12, 9, 2, 5, 8, 10, 13, 11, 3, 6, 7]);
makespan = 1408;
----------
assign = array1d(1..13 ,[4, 4, 3, 4, 4, 4, 2, 2, 4, 1, 2, 3, 4]);
next = array1d(1..13 ,[4, 1, 12, 9, 2, 5, 8, 11, 13, 7, 3, 6, 10]);
makespan = 1406;
----------
assign = array1d(1..13 ,[4, 4, 3, 4, 4, 4, 1, 1, 4, 1, 2, 3, 4]);
next = array1d(1..13 ,[4, 1, 12, 9, 2, 5, 8, 10, 13, 11, 3, 6, 7]);
makespan = 1405;
----------
assign = array1d(1..13 ,[4, 4, 3, 4, 4, 4, 2, 2, 4, 1, 2, 3, 4]);
next = array1d(1..13 ,[4, 1, 12, 9, 2, 5, 8, 11, 13, 7, 3, 6, 10]);
makespan = 1402;
----------
assign = array1d(1..13 ,[4, 4, 3, 4, 4, 4, 1, 1, 4, 1, 2, 3, 4]);
next = array1d(1..13 ,[4, 1, 12, 9, 2, 5, 8, 10, 13, 11, 3, 6, 7]);
makespan = 1401;
----------
assign = array1d(1..13 ,[4, 4, 3, 4, 4, 4, 2, 2, 4, 1, 2, 3, 4]);
next = array1d(1..13 ,[4, 1, 12, 9, 2, 5, 8, 11, 13, 7, 3, 6, 10]);
makespan = 1399;
----------
assign = array1d(1..13 ,[4, 4, 3, 4, 4, 4, 1, 1, 4, 1, 2, 3, 4]);
next = array1d(1..13 ,[4, 1, 12, 9, 2, 5, 8, 10, 13, 11, 3, 6, 7]);
makespan = 1396;
----------
assign = array1d(1..13 ,[4, 4, 3, 4, 4, 4, 2, 2, 4, 1, 2, 3, 4]);
next = array1d(1..13 ,[4, 1, 12, 9, 2, 5, 8, 11, 13, 7, 3, 6, 10]);
makespan = 1395;
----------
assign = array1d(1..13 ,[4, 4, 3, 4, 4, 4, 1, 1, 4, 1, 2, 3, 4]);
next = array1d(1..13 ,[4, 1, 12, 9, 2, 5, 8, 10, 13, 11, 3, 6, 7]);
makespan = 1393;
----------
assign = array1d(1..13 ,[4, 4, 3, 4, 4, 4, 2, 2, 4, 1, 2, 3, 4]);
next = array1d(1..13 ,[4, 1, 12, 9, 2, 5, 8, 11, 13, 7, 3, 6, 10]);
makespan = 1392;
----------
assign = array1d(1..13 ,[4, 4, 3, 4, 4, 4, 1, 1, 4, 1, 2, 3, 4]);
next = array1d(1..13 ,[4, 1, 12, 9, 2, 5, 8, 10, 13, 11, 3, 6, 7]);
makespan = 1391;
----------
assign = array1d(1..13 ,[4, 4, 3, 4, 4, 4, 2, 2, 4, 1, 2, 3, 4]);
next = array1d(1..13 ,[4, 1, 12, 9, 2, 5, 8, 11, 13, 7, 3, 6, 10]);
makespan = 1390;
----------
assign = array1d(1..13 ,[4, 4, 3, 4, 4, 4, 1, 1, 4, 1, 2, 3, 4]);
next = array1d(1..13 ,[4, 1, 12, 9, 2, 5, 8, 10, 13, 11, 3, 6, 7]);
makespan = 1389;
----------
assign = array1d(1..13 ,[4, 4, 3, 4, 4, 4, 2, 2, 4, 1, 2, 3, 4]);
next = array1d(1..13 ,[4, 1, 12, 9, 2, 5, 8, 11, 13, 7, 3, 6, 10]);
makespan = 1387;
----------
assign = array1d(1..13 ,[4, 4, 3, 4, 4, 4, 1, 1, 4, 1, 2, 3, 4]);
next = array1d(1..13 ,[4, 1, 12, 9, 2, 5, 8, 10, 13, 11, 3, 6, 7]);
makespan = 1386;
----------
assign = array1d(1..13 ,[4, 4, 3, 4, 4, 4, 2, 2, 4, 1, 2, 3, 4]);
next = array1d(1..13 ,[4, 1, 12, 9, 2, 5, 8, 11, 13, 7, 3, 6, 10]);
makespan = 1385;
----------
assign = array1d(1..13 ,[4, 4, 3, 4, 4, 4, 1, 1, 4, 1, 2, 3, 4]);
next = array1d(1..13 ,[4, 1, 12, 9, 2, 5, 8, 10, 13, 11, 3, 6, 7]);
makespan = 1384;
----------
assign = array1d(1..13 ,[4, 4, 3, 4, 4, 4, 2, 2, 4, 1, 2, 3, 4]);
next = array1d(1..13 ,[4, 1, 12, 9, 2, 5, 8, 11, 13, 7, 3, 6, 10]);
makespan = 1383;
----------
assign = array1d(1..13 ,[4, 4, 3, 4, 4, 4, 1, 1, 4, 1, 2, 3, 4]);
next = array1d(1..13 ,[4, 1, 12, 9, 2, 5, 8, 10, 13, 11, 3, 6, 7]);
makespan = 1381;
----------
assign = array1d(1..13 ,[4, 4, 3, 4, 4, 4, 2, 2, 4, 1, 2, 3, 4]);
next = array1d(1..13 ,[4, 1, 12, 9, 2, 5, 8, 11, 13, 7, 3, 6, 10]);
makespan = 1380;
----------
assign = array1d(1..13 ,[4, 4, 3, 4, 4, 4, 1, 1, 4, 1, 2, 3, 4]);
next = array1d(1..13 ,[4, 1, 12, 9, 2, 5, 8, 10, 13, 11, 3, 6, 7]);
makespan = 1379;
----------
assign = array1d(1..13 ,[4, 4, 3, 4, 4, 4, 2, 2, 4, 1, 2, 3, 4]);
next = array1d(1..13 ,[4, 1, 12, 9, 2, 5, 8, 11, 13, 7, 3, 6, 10]);
makespan = 1377;
----------
assign = array1d(1..13 ,[4, 4, 3, 4, 4, 4, 1, 1, 4, 1, 2, 3, 4]);
next = array1d(1..13 ,[4, 1, 12, 9, 2, 5, 8, 10, 13, 11, 3, 6, 7]);
makespan = 1376;
----------
assign = array1d(1..13 ,[4, 4, 3, 4, 4, 4, 2, 2, 4, 1, 2, 3, 4]);
next = array1d(1..13 ,[4, 1, 12, 9, 2, 5, 8, 11, 13, 7, 3, 6, 10]);
makespan = 1375;
----------
assign = array1d(1..13 ,[4, 4, 3, 4, 4, 4, 1, 1, 4, 1, 2, 3, 4]);
next = array1d(1..13 ,[4, 1, 12, 9, 2, 5, 8, 10, 13, 11, 3, 6, 7]);
makespan = 1374;
----------
assign = array1d(1..13 ,[4, 4, 3, 4, 4, 4, 2, 2, 4, 1, 2, 3, 4]);
next = array1d(1..13 ,[4, 1, 12, 9, 2, 5, 8, 11, 13, 7, 3, 6, 10]);
makespan = 1373;
----------
assign = array1d(1..13 ,[4, 4, 3, 4, 4, 4, 1, 1, 4, 1, 2, 3, 4]);
next = array1d(1..13 ,[4, 1, 12, 9, 2, 5, 8, 10, 13, 11, 3, 6, 7]);
makespan = 1372;
----------
assign = array1d(1..13 ,[4, 4, 3, 4, 4, 4, 2, 2, 4, 1, 2, 3, 4]);
next = array1d(1..13 ,[4, 1, 12, 9, 2, 5, 8, 11, 13, 7, 3, 6, 10]);
makespan = 1371;
----------
assign = array1d(1..13 ,[4, 4, 3, 4, 4, 4, 1, 1, 4, 1, 2, 3, 4]);
next = array1d(1..13 ,[4, 1, 12, 9, 2, 5, 8, 10, 13, 11, 3, 6, 7]);
makespan = 1370;
----------
assign = array1d(1..13 ,[4, 4, 3, 4, 4, 4, 2, 2, 4, 1, 2, 3, 4]);
next = array1d(1..13 ,[4, 1, 12, 9, 2, 5, 8, 11, 13, 7, 3, 6, 10]);
makespan = 1368;
----------
assign = array1d(1..13 ,[4, 4, 3, 4, 4, 4, 1, 1, 4, 1, 2, 3, 4]);
next = array1d(1..13 ,[4, 1, 12, 9, 2, 5, 8, 10, 13, 11, 3, 6, 7]);
makespan = 1367;
----------
assign = array1d(1..13 ,[4, 4, 3, 4, 4, 4, 2, 2, 4, 1, 2, 3, 4]);
next = array1d(1..13 ,[4, 1, 12, 9, 2, 5, 8, 11, 13, 7, 3, 6, 10]);
makespan = 1366;
----------
assign = array1d(1..13 ,[4, 4, 3, 4, 4, 4, 1, 1, 4, 1, 2, 3, 4]);
next = array1d(1..13 ,[4, 1, 12, 9, 2, 5, 8, 10, 13, 11, 3, 6, 7]);
makespan = 1365;
----------
assign = array1d(1..13 ,[4, 4, 3, 4, 4, 4, 2, 2, 4, 1, 2, 3, 4]);
next = array1d(1..13 ,[4, 1, 12, 9, 2, 5, 8, 11, 13, 7, 3, 6, 10]);
makespan = 1364;
----------
assign = array1d(1..13 ,[4, 4, 3, 4, 4, 4, 1, 1, 4, 1, 2, 3, 4]);
next = array1d(1..13 ,[4, 1, 12, 9, 2, 5, 8, 10, 13, 11, 3, 6, 7]);
makespan = 1362;
----------
assign = array1d(1..13 ,[4, 4, 3, 4, 4, 4, 2, 2, 4, 1, 2, 3, 4]);
next = array1d(1..13 ,[4, 1, 12, 9, 2, 5, 8, 11, 13, 7, 3, 6, 10]);
makespan = 1361;
----------
assign = array1d(1..13 ,[4, 4, 3, 4, 4, 4, 1, 1, 4, 1, 2, 3, 4]);
next = array1d(1..13 ,[4, 1, 12, 9, 2, 5, 8, 10, 13, 11, 3, 6, 7]);
makespan = 1360;
----------
assign = array1d(1..13 ,[4, 4, 3, 4, 4, 4, 2, 2, 4, 1, 2, 3, 4]);
next = array1d(1..13 ,[4, 1, 12, 9, 2, 5, 8, 11, 13, 7, 3, 6, 10]);
makespan = 1359;
----------
assign = array1d(1..13 ,[4, 4, 3, 4, 4, 4, 1, 1, 4, 1, 2, 3, 4]);
next = array1d(1..13 ,[4, 1, 12, 9, 2, 5, 8, 10, 13, 11, 3, 6, 7]);
makespan = 1358;
----------
assign = array1d(1..13 ,[4, 4, 3, 4, 4, 4, 2, 2, 4, 1, 2, 3, 4]);
next = array1d(1..13 ,[4, 1, 12, 9, 2, 5, 8, 11, 13, 7, 3, 6, 10]);
makespan = 1356;
----------
assign = array1d(1..13 ,[4, 4, 3, 4, 4, 4, 1, 1, 4, 1, 2, 3, 4]);
next = array1d(1..13 ,[4, 1, 12, 9, 2, 5, 8, 10, 13, 11, 3, 6, 7]);
makespan = 1355;
----------
assign = array1d(1..13 ,[4, 4, 3, 4, 4, 4, 2, 2, 4, 1, 2, 3, 4]);
next = array1d(1..13 ,[4, 1, 12, 9, 2, 5, 8, 11, 13, 7, 3, 6, 10]);
makespan = 1354;
----------
assign = array1d(1..13 ,[4, 4, 3, 4, 4, 4, 1, 1, 4, 1, 2, 3, 4]);
next = array1d(1..13 ,[4, 1, 12, 9, 2, 5, 8, 10, 13, 11, 3, 6, 7]);
makespan = 1352;
----------
assign = array1d(1..13 ,[4, 4, 3, 4, 4, 4, 2, 2, 4, 1, 2, 3, 4]);
next = array1d(1..13 ,[4, 1, 12, 9, 2, 5, 8, 11, 13, 7, 3, 6, 10]);
makespan = 1351;
----------
assign = array1d(1..13 ,[4, 4, 3, 4, 4, 4, 1, 1, 4, 1, 2, 3, 4]);
next = array1d(1..13 ,[4, 1, 12, 9, 2, 5, 8, 10, 13, 11, 3, 6, 7]);
makespan = 1350;
----------
assign = array1d(1..13 ,[4, 4, 3, 4, 4, 4, 2, 2, 4, 1, 2, 3, 4]);
next = array1d(1..13 ,[4, 1, 12, 9, 2, 5, 8, 11, 13, 7, 3, 6, 10]);
makespan = 1349;
----------
assign = array1d(1..13 ,[4, 4, 3, 4, 4, 4, 1, 1, 4, 1, 2, 3, 4]);
next = array1d(1..13 ,[4, 1, 12, 9, 2, 5, 8, 10, 13, 11, 3, 6, 7]);
makespan = 1347;
----------
assign = array1d(1..13 ,[4, 4, 3, 4, 4, 4, 2, 2, 4, 1, 2, 3, 4]);
next = array1d(1..13 ,[4, 1, 12, 9, 2, 5, 8, 11, 13, 7, 3, 6, 10]);
makespan = 1346;
----------
assign = array1d(1..13 ,[4, 4, 3, 4, 4, 4, 1, 1, 4, 1, 2, 3, 4]);
next = array1d(1..13 ,[4, 1, 12, 9, 2, 5, 8, 10, 13, 11, 3, 6, 7]);
makespan = 1345;
----------
assign = array1d(1..13 ,[4, 4, 3, 4, 4, 4, 2, 2, 4, 1, 2, 3, 4]);
next = array1d(1..13 ,[4, 1, 12, 9, 2, 5, 8, 11, 13, 7, 3, 6, 10]);
makespan = 1343;
----------
assign = array1d(1..13 ,[4, 4, 3, 4, 4, 4, 1, 1, 4, 1, 2, 3, 4]);
next = array1d(1..13 ,[4, 1, 12, 9, 2, 5, 8, 10, 13, 11, 3, 6, 7]);
makespan = 1342;
----------
assign = array1d(1..13 ,[4, 4, 3, 4, 4, 4, 2, 2, 4, 1, 2, 3, 4]);
next = array1d(1..13 ,[4, 1, 12, 9, 2, 5, 8, 11, 13, 7, 3, 6, 10]);
makespan = 1340;
----------
assign = array1d(1..13 ,[4, 4, 3, 4, 4, 4, 1, 1, 4, 1, 2, 3, 4]);
next = array1d(1..13 ,[4, 1, 12, 9, 2, 5, 8, 10, 13, 11, 3, 6, 7]);
makespan = 1339;
----------
assign = array1d(1..13 ,[4, 4, 3, 4, 4, 4, 2, 2, 4, 1, 2, 3, 4]);
next = array1d(1..13 ,[4, 1, 12, 9, 2, 5, 8, 11, 13, 7, 3, 6, 10]);
makespan = 1336;
----------
assign = array1d(1..13 ,[4, 4, 3, 4, 4, 4, 1, 1, 4, 1, 2, 3, 4]);
next = array1d(1..13 ,[4, 1, 12, 9, 2, 5, 8, 10, 13, 11, 3, 6, 7]);
makespan = 1334;
----------
assign = array1d(1..13 ,[4, 4, 3, 4, 4, 4, 2, 2, 4, 1, 2, 3, 4]);
next = array1d(1..13 ,[4, 1, 12, 9, 2, 5, 8, 11, 13, 7, 3, 6, 10]);
makespan = 1333;
----------
assign = array1d(1..13 ,[4, 4, 3, 4, 4, 4, 1, 1, 4, 1, 2, 3, 4]);
next = array1d(1..13 ,[4, 1, 12, 9, 2, 5, 8, 10, 13, 11, 3, 6, 7]);
makespan = 1331;
----------
assign = array1d(1..13 ,[4, 4, 3, 4, 4, 4, 2, 2, 4, 1, 2, 3, 4]);
next = array1d(1..13 ,[4, 1, 12, 9, 2, 5, 8, 11, 13, 7, 3, 6, 10]);
makespan = 1327;
----------
assign = array1d(1..13 ,[4, 4, 3, 4, 4, 4, 1, 1, 4, 1, 2, 3, 4]);
next = array1d(1..13 ,[4, 1, 12, 9, 2, 5, 8, 10, 13, 11, 3, 6, 7]);
makespan = 1324;
----------
assign = array1d(1..13 ,[4, 4, 3, 4, 4, 4, 2, 2, 4, 1, 2, 3, 4]);
next = array1d(1..13 ,[4, 1, 12, 9, 2, 5, 8, 11, 13, 7, 3, 6, 10]);
makespan = 1320;
----------
assign = array1d(1..13 ,[4, 4, 3, 4, 4, 4, 1, 1, 4, 1, 2, 3, 4]);
next = array1d(1..13 ,[4, 1, 12, 9, 2, 5, 8, 10, 13, 11, 3, 6, 7]);
makespan = 1315;
----------
assign = array1d(1..13 ,[4, 4, 3, 4, 4, 4, 2, 2, 4, 1, 2, 3, 4]);
next = array1d(1..13 ,[4, 1, 12, 9, 2, 5, 8, 11, 13, 7, 3, 6, 10]);
makespan = 1308;
----------
assign = array1d(1..13 ,[4, 4, 3, 4, 4, 4, 2, 2, 4, 1, 2, 3, 4]);
next = array1d(1..13 ,[4, 1, 12, 9, 2, 5, 8, 11, 13, 7, 3, 6, 10]);
makespan = 1294;
----------
assign = array1d(1..13 ,[4, 4, 1, 4, 4, 4, 2, 2, 4, 1, 2, 3, 4]);
next = array1d(1..13 ,[4, 1, 10, 9, 13, 5, 8, 11, 6, 7, 12, 2, 3]);
makespan = 1287;
----------
assign = array1d(1..13 ,[4, 4, 3, 4, 4, 4, 3, 3, 3, 1, 2, 3, 4]);
next = array1d(1..13 ,[4, 1, 12, 13, 2, 5, 8, 9, 3, 11, 7, 6, 10]);
makespan = 1279;
----------
assign = array1d(1..13 ,[4, 4, 3, 4, 4, 4, 3, 3, 3, 1, 2, 3, 4]);
next = array1d(1..13 ,[4, 1, 8, 13, 2, 5, 12, 9, 7, 11, 3, 6, 10]);
makespan = 1274;
----------
assign = array1d(1..13 ,[4, 4, 1, 4, 4, 4, 1, 1, 1, 1, 2, 3, 4]);
next = array1d(1..13 ,[4, 1, 10, 13, 2, 5, 8, 3, 7, 11, 12, 6, 9]);
makespan = 1270;
----------
assign = array1d(1..13 ,[4, 4, 1, 4, 4, 4, 1, 1, 1, 1, 2, 3, 4]);
next = array1d(1..13 ,[4, 1, 10, 13, 2, 5, 8, 3, 7, 11, 12, 6, 9]);
makespan = 1267;
----------
assign = array1d(1..13 ,[4, 4, 1, 4, 4, 4, 1, 1, 1, 1, 2, 3, 4]);
next = array1d(1..13 ,[4, 1, 10, 13, 2, 5, 8, 3, 7, 11, 12, 6, 9]);
makespan = 1263;
----------
assign = array1d(1..13 ,[4, 4, 1, 4, 4, 4, 1, 1, 1, 1, 2, 3, 4]);
next = array1d(1..13 ,[4, 1, 10, 13, 2, 5, 8, 3, 7, 11, 12, 6, 9]);
makespan = 1261;
----------
assign = array1d(1..13 ,[4, 4, 1, 4, 4, 4, 1, 1, 1, 1, 2, 3, 4]);
next = array1d(1..13 ,[4, 1, 10, 13, 2, 5, 8, 3, 7, 11, 12, 6, 9]);
makespan = 1260;
----------
assign = array1d(1..13 ,[4, 4, 1, 4, 4, 4, 1, 1, 1, 1, 2, 3, 4]);
next = array1d(1..13 ,[4, 1, 10, 13, 2, 5, 8, 3, 7, 11, 12, 6, 9]);
makespan = 1258;
----------
assign = array1d(1..13 ,[4, 4, 1, 4, 4, 4, 1, 1, 1, 1, 2, 3, 4]);
next = array1d(1..13 ,[4, 1, 10, 13, 2, 5, 8, 3, 7, 11, 12, 6, 9]);
makespan = 1255;
----------
assign = array1d(1..13 ,[4, 4, 1, 4, 4, 4, 1, 1, 1, 1, 2, 3, 4]);
next = array1d(1..13 ,[4, 1, 10, 13, 2, 5, 8, 3, 7, 11, 12, 6, 9]);
makespan = 1254;
----------
assign = array1d(1..13 ,[4, 4, 1, 4, 4, 4, 1, 1, 1, 1, 2, 3, 4]);
next = array1d(1..13 ,[4, 1, 10, 13, 2, 5, 8, 3, 7, 11, 12, 6, 9]);
makespan = 1252;
----------
assign = array1d(1..13 ,[4, 4, 1, 4, 4, 4, 1, 1, 1, 1, 2, 3, 4]);
next = array1d(1..13 ,[4, 1, 10, 13, 2, 5, 8, 3, 7, 11, 12, 6, 9]);
makespan = 1251;
----------
assign = array1d(1..13 ,[4, 4, 1, 4, 4, 4, 1, 1, 1, 1, 2, 3, 4]);
next = array1d(1..13 ,[4, 1, 10, 13, 2, 5, 8, 3, 7, 11, 12, 6, 9]);
makespan = 1249;
----------
assign = array1d(1..13 ,[4, 4, 1, 4, 4, 4, 1, 1, 1, 1, 2, 3, 4]);
next = array1d(1..13 ,[4, 1, 10, 13, 2, 5, 8, 3, 7, 11, 12, 6, 9]);
makespan = 1248;
----------
assign = array1d(1..13 ,[4, 4, 1, 4, 4, 4, 1, 1, 1, 1, 2, 3, 4]);
next = array1d(1..13 ,[4, 1, 10, 13, 2, 5, 8, 3, 7, 11, 12, 6, 9]);
makespan = 1247;
----------
assign = array1d(1..13 ,[4, 4, 1, 4, 4, 4, 1, 1, 1, 1, 2, 3, 4]);
next = array1d(1..13 ,[4, 1, 10, 13, 2, 5, 8, 3, 7, 11, 12, 6, 9]);
makespan = 1245;
----------
assign = array1d(1..13 ,[4, 4, 1, 4, 4, 4, 1, 1, 1, 1, 2, 3, 4]);
next = array1d(1..13 ,[4, 1, 10, 13, 2, 5, 8, 3, 7, 11, 12, 6, 9]);
makespan = 1244;
----------
assign = array1d(1..13 ,[4, 4, 1, 4, 4, 4, 1, 1, 1, 1, 2, 3, 4]);
next = array1d(1..13 ,[4, 1, 10, 13, 2, 5, 8, 3, 7, 11, 12, 6, 9]);
makespan = 1243;
----------
assign = array1d(1..13 ,[4, 4, 1, 4, 4, 4, 1, 1, 1, 1, 2, 3, 4]);
next = array1d(1..13 ,[4, 1, 10, 13, 2, 5, 8, 3, 7, 11, 12, 6, 9]);
makespan = 1242;
----------
assign = array1d(1..13 ,[4, 4, 1, 4, 4, 4, 1, 1, 1, 1, 2, 3, 4]);
next = array1d(1..13 ,[4, 1, 10, 13, 2, 5, 8, 3, 7, 11, 12, 6, 9]);
makespan = 1240;
----------
assign = array1d(1..13 ,[4, 4, 1, 4, 4, 4, 1, 1, 1, 1, 2, 3, 4]);
next = array1d(1..13 ,[4, 1, 10, 13, 2, 5, 8, 3, 7, 11, 12, 6, 9]);
makespan = 1239;
----------
assign = array1d(1..13 ,[4, 4, 1, 4, 4, 4, 1, 1, 1, 1, 2, 3, 4]);
next = array1d(1..13 ,[4, 1, 10, 13, 2, 5, 8, 3, 7, 11, 12, 6, 9]);
makespan = 1238;
----------
assign = array1d(1..13 ,[4, 4, 1, 4, 4, 4, 1, 1, 1, 1, 2, 3, 4]);
next = array1d(1..13 ,[4, 1, 10, 13, 2, 5, 8, 3, 7, 11, 12, 6, 9]);
makespan = 1236;
----------
assign = array1d(1..13 ,[4, 4, 1, 4, 4, 4, 1, 1, 1, 1, 2, 3, 4]);
next = array1d(1..13 ,[4, 1, 10, 13, 2, 5, 8, 3, 7, 11, 12, 6, 9]);
makespan = 1235;
----------
assign = array1d(1..13 ,[4, 4, 1, 4, 4, 4, 1, 1, 1, 1, 2, 3, 4]);
next = array1d(1..13 ,[4, 1, 10, 13, 2, 5, 8, 3, 7, 11, 12, 6, 9]);
makespan = 1234;
----------
assign = array1d(1..13 ,[4, 4, 1, 4, 4, 4, 1, 1, 1, 1, 2, 3, 4]);
next = array1d(1..13 ,[4, 1, 10, 13, 2, 5, 8, 3, 7, 11, 12, 6, 9]);
makespan = 1233;
----------
assign = array1d(1..13 ,[4, 4, 1, 4, 4, 4, 1, 1, 1, 1, 2, 3, 4]);
next = array1d(1..13 ,[4, 1, 10, 13, 2, 5, 8, 3, 7, 11, 12, 6, 9]);
makespan = 1232;
----------
assign = array1d(1..13 ,[4, 4, 1, 4, 4, 4, 1, 1, 1, 1, 2, 3, 4]);
next = array1d(1..13 ,[4, 1, 10, 13, 2, 5, 8, 3, 7, 11, 12, 6, 9]);
makespan = 1230;
----------
assign = array1d(1..13 ,[4, 4, 1, 4, 4, 4, 1, 1, 1, 1, 2, 3, 4]);
next = array1d(1..13 ,[4, 1, 10, 13, 2, 5, 8, 3, 7, 11, 12, 6, 9]);
makespan = 1229;
----------
assign = array1d(1..13 ,[4, 4, 1, 4, 4, 4, 1, 1, 1, 1, 2, 3, 4]);
next = array1d(1..13 ,[4, 1, 10, 13, 2, 5, 8, 3, 7, 11, 12, 6, 9]);
makespan = 1228;
----------
assign = array1d(1..13 ,[4, 4, 1, 4, 4, 4, 1, 1, 1, 1, 2, 3, 4]);
next = array1d(1..13 ,[4, 1, 10, 13, 2, 5, 8, 3, 7, 11, 12, 6, 9]);
makespan = 1227;
----------
assign = array1d(1..13 ,[4, 4, 1, 4, 4, 4, 1, 1, 1, 1, 2, 3, 4]);
next = array1d(1..13 ,[4, 1, 10, 13, 2, 5, 8, 3, 7, 11, 12, 6, 9]);
makespan = 1226;
----------
assign = array1d(1..13 ,[4, 4, 1, 4, 4, 4, 1, 1, 1, 1, 2, 3, 4]);
next = array1d(1..13 ,[4, 1, 10, 13, 2, 5, 8, 3, 7, 11, 12, 6, 9]);
makespan = 1224;
----------
assign = array1d(1..13 ,[4, 4, 1, 4, 4, 4, 1, 1, 1, 1, 2, 3, 4]);
next = array1d(1..13 ,[4, 1, 10, 13, 2, 5, 8, 3, 7, 11, 12, 6, 9]);
makespan = 1223;
----------
assign = array1d(1..13 ,[4, 4, 1, 4, 4, 4, 1, 1, 1, 1, 2, 3, 4]);
next = array1d(1..13 ,[4, 1, 10, 13, 2, 5, 8, 3, 7, 11, 12, 6, 9]);
makespan = 1222;
----------
assign = array1d(1..13 ,[4, 4, 1, 4, 4, 4, 1, 1, 1, 1, 2, 3, 4]);
next = array1d(1..13 ,[4, 1, 10, 13, 2, 5, 8, 3, 7, 11, 12, 6, 9]);
makespan = 1221;
----------
assign = array1d(1..13 ,[4, 4, 1, 4, 4, 4, 1, 1, 1, 1, 2, 3, 4]);
next = array1d(1..13 ,[4, 1, 10, 13, 2, 5, 8, 3, 7, 11, 12, 6, 9]);
makespan = 1220;
----------
assign = array1d(1..13 ,[4, 4, 1, 4, 4, 4, 1, 1, 1, 1, 2, 3, 4]);
next = array1d(1..13 ,[4, 1, 10, 13, 2, 5, 8, 3, 7, 11, 12, 6, 9]);
makespan = 1219;
----------
assign = array1d(1..13 ,[4, 4, 1, 4, 4, 4, 1, 1, 1, 1, 2, 3, 4]);
next = array1d(1..13 ,[4, 1, 10, 13, 2, 5, 8, 3, 7, 11, 12, 6, 9]);
makespan = 1218;
----------
assign = array1d(1..13 ,[4, 4, 1, 4, 4, 4, 1, 1, 1, 1, 2, 3, 4]);
next = array1d(1..13 ,[4, 1, 10, 13, 2, 5, 8, 3, 7, 11, 12, 6, 9]);
makespan = 1217;
----------
assign = array1d(1..13 ,[4, 4, 1, 4, 4, 4, 1, 1, 1, 1, 2, 3, 4]);
next = array1d(1..13 ,[4, 1, 10, 13, 2, 5, 8, 3, 7, 11, 12, 6, 9]);
makespan = 1215;
----------
assign = array1d(1..13 ,[4, 4, 1, 4, 4, 4, 1, 1, 1, 1, 2, 3, 4]);
next = array1d(1..13 ,[4, 1, 10, 13, 2, 5, 8, 3, 7, 11, 12, 6, 9]);
makespan = 1214;
----------
assign = array1d(1..13 ,[4, 4, 1, 4, 4, 4, 1, 1, 1, 1, 2, 3, 4]);
next = array1d(1..13 ,[4, 1, 10, 13, 2, 5, 8, 3, 7, 11, 12, 6, 9]);
makespan = 1213;
----------
assign = array1d(1..13 ,[4, 4, 1, 4, 4, 4, 1, 1, 1, 1, 2, 3, 4]);
next = array1d(1..13 ,[4, 1, 10, 13, 2, 5, 8, 3, 7, 11, 12, 6, 9]);
makespan = 1211;
----------
assign = array1d(1..13 ,[4, 4, 1, 4, 4, 4, 1, 1, 1, 1, 2, 3, 4]);
next = array1d(1..13 ,[4, 1, 10, 13, 2, 5, 8, 3, 7, 11, 12, 6, 9]);
makespan = 1210;
----------
assign = array1d(1..13 ,[4, 4, 1, 4, 4, 4, 1, 1, 1, 1, 2, 3, 4]);
next = array1d(1..13 ,[4, 1, 10, 13, 2, 5, 8, 3, 7, 11, 12, 6, 9]);
makespan = 1209;
----------
assign = array1d(1..13 ,[4, 4, 1, 4, 4, 4, 1, 1, 1, 1, 2, 3, 4]);
next = array1d(1..13 ,[4, 1, 10, 13, 2, 5, 8, 3, 7, 11, 12, 6, 9]);
makespan = 1208;
----------
assign = array1d(1..13 ,[4, 4, 1, 4, 4, 4, 1, 1, 1, 1, 2, 3, 4]);
next = array1d(1..13 ,[4, 1, 10, 13, 2, 5, 8, 3, 7, 11, 12, 6, 9]);
makespan = 1207;
----------
assign = array1d(1..13 ,[4, 4, 1, 4, 4, 4, 1, 1, 1, 1, 2, 3, 4]);
next = array1d(1..13 ,[4, 1, 10, 13, 2, 5, 8, 3, 7, 11, 12, 6, 9]);
makespan = 1206;
----------
assign = array1d(1..13 ,[4, 4, 1, 4, 4, 4, 1, 1, 1, 1, 2, 3, 4]);
next = array1d(1..13 ,[4, 1, 10, 13, 2, 5, 8, 3, 7, 11, 12, 6, 9]);
makespan = 1205;
----------
assign = array1d(1..13 ,[4, 4, 1, 4, 4, 4, 1, 1, 1, 1, 2, 3, 4]);
next = array1d(1..13 ,[4, 1, 10, 13, 2, 5, 8, 3, 7, 11, 12, 6, 9]);
makespan = 1204;
----------
assign = array1d(1..13 ,[4, 4, 1, 4, 4, 4, 1, 1, 1, 1, 2, 3, 4]);
next = array1d(1..13 ,[4, 1, 10, 13, 2, 5, 8, 3, 7, 11, 12, 6, 9]);
makespan = 1202;
----------
assign = array1d(1..13 ,[4, 4, 1, 4, 4, 4, 1, 1, 1, 1, 2, 3, 4]);
next = array1d(1..13 ,[4, 1, 10, 13, 2, 5, 8, 3, 7, 11, 12, 6, 9]);
makespan = 1201;
----------
assign = array1d(1..13 ,[4, 4, 1, 4, 4, 4, 1, 1, 1, 1, 2, 3, 4]);
next = array1d(1..13 ,[4, 1, 10, 13, 2, 5, 8, 3, 7, 11, 12, 6, 9]);
makespan = 1199;
----------
assign = array1d(1..13 ,[4, 4, 1, 4, 4, 4, 1, 1, 1, 1, 2, 3, 4]);
next = array1d(1..13 ,[4, 1, 10, 13, 2, 5, 8, 3, 7, 11, 12, 6, 9]);
makespan = 1198;
----------
assign = array1d(1..13 ,[4, 4, 1, 4, 4, 4, 1, 1, 1, 1, 2, 3, 4]);
next = array1d(1..13 ,[4, 1, 10, 13, 2, 5, 8, 3, 7, 11, 12, 6, 9]);
makespan = 1195;
----------
assign = array1d(1..13 ,[4, 4, 1, 4, 4, 4, 1, 1, 1, 1, 2, 3, 4]);
next = array1d(1..13 ,[4, 1, 10, 13, 2, 5, 8, 3, 7, 11, 12, 6, 9]);
makespan = 1193;
----------
assign = array1d(1..13 ,[4, 4, 1, 4, 4, 4, 1, 1, 1, 1, 2, 3, 4]);
next = array1d(1..13 ,[4, 1, 10, 13, 2, 5, 8, 3, 7, 11, 12, 6, 9]);
makespan = 1192;
----------
assign = array1d(1..13 ,[4, 4, 1, 4, 4, 4, 1, 1, 1, 1, 2, 3, 4]);
next = array1d(1..13 ,[4, 1, 10, 13, 2, 5, 8, 3, 7, 11, 12, 6, 9]);
makespan = 1189;
----------
assign = array1d(1..13 ,[4, 4, 1, 4, 4, 4, 1, 1, 1, 1, 2, 3, 4]);
next = array1d(1..13 ,[4, 1, 10, 13, 2, 5, 8, 3, 7, 11, 12, 6, 9]);
makespan = 1188;
----------
assign = array1d(1..13 ,[4, 4, 1, 4, 4, 4, 1, 1, 1, 1, 2, 3, 4]);
next = array1d(1..13 ,[4, 1, 10, 13, 2, 5, 8, 3, 7, 11, 12, 6, 9]);
makespan = 1186;
----------
assign = array1d(1..13 ,[4, 4, 1, 4, 4, 4, 1, 1, 1, 1, 2, 3, 4]);
next = array1d(1..13 ,[4, 1, 10, 13, 2, 5, 8, 3, 7, 11, 12, 6, 9]);
makespan = 1183;
----------
assign = array1d(1..13 ,[4, 4, 1, 4, 4, 4, 1, 1, 1, 1, 2, 3, 4]);
next = array1d(1..13 ,[4, 1, 10, 13, 2, 5, 8, 3, 7, 11, 12, 6, 9]);
makespan = 1182;
----------
assign = array1d(1..13 ,[4, 4, 1, 4, 4, 4, 1, 1, 1, 1, 2, 3, 4]);
next = array1d(1..13 ,[4, 1, 10, 13, 2, 5, 8, 3, 7, 11, 12, 6, 9]);
makespan = 1179;
----------
assign = array1d(1..13 ,[4, 4, 1, 4, 4, 4, 1, 1, 1, 1, 2, 3, 4]);
next = array1d(1..13 ,[4, 1, 10, 13, 2, 5, 8, 3, 7, 11, 12, 6, 9]);
makespan = 1177;
----------
assign = array1d(1..13 ,[4, 4, 1, 4, 4, 4, 1, 1, 1, 1, 2, 3, 4]);
next = array1d(1..13 ,[4, 1, 10, 13, 2, 5, 8, 3, 7, 11, 12, 6, 9]);
makespan = 1174;
----------
assign = array1d(1..13 ,[4, 4, 1, 4, 4, 4, 1, 1, 1, 1, 2, 3, 4]);
next = array1d(1..13 ,[4, 1, 10, 13, 2, 5, 8, 3, 7, 11, 12, 6, 9]);
makespan = 1170;
----------
assign = array1d(1..13 ,[4, 4, 1, 4, 4, 4, 1, 1, 1, 1, 2, 3, 4]);
next = array1d(1..13 ,[4, 1, 10, 13, 2, 5, 8, 3, 7, 11, 12, 6, 9]);
makespan = 1168;
----------
assign = array1d(1..13 ,[4, 4, 1, 4, 4, 4, 1, 1, 1, 1, 2, 3, 4]);
next = array1d(1..13 ,[4, 1, 10, 13, 2, 5, 8, 3, 7, 11, 12, 6, 9]);
makespan = 1167;
----------
assign = array1d(1..13 ,[4, 4, 1, 4, 4, 4, 1, 1, 1, 1, 2, 3, 4]);
next = array1d(1..13 ,[4, 1, 10, 13, 2, 5, 8, 3, 7, 11, 12, 6, 9]);
makespan = 1158;
----------
assign = array1d(1..13 ,[4, 4, 1, 4, 4, 4, 1, 1, 1, 1, 2, 3, 4]);
next = array1d(1..13 ,[4, 1, 10, 13, 2, 5, 8, 3, 7, 11, 12, 6, 9]);
makespan = 1155;
----------
assign = array1d(1..13 ,[4, 4, 1, 4, 4, 4, 1, 1, 1, 1, 2, 3, 4]);
next = array1d(1..13 ,[4, 1, 10, 13, 2, 5, 8, 3, 7, 11, 12, 6, 9]);
makespan = 1148;
----------
assign = array1d(1..13 ,[4, 4, 1, 4, 4, 4, 1, 1, 1, 1, 2, 3, 4]);
next = array1d(1..13 ,[4, 1, 10, 13, 2, 5, 8, 3, 7, 11, 12, 6, 9]);
makespan = 1145;
----------
assign = array1d(1..13 ,[4, 4, 1, 4, 4, 4, 1, 1, 1, 1, 2, 3, 4]);
next = array1d(1..13 ,[4, 1, 10, 13, 2, 5, 8, 3, 7, 11, 12, 6, 9]);
makespan = 1144;
----------
assign = array1d(1..13 ,[4, 4, 1, 4, 4, 4, 1, 1, 1, 1, 2, 3, 4]);
next = array1d(1..13 ,[4, 1, 10, 13, 2, 5, 8, 3, 7, 11, 12, 6, 9]);
makespan = 1129;
----------
assign = array1d(1..13 ,[4, 4, 1, 4, 4, 4, 1, 1, 1, 1, 2, 3, 4]);
next = array1d(1..13 ,[4, 1, 10, 13, 2, 5, 8, 3, 7, 11, 12, 6, 9]);
makespan = 1122;
----------
assign = array1d(1..13 ,[4, 4, 1, 4, 4, 4, 1, 1, 1, 1, 2, 3, 4]);
next = array1d(1..13 ,[4, 1, 10, 13, 2, 5, 8, 3, 7, 11, 12, 6, 9]);
makespan = 1117;
----------
assign = array1d(1..13 ,[4, 4, 1, 4, 4, 4, 1, 1, 1, 1, 2, 3, 4]);
next = array1d(1..13 ,[4, 1, 10, 13, 2, 5, 8, 3, 7, 11, 12, 6, 9]);
makespan = 1116;
----------
assign = array1d(1..13 ,[4, 4, 1, 4, 4, 4, 1, 1, 1, 1, 2, 3, 4]);
next = array1d(1..13 ,[4, 1, 10, 13, 2, 5, 8, 3, 7, 11, 12, 6, 9]);
makespan = 1113;
----------
assign = array1d(1..13 ,[4, 4, 1, 4, 4, 4, 1, 1, 1, 1, 2, 3, 4]);
next = array1d(1..13 ,[4, 1, 10, 13, 2, 5, 8, 3, 7, 11, 12, 6, 9]);
makespan = 1110;
----------
assign = array1d(1..13 ,[4, 4, 1, 4, 4, 4, 1, 1, 1, 1, 2, 3, 4]);
next = array1d(1..13 ,[4, 1, 10, 13, 2, 5, 8, 3, 7, 11, 12, 6, 9]);
makespan = 1107;
----------
assign = array1d(1..13 ,[4, 4, 1, 4, 4, 4, 1, 1, 1, 1, 2, 3, 4]);
next = array1d(1..13 ,[4, 1, 10, 13, 2, 5, 8, 3, 7, 11, 12, 6, 9]);
makespan = 1106;
----------
assign = array1d(1..13 ,[4, 4, 1, 4, 4, 4, 1, 1, 1, 1, 2, 3, 4]);
next = array1d(1..13 ,[4, 1, 10, 13, 2, 5, 8, 3, 7, 11, 12, 6, 9]);
makespan = 1104;
----------
assign = array1d(1..13 ,[4, 4, 1, 4, 4, 4, 1, 1, 1, 1, 2, 3, 4]);
next = array1d(1..13 ,[4, 1, 10, 13, 2, 5, 8, 3, 7, 11, 12, 6, 9]);
makespan = 1102;
----------
assign = array1d(1..13 ,[4, 4, 1, 4, 4, 4, 1, 1, 1, 1, 2, 3, 4]);
next = array1d(1..13 ,[4, 1, 10, 13, 2, 5, 8, 3, 7, 11, 12, 6, 9]);
makespan = 1101;
----------
assign = array1d(1..13 ,[4, 4, 1, 4, 4, 4, 1, 1, 1, 1, 2, 3, 4]);
next = array1d(1..13 ,[4, 1, 10, 13, 2, 5, 8, 3, 7, 11, 12, 6, 9]);
makespan = 1098;
----------
assign = array1d(1..13 ,[4, 4, 3, 3, 4, 4, 3, 3, 3, 1, 2, 3, 4]);
next = array1d(1..13 ,[13, 1, 12, 3, 2, 5, 8, 9, 4, 11, 7, 6, 10]);
makespan = 1097;
----------
assign = array1d(1..13 ,[4, 4, 3, 3, 4, 4, 3, 3, 3, 1, 2, 3, 4]);
next = array1d(1..13 ,[13, 1, 12, 3, 2, 5, 8, 9, 4, 11, 7, 6, 10]);
makespan = 1095;
----------
assign = array1d(1..13 ,[4, 4, 3, 3, 4, 4, 3, 3, 3, 1, 2, 3, 4]);
next = array1d(1..13 ,[13, 1, 12, 3, 2, 5, 8, 9, 4, 11, 7, 6, 10]);
makespan = 1094;
----------
assign = array1d(1..13 ,[4, 4, 3, 3, 4, 4, 3, 3, 3, 1, 2, 3, 4]);
next = array1d(1..13 ,[13, 1, 12, 3, 2, 5, 8, 9, 4, 11, 7, 6, 10]);
makespan = 1093;
----------
assign = array1d(1..13 ,[4, 4, 3, 3, 4, 4, 3, 3, 3, 1, 2, 3, 4]);
next = array1d(1..13 ,[13, 1, 12, 3, 2, 5, 8, 9, 4, 11, 7, 6, 10]);
makespan = 1092;
----------
assign = array1d(1..13 ,[4, 4, 2, 2, 4, 4, 2, 2, 2, 1, 2, 3, 4]);
next = array1d(1..13 ,[13, 1, 11, 3, 2, 5, 8, 9, 4, 7, 12, 6, 10]);
makespan = 1091;
----------
assign = array1d(1..13 ,[4, 4, 2, 2, 4, 4, 2, 2, 2, 1, 2, 3, 4]);
next = array1d(1..13 ,[13, 1, 11, 3, 2, 5, 8, 9, 4, 7, 12, 6, 10]);
makespan = 1090;
----------
assign = array1d(1..13 ,[4, 4, 2, 2, 4, 4, 2, 2, 2, 1, 2, 3, 4]);
next = array1d(1..13 ,[13, 1, 11, 3, 2, 5, 8, 9, 4, 7, 12, 6, 10]);
makespan = 1089;
----------
assign = array1d(1..13 ,[4, 4, 2, 2, 4, 4, 2, 2, 2, 1, 2, 3, 4]);
next = array1d(1..13 ,[13, 1, 11, 3, 2, 5, 8, 9, 4, 7, 12, 6, 10]);
makespan = 1088;
----------
assign = array1d(1..13 ,[4, 4, 2, 2, 4, 4, 2, 2, 2, 1, 2, 3, 4]);
next = array1d(1..13 ,[13, 1, 11, 3, 2, 5, 8, 9, 4, 7, 12, 6, 10]);
makespan = 1087;
----------
assign = array1d(1..13 ,[4, 4, 2, 2, 4, 4, 2, 2, 2, 1, 2, 3, 4]);
next = array1d(1..13 ,[13, 1, 11, 3, 2, 5, 8, 9, 4, 7, 12, 6, 10]);
makespan = 1086;
----------
assign = array1d(1..13 ,[4, 4, 2, 2, 4, 4, 2, 2, 2, 1, 2, 3, 4]);
next = array1d(1..13 ,[13, 1, 11, 3, 2, 5, 8, 9, 4, 7, 12, 6, 10]);
makespan = 1085;
----------
assign = array1d(1..13 ,[4, 4, 2, 2, 4, 4, 2, 2, 2, 1, 2, 3, 4]);
next = array1d(1..13 ,[13, 1, 11, 3, 2, 5, 8, 9, 4, 7, 12, 6, 10]);
makespan = 1083;
----------
assign = array1d(1..13 ,[4, 4, 2, 2, 4, 4, 2, 2, 2, 1, 2, 3, 4]);
next = array1d(1..13 ,[13, 1, 11, 3, 2, 5, 8, 9, 4, 7, 12, 6, 10]);
makespan = 1082;
----------
assign = array1d(1..13 ,[4, 4, 2, 2, 4, 4, 2, 2, 2, 1, 2, 3, 4]);
next = array1d(1..13 ,[13, 1, 11, 3, 2, 5, 8, 9, 4, 7, 12, 6, 10]);
makespan = 1081;
----------
assign = array1d(1..13 ,[4, 4, 2, 2, 4, 4, 2, 2, 2, 1, 2, 3, 4]);
next = array1d(1..13 ,[13, 1, 11, 3, 2, 5, 8, 9, 4, 7, 12, 6, 10]);
makespan = 1079;
----------
assign = array1d(1..13 ,[4, 4, 2, 2, 4, 4, 2, 2, 2, 1, 2, 3, 4]);
next = array1d(1..13 ,[13, 1, 11, 3, 2, 5, 8, 9, 4, 7, 12, 6, 10]);
makespan = 1078;
----------
assign = array1d(1..13 ,[4, 4, 2, 2, 4, 4, 2, 2, 2, 1, 2, 3, 4]);
next = array1d(1..13 ,[13, 1, 11, 3, 2, 5, 8, 9, 4, 7, 12, 6, 10]);
makespan = 1077;
----------
assign = array1d(1..13 ,[4, 4, 2, 2, 4, 4, 2, 2, 2, 1, 2, 3, 4]);
next = array1d(1..13 ,[13, 1, 11, 3, 2, 5, 8, 9, 4, 7, 12, 6, 10]);
makespan = 1076;
----------
assign = array1d(1..13 ,[4, 4, 2, 2, 4, 4, 2, 2, 2, 1, 2, 3, 4]);
next = array1d(1..13 ,[13, 1, 11, 3, 2, 5, 8, 9, 4, 7, 12, 6, 10]);
makespan = 1075;
----------
assign = array1d(1..13 ,[4, 4, 2, 2, 4, 4, 2, 2, 2, 1, 2, 3, 4]);
next = array1d(1..13 ,[13, 1, 11, 3, 2, 5, 8, 9, 4, 7, 12, 6, 10]);
makespan = 1073;
----------
assign = array1d(1..13 ,[4, 4, 2, 2, 4, 4, 2, 2, 2, 1, 2, 3, 4]);
next = array1d(1..13 ,[13, 1, 11, 3, 2, 5, 8, 9, 4, 7, 12, 6, 10]);
makespan = 1072;
----------
assign = array1d(1..13 ,[4, 4, 2, 2, 4, 4, 2, 2, 2, 1, 2, 3, 4]);
next = array1d(1..13 ,[13, 1, 11, 3, 2, 5, 8, 9, 4, 7, 12, 6, 10]);
makespan = 1070;
----------
assign = array1d(1..13 ,[4, 4, 2, 2, 4, 4, 2, 2, 2, 1, 2, 3, 4]);
next = array1d(1..13 ,[13, 1, 11, 3, 2, 5, 8, 9, 4, 7, 12, 6, 10]);
makespan = 1069;
----------
assign = array1d(1..13 ,[4, 4, 2, 2, 4, 4, 2, 2, 2, 1, 2, 3, 4]);
next = array1d(1..13 ,[13, 1, 11, 3, 2, 5, 8, 9, 4, 7, 12, 6, 10]);
makespan = 1067;
----------
assign = array1d(1..13 ,[4, 4, 2, 2, 4, 4, 2, 2, 2, 1, 2, 3, 4]);
next = array1d(1..13 ,[13, 1, 11, 3, 2, 5, 8, 9, 4, 7, 12, 6, 10]);
makespan = 1066;
----------
assign = array1d(1..13 ,[4, 4, 2, 2, 4, 4, 2, 2, 2, 1, 2, 3, 4]);
next = array1d(1..13 ,[13, 1, 11, 3, 2, 5, 8, 9, 4, 7, 12, 6, 10]);
makespan = 1064;
----------
assign = array1d(1..13 ,[4, 4, 2, 2, 4, 4, 2, 2, 2, 1, 2, 3, 4]);
next = array1d(1..13 ,[13, 1, 11, 3, 2, 5, 8, 9, 4, 7, 12, 6, 10]);
makespan = 1063;
----------
assign = array1d(1..13 ,[4, 4, 2, 2, 4, 4, 2, 2, 2, 1, 2, 3, 4]);
next = array1d(1..13 ,[13, 1, 11, 3, 2, 5, 8, 9, 4, 7, 12, 6, 10]);
makespan = 1061;
----------
assign = array1d(1..13 ,[4, 4, 2, 2, 4, 4, 2, 2, 2, 1, 2, 3, 4]);
next = array1d(1..13 ,[13, 1, 11, 3, 2, 5, 8, 9, 4, 7, 12, 6, 10]);
makespan = 1060;
----------
assign = array1d(1..13 ,[4, 4, 2, 2, 4, 4, 2, 2, 2, 1, 2, 3, 4]);
next = array1d(1..13 ,[13, 1, 11, 3, 2, 5, 8, 9, 4, 7, 12, 6, 10]);
makespan = 1057;
----------
assign = array1d(1..13 ,[4, 4, 2, 2, 4, 4, 2, 2, 2, 1, 2, 3, 4]);
next = array1d(1..13 ,[13, 1, 11, 3, 2, 5, 8, 9, 4, 7, 12, 6, 10]);
makespan = 1056;
----------
assign = array1d(1..13 ,[4, 4, 2, 2, 4, 4, 2, 2, 2, 1, 2, 3, 4]);
next = array1d(1..13 ,[13, 1, 11, 3, 2, 5, 8, 9, 4, 7, 12, 6, 10]);
makespan = 1054;
----------
assign = array1d(1..13 ,[4, 4, 2, 2, 4, 4, 2, 2, 2, 1, 2, 3, 4]);
next = array1d(1..13 ,[13, 1, 11, 3, 2, 5, 8, 9, 4, 7, 12, 6, 10]);
makespan = 1052;
----------
assign = array1d(1..13 ,[4, 4, 2, 2, 4, 4, 2, 2, 2, 1, 2, 3, 4]);
next = array1d(1..13 ,[13, 1, 11, 3, 2, 5, 8, 9, 4, 7, 12, 6, 10]);
makespan = 1051;
----------
assign = array1d(1..13 ,[4, 4, 2, 2, 4, 4, 2, 2, 2, 1, 2, 3, 4]);
next = array1d(1..13 ,[13, 1, 11, 3, 2, 5, 8, 9, 4, 7, 12, 6, 10]);
makespan = 1050;
----------
assign = array1d(1..13 ,[4, 4, 2, 2, 4, 4, 2, 2, 2, 1, 2, 3, 4]);
next = array1d(1..13 ,[13, 1, 11, 3, 2, 5, 8, 9, 4, 7, 12, 6, 10]);
makespan = 1049;
----------
assign = array1d(1..13 ,[4, 4, 2, 2, 4, 4, 2, 2, 2, 1, 2, 3, 4]);
next = array1d(1..13 ,[13, 1, 11, 3, 2, 5, 8, 9, 4, 7, 12, 6, 10]);
makespan = 1048;
----------
assign = array1d(1..13 ,[4, 4, 2, 2, 4, 4, 2, 2, 2, 1, 2, 3, 4]);
next = array1d(1..13 ,[13, 1, 11, 3, 2, 5, 8, 9, 4, 7, 12, 6, 10]);
makespan = 1047;
----------
assign = array1d(1..13 ,[4, 4, 2, 2, 4, 4, 2, 2, 2, 1, 2, 3, 4]);
next = array1d(1..13 ,[13, 1, 11, 3, 2, 5, 8, 9, 4, 7, 12, 6, 10]);
makespan = 1046;
----------
assign = array1d(1..13 ,[4, 4, 2, 2, 4, 4, 2, 2, 2, 1, 2, 3, 4]);
next = array1d(1..13 ,[13, 1, 11, 3, 2, 5, 8, 9, 4, 7, 12, 6, 10]);
makespan = 1045;
----------
assign = array1d(1..13 ,[4, 4, 2, 2, 4, 4, 2, 2, 2, 1, 2, 3, 4]);
next = array1d(1..13 ,[13, 1, 11, 3, 2, 5, 8, 9, 4, 7, 12, 6, 10]);
makespan = 1042;
----------
assign = array1d(1..13 ,[4, 4, 2, 2, 4, 4, 2, 2, 2, 1, 2, 3, 4]);
next = array1d(1..13 ,[13, 1, 11, 3, 2, 5, 8, 9, 4, 7, 12, 6, 10]);
makespan = 1041;
----------
assign = array1d(1..13 ,[4, 4, 2, 2, 4, 4, 2, 2, 2, 1, 2, 3, 4]);
next = array1d(1..13 ,[13, 1, 11, 3, 2, 5, 8, 9, 4, 7, 12, 6, 10]);
makespan = 1038;
----------
assign = array1d(1..13 ,[4, 4, 2, 2, 4, 4, 2, 2, 2, 1, 2, 3, 4]);
next = array1d(1..13 ,[13, 1, 11, 3, 2, 5, 8, 9, 4, 7, 12, 6, 10]);
makespan = 1036;
----------
assign = array1d(1..13 ,[4, 4, 2, 2, 4, 4, 2, 2, 2, 1, 2, 3, 4]);
next = array1d(1..13 ,[13, 1, 11, 3, 2, 5, 8, 9, 4, 7, 12, 6, 10]);
makespan = 1032;
----------
assign = array1d(1..13 ,[4, 4, 2, 2, 4, 4, 2, 2, 2, 1, 2, 3, 4]);
next = array1d(1..13 ,[13, 1, 11, 3, 2, 5, 8, 9, 4, 7, 12, 6, 10]);
makespan = 1029;
----------
assign = array1d(1..13 ,[4, 4, 2, 2, 4, 4, 2, 2, 2, 1, 2, 3, 4]);
next = array1d(1..13 ,[13, 1, 11, 3, 2, 5, 8, 9, 4, 7, 12, 6, 10]);
makespan = 1021;
----------
assign = array1d(1..13 ,[4, 4, 3, 3, 4, 4, 1, 3, 3, 1, 2, 3, 4]);
next = array1d(1..13 ,[13, 1, 12, 3, 2, 5, 10, 9, 4, 11, 8, 6, 7]);
makespan = 1016;
----------
assign = array1d(1..13 ,[4, 4, 2, 2, 4, 4, 3, 2, 2, 1, 2, 3, 4]);
next = array1d(1..13 ,[13, 1, 11, 3, 2, 5, 12, 9, 4, 8, 7, 6, 10]);
makespan = 995;
----------
assign = array1d(1..13 ,[4, 4, 2, 2, 4, 4, 3, 2, 2, 1, 2, 3, 4]);
next = array1d(1..13 ,[13, 1, 11, 3, 2, 5, 12, 9, 4, 8, 7, 6, 10]);
makespan = 983;
----------
assign = array1d(1..13 ,[4, 4, 2, 2, 4, 4, 3, 2, 2, 1, 2, 3, 4]);
next = array1d(1..13 ,[13, 1, 11, 3, 2, 5, 12, 9, 4, 8, 7, 6, 10]);
makespan = 972;
----------
assign = array1d(1..13 ,[4, 4, 2, 2, 4, 4, 3, 2, 2, 1, 2, 3, 4]);
next = array1d(1..13 ,[13, 1, 11, 3, 2, 5, 12, 9, 4, 8, 7, 6, 10]);
makespan = 971;
----------
assign = array1d(1..13 ,[4, 4, 2, 2, 4, 4, 3, 2, 2, 1, 2, 3, 4]);
next = array1d(1..13 ,[13, 1, 11, 3, 2, 5, 12, 9, 4, 8, 7, 6, 10]);
makespan = 957;
----------
assign = array1d(1..13 ,[4, 4, 2, 2, 4, 4, 3, 2, 2, 1, 2, 3, 4]);
next = array1d(1..13 ,[13, 1, 11, 3, 2, 5, 12, 9, 4, 8, 7, 6, 10]);
makespan = 956;
----------
assign = array1d(1..13 ,[4, 4, 2, 2, 4, 4, 3, 2, 2, 1, 2, 3, 4]);
next = array1d(1..13 ,[13, 1, 11, 3, 2, 5, 12, 9, 4, 8, 7, 6, 10]);
makespan = 950;
----------
assign = array1d(1..13 ,[4, 4, 2, 2, 4, 4, 3, 2, 2, 1, 2, 3, 4]);
next = array1d(1..13 ,[13, 1, 11, 3, 2, 5, 12, 9, 4, 8, 7, 6, 10]);
makespan = 949;
----------
assign = array1d(1..13 ,[4, 4, 2, 2, 4, 4, 3, 2, 2, 1, 2, 3, 4]);
next = array1d(1..13 ,[13, 1, 11, 3, 2, 5, 12, 9, 4, 8, 7, 6, 10]);
makespan = 945;
----------
assign = array1d(1..13 ,[4, 4, 2, 2, 4, 4, 3, 2, 2, 1, 2, 3, 4]);
next = array1d(1..13 ,[13, 1, 11, 3, 2, 5, 12, 9, 4, 8, 7, 6, 10]);
makespan = 944;
----------
assign = array1d(1..13 ,[4, 4, 2, 2, 4, 4, 3, 2, 2, 1, 2, 3, 4]);
next = array1d(1..13 ,[13, 1, 11, 3, 2, 5, 12, 9, 4, 8, 7, 6, 10]);
makespan = 941;
----------
assign = array1d(1..13 ,[4, 4, 2, 2, 4, 4, 3, 2, 2, 1, 2, 3, 4]);
next = array1d(1..13 ,[13, 1, 11, 3, 2, 5, 12, 9, 4, 8, 7, 6, 10]);
makespan = 940;
----------
assign = array1d(1..13 ,[4, 4, 2, 2, 4, 4, 3, 2, 2, 1, 2, 3, 4]);
next = array1d(1..13 ,[13, 1, 11, 3, 2, 5, 12, 9, 4, 8, 7, 6, 10]);
makespan = 938;
----------
assign = array1d(1..13 ,[4, 4, 2, 2, 4, 4, 3, 2, 2, 1, 2, 3, 4]);
next = array1d(1..13 ,[13, 1, 11, 3, 2, 5, 12, 9, 4, 8, 7, 6, 10]);
makespan = 937;
----------
assign = array1d(1..13 ,[4, 4, 2, 2, 4, 4, 3, 2, 2, 1, 2, 3, 4]);
next = array1d(1..13 ,[13, 1, 11, 3, 2, 5, 12, 9, 4, 8, 7, 6, 10]);
makespan = 934;
----------
assign = array1d(1..13 ,[4, 4, 2, 2, 4, 4, 3, 2, 2, 1, 2, 3, 4]);
next = array1d(1..13 ,[13, 1, 11, 3, 2, 5, 12, 9, 4, 8, 7, 6, 10]);
makespan = 932;
----------
assign = array1d(1..13 ,[4, 4, 2, 2, 4, 4, 3, 2, 2, 1, 2, 3, 4]);
next = array1d(1..13 ,[13, 1, 11, 3, 2, 5, 12, 9, 4, 8, 7, 6, 10]);
makespan = 931;
----------
assign = array1d(1..13 ,[4, 4, 2, 2, 4, 4, 3, 2, 2, 1, 2, 3, 4]);
next = array1d(1..13 ,[13, 1, 11, 3, 2, 5, 12, 9, 4, 8, 7, 6, 10]);
makespan = 929;
----------
assign = array1d(1..13 ,[4, 4, 2, 2, 4, 4, 3, 2, 2, 1, 2, 3, 4]);
next = array1d(1..13 ,[13, 1, 11, 3, 2, 5, 12, 9, 4, 8, 7, 6, 10]);
makespan = 925;
----------
assign = array1d(1..13 ,[4, 4, 2, 2, 4, 4, 3, 2, 2, 1, 2, 3, 4]);
next = array1d(1..13 ,[13, 1, 11, 3, 2, 5, 12, 9, 4, 8, 7, 6, 10]);
makespan = 922;
----------
assign = array1d(1..13 ,[4, 4, 2, 2, 4, 4, 3, 2, 2, 1, 2, 3, 4]);
next = array1d(1..13 ,[13, 1, 11, 3, 2, 5, 12, 9, 4, 8, 7, 6, 10]);
makespan = 921;
----------
assign = array1d(1..13 ,[4, 4, 2, 2, 4, 4, 3, 2, 2, 1, 2, 3, 4]);
next = array1d(1..13 ,[13, 1, 11, 3, 2, 5, 12, 9, 4, 8, 7, 6, 10]);
makespan = 918;
----------
assign = array1d(1..13 ,[4, 4, 2, 2, 4, 4, 3, 2, 2, 1, 2, 3, 4]);
next = array1d(1..13 ,[13, 1, 11, 3, 2, 5, 12, 9, 4, 8, 7, 6, 10]);
makespan = 917;
----------
assign = array1d(1..13 ,[4, 4, 2, 2, 4, 4, 3, 2, 2, 1, 2, 3, 4]);
next = array1d(1..13 ,[13, 1, 11, 3, 2, 5, 12, 9, 4, 8, 7, 6, 10]);
makespan = 916;
----------
assign = array1d(1..13 ,[4, 4, 2, 2, 4, 4, 3, 2, 2, 1, 2, 3, 4]);
next = array1d(1..13 ,[13, 1, 11, 3, 2, 5, 12, 9, 4, 8, 7, 6, 10]);
makespan = 915;
----------
assign = array1d(1..13 ,[4, 4, 2, 2, 4, 4, 3, 2, 2, 1, 2, 3, 4]);
next = array1d(1..13 ,[13, 1, 11, 3, 2, 5, 12, 9, 4, 8, 7, 6, 10]);
makespan = 913;
----------
assign = array1d(1..13 ,[4, 4, 2, 2, 4, 4, 3, 2, 2, 1, 2, 3, 4]);
next = array1d(1..13 ,[13, 1, 11, 3, 2, 5, 12, 9, 4, 8, 7, 6, 10]);
makespan = 911;
----------
assign = array1d(1..13 ,[4, 4, 2, 2, 4, 4, 3, 2, 2, 1, 2, 3, 4]);
next = array1d(1..13 ,[13, 1, 11, 3, 2, 5, 12, 9, 4, 8, 7, 6, 10]);
makespan = 910;
----------
assign = array1d(1..13 ,[4, 4, 2, 2, 4, 4, 3, 2, 2, 1, 2, 3, 4]);
next = array1d(1..13 ,[13, 1, 11, 3, 2, 5, 12, 9, 4, 8, 7, 6, 10]);
makespan = 909;
----------
assign = array1d(1..13 ,[4, 4, 2, 2, 4, 4, 3, 2, 2, 1, 2, 3, 4]);
next = array1d(1..13 ,[13, 1, 11, 3, 2, 5, 12, 9, 4, 8, 7, 6, 10]);
makespan = 906;
----------
assign = array1d(1..13 ,[4, 4, 2, 2, 4, 4, 3, 2, 2, 1, 2, 3, 4]);
next = array1d(1..13 ,[13, 1, 11, 3, 2, 5, 12, 9, 4, 8, 7, 6, 10]);
makespan = 904;
----------
assign = array1d(1..13 ,[4, 4, 2, 2, 4, 4, 3, 2, 2, 1, 2, 3, 4]);
next = array1d(1..13 ,[13, 1, 11, 3, 2, 5, 12, 9, 4, 8, 7, 6, 10]);
makespan = 900;
----------
assign = array1d(1..13 ,[4, 4, 2, 2, 4, 4, 3, 2, 2, 1, 2, 3, 4]);
next = array1d(1..13 ,[13, 1, 11, 3, 2, 5, 12, 9, 4, 8, 7, 6, 10]);
makespan = 897;
----------
assign = array1d(1..13 ,[4, 4, 2, 2, 4, 4, 3, 2, 2, 1, 2, 3, 4]);
next = array1d(1..13 ,[6, 1, 11, 3, 2, 13, 12, 9, 4, 8, 7, 5, 10]);
makespan = 896;
----------
assign = array1d(1..13 ,[4, 4, 2, 2, 4, 4, 3, 2, 2, 1, 2, 3, 4]);
next = array1d(1..13 ,[6, 1, 11, 3, 13, 5, 12, 9, 4, 8, 7, 2, 10]);
makespan = 892;
----------
assign = array1d(1..13 ,[4, 4, 2, 4, 4, 2, 3, 3, 3, 1, 2, 3, 4]);
next = array1d(1..13 ,[4, 1, 6, 13, 2, 11, 12, 9, 7, 3, 8, 5, 10]);
makespan = 891;
----------
assign = array1d(1..13 ,[4, 4, 2, 4, 4, 2, 3, 3, 3, 1, 2, 3, 4]);
next = array1d(1..13 ,[4, 1, 6, 13, 2, 11, 12, 9, 7, 3, 8, 5, 10]);
makespan = 888;
----------
assign = array1d(1..13 ,[4, 4, 2, 4, 4, 2, 3, 3, 3, 1, 2, 3, 4]);
next = array1d(1..13 ,[4, 1, 6, 13, 2, 11, 12, 9, 7, 3, 8, 5, 10]);
makespan = 871;
----------
assign = array1d(1..13 ,[4, 4, 3, 3, 4, 1, 1, 3, 3, 1, 2, 3, 4]);
next = array1d(1..13 ,[13, 1, 12, 3, 2, 7, 10, 9, 4, 11, 8, 5, 6]);
makespan = 838;
----------
assign = array1d(1..13 ,[4, 4, 3, 3, 4, 1, 1, 3, 3, 1, 2, 3, 4]);
next = array1d(1..13 ,[13, 1, 12, 3, 2, 7, 10, 9, 4, 11, 8, 5, 6]);
makespan = 833;
----------
assign = array1d(1..13 ,[4, 4, 2, 2, 4, 3, 3, 2, 2, 1, 2, 3, 4]);
next = array1d(1..13 ,[13, 1, 11, 3, 2, 7, 12, 9, 4, 8, 6, 5, 10]);
makespan = 827;
----------
assign = array1d(1..13 ,[1, 4, 4, 4, 4, 3, 3, 3, 3, 1, 2, 3, 4]);
next = array1d(1..13 ,[10, 4, 13, 3, 2, 7, 8, 9, 12, 11, 6, 5, 1]);
makespan = 826;
----------
assign = array1d(1..13 ,[4, 4, 2, 2, 4, 3, 3, 2, 2, 1, 2, 3, 4]);
next = array1d(1..13 ,[13, 1, 11, 3, 2, 7, 12, 9, 4, 8, 6, 5, 10]);
makespan = 820;
----------
assign = array1d(1..13 ,[4, 4, 2, 2, 4, 3, 3, 2, 2, 1, 2, 3, 4]);
next = array1d(1..13 ,[13, 1, 11, 3, 2, 7, 12, 9, 4, 8, 6, 5, 10]);
makespan = 815;
----------
assign = array1d(1..13 ,[4, 4, 2, 2, 4, 3, 3, 2, 2, 1, 2, 3, 4]);
next = array1d(1..13 ,[13, 1, 11, 3, 2, 7, 12, 9, 4, 8, 6, 5, 10]);
makespan = 811;
----------
assign = array1d(1..13 ,[4, 4, 2, 2, 4, 3, 3, 2, 2, 1, 2, 3, 4]);
next = array1d(1..13 ,[13, 1, 11, 3, 2, 7, 12, 9, 4, 8, 6, 5, 10]);
makespan = 809;
----------
assign = array1d(1..13 ,[4, 4, 2, 2, 4, 3, 3, 2, 2, 1, 2, 3, 4]);
next = array1d(1..13 ,[13, 1, 11, 3, 2, 7, 12, 9, 4, 8, 6, 5, 10]);
makespan = 802;
----------
assign = array1d(1..13 ,[4, 4, 2, 2, 4, 3, 3, 2, 2, 1, 2, 3, 4]);
next = array1d(1..13 ,[13, 1, 11, 3, 2, 7, 12, 9, 4, 8, 6, 5, 10]);
makespan = 800;
----------
assign = array1d(1..13 ,[4, 4, 2, 2, 4, 3, 3, 2, 2, 1, 2, 3, 4]);
next = array1d(1..13 ,[13, 1, 11, 3, 2, 7, 12, 9, 4, 8, 6, 5, 10]);
makespan = 798;
----------
assign = array1d(1..13 ,[4, 4, 2, 2, 4, 3, 3, 2, 2, 1, 2, 3, 4]);
next = array1d(1..13 ,[13, 1, 11, 3, 2, 7, 12, 9, 4, 8, 6, 5, 10]);
makespan = 784;
----------
assign = array1d(1..13 ,[4, 4, 2, 2, 4, 3, 3, 2, 2, 1, 2, 3, 4]);
next = array1d(1..13 ,[13, 1, 11, 3, 2, 7, 12, 9, 4, 8, 6, 5, 10]);
makespan = 782;
----------
assign = array1d(1..13 ,[4, 4, 3, 3, 4, 3, 2, 2, 2, 1, 2, 3, 4]);
next = array1d(1..13 ,[13, 1, 6, 3, 2, 12, 11, 9, 7, 8, 4, 5, 10]);
makespan = 779;
----------
assign = array1d(1..13 ,[2, 4, 3, 3, 2, 3, 2, 4, 4, 1, 2, 3, 4]);
next = array1d(1..13 ,[5, 8, 6, 3, 7, 12, 11, 9, 13, 1, 4, 2, 10]);
makespan = 775;
----------
assign = array1d(1..13 ,[2, 2, 3, 4, 2, 3, 3, 4, 4, 1, 2, 3, 4]);
next = array1d(1..13 ,[2, 5, 6, 13, 11, 7, 12, 9, 4, 1, 3, 8, 10]);
makespan = 770;
----------
assign = array1d(1..13 ,[3, 3, 2, 3, 4, 2, 2, 4, 4, 1, 2, 3, 4]);
next = array1d(1..13 ,[2, 4, 6, 12, 8, 7, 11, 9, 13, 3, 1, 5, 10]);
makespan = 769;
----------
assign = array1d(1..13 ,[4, 4, 3, 4, 3, 2, 2, 3, 2, 1, 2, 3, 4]);
next = array1d(1..13 ,[2, 4, 8, 13, 12, 9, 11, 5, 7, 6, 3, 1, 10]);
makespan = 768;
----------
assign = array1d(1..13 ,[4, 4, 3, 3, 2, 3, 2, 2, 4, 1, 2, 3, 4]);
next = array1d(1..13 ,[2, 9, 6, 3, 7, 12, 11, 5, 13, 8, 4, 1, 10]);
makespan = 764;
----------
assign = array1d(1..13 ,[4, 2, 4, 4, 3, 2, 3, 3, 2, 1, 2, 3, 4]);
next = array1d(1..13 ,[13, 11, 1, 3, 12, 9, 8, 5, 2, 6, 7, 4, 10]);
makespan = 763;
----------
assign = array1d(1..13 ,[4, 2, 4, 4, 3, 2, 3, 3, 2, 1, 2, 3, 4]);
next = array1d(1..13 ,[13, 11, 1, 3, 12, 9, 8, 5, 2, 6, 7, 4, 10]);
makespan = 761;
----------
assign = array1d(1..13 ,[4, 2, 4, 4, 3, 2, 3, 3, 2, 1, 2, 3, 4]);
next = array1d(1..13 ,[13, 11, 1, 3, 12, 9, 8, 5, 2, 6, 7, 4, 10]);
makespan = 759;
----------
assign = array1d(1..13 ,[4, 2, 4, 4, 3, 2, 3, 3, 2, 1, 2, 3, 4]);
next = array1d(1..13 ,[13, 11, 1, 3, 12, 9, 8, 5, 2, 6, 7, 4, 10]);
makespan = 756;
----------
assign = array1d(1..13 ,[4, 2, 4, 4, 3, 2, 3, 3, 2, 1, 2, 3, 4]);
next = array1d(1..13 ,[13, 11, 1, 3, 12, 9, 8, 5, 2, 6, 7, 4, 10]);
makespan = 753;
----------
assign = array1d(1..13 ,[4, 2, 4, 4, 3, 2, 3, 3, 2, 1, 2, 3, 4]);
next = array1d(1..13 ,[13, 11, 1, 3, 12, 9, 8, 5, 2, 6, 7, 4, 10]);
makespan = 752;
----------
assign = array1d(1..13 ,[4, 2, 4, 4, 3, 2, 3, 3, 2, 1, 2, 3, 4]);
next = array1d(1..13 ,[13, 11, 1, 3, 12, 9, 8, 5, 2, 6, 7, 4, 10]);
makespan = 751;
----------
assign = array1d(1..13 ,[4, 2, 4, 4, 3, 2, 3, 3, 2, 1, 2, 3, 4]);
next = array1d(1..13 ,[13, 11, 1, 3, 12, 9, 8, 5, 2, 6, 7, 4, 10]);
makespan = 744;
----------
assign = array1d(1..13 ,[4, 2, 4, 4, 3, 2, 3, 3, 2, 1, 2, 3, 4]);
next = array1d(1..13 ,[13, 11, 1, 3, 12, 9, 8, 5, 2, 6, 7, 4, 10]);
makespan = 739;
----------
assign = array1d(1..13 ,[4, 2, 4, 4, 3, 2, 3, 3, 2, 1, 2, 3, 4]);
next = array1d(1..13 ,[13, 11, 1, 3, 12, 9, 8, 5, 2, 6, 7, 4, 10]);
makespan = 738;
----------
assign = array1d(1..13 ,[4, 2, 4, 4, 3, 2, 3, 3, 2, 1, 2, 3, 4]);
next = array1d(1..13 ,[13, 11, 1, 3, 12, 9, 8, 5, 2, 6, 7, 4, 10]);
makespan = 729;
----------
assign = array1d(1..13 ,[4, 2, 4, 4, 3, 2, 3, 3, 2, 1, 2, 3, 4]);
next = array1d(1..13 ,[13, 11, 1, 3, 12, 9, 8, 5, 2, 6, 7, 4, 10]);
makespan = 728;
----------
assign = array1d(1..13 ,[4, 2, 4, 4, 3, 2, 3, 3, 2, 1, 2, 3, 4]);
next = array1d(1..13 ,[13, 11, 1, 3, 12, 9, 8, 5, 2, 6, 7, 4, 10]);
makespan = 723;
----------
assign = array1d(1..13 ,[4, 2, 4, 4, 3, 2, 3, 3, 2, 1, 2, 3, 4]);
next = array1d(1..13 ,[13, 11, 1, 3, 12, 9, 8, 5, 2, 6, 7, 4, 10]);
makespan = 716;
----------
assign = array1d(1..13 ,[4, 2, 4, 4, 3, 2, 3, 3, 2, 1, 2, 3, 4]);
next = array1d(1..13 ,[13, 11, 1, 3, 12, 9, 8, 5, 2, 6, 7, 4, 10]);
makespan = 712;
----------
assign = array1d(1..13 ,[4, 2, 4, 4, 3, 2, 3, 3, 2, 1, 2, 3, 4]);
next = array1d(1..13 ,[13, 11, 1, 3, 12, 9, 8, 5, 2, 6, 7, 4, 10]);
makespan = 711;
----------
assign = array1d(1..13 ,[4, 2, 4, 4, 3, 2, 3, 3, 2, 1, 2, 3, 4]);
next = array1d(1..13 ,[13, 11, 1, 3, 12, 9, 8, 5, 2, 6, 7, 4, 10]);
makespan = 710;
----------
assign = array1d(1..13 ,[4, 2, 4, 4, 3, 2, 3, 3, 2, 1, 2, 3, 4]);
next = array1d(1..13 ,[13, 11, 1, 3, 12, 9, 8, 5, 2, 6, 7, 4, 10]);
makespan = 703;
----------
assign = array1d(1..13 ,[4, 2, 4, 4, 3, 2, 3, 3, 2, 1, 2, 3, 4]);
next = array1d(1..13 ,[13, 11, 1, 3, 12, 9, 8, 5, 2, 6, 7, 4, 10]);
makespan = 691;
----------
assign = array1d(1..13 ,[4, 2, 4, 4, 3, 2, 3, 3, 2, 1, 2, 3, 4]);
next = array1d(1..13 ,[13, 11, 1, 3, 12, 9, 8, 5, 2, 6, 7, 4, 10]);
makespan = 688;
----------
assign = array1d(1..13 ,[4, 2, 4, 4, 3, 2, 3, 3, 2, 1, 2, 3, 4]);
next = array1d(1..13 ,[13, 11, 1, 3, 12, 9, 8, 5, 2, 6, 7, 4, 10]);
makespan = 682;
----------
assign = array1d(1..13 ,[4, 2, 4, 4, 3, 2, 3, 3, 2, 1, 2, 3, 4]);
next = array1d(1..13 ,[13, 11, 1, 3, 12, 9, 8, 5, 2, 6, 7, 4, 10]);
makespan = 678;
----------
assign = array1d(1..13 ,[4, 2, 4, 4, 3, 2, 3, 3, 2, 1, 2, 3, 4]);
next = array1d(1..13 ,[13, 11, 1, 3, 12, 9, 8, 5, 2, 6, 7, 4, 10]);
makespan = 672;
----------
assign = array1d(1..13 ,[4, 2, 4, 4, 3, 2, 3, 3, 2, 1, 2, 3, 4]);
next = array1d(1..13 ,[13, 11, 1, 3, 12, 9, 8, 5, 2, 6, 7, 4, 10]);
makespan = 670;
----------
assign = array1d(1..13 ,[4, 2, 4, 4, 3, 2, 3, 3, 2, 1, 2, 3, 4]);
next = array1d(1..13 ,[13, 11, 1, 3, 12, 9, 8, 5, 2, 6, 7, 4, 10]);
makespan = 669;
----------
assign = array1d(1..13 ,[4, 2, 4, 4, 3, 2, 3, 3, 2, 1, 2, 3, 4]);
next = array1d(1..13 ,[13, 11, 1, 3, 12, 9, 8, 5, 2, 6, 7, 4, 10]);
makespan = 663;
----------
assign = array1d(1..13 ,[4, 2, 4, 4, 3, 2, 3, 3, 2, 1, 2, 3, 4]);
next = array1d(1..13 ,[13, 11, 1, 3, 12, 9, 8, 5, 2, 6, 7, 4, 10]);
makespan = 657;
----------
assign = array1d(1..13 ,[4, 2, 4, 4, 3, 2, 3, 3, 2, 1, 2, 3, 4]);
next = array1d(1..13 ,[13, 11, 1, 3, 12, 9, 8, 5, 2, 6, 7, 4, 10]);
makespan = 646;
----------
assign = array1d(1..13 ,[4, 2, 4, 4, 3, 2, 3, 3, 2, 1, 2, 3, 4]);
next = array1d(1..13 ,[13, 11, 1, 3, 12, 9, 8, 5, 2, 6, 7, 4, 10]);
makespan = 644;
----------
assign = array1d(1..13 ,[4, 2, 4, 4, 3, 2, 3, 3, 2, 1, 2, 3, 4]);
next = array1d(1..13 ,[13, 11, 1, 3, 12, 9, 8, 5, 2, 6, 7, 4, 10]);
makespan = 638;
----------
assign = array1d(1..13 ,[4, 2, 4, 4, 3, 2, 3, 3, 2, 1, 2, 3, 4]);
next = array1d(1..13 ,[13, 11, 1, 3, 12, 9, 8, 5, 2, 6, 7, 4, 10]);
makespan = 637;
----------
assign = array1d(1..13 ,[4, 2, 4, 4, 3, 2, 3, 3, 2, 1, 2, 3, 4]);
next = array1d(1..13 ,[13, 11, 1, 3, 12, 9, 8, 5, 2, 6, 7, 4, 10]);
makespan = 632;
----------
assign = array1d(1..13 ,[4, 2, 4, 4, 3, 2, 3, 3, 2, 1, 2, 3, 4]);
next = array1d(1..13 ,[4, 11, 13, 3, 12, 9, 8, 5, 2, 6, 7, 1, 10]);
makespan = 630;
----------
assign = array1d(1..13 ,[4, 3, 4, 4, 3, 2, 2, 3, 2, 1, 2, 3, 4]);
next = array1d(1..13 ,[4, 12, 13, 3, 2, 9, 11, 5, 7, 6, 8, 1, 10]);
makespan = 627;
----------
assign = array1d(1..13 ,[4, 2, 3, 4, 3, 2, 2, 3, 4, 1, 2, 3, 4]);
next = array1d(1..13 ,[4, 7, 8, 9, 12, 2, 11, 5, 13, 6, 3, 1, 10]);
makespan = 626;
----------
assign = array1d(1..13 ,[1, 1, 4, 3, 4, 3, 1, 4, 3, 1, 2, 3, 4]);
next = array1d(1..13 ,[7, 1, 8, 12, 13, 9, 10, 5, 4, 11, 6, 3, 2]);
makespan = 616;
----------
assign = array1d(1..13 ,[1, 1, 4, 3, 4, 3, 1, 4, 3, 1, 2, 3, 4]);
next = array1d(1..13 ,[7, 1, 8, 12, 13, 9, 10, 5, 4, 11, 6, 3, 2]);
makespan = 607;
----------
assign = array1d(1..13 ,[4, 1, 3, 4, 3, 1, 2, 3, 4, 1, 2, 3, 4]);
next = array1d(1..13 ,[4, 6, 8, 9, 12, 10, 11, 5, 13, 7, 3, 1, 2]);
makespan = 606;
----------
assign = array1d(1..13 ,[4, 3, 2, 4, 2, 3, 3, 2, 4, 1, 2, 3, 4]);
next = array1d(1..13 ,[4, 6, 8, 9, 11, 7, 12, 5, 13, 3, 2, 1, 10]);
makespan = 603;
----------
assign = array1d(1..13 ,[4, 3, 2, 4, 2, 3, 3, 2, 4, 1, 2, 3, 4]);
next = array1d(1..13 ,[4, 6, 8, 9, 11, 7, 12, 5, 13, 3, 2, 1, 10]);
makespan = 599;
----------
assign = array1d(1..13 ,[4, 3, 1, 4, 1, 3, 2, 1, 4, 1, 2, 3, 4]);
next = array1d(1..13 ,[4, 6, 8, 9, 10, 12, 11, 5, 13, 7, 2, 1, 3]);
makespan = 598;
----------
assign = array1d(1..13 ,[4, 3, 2, 4, 2, 3, 1, 2, 4, 1, 2, 3, 4]);
next = array1d(1..13 ,[4, 6, 8, 9, 11, 12, 10, 5, 13, 3, 2, 1, 7]);
makespan = 595;
----------
assign = array1d(1..13 ,[1, 3, 2, 4, 2, 3, 4, 2, 3, 1, 2, 3, 4]);
next = array1d(1..13 ,[10, 6, 8, 7, 11, 9, 13, 5, 12, 3, 2, 4, 1]);
makespan = 591;
----------
assign = array1d(1..13 ,[4, 3, 2, 1, 2, 3, 1, 2, 3, 1, 2, 3, 4]);
next = array1d(1..13 ,[13, 6, 8, 7, 11, 9, 10, 5, 12, 3, 2, 1, 4]);
makespan = 588;
----------
assign = array1d(1..13 ,[4, 3, 2, 1, 2, 3, 1, 2, 3, 1, 2, 3, 4]);
next = array1d(1..13 ,[13, 6, 8, 7, 11, 9, 10, 5, 12, 3, 2, 1, 4]);
makespan = 586;
----------
assign = array1d(1..13 ,[4, 3, 2, 1, 2, 3, 1, 2, 3, 1, 2, 3, 4]);
next = array1d(1..13 ,[13, 6, 8, 7, 11, 9, 10, 5, 12, 3, 2, 1, 4]);
makespan = 583;
----------
assign = array1d(1..13 ,[4, 3, 2, 1, 2, 3, 1, 2, 3, 1, 2, 3, 4]);
next = array1d(1..13 ,[13, 6, 8, 7, 11, 9, 10, 5, 12, 3, 2, 1, 4]);
makespan = 582;
----------
assign = array1d(1..13 ,[4, 3, 2, 1, 2, 3, 1, 2, 3, 1, 2, 3, 4]);
next = array1d(1..13 ,[13, 6, 8, 7, 11, 9, 10, 5, 12, 3, 2, 1, 4]);
makespan = 580;
----------
assign = array1d(1..13 ,[4, 3, 4, 1, 2, 3, 1, 2, 3, 1, 2, 3, 4]);
next = array1d(1..13 ,[13, 6, 1, 7, 11, 9, 10, 5, 12, 8, 2, 3, 4]);
makespan = 578;
----------
assign = array1d(1..13 ,[3, 2, 2, 4, 4, 2, 4, 3, 1, 1, 2, 3, 4]);
next = array1d(1..13 ,[8, 6, 2, 7, 4, 11, 13, 12, 10, 3, 1, 5, 9]);
makespan = 576;
----------
assign = array1d(1..13 ,[2, 3, 2, 4, 3, 3, 4, 4, 1, 1, 2, 3, 4]);
next = array1d(1..13 ,[11, 6, 1, 13, 2, 12, 4, 7, 10, 3, 5, 8, 9]);
makespan = 571;
----------
assign = array1d(1..13 ,[2, 1, 3, 4, 1, 2, 4, 4, 3, 1, 2, 3, 4]);
next = array1d(1..13 ,[6, 10, 12, 8, 2, 11, 4, 13, 3, 1, 9, 7, 5]);
makespan = 569;
----------
assign = array1d(1..13 ,[4, 3, 2, 2, 3, 3, 1, 1, 4, 1, 2, 3, 4]);
next = array1d(1..13 ,[9, 6, 11, 3, 2, 12, 10, 7, 13, 4, 5, 1, 8]);
makespan = 568;
----------
assign = array1d(1..13 ,[4, 1, 4, 2, 3, 3, 2, 1, 3, 1, 2, 3, 4]);
next = array1d(1..13 ,[13, 8, 1, 11, 12, 9, 4, 10, 5, 7, 6, 3, 2]);
makespan = 567;
----------
assign = array1d(1..13 ,[4, 3, 4, 2, 3, 3, 2, 1, 1, 1, 2, 3, 4]);
next = array1d(1..13 ,[13, 6, 1, 11, 2, 12, 4, 9, 10, 7, 5, 3, 8]);
makespan = 565;
----------
assign = array1d(1..13 ,[4, 2, 1, 1, 2, 2, 4, 3, 3, 1, 2, 3, 4]);
next = array1d(1..13 ,[7, 5, 10, 3, 11, 2, 13, 9, 12, 6, 8, 1, 4]);
makespan = 564;
----------
assign = array1d(1..13 ,[4, 2, 2, 3, 2, 4, 3, 1, 1, 1, 2, 3, 4]);
next = array1d(1..13 ,[6, 11, 5, 12, 2, 13, 4, 9, 10, 3, 7, 1, 8]);
makespan = 562;
----------
assign = array1d(1..13 ,[4, 1, 2, 3, 2, 4, 3, 2, 1, 1, 2, 3, 4]);
next = array1d(1..13 ,[6, 10, 11, 12, 8, 13, 4, 3, 2, 5, 7, 1, 9]);
makespan = 561;
----------
assign = array1d(1..13 ,[1, 3, 4, 2, 4, 3, 2, 1, 3, 1, 2, 3, 4]);
next = array1d(1..13 ,[10, 12, 5, 7, 13, 9, 11, 1, 2, 4, 6, 3, 8]);
makespan = 560;
----------
assign = array1d(1..13 ,[1, 3, 2, 2, 4, 3, 4, 4, 3, 1, 2, 3, 4]);
next = array1d(1..13 ,[10, 12, 11, 3, 7, 9, 13, 5, 2, 4, 6, 8, 1]);
makespan = 558;
----------
assign = array1d(1..13 ,[1, 3, 2, 2, 4, 3, 4, 4, 3, 1, 2, 3, 4]);
next = array1d(1..13 ,[10, 12, 11, 3, 7, 9, 13, 5, 2, 4, 6, 8, 1]);
makespan = 556;
----------
assign = array1d(1..13 ,[1, 3, 2, 2, 4, 3, 4, 4, 3, 1, 2, 3, 4]);
next = array1d(1..13 ,[10, 12, 11, 3, 7, 9, 13, 5, 2, 4, 6, 8, 1]);
makespan = 555;
----------
assign = array1d(1..13 ,[1, 3, 2, 2, 4, 3, 4, 4, 3, 1, 2, 3, 4]);
next = array1d(1..13 ,[10, 12, 11, 3, 7, 9, 13, 5, 2, 4, 6, 8, 1]);
makespan = 554;
----------
assign = array1d(1..13 ,[1, 3, 2, 2, 4, 3, 4, 4, 3, 1, 2, 3, 4]);
next = array1d(1..13 ,[10, 12, 11, 3, 7, 9, 13, 5, 2, 4, 6, 8, 1]);
makespan = 552;
----------
assign = array1d(1..13 ,[1, 4, 2, 1, 3, 2, 3, 2, 4, 1, 2, 3, 4]);
next = array1d(1..13 ,[4, 13, 11, 10, 7, 3, 12, 6, 2, 8, 5, 9, 1]);
makespan = 551;
----------
assign = array1d(1..13 ,[3, 2, 2, 3, 1, 4, 1, 2, 4, 1, 2, 3, 4]);
next = array1d(1..13 ,[4, 11, 2, 12, 7, 9, 10, 3, 13, 8, 1, 6, 5]);
makespan = 550;
----------
assign = array1d(1..13 ,[1, 4, 2, 3, 3, 4, 1, 2, 3, 1, 2, 3, 4]);
next = array1d(1..13 ,[7, 6, 8, 12, 4, 13, 10, 11, 5, 3, 9, 2, 1]);
makespan = 549;
----------
assign = array1d(1..13 ,[3, 2, 2, 3, 2, 1, 4, 4, 1, 1, 2, 3, 4]);
next = array1d(1..13 ,[4, 5, 2, 12, 11, 9, 8, 13, 10, 3, 1, 7, 6]);
makespan = 548;
----------
assign = array1d(1..13 ,[3, 1, 1, 3, 3, 4, 2, 2, 4, 1, 2, 3, 4]);
next = array1d(1..13 ,[5, 10, 2, 12, 4, 9, 8, 11, 13, 7, 1, 6, 3]);
makespan = 547;
----------
assign = array1d(1..13 ,[2, 3, 2, 3, 3, 4, 1, 1, 4, 1, 2, 3, 4]);
next = array1d(1..13 ,[11, 5, 1, 12, 4, 9, 8, 10, 13, 3, 2, 6, 7]);
makespan = 546;
----------
assign = array1d(1..13 ,[2, 3, 2, 3, 3, 4, 1, 1, 4, 1, 2, 3, 4]);
next = array1d(1..13 ,[11, 5, 1, 12, 4, 13, 8, 10, 6, 3, 2, 9, 7]);
makespan = 545;
----------
assign = array1d(1..13 ,[2, 1, 2, 4, 1, 4, 3, 3, 4, 1, 2, 3, 4]);
next = array1d(1..13 ,[11, 5, 1, 9, 10, 4, 8, 12, 13, 3, 7, 6, 2]);
makespan = 544;
----------
assign = array1d(1..13 ,[1, 1, 3, 4, 3, 4, 2, 2, 4, 1, 2, 3, 4]);
next = array1d(1..13 ,[10, 1, 12, 9, 3, 4, 8, 11, 13, 7, 5, 6, 2]);
makespan = 543;
----------
assign = array1d(1..13 ,[1, 3, 4, 2, 3, 3, 2, 1, 4, 1, 2, 3, 4]);
next = array1d(1..13 ,[10, 5, 9, 11, 12, 2, 4, 1, 13, 7, 6, 3, 8]);
makespan = 542;
----------
assign = array1d(1..13 ,[2, 3, 4, 1, 3, 2, 1, 3, 4, 1, 2, 3, 4]);
next = array1d(1..13 ,[11, 8, 9, 10, 2, 1, 4, 12, 13, 6, 5, 3, 7]);
makespan = 541;
----------
assign = array1d(1..13 ,[4, 2, 1, 3, 3, 4, 1, 3, 2, 1, 2, 3, 4]);
next = array1d(1..13 ,[13, 9, 7, 8, 4, 1, 10, 12, 11, 2, 5, 6, 3]);
makespan = 540;
----------
assign = array1d(1..13 ,[4, 3, 2, 3, 3, 2, 1, 1, 4, 1, 2, 3, 4]);
next = array1d(1..13 ,[9, 12, 6, 2, 4, 11, 8, 10, 13, 3, 5, 1, 7]);
makespan = 539;
----------
assign = array1d(1..13 ,[2, 4, 3, 2, 1, 3, 1, 1, 4, 1, 2, 3, 4]);
next = array1d(1..13 ,[11, 9, 6, 1, 10, 12, 5, 7, 13, 4, 3, 2, 8]);
makespan = 538;
----------
assign = array1d(1..13 ,[1, 2, 4, 2, 3, 3, 1, 4, 3, 1, 2, 3, 4]);
next = array1d(1..13 ,[7, 4, 8, 11, 6, 9, 10, 13, 12, 2, 5, 3, 1]);
makespan = 537;
----------
assign = array1d(1..13 ,[4, 1, 2, 2, 3, 3, 1, 4, 3, 1, 2, 3, 4]);
next = array1d(1..13 ,[8, 7, 11, 3, 6, 9, 10, 13, 12, 4, 5, 1, 2]);
makespan = 536;
----------
assign = array1d(1..13 ,[4, 2, 2, 1, 3, 3, 1, 4, 3, 1, 2, 3, 4]);
next = array1d(1..13 ,[8, 3, 11, 7, 6, 9, 10, 13, 12, 2, 5, 1, 4]);
makespan = 535;
----------
assign = array1d(1..13 ,[2, 4, 4, 3, 3, 3, 1, 2, 1, 1, 2, 3, 4]);
next = array1d(1..13 ,[11, 3, 13, 6, 4, 12, 9, 1, 10, 8, 5, 2, 7]);
makespan = 534;
----------
assign = array1d(1..13 ,[4, 3, 2, 2, 3, 3, 1, 4, 1, 1, 2, 3, 4]);
next = array1d(1..13 ,[13, 5, 11, 3, 6, 12, 9, 1, 10, 4, 2, 8, 7]);
makespan = 533;
----------
assign = array1d(1..13 ,[2, 3, 1, 4, 3, 3, 4, 2, 1, 1, 2, 3, 4]);
next = array1d(1..13 ,[8, 5, 10, 7, 6, 12, 13, 11, 3, 1, 2, 4, 9]);
makespan = 532;
----------
assign = array1d(1..13 ,[4, 3, 1, 2, 3, 3, 1, 4, 2, 1, 2, 3, 4]);
next = array1d(1..13 ,[8, 5, 7, 9, 6, 12, 10, 13, 11, 4, 2, 1, 3]);
makespan = 531;
----------
assign = array1d(1..13 ,[4, 3, 1, 2, 3, 3, 1, 4, 2, 1, 2, 3, 4]);
next = array1d(1..13 ,[8, 5, 7, 9, 6, 12, 10, 13, 11, 4, 2, 1, 3]);
makespan = 530;
----------
assign = array1d(1..13 ,[4, 3, 1, 2, 3, 3, 1, 4, 2, 1, 2, 3, 4]);
next = array1d(1..13 ,[8, 5, 7, 9, 6, 12, 10, 13, 11, 4, 2, 1, 3]);
makespan = 529;
----------
assign = array1d(1..13 ,[4, 3, 1, 2, 3, 3, 1, 4, 2, 1, 2, 3, 4]);
next = array1d(1..13 ,[8, 5, 7, 9, 6, 12, 10, 13, 11, 4, 2, 1, 3]);
makespan = 528;
----------
assign = array1d(1..13 ,[4, 3, 1, 2, 3, 3, 1, 4, 2, 1, 2, 3, 4]);
next = array1d(1..13 ,[8, 5, 7, 9, 6, 12, 10, 13, 11, 4, 2, 1, 3]);
makespan = 527;
----------
assign = array1d(1..13 ,[2, 4, 3, 3, 4, 2, 1, 1, 1, 1, 2, 3, 4]);
next = array1d(1..13 ,[6, 5, 12, 3, 13, 11, 9, 7, 10, 1, 4, 2, 8]);
makespan = 526;
----------
assign = array1d(1..13 ,[1, 3, 2, 3, 3, 2, 4, 4, 1, 1, 2, 3, 4]);
next = array1d(1..13 ,[10, 5, 6, 12, 4, 11, 13, 7, 1, 3, 2, 8, 9]);
makespan = 525;
----------
assign = array1d(1..13 ,[1, 3, 2, 4, 3, 4, 2, 3, 1, 1, 2, 3, 4]);
next = array1d(1..13 ,[9, 8, 11, 6, 2, 13, 3, 12, 10, 7, 5, 4, 1]);
makespan = 524;
----------
assign = array1d(1..13 ,[2, 3, 4, 4, 3, 3, 2, 1, 1, 1, 2, 3, 4]);
next = array1d(1..13 ,[7, 12, 4, 13, 6, 2, 11, 10, 8, 1, 5, 3, 9]);
makespan = 523;
----------
assign = array1d(1..13 ,[4, 3, 2, 1, 3, 3, 4, 1, 2, 1, 2, 3, 4]);
next = array1d(1..13 ,[7, 12, 11, 8, 6, 2, 13, 10, 3, 9, 5, 1, 4]);
makespan = 522;
----------
assign = array1d(1..13 ,[1, 3, 1, 2, 3, 3, 4, 4, 2, 1, 2, 3, 4]);
next = array1d(1..13 ,[3, 12, 10, 11, 6, 2, 8, 13, 4, 9, 5, 7, 1]);
makespan = 521;
----------
assign = array1d(1..13 ,[1, 3, 4, 2, 3, 3, 1, 4, 2, 1, 2, 3, 4]);
next = array1d(1..13 ,[7, 12, 13, 11, 6, 2, 10, 3, 4, 9, 5, 8, 1]);
makespan = 520;
----------
assign = array1d(1..13 ,[4, 3, 1, 3, 3, 2, 4, 1, 2, 1, 2, 3, 4]);
next = array1d(1..13 ,[13, 4, 8, 12, 2, 9, 1, 10, 11, 6, 5, 7, 3]);
makespan = 519;
----------
assign = array1d(1..13 ,[1, 3, 2, 3, 3, 1, 4, 2, 4, 1, 2, 3, 4]);
next = array1d(1..13 ,[6, 4, 8, 12, 2, 10, 13, 11, 7, 3, 5, 9, 1]);
makespan = 518;
----------
assign = array1d(1..13 ,[2, 3, 4, 1, 3, 3, 4, 1, 2, 1, 2, 3, 4]);
next = array1d(1..13 ,[9, 12, 13, 8, 6, 2, 3, 10, 11, 1, 5, 7, 4]);
makespan = 517;
----------
assign = array1d(1..13 ,[2, 2, 3, 3, 4, 4, 1, 1, 1, 1, 2, 3, 4]);
next = array1d(1..13 ,[11, 1, 12, 3, 6, 13, 9, 7, 10, 2, 4, 5, 8]);
makespan = 516;
----------
assign = array1d(1..13 ,[3, 3, 2, 2, 4, 4, 1, 1, 1, 1, 2, 3, 4]);
next = array1d(1..13 ,[2, 12, 11, 3, 6, 13, 9, 7, 10, 4, 1, 5, 8]);
makespan = 515;
----------
assign = array1d(1..13 ,[3, 2, 3, 2, 4, 4, 1, 1, 1, 1, 2, 3, 4]);
next = array1d(1..13 ,[12, 11, 1, 2, 6, 13, 9, 7, 10, 4, 3, 5, 8]);
makespan = 514;
----------
assign = array1d(1..13 ,[3, 2, 4, 4, 2, 3, 1, 1, 1, 1, 2, 3, 4]);
next = array1d(1..13 ,[6, 5, 13, 3, 11, 12, 9, 7, 10, 2, 1, 4, 8]);
makespan = 513;
----------
assign = array1d(1..13 ,[2, 3, 4, 3, 2, 4, 1, 1, 1, 1, 2, 3, 4]);
next = array1d(1..13 ,[5, 12, 13, 2, 11, 3, 9, 7, 10, 1, 4, 6, 8]);
makespan = 512;
----------
assign = array1d(1..13 ,[3, 2, 4, 3, 2, 4, 1, 1, 1, 1, 2, 3, 4]);
next = array1d(1..13 ,[4, 5, 13, 12, 11, 3, 9, 7, 10, 2, 1, 6, 8]);
makespan = 511;
----------
assign = array1d(1..13 ,[2, 3, 4, 2, 3, 4, 1, 1, 1, 1, 2, 3, 4]);
next = array1d(1..13 ,[11, 12, 13, 1, 2, 3, 9, 7, 10, 4, 5, 6, 8]);
makespan = 510;
----------
==========
	Command being timed: "mzn-chuffed lbbd-datasets/Rabadi-2006/dzn-p-dominant/model.mzn lbbd-datasets/Rabadi-2006/dzn-p-dominant/9on4Rp50Rs50_5Ameer.dzn"
	User time (seconds): 0.53
	System time (seconds): 0.03
	Percent of CPU this job got: 0%
	Elapsed (wall clock) time (h:mm:ss or m:ss): 2:22.25
	Average shared text size (kbytes): 0
	Average unshared data size (kbytes): 0
	Average stack size (kbytes): 0
	Average total size (kbytes): 0
	Maximum resident set size (kbytes): 43136
	Average resident set size (kbytes): 0
	Major (requiring I/O) page faults: 0
	Minor (reclaiming a frame) page faults: 3902
	Voluntary context switches: 488
	Involuntary context switches: 2
	Swaps: 0
	File system inputs: 0
	File system outputs: 512
	Socket messages sent: 0
	Socket messages received: 0
	Signals delivered: 0
	Page size (bytes): 4096
	Exit status: 0
