+ /usr/bin/timeout 600 /usr/bin/time -v mzn-chuffed lbbd-datasets/Rabadi-2006/dzn-s-dominant/model.mzn lbbd-datasets/Rabadi-2006/dzn-s-dominant/10on6Rp50Rs50_15Ameer.dzn
% No search annotation given. Defaulting to VSIDS!
assign = array1d(1..16 ,[6, 6, 6, 6, 6, 6, 6, 6, 6, 6, 1, 2, 3, 4, 5, 6]);
next = array1d(1..16 ,[2, 3, 4, 5, 6, 7, 8, 9, 10, 16, 12, 13, 14, 15, 1, 11]);
makespan = 2070;
----------
assign = array1d(1..16 ,[6, 6, 6, 6, 6, 6, 6, 6, 6, 6, 1, 2, 3, 4, 5, 6]);
next = array1d(1..16 ,[3, 4, 2, 5, 6, 7, 8, 9, 10, 16, 12, 13, 14, 15, 1, 11]);
makespan = 2052;
----------
assign = array1d(1..16 ,[6, 6, 6, 6, 6, 6, 6, 6, 6, 6, 1, 2, 3, 4, 5, 6]);
next = array1d(1..16 ,[2, 16, 4, 5, 6, 7, 8, 9, 10, 1, 12, 13, 14, 15, 3, 11]);
makespan = 2044;
----------
