+ /usr/bin/timeout 600 /usr/bin/time -v mzn-chuffed lbbd-datasets/planningandscheduling/makespan-insts/model.mzn lbbd-datasets/planningandscheduling/makespan-insts/c30j2m1.dzn
% No search annotation given. Defaulting to VSIDS!
obj = 75
----------
obj = 74
----------
obj = 73
----------
obj = 72
----------
obj = 71
----------
obj = 70
----------
obj = 69
----------
obj = 68
----------
obj = 67
----------
obj = 66
----------
obj = 65
----------
obj = 64
----------
obj = 63
----------
obj = 62
----------
