+ /usr/bin/timeout 600 /usr/bin/time -v mzn-chuffed lbbd-datasets/Rabadi-2006/dzn-p-dominant/model.mzn lbbd-datasets/Rabadi-2006/dzn-p-dominant/10on4Rp50Rs50_7Ameer.dzn
% No search annotation given. Defaulting to VSIDS!
assign = array1d(1..14 ,[4, 4, 4, 4, 4, 4, 4, 4, 4, 4, 1, 2, 3, 4]);
next = array1d(1..14 ,[2, 3, 4, 5, 6, 7, 8, 9, 10, 14, 12, 13, 1, 11]);
makespan = 2174;
----------
assign = array1d(1..14 ,[4, 4, 4, 4, 4, 4, 4, 4, 4, 4, 1, 2, 3, 4]);
next = array1d(1..14 ,[4, 3, 5, 2, 6, 7, 8, 9, 10, 14, 12, 13, 1, 11]);
makespan = 2131;
----------
assign = array1d(1..14 ,[4, 4, 4, 4, 4, 4, 4, 4, 2, 4, 1, 2, 3, 4]);
next = array1d(1..14 ,[10, 7, 1, 6, 4, 2, 14, 3, 12, 5, 9, 13, 8, 11]);
makespan = 2045;
----------
assign = array1d(1..14 ,[4, 4, 4, 4, 1, 4, 4, 4, 4, 4, 1, 2, 3, 4]);
next = array1d(1..14 ,[9, 7, 1, 10, 11, 14, 6, 2, 4, 8, 12, 13, 3, 5]);
makespan = 2042;
----------
assign = array1d(1..14 ,[4, 4, 4, 4, 4, 4, 4, 4, 3, 4, 1, 2, 3, 4]);
next = array1d(1..14 ,[14, 5, 6, 2, 10, 7, 4, 3, 13, 1, 12, 9, 8, 11]);
makespan = 2037;
----------
assign = array1d(1..14 ,[4, 4, 4, 4, 4, 1, 4, 4, 4, 4, 1, 2, 3, 4]);
next = array1d(1..14 ,[3, 14, 8, 5, 1, 11, 2, 9, 7, 4, 12, 13, 10, 6]);
makespan = 2029;
----------
assign = array1d(1..14 ,[4, 4, 4, 4, 3, 4, 4, 4, 4, 4, 1, 2, 3, 4]);
next = array1d(1..14 ,[3, 14, 8, 6, 13, 2, 1, 4, 7, 9, 12, 5, 10, 11]);
makespan = 2024;
----------
assign = array1d(1..14 ,[4, 4, 4, 4, 4, 1, 4, 4, 4, 4, 1, 2, 3, 4]);
next = array1d(1..14 ,[3, 14, 8, 7, 1, 11, 2, 9, 10, 4, 12, 13, 5, 6]);
makespan = 2019;
----------
assign = array1d(1..14 ,[4, 4, 4, 4, 4, 4, 1, 4, 4, 4, 1, 2, 3, 4]);
next = array1d(1..14 ,[3, 14, 8, 9, 1, 2, 11, 4, 6, 5, 12, 13, 10, 7]);
makespan = 2017;
----------
assign = array1d(1..14 ,[4, 4, 1, 4, 4, 4, 4, 4, 4, 4, 1, 2, 3, 4]);
next = array1d(1..14 ,[14, 4, 11, 8, 7, 9, 2, 6, 1, 5, 12, 13, 10, 3]);
makespan = 2016;
----------
assign = array1d(1..14 ,[4, 4, 4, 4, 4, 1, 4, 4, 4, 4, 1, 2, 3, 4]);
next = array1d(1..14 ,[3, 14, 2, 8, 10, 11, 1, 9, 7, 4, 12, 13, 5, 6]);
makespan = 2014;
----------
assign = array1d(1..14 ,[4, 4, 4, 4, 3, 4, 4, 4, 4, 4, 1, 2, 3, 4]);
next = array1d(1..14 ,[10, 3, 4, 9, 13, 7, 2, 6, 1, 14, 12, 5, 8, 11]);
makespan = 2013;
----------
assign = array1d(1..14 ,[4, 4, 4, 4, 4, 3, 4, 4, 4, 4, 1, 2, 3, 4]);
next = array1d(1..14 ,[9, 1, 8, 7, 2, 13, 3, 10, 4, 14, 12, 6, 5, 11]);
makespan = 2012;
----------
assign = array1d(1..14 ,[4, 4, 4, 4, 4, 3, 4, 4, 4, 4, 1, 2, 3, 4]);
next = array1d(1..14 ,[14, 4, 5, 1, 9, 13, 10, 3, 7, 2, 12, 6, 8, 11]);
makespan = 2011;
----------
assign = array1d(1..14 ,[4, 4, 4, 4, 4, 4, 1, 4, 4, 4, 1, 2, 3, 4]);
next = array1d(1..14 ,[3, 5, 14, 2, 1, 4, 11, 6, 10, 8, 12, 13, 9, 7]);
makespan = 2009;
----------
assign = array1d(1..14 ,[4, 4, 3, 4, 4, 4, 4, 1, 4, 4, 1, 2, 3, 4]);
next = array1d(1..14 ,[9, 1, 13, 6, 10, 2, 14, 11, 7, 4, 12, 3, 5, 8]);
makespan = 2008;
----------
assign = array1d(1..14 ,[4, 4, 4, 4, 4, 4, 1, 4, 4, 4, 1, 2, 3, 4]);
next = array1d(1..14 ,[3, 5, 8, 1, 10, 4, 11, 9, 14, 6, 12, 13, 2, 7]);
makespan = 2001;
----------
assign = array1d(1..14 ,[4, 4, 4, 4, 4, 4, 1, 4, 4, 4, 1, 2, 3, 4]);
next = array1d(1..14 ,[8, 1, 6, 9, 2, 14, 11, 10, 3, 4, 12, 13, 5, 7]);
makespan = 2000;
----------
assign = array1d(1..14 ,[4, 4, 3, 4, 3, 4, 4, 4, 4, 4, 1, 2, 3, 4]);
next = array1d(1..14 ,[2, 4, 13, 10, 3, 1, 6, 14, 7, 8, 12, 5, 9, 11]);
makespan = 1929;
----------
assign = array1d(1..14 ,[4, 4, 1, 4, 1, 4, 4, 4, 4, 4, 1, 2, 3, 4]);
next = array1d(1..14 ,[9, 4, 11, 10, 3, 1, 2, 14, 7, 8, 12, 13, 6, 5]);
makespan = 1913;
----------
assign = array1d(1..14 ,[4, 2, 4, 4, 2, 4, 4, 4, 4, 4, 1, 2, 3, 4]);
next = array1d(1..14 ,[9, 12, 6, 3, 2, 1, 14, 10, 7, 4, 5, 13, 8, 11]);
makespan = 1906;
----------
