+ /usr/bin/timeout 600 /usr/bin/time -v mzn-chuffed lbbd-datasets/sscplp/trucks-dzn/model.mzn lbbd-datasets/sscplp/trucks-dzn/p03-l100-c150-correlated.dzn
% No search annotation given. Defaulting to VSIDS!
source = [10, 10, 8, 10, 10, 8, 4, 3, 8, 3, 4, 1, 4, 4, 4, 4, 4, 7, 7, 10]
open = [true, false, true, true, false, false, true, true, false, true]
trucks_used = [1, 0, 2, 7, 0, 0, 2, 3, 0, 5]
truck_assigned = [5, 5, 3, 5, 5, 3, 6, 2, 3, 2, 5, 1, 7, 6, 7, 6, 7, 2, 2, 5]
obj = 8949
----------
source = [4, 4, 9, 4, 4, 10, 5, 10, 9, 10, 5, 4, 7, 5, 7, 10, 5, 5, 9, 4]
open = [false, false, false, true, true, false, true, false, true, true]
trucks_used = [0, 0, 0, 6, 5, 0, 2, 0, 3, 4]
truck_assigned = [6, 1, 2, 6, 5, 2, 3, 2, 3, 4, 5, 5, 2, 5, 2, 4, 5, 5, 3, 6]
obj = 8480
----------
source = [10, 4, 9, 5, 5, 4, 10, 4, 9, 9, 10, 5, 10, 10, 5, 10, 4, 4, 9, 5]
open = [false, false, false, true, true, false, false, false, true, true]
trucks_used = [0, 0, 0, 5, 5, 0, 0, 0, 4, 6]
truck_assigned = [6, 3, 4, 5, 5, 5, 5, 5, 3, 3, 6, 3, 5, 6, 5, 5, 5, 3, 4, 4]
obj = 8293
----------
source = [4, 5, 9, 5, 10, 4, 10, 9, 7, 10, 9, 4, 10, 9, 5, 10, 4, 4, 4, 10]
open = [false, false, false, true, true, false, true, false, true, true]
trucks_used = [0, 0, 0, 6, 1, 0, 1, 0, 4, 6]
truck_assigned = [6, 1, 4, 1, 5, 6, 6, 3, 1, 5, 4, 5, 6, 3, 1, 6, 6, 5, 5, 5]
obj = 8258
----------
source = [9, 9, 5, 9, 4, 10, 4, 5, 5, 10, 10, 4, 4, 10, 9, 4, 4, 9, 7, 4]
open = [false, false, false, true, true, false, true, false, true, true]
trucks_used = [0, 0, 0, 7, 1, 0, 1, 0, 5, 3]
truck_assigned = [5, 3, 1, 4, 7, 3, 6, 1, 1, 3, 3, 7, 5, 2, 3, 5, 7, 5, 1, 6]
obj = 8225
----------
source = [9, 5, 5, 4, 10, 4, 10, 2, 4, 10, 10, 9, 10, 9, 5, 9, 9, 4, 4, 10]
open = [false, true, false, true, true, false, false, false, true, true]
trucks_used = [0, 1, 0, 2, 2, 0, 0, 0, 5, 6]
truck_assigned = [3, 2, 1, 1, 5, 2, 6, 1, 2, 5, 5, 4, 6, 5, 2, 4, 5, 1, 2, 6]
obj = 8142
----------
source = [9, 5, 9, 4, 10, 4, 10, 5, 4, 9, 10, 9, 9, 10, 5, 4, 4, 10, 5, 10]
open = [false, false, false, true, true, false, false, false, true, true]
trucks_used = [0, 0, 0, 5, 2, 0, 0, 0, 5, 6]
truck_assigned = [5, 1, 4, 2, 6, 5, 6, 2, 5, 4, 5, 5, 3, 5, 2, 4, 5, 1, 2, 6]
obj = 8136
----------
source = [9, 5, 5, 9, 10, 7, 10, 5, 4, 9, 10, 9, 7, 10, 10, 9, 4, 4, 4, 10]
open = [false, false, false, true, true, false, true, false, true, true]
trucks_used = [0, 0, 0, 3, 1, 0, 1, 0, 5, 6]
truck_assigned = [5, 1, 1, 3, 6, 1, 6, 1, 2, 4, 5, 5, 1, 5, 4, 4, 3, 3, 3, 6]
obj = 8095
----------
source = [9, 5, 4, 9, 10, 7, 10, 5, 4, 9, 10, 9, 7, 10, 10, 9, 4, 4, 4, 10]
open = [false, false, false, true, true, false, true, false, true, true]
trucks_used = [0, 0, 0, 3, 1, 0, 1, 0, 5, 6]
truck_assigned = [5, 1, 2, 2, 3, 1, 6, 1, 2, 4, 6, 5, 1, 5, 5, 4, 3, 3, 3, 6]
obj = 8083
----------
source = [9, 5, 5, 9, 10, 4, 10, 4, 5, 9, 10, 9, 10, 10, 10, 4, 4, 4, 4, 9]
open = [false, false, false, true, true, false, false, false, true, true]
trucks_used = [0, 0, 0, 4, 2, 0, 0, 0, 5, 6]
truck_assigned = [5, 2, 1, 4, 6, 3, 6, 3, 2, 4, 6, 5, 5, 5, 5, 2, 4, 4, 4, 1]
obj = 7979
----------
source = [10, 5, 4, 5, 10, 9, 10, 10, 4, 5, 9, 4, 10, 9, 9, 10, 9, 4, 4, 10]
open = [false, false, false, true, true, false, false, false, true, true]
trucks_used = [0, 0, 0, 5, 3, 0, 0, 0, 5, 7]
truck_assigned = [7, 3, 4, 3, 7, 5, 7, 6, 5, 3, 5, 4, 6, 4, 5, 6, 5, 5, 5, 7]
obj = 7925
----------
source = [10, 5, 5, 4, 10, 4, 10, 9, 4, 4, 9, 5, 10, 4, 9, 10, 10, 9, 9, 10]
open = [false, false, false, true, true, false, false, false, true, true]
trucks_used = [0, 0, 0, 5, 3, 0, 0, 0, 5, 7]
truck_assigned = [7, 3, 3, 3, 7, 5, 7, 5, 5, 5, 5, 2, 6, 5, 4, 6, 6, 4, 5, 7]
obj = 7893
----------
source = [10, 5, 5, 4, 10, 4, 10, 9, 5, 4, 9, 4, 10, 9, 4, 10, 10, 9, 9, 10]
open = [false, false, false, true, true, false, false, false, true, true]
trucks_used = [0, 0, 0, 4, 2, 0, 0, 0, 5, 7]
truck_assigned = [7, 2, 1, 2, 7, 4, 7, 5, 2, 3, 5, 3, 6, 4, 4, 6, 6, 4, 5, 7]
obj = 7769
----------
source = [9, 4, 1, 4, 9, 9, 9, 9, 5, 10, 4, 10, 4, 5, 5, 1, 10, 10, 4, 9]
open = [true, false, false, true, true, false, false, false, true, true]
trucks_used = [1, 0, 0, 4, 2, 0, 0, 0, 6, 2]
truck_assigned = [5, 4, 1, 2, 6, 6, 4, 6, 2, 2, 4, 1, 3, 2, 1, 1, 2, 2, 4, 6]
obj = 7751
----------
source = [10, 5, 5, 5, 10, 9, 10, 9, 4, 4, 9, 4, 10, 7, 4, 10, 10, 9, 4, 10]
open = [false, false, false, true, true, false, true, false, true, true]
trucks_used = [0, 0, 0, 5, 2, 0, 1, 0, 1, 7]
truck_assigned = [6, 2, 2, 1, 7, 1, 6, 1, 5, 5, 1, 4, 6, 1, 1, 7, 7, 1, 5, 7]
obj = 7714
----------
source = [4, 5, 4, 10, 9, 4, 9, 1, 4, 10, 10, 10, 9, 5, 5, 9, 9, 9, 4, 9]
open = [true, false, false, true, true, false, false, false, true, true]
trucks_used = [1, 0, 0, 4, 1, 0, 0, 0, 7, 2]
truck_assigned = [3, 1, 3, 2, 7, 4, 7, 1, 4, 2, 2, 1, 7, 1, 1, 6, 6, 6, 4, 5]
obj = 7711
----------
source = [4, 7, 5, 5, 4, 4, 10, 9, 4, 10, 10, 9, 9, 5, 5, 9, 10, 9, 4, 10]
open = [false, false, false, true, true, false, true, false, true, true]
trucks_used = [0, 0, 0, 5, 2, 0, 1, 0, 2, 3]
truck_assigned = [4, 1, 1, 2, 4, 5, 2, 2, 5, 3, 3, 1, 2, 2, 2, 1, 2, 1, 5, 3]
obj = 7624
----------
source = [4, 4, 1, 5, 10, 4, 9, 4, 10, 10, 5, 5, 9, 10, 5, 9, 9, 9, 4, 9]
open = [true, false, false, true, true, false, false, false, true, true]
trucks_used = [1, 0, 0, 5, 1, 0, 0, 0, 3, 4]
truck_assigned = [5, 3, 1, 1, 4, 5, 3, 4, 2, 4, 1, 1, 2, 4, 1, 3, 2, 3, 5, 2]
obj = 7531
----------
source = [4, 10, 9, 9, 10, 4, 5, 4, 10, 10, 4, 5, 5, 4, 5, 9, 9, 9, 4, 5]
open = [false, false, false, true, true, false, false, false, true, true]
trucks_used = [0, 0, 0, 6, 5, 0, 0, 0, 4, 1]
truck_assigned = [6, 1, 3, 3, 1, 6, 5, 5, 1, 1, 5, 5, 5, 5, 5, 4, 4, 4, 6, 4]
obj = 7457
----------
source = [4, 10, 4, 9, 9, 4, 5, 5, 5, 9, 4, 10, 10, 4, 10, 5, 4, 9, 9, 5]
open = [false, false, false, true, true, false, false, false, true, true]
trucks_used = [0, 0, 0, 6, 5, 0, 0, 0, 4, 1]
truck_assigned = [6, 1, 4, 2, 2, 6, 5, 5, 4, 4, 5, 1, 1, 6, 1, 4, 5, 4, 4, 5]
obj = 7441
----------
source = [4, 10, 4, 9, 9, 4, 5, 5, 5, 9, 4, 10, 10, 4, 10, 5, 9, 9, 4, 5]
open = [false, false, false, true, true, false, false, false, true, true]
trucks_used = [0, 0, 0, 6, 5, 0, 0, 0, 4, 1]
truck_assigned = [5, 1, 6, 4, 3, 5, 5, 4, 4, 4, 6, 1, 1, 6, 1, 5, 4, 3, 5, 5]
obj = 7429
----------
source = [4, 10, 4, 9, 9, 4, 5, 5, 5, 10, 4, 10, 10, 4, 4, 5, 9, 9, 9, 5]
open = [false, false, false, true, true, false, false, false, true, true]
trucks_used = [0, 0, 0, 6, 5, 0, 0, 0, 4, 1]
truck_assigned = [5, 1, 6, 4, 4, 5, 5, 3, 4, 1, 6, 1, 1, 6, 1, 5, 4, 4, 3, 5]
obj = 7349
----------
source = [4, 9, 4, 10, 9, 4, 5, 5, 5, 10, 4, 10, 10, 4, 4, 5, 9, 9, 9, 5]
open = [false, false, false, true, true, false, false, false, true, true]
trucks_used = [0, 0, 0, 6, 5, 0, 0, 0, 4, 1]
truck_assigned = [5, 3, 6, 1, 4, 5, 5, 4, 4, 1, 6, 1, 1, 6, 3, 5, 4, 4, 4, 5]
obj = 7343
----------
source = [4, 10, 4, 9, 9, 4, 5, 5, 5, 10, 4, 10, 10, 4, 9, 5, 9, 9, 4, 5]
open = [false, false, false, true, true, false, false, false, true, true]
trucks_used = [0, 0, 0, 6, 5, 0, 0, 0, 4, 1]
truck_assigned = [5, 1, 6, 4, 4, 5, 5, 5, 4, 1, 6, 1, 1, 6, 2, 4, 4, 4, 5, 5]
obj = 7336
----------
source = [4, 9, 4, 10, 9, 4, 5, 5, 5, 10, 4, 10, 10, 4, 9, 5, 9, 9, 4, 5]
open = [false, false, false, true, true, false, false, false, true, true]
trucks_used = [0, 0, 0, 6, 5, 0, 0, 0, 4, 1]
truck_assigned = [5, 4, 6, 1, 4, 5, 5, 4, 4, 1, 6, 1, 1, 6, 1, 5, 4, 4, 5, 5]
obj = 7330
----------
source = [4, 9, 5, 4, 9, 4, 5, 5, 10, 10, 4, 10, 10, 4, 9, 5, 4, 9, 9, 5]
open = [false, false, false, true, true, false, false, false, true, true]
trucks_used = [0, 0, 0, 6, 5, 0, 0, 0, 4, 1]
truck_assigned = [6, 4, 4, 6, 4, 5, 5, 5, 1, 1, 6, 1, 1, 6, 1, 4, 5, 4, 4, 5]
obj = 7317
----------
source = [4, 9, 4, 4, 9, 5, 5, 10, 10, 5, 9, 10, 10, 4, 4, 5, 4, 9, 9, 5]
open = [false, false, false, true, true, false, false, false, true, true]
trucks_used = [0, 0, 0, 6, 5, 0, 0, 0, 4, 1]
truck_assigned = [6, 4, 5, 6, 4, 5, 5, 1, 1, 4, 3, 1, 1, 6, 5, 5, 6, 4, 4, 2]
obj = 7310
----------
source = [5, 9, 8, 2, 9, 5, 10, 8, 10, 5, 9, 8, 8, 10, 10, 5, 1, 10, 9, 5]
open = [true, true, false, false, true, false, false, true, true, true]
trucks_used = [1, 1, 0, 0, 5, 0, 0, 1, 1, 2]
truck_assigned = [4, 1, 1, 1, 1, 5, 2, 1, 1, 5, 1, 1, 1, 2, 1, 5, 1, 1, 1, 2]
obj = 7285
----------
source = [9, 9, 5, 5, 5, 4, 10, 10, 4, 4, 9, 4, 9, 10, 10, 4, 5, 10, 9, 5]
open = [false, false, false, true, true, false, false, false, true, true]
trucks_used = [0, 0, 0, 2, 5, 0, 0, 0, 2, 4]
truck_assigned = [2, 1, 4, 5, 1, 1, 3, 2, 2, 2, 2, 1, 2, 4, 4, 2, 5, 3, 1, 5]
obj = 7251
----------
source = [4, 9, 5, 5, 5, 4, 10, 9, 4, 4, 9, 10, 4, 10, 10, 4, 5, 10, 9, 5]
open = [false, false, false, true, true, false, false, false, true, true]
trucks_used = [0, 0, 0, 2, 5, 0, 0, 0, 2, 3]
truck_assigned = [2, 2, 5, 2, 2, 1, 3, 1, 1, 2, 2, 2, 1, 2, 2, 2, 5, 3, 2, 5]
obj = 7142
----------
source = [4, 9, 5, 4, 5, 4, 10, 4, 10, 4, 9, 9, 4, 10, 10, 5, 5, 10, 9, 5]
open = [false, false, false, true, true, false, false, false, true, true]
trucks_used = [0, 0, 0, 3, 5, 0, 0, 0, 2, 2]
truck_assigned = [3, 2, 5, 1, 3, 2, 2, 2, 1, 3, 1, 2, 3, 2, 1, 3, 5, 1, 2, 5]
obj = 7123
----------
source = [9, 9, 5, 5, 5, 4, 10, 10, 4, 4, 9, 4, 4, 10, 10, 9, 5, 10, 9, 5]
open = [false, false, false, true, true, false, false, false, true, true]
trucks_used = [0, 0, 0, 3, 5, 0, 0, 0, 2, 2]
truck_assigned = [1, 2, 5, 4, 4, 2, 2, 1, 3, 3, 2, 2, 3, 2, 1, 1, 5, 1, 2, 5]
obj = 7091
----------
source = [9, 9, 5, 4, 5, 4, 10, 4, 10, 4, 9, 4, 9, 10, 10, 5, 5, 10, 9, 5]
open = [false, false, false, true, true, false, false, false, true, true]
trucks_used = [0, 0, 0, 3, 5, 0, 0, 0, 2, 2]
truck_assigned = [1, 2, 5, 2, 2, 3, 2, 2, 1, 3, 2, 3, 1, 2, 1, 4, 5, 1, 2, 5]
obj = 7053
----------
source = [4, 9, 5, 4, 5, 4, 10, 5, 10, 4, 9, 4, 9, 10, 10, 9, 5, 10, 9, 5]
open = [false, false, false, true, true, false, false, false, true, true]
trucks_used = [0, 0, 0, 3, 5, 0, 0, 0, 2, 2]
truck_assigned = [2, 2, 5, 2, 4, 3, 2, 5, 1, 3, 2, 3, 1, 2, 1, 1, 2, 1, 2, 5]
obj = 7052
----------
source = [4, 9, 5, 10, 5, 4, 10, 5, 4, 4, 9, 4, 9, 10, 10, 9, 5, 10, 9, 5]
open = [false, false, false, true, true, false, false, false, true, true]
trucks_used = [0, 0, 0, 3, 5, 0, 0, 0, 2, 2]
truck_assigned = [2, 2, 5, 1, 2, 3, 2, 5, 2, 3, 2, 3, 1, 2, 1, 1, 4, 1, 2, 5]
obj = 7017
----------
source = [10, 9, 5, 9, 5, 4, 10, 5, 4, 4, 9, 4, 4, 10, 10, 10, 5, 10, 9, 5]
open = [false, false, false, true, true, false, false, false, true, true]
trucks_used = [0, 0, 0, 3, 5, 0, 0, 0, 2, 2]
truck_assigned = [2, 2, 5, 1, 4, 3, 2, 2, 2, 3, 2, 3, 2, 2, 1, 1, 5, 1, 2, 5]
obj = 7015
----------
source = [10, 9, 9, 4, 5, 4, 10, 5, 4, 4, 9, 5, 4, 10, 10, 10, 5, 10, 9, 5]
open = [false, false, false, true, true, false, false, false, true, true]
trucks_used = [0, 0, 0, 3, 5, 0, 0, 0, 2, 2]
truck_assigned = [2, 2, 1, 3, 4, 3, 2, 5, 3, 3, 2, 5, 2, 2, 1, 1, 5, 1, 2, 5]
obj = 7006
----------
source = [4, 9, 4, 10, 5, 4, 10, 5, 4, 4, 9, 5, 9, 10, 10, 9, 5, 10, 9, 5]
open = [false, false, false, true, true, false, false, false, true, true]
trucks_used = [0, 0, 0, 3, 5, 0, 0, 0, 2, 2]
truck_assigned = [3, 2, 2, 1, 4, 3, 2, 5, 3, 3, 2, 2, 1, 2, 1, 1, 5, 1, 2, 5]
obj = 6989
----------
source = [10, 9, 4, 9, 5, 4, 10, 5, 4, 4, 9, 5, 4, 10, 10, 10, 5, 10, 9, 5]
open = [false, false, false, true, true, false, false, false, true, true]
trucks_used = [0, 0, 0, 3, 5, 0, 0, 0, 2, 2]
truck_assigned = [2, 2, 3, 1, 4, 3, 2, 5, 3, 2, 2, 3, 2, 2, 1, 1, 5, 1, 2, 5]
obj = 6987
----------
source = [10, 9, 9, 5, 5, 4, 10, 5, 4, 4, 9, 4, 10, 10, 10, 4, 5, 10, 9, 5]
open = [false, false, false, true, true, false, false, false, true, true]
trucks_used = [0, 0, 0, 3, 5, 0, 0, 0, 2, 2]
truck_assigned = [2, 2, 1, 5, 4, 3, 2, 5, 3, 3, 2, 2, 1, 2, 1, 2, 5, 1, 2, 5]
obj = 6982
----------
source = [10, 6, 8, 8, 9, 9, 10, 5, 10, 6, 9, 6, 8, 8, 9, 5, 5, 5, 9, 5]
open = [false, false, false, false, true, true, false, true, true, true]
trucks_used = [0, 0, 0, 0, 5, 1, 0, 1, 1, 1]
truck_assigned = [1, 1, 1, 1, 1, 1, 1, 5, 1, 1, 1, 1, 1, 1, 1, 4, 5, 5, 1, 5]
obj = 6966
----------
source = [10, 8, 8, 8, 5, 1, 10, 5, 10, 9, 9, 5, 10, 9, 1, 9, 5, 9, 10, 5]
open = [true, false, false, false, true, false, false, true, true, true]
trucks_used = [1, 0, 0, 0, 5, 0, 0, 2, 2, 2]
truck_assigned = [1, 2, 1, 2, 4, 1, 2, 5, 2, 1, 1, 5, 2, 2, 1, 2, 5, 1, 1, 5]
obj = 6961
----------
source = [10, 8, 8, 8, 5, 9, 10, 5, 10, 1, 9, 5, 10, 9, 9, 9, 5, 8, 10, 5]
open = [true, false, false, false, true, false, false, true, true, true]
trucks_used = [1, 0, 0, 0, 5, 0, 0, 2, 2, 2]
truck_assigned = [1, 1, 2, 1, 4, 2, 2, 5, 2, 1, 1, 2, 2, 2, 1, 2, 5, 1, 1, 5]
obj = 6884
----------
source = [10, 8, 8, 8, 5, 9, 10, 5, 10, 7, 9, 5, 10, 9, 9, 9, 5, 8, 10, 5]
open = [false, false, false, false, true, false, true, true, true, true]
trucks_used = [0, 0, 0, 0, 5, 0, 1, 2, 2, 2]
truck_assigned = [1, 1, 2, 2, 4, 2, 2, 5, 2, 1, 1, 5, 2, 2, 1, 2, 5, 2, 1, 5]
obj = 6849
----------
source = [10, 8, 8, 8, 5, 9, 10, 5, 1, 10, 9, 5, 1, 10, 9, 9, 5, 9, 10, 5]
open = [true, false, false, false, true, false, false, true, true, true]
trucks_used = [1, 0, 0, 0, 5, 0, 0, 2, 2, 2]
truck_assigned = [2, 1, 2, 2, 4, 2, 2, 5, 1, 1, 1, 4, 1, 1, 2, 2, 5, 2, 2, 5]
obj = 6843
----------
source = [10, 8, 8, 9, 5, 9, 10, 5, 8, 10, 9, 10, 8, 9, 5, 9, 5, 1, 10, 5]
open = [true, false, false, false, true, false, false, true, true, true]
trucks_used = [1, 0, 0, 0, 5, 0, 0, 2, 2, 2]
truck_assigned = [2, 2, 2, 2, 4, 1, 2, 5, 2, 1, 2, 1, 2, 1, 4, 2, 5, 1, 2, 5]
obj = 6831
----------
source = [10, 8, 8, 9, 5, 9, 10, 5, 8, 5, 9, 10, 8, 9, 5, 9, 10, 1, 10, 5]
open = [true, false, false, false, true, false, false, true, true, true]
trucks_used = [1, 0, 0, 0, 5, 0, 0, 2, 2, 2]
truck_assigned = [2, 2, 1, 2, 5, 1, 1, 5, 2, 1, 2, 2, 2, 1, 4, 2, 2, 1, 2, 5]
obj = 6819
----------
source = [10, 8, 8, 9, 5, 9, 10, 5, 8, 7, 9, 5, 8, 10, 9, 9, 10, 5, 10, 5]
open = [false, false, false, false, true, false, true, true, true, true]
trucks_used = [0, 0, 0, 0, 5, 0, 1, 2, 2, 2]
truck_assigned = [2, 1, 2, 1, 5, 2, 2, 5, 2, 1, 2, 4, 2, 1, 2, 2, 1, 4, 2, 5]
obj = 6811
----------
source = [10, 8, 9, 8, 5, 5, 10, 9, 10, 5, 8, 10, 8, 1, 9, 5, 9, 1, 10, 5]
open = [true, false, false, false, true, false, false, true, true, true]
trucks_used = [1, 0, 0, 0, 5, 0, 0, 1, 2, 2]
truck_assigned = [2, 1, 2, 1, 5, 4, 2, 2, 1, 5, 1, 1, 1, 1, 2, 4, 1, 1, 2, 5]
obj = 6801
----------
source = [10, 8, 8, 8, 5, 5, 10, 9, 7, 5, 9, 10, 10, 8, 9, 5, 9, 9, 10, 5]
open = [false, false, false, false, true, false, true, true, true, true]
trucks_used = [0, 0, 0, 0, 5, 0, 1, 1, 2, 2]
truck_assigned = [2, 1, 1, 1, 5, 4, 2, 2, 1, 5, 2, 1, 1, 1, 1, 2, 2, 1, 2, 5]
obj = 6793
----------
source = [10, 8, 8, 8, 5, 5, 10, 9, 10, 5, 9, 10, 7, 8, 9, 5, 9, 7, 10, 5]
open = [false, false, false, false, true, false, true, true, true, true]
trucks_used = [0, 0, 0, 0, 5, 0, 1, 1, 2, 2]
truck_assigned = [2, 1, 1, 1, 5, 1, 2, 2, 1, 5, 2, 1, 1, 1, 1, 3, 2, 1, 2, 5]
obj = 6787
----------
source = [10, 8, 8, 8, 5, 5, 10, 9, 1, 5, 9, 10, 10, 8, 9, 5, 9, 9, 10, 5]
open = [true, false, false, false, true, false, false, true, true, true]
trucks_used = [1, 0, 0, 0, 5, 0, 0, 1, 2, 2]
truck_assigned = [2, 1, 1, 1, 4, 1, 2, 2, 1, 5, 2, 1, 1, 1, 1, 5, 2, 1, 2, 5]
obj = 6779
----------
source = [10, 8, 8, 10, 5, 5, 10, 9, 1, 5, 9, 10, 8, 8, 9, 5, 9, 9, 10, 5]
open = [true, false, false, false, true, false, false, true, true, true]
trucks_used = [1, 0, 0, 0, 5, 0, 0, 1, 2, 2]
truck_assigned = [2, 1, 1, 1, 5, 4, 2, 2, 1, 4, 2, 1, 1, 1, 1, 5, 2, 1, 2, 5]
obj = 6775
----------
source = [10, 8, 8, 8, 5, 5, 10, 9, 10, 5, 9, 10, 1, 8, 9, 5, 9, 1, 10, 5]
open = [true, false, false, false, true, false, false, true, true, true]
trucks_used = [1, 0, 0, 0, 5, 0, 0, 1, 2, 2]
truck_assigned = [2, 1, 1, 1, 5, 2, 2, 2, 1, 5, 2, 1, 1, 1, 1, 5, 2, 1, 2, 4]
obj = 6769
----------
source = [10, 8, 8, 8, 5, 5, 10, 9, 10, 5, 9, 10, 8, 9, 9, 5, 9, 1, 10, 5]
open = [true, false, false, false, true, false, false, true, true, true]
trucks_used = [1, 0, 0, 0, 5, 0, 0, 1, 2, 2]
truck_assigned = [2, 1, 1, 1, 5, 4, 2, 2, 1, 5, 2, 1, 1, 1, 1, 5, 2, 1, 2, 4]
obj = 6766
----------
source = [10, 8, 8, 10, 5, 5, 10, 9, 1, 5, 9, 10, 8, 8, 9, 5, 9, 1, 10, 5]
open = [true, false, false, false, true, false, false, true, true, true]
trucks_used = [1, 0, 0, 0, 5, 0, 0, 1, 2, 2]
truck_assigned = [2, 1, 1, 1, 5, 4, 2, 2, 1, 5, 2, 1, 1, 1, 1, 5, 2, 1, 2, 4]
obj = 6765
----------
source = [10, 8, 8, 8, 5, 5, 10, 9, 10, 7, 9, 5, 10, 8, 9, 5, 9, 9, 10, 5]
open = [false, false, false, false, true, false, true, true, true, true]
trucks_used = [0, 0, 0, 0, 5, 0, 1, 1, 2, 2]
truck_assigned = [2, 1, 1, 1, 5, 1, 2, 2, 1, 1, 2, 4, 1, 1, 1, 5, 2, 1, 2, 5]
obj = 6760
----------
source = [10, 8, 8, 8, 5, 5, 10, 9, 10, 1, 9, 5, 10, 1, 9, 5, 9, 9, 10, 5]
open = [true, false, false, false, true, false, false, true, true, true]
trucks_used = [1, 0, 0, 0, 5, 0, 0, 1, 2, 2]
truck_assigned = [2, 1, 1, 1, 5, 4, 2, 2, 1, 1, 2, 4, 1, 1, 1, 5, 2, 1, 2, 5]
obj = 6757
----------
source = [10, 8, 8, 8, 5, 5, 10, 9, 10, 5, 9, 10, 1, 1, 9, 5, 9, 9, 10, 5]
open = [true, false, false, false, true, false, false, true, true, true]
trucks_used = [1, 0, 0, 0, 5, 0, 0, 1, 2, 2]
truck_assigned = [2, 1, 1, 1, 5, 2, 2, 2, 1, 4, 2, 1, 1, 1, 1, 5, 2, 1, 2, 5]
obj = 6741
----------
source = [10, 8, 8, 8, 5, 5, 10, 9, 10, 5, 9, 10, 8, 1, 9, 5, 9, 9, 10, 5]
open = [true, false, false, false, true, false, false, true, true, true]
trucks_used = [1, 0, 0, 0, 5, 0, 0, 1, 2, 2]
truck_assigned = [2, 1, 1, 1, 5, 3, 2, 2, 1, 5, 2, 1, 1, 1, 1, 5, 2, 1, 2, 4]
obj = 6698
----------
source = [10, 8, 8, 10, 5, 5, 10, 9, 8, 10, 9, 5, 8, 1, 9, 5, 9, 1, 10, 5]
open = [true, false, false, false, true, false, false, true, true, true]
trucks_used = [1, 0, 0, 0, 5, 0, 0, 1, 2, 2]
truck_assigned = [2, 1, 1, 1, 5, 1, 1, 2, 1, 2, 2, 4, 1, 1, 1, 5, 2, 1, 2, 5]
obj = 6693
----------
source = [10, 8, 8, 10, 5, 5, 10, 9, 8, 5, 9, 10, 8, 1, 9, 5, 9, 1, 10, 5]
open = [true, false, false, false, true, false, false, true, true, true]
trucks_used = [1, 0, 0, 0, 5, 0, 0, 1, 2, 2]
truck_assigned = [2, 1, 1, 2, 5, 1, 1, 2, 1, 5, 2, 2, 1, 1, 1, 5, 2, 1, 2, 4]
obj = 6692
----------
source = [10, 8, 8, 8, 5, 5, 10, 9, 10, 5, 9, 10, 8, 1, 9, 5, 9, 1, 10, 5]
open = [true, false, false, false, true, false, false, true, true, true]
trucks_used = [1, 0, 0, 0, 5, 0, 0, 1, 2, 2]
truck_assigned = [2, 1, 1, 1, 5, 2, 2, 2, 1, 5, 2, 1, 1, 1, 1, 5, 2, 1, 2, 4]
obj = 6688
----------
source = [10, 8, 8, 10, 5, 5, 10, 9, 1, 10, 9, 5, 8, 1, 9, 8, 5, 9, 10, 5]
open = [true, false, false, false, true, false, false, true, true, true]
trucks_used = [1, 0, 0, 0, 5, 0, 0, 1, 2, 2]
truck_assigned = [1, 1, 1, 2, 4, 5, 2, 2, 1, 2, 1, 5, 1, 1, 2, 1, 5, 2, 1, 1]
obj = 6686
----------
source = [7, 8, 8, 10, 5, 5, 10, 9, 8, 7, 9, 5, 10, 10, 9, 8, 5, 9, 10, 5]
open = [false, false, false, false, true, false, true, true, true, true]
trucks_used = [0, 0, 0, 0, 5, 0, 1, 1, 1, 2]
truck_assigned = [1, 1, 1, 2, 5, 4, 2, 1, 1, 1, 1, 5, 2, 1, 1, 1, 4, 1, 1, 5]
obj = 6665
----------
source = [10, 8, 8, 8, 5, 5, 7, 9, 10, 7, 9, 5, 10, 10, 9, 8, 5, 9, 10, 5]
open = [false, false, false, false, true, false, true, true, true, true]
trucks_used = [0, 0, 0, 0, 5, 0, 1, 2, 1, 2]
truck_assigned = [2, 2, 2, 2, 5, 5, 1, 1, 2, 1, 1, 5, 2, 1, 1, 2, 4, 1, 2, 3]
obj = 6664
----------
source = [10, 8, 8, 8, 5, 5, 7, 9, 9, 5, 8, 10, 9, 10, 10, 9, 9, 7, 10, 5]
open = [false, false, false, false, true, false, true, true, true, true]
trucks_used = [0, 0, 0, 0, 2, 0, 1, 1, 3, 2]
truck_assigned = [2, 1, 1, 1, 1, 2, 1, 1, 2, 1, 1, 1, 2, 2, 1, 3, 3, 1, 2, 2]
obj = 6653
----------
source = [2, 10, 1, 5, 5, 5, 7, 9, 9, 7, 5, 10, 9, 10, 2, 9, 9, 1, 10, 5]
open = [true, true, false, false, true, false, true, false, true, true]
trucks_used = [1, 1, 0, 0, 2, 0, 1, 0, 5, 2]
truck_assigned = [1, 2, 1, 2, 1, 1, 1, 5, 3, 1, 2, 2, 5, 1, 1, 4, 4, 1, 2, 2]
obj = 6635
----------
source = [10, 9, 4, 4, 5, 5, 5, 9, 5, 4, 4, 10, 9, 10, 4, 9, 9, 10, 10, 5]
open = [false, false, false, true, true, false, false, false, true, true]
trucks_used = [0, 0, 0, 2, 2, 0, 0, 0, 2, 2]
truck_assigned = [2, 2, 1, 2, 1, 1, 1, 1, 2, 2, 2, 1, 1, 2, 2, 2, 2, 1, 2, 2]
obj = 6577
----------
source = [7, 9, 4, 10, 7, 1, 1, 9, 4, 4, 4, 10, 9, 10, 4, 9, 9, 7, 10, 1]
open = [true, false, false, true, false, false, true, false, true, true]
trucks_used = [1, 0, 0, 2, 0, 0, 1, 0, 3, 2]
truck_assigned = [1, 3, 2, 1, 1, 1, 1, 2, 1, 2, 2, 1, 2, 2, 1, 3, 3, 1, 2, 1]
obj = 6549
----------
source = [10, 1, 4, 4, 7, 4, 7, 9, 9, 4, 4, 10, 9, 10, 1, 9, 9, 7, 10, 10]
open = [true, false, false, true, false, false, true, false, true, true]
trucks_used = [1, 0, 0, 2, 0, 0, 1, 0, 3, 2]
truck_assigned = [2, 1, 2, 1, 1, 1, 1, 3, 2, 2, 2, 1, 3, 2, 1, 1, 2, 1, 2, 1]
obj = 6547
----------
source = [4, 5, 4, 5, 10, 9, 5, 9, 5, 4, 4, 10, 9, 10, 4, 9, 9, 10, 10, 4]
open = [false, false, false, true, true, false, false, false, true, true]
trucks_used = [0, 0, 0, 2, 2, 0, 0, 0, 2, 2]
truck_assigned = [1, 2, 2, 2, 1, 2, 1, 1, 2, 2, 2, 1, 1, 2, 1, 2, 2, 1, 2, 1]
obj = 6466
----------
source = [10, 1, 4, 9, 7, 4, 4, 9, 7, 4, 4, 10, 9, 10, 10, 9, 9, 1, 10, 4]
open = [true, false, false, true, false, false, true, false, true, true]
trucks_used = [1, 0, 0, 2, 0, 0, 1, 0, 2, 2]
truck_assigned = [2, 1, 1, 2, 1, 2, 1, 1, 1, 1, 2, 1, 1, 2, 1, 2, 2, 1, 2, 2]
obj = 6463
----------
source = [4, 7, 4, 9, 10, 4, 7, 9, 1, 4, 4, 10, 9, 10, 10, 9, 9, 1, 10, 4]
open = [true, false, false, true, false, false, true, false, true, true]
trucks_used = [1, 0, 0, 2, 0, 0, 1, 0, 2, 2]
truck_assigned = [1, 1, 1, 2, 1, 2, 1, 1, 1, 1, 2, 1, 1, 2, 1, 2, 2, 1, 2, 2]
obj = 6448
----------
source = [10, 7, 4, 9, 9, 4, 7, 9, 1, 4, 4, 10, 9, 10, 4, 9, 1, 10, 10, 9]
open = [true, false, false, true, false, false, true, false, true, true]
trucks_used = [1, 0, 0, 2, 0, 0, 1, 0, 2, 2]
truck_assigned = [2, 1, 1, 1, 2, 2, 1, 2, 1, 2, 2, 1, 1, 2, 1, 2, 1, 1, 2, 1]
obj = 6381
----------
source = [10, 8, 9, 10, 8, 10, 10, 9, 10, 3, 3, 3, 9, 8, 8, 9, 9, 3, 8, 3]
open = [false, false, true, false, false, false, false, true, true, true]
trucks_used = [0, 0, 2, 0, 0, 0, 0, 2, 3, 2]
truck_assigned = [2, 1, 2, 1, 1, 1, 2, 3, 2, 2, 2, 2, 1, 2, 2, 3, 2, 2, 2, 1]
obj = 6294
----------
source = [10, 8, 3, 10, 9, 10, 10, 9, 10, 3, 8, 3, 9, 8, 9, 9, 9, 3, 8, 3]
open = [false, false, true, false, false, false, false, true, true, true]
trucks_used = [0, 0, 2, 0, 0, 0, 0, 2, 3, 2]
truck_assigned = [2, 2, 1, 1, 3, 1, 2, 2, 2, 2, 1, 2, 3, 2, 3, 2, 3, 1, 2, 2]
obj = 6172
----------
source = [10, 8, 8, 10, 10, 9, 10, 3, 3, 10, 3, 9, 9, 8, 9, 3, 3, 9, 8, 10]
open = [false, false, true, false, false, false, false, true, true, true]
trucks_used = [0, 0, 2, 0, 0, 0, 0, 2, 3, 2]
truck_assigned = [2, 2, 1, 2, 1, 2, 2, 1, 2, 1, 2, 3, 3, 2, 3, 1, 2, 2, 2, 1]
obj = 6143
----------
source = [10, 8, 3, 3, 3, 10, 10, 9, 3, 10, 3, 9, 9, 8, 9, 8, 10, 9, 8, 8]
open = [false, false, true, false, false, false, false, true, true, true]
trucks_used = [0, 0, 2, 0, 0, 0, 0, 2, 3, 2]
truck_assigned = [2, 2, 2, 2, 1, 1, 2, 2, 2, 2, 2, 3, 3, 2, 3, 1, 1, 2, 2, 1]
obj = 6139
----------
source = [10, 8, 3, 10, 3, 10, 10, 9, 3, 10, 3, 9, 9, 8, 9, 8, 3, 9, 8, 8]
open = [false, false, true, false, false, false, false, true, true, true]
trucks_used = [0, 0, 2, 0, 0, 0, 0, 2, 3, 2]
truck_assigned = [2, 2, 2, 1, 2, 1, 2, 2, 2, 2, 2, 3, 3, 2, 3, 1, 1, 1, 2, 1]
obj = 6113
----------
source = [10, 8, 3, 8, 3, 10, 10, 9, 3, 10, 3, 9, 9, 8, 9, 8, 10, 3, 9, 8]
open = [false, false, true, false, false, false, false, true, true, true]
trucks_used = [0, 0, 2, 0, 0, 0, 0, 2, 3, 2]
truck_assigned = [2, 2, 2, 1, 2, 1, 2, 2, 2, 2, 2, 3, 3, 2, 3, 1, 1, 2, 2, 2]
obj = 6105
----------
source = [10, 8, 8, 8, 9, 10, 10, 3, 3, 10, 3, 9, 9, 8, 9, 10, 9, 3, 3, 9]
open = [false, false, true, false, false, false, false, true, true, true]
trucks_used = [0, 0, 2, 0, 0, 0, 0, 2, 3, 2]
truck_assigned = [2, 2, 2, 2, 2, 1, 2, 2, 2, 2, 2, 3, 3, 2, 3, 1, 2, 2, 1, 2]
obj = 6104
----------
source = [10, 8, 8, 10, 8, 10, 10, 9, 3, 10, 3, 9, 9, 8, 9, 8, 3, 3, 3, 9]
open = [false, false, true, false, false, false, false, true, true, true]
trucks_used = [0, 0, 2, 0, 0, 0, 0, 2, 3, 2]
truck_assigned = [2, 2, 1, 1, 1, 1, 2, 2, 2, 2, 2, 3, 3, 2, 3, 2, 1, 2, 2, 2]
obj = 6070
----------
source = [10, 8, 3, 8, 3, 10, 10, 9, 3, 10, 3, 9, 9, 8, 9, 8, 10, 9, 3, 8]
open = [false, false, true, false, false, false, false, true, true, true]
trucks_used = [0, 0, 2, 0, 0, 0, 0, 2, 3, 2]
truck_assigned = [2, 2, 2, 1, 2, 1, 2, 2, 2, 2, 2, 3, 3, 2, 3, 2, 1, 2, 2, 1]
obj = 6065
----------
source = [3, 8, 3, 8, 8, 10, 10, 9, 3, 10, 3, 9, 9, 8, 9, 8, 10, 9, 3, 10]
open = [false, false, true, false, false, false, false, true, true, true]
trucks_used = [0, 0, 2, 0, 0, 0, 0, 2, 3, 2]
truck_assigned = [2, 2, 2, 1, 1, 1, 2, 2, 2, 2, 2, 3, 3, 2, 3, 2, 2, 2, 2, 1]
obj = 6055
----------
source = [3, 8, 8, 8, 9, 10, 10, 3, 3, 10, 3, 9, 9, 8, 9, 10, 10, 9, 3, 9]
open = [false, false, true, false, false, false, false, true, true, true]
trucks_used = [0, 0, 2, 0, 0, 0, 0, 2, 3, 2]
truck_assigned = [1, 2, 2, 2, 2, 1, 2, 2, 2, 2, 2, 3, 3, 2, 3, 1, 2, 2, 2, 2]
obj = 6053
----------
source = [3, 8, 8, 9, 8, 10, 10, 10, 3, 10, 3, 9, 9, 8, 9, 8, 3, 9, 3, 10]
open = [false, false, true, false, false, false, false, true, true, true]
trucks_used = [0, 0, 2, 0, 0, 0, 0, 2, 3, 2]
truck_assigned = [2, 2, 1, 2, 1, 1, 2, 1, 2, 2, 2, 3, 3, 2, 3, 2, 2, 2, 2, 2]
obj = 6044
----------
source = [10, 8, 3, 10, 3, 10, 10, 8, 3, 10, 3, 9, 9, 8, 9, 8, 9, 9, 3, 8]
open = [false, false, true, false, false, false, false, true, true, true]
trucks_used = [0, 0, 2, 0, 0, 0, 0, 2, 3, 2]
truck_assigned = [1, 2, 2, 1, 2, 2, 2, 2, 2, 2, 2, 3, 3, 2, 3, 2, 2, 2, 2, 1]
obj = 6033
----------
source = [3, 8, 3, 8, 9, 10, 10, 8, 3, 10, 3, 9, 9, 8, 9, 10, 10, 9, 3, 9]
open = [false, false, true, false, false, false, false, true, true, true]
trucks_used = [0, 0, 2, 0, 0, 0, 0, 2, 3, 2]
truck_assigned = [2, 2, 2, 2, 2, 2, 2, 2, 2, 2, 2, 3, 3, 2, 3, 1, 1, 1, 2, 2]
obj = 6019
----------
source = [3, 8, 3, 8, 8, 10, 10, 8, 3, 10, 3, 9, 9, 9, 9, 8, 10, 9, 3, 10]
open = [false, false, true, false, false, false, false, true, true, true]
trucks_used = [0, 0, 2, 0, 0, 0, 0, 2, 3, 2]
truck_assigned = [2, 2, 2, 2, 2, 2, 2, 1, 2, 2, 2, 3, 3, 2, 3, 2, 1, 2, 2, 1]
obj = 6018
----------
source = [3, 8, 8, 10, 8, 10, 10, 9, 3, 3, 3, 9, 9, 8, 9, 8, 10, 9, 3, 10]
open = [false, false, true, false, false, false, false, true, true, true]
trucks_used = [0, 0, 2, 0, 0, 0, 0, 2, 3, 2]
truck_assigned = [2, 2, 1, 1, 1, 2, 2, 2, 2, 2, 2, 3, 3, 2, 3, 2, 1, 2, 2, 2]
obj = 5998
----------
source = [3, 8, 8, 10, 8, 10, 10, 10, 3, 3, 3, 9, 9, 8, 9, 8, 9, 9, 3, 10]
open = [false, false, true, false, false, false, false, true, true, true]
trucks_used = [0, 0, 2, 0, 0, 0, 0, 2, 3, 2]
truck_assigned = [2, 2, 1, 1, 1, 2, 2, 1, 2, 2, 2, 3, 3, 2, 3, 2, 2, 1, 2, 2]
obj = 5982
----------
source = [10, 8, 3, 10, 3, 10, 10, 8, 3, 3, 9, 9, 9, 8, 9, 8, 10, 9, 3, 8]
open = [false, false, true, false, false, false, false, true, true, true]
trucks_used = [0, 0, 2, 0, 0, 0, 0, 2, 3, 2]
truck_assigned = [1, 2, 2, 1, 2, 2, 2, 2, 2, 1, 2, 3, 3, 2, 3, 2, 2, 2, 2, 1]
obj = 5978
----------
source = [3, 8, 8, 10, 9, 10, 10, 8, 3, 3, 3, 9, 9, 8, 9, 10, 10, 9, 3, 9]
open = [false, false, true, false, false, false, false, true, true, true]
trucks_used = [0, 0, 2, 0, 0, 0, 0, 2, 3, 2]
truck_assigned = [2, 2, 2, 1, 2, 2, 2, 2, 2, 2, 2, 3, 3, 2, 3, 1, 2, 1, 2, 2]
obj = 5962
----------
source = [3, 8, 8, 10, 8, 10, 10, 10, 3, 3, 9, 9, 9, 3, 9, 8, 8, 9, 3, 10]
open = [false, false, true, false, false, false, false, true, true, true]
trucks_used = [0, 0, 2, 0, 0, 0, 0, 2, 3, 2]
truck_assigned = [2, 2, 2, 1, 2, 2, 2, 1, 2, 2, 2, 3, 3, 2, 3, 2, 1, 2, 2, 2]
obj = 5941
----------
source = [9, 4, 5, 5, 9, 9, 1, 5, 4, 7, 4, 9, 9, 1, 9, 1, 4, 5, 4, 7]
open = [true, false, false, true, true, false, true, false, true, false]
trucks_used = [1, 0, 0, 2, 1, 0, 1, 0, 2, 0]
truck_assigned = [2, 2, 1, 1, 1, 2, 1, 1, 2, 1, 2, 1, 2, 1, 1, 1, 2, 1, 1, 1]
obj = 5921
----------
source = [9, 4, 5, 5, 9, 9, 7, 5, 4, 7, 4, 9, 9, 1, 9, 1, 4, 5, 4, 1]
open = [true, false, false, true, true, false, true, false, true, false]
trucks_used = [1, 0, 0, 2, 1, 0, 1, 0, 2, 0]
truck_assigned = [2, 2, 1, 1, 2, 2, 1, 1, 2, 1, 1, 1, 1, 1, 2, 1, 2, 1, 2, 1]
obj = 5883
----------
source = [9, 4, 1, 5, 9, 9, 7, 5, 4, 5, 4, 9, 9, 1, 9, 7, 4, 5, 4, 7]
open = [true, false, false, true, true, false, true, false, true, false]
trucks_used = [1, 0, 0, 2, 1, 0, 1, 0, 2, 0]
truck_assigned = [2, 2, 1, 1, 2, 2, 1, 1, 2, 1, 1, 1, 1, 1, 2, 1, 2, 1, 2, 1]
obj = 5881
----------
source = [4, 1, 7, 4, 9, 9, 9, 5, 4, 5, 4, 9, 4, 1, 9, 7, 5, 5, 4, 9]
open = [true, false, false, true, true, false, true, false, true, false]
trucks_used = [1, 0, 0, 2, 1, 0, 1, 0, 2, 0]
truck_assigned = [1, 1, 1, 2, 1, 2, 1, 1, 2, 1, 2, 2, 1, 1, 2, 1, 1, 1, 2, 2]
obj = 5837
----------
source = [9, 4, 7, 4, 9, 9, 1, 5, 4, 5, 4, 9, 9, 4, 9, 7, 5, 5, 1, 1]
open = [true, false, false, true, true, false, true, false, true, false]
trucks_used = [1, 0, 0, 2, 1, 0, 1, 0, 2, 0]
truck_assigned = [1, 2, 1, 2, 2, 2, 1, 1, 2, 1, 2, 2, 1, 1, 2, 1, 1, 1, 1, 1]
obj = 5823
----------
source = [10, 4, 6, 10, 6, 10, 6, 5, 4, 5, 4, 6, 10, 5, 4, 6, 10, 5, 4, 6]
open = [false, false, false, true, true, true, false, false, false, true]
trucks_used = [0, 0, 0, 2, 1, 2, 0, 0, 0, 1]
truck_assigned = [1, 2, 2, 1, 1, 1, 1, 1, 2, 1, 2, 1, 1, 1, 1, 2, 1, 1, 2, 2]
obj = 5784
----------
source = [10, 6, 5, 10, 4, 10, 6, 5, 4, 6, 4, 5, 10, 4, 4, 6, 10, 5, 4, 6]
open = [false, false, false, true, true, true, false, false, false, true]
trucks_used = [0, 0, 0, 2, 1, 2, 0, 0, 0, 1]
truck_assigned = [1, 1, 1, 1, 2, 1, 2, 1, 2, 1, 2, 1, 1, 2, 1, 1, 1, 1, 1, 2]
obj = 5780
----------
source = [6, 4, 10, 4, 10, 10, 6, 5, 4, 6, 6, 5, 10, 4, 4, 6, 10, 5, 5, 6]
open = [false, false, false, true, true, true, false, false, false, true]
trucks_used = [0, 0, 0, 1, 1, 2, 0, 0, 0, 2]
truck_assigned = [1, 1, 2, 1, 1, 2, 2, 1, 1, 1, 2, 1, 2, 1, 1, 2, 1, 1, 1, 1]
obj = 5774
----------
source = [10, 1, 9, 10, 6, 9, 6, 5, 10, 6, 6, 5, 6, 1, 9, 6, 5, 5, 10, 9]
open = [true, false, false, false, true, true, false, false, true, true]
trucks_used = [1, 0, 0, 0, 2, 2, 0, 0, 1, 1]
truck_assigned = [1, 1, 1, 1, 1, 1, 2, 2, 1, 1, 2, 1, 1, 1, 1, 2, 2, 2, 1, 1]
obj = 5772
----------
