+ /usr/bin/timeout 600 /usr/bin/time -v mzn-chuffed lbbd-datasets/Rabadi-2006/dzn-balanced/model.mzn lbbd-datasets/Rabadi-2006/dzn-balanced/9on6Rp50Rs50_1Ameer.dzn
% No search annotation given. Defaulting to VSIDS!
assign = array1d(1..15 ,[6, 6, 6, 6, 6, 6, 6, 6, 6, 1, 2, 3, 4, 5, 6]);
next = array1d(1..15 ,[2, 3, 4, 5, 6, 7, 8, 9, 15, 11, 12, 13, 14, 1, 10]);
makespan = 1258;
----------
assign = array1d(1..15 ,[6, 6, 6, 6, 6, 6, 6, 6, 6, 1, 2, 3, 4, 5, 6]);
next = array1d(1..15 ,[3, 4, 2, 5, 6, 7, 8, 9, 15, 11, 12, 13, 14, 1, 10]);
makespan = 1254;
----------
assign = array1d(1..15 ,[6, 6, 1, 6, 6, 6, 6, 6, 6, 1, 2, 3, 4, 5, 6]);
next = array1d(1..15 ,[2, 4, 10, 5, 6, 7, 8, 9, 15, 11, 12, 13, 14, 1, 3]);
makespan = 1190;
----------
assign = array1d(1..15 ,[6, 6, 1, 6, 6, 6, 6, 6, 6, 1, 2, 3, 4, 5, 6]);
next = array1d(1..15 ,[5, 15, 10, 9, 6, 7, 8, 4, 2, 11, 12, 13, 14, 1, 3]);
makespan = 1125;
----------
assign = array1d(1..15 ,[6, 6, 1, 6, 6, 6, 6, 6, 6, 1, 2, 3, 4, 5, 6]);
next = array1d(1..15 ,[5, 8, 10, 9, 6, 7, 4, 15, 2, 11, 12, 13, 14, 1, 3]);
makespan = 1114;
----------
assign = array1d(1..15 ,[6, 6, 6, 6, 6, 6, 6, 5, 6, 1, 2, 3, 4, 5, 6]);
next = array1d(1..15 ,[5, 15, 6, 9, 7, 4, 3, 14, 2, 11, 12, 13, 8, 1, 10]);
makespan = 1103;
----------
assign = array1d(1..15 ,[1, 6, 1, 6, 6, 1, 1, 5, 6, 1, 2, 3, 4, 5, 6]);
next = array1d(1..15 ,[10, 15, 6, 9, 4, 7, 1, 14, 2, 11, 12, 13, 8, 5, 3]);
makespan = 1057;
----------
assign = array1d(1..15 ,[1, 6, 1, 6, 6, 1, 1, 5, 6, 1, 2, 3, 4, 5, 6]);
next = array1d(1..15 ,[10, 15, 6, 9, 4, 7, 1, 14, 2, 11, 12, 13, 8, 5, 3]);
makespan = 1031;
----------
assign = array1d(1..15 ,[1, 6, 1, 6, 6, 1, 1, 5, 6, 1, 2, 3, 4, 5, 6]);
next = array1d(1..15 ,[10, 15, 6, 9, 4, 7, 1, 14, 2, 11, 12, 13, 8, 5, 3]);
makespan = 1021;
----------
assign = array1d(1..15 ,[1, 6, 1, 6, 6, 1, 1, 5, 6, 1, 2, 3, 4, 5, 6]);
next = array1d(1..15 ,[10, 15, 6, 9, 4, 7, 1, 14, 2, 11, 12, 13, 8, 5, 3]);
makespan = 1013;
----------
assign = array1d(1..15 ,[1, 6, 1, 6, 6, 1, 1, 5, 6, 1, 2, 3, 4, 5, 6]);
next = array1d(1..15 ,[10, 15, 6, 9, 4, 7, 1, 14, 2, 11, 12, 13, 8, 5, 3]);
makespan = 1002;
----------
assign = array1d(1..15 ,[1, 6, 1, 6, 6, 1, 1, 5, 6, 1, 2, 3, 4, 5, 6]);
next = array1d(1..15 ,[10, 15, 6, 9, 4, 7, 1, 14, 2, 11, 12, 13, 8, 5, 3]);
makespan = 985;
----------
assign = array1d(1..15 ,[1, 6, 1, 6, 6, 1, 1, 5, 6, 1, 2, 3, 4, 5, 6]);
next = array1d(1..15 ,[10, 15, 6, 9, 4, 7, 1, 14, 2, 11, 12, 13, 8, 5, 3]);
makespan = 950;
----------
assign = array1d(1..15 ,[1, 6, 1, 6, 6, 1, 1, 5, 6, 1, 2, 3, 4, 5, 6]);
next = array1d(1..15 ,[10, 15, 6, 9, 4, 7, 1, 14, 2, 11, 12, 13, 8, 5, 3]);
makespan = 944;
----------
assign = array1d(1..15 ,[1, 6, 1, 6, 6, 1, 1, 5, 6, 1, 2, 3, 4, 5, 6]);
next = array1d(1..15 ,[10, 15, 6, 9, 4, 7, 1, 14, 2, 11, 12, 13, 8, 5, 3]);
makespan = 936;
----------
assign = array1d(1..15 ,[1, 6, 1, 6, 6, 1, 1, 5, 6, 1, 2, 3, 4, 5, 6]);
next = array1d(1..15 ,[10, 15, 6, 9, 4, 7, 1, 14, 2, 11, 12, 13, 8, 5, 3]);
makespan = 916;
----------
assign = array1d(1..15 ,[1, 6, 1, 6, 6, 1, 1, 5, 6, 1, 2, 3, 4, 5, 6]);
next = array1d(1..15 ,[10, 15, 6, 9, 4, 7, 1, 14, 2, 11, 12, 13, 8, 5, 3]);
makespan = 912;
----------
assign = array1d(1..15 ,[1, 6, 1, 6, 6, 1, 1, 5, 6, 1, 2, 3, 4, 5, 6]);
next = array1d(1..15 ,[10, 15, 6, 9, 4, 7, 1, 14, 2, 11, 12, 13, 8, 5, 3]);
makespan = 885;
----------
assign = array1d(1..15 ,[1, 6, 1, 6, 6, 1, 1, 5, 6, 1, 2, 3, 4, 5, 6]);
next = array1d(1..15 ,[10, 15, 6, 9, 4, 7, 1, 14, 2, 11, 12, 13, 8, 5, 3]);
makespan = 880;
----------
assign = array1d(1..15 ,[1, 6, 1, 6, 6, 1, 1, 5, 6, 1, 2, 3, 4, 5, 6]);
next = array1d(1..15 ,[10, 15, 6, 9, 4, 7, 1, 14, 2, 11, 12, 13, 8, 5, 3]);
makespan = 878;
----------
assign = array1d(1..15 ,[1, 6, 1, 6, 6, 1, 1, 5, 6, 1, 2, 3, 4, 5, 6]);
next = array1d(1..15 ,[10, 15, 6, 9, 4, 7, 1, 14, 2, 11, 12, 13, 8, 5, 3]);
makespan = 867;
----------
assign = array1d(1..15 ,[1, 6, 1, 6, 6, 1, 1, 5, 6, 1, 2, 3, 4, 5, 6]);
next = array1d(1..15 ,[10, 15, 6, 9, 4, 7, 1, 14, 2, 11, 12, 13, 8, 5, 3]);
makespan = 848;
----------
assign = array1d(1..15 ,[1, 6, 1, 6, 6, 1, 1, 5, 6, 1, 2, 3, 4, 5, 6]);
next = array1d(1..15 ,[10, 15, 6, 9, 4, 7, 1, 14, 2, 11, 12, 13, 8, 5, 3]);
makespan = 799;
----------
assign = array1d(1..15 ,[1, 6, 1, 6, 6, 1, 1, 5, 6, 1, 2, 3, 4, 5, 6]);
next = array1d(1..15 ,[10, 15, 6, 9, 4, 7, 1, 14, 2, 11, 12, 13, 8, 5, 3]);
makespan = 798;
----------
assign = array1d(1..15 ,[1, 6, 1, 6, 6, 1, 1, 5, 6, 1, 2, 3, 4, 5, 6]);
next = array1d(1..15 ,[10, 15, 6, 9, 4, 7, 1, 14, 2, 11, 12, 13, 8, 5, 3]);
makespan = 796;
----------
assign = array1d(1..15 ,[1, 6, 1, 6, 6, 1, 1, 5, 6, 1, 2, 3, 4, 5, 6]);
next = array1d(1..15 ,[10, 15, 6, 9, 4, 7, 1, 14, 2, 11, 12, 13, 8, 5, 3]);
makespan = 794;
----------
assign = array1d(1..15 ,[1, 6, 1, 6, 6, 1, 1, 5, 6, 1, 2, 3, 4, 5, 6]);
next = array1d(1..15 ,[10, 15, 6, 9, 4, 7, 1, 14, 2, 11, 12, 13, 8, 5, 3]);
makespan = 793;
----------
assign = array1d(1..15 ,[1, 6, 1, 6, 6, 1, 1, 5, 6, 1, 2, 3, 4, 5, 6]);
next = array1d(1..15 ,[10, 15, 6, 9, 4, 7, 1, 14, 2, 11, 12, 13, 8, 5, 3]);
makespan = 734;
----------
assign = array1d(1..15 ,[1, 6, 1, 6, 6, 1, 1, 5, 6, 1, 2, 3, 4, 5, 6]);
next = array1d(1..15 ,[10, 15, 6, 9, 4, 7, 1, 14, 2, 11, 12, 13, 8, 5, 3]);
makespan = 719;
----------
assign = array1d(1..15 ,[1, 6, 1, 6, 6, 1, 1, 5, 6, 1, 2, 3, 4, 5, 6]);
next = array1d(1..15 ,[10, 15, 6, 9, 4, 7, 1, 14, 2, 11, 12, 13, 8, 5, 3]);
makespan = 699;
----------
assign = array1d(1..15 ,[1, 6, 1, 6, 6, 1, 1, 5, 6, 1, 2, 3, 4, 5, 6]);
next = array1d(1..15 ,[10, 15, 6, 9, 4, 7, 1, 14, 2, 11, 12, 13, 8, 5, 3]);
makespan = 679;
----------
assign = array1d(1..15 ,[1, 6, 1, 6, 6, 1, 1, 5, 6, 1, 2, 3, 4, 5, 6]);
next = array1d(1..15 ,[10, 15, 6, 9, 4, 7, 1, 14, 2, 11, 12, 13, 8, 5, 3]);
makespan = 648;
----------
assign = array1d(1..15 ,[1, 6, 1, 6, 6, 1, 1, 5, 6, 1, 2, 3, 4, 5, 6]);
next = array1d(1..15 ,[10, 15, 6, 9, 4, 7, 1, 14, 2, 11, 12, 13, 8, 5, 3]);
makespan = 632;
----------
assign = array1d(1..15 ,[1, 6, 1, 6, 6, 1, 1, 5, 6, 1, 2, 3, 4, 5, 6]);
next = array1d(1..15 ,[10, 15, 6, 9, 4, 7, 1, 14, 2, 11, 12, 13, 8, 5, 3]);
makespan = 628;
----------
assign = array1d(1..15 ,[1, 6, 1, 6, 6, 1, 1, 5, 6, 1, 2, 3, 4, 5, 6]);
next = array1d(1..15 ,[10, 15, 6, 9, 4, 7, 1, 14, 2, 11, 12, 13, 8, 5, 3]);
makespan = 584;
----------
assign = array1d(1..15 ,[1, 6, 1, 6, 6, 1, 1, 5, 6, 1, 2, 3, 4, 5, 6]);
next = array1d(1..15 ,[10, 15, 6, 9, 4, 7, 1, 14, 2, 11, 12, 13, 8, 5, 3]);
makespan = 561;
----------
assign = array1d(1..15 ,[1, 6, 1, 6, 6, 1, 1, 5, 6, 1, 2, 3, 4, 5, 6]);
next = array1d(1..15 ,[10, 15, 6, 9, 4, 7, 1, 14, 2, 11, 12, 13, 8, 5, 3]);
makespan = 541;
----------
assign = array1d(1..15 ,[4, 6, 1, 6, 6, 1, 4, 5, 6, 1, 2, 3, 4, 5, 6]);
next = array1d(1..15 ,[13, 15, 6, 9, 4, 10, 1, 14, 2, 11, 12, 7, 8, 5, 3]);
makespan = 539;
----------
assign = array1d(1..15 ,[6, 1, 1, 6, 6, 1, 1, 3, 6, 1, 2, 3, 4, 5, 6]);
next = array1d(1..15 ,[4, 3, 6, 9, 15, 7, 10, 12, 5, 11, 8, 13, 14, 1, 2]);
makespan = 532;
----------
assign = array1d(1..15 ,[6, 3, 3, 6, 6, 3, 3, 4, 6, 1, 2, 3, 4, 5, 6]);
next = array1d(1..15 ,[4, 3, 6, 9, 15, 7, 12, 13, 5, 11, 2, 8, 14, 1, 10]);
makespan = 511;
----------
assign = array1d(1..15 ,[6, 1, 1, 6, 6, 1, 1, 4, 6, 1, 2, 3, 4, 5, 6]);
next = array1d(1..15 ,[4, 3, 6, 9, 15, 7, 10, 13, 5, 11, 12, 8, 14, 1, 2]);
makespan = 492;
----------
assign = array1d(1..15 ,[6, 1, 1, 6, 4, 1, 1, 4, 6, 1, 2, 3, 4, 5, 6]);
next = array1d(1..15 ,[4, 3, 6, 9, 8, 7, 10, 13, 15, 11, 12, 5, 14, 1, 2]);
makespan = 489;
----------
assign = array1d(1..15 ,[1, 5, 6, 1, 4, 6, 6, 2, 1, 1, 2, 3, 4, 5, 6]);
next = array1d(1..15 ,[4, 14, 6, 9, 13, 7, 15, 11, 10, 8, 12, 5, 2, 3, 1]);
makespan = 488;
----------
assign = array1d(1..15 ,[6, 5, 4, 6, 5, 4, 4, 5, 6, 1, 2, 3, 4, 5, 6]);
next = array1d(1..15 ,[4, 8, 6, 9, 2, 7, 13, 14, 15, 11, 12, 3, 5, 1, 10]);
makespan = 485;
----------
assign = array1d(1..15 ,[5, 1, 6, 5, 1, 6, 6, 5, 5, 1, 2, 3, 4, 5, 6]);
next = array1d(1..15 ,[4, 10, 6, 9, 2, 7, 15, 14, 8, 11, 12, 13, 1, 3, 5]);
makespan = 483;
----------
assign = array1d(1..15 ,[6, 6, 5, 1, 6, 5, 5, 1, 1, 1, 2, 3, 4, 5, 6]);
next = array1d(1..15 ,[5, 15, 6, 8, 2, 7, 14, 9, 10, 11, 12, 13, 3, 1, 4]);
makespan = 480;
----------
assign = array1d(1..15 ,[2, 4, 6, 5, 4, 6, 6, 5, 5, 1, 2, 3, 4, 5, 6]);
next = array1d(1..15 ,[11, 5, 6, 8, 13, 7, 15, 9, 14, 1, 12, 2, 4, 3, 10]);
makespan = 471;
----------
assign = array1d(1..15 ,[2, 4, 5, 6, 4, 5, 5, 6, 6, 1, 2, 3, 4, 5, 6]);
next = array1d(1..15 ,[11, 5, 6, 8, 13, 7, 14, 9, 15, 1, 12, 2, 3, 4, 10]);
makespan = 465;
----------
assign = array1d(1..15 ,[2, 4, 5, 6, 4, 5, 5, 6, 6, 1, 2, 3, 4, 5, 6]);
next = array1d(1..15 ,[11, 5, 6, 8, 13, 7, 14, 9, 15, 1, 12, 2, 3, 4, 10]);
makespan = 464;
----------
assign = array1d(1..15 ,[2, 4, 5, 6, 4, 5, 5, 6, 6, 1, 2, 3, 4, 5, 6]);
next = array1d(1..15 ,[11, 5, 6, 8, 13, 7, 14, 9, 15, 1, 12, 2, 3, 4, 10]);
makespan = 435;
----------
assign = array1d(1..15 ,[2, 4, 5, 6, 4, 5, 5, 6, 6, 1, 2, 3, 4, 5, 6]);
next = array1d(1..15 ,[11, 5, 6, 8, 13, 7, 14, 9, 15, 1, 12, 2, 3, 4, 10]);
makespan = 428;
----------
assign = array1d(1..15 ,[2, 4, 5, 6, 4, 5, 5, 6, 6, 1, 2, 3, 4, 5, 6]);
next = array1d(1..15 ,[11, 5, 6, 8, 13, 7, 14, 9, 15, 1, 12, 2, 3, 4, 10]);
makespan = 412;
----------
assign = array1d(1..15 ,[2, 4, 5, 6, 4, 5, 5, 6, 6, 1, 2, 3, 4, 5, 6]);
next = array1d(1..15 ,[11, 5, 6, 8, 13, 7, 14, 9, 15, 1, 12, 2, 3, 4, 10]);
makespan = 410;
----------
assign = array1d(1..15 ,[2, 4, 5, 6, 4, 5, 5, 6, 6, 1, 2, 3, 4, 5, 6]);
next = array1d(1..15 ,[11, 5, 6, 8, 13, 7, 14, 9, 15, 1, 12, 2, 3, 4, 10]);
makespan = 409;
----------
assign = array1d(1..15 ,[2, 4, 5, 6, 4, 5, 5, 6, 6, 1, 2, 3, 4, 5, 6]);
next = array1d(1..15 ,[11, 5, 6, 8, 13, 7, 14, 9, 15, 1, 12, 2, 3, 4, 10]);
makespan = 399;
----------
assign = array1d(1..15 ,[2, 4, 5, 6, 4, 5, 5, 6, 6, 1, 2, 3, 4, 5, 6]);
next = array1d(1..15 ,[11, 5, 6, 8, 13, 7, 14, 9, 15, 1, 12, 2, 3, 4, 10]);
makespan = 393;
----------
assign = array1d(1..15 ,[2, 4, 5, 6, 4, 5, 5, 6, 6, 1, 2, 3, 4, 5, 6]);
next = array1d(1..15 ,[11, 5, 6, 8, 13, 7, 14, 9, 15, 1, 12, 2, 3, 4, 10]);
makespan = 392;
----------
assign = array1d(1..15 ,[2, 4, 5, 6, 4, 5, 5, 6, 6, 1, 2, 3, 4, 5, 6]);
next = array1d(1..15 ,[11, 5, 6, 8, 13, 7, 14, 9, 15, 1, 12, 2, 3, 4, 10]);
makespan = 385;
----------
assign = array1d(1..15 ,[2, 5, 3, 6, 5, 3, 3, 6, 6, 1, 2, 3, 4, 5, 6]);
next = array1d(1..15 ,[11, 5, 6, 8, 14, 7, 12, 9, 15, 1, 3, 13, 2, 4, 10]);
makespan = 383;
----------
assign = array1d(1..15 ,[2, 5, 1, 6, 5, 1, 1, 6, 6, 1, 2, 3, 4, 5, 6]);
next = array1d(1..15 ,[11, 5, 6, 8, 14, 7, 10, 9, 15, 1, 12, 13, 2, 4, 3]);
makespan = 380;
----------
assign = array1d(1..15 ,[2, 5, 1, 6, 5, 1, 1, 6, 6, 1, 2, 3, 4, 5, 6]);
next = array1d(1..15 ,[11, 5, 6, 8, 14, 7, 10, 9, 15, 1, 12, 13, 2, 4, 3]);
makespan = 379;
----------
assign = array1d(1..15 ,[2, 5, 1, 6, 5, 1, 1, 6, 6, 1, 2, 3, 4, 5, 6]);
next = array1d(1..15 ,[11, 5, 6, 8, 14, 7, 10, 9, 15, 1, 12, 13, 2, 4, 3]);
makespan = 376;
----------
assign = array1d(1..15 ,[2, 6, 1, 5, 6, 1, 1, 5, 5, 1, 2, 3, 4, 5, 6]);
next = array1d(1..15 ,[11, 5, 6, 8, 15, 7, 10, 9, 14, 1, 12, 13, 4, 2, 3]);
makespan = 374;
----------
assign = array1d(1..15 ,[6, 4, 6, 5, 4, 6, 4, 5, 5, 1, 2, 3, 4, 5, 6]);
next = array1d(1..15 ,[15, 13, 6, 8, 2, 1, 5, 9, 14, 11, 12, 7, 4, 3, 10]);
makespan = 371;
----------
assign = array1d(1..15 ,[4, 4, 5, 1, 4, 6, 6, 1, 1, 1, 2, 3, 4, 5, 6]);
next = array1d(1..15 ,[13, 1, 14, 8, 2, 7, 15, 9, 10, 11, 12, 5, 3, 6, 4]);
makespan = 368;
----------
assign = array1d(1..15 ,[6, 6, 5, 1, 6, 5, 3, 1, 1, 1, 2, 3, 4, 5, 6]);
next = array1d(1..15 ,[15, 1, 6, 8, 2, 14, 12, 9, 10, 11, 7, 13, 3, 5, 4]);
makespan = 357;
----------
assign = array1d(1..15 ,[6, 6, 5, 2, 6, 5, 3, 2, 5, 1, 2, 3, 4, 5, 6]);
next = array1d(1..15 ,[15, 1, 6, 8, 2, 14, 12, 11, 3, 4, 7, 13, 9, 5, 10]);
makespan = 356;
----------
assign = array1d(1..15 ,[4, 4, 2, 6, 4, 5, 5, 6, 6, 1, 2, 3, 4, 5, 6]);
next = array1d(1..15 ,[13, 1, 11, 15, 2, 7, 14, 9, 4, 3, 12, 5, 6, 8, 10]);
makespan = 354;
----------
assign = array1d(1..15 ,[6, 6, 2, 2, 6, 5, 5, 3, 3, 1, 2, 3, 4, 5, 6]);
next = array1d(1..15 ,[15, 1, 11, 3, 2, 7, 14, 9, 12, 4, 8, 13, 6, 5, 10]);
makespan = 351;
----------
assign = array1d(1..15 ,[4, 5, 1, 4, 5, 6, 6, 1, 1, 1, 2, 3, 4, 5, 6]);
next = array1d(1..15 ,[4, 14, 8, 13, 2, 7, 15, 9, 10, 11, 12, 1, 5, 6, 3]);
makespan = 345;
----------
assign = array1d(1..15 ,[5, 6, 1, 2, 6, 5, 6, 1, 1, 1, 2, 3, 4, 5, 6]);
next = array1d(1..15 ,[14, 7, 8, 11, 15, 1, 5, 9, 10, 4, 12, 13, 6, 2, 3]);
makespan = 343;
----------
assign = array1d(1..15 ,[2, 1, 6, 2, 1, 5, 1, 6, 5, 1, 2, 3, 4, 5, 6]);
next = array1d(1..15 ,[4, 10, 8, 11, 2, 14, 5, 15, 6, 1, 12, 13, 9, 3, 7]);
makespan = 341;
----------
assign = array1d(1..15 ,[4, 6, 4, 1, 6, 5, 6, 4, 5, 1, 2, 3, 4, 5, 6]);
next = array1d(1..15 ,[13, 7, 8, 10, 2, 14, 15, 1, 6, 11, 12, 3, 9, 5, 4]);
makespan = 339;
----------
assign = array1d(1..15 ,[5, 2, 6, 5, 2, 3, 4, 6, 3, 1, 2, 3, 4, 5, 6]);
next = array1d(1..15 ,[4, 11, 8, 14, 2, 12, 13, 15, 6, 5, 9, 7, 1, 3, 10]);
makespan = 336;
----------
assign = array1d(1..15 ,[6, 3, 1, 6, 6, 4, 4, 1, 1, 1, 2, 3, 4, 5, 6]);
next = array1d(1..15 ,[4, 12, 8, 5, 15, 7, 13, 9, 10, 11, 2, 6, 14, 1, 3]);
makespan = 332;
----------
assign = array1d(1..15 ,[6, 3, 1, 6, 6, 4, 4, 1, 1, 1, 2, 3, 4, 5, 6]);
next = array1d(1..15 ,[4, 12, 8, 5, 15, 7, 13, 9, 10, 11, 2, 6, 14, 1, 3]);
makespan = 331;
----------
assign = array1d(1..15 ,[6, 3, 1, 6, 6, 4, 4, 1, 1, 1, 2, 3, 4, 5, 6]);
next = array1d(1..15 ,[4, 12, 8, 5, 15, 7, 13, 9, 10, 11, 2, 6, 14, 1, 3]);
makespan = 328;
----------
assign = array1d(1..15 ,[6, 3, 1, 6, 6, 4, 4, 1, 1, 1, 2, 3, 4, 5, 6]);
next = array1d(1..15 ,[4, 12, 8, 5, 15, 7, 13, 9, 10, 11, 2, 6, 14, 1, 3]);
makespan = 327;
----------
assign = array1d(1..15 ,[6, 3, 1, 6, 3, 4, 4, 1, 1, 1, 2, 3, 4, 5, 6]);
next = array1d(1..15 ,[4, 12, 8, 15, 2, 7, 13, 9, 10, 11, 5, 6, 14, 1, 3]);
makespan = 326;
----------
assign = array1d(1..15 ,[6, 4, 2, 3, 4, 5, 6, 5, 3, 1, 2, 3, 4, 5, 6]);
next = array1d(1..15 ,[15, 5, 11, 9, 13, 8, 1, 14, 12, 3, 4, 2, 6, 7, 10]);
makespan = 324;
----------
assign = array1d(1..15 ,[3, 2, 5, 4, 2, 6, 3, 5, 6, 1, 2, 3, 4, 5, 6]);
next = array1d(1..15 ,[7, 5, 8, 13, 11, 9, 12, 14, 15, 2, 1, 4, 3, 6, 10]);
makespan = 323;
----------
assign = array1d(1..15 ,[5, 4, 3, 5, 1, 3, 4, 6, 6, 1, 2, 3, 4, 5, 6]);
next = array1d(1..15 ,[14, 7, 6, 1, 10, 12, 13, 9, 15, 11, 3, 2, 4, 8, 5]);
makespan = 322;
----------
assign = array1d(1..15 ,[1, 5, 6, 3, 1, 6, 3, 5, 1, 1, 2, 3, 4, 5, 6]);
next = array1d(1..15 ,[5, 8, 6, 7, 9, 15, 12, 14, 10, 11, 4, 13, 2, 3, 1]);
makespan = 321;
----------
assign = array1d(1..15 ,[3, 6, 4, 5, 2, 2, 5, 6, 6, 1, 2, 3, 4, 5, 6]);
next = array1d(1..15 ,[12, 8, 13, 7, 11, 5, 14, 9, 15, 6, 1, 3, 4, 2, 10]);
makespan = 320;
----------
assign = array1d(1..15 ,[3, 2, 4, 6, 5, 6, 5, 2, 3, 1, 2, 3, 4, 5, 6]);
next = array1d(1..15 ,[9, 8, 13, 15, 14, 4, 5, 11, 12, 2, 1, 3, 7, 6, 10]);
makespan = 319;
----------
assign = array1d(1..15 ,[6, 4, 6, 5, 3, 5, 3, 4, 2, 1, 2, 3, 4, 5, 6]);
next = array1d(1..15 ,[3, 8, 15, 14, 12, 4, 5, 13, 11, 9, 7, 2, 6, 1, 10]);
makespan = 318;
----------
assign = array1d(1..15 ,[4, 6, 4, 6, 2, 5, 2, 4, 5, 1, 2, 3, 4, 5, 6]);
next = array1d(1..15 ,[8, 15, 1, 2, 11, 14, 5, 13, 6, 7, 12, 3, 9, 4, 10]);
makespan = 317;
----------
assign = array1d(1..15 ,[6, 3, 1, 5, 4, 5, 4, 3, 6, 1, 2, 3, 4, 5, 6]);
next = array1d(1..15 ,[15, 8, 10, 14, 13, 4, 5, 12, 1, 11, 2, 7, 6, 9, 3]);
makespan = 316;
----------
assign = array1d(1..15 ,[6, 2, 3, 4, 5, 4, 5, 6, 1, 1, 2, 3, 4, 5, 6]);
next = array1d(1..15 ,[8, 11, 12, 13, 14, 4, 5, 15, 10, 2, 3, 6, 7, 1, 9]);
makespan = 314;
----------
assign = array1d(1..15 ,[3, 5, 6, 4, 2, 4, 2, 6, 3, 1, 2, 3, 4, 5, 6]);
next = array1d(1..15 ,[12, 14, 8, 13, 11, 4, 5, 15, 1, 7, 9, 6, 2, 3, 10]);
makespan = 313;
----------
assign = array1d(1..15 ,[6, 5, 2, 4, 1, 4, 2, 5, 6, 1, 2, 3, 4, 5, 6]);
next = array1d(1..15 ,[15, 8, 11, 13, 10, 4, 3, 14, 1, 7, 12, 6, 2, 9, 5]);
makespan = 312;
----------
assign = array1d(1..15 ,[5, 6, 4, 2, 3, 6, 4, 2, 5, 1, 2, 3, 4, 5, 6]);
next = array1d(1..15 ,[14, 6, 13, 8, 12, 15, 3, 11, 1, 4, 5, 7, 9, 2, 10]);
makespan = 311;
----------
assign = array1d(1..15 ,[6, 1, 5, 3, 4, 4, 6, 3, 5, 1, 2, 3, 4, 5, 6]);
next = array1d(1..15 ,[7, 10, 9, 8, 6, 13, 15, 12, 14, 11, 4, 5, 3, 1, 2]);
makespan = 310;
----------
assign = array1d(1..15 ,[6, 1, 5, 3, 5, 3, 6, 1, 1, 1, 2, 3, 4, 5, 6]);
next = array1d(1..15 ,[15, 9, 5, 12, 14, 4, 1, 10, 8, 11, 6, 13, 3, 7, 2]);
makespan = 309;
----------
assign = array1d(1..15 ,[6, 1, 5, 4, 6, 4, 3, 1, 1, 1, 2, 3, 4, 5, 6]);
next = array1d(1..15 ,[5, 9, 14, 13, 15, 4, 12, 10, 8, 11, 7, 6, 3, 1, 2]);
makespan = 308;
----------
assign = array1d(1..15 ,[6, 1, 5, 4, 6, 4, 3, 1, 1, 1, 2, 3, 4, 5, 6]);
next = array1d(1..15 ,[5, 9, 14, 13, 15, 4, 12, 10, 8, 11, 7, 6, 3, 1, 2]);
makespan = 307;
----------
assign = array1d(1..15 ,[6, 1, 5, 4, 6, 4, 3, 1, 1, 1, 2, 3, 4, 5, 6]);
next = array1d(1..15 ,[5, 9, 14, 13, 15, 4, 12, 10, 8, 11, 7, 6, 3, 1, 2]);
makespan = 306;
----------
assign = array1d(1..15 ,[6, 1, 5, 4, 6, 4, 3, 1, 1, 1, 2, 3, 4, 5, 6]);
next = array1d(1..15 ,[5, 9, 14, 13, 15, 4, 12, 10, 8, 11, 7, 6, 3, 1, 2]);
makespan = 305;
----------
assign = array1d(1..15 ,[6, 1, 5, 4, 6, 4, 3, 1, 1, 1, 2, 3, 4, 5, 6]);
next = array1d(1..15 ,[5, 9, 14, 13, 15, 4, 12, 10, 8, 11, 7, 6, 3, 1, 2]);
makespan = 304;
----------
assign = array1d(1..15 ,[6, 1, 5, 4, 6, 4, 3, 1, 1, 1, 2, 3, 4, 5, 6]);
next = array1d(1..15 ,[5, 9, 14, 13, 15, 4, 12, 10, 8, 11, 7, 6, 3, 1, 2]);
makespan = 303;
----------
assign = array1d(1..15 ,[6, 1, 5, 4, 6, 4, 3, 1, 1, 1, 2, 3, 4, 5, 6]);
next = array1d(1..15 ,[5, 9, 14, 13, 15, 4, 12, 10, 8, 11, 7, 6, 3, 1, 2]);
makespan = 302;
----------
assign = array1d(1..15 ,[6, 1, 5, 4, 6, 4, 3, 1, 1, 1, 2, 3, 4, 5, 6]);
next = array1d(1..15 ,[5, 9, 14, 13, 15, 4, 12, 10, 8, 11, 7, 6, 3, 1, 2]);
makespan = 301;
----------
assign = array1d(1..15 ,[6, 1, 5, 4, 6, 4, 3, 1, 1, 1, 2, 3, 4, 5, 6]);
next = array1d(1..15 ,[5, 9, 14, 13, 15, 4, 12, 10, 8, 11, 7, 6, 3, 1, 2]);
makespan = 300;
----------
assign = array1d(1..15 ,[6, 1, 5, 4, 6, 4, 3, 1, 1, 1, 2, 3, 4, 5, 6]);
next = array1d(1..15 ,[5, 9, 14, 13, 15, 4, 12, 10, 8, 11, 7, 6, 3, 1, 2]);
makespan = 299;
----------
assign = array1d(1..15 ,[6, 1, 5, 4, 6, 4, 3, 1, 1, 1, 2, 3, 4, 5, 6]);
next = array1d(1..15 ,[5, 9, 14, 13, 15, 4, 12, 10, 8, 11, 7, 6, 3, 1, 2]);
makespan = 298;
----------
assign = array1d(1..15 ,[6, 1, 5, 4, 6, 4, 3, 1, 1, 1, 2, 3, 4, 5, 6]);
next = array1d(1..15 ,[5, 9, 14, 13, 15, 4, 12, 10, 8, 11, 7, 6, 3, 1, 2]);
makespan = 297;
----------
assign = array1d(1..15 ,[6, 1, 5, 4, 6, 4, 3, 1, 1, 1, 2, 3, 4, 5, 6]);
next = array1d(1..15 ,[5, 9, 14, 13, 15, 4, 12, 10, 8, 11, 7, 6, 3, 1, 2]);
makespan = 296;
----------
assign = array1d(1..15 ,[6, 1, 5, 4, 6, 4, 3, 1, 1, 1, 2, 3, 4, 5, 6]);
next = array1d(1..15 ,[5, 9, 14, 13, 15, 4, 12, 10, 8, 11, 7, 6, 3, 1, 2]);
makespan = 295;
----------
assign = array1d(1..15 ,[6, 1, 5, 4, 6, 4, 3, 1, 1, 1, 2, 3, 4, 5, 6]);
next = array1d(1..15 ,[5, 9, 14, 13, 15, 4, 12, 10, 8, 11, 7, 6, 3, 1, 2]);
makespan = 294;
----------
assign = array1d(1..15 ,[6, 1, 5, 4, 6, 4, 3, 1, 1, 1, 2, 3, 4, 5, 6]);
next = array1d(1..15 ,[5, 9, 14, 13, 15, 4, 12, 10, 8, 11, 7, 6, 3, 1, 2]);
makespan = 293;
----------
assign = array1d(1..15 ,[6, 1, 5, 4, 6, 4, 3, 1, 1, 1, 2, 3, 4, 5, 6]);
next = array1d(1..15 ,[5, 9, 14, 13, 15, 4, 12, 10, 8, 11, 7, 6, 3, 1, 2]);
makespan = 292;
----------
assign = array1d(1..15 ,[6, 1, 5, 4, 6, 4, 3, 1, 1, 1, 2, 3, 4, 5, 6]);
next = array1d(1..15 ,[5, 9, 14, 13, 15, 4, 12, 10, 8, 11, 7, 6, 3, 1, 2]);
makespan = 291;
----------
assign = array1d(1..15 ,[6, 1, 5, 4, 6, 4, 3, 1, 1, 1, 2, 3, 4, 5, 6]);
next = array1d(1..15 ,[5, 9, 14, 13, 15, 4, 12, 10, 8, 11, 7, 6, 3, 1, 2]);
makespan = 290;
----------
assign = array1d(1..15 ,[6, 1, 5, 4, 6, 4, 3, 1, 1, 1, 2, 3, 4, 5, 6]);
next = array1d(1..15 ,[5, 9, 14, 13, 15, 4, 12, 10, 8, 11, 7, 6, 3, 1, 2]);
makespan = 289;
----------
assign = array1d(1..15 ,[6, 1, 5, 4, 6, 4, 3, 1, 1, 1, 2, 3, 4, 5, 6]);
next = array1d(1..15 ,[5, 9, 14, 13, 15, 4, 12, 10, 8, 11, 7, 6, 3, 1, 2]);
makespan = 288;
----------
assign = array1d(1..15 ,[6, 1, 5, 4, 6, 4, 3, 1, 1, 1, 2, 3, 4, 5, 6]);
next = array1d(1..15 ,[5, 9, 14, 13, 15, 4, 12, 10, 8, 11, 7, 6, 3, 1, 2]);
makespan = 287;
----------
assign = array1d(1..15 ,[6, 1, 5, 4, 6, 4, 3, 1, 1, 1, 2, 3, 4, 5, 6]);
next = array1d(1..15 ,[5, 9, 14, 13, 15, 4, 12, 10, 8, 11, 7, 6, 3, 1, 2]);
makespan = 286;
----------
assign = array1d(1..15 ,[6, 1, 5, 4, 6, 4, 3, 1, 1, 1, 2, 3, 4, 5, 6]);
next = array1d(1..15 ,[5, 9, 14, 13, 15, 4, 12, 10, 8, 11, 7, 6, 3, 1, 2]);
makespan = 285;
----------
assign = array1d(1..15 ,[6, 1, 5, 4, 6, 4, 3, 1, 1, 1, 2, 3, 4, 5, 6]);
next = array1d(1..15 ,[5, 9, 14, 13, 15, 4, 12, 10, 8, 11, 7, 6, 3, 1, 2]);
makespan = 284;
----------
assign = array1d(1..15 ,[6, 1, 5, 4, 6, 4, 3, 1, 1, 1, 2, 3, 4, 5, 6]);
next = array1d(1..15 ,[5, 9, 14, 13, 15, 4, 12, 10, 8, 11, 7, 6, 3, 1, 2]);
makespan = 283;
----------
assign = array1d(1..15 ,[6, 1, 5, 4, 6, 4, 3, 1, 1, 1, 2, 3, 4, 5, 6]);
next = array1d(1..15 ,[5, 9, 14, 13, 15, 4, 12, 10, 8, 11, 7, 6, 3, 1, 2]);
makespan = 282;
----------
assign = array1d(1..15 ,[6, 1, 5, 4, 6, 4, 3, 1, 1, 1, 2, 3, 4, 5, 6]);
next = array1d(1..15 ,[5, 9, 14, 13, 15, 4, 12, 10, 8, 11, 7, 6, 3, 1, 2]);
makespan = 281;
----------
assign = array1d(1..15 ,[6, 1, 5, 4, 6, 4, 3, 1, 1, 1, 2, 3, 4, 5, 6]);
next = array1d(1..15 ,[5, 9, 14, 13, 15, 4, 12, 10, 8, 11, 7, 6, 3, 1, 2]);
makespan = 279;
----------
assign = array1d(1..15 ,[6, 5, 5, 4, 6, 4, 3, 1, 1, 1, 2, 3, 4, 5, 6]);
next = array1d(1..15 ,[5, 14, 2, 13, 15, 4, 12, 10, 8, 11, 7, 6, 3, 1, 9]);
makespan = 278;
----------
assign = array1d(1..15 ,[6, 4, 4, 2, 3, 2, 6, 5, 5, 1, 2, 3, 4, 5, 6]);
next = array1d(1..15 ,[15, 3, 13, 11, 12, 4, 1, 14, 8, 6, 5, 2, 9, 7, 10]);
makespan = 277;
----------
assign = array1d(1..15 ,[4, 6, 6, 3, 1, 3, 5, 1, 1, 1, 2, 3, 4, 5, 6]);
next = array1d(1..15 ,[13, 15, 2, 12, 10, 4, 14, 5, 8, 11, 6, 1, 7, 3, 9]);
makespan = 276;
----------
assign = array1d(1..15 ,[5, 6, 5, 3, 1, 3, 6, 1, 1, 1, 2, 3, 4, 5, 6]);
next = array1d(1..15 ,[14, 15, 1, 12, 10, 4, 2, 5, 8, 11, 6, 13, 3, 7, 9]);
makespan = 275;
----------
assign = array1d(1..15 ,[5, 6, 5, 3, 1, 3, 6, 1, 1, 1, 2, 3, 4, 5, 6]);
next = array1d(1..15 ,[14, 15, 1, 12, 10, 4, 2, 5, 8, 11, 6, 13, 3, 7, 9]);
makespan = 274;
----------
assign = array1d(1..15 ,[5, 6, 5, 3, 1, 3, 6, 1, 1, 1, 2, 3, 4, 5, 6]);
next = array1d(1..15 ,[14, 15, 1, 12, 10, 4, 2, 5, 8, 11, 6, 13, 3, 7, 9]);
makespan = 273;
----------
assign = array1d(1..15 ,[5, 6, 5, 3, 1, 3, 6, 1, 1, 1, 2, 3, 4, 5, 6]);
next = array1d(1..15 ,[14, 15, 1, 12, 10, 4, 2, 5, 8, 11, 6, 13, 3, 7, 9]);
makespan = 272;
----------
assign = array1d(1..15 ,[5, 6, 5, 3, 1, 3, 6, 1, 1, 1, 2, 3, 4, 5, 6]);
next = array1d(1..15 ,[14, 15, 1, 12, 10, 4, 2, 5, 8, 11, 6, 13, 3, 7, 9]);
makespan = 271;
----------
assign = array1d(1..15 ,[5, 6, 5, 3, 1, 3, 6, 1, 1, 1, 2, 3, 4, 5, 6]);
next = array1d(1..15 ,[14, 15, 1, 12, 10, 4, 2, 5, 8, 11, 6, 13, 3, 7, 9]);
makespan = 270;
----------
assign = array1d(1..15 ,[5, 3, 4, 4, 5, 3, 2, 6, 6, 1, 2, 3, 4, 5, 6]);
next = array1d(1..15 ,[14, 6, 13, 3, 1, 12, 11, 15, 8, 7, 2, 4, 5, 9, 10]);
makespan = 269;
----------
assign = array1d(1..15 ,[1, 4, 4, 3, 5, 5, 3, 6, 6, 1, 2, 3, 4, 5, 6]);
next = array1d(1..15 ,[10, 13, 2, 12, 6, 14, 4, 15, 8, 11, 7, 3, 5, 9, 1]);
makespan = 268;
----------
assign = array1d(1..15 ,[1, 6, 6, 5, 3, 3, 5, 4, 4, 1, 2, 3, 4, 5, 6]);
next = array1d(1..15 ,[10, 15, 2, 14, 6, 12, 4, 13, 8, 11, 5, 9, 7, 3, 1]);
makespan = 267;
----------
assign = array1d(1..15 ,[1, 6, 6, 5, 3, 3, 5, 4, 4, 1, 2, 3, 4, 5, 6]);
next = array1d(1..15 ,[10, 15, 2, 14, 6, 12, 4, 13, 8, 11, 5, 9, 7, 3, 1]);
makespan = 266;
----------
assign = array1d(1..15 ,[1, 6, 6, 5, 3, 3, 5, 4, 4, 1, 2, 3, 4, 5, 6]);
next = array1d(1..15 ,[10, 15, 2, 14, 6, 12, 4, 13, 8, 11, 5, 9, 7, 3, 1]);
makespan = 265;
----------
assign = array1d(1..15 ,[1, 6, 6, 5, 3, 3, 5, 4, 4, 1, 2, 3, 4, 5, 6]);
next = array1d(1..15 ,[10, 15, 2, 14, 6, 12, 4, 13, 8, 11, 5, 9, 7, 3, 1]);
makespan = 264;
----------
assign = array1d(1..15 ,[1, 6, 6, 5, 3, 3, 5, 4, 4, 1, 2, 3, 4, 5, 6]);
next = array1d(1..15 ,[10, 15, 2, 14, 6, 12, 4, 13, 8, 11, 5, 9, 7, 3, 1]);
makespan = 263;
----------
assign = array1d(1..15 ,[1, 6, 6, 5, 3, 3, 5, 4, 4, 1, 2, 3, 4, 5, 6]);
next = array1d(1..15 ,[10, 15, 2, 14, 6, 12, 4, 13, 8, 11, 5, 9, 7, 3, 1]);
makespan = 262;
----------
assign = array1d(1..15 ,[1, 6, 6, 5, 3, 3, 5, 4, 4, 1, 2, 3, 4, 5, 6]);
next = array1d(1..15 ,[10, 15, 2, 14, 6, 12, 4, 13, 8, 11, 5, 9, 7, 3, 1]);
makespan = 261;
----------
assign = array1d(1..15 ,[1, 6, 6, 5, 3, 3, 5, 4, 4, 1, 2, 3, 4, 5, 6]);
next = array1d(1..15 ,[10, 15, 2, 14, 6, 12, 4, 13, 8, 11, 5, 9, 7, 3, 1]);
makespan = 260;
----------
assign = array1d(1..15 ,[1, 6, 6, 5, 3, 3, 5, 4, 4, 1, 2, 3, 4, 5, 6]);
next = array1d(1..15 ,[10, 15, 2, 14, 6, 12, 4, 13, 8, 11, 5, 9, 7, 3, 1]);
makespan = 259;
----------
assign = array1d(1..15 ,[1, 6, 6, 5, 3, 3, 5, 4, 4, 1, 2, 3, 4, 5, 6]);
next = array1d(1..15 ,[10, 15, 2, 14, 6, 12, 4, 13, 8, 11, 5, 9, 7, 3, 1]);
makespan = 258;
----------
assign = array1d(1..15 ,[1, 6, 6, 5, 3, 3, 5, 4, 4, 1, 2, 3, 4, 5, 6]);
next = array1d(1..15 ,[10, 15, 2, 14, 6, 12, 4, 13, 8, 11, 5, 9, 7, 3, 1]);
makespan = 257;
----------
assign = array1d(1..15 ,[1, 6, 6, 5, 3, 3, 5, 4, 4, 1, 2, 3, 4, 5, 6]);
next = array1d(1..15 ,[10, 15, 2, 14, 6, 12, 4, 13, 8, 11, 5, 9, 7, 3, 1]);
makespan = 256;
----------
assign = array1d(1..15 ,[1, 6, 6, 5, 3, 3, 5, 4, 4, 1, 2, 3, 4, 5, 6]);
next = array1d(1..15 ,[10, 15, 2, 14, 6, 12, 4, 13, 8, 11, 5, 9, 7, 3, 1]);
makespan = 255;
----------
assign = array1d(1..15 ,[1, 6, 6, 5, 3, 3, 5, 4, 4, 1, 2, 3, 4, 5, 6]);
next = array1d(1..15 ,[10, 15, 2, 14, 6, 12, 4, 13, 8, 11, 5, 9, 7, 3, 1]);
makespan = 253;
----------
assign = array1d(1..15 ,[1, 6, 6, 5, 3, 3, 5, 4, 4, 1, 2, 3, 4, 5, 6]);
next = array1d(1..15 ,[10, 15, 2, 14, 6, 12, 4, 13, 8, 11, 5, 9, 7, 3, 1]);
makespan = 252;
----------
assign = array1d(1..15 ,[1, 6, 6, 5, 3, 3, 5, 4, 4, 1, 2, 3, 4, 5, 6]);
next = array1d(1..15 ,[10, 15, 2, 14, 6, 12, 4, 13, 8, 11, 5, 9, 7, 3, 1]);
makespan = 251;
----------
assign = array1d(1..15 ,[1, 6, 6, 5, 3, 3, 5, 4, 4, 1, 2, 3, 4, 5, 6]);
next = array1d(1..15 ,[10, 15, 2, 14, 6, 12, 4, 13, 8, 11, 5, 9, 7, 3, 1]);
makespan = 250;
----------
assign = array1d(1..15 ,[1, 6, 6, 5, 3, 3, 5, 4, 4, 1, 2, 3, 4, 5, 6]);
next = array1d(1..15 ,[10, 15, 2, 14, 6, 12, 4, 13, 8, 11, 5, 9, 7, 3, 1]);
makespan = 249;
----------
assign = array1d(1..15 ,[1, 6, 6, 5, 3, 3, 5, 4, 4, 1, 2, 3, 4, 5, 6]);
next = array1d(1..15 ,[10, 15, 2, 14, 6, 12, 4, 13, 8, 11, 5, 9, 7, 3, 1]);
makespan = 248;
----------
assign = array1d(1..15 ,[1, 6, 6, 5, 3, 3, 5, 4, 4, 1, 2, 3, 4, 5, 6]);
next = array1d(1..15 ,[10, 15, 2, 14, 6, 12, 4, 13, 8, 11, 5, 9, 7, 3, 1]);
makespan = 247;
----------
assign = array1d(1..15 ,[1, 6, 6, 5, 3, 3, 5, 4, 4, 1, 2, 3, 4, 5, 6]);
next = array1d(1..15 ,[10, 15, 2, 14, 6, 12, 4, 13, 8, 11, 5, 9, 7, 3, 1]);
makespan = 246;
----------
assign = array1d(1..15 ,[1, 6, 6, 5, 3, 3, 5, 4, 4, 1, 2, 3, 4, 5, 6]);
next = array1d(1..15 ,[10, 15, 2, 14, 6, 12, 4, 13, 8, 11, 5, 9, 7, 3, 1]);
makespan = 245;
----------
assign = array1d(1..15 ,[2, 6, 6, 5, 1, 1, 5, 4, 4, 1, 2, 3, 4, 5, 6]);
next = array1d(1..15 ,[11, 15, 2, 14, 6, 10, 4, 13, 8, 1, 12, 9, 7, 3, 5]);
makespan = 244;
----------
assign = array1d(1..15 ,[2, 6, 6, 5, 1, 1, 5, 4, 4, 1, 2, 3, 4, 5, 6]);
next = array1d(1..15 ,[11, 15, 2, 14, 6, 10, 4, 13, 8, 1, 12, 9, 7, 3, 5]);
makespan = 243;
----------
assign = array1d(1..15 ,[2, 6, 6, 5, 1, 1, 5, 4, 4, 1, 2, 3, 4, 5, 6]);
next = array1d(1..15 ,[11, 15, 2, 14, 6, 10, 4, 13, 8, 1, 12, 9, 7, 3, 5]);
makespan = 242;
----------
assign = array1d(1..15 ,[2, 6, 6, 5, 1, 1, 5, 4, 4, 1, 2, 3, 4, 5, 6]);
next = array1d(1..15 ,[11, 15, 2, 14, 6, 10, 4, 13, 8, 1, 12, 9, 7, 3, 5]);
makespan = 241;
----------
assign = array1d(1..15 ,[2, 6, 6, 5, 1, 1, 5, 4, 4, 1, 2, 3, 4, 5, 6]);
next = array1d(1..15 ,[11, 15, 2, 14, 6, 10, 4, 13, 8, 1, 12, 9, 7, 3, 5]);
makespan = 240;
----------
assign = array1d(1..15 ,[2, 6, 6, 5, 1, 1, 5, 4, 4, 1, 2, 3, 4, 5, 6]);
next = array1d(1..15 ,[11, 15, 2, 14, 6, 10, 4, 13, 8, 1, 12, 9, 7, 3, 5]);
makespan = 239;
----------
assign = array1d(1..15 ,[2, 6, 6, 5, 1, 1, 5, 4, 4, 1, 2, 3, 4, 5, 6]);
next = array1d(1..15 ,[11, 15, 2, 14, 6, 10, 4, 13, 8, 1, 12, 9, 7, 3, 5]);
makespan = 238;
----------
assign = array1d(1..15 ,[2, 6, 6, 5, 1, 1, 5, 4, 4, 1, 2, 3, 4, 5, 6]);
next = array1d(1..15 ,[11, 15, 2, 14, 6, 10, 4, 13, 8, 1, 12, 9, 7, 3, 5]);
makespan = 237;
----------
assign = array1d(1..15 ,[2, 6, 6, 5, 1, 1, 5, 4, 4, 1, 2, 3, 4, 5, 6]);
next = array1d(1..15 ,[11, 15, 2, 14, 6, 10, 4, 13, 8, 1, 12, 9, 7, 3, 5]);
makespan = 236;
----------
assign = array1d(1..15 ,[2, 6, 6, 5, 1, 1, 5, 4, 4, 1, 2, 3, 4, 5, 6]);
next = array1d(1..15 ,[11, 15, 2, 14, 6, 10, 4, 13, 8, 1, 12, 9, 7, 3, 5]);
makespan = 235;
----------
assign = array1d(1..15 ,[2, 6, 6, 5, 1, 1, 5, 4, 4, 1, 2, 3, 4, 5, 6]);
next = array1d(1..15 ,[11, 15, 2, 14, 6, 10, 4, 13, 8, 1, 12, 9, 7, 3, 5]);
makespan = 234;
----------
assign = array1d(1..15 ,[2, 6, 6, 5, 1, 1, 5, 4, 4, 1, 2, 3, 4, 5, 6]);
next = array1d(1..15 ,[11, 15, 2, 14, 6, 10, 4, 13, 8, 1, 12, 9, 7, 3, 5]);
makespan = 233;
----------
assign = array1d(1..15 ,[2, 6, 6, 5, 1, 1, 5, 4, 4, 1, 2, 3, 4, 5, 6]);
next = array1d(1..15 ,[11, 15, 2, 14, 6, 10, 4, 13, 8, 1, 12, 9, 7, 3, 5]);
makespan = 232;
----------
assign = array1d(1..15 ,[5, 6, 6, 5, 1, 1, 3, 4, 4, 1, 2, 3, 4, 5, 6]);
next = array1d(1..15 ,[4, 15, 2, 14, 6, 10, 12, 13, 8, 11, 7, 9, 1, 3, 5]);
makespan = 231;
----------
assign = array1d(1..15 ,[1, 4, 5, 5, 6, 6, 3, 2, 2, 1, 2, 3, 4, 5, 6]);
next = array1d(1..15 ,[10, 13, 14, 3, 6, 15, 12, 11, 8, 9, 7, 2, 4, 5, 1]);
makespan = 229;
----------
assign = array1d(1..15 ,[2, 6, 5, 5, 1, 1, 6, 4, 4, 1, 2, 3, 4, 5, 6]);
next = array1d(1..15 ,[11, 7, 14, 3, 6, 10, 15, 13, 8, 1, 12, 9, 4, 2, 5]);
makespan = 228;
----------
assign = array1d(1..15 ,[2, 4, 4, 5, 6, 6, 2, 1, 1, 1, 2, 3, 4, 5, 6]);
next = array1d(1..15 ,[7, 13, 2, 14, 6, 15, 11, 10, 8, 1, 12, 3, 4, 5, 9]);
makespan = 227;
----------
assign = array1d(1..15 ,[3, 5, 5, 6, 1, 1, 6, 4, 4, 1, 2, 3, 4, 5, 6]);
next = array1d(1..15 ,[12, 14, 2, 15, 6, 10, 4, 13, 8, 11, 1, 9, 3, 7, 5]);
makespan = 226;
----------
assign = array1d(1..15 ,[3, 6, 5, 5, 1, 1, 6, 4, 4, 1, 2, 3, 4, 5, 6]);
next = array1d(1..15 ,[12, 7, 14, 3, 6, 10, 15, 13, 8, 11, 1, 9, 4, 2, 5]);
makespan = 225;
----------
assign = array1d(1..15 ,[3, 6, 5, 5, 1, 1, 6, 4, 4, 1, 2, 3, 4, 5, 6]);
next = array1d(1..15 ,[12, 7, 14, 3, 6, 10, 15, 13, 8, 11, 1, 9, 4, 2, 5]);
makespan = 224;
----------
assign = array1d(1..15 ,[3, 6, 5, 5, 1, 1, 6, 4, 4, 1, 2, 3, 4, 5, 6]);
next = array1d(1..15 ,[12, 7, 4, 14, 6, 10, 15, 13, 8, 11, 1, 9, 3, 2, 5]);
makespan = 223;
----------
assign = array1d(1..15 ,[3, 6, 5, 5, 1, 1, 6, 4, 4, 1, 2, 3, 4, 5, 6]);
next = array1d(1..15 ,[12, 7, 4, 14, 6, 10, 15, 13, 8, 11, 1, 9, 3, 2, 5]);
makespan = 222;
----------
assign = array1d(1..15 ,[3, 6, 5, 5, 1, 1, 6, 4, 4, 1, 2, 3, 4, 5, 6]);
next = array1d(1..15 ,[12, 7, 4, 14, 6, 10, 15, 13, 8, 11, 1, 9, 3, 2, 5]);
makespan = 221;
----------
assign = array1d(1..15 ,[3, 6, 5, 5, 1, 1, 6, 4, 4, 1, 2, 3, 4, 5, 6]);
next = array1d(1..15 ,[12, 7, 4, 14, 6, 10, 15, 13, 8, 11, 1, 9, 3, 2, 5]);
makespan = 220;
----------
assign = array1d(1..15 ,[3, 6, 5, 5, 1, 1, 6, 4, 4, 1, 2, 3, 4, 5, 6]);
next = array1d(1..15 ,[12, 7, 4, 14, 6, 10, 15, 13, 8, 11, 1, 9, 3, 2, 5]);
makespan = 219;
----------
assign = array1d(1..15 ,[5, 6, 5, 3, 1, 1, 6, 4, 4, 1, 2, 3, 4, 5, 6]);
next = array1d(1..15 ,[3, 7, 14, 12, 6, 10, 15, 13, 8, 11, 4, 9, 1, 2, 5]);
makespan = 218;
----------
assign = array1d(1..15 ,[2, 5, 5, 6, 6, 3, 4, 1, 1, 1, 2, 3, 4, 5, 6]);
next = array1d(1..15 ,[11, 14, 2, 5, 15, 12, 13, 10, 8, 1, 6, 7, 3, 4, 9]);
makespan = 217;
----------
assign = array1d(1..15 ,[6, 5, 5, 6, 3, 1, 2, 4, 4, 1, 2, 3, 4, 5, 6]);
next = array1d(1..15 ,[4, 14, 2, 15, 12, 10, 11, 13, 8, 7, 5, 9, 3, 1, 6]);
makespan = 216;
----------
assign = array1d(1..15 ,[3, 3, 5, 6, 6, 4, 5, 2, 2, 1, 2, 3, 4, 5, 6]);
next = array1d(1..15 ,[2, 12, 14, 5, 15, 13, 3, 11, 8, 9, 1, 6, 7, 4, 10]);
makespan = 215;
----------
assign = array1d(1..15 ,[6, 6, 5, 3, 1, 1, 2, 4, 4, 1, 2, 3, 4, 5, 6]);
next = array1d(1..15 ,[15, 1, 14, 12, 6, 10, 11, 13, 8, 7, 4, 9, 3, 2, 5]);
makespan = 214;
----------
assign = array1d(1..15 ,[6, 5, 5, 4, 6, 3, 1, 4, 2, 1, 2, 3, 4, 5, 6]);
next = array1d(1..15 ,[15, 14, 2, 13, 1, 12, 10, 4, 11, 9, 6, 8, 3, 5, 7]);
makespan = 213;
----------
assign = array1d(1..15 ,[2, 1, 3, 5, 1, 6, 4, 6, 5, 1, 2, 3, 4, 5, 6]);
next = array1d(1..15 ,[11, 5, 12, 9, 10, 15, 13, 6, 14, 1, 3, 7, 4, 8, 2]);
makespan = 212;
----------
assign = array1d(1..15 ,[6, 1, 3, 5, 1, 6, 4, 2, 5, 1, 2, 3, 4, 5, 6]);
next = array1d(1..15 ,[6, 5, 12, 9, 10, 15, 13, 11, 14, 8, 3, 7, 4, 1, 2]);
makespan = 211;
----------
assign = array1d(1..15 ,[1, 6, 2, 2, 6, 5, 4, 1, 3, 1, 2, 3, 4, 5, 6]);
next = array1d(1..15 ,[10, 5, 11, 3, 15, 14, 13, 1, 12, 4, 9, 7, 6, 2, 8]);
makespan = 210;
----------
assign = array1d(1..15 ,[4, 1, 5, 6, 6, 3, 1, 4, 5, 1, 2, 3, 4, 5, 6]);
next = array1d(1..15 ,[8, 7, 14, 15, 4, 12, 10, 13, 3, 11, 6, 1, 9, 5, 2]);
makespan = 209;
----------
assign = array1d(1..15 ,[6, 4, 3, 3, 1, 6, 5, 5, 1, 1, 2, 3, 4, 5, 6]);
next = array1d(1..15 ,[15, 13, 12, 3, 9, 1, 14, 7, 10, 11, 4, 2, 8, 6, 5]);
makespan = 208;
----------
assign = array1d(1..15 ,[6, 1, 3, 3, 1, 6, 4, 5, 5, 1, 2, 3, 4, 5, 6]);
next = array1d(1..15 ,[15, 5, 12, 3, 10, 1, 13, 9, 14, 11, 4, 7, 8, 6, 2]);
makespan = 207;
----------
assign = array1d(1..15 ,[6, 2, 5, 4, 3, 6, 1, 2, 5, 1, 2, 3, 4, 5, 6]);
next = array1d(1..15 ,[15, 11, 14, 13, 12, 1, 10, 2, 3, 8, 5, 4, 9, 6, 7]);
makespan = 206;
----------
assign = array1d(1..15 ,[6, 3, 5, 4, 1, 6, 3, 5, 1, 1, 2, 3, 4, 5, 6]);
next = array1d(1..15 ,[15, 7, 14, 13, 10, 1, 12, 3, 5, 11, 2, 4, 8, 6, 9]);
makespan = 205;
----------
assign = array1d(1..15 ,[6, 3, 3, 4, 5, 1, 1, 6, 2, 1, 2, 3, 4, 5, 6]);
next = array1d(1..15 ,[8, 3, 12, 13, 14, 10, 6, 15, 11, 9, 2, 4, 5, 1, 7]);
makespan = 204;
----------
assign = array1d(1..15 ,[1, 6, 1, 2, 4, 3, 6, 5, 5, 1, 2, 3, 4, 5, 6]);
next = array1d(1..15 ,[3, 7, 10, 11, 13, 12, 15, 9, 14, 4, 6, 5, 8, 2, 1]);
makespan = 203;
----------
assign = array1d(1..15 ,[2, 4, 2, 5, 6, 6, 1, 3, 1, 1, 2, 3, 4, 5, 6]);
next = array1d(1..15 ,[3, 13, 11, 14, 6, 15, 10, 12, 7, 1, 8, 2, 4, 5, 9]);
makespan = 202;
----------
assign = array1d(1..15 ,[3, 4, 6, 2, 6, 5, 1, 4, 1, 1, 2, 3, 4, 5, 6]);
next = array1d(1..15 ,[12, 13, 5, 11, 15, 14, 10, 2, 7, 4, 1, 8, 6, 3, 9]);
makespan = 201;
----------
assign = array1d(1..15 ,[4, 6, 5, 3, 6, 2, 1, 5, 1, 1, 2, 3, 4, 5, 6]);
next = array1d(1..15 ,[13, 15, 14, 12, 2, 11, 10, 3, 7, 6, 4, 1, 8, 5, 9]);
makespan = 200;
----------
assign = array1d(1..15 ,[6, 4, 4, 5, 2, 6, 1, 3, 1, 1, 2, 3, 4, 5, 6]);
next = array1d(1..15 ,[15, 3, 13, 14, 11, 1, 10, 12, 7, 5, 8, 2, 4, 6, 9]);
makespan = 199;
----------
assign = array1d(1..15 ,[4, 4, 5, 6, 6, 3, 1, 5, 1, 1, 2, 3, 4, 5, 6]);
next = array1d(1..15 ,[13, 1, 14, 5, 15, 12, 10, 3, 7, 11, 6, 2, 8, 4, 9]);
makespan = 198;
----------
assign = array1d(1..15 ,[6, 1, 2, 3, 6, 1, 4, 2, 5, 1, 2, 3, 4, 5, 6]);
next = array1d(1..15 ,[5, 10, 11, 12, 15, 2, 13, 3, 14, 8, 4, 7, 9, 1, 6]);
makespan = 197;
----------
assign = array1d(1..15 ,[4, 2, 1, 2, 1, 6, 5, 4, 3, 1, 2, 3, 4, 5, 6]);
next = array1d(1..15 ,[13, 11, 10, 2, 3, 15, 14, 1, 12, 4, 9, 8, 7, 6, 5]);
makespan = 196;
----------
assign = array1d(1..15 ,[6, 4, 2, 3, 6, 1, 1, 4, 5, 1, 2, 3, 4, 5, 6]);
next = array1d(1..15 ,[5, 13, 11, 12, 15, 10, 6, 2, 14, 3, 4, 8, 9, 1, 7]);
makespan = 195;
----------
assign = array1d(1..15 ,[3, 2, 5, 2, 1, 6, 4, 5, 1, 1, 2, 3, 4, 5, 6]);
next = array1d(1..15 ,[12, 11, 14, 2, 10, 15, 13, 3, 5, 4, 1, 7, 8, 6, 9]);
makespan = 194;
----------
assign = array1d(1..15 ,[6, 3, 4, 1, 6, 2, 3, 4, 5, 1, 2, 3, 4, 5, 6]);
next = array1d(1..15 ,[5, 12, 8, 10, 15, 11, 2, 13, 14, 6, 7, 3, 9, 1, 4]);
makespan = 193;
----------
assign = array1d(1..15 ,[3, 2, 4, 2, 5, 6, 1, 4, 1, 1, 2, 3, 4, 5, 6]);
next = array1d(1..15 ,[12, 11, 8, 2, 14, 15, 9, 13, 10, 4, 1, 3, 5, 6, 7]);
makespan = 192;
----------
assign = array1d(1..15 ,[3, 2, 4, 2, 1, 6, 5, 4, 1, 1, 2, 3, 4, 5, 6]);
next = array1d(1..15 ,[12, 11, 8, 2, 9, 15, 14, 13, 10, 4, 1, 3, 7, 6, 5]);
makespan = 191;
----------
assign = array1d(1..15 ,[6, 2, 1, 2, 6, 4, 1, 3, 5, 1, 2, 3, 4, 5, 6]);
next = array1d(1..15 ,[5, 11, 10, 2, 15, 13, 3, 12, 14, 4, 8, 6, 9, 1, 7]);
makespan = 190;
----------
assign = array1d(1..15 ,[4, 6, 1, 3, 6, 5, 1, 4, 2, 1, 2, 3, 4, 5, 6]);
next = array1d(1..15 ,[8, 15, 10, 12, 2, 14, 3, 13, 11, 9, 4, 1, 6, 5, 7]);
makespan = 189;
----------
assign = array1d(1..15 ,[4, 6, 1, 2, 6, 3, 1, 4, 5, 1, 2, 3, 4, 5, 6]);
next = array1d(1..15 ,[8, 15, 10, 11, 2, 12, 3, 13, 14, 4, 6, 1, 9, 5, 7]);
makespan = 188;
----------
assign = array1d(1..15 ,[4, 6, 1, 2, 6, 3, 1, 4, 5, 1, 2, 3, 4, 5, 6]);
next = array1d(1..15 ,[13, 15, 10, 11, 2, 12, 3, 1, 14, 4, 6, 8, 9, 5, 7]);
makespan = 187;
----------
assign = array1d(1..15 ,[4, 4, 2, 3, 1, 5, 6, 2, 1, 1, 2, 3, 4, 5, 6]);
next = array1d(1..15 ,[2, 13, 11, 12, 9, 14, 15, 3, 10, 8, 4, 1, 6, 7, 5]);
makespan = 186;
----------
assign = array1d(1..15 ,[4, 4, 2, 6, 1, 5, 3, 2, 1, 1, 2, 3, 4, 5, 6]);
next = array1d(1..15 ,[2, 13, 11, 15, 10, 14, 12, 3, 5, 8, 7, 1, 6, 4, 9]);
makespan = 185;
----------
assign = array1d(1..15 ,[4, 4, 2, 3, 1, 5, 6, 2, 1, 1, 2, 3, 4, 5, 6]);
next = array1d(1..15 ,[2, 13, 11, 12, 9, 14, 15, 3, 10, 8, 4, 1, 6, 7, 5]);
makespan = 184;
----------
assign = array1d(1..15 ,[4, 6, 1, 2, 6, 3, 5, 4, 1, 1, 2, 3, 4, 5, 6]);
next = array1d(1..15 ,[13, 15, 9, 11, 2, 12, 14, 1, 10, 4, 6, 8, 7, 5, 3]);
makespan = 183;
----------
assign = array1d(1..15 ,[4, 4, 2, 3, 1, 6, 5, 2, 1, 1, 2, 3, 4, 5, 6]);
next = array1d(1..15 ,[2, 13, 11, 12, 9, 15, 14, 3, 10, 8, 4, 1, 7, 6, 5]);
makespan = 182;
----------
assign = array1d(1..15 ,[4, 6, 1, 2, 6, 3, 1, 4, 5, 1, 2, 3, 4, 5, 6]);
next = array1d(1..15 ,[13, 15, 10, 11, 2, 12, 3, 1, 14, 4, 6, 8, 9, 5, 7]);
makespan = 181;
----------
assign = array1d(1..15 ,[4, 6, 1, 2, 6, 5, 1, 4, 3, 1, 2, 3, 4, 5, 6]);
next = array1d(1..15 ,[8, 15, 10, 11, 2, 14, 3, 13, 12, 4, 9, 1, 6, 5, 7]);
makespan = 180;
----------
assign = array1d(1..15 ,[4, 6, 1, 2, 6, 5, 1, 4, 3, 1, 2, 3, 4, 5, 6]);
next = array1d(1..15 ,[13, 15, 10, 11, 2, 14, 3, 1, 12, 4, 9, 8, 6, 5, 7]);
makespan = 179;
----------
assign = array1d(1..15 ,[4, 6, 1, 2, 6, 5, 1, 4, 3, 1, 2, 3, 4, 5, 6]);
next = array1d(1..15 ,[13, 15, 10, 11, 2, 14, 3, 1, 12, 4, 9, 8, 6, 5, 7]);
makespan = 178;
----------
==========
	Command being timed: "mzn-chuffed lbbd-datasets/Rabadi-2006/dzn-balanced/model.mzn lbbd-datasets/Rabadi-2006/dzn-balanced/9on6Rp50Rs50_1Ameer.dzn"
	User time (seconds): 0.73
	System time (seconds): 0.01
	Percent of CPU this job got: 34%
	Elapsed (wall clock) time (h:mm:ss or m:ss): 0:02.18
	Average shared text size (kbytes): 0
	Average unshared data size (kbytes): 0
	Average stack size (kbytes): 0
	Average total size (kbytes): 0
	Maximum resident set size (kbytes): 45648
	Average resident set size (kbytes): 0
	Major (requiring I/O) page faults: 0
	Minor (reclaiming a frame) page faults: 4437
	Voluntary context switches: 228
	Involuntary context switches: 4
	Swaps: 0
	File system inputs: 0
	File system outputs: 544
	Socket messages sent: 0
	Socket messages received: 0
	Signals delivered: 0
	Page size (bytes): 4096
	Exit status: 0
