+ /usr/bin/timeout 600 /usr/bin/time -v mzn-chuffed lbbd-datasets/planningandscheduling/cost-insts/model.mzn lbbd-datasets/planningandscheduling/cost-insts/c18j2m2.dzn
% No search annotation given. Defaulting to VSIDS!
obj = 490
----------
obj = 471
----------
obj = 470
----------
obj = 461
----------
obj = 443
----------
obj = 433
----------
obj = 430
----------
obj = 412
----------
obj = 406
----------
obj = 400
----------
obj = 396
----------
obj = 392
----------
obj = 385
----------
obj = 374
----------
obj = 359
----------
obj = 353
----------
==========
	Command being timed: "mzn-chuffed lbbd-datasets/planningandscheduling/cost-insts/model.mzn lbbd-datasets/planningandscheduling/cost-insts/c18j2m2.dzn"
	User time (seconds): 0.12
	System time (seconds): 0.00
	Percent of CPU this job got: 42%
	Elapsed (wall clock) time (h:mm:ss or m:ss): 0:00.30
	Average shared text size (kbytes): 0
	Average unshared data size (kbytes): 0
	Average stack size (kbytes): 0
	Average total size (kbytes): 0
	Maximum resident set size (kbytes): 28160
	Average resident set size (kbytes): 0
	Major (requiring I/O) page faults: 0
	Minor (reclaiming a frame) page faults: 2386
	Voluntary context switches: 22
	Involuntary context switches: 2
	Swaps: 0
	File system inputs: 0
	File system outputs: 64
	Socket messages sent: 0
	Socket messages received: 0
	Signals delivered: 0
	Page size (bytes): 4096
	Exit status: 0
