+ /usr/bin/timeout 600 /usr/bin/time -v mzn-chuffed lbbd-datasets/sscplp/trucks-dzn/model.mzn lbbd-datasets/sscplp/trucks-dzn/p25-l50-c80-correlated.dzn
% No search annotation given. Defaulting to VSIDS!
source = [20, 20, 20, 20, 20, 20, 20, 20, 20, 5, 20, 20, 20, 5, 1, 20, 3, 5, 5, 3, 5, 3, 3, 3, 3, 3, 5, 20, 3, 3, 5, 3, 5, 3, 3, 5, 5, 5, 3, 20]
open = [true, false, true, false, true, false, false, false, false, false, false, false, false, false, false, false, false, false, false, true]
trucks_used = [1, 0, 13, 0, 11, 0, 0, 0, 0, 0, 0, 0, 0, 0, 0, 0, 0, 0, 0, 15]
truck_assigned = [10, 6, 14, 11, 6, 9, 15, 15, 2, 4, 13, 12, 8, 11, 1, 7, 13, 10, 8, 11, 7, 12, 6, 1, 2, 8, 10, 10, 9, 10, 8, 12, 11, 4, 9, 6, 9, 5, 11, 5]
obj = 12766
----------
source = [20, 20, 20, 5, 5, 3, 3, 5, 5, 20, 3, 5, 5, 5, 3, 3, 3, 3, 3, 3, 20, 3, 3, 3, 5, 3, 5, 5, 3, 3, 5, 3, 5, 20, 3, 3, 20, 5, 3, 5]
open = [false, false, true, false, true, false, false, false, false, false, false, false, false, false, false, false, false, false, false, true]
trucks_used = [0, 0, 19, 0, 14, 0, 0, 0, 0, 0, 0, 0, 0, 0, 0, 0, 0, 0, 0, 7]
truck_assigned = [6, 5, 4, 10, 14, 10, 13, 11, 11, 1, 9, 9, 8, 12, 8, 4, 18, 15, 5, 19, 7, 17, 14, 19, 4, 16, 5, 13, 15, 12, 1, 16, 12, 3, 17, 11, 7, 13, 13, 8]
obj = 12082
----------
source = [20, 20, 3, 5, 5, 3, 20, 5, 5, 3, 3, 5, 5, 5, 3, 3, 5, 3, 3, 20, 20, 3, 20, 3, 5, 5, 3, 5, 3, 3, 5, 5, 3, 3, 5, 3, 20, 5, 3, 5]
open = [false, false, true, false, true, false, false, false, false, false, false, false, false, false, false, false, false, false, false, true]
trucks_used = [0, 0, 17, 0, 16, 0, 0, 0, 0, 0, 0, 0, 0, 0, 0, 0, 0, 0, 0, 6]
truck_assigned = [3, 5, 5, 9, 14, 17, 6, 11, 6, 6, 11, 12, 16, 11, 15, 8, 8, 14, 2, 5, 6, 13, 4, 10, 4, 13, 7, 15, 14, 16, 3, 15, 9, 12, 10, 4, 2, 16, 13, 13]
obj = 12063
----------
source = [6, 3, 3, 3, 6, 20, 20, 6, 3, 3, 3, 3, 3, 20, 3, 3, 3, 3, 3, 1, 20, 6, 20, 3, 20, 3, 3, 3, 3, 20, 3, 3, 3, 3, 20, 3, 20, 20, 3, 1]
open = [true, false, true, false, false, true, false, false, false, false, false, false, false, false, false, false, false, false, false, true]
trucks_used = [2, 0, 24, 0, 0, 3, 0, 0, 0, 0, 0, 0, 0, 0, 0, 0, 0, 0, 0, 8]
truck_assigned = [3, 9, 18, 15, 1, 6, 5, 2, 13, 20, 21, 19, 14, 3, 16, 12, 6, 24, 13, 2, 2, 2, 4, 11, 7, 24, 22, 15, 10, 8, 22, 17, 10, 23, 1, 17, 2, 5, 19, 1]
obj = 12033
----------
source = [3, 6, 3, 3, 20, 20, 20, 6, 3, 6, 3, 20, 3, 20, 3, 3, 3, 3, 3, 1, 20, 1, 20, 3, 3, 3, 6, 3, 3, 20, 3, 20, 3, 3, 20, 3, 20, 20, 3, 6]
open = [true, false, true, false, false, true, false, false, false, false, false, false, false, false, false, false, false, false, false, true]
trucks_used = [2, 0, 21, 0, 0, 5, 0, 0, 0, 0, 0, 0, 0, 0, 0, 0, 0, 0, 0, 12]
truck_assigned = [9, 4, 15, 16, 7, 11, 12, 3, 21, 2, 11, 5, 14, 10, 10, 19, 18, 7, 8, 1, 7, 2, 8, 13, 20, 7, 5, 21, 6, 6, 13, 10, 3, 12, 12, 17, 9, 9, 20, 5]
obj = 12023
----------
source = [3, 6, 6, 6, 20, 3, 3, 6, 3, 20, 3, 3, 3, 20, 3, 6, 3, 3, 3, 20, 20, 15, 20, 3, 20, 3, 6, 3, 15, 20, 3, 3, 3, 3, 15, 3, 3, 3, 3, 6]
open = [false, false, true, false, false, true, false, false, false, false, false, false, false, false, true, false, false, false, false, true]
trucks_used = [0, 0, 21, 0, 0, 7, 0, 0, 0, 0, 0, 0, 0, 0, 2, 0, 0, 0, 0, 7]
truck_assigned = [21, 6, 5, 6, 5, 19, 11, 5, 20, 4, 18, 21, 12, 1, 13, 4, 7, 15, 20, 3, 5, 2, 2, 14, 7, 15, 7, 8, 1, 6, 19, 16, 10, 17, 2, 16, 9, 5, 11, 7]
obj = 11964
----------
source = [19, 17, 1, 3, 17, 3, 3, 6, 3, 1, 3, 3, 3, 6, 3, 3, 3, 3, 19, 6, 19, 3, 19, 3, 19, 3, 17, 3, 3, 6, 3, 3, 3, 3, 3, 3, 3, 3, 3, 19]
open = [true, false, true, false, false, true, false, false, false, false, false, false, false, false, false, false, true, false, true, false]
trucks_used = [2, 0, 25, 0, 0, 2, 0, 0, 0, 0, 0, 0, 0, 0, 0, 0, 3, 0, 5, 0]
truck_assigned = [4, 3, 2, 16, 1, 9, 21, 2, 7, 1, 23, 24, 20, 1, 18, 11, 14, 21, 5, 2, 5, 16, 4, 24, 1, 19, 2, 19, 15, 1, 20, 25, 15, 22, 4, 25, 17, 12, 13, 3]
obj = 11951
----------
source = [19, 17, 19, 1, 19, 19, 3, 6, 3, 1, 19, 3, 3, 3, 17, 3, 3, 6, 3, 6, 19, 3, 1, 17, 19, 17, 3, 3, 3, 3, 3, 3, 3, 3, 17, 3, 17, 3, 3, 3]
open = [true, false, true, false, false, true, false, false, false, false, false, false, false, false, false, false, true, false, true, false]
trucks_used = [3, 0, 21, 0, 0, 2, 0, 0, 0, 0, 0, 0, 0, 0, 0, 0, 6, 0, 7, 0]
truck_assigned = [5, 4, 7, 3, 4, 4, 2, 1, 18, 3, 1, 21, 7, 14, 2, 15, 16, 2, 19, 1, 7, 20, 2, 6, 6, 3, 6, 11, 19, 12, 15, 14, 18, 13, 3, 21, 5, 17, 20, 4]
obj = 11941
----------
source = [19, 17, 2, 3, 19, 17, 3, 2, 3, 19, 17, 3, 3, 3, 3, 3, 3, 17, 3, 2, 2, 3, 2, 17, 2, 3, 3, 3, 3, 3, 3, 3, 3, 3, 17, 3, 2, 3, 3, 19]
open = [false, true, true, false, false, false, false, false, false, false, false, false, false, false, false, false, true, false, true, false]
trucks_used = [0, 7, 23, 0, 0, 0, 0, 0, 0, 0, 0, 0, 0, 0, 0, 0, 6, 0, 4, 0]
truck_assigned = [1, 5, 5, 9, 2, 3, 18, 7, 19, 3, 2, 23, 7, 18, 12, 16, 15, 1, 20, 7, 5, 22, 4, 6, 6, 11, 17, 21, 20, 13, 17, 19, 21, 5, 4, 23, 6, 14, 22, 4]
obj = 11779
----------
source = [3, 3, 2, 3, 17, 3, 3, 2, 3, 17, 19, 3, 17, 3, 3, 3, 3, 19, 2, 19, 2, 19, 2, 3, 2, 3, 3, 3, 19, 3, 3, 3, 19, 2, 19, 2, 3, 3, 3, 19]
open = [false, true, true, false, false, false, false, false, false, false, false, false, false, false, false, false, true, false, true, false]
trucks_used = [0, 7, 21, 0, 0, 0, 0, 0, 0, 0, 0, 0, 0, 0, 0, 0, 3, 0, 6, 0]
truck_assigned = [13, 16, 7, 6, 1, 10, 21, 5, 17, 3, 4, 14, 3, 21, 12, 18, 19, 5, 4, 6, 6, 3, 6, 14, 3, 11, 20, 17, 2, 1, 20, 11, 1, 4, 6, 7, 4, 15, 3, 4]
obj = 11733
----------
source = [3, 3, 19, 3, 2, 3, 3, 19, 3, 10, 19, 3, 19, 2, 3, 19, 3, 15, 19, 19, 2, 3, 2, 3, 3, 3, 3, 3, 1, 3, 15, 3, 15, 2, 1, 19, 3, 3, 3, 19]
open = [true, true, true, false, false, false, false, false, false, true, false, false, false, false, true, false, false, false, true, false]
trucks_used = [2, 3, 20, 0, 0, 0, 0, 0, 0, 1, 0, 0, 0, 0, 2, 0, 0, 0, 6, 0]
truck_assigned = [14, 18, 4, 4, 3, 10, 12, 1, 20, 1, 6, 19, 3, 2, 11, 5, 15, 1, 3, 6, 1, 9, 1, 19, 3, 12, 8, 20, 2, 13, 1, 9, 2, 3, 1, 6, 16, 17, 7, 4]
obj = 11703
----------
source = [3, 3, 2, 3, 2, 3, 3, 1, 3, 19, 19, 19, 3, 2, 3, 19, 3, 19, 19, 19, 2, 19, 2, 3, 3, 3, 3, 3, 19, 3, 3, 3, 3, 2, 19, 19, 3, 3, 19, 15]
open = [true, true, true, false, false, false, false, false, false, false, false, false, false, false, true, false, false, false, true, false]
trucks_used = [1, 5, 20, 0, 0, 0, 0, 0, 0, 0, 0, 0, 0, 0, 1, 0, 0, 0, 12, 0]
truck_assigned = [18, 12, 2, 7, 5, 16, 10, 1, 13, 10, 8, 8, 4, 3, 19, 11, 14, 12, 7, 7, 4, 9, 4, 15, 10, 17, 8, 6, 6, 20, 18, 17, 13, 5, 5, 10, 9, 11, 3, 1]
obj = 11660
----------
source = [2, 3, 2, 3, 2, 3, 3, 2, 3, 19, 3, 19, 10, 3, 10, 3, 3, 2, 19, 19, 2, 19, 3, 10, 3, 19, 3, 3, 19, 3, 19, 10, 3, 2, 19, 19, 3, 3, 19, 19]
open = [false, true, true, false, false, false, false, false, false, true, false, false, false, false, false, false, false, false, true, false]
trucks_used = [0, 7, 17, 0, 0, 0, 0, 0, 0, 4, 0, 0, 0, 0, 0, 0, 0, 0, 12, 0]
truck_assigned = [6, 10, 7, 13, 6, 8, 14, 4, 17, 12, 16, 10, 2, 1, 4, 7, 5, 5, 8, 9, 3, 5, 9, 1, 14, 7, 11, 6, 11, 4, 10, 3, 17, 7, 8, 12, 12, 15, 9, 6]
obj = 11314
----------
source = [15, 3, 3, 19, 3, 3, 2, 2, 19, 19, 3, 19, 19, 2, 2, 3, 3, 3, 19, 19, 2, 2, 3, 19, 3, 19, 2, 3, 19, 3, 19, 19, 3, 2, 2, 19, 3, 3, 19, 19]
open = [false, true, true, false, false, false, false, false, false, false, false, false, false, false, true, false, false, false, true, false]
trucks_used = [0, 9, 15, 0, 0, 0, 0, 0, 0, 0, 0, 0, 0, 0, 1, 0, 0, 0, 15, 0]
truck_assigned = [1, 6, 10, 10, 12, 13, 5, 3, 4, 15, 4, 11, 10, 4, 8, 8, 7, 9, 9, 12, 2, 7, 3, 14, 14, 12, 9, 14, 13, 11, 12, 8, 9, 9, 6, 15, 15, 5, 9, 14]
obj = 11259
----------
source = [15, 3, 3, 19, 2, 19, 2, 2, 3, 2, 3, 19, 19, 2, 19, 3, 3, 3, 3, 19, 2, 3, 3, 2, 3, 19, 3, 19, 19, 19, 3, 3, 3, 19, 19, 2, 3, 3, 19, 19]
open = [false, true, true, false, false, false, false, false, false, false, false, false, false, false, true, false, false, false, true, false]
trucks_used = [0, 8, 17, 0, 0, 0, 0, 0, 0, 0, 0, 0, 0, 0, 1, 0, 0, 0, 14, 0]
truck_assigned = [1, 7, 13, 10, 4, 8, 8, 6, 2, 7, 15, 5, 10, 5, 9, 14, 12, 5, 6, 7, 7, 17, 16, 3, 11, 11, 8, 11, 12, 7, 14, 17, 11, 14, 8, 4, 9, 10, 14, 13]
obj = 11227
----------
source = [2, 3, 3, 19, 2, 19, 3, 2, 3, 2, 3, 19, 19, 2, 19, 3, 3, 3, 3, 19, 1, 3, 2, 19, 3, 19, 3, 19, 19, 19, 3, 19, 3, 3, 19, 19, 3, 3, 3, 19]
open = [true, true, true, false, false, false, false, false, false, false, false, false, false, false, false, false, false, false, true, false]
trucks_used = [1, 6, 18, 0, 0, 0, 0, 0, 0, 0, 0, 0, 0, 0, 0, 0, 0, 0, 15, 0]
truck_assigned = [2, 13, 18, 15, 5, 9, 15, 4, 11, 4, 17, 11, 15, 6, 14, 14, 7, 8, 11, 13, 1, 8, 5, 11, 16, 12, 9, 12, 6, 13, 16, 8, 15, 10, 9, 5, 12, 6, 4, 10]
obj = 10955
----------
source = [2, 2, 19, 2, 2, 3, 19, 19, 3, 19, 3, 3, 2, 19, 2, 3, 3, 3, 3, 3, 1, 3, 2, 3, 2, 19, 3, 2, 2, 19, 3, 2, 3, 3, 3, 19, 3, 3, 3, 2]
open = [true, true, true, false, false, false, false, false, false, false, false, false, false, false, false, false, false, false, true, false]
trucks_used = [1, 12, 19, 0, 0, 0, 0, 0, 0, 0, 0, 0, 0, 0, 0, 0, 0, 0, 8, 0]
truck_assigned = [12, 12, 7, 11, 8, 10, 8, 5, 13, 6, 11, 14, 8, 3, 10, 8, 16, 18, 13, 7, 1, 18, 9, 14, 3, 8, 12, 9, 6, 7, 17, 7, 9, 15, 2, 5, 17, 19, 2, 3]
obj = 10897
----------
source = [1, 2, 19, 19, 3, 3, 19, 19, 3, 19, 3, 3, 3, 2, 2, 3, 3, 19, 3, 3, 3, 3, 2, 3, 2, 19, 2, 3, 2, 19, 3, 3, 19, 3, 3, 2, 3, 19, 3, 2]
open = [true, true, true, false, false, false, false, false, false, false, false, false, false, false, false, false, false, false, true, false]
trucks_used = [1, 9, 20, 0, 0, 0, 0, 0, 0, 0, 0, 0, 0, 0, 0, 0, 0, 0, 10, 0]
truck_assigned = [1, 6, 9, 6, 10, 4, 10, 9, 16, 6, 11, 17, 17, 4, 3, 12, 14, 7, 19, 20, 13, 19, 7, 15, 5, 10, 8, 6, 9, 8, 15, 10, 5, 18, 16, 8, 20, 2, 13, 7]
obj = 10799
----------
source = [15, 2, 19, 3, 19, 3, 2, 19, 3, 2, 2, 3, 3, 2, 2, 3, 3, 2, 2, 19, 3, 3, 3, 3, 2, 3, 3, 3, 19, 3, 3, 3, 2, 3, 3, 3, 19, 2, 3, 3]
open = [false, true, true, false, false, false, false, false, false, false, false, false, false, false, true, false, false, false, true, false]
trucks_used = [0, 10, 22, 0, 0, 0, 0, 0, 0, 0, 0, 0, 0, 0, 1, 0, 0, 0, 4, 0]
truck_assigned = [1, 8, 3, 20, 2, 14, 3, 3, 17, 9, 8, 18, 18, 6, 7, 13, 16, 4, 10, 1, 22, 22, 19, 8, 10, 17, 11, 21, 4, 9, 22, 12, 9, 15, 20, 12, 2, 5, 21, 5]
obj = 10790
----------
source = [2, 2, 3, 3, 19, 3, 3, 19, 3, 2, 2, 3, 3, 3, 2, 3, 3, 10, 3, 19, 2, 2, 3, 3, 19, 3, 10, 3, 3, 1, 3, 3, 3, 3, 3, 3, 19, 2, 3, 2]
open = [true, true, true, false, false, false, false, false, false, true, false, false, false, false, false, false, false, false, true, false]
trucks_used = [1, 5, 22, 0, 0, 0, 0, 0, 0, 1, 0, 0, 0, 0, 0, 0, 0, 0, 3, 0]
truck_assigned = [5, 1, 12, 14, 2, 21, 14, 3, 10, 4, 1, 21, 18, 2, 2, 11, 16, 1, 8, 3, 4, 3, 19, 13, 1, 20, 1, 10, 1, 1, 18, 15, 20, 17, 22, 15, 2, 3, 22, 5]
obj = 10768
----------
source = [2, 3, 3, 3, 19, 3, 3, 19, 3, 2, 3, 3, 3, 1, 2, 3, 3, 3, 3, 2, 2, 2, 19, 3, 19, 3, 3, 3, 3, 19, 3, 3, 3, 3, 3, 3, 19, 2, 3, 2]
open = [true, true, true, false, false, false, false, false, false, false, false, false, false, false, false, false, false, false, true, false]
trucks_used = [1, 8, 25, 0, 0, 0, 0, 0, 0, 0, 0, 0, 0, 0, 0, 0, 0, 0, 5, 0]
truck_assigned = [7, 10, 15, 21, 1, 20, 21, 4, 14, 8, 22, 24, 24, 1, 5, 17, 23, 4, 14, 3, 7, 8, 3, 18, 5, 11, 6, 25, 12, 2, 25, 19, 12, 16, 25, 19, 3, 6, 13, 6]
obj = 10726
----------
source = [19, 3, 2, 3, 2, 3, 3, 2, 3, 19, 3, 3, 3, 19, 3, 3, 3, 1, 2, 19, 2, 3, 3, 3, 19, 3, 3, 3, 3, 2, 3, 3, 3, 19, 3, 3, 2, 3, 3, 2]
open = [true, true, true, false, false, false, false, false, false, false, false, false, false, false, false, false, false, false, true, false]
trucks_used = [1, 8, 25, 0, 0, 0, 0, 0, 0, 0, 0, 0, 0, 0, 0, 0, 0, 0, 4, 0]
truck_assigned = [3, 16, 5, 13, 7, 24, 20, 8, 18, 1, 23, 24, 14, 2, 11, 25, 17, 1, 7, 3, 5, 4, 12, 21, 4, 18, 19, 4, 10, 6, 5, 22, 9, 1, 13, 22, 4, 15, 20, 6]
obj = 10725
----------
source = [19, 3, 19, 3, 3, 3, 19, 20, 20, 3, 3, 3, 19, 19, 20, 20, 19, 20, 3, 20, 20, 19, 19, 20, 3, 19, 3, 20, 20, 3, 20, 20, 20, 3, 20, 3, 20, 3, 20, 3]
open = [false, false, true, false, false, false, false, false, false, false, false, false, false, false, false, false, false, false, true, true]
trucks_used = [0, 0, 12, 0, 0, 0, 0, 0, 0, 0, 0, 0, 0, 0, 0, 0, 0, 0, 6, 12]
truck_assigned = [5, 12, 6, 8, 3, 4, 6, 2, 11, 5, 11, 9, 5, 3, 6, 8, 2, 9, 9, 12, 7, 1, 4, 10, 8, 4, 10, 4, 10, 6, 12, 11, 6, 2, 4, 7, 7, 1, 5, 7]
obj = 10672
----------
source = [19, 20, 19, 19, 3, 19, 19, 20, 10, 3, 19, 3, 19, 3, 20, 20, 19, 20, 19, 3, 20, 20, 19, 19, 3, 19, 3, 20, 20, 20, 3, 10, 20, 3, 20, 3, 20, 3, 20, 3]
open = [false, false, true, false, false, false, false, false, false, true, false, false, false, false, false, false, false, false, true, true]
trucks_used = [0, 0, 7, 0, 0, 0, 0, 0, 0, 2, 0, 0, 0, 0, 0, 0, 0, 0, 5, 10]
truck_assigned = [5, 4, 2, 5, 6, 2, 1, 9, 2, 4, 2, 5, 3, 6, 7, 2, 4, 5, 3, 7, 10, 3, 1, 3, 7, 4, 1, 6, 9, 1, 4, 1, 7, 2, 6, 5, 10, 3, 8, 7]
obj = 10667
----------
source = [19, 20, 19, 3, 3, 19, 19, 20, 20, 3, 19, 3, 19, 3, 20, 20, 3, 20, 19, 3, 20, 20, 19, 19, 3, 20, 3, 3, 20, 20, 3, 19, 20, 3, 19, 3, 20, 3, 3, 3]
open = [false, false, true, false, false, false, false, false, false, false, false, false, false, false, false, false, false, false, true, true]
trucks_used = [0, 0, 16, 0, 0, 0, 0, 0, 0, 0, 0, 0, 0, 0, 0, 0, 0, 0, 6, 10]
truck_assigned = [1, 4, 6, 10, 15, 6, 4, 7, 5, 12, 6, 8, 5, 10, 6, 8, 13, 1, 5, 16, 5, 9, 4, 5, 8, 6, 11, 7, 7, 10, 12, 2, 2, 14, 3, 16, 3, 9, 6, 15]
obj = 10656
----------
source = [20, 2, 2, 3, 3, 2, 20, 20, 2, 2, 3, 3, 3, 3, 20, 2, 3, 3, 2, 3, 20, 20, 2, 3, 3, 20, 2, 3, 20, 20, 3, 3, 2, 3, 2, 3, 20, 3, 20, 3]
open = [false, true, true, false, false, false, false, false, false, false, false, false, false, false, false, false, false, false, false, true]
trucks_used = [0, 6, 18, 0, 0, 0, 0, 0, 0, 0, 0, 0, 0, 0, 0, 0, 0, 0, 0, 7]
truck_assigned = [7, 6, 4, 11, 16, 2, 3, 3, 4, 5, 7, 17, 12, 17, 6, 1, 14, 18, 2, 18, 4, 5, 5, 4, 10, 6, 5, 16, 7, 2, 15, 11, 3, 8, 1, 15, 4, 13, 1, 17]
obj = 10651
----------
source = [20, 20, 19, 3, 3, 19, 20, 19, 3, 20, 19, 3, 3, 20, 19, 3, 3, 3, 3, 3, 20, 19, 19, 19, 3, 3, 20, 3, 20, 20, 3, 3, 20, 19, 3, 3, 3, 3, 3, 3]
open = [false, false, true, false, false, false, false, false, false, false, false, false, false, false, false, false, false, false, true, true]
trucks_used = [0, 0, 21, 0, 0, 0, 0, 0, 0, 0, 0, 0, 0, 0, 0, 0, 0, 0, 5, 6]
truck_assigned = [2, 3, 5, 14, 18, 5, 2, 1, 12, 1, 5, 18, 17, 6, 4, 21, 15, 20, 10, 20, 3, 3, 2, 1, 11, 7, 6, 16, 5, 4, 17, 14, 5, 2, 12, 16, 13, 19, 6, 21]
obj = 10617
----------
source = [20, 20, 19, 3, 20, 19, 3, 19, 3, 20, 19, 3, 19, 20, 19, 3, 3, 3, 3, 20, 20, 19, 19, 19, 3, 3, 20, 3, 3, 3, 3, 3, 3, 19, 3, 3, 3, 3, 3, 3]
open = [false, false, true, false, false, false, false, false, false, false, false, false, false, false, false, false, false, false, true, true]
trucks_used = [0, 0, 22, 0, 0, 0, 0, 0, 0, 0, 0, 0, 0, 0, 0, 0, 0, 0, 7, 5]
truck_assigned = [5, 3, 5, 19, 4, 7, 14, 5, 20, 2, 7, 17, 2, 1, 6, 22, 16, 13, 15, 5, 4, 4, 3, 7, 20, 4, 3, 19, 12, 18, 2, 21, 13, 3, 15, 21, 17, 11, 14, 22]
obj = 10612
----------
source = [2, 19, 19, 3, 2, 3, 3, 2, 3, 2, 19, 3, 3, 19, 3, 3, 3, 3, 3, 1, 2, 19, 19, 19, 2, 3, 19, 3, 3, 3, 3, 3, 3, 19, 3, 3, 3, 3, 3, 3]
open = [true, true, true, false, false, false, false, false, false, false, false, false, false, false, false, false, false, false, true, false]
trucks_used = [1, 6, 24, 0, 0, 0, 0, 0, 0, 0, 0, 0, 0, 0, 0, 0, 0, 0, 9, 0]
truck_assigned = [5, 3, 7, 20, 4, 12, 15, 6, 3, 6, 9, 12, 11, 5, 19, 16, 21, 15, 17, 1, 2, 6, 9, 9, 5, 18, 8, 13, 17, 22, 16, 24, 18, 8, 20, 13, 23, 14, 24, 23]
obj = 10594
----------
source = [3, 3, 3, 19, 3, 3, 19, 2, 19, 1, 2, 2, 19, 2, 19, 19, 19, 19, 19, 3, 3, 2, 2, 2, 2, 19, 2, 19, 19, 2, 19, 19, 3, 19, 3, 3, 19, 19, 19, 3]
open = [true, true, true, false, false, false, false, false, false, false, false, false, false, false, false, false, false, false, true, false]
trucks_used = [1, 9, 11, 0, 0, 0, 0, 0, 0, 0, 0, 0, 0, 0, 0, 0, 0, 0, 18, 0]
truck_assigned = [9, 5, 8, 15, 7, 6, 15, 9, 12, 1, 2, 9, 9, 7, 17, 11, 5, 13, 16, 7, 11, 4, 6, 8, 6, 9, 8, 1, 14, 1, 16, 18, 10, 10, 10, 11, 10, 16, 4, 9]
obj = 10582
----------
source = [1, 3, 3, 2, 3, 19, 19, 2, 19, 3, 2, 2, 2, 2, 2, 19, 2, 19, 2, 3, 3, 19, 2, 2, 2, 19, 2, 19, 19, 3, 2, 3, 3, 19, 3, 1, 19, 3, 19, 3]
open = [true, true, true, false, false, false, false, false, false, false, false, false, false, false, false, false, false, false, true, false]
trucks_used = [1, 14, 12, 0, 0, 0, 0, 0, 0, 0, 0, 0, 0, 0, 0, 0, 0, 0, 11, 0]
truck_assigned = [1, 8, 10, 11, 9, 9, 9, 12, 2, 11, 12, 13, 13, 14, 4, 5, 10, 10, 8, 6, 12, 7, 10, 9, 8, 4, 9, 6, 11, 5, 7, 9, 3, 8, 12, 1, 6, 7, 8, 11]
obj = 10579
----------
source = [1, 19, 2, 19, 3, 2, 3, 3, 19, 3, 19, 2, 19, 3, 19, 19, 2, 19, 2, 3, 3, 2, 2, 2, 2, 19, 2, 19, 19, 19, 2, 19, 19, 2, 2, 2, 3, 19, 2, 19]
open = [true, true, true, false, false, false, false, false, false, false, false, false, false, false, false, false, false, false, true, false]
trucks_used = [1, 15, 8, 0, 0, 0, 0, 0, 0, 0, 0, 0, 0, 0, 0, 0, 0, 0, 16, 0]
truck_assigned = [1, 9, 10, 6, 6, 13, 8, 8, 14, 5, 12, 14, 8, 6, 11, 5, 14, 16, 15, 7, 2, 8, 12, 11, 15, 15, 14, 15, 7, 10, 12, 13, 4, 10, 13, 5, 7, 8, 9, 12]
obj = 10570
----------
source = [3, 19, 3, 19, 3, 3, 3, 3, 2, 19, 2, 2, 19, 2, 19, 19, 2, 2, 3, 10, 2, 2, 19, 2, 3, 19, 2, 19, 19, 2, 3, 2, 19, 3, 2, 2, 3, 19, 2, 19]
open = [false, true, true, false, false, false, false, false, false, true, false, false, false, false, false, false, false, false, true, false]
trucks_used = [0, 15, 7, 0, 0, 0, 0, 0, 0, 1, 0, 0, 0, 0, 0, 0, 0, 0, 11, 0]
truck_assigned = [3, 9, 7, 10, 4, 5, 4, 5, 14, 10, 12, 13, 11, 8, 4, 5, 12, 10, 2, 1, 2, 9, 6, 13, 2, 3, 12, 11, 7, 14, 3, 15, 8, 6, 1, 1, 1, 6, 11, 2]
obj = 10568
----------
source = [20, 19, 20, 19, 20, 2, 1, 20, 19, 1, 2, 2, 2, 2, 19, 19, 2, 2, 2, 20, 2, 2, 19, 2, 20, 19, 2, 19, 19, 20, 19, 19, 19, 19, 2, 2, 20, 19, 2, 19]
open = [true, true, false, false, false, false, false, false, false, false, false, false, false, false, false, false, false, false, true, true]
trucks_used = [1, 15, 0, 0, 0, 0, 0, 0, 0, 0, 0, 0, 0, 0, 0, 0, 0, 0, 15, 6]
truck_assigned = [5, 10, 1, 15, 5, 10, 1, 2, 11, 1, 12, 7, 10, 11, 7, 8, 13, 15, 9, 4, 13, 12, 9, 5, 3, 15, 14, 5, 12, 6, 13, 6, 14, 1, 3, 6, 4, 9, 14, 13]
obj = 10502
----------
source = [13, 19, 2, 19, 13, 2, 2, 13, 19, 13, 2, 19, 2, 2, 2, 19, 19, 2, 2, 2, 13, 13, 19, 2, 13, 19, 19, 19, 19, 13, 19, 19, 2, 19, 2, 13, 13, 19, 19, 19]
open = [false, true, false, false, false, false, false, false, false, false, false, false, true, false, false, false, false, false, true, false]
trucks_used = [0, 13, 0, 0, 0, 0, 0, 0, 0, 0, 0, 0, 8, 0, 0, 0, 0, 0, 17, 0]
truck_assigned = [4, 17, 13, 13, 8, 13, 12, 3, 16, 3, 12, 11, 10, 6, 2, 12, 6, 11, 10, 9, 6, 7, 13, 4, 8, 5, 10, 10, 15, 1, 17, 9, 9, 8, 8, 5, 2, 7, 8, 14]
obj = 10493
----------
source = [15, 1, 2, 2, 19, 2, 2, 13, 19, 13, 19, 19, 2, 13, 1, 2, 2, 2, 2, 2, 13, 19, 19, 2, 13, 19, 2, 2, 1, 13, 19, 13, 2, 2, 2, 19, 19, 19, 2, 13]
open = [true, true, false, false, false, false, false, false, false, false, false, false, true, false, true, false, false, false, true, false]
trucks_used = [2, 16, 0, 0, 0, 0, 0, 0, 0, 0, 0, 0, 4, 0, 1, 0, 0, 0, 6, 0]
truck_assigned = [1, 1, 12, 1, 4, 13, 16, 2, 2, 1, 5, 5, 11, 1, 2, 13, 14, 9, 10, 12, 3, 1, 3, 8, 4, 3, 15, 10, 2, 2, 6, 4, 7, 14, 11, 6, 4, 6, 15, 3]
obj = 10485
----------
source = [13, 2, 2, 2, 19, 13, 13, 13, 19, 13, 19, 19, 2, 13, 13, 2, 2, 2, 2, 2, 13, 19, 19, 13, 2, 19, 13, 2, 13, 13, 2, 2, 2, 2, 2, 19, 19, 19, 2, 13]
open = [false, true, false, false, false, false, false, false, false, false, false, false, true, false, false, false, false, false, true, false]
trucks_used = [0, 17, 0, 0, 0, 0, 0, 0, 0, 0, 0, 0, 13, 0, 0, 0, 0, 0, 10, 0]
truck_assigned = [11, 9, 14, 12, 10, 13, 7, 13, 8, 9, 9, 9, 15, 12, 10, 14, 10, 13, 17, 16, 8, 5, 6, 1, 10, 6, 9, 11, 12, 6, 6, 2, 16, 15, 17, 10, 7, 7, 11, 8]
obj = 10337
----------
source = [13, 2, 19, 2, 2, 13, 13, 13, 19, 13, 19, 13, 13, 13, 13, 2, 2, 19, 2, 2, 13, 19, 2, 13, 19, 2, 19, 13, 13, 13, 2, 13, 19, 2, 19, 19, 2, 2, 13, 13]
open = [false, true, false, false, false, false, false, false, false, false, false, false, true, false, false, false, false, false, true, false]
trucks_used = [0, 11, 0, 0, 0, 0, 0, 0, 0, 0, 0, 0, 17, 0, 0, 0, 0, 0, 9, 0]
truck_assigned = [7, 11, 5, 7, 9, 17, 11, 17, 7, 16, 5, 15, 12, 16, 10, 1, 9, 9, 10, 10, 8, 6, 4, 14, 3, 8, 5, 9, 13, 13, 6, 12, 4, 3, 8, 8, 4, 2, 6, 15]
obj = 10299
----------
