+ /usr/bin/timeout 600 /usr/bin/time -v mzn-chuffed lbbd-datasets/Rabadi-2006/dzn-balanced/model.mzn lbbd-datasets/Rabadi-2006/dzn-balanced/8on2Rp50Rs50_15Ameer.dzn
% No search annotation given. Defaulting to VSIDS!
assign = array1d(1..10 ,[2, 2, 2, 2, 2, 2, 2, 2, 1, 2]);
next = array1d(1..10 ,[2, 3, 4, 5, 6, 7, 8, 10, 1, 9]);
makespan = 1127;
----------
assign = array1d(1..10 ,[2, 2, 2, 2, 2, 2, 2, 2, 1, 2]);
next = array1d(1..10 ,[2, 4, 5, 3, 6, 7, 8, 10, 1, 9]);
makespan = 1120;
----------
assign = array1d(1..10 ,[2, 2, 2, 2, 2, 2, 1, 2, 1, 2]);
next = array1d(1..10 ,[6, 4, 2, 10, 8, 5, 9, 3, 1, 7]);
makespan = 1060;
----------
assign = array1d(1..10 ,[2, 2, 2, 2, 2, 2, 1, 2, 1, 2]);
next = array1d(1..10 ,[6, 8, 1, 10, 4, 5, 9, 3, 2, 7]);
makespan = 1049;
----------
assign = array1d(1..10 ,[2, 2, 2, 2, 2, 2, 1, 2, 1, 2]);
next = array1d(1..10 ,[10, 1, 2, 3, 4, 5, 9, 6, 8, 7]);
makespan = 1041;
----------
assign = array1d(1..10 ,[2, 2, 2, 2, 2, 2, 1, 2, 1, 2]);
next = array1d(1..10 ,[4, 8, 5, 2, 1, 10, 9, 6, 3, 7]);
makespan = 1038;
----------
assign = array1d(1..10 ,[2, 2, 2, 2, 2, 2, 1, 2, 1, 2]);
next = array1d(1..10 ,[3, 8, 2, 6, 10, 1, 9, 5, 4, 7]);
makespan = 1037;
----------
assign = array1d(1..10 ,[2, 2, 2, 2, 2, 1, 2, 2, 1, 2]);
next = array1d(1..10 ,[4, 7, 2, 5, 3, 9, 10, 1, 8, 6]);
makespan = 1036;
----------
assign = array1d(1..10 ,[2, 2, 2, 2, 2, 2, 1, 2, 1, 2]);
next = array1d(1..10 ,[5, 10, 4, 2, 8, 1, 9, 3, 6, 7]);
makespan = 1035;
----------
assign = array1d(1..10 ,[2, 2, 2, 2, 2, 2, 1, 2, 1, 2]);
next = array1d(1..10 ,[8, 10, 2, 3, 4, 1, 9, 5, 6, 7]);
makespan = 1034;
----------
assign = array1d(1..10 ,[2, 2, 2, 1, 2, 2, 2, 2, 1, 2]);
next = array1d(1..10 ,[6, 8, 7, 9, 1, 2, 5, 10, 3, 4]);
makespan = 1018;
----------
assign = array1d(1..10 ,[2, 2, 2, 2, 2, 1, 2, 2, 1, 2]);
next = array1d(1..10 ,[10, 8, 7, 3, 1, 9, 5, 4, 2, 6]);
makespan = 1010;
----------
assign = array1d(1..10 ,[2, 2, 2, 2, 2, 1, 2, 2, 1, 2]);
next = array1d(1..10 ,[10, 8, 7, 3, 1, 9, 5, 4, 2, 6]);
makespan = 1008;
----------
assign = array1d(1..10 ,[2, 2, 2, 2, 2, 1, 2, 2, 1, 2]);
next = array1d(1..10 ,[10, 8, 7, 3, 1, 9, 5, 4, 2, 6]);
makespan = 1003;
----------
assign = array1d(1..10 ,[2, 2, 2, 2, 2, 1, 2, 2, 1, 2]);
next = array1d(1..10 ,[10, 8, 7, 3, 1, 9, 5, 4, 2, 6]);
makespan = 997;
----------
assign = array1d(1..10 ,[2, 2, 2, 2, 2, 1, 2, 2, 1, 2]);
next = array1d(1..10 ,[10, 8, 7, 3, 1, 9, 5, 4, 2, 6]);
makespan = 995;
----------
assign = array1d(1..10 ,[2, 2, 2, 2, 2, 1, 2, 2, 1, 2]);
next = array1d(1..10 ,[10, 8, 7, 3, 1, 9, 5, 4, 2, 6]);
makespan = 984;
----------
assign = array1d(1..10 ,[2, 2, 2, 2, 2, 1, 2, 2, 1, 2]);
next = array1d(1..10 ,[10, 8, 7, 3, 1, 9, 5, 4, 2, 6]);
makespan = 982;
----------
assign = array1d(1..10 ,[2, 2, 2, 2, 2, 1, 2, 2, 1, 2]);
next = array1d(1..10 ,[10, 8, 7, 3, 1, 9, 5, 4, 2, 6]);
makespan = 972;
----------
assign = array1d(1..10 ,[2, 2, 2, 2, 2, 1, 2, 2, 1, 2]);
next = array1d(1..10 ,[2, 8, 7, 3, 1, 9, 5, 10, 4, 6]);
makespan = 971;
----------
assign = array1d(1..10 ,[2, 2, 2, 2, 2, 1, 2, 2, 1, 2]);
next = array1d(1..10 ,[2, 8, 7, 3, 1, 9, 5, 10, 4, 6]);
makespan = 969;
----------
assign = array1d(1..10 ,[2, 2, 2, 2, 2, 1, 2, 2, 1, 2]);
next = array1d(1..10 ,[2, 8, 7, 3, 1, 9, 5, 10, 4, 6]);
makespan = 967;
----------
assign = array1d(1..10 ,[2, 2, 2, 2, 2, 1, 2, 2, 1, 2]);
next = array1d(1..10 ,[2, 8, 7, 3, 1, 9, 5, 10, 4, 6]);
makespan = 966;
----------
assign = array1d(1..10 ,[2, 2, 2, 2, 2, 1, 2, 2, 1, 2]);
next = array1d(1..10 ,[2, 8, 7, 10, 1, 9, 5, 4, 3, 6]);
makespan = 963;
----------
assign = array1d(1..10 ,[2, 2, 2, 2, 2, 1, 2, 2, 1, 2]);
next = array1d(1..10 ,[2, 8, 7, 10, 1, 9, 5, 4, 3, 6]);
makespan = 958;
----------
assign = array1d(1..10 ,[2, 2, 2, 2, 2, 1, 2, 2, 1, 2]);
next = array1d(1..10 ,[2, 8, 7, 10, 1, 9, 5, 4, 3, 6]);
makespan = 956;
----------
assign = array1d(1..10 ,[2, 2, 2, 2, 2, 1, 2, 2, 1, 2]);
next = array1d(1..10 ,[2, 8, 7, 10, 1, 9, 5, 4, 3, 6]);
makespan = 951;
----------
assign = array1d(1..10 ,[2, 2, 2, 1, 2, 1, 2, 2, 1, 2]);
next = array1d(1..10 ,[2, 8, 7, 9, 1, 4, 5, 10, 3, 6]);
makespan = 943;
----------
assign = array1d(1..10 ,[2, 2, 2, 1, 2, 1, 2, 2, 1, 2]);
next = array1d(1..10 ,[2, 8, 7, 9, 1, 4, 5, 10, 3, 6]);
makespan = 941;
----------
assign = array1d(1..10 ,[2, 2, 2, 1, 2, 1, 2, 2, 1, 2]);
next = array1d(1..10 ,[2, 8, 7, 9, 1, 4, 5, 10, 3, 6]);
makespan = 940;
----------
assign = array1d(1..10 ,[2, 2, 2, 1, 2, 1, 2, 2, 1, 2]);
next = array1d(1..10 ,[2, 8, 7, 9, 1, 4, 5, 10, 3, 6]);
makespan = 932;
----------
assign = array1d(1..10 ,[2, 2, 2, 1, 2, 1, 2, 2, 1, 2]);
next = array1d(1..10 ,[2, 8, 7, 9, 1, 4, 5, 10, 3, 6]);
makespan = 930;
----------
assign = array1d(1..10 ,[2, 2, 2, 1, 2, 1, 2, 2, 1, 2]);
next = array1d(1..10 ,[2, 8, 7, 9, 1, 4, 5, 10, 3, 6]);
makespan = 928;
----------
assign = array1d(1..10 ,[2, 2, 2, 1, 2, 1, 2, 2, 1, 2]);
next = array1d(1..10 ,[2, 8, 7, 9, 1, 4, 5, 10, 3, 6]);
makespan = 927;
----------
assign = array1d(1..10 ,[2, 2, 2, 1, 2, 1, 2, 2, 1, 2]);
next = array1d(1..10 ,[2, 8, 7, 9, 1, 4, 5, 10, 3, 6]);
makespan = 919;
----------
assign = array1d(1..10 ,[2, 2, 2, 1, 2, 1, 2, 2, 1, 2]);
next = array1d(1..10 ,[2, 8, 7, 9, 1, 4, 5, 10, 3, 6]);
makespan = 917;
----------
assign = array1d(1..10 ,[2, 2, 2, 1, 2, 1, 2, 2, 1, 2]);
next = array1d(1..10 ,[2, 8, 7, 9, 1, 4, 5, 10, 3, 6]);
makespan = 915;
----------
assign = array1d(1..10 ,[2, 2, 2, 1, 2, 1, 2, 2, 1, 2]);
next = array1d(1..10 ,[2, 8, 7, 9, 1, 4, 5, 10, 3, 6]);
makespan = 912;
----------
assign = array1d(1..10 ,[2, 2, 2, 1, 2, 1, 2, 2, 1, 2]);
next = array1d(1..10 ,[2, 8, 7, 9, 1, 4, 5, 10, 3, 6]);
makespan = 906;
----------
assign = array1d(1..10 ,[2, 2, 2, 1, 2, 1, 2, 2, 1, 2]);
next = array1d(1..10 ,[2, 8, 7, 9, 1, 4, 5, 10, 3, 6]);
makespan = 904;
----------
assign = array1d(1..10 ,[2, 2, 2, 1, 2, 1, 2, 2, 1, 2]);
next = array1d(1..10 ,[2, 8, 7, 9, 1, 4, 5, 10, 3, 6]);
makespan = 902;
----------
assign = array1d(1..10 ,[2, 2, 2, 1, 2, 1, 2, 2, 1, 2]);
next = array1d(1..10 ,[2, 8, 7, 9, 1, 4, 5, 10, 3, 6]);
makespan = 893;
----------
assign = array1d(1..10 ,[2, 2, 2, 1, 2, 1, 2, 2, 1, 2]);
next = array1d(1..10 ,[2, 8, 7, 9, 1, 4, 5, 10, 3, 6]);
makespan = 891;
----------
assign = array1d(1..10 ,[2, 2, 2, 1, 2, 1, 2, 2, 1, 2]);
next = array1d(1..10 ,[2, 8, 7, 9, 1, 4, 5, 10, 3, 6]);
makespan = 889;
----------
assign = array1d(1..10 ,[2, 2, 2, 1, 2, 1, 2, 2, 1, 2]);
next = array1d(1..10 ,[2, 8, 7, 9, 1, 4, 5, 10, 3, 6]);
makespan = 885;
----------
assign = array1d(1..10 ,[2, 2, 2, 1, 2, 1, 2, 2, 1, 2]);
next = array1d(1..10 ,[2, 8, 7, 9, 1, 4, 5, 10, 3, 6]);
makespan = 880;
----------
assign = array1d(1..10 ,[2, 2, 2, 1, 2, 1, 2, 2, 1, 2]);
next = array1d(1..10 ,[2, 8, 7, 9, 1, 4, 5, 10, 3, 6]);
makespan = 878;
----------
assign = array1d(1..10 ,[2, 2, 2, 1, 2, 1, 2, 2, 1, 2]);
next = array1d(1..10 ,[2, 8, 7, 9, 1, 4, 5, 10, 3, 6]);
makespan = 876;
----------
assign = array1d(1..10 ,[2, 2, 2, 1, 2, 1, 2, 2, 1, 2]);
next = array1d(1..10 ,[2, 8, 7, 9, 1, 4, 5, 10, 3, 6]);
makespan = 874;
----------
assign = array1d(1..10 ,[2, 2, 2, 1, 2, 1, 2, 2, 1, 2]);
next = array1d(1..10 ,[2, 8, 7, 9, 1, 4, 5, 10, 3, 6]);
makespan = 865;
----------
assign = array1d(1..10 ,[2, 2, 2, 1, 2, 1, 2, 2, 1, 2]);
next = array1d(1..10 ,[2, 8, 7, 9, 1, 4, 5, 10, 3, 6]);
makespan = 863;
----------
assign = array1d(1..10 ,[2, 2, 2, 1, 2, 1, 2, 2, 1, 2]);
next = array1d(1..10 ,[2, 8, 7, 9, 1, 4, 5, 10, 3, 6]);
makespan = 854;
----------
assign = array1d(1..10 ,[2, 2, 2, 1, 2, 1, 2, 2, 1, 2]);
next = array1d(1..10 ,[2, 8, 7, 9, 1, 4, 5, 10, 3, 6]);
makespan = 852;
----------
assign = array1d(1..10 ,[2, 2, 2, 1, 2, 1, 2, 2, 1, 2]);
next = array1d(1..10 ,[2, 8, 7, 9, 1, 4, 5, 10, 3, 6]);
makespan = 850;
----------
assign = array1d(1..10 ,[2, 2, 2, 1, 2, 1, 2, 2, 1, 2]);
next = array1d(1..10 ,[2, 8, 7, 9, 1, 4, 5, 10, 3, 6]);
makespan = 841;
----------
assign = array1d(1..10 ,[2, 2, 2, 1, 2, 1, 2, 2, 1, 2]);
next = array1d(1..10 ,[2, 8, 7, 9, 1, 4, 5, 10, 3, 6]);
makespan = 839;
----------
assign = array1d(1..10 ,[2, 2, 2, 1, 2, 1, 2, 2, 1, 2]);
next = array1d(1..10 ,[2, 8, 7, 9, 1, 4, 5, 10, 3, 6]);
makespan = 837;
----------
assign = array1d(1..10 ,[2, 2, 2, 1, 2, 1, 2, 2, 1, 2]);
next = array1d(1..10 ,[2, 8, 7, 9, 1, 4, 5, 10, 3, 6]);
makespan = 828;
----------
assign = array1d(1..10 ,[2, 2, 2, 1, 2, 1, 2, 2, 1, 2]);
next = array1d(1..10 ,[2, 8, 7, 9, 1, 4, 5, 10, 3, 6]);
makespan = 826;
----------
assign = array1d(1..10 ,[2, 2, 2, 1, 2, 1, 2, 2, 1, 2]);
next = array1d(1..10 ,[2, 8, 7, 9, 1, 4, 5, 10, 3, 6]);
makespan = 824;
----------
assign = array1d(1..10 ,[2, 2, 2, 1, 2, 1, 2, 2, 1, 2]);
next = array1d(1..10 ,[2, 8, 7, 9, 1, 4, 5, 10, 3, 6]);
makespan = 822;
----------
assign = array1d(1..10 ,[2, 2, 2, 1, 2, 1, 2, 2, 1, 2]);
next = array1d(1..10 ,[2, 8, 7, 9, 1, 4, 5, 10, 3, 6]);
makespan = 815;
----------
assign = array1d(1..10 ,[2, 2, 2, 1, 2, 1, 2, 2, 1, 2]);
next = array1d(1..10 ,[2, 8, 7, 9, 1, 4, 5, 10, 3, 6]);
makespan = 813;
----------
assign = array1d(1..10 ,[1, 2, 2, 1, 1, 2, 2, 2, 1, 2]);
next = array1d(1..10 ,[5, 8, 7, 9, 4, 10, 2, 6, 3, 1]);
makespan = 811;
----------
assign = array1d(1..10 ,[1, 2, 2, 1, 1, 2, 2, 2, 1, 2]);
next = array1d(1..10 ,[5, 8, 7, 9, 4, 10, 2, 6, 3, 1]);
makespan = 809;
----------
assign = array1d(1..10 ,[1, 2, 2, 1, 1, 2, 2, 2, 1, 2]);
next = array1d(1..10 ,[5, 8, 7, 9, 4, 10, 2, 6, 3, 1]);
makespan = 801;
----------
assign = array1d(1..10 ,[1, 2, 2, 1, 1, 2, 2, 2, 1, 2]);
next = array1d(1..10 ,[5, 8, 7, 9, 4, 10, 2, 6, 3, 1]);
makespan = 800;
----------
assign = array1d(1..10 ,[1, 2, 2, 1, 1, 2, 2, 2, 1, 2]);
next = array1d(1..10 ,[5, 8, 7, 9, 4, 10, 2, 6, 3, 1]);
makespan = 798;
----------
assign = array1d(1..10 ,[1, 2, 2, 1, 1, 2, 2, 2, 1, 2]);
next = array1d(1..10 ,[5, 8, 7, 9, 4, 10, 2, 6, 3, 1]);
makespan = 796;
----------
assign = array1d(1..10 ,[1, 2, 2, 1, 1, 2, 2, 2, 1, 2]);
next = array1d(1..10 ,[5, 8, 7, 9, 4, 10, 2, 6, 3, 1]);
makespan = 795;
----------
assign = array1d(1..10 ,[1, 2, 2, 1, 1, 2, 2, 2, 1, 2]);
next = array1d(1..10 ,[5, 8, 7, 9, 4, 10, 2, 6, 3, 1]);
makespan = 787;
----------
assign = array1d(1..10 ,[1, 2, 2, 1, 1, 2, 2, 2, 1, 2]);
next = array1d(1..10 ,[5, 8, 7, 9, 4, 10, 2, 6, 3, 1]);
makespan = 785;
----------
assign = array1d(1..10 ,[1, 2, 2, 1, 1, 2, 2, 2, 1, 2]);
next = array1d(1..10 ,[5, 8, 7, 9, 4, 10, 2, 6, 3, 1]);
makespan = 783;
----------
assign = array1d(1..10 ,[1, 2, 2, 1, 1, 2, 2, 2, 1, 2]);
next = array1d(1..10 ,[5, 8, 7, 9, 4, 10, 2, 6, 3, 1]);
makespan = 782;
----------
assign = array1d(1..10 ,[1, 2, 2, 1, 1, 2, 2, 2, 1, 2]);
next = array1d(1..10 ,[5, 8, 7, 9, 4, 10, 2, 6, 3, 1]);
makespan = 781;
----------
assign = array1d(1..10 ,[1, 2, 2, 1, 1, 2, 2, 2, 1, 2]);
next = array1d(1..10 ,[5, 8, 7, 9, 4, 10, 2, 6, 3, 1]);
makespan = 774;
----------
assign = array1d(1..10 ,[1, 2, 2, 1, 1, 2, 2, 2, 1, 2]);
next = array1d(1..10 ,[5, 8, 7, 9, 4, 10, 2, 6, 3, 1]);
makespan = 773;
----------
assign = array1d(1..10 ,[1, 2, 2, 1, 1, 2, 2, 2, 1, 2]);
next = array1d(1..10 ,[5, 8, 7, 9, 4, 10, 2, 6, 3, 1]);
makespan = 772;
----------
assign = array1d(1..10 ,[1, 2, 2, 1, 1, 2, 2, 2, 1, 2]);
next = array1d(1..10 ,[5, 8, 7, 9, 4, 10, 2, 6, 3, 1]);
makespan = 769;
----------
assign = array1d(1..10 ,[1, 2, 2, 1, 1, 2, 2, 2, 1, 2]);
next = array1d(1..10 ,[5, 8, 7, 9, 4, 10, 2, 6, 3, 1]);
makespan = 763;
----------
assign = array1d(1..10 ,[1, 2, 2, 2, 1, 1, 2, 2, 1, 2]);
next = array1d(1..10 ,[5, 8, 7, 10, 6, 9, 2, 4, 3, 1]);
makespan = 761;
----------
assign = array1d(1..10 ,[1, 2, 2, 1, 2, 1, 2, 2, 1, 2]);
next = array1d(1..10 ,[9, 8, 7, 1, 3, 4, 2, 10, 5, 6]);
makespan = 760;
----------
assign = array1d(1..10 ,[1, 2, 2, 1, 2, 1, 2, 2, 1, 2]);
next = array1d(1..10 ,[9, 8, 7, 1, 3, 4, 2, 10, 5, 6]);
makespan = 759;
----------
assign = array1d(1..10 ,[1, 2, 2, 1, 2, 1, 2, 2, 1, 2]);
next = array1d(1..10 ,[9, 8, 7, 1, 3, 4, 2, 10, 5, 6]);
makespan = 757;
----------
assign = array1d(1..10 ,[1, 2, 2, 1, 2, 1, 2, 2, 1, 2]);
next = array1d(1..10 ,[9, 8, 7, 1, 3, 4, 2, 10, 5, 6]);
makespan = 750;
----------
assign = array1d(1..10 ,[1, 2, 2, 1, 2, 1, 2, 2, 1, 2]);
next = array1d(1..10 ,[9, 8, 7, 1, 10, 4, 2, 5, 3, 6]);
makespan = 749;
----------
assign = array1d(1..10 ,[2, 2, 2, 1, 1, 1, 2, 2, 1, 2]);
next = array1d(1..10 ,[10, 8, 7, 6, 4, 9, 2, 1, 3, 5]);
makespan = 748;
----------
assign = array1d(1..10 ,[2, 2, 2, 1, 1, 1, 2, 2, 1, 2]);
next = array1d(1..10 ,[10, 8, 7, 6, 4, 9, 2, 1, 3, 5]);
makespan = 746;
----------
assign = array1d(1..10 ,[2, 2, 2, 1, 1, 1, 2, 2, 1, 2]);
next = array1d(1..10 ,[10, 8, 7, 6, 4, 9, 2, 1, 3, 5]);
makespan = 744;
----------
assign = array1d(1..10 ,[2, 2, 2, 1, 1, 1, 2, 2, 1, 2]);
next = array1d(1..10 ,[10, 8, 7, 6, 4, 9, 2, 1, 3, 5]);
makespan = 735;
----------
assign = array1d(1..10 ,[2, 2, 2, 1, 1, 1, 2, 2, 1, 2]);
next = array1d(1..10 ,[10, 8, 7, 6, 4, 9, 2, 1, 3, 5]);
makespan = 733;
----------
assign = array1d(1..10 ,[2, 2, 2, 1, 1, 1, 2, 2, 1, 2]);
next = array1d(1..10 ,[10, 8, 7, 6, 4, 9, 2, 1, 3, 5]);
makespan = 731;
----------
assign = array1d(1..10 ,[2, 2, 2, 1, 1, 1, 2, 2, 1, 2]);
next = array1d(1..10 ,[10, 8, 7, 6, 4, 9, 2, 1, 3, 5]);
makespan = 722;
----------
assign = array1d(1..10 ,[2, 2, 2, 1, 1, 1, 2, 2, 1, 2]);
next = array1d(1..10 ,[10, 8, 7, 6, 4, 9, 2, 1, 3, 5]);
makespan = 720;
----------
assign = array1d(1..10 ,[2, 2, 2, 1, 1, 1, 2, 2, 1, 2]);
next = array1d(1..10 ,[10, 8, 7, 6, 4, 9, 2, 1, 3, 5]);
makespan = 718;
----------
assign = array1d(1..10 ,[2, 2, 2, 1, 1, 1, 2, 2, 1, 2]);
next = array1d(1..10 ,[10, 8, 7, 6, 4, 9, 2, 1, 3, 5]);
makespan = 714;
----------
assign = array1d(1..10 ,[1, 2, 2, 1, 1, 1, 2, 2, 1, 2]);
next = array1d(1..10 ,[6, 8, 7, 1, 4, 9, 2, 10, 3, 5]);
makespan = 712;
----------
assign = array1d(1..10 ,[1, 2, 2, 1, 1, 1, 2, 2, 1, 2]);
next = array1d(1..10 ,[6, 8, 7, 1, 4, 9, 2, 10, 3, 5]);
makespan = 711;
----------
assign = array1d(1..10 ,[1, 2, 2, 1, 1, 1, 2, 2, 1, 2]);
next = array1d(1..10 ,[6, 8, 7, 1, 4, 9, 2, 10, 3, 5]);
makespan = 710;
----------
assign = array1d(1..10 ,[1, 2, 2, 1, 1, 1, 2, 2, 1, 2]);
next = array1d(1..10 ,[6, 8, 7, 1, 4, 9, 2, 10, 3, 5]);
makespan = 707;
----------
assign = array1d(1..10 ,[1, 2, 2, 1, 1, 1, 2, 2, 1, 2]);
next = array1d(1..10 ,[6, 8, 7, 1, 4, 9, 2, 10, 3, 5]);
makespan = 705;
----------
assign = array1d(1..10 ,[1, 2, 2, 1, 1, 1, 2, 2, 1, 2]);
next = array1d(1..10 ,[6, 8, 7, 1, 4, 9, 2, 10, 3, 5]);
makespan = 704;
----------
assign = array1d(1..10 ,[1, 2, 2, 1, 1, 1, 2, 2, 1, 2]);
next = array1d(1..10 ,[6, 8, 7, 1, 4, 9, 2, 10, 3, 5]);
makespan = 696;
----------
assign = array1d(1..10 ,[1, 2, 2, 1, 1, 1, 2, 2, 1, 2]);
next = array1d(1..10 ,[6, 8, 7, 1, 4, 9, 2, 10, 3, 5]);
makespan = 694;
----------
assign = array1d(1..10 ,[1, 2, 2, 1, 1, 1, 2, 2, 1, 2]);
next = array1d(1..10 ,[6, 8, 7, 1, 4, 9, 2, 10, 3, 5]);
makespan = 691;
----------
assign = array1d(1..10 ,[1, 2, 2, 1, 1, 1, 2, 2, 1, 2]);
next = array1d(1..10 ,[6, 8, 7, 1, 4, 9, 2, 10, 3, 5]);
makespan = 682;
----------
assign = array1d(1..10 ,[1, 2, 2, 1, 1, 1, 2, 2, 1, 2]);
next = array1d(1..10 ,[6, 8, 7, 1, 4, 9, 2, 10, 3, 5]);
makespan = 681;
----------
assign = array1d(1..10 ,[1, 2, 2, 1, 1, 1, 2, 2, 1, 2]);
next = array1d(1..10 ,[6, 8, 7, 1, 4, 9, 2, 10, 3, 5]);
makespan = 679;
----------
assign = array1d(1..10 ,[1, 2, 2, 1, 1, 1, 2, 2, 1, 2]);
next = array1d(1..10 ,[6, 8, 7, 1, 4, 9, 2, 10, 3, 5]);
makespan = 670;
----------
assign = array1d(1..10 ,[1, 2, 2, 1, 1, 1, 2, 2, 1, 2]);
next = array1d(1..10 ,[6, 8, 7, 1, 4, 9, 2, 10, 3, 5]);
makespan = 668;
----------
assign = array1d(1..10 ,[1, 2, 2, 1, 1, 1, 2, 2, 1, 2]);
next = array1d(1..10 ,[6, 8, 7, 1, 4, 9, 2, 10, 3, 5]);
makespan = 666;
----------
assign = array1d(1..10 ,[1, 2, 2, 1, 1, 1, 2, 2, 1, 2]);
next = array1d(1..10 ,[6, 8, 7, 1, 4, 9, 2, 10, 3, 5]);
makespan = 655;
----------
assign = array1d(1..10 ,[1, 2, 2, 1, 1, 1, 2, 2, 1, 2]);
next = array1d(1..10 ,[6, 8, 7, 1, 4, 9, 2, 10, 3, 5]);
makespan = 653;
----------
assign = array1d(1..10 ,[1, 2, 2, 1, 1, 1, 2, 2, 1, 2]);
next = array1d(1..10 ,[6, 8, 7, 1, 4, 9, 2, 10, 3, 5]);
makespan = 651;
----------
assign = array1d(1..10 ,[1, 2, 2, 1, 1, 1, 2, 2, 1, 2]);
next = array1d(1..10 ,[6, 8, 7, 1, 4, 9, 2, 10, 3, 5]);
makespan = 642;
----------
assign = array1d(1..10 ,[1, 2, 2, 1, 1, 1, 2, 2, 1, 2]);
next = array1d(1..10 ,[6, 8, 7, 1, 4, 9, 2, 10, 3, 5]);
makespan = 640;
----------
assign = array1d(1..10 ,[1, 2, 2, 1, 1, 1, 2, 2, 1, 2]);
next = array1d(1..10 ,[6, 8, 7, 1, 4, 9, 2, 10, 3, 5]);
makespan = 629;
----------
assign = array1d(1..10 ,[1, 2, 2, 1, 1, 1, 2, 2, 1, 2]);
next = array1d(1..10 ,[6, 8, 7, 1, 4, 9, 2, 10, 3, 5]);
makespan = 627;
----------
assign = array1d(1..10 ,[1, 2, 2, 1, 1, 1, 2, 2, 1, 2]);
next = array1d(1..10 ,[6, 8, 7, 1, 4, 9, 2, 10, 3, 5]);
makespan = 617;
----------
assign = array1d(1..10 ,[1, 2, 2, 1, 1, 1, 2, 2, 1, 2]);
next = array1d(1..10 ,[6, 8, 7, 1, 4, 9, 2, 10, 3, 5]);
makespan = 577;
----------
assign = array1d(1..10 ,[1, 2, 2, 1, 1, 1, 2, 2, 1, 2]);
next = array1d(1..10 ,[6, 8, 7, 1, 4, 9, 2, 10, 3, 5]);
makespan = 573;
----------
assign = array1d(1..10 ,[1, 2, 2, 1, 1, 1, 2, 2, 1, 2]);
next = array1d(1..10 ,[6, 8, 10, 1, 4, 9, 2, 3, 7, 5]);
makespan = 571;
----------
assign = array1d(1..10 ,[1, 2, 1, 2, 1, 1, 2, 2, 1, 2]);
next = array1d(1..10 ,[3, 8, 5, 10, 6, 9, 2, 4, 7, 1]);
makespan = 560;
----------
assign = array1d(1..10 ,[1, 2, 1, 2, 1, 1, 2, 2, 1, 2]);
next = array1d(1..10 ,[3, 8, 5, 10, 6, 9, 2, 4, 7, 1]);
makespan = 558;
----------
assign = array1d(1..10 ,[1, 2, 1, 2, 1, 1, 2, 2, 1, 2]);
next = array1d(1..10 ,[3, 8, 5, 10, 6, 9, 2, 4, 7, 1]);
makespan = 553;
----------
assign = array1d(1..10 ,[1, 2, 1, 2, 1, 1, 2, 2, 1, 2]);
next = array1d(1..10 ,[3, 8, 5, 7, 6, 9, 2, 10, 4, 1]);
makespan = 550;
----------
assign = array1d(1..10 ,[1, 2, 1, 2, 1, 1, 2, 2, 1, 2]);
next = array1d(1..10 ,[3, 8, 5, 7, 6, 9, 2, 10, 4, 1]);
makespan = 549;
----------
assign = array1d(1..10 ,[1, 2, 1, 2, 1, 1, 2, 2, 1, 2]);
next = array1d(1..10 ,[3, 8, 5, 7, 6, 9, 2, 10, 4, 1]);
makespan = 547;
----------
assign = array1d(1..10 ,[2, 2, 1, 1, 1, 1, 2, 2, 1, 2]);
next = array1d(1..10 ,[7, 8, 6, 5, 3, 9, 2, 10, 1, 4]);
makespan = 535;
----------
assign = array1d(1..10 ,[2, 2, 1, 1, 2, 1, 1, 2, 1, 2]);
next = array1d(1..10 ,[5, 8, 7, 3, 10, 9, 6, 1, 2, 4]);
makespan = 518;
----------
assign = array1d(1..10 ,[2, 2, 1, 2, 1, 1, 1, 2, 1, 2]);
next = array1d(1..10 ,[2, 8, 7, 10, 3, 5, 9, 4, 1, 6]);
makespan = 517;
----------
assign = array1d(1..10 ,[2, 2, 1, 2, 1, 1, 1, 2, 1, 2]);
next = array1d(1..10 ,[10, 8, 7, 1, 6, 3, 9, 4, 2, 5]);
makespan = 515;
----------
assign = array1d(1..10 ,[2, 2, 1, 1, 2, 1, 1, 2, 1, 2]);
next = array1d(1..10 ,[2, 8, 9, 7, 1, 3, 6, 10, 5, 4]);
makespan = 514;
----------
assign = array1d(1..10 ,[1, 2, 2, 1, 1, 1, 2, 2, 1, 2]);
next = array1d(1..10 ,[4, 8, 10, 9, 1, 5, 3, 7, 2, 6]);
makespan = 512;
----------
assign = array1d(1..10 ,[1, 2, 2, 1, 1, 1, 2, 2, 1, 2]);
next = array1d(1..10 ,[4, 8, 10, 9, 6, 1, 3, 7, 2, 5]);
makespan = 511;
----------
assign = array1d(1..10 ,[1, 2, 2, 1, 1, 1, 2, 2, 1, 2]);
next = array1d(1..10 ,[4, 8, 10, 9, 6, 1, 3, 7, 2, 5]);
makespan = 510;
----------
assign = array1d(1..10 ,[1, 2, 2, 1, 1, 1, 2, 2, 1, 2]);
next = array1d(1..10 ,[4, 8, 10, 6, 9, 5, 3, 7, 2, 1]);
makespan = 509;
----------
assign = array1d(1..10 ,[2, 2, 1, 1, 1, 1, 2, 2, 1, 2]);
next = array1d(1..10 ,[2, 8, 6, 5, 3, 9, 10, 7, 1, 4]);
makespan = 507;
----------
assign = array1d(1..10 ,[2, 2, 1, 1, 1, 1, 2, 2, 1, 2]);
next = array1d(1..10 ,[2, 8, 6, 5, 3, 9, 10, 7, 1, 4]);
makespan = 506;
----------
assign = array1d(1..10 ,[2, 2, 1, 1, 1, 1, 2, 2, 1, 2]);
next = array1d(1..10 ,[2, 8, 6, 5, 3, 9, 10, 7, 1, 4]);
makespan = 505;
----------
assign = array1d(1..10 ,[2, 2, 1, 1, 1, 1, 2, 2, 1, 2]);
next = array1d(1..10 ,[2, 8, 6, 3, 9, 5, 10, 7, 1, 4]);
makespan = 504;
----------
assign = array1d(1..10 ,[2, 2, 1, 1, 1, 1, 2, 2, 1, 2]);
next = array1d(1..10 ,[2, 8, 6, 3, 9, 5, 10, 7, 1, 4]);
makespan = 499;
----------
assign = array1d(1..10 ,[2, 2, 1, 1, 1, 1, 2, 2, 1, 2]);
next = array1d(1..10 ,[2, 8, 6, 3, 9, 5, 10, 7, 1, 4]);
makespan = 498;
----------
assign = array1d(1..10 ,[2, 2, 1, 1, 1, 1, 2, 2, 1, 2]);
next = array1d(1..10 ,[2, 8, 6, 3, 9, 5, 10, 7, 1, 4]);
makespan = 495;
----------
assign = array1d(1..10 ,[2, 2, 2, 1, 1, 1, 1, 2, 1, 2]);
next = array1d(1..10 ,[2, 8, 1, 9, 6, 7, 4, 10, 3, 5]);
makespan = 493;
----------
assign = array1d(1..10 ,[2, 2, 1, 2, 1, 1, 1, 2, 1, 2]);
next = array1d(1..10 ,[2, 8, 9, 10, 6, 3, 5, 4, 1, 7]);
makespan = 490;
----------
assign = array1d(1..10 ,[2, 2, 2, 1, 1, 1, 1, 2, 1, 2]);
next = array1d(1..10 ,[2, 8, 1, 6, 9, 7, 5, 10, 3, 4]);
makespan = 488;
----------
assign = array1d(1..10 ,[2, 2, 2, 1, 1, 1, 1, 2, 1, 2]);
next = array1d(1..10 ,[2, 8, 1, 9, 6, 7, 4, 10, 3, 5]);
makespan = 486;
----------
assign = array1d(1..10 ,[2, 2, 2, 1, 1, 1, 1, 2, 1, 2]);
next = array1d(1..10 ,[2, 8, 1, 6, 9, 7, 5, 10, 3, 4]);
makespan = 482;
----------
assign = array1d(1..10 ,[2, 2, 2, 1, 1, 1, 1, 2, 1, 2]);
next = array1d(1..10 ,[2, 8, 1, 7, 6, 9, 5, 10, 3, 4]);
makespan = 481;
----------
assign = array1d(1..10 ,[2, 2, 1, 1, 2, 1, 2, 1, 1, 2]);
next = array1d(1..10 ,[2, 5, 8, 3, 7, 9, 10, 6, 1, 4]);
makespan = 480;
----------
assign = array1d(1..10 ,[2, 2, 1, 1, 2, 2, 1, 1, 1, 2]);
next = array1d(1..10 ,[5, 1, 4, 7, 6, 10, 9, 3, 2, 8]);
makespan = 479;
----------
assign = array1d(1..10 ,[2, 2, 1, 1, 1, 1, 2, 2, 1, 2]);
next = array1d(1..10 ,[8, 1, 6, 3, 9, 5, 10, 7, 2, 4]);
makespan = 478;
----------
assign = array1d(1..10 ,[2, 2, 1, 1, 1, 1, 2, 2, 1, 2]);
next = array1d(1..10 ,[8, 1, 6, 3, 9, 5, 10, 7, 2, 4]);
makespan = 477;
----------
assign = array1d(1..10 ,[2, 2, 1, 1, 2, 1, 2, 1, 1, 2]);
next = array1d(1..10 ,[7, 1, 8, 3, 10, 9, 5, 6, 2, 4]);
makespan = 476;
----------
assign = array1d(1..10 ,[2, 2, 1, 1, 2, 1, 2, 1, 1, 2]);
next = array1d(1..10 ,[7, 1, 6, 8, 10, 9, 5, 3, 2, 4]);
makespan = 475;
----------
assign = array1d(1..10 ,[2, 2, 1, 1, 2, 1, 2, 1, 1, 2]);
next = array1d(1..10 ,[7, 1, 8, 3, 10, 9, 5, 6, 2, 4]);
makespan = 474;
----------
assign = array1d(1..10 ,[2, 2, 1, 1, 2, 1, 2, 1, 1, 2]);
next = array1d(1..10 ,[7, 1, 6, 8, 10, 9, 5, 3, 2, 4]);
makespan = 473;
----------
assign = array1d(1..10 ,[2, 2, 1, 1, 2, 1, 2, 1, 1, 2]);
next = array1d(1..10 ,[7, 1, 6, 8, 10, 9, 5, 3, 2, 4]);
makespan = 472;
----------
assign = array1d(1..10 ,[2, 2, 1, 1, 2, 1, 2, 1, 1, 2]);
next = array1d(1..10 ,[7, 1, 6, 8, 10, 9, 5, 3, 2, 4]);
makespan = 471;
----------
assign = array1d(1..10 ,[2, 2, 1, 1, 2, 1, 2, 1, 1, 2]);
next = array1d(1..10 ,[7, 1, 8, 3, 10, 9, 5, 6, 2, 4]);
makespan = 470;
----------
assign = array1d(1..10 ,[2, 2, 1, 2, 1, 2, 1, 1, 1, 2]);
next = array1d(1..10 ,[2, 6, 9, 1, 8, 10, 5, 3, 4, 7]);
makespan = 469;
----------
assign = array1d(1..10 ,[2, 2, 1, 2, 1, 2, 1, 1, 1, 2]);
next = array1d(1..10 ,[2, 6, 9, 1, 8, 10, 5, 3, 4, 7]);
makespan = 468;
----------
assign = array1d(1..10 ,[2, 2, 1, 1, 2, 2, 1, 1, 1, 2]);
next = array1d(1..10 ,[2, 5, 9, 7, 6, 10, 8, 3, 1, 4]);
makespan = 467;
----------
assign = array1d(1..10 ,[2, 2, 2, 1, 1, 1, 1, 2, 1, 2]);
next = array1d(1..10 ,[8, 3, 1, 7, 6, 9, 5, 10, 2, 4]);
makespan = 466;
----------
assign = array1d(1..10 ,[2, 2, 2, 1, 1, 1, 1, 2, 1, 2]);
next = array1d(1..10 ,[8, 3, 1, 7, 6, 9, 5, 10, 2, 4]);
makespan = 465;
----------
assign = array1d(1..10 ,[2, 2, 2, 1, 1, 1, 1, 2, 1, 2]);
next = array1d(1..10 ,[8, 3, 1, 7, 6, 9, 5, 10, 2, 4]);
makespan = 464;
----------
assign = array1d(1..10 ,[2, 2, 2, 1, 1, 1, 1, 2, 1, 2]);
next = array1d(1..10 ,[8, 3, 1, 7, 6, 9, 5, 10, 2, 4]);
makespan = 463;
----------
assign = array1d(1..10 ,[2, 2, 2, 1, 1, 1, 1, 2, 1, 2]);
next = array1d(1..10 ,[8, 3, 1, 7, 6, 9, 5, 10, 2, 4]);
makespan = 462;
----------
assign = array1d(1..10 ,[2, 2, 2, 1, 1, 1, 1, 2, 1, 2]);
next = array1d(1..10 ,[8, 3, 1, 7, 6, 9, 5, 10, 2, 4]);
makespan = 461;
----------
assign = array1d(1..10 ,[2, 2, 2, 1, 1, 1, 1, 2, 1, 2]);
next = array1d(1..10 ,[8, 3, 1, 7, 6, 9, 5, 10, 2, 4]);
makespan = 460;
----------
assign = array1d(1..10 ,[2, 2, 2, 1, 1, 1, 1, 2, 1, 2]);
next = array1d(1..10 ,[8, 3, 1, 7, 6, 9, 5, 10, 2, 4]);
makespan = 459;
----------
assign = array1d(1..10 ,[2, 2, 2, 1, 1, 1, 1, 2, 1, 2]);
next = array1d(1..10 ,[8, 3, 1, 7, 6, 9, 5, 10, 2, 4]);
makespan = 458;
----------
assign = array1d(1..10 ,[2, 2, 2, 1, 1, 2, 1, 1, 1, 2]);
next = array1d(1..10 ,[2, 6, 10, 8, 9, 3, 5, 7, 1, 4]);
makespan = 457;
----------
assign = array1d(1..10 ,[2, 2, 2, 1, 2, 1, 1, 1, 1, 2]);
next = array1d(1..10 ,[3, 5, 10, 8, 1, 7, 9, 6, 2, 4]);
makespan = 456;
----------
assign = array1d(1..10 ,[2, 2, 2, 1, 2, 1, 1, 1, 1, 2]);
next = array1d(1..10 ,[5, 3, 1, 8, 10, 7, 9, 6, 2, 4]);
makespan = 455;
----------
assign = array1d(1..10 ,[2, 2, 2, 1, 2, 1, 1, 1, 1, 2]);
next = array1d(1..10 ,[5, 3, 1, 8, 10, 7, 9, 6, 2, 4]);
makespan = 454;
----------
assign = array1d(1..10 ,[2, 2, 2, 1, 2, 1, 1, 1, 1, 2]);
next = array1d(1..10 ,[5, 3, 1, 8, 10, 7, 9, 6, 2, 4]);
makespan = 453;
----------
assign = array1d(1..10 ,[2, 2, 2, 1, 1, 1, 2, 1, 1, 2]);
next = array1d(1..10 ,[7, 1, 10, 8, 9, 5, 3, 6, 2, 4]);
makespan = 452;
----------
assign = array1d(1..10 ,[2, 2, 2, 1, 1, 1, 2, 1, 1, 2]);
next = array1d(1..10 ,[7, 1, 10, 8, 9, 5, 3, 6, 2, 4]);
makespan = 451;
----------
assign = array1d(1..10 ,[2, 2, 2, 1, 1, 1, 2, 1, 1, 2]);
next = array1d(1..10 ,[7, 1, 10, 8, 9, 5, 3, 6, 2, 4]);
makespan = 450;
----------
assign = array1d(1..10 ,[2, 2, 2, 1, 1, 1, 2, 1, 1, 2]);
next = array1d(1..10 ,[2, 10, 1, 8, 9, 5, 3, 6, 7, 4]);
makespan = 449;
----------
assign = array1d(1..10 ,[2, 2, 2, 1, 1, 2, 1, 1, 1, 2]);
next = array1d(1..10 ,[2, 6, 1, 7, 8, 10, 5, 9, 3, 4]);
makespan = 448;
----------
assign = array1d(1..10 ,[2, 2, 2, 1, 1, 2, 1, 1, 1, 2]);
next = array1d(1..10 ,[2, 6, 1, 7, 9, 10, 5, 4, 3, 8]);
makespan = 447;
----------
assign = array1d(1..10 ,[2, 2, 2, 1, 1, 2, 1, 1, 1, 2]);
next = array1d(1..10 ,[2, 6, 1, 7, 9, 10, 5, 4, 3, 8]);
makespan = 446;
----------
assign = array1d(1..10 ,[2, 2, 2, 1, 1, 2, 1, 1, 1, 2]);
next = array1d(1..10 ,[2, 6, 1, 7, 9, 10, 5, 4, 3, 8]);
makespan = 445;
----------
assign = array1d(1..10 ,[2, 2, 2, 1, 1, 2, 1, 1, 1, 2]);
next = array1d(1..10 ,[2, 6, 1, 7, 9, 10, 5, 4, 3, 8]);
makespan = 444;
----------
assign = array1d(1..10 ,[2, 2, 2, 1, 1, 2, 1, 1, 1, 2]);
next = array1d(1..10 ,[2, 6, 1, 7, 9, 10, 5, 4, 3, 8]);
makespan = 443;
----------
assign = array1d(1..10 ,[2, 2, 2, 1, 1, 2, 1, 1, 1, 2]);
next = array1d(1..10 ,[2, 6, 1, 7, 9, 10, 5, 4, 3, 8]);
makespan = 442;
----------
==========
	Command being timed: "mzn-chuffed lbbd-datasets/Rabadi-2006/dzn-balanced/model.mzn lbbd-datasets/Rabadi-2006/dzn-balanced/8on2Rp50Rs50_15Ameer.dzn"
	User time (seconds): 0.31
	System time (seconds): 0.01
	Percent of CPU this job got: 8%
	Elapsed (wall clock) time (h:mm:ss or m:ss): 0:03.67
	Average shared text size (kbytes): 0
	Average unshared data size (kbytes): 0
	Average stack size (kbytes): 0
	Average total size (kbytes): 0
	Maximum resident set size (kbytes): 32080
	Average resident set size (kbytes): 0
	Major (requiring I/O) page faults: 0
	Minor (reclaiming a frame) page faults: 2841
	Voluntary context switches: 196
	Involuntary context switches: 3
	Swaps: 0
	File system inputs: 0
	File system outputs: 200
	Socket messages sent: 0
	Socket messages received: 0
	Signals delivered: 0
	Page size (bytes): 4096
	Exit status: 0
