+ /usr/bin/timeout 600 /usr/bin/time -v mzn-chuffed lbbd-datasets/Rabadi-2006/dzn-s-dominant/model.mzn lbbd-datasets/Rabadi-2006/dzn-s-dominant/7on4Rp50Rs50_12Ameer.dzn
% No search annotation given. Defaulting to VSIDS!
assign = array1d(1..11 ,[4, 4, 4, 4, 4, 4, 4, 1, 2, 3, 4]);
next = array1d(1..11 ,[2, 3, 4, 5, 6, 7, 11, 9, 10, 1, 8]);
makespan = 1392;
----------
assign = array1d(1..11 ,[4, 4, 4, 4, 4, 4, 4, 1, 2, 3, 4]);
next = array1d(1..11 ,[2, 5, 4, 6, 3, 7, 11, 9, 10, 1, 8]);
makespan = 1389;
----------
assign = array1d(1..11 ,[4, 4, 4, 4, 4, 1, 4, 1, 2, 3, 4]);
next = array1d(1..11 ,[3, 7, 5, 1, 11, 8, 4, 9, 10, 2, 6]);
makespan = 1323;
----------
assign = array1d(1..11 ,[4, 1, 4, 4, 4, 4, 4, 1, 2, 3, 4]);
next = array1d(1..11 ,[6, 8, 7, 1, 11, 5, 4, 9, 10, 3, 2]);
makespan = 1322;
----------
assign = array1d(1..11 ,[4, 4, 4, 4, 4, 1, 4, 1, 2, 3, 4]);
next = array1d(1..11 ,[3, 4, 7, 1, 11, 8, 5, 9, 10, 2, 6]);
makespan = 1315;
----------
assign = array1d(1..11 ,[4, 4, 1, 4, 4, 4, 4, 1, 2, 3, 4]);
next = array1d(1..11 ,[7, 6, 8, 11, 4, 5, 2, 9, 10, 1, 3]);
makespan = 1312;
----------
assign = array1d(1..11 ,[4, 4, 4, 1, 4, 4, 4, 1, 2, 3, 4]);
next = array1d(1..11 ,[11, 3, 7, 8, 1, 5, 6, 9, 10, 2, 4]);
makespan = 1308;
----------
assign = array1d(1..11 ,[4, 4, 4, 4, 4, 1, 4, 1, 2, 3, 4]);
next = array1d(1..11 ,[7, 4, 5, 1, 2, 8, 11, 9, 10, 3, 6]);
makespan = 1307;
----------
assign = array1d(1..11 ,[4, 4, 4, 4, 4, 1, 4, 1, 2, 3, 4]);
next = array1d(1..11 ,[3, 11, 7, 1, 4, 8, 2, 9, 10, 5, 6]);
makespan = 1305;
----------
assign = array1d(1..11 ,[4, 4, 4, 3, 4, 4, 4, 1, 2, 3, 4]);
next = array1d(1..11 ,[3, 7, 5, 10, 11, 1, 6, 9, 4, 2, 8]);
makespan = 1303;
----------
assign = array1d(1..11 ,[4, 4, 4, 4, 4, 3, 4, 1, 2, 3, 4]);
next = array1d(1..11 ,[3, 5, 7, 1, 4, 10, 11, 9, 6, 2, 8]);
makespan = 1302;
----------
assign = array1d(1..11 ,[4, 4, 4, 1, 4, 4, 4, 1, 2, 3, 4]);
next = array1d(1..11 ,[3, 7, 5, 8, 11, 1, 6, 9, 10, 2, 4]);
makespan = 1293;
----------
assign = array1d(1..11 ,[4, 4, 4, 4, 2, 4, 4, 1, 2, 3, 4]);
next = array1d(1..11 ,[4, 3, 11, 2, 9, 7, 1, 5, 10, 6, 8]);
makespan = 1255;
----------
assign = array1d(1..11 ,[4, 4, 4, 4, 2, 4, 4, 1, 2, 3, 4]);
next = array1d(1..11 ,[4, 3, 11, 2, 9, 7, 1, 5, 10, 6, 8]);
makespan = 1252;
----------
assign = array1d(1..11 ,[4, 4, 4, 4, 2, 4, 4, 1, 2, 3, 4]);
next = array1d(1..11 ,[4, 3, 11, 2, 9, 7, 1, 5, 10, 6, 8]);
makespan = 1245;
----------
assign = array1d(1..11 ,[4, 4, 4, 4, 2, 4, 4, 1, 2, 3, 4]);
next = array1d(1..11 ,[4, 3, 11, 2, 9, 7, 1, 5, 10, 6, 8]);
makespan = 1238;
----------
assign = array1d(1..11 ,[4, 4, 4, 4, 2, 4, 4, 1, 2, 3, 4]);
next = array1d(1..11 ,[4, 3, 11, 2, 9, 7, 1, 5, 10, 6, 8]);
makespan = 1237;
----------
assign = array1d(1..11 ,[4, 4, 4, 4, 2, 4, 4, 1, 2, 3, 4]);
next = array1d(1..11 ,[4, 3, 11, 2, 9, 7, 1, 5, 10, 6, 8]);
makespan = 1232;
----------
assign = array1d(1..11 ,[4, 4, 4, 4, 2, 4, 4, 1, 2, 3, 4]);
next = array1d(1..11 ,[4, 3, 11, 2, 9, 7, 1, 5, 10, 6, 8]);
makespan = 1231;
----------
assign = array1d(1..11 ,[4, 4, 4, 4, 2, 4, 4, 1, 2, 3, 4]);
next = array1d(1..11 ,[4, 3, 11, 2, 9, 7, 1, 5, 10, 6, 8]);
makespan = 1230;
----------
assign = array1d(1..11 ,[4, 4, 4, 4, 2, 4, 4, 1, 2, 3, 4]);
next = array1d(1..11 ,[4, 3, 11, 2, 9, 7, 1, 5, 10, 6, 8]);
makespan = 1225;
----------
assign = array1d(1..11 ,[4, 4, 4, 4, 2, 4, 4, 1, 2, 3, 4]);
next = array1d(1..11 ,[4, 3, 11, 2, 9, 7, 1, 5, 10, 6, 8]);
makespan = 1223;
----------
assign = array1d(1..11 ,[4, 4, 4, 4, 2, 4, 4, 1, 2, 3, 4]);
next = array1d(1..11 ,[4, 3, 11, 2, 9, 7, 1, 5, 10, 6, 8]);
makespan = 1218;
----------
assign = array1d(1..11 ,[4, 4, 4, 4, 2, 4, 4, 1, 2, 3, 4]);
next = array1d(1..11 ,[4, 3, 11, 2, 9, 7, 1, 5, 10, 6, 8]);
makespan = 1217;
----------
assign = array1d(1..11 ,[4, 4, 4, 4, 2, 4, 4, 1, 2, 3, 4]);
next = array1d(1..11 ,[4, 3, 11, 2, 9, 7, 1, 5, 10, 6, 8]);
makespan = 1216;
----------
assign = array1d(1..11 ,[4, 4, 4, 4, 2, 4, 4, 1, 2, 3, 4]);
next = array1d(1..11 ,[4, 3, 11, 2, 9, 7, 1, 5, 10, 6, 8]);
makespan = 1209;
----------
assign = array1d(1..11 ,[4, 4, 4, 4, 2, 4, 4, 1, 2, 3, 4]);
next = array1d(1..11 ,[4, 3, 11, 2, 9, 7, 1, 5, 10, 6, 8]);
makespan = 1208;
----------
assign = array1d(1..11 ,[4, 4, 4, 4, 2, 4, 4, 1, 2, 3, 4]);
next = array1d(1..11 ,[4, 3, 11, 2, 9, 7, 1, 5, 10, 6, 8]);
makespan = 1203;
----------
assign = array1d(1..11 ,[4, 4, 4, 4, 2, 4, 4, 1, 2, 3, 4]);
next = array1d(1..11 ,[4, 3, 11, 2, 9, 7, 1, 5, 10, 6, 8]);
makespan = 1179;
----------
assign = array1d(1..11 ,[4, 4, 3, 4, 2, 4, 4, 1, 2, 3, 4]);
next = array1d(1..11 ,[4, 11, 10, 2, 9, 7, 1, 5, 3, 6, 8]);
makespan = 1175;
----------
assign = array1d(1..11 ,[4, 4, 1, 4, 2, 4, 4, 1, 2, 3, 4]);
next = array1d(1..11 ,[4, 11, 8, 2, 9, 7, 1, 5, 10, 6, 3]);
makespan = 1168;
----------
assign = array1d(1..11 ,[4, 4, 1, 4, 3, 4, 4, 1, 2, 3, 4]);
next = array1d(1..11 ,[4, 11, 8, 2, 10, 7, 1, 9, 5, 6, 3]);
makespan = 1167;
----------
assign = array1d(1..11 ,[4, 4, 2, 4, 1, 4, 4, 1, 2, 3, 4]);
next = array1d(1..11 ,[4, 11, 9, 2, 8, 7, 1, 3, 10, 6, 5]);
makespan = 1162;
----------
assign = array1d(1..11 ,[4, 4, 1, 4, 3, 4, 4, 1, 2, 3, 4]);
next = array1d(1..11 ,[4, 11, 8, 2, 10, 7, 1, 9, 5, 6, 3]);
makespan = 1161;
----------
assign = array1d(1..11 ,[4, 4, 2, 4, 1, 4, 4, 1, 2, 3, 4]);
next = array1d(1..11 ,[4, 11, 9, 2, 8, 7, 1, 3, 10, 6, 5]);
makespan = 1160;
----------
assign = array1d(1..11 ,[4, 4, 1, 4, 3, 4, 4, 1, 2, 3, 4]);
next = array1d(1..11 ,[4, 11, 8, 2, 10, 7, 1, 9, 5, 6, 3]);
makespan = 1155;
----------
assign = array1d(1..11 ,[4, 4, 2, 4, 1, 4, 4, 1, 2, 3, 4]);
next = array1d(1..11 ,[4, 11, 9, 2, 8, 7, 1, 3, 10, 6, 5]);
makespan = 1153;
----------
assign = array1d(1..11 ,[4, 4, 1, 4, 3, 4, 4, 1, 2, 3, 4]);
next = array1d(1..11 ,[4, 11, 8, 2, 10, 7, 1, 9, 5, 6, 3]);
makespan = 1148;
----------
assign = array1d(1..11 ,[4, 4, 2, 4, 1, 4, 4, 1, 2, 3, 4]);
next = array1d(1..11 ,[4, 11, 9, 2, 8, 7, 1, 3, 10, 6, 5]);
makespan = 1147;
----------
assign = array1d(1..11 ,[4, 4, 1, 4, 3, 4, 4, 1, 2, 3, 4]);
next = array1d(1..11 ,[4, 11, 8, 2, 10, 7, 1, 9, 5, 6, 3]);
makespan = 1146;
----------
assign = array1d(1..11 ,[4, 4, 3, 4, 1, 4, 4, 1, 2, 3, 4]);
next = array1d(1..11 ,[4, 11, 10, 2, 8, 7, 1, 9, 3, 6, 5]);
makespan = 1141;
----------
assign = array1d(1..11 ,[4, 4, 1, 4, 3, 4, 4, 1, 2, 3, 4]);
next = array1d(1..11 ,[4, 11, 8, 2, 10, 7, 1, 9, 5, 6, 3]);
makespan = 1140;
----------
assign = array1d(1..11 ,[4, 4, 3, 4, 1, 4, 4, 1, 2, 3, 4]);
next = array1d(1..11 ,[4, 11, 10, 2, 8, 7, 1, 9, 3, 6, 5]);
makespan = 1139;
----------
assign = array1d(1..11 ,[4, 4, 2, 4, 3, 4, 4, 1, 2, 3, 4]);
next = array1d(1..11 ,[4, 11, 9, 2, 10, 7, 1, 3, 5, 6, 8]);
makespan = 1138;
----------
assign = array1d(1..11 ,[4, 4, 3, 4, 1, 4, 4, 1, 2, 3, 4]);
next = array1d(1..11 ,[4, 11, 10, 2, 8, 7, 1, 9, 3, 6, 5]);
makespan = 1133;
----------
assign = array1d(1..11 ,[4, 4, 2, 4, 3, 4, 4, 1, 2, 3, 4]);
next = array1d(1..11 ,[4, 11, 9, 2, 10, 7, 1, 3, 5, 6, 8]);
makespan = 1132;
----------
assign = array1d(1..11 ,[4, 4, 1, 4, 2, 4, 4, 1, 2, 3, 4]);
next = array1d(1..11 ,[4, 11, 8, 2, 9, 7, 1, 5, 10, 6, 3]);
makespan = 1131;
----------
assign = array1d(1..11 ,[4, 4, 1, 4, 3, 4, 4, 1, 2, 3, 4]);
next = array1d(1..11 ,[4, 11, 8, 2, 10, 7, 1, 9, 5, 6, 3]);
makespan = 1126;
----------
assign = array1d(1..11 ,[4, 4, 2, 4, 1, 4, 4, 1, 2, 3, 4]);
next = array1d(1..11 ,[4, 11, 9, 2, 8, 7, 1, 3, 10, 6, 5]);
makespan = 1124;
----------
assign = array1d(1..11 ,[4, 4, 1, 4, 3, 4, 4, 1, 2, 3, 4]);
next = array1d(1..11 ,[4, 11, 8, 2, 10, 7, 1, 9, 5, 6, 3]);
makespan = 1119;
----------
assign = array1d(1..11 ,[4, 4, 2, 4, 1, 4, 4, 1, 2, 3, 4]);
next = array1d(1..11 ,[4, 11, 9, 2, 8, 7, 1, 3, 10, 6, 5]);
makespan = 1118;
----------
assign = array1d(1..11 ,[4, 4, 1, 4, 3, 4, 4, 1, 2, 3, 4]);
next = array1d(1..11 ,[4, 11, 8, 2, 10, 7, 1, 9, 5, 6, 3]);
makespan = 1115;
----------
assign = array1d(1..11 ,[4, 4, 2, 4, 1, 4, 4, 1, 2, 3, 4]);
next = array1d(1..11 ,[4, 11, 9, 2, 8, 7, 1, 3, 10, 6, 5]);
makespan = 1091;
----------
assign = array1d(1..11 ,[4, 4, 1, 4, 3, 4, 4, 1, 2, 3, 4]);
next = array1d(1..11 ,[4, 11, 8, 2, 10, 7, 1, 9, 5, 6, 3]);
makespan = 1090;
----------
assign = array1d(1..11 ,[4, 4, 2, 4, 1, 4, 4, 1, 2, 3, 4]);
next = array1d(1..11 ,[4, 11, 9, 2, 8, 7, 1, 3, 10, 6, 5]);
makespan = 1085;
----------
assign = array1d(1..11 ,[4, 4, 1, 4, 3, 4, 4, 1, 2, 3, 4]);
next = array1d(1..11 ,[4, 11, 8, 2, 10, 7, 1, 9, 5, 6, 3]);
makespan = 1083;
----------
assign = array1d(1..11 ,[4, 4, 2, 4, 1, 4, 4, 1, 2, 3, 4]);
next = array1d(1..11 ,[4, 11, 9, 2, 8, 7, 1, 3, 10, 6, 5]);
makespan = 1078;
----------
assign = array1d(1..11 ,[4, 4, 3, 4, 1, 4, 4, 1, 2, 3, 4]);
next = array1d(1..11 ,[4, 11, 10, 2, 8, 7, 1, 9, 3, 6, 5]);
makespan = 1077;
----------
assign = array1d(1..11 ,[4, 4, 1, 4, 2, 4, 4, 1, 2, 3, 4]);
next = array1d(1..11 ,[4, 11, 8, 2, 9, 7, 1, 5, 10, 6, 3]);
makespan = 1076;
----------
assign = array1d(1..11 ,[4, 4, 1, 4, 3, 4, 4, 1, 2, 3, 4]);
next = array1d(1..11 ,[4, 11, 8, 2, 10, 7, 1, 9, 5, 6, 3]);
makespan = 1071;
----------
assign = array1d(1..11 ,[4, 4, 2, 4, 1, 4, 4, 1, 2, 3, 4]);
next = array1d(1..11 ,[4, 11, 9, 2, 8, 7, 1, 3, 10, 6, 5]);
makespan = 1070;
----------
assign = array1d(1..11 ,[4, 4, 1, 4, 3, 4, 4, 1, 2, 3, 4]);
next = array1d(1..11 ,[4, 11, 8, 2, 10, 7, 1, 9, 5, 6, 3]);
makespan = 1069;
----------
assign = array1d(1..11 ,[4, 4, 3, 4, 1, 4, 4, 1, 2, 3, 4]);
next = array1d(1..11 ,[4, 11, 10, 2, 8, 7, 1, 9, 3, 6, 5]);
makespan = 1068;
----------
assign = array1d(1..11 ,[4, 4, 1, 4, 3, 4, 4, 1, 2, 3, 4]);
next = array1d(1..11 ,[4, 11, 8, 2, 10, 7, 1, 9, 5, 6, 3]);
makespan = 1063;
----------
assign = array1d(1..11 ,[4, 4, 3, 4, 1, 4, 4, 1, 2, 3, 4]);
next = array1d(1..11 ,[4, 11, 10, 2, 8, 7, 1, 9, 3, 6, 5]);
makespan = 1062;
----------
assign = array1d(1..11 ,[4, 4, 1, 4, 3, 4, 4, 1, 2, 3, 4]);
next = array1d(1..11 ,[4, 11, 8, 2, 10, 7, 1, 9, 5, 6, 3]);
makespan = 1061;
----------
assign = array1d(1..11 ,[4, 4, 3, 4, 1, 4, 4, 1, 2, 3, 4]);
next = array1d(1..11 ,[4, 11, 10, 2, 8, 7, 1, 9, 3, 6, 5]);
makespan = 1056;
----------
assign = array1d(1..11 ,[4, 4, 1, 4, 3, 4, 4, 1, 2, 3, 4]);
next = array1d(1..11 ,[4, 11, 8, 2, 10, 7, 1, 9, 5, 6, 3]);
makespan = 1054;
----------
assign = array1d(1..11 ,[4, 4, 3, 4, 1, 4, 4, 1, 2, 3, 4]);
next = array1d(1..11 ,[4, 11, 10, 2, 8, 7, 1, 9, 3, 6, 5]);
makespan = 1049;
----------
assign = array1d(1..11 ,[4, 4, 2, 4, 3, 4, 4, 1, 2, 3, 4]);
next = array1d(1..11 ,[4, 11, 9, 2, 10, 7, 1, 3, 5, 6, 8]);
makespan = 1048;
----------
assign = array1d(1..11 ,[4, 4, 2, 4, 1, 4, 4, 1, 2, 3, 4]);
next = array1d(1..11 ,[4, 11, 9, 2, 8, 7, 1, 3, 10, 6, 5]);
makespan = 1047;
----------
assign = array1d(1..11 ,[4, 4, 2, 4, 3, 4, 4, 1, 2, 3, 4]);
next = array1d(1..11 ,[4, 11, 9, 2, 10, 7, 1, 3, 5, 6, 8]);
makespan = 1045;
----------
assign = array1d(1..11 ,[4, 4, 2, 4, 1, 4, 4, 1, 2, 3, 4]);
next = array1d(1..11 ,[4, 11, 9, 2, 8, 7, 1, 3, 10, 6, 5]);
makespan = 1042;
----------
assign = array1d(1..11 ,[4, 4, 2, 4, 3, 4, 4, 1, 2, 3, 4]);
next = array1d(1..11 ,[4, 11, 9, 2, 10, 7, 1, 3, 5, 6, 8]);
makespan = 1041;
----------
assign = array1d(1..11 ,[4, 4, 2, 4, 1, 4, 4, 1, 2, 3, 4]);
next = array1d(1..11 ,[4, 11, 9, 2, 8, 7, 1, 3, 10, 6, 5]);
makespan = 1034;
----------
assign = array1d(1..11 ,[4, 4, 2, 4, 3, 4, 4, 1, 2, 3, 4]);
next = array1d(1..11 ,[4, 11, 9, 2, 10, 7, 1, 3, 5, 6, 8]);
makespan = 1031;
----------
assign = array1d(1..11 ,[4, 4, 2, 4, 1, 4, 4, 1, 2, 3, 4]);
next = array1d(1..11 ,[4, 11, 9, 2, 8, 7, 1, 3, 10, 6, 5]);
makespan = 1022;
----------
assign = array1d(1..11 ,[4, 4, 2, 4, 3, 4, 4, 1, 2, 3, 4]);
next = array1d(1..11 ,[4, 11, 9, 2, 10, 7, 1, 3, 5, 6, 8]);
makespan = 1021;
----------
assign = array1d(1..11 ,[4, 4, 2, 4, 1, 4, 4, 1, 2, 3, 4]);
next = array1d(1..11 ,[4, 11, 9, 2, 8, 7, 1, 3, 10, 6, 5]);
makespan = 1016;
----------
assign = array1d(1..11 ,[4, 4, 2, 4, 3, 4, 4, 1, 2, 3, 4]);
next = array1d(1..11 ,[4, 11, 9, 2, 10, 7, 1, 3, 5, 6, 8]);
makespan = 1006;
----------
assign = array1d(1..11 ,[4, 4, 2, 4, 1, 4, 4, 1, 2, 3, 4]);
next = array1d(1..11 ,[4, 11, 9, 2, 8, 7, 1, 3, 10, 6, 5]);
makespan = 1003;
----------
assign = array1d(1..11 ,[4, 4, 2, 4, 3, 4, 4, 1, 2, 3, 4]);
next = array1d(1..11 ,[4, 11, 9, 2, 10, 7, 1, 3, 5, 6, 8]);
makespan = 1001;
----------
assign = array1d(1..11 ,[4, 4, 2, 4, 1, 4, 4, 1, 2, 3, 4]);
next = array1d(1..11 ,[4, 11, 9, 2, 8, 7, 1, 3, 10, 6, 5]);
makespan = 1000;
----------
assign = array1d(1..11 ,[4, 4, 2, 4, 3, 4, 4, 1, 2, 3, 4]);
next = array1d(1..11 ,[4, 11, 9, 2, 10, 7, 1, 3, 5, 6, 8]);
makespan = 993;
----------
assign = array1d(1..11 ,[4, 4, 3, 4, 1, 4, 4, 1, 2, 3, 4]);
next = array1d(1..11 ,[4, 11, 10, 2, 8, 7, 1, 9, 3, 6, 5]);
makespan = 992;
----------
assign = array1d(1..11 ,[4, 4, 2, 4, 3, 4, 4, 1, 2, 3, 4]);
next = array1d(1..11 ,[4, 11, 9, 2, 10, 7, 1, 3, 5, 6, 8]);
makespan = 991;
----------
assign = array1d(1..11 ,[4, 4, 3, 4, 1, 4, 4, 1, 2, 3, 4]);
next = array1d(1..11 ,[4, 11, 10, 2, 8, 7, 1, 9, 3, 6, 5]);
makespan = 986;
----------
assign = array1d(1..11 ,[4, 4, 2, 4, 3, 4, 4, 1, 2, 3, 4]);
next = array1d(1..11 ,[4, 11, 9, 2, 10, 7, 1, 3, 5, 6, 8]);
makespan = 984;
----------
assign = array1d(1..11 ,[4, 4, 2, 4, 1, 4, 4, 1, 2, 3, 4]);
next = array1d(1..11 ,[4, 11, 9, 2, 8, 7, 1, 3, 10, 6, 5]);
makespan = 981;
----------
assign = array1d(1..11 ,[4, 4, 2, 4, 3, 4, 4, 1, 2, 3, 4]);
next = array1d(1..11 ,[4, 11, 9, 2, 10, 7, 1, 3, 5, 6, 8]);
makespan = 979;
----------
assign = array1d(1..11 ,[4, 4, 2, 4, 1, 4, 4, 1, 2, 3, 4]);
next = array1d(1..11 ,[4, 11, 9, 2, 8, 7, 1, 3, 10, 6, 5]);
makespan = 978;
----------
assign = array1d(1..11 ,[4, 4, 3, 4, 1, 4, 4, 1, 2, 3, 4]);
next = array1d(1..11 ,[4, 11, 10, 2, 8, 7, 1, 9, 3, 6, 5]);
makespan = 977;
----------
assign = array1d(1..11 ,[4, 4, 3, 4, 2, 4, 4, 1, 2, 3, 4]);
next = array1d(1..11 ,[4, 11, 10, 2, 9, 7, 1, 5, 3, 6, 8]);
makespan = 972;
----------
assign = array1d(1..11 ,[4, 4, 3, 4, 1, 4, 4, 1, 2, 3, 4]);
next = array1d(1..11 ,[4, 11, 10, 2, 8, 7, 1, 9, 3, 6, 5]);
makespan = 971;
----------
assign = array1d(1..11 ,[4, 4, 2, 4, 3, 4, 4, 1, 2, 3, 4]);
next = array1d(1..11 ,[4, 11, 9, 2, 10, 7, 1, 3, 5, 6, 8]);
makespan = 964;
----------
assign = array1d(1..11 ,[4, 4, 2, 4, 1, 4, 4, 1, 2, 3, 4]);
next = array1d(1..11 ,[4, 11, 9, 2, 8, 7, 1, 3, 10, 6, 5]);
makespan = 961;
----------
assign = array1d(1..11 ,[4, 2, 3, 4, 4, 4, 4, 1, 2, 3, 4]);
next = array1d(1..11 ,[4, 9, 10, 5, 11, 7, 1, 2, 3, 6, 8]);
makespan = 957;
----------
assign = array1d(1..11 ,[4, 2, 3, 4, 4, 4, 4, 1, 2, 3, 4]);
next = array1d(1..11 ,[4, 9, 10, 5, 11, 7, 1, 2, 3, 6, 8]);
makespan = 955;
----------
assign = array1d(1..11 ,[4, 2, 3, 4, 1, 4, 4, 1, 2, 3, 4]);
next = array1d(1..11 ,[4, 9, 10, 11, 8, 7, 1, 2, 3, 6, 5]);
makespan = 916;
----------
assign = array1d(1..11 ,[4, 2, 3, 4, 1, 4, 4, 1, 2, 3, 4]);
next = array1d(1..11 ,[4, 9, 10, 11, 8, 7, 1, 2, 3, 6, 5]);
makespan = 911;
----------
assign = array1d(1..11 ,[4, 2, 3, 4, 1, 4, 4, 1, 2, 3, 4]);
next = array1d(1..11 ,[4, 9, 10, 11, 8, 7, 1, 2, 3, 6, 5]);
makespan = 907;
----------
assign = array1d(1..11 ,[4, 2, 3, 4, 1, 4, 4, 1, 2, 3, 4]);
next = array1d(1..11 ,[4, 9, 10, 11, 8, 7, 1, 2, 3, 6, 5]);
makespan = 904;
----------
assign = array1d(1..11 ,[4, 2, 3, 4, 1, 4, 4, 1, 2, 3, 4]);
next = array1d(1..11 ,[4, 9, 10, 11, 8, 7, 1, 2, 3, 6, 5]);
makespan = 890;
----------
assign = array1d(1..11 ,[4, 2, 3, 4, 1, 4, 4, 1, 2, 3, 4]);
next = array1d(1..11 ,[4, 9, 10, 11, 8, 7, 1, 2, 3, 6, 5]);
makespan = 887;
----------
assign = array1d(1..11 ,[4, 2, 3, 4, 1, 4, 4, 1, 2, 3, 4]);
next = array1d(1..11 ,[4, 9, 10, 11, 8, 7, 1, 2, 3, 6, 5]);
makespan = 877;
----------
assign = array1d(1..11 ,[4, 2, 3, 4, 1, 4, 4, 1, 2, 3, 4]);
next = array1d(1..11 ,[4, 9, 10, 11, 8, 7, 1, 2, 3, 6, 5]);
makespan = 866;
----------
assign = array1d(1..11 ,[4, 2, 3, 4, 1, 4, 4, 1, 2, 3, 4]);
next = array1d(1..11 ,[4, 9, 10, 11, 8, 7, 1, 2, 3, 6, 5]);
makespan = 861;
----------
assign = array1d(1..11 ,[4, 2, 3, 4, 1, 4, 4, 1, 2, 3, 4]);
next = array1d(1..11 ,[4, 9, 10, 11, 8, 7, 1, 2, 3, 6, 5]);
makespan = 844;
----------
assign = array1d(1..11 ,[4, 2, 3, 4, 1, 4, 4, 1, 2, 3, 4]);
next = array1d(1..11 ,[4, 9, 10, 11, 8, 7, 1, 2, 3, 6, 5]);
makespan = 841;
----------
assign = array1d(1..11 ,[4, 2, 3, 4, 1, 4, 4, 1, 2, 3, 4]);
next = array1d(1..11 ,[4, 9, 10, 11, 8, 7, 1, 2, 3, 6, 5]);
makespan = 837;
----------
assign = array1d(1..11 ,[4, 2, 3, 4, 1, 4, 4, 1, 2, 3, 4]);
next = array1d(1..11 ,[4, 9, 10, 11, 8, 7, 1, 2, 3, 6, 5]);
makespan = 829;
----------
assign = array1d(1..11 ,[4, 2, 3, 4, 1, 4, 4, 1, 2, 3, 4]);
next = array1d(1..11 ,[4, 9, 10, 11, 8, 7, 1, 2, 3, 6, 5]);
makespan = 827;
----------
assign = array1d(1..11 ,[4, 2, 3, 4, 1, 4, 4, 1, 2, 3, 4]);
next = array1d(1..11 ,[4, 9, 10, 11, 8, 7, 1, 2, 3, 6, 5]);
makespan = 826;
----------
assign = array1d(1..11 ,[4, 2, 3, 4, 1, 4, 4, 1, 2, 3, 4]);
next = array1d(1..11 ,[4, 9, 10, 11, 8, 7, 1, 2, 3, 6, 5]);
makespan = 820;
----------
assign = array1d(1..11 ,[4, 2, 3, 4, 1, 4, 4, 1, 2, 3, 4]);
next = array1d(1..11 ,[4, 9, 10, 11, 8, 7, 1, 2, 3, 6, 5]);
makespan = 817;
----------
assign = array1d(1..11 ,[4, 2, 3, 4, 1, 4, 4, 1, 2, 3, 4]);
next = array1d(1..11 ,[4, 9, 10, 11, 8, 7, 1, 2, 3, 6, 5]);
makespan = 813;
----------
assign = array1d(1..11 ,[4, 2, 3, 4, 1, 4, 4, 1, 2, 3, 4]);
next = array1d(1..11 ,[4, 9, 10, 11, 8, 7, 1, 2, 3, 6, 5]);
makespan = 743;
----------
assign = array1d(1..11 ,[4, 4, 2, 3, 1, 4, 4, 1, 2, 3, 4]);
next = array1d(1..11 ,[2, 11, 9, 10, 8, 7, 1, 3, 4, 6, 5]);
makespan = 712;
----------
assign = array1d(1..11 ,[4, 3, 3, 1, 2, 4, 4, 1, 2, 3, 4]);
next = array1d(1..11 ,[11, 10, 2, 8, 9, 7, 1, 5, 3, 6, 4]);
makespan = 703;
----------
assign = array1d(1..11 ,[4, 2, 2, 1, 3, 4, 4, 1, 2, 3, 4]);
next = array1d(1..11 ,[11, 9, 2, 8, 10, 7, 1, 3, 5, 6, 4]);
makespan = 692;
----------
assign = array1d(1..11 ,[4, 3, 3, 1, 2, 4, 4, 1, 2, 3, 4]);
next = array1d(1..11 ,[11, 10, 2, 8, 9, 7, 1, 5, 3, 6, 4]);
makespan = 682;
----------
assign = array1d(1..11 ,[4, 1, 1, 2, 3, 4, 4, 1, 2, 3, 4]);
next = array1d(1..11 ,[11, 8, 2, 9, 10, 7, 1, 4, 5, 6, 3]);
makespan = 667;
----------
assign = array1d(1..11 ,[4, 3, 3, 2, 1, 4, 4, 1, 2, 3, 4]);
next = array1d(1..11 ,[11, 10, 2, 9, 8, 7, 1, 4, 3, 6, 5]);
makespan = 653;
----------
assign = array1d(1..11 ,[4, 1, 1, 2, 3, 4, 4, 1, 2, 3, 4]);
next = array1d(1..11 ,[11, 8, 2, 9, 10, 7, 1, 4, 5, 6, 3]);
makespan = 610;
----------
assign = array1d(1..11 ,[4, 3, 3, 2, 1, 4, 4, 1, 2, 3, 4]);
next = array1d(1..11 ,[11, 10, 2, 9, 8, 7, 1, 4, 3, 6, 5]);
makespan = 605;
----------
assign = array1d(1..11 ,[4, 1, 1, 2, 3, 4, 4, 1, 2, 3, 4]);
next = array1d(1..11 ,[11, 8, 2, 9, 10, 7, 1, 4, 5, 6, 3]);
makespan = 590;
----------
assign = array1d(1..11 ,[4, 3, 3, 2, 1, 4, 4, 1, 2, 3, 4]);
next = array1d(1..11 ,[11, 10, 2, 9, 8, 7, 1, 4, 3, 6, 5]);
makespan = 583;
----------
assign = array1d(1..11 ,[4, 1, 1, 2, 3, 4, 4, 1, 2, 3, 4]);
next = array1d(1..11 ,[11, 8, 2, 9, 10, 7, 1, 4, 5, 6, 3]);
makespan = 576;
----------
assign = array1d(1..11 ,[4, 3, 3, 2, 1, 4, 4, 1, 2, 3, 4]);
next = array1d(1..11 ,[11, 10, 2, 9, 8, 7, 1, 4, 3, 6, 5]);
makespan = 575;
----------
assign = array1d(1..11 ,[4, 1, 1, 2, 3, 4, 4, 1, 2, 3, 4]);
next = array1d(1..11 ,[11, 8, 2, 9, 10, 7, 1, 4, 5, 6, 3]);
makespan = 531;
----------
assign = array1d(1..11 ,[4, 3, 3, 2, 1, 4, 4, 1, 2, 3, 4]);
next = array1d(1..11 ,[11, 10, 2, 9, 8, 7, 1, 4, 3, 6, 5]);
makespan = 506;
----------
assign = array1d(1..11 ,[2, 1, 1, 3, 3, 4, 4, 1, 2, 3, 4]);
next = array1d(1..11 ,[9, 8, 2, 10, 4, 7, 11, 1, 5, 6, 3]);
makespan = 505;
----------
assign = array1d(1..11 ,[3, 1, 1, 2, 2, 4, 4, 1, 2, 3, 4]);
next = array1d(1..11 ,[10, 8, 2, 9, 4, 7, 11, 5, 1, 6, 3]);
makespan = 472;
----------
assign = array1d(1..11 ,[2, 1, 1, 3, 3, 4, 4, 1, 2, 3, 4]);
next = array1d(1..11 ,[9, 8, 2, 10, 4, 7, 11, 1, 5, 6, 3]);
makespan = 428;
----------
assign = array1d(1..11 ,[1, 3, 3, 2, 2, 4, 4, 1, 2, 3, 4]);
next = array1d(1..11 ,[8, 10, 2, 9, 4, 7, 11, 5, 3, 6, 1]);
makespan = 402;
----------
assign = array1d(1..11 ,[2, 1, 1, 3, 3, 4, 4, 1, 2, 3, 4]);
next = array1d(1..11 ,[9, 8, 2, 10, 4, 7, 11, 1, 5, 6, 3]);
makespan = 380;
----------
assign = array1d(1..11 ,[1, 3, 3, 2, 2, 4, 4, 1, 2, 3, 4]);
next = array1d(1..11 ,[8, 10, 2, 9, 4, 7, 11, 5, 3, 6, 1]);
makespan = 373;
----------
assign = array1d(1..11 ,[3, 2, 2, 1, 1, 4, 4, 1, 2, 3, 4]);
next = array1d(1..11 ,[10, 9, 2, 8, 4, 7, 11, 3, 1, 6, 5]);
makespan = 344;
----------
assign = array1d(1..11 ,[2, 1, 1, 3, 3, 4, 4, 1, 2, 3, 4]);
next = array1d(1..11 ,[9, 8, 2, 10, 4, 7, 11, 1, 5, 6, 3]);
makespan = 323;
----------
assign = array1d(1..11 ,[1, 2, 1, 3, 3, 4, 4, 1, 2, 3, 4]);
next = array1d(1..11 ,[8, 9, 1, 10, 4, 7, 11, 2, 5, 6, 3]);
makespan = 314;
----------
assign = array1d(1..11 ,[2, 3, 1, 2, 1, 4, 4, 1, 2, 3, 4]);
next = array1d(1..11 ,[9, 10, 8, 1, 3, 7, 11, 4, 2, 6, 5]);
makespan = 309;
----------
assign = array1d(1..11 ,[4, 2, 4, 3, 3, 1, 1, 1, 2, 3, 4]);
next = array1d(1..11 ,[11, 9, 1, 5, 10, 7, 8, 2, 4, 3, 6]);
makespan = 306;
----------
assign = array1d(1..11 ,[3, 2, 4, 3, 4, 1, 1, 1, 2, 3, 4]);
next = array1d(1..11 ,[4, 9, 11, 10, 3, 7, 8, 2, 1, 5, 6]);
makespan = 305;
----------
assign = array1d(1..11 ,[3, 3, 2, 4, 2, 1, 1, 1, 2, 3, 4]);
next = array1d(1..11 ,[10, 1, 9, 11, 3, 7, 8, 5, 2, 4, 6]);
makespan = 303;
----------
assign = array1d(1..11 ,[4, 2, 1, 3, 1, 4, 3, 1, 2, 3, 4]);
next = array1d(1..11 ,[6, 9, 8, 7, 3, 11, 10, 2, 4, 1, 5]);
makespan = 299;
----------
assign = array1d(1..11 ,[4, 2, 1, 3, 1, 4, 3, 1, 2, 3, 4]);
next = array1d(1..11 ,[6, 9, 8, 7, 3, 11, 10, 2, 4, 1, 5]);
makespan = 294;
----------
assign = array1d(1..11 ,[3, 2, 1, 2, 1, 4, 3, 1, 2, 3, 4]);
next = array1d(1..11 ,[7, 9, 8, 2, 3, 11, 10, 4, 1, 6, 5]);
makespan = 289;
----------
assign = array1d(1..11 ,[4, 4, 1, 2, 1, 3, 3, 1, 2, 3, 4]);
next = array1d(1..11 ,[2, 11, 8, 9, 3, 7, 10, 4, 6, 1, 5]);
makespan = 288;
----------
assign = array1d(1..11 ,[1, 2, 4, 2, 4, 3, 3, 1, 2, 3, 4]);
next = array1d(1..11 ,[8, 9, 11, 2, 3, 7, 10, 4, 6, 5, 1]);
makespan = 286;
----------
assign = array1d(1..11 ,[3, 1, 1, 3, 2, 2, 4, 1, 2, 3, 4]);
next = array1d(1..11 ,[4, 8, 2, 10, 6, 9, 11, 5, 1, 7, 3]);
makespan = 285;
----------
assign = array1d(1..11 ,[4, 4, 1, 3, 2, 2, 1, 1, 2, 3, 4]);
next = array1d(1..11 ,[2, 11, 7, 10, 6, 9, 8, 5, 4, 1, 3]);
makespan = 283;
----------
assign = array1d(1..11 ,[3, 1, 4, 1, 2, 2, 3, 1, 2, 3, 4]);
next = array1d(1..11 ,[7, 8, 11, 2, 6, 9, 10, 5, 1, 3, 4]);
makespan = 282;
----------
assign = array1d(1..11 ,[3, 1, 1, 4, 2, 2, 3, 1, 2, 3, 4]);
next = array1d(1..11 ,[7, 3, 8, 11, 6, 9, 10, 5, 1, 4, 2]);
makespan = 279;
----------
assign = array1d(1..11 ,[3, 1, 4, 1, 2, 2, 3, 1, 2, 3, 4]);
next = array1d(1..11 ,[7, 8, 11, 2, 6, 9, 10, 5, 1, 3, 4]);
makespan = 278;
----------
assign = array1d(1..11 ,[4, 4, 1, 1, 3, 2, 3, 1, 2, 3, 4]);
next = array1d(1..11 ,[2, 11, 4, 8, 7, 9, 10, 6, 5, 1, 3]);
makespan = 276;
----------
==========
	Command being timed: "mzn-chuffed lbbd-datasets/Rabadi-2006/dzn-s-dominant/model.mzn lbbd-datasets/Rabadi-2006/dzn-s-dominant/7on4Rp50Rs50_12Ameer.dzn"
	User time (seconds): 0.37
	System time (seconds): 0.02
	Percent of CPU this job got: 35%
	Elapsed (wall clock) time (h:mm:ss or m:ss): 0:01.13
	Average shared text size (kbytes): 0
	Average unshared data size (kbytes): 0
	Average stack size (kbytes): 0
	Average total size (kbytes): 0
	Maximum resident set size (kbytes): 33792
	Average resident set size (kbytes): 0
	Major (requiring I/O) page faults: 0
	Minor (reclaiming a frame) page faults: 3066
	Voluntary context switches: 161
	Involuntary context switches: 4
	Swaps: 0
	File system inputs: 0
	File system outputs: 256
	Socket messages sent: 0
	Socket messages received: 0
	Signals delivered: 0
	Page size (bytes): 4096
	Exit status: 0
