+ /usr/bin/timeout 600 /usr/bin/time -v mzn-chuffed lbbd-datasets/Rabadi-2006/dzn-balanced/model.mzn lbbd-datasets/Rabadi-2006/dzn-balanced/10on8Rp50Rs50_12Ameer.dzn
% No search annotation given. Defaulting to VSIDS!
assign = array1d(1..18 ,[8, 8, 8, 8, 8, 8, 8, 8, 8, 8, 1, 2, 3, 4, 5, 6, 7, 8]);
next = array1d(1..18 ,[2, 3, 4, 5, 6, 7, 8, 9, 10, 18, 12, 13, 14, 15, 16, 17, 1, 11]);
makespan = 1394;
----------
assign = array1d(1..18 ,[8, 8, 8, 8, 8, 8, 8, 8, 8, 8, 1, 2, 3, 4, 5, 6, 7, 8]);
next = array1d(1..18 ,[3, 4, 2, 5, 6, 7, 8, 9, 10, 18, 12, 13, 14, 15, 16, 17, 1, 11]);
makespan = 1388;
----------
assign = array1d(1..18 ,[8, 8, 8, 8, 8, 8, 8, 8, 8, 1, 1, 2, 3, 4, 5, 6, 7, 8]);
next = array1d(1..18 ,[6, 4, 1, 9, 18, 5, 8, 2, 3, 11, 12, 13, 14, 15, 16, 17, 7, 10]);
makespan = 1339;
----------
assign = array1d(1..18 ,[8, 8, 6, 8, 8, 8, 8, 8, 8, 8, 1, 2, 3, 4, 5, 6, 7, 8]);
next = array1d(1..18 ,[6, 7, 16, 2, 18, 10, 5, 9, 1, 4, 12, 13, 14, 15, 3, 17, 8, 11]);
makespan = 1337;
----------
assign = array1d(1..18 ,[8, 8, 8, 8, 8, 8, 8, 8, 1, 8, 1, 2, 3, 4, 5, 6, 7, 8]);
next = array1d(1..18 ,[8, 5, 7, 1, 18, 4, 10, 2, 11, 6, 12, 13, 14, 15, 16, 17, 3, 9]);
makespan = 1333;
----------
assign = array1d(1..18 ,[8, 8, 8, 8, 8, 8, 8, 8, 7, 8, 1, 2, 3, 4, 5, 6, 7, 8]);
next = array1d(1..18 ,[6, 8, 18, 7, 4, 3, 2, 10, 17, 1, 12, 13, 14, 15, 16, 9, 5, 11]);
makespan = 1330;
----------
assign = array1d(1..18 ,[1, 8, 8, 8, 8, 8, 8, 8, 8, 8, 1, 2, 3, 4, 5, 6, 7, 8]);
next = array1d(1..18 ,[11, 3, 18, 9, 8, 10, 2, 4, 7, 5, 12, 13, 14, 15, 16, 17, 6, 1]);
makespan = 1327;
----------
assign = array1d(1..18 ,[8, 8, 8, 8, 8, 8, 8, 8, 8, 4, 1, 2, 3, 4, 5, 6, 7, 8]);
next = array1d(1..18 ,[8, 6, 1, 9, 4, 3, 18, 7, 2, 14, 12, 13, 10, 15, 16, 17, 5, 11]);
makespan = 1326;
----------
assign = array1d(1..18 ,[1, 8, 8, 8, 8, 8, 8, 8, 8, 8, 1, 2, 3, 4, 5, 6, 7, 8]);
next = array1d(1..18 ,[11, 5, 6, 7, 4, 9, 3, 18, 8, 2, 12, 13, 14, 15, 16, 17, 10, 1]);
makespan = 1325;
----------
assign = array1d(1..18 ,[8, 8, 8, 8, 7, 8, 8, 8, 8, 8, 1, 2, 3, 4, 5, 6, 7, 8]);
next = array1d(1..18 ,[4, 10, 6, 2, 17, 18, 8, 9, 3, 7, 12, 13, 14, 15, 16, 5, 1, 11]);
makespan = 1324;
----------
assign = array1d(1..18 ,[8, 8, 8, 8, 8, 8, 8, 8, 8, 7, 1, 2, 3, 4, 5, 6, 7, 8]);
next = array1d(1..18 ,[6, 5, 1, 18, 4, 7, 9, 2, 8, 17, 12, 13, 14, 15, 16, 10, 3, 11]);
makespan = 1322;
----------
assign = array1d(1..18 ,[1, 8, 8, 8, 8, 8, 8, 8, 8, 8, 1, 2, 3, 4, 5, 6, 7, 8]);
next = array1d(1..18 ,[11, 5, 18, 7, 8, 2, 3, 9, 10, 4, 12, 13, 14, 15, 16, 17, 6, 1]);
makespan = 1321;
----------
assign = array1d(1..18 ,[8, 8, 8, 8, 8, 1, 8, 8, 8, 8, 1, 2, 3, 4, 5, 6, 7, 8]);
next = array1d(1..18 ,[18, 3, 10, 7, 4, 11, 8, 9, 1, 5, 12, 13, 14, 15, 16, 17, 2, 6]);
makespan = 1320;
----------
assign = array1d(1..18 ,[8, 8, 8, 8, 8, 4, 8, 8, 8, 8, 1, 2, 3, 4, 5, 6, 7, 8]);
next = array1d(1..18 ,[5, 18, 1, 9, 4, 14, 3, 10, 2, 7, 12, 13, 6, 15, 16, 17, 8, 11]);
makespan = 1319;
----------
assign = array1d(1..18 ,[8, 8, 8, 8, 8, 6, 8, 8, 8, 8, 1, 2, 3, 4, 5, 6, 7, 8]);
next = array1d(1..18 ,[3, 5, 18, 1, 10, 16, 8, 4, 7, 9, 12, 13, 14, 15, 6, 17, 2, 11]);
makespan = 1315;
----------
assign = array1d(1..18 ,[8, 8, 8, 8, 8, 8, 8, 8, 8, 1, 1, 2, 3, 4, 5, 6, 7, 8]);
next = array1d(1..18 ,[4, 5, 1, 9, 8, 18, 6, 7, 2, 11, 12, 13, 14, 15, 16, 17, 3, 10]);
makespan = 1311;
----------
assign = array1d(1..18 ,[8, 8, 8, 8, 8, 7, 8, 8, 8, 8, 1, 2, 3, 4, 5, 6, 7, 8]);
next = array1d(1..18 ,[8, 1, 10, 9, 7, 17, 2, 18, 5, 4, 12, 13, 14, 15, 16, 6, 3, 11]);
makespan = 1310;
----------
assign = array1d(1..18 ,[8, 8, 8, 8, 8, 8, 8, 8, 8, 1, 1, 2, 3, 4, 5, 6, 7, 8]);
next = array1d(1..18 ,[7, 5, 6, 9, 1, 4, 18, 2, 8, 11, 12, 13, 14, 15, 16, 17, 3, 10]);
makespan = 1305;
----------
assign = array1d(1..18 ,[8, 8, 8, 8, 8, 8, 8, 8, 8, 1, 1, 2, 3, 4, 5, 6, 7, 8]);
next = array1d(1..18 ,[6, 3, 18, 9, 4, 5, 8, 1, 2, 11, 12, 13, 14, 15, 16, 17, 7, 10]);
makespan = 1304;
----------
assign = array1d(1..18 ,[8, 8, 8, 8, 8, 8, 1, 8, 8, 8, 1, 2, 3, 4, 5, 6, 7, 8]);
next = array1d(1..18 ,[8, 1, 4, 9, 18, 10, 11, 6, 2, 5, 12, 13, 14, 15, 16, 17, 3, 7]);
makespan = 1303;
----------
assign = array1d(1..18 ,[8, 8, 8, 8, 8, 8, 1, 8, 8, 8, 1, 2, 3, 4, 5, 6, 7, 8]);
next = array1d(1..18 ,[18, 10, 1, 3, 4, 8, 11, 9, 5, 6, 12, 13, 14, 15, 16, 17, 2, 7]);
makespan = 1302;
----------
assign = array1d(1..18 ,[8, 7, 8, 8, 8, 8, 8, 7, 8, 8, 1, 2, 3, 4, 5, 6, 7, 8]);
next = array1d(1..18 ,[6, 8, 1, 7, 18, 10, 3, 17, 5, 9, 12, 13, 14, 15, 16, 2, 4, 11]);
makespan = 1300;
----------
assign = array1d(1..18 ,[8, 7, 7, 8, 8, 8, 8, 8, 8, 8, 1, 2, 3, 4, 5, 6, 7, 8]);
next = array1d(1..18 ,[6, 17, 2, 9, 4, 10, 8, 1, 18, 5, 12, 13, 14, 15, 16, 3, 7, 11]);
makespan = 1276;
----------
assign = array1d(1..18 ,[8, 7, 7, 8, 8, 8, 8, 8, 8, 8, 1, 2, 3, 4, 5, 6, 7, 8]);
next = array1d(1..18 ,[8, 3, 17, 7, 6, 4, 1, 18, 5, 9, 12, 13, 14, 15, 16, 2, 10, 11]);
makespan = 1275;
----------
assign = array1d(1..18 ,[8, 7, 8, 8, 8, 8, 7, 8, 8, 8, 1, 2, 3, 4, 5, 6, 7, 8]);
next = array1d(1..18 ,[8, 17, 1, 9, 4, 10, 2, 18, 3, 5, 12, 13, 14, 15, 16, 7, 6, 11]);
makespan = 1272;
----------
