+ /usr/bin/timeout 600 /usr/bin/time -v mzn-chuffed lbbd-datasets/Rabadi-2006/dzn-balanced/model.mzn lbbd-datasets/Rabadi-2006/dzn-balanced/10on4Rp50Rs50_4Ameer.dzn
% No search annotation given. Defaulting to VSIDS!
assign = array1d(1..14 ,[4, 4, 4, 4, 4, 4, 4, 4, 4, 4, 1, 2, 3, 4]);
next = array1d(1..14 ,[2, 3, 4, 5, 6, 7, 8, 9, 10, 14, 12, 13, 1, 11]);
makespan = 1341;
----------
assign = array1d(1..14 ,[4, 4, 4, 4, 4, 4, 4, 4, 4, 4, 1, 2, 3, 4]);
next = array1d(1..14 ,[3, 4, 2, 5, 6, 7, 8, 9, 10, 14, 12, 13, 1, 11]);
makespan = 1293;
----------
assign = array1d(1..14 ,[4, 4, 4, 4, 4, 4, 4, 4, 4, 1, 1, 2, 3, 4]);
next = array1d(1..14 ,[2, 5, 4, 1, 6, 7, 8, 9, 14, 11, 12, 13, 3, 10]);
makespan = 1242;
----------
assign = array1d(1..14 ,[4, 4, 4, 4, 4, 4, 1, 4, 4, 4, 1, 2, 3, 4]);
next = array1d(1..14 ,[2, 5, 4, 14, 6, 3, 11, 9, 10, 1, 12, 13, 8, 7]);
makespan = 1239;
----------
assign = array1d(1..14 ,[4, 4, 4, 4, 4, 1, 4, 4, 4, 4, 1, 2, 3, 4]);
next = array1d(1..14 ,[7, 14, 5, 9, 2, 11, 4, 1, 10, 3, 12, 13, 8, 6]);
makespan = 1237;
----------
assign = array1d(1..14 ,[4, 4, 4, 4, 4, 1, 4, 4, 4, 4, 1, 2, 3, 4]);
next = array1d(1..14 ,[4, 8, 7, 9, 2, 11, 14, 1, 10, 3, 12, 13, 5, 6]);
makespan = 1236;
----------
assign = array1d(1..14 ,[4, 4, 4, 4, 4, 1, 4, 4, 4, 4, 1, 2, 3, 4]);
next = array1d(1..14 ,[10, 3, 1, 7, 14, 11, 5, 4, 8, 9, 12, 13, 2, 6]);
makespan = 1232;
----------
assign = array1d(1..14 ,[1, 4, 4, 4, 4, 4, 4, 4, 4, 4, 1, 2, 3, 4]);
next = array1d(1..14 ,[11, 3, 9, 7, 8, 4, 2, 6, 14, 5, 12, 13, 10, 1]);
makespan = 1230;
----------
assign = array1d(1..14 ,[4, 4, 4, 2, 4, 4, 4, 4, 4, 4, 1, 2, 3, 4]);
next = array1d(1..14 ,[5, 3, 9, 12, 8, 14, 2, 6, 1, 7, 4, 13, 10, 11]);
makespan = 1227;
----------
assign = array1d(1..14 ,[4, 4, 4, 2, 4, 4, 4, 4, 4, 4, 1, 2, 3, 4]);
next = array1d(1..14 ,[5, 3, 9, 12, 8, 10, 2, 6, 1, 14, 4, 13, 7, 11]);
makespan = 1217;
----------
assign = array1d(1..14 ,[4, 4, 4, 2, 4, 4, 4, 4, 4, 4, 1, 2, 3, 4]);
next = array1d(1..14 ,[5, 3, 9, 12, 8, 10, 2, 6, 1, 14, 4, 13, 7, 11]);
makespan = 1214;
----------
assign = array1d(1..14 ,[4, 4, 4, 2, 4, 4, 4, 4, 4, 4, 1, 2, 3, 4]);
next = array1d(1..14 ,[5, 3, 9, 12, 8, 10, 2, 6, 1, 14, 4, 13, 7, 11]);
makespan = 1211;
----------
assign = array1d(1..14 ,[4, 4, 4, 2, 4, 4, 4, 4, 4, 4, 1, 2, 3, 4]);
next = array1d(1..14 ,[5, 3, 9, 12, 8, 10, 2, 6, 14, 7, 4, 13, 1, 11]);
makespan = 1206;
----------
assign = array1d(1..14 ,[4, 4, 4, 2, 4, 4, 4, 4, 4, 2, 1, 2, 3, 4]);
next = array1d(1..14 ,[5, 3, 9, 12, 8, 14, 2, 6, 1, 4, 10, 13, 7, 11]);
makespan = 1200;
----------
assign = array1d(1..14 ,[4, 4, 4, 2, 4, 4, 4, 4, 4, 2, 1, 2, 3, 4]);
next = array1d(1..14 ,[5, 3, 9, 12, 8, 14, 2, 6, 1, 4, 10, 13, 7, 11]);
makespan = 1199;
----------
assign = array1d(1..14 ,[4, 4, 4, 2, 4, 4, 4, 4, 4, 2, 1, 2, 3, 4]);
next = array1d(1..14 ,[5, 3, 9, 12, 8, 14, 2, 6, 1, 4, 10, 13, 7, 11]);
makespan = 1198;
----------
assign = array1d(1..14 ,[4, 4, 4, 2, 4, 4, 4, 4, 4, 2, 1, 2, 3, 4]);
next = array1d(1..14 ,[5, 3, 9, 12, 8, 14, 2, 6, 1, 4, 10, 13, 7, 11]);
makespan = 1174;
----------
assign = array1d(1..14 ,[4, 4, 4, 2, 4, 4, 4, 4, 4, 2, 1, 2, 3, 4]);
next = array1d(1..14 ,[5, 3, 9, 12, 8, 14, 2, 6, 1, 4, 10, 13, 7, 11]);
makespan = 1172;
----------
assign = array1d(1..14 ,[4, 4, 4, 2, 4, 4, 4, 4, 4, 2, 1, 2, 3, 4]);
next = array1d(1..14 ,[5, 3, 9, 12, 8, 14, 2, 6, 1, 4, 10, 13, 7, 11]);
makespan = 1167;
----------
assign = array1d(1..14 ,[4, 4, 4, 2, 4, 4, 4, 4, 4, 2, 1, 2, 3, 4]);
next = array1d(1..14 ,[5, 3, 9, 12, 8, 14, 2, 6, 1, 4, 10, 13, 7, 11]);
makespan = 1164;
----------
assign = array1d(1..14 ,[4, 4, 4, 2, 4, 4, 4, 4, 4, 2, 1, 2, 3, 4]);
next = array1d(1..14 ,[5, 3, 9, 12, 8, 14, 2, 6, 1, 4, 10, 13, 7, 11]);
makespan = 1146;
----------
assign = array1d(1..14 ,[4, 4, 4, 2, 4, 4, 4, 4, 4, 2, 1, 2, 3, 4]);
next = array1d(1..14 ,[5, 3, 9, 12, 8, 14, 2, 6, 1, 4, 10, 13, 7, 11]);
makespan = 1138;
----------
assign = array1d(1..14 ,[4, 4, 4, 2, 4, 4, 4, 4, 4, 2, 1, 2, 3, 4]);
next = array1d(1..14 ,[5, 3, 9, 12, 8, 14, 2, 6, 1, 4, 10, 13, 7, 11]);
makespan = 1137;
----------
assign = array1d(1..14 ,[4, 4, 4, 2, 4, 4, 4, 4, 4, 2, 1, 2, 3, 4]);
next = array1d(1..14 ,[5, 3, 9, 12, 8, 14, 2, 6, 1, 4, 10, 13, 7, 11]);
makespan = 1134;
----------
assign = array1d(1..14 ,[4, 4, 4, 2, 4, 4, 4, 4, 4, 2, 1, 2, 3, 4]);
next = array1d(1..14 ,[5, 3, 9, 12, 8, 14, 2, 6, 1, 4, 10, 13, 7, 11]);
makespan = 1133;
----------
assign = array1d(1..14 ,[4, 4, 4, 2, 4, 4, 4, 4, 4, 2, 1, 2, 3, 4]);
next = array1d(1..14 ,[5, 3, 9, 12, 8, 14, 2, 6, 1, 4, 10, 13, 7, 11]);
makespan = 1124;
----------
assign = array1d(1..14 ,[4, 4, 4, 2, 4, 4, 4, 4, 4, 2, 1, 2, 3, 4]);
next = array1d(1..14 ,[5, 3, 9, 12, 8, 14, 2, 6, 1, 4, 10, 13, 7, 11]);
makespan = 1110;
----------
assign = array1d(1..14 ,[4, 4, 4, 2, 4, 4, 4, 4, 4, 2, 1, 2, 3, 4]);
next = array1d(1..14 ,[5, 3, 9, 12, 8, 14, 2, 6, 1, 4, 10, 13, 7, 11]);
makespan = 1098;
----------
assign = array1d(1..14 ,[4, 4, 4, 2, 4, 4, 4, 4, 4, 2, 1, 2, 3, 4]);
next = array1d(1..14 ,[5, 3, 9, 12, 8, 14, 2, 6, 1, 4, 10, 13, 7, 11]);
makespan = 1089;
----------
assign = array1d(1..14 ,[2, 4, 4, 4, 4, 4, 4, 4, 4, 2, 1, 2, 3, 4]);
next = array1d(1..14 ,[12, 3, 9, 7, 8, 14, 2, 6, 5, 1, 10, 13, 4, 11]);
makespan = 1086;
----------
assign = array1d(1..14 ,[2, 4, 4, 4, 4, 4, 4, 4, 4, 2, 1, 2, 3, 4]);
next = array1d(1..14 ,[12, 3, 9, 7, 8, 14, 2, 6, 5, 1, 10, 13, 4, 11]);
makespan = 1081;
----------
assign = array1d(1..14 ,[2, 4, 4, 4, 4, 4, 4, 4, 4, 2, 1, 2, 3, 4]);
next = array1d(1..14 ,[12, 3, 9, 7, 8, 4, 2, 6, 14, 1, 10, 13, 5, 11]);
makespan = 1071;
----------
assign = array1d(1..14 ,[2, 4, 4, 2, 4, 4, 4, 4, 4, 2, 1, 2, 3, 4]);
next = array1d(1..14 ,[4, 3, 9, 12, 8, 7, 2, 6, 14, 1, 10, 13, 5, 11]);
makespan = 1070;
----------
assign = array1d(1..14 ,[2, 4, 4, 2, 4, 4, 4, 4, 4, 2, 1, 2, 3, 4]);
next = array1d(1..14 ,[4, 3, 9, 12, 8, 7, 2, 6, 14, 1, 10, 13, 5, 11]);
makespan = 1051;
----------
assign = array1d(1..14 ,[2, 4, 4, 2, 4, 4, 4, 4, 4, 2, 1, 2, 3, 4]);
next = array1d(1..14 ,[4, 3, 9, 12, 8, 7, 2, 6, 14, 1, 10, 13, 5, 11]);
makespan = 1050;
----------
assign = array1d(1..14 ,[2, 4, 4, 2, 4, 4, 4, 4, 4, 2, 1, 2, 3, 4]);
next = array1d(1..14 ,[4, 3, 9, 12, 8, 7, 2, 6, 14, 1, 10, 13, 5, 11]);
makespan = 1045;
----------
assign = array1d(1..14 ,[2, 4, 4, 2, 4, 4, 4, 4, 4, 2, 1, 2, 3, 4]);
next = array1d(1..14 ,[4, 3, 9, 12, 8, 7, 2, 6, 14, 1, 10, 13, 5, 11]);
makespan = 1040;
----------
assign = array1d(1..14 ,[2, 4, 4, 2, 4, 4, 4, 4, 4, 2, 1, 2, 3, 4]);
next = array1d(1..14 ,[4, 3, 9, 12, 8, 7, 2, 6, 14, 1, 10, 13, 5, 11]);
makespan = 1038;
----------
assign = array1d(1..14 ,[2, 4, 4, 2, 4, 4, 4, 4, 4, 2, 1, 2, 3, 4]);
next = array1d(1..14 ,[4, 3, 9, 12, 8, 7, 2, 6, 14, 1, 10, 13, 5, 11]);
makespan = 1022;
----------
assign = array1d(1..14 ,[2, 4, 4, 2, 4, 4, 4, 4, 4, 2, 1, 2, 3, 4]);
next = array1d(1..14 ,[4, 3, 9, 12, 8, 7, 2, 6, 14, 1, 10, 13, 5, 11]);
makespan = 1020;
----------
assign = array1d(1..14 ,[2, 4, 4, 2, 4, 4, 4, 4, 4, 2, 1, 2, 3, 4]);
next = array1d(1..14 ,[4, 3, 9, 12, 8, 7, 2, 6, 14, 1, 10, 13, 5, 11]);
makespan = 1015;
----------
assign = array1d(1..14 ,[2, 4, 4, 2, 4, 4, 4, 4, 4, 2, 1, 2, 3, 4]);
next = array1d(1..14 ,[4, 3, 9, 12, 8, 7, 2, 6, 14, 1, 10, 13, 5, 11]);
makespan = 1012;
----------
assign = array1d(1..14 ,[2, 4, 4, 2, 4, 4, 4, 4, 4, 2, 1, 2, 3, 4]);
next = array1d(1..14 ,[4, 3, 9, 12, 8, 7, 2, 6, 14, 1, 10, 13, 5, 11]);
makespan = 1011;
----------
assign = array1d(1..14 ,[2, 4, 4, 2, 4, 4, 4, 4, 4, 2, 1, 2, 3, 4]);
next = array1d(1..14 ,[4, 3, 9, 12, 8, 7, 2, 6, 14, 1, 10, 13, 5, 11]);
makespan = 1006;
----------
assign = array1d(1..14 ,[2, 4, 4, 2, 4, 4, 4, 4, 4, 2, 1, 2, 3, 4]);
next = array1d(1..14 ,[4, 3, 9, 12, 8, 7, 2, 6, 14, 1, 10, 13, 5, 11]);
makespan = 1005;
----------
assign = array1d(1..14 ,[2, 4, 4, 2, 4, 4, 4, 4, 4, 2, 1, 2, 3, 4]);
next = array1d(1..14 ,[4, 3, 9, 12, 8, 7, 2, 6, 14, 1, 10, 13, 5, 11]);
makespan = 999;
----------
assign = array1d(1..14 ,[2, 4, 4, 2, 4, 4, 4, 4, 4, 2, 1, 2, 3, 4]);
next = array1d(1..14 ,[4, 3, 9, 12, 8, 7, 2, 6, 14, 1, 10, 13, 5, 11]);
makespan = 992;
----------
assign = array1d(1..14 ,[2, 4, 4, 2, 4, 4, 4, 4, 4, 2, 1, 2, 3, 4]);
next = array1d(1..14 ,[4, 3, 9, 12, 8, 7, 2, 6, 14, 1, 10, 13, 5, 11]);
makespan = 984;
----------
assign = array1d(1..14 ,[2, 4, 4, 2, 4, 4, 4, 4, 4, 2, 1, 2, 3, 4]);
next = array1d(1..14 ,[4, 3, 9, 12, 8, 7, 2, 6, 14, 1, 10, 13, 5, 11]);
makespan = 982;
----------
assign = array1d(1..14 ,[2, 4, 4, 2, 4, 4, 4, 4, 4, 2, 1, 2, 3, 4]);
next = array1d(1..14 ,[4, 3, 9, 12, 8, 7, 2, 6, 14, 1, 10, 13, 5, 11]);
makespan = 964;
----------
assign = array1d(1..14 ,[2, 4, 4, 2, 4, 4, 4, 4, 4, 2, 1, 2, 3, 4]);
next = array1d(1..14 ,[4, 3, 9, 12, 8, 7, 2, 6, 14, 1, 10, 13, 5, 11]);
makespan = 962;
----------
assign = array1d(1..14 ,[2, 4, 4, 2, 4, 4, 4, 4, 4, 2, 1, 2, 3, 4]);
next = array1d(1..14 ,[4, 3, 9, 12, 8, 7, 2, 6, 14, 1, 10, 13, 5, 11]);
makespan = 945;
----------
assign = array1d(1..14 ,[2, 4, 4, 2, 4, 4, 4, 4, 4, 2, 1, 2, 3, 4]);
next = array1d(1..14 ,[4, 3, 9, 12, 8, 7, 2, 6, 14, 1, 10, 13, 5, 11]);
makespan = 938;
----------
assign = array1d(1..14 ,[2, 4, 4, 2, 4, 4, 4, 4, 4, 2, 1, 2, 3, 4]);
next = array1d(1..14 ,[4, 3, 9, 12, 8, 7, 2, 6, 14, 1, 10, 13, 5, 11]);
makespan = 936;
----------
assign = array1d(1..14 ,[2, 4, 4, 2, 4, 4, 4, 4, 4, 2, 1, 2, 3, 4]);
next = array1d(1..14 ,[4, 3, 9, 12, 8, 7, 2, 6, 14, 1, 10, 13, 5, 11]);
makespan = 933;
----------
assign = array1d(1..14 ,[2, 4, 4, 2, 4, 4, 4, 4, 4, 2, 1, 2, 3, 4]);
next = array1d(1..14 ,[4, 3, 9, 12, 8, 14, 2, 6, 5, 1, 10, 13, 7, 11]);
makespan = 926;
----------
assign = array1d(1..14 ,[2, 4, 4, 2, 4, 4, 2, 4, 4, 4, 1, 2, 3, 4]);
next = array1d(1..14 ,[12, 3, 9, 7, 8, 14, 1, 6, 10, 5, 4, 13, 2, 11]);
makespan = 923;
----------
assign = array1d(1..14 ,[1, 4, 4, 2, 4, 4, 2, 4, 4, 1, 1, 2, 3, 4]);
next = array1d(1..14 ,[10, 3, 9, 7, 8, 14, 12, 6, 5, 11, 4, 13, 2, 1]);
makespan = 922;
----------
assign = array1d(1..14 ,[1, 4, 4, 1, 4, 4, 1, 4, 4, 4, 1, 2, 3, 4]);
next = array1d(1..14 ,[4, 3, 9, 7, 8, 10, 11, 6, 5, 14, 12, 13, 2, 1]);
makespan = 917;
----------
assign = array1d(1..14 ,[2, 4, 4, 2, 4, 4, 2, 4, 4, 2, 1, 2, 3, 4]);
next = array1d(1..14 ,[4, 3, 9, 7, 8, 14, 12, 6, 5, 1, 10, 13, 2, 11]);
makespan = 911;
----------
assign = array1d(1..14 ,[2, 4, 4, 2, 4, 4, 2, 4, 4, 2, 1, 2, 3, 4]);
next = array1d(1..14 ,[4, 3, 9, 7, 8, 14, 12, 6, 5, 1, 10, 13, 2, 11]);
makespan = 910;
----------
assign = array1d(1..14 ,[1, 4, 4, 1, 4, 4, 1, 4, 4, 1, 1, 2, 3, 4]);
next = array1d(1..14 ,[4, 3, 9, 10, 8, 14, 1, 6, 5, 11, 12, 13, 2, 7]);
makespan = 908;
----------
assign = array1d(1..14 ,[1, 4, 4, 1, 4, 4, 1, 4, 4, 1, 1, 2, 3, 4]);
next = array1d(1..14 ,[4, 3, 9, 10, 8, 14, 1, 6, 5, 11, 12, 13, 2, 7]);
makespan = 907;
----------
assign = array1d(1..14 ,[1, 4, 4, 1, 4, 4, 1, 4, 4, 1, 1, 2, 3, 4]);
next = array1d(1..14 ,[4, 3, 9, 10, 8, 14, 1, 6, 5, 11, 12, 13, 2, 7]);
makespan = 891;
----------
assign = array1d(1..14 ,[1, 4, 4, 1, 4, 4, 1, 4, 4, 1, 1, 2, 3, 4]);
next = array1d(1..14 ,[4, 3, 9, 10, 8, 14, 1, 6, 5, 11, 12, 13, 2, 7]);
makespan = 889;
----------
assign = array1d(1..14 ,[1, 4, 4, 1, 4, 4, 1, 4, 4, 1, 1, 2, 3, 4]);
next = array1d(1..14 ,[4, 3, 9, 10, 8, 14, 1, 6, 5, 11, 12, 13, 2, 7]);
makespan = 886;
----------
assign = array1d(1..14 ,[1, 4, 4, 1, 4, 4, 1, 4, 4, 1, 1, 2, 3, 4]);
next = array1d(1..14 ,[4, 3, 9, 10, 8, 14, 1, 6, 5, 11, 12, 13, 2, 7]);
makespan = 880;
----------
assign = array1d(1..14 ,[1, 4, 4, 1, 4, 4, 1, 4, 4, 1, 1, 2, 3, 4]);
next = array1d(1..14 ,[4, 3, 9, 10, 8, 14, 1, 6, 5, 11, 12, 13, 2, 7]);
makespan = 879;
----------
assign = array1d(1..14 ,[1, 4, 4, 1, 4, 4, 1, 4, 4, 1, 1, 2, 3, 4]);
next = array1d(1..14 ,[4, 3, 9, 10, 8, 14, 1, 6, 5, 11, 12, 13, 2, 7]);
makespan = 878;
----------
assign = array1d(1..14 ,[1, 4, 4, 1, 4, 4, 1, 4, 4, 1, 1, 2, 3, 4]);
next = array1d(1..14 ,[4, 3, 9, 10, 8, 14, 1, 6, 5, 11, 12, 13, 2, 7]);
makespan = 870;
----------
assign = array1d(1..14 ,[1, 4, 4, 1, 4, 4, 1, 4, 4, 1, 1, 2, 3, 4]);
next = array1d(1..14 ,[4, 3, 9, 10, 8, 14, 1, 6, 5, 11, 12, 13, 2, 7]);
makespan = 869;
----------
assign = array1d(1..14 ,[1, 4, 4, 1, 4, 4, 1, 4, 4, 1, 1, 2, 3, 4]);
next = array1d(1..14 ,[4, 3, 9, 10, 8, 14, 1, 6, 5, 11, 12, 13, 2, 7]);
makespan = 866;
----------
assign = array1d(1..14 ,[1, 4, 4, 1, 4, 4, 1, 4, 4, 1, 1, 2, 3, 4]);
next = array1d(1..14 ,[4, 3, 9, 10, 8, 14, 1, 6, 5, 11, 12, 13, 2, 7]);
makespan = 863;
----------
assign = array1d(1..14 ,[1, 4, 4, 1, 4, 4, 1, 4, 4, 1, 1, 2, 3, 4]);
next = array1d(1..14 ,[4, 3, 9, 10, 8, 14, 1, 6, 5, 11, 12, 13, 2, 7]);
makespan = 861;
----------
assign = array1d(1..14 ,[1, 4, 4, 1, 4, 4, 1, 4, 4, 1, 1, 2, 3, 4]);
next = array1d(1..14 ,[4, 3, 9, 10, 8, 14, 1, 6, 5, 11, 12, 13, 2, 7]);
makespan = 860;
----------
assign = array1d(1..14 ,[1, 4, 4, 1, 4, 4, 1, 4, 4, 1, 1, 2, 3, 4]);
next = array1d(1..14 ,[4, 3, 9, 10, 8, 14, 1, 6, 5, 11, 12, 13, 2, 7]);
makespan = 858;
----------
assign = array1d(1..14 ,[1, 4, 4, 1, 4, 4, 1, 4, 4, 1, 1, 2, 3, 4]);
next = array1d(1..14 ,[4, 3, 9, 10, 8, 14, 1, 6, 5, 11, 12, 13, 2, 7]);
makespan = 856;
----------
assign = array1d(1..14 ,[1, 4, 4, 1, 4, 4, 1, 4, 4, 1, 1, 2, 3, 4]);
next = array1d(1..14 ,[4, 3, 9, 10, 8, 14, 1, 6, 5, 11, 12, 13, 2, 7]);
makespan = 854;
----------
assign = array1d(1..14 ,[1, 4, 4, 1, 4, 4, 1, 4, 4, 1, 1, 2, 3, 4]);
next = array1d(1..14 ,[4, 3, 9, 10, 8, 14, 1, 6, 5, 11, 12, 13, 2, 7]);
makespan = 852;
----------
assign = array1d(1..14 ,[1, 4, 4, 1, 4, 4, 1, 4, 4, 1, 1, 2, 3, 4]);
next = array1d(1..14 ,[4, 3, 9, 10, 8, 14, 1, 6, 5, 11, 12, 13, 2, 7]);
makespan = 851;
----------
assign = array1d(1..14 ,[1, 4, 4, 1, 4, 4, 1, 4, 4, 1, 1, 2, 3, 4]);
next = array1d(1..14 ,[4, 3, 9, 10, 8, 14, 1, 6, 5, 11, 12, 13, 2, 7]);
makespan = 850;
----------
assign = array1d(1..14 ,[1, 4, 4, 1, 4, 4, 1, 4, 4, 1, 1, 2, 3, 4]);
next = array1d(1..14 ,[4, 3, 9, 10, 8, 14, 1, 6, 5, 11, 12, 13, 2, 7]);
makespan = 846;
----------
assign = array1d(1..14 ,[1, 4, 4, 1, 4, 4, 1, 4, 4, 1, 1, 2, 3, 4]);
next = array1d(1..14 ,[4, 3, 9, 10, 8, 14, 1, 6, 5, 11, 12, 13, 2, 7]);
makespan = 845;
----------
assign = array1d(1..14 ,[1, 4, 4, 1, 4, 4, 1, 4, 4, 1, 1, 2, 3, 4]);
next = array1d(1..14 ,[4, 3, 9, 10, 8, 14, 1, 6, 5, 11, 12, 13, 2, 7]);
makespan = 843;
----------
assign = array1d(1..14 ,[1, 4, 4, 1, 4, 4, 1, 4, 4, 1, 1, 2, 3, 4]);
next = array1d(1..14 ,[4, 3, 9, 10, 8, 14, 1, 6, 5, 11, 12, 13, 2, 7]);
makespan = 842;
----------
assign = array1d(1..14 ,[1, 4, 4, 1, 4, 4, 1, 4, 4, 1, 1, 2, 3, 4]);
next = array1d(1..14 ,[4, 3, 9, 10, 8, 14, 1, 6, 5, 11, 12, 13, 2, 7]);
makespan = 826;
----------
assign = array1d(1..14 ,[1, 4, 4, 1, 4, 4, 1, 4, 4, 1, 1, 2, 3, 4]);
next = array1d(1..14 ,[4, 3, 9, 10, 8, 14, 1, 6, 5, 11, 12, 13, 2, 7]);
makespan = 823;
----------
assign = array1d(1..14 ,[1, 4, 4, 1, 4, 4, 1, 4, 4, 1, 1, 2, 3, 4]);
next = array1d(1..14 ,[4, 3, 9, 10, 8, 14, 1, 6, 5, 11, 12, 13, 2, 7]);
makespan = 822;
----------
assign = array1d(1..14 ,[1, 4, 4, 1, 4, 4, 1, 4, 4, 1, 1, 2, 3, 4]);
next = array1d(1..14 ,[4, 3, 9, 10, 8, 14, 1, 6, 5, 11, 12, 13, 2, 7]);
makespan = 814;
----------
assign = array1d(1..14 ,[1, 4, 4, 1, 4, 4, 1, 4, 4, 1, 1, 2, 3, 4]);
next = array1d(1..14 ,[4, 3, 9, 10, 8, 14, 1, 6, 5, 11, 12, 13, 2, 7]);
makespan = 813;
----------
assign = array1d(1..14 ,[1, 4, 4, 1, 4, 4, 1, 4, 4, 1, 1, 2, 3, 4]);
next = array1d(1..14 ,[4, 3, 9, 10, 8, 14, 1, 6, 5, 11, 12, 13, 2, 7]);
makespan = 811;
----------
assign = array1d(1..14 ,[1, 4, 4, 1, 4, 4, 1, 4, 4, 1, 1, 2, 3, 4]);
next = array1d(1..14 ,[4, 3, 9, 10, 8, 14, 1, 6, 5, 11, 12, 13, 2, 7]);
makespan = 795;
----------
assign = array1d(1..14 ,[1, 4, 4, 1, 4, 4, 4, 4, 1, 1, 1, 2, 3, 4]);
next = array1d(1..14 ,[11, 3, 14, 1, 8, 7, 2, 6, 10, 4, 12, 13, 5, 9]);
makespan = 788;
----------
assign = array1d(1..14 ,[4, 4, 4, 3, 4, 4, 3, 4, 3, 3, 1, 2, 3, 4]);
next = array1d(1..14 ,[2, 3, 5, 7, 8, 14, 13, 6, 10, 4, 12, 9, 1, 11]);
makespan = 786;
----------
assign = array1d(1..14 ,[1, 4, 4, 1, 4, 4, 4, 4, 1, 1, 1, 2, 3, 4]);
next = array1d(1..14 ,[11, 3, 5, 1, 8, 14, 2, 6, 10, 4, 12, 13, 7, 9]);
makespan = 780;
----------
assign = array1d(1..14 ,[1, 4, 4, 1, 4, 4, 4, 4, 1, 1, 1, 2, 3, 4]);
next = array1d(1..14 ,[9, 3, 5, 11, 8, 14, 2, 6, 10, 4, 12, 13, 7, 1]);
makespan = 779;
----------
assign = array1d(1..14 ,[1, 4, 4, 1, 4, 4, 4, 4, 1, 1, 1, 2, 3, 4]);
next = array1d(1..14 ,[9, 3, 5, 11, 8, 14, 2, 6, 10, 4, 12, 13, 7, 1]);
makespan = 778;
----------
assign = array1d(1..14 ,[1, 4, 4, 1, 4, 4, 4, 4, 1, 1, 1, 2, 3, 4]);
next = array1d(1..14 ,[9, 3, 5, 11, 8, 14, 2, 6, 10, 4, 12, 13, 7, 1]);
makespan = 776;
----------
assign = array1d(1..14 ,[1, 4, 4, 1, 4, 4, 4, 4, 1, 1, 1, 2, 3, 4]);
next = array1d(1..14 ,[9, 3, 5, 11, 8, 14, 2, 6, 10, 4, 12, 13, 7, 1]);
makespan = 774;
----------
assign = array1d(1..14 ,[1, 4, 4, 1, 4, 4, 4, 4, 1, 1, 1, 2, 3, 4]);
next = array1d(1..14 ,[9, 3, 5, 11, 8, 14, 2, 6, 10, 4, 12, 13, 7, 1]);
makespan = 772;
----------
assign = array1d(1..14 ,[1, 4, 4, 1, 4, 4, 4, 4, 1, 1, 1, 2, 3, 4]);
next = array1d(1..14 ,[9, 3, 5, 11, 8, 14, 2, 6, 10, 4, 12, 13, 7, 1]);
makespan = 771;
----------
assign = array1d(1..14 ,[1, 4, 4, 1, 4, 4, 4, 4, 1, 1, 1, 2, 3, 4]);
next = array1d(1..14 ,[9, 3, 5, 11, 8, 14, 2, 6, 10, 4, 12, 13, 7, 1]);
makespan = 764;
----------
assign = array1d(1..14 ,[1, 4, 4, 1, 4, 4, 4, 4, 1, 1, 1, 2, 3, 4]);
next = array1d(1..14 ,[9, 3, 5, 11, 8, 14, 2, 6, 10, 4, 12, 13, 7, 1]);
makespan = 763;
----------
assign = array1d(1..14 ,[1, 4, 4, 1, 4, 4, 4, 4, 1, 1, 1, 2, 3, 4]);
next = array1d(1..14 ,[9, 3, 5, 11, 8, 14, 2, 6, 10, 4, 12, 13, 7, 1]);
makespan = 760;
----------
assign = array1d(1..14 ,[1, 4, 4, 1, 4, 4, 4, 4, 1, 1, 1, 2, 3, 4]);
next = array1d(1..14 ,[9, 3, 5, 11, 8, 14, 2, 6, 10, 4, 12, 13, 7, 1]);
makespan = 751;
----------
assign = array1d(1..14 ,[1, 4, 4, 1, 4, 4, 4, 4, 1, 1, 1, 2, 3, 4]);
next = array1d(1..14 ,[9, 3, 5, 11, 8, 14, 2, 6, 10, 4, 12, 13, 7, 1]);
makespan = 749;
----------
assign = array1d(1..14 ,[1, 4, 4, 1, 4, 4, 4, 4, 1, 1, 1, 2, 3, 4]);
next = array1d(1..14 ,[9, 3, 5, 11, 8, 14, 2, 6, 10, 4, 12, 13, 7, 1]);
makespan = 744;
----------
assign = array1d(1..14 ,[1, 4, 4, 1, 4, 4, 4, 4, 1, 1, 1, 2, 3, 4]);
next = array1d(1..14 ,[9, 3, 5, 11, 8, 14, 2, 6, 10, 4, 12, 13, 7, 1]);
makespan = 730;
----------
assign = array1d(1..14 ,[1, 4, 4, 1, 4, 4, 1, 4, 1, 4, 1, 2, 3, 4]);
next = array1d(1..14 ,[9, 3, 5, 11, 8, 10, 4, 6, 7, 14, 12, 13, 2, 1]);
makespan = 728;
----------
assign = array1d(1..14 ,[1, 4, 4, 1, 4, 4, 1, 4, 1, 4, 1, 2, 3, 4]);
next = array1d(1..14 ,[9, 3, 5, 11, 8, 10, 4, 6, 7, 14, 12, 13, 2, 1]);
makespan = 727;
----------
assign = array1d(1..14 ,[1, 4, 4, 1, 4, 4, 1, 4, 1, 4, 1, 2, 3, 4]);
next = array1d(1..14 ,[9, 3, 5, 11, 8, 10, 4, 6, 7, 14, 12, 13, 2, 1]);
makespan = 722;
----------
assign = array1d(1..14 ,[1, 4, 4, 1, 4, 4, 1, 4, 1, 4, 1, 2, 3, 4]);
next = array1d(1..14 ,[9, 3, 5, 11, 8, 10, 4, 6, 7, 14, 12, 13, 2, 1]);
makespan = 721;
----------
assign = array1d(1..14 ,[1, 4, 4, 1, 4, 4, 1, 4, 1, 1, 1, 2, 3, 4]);
next = array1d(1..14 ,[4, 3, 5, 11, 8, 14, 10, 6, 7, 1, 12, 13, 2, 9]);
makespan = 720;
----------
assign = array1d(1..14 ,[1, 4, 4, 1, 4, 4, 1, 4, 1, 1, 1, 2, 3, 4]);
next = array1d(1..14 ,[11, 3, 14, 10, 8, 2, 4, 6, 7, 1, 12, 13, 5, 9]);
makespan = 719;
----------
assign = array1d(1..14 ,[1, 4, 4, 1, 4, 4, 1, 4, 1, 1, 1, 2, 3, 4]);
next = array1d(1..14 ,[11, 3, 5, 7, 8, 14, 1, 6, 10, 4, 12, 13, 2, 9]);
makespan = 717;
----------
assign = array1d(1..14 ,[1, 4, 4, 1, 4, 4, 1, 4, 1, 1, 1, 2, 3, 4]);
next = array1d(1..14 ,[11, 3, 5, 7, 8, 14, 1, 6, 10, 4, 12, 13, 2, 9]);
makespan = 715;
----------
assign = array1d(1..14 ,[1, 4, 4, 1, 4, 4, 1, 4, 1, 1, 1, 2, 3, 4]);
next = array1d(1..14 ,[11, 3, 5, 7, 8, 14, 1, 6, 10, 4, 12, 13, 2, 9]);
makespan = 709;
----------
assign = array1d(1..14 ,[1, 4, 4, 1, 4, 4, 1, 4, 1, 1, 1, 2, 3, 4]);
next = array1d(1..14 ,[11, 3, 5, 7, 8, 14, 1, 6, 10, 4, 12, 13, 2, 9]);
makespan = 708;
----------
assign = array1d(1..14 ,[1, 4, 4, 1, 4, 4, 1, 4, 1, 1, 1, 2, 3, 4]);
next = array1d(1..14 ,[11, 3, 5, 7, 8, 14, 1, 6, 10, 4, 12, 13, 2, 9]);
makespan = 707;
----------
assign = array1d(1..14 ,[1, 4, 4, 1, 4, 4, 1, 4, 1, 1, 1, 2, 3, 4]);
next = array1d(1..14 ,[11, 3, 5, 7, 8, 14, 1, 6, 10, 4, 12, 13, 2, 9]);
makespan = 706;
----------
assign = array1d(1..14 ,[1, 4, 4, 1, 4, 4, 1, 4, 1, 1, 1, 2, 3, 4]);
next = array1d(1..14 ,[11, 3, 5, 7, 8, 14, 1, 6, 10, 4, 12, 13, 2, 9]);
makespan = 705;
----------
assign = array1d(1..14 ,[1, 4, 4, 1, 4, 4, 1, 4, 1, 1, 1, 2, 3, 4]);
next = array1d(1..14 ,[11, 3, 5, 7, 8, 14, 1, 6, 10, 4, 12, 13, 2, 9]);
makespan = 699;
----------
assign = array1d(1..14 ,[1, 4, 4, 1, 4, 4, 1, 4, 1, 1, 1, 2, 3, 4]);
next = array1d(1..14 ,[11, 3, 5, 7, 8, 14, 1, 6, 10, 4, 12, 13, 2, 9]);
makespan = 697;
----------
assign = array1d(1..14 ,[1, 4, 4, 1, 4, 4, 1, 4, 1, 1, 1, 2, 3, 4]);
next = array1d(1..14 ,[11, 3, 5, 7, 8, 14, 1, 6, 10, 4, 12, 13, 2, 9]);
makespan = 696;
----------
assign = array1d(1..14 ,[1, 4, 4, 1, 4, 4, 1, 4, 1, 1, 1, 2, 3, 4]);
next = array1d(1..14 ,[11, 3, 5, 7, 8, 14, 1, 6, 10, 4, 12, 13, 2, 9]);
makespan = 694;
----------
assign = array1d(1..14 ,[1, 4, 4, 1, 4, 4, 1, 4, 1, 1, 1, 2, 3, 4]);
next = array1d(1..14 ,[11, 3, 5, 7, 8, 14, 1, 6, 10, 4, 12, 13, 2, 9]);
makespan = 693;
----------
assign = array1d(1..14 ,[1, 4, 4, 1, 4, 4, 1, 4, 1, 1, 1, 2, 3, 4]);
next = array1d(1..14 ,[11, 3, 5, 7, 8, 14, 1, 6, 10, 4, 12, 13, 2, 9]);
makespan = 692;
----------
assign = array1d(1..14 ,[1, 4, 4, 1, 4, 4, 1, 4, 1, 1, 1, 2, 3, 4]);
next = array1d(1..14 ,[11, 3, 5, 7, 8, 14, 1, 6, 10, 4, 12, 13, 2, 9]);
makespan = 689;
----------
assign = array1d(1..14 ,[1, 4, 4, 1, 4, 4, 1, 4, 1, 1, 1, 2, 3, 4]);
next = array1d(1..14 ,[11, 3, 5, 7, 8, 14, 1, 6, 10, 4, 12, 13, 2, 9]);
makespan = 685;
----------
assign = array1d(1..14 ,[1, 4, 4, 1, 4, 4, 1, 4, 1, 1, 1, 2, 3, 4]);
next = array1d(1..14 ,[11, 3, 5, 7, 8, 14, 1, 6, 10, 4, 12, 13, 2, 9]);
makespan = 684;
----------
assign = array1d(1..14 ,[1, 4, 4, 1, 4, 4, 1, 4, 1, 1, 1, 2, 3, 4]);
next = array1d(1..14 ,[11, 3, 5, 7, 8, 14, 1, 6, 10, 4, 12, 13, 2, 9]);
makespan = 678;
----------
assign = array1d(1..14 ,[1, 4, 4, 1, 4, 4, 1, 4, 1, 1, 1, 2, 3, 4]);
next = array1d(1..14 ,[11, 3, 5, 7, 8, 14, 1, 6, 10, 4, 12, 13, 2, 9]);
makespan = 675;
----------
assign = array1d(1..14 ,[1, 4, 4, 1, 4, 4, 1, 4, 1, 1, 1, 2, 3, 4]);
next = array1d(1..14 ,[11, 3, 5, 7, 8, 14, 1, 6, 10, 4, 12, 13, 2, 9]);
makespan = 669;
----------
assign = array1d(1..14 ,[1, 4, 4, 1, 4, 4, 1, 4, 1, 1, 1, 2, 3, 4]);
next = array1d(1..14 ,[11, 3, 5, 7, 8, 14, 1, 6, 10, 4, 12, 13, 2, 9]);
makespan = 668;
----------
assign = array1d(1..14 ,[1, 4, 4, 1, 4, 4, 1, 4, 1, 1, 1, 2, 3, 4]);
next = array1d(1..14 ,[11, 3, 5, 7, 8, 14, 1, 6, 10, 4, 12, 13, 2, 9]);
makespan = 665;
----------
assign = array1d(1..14 ,[1, 4, 4, 1, 4, 4, 1, 4, 1, 1, 1, 2, 3, 4]);
next = array1d(1..14 ,[11, 3, 5, 7, 8, 14, 1, 6, 10, 4, 12, 13, 2, 9]);
makespan = 664;
----------
assign = array1d(1..14 ,[1, 4, 4, 1, 4, 4, 1, 4, 1, 1, 1, 2, 3, 4]);
next = array1d(1..14 ,[11, 3, 5, 7, 8, 14, 1, 6, 10, 4, 12, 13, 2, 9]);
makespan = 663;
----------
assign = array1d(1..14 ,[2, 4, 4, 2, 4, 4, 2, 4, 2, 2, 1, 2, 3, 4]);
next = array1d(1..14 ,[12, 3, 5, 7, 8, 14, 1, 6, 10, 4, 9, 13, 2, 11]);
makespan = 655;
----------
assign = array1d(1..14 ,[2, 4, 4, 2, 4, 4, 2, 4, 2, 2, 1, 2, 3, 4]);
next = array1d(1..14 ,[12, 3, 5, 7, 8, 14, 1, 6, 10, 4, 9, 13, 2, 11]);
makespan = 649;
----------
assign = array1d(1..14 ,[2, 4, 4, 2, 4, 4, 2, 4, 2, 2, 1, 2, 3, 4]);
next = array1d(1..14 ,[9, 3, 5, 7, 8, 14, 1, 6, 12, 4, 10, 13, 2, 11]);
makespan = 643;
----------
assign = array1d(1..14 ,[2, 4, 4, 2, 4, 4, 2, 4, 2, 2, 1, 2, 3, 4]);
next = array1d(1..14 ,[9, 3, 5, 7, 8, 14, 1, 6, 12, 4, 10, 13, 2, 11]);
makespan = 641;
----------
assign = array1d(1..14 ,[2, 4, 4, 2, 4, 4, 2, 4, 2, 2, 1, 2, 3, 4]);
next = array1d(1..14 ,[9, 3, 5, 7, 8, 14, 1, 6, 12, 4, 10, 13, 2, 11]);
makespan = 640;
----------
assign = array1d(1..14 ,[2, 4, 4, 2, 4, 4, 2, 4, 2, 2, 1, 2, 3, 4]);
next = array1d(1..14 ,[9, 3, 5, 7, 8, 14, 1, 6, 12, 4, 10, 13, 2, 11]);
makespan = 634;
----------
assign = array1d(1..14 ,[2, 4, 4, 2, 4, 4, 2, 4, 2, 2, 1, 2, 3, 4]);
next = array1d(1..14 ,[9, 3, 5, 7, 8, 14, 1, 6, 12, 4, 10, 13, 2, 11]);
makespan = 633;
----------
assign = array1d(1..14 ,[2, 4, 4, 2, 4, 4, 2, 4, 2, 2, 1, 2, 3, 4]);
next = array1d(1..14 ,[9, 3, 5, 7, 8, 14, 1, 6, 12, 4, 10, 13, 2, 11]);
makespan = 632;
----------
assign = array1d(1..14 ,[2, 4, 4, 2, 4, 4, 2, 4, 2, 2, 1, 2, 3, 4]);
next = array1d(1..14 ,[9, 3, 5, 7, 8, 14, 1, 6, 12, 4, 10, 13, 2, 11]);
makespan = 621;
----------
assign = array1d(1..14 ,[3, 4, 4, 3, 4, 4, 3, 4, 2, 3, 1, 2, 3, 4]);
next = array1d(1..14 ,[13, 3, 5, 7, 8, 14, 1, 6, 12, 4, 9, 10, 2, 11]);
makespan = 613;
----------
assign = array1d(1..14 ,[3, 4, 4, 3, 4, 4, 3, 4, 2, 3, 1, 2, 3, 4]);
next = array1d(1..14 ,[13, 3, 5, 7, 8, 14, 1, 6, 12, 4, 9, 10, 2, 11]);
makespan = 606;
----------
assign = array1d(1..14 ,[3, 4, 4, 3, 4, 4, 3, 4, 2, 3, 1, 2, 3, 4]);
next = array1d(1..14 ,[13, 3, 5, 7, 8, 14, 1, 6, 12, 4, 9, 10, 2, 11]);
makespan = 603;
----------
assign = array1d(1..14 ,[3, 4, 4, 3, 4, 4, 3, 4, 2, 3, 1, 2, 3, 4]);
next = array1d(1..14 ,[13, 3, 5, 7, 8, 14, 1, 6, 12, 4, 9, 10, 2, 11]);
makespan = 599;
----------
assign = array1d(1..14 ,[3, 4, 4, 3, 2, 4, 3, 4, 2, 3, 1, 2, 3, 4]);
next = array1d(1..14 ,[13, 3, 14, 7, 12, 2, 1, 6, 5, 4, 9, 10, 8, 11]);
makespan = 597;
----------
assign = array1d(1..14 ,[4, 3, 3, 2, 1, 3, 4, 3, 4, 4, 1, 2, 3, 4]);
next = array1d(1..14 ,[9, 6, 8, 12, 11, 3, 1, 13, 14, 7, 4, 2, 10, 5]);
makespan = 595;
----------
assign = array1d(1..14 ,[4, 3, 4, 4, 1, 3, 4, 1, 1, 4, 1, 2, 3, 4]);
next = array1d(1..14 ,[10, 6, 14, 7, 11, 13, 1, 5, 8, 3, 12, 2, 4, 9]);
makespan = 594;
----------
assign = array1d(1..14 ,[4, 4, 4, 3, 1, 3, 4, 3, 3, 4, 1, 2, 3, 4]);
next = array1d(1..14 ,[10, 7, 2, 9, 11, 13, 1, 4, 6, 14, 12, 8, 3, 5]);
makespan = 592;
----------
assign = array1d(1..14 ,[4, 3, 4, 3, 3, 4, 4, 2, 3, 4, 1, 2, 3, 4]);
next = array1d(1..14 ,[10, 4, 7, 9, 2, 14, 1, 12, 13, 6, 8, 5, 3, 11]);
makespan = 591;
----------
assign = array1d(1..14 ,[4, 4, 4, 1, 3, 2, 4, 3, 1, 4, 1, 2, 3, 4]);
next = array1d(1..14 ,[10, 7, 14, 9, 13, 12, 1, 5, 11, 3, 6, 8, 2, 4]);
makespan = 590;
----------
assign = array1d(1..14 ,[4, 3, 4, 3, 3, 4, 4, 2, 3, 4, 1, 2, 3, 4]);
next = array1d(1..14 ,[10, 4, 7, 9, 2, 14, 1, 12, 13, 6, 8, 5, 3, 11]);
makespan = 589;
----------
assign = array1d(1..14 ,[4, 4, 4, 3, 3, 1, 4, 3, 3, 4, 1, 2, 3, 4]);
next = array1d(1..14 ,[10, 7, 14, 9, 13, 11, 1, 5, 8, 3, 12, 4, 2, 6]);
makespan = 588;
----------
assign = array1d(1..14 ,[4, 4, 4, 3, 3, 1, 4, 3, 3, 4, 1, 2, 3, 4]);
next = array1d(1..14 ,[10, 7, 14, 9, 13, 11, 1, 5, 8, 3, 12, 4, 2, 6]);
makespan = 587;
----------
assign = array1d(1..14 ,[4, 4, 4, 3, 3, 1, 4, 3, 3, 4, 1, 2, 3, 4]);
next = array1d(1..14 ,[10, 7, 14, 9, 13, 11, 1, 5, 8, 3, 12, 4, 2, 6]);
makespan = 586;
----------
assign = array1d(1..14 ,[4, 4, 4, 3, 3, 1, 4, 3, 3, 4, 1, 2, 3, 4]);
next = array1d(1..14 ,[10, 7, 14, 9, 13, 11, 1, 5, 8, 3, 12, 4, 2, 6]);
makespan = 585;
----------
assign = array1d(1..14 ,[4, 4, 4, 3, 3, 1, 4, 3, 3, 4, 1, 2, 3, 4]);
next = array1d(1..14 ,[10, 7, 14, 9, 13, 11, 1, 5, 8, 3, 12, 4, 2, 6]);
makespan = 584;
----------
assign = array1d(1..14 ,[4, 4, 4, 3, 3, 1, 4, 3, 3, 4, 1, 2, 3, 4]);
next = array1d(1..14 ,[10, 7, 14, 9, 13, 11, 1, 5, 8, 3, 12, 4, 2, 6]);
makespan = 583;
----------
assign = array1d(1..14 ,[4, 4, 4, 3, 3, 1, 4, 3, 3, 4, 1, 2, 3, 4]);
next = array1d(1..14 ,[10, 7, 14, 9, 13, 11, 1, 5, 8, 3, 12, 4, 2, 6]);
makespan = 581;
----------
assign = array1d(1..14 ,[4, 4, 4, 3, 3, 1, 4, 3, 3, 4, 1, 2, 3, 4]);
next = array1d(1..14 ,[10, 7, 14, 9, 13, 11, 1, 5, 8, 3, 12, 4, 2, 6]);
makespan = 579;
----------
assign = array1d(1..14 ,[4, 4, 4, 3, 3, 1, 4, 3, 3, 4, 1, 2, 3, 4]);
next = array1d(1..14 ,[10, 7, 14, 9, 13, 11, 1, 5, 8, 3, 12, 4, 2, 6]);
makespan = 578;
----------
assign = array1d(1..14 ,[4, 4, 4, 3, 3, 1, 4, 3, 3, 4, 1, 2, 3, 4]);
next = array1d(1..14 ,[10, 7, 14, 9, 13, 11, 1, 5, 8, 3, 12, 4, 2, 6]);
makespan = 577;
----------
assign = array1d(1..14 ,[4, 4, 4, 3, 3, 1, 4, 3, 3, 4, 1, 2, 3, 4]);
next = array1d(1..14 ,[10, 7, 14, 9, 13, 11, 1, 5, 8, 3, 12, 4, 2, 6]);
makespan = 576;
----------
assign = array1d(1..14 ,[4, 4, 4, 3, 3, 1, 4, 3, 3, 4, 1, 2, 3, 4]);
next = array1d(1..14 ,[10, 7, 14, 9, 13, 11, 1, 5, 8, 3, 12, 4, 2, 6]);
makespan = 575;
----------
assign = array1d(1..14 ,[4, 4, 4, 3, 3, 1, 4, 3, 3, 4, 1, 2, 3, 4]);
next = array1d(1..14 ,[10, 7, 14, 9, 13, 11, 1, 5, 8, 3, 12, 4, 2, 6]);
makespan = 573;
----------
assign = array1d(1..14 ,[4, 4, 4, 3, 3, 1, 4, 3, 3, 4, 1, 2, 3, 4]);
next = array1d(1..14 ,[10, 7, 14, 9, 13, 11, 1, 5, 8, 3, 12, 4, 2, 6]);
makespan = 570;
----------
assign = array1d(1..14 ,[4, 4, 4, 3, 3, 1, 4, 3, 3, 4, 1, 2, 3, 4]);
next = array1d(1..14 ,[10, 7, 14, 9, 13, 11, 1, 5, 8, 3, 12, 4, 2, 6]);
makespan = 567;
----------
assign = array1d(1..14 ,[4, 3, 4, 3, 3, 4, 4, 2, 3, 4, 1, 2, 3, 4]);
next = array1d(1..14 ,[10, 4, 14, 9, 2, 3, 1, 12, 13, 6, 8, 5, 7, 11]);
makespan = 566;
----------
assign = array1d(1..14 ,[4, 3, 4, 3, 3, 4, 4, 2, 3, 4, 1, 2, 3, 4]);
next = array1d(1..14 ,[10, 4, 14, 9, 2, 3, 1, 12, 13, 6, 8, 5, 7, 11]);
makespan = 565;
----------
assign = array1d(1..14 ,[4, 3, 4, 3, 3, 4, 4, 2, 3, 4, 1, 2, 3, 4]);
next = array1d(1..14 ,[10, 4, 14, 9, 2, 3, 1, 12, 13, 6, 8, 5, 7, 11]);
makespan = 564;
----------
assign = array1d(1..14 ,[4, 3, 4, 3, 3, 4, 4, 2, 3, 4, 1, 2, 3, 4]);
next = array1d(1..14 ,[10, 4, 14, 9, 2, 3, 1, 12, 13, 6, 8, 5, 7, 11]);
makespan = 563;
----------
assign = array1d(1..14 ,[4, 3, 4, 3, 3, 4, 4, 2, 3, 4, 1, 2, 3, 4]);
next = array1d(1..14 ,[10, 4, 14, 9, 2, 3, 1, 12, 13, 6, 8, 5, 7, 11]);
makespan = 562;
----------
assign = array1d(1..14 ,[4, 1, 4, 1, 1, 4, 4, 3, 1, 4, 1, 2, 3, 4]);
next = array1d(1..14 ,[10, 4, 6, 9, 2, 14, 1, 13, 11, 3, 12, 8, 7, 5]);
makespan = 560;
----------
assign = array1d(1..14 ,[4, 1, 1, 4, 3, 2, 4, 1, 1, 4, 1, 2, 3, 4]);
next = array1d(1..14 ,[10, 9, 8, 7, 13, 12, 1, 11, 3, 14, 6, 5, 4, 2]);
makespan = 559;
----------
assign = array1d(1..14 ,[4, 1, 2, 4, 2, 1, 4, 2, 1, 4, 1, 2, 3, 4]);
next = array1d(1..14 ,[10, 9, 12, 7, 8, 11, 1, 3, 6, 14, 5, 13, 4, 2]);
makespan = 557;
----------
assign = array1d(1..14 ,[4, 3, 2, 3, 3, 4, 4, 2, 3, 4, 1, 2, 3, 4]);
next = array1d(1..14 ,[10, 4, 12, 9, 2, 7, 1, 3, 13, 14, 8, 5, 6, 11]);
makespan = 556;
----------
assign = array1d(1..14 ,[4, 3, 4, 2, 3, 3, 4, 2, 3, 4, 1, 2, 3, 4]);
next = array1d(1..14 ,[10, 6, 7, 12, 9, 5, 1, 4, 13, 14, 8, 2, 3, 11]);
makespan = 555;
----------
assign = array1d(1..14 ,[4, 3, 1, 1, 4, 3, 4, 1, 3, 4, 1, 2, 3, 4]);
next = array1d(1..14 ,[10, 6, 11, 8, 7, 13, 1, 3, 2, 14, 12, 9, 5, 4]);
makespan = 554;
----------
assign = array1d(1..14 ,[4, 4, 1, 1, 3, 3, 4, 1, 3, 4, 1, 2, 3, 4]);
next = array1d(1..14 ,[10, 7, 11, 8, 9, 5, 1, 3, 13, 14, 12, 6, 2, 4]);
makespan = 553;
----------
assign = array1d(1..14 ,[4, 4, 1, 3, 1, 1, 4, 1, 3, 4, 1, 2, 3, 4]);
next = array1d(1..14 ,[10, 7, 11, 9, 8, 5, 1, 3, 13, 14, 12, 4, 2, 6]);
makespan = 552;
----------
assign = array1d(1..14 ,[4, 4, 1, 3, 1, 1, 4, 1, 3, 4, 1, 2, 3, 4]);
next = array1d(1..14 ,[10, 7, 11, 9, 8, 5, 1, 3, 13, 14, 12, 4, 2, 6]);
makespan = 551;
----------
assign = array1d(1..14 ,[4, 4, 1, 3, 1, 1, 4, 1, 3, 4, 1, 2, 3, 4]);
next = array1d(1..14 ,[10, 7, 11, 9, 8, 5, 1, 3, 13, 14, 12, 4, 2, 6]);
makespan = 550;
----------
assign = array1d(1..14 ,[4, 4, 1, 3, 1, 1, 4, 1, 3, 4, 1, 2, 3, 4]);
next = array1d(1..14 ,[10, 7, 11, 9, 8, 5, 1, 3, 13, 14, 12, 4, 2, 6]);
makespan = 549;
----------
assign = array1d(1..14 ,[4, 4, 1, 3, 1, 1, 4, 1, 3, 4, 1, 2, 3, 4]);
next = array1d(1..14 ,[10, 7, 11, 9, 8, 5, 1, 3, 13, 14, 12, 4, 2, 6]);
makespan = 548;
----------
assign = array1d(1..14 ,[4, 4, 1, 3, 1, 1, 4, 1, 3, 4, 1, 2, 3, 4]);
next = array1d(1..14 ,[10, 7, 11, 9, 8, 5, 1, 3, 13, 14, 12, 4, 2, 6]);
makespan = 547;
----------
assign = array1d(1..14 ,[4, 4, 1, 3, 1, 1, 4, 1, 3, 4, 1, 2, 3, 4]);
next = array1d(1..14 ,[10, 7, 11, 9, 8, 5, 1, 3, 13, 14, 12, 4, 2, 6]);
makespan = 546;
----------
assign = array1d(1..14 ,[4, 4, 1, 3, 1, 1, 4, 1, 3, 4, 1, 2, 3, 4]);
next = array1d(1..14 ,[10, 7, 11, 9, 8, 5, 1, 3, 13, 14, 12, 4, 2, 6]);
makespan = 544;
----------
assign = array1d(1..14 ,[4, 4, 1, 3, 1, 1, 4, 1, 3, 4, 1, 2, 3, 4]);
next = array1d(1..14 ,[10, 7, 11, 9, 8, 5, 1, 3, 13, 14, 12, 4, 2, 6]);
makespan = 542;
----------
assign = array1d(1..14 ,[4, 4, 1, 3, 1, 1, 4, 1, 3, 4, 1, 2, 3, 4]);
next = array1d(1..14 ,[10, 7, 11, 9, 8, 5, 1, 3, 13, 14, 12, 4, 2, 6]);
makespan = 541;
----------
assign = array1d(1..14 ,[4, 4, 1, 3, 1, 1, 4, 1, 3, 4, 1, 2, 3, 4]);
next = array1d(1..14 ,[10, 7, 11, 9, 8, 5, 1, 3, 13, 14, 12, 4, 2, 6]);
makespan = 540;
----------
assign = array1d(1..14 ,[4, 4, 1, 3, 1, 1, 4, 1, 3, 4, 1, 2, 3, 4]);
next = array1d(1..14 ,[10, 7, 11, 9, 8, 5, 1, 3, 13, 14, 12, 4, 2, 6]);
makespan = 539;
----------
assign = array1d(1..14 ,[4, 4, 1, 3, 1, 1, 4, 1, 3, 4, 1, 2, 3, 4]);
next = array1d(1..14 ,[10, 7, 11, 9, 8, 5, 1, 3, 13, 14, 12, 4, 2, 6]);
makespan = 538;
----------
assign = array1d(1..14 ,[4, 4, 1, 3, 1, 1, 4, 1, 3, 4, 1, 2, 3, 4]);
next = array1d(1..14 ,[10, 7, 11, 9, 8, 5, 1, 3, 13, 14, 12, 4, 2, 6]);
makespan = 537;
----------
assign = array1d(1..14 ,[4, 4, 1, 3, 1, 1, 4, 1, 3, 4, 1, 2, 3, 4]);
next = array1d(1..14 ,[10, 7, 11, 9, 8, 5, 1, 3, 13, 14, 12, 4, 2, 6]);
makespan = 536;
----------
assign = array1d(1..14 ,[4, 4, 1, 3, 1, 1, 4, 1, 3, 4, 1, 2, 3, 4]);
next = array1d(1..14 ,[10, 7, 11, 9, 8, 5, 1, 3, 13, 14, 12, 4, 2, 6]);
makespan = 535;
----------
assign = array1d(1..14 ,[4, 4, 1, 3, 1, 1, 4, 1, 3, 4, 1, 2, 3, 4]);
next = array1d(1..14 ,[10, 7, 11, 9, 8, 5, 1, 3, 13, 14, 12, 4, 2, 6]);
makespan = 534;
----------
assign = array1d(1..14 ,[4, 4, 1, 3, 1, 1, 4, 1, 3, 4, 1, 2, 3, 4]);
next = array1d(1..14 ,[10, 7, 11, 9, 8, 5, 1, 3, 13, 14, 12, 4, 2, 6]);
makespan = 533;
----------
assign = array1d(1..14 ,[4, 4, 1, 3, 1, 1, 4, 1, 3, 4, 1, 2, 3, 4]);
next = array1d(1..14 ,[10, 7, 11, 9, 8, 5, 1, 3, 13, 14, 12, 4, 2, 6]);
makespan = 532;
----------
assign = array1d(1..14 ,[4, 4, 1, 3, 1, 1, 4, 1, 3, 4, 1, 2, 3, 4]);
next = array1d(1..14 ,[10, 7, 11, 9, 8, 5, 1, 3, 13, 14, 12, 4, 2, 6]);
makespan = 531;
----------
assign = array1d(1..14 ,[4, 4, 1, 3, 1, 1, 4, 1, 3, 4, 1, 2, 3, 4]);
next = array1d(1..14 ,[10, 7, 11, 9, 8, 5, 1, 3, 13, 14, 12, 4, 2, 6]);
makespan = 529;
----------
assign = array1d(1..14 ,[4, 4, 1, 3, 1, 1, 4, 1, 3, 4, 1, 2, 3, 4]);
next = array1d(1..14 ,[10, 7, 11, 9, 8, 5, 1, 3, 13, 14, 12, 4, 2, 6]);
makespan = 528;
----------
assign = array1d(1..14 ,[4, 4, 1, 3, 1, 1, 4, 1, 3, 4, 1, 2, 3, 4]);
next = array1d(1..14 ,[10, 7, 11, 9, 8, 5, 1, 3, 13, 14, 12, 4, 2, 6]);
makespan = 527;
----------
assign = array1d(1..14 ,[4, 4, 1, 3, 1, 1, 4, 1, 3, 4, 1, 2, 3, 4]);
next = array1d(1..14 ,[10, 7, 11, 9, 8, 5, 1, 3, 13, 14, 12, 4, 2, 6]);
makespan = 526;
----------
assign = array1d(1..14 ,[4, 4, 1, 3, 1, 1, 4, 1, 3, 4, 1, 2, 3, 4]);
next = array1d(1..14 ,[10, 7, 11, 9, 8, 5, 1, 3, 13, 14, 12, 4, 2, 6]);
makespan = 525;
----------
assign = array1d(1..14 ,[4, 4, 1, 3, 1, 1, 4, 1, 3, 4, 1, 2, 3, 4]);
next = array1d(1..14 ,[10, 7, 11, 9, 8, 5, 1, 3, 13, 14, 12, 4, 2, 6]);
makespan = 524;
----------
assign = array1d(1..14 ,[4, 4, 1, 3, 1, 1, 4, 1, 3, 4, 1, 2, 3, 4]);
next = array1d(1..14 ,[10, 7, 11, 9, 8, 5, 1, 3, 13, 14, 12, 4, 2, 6]);
makespan = 523;
----------
assign = array1d(1..14 ,[4, 4, 1, 3, 1, 1, 4, 1, 3, 4, 1, 2, 3, 4]);
next = array1d(1..14 ,[10, 7, 11, 9, 8, 5, 1, 3, 13, 14, 12, 4, 2, 6]);
makespan = 522;
----------
assign = array1d(1..14 ,[4, 4, 1, 3, 1, 1, 4, 1, 3, 4, 1, 2, 3, 4]);
next = array1d(1..14 ,[10, 7, 11, 9, 8, 5, 1, 3, 13, 14, 12, 4, 2, 6]);
makespan = 521;
----------
assign = array1d(1..14 ,[4, 4, 1, 3, 1, 1, 4, 1, 3, 4, 1, 2, 3, 4]);
next = array1d(1..14 ,[10, 7, 11, 9, 8, 5, 1, 3, 13, 14, 12, 4, 2, 6]);
makespan = 518;
----------
assign = array1d(1..14 ,[4, 4, 1, 3, 1, 1, 4, 1, 3, 4, 1, 2, 3, 4]);
next = array1d(1..14 ,[10, 7, 11, 9, 8, 5, 1, 3, 13, 14, 12, 4, 2, 6]);
makespan = 516;
----------
assign = array1d(1..14 ,[4, 4, 1, 3, 1, 1, 4, 1, 3, 4, 1, 2, 3, 4]);
next = array1d(1..14 ,[10, 7, 11, 9, 8, 5, 1, 3, 13, 14, 12, 4, 2, 6]);
makespan = 515;
----------
assign = array1d(1..14 ,[4, 4, 1, 3, 1, 1, 4, 1, 3, 4, 1, 2, 3, 4]);
next = array1d(1..14 ,[10, 7, 11, 9, 8, 5, 1, 3, 13, 14, 12, 4, 2, 6]);
makespan = 514;
----------
assign = array1d(1..14 ,[4, 4, 1, 3, 1, 1, 4, 1, 3, 4, 1, 2, 3, 4]);
next = array1d(1..14 ,[10, 7, 11, 9, 8, 5, 1, 3, 13, 14, 12, 4, 2, 6]);
makespan = 512;
----------
assign = array1d(1..14 ,[4, 4, 1, 3, 1, 1, 4, 1, 3, 4, 1, 2, 3, 4]);
next = array1d(1..14 ,[10, 7, 11, 9, 8, 5, 1, 3, 13, 14, 12, 4, 2, 6]);
makespan = 511;
----------
assign = array1d(1..14 ,[4, 4, 1, 3, 1, 1, 4, 1, 3, 4, 1, 2, 3, 4]);
next = array1d(1..14 ,[10, 7, 11, 9, 8, 5, 1, 3, 13, 14, 12, 4, 2, 6]);
makespan = 510;
----------
assign = array1d(1..14 ,[4, 4, 1, 3, 1, 1, 4, 1, 3, 4, 1, 2, 3, 4]);
next = array1d(1..14 ,[10, 7, 11, 9, 8, 5, 1, 3, 13, 14, 12, 4, 2, 6]);
makespan = 509;
----------
assign = array1d(1..14 ,[4, 4, 1, 3, 1, 1, 4, 1, 3, 4, 1, 2, 3, 4]);
next = array1d(1..14 ,[10, 7, 11, 9, 8, 5, 1, 3, 13, 14, 12, 4, 2, 6]);
makespan = 508;
----------
assign = array1d(1..14 ,[4, 4, 1, 3, 1, 1, 4, 1, 3, 4, 1, 2, 3, 4]);
next = array1d(1..14 ,[10, 7, 11, 9, 8, 5, 1, 3, 13, 14, 12, 4, 2, 6]);
makespan = 506;
----------
assign = array1d(1..14 ,[4, 4, 1, 3, 1, 1, 4, 1, 3, 4, 1, 2, 3, 4]);
next = array1d(1..14 ,[10, 7, 11, 9, 8, 5, 1, 3, 13, 14, 12, 4, 2, 6]);
makespan = 505;
----------
assign = array1d(1..14 ,[4, 4, 1, 3, 1, 1, 4, 1, 3, 4, 1, 2, 3, 4]);
next = array1d(1..14 ,[10, 7, 11, 9, 8, 5, 1, 3, 13, 14, 12, 4, 2, 6]);
makespan = 503;
----------
assign = array1d(1..14 ,[4, 4, 1, 3, 1, 1, 4, 1, 3, 4, 1, 2, 3, 4]);
next = array1d(1..14 ,[10, 7, 11, 9, 8, 5, 1, 3, 13, 14, 12, 4, 2, 6]);
makespan = 502;
----------
assign = array1d(1..14 ,[4, 4, 1, 3, 1, 1, 4, 1, 3, 4, 1, 2, 3, 4]);
next = array1d(1..14 ,[10, 7, 11, 9, 8, 5, 1, 3, 13, 14, 12, 4, 2, 6]);
makespan = 501;
----------
assign = array1d(1..14 ,[4, 4, 1, 3, 1, 1, 4, 1, 3, 4, 1, 2, 3, 4]);
next = array1d(1..14 ,[10, 7, 11, 9, 8, 5, 1, 3, 13, 14, 12, 4, 2, 6]);
makespan = 500;
----------
assign = array1d(1..14 ,[4, 4, 1, 3, 1, 1, 4, 1, 3, 4, 1, 2, 3, 4]);
next = array1d(1..14 ,[10, 7, 11, 9, 8, 5, 1, 3, 13, 14, 12, 4, 2, 6]);
makespan = 499;
----------
assign = array1d(1..14 ,[4, 4, 1, 3, 1, 1, 4, 1, 3, 4, 1, 2, 3, 4]);
next = array1d(1..14 ,[10, 7, 11, 9, 8, 5, 1, 3, 13, 14, 12, 4, 2, 6]);
makespan = 497;
----------
assign = array1d(1..14 ,[4, 4, 1, 3, 1, 1, 4, 1, 3, 4, 1, 2, 3, 4]);
next = array1d(1..14 ,[10, 7, 11, 9, 8, 5, 1, 3, 13, 14, 12, 4, 2, 6]);
makespan = 496;
----------
assign = array1d(1..14 ,[4, 4, 1, 3, 1, 1, 4, 1, 3, 4, 1, 2, 3, 4]);
next = array1d(1..14 ,[10, 7, 11, 9, 8, 5, 1, 3, 13, 14, 12, 4, 2, 6]);
makespan = 494;
----------
assign = array1d(1..14 ,[4, 4, 1, 3, 1, 1, 4, 1, 3, 4, 1, 2, 3, 4]);
next = array1d(1..14 ,[10, 7, 11, 9, 8, 5, 1, 3, 13, 14, 12, 4, 2, 6]);
makespan = 493;
----------
assign = array1d(1..14 ,[4, 4, 1, 1, 3, 3, 4, 3, 1, 4, 1, 2, 3, 4]);
next = array1d(1..14 ,[10, 7, 9, 11, 8, 5, 1, 13, 4, 14, 12, 6, 2, 3]);
makespan = 491;
----------
assign = array1d(1..14 ,[4, 2, 3, 4, 2, 2, 4, 3, 3, 4, 1, 2, 3, 4]);
next = array1d(1..14 ,[10, 6, 13, 7, 12, 5, 1, 3, 8, 14, 2, 9, 4, 11]);
makespan = 490;
----------
assign = array1d(1..14 ,[1, 4, 3, 3, 4, 4, 1, 4, 3, 1, 1, 2, 3, 4]);
next = array1d(1..14 ,[11, 6, 9, 13, 8, 5, 1, 14, 4, 7, 12, 3, 2, 10]);
makespan = 489;
----------
assign = array1d(1..14 ,[3, 4, 3, 1, 4, 4, 1, 4, 3, 1, 1, 2, 3, 4]);
next = array1d(1..14 ,[9, 6, 1, 11, 8, 5, 4, 14, 13, 7, 12, 3, 2, 10]);
makespan = 488;
----------
assign = array1d(1..14 ,[1, 3, 2, 4, 3, 3, 1, 2, 2, 1, 1, 2, 3, 4]);
next = array1d(1..14 ,[11, 6, 9, 14, 13, 5, 1, 3, 12, 7, 8, 2, 4, 10]);
makespan = 486;
----------
assign = array1d(1..14 ,[3, 1, 2, 4, 1, 1, 3, 2, 2, 4, 1, 2, 3, 4]);
next = array1d(1..14 ,[13, 6, 9, 10, 11, 5, 1, 3, 12, 14, 8, 7, 4, 2]);
makespan = 485;
----------
assign = array1d(1..14 ,[2, 1, 3, 4, 4, 1, 2, 3, 3, 4, 1, 2, 3, 4]);
next = array1d(1..14 ,[12, 6, 9, 10, 4, 11, 1, 3, 13, 14, 7, 8, 5, 2]);
makespan = 479;
----------
assign = array1d(1..14 ,[4, 1, 3, 3, 4, 1, 4, 4, 3, 2, 1, 2, 3, 4]);
next = array1d(1..14 ,[5, 6, 9, 13, 8, 11, 1, 14, 4, 12, 10, 3, 7, 2]);
makespan = 478;
----------
assign = array1d(1..14 ,[4, 2, 3, 4, 2, 2, 4, 3, 3, 1, 1, 2, 3, 4]);
next = array1d(1..14 ,[4, 6, 9, 14, 12, 5, 1, 3, 13, 11, 2, 8, 7, 10]);
makespan = 477;
----------
assign = array1d(1..14 ,[1, 4, 3, 1, 4, 4, 3, 2, 3, 1, 1, 2, 3, 4]);
next = array1d(1..14 ,[4, 6, 9, 10, 14, 5, 13, 12, 7, 11, 8, 3, 2, 1]);
makespan = 476;
----------
assign = array1d(1..14 ,[2, 1, 4, 2, 1, 1, 4, 3, 4, 2, 1, 2, 3, 4]);
next = array1d(1..14 ,[4, 6, 9, 10, 11, 5, 14, 13, 7, 12, 1, 8, 3, 2]);
makespan = 475;
----------
assign = array1d(1..14 ,[3, 4, 2, 3, 4, 4, 1, 2, 2, 3, 1, 2, 3, 4]);
next = array1d(1..14 ,[4, 6, 9, 10, 14, 5, 11, 3, 12, 13, 8, 1, 2, 7]);
makespan = 474;
----------
assign = array1d(1..14 ,[3, 4, 2, 3, 3, 4, 4, 2, 2, 4, 1, 2, 3, 4]);
next = array1d(1..14 ,[4, 6, 9, 13, 1, 10, 2, 3, 12, 14, 8, 5, 7, 11]);
makespan = 473;
----------
assign = array1d(1..14 ,[2, 4, 4, 2, 3, 3, 3, 4, 1, 4, 1, 2, 3, 4]);
next = array1d(1..14 ,[4, 14, 2, 12, 6, 7, 13, 3, 11, 8, 1, 5, 10, 9]);
makespan = 472;
----------
assign = array1d(1..14 ,[4, 2, 1, 4, 3, 3, 3, 2, 4, 1, 1, 2, 3, 4]);
next = array1d(1..14 ,[4, 12, 10, 9, 6, 7, 13, 2, 14, 11, 8, 5, 1, 3]);
makespan = 471;
----------
assign = array1d(1..14 ,[4, 2, 4, 3, 3, 3, 4, 2, 2, 4, 1, 2, 3, 4]);
next = array1d(1..14 ,[14, 9, 10, 13, 6, 4, 1, 2, 12, 7, 8, 5, 3, 11]);
makespan = 470;
----------
assign = array1d(1..14 ,[2, 4, 1, 2, 3, 3, 2, 4, 4, 3, 1, 2, 3, 4]);
next = array1d(1..14 ,[4, 9, 11, 12, 6, 13, 1, 2, 14, 5, 7, 10, 8, 3]);
makespan = 468;
----------
assign = array1d(1..14 ,[4, 2, 4, 2, 3, 3, 4, 2, 3, 4, 1, 2, 3, 4]);
next = array1d(1..14 ,[7, 12, 14, 8, 6, 13, 10, 2, 5, 3, 4, 9, 1, 11]);
makespan = 467;
----------
assign = array1d(1..14 ,[3, 4, 3, 3, 4, 2, 4, 4, 2, 1, 1, 2, 3, 4]);
next = array1d(1..14 ,[13, 7, 1, 3, 14, 9, 5, 2, 12, 11, 6, 4, 8, 10]);
makespan = 466;
----------
assign = array1d(1..14 ,[4, 2, 3, 4, 3, 2, 4, 2, 3, 1, 1, 2, 3, 4]);
next = array1d(1..14 ,[7, 6, 13, 14, 9, 12, 4, 2, 3, 11, 8, 5, 1, 10]);
makespan = 465;
----------
assign = array1d(1..14 ,[4, 1, 3, 2, 4, 1, 4, 1, 3, 2, 1, 2, 3, 4]);
next = array1d(1..14 ,[7, 6, 13, 12, 1, 11, 14, 2, 3, 4, 10, 9, 5, 8]);
makespan = 464;
----------
assign = array1d(1..14 ,[4, 3, 2, 4, 3, 1, 2, 3, 2, 4, 1, 2, 3, 4]);
next = array1d(1..14 ,[14, 13, 7, 1, 8, 11, 12, 2, 3, 4, 9, 5, 10, 6]);
makespan = 463;
----------
assign = array1d(1..14 ,[3, 2, 3, 1, 4, 4, 1, 4, 3, 4, 1, 2, 3, 4]);
next = array1d(1..14 ,[13, 12, 9, 7, 8, 5, 11, 14, 1, 6, 2, 3, 10, 4]);
makespan = 462;
----------
assign = array1d(1..14 ,[2, 4, 4, 3, 2, 4, 4, 2, 2, 3, 1, 2, 3, 4]);
next = array1d(1..14 ,[8, 7, 6, 13, 1, 2, 14, 12, 5, 4, 9, 10, 3, 11]);
makespan = 461;
----------
assign = array1d(1..14 ,[4, 2, 2, 3, 4, 2, 1, 4, 3, 3, 1, 2, 3, 4]);
next = array1d(1..14 ,[8, 6, 12, 9, 1, 3, 11, 14, 13, 4, 2, 10, 5, 7]);
makespan = 460;
----------
assign = array1d(1..14 ,[2, 4, 4, 3, 2, 4, 3, 2, 2, 4, 1, 2, 3, 4]);
next = array1d(1..14 ,[8, 6, 10, 7, 1, 3, 13, 12, 5, 14, 9, 4, 2, 11]);
makespan = 459;
----------
assign = array1d(1..14 ,[2, 4, 3, 3, 2, 3, 2, 2, 4, 4, 1, 2, 3, 4]);
next = array1d(1..14 ,[8, 9, 4, 13, 1, 3, 12, 7, 14, 2, 5, 6, 10, 11]);
makespan = 458;
----------
assign = array1d(1..14 ,[4, 2, 1, 1, 3, 4, 4, 4, 3, 1, 1, 2, 3, 4]);
next = array1d(1..14 ,[8, 12, 4, 10, 13, 14, 6, 7, 5, 11, 2, 9, 1, 3]);
makespan = 457;
----------
assign = array1d(1..14 ,[4, 3, 3, 2, 2, 4, 4, 4, 2, 3, 1, 2, 3, 4]);
next = array1d(1..14 ,[8, 3, 10, 5, 12, 14, 6, 7, 4, 13, 9, 2, 1, 11]);
makespan = 456;
----------
assign = array1d(1..14 ,[4, 1, 4, 3, 3, 1, 4, 4, 3, 1, 1, 2, 3, 4]);
next = array1d(1..14 ,[8, 10, 14, 5, 13, 11, 1, 3, 4, 6, 12, 9, 7, 2]);
makespan = 455;
----------
assign = array1d(1..14 ,[4, 3, 4, 1, 1, 3, 4, 4, 1, 3, 1, 2, 3, 4]);
next = array1d(1..14 ,[8, 6, 14, 5, 11, 13, 1, 3, 4, 2, 12, 10, 7, 9]);
makespan = 454;
----------
assign = array1d(1..14 ,[4, 1, 4, 2, 2, 1, 4, 4, 2, 3, 1, 2, 3, 4]);
next = array1d(1..14 ,[8, 6, 14, 5, 12, 11, 1, 3, 4, 13, 9, 10, 7, 2]);
makespan = 453;
----------
assign = array1d(1..14 ,[4, 3, 1, 3, 2, 1, 4, 4, 2, 3, 1, 2, 3, 4]);
next = array1d(1..14 ,[8, 13, 6, 10, 9, 11, 14, 7, 12, 2, 5, 4, 1, 3]);
makespan = 452;
----------
assign = array1d(1..14 ,[4, 2, 4, 3, 3, 2, 1, 4, 3, 4, 1, 2, 3, 4]);
next = array1d(1..14 ,[8, 12, 14, 13, 9, 2, 11, 10, 4, 3, 6, 5, 1, 7]);
makespan = 451;
----------
assign = array1d(1..14 ,[4, 3, 4, 3, 2, 2, 1, 4, 2, 3, 1, 2, 3, 4]);
next = array1d(1..14 ,[8, 13, 1, 10, 9, 5, 11, 14, 12, 2, 6, 4, 3, 7]);
makespan = 450;
----------
assign = array1d(1..14 ,[4, 3, 2, 3, 1, 2, 2, 4, 4, 3, 1, 2, 3, 4]);
next = array1d(1..14 ,[8, 13, 7, 10, 11, 3, 12, 14, 1, 2, 6, 4, 9, 5]);
makespan = 449;
----------
assign = array1d(1..14 ,[4, 3, 2, 1, 4, 3, 2, 4, 1, 1, 1, 2, 3, 4]);
next = array1d(1..14 ,[8, 6, 7, 10, 1, 13, 12, 14, 4, 11, 3, 2, 5, 9]);
makespan = 448;
----------
assign = array1d(1..14 ,[4, 1, 3, 4, 2, 3, 3, 4, 2, 1, 1, 2, 3, 4]);
next = array1d(1..14 ,[8, 11, 7, 1, 9, 3, 13, 14, 12, 2, 5, 6, 4, 10]);
makespan = 447;
----------
assign = array1d(1..14 ,[4, 2, 3, 4, 1, 3, 3, 4, 1, 2, 1, 2, 3, 4]);
next = array1d(1..14 ,[8, 12, 7, 1, 9, 3, 13, 14, 11, 2, 10, 6, 4, 5]);
makespan = 446;
----------
assign = array1d(1..14 ,[4, 1, 2, 4, 3, 2, 2, 4, 3, 3, 1, 2, 3, 4]);
next = array1d(1..14 ,[8, 11, 7, 1, 9, 3, 12, 14, 10, 13, 6, 5, 4, 2]);
makespan = 445;
----------
assign = array1d(1..14 ,[3, 2, 3, 2, 4, 3, 4, 1, 4, 2, 1, 2, 3, 4]);
next = array1d(1..14 ,[6, 12, 13, 10, 9, 3, 5, 11, 14, 2, 4, 1, 7, 8]);
makespan = 444;
----------
assign = array1d(1..14 ,[3, 4, 4, 3, 1, 2, 4, 1, 1, 3, 1, 2, 3, 4]);
next = array1d(1..14 ,[10, 14, 7, 1, 9, 12, 2, 11, 8, 13, 6, 4, 3, 5]);
makespan = 443;
----------
assign = array1d(1..14 ,[4, 2, 4, 2, 3, 3, 4, 1, 1, 2, 1, 2, 3, 4]);
next = array1d(1..14 ,[3, 12, 7, 10, 6, 13, 14, 11, 8, 2, 4, 5, 1, 9]);
makespan = 442;
----------
assign = array1d(1..14 ,[3, 1, 4, 3, 2, 4, 4, 1, 3, 4, 1, 2, 3, 4]);
next = array1d(1..14 ,[9, 8, 7, 1, 12, 3, 14, 11, 13, 6, 5, 4, 10, 2]);
makespan = 441;
----------
assign = array1d(1..14 ,[3, 1, 4, 3, 2, 4, 4, 1, 3, 4, 1, 2, 3, 4]);
next = array1d(1..14 ,[9, 8, 7, 1, 12, 3, 14, 11, 13, 6, 5, 4, 10, 2]);
makespan = 440;
----------
assign = array1d(1..14 ,[3, 1, 4, 3, 2, 4, 4, 1, 3, 4, 1, 2, 3, 4]);
next = array1d(1..14 ,[9, 8, 7, 1, 12, 3, 14, 11, 13, 6, 5, 4, 10, 2]);
makespan = 439;
----------
assign = array1d(1..14 ,[3, 1, 4, 3, 2, 4, 4, 1, 3, 4, 1, 2, 3, 4]);
next = array1d(1..14 ,[9, 8, 7, 1, 12, 3, 14, 11, 13, 6, 5, 4, 10, 2]);
makespan = 438;
----------
assign = array1d(1..14 ,[3, 1, 4, 3, 2, 4, 4, 1, 3, 4, 1, 2, 3, 4]);
next = array1d(1..14 ,[9, 8, 7, 1, 12, 3, 14, 11, 13, 6, 5, 4, 10, 2]);
makespan = 437;
----------
assign = array1d(1..14 ,[3, 1, 4, 3, 2, 4, 4, 1, 3, 4, 1, 2, 3, 4]);
next = array1d(1..14 ,[9, 8, 7, 1, 12, 10, 14, 11, 13, 3, 5, 4, 6, 2]);
makespan = 436;
----------
assign = array1d(1..14 ,[3, 1, 4, 3, 2, 4, 4, 1, 3, 4, 1, 2, 3, 4]);
next = array1d(1..14 ,[9, 8, 7, 1, 12, 10, 14, 11, 13, 3, 5, 4, 6, 2]);
makespan = 435;
----------
assign = array1d(1..14 ,[3, 1, 4, 3, 2, 4, 4, 1, 3, 4, 1, 2, 3, 4]);
next = array1d(1..14 ,[9, 8, 7, 1, 12, 10, 14, 11, 13, 3, 5, 4, 6, 2]);
makespan = 434;
----------
assign = array1d(1..14 ,[3, 1, 4, 3, 2, 4, 4, 1, 3, 4, 1, 2, 3, 4]);
next = array1d(1..14 ,[9, 8, 7, 1, 12, 10, 14, 11, 13, 3, 5, 4, 6, 2]);
makespan = 432;
----------
assign = array1d(1..14 ,[3, 1, 4, 3, 2, 4, 4, 1, 3, 4, 1, 2, 3, 4]);
next = array1d(1..14 ,[9, 8, 7, 1, 12, 10, 14, 11, 13, 3, 5, 4, 6, 2]);
makespan = 431;
----------
assign = array1d(1..14 ,[2, 1, 4, 2, 2, 3, 4, 3, 3, 4, 1, 2, 3, 4]);
next = array1d(1..14 ,[5, 11, 7, 1, 12, 8, 10, 9, 13, 14, 4, 6, 3, 2]);
makespan = 430;
----------
assign = array1d(1..14 ,[2, 1, 3, 2, 4, 4, 3, 4, 3, 2, 1, 2, 3, 4]);
next = array1d(1..14 ,[4, 11, 9, 10, 6, 8, 3, 14, 13, 12, 1, 7, 5, 2]);
makespan = 429;
----------
assign = array1d(1..14 ,[3, 3, 4, 3, 4, 1, 4, 1, 1, 2, 1, 2, 3, 4]);
next = array1d(1..14 ,[2, 13, 7, 1, 3, 8, 14, 9, 11, 12, 10, 4, 5, 6]);
makespan = 428;
----------
assign = array1d(1..14 ,[4, 3, 4, 2, 3, 3, 4, 1, 1, 2, 1, 2, 3, 4]);
next = array1d(1..14 ,[3, 13, 7, 12, 2, 5, 14, 9, 11, 4, 10, 6, 1, 8]);
makespan = 427;
----------
assign = array1d(1..14 ,[4, 1, 4, 2, 1, 1, 4, 3, 3, 2, 1, 2, 3, 4]);
next = array1d(1..14 ,[3, 11, 7, 12, 2, 5, 14, 9, 13, 4, 10, 8, 1, 6]);
makespan = 426;
----------
assign = array1d(1..14 ,[4, 3, 4, 2, 3, 3, 4, 1, 1, 2, 1, 2, 3, 4]);
next = array1d(1..14 ,[3, 13, 7, 12, 2, 5, 14, 9, 11, 4, 10, 6, 1, 8]);
makespan = 425;
----------
assign = array1d(1..14 ,[4, 3, 4, 2, 3, 3, 4, 1, 1, 2, 1, 2, 3, 4]);
next = array1d(1..14 ,[3, 13, 7, 12, 2, 5, 14, 9, 11, 4, 10, 6, 1, 8]);
makespan = 424;
----------
assign = array1d(1..14 ,[4, 3, 4, 2, 3, 3, 4, 1, 1, 2, 1, 2, 3, 4]);
next = array1d(1..14 ,[3, 13, 7, 12, 2, 5, 14, 9, 11, 4, 10, 6, 1, 8]);
makespan = 423;
----------
assign = array1d(1..14 ,[4, 3, 4, 2, 3, 3, 4, 1, 1, 2, 1, 2, 3, 4]);
next = array1d(1..14 ,[3, 13, 7, 12, 2, 5, 14, 9, 11, 4, 10, 6, 1, 8]);
makespan = 422;
----------
assign = array1d(1..14 ,[4, 3, 4, 2, 3, 3, 4, 1, 1, 2, 1, 2, 3, 4]);
next = array1d(1..14 ,[3, 13, 7, 12, 2, 5, 14, 9, 11, 4, 10, 6, 1, 8]);
makespan = 421;
----------
assign = array1d(1..14 ,[4, 3, 4, 2, 3, 3, 4, 1, 1, 2, 1, 2, 3, 4]);
next = array1d(1..14 ,[3, 13, 7, 12, 2, 5, 14, 9, 11, 4, 10, 6, 1, 8]);
makespan = 420;
----------
assign = array1d(1..14 ,[4, 3, 4, 2, 3, 3, 4, 1, 1, 2, 1, 2, 3, 4]);
next = array1d(1..14 ,[3, 13, 7, 12, 2, 5, 14, 9, 11, 4, 10, 6, 1, 8]);
makespan = 419;
----------
assign = array1d(1..14 ,[4, 3, 4, 2, 3, 3, 4, 1, 1, 2, 1, 2, 3, 4]);
next = array1d(1..14 ,[3, 13, 7, 12, 2, 5, 14, 9, 11, 4, 10, 6, 1, 8]);
makespan = 418;
----------
assign = array1d(1..14 ,[4, 3, 4, 2, 3, 3, 4, 1, 1, 2, 1, 2, 3, 4]);
next = array1d(1..14 ,[3, 13, 7, 12, 2, 5, 14, 9, 11, 4, 10, 6, 1, 8]);
makespan = 417;
----------
assign = array1d(1..14 ,[4, 3, 4, 2, 3, 3, 4, 1, 1, 2, 1, 2, 3, 4]);
next = array1d(1..14 ,[3, 13, 7, 12, 2, 5, 14, 9, 11, 4, 10, 6, 1, 8]);
makespan = 416;
----------
assign = array1d(1..14 ,[4, 3, 4, 2, 3, 3, 4, 1, 1, 2, 1, 2, 3, 4]);
next = array1d(1..14 ,[3, 13, 7, 12, 2, 5, 14, 9, 11, 4, 10, 6, 1, 8]);
makespan = 415;
----------
assign = array1d(1..14 ,[4, 3, 4, 2, 3, 3, 4, 1, 1, 2, 1, 2, 3, 4]);
next = array1d(1..14 ,[3, 13, 7, 12, 2, 5, 14, 9, 11, 4, 10, 6, 1, 8]);
makespan = 414;
----------
assign = array1d(1..14 ,[4, 3, 4, 2, 3, 3, 4, 1, 1, 2, 1, 2, 3, 4]);
next = array1d(1..14 ,[3, 13, 7, 12, 2, 5, 14, 9, 11, 4, 10, 6, 1, 8]);
makespan = 413;
----------
assign = array1d(1..14 ,[4, 3, 4, 2, 3, 3, 4, 1, 1, 2, 1, 2, 3, 4]);
next = array1d(1..14 ,[3, 13, 7, 12, 2, 5, 14, 9, 11, 4, 10, 6, 1, 8]);
makespan = 412;
----------
assign = array1d(1..14 ,[4, 3, 4, 2, 3, 3, 4, 1, 1, 2, 1, 2, 3, 4]);
next = array1d(1..14 ,[3, 13, 7, 12, 2, 5, 14, 9, 11, 4, 10, 6, 1, 8]);
makespan = 411;
----------
assign = array1d(1..14 ,[4, 3, 4, 2, 3, 3, 4, 1, 1, 2, 1, 2, 3, 4]);
next = array1d(1..14 ,[3, 13, 7, 12, 2, 5, 14, 9, 11, 4, 10, 6, 1, 8]);
makespan = 410;
----------
assign = array1d(1..14 ,[4, 3, 4, 2, 3, 3, 4, 1, 1, 2, 1, 2, 3, 4]);
next = array1d(1..14 ,[3, 13, 7, 12, 2, 5, 14, 9, 11, 4, 10, 6, 1, 8]);
makespan = 409;
----------
assign = array1d(1..14 ,[4, 3, 4, 2, 3, 3, 4, 1, 1, 2, 1, 2, 3, 4]);
next = array1d(1..14 ,[3, 13, 7, 12, 2, 5, 14, 9, 11, 4, 10, 6, 1, 8]);
makespan = 408;
----------
assign = array1d(1..14 ,[4, 3, 4, 2, 3, 3, 4, 1, 1, 2, 1, 2, 3, 4]);
next = array1d(1..14 ,[3, 13, 7, 12, 2, 5, 14, 9, 11, 4, 10, 6, 1, 8]);
makespan = 407;
----------
assign = array1d(1..14 ,[4, 3, 4, 2, 3, 3, 4, 1, 1, 2, 1, 2, 3, 4]);
next = array1d(1..14 ,[3, 13, 7, 12, 2, 5, 14, 9, 11, 4, 10, 6, 1, 8]);
makespan = 406;
----------
assign = array1d(1..14 ,[4, 3, 4, 2, 3, 3, 4, 1, 1, 2, 1, 2, 3, 4]);
next = array1d(1..14 ,[3, 13, 7, 12, 2, 5, 14, 9, 11, 4, 10, 6, 1, 8]);
makespan = 405;
----------
assign = array1d(1..14 ,[4, 3, 4, 2, 3, 3, 4, 1, 1, 2, 1, 2, 3, 4]);
next = array1d(1..14 ,[3, 13, 7, 12, 2, 5, 14, 9, 11, 4, 10, 6, 1, 8]);
makespan = 404;
----------
assign = array1d(1..14 ,[4, 3, 4, 2, 3, 3, 4, 1, 1, 2, 1, 2, 3, 4]);
next = array1d(1..14 ,[3, 13, 7, 12, 2, 5, 14, 9, 11, 4, 10, 6, 1, 8]);
makespan = 403;
----------
assign = array1d(1..14 ,[4, 3, 4, 2, 3, 3, 4, 1, 1, 2, 1, 2, 3, 4]);
next = array1d(1..14 ,[3, 13, 7, 12, 2, 5, 14, 9, 11, 4, 10, 6, 1, 8]);
makespan = 402;
----------
assign = array1d(1..14 ,[4, 3, 4, 2, 3, 3, 4, 1, 1, 2, 1, 2, 3, 4]);
next = array1d(1..14 ,[3, 13, 7, 12, 2, 5, 14, 9, 11, 4, 10, 6, 1, 8]);
makespan = 401;
----------
assign = array1d(1..14 ,[4, 3, 4, 2, 3, 3, 4, 1, 1, 2, 1, 2, 3, 4]);
next = array1d(1..14 ,[3, 13, 7, 12, 2, 5, 14, 9, 11, 4, 10, 6, 1, 8]);
makespan = 400;
----------
assign = array1d(1..14 ,[4, 3, 4, 2, 3, 3, 4, 1, 1, 2, 1, 2, 3, 4]);
next = array1d(1..14 ,[3, 13, 7, 12, 2, 5, 14, 9, 11, 4, 10, 6, 1, 8]);
makespan = 399;
----------
assign = array1d(1..14 ,[4, 3, 4, 2, 3, 3, 4, 1, 1, 2, 1, 2, 3, 4]);
next = array1d(1..14 ,[3, 13, 7, 12, 2, 5, 14, 9, 11, 4, 10, 6, 1, 8]);
makespan = 398;
----------
assign = array1d(1..14 ,[4, 3, 4, 2, 3, 3, 4, 1, 1, 2, 1, 2, 3, 4]);
next = array1d(1..14 ,[3, 13, 7, 12, 2, 5, 14, 9, 11, 4, 10, 6, 1, 8]);
makespan = 397;
----------
assign = array1d(1..14 ,[4, 3, 4, 2, 3, 3, 4, 1, 1, 2, 1, 2, 3, 4]);
next = array1d(1..14 ,[3, 13, 7, 12, 2, 5, 14, 9, 11, 4, 10, 6, 1, 8]);
makespan = 396;
----------
assign = array1d(1..14 ,[4, 3, 4, 2, 3, 3, 4, 1, 1, 2, 1, 2, 3, 4]);
next = array1d(1..14 ,[3, 13, 7, 12, 2, 5, 14, 9, 11, 4, 10, 6, 1, 8]);
makespan = 395;
----------
assign = array1d(1..14 ,[4, 3, 4, 2, 3, 3, 4, 1, 1, 2, 1, 2, 3, 4]);
next = array1d(1..14 ,[3, 13, 7, 12, 2, 5, 14, 9, 11, 4, 10, 6, 1, 8]);
makespan = 394;
----------
assign = array1d(1..14 ,[4, 3, 4, 2, 3, 3, 4, 1, 1, 2, 1, 2, 3, 4]);
next = array1d(1..14 ,[3, 13, 7, 12, 2, 5, 14, 9, 11, 4, 10, 6, 1, 8]);
makespan = 393;
----------
assign = array1d(1..14 ,[4, 3, 4, 2, 3, 3, 4, 1, 1, 2, 1, 2, 3, 4]);
next = array1d(1..14 ,[3, 13, 7, 12, 2, 5, 14, 9, 11, 4, 10, 6, 1, 8]);
makespan = 392;
----------
assign = array1d(1..14 ,[4, 3, 4, 2, 3, 3, 4, 1, 1, 2, 1, 2, 3, 4]);
next = array1d(1..14 ,[3, 13, 7, 12, 2, 5, 14, 9, 11, 4, 10, 6, 1, 8]);
makespan = 391;
----------
assign = array1d(1..14 ,[4, 3, 4, 2, 3, 3, 4, 1, 1, 2, 1, 2, 3, 4]);
next = array1d(1..14 ,[3, 13, 7, 12, 2, 5, 14, 9, 11, 4, 10, 6, 1, 8]);
makespan = 390;
----------
assign = array1d(1..14 ,[4, 3, 4, 2, 3, 3, 4, 1, 1, 2, 1, 2, 3, 4]);
next = array1d(1..14 ,[3, 13, 7, 12, 2, 5, 14, 9, 11, 4, 10, 6, 1, 8]);
makespan = 389;
----------
assign = array1d(1..14 ,[4, 3, 4, 2, 3, 3, 4, 1, 1, 2, 1, 2, 3, 4]);
next = array1d(1..14 ,[3, 13, 7, 12, 2, 5, 14, 9, 11, 4, 10, 6, 1, 8]);
makespan = 388;
----------
assign = array1d(1..14 ,[4, 3, 4, 2, 3, 3, 4, 1, 1, 2, 1, 2, 3, 4]);
next = array1d(1..14 ,[3, 13, 7, 12, 2, 5, 14, 9, 11, 4, 10, 6, 1, 8]);
makespan = 387;
----------
assign = array1d(1..14 ,[4, 3, 4, 2, 3, 3, 4, 1, 1, 2, 1, 2, 3, 4]);
next = array1d(1..14 ,[3, 13, 7, 12, 2, 5, 14, 9, 11, 4, 10, 6, 1, 8]);
makespan = 386;
----------
assign = array1d(1..14 ,[4, 3, 4, 2, 3, 3, 4, 1, 1, 2, 1, 2, 3, 4]);
next = array1d(1..14 ,[3, 13, 7, 12, 2, 5, 14, 9, 11, 4, 10, 6, 1, 8]);
makespan = 385;
----------
assign = array1d(1..14 ,[4, 3, 4, 2, 3, 3, 4, 1, 1, 2, 1, 2, 3, 4]);
next = array1d(1..14 ,[3, 13, 7, 12, 2, 5, 14, 9, 11, 4, 10, 6, 1, 8]);
makespan = 384;
----------
assign = array1d(1..14 ,[4, 1, 4, 2, 1, 1, 4, 3, 3, 2, 1, 2, 3, 4]);
next = array1d(1..14 ,[3, 11, 7, 12, 2, 5, 14, 9, 13, 4, 10, 8, 1, 6]);
makespan = 383;
----------
assign = array1d(1..14 ,[3, 4, 4, 3, 1, 1, 4, 3, 2, 2, 1, 2, 3, 4]);
next = array1d(1..14 ,[8, 3, 7, 1, 11, 5, 14, 13, 12, 9, 10, 4, 2, 6]);
makespan = 382;
----------
assign = array1d(1..14 ,[4, 1, 4, 4, 2, 2, 2, 3, 3, 3, 1, 2, 3, 4]);
next = array1d(1..14 ,[3, 11, 14, 1, 7, 5, 12, 9, 13, 8, 6, 10, 4, 2]);
makespan = 381;
----------
assign = array1d(1..14 ,[4, 3, 4, 1, 2, 2, 3, 4, 3, 2, 1, 2, 3, 4]);
next = array1d(1..14 ,[8, 13, 1, 11, 12, 5, 2, 14, 7, 6, 10, 9, 3, 4]);
makespan = 380;
----------
assign = array1d(1..14 ,[2, 2, 4, 1, 3, 4, 3, 3, 2, 4, 1, 2, 3, 4]);
next = array1d(1..14 ,[9, 1, 14, 11, 7, 3, 8, 13, 12, 6, 2, 5, 10, 4]);
makespan = 379;
----------
assign = array1d(1..14 ,[4, 3, 2, 1, 4, 2, 4, 3, 3, 1, 1, 2, 3, 4]);
next = array1d(1..14 ,[14, 13, 12, 10, 7, 3, 1, 9, 2, 11, 6, 8, 5, 4]);
makespan = 378;
----------
assign = array1d(1..14 ,[1, 3, 3, 4, 2, 3, 2, 4, 4, 1, 1, 2, 3, 4]);
next = array1d(1..14 ,[10, 6, 13, 14, 7, 3, 12, 9, 4, 11, 5, 2, 8, 1]);
makespan = 377;
----------
assign = array1d(1..14 ,[2, 3, 4, 1, 3, 4, 1, 4, 3, 1, 1, 2, 3, 4]);
next = array1d(1..14 ,[12, 9, 8, 10, 13, 3, 4, 14, 5, 11, 1, 2, 6, 7]);
makespan = 376;
----------
assign = array1d(1..14 ,[2, 3, 3, 1, 4, 4, 1, 3, 4, 1, 1, 2, 3, 4]);
next = array1d(1..14 ,[12, 3, 8, 10, 6, 14, 4, 13, 5, 11, 1, 2, 9, 7]);
makespan = 375;
----------
assign = array1d(1..14 ,[2, 3, 3, 1, 4, 3, 1, 4, 4, 1, 1, 2, 3, 4]);
next = array1d(1..14 ,[12, 6, 13, 10, 14, 3, 4, 9, 5, 11, 1, 2, 8, 7]);
makespan = 374;
----------
assign = array1d(1..14 ,[2, 3, 3, 1, 4, 3, 1, 4, 4, 1, 1, 2, 3, 4]);
next = array1d(1..14 ,[12, 6, 13, 10, 14, 3, 4, 9, 5, 11, 1, 2, 8, 7]);
makespan = 373;
----------
assign = array1d(1..14 ,[2, 3, 3, 1, 4, 3, 1, 4, 4, 1, 1, 2, 3, 4]);
next = array1d(1..14 ,[12, 6, 13, 10, 14, 3, 4, 9, 5, 11, 1, 2, 8, 7]);
makespan = 372;
----------
assign = array1d(1..14 ,[2, 3, 3, 1, 4, 3, 1, 4, 4, 1, 1, 2, 3, 4]);
next = array1d(1..14 ,[12, 6, 13, 10, 14, 3, 4, 9, 5, 11, 1, 2, 8, 7]);
makespan = 371;
----------
assign = array1d(1..14 ,[2, 3, 3, 1, 4, 3, 1, 4, 4, 1, 1, 2, 3, 4]);
next = array1d(1..14 ,[12, 6, 13, 10, 14, 3, 4, 9, 5, 11, 1, 2, 8, 7]);
makespan = 369;
----------
assign = array1d(1..14 ,[3, 3, 2, 1, 4, 2, 1, 4, 4, 1, 1, 2, 3, 4]);
next = array1d(1..14 ,[2, 13, 12, 10, 14, 3, 4, 9, 5, 11, 6, 1, 8, 7]);
makespan = 368;
----------
assign = array1d(1..14 ,[2, 3, 4, 3, 4, 4, 3, 1, 1, 2, 1, 2, 3, 4]);
next = array1d(1..14 ,[10, 7, 5, 13, 14, 3, 4, 9, 11, 12, 1, 2, 6, 8]);
makespan = 367;
----------
assign = array1d(1..14 ,[3, 1, 2, 2, 4, 1, 4, 3, 3, 4, 1, 2, 3, 4]);
next = array1d(1..14 ,[9, 11, 4, 12, 7, 2, 10, 1, 13, 14, 3, 8, 5, 6]);
makespan = 366;
----------
assign = array1d(1..14 ,[3, 4, 3, 4, 1, 3, 1, 4, 1, 2, 1, 2, 3, 4]);
next = array1d(1..14 ,[13, 8, 1, 14, 7, 3, 11, 4, 5, 12, 10, 6, 2, 9]);
makespan = 365;
----------
assign = array1d(1..14 ,[3, 2, 1, 1, 3, 4, 4, 2, 3, 4, 1, 2, 3, 4]);
next = array1d(1..14 ,[9, 8, 4, 11, 13, 7, 14, 12, 5, 6, 2, 1, 10, 3]);
makespan = 364;
----------
assign = array1d(1..14 ,[4, 2, 1, 4, 3, 1, 4, 2, 3, 1, 1, 2, 3, 4]);
next = array1d(1..14 ,[14, 12, 11, 7, 13, 3, 1, 2, 5, 6, 8, 9, 4, 10]);
makespan = 363;
----------
assign = array1d(1..14 ,[3, 4, 2, 3, 2, 4, 3, 1, 1, 4, 1, 2, 3, 4]);
next = array1d(1..14 ,[7, 14, 12, 13, 3, 2, 4, 9, 11, 6, 5, 1, 10, 8]);
makespan = 362;
----------
assign = array1d(1..14 ,[3, 2, 4, 3, 4, 2, 3, 2, 1, 4, 1, 2, 3, 4]);
next = array1d(1..14 ,[7, 12, 10, 13, 3, 2, 4, 6, 11, 14, 8, 1, 5, 9]);
makespan = 361;
----------
assign = array1d(1..14 ,[3, 1, 2, 3, 2, 4, 3, 1, 4, 4, 1, 2, 3, 4]);
next = array1d(1..14 ,[7, 8, 12, 13, 3, 9, 4, 11, 14, 6, 5, 1, 10, 2]);
makespan = 359;
----------
assign = array1d(1..14 ,[3, 3, 4, 1, 4, 2, 4, 2, 3, 1, 1, 2, 3, 4]);
next = array1d(1..14 ,[13, 1, 14, 11, 3, 8, 5, 12, 2, 4, 6, 9, 7, 10]);
makespan = 358;
----------
assign = array1d(1..14 ,[2, 3, 4, 3, 4, 1, 4, 1, 2, 2, 1, 2, 3, 4]);
next = array1d(1..14 ,[12, 4, 14, 13, 3, 8, 5, 11, 10, 1, 9, 2, 7, 6]);
makespan = 357;
----------
assign = array1d(1..14 ,[4, 2, 1, 3, 2, 3, 1, 2, 4, 1, 1, 2, 3, 4]);
next = array1d(1..14 ,[9, 5, 7, 6, 12, 13, 11, 2, 14, 3, 8, 4, 1, 10]);
makespan = 356;
----------
assign = array1d(1..14 ,[1, 2, 4, 3, 2, 3, 4, 2, 1, 4, 1, 2, 3, 4]);
next = array1d(1..14 ,[11, 5, 7, 6, 12, 13, 10, 2, 1, 14, 8, 4, 3, 9]);
makespan = 355;
----------
assign = array1d(1..14 ,[1, 2, 4, 3, 2, 3, 4, 2, 1, 4, 1, 2, 3, 4]);
next = array1d(1..14 ,[11, 5, 7, 6, 12, 13, 10, 2, 1, 14, 8, 4, 3, 9]);
makespan = 354;
----------
assign = array1d(1..14 ,[1, 2, 4, 3, 2, 3, 4, 2, 1, 4, 1, 2, 3, 4]);
next = array1d(1..14 ,[11, 5, 7, 6, 12, 13, 10, 2, 1, 14, 8, 4, 3, 9]);
makespan = 353;
----------
assign = array1d(1..14 ,[1, 2, 4, 3, 2, 3, 4, 2, 1, 4, 1, 2, 3, 4]);
next = array1d(1..14 ,[11, 5, 7, 6, 12, 13, 10, 2, 1, 14, 8, 4, 3, 9]);
makespan = 352;
----------
assign = array1d(1..14 ,[1, 2, 4, 3, 2, 3, 4, 2, 1, 4, 1, 2, 3, 4]);
next = array1d(1..14 ,[11, 5, 7, 6, 12, 13, 10, 2, 1, 14, 8, 4, 3, 9]);
makespan = 351;
----------
assign = array1d(1..14 ,[1, 2, 4, 3, 2, 3, 4, 2, 1, 4, 1, 2, 3, 4]);
next = array1d(1..14 ,[11, 5, 7, 6, 12, 13, 10, 2, 1, 14, 8, 4, 3, 9]);
makespan = 350;
----------
assign = array1d(1..14 ,[1, 2, 4, 3, 2, 3, 4, 2, 1, 4, 1, 2, 3, 4]);
next = array1d(1..14 ,[11, 5, 7, 6, 12, 13, 10, 2, 1, 14, 8, 4, 3, 9]);
makespan = 349;
----------
assign = array1d(1..14 ,[1, 2, 4, 3, 2, 3, 4, 2, 1, 4, 1, 2, 3, 4]);
next = array1d(1..14 ,[11, 5, 7, 6, 12, 13, 10, 2, 1, 14, 8, 4, 3, 9]);
makespan = 348;
----------
assign = array1d(1..14 ,[1, 2, 4, 3, 2, 3, 4, 2, 1, 4, 1, 2, 3, 4]);
next = array1d(1..14 ,[11, 5, 7, 6, 12, 13, 10, 2, 1, 14, 8, 4, 3, 9]);
makespan = 347;
----------
assign = array1d(1..14 ,[1, 2, 4, 3, 2, 3, 4, 2, 1, 4, 1, 2, 3, 4]);
next = array1d(1..14 ,[11, 5, 7, 6, 12, 13, 10, 2, 1, 14, 8, 4, 3, 9]);
makespan = 346;
----------
assign = array1d(1..14 ,[2, 1, 4, 3, 1, 3, 4, 2, 2, 4, 1, 2, 3, 4]);
next = array1d(1..14 ,[12, 5, 7, 6, 11, 13, 10, 1, 8, 14, 9, 4, 3, 2]);
makespan = 345;
----------
assign = array1d(1..14 ,[2, 4, 1, 3, 4, 3, 1, 1, 2, 2, 1, 2, 3, 4]);
next = array1d(1..14 ,[9, 5, 7, 6, 14, 13, 8, 11, 12, 1, 10, 4, 2, 3]);
makespan = 344;
----------
assign = array1d(1..14 ,[2, 2, 4, 3, 2, 4, 4, 1, 1, 3, 1, 2, 3, 4]);
next = array1d(1..14 ,[5, 1, 7, 13, 12, 3, 14, 9, 11, 4, 2, 10, 6, 8]);
makespan = 343;
----------
assign = array1d(1..14 ,[2, 4, 4, 3, 2, 4, 1, 2, 1, 3, 1, 2, 3, 4]);
next = array1d(1..14 ,[5, 6, 14, 13, 8, 3, 11, 12, 7, 4, 1, 10, 2, 9]);
makespan = 342;
----------
assign = array1d(1..14 ,[3, 4, 2, 4, 3, 2, 4, 3, 1, 1, 1, 2, 3, 4]);
next = array1d(1..14 ,[5, 4, 6, 7, 8, 12, 14, 13, 10, 11, 3, 1, 2, 9]);
makespan = 341;
----------
assign = array1d(1..14 ,[3, 2, 4, 1, 1, 4, 4, 3, 2, 3, 1, 2, 3, 4]);
next = array1d(1..14 ,[8, 9, 6, 5, 11, 7, 14, 13, 12, 1, 2, 10, 3, 4]);
makespan = 340;
----------
assign = array1d(1..14 ,[4, 2, 1, 1, 3, 1, 4, 4, 2, 3, 1, 2, 3, 4]);
next = array1d(1..14 ,[8, 9, 6, 3, 13, 11, 14, 7, 12, 5, 2, 10, 1, 4]);
makespan = 339;
----------
assign = array1d(1..14 ,[3, 4, 1, 2, 2, 1, 1, 2, 4, 3, 1, 2, 3, 4]);
next = array1d(1..14 ,[13, 9, 6, 5, 12, 7, 11, 4, 14, 1, 8, 10, 2, 3]);
makespan = 338;
----------
assign = array1d(1..14 ,[3, 4, 1, 2, 2, 1, 1, 2, 4, 3, 1, 2, 3, 4]);
next = array1d(1..14 ,[13, 9, 6, 5, 12, 7, 11, 4, 14, 1, 8, 10, 2, 3]);
makespan = 337;
----------
assign = array1d(1..14 ,[3, 4, 1, 2, 2, 1, 1, 2, 4, 3, 1, 2, 3, 4]);
next = array1d(1..14 ,[13, 9, 6, 5, 12, 7, 11, 4, 14, 1, 8, 10, 2, 3]);
makespan = 336;
----------
assign = array1d(1..14 ,[3, 4, 1, 2, 2, 1, 1, 2, 4, 3, 1, 2, 3, 4]);
next = array1d(1..14 ,[13, 9, 6, 5, 12, 7, 11, 4, 14, 1, 8, 10, 2, 3]);
makespan = 335;
----------
assign = array1d(1..14 ,[3, 4, 1, 2, 2, 1, 1, 2, 4, 3, 1, 2, 3, 4]);
next = array1d(1..14 ,[13, 9, 6, 5, 12, 7, 11, 4, 14, 1, 8, 10, 2, 3]);
makespan = 334;
----------
assign = array1d(1..14 ,[3, 4, 1, 2, 2, 1, 1, 2, 4, 3, 1, 2, 3, 4]);
next = array1d(1..14 ,[13, 9, 6, 5, 12, 7, 11, 4, 14, 1, 8, 10, 2, 3]);
makespan = 333;
----------
assign = array1d(1..14 ,[3, 4, 1, 2, 2, 1, 1, 2, 4, 3, 1, 2, 3, 4]);
next = array1d(1..14 ,[13, 9, 6, 5, 12, 7, 11, 4, 14, 1, 8, 10, 2, 3]);
makespan = 332;
----------
assign = array1d(1..14 ,[3, 4, 1, 2, 2, 1, 1, 2, 4, 3, 1, 2, 3, 4]);
next = array1d(1..14 ,[13, 9, 6, 5, 12, 7, 11, 4, 14, 1, 8, 10, 2, 3]);
makespan = 331;
----------
assign = array1d(1..14 ,[3, 4, 1, 2, 2, 1, 1, 2, 4, 3, 1, 2, 3, 4]);
next = array1d(1..14 ,[13, 9, 6, 5, 12, 7, 11, 4, 14, 1, 8, 10, 2, 3]);
makespan = 330;
----------
assign = array1d(1..14 ,[3, 4, 1, 2, 2, 1, 1, 2, 4, 3, 1, 2, 3, 4]);
next = array1d(1..14 ,[13, 9, 6, 5, 12, 7, 11, 4, 14, 1, 8, 10, 2, 3]);
makespan = 329;
----------
assign = array1d(1..14 ,[3, 4, 1, 2, 2, 1, 1, 2, 4, 3, 1, 2, 3, 4]);
next = array1d(1..14 ,[13, 9, 6, 5, 12, 7, 11, 4, 14, 1, 8, 10, 2, 3]);
makespan = 328;
----------
assign = array1d(1..14 ,[2, 4, 1, 3, 2, 4, 1, 3, 2, 4, 1, 2, 3, 4]);
next = array1d(1..14 ,[9, 10, 11, 13, 1, 14, 3, 4, 12, 6, 5, 8, 2, 7]);
makespan = 327;
----------
assign = array1d(1..14 ,[2, 1, 4, 3, 4, 1, 4, 3, 2, 2, 1, 2, 3, 4]);
next = array1d(1..14 ,[9, 6, 5, 13, 14, 11, 3, 4, 12, 1, 10, 8, 7, 2]);
makespan = 326;
----------
assign = array1d(1..14 ,[2, 4, 1, 3, 2, 4, 1, 3, 2, 4, 1, 2, 3, 4]);
next = array1d(1..14 ,[9, 10, 11, 13, 1, 14, 3, 4, 12, 6, 5, 8, 2, 7]);
makespan = 325;
----------
assign = array1d(1..14 ,[2, 4, 1, 3, 2, 4, 2, 3, 1, 4, 1, 2, 3, 4]);
next = array1d(1..14 ,[7, 10, 11, 13, 1, 14, 12, 4, 3, 6, 5, 8, 2, 9]);
makespan = 324;
----------
assign = array1d(1..14 ,[3, 2, 4, 1, 1, 4, 4, 3, 3, 2, 1, 2, 3, 4]);
next = array1d(1..14 ,[8, 10, 7, 5, 11, 3, 14, 9, 13, 12, 2, 1, 6, 4]);
makespan = 323;
----------
assign = array1d(1..14 ,[2, 4, 3, 1, 1, 4, 2, 2, 3, 4, 1, 2, 3, 4]);
next = array1d(1..14 ,[8, 10, 9, 5, 11, 14, 12, 7, 13, 6, 1, 3, 2, 4]);
makespan = 322;
----------
assign = array1d(1..14 ,[3, 4, 1, 4, 2, 1, 2, 2, 1, 3, 1, 2, 3, 4]);
next = array1d(1..14 ,[10, 4, 11, 14, 7, 9, 12, 5, 3, 13, 8, 1, 2, 6]);
makespan = 321;
----------
assign = array1d(1..14 ,[2, 1, 4, 1, 4, 3, 2, 4, 3, 2, 1, 2, 3, 4]);
next = array1d(1..14 ,[12, 4, 5, 11, 8, 9, 10, 14, 13, 1, 7, 6, 3, 2]);
makespan = 320;
----------
assign = array1d(1..14 ,[1, 4, 3, 3, 2, 1, 4, 2, 2, 4, 1, 2, 3, 4]);
next = array1d(1..14 ,[6, 7, 13, 3, 12, 11, 10, 5, 8, 14, 9, 4, 2, 1]);
makespan = 319;
----------
assign = array1d(1..14 ,[3, 4, 1, 3, 4, 1, 2, 2, 1, 2, 1, 2, 3, 4]);
next = array1d(1..14 ,[4, 14, 11, 13, 2, 3, 12, 7, 6, 8, 10, 1, 5, 9]);
makespan = 318;
----------
assign = array1d(1..14 ,[3, 1, 4, 1, 2, 4, 4, 2, 2, 3, 1, 2, 3, 4]);
next = array1d(1..14 ,[10, 4, 6, 11, 12, 7, 14, 5, 8, 13, 9, 1, 3, 2]);
makespan = 317;
----------
assign = array1d(1..14 ,[1, 4, 4, 1, 3, 3, 4, 2, 2, 2, 1, 2, 3, 4]);
next = array1d(1..14 ,[4, 7, 2, 11, 13, 5, 14, 10, 8, 12, 9, 6, 3, 1]);
makespan = 316;
----------
assign = array1d(1..14 ,[2, 4, 4, 3, 2, 1, 4, 1, 3, 2, 1, 2, 3, 4]);
next = array1d(1..14 ,[12, 7, 2, 13, 1, 11, 14, 6, 4, 5, 10, 9, 3, 8]);
makespan = 315;
----------
assign = array1d(1..14 ,[2, 4, 4, 3, 3, 1, 4, 2, 2, 1, 1, 2, 3, 4]);
next = array1d(1..14 ,[9, 7, 2, 5, 13, 11, 14, 12, 8, 6, 1, 4, 3, 10]);
makespan = 314;
----------
assign = array1d(1..14 ,[4, 1, 4, 3, 2, 1, 4, 2, 3, 2, 1, 2, 3, 4]);
next = array1d(1..14 ,[3, 11, 14, 13, 12, 2, 1, 5, 4, 8, 10, 9, 7, 6]);
makespan = 313;
----------
assign = array1d(1..14 ,[2, 1, 4, 3, 2, 4, 4, 3, 1, 2, 1, 2, 3, 4]);
next = array1d(1..14 ,[5, 11, 6, 13, 12, 7, 14, 4, 2, 1, 10, 8, 3, 9]);
makespan = 312;
----------
assign = array1d(1..14 ,[2, 4, 1, 3, 1, 4, 4, 2, 3, 2, 1, 2, 3, 4]);
next = array1d(1..14 ,[8, 7, 11, 9, 3, 14, 6, 12, 13, 1, 10, 4, 2, 5]);
makespan = 311;
----------
assign = array1d(1..14 ,[4, 1, 4, 3, 2, 3, 4, 2, 2, 1, 1, 2, 3, 4]);
next = array1d(1..14 ,[3, 10, 14, 6, 12, 13, 1, 5, 8, 11, 9, 4, 7, 2]);
makespan = 310;
----------
assign = array1d(1..14 ,[3, 4, 1, 1, 2, 4, 4, 2, 3, 2, 1, 2, 3, 4]);
next = array1d(1..14 ,[9, 7, 4, 11, 12, 14, 6, 10, 13, 5, 8, 1, 2, 3]);
makespan = 309;
----------
assign = array1d(1..14 ,[2, 1, 4, 1, 4, 4, 3, 2, 3, 2, 1, 2, 3, 4]);
next = array1d(1..14 ,[8, 11, 5, 2, 14, 3, 9, 10, 13, 12, 1, 7, 6, 4]);
makespan = 308;
----------
assign = array1d(1..14 ,[3, 4, 1, 3, 2, 4, 4, 2, 1, 2, 1, 2, 3, 4]);
next = array1d(1..14 ,[4, 7, 9, 13, 12, 14, 6, 5, 11, 8, 10, 1, 2, 3]);
makespan = 307;
----------
assign = array1d(1..14 ,[2, 3, 4, 3, 4, 1, 2, 2, 1, 4, 1, 2, 3, 4]);
next = array1d(1..14 ,[8, 13, 5, 2, 14, 9, 1, 12, 11, 3, 7, 4, 10, 6]);
makespan = 306;
----------
assign = array1d(1..14 ,[2, 1, 4, 3, 2, 4, 2, 4, 3, 1, 1, 2, 3, 4]);
next = array1d(1..14 ,[12, 10, 6, 9, 1, 14, 5, 3, 13, 11, 7, 4, 8, 2]);
makespan = 305;
----------
assign = array1d(1..14 ,[2, 1, 4, 3, 2, 4, 1, 4, 3, 2, 1, 2, 3, 4]);
next = array1d(1..14 ,[12, 11, 6, 13, 1, 14, 2, 3, 4, 5, 10, 9, 8, 7]);
makespan = 304;
----------
assign = array1d(1..14 ,[3, 1, 4, 1, 2, 4, 4, 2, 3, 2, 1, 2, 3, 4]);
next = array1d(1..14 ,[9, 4, 14, 11, 12, 3, 6, 5, 13, 8, 10, 1, 7, 2]);
makespan = 303;
----------
assign = array1d(1..14 ,[2, 3, 4, 1, 1, 4, 2, 2, 3, 4, 1, 2, 3, 4]);
next = array1d(1..14 ,[8, 9, 6, 11, 4, 10, 1, 12, 13, 14, 7, 2, 3, 5]);
makespan = 302;
----------
assign = array1d(1..14 ,[2, 3, 4, 1, 2, 4, 1, 2, 3, 4, 1, 2, 3, 4]);
next = array1d(1..14 ,[8, 9, 14, 7, 12, 3, 11, 5, 13, 6, 1, 2, 10, 4]);
makespan = 301;
----------
assign = array1d(1..14 ,[2, 1, 3, 1, 2, 4, 4, 2, 3, 4, 1, 2, 3, 4]);
next = array1d(1..14 ,[8, 11, 13, 2, 12, 10, 6, 5, 3, 14, 1, 9, 7, 4]);
makespan = 300;
----------
assign = array1d(1..14 ,[2, 3, 4, 1, 2, 4, 3, 2, 1, 4, 1, 2, 3, 4]);
next = array1d(1..14 ,[8, 7, 6, 11, 12, 10, 13, 5, 4, 14, 1, 2, 3, 9]);
makespan = 299;
----------
assign = array1d(1..14 ,[2, 3, 4, 1, 1, 4, 4, 2, 3, 2, 1, 2, 3, 4]);
next = array1d(1..14 ,[8, 13, 14, 5, 11, 3, 6, 12, 2, 1, 10, 9, 7, 4]);
makespan = 298;
----------
assign = array1d(1..14 ,[3, 1, 4, 1, 2, 4, 4, 2, 2, 3, 1, 2, 3, 4]);
next = array1d(1..14 ,[10, 11, 14, 2, 12, 3, 6, 5, 8, 13, 9, 1, 7, 4]);
makespan = 297;
----------
assign = array1d(1..14 ,[2, 3, 4, 1, 3, 4, 4, 2, 1, 2, 1, 2, 3, 4]);
next = array1d(1..14 ,[8, 13, 14, 9, 2, 3, 6, 12, 11, 1, 10, 5, 7, 4]);
makespan = 296;
----------
assign = array1d(1..14 ,[2, 1, 4, 3, 2, 3, 4, 2, 1, 4, 1, 2, 3, 4]);
next = array1d(1..14 ,[8, 9, 14, 13, 12, 4, 10, 5, 11, 3, 1, 6, 7, 2]);
makespan = 295;
----------
assign = array1d(1..14 ,[2, 3, 4, 1, 2, 4, 4, 2, 1, 3, 1, 2, 3, 4]);
next = array1d(1..14 ,[8, 13, 14, 9, 1, 3, 6, 12, 11, 2, 5, 10, 7, 4]);
makespan = 294;
----------
assign = array1d(1..14 ,[2, 3, 4, 1, 2, 4, 4, 2, 3, 1, 1, 2, 3, 4]);
next = array1d(1..14 ,[8, 13, 14, 11, 12, 3, 6, 5, 2, 4, 1, 9, 7, 10]);
makespan = 293;
----------
assign = array1d(1..14 ,[2, 3, 4, 1, 2, 4, 4, 2, 1, 3, 1, 2, 3, 4]);
next = array1d(1..14 ,[8, 13, 14, 9, 12, 3, 6, 5, 11, 2, 1, 10, 7, 4]);
makespan = 292;
----------
assign = array1d(1..14 ,[1, 3, 4, 3, 2, 4, 1, 2, 2, 4, 1, 2, 3, 4]);
next = array1d(1..14 ,[11, 4, 14, 13, 12, 10, 1, 5, 8, 3, 9, 2, 6, 7]);
makespan = 291;
----------
assign = array1d(1..14 ,[1, 3, 4, 1, 2, 4, 3, 2, 2, 4, 1, 2, 3, 4]);
next = array1d(1..14 ,[4, 7, 14, 11, 12, 10, 13, 5, 8, 3, 9, 2, 6, 1]);
makespan = 290;
----------
assign = array1d(1..14 ,[2, 1, 4, 3, 2, 4, 1, 2, 3, 4, 1, 2, 3, 4]);
next = array1d(1..14 ,[12, 7, 14, 13, 1, 10, 11, 5, 4, 3, 8, 9, 6, 2]);
makespan = 289;
----------
assign = array1d(1..14 ,[2, 3, 4, 3, 2, 1, 4, 2, 1, 4, 1, 2, 3, 4]);
next = array1d(1..14 ,[8, 4, 14, 13, 12, 9, 10, 5, 11, 3, 1, 2, 7, 6]);
makespan = 288;
----------
assign = array1d(1..14 ,[2, 1, 4, 3, 2, 1, 4, 2, 3, 4, 1, 2, 3, 4]);
next = array1d(1..14 ,[8, 6, 14, 9, 1, 11, 10, 12, 13, 3, 5, 4, 7, 2]);
makespan = 287;
----------
assign = array1d(1..14 ,[2, 1, 4, 1, 2, 3, 4, 2, 3, 4, 1, 2, 3, 4]);
next = array1d(1..14 ,[8, 11, 14, 2, 1, 9, 10, 12, 13, 3, 5, 6, 7, 4]);
makespan = 286;
----------
assign = array1d(1..14 ,[2, 1, 4, 3, 2, 1, 4, 2, 3, 4, 1, 2, 3, 4]);
next = array1d(1..14 ,[8, 6, 14, 13, 12, 11, 10, 5, 4, 3, 1, 9, 7, 2]);
makespan = 285;
----------
==========
	Command being timed: "mzn-chuffed lbbd-datasets/Rabadi-2006/dzn-balanced/model.mzn lbbd-datasets/Rabadi-2006/dzn-balanced/10on4Rp50Rs50_4Ameer.dzn"
	User time (seconds): 0.70
	System time (seconds): 0.05
	Percent of CPU this job got: 0%
	Elapsed (wall clock) time (h:mm:ss or m:ss): 1:24.39
	Average shared text size (kbytes): 0
	Average unshared data size (kbytes): 0
	Average stack size (kbytes): 0
	Average total size (kbytes): 0
	Maximum resident set size (kbytes): 44512
	Average resident set size (kbytes): 0
	Major (requiring I/O) page faults: 0
	Minor (reclaiming a frame) page faults: 4097
	Voluntary context switches: 437
	Involuntary context switches: 5
	Swaps: 0
	File system inputs: 0
	File system outputs: 584
	Socket messages sent: 0
	Socket messages received: 0
	Signals delivered: 0
	Page size (bytes): 4096
	Exit status: 0
