+ /usr/bin/timeout 600 /usr/bin/time -v mzn-chuffed lbbd-datasets/planningandscheduling/cost-insts/model.mzn lbbd-datasets/planningandscheduling/cost-insts/e25j5m5.dzn
% No search annotation given. Defaulting to VSIDS!
obj = 756
----------
obj = 741
----------
obj = 739
----------
obj = 733
----------
obj = 729
----------
obj = 714
----------
obj = 708
----------
obj = 700
----------
obj = 693
----------
obj = 681
----------
obj = 673
----------
obj = 668
----------
obj = 663
----------
obj = 659
----------
obj = 649
----------
obj = 645
----------
obj = 644
----------
obj = 641
----------
obj = 636
----------
obj = 631
----------
obj = 627
----------
obj = 623
----------
obj = 617
----------
obj = 616
----------
obj = 613
----------
obj = 612
----------
obj = 609
----------
obj = 607
----------
obj = 604
----------
obj = 601
----------
obj = 599
----------
obj = 597
----------
obj = 594
----------
obj = 587
----------
obj = 580
----------
obj = 578
----------
obj = 576
----------
obj = 574
----------
obj = 571
----------
obj = 565
----------
obj = 564
----------
obj = 562
----------
obj = 560
----------
==========
	Command being timed: "mzn-chuffed lbbd-datasets/planningandscheduling/cost-insts/model.mzn lbbd-datasets/planningandscheduling/cost-insts/e25j5m5.dzn"
	User time (seconds): 0.20
	System time (seconds): 0.00
	Percent of CPU this job got: 29%
	Elapsed (wall clock) time (h:mm:ss or m:ss): 0:00.71
	Average shared text size (kbytes): 0
	Average unshared data size (kbytes): 0
	Average stack size (kbytes): 0
	Average total size (kbytes): 0
	Maximum resident set size (kbytes): 31168
	Average resident set size (kbytes): 0
	Major (requiring I/O) page faults: 0
	Minor (reclaiming a frame) page faults: 2745
	Voluntary context switches: 49
	Involuntary context switches: 2
	Swaps: 0
	File system inputs: 0
	File system outputs: 176
	Socket messages sent: 0
	Socket messages received: 0
	Signals delivered: 0
	Page size (bytes): 4096
	Exit status: 0
