+ /usr/bin/timeout 600 /usr/bin/time -v mzn-chuffed lbbd-datasets/planningandscheduling/cost-insts/model.mzn lbbd-datasets/planningandscheduling/cost-insts/de26j3m5.dzn
% No search annotation given. Defaulting to VSIDS!
obj = 951
----------
obj = 938
----------
obj = 937
----------
obj = 928
----------
obj = 917
----------
obj = 913
----------
obj = 912
----------
obj = 909
----------
obj = 901
----------
obj = 888
----------
obj = 887
----------
obj = 874
----------
obj = 865
----------
obj = 863
----------
obj = 854
----------
obj = 847
----------
obj = 844
----------
obj = 843
----------
obj = 833
----------
obj = 831
----------
obj = 815
----------
obj = 805
----------
obj = 801
----------
obj = 791
----------
obj = 789
----------
obj = 779
----------
obj = 777
----------
obj = 774
----------
obj = 772
----------
obj = 766
----------
obj = 761
----------
obj = 748
----------
obj = 744
----------
obj = 732
----------
obj = 730
----------
obj = 729
----------
obj = 728
----------
obj = 717
----------
obj = 709
----------
obj = 706
----------
==========
	Command being timed: "mzn-chuffed lbbd-datasets/planningandscheduling/cost-insts/model.mzn lbbd-datasets/planningandscheduling/cost-insts/de26j3m5.dzn"
	User time (seconds): 0.27
	System time (seconds): 0.01
	Percent of CPU this job got: 29%
	Elapsed (wall clock) time (h:mm:ss or m:ss): 0:00.96
	Average shared text size (kbytes): 0
	Average unshared data size (kbytes): 0
	Average stack size (kbytes): 0
	Average total size (kbytes): 0
	Maximum resident set size (kbytes): 29792
	Average resident set size (kbytes): 0
	Major (requiring I/O) page faults: 0
	Minor (reclaiming a frame) page faults: 2574
	Voluntary context switches: 47
	Involuntary context switches: 4
	Swaps: 0
	File system inputs: 0
	File system outputs: 120
	Socket messages sent: 0
	Socket messages received: 0
	Signals delivered: 0
	Page size (bytes): 4096
	Exit status: 0
