+ /usr/bin/timeout 600 /usr/bin/time -v mzn-chuffed lbbd-datasets/sscplp/trucks-dzn/model.mzn lbbd-datasets/sscplp/trucks-dzn/p09-l40-c50-uncorrelated.dzn
% No search annotation given. Defaulting to VSIDS!
source = [14, 15, 5, 13, 5, 10, 8, 14, 10, 14, 5, 8, 15, 8, 1, 10, 10, 1, 1, 8, 15, 11, 10, 1, 1, 1, 10, 14, 10, 8]
open = [true, false, false, false, true, false, false, true, false, true, true, false, true, true, true]
trucks_used = [6, 0, 0, 0, 3, 0, 0, 5, 0, 7, 1, 0, 1, 4, 3]
truck_assigned = [1, 2, 2, 1, 2, 4, 3, 4, 6, 4, 3, 3, 1, 5, 1, 7, 3, 5, 3, 4, 3, 1, 6, 2, 6, 4, 5, 3, 5, 2]
obj = 5247
----------
source = [14, 13, 10, 12, 5, 15, 10, 12, 15, 14, 5, 14, 15, 10, 1, 5, 14, 1, 1, 1, 5, 11, 10, 1, 13, 1, 10, 11, 14, 15]
open = [true, false, false, false, true, false, false, false, false, true, true, true, true, true, true]
trucks_used = [6, 0, 0, 0, 4, 0, 0, 0, 0, 5, 2, 2, 2, 5, 4]
truck_assigned = [3, 1, 4, 2, 2, 4, 2, 1, 3, 4, 4, 2, 2, 5, 5, 1, 5, 6, 2, 6, 3, 2, 4, 3, 2, 4, 3, 1, 2, 1]
obj = 5131
----------
source = [14, 10, 10, 13, 12, 14, 13, 13, 14, 11, 9, 14, 15, 15, 5, 14, 10, 10, 12, 5, 12, 2, 15, 4, 10, 15, 10, 2, 15, 9]
open = [false, true, false, true, true, false, false, false, true, true, true, true, true, true, true]
trucks_used = [0, 1, 0, 1, 1, 0, 0, 0, 1, 6, 1, 3, 3, 5, 5]
truck_assigned = [4, 6, 6, 3, 1, 1, 2, 2, 5, 1, 1, 2, 3, 3, 1, 3, 3, 2, 2, 1, 3, 1, 5, 1, 4, 2, 5, 1, 4, 1]
obj = 5130
----------
source = [14, 10, 10, 13, 4, 14, 13, 13, 12, 11, 9, 14, 15, 15, 5, 10, 14, 10, 12, 5, 14, 2, 15, 12, 10, 15, 10, 4, 15, 2]
open = [false, true, false, true, true, false, false, false, true, true, true, true, true, true, true]
trucks_used = [0, 1, 0, 1, 1, 0, 0, 0, 1, 6, 1, 3, 3, 5, 5]
truck_assigned = [4, 6, 6, 3, 1, 5, 2, 2, 2, 1, 1, 2, 3, 3, 1, 2, 5, 4, 3, 1, 3, 1, 5, 3, 5, 2, 3, 1, 4, 1]
obj = 5129
----------
source = [14, 10, 10, 4, 12, 14, 13, 13, 9, 11, 9, 14, 15, 15, 5, 10, 14, 10, 12, 5, 14, 2, 15, 12, 10, 15, 10, 13, 15, 2]
open = [false, true, false, true, true, false, false, false, true, true, true, true, true, true, true]
trucks_used = [0, 1, 0, 1, 1, 0, 0, 0, 1, 6, 1, 3, 3, 5, 5]
truck_assigned = [5, 2, 5, 1, 2, 3, 3, 3, 1, 1, 1, 1, 5, 5, 1, 4, 3, 6, 3, 1, 4, 1, 4, 3, 3, 2, 5, 2, 3, 1]
obj = 5125
----------
source = [14, 10, 10, 13, 12, 14, 13, 13, 12, 9, 9, 14, 15, 15, 5, 10, 14, 10, 12, 5, 14, 2, 15, 4, 10, 15, 10, 11, 15, 2]
open = [false, true, false, true, true, false, false, false, true, true, true, true, true, true, true]
trucks_used = [0, 1, 0, 1, 1, 0, 0, 0, 1, 6, 1, 3, 3, 5, 5]
truck_assigned = [2, 2, 5, 2, 2, 4, 3, 3, 3, 1, 1, 3, 4, 2, 1, 4, 4, 6, 3, 1, 5, 1, 5, 1, 3, 4, 5, 1, 3, 1]
obj = 5114
----------
source = [14, 10, 10, 12, 12, 14, 13, 13, 9, 11, 9, 14, 15, 15, 5, 10, 14, 10, 12, 5, 14, 2, 15, 4, 10, 15, 10, 13, 15, 2]
open = [false, true, false, true, true, false, false, false, true, true, true, true, true, true, true]
trucks_used = [0, 1, 0, 1, 1, 0, 0, 0, 1, 6, 1, 3, 3, 5, 5]
truck_assigned = [3, 4, 4, 2, 1, 4, 3, 3, 1, 1, 1, 2, 3, 4, 1, 5, 4, 6, 3, 1, 5, 1, 2, 1, 2, 4, 3, 2, 5, 1]
obj = 5109
----------
source = [14, 10, 10, 13, 12, 14, 13, 13, 12, 11, 9, 14, 15, 15, 5, 10, 14, 10, 12, 5, 14, 2, 15, 4, 10, 15, 10, 9, 15, 2]
open = [false, true, false, true, true, false, false, false, true, true, true, true, true, true, true]
trucks_used = [0, 1, 0, 1, 1, 0, 0, 0, 1, 6, 1, 3, 3, 5, 5]
truck_assigned = [3, 5, 5, 2, 3, 4, 3, 3, 2, 1, 1, 4, 5, 2, 1, 6, 2, 2, 2, 1, 5, 1, 4, 1, 4, 5, 3, 1, 3, 1]
obj = 5106
----------
source = [14, 11, 10, 13, 12, 14, 13, 13, 12, 9, 9, 14, 15, 15, 5, 10, 14, 10, 12, 5, 14, 2, 15, 10, 10, 15, 10, 4, 15, 2]
open = [false, true, false, true, true, false, false, false, true, true, true, true, true, true, true]
trucks_used = [0, 1, 0, 1, 1, 0, 0, 0, 1, 6, 1, 3, 3, 5, 5]
truck_assigned = [4, 1, 5, 2, 3, 3, 3, 3, 1, 1, 1, 3, 5, 2, 1, 6, 2, 2, 2, 1, 5, 1, 4, 3, 4, 5, 5, 1, 3, 1]
obj = 5104
----------
source = [14, 11, 10, 13, 12, 14, 13, 13, 12, 9, 9, 14, 15, 15, 5, 10, 14, 10, 12, 10, 14, 2, 15, 4, 10, 15, 10, 5, 15, 2]
open = [false, true, false, true, true, false, false, false, true, true, true, true, true, true, true]
trucks_used = [0, 1, 0, 1, 1, 0, 0, 0, 1, 6, 1, 3, 3, 5, 5]
truck_assigned = [5, 1, 6, 2, 3, 3, 3, 3, 2, 1, 1, 3, 5, 2, 1, 3, 1, 4, 2, 2, 4, 1, 4, 1, 5, 5, 6, 1, 3, 1]
obj = 5095
----------
source = [14, 10, 10, 9, 12, 14, 13, 13, 12, 11, 9, 14, 15, 15, 5, 10, 14, 10, 12, 10, 14, 2, 15, 4, 13, 15, 10, 5, 15, 2]
open = [false, true, false, true, true, false, false, false, true, true, true, true, true, true, true]
trucks_used = [0, 1, 0, 1, 1, 0, 0, 0, 1, 6, 1, 3, 3, 5, 5]
truck_assigned = [5, 3, 6, 1, 3, 3, 3, 3, 2, 1, 1, 3, 5, 2, 1, 4, 1, 5, 2, 6, 4, 1, 4, 1, 2, 5, 2, 1, 3, 1]
obj = 5091
----------
source = [14, 10, 10, 9, 12, 14, 13, 13, 12, 11, 9, 14, 15, 15, 5, 10, 14, 10, 12, 5, 14, 2, 15, 4, 10, 15, 10, 13, 15, 2]
open = [false, true, false, true, true, false, false, false, true, true, true, true, true, true, true]
trucks_used = [0, 1, 0, 1, 1, 0, 0, 0, 1, 6, 1, 3, 3, 5, 5]
truck_assigned = [5, 4, 5, 1, 3, 3, 3, 3, 2, 1, 1, 3, 5, 2, 1, 3, 2, 6, 2, 1, 4, 1, 4, 1, 2, 5, 5, 2, 3, 1]
obj = 5085
----------
source = [14, 11, 10, 13, 12, 14, 13, 13, 15, 9, 9, 14, 15, 12, 5, 14, 10, 10, 12, 15, 9, 10, 10, 4, 14, 15, 10, 5, 15, 2]
open = [false, true, false, true, true, false, false, false, true, true, true, true, true, true, true]
trucks_used = [0, 1, 0, 1, 1, 0, 0, 0, 1, 6, 1, 3, 3, 5, 5]
truck_assigned = [3, 1, 5, 3, 2, 5, 2, 2, 5, 1, 1, 2, 3, 1, 1, 5, 6, 4, 3, 4, 1, 5, 5, 1, 4, 3, 3, 1, 2, 1]
obj = 5082
----------
source = [14, 11, 10, 9, 12, 14, 13, 13, 14, 5, 9, 14, 15, 15, 5, 14, 10, 10, 12, 15, 12, 2, 10, 4, 10, 15, 10, 13, 15, 2]
open = [false, true, false, true, true, false, false, false, true, true, true, true, true, true, true]
trucks_used = [0, 1, 0, 1, 1, 0, 0, 0, 1, 6, 1, 3, 3, 5, 5]
truck_assigned = [3, 1, 3, 1, 3, 2, 3, 3, 4, 1, 1, 5, 3, 4, 1, 5, 4, 5, 2, 5, 1, 1, 2, 1, 6, 4, 3, 2, 2, 1]
obj = 5080
----------
source = [14, 11, 10, 13, 12, 14, 13, 13, 14, 9, 9, 14, 15, 15, 5, 14, 10, 10, 12, 15, 12, 2, 10, 4, 10, 15, 10, 5, 15, 2]
open = [false, true, false, true, true, false, false, false, true, true, true, true, true, true, true]
trucks_used = [0, 1, 0, 1, 1, 0, 0, 0, 1, 6, 1, 3, 3, 5, 5]
truck_assigned = [2, 1, 3, 2, 2, 5, 3, 3, 4, 1, 1, 3, 4, 2, 1, 5, 4, 5, 3, 5, 1, 1, 1, 1, 6, 4, 3, 1, 3, 1]
obj = 5076
----------
source = [14, 11, 10, 12, 12, 14, 13, 13, 14, 9, 9, 14, 15, 15, 5, 14, 10, 10, 12, 15, 9, 2, 10, 4, 10, 15, 10, 13, 15, 2]
open = [false, true, false, true, true, false, false, false, true, true, true, true, true, true, true]
trucks_used = [0, 1, 0, 1, 1, 0, 0, 0, 1, 6, 1, 3, 3, 5, 5]
truck_assigned = [4, 1, 6, 1, 3, 5, 3, 3, 3, 1, 1, 5, 4, 1, 1, 2, 5, 3, 2, 5, 1, 1, 6, 1, 2, 4, 4, 2, 3, 1]
obj = 5071
----------
source = [14, 11, 10, 13, 12, 14, 13, 13, 14, 9, 9, 14, 15, 15, 5, 14, 10, 10, 12, 15, 9, 10, 12, 4, 10, 15, 10, 5, 15, 2]
open = [false, true, false, true, true, false, false, false, true, true, true, true, true, true, true]
trucks_used = [0, 1, 0, 1, 1, 0, 0, 0, 1, 6, 1, 3, 3, 5, 5]
truck_assigned = [2, 1, 2, 2, 2, 5, 3, 3, 4, 1, 1, 3, 4, 2, 1, 5, 6, 4, 3, 5, 1, 5, 1, 1, 3, 4, 5, 1, 3, 1]
obj = 5057
----------
source = [14, 10, 10, 9, 2, 14, 13, 13, 12, 11, 9, 14, 15, 12, 5, 14, 10, 10, 15, 5, 15, 10, 12, 4, 14, 15, 10, 13, 15, 2]
open = [false, true, false, true, true, false, false, false, true, true, true, true, true, true, true]
trucks_used = [0, 1, 0, 1, 1, 0, 0, 0, 1, 6, 1, 3, 3, 5, 5]
truck_assigned = [1, 5, 6, 1, 1, 5, 3, 3, 1, 1, 1, 5, 5, 2, 1, 3, 4, 3, 4, 1, 4, 6, 3, 1, 4, 5, 2, 2, 3, 1]
obj = 5053
----------
source = [14, 11, 10, 12, 12, 14, 13, 13, 14, 9, 9, 14, 15, 15, 5, 14, 10, 10, 12, 5, 9, 10, 15, 4, 10, 15, 10, 13, 15, 2]
open = [false, true, false, true, true, false, false, false, true, true, true, true, true, true, true]
trucks_used = [0, 1, 0, 1, 1, 0, 0, 0, 1, 6, 1, 3, 3, 5, 5]
truck_assigned = [4, 1, 6, 1, 3, 5, 3, 3, 3, 1, 1, 2, 5, 3, 1, 5, 2, 3, 2, 1, 1, 6, 2, 1, 4, 5, 5, 2, 4, 1]
obj = 5052
----------
source = [14, 11, 10, 4, 2, 14, 13, 13, 12, 9, 9, 14, 15, 12, 5, 15, 10, 10, 14, 5, 9, 10, 10, 12, 13, 15, 10, 4, 14, 2]
open = [false, true, false, true, true, false, false, false, true, true, true, true, true, true, true]
trucks_used = [0, 1, 0, 1, 1, 0, 0, 0, 1, 6, 1, 3, 3, 5, 2]
truck_assigned = [4, 1, 5, 1, 1, 3, 1, 2, 3, 1, 1, 3, 1, 1, 1, 2, 4, 6, 5, 1, 1, 5, 5, 2, 3, 1, 3, 1, 2, 1]
obj = 5048
----------
source = [14, 11, 10, 4, 2, 14, 13, 13, 12, 9, 9, 14, 15, 12, 5, 15, 10, 10, 14, 5, 9, 10, 12, 10, 13, 15, 10, 4, 14, 2]
open = [false, true, false, true, true, false, false, false, true, true, true, true, true, true, true]
trucks_used = [0, 1, 0, 1, 1, 0, 0, 0, 1, 6, 1, 3, 3, 5, 2]
truck_assigned = [3, 1, 3, 1, 1, 4, 2, 2, 1, 1, 1, 5, 2, 3, 1, 1, 4, 6, 2, 1, 1, 5, 2, 3, 3, 2, 5, 1, 5, 1]
obj = 5043
----------
source = [14, 11, 10, 13, 2, 14, 12, 13, 14, 9, 9, 14, 15, 15, 5, 13, 14, 10, 12, 5, 15, 10, 12, 10, 13, 15, 10, 4, 10, 2]
open = [false, true, false, true, true, false, false, false, true, true, true, true, true, true, true]
trucks_used = [0, 1, 0, 1, 1, 0, 0, 0, 1, 6, 1, 3, 3, 5, 2]
truck_assigned = [5, 1, 4, 3, 1, 4, 2, 2, 3, 1, 1, 2, 2, 1, 1, 2, 4, 5, 2, 1, 1, 6, 3, 6, 1, 2, 4, 1, 6, 1]
obj = 5040
----------
source = [14, 11, 10, 4, 2, 14, 13, 13, 12, 9, 9, 14, 15, 15, 5, 13, 14, 10, 12, 5, 15, 10, 12, 10, 14, 15, 10, 4, 10, 2]
open = [false, true, false, true, true, false, false, false, true, true, true, true, true, true, true]
trucks_used = [0, 1, 0, 1, 1, 0, 0, 0, 1, 6, 1, 3, 3, 5, 2]
truck_assigned = [3, 1, 4, 1, 1, 5, 3, 3, 2, 1, 1, 4, 2, 1, 1, 2, 5, 5, 2, 1, 1, 6, 3, 6, 1, 2, 4, 1, 6, 1]
obj = 5023
----------
source = [14, 11, 10, 12, 4, 14, 13, 13, 12, 9, 9, 14, 15, 15, 5, 14, 14, 10, 12, 5, 15, 10, 2, 13, 10, 15, 10, 4, 10, 2]
open = [false, true, false, true, true, false, false, false, true, true, true, true, true, true, true]
trucks_used = [0, 1, 0, 1, 1, 0, 0, 0, 1, 6, 1, 3, 3, 5, 2]
truck_assigned = [3, 1, 6, 2, 1, 5, 3, 3, 3, 1, 1, 4, 2, 1, 1, 4, 5, 5, 3, 1, 1, 6, 1, 2, 4, 2, 3, 1, 6, 1]
obj = 5022
----------
source = [9, 11, 10, 12, 2, 14, 13, 13, 12, 9, 9, 14, 15, 15, 4, 14, 14, 10, 12, 5, 15, 5, 10, 10, 14, 15, 10, 13, 10, 2]
open = [false, true, false, true, true, false, false, false, true, true, true, true, true, true, true]
trucks_used = [0, 1, 0, 1, 1, 0, 0, 0, 2, 6, 1, 3, 3, 5, 2]
truck_assigned = [1, 1, 6, 2, 1, 5, 3, 3, 3, 2, 2, 3, 2, 1, 1, 3, 5, 5, 3, 1, 1, 1, 4, 4, 4, 2, 6, 2, 2, 1]
obj = 5021
----------
source = [9, 11, 10, 12, 2, 14, 13, 13, 14, 9, 9, 14, 15, 15, 4, 14, 14, 10, 12, 5, 15, 5, 12, 10, 10, 15, 10, 13, 10, 2]
open = [false, true, false, true, true, false, false, false, true, true, true, true, true, true, true]
trucks_used = [0, 1, 0, 1, 1, 0, 0, 0, 2, 6, 1, 3, 3, 5, 2]
truck_assigned = [1, 1, 6, 1, 1, 5, 3, 3, 3, 2, 2, 4, 2, 1, 1, 4, 5, 5, 2, 1, 1, 1, 3, 2, 4, 2, 6, 2, 3, 1]
obj = 5006
----------
source = [9, 11, 10, 9, 2, 14, 13, 13, 14, 12, 9, 14, 15, 15, 4, 14, 14, 10, 12, 5, 15, 5, 12, 10, 10, 15, 10, 13, 10, 2]
open = [false, true, false, true, true, false, false, false, true, true, true, true, true, true, true]
trucks_used = [0, 1, 0, 1, 1, 0, 0, 0, 2, 6, 1, 3, 3, 5, 2]
truck_assigned = [2, 1, 6, 1, 1, 5, 3, 3, 3, 1, 1, 4, 2, 1, 1, 4, 5, 3, 2, 1, 1, 1, 3, 4, 5, 2, 6, 2, 4, 1]
obj = 4998
----------
source = [9, 11, 10, 9, 2, 14, 13, 13, 14, 12, 9, 14, 15, 15, 4, 14, 14, 10, 12, 5, 15, 10, 12, 13, 10, 15, 10, 5, 10, 2]
open = [false, true, false, true, true, false, false, false, true, true, true, true, true, true, true]
trucks_used = [0, 1, 0, 1, 1, 0, 0, 0, 2, 6, 1, 3, 3, 5, 2]
truck_assigned = [2, 1, 3, 1, 1, 5, 3, 3, 3, 3, 1, 4, 2, 1, 1, 4, 5, 4, 2, 1, 1, 3, 1, 2, 6, 2, 5, 1, 5, 1]
obj = 4997
----------
source = [9, 11, 10, 9, 2, 14, 13, 13, 12, 5, 9, 14, 15, 15, 4, 14, 14, 10, 12, 5, 15, 10, 12, 10, 14, 15, 10, 13, 10, 2]
open = [false, true, false, true, true, false, false, false, true, true, true, true, true, true, true]
trucks_used = [0, 1, 0, 1, 1, 0, 0, 0, 2, 6, 1, 3, 3, 5, 2]
truck_assigned = [2, 1, 4, 1, 1, 5, 3, 3, 3, 1, 1, 3, 2, 1, 1, 3, 5, 5, 3, 1, 1, 4, 2, 4, 4, 2, 6, 2, 6, 1]
obj = 4995
----------
source = [9, 11, 10, 13, 2, 14, 13, 13, 12, 9, 9, 14, 15, 15, 4, 14, 14, 10, 12, 5, 15, 10, 12, 10, 14, 15, 10, 5, 10, 2]
open = [false, true, false, true, true, false, false, false, true, true, true, true, true, true, true]
trucks_used = [0, 1, 0, 1, 1, 0, 0, 0, 2, 6, 1, 3, 3, 5, 2]
truck_assigned = [2, 1, 4, 2, 1, 5, 3, 3, 3, 1, 1, 3, 2, 1, 1, 3, 5, 5, 3, 1, 1, 4, 2, 4, 4, 2, 6, 1, 6, 1]
obj = 4991
----------
source = [9, 11, 10, 9, 2, 14, 13, 13, 14, 12, 9, 14, 15, 15, 4, 14, 14, 10, 12, 5, 15, 10, 12, 10, 13, 15, 10, 5, 10, 2]
open = [false, true, false, true, true, false, false, false, true, true, true, true, true, true, true]
trucks_used = [0, 1, 0, 1, 1, 0, 0, 0, 2, 6, 1, 3, 3, 5, 2]
truck_assigned = [2, 1, 4, 1, 1, 5, 3, 3, 3, 1, 1, 4, 2, 1, 1, 4, 5, 5, 3, 1, 1, 4, 2, 4, 2, 2, 6, 1, 6, 1]
obj = 4978
----------
source = [9, 11, 10, 9, 2, 14, 13, 13, 14, 12, 9, 14, 15, 15, 5, 14, 14, 10, 12, 5, 15, 10, 12, 10, 13, 15, 10, 4, 10, 2]
open = [false, true, false, true, true, false, false, false, true, true, true, true, true, true, true]
trucks_used = [0, 1, 0, 1, 1, 0, 0, 0, 2, 6, 1, 3, 3, 5, 2]
truck_assigned = [2, 1, 4, 1, 1, 5, 3, 3, 3, 3, 1, 4, 2, 1, 1, 4, 5, 5, 1, 1, 1, 4, 2, 4, 2, 2, 6, 1, 6, 1]
obj = 4966
----------
source = [4, 11, 10, 12, 2, 14, 13, 13, 14, 9, 9, 14, 15, 15, 5, 14, 14, 10, 12, 5, 15, 10, 12, 13, 10, 15, 10, 4, 10, 2]
open = [false, true, false, true, true, false, false, false, true, true, true, true, true, true, true]
trucks_used = [0, 1, 0, 1, 1, 0, 0, 0, 1, 6, 1, 3, 3, 5, 2]
truck_assigned = [1, 1, 3, 1, 1, 5, 3, 3, 3, 1, 1, 4, 2, 1, 1, 4, 5, 5, 2, 1, 1, 3, 3, 2, 4, 2, 6, 1, 6, 1]
obj = 4962
----------
source = [4, 11, 10, 9, 4, 14, 13, 13, 14, 12, 9, 14, 15, 15, 5, 14, 14, 10, 12, 5, 15, 10, 12, 13, 10, 15, 10, 4, 10, 2]
open = [false, true, false, true, true, false, false, false, true, true, true, true, true, true, true]
trucks_used = [0, 1, 0, 1, 1, 0, 0, 0, 1, 6, 1, 3, 3, 5, 2]
truck_assigned = [1, 1, 6, 1, 1, 5, 3, 3, 3, 1, 1, 4, 2, 1, 1, 4, 5, 4, 2, 1, 1, 6, 3, 2, 5, 2, 3, 1, 6, 1]
obj = 4960
----------
source = [4, 11, 10, 9, 2, 14, 13, 13, 14, 12, 9, 14, 15, 15, 5, 14, 14, 10, 12, 5, 15, 10, 12, 13, 10, 15, 10, 4, 10, 2]
open = [false, true, false, true, true, false, false, false, true, true, true, true, true, true, true]
trucks_used = [0, 1, 0, 1, 1, 0, 0, 0, 1, 6, 1, 3, 3, 5, 2]
truck_assigned = [1, 1, 6, 1, 1, 5, 3, 3, 3, 1, 1, 4, 2, 1, 1, 4, 5, 4, 2, 1, 1, 6, 3, 2, 5, 2, 3, 1, 6, 1]
obj = 4954
----------
source = [4, 11, 10, 13, 2, 14, 13, 13, 12, 9, 9, 14, 15, 15, 5, 14, 14, 10, 12, 5, 15, 10, 12, 10, 14, 15, 10, 4, 10, 2]
open = [false, true, false, true, true, false, false, false, true, true, true, true, true, true, true]
trucks_used = [0, 1, 0, 1, 1, 0, 0, 0, 1, 6, 1, 3, 3, 5, 2]
truck_assigned = [1, 1, 5, 2, 1, 5, 3, 3, 2, 1, 1, 3, 2, 1, 1, 3, 5, 4, 2, 1, 1, 5, 3, 5, 4, 2, 6, 1, 6, 1]
obj = 4948
----------
source = [4, 11, 10, 9, 4, 14, 13, 13, 14, 12, 9, 14, 15, 15, 5, 14, 14, 10, 12, 5, 15, 10, 12, 10, 13, 15, 10, 4, 10, 2]
open = [false, true, false, true, true, false, false, false, true, true, true, true, true, true, true]
trucks_used = [0, 1, 0, 1, 1, 0, 0, 0, 1, 6, 1, 3, 3, 5, 2]
truck_assigned = [1, 1, 5, 1, 1, 5, 3, 3, 3, 1, 1, 4, 2, 1, 1, 4, 5, 4, 2, 1, 1, 5, 3, 5, 2, 2, 6, 1, 6, 1]
obj = 4941
----------
source = [4, 11, 10, 9, 2, 14, 13, 13, 14, 12, 9, 14, 15, 15, 5, 14, 14, 10, 12, 5, 15, 10, 12, 10, 13, 15, 10, 4, 10, 2]
open = [false, true, false, true, true, false, false, false, true, true, true, true, true, true, true]
trucks_used = [0, 1, 0, 1, 1, 0, 0, 0, 1, 6, 1, 3, 3, 5, 2]
truck_assigned = [1, 1, 5, 1, 1, 5, 3, 3, 3, 1, 1, 4, 2, 1, 1, 4, 5, 4, 2, 1, 1, 5, 3, 5, 2, 2, 6, 1, 6, 1]
obj = 4935
----------
source = [4, 11, 10, 13, 12, 14, 13, 13, 14, 9, 9, 14, 15, 15, 5, 14, 14, 10, 12, 5, 15, 2, 12, 10, 10, 15, 10, 4, 10, 2]
open = [false, true, false, true, true, false, false, false, true, true, true, true, true, true, true]
trucks_used = [0, 1, 0, 1, 1, 0, 0, 0, 1, 6, 1, 3, 3, 5, 2]
truck_assigned = [1, 1, 4, 2, 1, 5, 3, 3, 3, 1, 1, 4, 2, 1, 1, 4, 5, 3, 2, 1, 1, 1, 3, 4, 5, 2, 6, 1, 6, 1]
obj = 4933
----------
source = [4, 11, 10, 9, 4, 14, 13, 13, 12, 10, 9, 14, 15, 15, 5, 14, 14, 10, 10, 5, 15, 2, 12, 12, 14, 15, 10, 4, 10, 2]
open = [false, true, false, true, true, false, false, false, true, true, true, true, true, true, true]
trucks_used = [0, 1, 0, 1, 1, 0, 0, 0, 1, 6, 1, 3, 1, 5, 2]
truck_assigned = [1, 1, 5, 1, 1, 5, 1, 1, 1, 2, 1, 3, 2, 1, 1, 3, 5, 4, 6, 1, 1, 1, 3, 2, 4, 2, 3, 1, 5, 1]
obj = 4927
----------
source = [4, 11, 10, 12, 4, 14, 13, 13, 14, 9, 9, 14, 15, 15, 5, 14, 14, 10, 10, 5, 15, 2, 12, 12, 10, 15, 10, 4, 10, 2]
open = [false, true, false, true, true, false, false, false, true, true, true, true, true, true, true]
trucks_used = [0, 1, 0, 1, 1, 0, 0, 0, 1, 6, 1, 3, 1, 5, 2]
truck_assigned = [1, 1, 2, 1, 1, 5, 1, 1, 3, 1, 1, 4, 2, 1, 1, 4, 5, 4, 6, 1, 2, 1, 2, 3, 3, 1, 5, 1, 5, 1]
obj = 4905
----------
source = [4, 11, 10, 9, 4, 14, 13, 13, 14, 12, 9, 14, 15, 15, 5, 14, 14, 10, 12, 10, 15, 2, 12, 10, 13, 15, 10, 4, 10, 2]
open = [false, true, false, true, true, false, false, false, true, true, true, true, true, true, true]
trucks_used = [0, 1, 0, 1, 1, 0, 0, 0, 1, 6, 1, 3, 2, 5, 2]
truck_assigned = [1, 1, 6, 1, 1, 5, 2, 2, 3, 1, 1, 4, 2, 1, 1, 4, 5, 4, 2, 3, 2, 1, 3, 6, 1, 1, 5, 1, 6, 1]
obj = 4901
----------
source = [4, 11, 10, 4, 12, 14, 13, 13, 14, 9, 9, 14, 15, 15, 5, 14, 14, 10, 12, 10, 15, 10, 2, 12, 13, 15, 10, 5, 10, 2]
open = [false, true, false, true, true, false, false, false, true, true, true, true, true, true, true]
trucks_used = [0, 1, 0, 1, 1, 0, 0, 0, 1, 6, 1, 3, 2, 5, 2]
truck_assigned = [1, 1, 5, 1, 2, 5, 2, 2, 3, 1, 1, 4, 2, 1, 1, 4, 5, 4, 3, 5, 2, 3, 1, 3, 1, 1, 6, 1, 6, 1]
obj = 4900
----------
source = [4, 11, 10, 9, 12, 14, 13, 13, 14, 5, 9, 14, 15, 15, 5, 14, 14, 10, 12, 10, 15, 10, 2, 12, 13, 15, 10, 4, 10, 2]
open = [false, true, false, true, true, false, false, false, true, true, true, true, true, true, true]
trucks_used = [0, 1, 0, 1, 1, 0, 0, 0, 1, 6, 1, 3, 2, 5, 2]
truck_assigned = [1, 1, 6, 1, 2, 5, 1, 1, 3, 1, 1, 4, 2, 1, 1, 4, 5, 3, 3, 6, 2, 5, 1, 3, 2, 1, 5, 1, 4, 1]
obj = 4898
----------
source = [4, 11, 10, 12, 2, 14, 13, 13, 14, 9, 9, 14, 15, 15, 5, 14, 14, 10, 12, 5, 15, 10, 12, 10, 13, 15, 10, 4, 10, 2]
open = [false, true, false, true, true, false, false, false, true, true, true, true, true, true, true]
trucks_used = [0, 1, 0, 1, 1, 0, 0, 0, 1, 6, 1, 3, 2, 5, 2]
truck_assigned = [1, 1, 5, 2, 1, 5, 1, 1, 3, 1, 1, 4, 2, 1, 1, 4, 5, 4, 1, 1, 2, 6, 3, 5, 2, 1, 6, 1, 5, 1]
obj = 4893
----------
source = [4, 11, 10, 9, 2, 14, 13, 13, 14, 12, 9, 14, 15, 15, 5, 14, 14, 10, 12, 5, 15, 10, 10, 12, 13, 15, 10, 4, 10, 2]
open = [false, true, false, true, true, false, false, false, true, true, true, true, true, true, true]
trucks_used = [0, 1, 0, 1, 1, 0, 0, 0, 1, 6, 1, 3, 2, 5, 2]
truck_assigned = [1, 1, 5, 1, 1, 5, 1, 1, 3, 2, 1, 4, 2, 1, 1, 4, 5, 4, 3, 1, 2, 6, 5, 3, 2, 1, 6, 1, 5, 1]
obj = 4890
----------
source = [4, 11, 10, 13, 2, 14, 13, 13, 14, 9, 9, 14, 15, 15, 5, 14, 14, 10, 12, 5, 15, 10, 12, 12, 10, 15, 10, 4, 10, 2]
open = [false, true, false, true, true, false, false, false, true, true, true, true, true, true, true]
trucks_used = [0, 1, 0, 1, 1, 0, 0, 0, 1, 6, 1, 3, 2, 5, 2]
truck_assigned = [1, 1, 5, 1, 1, 5, 2, 2, 3, 1, 1, 4, 2, 1, 1, 4, 5, 4, 3, 1, 2, 6, 2, 3, 3, 1, 6, 1, 5, 1]
obj = 4888
----------
source = [4, 11, 10, 9, 2, 14, 13, 13, 14, 12, 9, 14, 15, 15, 5, 14, 14, 10, 12, 5, 15, 10, 12, 10, 13, 15, 10, 4, 10, 2]
open = [false, true, false, true, true, false, false, false, true, true, true, true, true, true, true]
trucks_used = [0, 1, 0, 1, 1, 0, 0, 0, 1, 6, 1, 3, 2, 5, 2]
truck_assigned = [1, 1, 6, 1, 1, 5, 1, 1, 3, 2, 1, 4, 2, 1, 1, 4, 5, 4, 3, 1, 2, 5, 1, 5, 2, 1, 6, 1, 5, 1]
obj = 4885
----------
source = [4, 11, 10, 13, 12, 14, 13, 13, 14, 9, 9, 14, 15, 15, 5, 14, 14, 10, 12, 5, 15, 2, 12, 10, 10, 15, 10, 4, 10, 2]
open = [false, true, false, true, true, false, false, false, true, true, true, true, true, true, true]
trucks_used = [0, 1, 0, 1, 1, 0, 0, 0, 1, 6, 1, 3, 2, 5, 2]
truck_assigned = [1, 1, 6, 1, 1, 5, 2, 2, 3, 1, 1, 4, 2, 1, 1, 4, 5, 3, 2, 1, 2, 1, 3, 4, 5, 1, 6, 1, 4, 1]
obj = 4883
----------
source = [4, 11, 10, 4, 12, 14, 13, 13, 14, 9, 9, 14, 15, 15, 5, 14, 14, 10, 12, 10, 15, 2, 12, 4, 10, 15, 10, 5, 10, 2]
open = [false, true, false, true, true, false, false, false, true, true, true, true, true, true, true]
trucks_used = [0, 1, 0, 2, 1, 0, 0, 0, 1, 6, 1, 3, 1, 5, 2]
truck_assigned = [2, 1, 6, 2, 1, 5, 1, 1, 3, 1, 1, 4, 2, 2, 1, 4, 5, 4, 2, 6, 1, 1, 3, 1, 5, 1, 3, 1, 3, 1]
obj = 4880
----------
source = [4, 11, 10, 9, 12, 14, 13, 13, 14, 5, 9, 14, 15, 15, 5, 14, 14, 10, 12, 10, 15, 2, 12, 4, 10, 15, 10, 4, 10, 2]
open = [false, true, false, true, true, false, false, false, true, true, true, true, true, true, true]
trucks_used = [0, 1, 0, 2, 1, 0, 0, 0, 1, 6, 1, 3, 1, 5, 2]
truck_assigned = [1, 1, 5, 1, 1, 5, 1, 1, 3, 1, 1, 4, 2, 2, 1, 4, 5, 3, 2, 5, 1, 1, 3, 2, 6, 1, 4, 1, 4, 1]
obj = 4878
----------
source = [4, 11, 10, 9, 4, 14, 13, 13, 14, 5, 9, 14, 15, 15, 5, 14, 14, 10, 12, 10, 15, 2, 12, 12, 10, 15, 10, 4, 10, 2]
open = [false, true, false, true, true, false, false, false, true, true, true, true, true, true, true]
trucks_used = [0, 1, 0, 1, 1, 0, 0, 0, 1, 6, 1, 3, 1, 5, 2]
truck_assigned = [1, 1, 6, 1, 1, 5, 1, 1, 3, 1, 1, 4, 2, 2, 1, 4, 5, 4, 2, 6, 1, 1, 3, 2, 3, 1, 5, 1, 5, 1]
obj = 4863
----------
source = [4, 11, 10, 12, 4, 14, 13, 13, 14, 9, 9, 14, 15, 15, 5, 14, 14, 10, 12, 5, 15, 2, 12, 10, 10, 15, 10, 4, 10, 2]
open = [false, true, false, true, true, false, false, false, true, true, true, true, true, true, true]
trucks_used = [0, 1, 0, 1, 1, 0, 0, 0, 1, 6, 1, 3, 1, 5, 2]
truck_assigned = [1, 1, 5, 1, 1, 5, 1, 1, 3, 1, 1, 4, 2, 2, 1, 4, 5, 4, 2, 1, 1, 1, 3, 5, 6, 1, 3, 1, 5, 1]
obj = 4858
----------
source = [4, 11, 10, 9, 4, 14, 13, 13, 14, 12, 9, 14, 15, 15, 5, 14, 14, 10, 12, 5, 15, 2, 12, 10, 10, 15, 10, 4, 10, 2]
open = [false, true, false, true, true, false, false, false, true, true, true, true, true, true, true]
trucks_used = [0, 1, 0, 1, 1, 0, 0, 0, 1, 6, 1, 3, 1, 5, 2]
truck_assigned = [1, 1, 5, 1, 1, 5, 1, 1, 3, 2, 1, 4, 2, 2, 1, 4, 5, 4, 1, 1, 1, 1, 3, 5, 6, 1, 3, 1, 5, 1]
obj = 4850
----------
source = [14, 11, 10, 4, 4, 2, 13, 13, 12, 9, 9, 14, 15, 15, 5, 10, 14, 10, 12, 5, 15, 2, 14, 4, 14, 15, 10, 2, 10, 10]
open = [false, true, false, true, true, false, false, false, true, true, true, true, true, true, true]
trucks_used = [0, 2, 0, 2, 1, 0, 0, 0, 1, 6, 1, 1, 1, 5, 2]
truck_assigned = [2, 1, 4, 2, 2, 1, 1, 1, 1, 1, 1, 4, 2, 1, 1, 6, 3, 5, 1, 1, 1, 2, 3, 1, 5, 2, 3, 2, 4, 1]
obj = 4848
----------
source = [14, 11, 10, 4, 2, 2, 13, 13, 12, 9, 9, 14, 15, 15, 5, 10, 14, 10, 12, 5, 15, 10, 14, 4, 14, 15, 10, 4, 10, 2]
open = [false, true, false, true, true, false, false, false, true, true, true, true, true, true, true]
trucks_used = [0, 2, 0, 2, 1, 0, 0, 0, 1, 6, 1, 1, 1, 5, 2]
truck_assigned = [4, 1, 3, 2, 1, 2, 1, 1, 1, 1, 1, 2, 2, 1, 1, 6, 5, 5, 1, 1, 1, 2, 5, 1, 3, 2, 3, 2, 4, 1]
obj = 4838
----------
source = [14, 10, 10, 9, 4, 11, 13, 13, 12, 11, 9, 14, 15, 15, 5, 10, 14, 10, 12, 5, 15, 2, 14, 4, 14, 15, 10, 4, 10, 2]
open = [false, true, false, true, true, false, false, false, true, true, true, true, true, true, true]
trucks_used = [0, 1, 0, 2, 1, 0, 0, 0, 1, 6, 1, 1, 1, 5, 2]
truck_assigned = [2, 4, 4, 1, 2, 1, 1, 1, 1, 1, 1, 4, 2, 1, 1, 6, 3, 3, 1, 1, 2, 1, 4, 1, 5, 1, 5, 2, 5, 1]
obj = 4829
----------
source = [14, 4, 10, 9, 4, 11, 13, 13, 12, 11, 9, 14, 15, 15, 5, 10, 14, 10, 12, 5, 15, 2, 14, 10, 14, 15, 10, 4, 10, 2]
open = [false, true, false, true, true, false, false, false, true, true, true, true, true, true, true]
trucks_used = [0, 1, 0, 1, 1, 0, 0, 0, 1, 6, 1, 1, 1, 5, 2]
truck_assigned = [5, 1, 6, 1, 1, 1, 1, 1, 1, 1, 1, 4, 2, 1, 1, 4, 3, 3, 1, 1, 2, 1, 4, 6, 2, 1, 5, 1, 6, 1]
obj = 4828
----------
source = [14, 11, 10, 4, 4, 2, 13, 13, 14, 9, 9, 14, 15, 15, 5, 10, 14, 10, 5, 5, 15, 10, 12, 4, 13, 15, 10, 5, 14, 10]
open = [false, true, false, true, true, false, false, false, true, true, true, true, true, true, true]
trucks_used = [0, 1, 0, 2, 2, 0, 0, 0, 1, 6, 1, 1, 2, 5, 2]
truck_assigned = [2, 1, 6, 2, 2, 1, 2, 2, 5, 1, 1, 3, 2, 1, 1, 3, 4, 5, 2, 1, 1, 2, 1, 1, 1, 2, 4, 2, 3, 6]
obj = 4824
----------
source = [14, 2, 10, 9, 12, 11, 13, 13, 14, 11, 9, 14, 15, 15, 5, 10, 14, 10, 5, 5, 15, 10, 2, 4, 13, 15, 10, 5, 14, 10]
open = [false, true, false, true, true, false, false, false, true, true, true, true, true, true, true]
trucks_used = [0, 1, 0, 1, 2, 0, 0, 0, 1, 6, 1, 1, 2, 5, 2]
truck_assigned = [3, 1, 2, 1, 1, 1, 2, 2, 4, 1, 1, 5, 2, 2, 1, 4, 2, 5, 2, 1, 1, 2, 1, 1, 1, 1, 6, 2, 5, 6]
obj = 4813
----------
source = [14, 11, 10, 9, 4, 2, 13, 14, 14, 5, 9, 14, 15, 4, 10, 10, 14, 10, 5, 5, 5, 2, 12, 13, 10, 15, 10, 4, 4, 2]
open = [false, true, false, true, true, false, false, false, true, true, true, true, true, true, true]
trucks_used = [0, 2, 0, 2, 3, 0, 0, 0, 1, 6, 1, 1, 1, 5, 1]
truck_assigned = [5, 1, 3, 1, 1, 2, 1, 5, 2, 2, 1, 4, 1, 2, 6, 5, 3, 4, 3, 2, 1, 1, 1, 1, 2, 1, 3, 1, 2, 1]
obj = 4808
----------
source = [14, 11, 10, 5, 12, 2, 4, 14, 14, 9, 9, 14, 15, 15, 10, 10, 14, 10, 5, 5, 15, 2, 10, 4, 13, 15, 10, 5, 4, 2]
open = [false, true, false, true, true, false, false, false, true, true, true, true, true, true, true]
trucks_used = [0, 2, 0, 2, 3, 0, 0, 0, 1, 6, 1, 1, 1, 5, 2]
truck_assigned = [5, 1, 5, 1, 1, 2, 1, 3, 2, 1, 1, 4, 2, 1, 2, 6, 3, 4, 3, 2, 1, 1, 3, 2, 1, 2, 5, 2, 1, 1]
obj = 4806
----------
source = [14, 11, 10, 5, 4, 2, 13, 14, 14, 9, 9, 14, 15, 15, 10, 10, 14, 10, 5, 5, 15, 2, 12, 4, 10, 15, 10, 4, 4, 2]
open = [false, true, false, true, true, false, false, false, true, true, true, true, true, true, true]
trucks_used = [0, 2, 0, 2, 3, 0, 0, 0, 1, 6, 1, 1, 1, 5, 2]
truck_assigned = [5, 1, 3, 3, 1, 2, 1, 5, 2, 1, 1, 4, 2, 1, 4, 6, 3, 2, 1, 2, 1, 1, 1, 2, 5, 2, 3, 1, 1, 1]
obj = 4805
----------
source = [14, 11, 10, 5, 12, 2, 13, 14, 14, 9, 9, 14, 15, 15, 5, 10, 14, 10, 5, 5, 15, 10, 10, 4, 13, 15, 10, 4, 4, 2]
open = [false, true, false, true, true, false, false, false, true, true, true, true, true, true, true]
trucks_used = [0, 2, 0, 2, 3, 0, 0, 0, 1, 6, 1, 1, 2, 5, 2]
truck_assigned = [5, 1, 3, 3, 1, 2, 2, 5, 2, 1, 1, 4, 2, 2, 2, 6, 3, 4, 1, 2, 1, 2, 5, 2, 1, 1, 3, 1, 1, 1]
obj = 4789
----------
source = [14, 11, 10, 5, 12, 2, 13, 14, 14, 9, 9, 14, 15, 15, 5, 10, 14, 10, 5, 5, 15, 2, 10, 4, 13, 15, 10, 4, 4, 10]
open = [false, true, false, true, true, false, false, false, true, true, true, true, true, true, true]
trucks_used = [0, 2, 0, 2, 3, 0, 0, 0, 1, 6, 1, 1, 2, 5, 2]
truck_assigned = [5, 1, 3, 3, 1, 2, 2, 1, 2, 1, 1, 4, 2, 2, 2, 4, 3, 6, 1, 2, 1, 1, 5, 2, 1, 1, 2, 1, 1, 5]
obj = 4773
----------
source = [14, 11, 10, 5, 12, 2, 4, 14, 14, 9, 9, 14, 15, 15, 5, 10, 14, 10, 5, 5, 15, 2, 10, 4, 13, 15, 10, 2, 4, 10]
open = [false, true, false, true, true, false, false, false, true, true, true, true, true, true, true]
trucks_used = [0, 2, 0, 2, 3, 0, 0, 0, 1, 6, 1, 1, 1, 5, 2]
truck_assigned = [5, 1, 3, 3, 1, 2, 1, 5, 2, 1, 1, 4, 2, 1, 2, 6, 3, 2, 1, 2, 1, 1, 5, 2, 1, 2, 4, 2, 1, 5]
obj = 4754
----------
source = [14, 11, 10, 5, 12, 2, 13, 14, 14, 9, 9, 14, 15, 15, 5, 10, 14, 10, 5, 5, 15, 2, 10, 4, 10, 15, 10, 4, 4, 2]
open = [false, true, false, true, true, false, false, false, true, true, true, true, true, true, true]
trucks_used = [0, 2, 0, 2, 3, 0, 0, 0, 1, 6, 1, 1, 1, 5, 2]
truck_assigned = [5, 1, 3, 3, 1, 2, 1, 4, 2, 1, 1, 4, 2, 2, 2, 6, 3, 5, 1, 2, 1, 1, 3, 2, 2, 1, 4, 1, 1, 1]
obj = 4748
----------
source = [14, 11, 10, 5, 4, 2, 13, 14, 14, 9, 9, 14, 15, 15, 5, 10, 14, 10, 5, 5, 15, 2, 12, 4, 10, 15, 10, 4, 4, 10]
open = [false, true, false, true, true, false, false, false, true, true, true, true, true, true, true]
trucks_used = [0, 2, 0, 2, 3, 0, 0, 0, 1, 6, 1, 1, 1, 5, 2]
truck_assigned = [5, 1, 3, 3, 1, 2, 1, 3, 2, 1, 1, 4, 2, 2, 2, 2, 3, 6, 1, 2, 1, 1, 1, 2, 5, 1, 4, 1, 1, 4]
obj = 4738
----------
source = [14, 11, 10, 5, 4, 2, 13, 14, 14, 9, 9, 14, 15, 15, 5, 10, 14, 10, 5, 5, 15, 10, 12, 4, 13, 15, 10, 4, 4, 10]
open = [false, true, false, true, true, false, false, false, true, true, true, true, true, true, true]
trucks_used = [0, 1, 0, 2, 3, 0, 0, 0, 1, 6, 1, 1, 2, 5, 2]
truck_assigned = [5, 1, 4, 3, 1, 1, 2, 5, 2, 1, 1, 4, 1, 2, 2, 5, 3, 6, 1, 2, 1, 2, 1, 2, 1, 2, 4, 1, 1, 2]
obj = 4729
----------
source = [14, 11, 10, 9, 4, 2, 13, 14, 5, 5, 9, 14, 15, 15, 5, 10, 14, 10, 5, 13, 15, 10, 12, 4, 14, 15, 10, 4, 4, 10]
open = [false, true, false, true, true, false, false, false, true, true, true, true, true, true, true]
trucks_used = [0, 1, 0, 2, 3, 0, 0, 0, 1, 6, 1, 1, 1, 5, 2]
truck_assigned = [5, 1, 4, 1, 1, 1, 1, 3, 1, 3, 1, 4, 1, 2, 3, 5, 3, 3, 2, 1, 1, 6, 1, 2, 2, 2, 6, 1, 1, 4]
obj = 4724
----------
source = [4, 11, 10, 9, 4, 2, 13, 14, 12, 9, 9, 14, 15, 4, 5, 10, 14, 10, 5, 5, 5, 10, 14, 13, 14, 15, 10, 4, 4, 10]
open = [false, true, false, true, true, false, false, false, true, true, true, true, true, true, true]
trucks_used = [0, 1, 0, 2, 3, 0, 0, 0, 2, 6, 1, 1, 1, 5, 1]
truck_assigned = [1, 1, 4, 2, 2, 1, 1, 4, 1, 1, 2, 4, 1, 1, 1, 5, 5, 3, 2, 1, 3, 6, 5, 1, 3, 1, 6, 2, 2, 4]
obj = 4718
----------
source = [4, 11, 10, 4, 4, 2, 13, 14, 12, 9, 9, 14, 15, 2, 5, 10, 14, 10, 5, 5, 5, 10, 14, 13, 14, 15, 10, 4, 4, 10]
open = [false, true, false, true, true, false, false, false, true, true, true, true, true, true, true]
trucks_used = [0, 1, 0, 2, 3, 0, 0, 0, 1, 6, 1, 1, 1, 5, 1]
truck_assigned = [1, 1, 4, 1, 2, 1, 1, 5, 1, 1, 1, 4, 1, 1, 3, 5, 5, 3, 1, 3, 2, 6, 4, 1, 3, 1, 6, 2, 2, 4]
obj = 4711
----------
source = [4, 11, 10, 13, 4, 2, 13, 14, 15, 9, 9, 14, 15, 4, 5, 10, 14, 10, 12, 5, 9, 10, 14, 12, 14, 15, 10, 4, 4, 10]
open = [false, true, false, true, true, false, false, false, true, true, true, true, true, true, true]
trucks_used = [0, 1, 0, 2, 1, 0, 0, 0, 1, 6, 1, 1, 2, 5, 2]
truck_assigned = [1, 1, 3, 2, 2, 1, 1, 5, 1, 1, 1, 3, 2, 1, 1, 4, 4, 5, 1, 1, 1, 6, 5, 1, 2, 2, 6, 2, 2, 3]
obj = 4695
----------
source = [4, 11, 10, 13, 4, 2, 13, 14, 12, 9, 9, 14, 15, 2, 5, 10, 14, 10, 12, 5, 9, 10, 14, 5, 14, 15, 10, 5, 4, 10]
open = [false, true, false, true, true, false, false, false, true, true, true, true, true, true, true]
trucks_used = [0, 1, 0, 1, 2, 0, 0, 0, 1, 6, 1, 1, 2, 5, 1]
truck_assigned = [1, 1, 4, 1, 1, 1, 2, 4, 1, 1, 1, 5, 1, 1, 2, 6, 4, 5, 1, 2, 1, 2, 5, 1, 3, 1, 2, 1, 1, 4]
obj = 4689
----------
source = [4, 11, 10, 13, 4, 2, 13, 14, 12, 9, 9, 14, 15, 15, 5, 10, 14, 10, 12, 5, 15, 10, 14, 5, 14, 15, 10, 5, 4, 10]
open = [false, true, false, true, true, false, false, false, true, true, true, true, true, true, true]
trucks_used = [0, 1, 0, 1, 2, 0, 0, 0, 1, 6, 1, 1, 2, 5, 2]
truck_assigned = [1, 1, 5, 2, 1, 1, 1, 5, 1, 1, 1, 5, 2, 2, 2, 6, 1, 4, 1, 2, 1, 5, 3, 1, 4, 1, 2, 1, 1, 5]
obj = 4674
----------
source = [14, 11, 10, 13, 12, 2, 13, 14, 15, 9, 9, 12, 15, 4, 5, 10, 14, 10, 5, 5, 9, 10, 14, 4, 14, 15, 10, 5, 4, 10]
open = [false, true, false, true, true, false, false, false, true, true, true, true, true, true, true]
trucks_used = [0, 1, 0, 2, 2, 0, 0, 0, 1, 6, 1, 1, 2, 5, 2]
truck_assigned = [1, 1, 4, 2, 1, 1, 1, 4, 2, 1, 1, 1, 1, 2, 1, 6, 4, 5, 2, 1, 1, 2, 3, 1, 5, 1, 3, 2, 2, 4]
obj = 4665
----------
source = [14, 11, 10, 13, 4, 2, 13, 14, 12, 9, 9, 12, 15, 15, 5, 10, 14, 10, 5, 5, 15, 10, 14, 4, 14, 15, 10, 5, 4, 10]
open = [false, true, false, true, true, false, false, false, true, true, true, true, true, true, true]
trucks_used = [0, 1, 0, 2, 2, 0, 0, 0, 1, 6, 1, 1, 2, 5, 2]
truck_assigned = [2, 1, 5, 1, 1, 1, 2, 4, 1, 1, 1, 1, 2, 1, 1, 6, 4, 4, 2, 1, 1, 5, 3, 2, 5, 2, 1, 2, 1, 5]
obj = 4657
----------
source = [14, 11, 10, 13, 4, 2, 13, 14, 12, 9, 9, 12, 15, 15, 5, 10, 14, 10, 5, 5, 15, 10, 14, 4, 14, 15, 10, 4, 4, 10]
open = [false, true, false, true, true, false, false, false, true, true, true, true, true, true, true]
trucks_used = [0, 1, 0, 2, 2, 0, 0, 0, 1, 6, 1, 1, 2, 5, 2]
truck_assigned = [1, 1, 5, 2, 1, 1, 1, 4, 1, 1, 1, 1, 2, 1, 2, 6, 4, 4, 1, 2, 1, 5, 3, 2, 5, 2, 1, 1, 1, 5]
obj = 4652
----------
source = [14, 2, 10, 9, 4, 14, 13, 14, 14, 11, 9, 12, 15, 15, 5, 10, 14, 10, 12, 5, 15, 10, 2, 4, 13, 15, 10, 4, 4, 10]
open = [false, true, false, true, true, false, false, false, true, true, true, true, true, true, true]
trucks_used = [0, 1, 0, 2, 1, 0, 0, 0, 1, 6, 1, 1, 2, 5, 2]
truck_assigned = [5, 1, 6, 1, 1, 4, 2, 5, 3, 1, 1, 1, 2, 2, 1, 5, 4, 4, 1, 1, 1, 2, 1, 2, 1, 1, 3, 1, 1, 6]
obj = 4650
----------
source = [14, 2, 10, 9, 4, 11, 13, 14, 14, 11, 9, 12, 15, 15, 5, 10, 14, 10, 14, 5, 15, 10, 2, 12, 13, 15, 10, 4, 4, 10]
open = [false, true, false, true, true, false, false, false, true, true, true, true, true, true, true]
trucks_used = [0, 1, 0, 1, 1, 0, 0, 0, 1, 6, 1, 1, 2, 5, 2]
truck_assigned = [5, 1, 4, 1, 1, 1, 2, 5, 3, 1, 1, 1, 1, 2, 1, 5, 4, 6, 1, 1, 2, 4, 1, 1, 1, 1, 1, 1, 1, 1]
obj = 4649
----------
source = [4, 11, 10, 13, 4, 2, 13, 14, 12, 9, 9, 12, 5, 15, 5, 10, 14, 10, 14, 10, 9, 10, 2, 4, 14, 15, 10, 4, 14, 2]
open = [false, true, false, true, true, false, false, false, true, true, true, true, true, true, true]
trucks_used = [0, 2, 0, 2, 1, 0, 0, 0, 1, 6, 1, 1, 2, 5, 1]
truck_assigned = [1, 1, 4, 1, 1, 2, 2, 5, 1, 1, 1, 1, 1, 1, 1, 5, 5, 6, 2, 3, 1, 2, 1, 2, 4, 1, 4, 1, 3, 1]
obj = 4637
----------
source = [14, 4, 10, 9, 4, 11, 13, 13, 10, 12, 9, 12, 5, 15, 5, 5, 14, 11, 14, 5, 11, 10, 12, 4, 14, 11, 10, 4, 14, 10]
open = [false, false, false, true, true, false, false, false, true, true, true, true, true, true, true]
trucks_used = [0, 0, 0, 2, 2, 0, 0, 0, 1, 5, 2, 2, 1, 5, 1]
truck_assigned = [3, 2, 5, 1, 2, 2, 1, 1, 3, 1, 1, 1, 1, 1, 2, 1, 5, 1, 4, 2, 1, 4, 2, 1, 1, 2, 5, 2, 2, 2]
obj = 4634
----------
source = [9, 11, 10, 9, 4, 3, 11, 12, 12, 1, 9, 12, 5, 15, 4, 5, 1, 4, 5, 5, 15, 10, 12, 8, 7, 11, 10, 4, 4, 10]
open = [true, false, true, true, true, false, true, true, true, true, true, true, false, false, true]
trucks_used = [1, 0, 1, 3, 2, 0, 1, 1, 2, 2, 3, 3, 0, 0, 1]
truck_assigned = [2, 1, 2, 1, 2, 1, 2, 1, 2, 1, 1, 2, 2, 1, 1, 1, 1, 3, 2, 1, 1, 2, 3, 1, 1, 3, 1, 2, 3, 2]
obj = 4633
----------
source = [9, 11, 10, 9, 4, 3, 11, 7, 12, 1, 9, 12, 5, 15, 4, 5, 10, 1, 5, 5, 15, 10, 12, 8, 7, 11, 12, 4, 4, 10]
open = [true, false, true, true, true, false, true, true, true, true, true, true, false, false, true]
trucks_used = [1, 0, 1, 3, 2, 0, 1, 1, 2, 2, 3, 3, 0, 0, 1]
truck_assigned = [2, 2, 1, 1, 3, 1, 1, 1, 2, 1, 1, 2, 2, 1, 2, 1, 2, 1, 2, 1, 1, 1, 3, 1, 1, 3, 1, 3, 3, 1]
obj = 4629
----------
source = [9, 11, 10, 9, 4, 3, 11, 7, 12, 11, 9, 12, 5, 15, 4, 5, 1, 1, 5, 5, 15, 10, 12, 8, 7, 11, 10, 4, 4, 10]
open = [true, false, true, true, true, false, true, true, true, true, true, true, false, false, true]
trucks_used = [1, 0, 1, 3, 2, 0, 1, 1, 2, 2, 3, 3, 0, 0, 1]
truck_assigned = [2, 1, 2, 1, 3, 1, 2, 1, 2, 3, 1, 2, 2, 1, 1, 1, 1, 1, 2, 1, 1, 2, 3, 1, 1, 3, 1, 3, 3, 1]
obj = 4628
----------
source = [9, 11, 10, 9, 4, 3, 11, 12, 12, 11, 9, 12, 5, 15, 4, 5, 1, 1, 5, 5, 15, 10, 12, 8, 7, 11, 10, 4, 4, 10]
open = [true, false, true, true, true, false, true, true, true, true, true, true, false, false, true]
trucks_used = [1, 0, 1, 3, 2, 0, 1, 1, 2, 2, 3, 3, 0, 0, 1]
truck_assigned = [2, 2, 2, 1, 3, 1, 1, 1, 2, 3, 1, 2, 2, 1, 2, 1, 1, 1, 2, 1, 1, 2, 3, 1, 1, 3, 1, 3, 3, 2]
obj = 4623
----------
source = [9, 11, 10, 9, 4, 3, 11, 12, 12, 11, 9, 12, 5, 15, 4, 5, 1, 1, 5, 5, 15, 10, 12, 8, 7, 4, 10, 4, 4, 10]
open = [true, false, true, true, true, false, true, true, true, true, true, true, false, false, true]
trucks_used = [1, 0, 1, 3, 2, 0, 1, 1, 2, 2, 3, 3, 0, 0, 1]
truck_assigned = [2, 2, 2, 1, 2, 1, 3, 1, 2, 3, 1, 2, 2, 1, 1, 1, 1, 1, 2, 1, 1, 2, 3, 1, 1, 3, 1, 2, 3, 2]
obj = 4621
----------
source = [9, 11, 10, 9, 8, 11, 11, 12, 12, 11, 9, 12, 5, 1, 4, 5, 1, 10, 5, 5, 15, 10, 12, 4, 7, 11, 4, 3, 4, 10]
open = [true, false, true, true, true, false, true, true, true, true, true, true, false, false, true]
trucks_used = [1, 0, 1, 3, 2, 0, 1, 1, 2, 2, 3, 3, 0, 0, 1]
truck_assigned = [2, 2, 1, 1, 1, 1, 1, 1, 2, 3, 1, 2, 2, 1, 2, 1, 1, 2, 2, 1, 1, 1, 3, 3, 1, 3, 1, 1, 1, 1]
obj = 4620
----------
source = [9, 11, 10, 9, 8, 11, 11, 12, 12, 11, 9, 12, 5, 1, 4, 5, 1, 4, 5, 5, 15, 10, 12, 4, 7, 11, 10, 3, 4, 10]
open = [true, false, true, true, true, false, true, true, true, true, true, true, false, false, true]
trucks_used = [1, 0, 1, 3, 2, 0, 1, 1, 2, 2, 3, 3, 0, 0, 1]
truck_assigned = [2, 2, 2, 1, 1, 1, 1, 1, 2, 3, 1, 2, 2, 1, 2, 1, 1, 1, 2, 1, 1, 2, 3, 3, 1, 3, 1, 1, 1, 2]
obj = 4617
----------
source = [9, 11, 10, 9, 8, 11, 11, 7, 12, 11, 9, 12, 5, 15, 4, 5, 1, 1, 5, 5, 15, 10, 12, 4, 7, 12, 10, 3, 4, 10]
open = [true, false, true, true, true, false, true, true, true, true, true, true, false, false, true]
trucks_used = [1, 0, 1, 3, 2, 0, 1, 1, 2, 2, 3, 3, 0, 0, 1]
truck_assigned = [2, 2, 2, 1, 1, 3, 1, 1, 3, 3, 1, 1, 2, 1, 2, 1, 1, 1, 2, 1, 1, 2, 2, 3, 1, 3, 1, 1, 1, 2]
obj = 4616
----------
source = [9, 11, 10, 9, 8, 11, 11, 12, 12, 11, 9, 12, 5, 15, 4, 5, 1, 1, 5, 5, 15, 10, 12, 4, 7, 11, 10, 3, 4, 10]
open = [true, false, true, true, true, false, true, true, true, true, true, true, false, false, true]
trucks_used = [1, 0, 1, 3, 2, 0, 1, 1, 2, 2, 3, 3, 0, 0, 1]
truck_assigned = [2, 2, 2, 1, 1, 1, 1, 1, 3, 3, 1, 3, 2, 1, 2, 1, 1, 1, 2, 1, 1, 2, 2, 3, 1, 3, 1, 1, 1, 2]
obj = 4609
----------
source = [9, 11, 10, 9, 8, 11, 11, 12, 12, 11, 9, 12, 5, 15, 4, 5, 1, 1, 5, 5, 15, 10, 12, 4, 7, 4, 10, 3, 4, 10]
open = [true, false, true, true, true, false, true, true, true, true, true, true, false, false, true]
trucks_used = [1, 0, 1, 3, 2, 0, 1, 1, 2, 2, 3, 3, 0, 0, 1]
truck_assigned = [2, 2, 2, 1, 1, 3, 1, 2, 1, 3, 1, 2, 2, 1, 2, 1, 1, 1, 2, 1, 1, 2, 3, 3, 1, 1, 1, 1, 1, 2]
obj = 4607
----------
source = [9, 11, 10, 4, 8, 11, 11, 12, 12, 9, 9, 12, 5, 15, 4, 5, 1, 1, 5, 5, 15, 10, 12, 4, 7, 11, 10, 3, 4, 10]
open = [true, false, true, true, true, false, true, true, true, true, true, true, false, false, true]
trucks_used = [1, 0, 1, 3, 2, 0, 1, 1, 2, 2, 3, 3, 0, 0, 1]
truck_assigned = [2, 2, 2, 2, 1, 3, 1, 2, 1, 1, 1, 2, 2, 1, 3, 1, 1, 1, 2, 1, 1, 2, 3, 1, 1, 3, 1, 1, 2, 2]
obj = 4604
----------
source = [9, 11, 10, 9, 12, 11, 11, 7, 12, 11, 9, 12, 5, 15, 4, 5, 1, 1, 5, 5, 15, 10, 10, 4, 8, 7, 10, 3, 4, 10]
open = [true, false, true, true, true, false, true, true, true, true, true, true, false, false, true]
trucks_used = [1, 0, 1, 3, 2, 0, 1, 1, 2, 2, 3, 3, 0, 0, 1]
truck_assigned = [2, 2, 1, 1, 1, 3, 1, 1, 3, 3, 1, 3, 2, 1, 3, 1, 1, 1, 2, 1, 1, 2, 2, 1, 1, 1, 1, 1, 2, 2]
obj = 4603
----------
source = [9, 11, 10, 9, 4, 11, 11, 12, 12, 11, 9, 12, 5, 15, 4, 5, 1, 1, 5, 5, 15, 10, 12, 4, 8, 7, 10, 3, 4, 10]
open = [true, false, true, true, true, false, true, true, true, true, true, true, false, false, true]
trucks_used = [1, 0, 1, 3, 2, 0, 1, 1, 2, 2, 3, 3, 0, 0, 1]
truck_assigned = [2, 2, 2, 1, 2, 3, 1, 2, 3, 3, 1, 3, 2, 1, 3, 1, 1, 1, 2, 1, 1, 2, 1, 1, 1, 1, 1, 1, 2, 2]
obj = 4595
----------
source = [9, 11, 10, 9, 4, 11, 11, 12, 12, 1, 9, 12, 5, 15, 4, 5, 3, 1, 5, 5, 15, 10, 12, 4, 8, 7, 10, 3, 4, 10]
open = [true, false, true, true, true, false, true, true, true, true, true, true, false, false, true]
trucks_used = [1, 0, 1, 3, 2, 0, 1, 1, 2, 2, 3, 3, 0, 0, 1]
truck_assigned = [2, 2, 2, 1, 2, 3, 3, 2, 1, 1, 1, 2, 2, 1, 3, 1, 1, 1, 2, 1, 1, 2, 3, 1, 1, 1, 1, 1, 2, 2]
obj = 4592
----------
source = [9, 11, 10, 9, 8, 11, 11, 12, 12, 11, 9, 12, 5, 15, 4, 5, 1, 1, 5, 5, 15, 10, 12, 4, 8, 7, 4, 3, 4, 10]
open = [true, false, true, true, true, false, true, true, true, true, true, true, false, false, true]
trucks_used = [1, 0, 1, 3, 2, 0, 1, 2, 2, 1, 3, 3, 0, 0, 1]
truck_assigned = [1, 2, 1, 2, 1, 3, 1, 2, 1, 3, 2, 2, 2, 1, 3, 1, 1, 1, 2, 1, 1, 1, 3, 1, 2, 1, 2, 1, 2, 1]
obj = 4585
----------
source = [9, 11, 10, 4, 8, 11, 11, 7, 12, 9, 9, 12, 5, 15, 4, 5, 1, 1, 5, 5, 15, 10, 12, 4, 8, 7, 12, 3, 4, 10]
open = [true, false, true, true, true, false, true, true, true, true, true, true, false, false, true]
trucks_used = [1, 0, 1, 3, 2, 0, 1, 2, 2, 1, 3, 3, 0, 0, 1]
truck_assigned = [2, 2, 1, 2, 1, 3, 3, 1, 2, 1, 1, 2, 2, 1, 3, 1, 1, 1, 2, 1, 1, 1, 3, 1, 2, 1, 1, 1, 2, 1]
obj = 4583
----------
source = [9, 11, 10, 9, 8, 11, 11, 12, 12, 1, 9, 12, 5, 15, 4, 5, 3, 1, 5, 5, 15, 10, 12, 4, 8, 7, 4, 3, 4, 10]
open = [true, false, true, true, true, false, true, true, true, true, true, true, false, false, true]
trucks_used = [1, 0, 1, 3, 2, 0, 1, 2, 2, 1, 3, 3, 0, 0, 1]
truck_assigned = [1, 2, 1, 2, 1, 3, 3, 2, 3, 1, 2, 3, 2, 1, 3, 1, 1, 1, 2, 1, 1, 1, 1, 1, 2, 1, 2, 1, 2, 1]
obj = 4582
----------
source = [9, 11, 10, 9, 8, 11, 8, 12, 12, 11, 9, 12, 5, 15, 4, 5, 1, 1, 5, 5, 15, 10, 12, 4, 8, 7, 11, 3, 4, 10]
open = [true, false, true, true, true, false, true, true, true, true, true, true, false, false, true]
trucks_used = [1, 0, 1, 3, 2, 0, 1, 2, 2, 1, 3, 3, 0, 0, 1]
truck_assigned = [1, 2, 1, 2, 1, 3, 2, 2, 3, 3, 2, 3, 2, 1, 3, 1, 1, 1, 2, 1, 1, 1, 1, 2, 2, 1, 1, 1, 1, 1]
obj = 4574
----------
source = [9, 11, 10, 4, 8, 11, 11, 12, 12, 9, 9, 12, 5, 15, 4, 5, 1, 1, 5, 5, 15, 10, 12, 4, 8, 7, 11, 3, 4, 10]
open = [true, false, true, true, true, false, true, true, true, true, true, true, false, false, true]
trucks_used = [1, 0, 1, 3, 2, 0, 1, 2, 2, 1, 3, 3, 0, 0, 1]
truck_assigned = [2, 2, 1, 1, 1, 1, 1, 2, 3, 1, 1, 3, 2, 1, 3, 1, 1, 1, 2, 1, 1, 1, 1, 2, 2, 1, 3, 1, 1, 1]
obj = 4566
----------
source = [9, 11, 10, 9, 8, 4, 11, 12, 12, 11, 9, 12, 5, 15, 4, 5, 1, 1, 5, 5, 15, 10, 12, 7, 8, 7, 11, 3, 4, 10]
open = [true, false, true, true, true, false, true, true, true, true, true, true, false, false, true]
trucks_used = [1, 0, 1, 3, 2, 0, 1, 2, 2, 1, 3, 3, 0, 0, 1]
truck_assigned = [1, 2, 1, 2, 1, 1, 1, 2, 3, 1, 2, 3, 2, 1, 3, 1, 1, 1, 2, 1, 1, 1, 1, 1, 2, 1, 3, 1, 2, 1]
obj = 4565
----------
source = [9, 11, 10, 9, 8, 4, 11, 12, 12, 1, 9, 12, 5, 15, 4, 5, 3, 1, 5, 5, 15, 10, 12, 7, 8, 7, 11, 3, 4, 10]
open = [true, false, true, true, true, false, true, true, true, true, true, true, false, false, true]
trucks_used = [1, 0, 1, 3, 2, 0, 1, 2, 2, 1, 3, 3, 0, 0, 1]
truck_assigned = [1, 2, 1, 2, 1, 3, 1, 2, 3, 1, 2, 3, 2, 1, 1, 1, 1, 1, 2, 1, 1, 1, 1, 1, 2, 1, 3, 1, 2, 1]
obj = 4562
----------
source = [9, 11, 10, 4, 8, 4, 11, 12, 12, 9, 9, 12, 5, 15, 4, 5, 1, 1, 5, 5, 15, 10, 12, 7, 8, 7, 11, 3, 4, 10]
open = [true, false, true, true, true, false, true, true, true, true, true, true, false, false, true]
trucks_used = [1, 0, 1, 3, 2, 0, 1, 2, 2, 1, 3, 3, 0, 0, 1]
truck_assigned = [2, 2, 1, 2, 1, 1, 1, 2, 3, 1, 1, 3, 2, 1, 3, 1, 1, 1, 2, 1, 1, 1, 1, 1, 2, 1, 3, 1, 2, 1]
obj = 4560
----------
source = [4, 11, 10, 9, 7, 11, 11, 12, 12, 9, 9, 12, 5, 15, 4, 5, 3, 1, 5, 5, 15, 10, 12, 4, 8, 7, 11, 3, 4, 10]
open = [true, false, true, true, true, false, true, true, true, true, true, true, false, false, true]
trucks_used = [1, 0, 1, 3, 2, 0, 1, 1, 2, 1, 3, 3, 0, 0, 1]
truck_assigned = [2, 2, 1, 2, 1, 1, 1, 2, 3, 1, 2, 3, 2, 1, 3, 1, 1, 1, 2, 1, 1, 1, 1, 1, 1, 1, 3, 1, 2, 1]
obj = 4555
----------
source = [9, 11, 10, 4, 7, 11, 11, 12, 12, 9, 9, 12, 5, 15, 4, 5, 3, 1, 5, 5, 15, 10, 12, 4, 8, 7, 11, 3, 4, 10]
open = [true, false, true, true, true, false, true, true, true, true, true, true, false, false, true]
trucks_used = [1, 0, 1, 3, 2, 0, 1, 1, 2, 1, 3, 3, 0, 0, 1]
truck_assigned = [1, 2, 1, 2, 1, 1, 1, 2, 3, 2, 2, 3, 2, 1, 3, 1, 1, 1, 2, 1, 1, 1, 1, 1, 1, 1, 3, 1, 2, 1]
obj = 4551
----------
source = [9, 11, 10, 9, 7, 11, 11, 12, 12, 1, 9, 12, 5, 15, 4, 5, 3, 1, 5, 5, 15, 10, 12, 4, 8, 7, 11, 3, 4, 10]
open = [true, false, true, true, true, false, true, true, true, true, true, true, false, false, true]
trucks_used = [1, 0, 1, 3, 2, 0, 1, 1, 2, 1, 3, 3, 0, 0, 1]
truck_assigned = [2, 2, 1, 1, 1, 1, 1, 2, 3, 1, 1, 3, 2, 1, 3, 1, 1, 1, 2, 1, 1, 1, 1, 1, 1, 1, 3, 1, 2, 1]
obj = 4549
----------
source = [4, 11, 10, 9, 4, 11, 11, 12, 12, 9, 9, 12, 5, 15, 4, 5, 3, 1, 5, 5, 15, 10, 12, 4, 8, 7, 11, 3, 4, 10]
open = [true, false, true, true, true, false, true, true, true, true, true, true, false, false, true]
trucks_used = [1, 0, 1, 3, 2, 0, 1, 1, 2, 1, 3, 3, 0, 0, 1]
truck_assigned = [2, 2, 1, 1, 2, 1, 1, 2, 3, 2, 2, 3, 2, 1, 3, 1, 1, 1, 2, 1, 1, 1, 1, 1, 1, 1, 3, 1, 2, 1]
obj = 4544
----------
source = [9, 11, 10, 9, 4, 11, 11, 12, 12, 1, 9, 12, 5, 15, 4, 5, 3, 1, 5, 5, 15, 10, 12, 4, 8, 7, 11, 3, 4, 10]
open = [true, false, true, true, true, false, true, true, true, true, true, true, false, false, true]
trucks_used = [1, 0, 1, 3, 2, 0, 1, 1, 2, 1, 3, 3, 0, 0, 1]
truck_assigned = [2, 2, 1, 1, 2, 1, 1, 2, 3, 1, 1, 3, 2, 1, 3, 1, 1, 1, 2, 1, 1, 1, 1, 1, 1, 1, 3, 1, 2, 1]
obj = 4538
----------
source = [4, 11, 10, 9, 4, 11, 11, 12, 12, 1, 9, 12, 5, 15, 4, 5, 8, 1, 5, 5, 15, 10, 12, 4, 8, 7, 11, 3, 4, 10]
open = [true, false, true, true, true, false, true, true, true, true, true, true, false, false, true]
trucks_used = [1, 0, 1, 3, 2, 0, 1, 1, 2, 1, 3, 3, 0, 0, 1]
truck_assigned = [2, 2, 1, 2, 2, 1, 1, 2, 3, 1, 2, 3, 2, 1, 3, 1, 1, 1, 2, 1, 1, 1, 1, 1, 1, 1, 3, 1, 2, 1]
obj = 4536
----------
source = [9, 11, 10, 9, 4, 11, 11, 7, 12, 1, 9, 12, 5, 15, 4, 5, 8, 1, 5, 5, 15, 10, 12, 4, 8, 12, 11, 3, 4, 10]
open = [true, false, true, true, true, false, true, true, true, true, true, true, false, false, true]
trucks_used = [1, 0, 1, 3, 2, 0, 1, 1, 2, 1, 3, 3, 0, 0, 1]
truck_assigned = [2, 2, 1, 1, 2, 1, 1, 1, 3, 1, 1, 1, 2, 1, 3, 1, 1, 1, 2, 1, 1, 1, 2, 1, 1, 3, 3, 1, 2, 1]
obj = 4535
----------
source = [9, 11, 10, 9, 4, 11, 11, 7, 12, 1, 9, 12, 5, 15, 4, 5, 8, 1, 5, 5, 15, 10, 12, 4, 8, 7, 12, 3, 4, 10]
open = [true, false, true, true, true, false, true, true, true, true, true, true, false, false, true]
trucks_used = [1, 0, 1, 3, 2, 0, 1, 1, 2, 1, 3, 3, 0, 0, 1]
truck_assigned = [2, 3, 1, 1, 1, 2, 2, 1, 3, 1, 1, 3, 2, 1, 2, 1, 1, 1, 2, 1, 1, 1, 1, 3, 1, 1, 2, 1, 1, 1]
obj = 4534
----------
source = [9, 11, 10, 9, 7, 11, 11, 12, 12, 1, 9, 12, 5, 15, 4, 5, 8, 1, 5, 5, 15, 10, 12, 4, 8, 7, 11, 3, 4, 10]
open = [true, false, true, true, true, false, true, true, true, true, true, true, false, false, true]
trucks_used = [1, 0, 1, 3, 2, 0, 1, 1, 2, 1, 3, 3, 0, 0, 1]
truck_assigned = [2, 3, 1, 1, 1, 1, 1, 1, 2, 1, 1, 2, 2, 1, 3, 1, 1, 1, 2, 1, 1, 1, 3, 2, 1, 1, 2, 1, 1, 1]
obj = 4528
----------
source = [9, 11, 10, 9, 4, 11, 11, 12, 12, 1, 9, 12, 5, 15, 4, 5, 8, 1, 5, 5, 15, 10, 12, 4, 8, 7, 11, 3, 4, 10]
open = [true, false, true, true, true, false, true, true, true, true, true, true, false, false, true]
trucks_used = [1, 0, 1, 3, 2, 0, 1, 1, 2, 1, 3, 3, 0, 0, 1]
truck_assigned = [2, 1, 1, 1, 1, 2, 2, 1, 2, 1, 1, 2, 2, 1, 3, 1, 1, 1, 2, 1, 1, 1, 3, 2, 1, 1, 3, 1, 1, 1]
obj = 4517
----------
source = [9, 11, 10, 9, 4, 11, 11, 3, 12, 1, 9, 12, 5, 15, 4, 5, 8, 1, 5, 5, 15, 10, 12, 4, 8, 7, 11, 3, 4, 10]
open = [true, false, true, true, true, false, true, true, true, true, true, true, false, false, true]
trucks_used = [1, 0, 1, 3, 2, 0, 1, 1, 2, 1, 3, 3, 0, 0, 1]
truck_assigned = [2, 1, 1, 1, 2, 2, 2, 1, 2, 1, 1, 2, 2, 1, 1, 1, 1, 1, 2, 1, 1, 1, 3, 3, 1, 1, 3, 1, 2, 1]
obj = 4511
----------
source = [9, 11, 10, 9, 4, 11, 11, 3, 12, 1, 9, 12, 5, 15, 4, 5, 8, 1, 5, 5, 15, 10, 12, 7, 8, 7, 11, 3, 4, 10]
open = [true, false, true, true, true, false, true, true, true, true, true, true, false, false, true]
trucks_used = [1, 0, 1, 3, 2, 0, 1, 1, 2, 1, 3, 3, 0, 0, 1]
truck_assigned = [2, 1, 1, 1, 3, 2, 2, 1, 2, 1, 1, 2, 2, 1, 2, 1, 1, 1, 2, 1, 1, 1, 3, 1, 1, 1, 3, 1, 3, 1]
obj = 4505
----------
source = [9, 11, 10, 4, 4, 11, 11, 3, 12, 9, 9, 12, 5, 15, 4, 5, 8, 1, 5, 5, 1, 10, 12, 7, 8, 7, 11, 3, 4, 10]
open = [true, false, true, true, true, false, true, true, true, true, true, true, false, false, true]
trucks_used = [1, 0, 1, 3, 2, 0, 1, 1, 2, 1, 3, 3, 0, 0, 1]
truck_assigned = [1, 1, 1, 3, 3, 2, 2, 1, 2, 2, 2, 2, 2, 1, 2, 1, 1, 1, 2, 1, 1, 1, 3, 1, 1, 1, 3, 1, 1, 1]
obj = 4503
----------
source = [9, 11, 10, 4, 12, 11, 11, 3, 15, 9, 9, 12, 5, 4, 4, 5, 8, 1, 5, 5, 1, 10, 12, 7, 8, 7, 11, 3, 4, 10]
open = [true, false, true, true, true, false, true, true, true, true, true, true, false, false, true]
trucks_used = [1, 0, 1, 3, 2, 0, 1, 1, 2, 1, 3, 3, 0, 0, 1]
truck_assigned = [1, 1, 1, 1, 2, 2, 2, 1, 1, 2, 2, 2, 2, 3, 2, 1, 1, 1, 2, 1, 1, 1, 3, 1, 1, 1, 3, 1, 3, 1]
obj = 4487
----------
source = [4, 11, 10, 9, 4, 11, 11, 3, 15, 5, 9, 12, 5, 4, 4, 5, 8, 1, 12, 5, 1, 10, 12, 7, 8, 7, 11, 3, 4, 10]
open = [true, false, true, true, true, false, true, true, true, true, true, true, false, false, true]
trucks_used = [1, 0, 1, 3, 2, 0, 1, 1, 1, 1, 3, 3, 0, 0, 1]
truck_assigned = [3, 1, 1, 1, 1, 2, 2, 1, 1, 2, 1, 2, 1, 3, 2, 1, 1, 1, 2, 2, 1, 1, 3, 1, 1, 1, 3, 1, 1, 1]
obj = 4486
----------
source = [4, 11, 10, 9, 12, 11, 11, 3, 15, 1, 9, 12, 5, 4, 4, 5, 8, 4, 5, 5, 1, 10, 12, 7, 8, 7, 11, 3, 4, 10]
open = [true, false, true, true, true, false, true, true, true, true, true, true, false, false, true]
trucks_used = [1, 0, 1, 3, 2, 0, 1, 1, 1, 1, 3, 3, 0, 0, 1]
truck_assigned = [2, 1, 1, 1, 2, 2, 2, 1, 1, 1, 1, 2, 1, 2, 1, 2, 1, 3, 1, 2, 1, 1, 3, 1, 1, 1, 3, 1, 3, 1]
obj = 4471
----------
source = [4, 11, 10, 9, 4, 3, 7, 12, 15, 11, 9, 12, 5, 4, 4, 14, 1, 4, 12, 5, 1, 10, 12, 7, 3, 11, 11, 5, 4, 10]
open = [true, false, true, true, true, false, true, false, true, true, true, true, false, true, true]
trucks_used = [1, 0, 2, 4, 2, 0, 1, 0, 1, 1, 3, 3, 0, 1, 1]
truck_assigned = [3, 1, 1, 1, 4, 2, 1, 2, 1, 3, 1, 1, 2, 3, 2, 1, 1, 4, 2, 2, 1, 1, 3, 1, 1, 3, 2, 2, 1, 1]
obj = 4467
----------
source = [4, 11, 10, 9, 4, 3, 1, 12, 14, 11, 9, 12, 5, 4, 4, 5, 1, 4, 5, 5, 1, 10, 12, 7, 3, 7, 11, 15, 4, 10]
open = [true, false, true, true, true, false, true, false, true, true, true, true, false, true, true]
trucks_used = [2, 0, 2, 4, 2, 0, 1, 0, 1, 1, 3, 3, 0, 1, 1]
truck_assigned = [3, 2, 1, 1, 4, 2, 1, 3, 1, 1, 1, 3, 1, 3, 2, 2, 2, 4, 1, 2, 2, 1, 2, 1, 1, 1, 3, 1, 1, 1]
obj = 4466
----------
source = [11, 11, 10, 9, 4, 3, 1, 12, 1, 1, 9, 12, 5, 4, 4, 14, 1, 4, 12, 5, 5, 10, 12, 7, 7, 3, 11, 15, 4, 10]
open = [true, false, true, true, true, false, true, false, true, true, true, true, false, true, true]
trucks_used = [2, 0, 2, 4, 2, 0, 1, 0, 1, 1, 3, 3, 0, 1, 1]
truck_assigned = [1, 2, 1, 1, 3, 2, 2, 3, 1, 2, 1, 3, 2, 2, 4, 1, 1, 3, 2, 2, 1, 1, 1, 1, 1, 1, 3, 1, 2, 1]
obj = 4465
----------
source = [4, 11, 10, 9, 4, 3, 1, 12, 1, 1, 9, 12, 5, 4, 4, 14, 1, 4, 5, 5, 15, 10, 12, 7, 3, 11, 11, 5, 4, 10]
open = [true, false, true, true, true, false, true, false, true, true, true, true, false, true, true]
trucks_used = [2, 0, 2, 4, 2, 0, 1, 0, 1, 1, 3, 3, 0, 1, 1]
truck_assigned = [4, 2, 1, 1, 3, 2, 2, 3, 1, 2, 1, 3, 2, 1, 2, 1, 1, 4, 1, 2, 1, 1, 2, 1, 1, 1, 3, 2, 3, 1]
obj = 4463
----------
source = [4, 11, 10, 9, 4, 3, 1, 12, 1, 1, 9, 12, 5, 4, 4, 5, 1, 4, 5, 5, 14, 10, 12, 7, 3, 11, 11, 15, 4, 10]
open = [true, false, true, true, true, false, true, false, true, true, true, true, false, true, true]
trucks_used = [2, 0, 2, 4, 2, 0, 1, 0, 1, 1, 3, 3, 0, 1, 1]
truck_assigned = [4, 2, 1, 1, 3, 2, 2, 3, 1, 2, 1, 3, 2, 1, 2, 1, 1, 4, 2, 1, 1, 1, 2, 1, 1, 1, 3, 1, 3, 1]
obj = 4459
----------
source = [11, 11, 10, 9, 4, 3, 1, 12, 1, 1, 9, 12, 5, 4, 4, 14, 1, 4, 5, 5, 15, 10, 12, 7, 3, 7, 11, 5, 4, 10]
open = [true, false, true, true, true, false, true, false, true, true, true, true, false, true, true]
trucks_used = [2, 0, 2, 4, 2, 0, 1, 0, 1, 1, 3, 3, 0, 1, 1]
truck_assigned = [1, 2, 1, 1, 4, 2, 2, 3, 1, 2, 1, 3, 2, 3, 2, 1, 1, 4, 1, 2, 1, 1, 2, 1, 1, 1, 3, 2, 3, 1]
obj = 4456
----------
source = [4, 11, 10, 9, 4, 3, 1, 12, 1, 11, 9, 12, 5, 4, 4, 5, 1, 4, 5, 5, 14, 10, 12, 7, 3, 7, 11, 15, 4, 10]
open = [true, false, true, true, true, false, true, false, true, true, true, true, false, true, true]
trucks_used = [2, 0, 2, 4, 2, 0, 1, 0, 1, 1, 3, 3, 0, 1, 1]
truck_assigned = [4, 2, 1, 1, 3, 2, 2, 3, 1, 1, 1, 3, 2, 1, 2, 1, 2, 4, 2, 1, 1, 1, 2, 1, 1, 1, 3, 1, 3, 1]
obj = 4455
----------
source = [11, 11, 10, 9, 4, 3, 1, 12, 1, 1, 9, 12, 5, 4, 4, 5, 1, 4, 5, 5, 14, 10, 12, 7, 3, 7, 11, 15, 4, 10]
open = [true, false, true, true, true, false, true, false, true, true, true, true, false, true, true]
trucks_used = [2, 0, 2, 4, 2, 0, 1, 0, 1, 1, 3, 3, 0, 1, 1]
truck_assigned = [1, 2, 1, 1, 4, 2, 2, 3, 1, 2, 1, 3, 2, 3, 2, 1, 1, 4, 2, 1, 1, 1, 2, 1, 1, 1, 3, 1, 3, 1]
obj = 4452
----------
source = [4, 11, 10, 9, 4, 3, 1, 12, 1, 1, 3, 12, 5, 4, 4, 5, 1, 4, 5, 5, 14, 10, 12, 7, 7, 11, 11, 15, 4, 10]
open = [true, false, true, true, true, false, true, false, true, true, true, true, false, true, true]
trucks_used = [2, 0, 2, 4, 2, 0, 1, 0, 1, 1, 3, 3, 0, 1, 1]
truck_assigned = [4, 2, 1, 1, 3, 2, 1, 3, 2, 1, 1, 3, 2, 1, 2, 1, 2, 4, 2, 1, 1, 1, 2, 1, 1, 1, 3, 1, 3, 1]
obj = 4451
----------
source = [11, 11, 10, 9, 4, 3, 1, 12, 1, 1, 9, 12, 5, 4, 4, 5, 1, 4, 5, 5, 14, 10, 12, 7, 7, 3, 11, 15, 4, 10]
open = [true, false, true, true, true, false, true, false, true, true, true, true, false, true, true]
trucks_used = [2, 0, 2, 4, 2, 0, 1, 0, 1, 1, 3, 3, 0, 1, 1]
truck_assigned = [1, 2, 1, 1, 4, 2, 1, 3, 2, 1, 1, 3, 2, 3, 2, 1, 2, 4, 2, 1, 1, 1, 2, 1, 1, 1, 3, 1, 3, 1]
obj = 4450
----------
source = [4, 11, 10, 9, 4, 3, 1, 12, 14, 1, 9, 12, 5, 4, 4, 5, 3, 4, 5, 5, 1, 10, 12, 7, 7, 11, 11, 3, 15, 10]
open = [true, false, true, true, true, false, true, false, true, true, true, true, false, true, true]
trucks_used = [2, 0, 2, 4, 2, 0, 1, 0, 1, 1, 3, 3, 0, 1, 1]
truck_assigned = [4, 2, 1, 1, 3, 2, 2, 3, 1, 2, 1, 3, 1, 1, 2, 2, 1, 4, 1, 2, 1, 1, 2, 1, 1, 1, 3, 1, 1, 1]
obj = 4449
----------
source = [11, 11, 10, 9, 4, 3, 1, 12, 14, 1, 9, 12, 5, 4, 4, 5, 1, 4, 5, 5, 1, 10, 12, 7, 7, 4, 11, 3, 15, 10]
open = [true, false, true, true, true, false, true, false, true, true, true, true, false, true, true]
trucks_used = [2, 0, 2, 4, 2, 0, 1, 0, 1, 1, 3, 3, 0, 1, 1]
truck_assigned = [1, 2, 1, 1, 4, 2, 2, 3, 1, 2, 1, 3, 1, 3, 2, 2, 1, 4, 1, 2, 1, 1, 2, 1, 1, 1, 3, 1, 1, 1]
obj = 4447
----------
source = [4, 11, 10, 9, 4, 3, 1, 12, 14, 1, 9, 12, 5, 4, 4, 5, 1, 4, 5, 5, 1, 10, 12, 7, 7, 11, 11, 3, 15, 10]
open = [true, false, true, true, true, false, true, false, true, true, true, true, false, true, true]
trucks_used = [2, 0, 2, 4, 2, 0, 1, 0, 1, 1, 3, 3, 0, 1, 1]
truck_assigned = [4, 2, 1, 1, 3, 2, 2, 3, 1, 2, 1, 3, 1, 4, 2, 2, 1, 3, 1, 2, 1, 1, 2, 1, 1, 1, 3, 1, 1, 1]
obj = 4445
----------
source = [4, 11, 10, 9, 4, 3, 1, 12, 1, 11, 9, 12, 5, 4, 4, 5, 1, 4, 5, 5, 14, 10, 12, 7, 7, 11, 11, 3, 15, 10]
open = [true, false, true, true, true, false, true, false, true, true, true, true, false, true, true]
trucks_used = [2, 0, 2, 4, 2, 0, 1, 0, 1, 1, 3, 3, 0, 1, 1]
truck_assigned = [4, 2, 1, 1, 3, 2, 1, 3, 2, 1, 1, 3, 1, 4, 2, 2, 2, 3, 1, 2, 1, 1, 2, 1, 1, 1, 3, 1, 1, 1]
obj = 4441
----------
source = [4, 11, 10, 9, 4, 3, 1, 12, 15, 11, 9, 12, 5, 4, 4, 5, 1, 4, 5, 5, 14, 10, 12, 7, 7, 11, 11, 3, 4, 10]
open = [true, false, true, true, true, false, true, false, true, true, true, true, false, true, true]
trucks_used = [2, 0, 2, 4, 2, 0, 1, 0, 1, 1, 3, 3, 0, 1, 1]
truck_assigned = [4, 2, 1, 1, 3, 2, 2, 3, 1, 1, 1, 3, 1, 4, 2, 2, 2, 3, 1, 2, 1, 1, 2, 1, 1, 1, 3, 1, 1, 1]
obj = 4440
----------
source = [4, 11, 10, 9, 4, 3, 1, 12, 15, 1, 9, 12, 5, 4, 4, 5, 3, 4, 5, 5, 14, 10, 12, 7, 7, 11, 11, 3, 4, 10]
open = [true, false, true, true, true, false, true, false, true, true, true, true, false, true, true]
trucks_used = [2, 0, 2, 4, 2, 0, 1, 0, 1, 1, 3, 3, 0, 1, 1]
truck_assigned = [4, 2, 1, 1, 3, 2, 2, 3, 1, 2, 1, 3, 1, 4, 2, 2, 1, 3, 1, 2, 1, 1, 2, 1, 1, 1, 3, 1, 1, 1]
obj = 4437
----------
source = [4, 11, 10, 9, 4, 3, 1, 12, 15, 1, 9, 12, 5, 4, 4, 5, 1, 4, 5, 5, 14, 10, 12, 7, 7, 11, 11, 3, 4, 10]
open = [true, false, true, true, true, false, true, false, true, true, true, true, false, true, true]
trucks_used = [2, 0, 2, 4, 2, 0, 1, 0, 1, 1, 3, 3, 0, 1, 1]
truck_assigned = [4, 2, 1, 1, 3, 2, 2, 3, 1, 2, 1, 3, 1, 4, 2, 2, 1, 3, 1, 2, 1, 1, 2, 1, 1, 1, 3, 1, 1, 1]
obj = 4433
----------
source = [4, 11, 10, 9, 4, 3, 1, 12, 15, 1, 9, 12, 5, 4, 4, 14, 3, 4, 5, 5, 1, 10, 12, 7, 7, 11, 11, 3, 4, 10]
open = [true, false, true, true, true, false, true, false, true, true, true, true, false, true, true]
trucks_used = [2, 0, 2, 4, 2, 0, 1, 0, 1, 1, 3, 3, 0, 1, 1]
truck_assigned = [4, 2, 1, 1, 3, 2, 2, 3, 1, 2, 1, 3, 2, 4, 2, 1, 1, 3, 1, 2, 1, 1, 2, 1, 1, 1, 3, 1, 1, 1]
obj = 4432
----------
source = [4, 11, 10, 9, 4, 3, 1, 12, 15, 1, 9, 12, 5, 4, 4, 14, 1, 4, 5, 5, 1, 10, 12, 7, 7, 11, 11, 3, 4, 10]
open = [true, false, true, true, true, false, true, false, true, true, true, true, false, true, true]
trucks_used = [2, 0, 2, 4, 2, 0, 1, 0, 1, 1, 3, 3, 0, 1, 1]
truck_assigned = [4, 2, 1, 1, 3, 2, 2, 3, 1, 2, 1, 3, 2, 4, 2, 1, 1, 3, 1, 2, 1, 1, 2, 1, 1, 1, 3, 1, 1, 1]
obj = 4428
----------
source = [4, 11, 10, 9, 12, 3, 1, 3, 15, 1, 9, 12, 5, 4, 4, 5, 1, 4, 5, 5, 1, 10, 12, 7, 14, 11, 11, 3, 4, 10]
open = [true, false, true, true, true, false, true, false, true, true, true, true, false, true, true]
trucks_used = [2, 0, 2, 4, 2, 0, 1, 0, 1, 1, 3, 3, 0, 1, 1]
truck_assigned = [4, 2, 1, 1, 3, 2, 2, 1, 1, 2, 1, 3, 1, 4, 2, 2, 1, 3, 1, 2, 1, 1, 2, 1, 1, 1, 3, 1, 3, 1]
obj = 4427
----------
source = [4, 11, 10, 9, 12, 3, 1, 3, 15, 11, 9, 12, 5, 4, 4, 5, 1, 4, 5, 5, 14, 10, 12, 7, 7, 11, 11, 3, 4, 10]
open = [true, false, true, true, true, false, true, false, true, true, true, true, false, true, true]
trucks_used = [2, 0, 2, 4, 2, 0, 1, 0, 1, 1, 3, 3, 0, 1, 1]
truck_assigned = [4, 2, 1, 1, 3, 2, 2, 1, 1, 1, 1, 3, 1, 4, 2, 2, 2, 3, 1, 2, 1, 1, 2, 1, 1, 1, 3, 1, 3, 1]
obj = 4426
----------
source = [4, 11, 10, 9, 12, 3, 1, 3, 15, 1, 9, 12, 5, 4, 4, 5, 1, 4, 5, 5, 14, 10, 12, 7, 7, 11, 11, 3, 4, 10]
open = [true, false, true, true, true, false, true, false, true, true, true, true, false, true, true]
trucks_used = [2, 0, 2, 4, 2, 0, 1, 0, 1, 1, 3, 3, 0, 1, 1]
truck_assigned = [4, 2, 1, 1, 3, 2, 2, 1, 1, 2, 1, 3, 1, 4, 2, 2, 1, 3, 1, 2, 1, 1, 2, 1, 1, 1, 3, 1, 3, 1]
obj = 4419
----------
source = [4, 11, 10, 9, 12, 3, 1, 3, 15, 1, 9, 12, 5, 4, 4, 14, 1, 4, 5, 5, 1, 10, 12, 7, 7, 11, 11, 3, 4, 10]
open = [true, false, true, true, true, false, true, false, true, true, true, true, false, true, true]
trucks_used = [2, 0, 2, 4, 2, 0, 1, 0, 1, 1, 3, 3, 0, 1, 1]
truck_assigned = [4, 2, 1, 1, 3, 2, 2, 1, 1, 2, 1, 3, 2, 4, 2, 1, 1, 3, 1, 2, 1, 1, 2, 1, 1, 1, 3, 1, 3, 1]
obj = 4414
----------
source = [4, 11, 10, 9, 12, 3, 1, 3, 15, 11, 9, 12, 5, 4, 4, 5, 1, 1, 5, 5, 14, 10, 12, 7, 7, 11, 11, 3, 4, 10]
open = [true, false, true, true, true, false, true, false, true, true, true, true, false, true, true]
trucks_used = [2, 0, 2, 4, 2, 0, 1, 0, 1, 1, 3, 3, 0, 1, 1]
truck_assigned = [4, 2, 1, 1, 3, 2, 2, 1, 1, 1, 1, 3, 1, 4, 2, 2, 2, 1, 1, 2, 1, 1, 2, 1, 1, 1, 3, 1, 3, 1]
obj = 4409
----------
source = [4, 11, 10, 9, 12, 3, 1, 3, 15, 1, 9, 12, 5, 4, 4, 5, 1, 1, 5, 5, 14, 10, 12, 7, 7, 11, 11, 3, 4, 10]
open = [true, false, true, true, true, false, true, false, true, true, true, true, false, true, true]
trucks_used = [2, 0, 2, 4, 2, 0, 1, 0, 1, 1, 3, 3, 0, 1, 1]
truck_assigned = [4, 2, 1, 1, 3, 2, 2, 1, 1, 1, 1, 3, 1, 4, 2, 2, 2, 1, 1, 2, 1, 1, 2, 1, 1, 1, 3, 1, 3, 1]
obj = 4402
----------
source = [4, 11, 10, 4, 12, 3, 1, 3, 1, 9, 9, 12, 5, 4, 4, 14, 1, 1, 5, 5, 15, 10, 12, 7, 7, 11, 11, 3, 4, 10]
open = [true, false, true, true, true, false, true, false, true, true, true, true, false, true, true]
trucks_used = [2, 0, 2, 4, 2, 0, 1, 0, 1, 1, 3, 3, 0, 1, 1]
truck_assigned = [4, 2, 1, 3, 3, 2, 2, 1, 1, 1, 1, 3, 2, 4, 2, 1, 1, 2, 1, 2, 1, 1, 2, 1, 1, 1, 3, 1, 3, 1]
obj = 4399
----------
source = [4, 11, 10, 4, 12, 3, 1, 3, 15, 9, 9, 12, 5, 4, 4, 5, 11, 1, 5, 5, 14, 10, 12, 7, 7, 4, 11, 3, 4, 10]
open = [true, false, true, true, true, false, true, false, true, true, true, true, false, true, true]
trucks_used = [1, 0, 2, 4, 2, 0, 1, 0, 1, 1, 3, 3, 0, 1, 1]
truck_assigned = [4, 1, 1, 1, 3, 2, 1, 1, 1, 1, 1, 3, 1, 3, 2, 2, 2, 1, 1, 2, 1, 1, 2, 1, 1, 4, 3, 1, 4, 1]
obj = 4398
----------
source = [4, 11, 10, 4, 12, 3, 1, 3, 15, 9, 9, 12, 5, 4, 4, 5, 1, 11, 5, 5, 14, 10, 12, 7, 7, 4, 11, 3, 4, 10]
open = [true, false, true, true, true, false, true, false, true, true, true, true, false, true, true]
trucks_used = [1, 0, 2, 4, 2, 0, 1, 0, 1, 1, 3, 3, 0, 1, 1]
truck_assigned = [4, 1, 1, 4, 3, 2, 1, 1, 1, 1, 1, 3, 1, 3, 2, 2, 1, 3, 1, 2, 1, 1, 2, 1, 1, 1, 2, 1, 3, 1]
obj = 4395
----------
source = [11, 11, 10, 9, 12, 14, 4, 3, 1, 11, 9, 12, 5, 15, 5, 14, 1, 11, 5, 5, 15, 10, 12, 7, 7, 11, 11, 3, 4, 10]
open = [true, false, true, true, true, false, true, false, true, true, true, true, false, true, true]
trucks_used = [1, 0, 1, 1, 2, 0, 1, 0, 1, 1, 6, 3, 0, 1, 1]
truck_assigned = [2, 3, 1, 1, 3, 1, 1, 1, 1, 6, 1, 3, 1, 1, 2, 1, 1, 6, 1, 2, 1, 1, 2, 1, 1, 5, 4, 1, 1, 1]
obj = 4394
----------
source = [11, 11, 10, 9, 12, 11, 4, 3, 1, 11, 9, 12, 5, 15, 5, 14, 1, 11, 5, 5, 15, 10, 12, 7, 7, 11, 11, 3, 4, 10]
open = [true, false, true, true, true, false, true, false, true, true, true, true, false, true, true]
trucks_used = [1, 0, 1, 1, 2, 0, 1, 0, 1, 1, 6, 3, 0, 1, 1]
truck_assigned = [4, 3, 1, 1, 3, 2, 1, 1, 1, 6, 1, 3, 1, 1, 2, 1, 1, 2, 1, 2, 1, 1, 2, 1, 1, 6, 5, 1, 1, 1]
obj = 4374
----------
source = [4, 4, 10, 9, 4, 3, 4, 3, 14, 11, 9, 12, 5, 1, 15, 5, 1, 11, 5, 5, 15, 10, 12, 7, 7, 12, 12, 3, 4, 10]
open = [true, false, true, true, true, false, true, false, true, true, true, true, false, true, true]
trucks_used = [1, 0, 2, 2, 2, 0, 2, 0, 1, 1, 1, 3, 0, 1, 1]
truck_assigned = [1, 1, 1, 1, 1, 2, 2, 1, 1, 1, 1, 3, 1, 1, 1, 2, 1, 1, 1, 2, 1, 1, 2, 2, 2, 3, 1, 1, 2, 1]
obj = 4370
----------
source = [4, 4, 10, 9, 4, 11, 4, 12, 14, 1, 9, 12, 5, 15, 15, 5, 3, 11, 5, 5, 1, 10, 12, 7, 7, 12, 12, 3, 4, 10]
open = [true, false, true, true, true, false, true, false, true, true, true, true, false, true, true]
trucks_used = [1, 0, 1, 2, 2, 0, 2, 0, 1, 1, 1, 3, 0, 1, 1]
truck_assigned = [1, 1, 1, 1, 1, 1, 2, 2, 1, 1, 1, 1, 1, 1, 1, 2, 1, 1, 1, 2, 1, 1, 3, 2, 2, 2, 1, 1, 2, 1]
obj = 4357
----------
source = [4, 4, 10, 9, 4, 11, 1, 3, 1, 1, 9, 12, 5, 4, 15, 14, 1, 11, 12, 5, 15, 10, 12, 7, 7, 12, 12, 3, 4, 10]
open = [true, false, true, true, true, false, true, false, true, true, true, true, false, true, true]
trucks_used = [2, 0, 1, 2, 1, 0, 2, 0, 1, 1, 1, 3, 0, 1, 1]
truck_assigned = [1, 2, 1, 1, 2, 1, 1, 1, 2, 1, 1, 3, 1, 1, 1, 1, 2, 1, 3, 1, 1, 1, 1, 2, 2, 3, 2, 1, 2, 1]
obj = 4353
----------
source = [4, 4, 10, 9, 4, 11, 4, 3, 1, 1, 9, 12, 5, 15, 15, 14, 1, 11, 12, 5, 1, 10, 12, 7, 7, 12, 12, 3, 4, 10]
open = [true, false, true, true, true, false, true, false, true, true, true, true, false, true, true]
trucks_used = [2, 0, 1, 2, 1, 0, 2, 0, 1, 1, 1, 3, 0, 1, 1]
truck_assigned = [2, 2, 1, 1, 2, 1, 1, 1, 2, 1, 1, 3, 1, 1, 1, 1, 2, 1, 3, 1, 1, 1, 1, 2, 2, 3, 2, 1, 1, 1]
obj = 4350
----------
source = [4, 4, 10, 9, 4, 11, 4, 3, 1, 1, 9, 12, 5, 15, 15, 5, 1, 11, 12, 1, 14, 10, 12, 7, 7, 12, 12, 3, 4, 10]
open = [true, false, true, true, true, false, true, false, true, true, true, true, false, true, true]
trucks_used = [2, 0, 1, 2, 1, 0, 1, 0, 1, 1, 1, 3, 0, 1, 1]
truck_assigned = [2, 2, 1, 1, 2, 1, 1, 1, 2, 1, 1, 3, 1, 1, 1, 1, 2, 1, 3, 1, 1, 1, 1, 1, 1, 3, 2, 1, 1, 1]
obj = 4349
----------
source = [4, 4, 10, 9, 4, 11, 4, 3, 1, 1, 9, 12, 5, 15, 15, 14, 1, 11, 12, 5, 1, 10, 12, 7, 7, 3, 12, 3, 4, 10]
open = [true, false, true, true, true, false, true, false, true, true, true, true, false, true, true]
trucks_used = [2, 0, 2, 2, 1, 0, 1, 0, 1, 1, 1, 3, 0, 1, 1]
truck_assigned = [2, 2, 1, 1, 2, 1, 1, 2, 2, 1, 1, 3, 1, 1, 1, 1, 2, 1, 2, 1, 1, 1, 1, 1, 1, 1, 3, 2, 1, 1]
obj = 4345
----------
source = [4, 4, 10, 9, 4, 11, 4, 12, 1, 1, 9, 12, 5, 15, 15, 5, 1, 11, 5, 5, 1, 10, 12, 7, 14, 7, 12, 3, 4, 10]
open = [true, false, true, true, true, false, true, false, true, true, true, true, false, true, true]
trucks_used = [2, 0, 1, 2, 2, 0, 1, 0, 1, 1, 1, 3, 0, 1, 1]
truck_assigned = [2, 2, 1, 1, 2, 1, 1, 2, 2, 1, 1, 2, 2, 1, 1, 1, 2, 1, 2, 1, 1, 1, 3, 1, 1, 1, 1, 1, 1, 1]
obj = 4337
----------
source = [4, 4, 10, 9, 4, 11, 4, 3, 1, 1, 9, 12, 5, 15, 15, 5, 1, 11, 5, 5, 1, 10, 12, 7, 14, 7, 12, 3, 4, 10]
open = [true, false, true, true, true, false, true, false, true, true, true, true, false, true, true]
trucks_used = [2, 0, 1, 2, 2, 0, 1, 0, 1, 1, 1, 3, 0, 1, 1]
truck_assigned = [2, 2, 1, 1, 2, 1, 1, 1, 2, 1, 1, 1, 1, 1, 1, 2, 2, 1, 1, 2, 1, 1, 3, 1, 1, 1, 2, 1, 1, 1]
obj = 4331
----------
source = [4, 4, 10, 9, 4, 11, 4, 3, 1, 1, 9, 12, 5, 15, 15, 14, 1, 11, 12, 5, 1, 10, 12, 7, 7, 12, 3, 3, 4, 10]
open = [true, false, true, true, true, false, true, false, true, true, true, true, false, true, true]
trucks_used = [2, 0, 2, 2, 1, 0, 1, 0, 1, 1, 1, 3, 0, 1, 1]
truck_assigned = [2, 2, 1, 1, 2, 1, 1, 1, 2, 1, 1, 1, 1, 1, 1, 1, 2, 1, 2, 1, 1, 1, 3, 1, 1, 1, 2, 1, 1, 1]
obj = 4328
----------
source = [4, 4, 10, 9, 4, 14, 4, 3, 1, 11, 9, 12, 5, 15, 15, 14, 1, 11, 12, 5, 1, 10, 12, 7, 7, 12, 12, 3, 4, 10]
open = [true, false, true, true, true, false, true, false, true, true, true, true, false, true, true]
trucks_used = [2, 0, 1, 2, 1, 0, 1, 0, 1, 1, 1, 3, 0, 1, 1]
truck_assigned = [2, 2, 1, 1, 2, 1, 1, 1, 2, 1, 1, 2, 1, 1, 1, 1, 2, 1, 1, 1, 1, 1, 3, 1, 1, 1, 2, 1, 1, 1]
obj = 4327
----------
source = [4, 4, 10, 9, 12, 11, 4, 3, 1, 1, 9, 12, 5, 15, 15, 14, 1, 11, 4, 5, 1, 10, 14, 7, 7, 12, 12, 3, 4, 10]
open = [true, false, true, true, true, false, true, false, true, true, true, true, false, true, true]
trucks_used = [2, 0, 1, 2, 1, 0, 1, 0, 1, 1, 1, 3, 0, 1, 1]
truck_assigned = [1, 1, 1, 1, 2, 1, 2, 1, 2, 1, 1, 3, 1, 1, 1, 1, 2, 1, 1, 1, 1, 1, 1, 1, 1, 2, 3, 1, 2, 1]
obj = 4325
----------
source = [4, 4, 10, 9, 4, 11, 4, 3, 1, 1, 9, 12, 5, 15, 15, 14, 1, 11, 12, 5, 1, 10, 14, 7, 7, 12, 12, 3, 4, 10]
open = [true, false, true, true, true, false, true, false, true, true, true, true, false, true, true]
trucks_used = [2, 0, 1, 2, 1, 0, 1, 0, 1, 1, 1, 3, 0, 1, 1]
truck_assigned = [1, 1, 1, 1, 1, 1, 2, 1, 2, 1, 1, 3, 1, 1, 1, 1, 2, 1, 2, 1, 1, 1, 1, 1, 1, 2, 3, 1, 2, 1]
obj = 4322
----------
source = [4, 4, 10, 9, 4, 14, 4, 3, 1, 1, 9, 12, 5, 15, 15, 14, 1, 11, 12, 5, 1, 10, 12, 7, 7, 12, 12, 3, 4, 10]
open = [true, false, true, true, true, false, true, false, true, true, true, true, false, true, true]
trucks_used = [2, 0, 1, 2, 1, 0, 1, 0, 1, 1, 1, 3, 0, 1, 1]
truck_assigned = [1, 1, 1, 1, 1, 1, 2, 1, 2, 1, 1, 3, 1, 1, 1, 1, 2, 1, 2, 1, 1, 1, 1, 1, 1, 2, 3, 1, 2, 1]
obj = 4320
----------
source = [4, 4, 10, 9, 4, 11, 4, 3, 1, 1, 9, 12, 5, 15, 15, 14, 1, 11, 12, 5, 1, 10, 12, 7, 7, 12, 12, 3, 4, 10]
open = [true, false, true, true, true, false, true, false, true, true, true, true, false, true, true]
trucks_used = [2, 0, 1, 2, 1, 0, 1, 0, 1, 1, 1, 3, 0, 1, 1]
truck_assigned = [1, 1, 1, 1, 1, 1, 2, 1, 2, 1, 1, 3, 1, 1, 1, 1, 2, 1, 2, 1, 1, 1, 1, 1, 1, 2, 3, 1, 2, 1]
obj = 4300
----------
source = [11, 10, 10, 9, 12, 11, 1, 12, 15, 9, 9, 12, 5, 1, 15, 14, 1, 11, 5, 5, 15, 10, 14, 7, 14, 7, 3, 5, 3, 10]
open = [true, false, true, false, true, false, true, false, true, true, true, true, false, true, true]
trucks_used = [2, 0, 1, 0, 2, 0, 1, 0, 2, 2, 2, 3, 0, 2, 2]
truck_assigned = [1, 2, 1, 2, 2, 2, 2, 1, 1, 1, 2, 3, 2, 1, 2, 1, 1, 2, 1, 2, 2, 1, 1, 1, 2, 1, 1, 2, 1, 2]
obj = 4299
----------
source = [11, 10, 10, 9, 12, 11, 1, 14, 15, 9, 9, 12, 5, 1, 15, 14, 1, 11, 5, 5, 15, 10, 12, 7, 14, 7, 3, 5, 3, 10]
open = [true, false, true, false, true, false, true, false, true, true, true, true, false, true, true]
trucks_used = [2, 0, 1, 0, 2, 0, 1, 0, 2, 2, 2, 3, 0, 2, 2]
truck_assigned = [2, 2, 1, 2, 3, 1, 2, 1, 1, 1, 2, 3, 2, 1, 2, 1, 1, 1, 2, 1, 2, 1, 2, 1, 2, 1, 1, 1, 1, 2]
obj = 4298
----------
source = [11, 9, 10, 9, 12, 3, 1, 12, 14, 11, 9, 12, 5, 15, 15, 14, 1, 11, 5, 5, 1, 10, 10, 7, 7, 12, 10, 5, 15, 10]
open = [true, false, true, false, true, false, true, false, true, true, true, true, false, true, true]
trucks_used = [2, 0, 1, 0, 2, 0, 1, 0, 2, 2, 2, 3, 0, 2, 2]
truck_assigned = [2, 2, 1, 1, 3, 1, 2, 2, 2, 1, 1, 3, 2, 2, 2, 1, 2, 1, 2, 1, 1, 2, 2, 1, 1, 2, 1, 1, 1, 2]
obj = 4294
----------
source = [11, 9, 10, 9, 12, 3, 1, 12, 14, 1, 9, 12, 5, 1, 15, 14, 1, 11, 5, 5, 15, 10, 14, 7, 7, 12, 10, 5, 15, 10]
open = [true, false, true, false, true, false, true, false, true, true, true, true, false, true, true]
trucks_used = [2, 0, 1, 0, 2, 0, 1, 0, 2, 2, 2, 3, 0, 2, 2]
truck_assigned = [2, 2, 2, 1, 3, 1, 2, 2, 2, 2, 1, 3, 2, 1, 2, 1, 1, 1, 2, 1, 2, 2, 1, 1, 1, 2, 1, 1, 1, 2]
obj = 4293
----------
source = [11, 9, 10, 9, 12, 3, 1, 12, 14, 11, 9, 12, 5, 1, 15, 14, 1, 11, 5, 5, 15, 10, 10, 7, 7, 12, 10, 5, 15, 10]
open = [true, false, true, false, true, false, true, false, true, true, true, true, false, true, true]
trucks_used = [2, 0, 1, 0, 2, 0, 1, 0, 2, 2, 2, 3, 0, 2, 2]
truck_assigned = [2, 2, 1, 1, 3, 1, 2, 2, 2, 1, 1, 3, 2, 1, 2, 1, 2, 1, 2, 1, 2, 2, 2, 1, 1, 2, 1, 1, 1, 2]
obj = 4289
----------
source = [11, 9, 10, 9, 12, 3, 1, 12, 14, 1, 9, 12, 5, 15, 15, 14, 1, 11, 5, 5, 1, 10, 10, 7, 7, 12, 10, 5, 15, 10]
open = [true, false, true, false, true, false, true, false, true, true, true, true, false, true, true]
trucks_used = [2, 0, 1, 0, 2, 0, 1, 0, 2, 2, 2, 3, 0, 2, 2]
truck_assigned = [2, 2, 1, 1, 3, 1, 2, 2, 2, 2, 1, 3, 1, 2, 2, 1, 1, 1, 2, 1, 1, 2, 2, 1, 1, 2, 1, 2, 1, 2]
obj = 4287
----------
source = [11, 9, 10, 9, 12, 3, 1, 12, 14, 1, 9, 12, 5, 1, 15, 14, 1, 11, 5, 5, 15, 10, 10, 7, 7, 12, 10, 5, 15, 10]
open = [true, false, true, false, true, false, true, false, true, true, true, true, false, true, true]
trucks_used = [2, 0, 1, 0, 2, 0, 1, 0, 2, 2, 2, 3, 0, 2, 2]
truck_assigned = [2, 2, 1, 1, 3, 1, 2, 2, 2, 2, 1, 3, 2, 1, 2, 1, 1, 1, 2, 1, 2, 2, 2, 1, 1, 2, 1, 1, 1, 2]
obj = 4282
----------
source = [11, 9, 10, 9, 12, 3, 1, 12, 1, 1, 9, 12, 5, 15, 15, 14, 1, 11, 5, 5, 14, 10, 10, 7, 7, 12, 10, 5, 15, 10]
open = [true, false, true, false, true, false, true, false, true, true, true, true, false, true, true]
trucks_used = [2, 0, 1, 0, 2, 0, 1, 0, 2, 2, 2, 3, 0, 2, 2]
truck_assigned = [2, 2, 1, 1, 3, 1, 2, 2, 1, 2, 1, 3, 1, 2, 2, 2, 1, 1, 2, 1, 1, 2, 2, 1, 1, 2, 1, 2, 1, 2]
obj = 4276
----------
source = [11, 9, 10, 9, 12, 11, 1, 3, 14, 1, 9, 12, 5, 1, 15, 5, 1, 11, 5, 5, 15, 10, 12, 7, 14, 7, 10, 3, 15, 10]
open = [true, false, true, false, true, false, true, false, true, true, true, true, false, true, true]
trucks_used = [2, 0, 1, 0, 2, 0, 1, 0, 2, 2, 2, 3, 0, 2, 2]
truck_assigned = [2, 2, 2, 1, 3, 1, 2, 1, 2, 2, 1, 3, 2, 1, 2, 1, 1, 1, 2, 1, 2, 2, 1, 1, 1, 1, 1, 1, 1, 2]
obj = 4269
----------
source = [11, 9, 10, 9, 12, 11, 1, 3, 1, 1, 9, 12, 5, 15, 15, 5, 1, 11, 5, 5, 14, 10, 12, 7, 14, 7, 10, 3, 15, 10]
open = [true, false, true, false, true, false, true, false, true, true, true, true, false, true, true]
trucks_used = [2, 0, 1, 0, 2, 0, 1, 0, 2, 2, 2, 3, 0, 2, 2]
truck_assigned = [2, 2, 2, 1, 3, 1, 2, 1, 1, 2, 1, 3, 2, 2, 2, 1, 1, 1, 2, 1, 1, 2, 2, 1, 2, 1, 1, 1, 1, 2]
obj = 4263
----------
source = [9, 10, 10, 9, 12, 11, 1, 3, 14, 11, 9, 12, 5, 15, 15, 14, 1, 11, 5, 5, 1, 5, 12, 7, 7, 11, 10, 3, 15, 10]
open = [true, false, true, false, true, false, true, false, true, true, true, true, false, true, true]
trucks_used = [2, 0, 1, 0, 2, 0, 1, 0, 2, 2, 2, 3, 0, 2, 2]
truck_assigned = [1, 1, 1, 2, 3, 1, 2, 1, 2, 2, 2, 3, 2, 2, 2, 1, 2, 2, 2, 1, 1, 1, 2, 1, 1, 1, 2, 1, 1, 2]
obj = 4261
----------
source = [9, 10, 10, 9, 12, 11, 1, 3, 14, 1, 9, 12, 5, 15, 15, 14, 1, 11, 5, 5, 1, 5, 12, 7, 7, 11, 10, 3, 15, 10]
open = [true, false, true, false, true, false, true, false, true, true, true, true, false, true, true]
trucks_used = [2, 0, 1, 0, 2, 0, 1, 0, 2, 2, 2, 3, 0, 2, 2]
truck_assigned = [1, 1, 1, 2, 3, 2, 2, 1, 2, 2, 2, 3, 2, 2, 2, 1, 1, 2, 2, 1, 1, 1, 2, 1, 1, 1, 2, 1, 1, 2]
obj = 4254
----------
source = [9, 10, 10, 9, 12, 11, 1, 3, 1, 11, 9, 12, 5, 15, 15, 14, 1, 11, 5, 5, 14, 5, 12, 7, 7, 11, 10, 3, 15, 10]
open = [true, false, true, false, true, false, true, false, true, true, true, true, false, true, true]
trucks_used = [2, 0, 1, 0, 2, 0, 1, 0, 2, 2, 2, 3, 0, 2, 2]
truck_assigned = [1, 1, 1, 2, 3, 1, 1, 1, 2, 2, 2, 3, 2, 2, 2, 1, 2, 2, 2, 1, 2, 1, 1, 1, 1, 1, 2, 1, 1, 2]
obj = 4250
----------
source = [9, 10, 10, 9, 12, 11, 1, 3, 1, 1, 9, 12, 5, 15, 15, 14, 1, 11, 5, 5, 14, 5, 12, 7, 7, 11, 10, 3, 15, 10]
open = [true, false, true, false, true, false, true, false, true, true, true, true, false, true, true]
trucks_used = [2, 0, 1, 0, 2, 0, 1, 0, 2, 2, 2, 3, 0, 2, 2]
truck_assigned = [1, 1, 1, 2, 3, 2, 1, 1, 2, 1, 2, 3, 2, 2, 2, 1, 2, 2, 2, 1, 2, 1, 2, 1, 1, 1, 2, 1, 1, 2]
obj = 4243
----------
source = [9, 11, 10, 9, 12, 11, 1, 3, 1, 1, 9, 12, 5, 15, 15, 5, 1, 11, 5, 5, 14, 10, 12, 7, 14, 7, 10, 3, 15, 10]
open = [true, false, true, false, true, false, true, false, true, true, true, true, false, true, true]
trucks_used = [2, 0, 1, 0, 2, 0, 1, 0, 2, 2, 2, 3, 0, 2, 2]
truck_assigned = [2, 1, 1, 1, 3, 2, 1, 1, 2, 1, 1, 3, 2, 2, 2, 1, 2, 2, 2, 1, 2, 1, 2, 1, 1, 1, 2, 1, 1, 2]
obj = 4235
----------
source = [9, 10, 10, 9, 12, 11, 1, 3, 1, 1, 9, 12, 5, 15, 15, 5, 1, 11, 5, 5, 14, 10, 12, 7, 14, 7, 11, 3, 15, 10]
open = [true, false, true, false, true, false, true, false, true, true, true, true, false, true, true]
trucks_used = [2, 0, 1, 0, 2, 0, 1, 0, 2, 2, 2, 3, 0, 2, 2]
truck_assigned = [2, 1, 2, 1, 3, 2, 1, 1, 2, 1, 1, 3, 2, 2, 2, 1, 2, 2, 2, 1, 2, 2, 2, 1, 1, 1, 1, 1, 1, 2]
obj = 4234
----------
source = [9, 11, 10, 9, 12, 11, 1, 3, 1, 1, 9, 12, 5, 15, 15, 14, 1, 11, 12, 5, 14, 10, 14, 7, 7, 12, 10, 3, 15, 10]
open = [true, false, true, false, true, false, true, false, true, true, true, true, false, true, true]
trucks_used = [2, 0, 1, 0, 1, 0, 1, 0, 2, 2, 2, 3, 0, 2, 2]
truck_assigned = [2, 1, 2, 1, 2, 2, 1, 1, 2, 1, 1, 3, 1, 2, 2, 1, 2, 2, 3, 1, 2, 2, 1, 1, 1, 3, 1, 1, 1, 2]
obj = 4226
----------
source = [9, 11, 10, 9, 12, 11, 1, 3, 1, 1, 9, 12, 5, 15, 15, 14, 5, 11, 12, 5, 14, 10, 10, 7, 7, 12, 10, 3, 15, 10]
open = [true, false, true, false, true, false, true, false, true, true, true, true, false, true, true]
trucks_used = [2, 0, 1, 0, 1, 0, 1, 0, 2, 2, 2, 3, 0, 2, 2]
truck_assigned = [2, 1, 1, 1, 2, 2, 1, 1, 2, 1, 1, 3, 1, 2, 2, 1, 1, 2, 3, 1, 2, 2, 2, 1, 1, 3, 1, 1, 1, 2]
obj = 4225
----------
source = [9, 11, 10, 9, 12, 11, 1, 3, 1, 1, 9, 12, 5, 15, 15, 14, 1, 11, 12, 5, 14, 10, 10, 7, 7, 12, 10, 3, 15, 10]
open = [true, false, true, false, true, false, true, false, true, true, true, true, false, true, true]
trucks_used = [2, 0, 1, 0, 1, 0, 1, 0, 2, 2, 2, 3, 0, 2, 2]
truck_assigned = [2, 1, 1, 1, 3, 2, 1, 1, 2, 1, 1, 3, 1, 2, 2, 1, 2, 2, 2, 1, 2, 2, 2, 1, 1, 1, 1, 1, 1, 2]
obj = 4215
----------
source = [9, 11, 10, 9, 7, 11, 1, 12, 14, 1, 9, 12, 5, 15, 15, 5, 1, 11, 5, 5, 1, 10, 12, 7, 14, 12, 12, 3, 3, 10]
open = [true, false, true, false, true, false, true, false, true, true, true, true, false, true, true]
trucks_used = [2, 0, 1, 0, 2, 0, 1, 0, 2, 1, 2, 3, 0, 2, 1]
truck_assigned = [2, 1, 1, 1, 1, 2, 2, 2, 2, 1, 1, 1, 2, 1, 1, 1, 2, 2, 2, 1, 1, 1, 3, 1, 1, 2, 1, 1, 1, 1]
obj = 4210
----------
source = [9, 11, 10, 9, 7, 11, 1, 12, 1, 1, 9, 12, 5, 15, 15, 5, 1, 11, 5, 5, 14, 10, 12, 7, 14, 12, 12, 3, 3, 10]
open = [true, false, true, false, true, false, true, false, true, true, true, true, false, true, true]
trucks_used = [2, 0, 1, 0, 2, 0, 1, 0, 2, 1, 2, 3, 0, 2, 1]
truck_assigned = [2, 2, 1, 1, 1, 1, 2, 2, 1, 2, 1, 1, 2, 1, 1, 1, 1, 1, 2, 1, 1, 1, 3, 1, 2, 2, 1, 1, 1, 1]
obj = 4199
----------
source = [9, 11, 10, 9, 12, 11, 1, 3, 1, 1, 9, 12, 5, 15, 15, 5, 1, 11, 5, 5, 14, 10, 12, 7, 14, 7, 3, 3, 3, 10]
open = [true, false, true, false, true, false, true, false, true, true, true, true, false, true, true]
trucks_used = [2, 0, 2, 0, 2, 0, 1, 0, 2, 1, 2, 3, 0, 2, 1]
truck_assigned = [2, 2, 1, 1, 2, 1, 2, 2, 1, 2, 1, 2, 2, 1, 1, 1, 1, 1, 2, 1, 1, 1, 3, 1, 2, 1, 1, 2, 1, 1]
obj = 4189
----------
source = [9, 11, 10, 9, 12, 11, 1, 3, 1, 1, 9, 12, 5, 15, 15, 14, 1, 11, 12, 5, 14, 10, 14, 7, 7, 12, 3, 3, 3, 10]
open = [true, false, true, false, true, false, true, false, true, true, true, true, false, true, true]
trucks_used = [2, 0, 2, 0, 1, 0, 1, 0, 2, 1, 2, 3, 0, 2, 1]
truck_assigned = [2, 2, 1, 1, 3, 1, 2, 2, 1, 2, 1, 3, 1, 1, 1, 2, 1, 1, 2, 1, 1, 1, 2, 1, 1, 2, 1, 2, 1, 1]
obj = 4180
----------
