+ /usr/bin/timeout 600 /usr/bin/time -v mzn-chuffed lbbd-datasets/planningandscheduling/cost-insts/model.mzn lbbd-datasets/planningandscheduling/cost-insts/e50j10m2.dzn
% No search annotation given. Defaulting to VSIDS!
obj = 2044
----------
obj = 1916
----------
obj = 1899
----------
obj = 1895
----------
obj = 1890
----------
obj = 1885
----------
obj = 1880
----------
obj = 1875
----------
obj = 1874
----------
obj = 1856
----------
obj = 1851
----------
obj = 1836
----------
obj = 1813
----------
obj = 1809
----------
obj = 1808
----------
obj = 1761
----------
obj = 1748
----------
obj = 1743
----------
obj = 1736
----------
obj = 1726
----------
obj = 1721
----------
obj = 1717
----------
obj = 1698
----------
obj = 1693
----------
obj = 1692
----------
obj = 1684
----------
obj = 1682
----------
obj = 1681
----------
obj = 1671
----------
obj = 1667
----------
obj = 1666
----------
obj = 1658
----------
obj = 1649
----------
obj = 1629
----------
obj = 1627
----------
obj = 1613
----------
obj = 1610
----------
obj = 1590
----------
obj = 1583
----------
obj = 1559
----------
obj = 1556
----------
obj = 1555
----------
obj = 1543
----------
obj = 1534
----------
obj = 1532
----------
obj = 1530
----------
obj = 1526
----------
obj = 1524
----------
obj = 1522
----------
obj = 1521
----------
obj = 1512
----------
obj = 1507
----------
obj = 1493
----------
obj = 1488
----------
obj = 1485
----------
obj = 1483
----------
obj = 1480
----------
obj = 1479
----------
obj = 1477
----------
obj = 1476
----------
obj = 1474
----------
obj = 1459
----------
obj = 1456
----------
obj = 1442
----------
obj = 1441
----------
obj = 1438
----------
obj = 1434
----------
obj = 1426
----------
obj = 1421
----------
obj = 1408
----------
obj = 1396
----------
obj = 1381
----------
obj = 1380
----------
obj = 1376
----------
obj = 1374
----------
obj = 1367
----------
obj = 1356
----------
obj = 1333
----------
obj = 1324
----------
obj = 1321
----------
obj = 1317
----------
obj = 1304
----------
obj = 1275
----------
obj = 1274
----------
obj = 1263
----------
obj = 1262
----------
obj = 1260
----------
obj = 1259
----------
obj = 1258
----------
obj = 1257
----------
obj = 1255
----------
obj = 1254
----------
obj = 1253
----------
obj = 1250
----------
obj = 1248
----------
obj = 1247
----------
obj = 1246
----------
obj = 1245
----------
obj = 1244
----------
obj = 1243
----------
obj = 1241
----------
obj = 1239
----------
obj = 1237
----------
obj = 1235
----------
obj = 1234
----------
obj = 1232
----------
obj = 1229
----------
obj = 1228
----------
obj = 1227
----------
obj = 1226
----------
obj = 1225
----------
obj = 1224
----------
obj = 1223
----------
obj = 1214
----------
obj = 1210
----------
obj = 1207
----------
obj = 1189
----------
obj = 1187
----------
obj = 1185
----------
obj = 1184
----------
obj = 1183
----------
obj = 1182
----------
obj = 1181
----------
obj = 1178
----------
obj = 1177
----------
obj = 1176
----------
obj = 1174
----------
obj = 1173
----------
obj = 1172
----------
obj = 1168
----------
obj = 1167
----------
obj = 1166
----------
obj = 1165
----------
obj = 1164
----------
obj = 1162
----------
obj = 1161
----------
obj = 1159
----------
obj = 1158
----------
obj = 1157
----------
obj = 1156
----------
obj = 1155
----------
obj = 1154
----------
obj = 1153
----------
obj = 1152
----------
obj = 1151
----------
obj = 1150
----------
obj = 1146
----------
obj = 1145
----------
obj = 1144
----------
obj = 1143
----------
obj = 1142
----------
obj = 1140
----------
obj = 1139
----------
obj = 1138
----------
obj = 1137
----------
obj = 1136
----------
obj = 1135
----------
obj = 1134
----------
obj = 1132
----------
obj = 1131
----------
obj = 1130
----------
obj = 1129
----------
obj = 1128
----------
obj = 1127
----------
obj = 1123
----------
obj = 1121
----------
obj = 1120
----------
obj = 1119
----------
obj = 1116
----------
obj = 1115
----------
obj = 1114
----------
obj = 1113
----------
obj = 1112
----------
obj = 1111
----------
obj = 1108
----------
obj = 1106
----------
obj = 1105
----------
obj = 1104
----------
obj = 1103
----------
obj = 1101
----------
obj = 1100
----------
obj = 1099
----------
obj = 1098
----------
obj = 1097
----------
obj = 1096
----------
obj = 1095
----------
obj = 1094
----------
obj = 1092
----------
obj = 1091
----------
obj = 1090
----------
obj = 1089
----------
obj = 1088
----------
obj = 1087
----------
obj = 1086
----------
obj = 1085
----------
obj = 1084
----------
obj = 1083
----------
obj = 1080
----------
obj = 1079
----------
obj = 1078
----------
obj = 1077
----------
obj = 1076
----------
==========
	Command being timed: "mzn-chuffed lbbd-datasets/planningandscheduling/cost-insts/model.mzn lbbd-datasets/planningandscheduling/cost-insts/e50j10m2.dzn"
	User time (seconds): 0.81
	System time (seconds): 0.02
	Percent of CPU this job got: 0%
	Elapsed (wall clock) time (h:mm:ss or m:ss): 2:43.81
	Average shared text size (kbytes): 0
	Average unshared data size (kbytes): 0
	Average stack size (kbytes): 0
	Average total size (kbytes): 0
	Maximum resident set size (kbytes): 45984
	Average resident set size (kbytes): 0
	Major (requiring I/O) page faults: 0
	Minor (reclaiming a frame) page faults: 4324
	Voluntary context switches: 209
	Involuntary context switches: 6
	Swaps: 0
	File system inputs: 0
	File system outputs: 656
	Socket messages sent: 0
	Socket messages received: 0
	Signals delivered: 0
	Page size (bytes): 4096
	Exit status: 0
