+ /usr/bin/timeout 600 /usr/bin/time -v mzn-chuffed lbbd-datasets/sscplp/trucks-dzn/model.mzn lbbd-datasets/sscplp/trucks-dzn/p13-l100-c150-uncorrelated.dzn
% No search annotation given. Defaulting to VSIDS!
source = [15, 5, 1, 10, 5, 9, 13, 5, 13, 14, 3, 5, 12, 8, 13, 13, 14, 14, 6, 14, 15, 13, 6, 13, 8, 5, 14, 8, 5, 5]
open = [true, false, true, false, true, true, false, true, true, true, false, true, true, true, true]
trucks_used = [1, 0, 1, 0, 7, 2, 0, 3, 1, 1, 0, 1, 6, 5, 2]
truck_assigned = [2, 7, 1, 1, 6, 1, 6, 6, 6, 5, 1, 5, 1, 3, 5, 1, 4, 5, 2, 4, 2, 6, 2, 5, 3, 7, 4, 3, 7, 6]
obj = 10294
----------
source = [12, 13, 14, 5, 13, 5, 13, 13, 15, 14, 15, 14, 14, 12, 13, 13, 10, 13, 12, 10, 12, 13, 12, 13, 7, 10, 10, 14, 5, 13]
open = [false, false, false, false, true, false, true, false, false, true, false, true, true, true, true]
trucks_used = [0, 0, 0, 0, 3, 0, 1, 0, 0, 4, 0, 5, 10, 5, 2]
truck_assigned = [5, 9, 5, 3, 9, 3, 10, 9, 2, 5, 2, 4, 4, 4, 8, 10, 4, 8, 2, 4, 5, 10, 5, 9, 1, 4, 1, 4, 1, 7]
obj = 8690
----------
source = [12, 13, 14, 5, 13, 10, 13, 13, 12, 14, 13, 13, 14, 12, 13, 13, 12, 13, 11, 11, 5, 14, 5, 13, 6, 10, 12, 14, 10, 13]
open = [false, false, false, false, true, true, false, false, false, true, true, true, true, true, false]
trucks_used = [0, 0, 0, 0, 2, 1, 0, 0, 0, 3, 1, 2, 11, 5, 0]
truck_assigned = [2, 10, 5, 2, 10, 3, 11, 11, 2, 5, 3, 8, 1, 1, 11, 11, 1, 9, 1, 1, 2, 4, 1, 10, 1, 2, 2, 1, 3, 9]
obj = 8660
----------
source = [5, 5, 2, 6, 13, 3, 5, 13, 4, 15, 1, 1, 13, 14, 6, 1, 1, 5, 13, 12, 13, 13, 1, 13, 13, 1, 1, 13, 8, 5]
open = [true, true, true, true, true, true, false, true, false, false, false, true, true, true, true]
trucks_used = [2, 1, 1, 1, 2, 1, 0, 1, 0, 0, 0, 1, 3, 1, 1]
truck_assigned = [2, 1, 1, 1, 2, 1, 1, 3, 1, 1, 2, 2, 3, 1, 1, 2, 1, 2, 2, 1, 1, 1, 1, 3, 2, 1, 1, 3, 1, 2]
obj = 8658
----------
source = [12, 5, 15, 12, 13, 5, 6, 13, 12, 3, 1, 13, 13, 4, 12, 1, 1, 5, 5, 13, 13, 13, 1, 13, 13, 1, 1, 13, 6, 13]
open = [true, false, true, true, true, true, false, false, false, false, false, true, true, false, true]
trucks_used = [6, 0, 1, 1, 3, 1, 0, 0, 0, 0, 0, 1, 11, 0, 1]
truck_assigned = [1, 3, 1, 1, 10, 2, 1, 11, 1, 1, 5, 10, 8, 1, 1, 6, 3, 3, 2, 11, 9, 10, 6, 9, 9, 3, 6, 7, 1, 11]
obj = 8651
----------
source = [5, 13, 3, 9, 13, 4, 4, 13, 3, 1, 13, 13, 5, 1, 12, 5, 1, 13, 15, 13, 13, 13, 12, 5, 13, 1, 1, 13, 1, 13]
open = [true, false, true, true, true, false, false, false, true, false, false, true, true, false, true]
trucks_used = [6, 0, 1, 1, 4, 0, 0, 0, 1, 0, 0, 1, 12, 0, 1]
truck_assigned = [4, 12, 1, 1, 11, 1, 1, 11, 1, 6, 9, 11, 3, 6, 1, 4, 3, 4, 1, 12, 10, 11, 1, 4, 10, 5, 6, 10, 6, 12]
obj = 8649
----------
source = [14, 14, 12, 13, 5, 13, 13, 5, 14, 15, 14, 5, 1, 4, 1, 1, 1, 3, 9, 3, 13, 5, 12, 1, 5, 15, 13, 1, 13, 13]
open = [true, false, true, true, true, false, false, false, true, false, false, true, true, true, true]
trucks_used = [6, 0, 1, 1, 4, 0, 0, 0, 1, 0, 0, 1, 3, 2, 1]
truck_assigned = [1, 2, 1, 2, 3, 3, 3, 3, 2, 1, 2, 4, 3, 1, 6, 3, 1, 1, 1, 1, 1, 4, 1, 6, 4, 1, 2, 6, 2, 1]
obj = 8645
----------
source = [5, 13, 3, 13, 13, 15, 9, 13, 3, 1, 1, 13, 13, 4, 1, 3, 1, 13, 1, 13, 13, 13, 4, 1, 12, 5, 5, 13, 5, 13]
open = [true, false, true, true, true, false, false, false, true, false, false, true, true, false, true]
trucks_used = [6, 0, 1, 1, 4, 0, 0, 0, 1, 0, 0, 1, 12, 0, 1]
truck_assigned = [4, 11, 1, 9, 12, 1, 1, 5, 1, 3, 6, 12, 9, 1, 5, 1, 4, 10, 6, 10, 11, 12, 1, 4, 1, 3, 4, 11, 4, 11]
obj = 8637
----------
source = [3, 13, 3, 1, 13, 15, 3, 13, 12, 3, 13, 3, 13, 1, 12, 11, 9, 13, 3, 15, 12, 13, 11, 13, 7, 13, 13, 1, 13, 13]
open = [true, false, true, false, false, false, true, false, true, false, true, true, true, false, true]
trucks_used = [3, 0, 5, 0, 0, 0, 1, 0, 1, 0, 1, 1, 12, 0, 1]
truck_assigned = [2, 5, 5, 3, 5, 1, 1, 3, 1, 5, 2, 4, 1, 2, 1, 1, 1, 5, 5, 1, 1, 12, 1, 12, 1, 11, 1, 3, 2, 1]
obj = 8629
----------
source = [7, 13, 3, 1, 13, 11, 10, 13, 10, 3, 13, 13, 3, 1, 11, 11, 9, 13, 3, 13, 10, 3, 13, 13, 13, 15, 3, 13, 1, 13]
open = [true, false, true, false, false, false, true, false, true, true, true, false, true, false, true]
trucks_used = [3, 0, 6, 0, 0, 0, 1, 0, 1, 1, 1, 0, 12, 0, 1]
truck_assigned = [1, 10, 6, 3, 10, 1, 1, 10, 1, 6, 11, 11, 5, 2, 1, 1, 1, 7, 6, 11, 1, 3, 12, 12, 12, 1, 3, 10, 3, 9]
obj = 8621
----------
source = [13, 13, 3, 1, 13, 10, 10, 3, 9, 3, 13, 13, 13, 1, 10, 3, 11, 13, 3, 13, 7, 13, 1, 15, 13, 15, 3, 13, 11, 13]
open = [true, false, true, false, false, false, true, false, true, true, true, false, true, false, true]
trucks_used = [3, 0, 6, 0, 0, 0, 1, 0, 1, 1, 1, 0, 12, 0, 1]
truck_assigned = [9, 12, 6, 2, 10, 1, 1, 5, 1, 6, 10, 12, 7, 3, 1, 5, 1, 11, 6, 11, 1, 10, 3, 1, 12, 1, 5, 12, 1, 2]
obj = 8616
----------
source = [8, 8, 2, 13, 2, 2, 9, 8, 14, 2, 13, 12, 4, 3, 14, 14, 12, 13, 13, 13, 12, 11, 2, 13, 13, 8, 13, 8, 8, 4]
open = [false, true, true, true, false, false, false, true, true, false, true, true, true, true, false]
trucks_used = [0, 2, 1, 1, 0, 0, 0, 2, 1, 0, 1, 1, 8, 1, 0]
truck_assigned = [1, 2, 2, 7, 2, 1, 1, 2, 1, 2, 5, 1, 1, 1, 1, 1, 1, 3, 8, 5, 1, 1, 2, 7, 8, 2, 8, 2, 1, 1]
obj = 8601
----------
source = [13, 2, 12, 8, 2, 12, 12, 2, 11, 8, 2, 2, 13, 3, 11, 3, 3, 2, 12, 13, 2, 2, 13, 13, 13, 8, 13, 13, 2, 2]
open = [false, true, true, false, false, false, false, true, false, false, true, true, true, false, false]
trucks_used = [0, 10, 1, 0, 0, 0, 0, 2, 0, 0, 1, 1, 8, 0, 0]
truck_assigned = [7, 10, 1, 2, 9, 1, 1, 3, 1, 2, 10, 8, 4, 1, 1, 1, 1, 10, 1, 5, 9, 1, 8, 4, 8, 2, 8, 8, 9, 6]
obj = 8576
----------
source = [12, 13, 5, 13, 13, 13, 13, 13, 8, 7, 13, 12, 2, 2, 14, 3, 13, 2, 3, 8, 2, 13, 14, 12, 11, 8, 12, 3, 2, 2]
open = [false, true, true, false, true, false, true, true, false, false, true, true, true, true, false]
trucks_used = [0, 3, 1, 0, 1, 0, 1, 2, 0, 0, 1, 1, 9, 1, 0]
truck_assigned = [1, 9, 1, 9, 9, 8, 7, 9, 1, 1, 7, 1, 2, 3, 1, 1, 8, 1, 1, 2, 2, 7, 1, 1, 1, 1, 1, 1, 2, 3]
obj = 8575
----------
source = [12, 2, 11, 13, 13, 13, 11, 2, 8, 11, 13, 13, 9, 2, 5, 3, 13, 2, 3, 9, 2, 2, 8, 12, 11, 8, 13, 13, 2, 13]
open = [false, true, true, false, true, false, false, true, true, false, true, true, true, false, false]
trucks_used = [0, 7, 1, 0, 1, 0, 0, 2, 1, 0, 1, 1, 9, 0, 0]
truck_assigned = [1, 7, 1, 9, 9, 8, 1, 6, 1, 1, 7, 6, 1, 7, 1, 1, 8, 6, 1, 1, 3, 7, 2, 1, 1, 1, 9, 7, 6, 7]
obj = 8572
----------
source = [12, 2, 11, 8, 13, 3, 11, 13, 8, 2, 2, 3, 13, 2, 12, 13, 5, 2, 3, 13, 13, 2, 13, 13, 11, 8, 12, 13, 2, 12]
open = [false, true, true, false, true, false, false, true, false, false, true, true, true, false, false]
trucks_used = [0, 7, 1, 0, 1, 0, 0, 2, 0, 0, 1, 1, 9, 0, 0]
truck_assigned = [1, 7, 1, 2, 6, 1, 1, 8, 1, 6, 5, 1, 8, 7, 1, 4, 1, 5, 1, 9, 8, 7, 9, 9, 1, 1, 1, 8, 6, 1]
obj = 8569
----------
source = [13, 11, 2, 13, 2, 3, 2, 2, 8, 11, 13, 13, 2, 5, 5, 12, 12, 5, 3, 13, 13, 13, 8, 2, 11, 13, 12, 13, 8, 2]
open = [false, true, true, false, true, false, false, true, false, false, true, true, true, false, false]
trucks_used = [0, 7, 1, 0, 1, 0, 0, 2, 0, 0, 1, 1, 9, 0, 0]
truck_assigned = [8, 1, 7, 7, 6, 1, 2, 7, 1, 1, 7, 4, 7, 1, 1, 1, 1, 1, 1, 9, 9, 8, 2, 5, 1, 2, 1, 9, 2, 6]
obj = 8565
----------
source = [2, 2, 13, 12, 13, 3, 13, 13, 8, 11, 2, 13, 13, 5, 5, 8, 12, 13, 2, 2, 12, 2, 8, 13, 3, 11, 12, 2, 13, 13]
open = [false, true, true, false, true, false, false, true, false, false, true, true, true, false, false]
trucks_used = [0, 7, 1, 0, 1, 0, 0, 2, 0, 0, 1, 1, 9, 0, 0]
truck_assigned = [6, 5, 8, 1, 8, 1, 9, 8, 1, 1, 5, 6, 5, 1, 1, 2, 1, 7, 6, 7, 1, 7, 2, 7, 1, 1, 1, 7, 9, 9]
obj = 8559
----------
source = [8, 13, 12, 12, 2, 3, 11, 13, 2, 2, 13, 13, 2, 5, 5, 13, 13, 2, 2, 13, 12, 13, 13, 1, 11, 3, 12, 8, 3, 13]
open = [true, true, true, false, true, false, false, true, false, false, true, true, true, false, false]
trucks_used = [1, 2, 1, 0, 1, 0, 0, 2, 0, 0, 1, 1, 10, 0, 0]
truck_assigned = [2, 8, 1, 1, 2, 1, 1, 9, 1, 1, 8, 10, 2, 1, 1, 7, 9, 2, 1, 9, 1, 10, 8, 1, 1, 1, 1, 2, 1, 10]
obj = 8553
----------
source = [12, 1, 11, 13, 13, 13, 8, 3, 11, 2, 2, 2, 2, 2, 12, 13, 13, 13, 2, 13, 12, 5, 8, 1, 11, 5, 12, 9, 3, 13]
open = [true, true, true, false, true, false, false, true, true, false, true, true, true, false, false]
trucks_used = [1, 6, 1, 0, 1, 0, 0, 2, 1, 0, 1, 1, 4, 0, 0]
truck_assigned = [1, 1, 1, 4, 4, 3, 2, 1, 1, 6, 2, 4, 5, 5, 1, 2, 2, 1, 6, 1, 1, 1, 2, 1, 1, 1, 1, 1, 1, 3]
obj = 8552
----------
source = [12, 9, 8, 13, 13, 13, 11, 2, 2, 2, 5, 2, 2, 1, 5, 13, 13, 13, 2, 13, 12, 11, 8, 1, 11, 3, 12, 11, 3, 13]
open = [true, true, true, false, true, false, false, true, true, false, true, true, true, false, false]
trucks_used = [1, 6, 1, 0, 1, 0, 0, 2, 1, 0, 1, 1, 5, 0, 0]
truck_assigned = [1, 1, 2, 5, 5, 4, 1, 4, 6, 6, 1, 5, 5, 1, 1, 3, 3, 2, 6, 2, 1, 1, 2, 1, 1, 1, 1, 1, 1, 4]
obj = 8550
----------
source = [12, 2, 11, 13, 13, 13, 9, 2, 8, 2, 2, 2, 2, 5, 5, 13, 13, 13, 2, 13, 12, 11, 8, 12, 11, 3, 2, 12, 3, 13]
open = [false, true, true, false, true, false, false, true, true, false, true, true, true, false, false]
trucks_used = [0, 8, 1, 0, 1, 0, 0, 2, 1, 0, 1, 1, 8, 0, 0]
truck_assigned = [1, 8, 1, 7, 8, 6, 1, 8, 2, 7, 6, 6, 7, 1, 1, 8, 7, 5, 8, 5, 1, 1, 2, 1, 1, 1, 7, 1, 1, 6]
obj = 8549
----------
source = [15, 2, 11, 13, 13, 13, 11, 2, 8, 2, 2, 2, 2, 8, 5, 13, 13, 2, 2, 13, 3, 15, 8, 11, 11, 9, 13, 3, 5, 2]
open = [false, true, true, false, true, false, false, true, true, false, true, false, true, false, true]
trucks_used = [0, 9, 1, 0, 1, 0, 0, 3, 1, 0, 2, 0, 7, 0, 1]
truck_assigned = [1, 9, 2, 5, 7, 6, 2, 9, 3, 7, 8, 7, 6, 3, 1, 7, 5, 6, 9, 6, 1, 1, 3, 2, 2, 1, 7, 1, 1, 8]
obj = 8546
----------
source = [15, 2, 11, 13, 13, 13, 11, 2, 8, 2, 2, 2, 2, 3, 5, 13, 13, 2, 8, 13, 2, 15, 8, 11, 11, 9, 13, 3, 5, 2]
open = [false, true, true, false, true, false, false, true, true, false, true, false, true, false, true]
trucks_used = [0, 9, 1, 0, 1, 0, 0, 3, 1, 0, 2, 0, 7, 0, 1]
truck_assigned = [1, 8, 2, 5, 7, 6, 2, 6, 3, 8, 9, 8, 7, 1, 1, 7, 5, 7, 3, 6, 7, 1, 3, 2, 2, 1, 7, 1, 1, 9]
obj = 8543
----------
source = [13, 2, 11, 13, 13, 13, 11, 2, 8, 2, 2, 2, 9, 2, 5, 13, 13, 2, 8, 2, 15, 15, 8, 9, 11, 5, 13, 3, 5, 2]
open = [false, true, true, false, true, false, false, true, true, false, true, false, true, false, true]
trucks_used = [0, 9, 1, 0, 1, 0, 0, 3, 1, 0, 2, 0, 7, 0, 1]
truck_assigned = [5, 8, 2, 6, 6, 7, 2, 8, 3, 6, 9, 7, 1, 8, 1, 5, 7, 7, 3, 6, 1, 1, 3, 1, 2, 1, 6, 1, 1, 9]
obj = 8541
----------
source = [13, 2, 11, 13, 13, 13, 11, 2, 8, 2, 2, 2, 2, 2, 5, 13, 5, 2, 15, 13, 8, 15, 8, 9, 11, 3, 13, 3, 11, 2]
open = [false, true, true, false, true, false, false, true, true, false, true, false, true, false, true]
trucks_used = [0, 9, 1, 0, 1, 0, 0, 3, 1, 0, 2, 0, 7, 0, 1]
truck_assigned = [6, 9, 2, 7, 6, 7, 2, 9, 3, 7, 6, 8, 7, 9, 1, 5, 1, 8, 1, 5, 3, 1, 2, 1, 2, 1, 6, 1, 2, 6]
obj = 8539
----------
source = [13, 2, 11, 13, 2, 13, 11, 2, 9, 2, 2, 2, 13, 2, 5, 13, 5, 13, 15, 13, 8, 2, 8, 11, 8, 3, 2, 11, 3, 13]
open = [false, true, true, false, true, false, false, true, true, false, true, false, true, false, true]
trucks_used = [0, 9, 1, 0, 1, 0, 0, 3, 1, 0, 2, 0, 8, 0, 1]
truck_assigned = [7, 7, 2, 6, 6, 8, 2, 7, 1, 8, 8, 9, 2, 9, 1, 6, 1, 7, 1, 8, 3, 7, 2, 2, 2, 1, 8, 1, 1, 5]
obj = 8536
----------
source = [13, 2, 11, 8, 2, 13, 11, 2, 8, 2, 2, 2, 13, 2, 5, 13, 11, 13, 15, 13, 3, 2, 8, 11, 13, 9, 2, 3, 5, 13]
open = [false, true, true, false, true, false, false, true, true, false, true, false, true, false, true]
trucks_used = [0, 9, 1, 0, 1, 0, 0, 3, 1, 0, 2, 0, 8, 0, 1]
truck_assigned = [7, 8, 2, 3, 9, 8, 2, 8, 3, 7, 9, 7, 5, 8, 1, 6, 2, 7, 1, 8, 1, 9, 2, 1, 5, 1, 7, 1, 1, 6]
obj = 8533
----------
source = [13, 2, 11, 11, 2, 15, 11, 2, 8, 13, 2, 2, 13, 2, 5, 3, 9, 2, 3, 13, 8, 2, 8, 11, 13, 13, 2, 13, 13, 2]
open = [false, true, true, false, true, false, false, true, true, false, true, false, true, false, true]
trucks_used = [0, 10, 1, 0, 1, 0, 0, 3, 1, 0, 2, 0, 8, 0, 1]
truck_assigned = [8, 10, 2, 2, 7, 1, 2, 8, 3, 7, 10, 8, 7, 9, 1, 1, 1, 9, 1, 8, 3, 10, 2, 2, 7, 6, 9, 8, 6, 7]
obj = 8531
----------
source = [13, 2, 11, 3, 2, 11, 3, 2, 8, 13, 2, 2, 13, 5, 5, 11, 9, 2, 15, 13, 2, 2, 8, 2, 13, 13, 8, 13, 13, 2]
open = [false, true, true, false, true, false, false, true, true, false, true, false, true, false, true]
trucks_used = [0, 10, 1, 0, 1, 0, 0, 3, 1, 0, 2, 0, 8, 0, 1]
truck_assigned = [8, 8, 2, 1, 10, 2, 1, 10, 3, 8, 8, 9, 7, 1, 1, 1, 1, 10, 1, 6, 7, 8, 3, 7, 6, 7, 3, 8, 7, 9]
obj = 8530
----------
source = [14, 2, 7, 15, 2, 14, 13, 2, 6, 14, 2, 2, 2, 6, 6, 13, 12, 2, 13, 2, 5, 2, 13, 13, 14, 13, 15, 2, 5, 2]
open = [false, true, false, false, true, true, true, false, false, false, false, true, true, true, true]
trucks_used = [0, 11, 0, 0, 2, 1, 1, 0, 0, 0, 0, 1, 6, 2, 1]
truck_assigned = [1, 8, 1, 1, 9, 2, 6, 10, 1, 2, 8, 11, 8, 1, 1, 5, 1, 10, 6, 5, 2, 9, 5, 6, 2, 5, 1, 10, 2, 11]
obj = 8394
----------
source = [1, 13, 15, 14, 2, 1, 1, 2, 13, 5, 1, 1, 13, 13, 2, 5, 2, 1, 5, 14, 2, 13, 14, 1, 1, 14, 13, 2, 13, 13]
open = [true, true, false, false, true, false, false, false, false, false, false, false, true, true, true]
trucks_used = [8, 6, 0, 0, 1, 0, 0, 0, 0, 0, 0, 0, 8, 4, 1]
truck_assigned = [8, 5, 1, 2, 5, 7, 7, 6, 7, 1, 6, 8, 8, 7, 3, 1, 3, 6, 1, 4, 6, 3, 4, 7, 3, 4, 7, 5, 8, 8]
obj = 8251
----------
source = [13, 2, 14, 2, 1, 2, 2, 1, 5, 5, 13, 13, 2, 1, 13, 1, 13, 13, 13, 5, 1, 14, 1, 14, 15, 15, 14, 13, 1, 1]
open = [true, true, false, false, true, false, false, false, false, false, false, false, true, true, true]
trucks_used = [8, 5, 0, 0, 1, 0, 0, 0, 0, 0, 0, 0, 8, 4, 1]
truck_assigned = [2, 5, 4, 5, 2, 5, 5, 2, 1, 1, 2, 7, 4, 1, 8, 8, 8, 7, 7, 1, 8, 4, 7, 3, 1, 1, 3, 8, 3, 7]
obj = 8215
----------
source = [2, 13, 5, 1, 13, 2, 2, 1, 13, 5, 13, 15, 2, 1, 13, 2, 14, 1, 13, 14, 1, 13, 5, 13, 14, 15, 1, 14, 1, 1]
open = [true, true, false, false, true, false, false, false, false, false, false, false, true, true, true]
trucks_used = [8, 5, 0, 0, 2, 0, 0, 0, 0, 0, 0, 0, 8, 4, 1]
truck_assigned = [5, 8, 2, 7, 7, 4, 5, 4, 8, 2, 6, 1, 2, 3, 8, 5, 4, 8, 8, 1, 8, 1, 2, 7, 4, 1, 7, 4, 5, 8]
obj = 8204
----------
source = [13, 13, 5, 1, 13, 2, 2, 1, 13, 5, 13, 15, 2, 1, 13, 14, 14, 1, 13, 14, 2, 13, 5, 14, 1, 15, 1, 2, 1, 1]
open = [true, true, false, false, true, false, false, false, false, false, false, false, true, true, true]
trucks_used = [8, 5, 0, 0, 2, 0, 0, 0, 0, 0, 0, 0, 8, 4, 1]
truck_assigned = [6, 8, 2, 7, 7, 5, 5, 8, 8, 2, 7, 1, 5, 5, 8, 3, 4, 8, 8, 4, 4, 7, 2, 3, 7, 1, 8, 4, 5, 8]
obj = 8186
----------
source = [13, 13, 2, 1, 13, 2, 2, 1, 13, 5, 2, 15, 2, 1, 13, 13, 14, 1, 1, 14, 14, 13, 5, 13, 5, 15, 1, 14, 1, 1]
open = [true, true, false, false, true, false, false, false, false, false, false, false, true, true, true]
trucks_used = [8, 5, 0, 0, 2, 0, 0, 0, 0, 0, 0, 0, 8, 4, 1]
truck_assigned = [8, 7, 3, 7, 8, 5, 5, 8, 5, 2, 4, 1, 5, 5, 8, 6, 4, 7, 7, 4, 3, 7, 2, 7, 1, 1, 5, 4, 8, 8]
obj = 8183
----------
source = [13, 13, 2, 1, 13, 2, 5, 1, 13, 2, 2, 15, 2, 1, 13, 13, 14, 1, 1, 14, 14, 13, 5, 14, 5, 15, 1, 13, 1, 1]
open = [true, true, false, false, true, false, false, false, false, false, false, false, true, true, true]
trucks_used = [8, 5, 0, 0, 2, 0, 0, 0, 0, 0, 0, 0, 8, 4, 1]
truck_assigned = [8, 4, 5, 7, 8, 5, 2, 8, 4, 4, 1, 1, 5, 5, 8, 7, 4, 7, 6, 4, 4, 7, 2, 2, 1, 1, 6, 7, 8, 8]
obj = 8182
----------
source = [13, 13, 2, 1, 13, 2, 2, 1, 13, 5, 2, 15, 2, 1, 13, 13, 14, 1, 1, 14, 14, 13, 5, 14, 5, 15, 1, 13, 1, 1]
open = [true, true, false, false, true, false, false, false, false, false, false, false, true, true, true]
trucks_used = [8, 5, 0, 0, 2, 0, 0, 0, 0, 0, 0, 0, 8, 4, 1]
truck_assigned = [8, 6, 5, 7, 8, 5, 4, 8, 1, 1, 4, 1, 5, 8, 8, 7, 4, 8, 8, 4, 4, 7, 2, 3, 2, 1, 5, 7, 7, 6]
obj = 8147
----------
source = [13, 13, 2, 1, 13, 2, 2, 1, 13, 5, 2, 15, 2, 1, 5, 13, 14, 1, 1, 13, 14, 13, 5, 14, 13, 15, 1, 14, 1, 1]
open = [true, true, false, false, true, false, false, false, false, false, false, false, true, true, true]
trucks_used = [8, 5, 0, 0, 2, 0, 0, 0, 0, 0, 0, 0, 8, 4, 1]
truck_assigned = [8, 8, 5, 7, 8, 5, 3, 8, 3, 2, 4, 1, 5, 8, 2, 7, 3, 8, 8, 6, 4, 4, 2, 4, 7, 1, 4, 3, 7, 6]
obj = 8143
----------
source = [13, 13, 2, 1, 13, 2, 2, 1, 13, 5, 2, 15, 2, 1, 5, 13, 14, 1, 1, 14, 14, 13, 5, 14, 13, 15, 1, 13, 1, 1]
open = [true, true, false, false, true, false, false, false, false, false, false, false, true, true, true]
trucks_used = [8, 5, 0, 0, 2, 0, 0, 0, 0, 0, 0, 0, 8, 4, 1]
truck_assigned = [2, 7, 5, 8, 5, 5, 4, 4, 7, 2, 1, 1, 5, 7, 2, 8, 3, 8, 5, 1, 4, 7, 2, 4, 8, 1, 2, 8, 7, 8]
obj = 8126
----------
source = [13, 1, 2, 1, 13, 2, 13, 1, 13, 2, 2, 15, 2, 1, 5, 13, 14, 14, 1, 13, 14, 13, 5, 1, 14, 15, 1, 13, 5, 1]
open = [true, true, false, false, true, false, false, false, false, false, false, false, true, true, true]
trucks_used = [8, 5, 0, 0, 2, 0, 0, 0, 0, 0, 0, 0, 8, 4, 1]
truck_assigned = [7, 4, 5, 8, 3, 5, 3, 5, 8, 4, 4, 1, 5, 7, 2, 8, 4, 3, 7, 6, 4, 7, 2, 6, 4, 1, 8, 8, 1, 8]
obj = 8124
----------
source = [13, 2, 5, 1, 13, 2, 13, 1, 13, 1, 2, 15, 13, 1, 2, 2, 14, 1, 13, 14, 14, 13, 5, 14, 1, 15, 1, 13, 5, 1]
open = [true, true, false, false, true, false, false, false, false, false, false, false, true, true, true]
trucks_used = [8, 5, 0, 0, 2, 0, 0, 0, 0, 0, 0, 0, 8, 4, 1]
truck_assigned = [8, 5, 2, 8, 7, 5, 7, 4, 8, 6, 5, 1, 4, 7, 1, 2, 4, 7, 8, 3, 3, 7, 2, 4, 7, 1, 8, 5, 2, 8]
obj = 8119
----------
source = [1, 13, 5, 1, 13, 2, 13, 1, 13, 1, 2, 15, 2, 1, 2, 13, 14, 13, 13, 14, 2, 13, 5, 1, 14, 15, 1, 14, 5, 1]
open = [true, true, false, false, true, false, false, false, false, false, false, false, true, true, true]
trucks_used = [8, 5, 0, 0, 2, 0, 0, 0, 0, 0, 0, 0, 8, 4, 1]
truck_assigned = [7, 5, 2, 8, 7, 3, 3, 2, 8, 8, 4, 1, 2, 8, 5, 8, 4, 6, 8, 4, 5, 7, 2, 7, 4, 1, 7, 2, 2, 4]
obj = 8088
----------
source = [15, 1, 5, 1, 13, 2, 13, 1, 13, 1, 2, 15, 2, 1, 2, 1, 14, 13, 13, 13, 2, 13, 5, 14, 14, 15, 1, 14, 13, 1]
open = [true, true, false, false, true, false, false, false, false, false, false, false, true, true, true]
trucks_used = [8, 5, 0, 0, 2, 0, 0, 0, 0, 0, 0, 0, 8, 4, 1]
truck_assigned = [1, 4, 2, 8, 7, 3, 6, 4, 8, 7, 4, 1, 3, 7, 5, 7, 4, 8, 4, 6, 5, 7, 2, 3, 4, 1, 8, 4, 7, 8]
obj = 8079
----------
source = [2, 1, 5, 2, 13, 2, 13, 13, 13, 1, 13, 15, 2, 1, 13, 14, 5, 1, 15, 1, 2, 13, 14, 14, 13, 1, 1, 1, 14, 13]
open = [true, true, false, false, true, false, false, false, false, false, false, false, true, true, true]
trucks_used = [8, 5, 0, 0, 2, 0, 0, 0, 0, 0, 0, 0, 8, 4, 1]
truck_assigned = [3, 8, 2, 3, 8, 5, 8, 6, 8, 8, 7, 1, 5, 8, 3, 3, 2, 8, 1, 7, 5, 7, 4, 4, 7, 7, 8, 7, 4, 6]
obj = 8069
----------
source = [13, 5, 5, 1, 13, 2, 13, 13, 13, 1, 1, 15, 1, 1, 13, 13, 14, 14, 5, 1, 15, 13, 2, 2, 14, 2, 2, 1, 14, 1]
open = [true, true, false, false, true, false, false, false, false, false, false, false, true, true, true]
trucks_used = [8, 5, 0, 0, 2, 0, 0, 0, 0, 0, 0, 0, 8, 4, 1]
truck_assigned = [7, 2, 1, 7, 8, 5, 8, 7, 8, 8, 6, 1, 7, 8, 6, 7, 4, 3, 2, 8, 1, 5, 5, 5, 4, 4, 4, 8, 3, 6]
obj = 8064
----------
source = [13, 5, 5, 15, 13, 2, 13, 13, 13, 1, 1, 15, 1, 1, 14, 13, 14, 14, 5, 1, 1, 13, 2, 2, 13, 2, 2, 1, 14, 1]
open = [true, true, false, false, true, false, false, false, false, false, false, false, true, true, true]
trucks_used = [8, 5, 0, 0, 2, 0, 0, 0, 0, 0, 0, 0, 8, 4, 1]
truck_assigned = [8, 1, 2, 1, 6, 4, 4, 8, 7, 7, 7, 1, 6, 7, 3, 8, 4, 4, 1, 8, 6, 1, 5, 5, 7, 5, 4, 8, 1, 8]
obj = 8061
----------
source = [15, 2, 5, 1, 13, 2, 13, 13, 13, 1, 1, 15, 1, 2, 14, 13, 14, 14, 5, 1, 1, 13, 2, 13, 15, 1, 2, 13, 14, 1]
open = [true, true, false, false, true, false, false, false, false, false, false, false, true, true, true]
trucks_used = [8, 5, 0, 0, 2, 0, 0, 0, 0, 0, 0, 0, 8, 4, 1]
truck_assigned = [1, 4, 2, 6, 8, 5, 8, 8, 7, 8, 8, 1, 7, 3, 4, 6, 4, 2, 2, 4, 7, 7, 5, 5, 1, 8, 3, 8, 3, 8]
obj = 8057
----------
source = [15, 2, 5, 1, 13, 2, 13, 13, 13, 1, 1, 15, 1, 2, 14, 13, 14, 14, 5, 1, 1, 13, 13, 2, 15, 1, 2, 13, 14, 1]
open = [true, true, false, false, true, false, false, false, false, false, false, false, true, true, true]
trucks_used = [8, 5, 0, 0, 2, 0, 0, 0, 0, 0, 0, 0, 8, 4, 1]
truck_assigned = [1, 5, 2, 6, 8, 4, 8, 8, 7, 8, 8, 1, 7, 5, 4, 6, 4, 2, 2, 6, 7, 7, 7, 5, 1, 8, 2, 8, 3, 8]
obj = 8047
----------
source = [13, 5, 5, 1, 13, 2, 13, 13, 13, 1, 1, 15, 1, 2, 14, 13, 14, 14, 5, 1, 1, 13, 13, 2, 15, 1, 2, 2, 14, 1]
open = [true, true, false, false, true, false, false, false, false, false, false, false, true, true, true]
trucks_used = [8, 5, 0, 0, 2, 0, 0, 0, 0, 0, 0, 0, 8, 4, 1]
truck_assigned = [7, 2, 2, 7, 8, 5, 8, 7, 2, 6, 1, 1, 8, 4, 4, 7, 4, 3, 1, 1, 8, 8, 5, 5, 1, 5, 5, 4, 3, 7]
obj = 8035
----------
source = [2, 5, 5, 1, 13, 2, 13, 13, 13, 1, 1, 15, 1, 2, 14, 13, 14, 14, 5, 1, 1, 13, 13, 2, 15, 1, 2, 13, 14, 1]
open = [true, true, false, false, true, false, false, false, false, false, false, false, true, true, true]
trucks_used = [8, 5, 0, 0, 2, 0, 0, 0, 0, 0, 0, 0, 8, 4, 1]
truck_assigned = [4, 2, 2, 8, 8, 5, 8, 5, 7, 7, 7, 1, 6, 1, 4, 7, 4, 3, 1, 7, 6, 8, 5, 5, 1, 7, 5, 7, 3, 8]
obj = 8018
----------
source = [15, 13, 5, 1, 13, 2, 13, 1, 13, 1, 2, 15, 2, 1, 14, 13, 14, 14, 5, 1, 2, 13, 13, 2, 15, 1, 1, 13, 14, 1]
open = [true, true, false, false, true, false, false, false, false, false, false, false, true, true, true]
trucks_used = [8, 5, 0, 0, 2, 0, 0, 0, 0, 0, 0, 0, 8, 4, 1]
truck_assigned = [1, 6, 2, 8, 7, 5, 7, 1, 8, 7, 4, 1, 3, 7, 4, 8, 4, 3, 2, 7, 4, 7, 6, 5, 1, 5, 8, 8, 2, 8]
obj = 7999
----------
source = [15, 13, 5, 1, 13, 2, 13, 1, 13, 1, 2, 15, 2, 1, 2, 13, 14, 14, 5, 1, 2, 13, 13, 14, 15, 1, 1, 13, 14, 1]
open = [true, true, false, false, true, false, false, false, false, false, false, false, true, true, true]
trucks_used = [8, 5, 0, 0, 2, 0, 0, 0, 0, 0, 0, 0, 8, 4, 1]
truck_assigned = [1, 7, 2, 8, 8, 4, 8, 7, 5, 7, 5, 1, 4, 6, 2, 7, 4, 1, 2, 7, 5, 8, 7, 3, 1, 7, 8, 7, 4, 8]
obj = 7990
----------
source = [15, 1, 5, 1, 13, 2, 13, 13, 13, 1, 2, 15, 2, 2, 14, 13, 14, 14, 5, 1, 2, 13, 13, 1, 15, 1, 1, 13, 14, 1]
open = [true, true, false, false, true, false, false, false, false, false, false, false, true, true, true]
trucks_used = [8, 5, 0, 0, 2, 0, 0, 0, 0, 0, 0, 0, 8, 4, 1]
truck_assigned = [1, 8, 2, 7, 7, 4, 7, 8, 7, 8, 5, 1, 4, 2, 3, 8, 4, 2, 2, 8, 5, 6, 8, 6, 1, 8, 8, 8, 4, 7]
obj = 7986
----------
source = [15, 1, 5, 1, 13, 2, 13, 13, 13, 1, 2, 15, 2, 1, 14, 13, 2, 1, 5, 14, 14, 13, 13, 2, 15, 1, 1, 13, 14, 1]
open = [true, true, false, false, true, false, false, false, false, false, false, false, true, true, true]
trucks_used = [8, 5, 0, 0, 2, 0, 0, 0, 0, 0, 0, 0, 8, 4, 1]
truck_assigned = [1, 8, 2, 7, 5, 5, 7, 8, 7, 8, 4, 1, 5, 7, 4, 8, 3, 7, 2, 3, 3, 7, 8, 4, 1, 8, 6, 8, 4, 8]
obj = 7985
----------
source = [13, 1, 5, 1, 13, 2, 13, 13, 13, 1, 2, 15, 2, 1, 2, 13, 15, 1, 5, 13, 2, 13, 14, 14, 14, 1, 1, 13, 14, 1]
open = [true, true, false, false, true, false, false, false, false, false, false, false, true, true, true]
trucks_used = [8, 5, 0, 0, 2, 0, 0, 0, 0, 0, 0, 0, 8, 4, 1]
truck_assigned = [6, 8, 2, 7, 7, 5, 2, 7, 8, 8, 4, 1, 5, 7, 4, 8, 1, 8, 2, 3, 5, 7, 2, 4, 3, 5, 8, 8, 4, 8]
obj = 7974
----------
source = [13, 1, 5, 1, 13, 2, 13, 13, 13, 1, 2, 15, 2, 1, 14, 2, 15, 1, 5, 13, 2, 13, 14, 14, 13, 1, 1, 13, 14, 1]
open = [true, true, false, false, true, false, false, false, false, false, false, false, true, true, true]
trucks_used = [8, 5, 0, 0, 2, 0, 0, 0, 0, 0, 0, 0, 8, 4, 1]
truck_assigned = [7, 8, 2, 7, 8, 5, 8, 7, 7, 8, 4, 1, 5, 8, 4, 4, 1, 7, 2, 4, 5, 8, 4, 3, 4, 8, 8, 6, 4, 7]
obj = 7971
----------
source = [15, 1, 5, 15, 13, 2, 13, 13, 13, 1, 2, 15, 2, 1, 2, 13, 14, 1, 5, 13, 2, 13, 13, 14, 1, 1, 1, 14, 14, 1]
open = [true, true, false, false, true, false, false, false, false, false, false, false, true, true, true]
trucks_used = [8, 5, 0, 0, 2, 0, 0, 0, 0, 0, 0, 0, 8, 4, 1]
truck_assigned = [1, 8, 2, 1, 8, 5, 7, 8, 7, 8, 4, 1, 5, 8, 4, 6, 3, 7, 2, 4, 5, 8, 8, 4, 1, 8, 8, 4, 4, 7]
obj = 7968
----------
source = [15, 1, 2, 1, 13, 2, 13, 13, 13, 1, 2, 15, 13, 1, 5, 13, 14, 1, 5, 2, 15, 13, 2, 14, 13, 1, 1, 14, 14, 1]
open = [true, true, false, false, true, false, false, false, false, false, false, false, true, true, true]
trucks_used = [8, 5, 0, 0, 2, 0, 0, 0, 0, 0, 0, 0, 8, 4, 1]
truck_assigned = [1, 8, 4, 7, 7, 5, 7, 8, 8, 8, 5, 1, 1, 8, 2, 8, 3, 7, 2, 2, 1, 7, 5, 4, 1, 8, 8, 4, 4, 7]
obj = 7964
----------
source = [15, 1, 2, 1, 13, 2, 13, 13, 13, 1, 2, 15, 2, 1, 5, 13, 14, 1, 5, 13, 15, 13, 2, 14, 13, 1, 1, 14, 14, 1]
open = [true, true, false, false, true, false, false, false, false, false, false, false, true, true, true]
trucks_used = [8, 5, 0, 0, 2, 0, 0, 0, 0, 0, 0, 0, 8, 4, 1]
truck_assigned = [1, 8, 4, 7, 7, 5, 8, 7, 7, 8, 5, 1, 4, 8, 1, 5, 3, 7, 2, 4, 1, 8, 5, 4, 8, 8, 8, 2, 4, 7]
obj = 7953
----------
source = [15, 1, 2, 1, 13, 2, 13, 13, 13, 1, 2, 15, 2, 1, 5, 13, 14, 1, 5, 14, 15, 13, 2, 14, 13, 1, 1, 13, 14, 1]
open = [true, true, false, false, true, false, false, false, false, false, false, false, true, true, true]
trucks_used = [8, 5, 0, 0, 2, 0, 0, 0, 0, 0, 0, 0, 8, 4, 1]
truck_assigned = [1, 8, 4, 7, 7, 5, 8, 7, 7, 8, 5, 1, 4, 8, 2, 5, 3, 7, 2, 4, 1, 8, 5, 4, 8, 8, 8, 2, 4, 7]
obj = 7936
----------
source = [15, 1, 5, 1, 13, 2, 13, 13, 13, 1, 2, 15, 2, 1, 2, 13, 14, 1, 5, 14, 2, 13, 13, 14, 15, 1, 1, 13, 14, 1]
open = [true, true, false, false, true, false, false, false, false, false, false, false, true, true, true]
trucks_used = [8, 5, 0, 0, 2, 0, 0, 0, 0, 0, 0, 0, 8, 4, 1]
truck_assigned = [1, 8, 2, 7, 7, 5, 5, 8, 8, 8, 5, 1, 4, 8, 3, 7, 2, 7, 2, 4, 4, 8, 7, 4, 1, 8, 8, 8, 4, 7]
obj = 7920
----------
source = [13, 14, 5, 15, 1, 1, 13, 1, 1, 14, 2, 1, 13, 2, 14, 13, 14, 13, 1, 13, 2, 1, 13, 5, 5, 2, 2, 13, 1, 15]
open = [true, true, false, false, true, false, false, false, false, false, false, false, true, true, true]
trucks_used = [8, 5, 0, 0, 2, 0, 0, 0, 0, 0, 0, 0, 8, 4, 1]
truck_assigned = [7, 4, 2, 1, 6, 8, 7, 7, 7, 3, 5, 8, 6, 4, 4, 8, 4, 8, 6, 5, 5, 6, 7, 2, 2, 5, 4, 4, 7, 1]
obj = 7918
----------
source = [13, 13, 5, 1, 1, 14, 13, 1, 1, 1, 2, 1, 13, 2, 5, 13, 14, 13, 1, 13, 2, 14, 2, 14, 15, 2, 13, 13, 1, 15]
open = [true, true, false, false, true, false, false, false, false, false, false, false, true, true, true]
trucks_used = [8, 5, 0, 0, 2, 0, 0, 0, 0, 0, 0, 0, 9, 4, 1]
truck_assigned = [8, 9, 2, 6, 8, 4, 8, 8, 7, 7, 5, 8, 8, 3, 2, 9, 4, 9, 7, 7, 5, 3, 5, 4, 1, 3, 7, 7, 6, 1]
obj = 7904
----------
source = [13, 1, 2, 1, 1, 5, 1, 1, 15, 1, 2, 1, 13, 2, 5, 14, 2, 13, 1, 13, 14, 13, 13, 13, 14, 1, 13, 14, 13, 15]
open = [true, true, false, false, true, false, false, false, false, false, false, false, true, true, true]
trucks_used = [9, 2, 0, 0, 2, 0, 0, 0, 0, 0, 0, 0, 9, 4, 1]
truck_assigned = [8, 7, 2, 6, 8, 1, 8, 9, 1, 9, 2, 9, 9, 1, 2, 4, 1, 6, 8, 7, 2, 6, 2, 8, 3, 9, 9, 2, 9, 1]
obj = 7902
----------
source = [1, 1, 2, 14, 1, 15, 1, 1, 2, 1, 13, 1, 13, 13, 13, 14, 2, 13, 1, 15, 14, 13, 5, 13, 5, 5, 13, 14, 1, 13]
open = [true, true, false, false, true, false, false, false, false, false, false, false, true, true, true]
trucks_used = [9, 1, 0, 0, 2, 0, 0, 0, 0, 0, 0, 0, 9, 4, 1]
truck_assigned = [7, 7, 1, 4, 7, 1, 9, 9, 1, 9, 8, 9, 9, 6, 8, 1, 1, 6, 8, 1, 4, 9, 2, 7, 1, 2, 9, 4, 8, 8]
obj = 7875
----------
source = [7, 4, 1, 7, 13, 1, 13, 13, 13, 5, 13, 13, 3, 13, 13, 14, 4, 3, 1, 3, 14, 5, 1, 5, 5, 1, 3, 14, 14, 13]
open = [true, false, true, true, true, false, true, false, false, false, false, false, true, true, false]
trucks_used = [2, 0, 2, 1, 3, 0, 1, 0, 0, 0, 0, 0, 9, 4, 0]
truck_assigned = [1, 1, 1, 1, 8, 2, 7, 5, 7, 2, 9, 9, 2, 9, 8, 4, 1, 2, 1, 1, 4, 3, 2, 3, 3, 1, 2, 4, 3, 8]
obj = 7869
----------
source = [5, 13, 9, 5, 1, 1, 3, 1, 1, 1, 1, 1, 5, 13, 14, 3, 7, 13, 14, 13, 3, 13, 3, 13, 1, 13, 13, 13, 5, 1]
open = [true, false, true, false, true, false, true, false, true, false, false, false, true, true, false]
trucks_used = [3, 0, 4, 0, 4, 0, 1, 0, 1, 0, 0, 0, 9, 1, 0]
truck_assigned = [4, 9, 1, 4, 2, 1, 4, 1, 1, 2, 3, 2, 3, 9, 1, 4, 1, 6, 1, 8, 4, 9, 3, 8, 3, 7, 7, 9, 4, 3]
obj = 7856
----------
source = [13, 13, 5, 3, 1, 1, 12, 13, 1, 1, 1, 1, 13, 13, 3, 5, 3, 13, 12, 5, 12, 13, 12, 3, 1, 13, 13, 13, 9, 1]
open = [true, false, true, false, true, false, false, false, true, false, false, true, true, false, false]
trucks_used = [7, 0, 2, 0, 1, 0, 0, 0, 1, 0, 0, 1, 10, 0, 0]
truck_assigned = [9, 3, 1, 1, 4, 5, 1, 9, 7, 7, 7, 6, 6, 10, 2, 1, 2, 9, 1, 1, 1, 10, 1, 1, 6, 8, 10, 8, 1, 5]
obj = 7772
----------
source = [10, 13, 3, 10, 1, 13, 13, 1, 1, 1, 1, 1, 13, 13, 3, 5, 10, 3, 12, 5, 13, 5, 1, 3, 1, 5, 13, 1, 3, 12]
open = [true, false, true, false, true, false, false, false, false, true, false, true, true, false, false]
trucks_used = [8, 0, 2, 0, 4, 0, 0, 0, 0, 2, 0, 1, 3, 0, 0]
truck_assigned = [2, 3, 1, 2, 6, 3, 2, 8, 7, 7, 8, 8, 1, 3, 2, 1, 2, 2, 1, 1, 2, 4, 4, 2, 7, 1, 2, 8, 1, 1]
obj = 7771
----------
source = [10, 5, 3, 12, 12, 13, 13, 1, 13, 1, 3, 1, 13, 13, 3, 5, 10, 12, 1, 10, 12, 3, 1, 3, 1, 5, 1, 1, 3, 5]
open = [true, false, true, false, true, false, false, false, false, true, false, true, true, false, false]
trucks_used = [8, 0, 6, 0, 4, 0, 0, 0, 0, 2, 0, 1, 3, 0, 0]
truck_assigned = [2, 3, 5, 1, 1, 3, 2, 6, 2, 7, 5, 8, 2, 3, 4, 4, 2, 1, 7, 2, 1, 5, 7, 6, 8, 2, 8, 6, 6, 4]
obj = 7763
----------
source = [12, 5, 10, 12, 1, 1, 4, 3, 12, 10, 12, 3, 5, 4, 3, 5, 10, 1, 1, 3, 12, 1, 5, 3, 1, 3, 1, 1, 3, 3]
open = [true, false, true, true, true, false, false, false, false, true, false, true, false, false, false]
trucks_used = [8, 0, 8, 1, 4, 0, 0, 0, 0, 2, 0, 2, 0, 0, 0]
truck_assigned = [2, 4, 2, 1, 7, 7, 1, 7, 2, 2, 2, 8, 2, 1, 7, 4, 2, 6, 8, 5, 2, 1, 2, 8, 8, 7, 8, 8, 8, 6]
obj = 7762
----------
source = [12, 5, 5, 12, 5, 1, 4, 3, 12, 10, 1, 3, 1, 4, 3, 5, 10, 1, 10, 3, 12, 1, 12, 3, 1, 3, 1, 1, 3, 3]
open = [true, false, true, true, true, false, false, false, false, true, false, true, false, false, false]
trucks_used = [8, 0, 8, 1, 4, 0, 0, 0, 0, 2, 0, 2, 0, 0, 0]
truck_assigned = [2, 4, 3, 2, 4, 7, 1, 7, 1, 2, 6, 8, 7, 1, 7, 3, 2, 8, 2, 6, 2, 8, 2, 8, 8, 7, 8, 8, 8, 6]
obj = 7754
----------
source = [12, 1, 5, 1, 5, 1, 10, 3, 12, 10, 1, 3, 5, 4, 3, 5, 4, 1, 10, 3, 12, 1, 12, 3, 1, 3, 1, 10, 3, 3]
open = [true, false, true, true, true, false, false, false, false, true, false, true, false, false, false]
trucks_used = [8, 0, 8, 1, 4, 0, 0, 0, 0, 2, 0, 2, 0, 0, 0]
truck_assigned = [2, 7, 4, 6, 4, 7, 2, 8, 2, 2, 8, 8, 3, 1, 6, 4, 1, 6, 2, 6, 2, 8, 1, 7, 8, 7, 8, 2, 8, 8]
obj = 7746
----------
source = [10, 5, 4, 1, 12, 10, 3, 3, 12, 1, 1, 3, 1, 4, 1, 5, 12, 1, 10, 3, 3, 1, 12, 5, 12, 3, 1, 5, 3, 3]
open = [true, false, true, true, true, false, false, false, false, true, false, true, false, false, false]
trucks_used = [8, 0, 8, 1, 4, 0, 0, 0, 0, 2, 0, 2, 0, 0, 0]
truck_assigned = [2, 4, 1, 8, 2, 2, 6, 8, 2, 8, 6, 8, 7, 1, 7, 4, 1, 7, 2, 7, 6, 8, 1, 3, 2, 7, 8, 3, 8, 8]
obj = 7739
----------
source = [12, 12, 10, 1, 5, 4, 3, 3, 12, 10, 1, 3, 1, 4, 1, 5, 12, 1, 10, 3, 3, 1, 12, 5, 5, 3, 1, 1, 3, 3]
open = [true, false, true, true, true, false, false, false, false, true, false, true, false, false, false]
trucks_used = [8, 0, 8, 1, 4, 0, 0, 0, 0, 2, 0, 2, 0, 0, 0]
truck_assigned = [1, 2, 2, 8, 2, 1, 6, 8, 2, 2, 7, 7, 7, 1, 8, 4, 2, 7, 2, 7, 8, 1, 2, 4, 3, 7, 8, 3, 6, 8]
obj = 7735
----------
source = [12, 12, 10, 1, 5, 4, 3, 3, 12, 10, 1, 3, 1, 4, 1, 5, 12, 1, 10, 3, 3, 1, 5, 5, 12, 3, 1, 1, 3, 3]
open = [true, false, true, true, true, false, false, false, false, true, false, true, false, false, false]
trucks_used = [8, 0, 8, 1, 4, 0, 0, 0, 0, 2, 0, 2, 0, 0, 0]
truck_assigned = [2, 2, 2, 8, 3, 1, 6, 8, 2, 2, 7, 6, 7, 1, 8, 4, 2, 7, 2, 7, 8, 6, 3, 4, 1, 7, 8, 7, 6, 8]
obj = 7726
----------
source = [12, 5, 10, 1, 12, 4, 3, 3, 12, 3, 1, 3, 1, 4, 1, 5, 12, 1, 10, 3, 3, 1, 12, 5, 10, 5, 1, 1, 3, 3]
open = [true, false, true, true, true, false, false, false, false, true, false, true, false, false, false]
trucks_used = [8, 0, 8, 1, 4, 0, 0, 0, 0, 2, 0, 2, 0, 0, 0]
truck_assigned = [2, 3, 2, 7, 1, 1, 7, 7, 2, 3, 8, 8, 7, 1, 8, 4, 2, 6, 2, 7, 8, 8, 2, 4, 2, 4, 4, 8, 6, 8]
obj = 7718
----------
source = [10, 5, 10, 1, 12, 4, 3, 3, 12, 3, 1, 3, 1, 4, 1, 5, 12, 1, 10, 3, 3, 1, 12, 5, 12, 5, 1, 1, 3, 3]
open = [true, false, true, true, true, false, false, false, false, true, false, true, false, false, false]
trucks_used = [8, 0, 8, 1, 4, 0, 0, 0, 0, 2, 0, 2, 0, 0, 0]
truck_assigned = [2, 3, 1, 7, 2, 1, 7, 6, 2, 8, 7, 7, 8, 1, 4, 4, 2, 8, 2, 7, 8, 8, 2, 4, 1, 1, 7, 8, 6, 6]
obj = 7716
----------
source = [10, 5, 5, 1, 5, 4, 3, 3, 12, 3, 1, 3, 1, 4, 1, 5, 12, 1, 10, 3, 12, 1, 12, 1, 10, 3, 1, 10, 3, 3]
open = [true, false, true, true, true, false, false, false, false, true, false, true, false, false, false]
trucks_used = [8, 0, 8, 1, 4, 0, 0, 0, 0, 2, 0, 2, 0, 0, 0]
truck_assigned = [2, 3, 4, 7, 4, 1, 8, 7, 2, 8, 8, 8, 8, 1, 7, 4, 2, 7, 2, 7, 2, 8, 2, 6, 1, 6, 6, 2, 6, 7]
obj = 7710
----------
source = [12, 5, 5, 1, 5, 4, 10, 3, 12, 3, 1, 3, 1, 4, 1, 5, 10, 1, 10, 3, 3, 1, 12, 12, 12, 3, 1, 1, 3, 3]
open = [true, false, true, true, true, false, false, false, false, true, false, true, false, false, false]
trucks_used = [8, 0, 8, 1, 4, 0, 0, 0, 0, 2, 0, 2, 0, 0, 0]
truck_assigned = [2, 2, 4, 7, 4, 1, 2, 7, 2, 8, 8, 8, 8, 1, 7, 4, 2, 7, 2, 7, 6, 8, 2, 2, 1, 7, 3, 6, 6, 8]
obj = 7698
----------
source = [12, 5, 5, 1, 5, 4, 10, 3, 12, 3, 1, 3, 1, 4, 1, 5, 12, 1, 10, 3, 3, 3, 12, 12, 10, 3, 1, 1, 3, 1]
open = [true, false, true, true, true, false, false, false, false, true, false, true, false, false, false]
trucks_used = [8, 0, 8, 1, 4, 0, 0, 0, 0, 2, 0, 2, 0, 0, 0]
truck_assigned = [2, 2, 4, 7, 4, 1, 2, 6, 2, 8, 8, 8, 8, 1, 7, 4, 2, 7, 2, 8, 6, 7, 2, 1, 2, 7, 8, 8, 7, 6]
obj = 7697
----------
source = [12, 5, 5, 1, 5, 4, 10, 3, 12, 3, 1, 3, 1, 4, 1, 5, 12, 1, 10, 3, 3, 1, 12, 12, 10, 3, 1, 1, 3, 3]
open = [true, false, true, true, true, false, false, false, false, true, false, true, false, false, false]
trucks_used = [8, 0, 8, 1, 4, 0, 0, 0, 0, 2, 0, 2, 0, 0, 0]
truck_assigned = [2, 2, 4, 7, 4, 1, 2, 8, 2, 8, 8, 4, 8, 1, 7, 4, 2, 7, 2, 8, 6, 5, 2, 1, 2, 7, 8, 8, 7, 6]
obj = 7673
----------
