+ /usr/bin/timeout 600 /usr/bin/time -v mzn-chuffed lbbd-datasets/Rabadi-2006/dzn-balanced/model.mzn lbbd-datasets/Rabadi-2006/dzn-balanced/9on6Rp50Rs50_6Ameer.dzn
% No search annotation given. Defaulting to VSIDS!
assign = array1d(1..15 ,[6, 6, 6, 6, 6, 6, 6, 6, 6, 1, 2, 3, 4, 5, 6]);
next = array1d(1..15 ,[2, 3, 4, 5, 6, 7, 8, 9, 15, 11, 12, 13, 14, 1, 10]);
makespan = 1273;
----------
assign = array1d(1..15 ,[6, 6, 6, 6, 6, 6, 6, 6, 6, 1, 2, 3, 4, 5, 6]);
next = array1d(1..15 ,[4, 3, 5, 2, 6, 7, 8, 9, 15, 11, 12, 13, 14, 1, 10]);
makespan = 1243;
----------
assign = array1d(1..15 ,[2, 6, 1, 1, 6, 6, 6, 6, 6, 1, 2, 3, 4, 5, 6]);
next = array1d(1..15 ,[11, 5, 10, 3, 6, 7, 8, 9, 15, 1, 12, 13, 14, 2, 4]);
makespan = 1051;
----------
assign = array1d(1..15 ,[6, 6, 6, 6, 1, 6, 6, 1, 6, 1, 2, 3, 4, 5, 6]);
next = array1d(1..15 ,[9, 7, 6, 2, 10, 1, 3, 5, 15, 11, 12, 13, 14, 4, 8]);
makespan = 1050;
----------
assign = array1d(1..15 ,[6, 6, 6, 6, 6, 1, 6, 1, 6, 1, 2, 3, 4, 5, 6]);
next = array1d(1..15 ,[2, 7, 1, 15, 9, 10, 4, 6, 3, 11, 12, 13, 14, 5, 8]);
makespan = 1048;
----------
assign = array1d(1..15 ,[6, 6, 6, 6, 6, 1, 6, 1, 6, 1, 2, 3, 4, 5, 6]);
next = array1d(1..15 ,[2, 7, 1, 15, 9, 10, 4, 6, 3, 11, 12, 13, 14, 5, 8]);
makespan = 1047;
----------
assign = array1d(1..15 ,[6, 6, 6, 6, 6, 1, 6, 1, 6, 1, 2, 3, 4, 5, 6]);
next = array1d(1..15 ,[2, 7, 1, 15, 9, 10, 4, 6, 3, 11, 12, 13, 14, 5, 8]);
makespan = 1046;
----------
assign = array1d(1..15 ,[6, 6, 6, 6, 6, 1, 6, 1, 6, 1, 2, 3, 4, 5, 6]);
next = array1d(1..15 ,[2, 7, 1, 15, 9, 10, 4, 6, 3, 11, 12, 13, 14, 5, 8]);
makespan = 1045;
----------
assign = array1d(1..15 ,[6, 6, 6, 6, 6, 1, 6, 1, 6, 1, 2, 3, 4, 5, 6]);
next = array1d(1..15 ,[2, 7, 1, 15, 9, 10, 4, 6, 3, 11, 12, 13, 14, 5, 8]);
makespan = 1044;
----------
assign = array1d(1..15 ,[6, 6, 6, 6, 6, 1, 6, 1, 6, 1, 2, 3, 4, 5, 6]);
next = array1d(1..15 ,[2, 7, 1, 15, 9, 10, 4, 6, 3, 11, 12, 13, 14, 5, 8]);
makespan = 1043;
----------
assign = array1d(1..15 ,[6, 6, 6, 6, 6, 1, 6, 1, 6, 1, 2, 3, 4, 5, 6]);
next = array1d(1..15 ,[2, 7, 1, 15, 9, 10, 4, 6, 3, 11, 12, 13, 14, 5, 8]);
makespan = 1042;
----------
assign = array1d(1..15 ,[6, 6, 6, 6, 6, 2, 6, 2, 6, 1, 2, 3, 4, 5, 6]);
next = array1d(1..15 ,[2, 7, 1, 15, 9, 11, 4, 6, 3, 8, 12, 13, 14, 5, 10]);
makespan = 1041;
----------
assign = array1d(1..15 ,[6, 6, 6, 6, 6, 1, 6, 1, 6, 1, 2, 3, 4, 5, 6]);
next = array1d(1..15 ,[2, 7, 1, 15, 9, 10, 4, 6, 3, 11, 12, 13, 14, 5, 8]);
makespan = 1040;
----------
assign = array1d(1..15 ,[6, 6, 6, 6, 6, 3, 6, 3, 6, 1, 2, 3, 4, 5, 6]);
next = array1d(1..15 ,[2, 7, 1, 15, 9, 12, 4, 6, 3, 11, 8, 13, 14, 5, 10]);
makespan = 1039;
----------
assign = array1d(1..15 ,[6, 6, 6, 6, 6, 1, 6, 1, 6, 1, 2, 3, 4, 5, 6]);
next = array1d(1..15 ,[2, 7, 1, 15, 9, 10, 4, 6, 3, 11, 12, 13, 14, 5, 8]);
makespan = 1038;
----------
assign = array1d(1..15 ,[6, 6, 6, 6, 6, 4, 6, 4, 6, 1, 2, 3, 4, 5, 6]);
next = array1d(1..15 ,[2, 7, 1, 15, 9, 13, 4, 6, 3, 11, 12, 8, 14, 5, 10]);
makespan = 1037;
----------
assign = array1d(1..15 ,[6, 6, 6, 6, 6, 1, 6, 1, 6, 1, 2, 3, 4, 5, 6]);
next = array1d(1..15 ,[2, 7, 1, 15, 9, 10, 4, 6, 3, 11, 12, 13, 14, 5, 8]);
makespan = 1036;
----------
assign = array1d(1..15 ,[6, 6, 6, 6, 6, 4, 6, 4, 6, 1, 2, 3, 4, 5, 6]);
next = array1d(1..15 ,[2, 7, 1, 15, 9, 13, 4, 6, 3, 11, 12, 8, 14, 5, 10]);
makespan = 1035;
----------
assign = array1d(1..15 ,[6, 6, 6, 6, 6, 5, 6, 5, 6, 1, 2, 3, 4, 5, 6]);
next = array1d(1..15 ,[2, 7, 1, 15, 9, 14, 4, 6, 3, 11, 12, 13, 8, 5, 10]);
makespan = 1034;
----------
assign = array1d(1..15 ,[6, 6, 6, 6, 6, 3, 6, 3, 6, 1, 2, 3, 4, 5, 6]);
next = array1d(1..15 ,[2, 7, 1, 15, 9, 12, 4, 6, 3, 11, 8, 13, 14, 5, 10]);
makespan = 1033;
----------
assign = array1d(1..15 ,[6, 6, 6, 6, 6, 5, 6, 5, 6, 1, 2, 3, 4, 5, 6]);
next = array1d(1..15 ,[2, 7, 1, 15, 9, 14, 4, 6, 3, 11, 12, 13, 8, 5, 10]);
makespan = 1032;
----------
assign = array1d(1..15 ,[6, 6, 6, 6, 6, 3, 6, 3, 6, 1, 2, 3, 4, 5, 6]);
next = array1d(1..15 ,[2, 7, 1, 15, 9, 12, 4, 6, 3, 11, 8, 13, 14, 5, 10]);
makespan = 1031;
----------
assign = array1d(1..15 ,[6, 6, 6, 6, 6, 5, 6, 5, 6, 1, 2, 3, 4, 5, 6]);
next = array1d(1..15 ,[2, 7, 1, 15, 9, 14, 4, 6, 3, 11, 12, 13, 8, 5, 10]);
makespan = 1030;
----------
assign = array1d(1..15 ,[6, 6, 6, 6, 6, 3, 6, 3, 6, 1, 2, 3, 4, 5, 6]);
next = array1d(1..15 ,[2, 7, 1, 15, 9, 12, 4, 6, 3, 11, 8, 13, 14, 5, 10]);
makespan = 1028;
----------
assign = array1d(1..15 ,[6, 6, 6, 6, 6, 5, 6, 5, 6, 1, 2, 3, 4, 5, 6]);
next = array1d(1..15 ,[2, 7, 1, 15, 9, 14, 4, 6, 3, 11, 12, 13, 8, 5, 10]);
makespan = 1027;
----------
assign = array1d(1..15 ,[6, 6, 6, 6, 6, 3, 6, 3, 6, 1, 2, 3, 4, 5, 6]);
next = array1d(1..15 ,[2, 7, 1, 15, 9, 12, 4, 6, 3, 11, 8, 13, 14, 5, 10]);
makespan = 1025;
----------
assign = array1d(1..15 ,[6, 6, 6, 6, 6, 1, 6, 1, 6, 1, 2, 3, 4, 5, 6]);
next = array1d(1..15 ,[2, 7, 1, 15, 9, 10, 4, 6, 3, 11, 12, 13, 14, 5, 8]);
makespan = 1024;
----------
assign = array1d(1..15 ,[6, 6, 6, 6, 6, 3, 6, 3, 6, 1, 2, 3, 4, 5, 6]);
next = array1d(1..15 ,[2, 7, 1, 15, 9, 12, 4, 6, 3, 11, 8, 13, 14, 5, 10]);
makespan = 1021;
----------
assign = array1d(1..15 ,[6, 6, 6, 6, 6, 1, 6, 1, 6, 1, 2, 3, 4, 5, 6]);
next = array1d(1..15 ,[2, 7, 1, 15, 9, 10, 4, 6, 3, 11, 12, 13, 14, 5, 8]);
makespan = 1020;
----------
assign = array1d(1..15 ,[6, 6, 6, 6, 6, 3, 6, 3, 6, 1, 2, 3, 4, 5, 6]);
next = array1d(1..15 ,[2, 7, 1, 15, 9, 12, 4, 6, 3, 11, 8, 13, 14, 5, 10]);
makespan = 1018;
----------
assign = array1d(1..15 ,[6, 6, 6, 6, 6, 1, 6, 1, 6, 1, 2, 3, 4, 5, 6]);
next = array1d(1..15 ,[2, 7, 1, 15, 9, 10, 4, 6, 3, 11, 12, 13, 14, 5, 8]);
makespan = 1017;
----------
assign = array1d(1..15 ,[6, 6, 6, 6, 6, 3, 6, 3, 6, 1, 2, 3, 4, 5, 6]);
next = array1d(1..15 ,[2, 7, 1, 15, 9, 12, 4, 6, 3, 11, 8, 13, 14, 5, 10]);
makespan = 1014;
----------
assign = array1d(1..15 ,[6, 6, 6, 6, 6, 1, 6, 1, 6, 1, 2, 3, 4, 5, 6]);
next = array1d(1..15 ,[2, 7, 1, 15, 9, 10, 4, 6, 3, 11, 12, 13, 14, 5, 8]);
makespan = 1013;
----------
assign = array1d(1..15 ,[6, 6, 6, 6, 6, 3, 6, 3, 6, 1, 2, 3, 4, 5, 6]);
next = array1d(1..15 ,[2, 7, 1, 15, 9, 12, 4, 6, 3, 11, 8, 13, 14, 5, 10]);
makespan = 1012;
----------
assign = array1d(1..15 ,[6, 6, 6, 6, 6, 1, 6, 1, 6, 1, 2, 3, 4, 5, 6]);
next = array1d(1..15 ,[2, 7, 1, 15, 9, 10, 4, 6, 3, 11, 12, 13, 14, 5, 8]);
makespan = 1009;
----------
assign = array1d(1..15 ,[6, 6, 6, 6, 6, 3, 6, 3, 6, 1, 2, 3, 4, 5, 6]);
next = array1d(1..15 ,[2, 7, 1, 15, 9, 12, 4, 6, 3, 11, 8, 13, 14, 5, 10]);
makespan = 1008;
----------
assign = array1d(1..15 ,[6, 6, 6, 6, 6, 1, 6, 1, 6, 1, 2, 3, 4, 5, 6]);
next = array1d(1..15 ,[2, 7, 1, 15, 9, 10, 4, 6, 3, 11, 12, 13, 14, 5, 8]);
makespan = 1007;
----------
assign = array1d(1..15 ,[6, 6, 6, 6, 6, 3, 6, 3, 6, 1, 2, 3, 4, 5, 6]);
next = array1d(1..15 ,[2, 7, 1, 15, 9, 12, 4, 6, 3, 11, 8, 13, 14, 5, 10]);
makespan = 1006;
----------
assign = array1d(1..15 ,[6, 6, 6, 6, 6, 1, 6, 1, 6, 1, 2, 3, 4, 5, 6]);
next = array1d(1..15 ,[2, 7, 1, 15, 9, 10, 4, 6, 3, 11, 12, 13, 14, 5, 8]);
makespan = 1004;
----------
assign = array1d(1..15 ,[6, 6, 6, 6, 6, 3, 6, 3, 6, 1, 2, 3, 4, 5, 6]);
next = array1d(1..15 ,[2, 7, 1, 15, 9, 12, 4, 6, 3, 11, 8, 13, 14, 5, 10]);
makespan = 1003;
----------
assign = array1d(1..15 ,[6, 6, 6, 6, 6, 1, 6, 1, 6, 1, 2, 3, 4, 5, 6]);
next = array1d(1..15 ,[2, 7, 1, 15, 9, 10, 4, 6, 3, 11, 12, 13, 14, 5, 8]);
makespan = 1001;
----------
assign = array1d(1..15 ,[6, 6, 6, 6, 6, 3, 6, 3, 6, 1, 2, 3, 4, 5, 6]);
next = array1d(1..15 ,[2, 7, 1, 15, 9, 12, 4, 6, 3, 11, 8, 13, 14, 5, 10]);
makespan = 1000;
----------
assign = array1d(1..15 ,[6, 6, 6, 6, 6, 1, 6, 1, 6, 1, 2, 3, 4, 5, 6]);
next = array1d(1..15 ,[2, 7, 1, 15, 9, 10, 4, 6, 3, 11, 12, 13, 14, 5, 8]);
makespan = 999;
----------
assign = array1d(1..15 ,[6, 6, 6, 6, 6, 3, 6, 3, 6, 1, 2, 3, 4, 5, 6]);
next = array1d(1..15 ,[2, 7, 1, 15, 9, 12, 4, 6, 3, 11, 8, 13, 14, 5, 10]);
makespan = 997;
----------
assign = array1d(1..15 ,[6, 6, 6, 6, 6, 1, 6, 1, 6, 1, 2, 3, 4, 5, 6]);
next = array1d(1..15 ,[2, 7, 1, 15, 9, 10, 4, 6, 3, 11, 12, 13, 14, 5, 8]);
makespan = 996;
----------
assign = array1d(1..15 ,[6, 6, 6, 6, 6, 3, 6, 3, 6, 1, 2, 3, 4, 5, 6]);
next = array1d(1..15 ,[2, 7, 1, 15, 9, 12, 4, 6, 3, 11, 8, 13, 14, 5, 10]);
makespan = 995;
----------
assign = array1d(1..15 ,[6, 6, 6, 6, 6, 1, 6, 1, 6, 1, 2, 3, 4, 5, 6]);
next = array1d(1..15 ,[2, 7, 1, 15, 9, 10, 4, 6, 3, 11, 12, 13, 14, 5, 8]);
makespan = 994;
----------
assign = array1d(1..15 ,[6, 6, 6, 6, 6, 3, 6, 3, 6, 1, 2, 3, 4, 5, 6]);
next = array1d(1..15 ,[2, 7, 1, 15, 9, 12, 4, 6, 3, 11, 8, 13, 14, 5, 10]);
makespan = 993;
----------
assign = array1d(1..15 ,[6, 6, 6, 6, 6, 1, 6, 1, 6, 1, 2, 3, 4, 5, 6]);
next = array1d(1..15 ,[2, 7, 1, 15, 9, 10, 4, 6, 3, 11, 12, 13, 14, 5, 8]);
makespan = 992;
----------
assign = array1d(1..15 ,[6, 6, 6, 6, 6, 3, 6, 3, 6, 1, 2, 3, 4, 5, 6]);
next = array1d(1..15 ,[2, 7, 1, 15, 9, 12, 4, 6, 3, 11, 8, 13, 14, 5, 10]);
makespan = 991;
----------
assign = array1d(1..15 ,[6, 6, 6, 6, 6, 1, 6, 1, 6, 1, 2, 3, 4, 5, 6]);
next = array1d(1..15 ,[2, 7, 1, 15, 9, 10, 4, 6, 3, 11, 12, 13, 14, 5, 8]);
makespan = 990;
----------
assign = array1d(1..15 ,[6, 6, 6, 6, 6, 3, 6, 3, 6, 1, 2, 3, 4, 5, 6]);
next = array1d(1..15 ,[2, 7, 1, 15, 9, 12, 4, 6, 3, 11, 8, 13, 14, 5, 10]);
makespan = 989;
----------
assign = array1d(1..15 ,[6, 6, 6, 6, 6, 1, 6, 1, 6, 1, 2, 3, 4, 5, 6]);
next = array1d(1..15 ,[2, 7, 1, 15, 9, 10, 4, 6, 3, 11, 12, 13, 14, 5, 8]);
makespan = 988;
----------
assign = array1d(1..15 ,[6, 6, 6, 6, 6, 3, 6, 3, 6, 1, 2, 3, 4, 5, 6]);
next = array1d(1..15 ,[2, 7, 1, 15, 9, 12, 4, 6, 3, 11, 8, 13, 14, 5, 10]);
makespan = 987;
----------
assign = array1d(1..15 ,[6, 6, 6, 6, 6, 1, 6, 1, 6, 1, 2, 3, 4, 5, 6]);
next = array1d(1..15 ,[2, 7, 1, 15, 9, 10, 4, 6, 3, 11, 12, 13, 14, 5, 8]);
makespan = 986;
----------
assign = array1d(1..15 ,[6, 6, 6, 6, 6, 3, 6, 3, 6, 1, 2, 3, 4, 5, 6]);
next = array1d(1..15 ,[2, 7, 1, 15, 9, 12, 4, 6, 3, 11, 8, 13, 14, 5, 10]);
makespan = 985;
----------
assign = array1d(1..15 ,[6, 6, 6, 6, 6, 1, 6, 1, 6, 1, 2, 3, 4, 5, 6]);
next = array1d(1..15 ,[2, 7, 1, 15, 9, 10, 4, 6, 3, 11, 12, 13, 14, 5, 8]);
makespan = 984;
----------
assign = array1d(1..15 ,[6, 6, 6, 6, 6, 3, 6, 3, 6, 1, 2, 3, 4, 5, 6]);
next = array1d(1..15 ,[2, 7, 1, 15, 9, 12, 4, 6, 3, 11, 8, 13, 14, 5, 10]);
makespan = 983;
----------
assign = array1d(1..15 ,[6, 6, 6, 6, 6, 1, 6, 1, 6, 1, 2, 3, 4, 5, 6]);
next = array1d(1..15 ,[2, 7, 1, 15, 9, 10, 4, 6, 3, 11, 12, 13, 14, 5, 8]);
makespan = 982;
----------
assign = array1d(1..15 ,[6, 6, 6, 6, 6, 3, 6, 3, 6, 1, 2, 3, 4, 5, 6]);
next = array1d(1..15 ,[2, 7, 1, 15, 9, 12, 4, 6, 3, 11, 8, 13, 14, 5, 10]);
makespan = 981;
----------
assign = array1d(1..15 ,[6, 6, 6, 6, 6, 1, 6, 1, 6, 1, 2, 3, 4, 5, 6]);
next = array1d(1..15 ,[2, 7, 1, 15, 9, 10, 4, 6, 3, 11, 12, 13, 14, 5, 8]);
makespan = 980;
----------
assign = array1d(1..15 ,[6, 6, 6, 6, 6, 3, 6, 3, 6, 1, 2, 3, 4, 5, 6]);
next = array1d(1..15 ,[2, 7, 1, 15, 9, 12, 4, 6, 3, 11, 8, 13, 14, 5, 10]);
makespan = 979;
----------
assign = array1d(1..15 ,[6, 6, 6, 6, 6, 1, 6, 1, 6, 1, 2, 3, 4, 5, 6]);
next = array1d(1..15 ,[2, 7, 1, 15, 9, 10, 4, 6, 3, 11, 12, 13, 14, 5, 8]);
makespan = 978;
----------
assign = array1d(1..15 ,[6, 6, 6, 6, 6, 3, 6, 3, 6, 1, 2, 3, 4, 5, 6]);
next = array1d(1..15 ,[2, 7, 1, 15, 9, 12, 4, 6, 3, 11, 8, 13, 14, 5, 10]);
makespan = 977;
----------
assign = array1d(1..15 ,[6, 6, 6, 6, 6, 1, 6, 1, 6, 1, 2, 3, 4, 5, 6]);
next = array1d(1..15 ,[2, 7, 1, 15, 9, 10, 4, 6, 3, 11, 12, 13, 14, 5, 8]);
makespan = 976;
----------
assign = array1d(1..15 ,[6, 6, 6, 6, 6, 3, 6, 3, 6, 1, 2, 3, 4, 5, 6]);
next = array1d(1..15 ,[2, 7, 1, 15, 9, 12, 4, 6, 3, 11, 8, 13, 14, 5, 10]);
makespan = 975;
----------
assign = array1d(1..15 ,[6, 6, 6, 6, 6, 1, 6, 1, 6, 1, 2, 3, 4, 5, 6]);
next = array1d(1..15 ,[2, 7, 1, 15, 9, 10, 4, 6, 3, 11, 12, 13, 14, 5, 8]);
makespan = 974;
----------
assign = array1d(1..15 ,[6, 6, 6, 6, 6, 3, 6, 3, 6, 1, 2, 3, 4, 5, 6]);
next = array1d(1..15 ,[2, 7, 1, 15, 9, 12, 4, 6, 3, 11, 8, 13, 14, 5, 10]);
makespan = 973;
----------
assign = array1d(1..15 ,[6, 6, 6, 6, 6, 1, 6, 1, 6, 1, 2, 3, 4, 5, 6]);
next = array1d(1..15 ,[2, 7, 1, 15, 9, 10, 4, 6, 3, 11, 12, 13, 14, 5, 8]);
makespan = 972;
----------
assign = array1d(1..15 ,[6, 6, 6, 6, 6, 3, 6, 3, 6, 1, 2, 3, 4, 5, 6]);
next = array1d(1..15 ,[2, 7, 1, 15, 9, 12, 4, 6, 3, 11, 8, 13, 14, 5, 10]);
makespan = 971;
----------
assign = array1d(1..15 ,[6, 6, 6, 6, 6, 1, 6, 1, 6, 1, 2, 3, 4, 5, 6]);
next = array1d(1..15 ,[2, 7, 1, 15, 9, 10, 4, 6, 3, 11, 12, 13, 14, 5, 8]);
makespan = 970;
----------
assign = array1d(1..15 ,[6, 6, 6, 6, 6, 3, 6, 3, 6, 1, 2, 3, 4, 5, 6]);
next = array1d(1..15 ,[2, 7, 1, 15, 9, 12, 4, 6, 3, 11, 8, 13, 14, 5, 10]);
makespan = 969;
----------
assign = array1d(1..15 ,[6, 6, 6, 6, 6, 1, 6, 1, 6, 1, 2, 3, 4, 5, 6]);
next = array1d(1..15 ,[2, 7, 1, 15, 9, 10, 4, 6, 3, 11, 12, 13, 14, 5, 8]);
makespan = 968;
----------
assign = array1d(1..15 ,[6, 6, 6, 6, 6, 3, 6, 3, 6, 1, 2, 3, 4, 5, 6]);
next = array1d(1..15 ,[2, 7, 1, 15, 9, 12, 4, 6, 3, 11, 8, 13, 14, 5, 10]);
makespan = 967;
----------
assign = array1d(1..15 ,[6, 6, 6, 6, 6, 1, 6, 1, 6, 1, 2, 3, 4, 5, 6]);
next = array1d(1..15 ,[2, 7, 1, 15, 9, 10, 4, 6, 3, 11, 12, 13, 14, 5, 8]);
makespan = 966;
----------
assign = array1d(1..15 ,[6, 6, 6, 6, 6, 3, 6, 3, 6, 1, 2, 3, 4, 5, 6]);
next = array1d(1..15 ,[2, 7, 1, 15, 9, 12, 4, 6, 3, 11, 8, 13, 14, 5, 10]);
makespan = 965;
----------
assign = array1d(1..15 ,[6, 6, 6, 6, 6, 1, 6, 1, 6, 1, 2, 3, 4, 5, 6]);
next = array1d(1..15 ,[2, 7, 1, 15, 9, 10, 4, 6, 3, 11, 12, 13, 14, 5, 8]);
makespan = 963;
----------
assign = array1d(1..15 ,[6, 6, 6, 6, 6, 3, 6, 3, 6, 1, 2, 3, 4, 5, 6]);
next = array1d(1..15 ,[2, 7, 1, 15, 9, 12, 4, 6, 3, 11, 8, 13, 14, 5, 10]);
makespan = 962;
----------
assign = array1d(1..15 ,[6, 6, 6, 6, 6, 1, 6, 1, 6, 1, 2, 3, 4, 5, 6]);
next = array1d(1..15 ,[2, 7, 1, 15, 9, 10, 4, 6, 3, 11, 12, 13, 14, 5, 8]);
makespan = 961;
----------
assign = array1d(1..15 ,[6, 6, 6, 6, 6, 4, 6, 4, 6, 1, 2, 3, 4, 5, 6]);
next = array1d(1..15 ,[2, 7, 1, 15, 9, 13, 4, 6, 3, 11, 12, 8, 14, 5, 10]);
makespan = 960;
----------
assign = array1d(1..15 ,[6, 6, 6, 6, 6, 5, 6, 5, 6, 1, 2, 3, 4, 5, 6]);
next = array1d(1..15 ,[2, 7, 1, 15, 9, 14, 4, 6, 3, 11, 12, 13, 8, 5, 10]);
makespan = 959;
----------
assign = array1d(1..15 ,[6, 6, 6, 6, 6, 1, 6, 1, 6, 1, 2, 3, 4, 5, 6]);
next = array1d(1..15 ,[2, 7, 1, 15, 9, 10, 4, 6, 3, 11, 12, 13, 14, 5, 8]);
makespan = 958;
----------
assign = array1d(1..15 ,[6, 6, 6, 6, 6, 5, 6, 5, 6, 1, 2, 3, 4, 5, 6]);
next = array1d(1..15 ,[2, 7, 1, 15, 9, 14, 4, 6, 3, 11, 12, 13, 8, 5, 10]);
makespan = 957;
----------
assign = array1d(1..15 ,[6, 6, 6, 6, 6, 1, 6, 1, 6, 1, 2, 3, 4, 5, 6]);
next = array1d(1..15 ,[2, 7, 1, 15, 9, 10, 4, 6, 3, 11, 12, 13, 14, 5, 8]);
makespan = 956;
----------
assign = array1d(1..15 ,[6, 6, 6, 6, 6, 5, 6, 5, 6, 1, 2, 3, 4, 5, 6]);
next = array1d(1..15 ,[2, 7, 1, 15, 9, 14, 4, 6, 3, 11, 12, 13, 8, 5, 10]);
makespan = 955;
----------
assign = array1d(1..15 ,[6, 6, 6, 6, 6, 1, 6, 1, 6, 1, 2, 3, 4, 5, 6]);
next = array1d(1..15 ,[2, 7, 1, 15, 9, 10, 4, 6, 3, 11, 12, 13, 14, 5, 8]);
makespan = 954;
----------
assign = array1d(1..15 ,[6, 6, 6, 6, 6, 5, 6, 5, 6, 1, 2, 3, 4, 5, 6]);
next = array1d(1..15 ,[2, 7, 1, 15, 9, 14, 4, 6, 3, 11, 12, 13, 8, 5, 10]);
makespan = 953;
----------
assign = array1d(1..15 ,[6, 6, 6, 6, 6, 2, 6, 2, 6, 1, 2, 3, 4, 5, 6]);
next = array1d(1..15 ,[2, 7, 1, 15, 9, 11, 4, 6, 3, 8, 12, 13, 14, 5, 10]);
makespan = 952;
----------
assign = array1d(1..15 ,[6, 6, 6, 6, 6, 5, 6, 5, 6, 1, 2, 3, 4, 5, 6]);
next = array1d(1..15 ,[2, 7, 1, 15, 9, 14, 4, 6, 3, 11, 12, 13, 8, 5, 10]);
makespan = 951;
----------
assign = array1d(1..15 ,[6, 6, 6, 6, 6, 5, 6, 5, 6, 1, 2, 3, 4, 5, 6]);
next = array1d(1..15 ,[2, 7, 1, 15, 9, 14, 4, 6, 3, 11, 12, 13, 8, 5, 10]);
makespan = 950;
----------
assign = array1d(1..15 ,[6, 6, 6, 6, 6, 1, 6, 1, 6, 1, 2, 3, 4, 5, 6]);
next = array1d(1..15 ,[2, 7, 1, 15, 9, 10, 4, 6, 3, 11, 12, 13, 14, 5, 8]);
makespan = 949;
----------
assign = array1d(1..15 ,[6, 6, 6, 6, 6, 2, 6, 2, 6, 1, 2, 3, 4, 5, 6]);
next = array1d(1..15 ,[2, 7, 1, 15, 9, 11, 4, 6, 3, 8, 12, 13, 14, 5, 10]);
makespan = 948;
----------
assign = array1d(1..15 ,[6, 6, 6, 6, 6, 1, 6, 1, 6, 1, 2, 3, 4, 5, 6]);
next = array1d(1..15 ,[2, 7, 1, 15, 9, 10, 4, 6, 3, 11, 12, 13, 14, 5, 8]);
makespan = 947;
----------
assign = array1d(1..15 ,[6, 6, 6, 6, 6, 3, 6, 3, 6, 1, 2, 3, 4, 5, 6]);
next = array1d(1..15 ,[2, 7, 1, 15, 9, 12, 4, 6, 3, 11, 8, 13, 14, 5, 10]);
makespan = 946;
----------
assign = array1d(1..15 ,[6, 6, 6, 6, 6, 1, 6, 1, 6, 1, 2, 3, 4, 5, 6]);
next = array1d(1..15 ,[2, 7, 1, 15, 9, 10, 4, 6, 3, 11, 12, 13, 14, 5, 8]);
makespan = 945;
----------
assign = array1d(1..15 ,[6, 6, 6, 6, 6, 1, 6, 1, 6, 1, 2, 3, 4, 5, 6]);
next = array1d(1..15 ,[2, 7, 1, 15, 9, 10, 4, 6, 3, 11, 12, 13, 14, 5, 8]);
makespan = 943;
----------
assign = array1d(1..15 ,[6, 6, 6, 1, 6, 6, 6, 5, 6, 1, 2, 3, 4, 5, 6]);
next = array1d(1..15 ,[2, 7, 1, 10, 9, 15, 6, 14, 3, 11, 12, 13, 8, 5, 4]);
makespan = 942;
----------
assign = array1d(1..15 ,[6, 6, 6, 3, 6, 6, 6, 5, 6, 1, 2, 3, 4, 5, 6]);
next = array1d(1..15 ,[2, 7, 1, 12, 9, 15, 6, 14, 3, 11, 4, 13, 8, 5, 10]);
makespan = 941;
----------
assign = array1d(1..15 ,[6, 6, 6, 2, 6, 6, 6, 5, 6, 1, 2, 3, 4, 5, 6]);
next = array1d(1..15 ,[2, 7, 1, 11, 9, 15, 6, 14, 3, 4, 12, 13, 8, 5, 10]);
makespan = 939;
----------
assign = array1d(1..15 ,[6, 6, 6, 1, 6, 6, 6, 5, 6, 1, 2, 3, 4, 5, 6]);
next = array1d(1..15 ,[2, 7, 1, 10, 9, 15, 6, 14, 3, 11, 12, 13, 8, 5, 4]);
makespan = 938;
----------
assign = array1d(1..15 ,[6, 6, 6, 2, 6, 6, 6, 5, 6, 1, 2, 3, 4, 5, 6]);
next = array1d(1..15 ,[2, 7, 1, 11, 9, 15, 6, 14, 3, 4, 12, 13, 8, 5, 10]);
makespan = 936;
----------
assign = array1d(1..15 ,[6, 6, 6, 1, 6, 6, 6, 5, 6, 1, 2, 3, 4, 5, 6]);
next = array1d(1..15 ,[2, 7, 1, 10, 9, 15, 6, 14, 3, 11, 12, 13, 8, 5, 4]);
makespan = 935;
----------
assign = array1d(1..15 ,[6, 6, 6, 3, 6, 6, 6, 5, 6, 1, 2, 3, 4, 5, 6]);
next = array1d(1..15 ,[2, 7, 1, 12, 9, 15, 6, 14, 3, 11, 4, 13, 8, 5, 10]);
makespan = 934;
----------
assign = array1d(1..15 ,[6, 6, 6, 1, 6, 6, 6, 5, 6, 1, 2, 3, 4, 5, 6]);
next = array1d(1..15 ,[2, 7, 1, 10, 9, 15, 6, 14, 3, 11, 12, 13, 8, 5, 4]);
makespan = 931;
----------
assign = array1d(1..15 ,[6, 6, 6, 3, 6, 6, 6, 5, 6, 1, 2, 3, 4, 5, 6]);
next = array1d(1..15 ,[2, 7, 1, 12, 9, 15, 6, 14, 3, 11, 4, 13, 8, 5, 10]);
makespan = 930;
----------
assign = array1d(1..15 ,[6, 6, 6, 1, 6, 6, 6, 5, 6, 1, 2, 3, 4, 5, 6]);
next = array1d(1..15 ,[2, 7, 1, 10, 9, 15, 6, 14, 3, 11, 12, 13, 8, 5, 4]);
makespan = 929;
----------
assign = array1d(1..15 ,[6, 6, 6, 2, 6, 6, 6, 5, 6, 1, 2, 3, 4, 5, 6]);
next = array1d(1..15 ,[2, 7, 1, 11, 9, 15, 6, 14, 3, 4, 12, 13, 8, 5, 10]);
makespan = 928;
----------
assign = array1d(1..15 ,[6, 6, 6, 3, 6, 6, 6, 5, 6, 1, 2, 3, 4, 5, 6]);
next = array1d(1..15 ,[2, 7, 1, 12, 9, 15, 6, 14, 3, 11, 4, 13, 8, 5, 10]);
makespan = 927;
----------
assign = array1d(1..15 ,[6, 6, 6, 1, 6, 6, 6, 5, 6, 1, 2, 3, 4, 5, 6]);
next = array1d(1..15 ,[2, 7, 1, 10, 9, 15, 6, 14, 3, 11, 12, 13, 8, 5, 4]);
makespan = 926;
----------
assign = array1d(1..15 ,[6, 6, 6, 3, 6, 6, 6, 5, 6, 1, 2, 3, 4, 5, 6]);
next = array1d(1..15 ,[2, 7, 1, 12, 9, 15, 6, 14, 3, 11, 4, 13, 8, 5, 10]);
makespan = 925;
----------
assign = array1d(1..15 ,[6, 6, 6, 1, 6, 6, 6, 5, 6, 1, 2, 3, 4, 5, 6]);
next = array1d(1..15 ,[2, 7, 1, 10, 9, 15, 6, 14, 3, 11, 12, 13, 8, 5, 4]);
makespan = 924;
----------
assign = array1d(1..15 ,[6, 6, 6, 3, 6, 6, 6, 4, 6, 1, 2, 3, 4, 5, 6]);
next = array1d(1..15 ,[2, 7, 1, 12, 9, 15, 6, 13, 3, 11, 4, 8, 14, 5, 10]);
makespan = 923;
----------
assign = array1d(1..15 ,[6, 6, 6, 1, 6, 6, 6, 3, 6, 1, 2, 3, 4, 5, 6]);
next = array1d(1..15 ,[2, 7, 1, 10, 9, 15, 6, 12, 3, 11, 8, 13, 14, 5, 4]);
makespan = 922;
----------
assign = array1d(1..15 ,[6, 6, 6, 1, 6, 6, 6, 2, 6, 1, 2, 3, 4, 5, 6]);
next = array1d(1..15 ,[2, 7, 1, 10, 9, 5, 15, 11, 3, 8, 12, 13, 14, 6, 4]);
makespan = 921;
----------
assign = array1d(1..15 ,[6, 6, 6, 4, 6, 6, 6, 1, 6, 1, 2, 3, 4, 5, 6]);
next = array1d(1..15 ,[2, 7, 1, 13, 9, 5, 15, 10, 3, 11, 12, 4, 14, 6, 8]);
makespan = 920;
----------
assign = array1d(1..15 ,[6, 6, 6, 3, 6, 1, 6, 2, 6, 1, 2, 3, 4, 5, 6]);
next = array1d(1..15 ,[2, 7, 1, 12, 9, 10, 15, 11, 3, 8, 4, 13, 14, 5, 6]);
makespan = 919;
----------
assign = array1d(1..15 ,[6, 6, 6, 5, 6, 3, 6, 2, 6, 1, 2, 3, 4, 5, 6]);
next = array1d(1..15 ,[2, 7, 1, 14, 9, 12, 15, 11, 3, 8, 6, 13, 4, 5, 10]);
makespan = 918;
----------
assign = array1d(1..15 ,[6, 6, 6, 3, 6, 2, 6, 1, 6, 1, 2, 3, 4, 5, 6]);
next = array1d(1..15 ,[2, 7, 1, 12, 9, 11, 15, 10, 3, 6, 4, 13, 14, 5, 8]);
makespan = 917;
----------
assign = array1d(1..15 ,[6, 6, 6, 1, 6, 5, 6, 2, 6, 1, 2, 3, 4, 5, 6]);
next = array1d(1..15 ,[2, 7, 1, 10, 9, 14, 15, 11, 3, 8, 12, 13, 6, 5, 4]);
makespan = 916;
----------
assign = array1d(1..15 ,[6, 6, 6, 5, 6, 2, 6, 1, 6, 1, 2, 3, 4, 5, 6]);
next = array1d(1..15 ,[2, 7, 1, 14, 9, 11, 15, 10, 3, 6, 12, 13, 4, 5, 8]);
makespan = 915;
----------
assign = array1d(1..15 ,[6, 6, 6, 1, 6, 4, 6, 2, 6, 1, 2, 3, 4, 5, 6]);
next = array1d(1..15 ,[2, 7, 1, 10, 9, 13, 15, 11, 3, 8, 12, 6, 14, 5, 4]);
makespan = 914;
----------
assign = array1d(1..15 ,[6, 6, 6, 5, 6, 2, 6, 1, 6, 1, 2, 3, 4, 5, 6]);
next = array1d(1..15 ,[2, 7, 1, 14, 9, 11, 15, 10, 3, 6, 12, 13, 4, 5, 8]);
makespan = 913;
----------
assign = array1d(1..15 ,[6, 6, 6, 1, 6, 2, 6, 3, 6, 1, 2, 3, 4, 5, 6]);
next = array1d(1..15 ,[2, 7, 1, 10, 9, 11, 15, 12, 3, 6, 8, 13, 14, 5, 4]);
makespan = 912;
----------
assign = array1d(1..15 ,[6, 6, 6, 5, 6, 3, 6, 1, 6, 1, 2, 3, 4, 5, 6]);
next = array1d(1..15 ,[2, 7, 1, 14, 9, 12, 15, 10, 3, 11, 6, 13, 4, 5, 8]);
makespan = 911;
----------
assign = array1d(1..15 ,[6, 6, 6, 1, 6, 4, 6, 3, 6, 1, 2, 3, 4, 5, 6]);
next = array1d(1..15 ,[2, 7, 1, 10, 9, 13, 15, 12, 3, 11, 8, 6, 14, 5, 4]);
makespan = 910;
----------
assign = array1d(1..15 ,[6, 6, 6, 5, 6, 3, 6, 1, 6, 1, 2, 3, 4, 5, 6]);
next = array1d(1..15 ,[2, 7, 1, 14, 9, 12, 15, 10, 3, 11, 6, 13, 4, 5, 8]);
makespan = 909;
----------
assign = array1d(1..15 ,[6, 6, 6, 1, 6, 4, 6, 3, 6, 1, 2, 3, 4, 5, 6]);
next = array1d(1..15 ,[2, 7, 1, 10, 9, 13, 15, 12, 3, 11, 8, 6, 14, 5, 4]);
makespan = 908;
----------
assign = array1d(1..15 ,[6, 6, 6, 5, 6, 3, 6, 1, 6, 1, 2, 3, 4, 5, 6]);
next = array1d(1..15 ,[2, 7, 1, 14, 9, 12, 15, 10, 3, 11, 6, 13, 4, 5, 8]);
makespan = 907;
----------
assign = array1d(1..15 ,[6, 6, 6, 1, 6, 4, 6, 3, 6, 1, 2, 3, 4, 5, 6]);
next = array1d(1..15 ,[2, 7, 1, 10, 9, 13, 15, 12, 3, 11, 8, 6, 14, 5, 4]);
makespan = 906;
----------
assign = array1d(1..15 ,[6, 6, 6, 5, 6, 3, 6, 1, 6, 1, 2, 3, 4, 5, 6]);
next = array1d(1..15 ,[2, 7, 1, 14, 9, 12, 15, 10, 3, 11, 6, 13, 4, 5, 8]);
makespan = 905;
----------
assign = array1d(1..15 ,[6, 6, 6, 1, 6, 5, 6, 3, 6, 1, 2, 3, 4, 5, 6]);
next = array1d(1..15 ,[2, 7, 1, 10, 9, 14, 15, 12, 3, 11, 8, 13, 6, 5, 4]);
makespan = 904;
----------
assign = array1d(1..15 ,[6, 6, 6, 5, 6, 3, 6, 1, 6, 1, 2, 3, 4, 5, 6]);
next = array1d(1..15 ,[2, 7, 1, 14, 9, 12, 15, 10, 3, 11, 6, 13, 4, 5, 8]);
makespan = 903;
----------
assign = array1d(1..15 ,[6, 6, 6, 1, 6, 2, 6, 3, 6, 1, 2, 3, 4, 5, 6]);
next = array1d(1..15 ,[2, 7, 1, 10, 9, 11, 15, 12, 3, 6, 8, 13, 14, 5, 4]);
makespan = 902;
----------
assign = array1d(1..15 ,[6, 6, 6, 5, 6, 3, 6, 1, 6, 1, 2, 3, 4, 5, 6]);
next = array1d(1..15 ,[2, 7, 1, 14, 9, 12, 15, 10, 3, 11, 6, 13, 4, 5, 8]);
makespan = 901;
----------
assign = array1d(1..15 ,[6, 6, 6, 1, 6, 4, 6, 3, 6, 1, 2, 3, 4, 5, 6]);
next = array1d(1..15 ,[2, 7, 1, 10, 9, 13, 15, 12, 3, 11, 8, 6, 14, 5, 4]);
makespan = 900;
----------
assign = array1d(1..15 ,[6, 6, 6, 5, 6, 3, 6, 1, 6, 1, 2, 3, 4, 5, 6]);
next = array1d(1..15 ,[2, 7, 1, 14, 9, 12, 15, 10, 3, 11, 6, 13, 4, 5, 8]);
makespan = 899;
----------
assign = array1d(1..15 ,[6, 6, 6, 1, 6, 5, 6, 3, 6, 1, 2, 3, 4, 5, 6]);
next = array1d(1..15 ,[2, 7, 1, 10, 9, 14, 15, 12, 3, 11, 8, 13, 6, 5, 4]);
makespan = 898;
----------
assign = array1d(1..15 ,[6, 6, 6, 5, 6, 3, 6, 1, 6, 1, 2, 3, 4, 5, 6]);
next = array1d(1..15 ,[2, 7, 1, 14, 9, 12, 15, 10, 3, 11, 6, 13, 4, 5, 8]);
makespan = 897;
----------
assign = array1d(1..15 ,[6, 6, 6, 1, 6, 2, 6, 3, 6, 1, 2, 3, 4, 5, 6]);
next = array1d(1..15 ,[2, 7, 1, 10, 9, 11, 15, 12, 3, 6, 8, 13, 14, 5, 4]);
makespan = 896;
----------
assign = array1d(1..15 ,[6, 6, 6, 5, 6, 3, 6, 1, 6, 1, 2, 3, 4, 5, 6]);
next = array1d(1..15 ,[2, 7, 1, 14, 9, 12, 15, 10, 3, 11, 6, 13, 4, 5, 8]);
makespan = 895;
----------
assign = array1d(1..15 ,[6, 6, 6, 1, 6, 4, 6, 3, 6, 1, 2, 3, 4, 5, 6]);
next = array1d(1..15 ,[2, 7, 1, 10, 9, 13, 15, 12, 3, 11, 8, 6, 14, 5, 4]);
makespan = 894;
----------
assign = array1d(1..15 ,[6, 6, 6, 5, 6, 3, 6, 1, 6, 1, 2, 3, 4, 5, 6]);
next = array1d(1..15 ,[2, 7, 1, 14, 9, 12, 15, 10, 3, 11, 6, 13, 4, 5, 8]);
makespan = 893;
----------
assign = array1d(1..15 ,[6, 6, 6, 1, 6, 4, 6, 3, 6, 1, 2, 3, 4, 5, 6]);
next = array1d(1..15 ,[2, 7, 1, 10, 9, 13, 15, 12, 3, 11, 8, 6, 14, 5, 4]);
makespan = 892;
----------
assign = array1d(1..15 ,[6, 6, 6, 5, 6, 3, 6, 1, 6, 1, 2, 3, 4, 5, 6]);
next = array1d(1..15 ,[2, 7, 1, 14, 9, 12, 15, 10, 3, 11, 6, 13, 4, 5, 8]);
makespan = 891;
----------
assign = array1d(1..15 ,[6, 6, 6, 1, 6, 4, 6, 3, 6, 1, 2, 3, 4, 5, 6]);
next = array1d(1..15 ,[2, 7, 1, 10, 9, 13, 15, 12, 3, 11, 8, 6, 14, 5, 4]);
makespan = 890;
----------
assign = array1d(1..15 ,[6, 6, 6, 5, 6, 3, 6, 1, 6, 1, 2, 3, 4, 5, 6]);
next = array1d(1..15 ,[2, 7, 1, 14, 9, 12, 15, 10, 3, 11, 6, 13, 4, 5, 8]);
makespan = 889;
----------
assign = array1d(1..15 ,[6, 6, 6, 1, 6, 5, 6, 3, 6, 1, 2, 3, 4, 5, 6]);
next = array1d(1..15 ,[2, 7, 1, 10, 9, 14, 15, 12, 3, 11, 8, 13, 6, 5, 4]);
makespan = 888;
----------
assign = array1d(1..15 ,[6, 6, 6, 5, 6, 3, 6, 1, 6, 1, 2, 3, 4, 5, 6]);
next = array1d(1..15 ,[2, 7, 1, 14, 9, 12, 15, 10, 3, 11, 6, 13, 4, 5, 8]);
makespan = 887;
----------
assign = array1d(1..15 ,[6, 6, 6, 1, 6, 2, 6, 3, 6, 1, 2, 3, 4, 5, 6]);
next = array1d(1..15 ,[2, 7, 1, 10, 9, 11, 15, 12, 3, 6, 8, 13, 14, 5, 4]);
makespan = 886;
----------
assign = array1d(1..15 ,[6, 6, 6, 5, 6, 3, 6, 1, 6, 1, 2, 3, 4, 5, 6]);
next = array1d(1..15 ,[2, 7, 1, 14, 9, 12, 15, 10, 3, 11, 6, 13, 4, 5, 8]);
makespan = 885;
----------
assign = array1d(1..15 ,[6, 6, 6, 1, 6, 2, 6, 3, 6, 1, 2, 3, 4, 5, 6]);
next = array1d(1..15 ,[2, 7, 1, 10, 9, 11, 15, 12, 3, 6, 8, 13, 14, 5, 4]);
makespan = 884;
----------
assign = array1d(1..15 ,[6, 6, 6, 5, 6, 3, 6, 1, 6, 1, 2, 3, 4, 5, 6]);
next = array1d(1..15 ,[2, 7, 1, 14, 9, 12, 15, 10, 3, 11, 6, 13, 4, 5, 8]);
makespan = 883;
----------
assign = array1d(1..15 ,[6, 6, 6, 1, 6, 4, 6, 3, 6, 1, 2, 3, 4, 5, 6]);
next = array1d(1..15 ,[2, 7, 1, 10, 9, 13, 15, 12, 3, 11, 8, 6, 14, 5, 4]);
makespan = 882;
----------
assign = array1d(1..15 ,[6, 6, 6, 5, 6, 3, 6, 1, 6, 1, 2, 3, 4, 5, 6]);
next = array1d(1..15 ,[2, 7, 1, 14, 9, 12, 15, 10, 3, 11, 6, 13, 4, 5, 8]);
makespan = 881;
----------
assign = array1d(1..15 ,[6, 6, 6, 1, 6, 5, 6, 3, 6, 1, 2, 3, 4, 5, 6]);
next = array1d(1..15 ,[2, 7, 1, 10, 9, 14, 15, 12, 3, 11, 8, 13, 6, 5, 4]);
makespan = 880;
----------
assign = array1d(1..15 ,[6, 6, 6, 5, 6, 3, 6, 1, 6, 1, 2, 3, 4, 5, 6]);
next = array1d(1..15 ,[2, 7, 1, 14, 9, 12, 15, 10, 3, 11, 6, 13, 4, 5, 8]);
makespan = 878;
----------
assign = array1d(1..15 ,[6, 6, 6, 1, 6, 2, 6, 3, 6, 1, 2, 3, 4, 5, 6]);
next = array1d(1..15 ,[2, 7, 1, 10, 9, 11, 15, 12, 3, 6, 8, 13, 14, 5, 4]);
makespan = 877;
----------
assign = array1d(1..15 ,[6, 6, 6, 5, 6, 3, 6, 1, 6, 1, 2, 3, 4, 5, 6]);
next = array1d(1..15 ,[2, 7, 1, 14, 9, 12, 15, 10, 3, 11, 6, 13, 4, 5, 8]);
makespan = 876;
----------
assign = array1d(1..15 ,[6, 6, 6, 1, 6, 4, 6, 3, 6, 1, 2, 3, 4, 5, 6]);
next = array1d(1..15 ,[2, 7, 1, 10, 9, 13, 15, 12, 3, 11, 8, 6, 14, 5, 4]);
makespan = 874;
----------
assign = array1d(1..15 ,[6, 6, 6, 5, 6, 3, 6, 1, 6, 1, 2, 3, 4, 5, 6]);
next = array1d(1..15 ,[2, 7, 1, 14, 9, 12, 15, 10, 3, 11, 6, 13, 4, 5, 8]);
makespan = 873;
----------
assign = array1d(1..15 ,[6, 6, 6, 1, 6, 5, 6, 3, 6, 1, 2, 3, 4, 5, 6]);
next = array1d(1..15 ,[2, 7, 1, 10, 9, 14, 15, 12, 3, 11, 8, 13, 6, 5, 4]);
makespan = 871;
----------
assign = array1d(1..15 ,[6, 6, 6, 5, 6, 3, 6, 1, 6, 1, 2, 3, 4, 5, 6]);
next = array1d(1..15 ,[2, 7, 1, 14, 9, 12, 15, 10, 3, 11, 6, 13, 4, 5, 8]);
makespan = 870;
----------
assign = array1d(1..15 ,[6, 6, 6, 1, 6, 5, 6, 3, 6, 1, 2, 3, 4, 5, 6]);
next = array1d(1..15 ,[2, 7, 1, 10, 9, 14, 15, 12, 3, 11, 8, 13, 6, 5, 4]);
makespan = 869;
----------
assign = array1d(1..15 ,[6, 6, 6, 5, 6, 3, 6, 1, 6, 1, 2, 3, 4, 5, 6]);
next = array1d(1..15 ,[2, 7, 1, 14, 9, 12, 15, 10, 3, 11, 6, 13, 4, 5, 8]);
makespan = 868;
----------
assign = array1d(1..15 ,[6, 6, 6, 1, 6, 2, 6, 3, 6, 1, 2, 3, 4, 5, 6]);
next = array1d(1..15 ,[2, 7, 1, 10, 9, 11, 15, 12, 3, 6, 8, 13, 14, 5, 4]);
makespan = 867;
----------
assign = array1d(1..15 ,[6, 6, 6, 5, 6, 3, 6, 1, 6, 1, 2, 3, 4, 5, 6]);
next = array1d(1..15 ,[2, 7, 1, 14, 9, 12, 15, 10, 3, 11, 6, 13, 4, 5, 8]);
makespan = 865;
----------
assign = array1d(1..15 ,[6, 6, 6, 1, 6, 4, 6, 3, 6, 1, 2, 3, 4, 5, 6]);
next = array1d(1..15 ,[2, 7, 1, 10, 9, 13, 15, 12, 3, 11, 8, 6, 14, 5, 4]);
makespan = 864;
----------
assign = array1d(1..15 ,[6, 6, 6, 5, 6, 3, 6, 1, 6, 1, 2, 3, 4, 5, 6]);
next = array1d(1..15 ,[2, 7, 1, 14, 9, 12, 15, 10, 3, 11, 6, 13, 4, 5, 8]);
makespan = 863;
----------
assign = array1d(1..15 ,[6, 6, 6, 1, 6, 5, 6, 3, 6, 1, 2, 3, 4, 5, 6]);
next = array1d(1..15 ,[2, 7, 1, 10, 9, 14, 15, 12, 3, 11, 8, 13, 6, 5, 4]);
makespan = 860;
----------
assign = array1d(1..15 ,[6, 6, 6, 5, 6, 3, 6, 1, 6, 1, 2, 3, 4, 5, 6]);
next = array1d(1..15 ,[2, 7, 1, 14, 9, 12, 15, 10, 3, 11, 6, 13, 4, 5, 8]);
makespan = 859;
----------
assign = array1d(1..15 ,[6, 6, 6, 1, 6, 4, 6, 3, 6, 1, 2, 3, 4, 5, 6]);
next = array1d(1..15 ,[2, 7, 1, 10, 9, 13, 15, 12, 3, 11, 8, 6, 14, 5, 4]);
makespan = 857;
----------
assign = array1d(1..15 ,[6, 6, 6, 5, 6, 3, 6, 1, 6, 1, 2, 3, 4, 5, 6]);
next = array1d(1..15 ,[2, 7, 1, 14, 9, 12, 15, 10, 3, 11, 6, 13, 4, 5, 8]);
makespan = 856;
----------
assign = array1d(1..15 ,[6, 6, 6, 1, 6, 4, 6, 3, 6, 1, 2, 3, 4, 5, 6]);
next = array1d(1..15 ,[2, 7, 1, 10, 9, 13, 15, 12, 3, 11, 8, 6, 14, 5, 4]);
makespan = 853;
----------
assign = array1d(1..15 ,[6, 6, 6, 5, 6, 3, 6, 1, 6, 1, 2, 3, 4, 5, 6]);
next = array1d(1..15 ,[2, 7, 1, 14, 9, 12, 15, 10, 3, 11, 6, 13, 4, 5, 8]);
makespan = 852;
----------
assign = array1d(1..15 ,[6, 6, 6, 1, 6, 4, 6, 3, 6, 1, 2, 3, 4, 5, 6]);
next = array1d(1..15 ,[2, 7, 1, 10, 9, 13, 15, 12, 3, 11, 8, 6, 14, 5, 4]);
makespan = 850;
----------
assign = array1d(1..15 ,[6, 6, 6, 5, 6, 3, 6, 1, 6, 1, 2, 3, 4, 5, 6]);
next = array1d(1..15 ,[2, 7, 1, 14, 9, 12, 15, 10, 3, 11, 6, 13, 4, 5, 8]);
makespan = 849;
----------
assign = array1d(1..15 ,[6, 6, 6, 1, 6, 5, 6, 3, 6, 1, 2, 3, 4, 5, 6]);
next = array1d(1..15 ,[2, 7, 1, 10, 9, 14, 15, 12, 3, 11, 8, 13, 6, 5, 4]);
makespan = 847;
----------
assign = array1d(1..15 ,[6, 6, 6, 5, 6, 3, 6, 1, 6, 1, 2, 3, 4, 5, 6]);
next = array1d(1..15 ,[2, 7, 1, 14, 9, 12, 15, 10, 3, 11, 6, 13, 4, 5, 8]);
makespan = 846;
----------
assign = array1d(1..15 ,[6, 6, 6, 1, 6, 5, 6, 3, 6, 1, 2, 3, 4, 5, 6]);
next = array1d(1..15 ,[2, 7, 1, 10, 9, 14, 15, 12, 3, 11, 8, 13, 6, 5, 4]);
makespan = 845;
----------
assign = array1d(1..15 ,[6, 6, 6, 5, 6, 3, 6, 1, 6, 1, 2, 3, 4, 5, 6]);
next = array1d(1..15 ,[2, 7, 1, 14, 9, 12, 15, 10, 3, 11, 6, 13, 4, 5, 8]);
makespan = 844;
----------
assign = array1d(1..15 ,[6, 6, 6, 1, 6, 5, 6, 3, 6, 1, 2, 3, 4, 5, 6]);
next = array1d(1..15 ,[2, 7, 1, 10, 9, 14, 15, 12, 3, 11, 8, 13, 6, 5, 4]);
makespan = 843;
----------
assign = array1d(1..15 ,[6, 6, 6, 5, 6, 2, 6, 3, 6, 1, 2, 3, 4, 5, 6]);
next = array1d(1..15 ,[2, 7, 1, 14, 9, 11, 15, 12, 3, 6, 8, 13, 4, 5, 10]);
makespan = 842;
----------
assign = array1d(1..15 ,[6, 6, 6, 4, 6, 3, 6, 1, 6, 1, 2, 3, 4, 5, 6]);
next = array1d(1..15 ,[2, 7, 1, 13, 9, 12, 15, 10, 3, 11, 6, 4, 14, 5, 8]);
makespan = 841;
----------
assign = array1d(1..15 ,[6, 6, 6, 1, 6, 5, 6, 3, 6, 1, 2, 3, 4, 5, 6]);
next = array1d(1..15 ,[2, 7, 1, 10, 9, 14, 15, 12, 3, 11, 8, 13, 6, 5, 4]);
makespan = 840;
----------
assign = array1d(1..15 ,[6, 6, 6, 5, 6, 3, 6, 1, 6, 1, 2, 3, 4, 5, 6]);
next = array1d(1..15 ,[2, 7, 1, 14, 9, 12, 15, 10, 3, 11, 6, 13, 4, 5, 8]);
makespan = 839;
----------
assign = array1d(1..15 ,[6, 6, 6, 3, 6, 5, 6, 1, 6, 1, 2, 3, 4, 5, 6]);
next = array1d(1..15 ,[2, 7, 1, 12, 9, 14, 15, 10, 3, 11, 4, 13, 6, 5, 8]);
makespan = 838;
----------
assign = array1d(1..15 ,[6, 6, 6, 1, 6, 2, 6, 3, 6, 1, 2, 3, 4, 5, 6]);
next = array1d(1..15 ,[2, 7, 1, 10, 9, 11, 15, 12, 3, 6, 8, 13, 14, 5, 4]);
makespan = 837;
----------
assign = array1d(1..15 ,[6, 6, 6, 5, 6, 3, 6, 2, 6, 1, 2, 3, 4, 5, 6]);
next = array1d(1..15 ,[2, 7, 1, 14, 9, 12, 15, 11, 3, 8, 6, 13, 4, 5, 10]);
makespan = 836;
----------
assign = array1d(1..15 ,[6, 6, 6, 4, 6, 2, 6, 1, 6, 1, 2, 3, 4, 5, 6]);
next = array1d(1..15 ,[2, 7, 1, 13, 9, 11, 15, 10, 3, 6, 12, 4, 14, 5, 8]);
makespan = 835;
----------
assign = array1d(1..15 ,[6, 6, 6, 1, 6, 5, 6, 2, 6, 1, 2, 3, 4, 5, 6]);
next = array1d(1..15 ,[2, 7, 1, 10, 9, 14, 15, 11, 3, 8, 12, 13, 6, 5, 4]);
makespan = 834;
----------
assign = array1d(1..15 ,[6, 6, 6, 5, 6, 2, 6, 4, 6, 1, 2, 3, 4, 5, 6]);
next = array1d(1..15 ,[2, 7, 1, 14, 9, 11, 15, 13, 3, 6, 12, 8, 4, 5, 10]);
makespan = 833;
----------
assign = array1d(1..15 ,[6, 6, 6, 2, 6, 4, 6, 1, 6, 1, 2, 3, 4, 5, 6]);
next = array1d(1..15 ,[2, 7, 1, 11, 9, 13, 15, 10, 3, 4, 12, 6, 14, 5, 8]);
makespan = 832;
----------
assign = array1d(1..15 ,[6, 6, 6, 1, 6, 4, 6, 5, 6, 1, 2, 3, 4, 5, 6]);
next = array1d(1..15 ,[2, 7, 1, 10, 9, 13, 15, 14, 3, 11, 12, 6, 8, 5, 4]);
makespan = 831;
----------
assign = array1d(1..15 ,[6, 6, 6, 2, 6, 5, 6, 4, 6, 1, 2, 3, 4, 5, 6]);
next = array1d(1..15 ,[2, 7, 1, 11, 9, 14, 15, 13, 3, 4, 12, 8, 6, 5, 10]);
makespan = 830;
----------
assign = array1d(1..15 ,[6, 6, 6, 5, 6, 4, 6, 3, 6, 1, 2, 3, 4, 5, 6]);
next = array1d(1..15 ,[2, 7, 1, 14, 9, 13, 15, 12, 3, 11, 8, 6, 4, 5, 10]);
makespan = 829;
----------
assign = array1d(1..15 ,[6, 6, 6, 1, 6, 3, 6, 2, 6, 1, 2, 3, 4, 5, 6]);
next = array1d(1..15 ,[2, 7, 1, 10, 9, 12, 15, 11, 3, 8, 6, 13, 14, 5, 4]);
makespan = 827;
----------
assign = array1d(1..15 ,[6, 6, 6, 5, 6, 3, 6, 1, 6, 1, 2, 3, 4, 5, 6]);
next = array1d(1..15 ,[2, 7, 1, 14, 9, 12, 15, 10, 3, 11, 6, 13, 4, 5, 8]);
makespan = 826;
----------
assign = array1d(1..15 ,[6, 6, 6, 1, 6, 5, 6, 2, 6, 1, 2, 3, 4, 5, 6]);
next = array1d(1..15 ,[2, 7, 1, 10, 9, 14, 15, 11, 3, 8, 12, 13, 6, 5, 4]);
makespan = 825;
----------
assign = array1d(1..15 ,[6, 6, 6, 5, 6, 2, 6, 1, 6, 1, 2, 3, 4, 5, 6]);
next = array1d(1..15 ,[2, 7, 1, 14, 9, 11, 15, 10, 3, 6, 12, 13, 4, 5, 8]);
makespan = 823;
----------
assign = array1d(1..15 ,[6, 6, 6, 3, 6, 1, 6, 2, 6, 1, 2, 3, 4, 5, 6]);
next = array1d(1..15 ,[2, 7, 1, 12, 9, 10, 15, 11, 3, 8, 4, 13, 14, 5, 6]);
makespan = 822;
----------
assign = array1d(1..15 ,[6, 6, 6, 5, 6, 2, 6, 1, 6, 1, 2, 3, 4, 5, 6]);
next = array1d(1..15 ,[2, 7, 1, 14, 9, 11, 15, 10, 3, 6, 12, 13, 4, 5, 8]);
makespan = 820;
----------
assign = array1d(1..15 ,[6, 6, 6, 3, 6, 1, 6, 2, 6, 1, 2, 3, 4, 5, 6]);
next = array1d(1..15 ,[2, 7, 1, 12, 9, 10, 15, 11, 3, 8, 4, 13, 14, 5, 6]);
makespan = 819;
----------
assign = array1d(1..15 ,[6, 6, 6, 5, 6, 2, 6, 3, 6, 1, 2, 3, 4, 5, 6]);
next = array1d(1..15 ,[2, 7, 1, 14, 9, 11, 15, 12, 3, 6, 8, 13, 4, 5, 10]);
makespan = 818;
----------
assign = array1d(1..15 ,[6, 6, 6, 5, 6, 3, 6, 1, 6, 1, 2, 3, 4, 5, 6]);
next = array1d(1..15 ,[2, 7, 1, 14, 9, 12, 15, 10, 3, 11, 6, 13, 4, 5, 8]);
makespan = 816;
----------
assign = array1d(1..15 ,[6, 6, 6, 2, 6, 1, 6, 3, 6, 1, 2, 3, 4, 5, 6]);
next = array1d(1..15 ,[2, 7, 1, 11, 9, 10, 15, 12, 3, 4, 8, 13, 14, 5, 6]);
makespan = 814;
----------
assign = array1d(1..15 ,[6, 6, 6, 5, 6, 3, 6, 1, 6, 1, 2, 3, 4, 5, 6]);
next = array1d(1..15 ,[2, 7, 1, 14, 9, 12, 15, 10, 3, 11, 6, 13, 4, 5, 8]);
makespan = 813;
----------
assign = array1d(1..15 ,[6, 6, 6, 3, 6, 1, 6, 2, 6, 1, 2, 3, 4, 5, 6]);
next = array1d(1..15 ,[2, 7, 1, 12, 9, 10, 15, 11, 3, 8, 4, 13, 14, 5, 6]);
makespan = 812;
----------
assign = array1d(1..15 ,[6, 6, 6, 5, 6, 2, 6, 1, 6, 1, 2, 3, 4, 5, 6]);
next = array1d(1..15 ,[2, 7, 1, 14, 9, 11, 15, 10, 3, 6, 12, 13, 4, 5, 8]);
makespan = 811;
----------
assign = array1d(1..15 ,[6, 6, 6, 1, 6, 2, 6, 3, 6, 1, 2, 3, 4, 5, 6]);
next = array1d(1..15 ,[2, 7, 1, 10, 9, 11, 15, 12, 3, 6, 8, 13, 14, 5, 4]);
makespan = 806;
----------
assign = array1d(1..15 ,[6, 6, 6, 5, 6, 3, 6, 2, 6, 1, 2, 3, 4, 5, 6]);
next = array1d(1..15 ,[2, 7, 1, 14, 9, 12, 15, 11, 3, 8, 6, 13, 4, 5, 10]);
makespan = 805;
----------
assign = array1d(1..15 ,[6, 6, 6, 1, 6, 2, 6, 3, 6, 1, 2, 3, 4, 5, 6]);
next = array1d(1..15 ,[2, 7, 1, 10, 9, 11, 15, 12, 3, 6, 8, 13, 14, 5, 4]);
makespan = 804;
----------
assign = array1d(1..15 ,[6, 6, 6, 5, 6, 3, 6, 1, 6, 1, 2, 3, 4, 5, 6]);
next = array1d(1..15 ,[2, 7, 1, 14, 9, 12, 15, 10, 3, 11, 6, 13, 4, 5, 8]);
makespan = 803;
----------
assign = array1d(1..15 ,[6, 6, 6, 1, 6, 2, 6, 3, 6, 1, 2, 3, 4, 5, 6]);
next = array1d(1..15 ,[2, 7, 1, 10, 9, 11, 15, 12, 3, 6, 8, 13, 14, 5, 4]);
makespan = 802;
----------
assign = array1d(1..15 ,[6, 6, 6, 5, 6, 4, 6, 1, 6, 1, 2, 3, 4, 5, 6]);
next = array1d(1..15 ,[2, 7, 1, 14, 9, 13, 15, 10, 3, 11, 12, 6, 4, 5, 8]);
makespan = 800;
----------
assign = array1d(1..15 ,[6, 6, 6, 2, 6, 4, 6, 3, 6, 1, 2, 3, 4, 5, 6]);
next = array1d(1..15 ,[2, 7, 1, 11, 9, 13, 15, 12, 3, 4, 8, 6, 14, 5, 10]);
makespan = 799;
----------
assign = array1d(1..15 ,[6, 6, 6, 5, 6, 3, 6, 1, 6, 1, 2, 3, 4, 5, 6]);
next = array1d(1..15 ,[2, 7, 1, 14, 9, 12, 15, 10, 3, 11, 6, 13, 4, 5, 8]);
makespan = 798;
----------
assign = array1d(1..15 ,[6, 6, 6, 1, 6, 5, 6, 3, 6, 1, 2, 3, 4, 5, 6]);
next = array1d(1..15 ,[2, 7, 1, 10, 9, 14, 15, 12, 3, 11, 8, 13, 6, 5, 4]);
makespan = 792;
----------
assign = array1d(1..15 ,[6, 6, 6, 5, 6, 3, 6, 1, 6, 1, 2, 3, 4, 5, 6]);
next = array1d(1..15 ,[2, 7, 1, 14, 9, 12, 15, 10, 3, 11, 6, 13, 4, 5, 8]);
makespan = 791;
----------
assign = array1d(1..15 ,[6, 6, 6, 1, 6, 5, 6, 3, 6, 1, 2, 3, 4, 5, 6]);
next = array1d(1..15 ,[2, 7, 1, 10, 9, 14, 15, 12, 3, 11, 8, 13, 6, 5, 4]);
makespan = 786;
----------
assign = array1d(1..15 ,[6, 6, 6, 5, 6, 3, 6, 1, 6, 1, 2, 3, 4, 5, 6]);
next = array1d(1..15 ,[2, 7, 1, 14, 9, 12, 15, 10, 3, 11, 6, 13, 4, 5, 8]);
makespan = 785;
----------
assign = array1d(1..15 ,[6, 6, 6, 6, 5, 3, 6, 5, 6, 1, 2, 3, 4, 5, 6]);
next = array1d(1..15 ,[2, 7, 1, 9, 14, 12, 15, 5, 3, 11, 6, 13, 8, 4, 10]);
makespan = 783;
----------
assign = array1d(1..15 ,[6, 6, 6, 6, 3, 1, 6, 3, 6, 1, 2, 3, 4, 5, 6]);
next = array1d(1..15 ,[2, 7, 1, 9, 12, 10, 15, 5, 3, 11, 8, 13, 14, 4, 6]);
makespan = 781;
----------
assign = array1d(1..15 ,[6, 6, 6, 6, 1, 3, 6, 1, 6, 1, 2, 3, 4, 5, 6]);
next = array1d(1..15 ,[2, 7, 1, 9, 10, 12, 15, 5, 3, 11, 6, 13, 14, 4, 8]);
makespan = 780;
----------
assign = array1d(1..15 ,[6, 6, 6, 6, 3, 5, 6, 3, 6, 1, 2, 3, 4, 5, 6]);
next = array1d(1..15 ,[2, 7, 1, 9, 12, 14, 15, 5, 3, 11, 8, 13, 6, 4, 10]);
makespan = 778;
----------
assign = array1d(1..15 ,[6, 6, 6, 6, 3, 1, 6, 3, 6, 1, 2, 3, 4, 5, 6]);
next = array1d(1..15 ,[2, 7, 1, 9, 12, 10, 15, 5, 3, 11, 8, 13, 14, 4, 6]);
makespan = 775;
----------
assign = array1d(1..15 ,[6, 6, 6, 6, 1, 5, 6, 1, 6, 1, 2, 3, 4, 5, 6]);
next = array1d(1..15 ,[2, 7, 1, 9, 10, 14, 15, 5, 3, 11, 12, 13, 6, 4, 8]);
makespan = 774;
----------
assign = array1d(1..15 ,[6, 6, 6, 6, 1, 3, 6, 1, 6, 1, 2, 3, 4, 5, 6]);
next = array1d(1..15 ,[2, 7, 1, 9, 10, 12, 15, 5, 3, 11, 6, 13, 14, 4, 8]);
makespan = 771;
----------
assign = array1d(1..15 ,[6, 6, 6, 6, 3, 5, 6, 3, 6, 1, 2, 3, 4, 5, 6]);
next = array1d(1..15 ,[2, 7, 1, 9, 12, 14, 15, 5, 3, 11, 8, 13, 6, 4, 10]);
makespan = 769;
----------
assign = array1d(1..15 ,[6, 6, 6, 1, 1, 1, 6, 1, 6, 1, 2, 3, 4, 5, 6]);
next = array1d(1..15 ,[2, 7, 1, 5, 8, 10, 15, 6, 3, 11, 12, 13, 14, 9, 4]);
makespan = 768;
----------
assign = array1d(1..15 ,[6, 6, 6, 5, 5, 5, 6, 5, 6, 1, 2, 3, 4, 5, 6]);
next = array1d(1..15 ,[2, 7, 1, 5, 8, 14, 15, 6, 3, 11, 12, 13, 4, 9, 10]);
makespan = 767;
----------
assign = array1d(1..15 ,[6, 6, 6, 1, 1, 1, 6, 1, 6, 1, 2, 3, 4, 5, 6]);
next = array1d(1..15 ,[2, 7, 1, 5, 8, 10, 15, 6, 3, 11, 12, 13, 14, 9, 4]);
makespan = 766;
----------
assign = array1d(1..15 ,[6, 6, 6, 3, 3, 3, 6, 3, 6, 1, 2, 3, 4, 5, 6]);
next = array1d(1..15 ,[2, 7, 1, 5, 8, 12, 15, 6, 3, 11, 4, 13, 14, 9, 10]);
makespan = 765;
----------
assign = array1d(1..15 ,[6, 6, 6, 1, 1, 1, 6, 1, 6, 1, 2, 3, 4, 5, 6]);
next = array1d(1..15 ,[2, 7, 1, 5, 8, 10, 15, 6, 3, 11, 12, 13, 14, 9, 4]);
makespan = 764;
----------
assign = array1d(1..15 ,[6, 6, 6, 1, 1, 1, 6, 1, 6, 1, 2, 3, 4, 5, 6]);
next = array1d(1..15 ,[2, 7, 1, 5, 8, 10, 15, 6, 3, 11, 12, 13, 14, 9, 4]);
makespan = 762;
----------
assign = array1d(1..15 ,[6, 6, 6, 3, 3, 3, 6, 3, 6, 1, 2, 3, 4, 5, 6]);
next = array1d(1..15 ,[2, 7, 1, 5, 8, 12, 15, 6, 3, 11, 4, 13, 14, 9, 10]);
makespan = 761;
----------
assign = array1d(1..15 ,[6, 6, 6, 3, 3, 3, 6, 3, 6, 1, 2, 3, 4, 5, 6]);
next = array1d(1..15 ,[2, 7, 1, 5, 8, 12, 15, 6, 3, 11, 4, 13, 14, 9, 10]);
makespan = 760;
----------
assign = array1d(1..15 ,[6, 6, 6, 2, 2, 2, 6, 2, 6, 1, 2, 3, 4, 5, 6]);
next = array1d(1..15 ,[2, 7, 1, 5, 8, 11, 15, 6, 3, 4, 12, 13, 14, 9, 10]);
makespan = 757;
----------
assign = array1d(1..15 ,[6, 6, 6, 2, 2, 2, 6, 2, 6, 1, 2, 3, 4, 5, 6]);
next = array1d(1..15 ,[2, 7, 1, 5, 8, 11, 15, 6, 3, 4, 12, 13, 14, 9, 10]);
makespan = 755;
----------
assign = array1d(1..15 ,[6, 6, 6, 1, 1, 1, 6, 1, 6, 1, 2, 3, 4, 5, 6]);
next = array1d(1..15 ,[2, 7, 1, 5, 8, 10, 15, 6, 3, 11, 12, 13, 14, 9, 4]);
makespan = 754;
----------
assign = array1d(1..15 ,[6, 6, 6, 3, 3, 3, 6, 3, 6, 1, 2, 3, 4, 5, 6]);
next = array1d(1..15 ,[2, 7, 1, 5, 8, 12, 15, 6, 3, 11, 4, 13, 14, 9, 10]);
makespan = 753;
----------
assign = array1d(1..15 ,[6, 6, 6, 1, 1, 1, 6, 1, 6, 1, 2, 3, 4, 5, 6]);
next = array1d(1..15 ,[2, 7, 1, 5, 8, 10, 15, 6, 3, 11, 12, 13, 14, 9, 4]);
makespan = 752;
----------
assign = array1d(1..15 ,[6, 6, 6, 3, 3, 3, 6, 3, 6, 1, 2, 3, 4, 5, 6]);
next = array1d(1..15 ,[2, 7, 1, 5, 8, 12, 15, 6, 3, 11, 4, 13, 14, 9, 10]);
makespan = 751;
----------
assign = array1d(1..15 ,[6, 6, 6, 1, 1, 1, 6, 1, 6, 1, 2, 3, 4, 5, 6]);
next = array1d(1..15 ,[2, 7, 1, 5, 8, 10, 15, 6, 3, 11, 12, 13, 14, 9, 4]);
makespan = 749;
----------
assign = array1d(1..15 ,[6, 6, 6, 3, 3, 3, 6, 3, 6, 1, 2, 3, 4, 5, 6]);
next = array1d(1..15 ,[2, 7, 1, 5, 8, 12, 15, 6, 3, 11, 4, 13, 14, 9, 10]);
makespan = 748;
----------
assign = array1d(1..15 ,[6, 6, 6, 1, 1, 1, 6, 1, 6, 1, 2, 3, 4, 5, 6]);
next = array1d(1..15 ,[2, 7, 1, 5, 8, 10, 15, 6, 3, 11, 12, 13, 14, 9, 4]);
makespan = 747;
----------
assign = array1d(1..15 ,[6, 6, 6, 4, 4, 4, 6, 4, 6, 1, 2, 3, 4, 5, 6]);
next = array1d(1..15 ,[2, 7, 1, 5, 8, 13, 15, 6, 3, 11, 12, 4, 14, 9, 10]);
makespan = 741;
----------
assign = array1d(1..15 ,[6, 6, 6, 2, 2, 2, 6, 2, 6, 1, 2, 3, 4, 5, 6]);
next = array1d(1..15 ,[2, 7, 1, 5, 8, 11, 15, 6, 3, 4, 12, 13, 14, 9, 10]);
makespan = 740;
----------
assign = array1d(1..15 ,[6, 6, 6, 4, 4, 4, 6, 4, 6, 1, 2, 3, 4, 5, 6]);
next = array1d(1..15 ,[2, 7, 1, 5, 8, 13, 15, 6, 3, 11, 12, 4, 14, 9, 10]);
makespan = 735;
----------
assign = array1d(1..15 ,[6, 6, 6, 1, 1, 1, 6, 1, 6, 1, 2, 3, 4, 5, 6]);
next = array1d(1..15 ,[2, 7, 1, 5, 8, 10, 15, 6, 3, 11, 12, 13, 14, 9, 4]);
makespan = 734;
----------
assign = array1d(1..15 ,[6, 6, 6, 4, 4, 4, 6, 4, 6, 1, 2, 3, 4, 5, 6]);
next = array1d(1..15 ,[2, 7, 1, 5, 8, 13, 15, 6, 3, 11, 12, 4, 14, 9, 10]);
makespan = 733;
----------
assign = array1d(1..15 ,[6, 6, 6, 1, 1, 1, 6, 1, 6, 1, 2, 3, 4, 5, 6]);
next = array1d(1..15 ,[2, 7, 1, 5, 8, 10, 15, 6, 3, 11, 12, 13, 14, 9, 4]);
makespan = 730;
----------
assign = array1d(1..15 ,[6, 6, 6, 4, 4, 4, 6, 4, 6, 1, 2, 3, 4, 5, 6]);
next = array1d(1..15 ,[2, 7, 1, 5, 8, 13, 15, 6, 3, 11, 12, 4, 14, 9, 10]);
makespan = 726;
----------
assign = array1d(1..15 ,[6, 6, 6, 1, 1, 1, 6, 1, 6, 1, 2, 3, 4, 5, 6]);
next = array1d(1..15 ,[2, 7, 1, 5, 8, 10, 15, 6, 3, 11, 12, 13, 14, 9, 4]);
makespan = 721;
----------
assign = array1d(1..15 ,[6, 6, 6, 4, 4, 4, 6, 4, 6, 1, 2, 3, 4, 5, 6]);
next = array1d(1..15 ,[2, 7, 1, 5, 8, 13, 15, 6, 3, 11, 12, 4, 14, 9, 10]);
makespan = 720;
----------
assign = array1d(1..15 ,[6, 6, 6, 1, 1, 1, 6, 1, 6, 1, 2, 3, 4, 5, 6]);
next = array1d(1..15 ,[2, 7, 1, 5, 8, 10, 15, 6, 3, 11, 12, 13, 14, 9, 4]);
makespan = 718;
----------
assign = array1d(1..15 ,[6, 6, 6, 1, 1, 1, 6, 1, 6, 1, 2, 3, 4, 5, 6]);
next = array1d(1..15 ,[2, 7, 1, 5, 8, 10, 15, 6, 3, 11, 12, 13, 14, 9, 4]);
makespan = 715;
----------
assign = array1d(1..15 ,[6, 6, 6, 4, 4, 4, 6, 4, 6, 1, 2, 3, 4, 5, 6]);
next = array1d(1..15 ,[2, 7, 1, 5, 8, 13, 15, 6, 3, 11, 12, 4, 14, 9, 10]);
makespan = 714;
----------
assign = array1d(1..15 ,[6, 6, 6, 1, 1, 1, 6, 1, 6, 1, 2, 3, 4, 5, 6]);
next = array1d(1..15 ,[2, 7, 1, 5, 8, 10, 15, 6, 3, 11, 12, 13, 14, 9, 4]);
makespan = 704;
----------
assign = array1d(1..15 ,[6, 6, 6, 4, 4, 4, 6, 4, 6, 1, 2, 3, 4, 5, 6]);
next = array1d(1..15 ,[2, 7, 1, 5, 8, 13, 15, 6, 3, 11, 12, 4, 14, 9, 10]);
makespan = 701;
----------
assign = array1d(1..15 ,[6, 6, 6, 1, 1, 1, 6, 1, 6, 1, 2, 3, 4, 5, 6]);
next = array1d(1..15 ,[2, 7, 1, 5, 8, 10, 15, 6, 3, 11, 12, 13, 14, 9, 4]);
makespan = 689;
----------
assign = array1d(1..15 ,[6, 6, 6, 4, 4, 4, 6, 4, 6, 1, 2, 3, 4, 5, 6]);
next = array1d(1..15 ,[2, 7, 1, 5, 8, 13, 15, 6, 3, 11, 12, 4, 14, 9, 10]);
makespan = 669;
----------
assign = array1d(1..15 ,[6, 6, 6, 1, 1, 1, 6, 1, 6, 1, 2, 3, 4, 5, 6]);
next = array1d(1..15 ,[2, 7, 1, 5, 8, 10, 15, 6, 3, 11, 12, 13, 14, 9, 4]);
makespan = 663;
----------
assign = array1d(1..15 ,[6, 6, 6, 4, 4, 4, 6, 4, 6, 1, 2, 3, 4, 5, 6]);
next = array1d(1..15 ,[2, 7, 1, 5, 8, 13, 15, 6, 3, 11, 12, 4, 14, 9, 10]);
makespan = 649;
----------
assign = array1d(1..15 ,[6, 6, 6, 1, 1, 1, 6, 1, 6, 1, 2, 3, 4, 5, 6]);
next = array1d(1..15 ,[2, 7, 1, 5, 8, 10, 15, 6, 3, 11, 12, 13, 14, 9, 4]);
makespan = 646;
----------
assign = array1d(1..15 ,[6, 6, 6, 4, 4, 4, 6, 4, 6, 1, 2, 3, 4, 5, 6]);
next = array1d(1..15 ,[2, 7, 1, 5, 8, 13, 15, 6, 3, 11, 12, 4, 14, 9, 10]);
makespan = 642;
----------
assign = array1d(1..15 ,[6, 6, 6, 4, 4, 4, 6, 4, 6, 1, 2, 3, 4, 5, 6]);
next = array1d(1..15 ,[2, 7, 1, 5, 8, 13, 15, 6, 3, 11, 12, 4, 14, 9, 10]);
makespan = 638;
----------
assign = array1d(1..15 ,[6, 6, 6, 2, 2, 2, 6, 2, 6, 1, 2, 3, 4, 5, 6]);
next = array1d(1..15 ,[2, 7, 1, 5, 8, 11, 15, 6, 3, 4, 12, 13, 14, 9, 10]);
makespan = 636;
----------
assign = array1d(1..15 ,[6, 6, 6, 2, 2, 2, 6, 2, 2, 1, 2, 3, 4, 5, 6]);
next = array1d(1..15 ,[2, 7, 1, 5, 8, 11, 15, 9, 6, 4, 12, 13, 14, 3, 10]);
makespan = 612;
----------
assign = array1d(1..15 ,[6, 6, 6, 1, 1, 1, 6, 1, 1, 1, 2, 3, 4, 5, 6]);
next = array1d(1..15 ,[2, 7, 1, 5, 8, 10, 15, 9, 6, 11, 12, 13, 14, 3, 4]);
makespan = 609;
----------
assign = array1d(1..15 ,[6, 6, 6, 1, 1, 1, 6, 1, 1, 1, 2, 3, 4, 5, 6]);
next = array1d(1..15 ,[2, 7, 1, 5, 8, 10, 15, 9, 6, 11, 12, 13, 14, 3, 4]);
makespan = 608;
----------
assign = array1d(1..15 ,[6, 6, 6, 1, 1, 1, 6, 1, 1, 1, 2, 3, 4, 5, 6]);
next = array1d(1..15 ,[2, 7, 1, 5, 8, 10, 15, 9, 6, 11, 12, 13, 14, 3, 4]);
makespan = 604;
----------
assign = array1d(1..15 ,[6, 6, 6, 2, 2, 2, 6, 2, 2, 1, 2, 3, 4, 5, 6]);
next = array1d(1..15 ,[2, 7, 1, 5, 8, 11, 15, 9, 6, 4, 12, 13, 14, 3, 10]);
makespan = 597;
----------
assign = array1d(1..15 ,[6, 6, 6, 1, 1, 1, 6, 1, 1, 1, 2, 3, 4, 5, 6]);
next = array1d(1..15 ,[2, 7, 1, 5, 8, 10, 15, 9, 6, 11, 12, 13, 14, 3, 4]);
makespan = 595;
----------
assign = array1d(1..15 ,[6, 6, 6, 1, 1, 1, 6, 1, 1, 1, 2, 3, 4, 5, 6]);
next = array1d(1..15 ,[2, 7, 1, 5, 8, 10, 15, 9, 6, 11, 12, 13, 14, 3, 4]);
makespan = 584;
----------
assign = array1d(1..15 ,[6, 6, 6, 1, 1, 1, 6, 1, 1, 1, 2, 3, 4, 5, 6]);
next = array1d(1..15 ,[2, 7, 1, 5, 8, 10, 15, 9, 6, 11, 12, 13, 14, 3, 4]);
makespan = 581;
----------
assign = array1d(1..15 ,[6, 6, 6, 1, 1, 1, 6, 1, 1, 1, 2, 3, 4, 5, 6]);
next = array1d(1..15 ,[2, 7, 1, 5, 8, 10, 15, 9, 6, 11, 12, 13, 14, 3, 4]);
makespan = 579;
----------
assign = array1d(1..15 ,[6, 6, 6, 4, 4, 5, 6, 4, 5, 1, 2, 3, 4, 5, 6]);
next = array1d(1..15 ,[2, 7, 1, 5, 8, 14, 15, 13, 6, 11, 12, 4, 9, 3, 10]);
makespan = 577;
----------
assign = array1d(1..15 ,[6, 6, 6, 5, 5, 4, 6, 5, 4, 1, 2, 3, 4, 5, 6]);
next = array1d(1..15 ,[2, 7, 1, 5, 8, 13, 15, 14, 6, 11, 12, 9, 4, 3, 10]);
makespan = 548;
----------
assign = array1d(1..15 ,[6, 6, 6, 5, 5, 4, 6, 5, 4, 1, 2, 3, 4, 5, 6]);
next = array1d(1..15 ,[2, 7, 1, 5, 8, 13, 15, 14, 6, 11, 12, 9, 4, 3, 10]);
makespan = 532;
----------
assign = array1d(1..15 ,[6, 6, 6, 5, 5, 4, 6, 5, 4, 1, 2, 3, 4, 5, 6]);
next = array1d(1..15 ,[2, 7, 1, 5, 8, 13, 15, 14, 6, 11, 12, 9, 4, 3, 10]);
makespan = 530;
----------
assign = array1d(1..15 ,[6, 6, 6, 6, 5, 5, 3, 5, 5, 1, 2, 3, 4, 5, 6]);
next = array1d(1..15 ,[2, 15, 1, 3, 8, 14, 12, 9, 6, 11, 7, 13, 5, 4, 10]);
makespan = 526;
----------
assign = array1d(1..15 ,[6, 6, 6, 6, 5, 5, 2, 5, 5, 1, 2, 3, 4, 5, 6]);
next = array1d(1..15 ,[2, 15, 1, 3, 8, 14, 11, 9, 6, 7, 12, 13, 5, 4, 10]);
makespan = 519;
----------
assign = array1d(1..15 ,[6, 6, 6, 6, 5, 5, 1, 5, 5, 1, 2, 3, 4, 5, 6]);
next = array1d(1..15 ,[2, 15, 1, 3, 8, 14, 10, 9, 6, 11, 12, 13, 5, 4, 7]);
makespan = 513;
----------
assign = array1d(1..15 ,[6, 6, 6, 6, 5, 5, 1, 5, 5, 1, 2, 3, 4, 5, 6]);
next = array1d(1..15 ,[2, 15, 1, 3, 8, 14, 10, 9, 6, 11, 12, 13, 5, 4, 7]);
makespan = 507;
----------
assign = array1d(1..15 ,[6, 6, 6, 6, 5, 5, 1, 5, 5, 1, 2, 3, 4, 5, 6]);
next = array1d(1..15 ,[2, 15, 1, 3, 8, 14, 10, 9, 6, 11, 12, 13, 5, 4, 7]);
makespan = 502;
----------
assign = array1d(1..15 ,[6, 6, 6, 1, 1, 1, 5, 1, 6, 1, 2, 3, 4, 5, 6]);
next = array1d(1..15 ,[2, 15, 1, 5, 8, 4, 14, 10, 3, 11, 12, 13, 7, 9, 6]);
makespan = 499;
----------
assign = array1d(1..15 ,[6, 6, 6, 1, 1, 5, 1, 1, 6, 1, 2, 3, 4, 5, 6]);
next = array1d(1..15 ,[2, 15, 1, 5, 8, 14, 10, 7, 3, 11, 12, 13, 6, 9, 4]);
makespan = 493;
----------
assign = array1d(1..15 ,[6, 6, 6, 1, 1, 1, 5, 1, 6, 1, 2, 3, 4, 5, 6]);
next = array1d(1..15 ,[2, 15, 1, 5, 8, 4, 14, 10, 3, 11, 12, 13, 7, 9, 6]);
makespan = 492;
----------
assign = array1d(1..15 ,[6, 6, 6, 5, 5, 1, 1, 5, 6, 1, 2, 3, 4, 5, 6]);
next = array1d(1..15 ,[2, 15, 1, 5, 8, 7, 10, 14, 3, 11, 12, 13, 4, 9, 6]);
makespan = 487;
----------
assign = array1d(1..15 ,[6, 6, 6, 2, 2, 3, 2, 2, 3, 1, 2, 3, 4, 5, 6]);
next = array1d(1..15 ,[2, 15, 1, 5, 8, 12, 11, 7, 6, 4, 9, 13, 14, 3, 10]);
makespan = 475;
----------
assign = array1d(1..15 ,[6, 6, 6, 2, 2, 3, 2, 2, 3, 1, 2, 3, 4, 5, 6]);
next = array1d(1..15 ,[2, 15, 1, 5, 8, 12, 11, 7, 6, 4, 9, 13, 14, 3, 10]);
makespan = 473;
----------
assign = array1d(1..15 ,[6, 6, 6, 2, 2, 3, 2, 2, 3, 1, 2, 3, 4, 5, 6]);
next = array1d(1..15 ,[2, 15, 1, 5, 8, 12, 11, 7, 6, 4, 9, 13, 14, 3, 10]);
makespan = 471;
----------
assign = array1d(1..15 ,[6, 6, 6, 2, 2, 3, 2, 2, 3, 1, 2, 3, 4, 5, 6]);
next = array1d(1..15 ,[2, 15, 1, 5, 8, 12, 11, 7, 6, 4, 9, 13, 14, 3, 10]);
makespan = 466;
----------
assign = array1d(1..15 ,[6, 6, 6, 2, 2, 3, 2, 2, 3, 1, 2, 3, 4, 5, 6]);
next = array1d(1..15 ,[2, 15, 1, 5, 8, 12, 11, 7, 6, 4, 9, 13, 14, 3, 10]);
makespan = 463;
----------
assign = array1d(1..15 ,[6, 6, 6, 2, 2, 3, 2, 2, 3, 1, 2, 3, 4, 5, 6]);
next = array1d(1..15 ,[2, 15, 1, 5, 8, 12, 11, 7, 6, 4, 9, 13, 14, 3, 10]);
makespan = 451;
----------
assign = array1d(1..15 ,[6, 6, 6, 2, 2, 3, 2, 2, 3, 1, 2, 3, 4, 5, 6]);
next = array1d(1..15 ,[2, 15, 1, 5, 8, 12, 11, 7, 6, 4, 9, 13, 14, 3, 10]);
makespan = 448;
----------
assign = array1d(1..15 ,[6, 6, 6, 5, 5, 4, 4, 5, 4, 1, 2, 3, 4, 5, 6]);
next = array1d(1..15 ,[2, 15, 1, 5, 8, 7, 13, 14, 6, 11, 12, 9, 4, 3, 10]);
makespan = 440;
----------
assign = array1d(1..15 ,[3, 3, 3, 6, 5, 6, 5, 5, 6, 1, 2, 3, 4, 5, 6]);
next = array1d(1..15 ,[3, 1, 12, 15, 8, 4, 14, 7, 6, 11, 2, 13, 5, 9, 10]);
makespan = 436;
----------
assign = array1d(1..15 ,[1, 4, 5, 5, 5, 6, 6, 4, 6, 1, 2, 3, 4, 5, 6]);
next = array1d(1..15 ,[10, 8, 4, 5, 14, 15, 9, 13, 6, 11, 12, 2, 3, 7, 1]);
makespan = 434;
----------
assign = array1d(1..15 ,[5, 3, 6, 6, 6, 5, 3, 5, 3, 1, 2, 3, 4, 5, 6]);
next = array1d(1..15 ,[8, 12, 4, 5, 15, 14, 9, 6, 2, 11, 7, 13, 1, 3, 10]);
makespan = 431;
----------
assign = array1d(1..15 ,[5, 6, 3, 3, 3, 5, 6, 5, 6, 1, 2, 3, 4, 5, 6]);
next = array1d(1..15 ,[8, 7, 4, 5, 12, 1, 9, 14, 15, 11, 3, 13, 6, 2, 10]);
makespan = 426;
----------
assign = array1d(1..15 ,[5, 3, 6, 6, 6, 5, 3, 5, 3, 1, 2, 3, 4, 5, 6]);
next = array1d(1..15 ,[8, 12, 4, 5, 15, 1, 9, 14, 2, 11, 7, 13, 6, 3, 10]);
makespan = 421;
----------
assign = array1d(1..15 ,[5, 3, 6, 6, 6, 5, 3, 5, 3, 1, 2, 3, 4, 5, 6]);
next = array1d(1..15 ,[8, 12, 4, 5, 15, 1, 9, 14, 2, 11, 7, 13, 6, 3, 10]);
makespan = 420;
----------
assign = array1d(1..15 ,[5, 3, 6, 6, 6, 5, 3, 5, 3, 1, 2, 3, 4, 5, 6]);
next = array1d(1..15 ,[8, 12, 4, 5, 15, 1, 9, 14, 2, 11, 7, 13, 6, 3, 10]);
makespan = 406;
----------
assign = array1d(1..15 ,[5, 3, 6, 6, 6, 5, 3, 5, 3, 1, 2, 3, 4, 5, 6]);
next = array1d(1..15 ,[8, 12, 4, 5, 15, 1, 9, 14, 2, 11, 7, 13, 6, 3, 10]);
makespan = 402;
----------
assign = array1d(1..15 ,[5, 3, 6, 6, 6, 5, 3, 5, 3, 1, 2, 3, 4, 5, 6]);
next = array1d(1..15 ,[8, 12, 4, 5, 15, 1, 9, 14, 2, 11, 7, 13, 6, 3, 10]);
makespan = 397;
----------
assign = array1d(1..15 ,[5, 3, 6, 6, 6, 5, 3, 5, 3, 1, 2, 3, 4, 5, 6]);
next = array1d(1..15 ,[8, 12, 4, 5, 15, 1, 9, 14, 2, 11, 7, 13, 6, 3, 10]);
makespan = 392;
----------
assign = array1d(1..15 ,[5, 3, 6, 6, 6, 5, 3, 5, 3, 1, 2, 3, 4, 5, 6]);
next = array1d(1..15 ,[8, 12, 4, 5, 15, 1, 9, 14, 2, 11, 7, 13, 6, 3, 10]);
makespan = 388;
----------
assign = array1d(1..15 ,[5, 3, 6, 6, 6, 5, 3, 5, 3, 1, 2, 3, 4, 5, 6]);
next = array1d(1..15 ,[8, 12, 4, 5, 15, 1, 9, 14, 2, 11, 7, 13, 6, 3, 10]);
makespan = 385;
----------
assign = array1d(1..15 ,[5, 3, 6, 6, 6, 5, 3, 5, 3, 1, 2, 3, 4, 5, 6]);
next = array1d(1..15 ,[8, 12, 4, 5, 15, 1, 9, 14, 2, 11, 7, 13, 6, 3, 10]);
makespan = 383;
----------
assign = array1d(1..15 ,[5, 3, 6, 6, 6, 5, 3, 5, 3, 1, 2, 3, 4, 5, 6]);
next = array1d(1..15 ,[8, 12, 4, 5, 15, 1, 9, 14, 2, 11, 7, 13, 6, 3, 10]);
makespan = 381;
----------
assign = array1d(1..15 ,[5, 3, 6, 6, 6, 5, 3, 5, 3, 1, 2, 3, 4, 5, 6]);
next = array1d(1..15 ,[8, 12, 4, 5, 15, 1, 9, 14, 2, 11, 7, 13, 6, 3, 10]);
makespan = 380;
----------
assign = array1d(1..15 ,[5, 6, 1, 1, 1, 5, 6, 5, 6, 1, 2, 3, 4, 5, 6]);
next = array1d(1..15 ,[8, 15, 4, 5, 10, 1, 9, 14, 2, 11, 12, 13, 6, 7, 3]);
makespan = 376;
----------
assign = array1d(1..15 ,[5, 6, 4, 4, 4, 5, 6, 5, 6, 1, 2, 3, 4, 5, 6]);
next = array1d(1..15 ,[8, 15, 4, 5, 13, 1, 9, 14, 2, 11, 12, 3, 6, 7, 10]);
makespan = 375;
----------
assign = array1d(1..15 ,[5, 6, 1, 1, 1, 5, 6, 5, 6, 1, 2, 3, 4, 5, 6]);
next = array1d(1..15 ,[8, 15, 4, 5, 10, 1, 9, 14, 2, 11, 12, 13, 6, 7, 3]);
makespan = 374;
----------
assign = array1d(1..15 ,[5, 6, 4, 4, 4, 5, 6, 5, 6, 1, 2, 3, 4, 5, 6]);
next = array1d(1..15 ,[8, 15, 4, 5, 13, 1, 9, 14, 2, 11, 12, 3, 6, 7, 10]);
makespan = 372;
----------
assign = array1d(1..15 ,[5, 6, 1, 1, 1, 5, 6, 5, 6, 1, 2, 3, 4, 5, 6]);
next = array1d(1..15 ,[8, 15, 4, 5, 10, 1, 9, 14, 2, 11, 12, 13, 6, 7, 3]);
makespan = 369;
----------
assign = array1d(1..15 ,[5, 6, 4, 4, 4, 5, 6, 5, 6, 1, 2, 3, 4, 5, 6]);
next = array1d(1..15 ,[8, 15, 4, 5, 13, 1, 9, 14, 2, 11, 12, 3, 6, 7, 10]);
makespan = 366;
----------
assign = array1d(1..15 ,[5, 6, 1, 1, 1, 5, 6, 5, 6, 1, 2, 3, 4, 5, 6]);
next = array1d(1..15 ,[8, 15, 4, 5, 10, 1, 9, 14, 2, 11, 12, 13, 6, 7, 3]);
makespan = 365;
----------
assign = array1d(1..15 ,[5, 6, 4, 4, 4, 5, 6, 5, 6, 1, 2, 3, 4, 5, 6]);
next = array1d(1..15 ,[8, 15, 4, 5, 13, 1, 9, 14, 2, 11, 12, 3, 6, 7, 10]);
makespan = 357;
----------
assign = array1d(1..15 ,[5, 6, 1, 1, 1, 5, 6, 5, 6, 1, 2, 3, 4, 5, 6]);
next = array1d(1..15 ,[8, 15, 4, 5, 10, 1, 9, 14, 2, 11, 12, 13, 6, 7, 3]);
makespan = 355;
----------
assign = array1d(1..15 ,[5, 2, 4, 4, 4, 5, 6, 5, 6, 1, 2, 3, 4, 5, 6]);
next = array1d(1..15 ,[8, 11, 4, 5, 13, 1, 9, 14, 15, 2, 12, 3, 6, 7, 10]);
makespan = 352;
----------
assign = array1d(1..15 ,[6, 6, 5, 5, 5, 4, 1, 4, 1, 1, 2, 3, 4, 5, 6]);
next = array1d(1..15 ,[15, 1, 4, 5, 14, 8, 9, 13, 10, 11, 12, 6, 3, 2, 7]);
makespan = 349;
----------
assign = array1d(1..15 ,[5, 6, 4, 4, 4, 6, 2, 2, 2, 1, 2, 3, 4, 5, 6]);
next = array1d(1..15 ,[14, 15, 4, 5, 13, 2, 9, 7, 11, 8, 12, 3, 1, 6, 10]);
makespan = 347;
----------
assign = array1d(1..15 ,[5, 6, 4, 4, 4, 6, 2, 2, 2, 1, 2, 3, 4, 5, 6]);
next = array1d(1..15 ,[14, 15, 4, 5, 13, 2, 9, 7, 11, 8, 12, 3, 1, 6, 10]);
makespan = 346;
----------
assign = array1d(1..15 ,[5, 6, 4, 4, 4, 6, 2, 2, 2, 1, 2, 3, 4, 5, 6]);
next = array1d(1..15 ,[14, 15, 4, 5, 13, 2, 9, 7, 11, 8, 12, 3, 1, 6, 10]);
makespan = 343;
----------
assign = array1d(1..15 ,[5, 6, 4, 4, 4, 6, 2, 2, 2, 1, 2, 3, 4, 5, 6]);
next = array1d(1..15 ,[14, 15, 4, 5, 13, 2, 9, 7, 11, 8, 12, 3, 1, 6, 10]);
makespan = 337;
----------
assign = array1d(1..15 ,[4, 5, 6, 5, 5, 6, 2, 2, 2, 1, 2, 3, 4, 5, 6]);
next = array1d(1..15 ,[13, 14, 6, 5, 2, 15, 9, 7, 11, 8, 12, 1, 4, 3, 10]);
makespan = 336;
----------
assign = array1d(1..15 ,[4, 5, 6, 5, 5, 6, 2, 2, 2, 1, 2, 3, 4, 5, 6]);
next = array1d(1..15 ,[13, 14, 6, 5, 2, 15, 9, 7, 11, 8, 12, 1, 4, 3, 10]);
makespan = 330;
----------
assign = array1d(1..15 ,[4, 2, 4, 2, 2, 6, 5, 5, 6, 1, 2, 3, 4, 5, 6]);
next = array1d(1..15 ,[13, 11, 1, 5, 2, 9, 14, 7, 15, 4, 12, 3, 8, 6, 10]);
makespan = 327;
----------
assign = array1d(1..15 ,[5, 5, 4, 6, 6, 3, 2, 3, 2, 1, 2, 3, 4, 5, 6]);
next = array1d(1..15 ,[14, 1, 13, 5, 15, 8, 9, 12, 11, 7, 6, 3, 2, 4, 10]);
makespan = 324;
----------
assign = array1d(1..15 ,[1, 1, 6, 5, 5, 4, 6, 4, 6, 1, 2, 3, 4, 5, 6]);
next = array1d(1..15 ,[10, 1, 15, 5, 14, 13, 9, 6, 3, 11, 12, 8, 4, 7, 2]);
makespan = 323;
----------
assign = array1d(1..15 ,[4, 5, 6, 1, 6, 1, 4, 1, 6, 1, 2, 3, 4, 5, 6]);
next = array1d(1..15 ,[13, 14, 15, 10, 9, 4, 1, 6, 3, 11, 12, 7, 2, 5, 8]);
makespan = 322;
----------
assign = array1d(1..15 ,[3, 4, 6, 4, 6, 5, 3, 5, 6, 1, 2, 3, 4, 5, 6]);
next = array1d(1..15 ,[12, 13, 15, 2, 9, 14, 1, 6, 3, 11, 7, 4, 8, 5, 10]);
makespan = 321;
----------
assign = array1d(1..15 ,[4, 6, 6, 5, 1, 5, 4, 1, 1, 1, 2, 3, 4, 5, 6]);
next = array1d(1..15 ,[13, 3, 15, 14, 9, 4, 1, 10, 8, 11, 12, 7, 6, 2, 5]);
makespan = 320;
----------
assign = array1d(1..15 ,[6, 5, 3, 4, 1, 4, 6, 1, 1, 1, 2, 3, 4, 5, 6]);
next = array1d(1..15 ,[15, 14, 12, 13, 9, 4, 1, 10, 8, 11, 3, 6, 2, 7, 5]);
makespan = 319;
----------
assign = array1d(1..15 ,[3, 5, 5, 6, 1, 6, 3, 1, 1, 1, 2, 3, 4, 5, 6]);
next = array1d(1..15 ,[12, 14, 2, 6, 9, 15, 1, 10, 8, 11, 7, 13, 3, 4, 5]);
makespan = 316;
----------
assign = array1d(1..15 ,[6, 3, 3, 2, 4, 5, 6, 5, 4, 1, 2, 3, 4, 5, 6]);
next = array1d(1..15 ,[15, 12, 2, 11, 9, 14, 1, 6, 13, 4, 3, 5, 8, 7, 10]);
makespan = 315;
----------
assign = array1d(1..15 ,[6, 4, 4, 1, 5, 1, 6, 1, 5, 1, 2, 3, 4, 5, 6]);
next = array1d(1..15 ,[15, 13, 2, 10, 9, 4, 1, 6, 14, 11, 12, 3, 5, 7, 8]);
makespan = 314;
----------
assign = array1d(1..15 ,[6, 6, 1, 4, 1, 5, 4, 5, 1, 1, 2, 3, 4, 5, 6]);
next = array1d(1..15 ,[2, 15, 5, 13, 9, 14, 4, 6, 10, 11, 12, 7, 8, 1, 3]);
makespan = 313;
----------
assign = array1d(1..15 ,[5, 6, 1, 4, 1, 4, 6, 5, 1, 1, 2, 3, 4, 5, 6]);
next = array1d(1..15 ,[14, 7, 5, 13, 9, 4, 15, 1, 10, 11, 12, 6, 8, 2, 3]);
makespan = 312;
----------
assign = array1d(1..15 ,[5, 6, 5, 1, 4, 1, 6, 1, 4, 1, 2, 3, 4, 5, 6]);
next = array1d(1..15 ,[14, 7, 1, 10, 9, 4, 15, 6, 13, 11, 12, 5, 3, 2, 8]);
makespan = 310;
----------
assign = array1d(1..15 ,[3, 6, 6, 1, 3, 1, 5, 1, 3, 1, 2, 3, 4, 5, 6]);
next = array1d(1..15 ,[5, 15, 2, 10, 9, 4, 14, 6, 12, 11, 1, 13, 7, 3, 8]);
makespan = 307;
----------
assign = array1d(1..15 ,[3, 6, 6, 1, 3, 1, 5, 1, 3, 1, 2, 3, 4, 5, 6]);
next = array1d(1..15 ,[5, 15, 2, 10, 9, 4, 14, 6, 12, 11, 1, 13, 7, 3, 8]);
makespan = 302;
----------
assign = array1d(1..15 ,[3, 6, 6, 1, 3, 1, 5, 1, 3, 1, 2, 3, 4, 5, 6]);
next = array1d(1..15 ,[5, 15, 2, 10, 9, 4, 14, 6, 12, 11, 1, 13, 7, 3, 8]);
makespan = 301;
----------
assign = array1d(1..15 ,[4, 3, 5, 2, 6, 2, 4, 5, 6, 1, 2, 3, 4, 5, 6]);
next = array1d(1..15 ,[13, 12, 14, 11, 9, 4, 1, 3, 15, 6, 2, 7, 8, 5, 10]);
makespan = 300;
----------
assign = array1d(1..15 ,[6, 3, 6, 1, 5, 1, 1, 3, 5, 1, 2, 3, 4, 5, 6]);
next = array1d(1..15 ,[3, 8, 15, 10, 9, 4, 6, 12, 14, 11, 2, 13, 5, 1, 7]);
makespan = 299;
----------
assign = array1d(1..15 ,[5, 6, 4, 2, 6, 2, 5, 3, 4, 1, 2, 3, 4, 5, 6]);
next = array1d(1..15 ,[14, 5, 13, 11, 15, 4, 1, 12, 3, 6, 8, 9, 7, 2, 10]);
makespan = 297;
----------
assign = array1d(1..15 ,[6, 4, 5, 3, 1, 4, 6, 3, 5, 1, 2, 3, 4, 5, 6]);
next = array1d(1..15 ,[15, 6, 14, 8, 10, 13, 1, 12, 3, 11, 4, 2, 9, 7, 5]);
makespan = 295;
----------
assign = array1d(1..15 ,[3, 4, 6, 5, 3, 5, 2, 4, 6, 1, 2, 3, 4, 5, 6]);
next = array1d(1..15 ,[5, 8, 15, 14, 12, 4, 11, 13, 3, 7, 1, 2, 6, 9, 10]);
makespan = 294;
----------
assign = array1d(1..15 ,[6, 5, 4, 3, 6, 4, 2, 3, 5, 1, 2, 3, 4, 5, 6]);
next = array1d(1..15 ,[5, 9, 6, 8, 15, 13, 11, 12, 14, 7, 4, 3, 2, 1, 10]);
makespan = 293;
----------
assign = array1d(1..15 ,[2, 6, 5, 6, 2, 5, 1, 3, 1, 1, 2, 3, 4, 5, 6]);
next = array1d(1..15 ,[5, 4, 6, 15, 11, 14, 9, 12, 10, 1, 8, 13, 3, 2, 7]);
makespan = 292;
----------
assign = array1d(1..15 ,[5, 3, 5, 6, 4, 6, 2, 4, 3, 1, 2, 3, 4, 5, 6]);
next = array1d(1..15 ,[14, 9, 1, 15, 13, 4, 11, 5, 12, 7, 2, 8, 3, 6, 10]);
makespan = 289;
----------
assign = array1d(1..15 ,[4, 5, 3, 4, 5, 3, 6, 6, 5, 1, 2, 3, 4, 5, 6]);
next = array1d(1..15 ,[13, 9, 12, 1, 2, 3, 15, 7, 14, 11, 6, 4, 5, 8, 10]);
makespan = 286;
----------
assign = array1d(1..15 ,[6, 5, 3, 6, 4, 5, 2, 4, 5, 1, 2, 3, 4, 5, 6]);
next = array1d(1..15 ,[15, 9, 12, 1, 13, 14, 11, 5, 6, 7, 3, 8, 2, 4, 10]);
makespan = 285;
----------
assign = array1d(1..15 ,[4, 3, 5, 4, 6, 5, 2, 6, 3, 1, 2, 3, 4, 5, 6]);
next = array1d(1..15 ,[4, 9, 14, 13, 15, 3, 11, 5, 12, 7, 2, 1, 6, 8, 10]);
makespan = 283;
----------
assign = array1d(1..15 ,[5, 6, 1, 6, 4, 3, 4, 2, 5, 1, 2, 3, 4, 5, 6]);
next = array1d(1..15 ,[14, 15, 10, 2, 7, 12, 13, 11, 1, 8, 6, 5, 9, 4, 3]);
makespan = 282;
----------
assign = array1d(1..15 ,[5, 6, 5, 4, 2, 1, 4, 2, 6, 1, 2, 3, 4, 5, 6]);
next = array1d(1..15 ,[3, 9, 14, 7, 8, 10, 13, 11, 15, 5, 12, 4, 1, 2, 6]);
makespan = 281;
----------
assign = array1d(1..15 ,[5, 4, 3, 4, 6, 2, 6, 3, 5, 1, 2, 3, 4, 5, 6]);
next = array1d(1..15 ,[14, 13, 8, 2, 7, 11, 15, 12, 1, 6, 3, 4, 9, 5, 10]);
makespan = 280;
----------
assign = array1d(1..15 ,[2, 5, 6, 5, 1, 2, 4, 6, 4, 1, 2, 3, 4, 5, 6]);
next = array1d(1..15 ,[6, 14, 8, 2, 10, 11, 13, 15, 7, 1, 12, 9, 4, 3, 5]);
makespan = 279;
----------
assign = array1d(1..15 ,[1, 4, 5, 6, 5, 2, 2, 6, 4, 1, 2, 3, 4, 5, 6]);
next = array1d(1..15 ,[10, 9, 14, 15, 3, 11, 6, 4, 13, 7, 12, 2, 5, 8, 1]);
makespan = 275;
----------
assign = array1d(1..15 ,[4, 5, 6, 5, 1, 4, 1, 6, 3, 1, 2, 3, 4, 5, 6]);
next = array1d(1..15 ,[6, 14, 8, 2, 7, 13, 10, 15, 12, 11, 9, 1, 4, 3, 5]);
makespan = 274;
----------
assign = array1d(1..15 ,[4, 5, 6, 5, 1, 4, 1, 6, 3, 1, 2, 3, 4, 5, 6]);
next = array1d(1..15 ,[6, 14, 8, 2, 7, 13, 10, 15, 12, 11, 9, 1, 4, 3, 5]);
makespan = 273;
----------
assign = array1d(1..15 ,[4, 5, 6, 5, 1, 4, 1, 6, 3, 1, 2, 3, 4, 5, 6]);
next = array1d(1..15 ,[6, 14, 8, 2, 7, 13, 10, 15, 12, 11, 9, 1, 4, 3, 5]);
makespan = 272;
----------
assign = array1d(1..15 ,[4, 5, 6, 5, 1, 4, 1, 6, 3, 1, 2, 3, 4, 5, 6]);
next = array1d(1..15 ,[6, 14, 8, 2, 7, 13, 10, 15, 12, 11, 9, 1, 4, 3, 5]);
makespan = 271;
----------
assign = array1d(1..15 ,[4, 5, 6, 5, 1, 4, 1, 6, 3, 1, 2, 3, 4, 5, 6]);
next = array1d(1..15 ,[6, 14, 8, 2, 7, 13, 10, 15, 12, 11, 9, 1, 4, 3, 5]);
makespan = 270;
----------
assign = array1d(1..15 ,[4, 5, 6, 5, 1, 4, 1, 6, 3, 1, 2, 3, 4, 5, 6]);
next = array1d(1..15 ,[6, 14, 8, 2, 7, 13, 10, 15, 12, 11, 9, 1, 4, 3, 5]);
makespan = 269;
----------
assign = array1d(1..15 ,[4, 5, 6, 5, 1, 4, 1, 6, 3, 1, 2, 3, 4, 5, 6]);
next = array1d(1..15 ,[6, 14, 8, 2, 7, 13, 10, 15, 12, 11, 9, 1, 4, 3, 5]);
makespan = 267;
----------
assign = array1d(1..15 ,[4, 5, 6, 5, 1, 4, 1, 6, 3, 1, 2, 3, 4, 5, 6]);
next = array1d(1..15 ,[6, 14, 8, 2, 7, 13, 10, 15, 12, 11, 9, 1, 4, 3, 5]);
makespan = 266;
----------
assign = array1d(1..15 ,[4, 5, 6, 5, 1, 4, 1, 6, 3, 1, 2, 3, 4, 5, 6]);
next = array1d(1..15 ,[6, 14, 8, 2, 7, 13, 10, 15, 12, 11, 9, 1, 4, 3, 5]);
makespan = 264;
----------
assign = array1d(1..15 ,[4, 5, 6, 5, 1, 4, 1, 6, 3, 1, 2, 3, 4, 5, 6]);
next = array1d(1..15 ,[6, 14, 8, 2, 7, 13, 10, 15, 12, 11, 9, 1, 4, 3, 5]);
makespan = 263;
----------
assign = array1d(1..15 ,[4, 5, 6, 5, 1, 4, 1, 6, 3, 1, 2, 3, 4, 5, 6]);
next = array1d(1..15 ,[6, 14, 8, 2, 7, 13, 10, 15, 12, 11, 9, 1, 4, 3, 5]);
makespan = 262;
----------
assign = array1d(1..15 ,[4, 5, 6, 5, 1, 4, 1, 6, 3, 1, 2, 3, 4, 5, 6]);
next = array1d(1..15 ,[6, 14, 8, 2, 7, 13, 10, 15, 12, 11, 9, 1, 4, 3, 5]);
makespan = 261;
----------
assign = array1d(1..15 ,[3, 5, 6, 5, 1, 3, 1, 6, 4, 1, 2, 3, 4, 5, 6]);
next = array1d(1..15 ,[6, 14, 8, 2, 7, 12, 10, 15, 13, 11, 1, 9, 4, 3, 5]);
makespan = 260;
----------
assign = array1d(1..15 ,[3, 5, 6, 5, 1, 3, 1, 6, 4, 1, 2, 3, 4, 5, 6]);
next = array1d(1..15 ,[6, 14, 8, 2, 7, 12, 10, 15, 13, 11, 1, 9, 4, 3, 5]);
makespan = 259;
----------
assign = array1d(1..15 ,[3, 5, 6, 5, 1, 3, 1, 6, 4, 1, 2, 3, 4, 5, 6]);
next = array1d(1..15 ,[6, 14, 8, 2, 7, 12, 10, 15, 13, 11, 1, 9, 4, 3, 5]);
makespan = 258;
----------
assign = array1d(1..15 ,[3, 5, 6, 5, 1, 3, 1, 6, 4, 1, 2, 3, 4, 5, 6]);
next = array1d(1..15 ,[6, 14, 8, 2, 7, 12, 10, 15, 13, 11, 1, 9, 4, 3, 5]);
makespan = 257;
----------
assign = array1d(1..15 ,[3, 5, 6, 5, 1, 3, 1, 6, 4, 1, 2, 3, 4, 5, 6]);
next = array1d(1..15 ,[6, 14, 8, 2, 7, 12, 10, 15, 13, 11, 1, 9, 4, 3, 5]);
makespan = 256;
----------
assign = array1d(1..15 ,[3, 5, 6, 5, 1, 3, 1, 6, 4, 1, 2, 3, 4, 5, 6]);
next = array1d(1..15 ,[6, 14, 8, 2, 7, 12, 10, 15, 13, 11, 1, 9, 4, 3, 5]);
makespan = 255;
----------
assign = array1d(1..15 ,[3, 5, 6, 5, 1, 3, 1, 6, 4, 1, 2, 3, 4, 5, 6]);
next = array1d(1..15 ,[6, 14, 8, 2, 7, 12, 10, 15, 13, 11, 1, 9, 4, 3, 5]);
makespan = 254;
----------
assign = array1d(1..15 ,[3, 5, 6, 5, 1, 3, 1, 6, 4, 1, 2, 3, 4, 5, 6]);
next = array1d(1..15 ,[6, 14, 8, 2, 7, 12, 10, 15, 13, 11, 1, 9, 4, 3, 5]);
makespan = 252;
----------
assign = array1d(1..15 ,[3, 5, 6, 5, 1, 3, 1, 6, 4, 1, 2, 3, 4, 5, 6]);
next = array1d(1..15 ,[6, 14, 8, 2, 7, 12, 10, 15, 13, 11, 1, 9, 4, 3, 5]);
makespan = 251;
----------
assign = array1d(1..15 ,[3, 5, 6, 5, 1, 3, 1, 6, 4, 1, 2, 3, 4, 5, 6]);
next = array1d(1..15 ,[6, 14, 8, 2, 7, 12, 10, 15, 13, 11, 1, 9, 4, 3, 5]);
makespan = 249;
----------
assign = array1d(1..15 ,[3, 5, 6, 5, 1, 3, 1, 6, 4, 1, 2, 3, 4, 5, 6]);
next = array1d(1..15 ,[6, 14, 8, 2, 7, 12, 10, 15, 13, 11, 1, 9, 4, 3, 5]);
makespan = 248;
----------
assign = array1d(1..15 ,[3, 5, 6, 5, 1, 3, 1, 6, 4, 1, 2, 3, 4, 5, 6]);
next = array1d(1..15 ,[6, 14, 8, 2, 7, 12, 10, 15, 13, 11, 1, 9, 4, 3, 5]);
makespan = 247;
----------
assign = array1d(1..15 ,[3, 5, 6, 5, 1, 3, 1, 6, 4, 1, 2, 3, 4, 5, 6]);
next = array1d(1..15 ,[6, 14, 8, 2, 7, 12, 10, 15, 13, 11, 1, 9, 4, 3, 5]);
makespan = 246;
----------
assign = array1d(1..15 ,[3, 5, 6, 5, 1, 3, 1, 6, 4, 1, 2, 3, 4, 5, 6]);
next = array1d(1..15 ,[6, 14, 8, 2, 7, 12, 10, 15, 13, 11, 1, 9, 4, 3, 5]);
makespan = 245;
----------
assign = array1d(1..15 ,[3, 5, 6, 5, 1, 3, 1, 6, 4, 1, 2, 3, 4, 5, 6]);
next = array1d(1..15 ,[6, 14, 8, 2, 7, 12, 10, 15, 13, 11, 1, 9, 4, 3, 5]);
makespan = 244;
----------
assign = array1d(1..15 ,[3, 5, 6, 5, 1, 3, 1, 6, 4, 1, 2, 3, 4, 5, 6]);
next = array1d(1..15 ,[6, 14, 8, 2, 7, 12, 10, 15, 13, 11, 1, 9, 4, 3, 5]);
makespan = 243;
----------
assign = array1d(1..15 ,[3, 5, 6, 5, 1, 3, 1, 6, 4, 1, 2, 3, 4, 5, 6]);
next = array1d(1..15 ,[6, 14, 8, 2, 7, 12, 10, 15, 13, 11, 1, 9, 4, 3, 5]);
makespan = 242;
----------
assign = array1d(1..15 ,[3, 5, 6, 5, 1, 3, 1, 6, 4, 1, 2, 3, 4, 5, 6]);
next = array1d(1..15 ,[6, 14, 8, 2, 7, 12, 10, 15, 13, 11, 1, 9, 4, 3, 5]);
makespan = 241;
----------
assign = array1d(1..15 ,[3, 5, 6, 5, 1, 3, 1, 6, 4, 1, 2, 3, 4, 5, 6]);
next = array1d(1..15 ,[6, 14, 8, 2, 7, 12, 10, 15, 13, 11, 1, 9, 4, 3, 5]);
makespan = 240;
----------
assign = array1d(1..15 ,[3, 5, 6, 5, 1, 3, 1, 6, 4, 1, 2, 3, 4, 5, 6]);
next = array1d(1..15 ,[6, 14, 8, 2, 7, 12, 10, 15, 13, 11, 1, 9, 4, 3, 5]);
makespan = 238;
----------
assign = array1d(1..15 ,[3, 5, 6, 5, 1, 3, 1, 6, 4, 1, 2, 3, 4, 5, 6]);
next = array1d(1..15 ,[6, 14, 8, 2, 7, 12, 10, 15, 13, 11, 1, 9, 4, 3, 5]);
makespan = 237;
----------
assign = array1d(1..15 ,[3, 5, 6, 5, 1, 3, 1, 6, 4, 1, 2, 3, 4, 5, 6]);
next = array1d(1..15 ,[6, 14, 8, 2, 7, 12, 10, 15, 13, 11, 1, 9, 4, 3, 5]);
makespan = 236;
----------
assign = array1d(1..15 ,[1, 5, 6, 5, 4, 1, 4, 6, 3, 1, 2, 3, 4, 5, 6]);
next = array1d(1..15 ,[6, 14, 8, 2, 7, 10, 13, 15, 12, 11, 9, 5, 4, 3, 1]);
makespan = 235;
----------
assign = array1d(1..15 ,[1, 5, 6, 5, 4, 1, 4, 6, 3, 1, 2, 3, 4, 5, 6]);
next = array1d(1..15 ,[6, 14, 8, 2, 7, 10, 13, 15, 12, 11, 9, 5, 4, 3, 1]);
makespan = 234;
----------
assign = array1d(1..15 ,[1, 5, 6, 5, 4, 1, 4, 6, 3, 1, 2, 3, 4, 5, 6]);
next = array1d(1..15 ,[6, 14, 8, 2, 7, 10, 13, 15, 12, 11, 9, 5, 4, 3, 1]);
makespan = 233;
----------
assign = array1d(1..15 ,[1, 5, 6, 5, 4, 1, 4, 6, 3, 1, 2, 3, 4, 5, 6]);
next = array1d(1..15 ,[6, 14, 8, 2, 7, 10, 13, 15, 12, 11, 9, 5, 4, 3, 1]);
makespan = 232;
----------
assign = array1d(1..15 ,[1, 2, 6, 5, 5, 1, 2, 6, 4, 1, 2, 3, 4, 5, 6]);
next = array1d(1..15 ,[6, 11, 8, 14, 4, 10, 2, 15, 13, 7, 12, 9, 5, 3, 1]);
makespan = 230;
----------
assign = array1d(1..15 ,[1, 5, 6, 4, 3, 1, 5, 4, 6, 1, 2, 3, 4, 5, 6]);
next = array1d(1..15 ,[6, 14, 15, 13, 12, 10, 2, 4, 3, 11, 5, 8, 7, 9, 1]);
makespan = 229;
----------
assign = array1d(1..15 ,[1, 5, 4, 6, 3, 1, 5, 6, 4, 1, 2, 3, 4, 5, 6]);
next = array1d(1..15 ,[6, 7, 13, 15, 12, 10, 14, 4, 3, 11, 5, 9, 2, 8, 1]);
makespan = 228;
----------
assign = array1d(1..15 ,[1, 5, 2, 4, 6, 1, 5, 4, 6, 1, 2, 3, 4, 5, 6]);
next = array1d(1..15 ,[6, 14, 11, 13, 15, 10, 2, 4, 5, 3, 12, 8, 7, 9, 1]);
makespan = 227;
----------
assign = array1d(1..15 ,[1, 6, 2, 4, 5, 1, 5, 4, 6, 1, 2, 3, 4, 5, 6]);
next = array1d(1..15 ,[6, 9, 11, 13, 7, 10, 14, 4, 15, 3, 12, 8, 5, 2, 1]);
makespan = 226;
----------
assign = array1d(1..15 ,[1, 6, 2, 4, 5, 1, 5, 4, 6, 1, 2, 3, 4, 5, 6]);
next = array1d(1..15 ,[6, 9, 11, 13, 7, 10, 14, 4, 15, 3, 12, 8, 5, 2, 1]);
makespan = 224;
----------
assign = array1d(1..15 ,[1, 6, 2, 4, 5, 1, 5, 4, 6, 1, 2, 3, 4, 5, 6]);
next = array1d(1..15 ,[6, 9, 11, 13, 7, 10, 14, 4, 15, 3, 12, 8, 5, 2, 1]);
makespan = 223;
----------
assign = array1d(1..15 ,[1, 6, 2, 4, 5, 1, 5, 4, 6, 1, 2, 3, 4, 5, 6]);
next = array1d(1..15 ,[6, 9, 11, 13, 7, 10, 14, 4, 15, 3, 12, 8, 5, 2, 1]);
makespan = 222;
----------
assign = array1d(1..15 ,[1, 6, 2, 4, 5, 1, 5, 4, 6, 1, 2, 3, 4, 5, 6]);
next = array1d(1..15 ,[6, 9, 11, 13, 7, 10, 14, 4, 15, 3, 12, 8, 5, 2, 1]);
makespan = 221;
----------
assign = array1d(1..15 ,[1, 6, 2, 4, 5, 1, 5, 4, 6, 1, 2, 3, 4, 5, 6]);
next = array1d(1..15 ,[6, 9, 11, 13, 7, 10, 14, 4, 15, 3, 12, 8, 5, 2, 1]);
makespan = 220;
----------
assign = array1d(1..15 ,[1, 6, 2, 4, 5, 1, 5, 4, 6, 1, 2, 3, 4, 5, 6]);
next = array1d(1..15 ,[6, 9, 11, 13, 7, 10, 14, 4, 15, 3, 12, 8, 5, 2, 1]);
makespan = 219;
----------
assign = array1d(1..15 ,[1, 5, 6, 4, 3, 1, 6, 4, 5, 1, 2, 3, 4, 5, 6]);
next = array1d(1..15 ,[6, 9, 7, 13, 12, 10, 15, 4, 14, 11, 5, 8, 2, 3, 1]);
makespan = 218;
----------
assign = array1d(1..15 ,[1, 5, 3, 4, 6, 1, 6, 4, 5, 1, 2, 3, 4, 5, 6]);
next = array1d(1..15 ,[6, 9, 12, 13, 7, 10, 15, 4, 14, 11, 3, 8, 2, 5, 1]);
makespan = 217;
----------
assign = array1d(1..15 ,[5, 2, 6, 4, 3, 5, 6, 4, 2, 1, 2, 3, 4, 5, 6]);
next = array1d(1..15 ,[6, 9, 7, 13, 12, 14, 15, 4, 11, 2, 5, 8, 1, 3, 10]);
makespan = 216;
----------
assign = array1d(1..15 ,[3, 2, 6, 6, 5, 1, 1, 5, 2, 1, 2, 3, 4, 5, 6]);
next = array1d(1..15 ,[12, 11, 15, 3, 8, 7, 10, 14, 2, 9, 1, 13, 5, 4, 6]);
makespan = 215;
----------
assign = array1d(1..15 ,[5, 5, 2, 4, 6, 1, 1, 4, 6, 1, 2, 3, 4, 5, 6]);
next = array1d(1..15 ,[2, 14, 11, 13, 9, 7, 10, 4, 15, 3, 12, 8, 1, 5, 6]);
makespan = 214;
----------
assign = array1d(1..15 ,[3, 2, 6, 4, 6, 5, 3, 4, 2, 1, 2, 3, 4, 5, 6]);
next = array1d(1..15 ,[7, 9, 5, 13, 15, 14, 12, 4, 11, 2, 1, 8, 6, 3, 10]);
makespan = 213;
----------
assign = array1d(1..15 ,[5, 2, 5, 4, 6, 3, 6, 4, 2, 1, 2, 3, 4, 5, 6]);
next = array1d(1..15 ,[3, 9, 14, 13, 7, 12, 15, 4, 11, 2, 6, 8, 1, 5, 10]);
makespan = 212;
----------
assign = array1d(1..15 ,[3, 6, 2, 4, 1, 5, 3, 4, 1, 1, 2, 3, 4, 5, 6]);
next = array1d(1..15 ,[7, 15, 11, 13, 9, 14, 12, 4, 10, 3, 1, 8, 6, 2, 5]);
makespan = 211;
----------
assign = array1d(1..15 ,[4, 3, 6, 1, 3, 1, 6, 5, 2, 1, 2, 3, 4, 5, 6]);
next = array1d(1..15 ,[13, 12, 15, 6, 2, 10, 3, 14, 11, 9, 5, 1, 8, 7, 4]);
makespan = 210;
----------
assign = array1d(1..15 ,[4, 2, 3, 1, 2, 1, 4, 6, 3, 1, 2, 3, 4, 5, 6]);
next = array1d(1..15 ,[7, 11, 12, 6, 2, 10, 13, 15, 3, 5, 9, 1, 14, 8, 4]);
makespan = 209;
----------
assign = array1d(1..15 ,[3, 5, 4, 1, 6, 1, 4, 5, 6, 1, 2, 3, 4, 5, 6]);
next = array1d(1..15 ,[12, 8, 7, 6, 9, 10, 13, 14, 15, 11, 1, 3, 2, 5, 4]);
makespan = 208;
----------
assign = array1d(1..15 ,[4, 5, 6, 1, 3, 1, 6, 5, 4, 1, 2, 3, 4, 5, 6]);
next = array1d(1..15 ,[13, 8, 15, 6, 12, 10, 3, 14, 1, 11, 5, 9, 2, 7, 4]);
makespan = 206;
----------
assign = array1d(1..15 ,[6, 5, 5, 4, 3, 1, 2, 4, 1, 1, 2, 3, 4, 5, 6]);
next = array1d(1..15 ,[15, 14, 2, 13, 12, 9, 11, 4, 10, 7, 5, 8, 3, 1, 6]);
makespan = 204;
----------
assign = array1d(1..15 ,[6, 5, 1, 1, 3, 2, 4, 5, 4, 1, 2, 3, 4, 5, 6]);
next = array1d(1..15 ,[15, 8, 4, 10, 12, 11, 13, 14, 7, 6, 5, 9, 2, 1, 3]);
makespan = 203;
----------
assign = array1d(1..15 ,[6, 5, 4, 4, 5, 3, 2, 1, 1, 1, 2, 3, 4, 5, 6]);
next = array1d(1..15 ,[15, 5, 4, 13, 14, 12, 11, 10, 8, 7, 6, 3, 2, 1, 9]);
makespan = 202;
----------
assign = array1d(1..15 ,[2, 5, 4, 4, 5, 3, 6, 1, 1, 1, 2, 3, 4, 5, 6]);
next = array1d(1..15 ,[11, 14, 4, 13, 2, 12, 15, 10, 8, 1, 6, 3, 5, 7, 9]);
makespan = 201;
----------
assign = array1d(1..15 ,[3, 6, 1, 4, 3, 5, 4, 1, 5, 1, 2, 3, 4, 5, 6]);
next = array1d(1..15 ,[5, 15, 8, 7, 12, 9, 13, 10, 14, 11, 1, 4, 6, 2, 3]);
makespan = 200;
----------
assign = array1d(1..15 ,[5, 2, 4, 3, 3, 5, 6, 4, 6, 1, 2, 3, 4, 5, 6]);
next = array1d(1..15 ,[14, 11, 13, 5, 12, 1, 9, 3, 15, 2, 4, 8, 6, 7, 10]);
makespan = 199;
----------
assign = array1d(1..15 ,[5, 2, 4, 3, 3, 5, 6, 4, 6, 1, 2, 3, 4, 5, 6]);
next = array1d(1..15 ,[14, 11, 13, 5, 12, 1, 9, 3, 15, 2, 4, 8, 6, 7, 10]);
makespan = 198;
----------
assign = array1d(1..15 ,[5, 2, 4, 3, 3, 5, 6, 4, 6, 1, 2, 3, 4, 5, 6]);
next = array1d(1..15 ,[14, 11, 13, 5, 12, 1, 9, 3, 15, 2, 4, 8, 6, 7, 10]);
makespan = 197;
----------
assign = array1d(1..15 ,[5, 2, 4, 3, 3, 5, 6, 4, 6, 1, 2, 3, 4, 5, 6]);
next = array1d(1..15 ,[14, 11, 13, 5, 12, 1, 9, 3, 15, 2, 4, 8, 6, 7, 10]);
makespan = 196;
----------
assign = array1d(1..15 ,[5, 3, 4, 2, 3, 5, 6, 4, 6, 1, 2, 3, 4, 5, 6]);
next = array1d(1..15 ,[14, 5, 13, 11, 12, 1, 9, 3, 15, 4, 2, 8, 6, 7, 10]);
makespan = 195;
----------
assign = array1d(1..15 ,[3, 2, 4, 5, 3, 1, 6, 4, 6, 1, 2, 3, 4, 5, 6]);
next = array1d(1..15 ,[5, 11, 13, 14, 12, 10, 9, 3, 15, 2, 1, 8, 4, 7, 6]);
makespan = 194;
----------
assign = array1d(1..15 ,[3, 5, 4, 6, 3, 5, 2, 4, 6, 1, 2, 3, 4, 5, 6]);
next = array1d(1..15 ,[5, 6, 13, 15, 12, 14, 11, 3, 4, 7, 1, 8, 2, 9, 10]);
makespan = 193;
----------
assign = array1d(1..15 ,[3, 6, 4, 2, 5, 5, 1, 4, 2, 1, 2, 3, 4, 5, 6]);
next = array1d(1..15 ,[12, 15, 13, 11, 6, 14, 10, 3, 4, 9, 1, 8, 5, 2, 7]);
makespan = 192;
----------
assign = array1d(1..15 ,[4, 5, 3, 2, 5, 6, 1, 4, 2, 1, 2, 3, 4, 5, 6]);
next = array1d(1..15 ,[8, 14, 12, 11, 2, 15, 10, 13, 4, 9, 3, 1, 5, 6, 7]);
makespan = 191;
----------
assign = array1d(1..15 ,[3, 3, 4, 2, 4, 1, 5, 6, 2, 1, 2, 3, 4, 5, 6]);
next = array1d(1..15 ,[12, 1, 13, 11, 3, 10, 14, 15, 4, 9, 2, 5, 7, 8, 6]);
makespan = 190;
----------
assign = array1d(1..15 ,[3, 5, 5, 4, 2, 6, 1, 2, 4, 1, 2, 3, 4, 5, 6]);
next = array1d(1..15 ,[12, 14, 2, 9, 8, 15, 10, 11, 13, 5, 1, 4, 3, 6, 7]);
makespan = 189;
----------
assign = array1d(1..15 ,[3, 3, 4, 1, 5, 1, 6, 4, 5, 1, 2, 3, 4, 5, 6]);
next = array1d(1..15 ,[12, 1, 13, 10, 9, 4, 15, 3, 14, 11, 2, 8, 5, 7, 6]);
makespan = 188;
----------
assign = array1d(1..15 ,[5, 2, 6, 4, 5, 1, 1, 4, 6, 1, 2, 3, 4, 5, 6]);
next = array1d(1..15 ,[5, 11, 9, 13, 14, 10, 6, 4, 15, 2, 12, 8, 1, 3, 7]);
makespan = 187;
----------
assign = array1d(1..15 ,[3, 6, 4, 2, 2, 1, 5, 4, 1, 1, 2, 3, 4, 5, 6]);
next = array1d(1..15 ,[12, 15, 13, 5, 11, 10, 14, 3, 6, 4, 1, 8, 7, 2, 9]);
makespan = 186;
----------
assign = array1d(1..15 ,[5, 2, 4, 2, 6, 1, 3, 4, 1, 1, 2, 3, 4, 5, 6]);
next = array1d(1..15 ,[14, 4, 13, 11, 15, 10, 12, 3, 6, 2, 7, 8, 1, 5, 9]);
makespan = 185;
----------
assign = array1d(1..15 ,[2, 6, 4, 5, 3, 1, 3, 4, 1, 1, 2, 3, 4, 5, 6]);
next = array1d(1..15 ,[11, 15, 13, 14, 7, 10, 12, 3, 6, 1, 5, 8, 4, 2, 9]);
makespan = 184;
----------
assign = array1d(1..15 ,[3, 2, 1, 2, 5, 6, 4, 1, 5, 1, 2, 3, 4, 5, 6]);
next = array1d(1..15 ,[12, 4, 8, 11, 14, 15, 13, 10, 5, 2, 1, 7, 9, 6, 3]);
makespan = 183;
----------
assign = array1d(1..15 ,[6, 5, 4, 2, 2, 3, 1, 4, 5, 1, 2, 3, 4, 5, 6]);
next = array1d(1..15 ,[15, 9, 13, 5, 11, 12, 10, 3, 14, 4, 6, 8, 2, 1, 7]);
makespan = 182;
----------
assign = array1d(1..15 ,[1, 6, 4, 2, 2, 3, 5, 1, 4, 1, 2, 3, 4, 5, 6]);
next = array1d(1..15 ,[8, 15, 9, 5, 11, 12, 14, 10, 13, 4, 6, 3, 7, 2, 1]);
makespan = 181;
----------
assign = array1d(1..15 ,[1, 3, 6, 2, 2, 4, 5, 1, 6, 1, 2, 3, 4, 5, 6]);
next = array1d(1..15 ,[8, 12, 9, 5, 11, 13, 14, 10, 15, 4, 2, 6, 7, 3, 1]);
makespan = 180;
----------
assign = array1d(1..15 ,[5, 6, 4, 2, 3, 5, 1, 4, 2, 1, 2, 3, 4, 5, 6]);
next = array1d(1..15 ,[6, 15, 13, 11, 12, 14, 10, 3, 4, 9, 5, 8, 1, 2, 7]);
makespan = 179;
----------
assign = array1d(1..15 ,[4, 6, 1, 2, 5, 5, 3, 1, 2, 1, 2, 3, 4, 5, 6]);
next = array1d(1..15 ,[13, 15, 8, 11, 6, 14, 12, 10, 4, 9, 7, 1, 5, 2, 3]);
makespan = 177;
----------
assign = array1d(1..15 ,[4, 6, 1, 2, 5, 5, 3, 1, 2, 1, 2, 3, 4, 5, 6]);
next = array1d(1..15 ,[13, 15, 8, 11, 6, 14, 12, 10, 4, 9, 7, 1, 5, 2, 3]);
makespan = 176;
----------
assign = array1d(1..15 ,[4, 6, 1, 2, 5, 5, 3, 1, 2, 1, 2, 3, 4, 5, 6]);
next = array1d(1..15 ,[13, 15, 8, 11, 6, 14, 12, 10, 4, 9, 7, 1, 5, 2, 3]);
makespan = 175;
----------
assign = array1d(1..15 ,[4, 6, 1, 2, 5, 5, 3, 1, 2, 1, 2, 3, 4, 5, 6]);
next = array1d(1..15 ,[13, 15, 8, 11, 6, 14, 12, 10, 4, 9, 7, 1, 5, 2, 3]);
makespan = 174;
----------
assign = array1d(1..15 ,[3, 5, 4, 1, 5, 1, 2, 6, 4, 1, 2, 3, 4, 5, 6]);
next = array1d(1..15 ,[12, 14, 9, 10, 2, 4, 11, 15, 13, 7, 1, 3, 5, 8, 6]);
makespan = 173;
----------
assign = array1d(1..15 ,[4, 2, 6, 1, 3, 1, 5, 2, 6, 1, 2, 3, 4, 5, 6]);
next = array1d(1..15 ,[13, 11, 15, 10, 12, 4, 14, 2, 3, 8, 5, 1, 7, 9, 6]);
makespan = 172;
----------
assign = array1d(1..15 ,[3, 5, 4, 1, 5, 1, 2, 6, 4, 1, 2, 3, 4, 5, 6]);
next = array1d(1..15 ,[12, 14, 9, 10, 2, 4, 11, 15, 13, 7, 1, 3, 5, 8, 6]);
makespan = 171;
----------
assign = array1d(1..15 ,[2, 5, 4, 1, 5, 1, 6, 3, 4, 1, 2, 3, 4, 5, 6]);
next = array1d(1..15 ,[11, 14, 9, 10, 2, 4, 15, 12, 13, 1, 8, 3, 5, 7, 6]);
makespan = 170;
----------
assign = array1d(1..15 ,[6, 5, 4, 1, 5, 1, 2, 3, 4, 1, 2, 3, 4, 5, 6]);
next = array1d(1..15 ,[15, 14, 9, 10, 2, 4, 11, 12, 13, 7, 8, 3, 5, 1, 6]);
makespan = 169;
----------
==========
	Command being timed: "mzn-chuffed lbbd-datasets/Rabadi-2006/dzn-balanced/model.mzn lbbd-datasets/Rabadi-2006/dzn-balanced/9on6Rp50Rs50_6Ameer.dzn"
	User time (seconds): 0.78
	System time (seconds): 0.02
	Percent of CPU this job got: 10%
	Elapsed (wall clock) time (h:mm:ss or m:ss): 0:07.92
	Average shared text size (kbytes): 0
	Average unshared data size (kbytes): 0
	Average stack size (kbytes): 0
	Average total size (kbytes): 0
	Maximum resident set size (kbytes): 47504
	Average resident set size (kbytes): 0
	Major (requiring I/O) page faults: 0
	Minor (reclaiming a frame) page faults: 4642
	Voluntary context switches: 464
	Involuntary context switches: 3
	Swaps: 0
	File system inputs: 0
	File system outputs: 624
	Socket messages sent: 0
	Socket messages received: 0
	Signals delivered: 0
	Page size (bytes): 4096
	Exit status: 0
