+ /usr/bin/timeout 600 /usr/bin/time -v mzn-chuffed lbbd-datasets/planningandscheduling/makespan-insts/model.mzn lbbd-datasets/planningandscheduling/makespan-insts/c12j4m3.dzn
% No search annotation given. Defaulting to VSIDS!
obj = 25
----------
obj = 24
----------
obj = 23
----------
obj = 22
----------
obj = 21
----------
obj = 20
----------
obj = 19
----------
obj = 18
----------
obj = 17
----------
obj = 16
----------
obj = 15
----------
obj = 14
----------
obj = 13
----------
obj = 12
----------
obj = 11
----------
obj = 10
----------
==========
	Command being timed: "mzn-chuffed lbbd-datasets/planningandscheduling/makespan-insts/model.mzn lbbd-datasets/planningandscheduling/makespan-insts/c12j4m3.dzn"
	User time (seconds): 0.18
	System time (seconds): 0.00
	Percent of CPU this job got: 75%
	Elapsed (wall clock) time (h:mm:ss or m:ss): 0:00.25
	Average shared text size (kbytes): 0
	Average unshared data size (kbytes): 0
	Average stack size (kbytes): 0
	Average total size (kbytes): 0
	Maximum resident set size (kbytes): 28064
	Average resident set size (kbytes): 0
	Major (requiring I/O) page faults: 0
	Minor (reclaiming a frame) page faults: 2385
	Voluntary context switches: 22
	Involuntary context switches: 5
	Swaps: 0
	File system inputs: 0
	File system outputs: 72
	Socket messages sent: 0
	Socket messages received: 0
	Signals delivered: 0
	Page size (bytes): 4096
	Exit status: 0
