+ /usr/bin/timeout 600 /usr/bin/time -v mzn-chuffed lbbd-datasets/Rabadi-2006/dzn-balanced/model.mzn lbbd-datasets/Rabadi-2006/dzn-balanced/10on8Rp50Rs50_5Ameer.dzn
% No search annotation given. Defaulting to VSIDS!
assign = array1d(1..18 ,[8, 8, 8, 8, 8, 8, 8, 8, 8, 8, 1, 2, 3, 4, 5, 6, 7, 8]);
next = array1d(1..18 ,[2, 3, 4, 5, 6, 7, 8, 9, 10, 18, 12, 13, 14, 15, 16, 17, 1, 11]);
makespan = 1445;
----------
assign = array1d(1..18 ,[8, 8, 8, 8, 8, 8, 8, 8, 8, 8, 1, 2, 3, 4, 5, 6, 7, 8]);
next = array1d(1..18 ,[3, 4, 2, 5, 6, 7, 8, 9, 10, 18, 12, 13, 14, 15, 16, 17, 1, 11]);
makespan = 1429;
----------
assign = array1d(1..18 ,[8, 8, 8, 8, 8, 8, 8, 1, 8, 8, 1, 2, 3, 4, 5, 6, 7, 8]);
next = array1d(1..18 ,[2, 6, 7, 9, 18, 10, 1, 11, 3, 5, 12, 13, 14, 15, 16, 17, 4, 8]);
makespan = 1388;
----------
assign = array1d(1..18 ,[8, 8, 8, 1, 8, 8, 8, 8, 8, 8, 1, 2, 3, 4, 5, 6, 7, 8]);
next = array1d(1..18 ,[7, 10, 5, 11, 9, 3, 8, 18, 1, 6, 12, 13, 14, 15, 16, 17, 2, 4]);
makespan = 1383;
----------
assign = array1d(1..18 ,[8, 8, 8, 8, 7, 8, 8, 8, 8, 8, 1, 2, 3, 4, 5, 6, 7, 8]);
next = array1d(1..18 ,[7, 9, 6, 3, 17, 2, 10, 18, 1, 8, 12, 13, 14, 15, 16, 5, 4, 11]);
makespan = 1379;
----------
assign = array1d(1..18 ,[8, 8, 8, 7, 8, 8, 8, 8, 8, 8, 1, 2, 3, 4, 5, 6, 7, 8]);
next = array1d(1..18 ,[18, 10, 5, 17, 8, 9, 1, 6, 2, 7, 12, 13, 14, 15, 16, 4, 3, 11]);
makespan = 1376;
----------
assign = array1d(1..18 ,[8, 8, 8, 2, 8, 8, 8, 8, 8, 8, 1, 2, 3, 4, 5, 6, 7, 8]);
next = array1d(1..18 ,[7, 9, 5, 12, 18, 3, 8, 6, 10, 1, 4, 13, 14, 15, 16, 17, 2, 11]);
makespan = 1375;
----------
assign = array1d(1..18 ,[8, 8, 8, 8, 8, 8, 8, 1, 8, 8, 1, 2, 3, 4, 5, 6, 7, 8]);
next = array1d(1..18 ,[4, 1, 5, 6, 18, 7, 10, 11, 3, 9, 12, 13, 14, 15, 16, 17, 2, 8]);
makespan = 1372;
----------
assign = array1d(1..18 ,[8, 8, 8, 8, 8, 8, 1, 8, 8, 8, 1, 2, 3, 4, 5, 6, 7, 8]);
next = array1d(1..18 ,[4, 5, 18, 3, 9, 8, 11, 10, 1, 2, 12, 13, 14, 15, 16, 17, 6, 7]);
makespan = 1370;
----------
assign = array1d(1..18 ,[8, 8, 8, 7, 8, 8, 8, 8, 8, 8, 1, 2, 3, 4, 5, 6, 7, 8]);
next = array1d(1..18 ,[7, 6, 5, 17, 18, 1, 8, 3, 2, 9, 12, 13, 14, 15, 16, 4, 10, 11]);
makespan = 1368;
----------
assign = array1d(1..18 ,[8, 8, 8, 1, 8, 8, 8, 8, 8, 8, 1, 2, 3, 4, 5, 6, 7, 8]);
next = array1d(1..18 ,[2, 9, 5, 11, 8, 10, 18, 7, 3, 1, 12, 13, 14, 15, 16, 17, 6, 4]);
makespan = 1367;
----------
assign = array1d(1..18 ,[8, 1, 8, 8, 8, 8, 8, 8, 8, 8, 1, 2, 3, 4, 5, 6, 7, 8]);
next = array1d(1..18 ,[4, 11, 5, 3, 7, 1, 8, 18, 10, 6, 12, 13, 14, 15, 16, 17, 9, 2]);
makespan = 1364;
----------
assign = array1d(1..18 ,[8, 8, 8, 1, 8, 8, 8, 8, 8, 8, 1, 2, 3, 4, 5, 6, 7, 8]);
next = array1d(1..18 ,[2, 7, 5, 11, 1, 10, 18, 3, 6, 8, 12, 13, 14, 15, 16, 17, 9, 4]);
makespan = 1361;
----------
assign = array1d(1..18 ,[8, 8, 8, 8, 8, 8, 8, 1, 8, 8, 1, 2, 3, 4, 5, 6, 7, 8]);
next = array1d(1..18 ,[2, 9, 7, 10, 6, 1, 18, 11, 3, 5, 12, 13, 14, 15, 16, 17, 4, 8]);
makespan = 1359;
----------
assign = array1d(1..18 ,[8, 5, 8, 8, 8, 8, 8, 8, 8, 8, 1, 2, 3, 4, 5, 6, 7, 8]);
next = array1d(1..18 ,[4, 15, 9, 3, 18, 10, 8, 6, 7, 5, 12, 13, 14, 2, 16, 17, 1, 11]);
makespan = 1358;
----------
assign = array1d(1..18 ,[8, 4, 8, 8, 8, 8, 8, 8, 8, 8, 1, 2, 3, 4, 5, 6, 7, 8]);
next = array1d(1..18 ,[3, 14, 7, 18, 9, 10, 5, 6, 4, 1, 12, 13, 2, 15, 16, 17, 8, 11]);
makespan = 1357;
----------
assign = array1d(1..18 ,[8, 1, 8, 8, 8, 8, 8, 8, 8, 8, 1, 2, 3, 4, 5, 6, 7, 8]);
next = array1d(1..18 ,[4, 11, 10, 3, 9, 1, 8, 18, 6, 7, 12, 13, 14, 15, 16, 17, 5, 2]);
makespan = 1356;
----------
assign = array1d(1..18 ,[8, 8, 8, 8, 8, 8, 1, 8, 8, 8, 1, 2, 3, 4, 5, 6, 7, 8]);
next = array1d(1..18 ,[6, 1, 9, 18, 4, 10, 11, 3, 2, 5, 12, 13, 14, 15, 16, 17, 8, 7]);
makespan = 1355;
----------
