+ /usr/bin/timeout 600 /usr/bin/time -v mzn-chuffed lbbd-datasets/Rabadi-2006/dzn-s-dominant/model.mzn lbbd-datasets/Rabadi-2006/dzn-s-dominant/8on6Rp50Rs50_5Ameer.dzn
% No search annotation given. Defaulting to VSIDS!
assign = array1d(1..14 ,[6, 6, 6, 6, 6, 6, 6, 6, 1, 2, 3, 4, 5, 6]);
next = array1d(1..14 ,[2, 3, 4, 5, 6, 7, 8, 14, 10, 11, 12, 13, 1, 9]);
makespan = 1611;
----------
assign = array1d(1..14 ,[6, 6, 6, 6, 6, 6, 6, 6, 1, 2, 3, 4, 5, 6]);
next = array1d(1..14 ,[3, 4, 2, 5, 6, 7, 8, 14, 10, 11, 12, 13, 1, 9]);
makespan = 1595;
----------
assign = array1d(1..14 ,[6, 6, 3, 6, 6, 6, 6, 6, 1, 2, 3, 4, 5, 6]);
next = array1d(1..14 ,[5, 4, 11, 14, 7, 1, 2, 6, 10, 3, 12, 13, 8, 9]);
makespan = 1558;
----------
assign = array1d(1..14 ,[6, 6, 5, 6, 6, 6, 6, 6, 1, 2, 3, 4, 5, 6]);
next = array1d(1..14 ,[5, 1, 13, 14, 7, 4, 6, 2, 10, 11, 12, 3, 8, 9]);
makespan = 1553;
----------
assign = array1d(1..14 ,[6, 6, 2, 6, 6, 6, 6, 6, 1, 2, 3, 4, 5, 6]);
next = array1d(1..14 ,[5, 4, 10, 14, 7, 1, 2, 6, 3, 11, 12, 13, 8, 9]);
makespan = 1546;
----------
assign = array1d(1..14 ,[6, 6, 5, 6, 6, 6, 6, 6, 1, 2, 3, 4, 5, 6]);
next = array1d(1..14 ,[5, 1, 13, 14, 7, 4, 6, 2, 10, 11, 12, 3, 8, 9]);
makespan = 1537;
----------
assign = array1d(1..14 ,[6, 6, 2, 6, 6, 6, 6, 6, 1, 2, 3, 4, 5, 6]);
next = array1d(1..14 ,[5, 4, 10, 14, 7, 1, 2, 6, 3, 11, 12, 13, 8, 9]);
makespan = 1533;
----------
assign = array1d(1..14 ,[6, 6, 5, 6, 6, 6, 6, 6, 1, 2, 3, 4, 5, 6]);
next = array1d(1..14 ,[5, 1, 13, 14, 7, 4, 6, 2, 10, 11, 12, 3, 8, 9]);
makespan = 1527;
----------
assign = array1d(1..14 ,[6, 6, 2, 6, 6, 6, 6, 6, 1, 2, 3, 4, 5, 6]);
next = array1d(1..14 ,[5, 4, 10, 14, 7, 1, 2, 6, 3, 11, 12, 13, 8, 9]);
makespan = 1520;
----------
assign = array1d(1..14 ,[6, 6, 5, 6, 6, 6, 6, 6, 1, 2, 3, 4, 5, 6]);
next = array1d(1..14 ,[5, 1, 13, 14, 7, 4, 6, 2, 10, 11, 12, 3, 8, 9]);
makespan = 1513;
----------
assign = array1d(1..14 ,[6, 6, 2, 6, 6, 6, 6, 6, 1, 2, 3, 4, 5, 6]);
next = array1d(1..14 ,[5, 4, 10, 14, 7, 1, 2, 6, 3, 11, 12, 13, 8, 9]);
makespan = 1500;
----------
assign = array1d(1..14 ,[6, 6, 5, 6, 6, 6, 6, 6, 1, 2, 3, 4, 5, 6]);
next = array1d(1..14 ,[5, 1, 13, 14, 7, 4, 6, 2, 10, 11, 12, 3, 8, 9]);
makespan = 1493;
----------
assign = array1d(1..14 ,[6, 6, 2, 6, 6, 6, 6, 6, 1, 2, 3, 4, 5, 6]);
next = array1d(1..14 ,[5, 4, 10, 14, 7, 1, 2, 6, 3, 11, 12, 13, 8, 9]);
makespan = 1488;
----------
assign = array1d(1..14 ,[6, 6, 5, 6, 6, 6, 6, 6, 1, 2, 3, 4, 5, 6]);
next = array1d(1..14 ,[5, 1, 13, 14, 7, 4, 6, 2, 10, 11, 12, 3, 8, 9]);
makespan = 1484;
----------
assign = array1d(1..14 ,[6, 6, 2, 6, 6, 6, 6, 6, 1, 2, 3, 4, 5, 6]);
next = array1d(1..14 ,[5, 4, 10, 14, 7, 1, 2, 6, 3, 11, 12, 13, 8, 9]);
makespan = 1480;
----------
assign = array1d(1..14 ,[6, 6, 5, 6, 6, 6, 6, 6, 1, 2, 3, 4, 5, 6]);
next = array1d(1..14 ,[5, 1, 13, 14, 7, 4, 6, 2, 10, 11, 12, 3, 8, 9]);
makespan = 1479;
----------
assign = array1d(1..14 ,[6, 6, 2, 6, 6, 6, 6, 6, 1, 2, 3, 4, 5, 6]);
next = array1d(1..14 ,[5, 4, 10, 14, 7, 1, 2, 6, 3, 11, 12, 13, 8, 9]);
makespan = 1475;
----------
assign = array1d(1..14 ,[6, 6, 5, 6, 6, 6, 6, 6, 1, 2, 3, 4, 5, 6]);
next = array1d(1..14 ,[5, 1, 13, 14, 7, 4, 6, 2, 10, 11, 12, 3, 8, 9]);
makespan = 1474;
----------
assign = array1d(1..14 ,[6, 6, 2, 6, 6, 6, 6, 6, 1, 2, 3, 4, 5, 6]);
next = array1d(1..14 ,[5, 4, 10, 14, 7, 1, 2, 6, 3, 11, 12, 13, 8, 9]);
makespan = 1472;
----------
assign = array1d(1..14 ,[6, 6, 5, 6, 6, 6, 6, 6, 1, 2, 3, 4, 5, 6]);
next = array1d(1..14 ,[5, 1, 13, 14, 7, 4, 6, 2, 10, 11, 12, 3, 8, 9]);
makespan = 1469;
----------
assign = array1d(1..14 ,[6, 6, 2, 6, 6, 6, 6, 6, 1, 2, 3, 4, 5, 6]);
next = array1d(1..14 ,[5, 4, 10, 14, 7, 1, 2, 6, 3, 11, 12, 13, 8, 9]);
makespan = 1468;
----------
assign = array1d(1..14 ,[6, 6, 5, 6, 6, 6, 6, 6, 1, 2, 3, 4, 5, 6]);
next = array1d(1..14 ,[5, 1, 13, 14, 7, 4, 6, 2, 10, 11, 12, 3, 8, 9]);
makespan = 1467;
----------
assign = array1d(1..14 ,[6, 6, 2, 6, 6, 6, 6, 6, 1, 2, 3, 4, 5, 6]);
next = array1d(1..14 ,[5, 4, 10, 14, 7, 1, 2, 6, 3, 11, 12, 13, 8, 9]);
makespan = 1462;
----------
assign = array1d(1..14 ,[6, 6, 5, 6, 6, 6, 6, 6, 1, 2, 3, 4, 5, 6]);
next = array1d(1..14 ,[5, 1, 13, 14, 7, 4, 6, 2, 10, 11, 12, 3, 8, 9]);
makespan = 1460;
----------
assign = array1d(1..14 ,[6, 6, 2, 6, 6, 6, 6, 6, 1, 2, 3, 4, 5, 6]);
next = array1d(1..14 ,[5, 4, 10, 14, 7, 1, 2, 6, 3, 11, 12, 13, 8, 9]);
makespan = 1459;
----------
assign = array1d(1..14 ,[6, 6, 3, 6, 6, 6, 6, 6, 1, 2, 3, 4, 5, 6]);
next = array1d(1..14 ,[5, 1, 11, 14, 7, 4, 6, 2, 10, 3, 12, 13, 8, 9]);
makespan = 1455;
----------
assign = array1d(1..14 ,[6, 6, 5, 6, 6, 6, 6, 6, 1, 2, 3, 4, 5, 6]);
next = array1d(1..14 ,[5, 4, 13, 14, 7, 1, 2, 6, 10, 11, 12, 3, 8, 9]);
makespan = 1453;
----------
assign = array1d(1..14 ,[6, 6, 3, 6, 6, 6, 6, 6, 1, 2, 3, 4, 5, 6]);
next = array1d(1..14 ,[5, 1, 11, 14, 7, 4, 6, 2, 10, 3, 12, 13, 8, 9]);
makespan = 1449;
----------
assign = array1d(1..14 ,[6, 6, 5, 6, 6, 6, 6, 6, 1, 2, 3, 4, 5, 6]);
next = array1d(1..14 ,[5, 4, 13, 14, 7, 1, 2, 6, 10, 11, 12, 3, 8, 9]);
makespan = 1448;
----------
assign = array1d(1..14 ,[6, 6, 4, 6, 6, 6, 6, 6, 1, 2, 3, 4, 5, 6]);
next = array1d(1..14 ,[5, 1, 12, 14, 7, 4, 6, 2, 10, 11, 3, 13, 8, 9]);
makespan = 1446;
----------
assign = array1d(1..14 ,[6, 6, 6, 1, 6, 6, 6, 6, 1, 2, 3, 4, 5, 6]);
next = array1d(1..14 ,[5, 3, 14, 9, 7, 1, 2, 6, 10, 11, 12, 13, 8, 4]);
makespan = 1442;
----------
assign = array1d(1..14 ,[6, 6, 6, 1, 6, 6, 6, 6, 1, 2, 3, 4, 5, 6]);
next = array1d(1..14 ,[5, 3, 14, 9, 7, 1, 2, 6, 10, 11, 12, 13, 8, 4]);
makespan = 1439;
----------
assign = array1d(1..14 ,[6, 6, 6, 1, 6, 6, 6, 6, 1, 2, 3, 4, 5, 6]);
next = array1d(1..14 ,[5, 3, 14, 9, 7, 1, 2, 6, 10, 11, 12, 13, 8, 4]);
makespan = 1437;
----------
assign = array1d(1..14 ,[6, 6, 6, 1, 6, 6, 6, 6, 1, 2, 3, 4, 5, 6]);
next = array1d(1..14 ,[5, 3, 14, 9, 7, 1, 2, 6, 10, 11, 12, 13, 8, 4]);
makespan = 1436;
----------
assign = array1d(1..14 ,[6, 6, 6, 1, 6, 6, 6, 6, 1, 2, 3, 4, 5, 6]);
next = array1d(1..14 ,[5, 3, 14, 9, 7, 1, 2, 6, 10, 11, 12, 13, 8, 4]);
makespan = 1435;
----------
assign = array1d(1..14 ,[6, 6, 6, 1, 6, 6, 6, 6, 1, 2, 3, 4, 5, 6]);
next = array1d(1..14 ,[5, 3, 14, 9, 7, 1, 2, 6, 10, 11, 12, 13, 8, 4]);
makespan = 1429;
----------
assign = array1d(1..14 ,[6, 6, 6, 1, 6, 6, 6, 6, 1, 2, 3, 4, 5, 6]);
next = array1d(1..14 ,[5, 3, 14, 9, 7, 1, 2, 6, 10, 11, 12, 13, 8, 4]);
makespan = 1428;
----------
assign = array1d(1..14 ,[6, 6, 1, 1, 6, 6, 6, 6, 1, 2, 3, 4, 5, 6]);
next = array1d(1..14 ,[5, 14, 9, 3, 7, 1, 2, 6, 10, 11, 12, 13, 8, 4]);
makespan = 1426;
----------
assign = array1d(1..14 ,[6, 6, 1, 1, 6, 6, 6, 6, 1, 2, 3, 4, 5, 6]);
next = array1d(1..14 ,[5, 14, 9, 3, 7, 1, 2, 6, 10, 11, 12, 13, 8, 4]);
makespan = 1422;
----------
assign = array1d(1..14 ,[6, 6, 1, 1, 6, 6, 6, 6, 1, 2, 3, 4, 5, 6]);
next = array1d(1..14 ,[5, 14, 9, 3, 7, 1, 2, 6, 10, 11, 12, 13, 8, 4]);
makespan = 1419;
----------
assign = array1d(1..14 ,[6, 6, 1, 1, 6, 6, 6, 6, 1, 2, 3, 4, 5, 6]);
next = array1d(1..14 ,[5, 14, 9, 3, 7, 1, 2, 6, 10, 11, 12, 13, 8, 4]);
makespan = 1416;
----------
assign = array1d(1..14 ,[6, 6, 1, 1, 6, 6, 6, 6, 1, 2, 3, 4, 5, 6]);
next = array1d(1..14 ,[5, 14, 9, 3, 7, 1, 2, 6, 10, 11, 12, 13, 8, 4]);
makespan = 1415;
----------
assign = array1d(1..14 ,[6, 6, 1, 1, 6, 6, 6, 6, 1, 2, 3, 4, 5, 6]);
next = array1d(1..14 ,[5, 14, 9, 3, 7, 1, 2, 6, 10, 11, 12, 13, 8, 4]);
makespan = 1414;
----------
assign = array1d(1..14 ,[6, 6, 1, 1, 6, 6, 6, 6, 1, 2, 3, 4, 5, 6]);
next = array1d(1..14 ,[5, 14, 9, 3, 7, 1, 2, 6, 10, 11, 12, 13, 8, 4]);
makespan = 1410;
----------
assign = array1d(1..14 ,[6, 6, 1, 1, 6, 6, 6, 6, 1, 2, 3, 4, 5, 6]);
next = array1d(1..14 ,[5, 14, 9, 3, 7, 1, 2, 6, 10, 11, 12, 13, 8, 4]);
makespan = 1409;
----------
assign = array1d(1..14 ,[6, 6, 1, 1, 6, 6, 6, 6, 1, 2, 3, 4, 5, 6]);
next = array1d(1..14 ,[5, 14, 9, 3, 7, 1, 2, 6, 10, 11, 12, 13, 8, 4]);
makespan = 1406;
----------
assign = array1d(1..14 ,[6, 6, 1, 1, 6, 6, 6, 6, 1, 2, 3, 4, 5, 6]);
next = array1d(1..14 ,[5, 14, 9, 3, 7, 1, 2, 6, 10, 11, 12, 13, 8, 4]);
makespan = 1404;
----------
assign = array1d(1..14 ,[6, 6, 1, 1, 6, 6, 6, 6, 1, 2, 3, 4, 5, 6]);
next = array1d(1..14 ,[5, 14, 9, 3, 7, 1, 2, 6, 10, 11, 12, 13, 8, 4]);
makespan = 1402;
----------
assign = array1d(1..14 ,[6, 6, 1, 1, 6, 6, 6, 6, 1, 2, 3, 4, 5, 6]);
next = array1d(1..14 ,[5, 14, 9, 3, 7, 1, 2, 6, 10, 11, 12, 13, 8, 4]);
makespan = 1401;
----------
assign = array1d(1..14 ,[6, 6, 1, 1, 6, 6, 6, 6, 1, 2, 3, 4, 5, 6]);
next = array1d(1..14 ,[5, 14, 9, 3, 7, 1, 2, 6, 10, 11, 12, 13, 8, 4]);
makespan = 1400;
----------
assign = array1d(1..14 ,[6, 6, 1, 1, 6, 6, 6, 6, 1, 2, 3, 4, 5, 6]);
next = array1d(1..14 ,[5, 14, 9, 3, 7, 1, 2, 6, 10, 11, 12, 13, 8, 4]);
makespan = 1397;
----------
assign = array1d(1..14 ,[6, 6, 1, 1, 6, 6, 6, 6, 1, 2, 3, 4, 5, 6]);
next = array1d(1..14 ,[5, 14, 9, 3, 7, 1, 2, 6, 10, 11, 12, 13, 8, 4]);
makespan = 1396;
----------
assign = array1d(1..14 ,[6, 6, 1, 1, 6, 6, 6, 6, 1, 2, 3, 4, 5, 6]);
next = array1d(1..14 ,[5, 14, 9, 3, 7, 1, 2, 6, 10, 11, 12, 13, 8, 4]);
makespan = 1395;
----------
assign = array1d(1..14 ,[6, 6, 1, 1, 6, 6, 6, 6, 1, 2, 3, 4, 5, 6]);
next = array1d(1..14 ,[5, 14, 9, 3, 7, 1, 2, 6, 10, 11, 12, 13, 8, 4]);
makespan = 1394;
----------
assign = array1d(1..14 ,[6, 6, 1, 1, 6, 6, 6, 6, 1, 2, 3, 4, 5, 6]);
next = array1d(1..14 ,[5, 14, 9, 3, 7, 1, 2, 6, 10, 11, 12, 13, 8, 4]);
makespan = 1393;
----------
assign = array1d(1..14 ,[6, 6, 1, 1, 6, 6, 6, 6, 1, 2, 3, 4, 5, 6]);
next = array1d(1..14 ,[5, 14, 9, 3, 7, 1, 2, 6, 10, 11, 12, 13, 8, 4]);
makespan = 1391;
----------
assign = array1d(1..14 ,[6, 6, 1, 1, 6, 6, 6, 6, 1, 2, 3, 4, 5, 6]);
next = array1d(1..14 ,[5, 14, 9, 3, 7, 1, 2, 6, 10, 11, 12, 13, 8, 4]);
makespan = 1390;
----------
assign = array1d(1..14 ,[6, 6, 1, 1, 6, 6, 6, 6, 1, 2, 3, 4, 5, 6]);
next = array1d(1..14 ,[5, 14, 9, 3, 7, 1, 2, 6, 10, 11, 12, 13, 8, 4]);
makespan = 1389;
----------
assign = array1d(1..14 ,[6, 6, 1, 1, 6, 6, 6, 6, 1, 2, 3, 4, 5, 6]);
next = array1d(1..14 ,[5, 14, 9, 3, 7, 1, 2, 6, 10, 11, 12, 13, 8, 4]);
makespan = 1388;
----------
assign = array1d(1..14 ,[6, 6, 1, 1, 6, 6, 6, 6, 1, 2, 3, 4, 5, 6]);
next = array1d(1..14 ,[5, 14, 9, 3, 7, 1, 2, 6, 10, 11, 12, 13, 8, 4]);
makespan = 1386;
----------
assign = array1d(1..14 ,[6, 6, 1, 1, 6, 6, 6, 6, 1, 2, 3, 4, 5, 6]);
next = array1d(1..14 ,[5, 14, 9, 3, 7, 1, 2, 6, 10, 11, 12, 13, 8, 4]);
makespan = 1384;
----------
assign = array1d(1..14 ,[6, 6, 1, 1, 6, 6, 6, 6, 1, 2, 3, 4, 5, 6]);
next = array1d(1..14 ,[5, 14, 9, 3, 7, 1, 2, 6, 10, 11, 12, 13, 8, 4]);
makespan = 1383;
----------
assign = array1d(1..14 ,[6, 6, 1, 1, 6, 6, 6, 6, 1, 2, 3, 4, 5, 6]);
next = array1d(1..14 ,[5, 14, 9, 3, 7, 1, 2, 6, 10, 11, 12, 13, 8, 4]);
makespan = 1382;
----------
assign = array1d(1..14 ,[6, 6, 1, 1, 6, 6, 6, 6, 1, 2, 3, 4, 5, 6]);
next = array1d(1..14 ,[5, 14, 9, 3, 7, 1, 2, 6, 10, 11, 12, 13, 8, 4]);
makespan = 1381;
----------
assign = array1d(1..14 ,[6, 6, 1, 1, 6, 6, 6, 6, 1, 2, 3, 4, 5, 6]);
next = array1d(1..14 ,[5, 14, 9, 3, 7, 1, 2, 6, 10, 11, 12, 13, 8, 4]);
makespan = 1378;
----------
assign = array1d(1..14 ,[6, 6, 1, 1, 6, 6, 6, 6, 1, 2, 3, 4, 5, 6]);
next = array1d(1..14 ,[5, 14, 9, 3, 7, 1, 2, 6, 10, 11, 12, 13, 8, 4]);
makespan = 1377;
----------
assign = array1d(1..14 ,[6, 6, 1, 1, 6, 6, 6, 6, 1, 2, 3, 4, 5, 6]);
next = array1d(1..14 ,[5, 14, 9, 3, 7, 1, 2, 6, 10, 11, 12, 13, 8, 4]);
makespan = 1376;
----------
assign = array1d(1..14 ,[6, 6, 1, 1, 6, 6, 6, 6, 1, 2, 3, 4, 5, 6]);
next = array1d(1..14 ,[5, 14, 9, 3, 7, 1, 2, 6, 10, 11, 12, 13, 8, 4]);
makespan = 1375;
----------
assign = array1d(1..14 ,[6, 6, 1, 1, 6, 6, 6, 6, 1, 2, 3, 4, 5, 6]);
next = array1d(1..14 ,[5, 14, 9, 3, 7, 1, 2, 6, 10, 11, 12, 13, 8, 4]);
makespan = 1374;
----------
assign = array1d(1..14 ,[6, 6, 1, 1, 6, 6, 6, 6, 1, 2, 3, 4, 5, 6]);
next = array1d(1..14 ,[5, 14, 9, 3, 7, 1, 2, 6, 10, 11, 12, 13, 8, 4]);
makespan = 1371;
----------
assign = array1d(1..14 ,[6, 6, 1, 1, 6, 6, 6, 6, 1, 2, 3, 4, 5, 6]);
next = array1d(1..14 ,[5, 14, 9, 3, 7, 1, 2, 6, 10, 11, 12, 13, 8, 4]);
makespan = 1370;
----------
assign = array1d(1..14 ,[6, 6, 1, 1, 6, 6, 6, 6, 1, 2, 3, 4, 5, 6]);
next = array1d(1..14 ,[5, 14, 9, 3, 7, 1, 2, 6, 10, 11, 12, 13, 8, 4]);
makespan = 1369;
----------
assign = array1d(1..14 ,[6, 6, 1, 1, 6, 6, 6, 6, 1, 2, 3, 4, 5, 6]);
next = array1d(1..14 ,[5, 14, 9, 3, 7, 1, 2, 6, 10, 11, 12, 13, 8, 4]);
makespan = 1368;
----------
assign = array1d(1..14 ,[6, 6, 1, 1, 6, 6, 6, 6, 1, 2, 3, 4, 5, 6]);
next = array1d(1..14 ,[5, 14, 9, 3, 7, 1, 2, 6, 10, 11, 12, 13, 8, 4]);
makespan = 1364;
----------
assign = array1d(1..14 ,[6, 6, 1, 1, 6, 6, 6, 6, 1, 2, 3, 4, 5, 6]);
next = array1d(1..14 ,[5, 14, 9, 3, 7, 1, 2, 6, 10, 11, 12, 13, 8, 4]);
makespan = 1362;
----------
assign = array1d(1..14 ,[6, 6, 1, 1, 6, 6, 6, 6, 1, 2, 3, 4, 5, 6]);
next = array1d(1..14 ,[5, 14, 9, 3, 7, 1, 2, 6, 10, 11, 12, 13, 8, 4]);
makespan = 1361;
----------
assign = array1d(1..14 ,[6, 6, 1, 1, 6, 6, 6, 6, 1, 2, 3, 4, 5, 6]);
next = array1d(1..14 ,[5, 14, 9, 3, 7, 1, 2, 6, 10, 11, 12, 13, 8, 4]);
makespan = 1358;
----------
assign = array1d(1..14 ,[6, 6, 1, 1, 6, 6, 6, 6, 1, 2, 3, 4, 5, 6]);
next = array1d(1..14 ,[5, 14, 9, 3, 7, 1, 2, 6, 10, 11, 12, 13, 8, 4]);
makespan = 1357;
----------
assign = array1d(1..14 ,[6, 6, 1, 1, 6, 6, 6, 6, 1, 2, 3, 4, 5, 6]);
next = array1d(1..14 ,[5, 14, 9, 3, 7, 1, 2, 6, 10, 11, 12, 13, 8, 4]);
makespan = 1355;
----------
assign = array1d(1..14 ,[6, 6, 1, 1, 6, 6, 6, 6, 1, 2, 3, 4, 5, 6]);
next = array1d(1..14 ,[5, 14, 9, 3, 7, 1, 2, 6, 10, 11, 12, 13, 8, 4]);
makespan = 1351;
----------
assign = array1d(1..14 ,[6, 6, 1, 1, 6, 6, 6, 6, 1, 2, 3, 4, 5, 6]);
next = array1d(1..14 ,[5, 14, 9, 3, 7, 1, 2, 6, 10, 11, 12, 13, 8, 4]);
makespan = 1348;
----------
assign = array1d(1..14 ,[6, 6, 1, 1, 6, 6, 6, 6, 1, 2, 3, 4, 5, 6]);
next = array1d(1..14 ,[5, 14, 9, 3, 7, 1, 2, 6, 10, 11, 12, 13, 8, 4]);
makespan = 1344;
----------
assign = array1d(1..14 ,[6, 6, 1, 1, 6, 6, 6, 6, 1, 2, 3, 4, 5, 6]);
next = array1d(1..14 ,[5, 14, 9, 3, 7, 1, 2, 6, 10, 11, 12, 13, 8, 4]);
makespan = 1342;
----------
assign = array1d(1..14 ,[6, 6, 1, 1, 6, 6, 6, 6, 1, 2, 3, 4, 5, 6]);
next = array1d(1..14 ,[5, 14, 9, 3, 7, 1, 2, 6, 10, 11, 12, 13, 8, 4]);
makespan = 1341;
----------
assign = array1d(1..14 ,[6, 6, 1, 1, 6, 6, 6, 6, 1, 2, 3, 4, 5, 6]);
next = array1d(1..14 ,[5, 14, 9, 3, 7, 1, 2, 6, 10, 11, 12, 13, 8, 4]);
makespan = 1338;
----------
assign = array1d(1..14 ,[6, 6, 1, 1, 6, 6, 6, 6, 1, 2, 3, 4, 5, 6]);
next = array1d(1..14 ,[5, 14, 9, 3, 7, 1, 2, 6, 10, 11, 12, 13, 8, 4]);
makespan = 1337;
----------
assign = array1d(1..14 ,[6, 6, 1, 1, 6, 6, 6, 6, 1, 2, 3, 4, 5, 6]);
next = array1d(1..14 ,[5, 14, 9, 3, 7, 1, 2, 6, 10, 11, 12, 13, 8, 4]);
makespan = 1336;
----------
assign = array1d(1..14 ,[6, 6, 1, 1, 6, 6, 6, 6, 1, 2, 3, 4, 5, 6]);
next = array1d(1..14 ,[5, 14, 9, 3, 7, 1, 2, 6, 10, 11, 12, 13, 8, 4]);
makespan = 1335;
----------
assign = array1d(1..14 ,[6, 6, 1, 1, 6, 6, 6, 6, 1, 2, 3, 4, 5, 6]);
next = array1d(1..14 ,[5, 14, 9, 3, 7, 1, 2, 6, 10, 11, 12, 13, 8, 4]);
makespan = 1331;
----------
assign = array1d(1..14 ,[6, 6, 1, 1, 6, 6, 6, 6, 1, 2, 3, 4, 5, 6]);
next = array1d(1..14 ,[5, 14, 9, 3, 7, 1, 2, 6, 10, 11, 12, 13, 8, 4]);
makespan = 1330;
----------
assign = array1d(1..14 ,[6, 6, 1, 1, 6, 6, 6, 6, 1, 2, 3, 4, 5, 6]);
next = array1d(1..14 ,[5, 14, 9, 3, 7, 1, 2, 6, 10, 11, 12, 13, 8, 4]);
makespan = 1328;
----------
assign = array1d(1..14 ,[6, 6, 1, 1, 6, 6, 6, 6, 1, 2, 3, 4, 5, 6]);
next = array1d(1..14 ,[5, 14, 9, 3, 7, 1, 2, 6, 10, 11, 12, 13, 8, 4]);
makespan = 1326;
----------
assign = array1d(1..14 ,[6, 6, 1, 1, 6, 6, 6, 6, 1, 2, 3, 4, 5, 6]);
next = array1d(1..14 ,[5, 14, 9, 3, 7, 1, 2, 6, 10, 11, 12, 13, 8, 4]);
makespan = 1325;
----------
assign = array1d(1..14 ,[6, 6, 1, 1, 6, 6, 6, 6, 1, 2, 3, 4, 5, 6]);
next = array1d(1..14 ,[5, 14, 9, 3, 7, 1, 2, 6, 10, 11, 12, 13, 8, 4]);
makespan = 1324;
----------
assign = array1d(1..14 ,[6, 6, 1, 1, 6, 6, 6, 6, 1, 2, 3, 4, 5, 6]);
next = array1d(1..14 ,[5, 14, 9, 3, 7, 1, 2, 6, 10, 11, 12, 13, 8, 4]);
makespan = 1323;
----------
assign = array1d(1..14 ,[6, 6, 1, 1, 6, 6, 6, 6, 1, 2, 3, 4, 5, 6]);
next = array1d(1..14 ,[5, 14, 9, 3, 7, 1, 2, 6, 10, 11, 12, 13, 8, 4]);
makespan = 1322;
----------
assign = array1d(1..14 ,[6, 6, 1, 1, 6, 6, 6, 6, 1, 2, 3, 4, 5, 6]);
next = array1d(1..14 ,[5, 14, 9, 3, 7, 1, 2, 6, 10, 11, 12, 13, 8, 4]);
makespan = 1321;
----------
assign = array1d(1..14 ,[6, 6, 1, 1, 6, 6, 6, 6, 1, 2, 3, 4, 5, 6]);
next = array1d(1..14 ,[5, 14, 9, 3, 7, 1, 2, 6, 10, 11, 12, 13, 8, 4]);
makespan = 1319;
----------
assign = array1d(1..14 ,[6, 6, 1, 1, 6, 6, 6, 6, 1, 2, 3, 4, 5, 6]);
next = array1d(1..14 ,[5, 14, 9, 3, 7, 1, 2, 6, 10, 11, 12, 13, 8, 4]);
makespan = 1318;
----------
assign = array1d(1..14 ,[6, 6, 1, 1, 6, 6, 6, 6, 1, 2, 3, 4, 5, 6]);
next = array1d(1..14 ,[5, 14, 9, 3, 7, 1, 2, 6, 10, 11, 12, 13, 8, 4]);
makespan = 1317;
----------
assign = array1d(1..14 ,[6, 6, 1, 1, 6, 6, 6, 6, 1, 2, 3, 4, 5, 6]);
next = array1d(1..14 ,[5, 14, 9, 3, 7, 1, 2, 6, 10, 11, 12, 13, 8, 4]);
makespan = 1316;
----------
assign = array1d(1..14 ,[6, 6, 1, 1, 6, 6, 6, 6, 1, 2, 3, 4, 5, 6]);
next = array1d(1..14 ,[5, 14, 9, 3, 7, 1, 2, 6, 10, 11, 12, 13, 8, 4]);
makespan = 1315;
----------
assign = array1d(1..14 ,[6, 6, 1, 1, 6, 6, 6, 6, 1, 2, 3, 4, 5, 6]);
next = array1d(1..14 ,[5, 14, 9, 3, 7, 1, 2, 6, 10, 11, 12, 13, 8, 4]);
makespan = 1313;
----------
assign = array1d(1..14 ,[6, 6, 1, 1, 6, 6, 6, 6, 1, 2, 3, 4, 5, 6]);
next = array1d(1..14 ,[5, 14, 9, 3, 7, 1, 2, 6, 10, 11, 12, 13, 8, 4]);
makespan = 1312;
----------
assign = array1d(1..14 ,[6, 6, 1, 1, 6, 6, 6, 6, 1, 2, 3, 4, 5, 6]);
next = array1d(1..14 ,[5, 14, 9, 3, 7, 1, 2, 6, 10, 11, 12, 13, 8, 4]);
makespan = 1311;
----------
assign = array1d(1..14 ,[6, 6, 1, 1, 6, 6, 6, 6, 1, 2, 3, 4, 5, 6]);
next = array1d(1..14 ,[5, 14, 9, 3, 7, 1, 2, 6, 10, 11, 12, 13, 8, 4]);
makespan = 1310;
----------
assign = array1d(1..14 ,[6, 6, 1, 1, 6, 6, 6, 6, 1, 2, 3, 4, 5, 6]);
next = array1d(1..14 ,[5, 14, 9, 3, 7, 1, 2, 6, 10, 11, 12, 13, 8, 4]);
makespan = 1309;
----------
assign = array1d(1..14 ,[6, 6, 1, 1, 6, 6, 6, 6, 1, 2, 3, 4, 5, 6]);
next = array1d(1..14 ,[5, 14, 9, 3, 7, 1, 2, 6, 10, 11, 12, 13, 8, 4]);
makespan = 1308;
----------
assign = array1d(1..14 ,[6, 6, 1, 1, 6, 6, 6, 6, 1, 2, 3, 4, 5, 6]);
next = array1d(1..14 ,[5, 14, 9, 3, 7, 1, 2, 6, 10, 11, 12, 13, 8, 4]);
makespan = 1306;
----------
assign = array1d(1..14 ,[6, 6, 1, 1, 6, 6, 6, 6, 1, 2, 3, 4, 5, 6]);
next = array1d(1..14 ,[5, 14, 9, 3, 7, 1, 2, 6, 10, 11, 12, 13, 8, 4]);
makespan = 1305;
----------
assign = array1d(1..14 ,[6, 6, 1, 1, 6, 6, 6, 6, 1, 2, 3, 4, 5, 6]);
next = array1d(1..14 ,[5, 14, 9, 3, 7, 1, 2, 6, 10, 11, 12, 13, 8, 4]);
makespan = 1304;
----------
assign = array1d(1..14 ,[6, 6, 1, 1, 6, 6, 6, 6, 1, 2, 3, 4, 5, 6]);
next = array1d(1..14 ,[5, 14, 9, 3, 7, 1, 2, 6, 10, 11, 12, 13, 8, 4]);
makespan = 1303;
----------
assign = array1d(1..14 ,[6, 6, 1, 1, 6, 6, 6, 6, 1, 2, 3, 4, 5, 6]);
next = array1d(1..14 ,[5, 14, 9, 3, 7, 1, 2, 6, 10, 11, 12, 13, 8, 4]);
makespan = 1302;
----------
assign = array1d(1..14 ,[6, 6, 1, 1, 6, 6, 6, 6, 1, 2, 3, 4, 5, 6]);
next = array1d(1..14 ,[5, 14, 9, 3, 7, 1, 2, 6, 10, 11, 12, 13, 8, 4]);
makespan = 1300;
----------
assign = array1d(1..14 ,[6, 6, 1, 1, 6, 6, 6, 6, 1, 2, 3, 4, 5, 6]);
next = array1d(1..14 ,[5, 14, 9, 3, 7, 1, 2, 6, 10, 11, 12, 13, 8, 4]);
makespan = 1299;
----------
assign = array1d(1..14 ,[6, 6, 1, 1, 6, 6, 6, 6, 1, 2, 3, 4, 5, 6]);
next = array1d(1..14 ,[5, 14, 9, 3, 7, 1, 2, 6, 10, 11, 12, 13, 8, 4]);
makespan = 1298;
----------
assign = array1d(1..14 ,[6, 6, 1, 1, 6, 6, 6, 6, 1, 2, 3, 4, 5, 6]);
next = array1d(1..14 ,[5, 14, 9, 3, 7, 1, 2, 6, 10, 11, 12, 13, 8, 4]);
makespan = 1297;
----------
assign = array1d(1..14 ,[6, 6, 1, 1, 6, 6, 6, 6, 1, 2, 3, 4, 5, 6]);
next = array1d(1..14 ,[5, 14, 9, 3, 7, 1, 2, 6, 10, 11, 12, 13, 8, 4]);
makespan = 1296;
----------
assign = array1d(1..14 ,[6, 6, 1, 1, 6, 6, 6, 6, 1, 2, 3, 4, 5, 6]);
next = array1d(1..14 ,[5, 14, 9, 3, 7, 1, 2, 6, 10, 11, 12, 13, 8, 4]);
makespan = 1295;
----------
assign = array1d(1..14 ,[6, 6, 1, 1, 6, 6, 6, 6, 1, 2, 3, 4, 5, 6]);
next = array1d(1..14 ,[5, 14, 9, 3, 7, 1, 2, 6, 10, 11, 12, 13, 8, 4]);
makespan = 1293;
----------
assign = array1d(1..14 ,[6, 6, 1, 1, 6, 6, 6, 6, 1, 2, 3, 4, 5, 6]);
next = array1d(1..14 ,[5, 14, 9, 3, 7, 1, 2, 6, 10, 11, 12, 13, 8, 4]);
makespan = 1291;
----------
assign = array1d(1..14 ,[6, 6, 1, 1, 6, 6, 6, 6, 1, 2, 3, 4, 5, 6]);
next = array1d(1..14 ,[5, 14, 9, 3, 7, 1, 2, 6, 10, 11, 12, 13, 8, 4]);
makespan = 1290;
----------
assign = array1d(1..14 ,[6, 6, 1, 1, 6, 6, 6, 6, 1, 2, 3, 4, 5, 6]);
next = array1d(1..14 ,[5, 14, 9, 3, 7, 1, 2, 6, 10, 11, 12, 13, 8, 4]);
makespan = 1286;
----------
assign = array1d(1..14 ,[6, 6, 1, 1, 6, 6, 6, 6, 1, 2, 3, 4, 5, 6]);
next = array1d(1..14 ,[5, 14, 9, 3, 7, 1, 2, 6, 10, 11, 12, 13, 8, 4]);
makespan = 1285;
----------
assign = array1d(1..14 ,[6, 6, 1, 1, 6, 6, 6, 6, 1, 2, 3, 4, 5, 6]);
next = array1d(1..14 ,[5, 14, 9, 3, 7, 1, 2, 6, 10, 11, 12, 13, 8, 4]);
makespan = 1284;
----------
assign = array1d(1..14 ,[6, 6, 1, 1, 6, 6, 6, 6, 1, 2, 3, 4, 5, 6]);
next = array1d(1..14 ,[5, 14, 9, 3, 7, 1, 2, 6, 10, 11, 12, 13, 8, 4]);
makespan = 1283;
----------
assign = array1d(1..14 ,[6, 6, 1, 1, 6, 6, 6, 6, 1, 2, 3, 4, 5, 6]);
next = array1d(1..14 ,[5, 14, 9, 3, 7, 1, 2, 6, 10, 11, 12, 13, 8, 4]);
makespan = 1280;
----------
assign = array1d(1..14 ,[6, 6, 1, 1, 6, 6, 6, 6, 1, 2, 3, 4, 5, 6]);
next = array1d(1..14 ,[5, 14, 9, 3, 7, 1, 2, 6, 10, 11, 12, 13, 8, 4]);
makespan = 1279;
----------
assign = array1d(1..14 ,[6, 6, 1, 1, 6, 6, 6, 6, 1, 2, 3, 4, 5, 6]);
next = array1d(1..14 ,[5, 14, 9, 3, 7, 1, 2, 6, 10, 11, 12, 13, 8, 4]);
makespan = 1277;
----------
assign = array1d(1..14 ,[6, 6, 1, 1, 6, 6, 6, 6, 1, 2, 3, 4, 5, 6]);
next = array1d(1..14 ,[5, 14, 9, 3, 7, 1, 2, 6, 10, 11, 12, 13, 8, 4]);
makespan = 1273;
----------
assign = array1d(1..14 ,[6, 6, 1, 1, 6, 6, 6, 6, 1, 2, 3, 4, 5, 6]);
next = array1d(1..14 ,[5, 14, 9, 3, 7, 1, 2, 6, 10, 11, 12, 13, 8, 4]);
makespan = 1270;
----------
assign = array1d(1..14 ,[6, 6, 1, 1, 6, 6, 6, 6, 1, 2, 3, 4, 5, 6]);
next = array1d(1..14 ,[5, 14, 9, 3, 7, 1, 2, 6, 10, 11, 12, 13, 8, 4]);
makespan = 1266;
----------
assign = array1d(1..14 ,[6, 6, 1, 1, 6, 6, 6, 6, 1, 2, 3, 4, 5, 6]);
next = array1d(1..14 ,[5, 14, 9, 3, 7, 1, 2, 6, 10, 11, 12, 13, 8, 4]);
makespan = 1264;
----------
assign = array1d(1..14 ,[6, 6, 1, 1, 6, 6, 6, 6, 1, 2, 3, 4, 5, 6]);
next = array1d(1..14 ,[5, 14, 9, 3, 7, 1, 2, 6, 10, 11, 12, 13, 8, 4]);
makespan = 1263;
----------
assign = array1d(1..14 ,[6, 6, 1, 1, 6, 6, 6, 6, 1, 2, 3, 4, 5, 6]);
next = array1d(1..14 ,[5, 14, 9, 3, 7, 1, 2, 6, 10, 11, 12, 13, 8, 4]);
makespan = 1260;
----------
assign = array1d(1..14 ,[6, 6, 1, 1, 6, 6, 6, 6, 1, 2, 3, 4, 5, 6]);
next = array1d(1..14 ,[5, 14, 9, 3, 7, 1, 2, 6, 10, 11, 12, 13, 8, 4]);
makespan = 1259;
----------
assign = array1d(1..14 ,[6, 6, 1, 1, 6, 6, 6, 6, 1, 2, 3, 4, 5, 6]);
next = array1d(1..14 ,[5, 14, 9, 3, 7, 1, 2, 6, 10, 11, 12, 13, 8, 4]);
makespan = 1257;
----------
assign = array1d(1..14 ,[6, 6, 1, 1, 6, 6, 6, 6, 1, 2, 3, 4, 5, 6]);
next = array1d(1..14 ,[5, 14, 9, 3, 7, 1, 2, 6, 10, 11, 12, 13, 8, 4]);
makespan = 1253;
----------
assign = array1d(1..14 ,[6, 6, 1, 1, 6, 6, 6, 6, 1, 2, 3, 4, 5, 6]);
next = array1d(1..14 ,[5, 14, 9, 3, 7, 1, 2, 6, 10, 11, 12, 13, 8, 4]);
makespan = 1252;
----------
assign = array1d(1..14 ,[6, 6, 1, 1, 6, 6, 6, 6, 1, 2, 3, 4, 5, 6]);
next = array1d(1..14 ,[5, 14, 9, 3, 7, 1, 2, 6, 10, 11, 12, 13, 8, 4]);
makespan = 1251;
----------
assign = array1d(1..14 ,[6, 6, 1, 1, 6, 6, 6, 6, 1, 2, 3, 4, 5, 6]);
next = array1d(1..14 ,[5, 14, 9, 3, 7, 1, 2, 6, 10, 11, 12, 13, 8, 4]);
makespan = 1250;
----------
assign = array1d(1..14 ,[6, 6, 1, 1, 6, 6, 6, 6, 1, 2, 3, 4, 5, 6]);
next = array1d(1..14 ,[5, 14, 9, 3, 7, 1, 2, 6, 10, 11, 12, 13, 8, 4]);
makespan = 1247;
----------
assign = array1d(1..14 ,[6, 6, 1, 1, 6, 6, 6, 6, 1, 2, 3, 4, 5, 6]);
next = array1d(1..14 ,[5, 14, 9, 3, 7, 1, 2, 6, 10, 11, 12, 13, 8, 4]);
makespan = 1246;
----------
assign = array1d(1..14 ,[6, 6, 1, 1, 6, 6, 6, 6, 1, 2, 3, 4, 5, 6]);
next = array1d(1..14 ,[5, 14, 9, 3, 7, 1, 2, 6, 10, 11, 12, 13, 8, 4]);
makespan = 1245;
----------
assign = array1d(1..14 ,[6, 6, 1, 1, 6, 6, 6, 6, 1, 2, 3, 4, 5, 6]);
next = array1d(1..14 ,[5, 14, 9, 3, 7, 1, 2, 6, 10, 11, 12, 13, 8, 4]);
makespan = 1244;
----------
assign = array1d(1..14 ,[6, 6, 1, 1, 6, 6, 6, 6, 1, 2, 3, 4, 5, 6]);
next = array1d(1..14 ,[5, 14, 9, 3, 7, 1, 2, 6, 10, 11, 12, 13, 8, 4]);
makespan = 1243;
----------
assign = array1d(1..14 ,[6, 6, 1, 1, 6, 6, 6, 6, 1, 2, 3, 4, 5, 6]);
next = array1d(1..14 ,[5, 14, 9, 3, 7, 1, 2, 6, 10, 11, 12, 13, 8, 4]);
makespan = 1240;
----------
assign = array1d(1..14 ,[6, 6, 1, 1, 6, 6, 6, 6, 1, 2, 3, 4, 5, 6]);
next = array1d(1..14 ,[5, 14, 9, 3, 7, 1, 2, 6, 10, 11, 12, 13, 8, 4]);
makespan = 1239;
----------
assign = array1d(1..14 ,[6, 6, 1, 1, 6, 6, 6, 6, 1, 2, 3, 4, 5, 6]);
next = array1d(1..14 ,[5, 14, 9, 3, 7, 1, 2, 6, 10, 11, 12, 13, 8, 4]);
makespan = 1238;
----------
assign = array1d(1..14 ,[6, 6, 1, 1, 6, 6, 6, 6, 1, 2, 3, 4, 5, 6]);
next = array1d(1..14 ,[5, 14, 9, 3, 7, 1, 2, 6, 10, 11, 12, 13, 8, 4]);
makespan = 1237;
----------
assign = array1d(1..14 ,[6, 6, 1, 1, 6, 6, 6, 6, 1, 2, 3, 4, 5, 6]);
next = array1d(1..14 ,[5, 14, 9, 3, 7, 1, 2, 6, 10, 11, 12, 13, 8, 4]);
makespan = 1235;
----------
assign = array1d(1..14 ,[6, 6, 1, 1, 6, 6, 6, 6, 1, 2, 3, 4, 5, 6]);
next = array1d(1..14 ,[5, 14, 9, 3, 7, 1, 2, 6, 10, 11, 12, 13, 8, 4]);
makespan = 1233;
----------
assign = array1d(1..14 ,[6, 6, 1, 1, 6, 6, 6, 6, 1, 2, 3, 4, 5, 6]);
next = array1d(1..14 ,[5, 8, 9, 3, 14, 1, 2, 6, 10, 11, 12, 13, 7, 4]);
makespan = 1232;
----------
assign = array1d(1..14 ,[6, 6, 1, 1, 6, 6, 6, 6, 1, 2, 3, 4, 5, 6]);
next = array1d(1..14 ,[5, 8, 9, 3, 14, 1, 2, 6, 10, 11, 12, 13, 7, 4]);
makespan = 1231;
----------
assign = array1d(1..14 ,[6, 6, 1, 1, 6, 6, 6, 6, 1, 2, 3, 4, 5, 6]);
next = array1d(1..14 ,[5, 8, 9, 3, 14, 1, 2, 6, 10, 11, 12, 13, 7, 4]);
makespan = 1230;
----------
assign = array1d(1..14 ,[6, 6, 1, 1, 6, 6, 6, 6, 1, 2, 3, 4, 5, 6]);
next = array1d(1..14 ,[5, 8, 9, 3, 14, 1, 2, 6, 10, 11, 12, 13, 7, 4]);
makespan = 1228;
----------
assign = array1d(1..14 ,[6, 6, 1, 1, 6, 6, 6, 6, 1, 2, 3, 4, 5, 6]);
next = array1d(1..14 ,[5, 8, 9, 3, 14, 1, 2, 6, 10, 11, 12, 13, 7, 4]);
makespan = 1227;
----------
assign = array1d(1..14 ,[6, 6, 1, 1, 6, 6, 6, 6, 1, 2, 3, 4, 5, 6]);
next = array1d(1..14 ,[5, 8, 9, 3, 14, 1, 2, 6, 10, 11, 12, 13, 7, 4]);
makespan = 1226;
----------
assign = array1d(1..14 ,[6, 6, 1, 1, 6, 6, 6, 6, 1, 2, 3, 4, 5, 6]);
next = array1d(1..14 ,[5, 8, 9, 3, 14, 1, 2, 6, 10, 11, 12, 13, 7, 4]);
makespan = 1225;
----------
assign = array1d(1..14 ,[6, 6, 1, 1, 6, 6, 6, 6, 1, 2, 3, 4, 5, 6]);
next = array1d(1..14 ,[5, 8, 9, 3, 14, 1, 2, 6, 10, 11, 12, 13, 7, 4]);
makespan = 1224;
----------
assign = array1d(1..14 ,[6, 6, 1, 1, 6, 6, 6, 6, 1, 2, 3, 4, 5, 6]);
next = array1d(1..14 ,[5, 8, 9, 3, 14, 1, 2, 6, 10, 11, 12, 13, 7, 4]);
makespan = 1221;
----------
assign = array1d(1..14 ,[6, 6, 1, 1, 6, 6, 6, 6, 1, 2, 3, 4, 5, 6]);
next = array1d(1..14 ,[5, 8, 9, 3, 14, 1, 2, 6, 10, 11, 12, 13, 7, 4]);
makespan = 1220;
----------
assign = array1d(1..14 ,[6, 6, 1, 1, 6, 6, 6, 6, 1, 2, 3, 4, 5, 6]);
next = array1d(1..14 ,[5, 8, 9, 3, 14, 1, 2, 6, 10, 11, 12, 13, 7, 4]);
makespan = 1219;
----------
assign = array1d(1..14 ,[6, 6, 1, 1, 6, 6, 6, 6, 1, 2, 3, 4, 5, 6]);
next = array1d(1..14 ,[5, 8, 9, 3, 14, 1, 2, 6, 10, 11, 12, 13, 7, 4]);
makespan = 1217;
----------
assign = array1d(1..14 ,[6, 6, 1, 1, 6, 6, 6, 6, 1, 2, 3, 4, 5, 6]);
next = array1d(1..14 ,[5, 8, 9, 3, 14, 1, 2, 6, 10, 11, 12, 13, 7, 4]);
makespan = 1215;
----------
assign = array1d(1..14 ,[6, 6, 1, 1, 6, 6, 6, 6, 1, 2, 3, 4, 5, 6]);
next = array1d(1..14 ,[5, 8, 9, 3, 14, 1, 2, 6, 10, 11, 12, 13, 7, 4]);
makespan = 1212;
----------
assign = array1d(1..14 ,[6, 6, 1, 1, 6, 6, 6, 6, 1, 2, 3, 4, 5, 6]);
next = array1d(1..14 ,[5, 8, 9, 3, 14, 1, 2, 6, 10, 11, 12, 13, 7, 4]);
makespan = 1211;
----------
assign = array1d(1..14 ,[6, 6, 1, 1, 6, 6, 6, 6, 1, 2, 3, 4, 5, 6]);
next = array1d(1..14 ,[5, 8, 9, 3, 14, 1, 2, 6, 10, 11, 12, 13, 7, 4]);
makespan = 1210;
----------
assign = array1d(1..14 ,[6, 6, 1, 1, 6, 6, 6, 6, 1, 2, 3, 4, 5, 6]);
next = array1d(1..14 ,[5, 8, 9, 3, 7, 1, 14, 6, 10, 11, 12, 13, 2, 4]);
makespan = 1209;
----------
assign = array1d(1..14 ,[6, 6, 6, 3, 6, 6, 3, 6, 1, 2, 3, 4, 5, 6]);
next = array1d(1..14 ,[5, 3, 14, 11, 2, 1, 4, 6, 10, 7, 12, 13, 8, 9]);
makespan = 1207;
----------
assign = array1d(1..14 ,[6, 6, 6, 4, 6, 6, 4, 6, 1, 2, 3, 4, 5, 6]);
next = array1d(1..14 ,[5, 3, 14, 12, 2, 1, 4, 6, 10, 11, 7, 13, 8, 9]);
makespan = 1206;
----------
assign = array1d(1..14 ,[6, 6, 6, 3, 6, 6, 3, 6, 1, 2, 3, 4, 5, 6]);
next = array1d(1..14 ,[5, 3, 14, 11, 2, 1, 4, 6, 10, 7, 12, 13, 8, 9]);
makespan = 1205;
----------
assign = array1d(1..14 ,[6, 6, 6, 2, 6, 6, 2, 6, 1, 2, 3, 4, 5, 6]);
next = array1d(1..14 ,[5, 3, 14, 10, 2, 1, 4, 6, 7, 11, 12, 13, 8, 9]);
makespan = 1202;
----------
assign = array1d(1..14 ,[6, 6, 6, 3, 6, 6, 3, 6, 1, 2, 3, 4, 5, 6]);
next = array1d(1..14 ,[5, 3, 14, 11, 2, 1, 4, 6, 10, 7, 12, 13, 8, 9]);
makespan = 1199;
----------
assign = array1d(1..14 ,[6, 6, 6, 4, 6, 6, 4, 6, 1, 2, 3, 4, 5, 6]);
next = array1d(1..14 ,[5, 3, 14, 12, 2, 1, 4, 6, 10, 11, 7, 13, 8, 9]);
makespan = 1195;
----------
assign = array1d(1..14 ,[6, 6, 6, 3, 6, 6, 3, 6, 1, 2, 3, 4, 5, 6]);
next = array1d(1..14 ,[5, 3, 14, 11, 2, 1, 4, 6, 10, 7, 12, 13, 8, 9]);
makespan = 1192;
----------
assign = array1d(1..14 ,[6, 6, 6, 2, 6, 6, 2, 6, 1, 2, 3, 4, 5, 6]);
next = array1d(1..14 ,[5, 3, 14, 10, 2, 1, 4, 6, 7, 11, 12, 13, 8, 9]);
makespan = 1186;
----------
assign = array1d(1..14 ,[6, 6, 6, 4, 6, 6, 4, 6, 1, 2, 3, 4, 5, 6]);
next = array1d(1..14 ,[5, 3, 14, 12, 2, 1, 4, 6, 10, 11, 7, 13, 8, 9]);
makespan = 1185;
----------
assign = array1d(1..14 ,[6, 6, 6, 4, 6, 6, 4, 6, 1, 2, 3, 4, 5, 6]);
next = array1d(1..14 ,[5, 3, 14, 12, 2, 1, 4, 6, 10, 11, 7, 13, 8, 9]);
makespan = 1182;
----------
assign = array1d(1..14 ,[6, 6, 6, 4, 6, 6, 4, 6, 1, 2, 3, 4, 5, 6]);
next = array1d(1..14 ,[5, 3, 14, 12, 2, 1, 4, 6, 10, 11, 7, 13, 8, 9]);
makespan = 1179;
----------
assign = array1d(1..14 ,[6, 6, 6, 4, 6, 6, 4, 6, 1, 2, 3, 4, 5, 6]);
next = array1d(1..14 ,[5, 3, 8, 12, 14, 1, 4, 6, 10, 11, 7, 13, 2, 9]);
makespan = 1175;
----------
assign = array1d(1..14 ,[6, 6, 6, 4, 6, 6, 4, 6, 1, 2, 3, 4, 5, 6]);
next = array1d(1..14 ,[5, 3, 8, 12, 14, 1, 4, 6, 10, 11, 7, 13, 2, 9]);
makespan = 1173;
----------
assign = array1d(1..14 ,[6, 6, 6, 4, 6, 6, 4, 6, 1, 2, 3, 4, 5, 6]);
next = array1d(1..14 ,[5, 3, 8, 12, 14, 1, 4, 6, 10, 11, 7, 13, 2, 9]);
makespan = 1172;
----------
assign = array1d(1..14 ,[6, 6, 6, 4, 6, 6, 4, 6, 1, 2, 3, 4, 5, 6]);
next = array1d(1..14 ,[5, 3, 8, 12, 14, 1, 4, 6, 10, 11, 7, 13, 2, 9]);
makespan = 1171;
----------
assign = array1d(1..14 ,[6, 6, 6, 4, 6, 6, 4, 6, 1, 2, 3, 4, 5, 6]);
next = array1d(1..14 ,[5, 3, 8, 12, 14, 1, 4, 6, 10, 11, 7, 13, 2, 9]);
makespan = 1168;
----------
assign = array1d(1..14 ,[6, 6, 6, 4, 6, 6, 4, 6, 1, 2, 3, 4, 5, 6]);
next = array1d(1..14 ,[5, 3, 8, 12, 14, 1, 4, 6, 10, 11, 7, 13, 2, 9]);
makespan = 1166;
----------
assign = array1d(1..14 ,[6, 6, 6, 4, 6, 6, 4, 6, 1, 2, 3, 4, 5, 6]);
next = array1d(1..14 ,[5, 3, 8, 12, 14, 1, 4, 6, 10, 11, 7, 13, 2, 9]);
makespan = 1162;
----------
assign = array1d(1..14 ,[6, 6, 6, 2, 6, 6, 2, 6, 1, 2, 3, 4, 5, 6]);
next = array1d(1..14 ,[5, 3, 8, 10, 14, 1, 4, 6, 7, 11, 12, 13, 2, 9]);
makespan = 1161;
----------
assign = array1d(1..14 ,[6, 6, 6, 3, 6, 6, 3, 6, 1, 2, 3, 4, 5, 6]);
next = array1d(1..14 ,[5, 3, 8, 11, 14, 1, 4, 6, 10, 7, 12, 13, 2, 9]);
makespan = 1159;
----------
assign = array1d(1..14 ,[6, 6, 6, 2, 6, 6, 2, 6, 1, 2, 3, 4, 5, 6]);
next = array1d(1..14 ,[5, 3, 8, 10, 14, 1, 4, 6, 7, 11, 12, 13, 2, 9]);
makespan = 1158;
----------
assign = array1d(1..14 ,[6, 3, 6, 3, 6, 6, 3, 6, 1, 2, 3, 4, 5, 6]);
next = array1d(1..14 ,[5, 4, 1, 11, 8, 14, 2, 6, 10, 7, 12, 13, 3, 9]);
makespan = 1154;
----------
assign = array1d(1..14 ,[6, 2, 6, 2, 6, 6, 2, 6, 1, 2, 3, 4, 5, 6]);
next = array1d(1..14 ,[5, 4, 1, 10, 8, 14, 2, 6, 7, 11, 12, 13, 3, 9]);
makespan = 1153;
----------
assign = array1d(1..14 ,[6, 3, 6, 3, 6, 6, 3, 6, 1, 2, 3, 4, 5, 6]);
next = array1d(1..14 ,[5, 4, 1, 11, 8, 14, 2, 6, 10, 7, 12, 13, 3, 9]);
makespan = 1152;
----------
assign = array1d(1..14 ,[6, 2, 6, 2, 6, 6, 2, 6, 1, 2, 3, 4, 5, 6]);
next = array1d(1..14 ,[5, 4, 1, 10, 8, 14, 2, 6, 7, 11, 12, 13, 3, 9]);
makespan = 1149;
----------
assign = array1d(1..14 ,[6, 3, 6, 3, 6, 6, 3, 6, 1, 2, 3, 4, 5, 6]);
next = array1d(1..14 ,[5, 4, 1, 11, 8, 14, 2, 6, 10, 7, 12, 13, 3, 9]);
makespan = 1147;
----------
assign = array1d(1..14 ,[6, 2, 6, 2, 6, 6, 2, 6, 1, 2, 3, 4, 5, 6]);
next = array1d(1..14 ,[5, 4, 1, 10, 8, 14, 2, 6, 7, 11, 12, 13, 3, 9]);
makespan = 1146;
----------
assign = array1d(1..14 ,[6, 3, 6, 3, 6, 6, 3, 6, 1, 2, 3, 4, 5, 6]);
next = array1d(1..14 ,[5, 4, 1, 11, 8, 14, 2, 6, 10, 7, 12, 13, 3, 9]);
makespan = 1142;
----------
assign = array1d(1..14 ,[6, 2, 6, 2, 6, 6, 2, 6, 1, 2, 3, 4, 5, 6]);
next = array1d(1..14 ,[5, 4, 1, 10, 8, 14, 2, 6, 7, 11, 12, 13, 3, 9]);
makespan = 1141;
----------
assign = array1d(1..14 ,[6, 3, 6, 3, 6, 6, 3, 6, 1, 2, 3, 4, 5, 6]);
next = array1d(1..14 ,[5, 4, 1, 11, 8, 14, 2, 6, 10, 7, 12, 13, 3, 9]);
makespan = 1137;
----------
assign = array1d(1..14 ,[6, 2, 6, 2, 6, 6, 2, 6, 1, 2, 3, 4, 5, 6]);
next = array1d(1..14 ,[5, 4, 1, 10, 8, 14, 2, 6, 7, 11, 12, 13, 3, 9]);
makespan = 1135;
----------
assign = array1d(1..14 ,[6, 3, 6, 3, 6, 6, 3, 6, 1, 2, 3, 4, 5, 6]);
next = array1d(1..14 ,[5, 4, 1, 11, 8, 14, 2, 6, 10, 7, 12, 13, 3, 9]);
makespan = 1133;
----------
assign = array1d(1..14 ,[6, 2, 6, 2, 6, 6, 2, 6, 1, 2, 3, 4, 5, 6]);
next = array1d(1..14 ,[5, 4, 1, 10, 8, 14, 2, 6, 7, 11, 12, 13, 3, 9]);
makespan = 1128;
----------
assign = array1d(1..14 ,[6, 3, 6, 3, 6, 6, 3, 6, 1, 2, 3, 4, 5, 6]);
next = array1d(1..14 ,[5, 4, 1, 11, 8, 14, 2, 6, 10, 7, 12, 13, 3, 9]);
makespan = 1121;
----------
assign = array1d(1..14 ,[6, 2, 6, 2, 6, 6, 2, 6, 1, 2, 3, 4, 5, 6]);
next = array1d(1..14 ,[5, 4, 1, 10, 8, 14, 2, 6, 7, 11, 12, 13, 3, 9]);
makespan = 1112;
----------
assign = array1d(1..14 ,[6, 3, 6, 3, 6, 6, 3, 6, 1, 2, 3, 4, 5, 6]);
next = array1d(1..14 ,[5, 4, 1, 11, 8, 14, 2, 6, 10, 7, 12, 13, 3, 9]);
makespan = 1104;
----------
assign = array1d(1..14 ,[6, 2, 6, 2, 6, 6, 2, 6, 1, 2, 3, 4, 5, 6]);
next = array1d(1..14 ,[5, 4, 1, 10, 8, 14, 2, 6, 7, 11, 12, 13, 3, 9]);
makespan = 1090;
----------
assign = array1d(1..14 ,[6, 3, 6, 3, 6, 6, 3, 6, 1, 2, 3, 4, 5, 6]);
next = array1d(1..14 ,[5, 4, 1, 11, 8, 14, 2, 6, 10, 7, 12, 13, 3, 9]);
makespan = 1084;
----------
assign = array1d(1..14 ,[6, 2, 6, 2, 6, 6, 2, 6, 1, 2, 3, 4, 5, 6]);
next = array1d(1..14 ,[5, 4, 1, 10, 8, 14, 2, 6, 7, 11, 12, 13, 3, 9]);
makespan = 1077;
----------
assign = array1d(1..14 ,[6, 3, 6, 3, 6, 6, 3, 6, 1, 2, 3, 4, 5, 6]);
next = array1d(1..14 ,[5, 4, 1, 11, 8, 14, 2, 6, 10, 7, 12, 13, 3, 9]);
makespan = 1064;
----------
assign = array1d(1..14 ,[6, 2, 6, 2, 6, 6, 2, 6, 1, 2, 3, 4, 5, 6]);
next = array1d(1..14 ,[5, 4, 1, 10, 8, 14, 2, 6, 7, 11, 12, 13, 3, 9]);
makespan = 1036;
----------
assign = array1d(1..14 ,[6, 3, 6, 3, 6, 6, 3, 6, 1, 2, 3, 4, 5, 6]);
next = array1d(1..14 ,[5, 4, 1, 11, 8, 14, 2, 6, 10, 7, 12, 13, 3, 9]);
makespan = 1034;
----------
assign = array1d(1..14 ,[6, 2, 6, 2, 6, 6, 2, 6, 1, 2, 3, 4, 5, 6]);
next = array1d(1..14 ,[5, 4, 1, 10, 8, 14, 2, 6, 7, 11, 12, 13, 3, 9]);
makespan = 1029;
----------
assign = array1d(1..14 ,[6, 3, 6, 3, 6, 6, 3, 6, 1, 2, 3, 4, 5, 6]);
next = array1d(1..14 ,[5, 4, 1, 11, 8, 14, 2, 6, 10, 7, 12, 13, 3, 9]);
makespan = 1026;
----------
assign = array1d(1..14 ,[6, 2, 6, 2, 6, 6, 2, 6, 1, 2, 3, 4, 5, 6]);
next = array1d(1..14 ,[5, 4, 1, 10, 8, 14, 2, 6, 7, 11, 12, 13, 3, 9]);
makespan = 1017;
----------
assign = array1d(1..14 ,[6, 3, 6, 3, 6, 6, 3, 6, 1, 2, 3, 4, 5, 6]);
next = array1d(1..14 ,[5, 4, 1, 11, 8, 14, 2, 6, 10, 7, 12, 13, 3, 9]);
makespan = 1010;
----------
assign = array1d(1..14 ,[6, 2, 6, 2, 6, 6, 2, 6, 1, 2, 3, 4, 5, 6]);
next = array1d(1..14 ,[5, 4, 1, 10, 8, 14, 2, 6, 7, 11, 12, 13, 3, 9]);
makespan = 1006;
----------
assign = array1d(1..14 ,[6, 3, 6, 3, 6, 6, 3, 6, 1, 2, 3, 4, 5, 6]);
next = array1d(1..14 ,[5, 4, 1, 11, 8, 14, 2, 6, 10, 7, 12, 13, 3, 9]);
makespan = 986;
----------
assign = array1d(1..14 ,[6, 2, 6, 2, 6, 6, 2, 6, 1, 2, 3, 4, 5, 6]);
next = array1d(1..14 ,[5, 4, 1, 10, 8, 14, 2, 6, 7, 11, 12, 13, 3, 9]);
makespan = 966;
----------
assign = array1d(1..14 ,[6, 3, 6, 3, 6, 6, 3, 6, 1, 2, 3, 4, 5, 6]);
next = array1d(1..14 ,[5, 4, 1, 11, 8, 14, 2, 6, 10, 7, 12, 13, 3, 9]);
makespan = 954;
----------
assign = array1d(1..14 ,[6, 2, 6, 2, 6, 6, 2, 6, 1, 2, 3, 4, 5, 6]);
next = array1d(1..14 ,[5, 4, 1, 10, 14, 3, 2, 6, 7, 11, 12, 13, 8, 9]);
makespan = 948;
----------
assign = array1d(1..14 ,[6, 3, 6, 3, 6, 6, 3, 6, 1, 2, 3, 4, 5, 6]);
next = array1d(1..14 ,[5, 4, 1, 11, 14, 3, 2, 6, 10, 7, 12, 13, 8, 9]);
makespan = 941;
----------
assign = array1d(1..14 ,[6, 2, 2, 1, 6, 6, 2, 6, 1, 2, 3, 4, 5, 6]);
next = array1d(1..14 ,[5, 3, 10, 9, 8, 14, 2, 6, 7, 11, 12, 13, 1, 4]);
makespan = 933;
----------
assign = array1d(1..14 ,[6, 4, 4, 4, 6, 6, 4, 6, 1, 2, 3, 4, 5, 6]);
next = array1d(1..14 ,[5, 4, 7, 12, 8, 14, 2, 6, 10, 11, 3, 13, 1, 9]);
makespan = 920;
----------
assign = array1d(1..14 ,[6, 3, 3, 4, 6, 6, 4, 6, 1, 2, 3, 4, 5, 6]);
next = array1d(1..14 ,[5, 11, 2, 12, 14, 1, 4, 6, 10, 3, 7, 13, 8, 9]);
makespan = 900;
----------
assign = array1d(1..14 ,[6, 4, 4, 2, 6, 6, 2, 6, 1, 2, 3, 4, 5, 6]);
next = array1d(1..14 ,[5, 12, 2, 10, 14, 1, 4, 6, 7, 11, 3, 13, 8, 9]);
makespan = 888;
----------
assign = array1d(1..14 ,[6, 3, 3, 4, 6, 6, 4, 6, 1, 2, 3, 4, 5, 6]);
next = array1d(1..14 ,[5, 11, 2, 12, 14, 1, 4, 6, 10, 3, 7, 13, 8, 9]);
makespan = 869;
----------
assign = array1d(1..14 ,[6, 4, 4, 2, 6, 6, 2, 6, 1, 2, 3, 4, 5, 6]);
next = array1d(1..14 ,[5, 12, 2, 10, 14, 1, 4, 6, 7, 11, 3, 13, 8, 9]);
makespan = 849;
----------
assign = array1d(1..14 ,[6, 4, 4, 3, 6, 6, 3, 6, 1, 2, 3, 4, 5, 6]);
next = array1d(1..14 ,[5, 12, 2, 11, 14, 1, 4, 6, 10, 7, 3, 13, 8, 9]);
makespan = 842;
----------
assign = array1d(1..14 ,[6, 3, 3, 2, 6, 6, 2, 6, 1, 2, 3, 4, 5, 6]);
next = array1d(1..14 ,[5, 11, 2, 10, 14, 1, 4, 6, 7, 3, 12, 13, 8, 9]);
makespan = 831;
----------
assign = array1d(1..14 ,[6, 4, 4, 3, 6, 6, 3, 6, 1, 2, 3, 4, 5, 6]);
next = array1d(1..14 ,[5, 12, 2, 11, 14, 1, 4, 6, 10, 7, 3, 13, 8, 9]);
makespan = 808;
----------
assign = array1d(1..14 ,[6, 3, 3, 2, 6, 6, 2, 6, 1, 2, 3, 4, 5, 6]);
next = array1d(1..14 ,[5, 11, 2, 10, 14, 1, 4, 6, 7, 3, 12, 13, 8, 9]);
makespan = 791;
----------
assign = array1d(1..14 ,[6, 4, 4, 3, 6, 6, 3, 6, 1, 2, 3, 4, 5, 6]);
next = array1d(1..14 ,[5, 12, 2, 11, 14, 1, 4, 6, 10, 7, 3, 13, 8, 9]);
makespan = 789;
----------
assign = array1d(1..14 ,[6, 3, 3, 2, 6, 6, 2, 6, 1, 2, 3, 4, 5, 6]);
next = array1d(1..14 ,[5, 11, 2, 10, 14, 1, 4, 6, 7, 3, 12, 13, 8, 9]);
makespan = 778;
----------
assign = array1d(1..14 ,[6, 4, 4, 3, 6, 6, 3, 6, 1, 2, 3, 4, 5, 6]);
next = array1d(1..14 ,[5, 12, 2, 11, 14, 1, 4, 6, 10, 7, 3, 13, 8, 9]);
makespan = 771;
----------
assign = array1d(1..14 ,[6, 4, 4, 2, 6, 6, 2, 6, 1, 2, 3, 4, 5, 6]);
next = array1d(1..14 ,[5, 12, 2, 10, 14, 1, 4, 6, 7, 11, 3, 13, 8, 9]);
makespan = 755;
----------
assign = array1d(1..14 ,[6, 3, 3, 4, 6, 6, 4, 6, 1, 2, 3, 4, 5, 6]);
next = array1d(1..14 ,[5, 11, 2, 12, 14, 1, 4, 6, 10, 3, 7, 13, 8, 9]);
makespan = 754;
----------
assign = array1d(1..14 ,[6, 4, 4, 2, 6, 6, 2, 6, 1, 2, 3, 4, 5, 6]);
next = array1d(1..14 ,[5, 12, 2, 10, 14, 1, 4, 6, 7, 11, 3, 13, 8, 9]);
makespan = 751;
----------
assign = array1d(1..14 ,[6, 3, 3, 4, 6, 6, 4, 6, 1, 2, 3, 4, 5, 6]);
next = array1d(1..14 ,[5, 11, 2, 12, 14, 1, 4, 6, 10, 3, 7, 13, 8, 9]);
makespan = 748;
----------
assign = array1d(1..14 ,[6, 4, 4, 2, 6, 6, 2, 6, 1, 2, 3, 4, 5, 6]);
next = array1d(1..14 ,[5, 12, 2, 10, 14, 1, 4, 6, 7, 11, 3, 13, 8, 9]);
makespan = 731;
----------
assign = array1d(1..14 ,[6, 3, 3, 3, 6, 6, 3, 6, 1, 2, 3, 4, 5, 6]);
next = array1d(1..14 ,[14, 11, 7, 2, 8, 1, 4, 6, 10, 3, 12, 13, 5, 9]);
makespan = 727;
----------
assign = array1d(1..14 ,[6, 5, 5, 5, 6, 6, 5, 6, 1, 2, 3, 4, 5, 6]);
next = array1d(1..14 ,[14, 13, 7, 2, 8, 1, 4, 6, 10, 11, 12, 3, 5, 9]);
makespan = 724;
----------
assign = array1d(1..14 ,[6, 2, 5, 2, 2, 6, 2, 6, 1, 2, 3, 4, 5, 6]);
next = array1d(1..14 ,[8, 10, 13, 2, 4, 14, 5, 6, 7, 11, 12, 3, 1, 9]);
makespan = 723;
----------
assign = array1d(1..14 ,[6, 1, 6, 1, 1, 6, 1, 6, 1, 2, 3, 4, 5, 6]);
next = array1d(1..14 ,[14, 5, 1, 9, 7, 3, 4, 6, 10, 11, 12, 13, 8, 2]);
makespan = 714;
----------
assign = array1d(1..14 ,[6, 3, 5, 3, 3, 6, 3, 6, 1, 2, 3, 4, 5, 6]);
next = array1d(1..14 ,[8, 5, 13, 11, 7, 14, 4, 6, 10, 2, 12, 3, 1, 9]);
makespan = 704;
----------
assign = array1d(1..14 ,[6, 3, 6, 3, 3, 6, 3, 6, 1, 2, 3, 4, 5, 6]);
next = array1d(1..14 ,[14, 5, 8, 11, 7, 1, 4, 6, 10, 2, 12, 13, 3, 9]);
makespan = 703;
----------
assign = array1d(1..14 ,[6, 3, 4, 3, 3, 6, 3, 6, 1, 2, 3, 4, 5, 6]);
next = array1d(1..14 ,[8, 5, 12, 11, 7, 14, 4, 6, 10, 2, 3, 13, 1, 9]);
makespan = 700;
----------
assign = array1d(1..14 ,[6, 3, 4, 3, 3, 6, 3, 6, 1, 2, 3, 4, 5, 6]);
next = array1d(1..14 ,[8, 5, 12, 11, 7, 14, 4, 6, 10, 2, 3, 13, 1, 9]);
makespan = 694;
----------
assign = array1d(1..14 ,[6, 3, 4, 3, 3, 6, 3, 6, 1, 2, 3, 4, 5, 6]);
next = array1d(1..14 ,[8, 5, 12, 11, 7, 14, 4, 6, 10, 2, 3, 13, 1, 9]);
makespan = 691;
----------
assign = array1d(1..14 ,[6, 5, 5, 4, 5, 6, 4, 6, 1, 2, 3, 4, 5, 6]);
next = array1d(1..14 ,[8, 5, 2, 12, 13, 14, 4, 6, 10, 11, 7, 3, 1, 9]);
makespan = 680;
----------
assign = array1d(1..14 ,[6, 5, 5, 4, 5, 6, 4, 6, 1, 2, 3, 4, 5, 6]);
next = array1d(1..14 ,[8, 5, 2, 12, 13, 14, 4, 6, 10, 11, 7, 3, 1, 9]);
makespan = 673;
----------
assign = array1d(1..14 ,[6, 5, 5, 4, 5, 6, 4, 6, 1, 2, 3, 4, 5, 6]);
next = array1d(1..14 ,[8, 5, 2, 12, 13, 14, 4, 6, 10, 11, 7, 3, 1, 9]);
makespan = 646;
----------
assign = array1d(1..14 ,[6, 5, 5, 4, 5, 6, 4, 6, 1, 2, 3, 4, 5, 6]);
next = array1d(1..14 ,[8, 5, 2, 12, 13, 14, 4, 6, 10, 11, 7, 3, 1, 9]);
makespan = 642;
----------
assign = array1d(1..14 ,[6, 5, 5, 4, 5, 6, 4, 6, 1, 2, 3, 4, 5, 6]);
next = array1d(1..14 ,[8, 5, 2, 12, 13, 14, 4, 6, 10, 11, 7, 3, 1, 9]);
makespan = 638;
----------
assign = array1d(1..14 ,[6, 5, 5, 4, 5, 6, 4, 6, 1, 2, 3, 4, 5, 6]);
next = array1d(1..14 ,[8, 5, 2, 12, 13, 14, 4, 6, 10, 11, 7, 3, 1, 9]);
makespan = 636;
----------
assign = array1d(1..14 ,[6, 5, 5, 4, 5, 6, 4, 6, 1, 2, 3, 4, 5, 6]);
next = array1d(1..14 ,[8, 5, 2, 12, 13, 14, 4, 6, 10, 11, 7, 3, 1, 9]);
makespan = 633;
----------
assign = array1d(1..14 ,[6, 5, 5, 4, 5, 6, 4, 6, 1, 2, 3, 4, 5, 6]);
next = array1d(1..14 ,[8, 5, 2, 12, 13, 14, 4, 6, 10, 11, 7, 3, 1, 9]);
makespan = 627;
----------
assign = array1d(1..14 ,[6, 5, 5, 4, 5, 6, 4, 6, 1, 2, 3, 4, 5, 6]);
next = array1d(1..14 ,[8, 5, 2, 12, 13, 14, 4, 6, 10, 11, 7, 3, 1, 9]);
makespan = 626;
----------
assign = array1d(1..14 ,[6, 5, 5, 4, 5, 6, 4, 6, 1, 2, 3, 4, 5, 6]);
next = array1d(1..14 ,[8, 5, 2, 12, 13, 14, 4, 6, 10, 11, 7, 3, 1, 9]);
makespan = 625;
----------
assign = array1d(1..14 ,[6, 5, 5, 4, 5, 6, 4, 6, 1, 2, 3, 4, 5, 6]);
next = array1d(1..14 ,[8, 5, 2, 12, 13, 14, 4, 6, 10, 11, 7, 3, 1, 9]);
makespan = 618;
----------
assign = array1d(1..14 ,[6, 5, 5, 4, 5, 6, 4, 6, 1, 2, 3, 4, 5, 6]);
next = array1d(1..14 ,[8, 5, 2, 12, 13, 14, 4, 6, 10, 11, 7, 3, 1, 9]);
makespan = 616;
----------
assign = array1d(1..14 ,[6, 5, 5, 4, 5, 6, 4, 6, 1, 2, 3, 4, 5, 6]);
next = array1d(1..14 ,[8, 5, 2, 12, 13, 14, 4, 6, 10, 11, 7, 3, 1, 9]);
makespan = 609;
----------
assign = array1d(1..14 ,[6, 5, 5, 4, 5, 6, 4, 6, 1, 2, 3, 4, 5, 6]);
next = array1d(1..14 ,[8, 5, 2, 12, 13, 14, 4, 6, 10, 11, 7, 3, 1, 9]);
makespan = 604;
----------
assign = array1d(1..14 ,[6, 5, 5, 4, 5, 6, 4, 6, 1, 2, 3, 4, 5, 6]);
next = array1d(1..14 ,[8, 5, 2, 12, 13, 14, 4, 6, 10, 11, 7, 3, 1, 9]);
makespan = 602;
----------
assign = array1d(1..14 ,[6, 5, 5, 4, 5, 6, 4, 6, 1, 2, 3, 4, 5, 6]);
next = array1d(1..14 ,[8, 5, 2, 12, 13, 14, 4, 6, 10, 11, 7, 3, 1, 9]);
makespan = 601;
----------
assign = array1d(1..14 ,[6, 5, 5, 4, 5, 6, 4, 6, 1, 2, 3, 4, 5, 6]);
next = array1d(1..14 ,[8, 5, 2, 12, 13, 14, 4, 6, 10, 11, 7, 3, 1, 9]);
makespan = 600;
----------
assign = array1d(1..14 ,[6, 5, 5, 4, 5, 6, 4, 6, 1, 2, 3, 4, 5, 6]);
next = array1d(1..14 ,[8, 5, 2, 12, 13, 14, 4, 6, 10, 11, 7, 3, 1, 9]);
makespan = 595;
----------
assign = array1d(1..14 ,[6, 5, 5, 4, 5, 6, 4, 6, 1, 2, 3, 4, 5, 6]);
next = array1d(1..14 ,[8, 5, 2, 12, 13, 14, 4, 6, 10, 11, 7, 3, 1, 9]);
makespan = 585;
----------
assign = array1d(1..14 ,[6, 5, 5, 4, 5, 6, 4, 6, 1, 2, 3, 4, 5, 6]);
next = array1d(1..14 ,[8, 5, 2, 12, 13, 14, 4, 6, 10, 11, 7, 3, 1, 9]);
makespan = 581;
----------
assign = array1d(1..14 ,[6, 5, 5, 4, 5, 6, 4, 6, 1, 2, 3, 4, 5, 6]);
next = array1d(1..14 ,[8, 5, 2, 12, 13, 14, 4, 6, 10, 11, 7, 3, 1, 9]);
makespan = 574;
----------
assign = array1d(1..14 ,[6, 5, 5, 4, 5, 6, 4, 6, 1, 2, 3, 4, 5, 6]);
next = array1d(1..14 ,[8, 5, 2, 12, 13, 14, 4, 6, 10, 11, 7, 3, 1, 9]);
makespan = 551;
----------
assign = array1d(1..14 ,[6, 5, 5, 4, 5, 6, 4, 6, 1, 2, 3, 4, 5, 6]);
next = array1d(1..14 ,[8, 5, 2, 12, 13, 14, 4, 6, 10, 11, 7, 3, 1, 9]);
makespan = 548;
----------
assign = array1d(1..14 ,[6, 4, 4, 5, 4, 6, 5, 6, 1, 2, 3, 4, 5, 6]);
next = array1d(1..14 ,[8, 5, 2, 13, 12, 14, 4, 6, 10, 11, 3, 7, 1, 9]);
makespan = 547;
----------
assign = array1d(1..14 ,[6, 4, 4, 5, 4, 6, 5, 6, 1, 2, 3, 4, 5, 6]);
next = array1d(1..14 ,[8, 5, 2, 13, 12, 14, 4, 6, 10, 11, 3, 7, 1, 9]);
makespan = 544;
----------
assign = array1d(1..14 ,[6, 4, 4, 5, 4, 6, 5, 6, 1, 2, 3, 4, 5, 6]);
next = array1d(1..14 ,[8, 5, 2, 13, 12, 14, 4, 6, 10, 11, 3, 7, 1, 9]);
makespan = 540;
----------
assign = array1d(1..14 ,[6, 4, 4, 5, 4, 6, 5, 6, 1, 2, 3, 4, 5, 6]);
next = array1d(1..14 ,[8, 5, 2, 13, 12, 14, 4, 6, 10, 11, 3, 7, 1, 9]);
makespan = 536;
----------
assign = array1d(1..14 ,[6, 4, 4, 5, 4, 6, 5, 6, 1, 2, 3, 4, 5, 6]);
next = array1d(1..14 ,[14, 5, 2, 13, 12, 1, 4, 6, 10, 11, 3, 7, 8, 9]);
makespan = 527;
----------
assign = array1d(1..14 ,[6, 4, 4, 5, 4, 6, 5, 6, 1, 2, 3, 4, 5, 6]);
next = array1d(1..14 ,[14, 5, 2, 13, 12, 1, 4, 6, 10, 11, 3, 7, 8, 9]);
makespan = 511;
----------
assign = array1d(1..14 ,[6, 4, 4, 5, 4, 6, 5, 6, 1, 2, 3, 4, 5, 6]);
next = array1d(1..14 ,[14, 5, 2, 13, 12, 1, 4, 6, 10, 11, 3, 7, 8, 9]);
makespan = 510;
----------
assign = array1d(1..14 ,[6, 3, 3, 5, 3, 6, 5, 6, 1, 2, 3, 4, 5, 6]);
next = array1d(1..14 ,[14, 5, 2, 13, 11, 1, 4, 6, 10, 3, 12, 7, 8, 9]);
makespan = 508;
----------
assign = array1d(1..14 ,[6, 3, 3, 5, 3, 6, 5, 6, 1, 2, 3, 4, 5, 6]);
next = array1d(1..14 ,[14, 5, 2, 13, 11, 1, 4, 6, 10, 3, 12, 7, 8, 9]);
makespan = 504;
----------
assign = array1d(1..14 ,[1, 3, 3, 5, 3, 6, 5, 6, 1, 2, 3, 4, 5, 6]);
next = array1d(1..14 ,[9, 5, 2, 13, 11, 14, 4, 6, 10, 3, 12, 7, 8, 1]);
makespan = 480;
----------
assign = array1d(1..14 ,[1, 3, 3, 5, 3, 6, 5, 6, 1, 2, 3, 4, 5, 6]);
next = array1d(1..14 ,[9, 5, 2, 13, 11, 14, 4, 6, 10, 3, 12, 7, 8, 1]);
makespan = 457;
----------
assign = array1d(1..14 ,[1, 5, 4, 3, 5, 6, 3, 6, 1, 2, 3, 4, 5, 6]);
next = array1d(1..14 ,[9, 5, 12, 11, 13, 14, 4, 6, 10, 7, 3, 2, 8, 1]);
makespan = 453;
----------
assign = array1d(1..14 ,[2, 6, 5, 1, 6, 1, 5, 1, 1, 2, 3, 4, 5, 6]);
next = array1d(1..14 ,[10, 5, 13, 6, 14, 9, 3, 4, 1, 11, 12, 7, 2, 8]);
makespan = 449;
----------
assign = array1d(1..14 ,[2, 6, 6, 1, 5, 1, 5, 1, 1, 2, 3, 4, 5, 6]);
next = array1d(1..14 ,[10, 14, 2, 6, 7, 9, 13, 4, 1, 11, 12, 5, 3, 8]);
makespan = 445;
----------
assign = array1d(1..14 ,[6, 2, 3, 1, 2, 1, 6, 1, 1, 2, 3, 4, 5, 6]);
next = array1d(1..14 ,[7, 5, 11, 6, 10, 9, 14, 4, 2, 3, 12, 13, 1, 8]);
makespan = 440;
----------
assign = array1d(1..14 ,[4, 2, 2, 6, 5, 3, 5, 6, 1, 2, 3, 4, 5, 6]);
next = array1d(1..14 ,[12, 10, 2, 14, 7, 11, 13, 4, 3, 6, 1, 5, 8, 9]);
makespan = 429;
----------
assign = array1d(1..14 ,[5, 4, 5, 2, 6, 2, 6, 1, 1, 2, 3, 4, 5, 6]);
next = array1d(1..14 ,[3, 12, 13, 6, 7, 10, 14, 9, 4, 11, 2, 1, 5, 8]);
makespan = 419;
----------
assign = array1d(1..14 ,[5, 5, 4, 6, 3, 6, 3, 4, 1, 2, 3, 4, 5, 6]);
next = array1d(1..14 ,[2, 13, 8, 6, 7, 14, 11, 12, 10, 5, 3, 1, 4, 9]);
makespan = 412;
----------
assign = array1d(1..14 ,[4, 5, 5, 6, 3, 6, 3, 4, 1, 2, 3, 4, 5, 6]);
next = array1d(1..14 ,[8, 13, 2, 6, 7, 14, 11, 12, 10, 5, 1, 3, 4, 9]);
makespan = 400;
----------
assign = array1d(1..14 ,[4, 5, 5, 6, 3, 6, 3, 4, 1, 2, 3, 4, 5, 6]);
next = array1d(1..14 ,[8, 13, 2, 6, 7, 14, 11, 12, 10, 5, 1, 3, 4, 9]);
makespan = 388;
----------
assign = array1d(1..14 ,[4, 5, 5, 6, 3, 6, 3, 4, 1, 2, 3, 4, 5, 6]);
next = array1d(1..14 ,[8, 13, 2, 6, 7, 14, 11, 12, 10, 5, 1, 3, 4, 9]);
makespan = 387;
----------
assign = array1d(1..14 ,[4, 5, 5, 6, 3, 6, 3, 4, 1, 2, 3, 4, 5, 6]);
next = array1d(1..14 ,[8, 13, 2, 6, 7, 14, 11, 12, 10, 5, 1, 3, 4, 9]);
makespan = 378;
----------
assign = array1d(1..14 ,[4, 5, 5, 6, 3, 6, 3, 4, 1, 2, 3, 4, 5, 6]);
next = array1d(1..14 ,[8, 13, 2, 6, 7, 14, 11, 12, 10, 5, 1, 3, 4, 9]);
makespan = 375;
----------
assign = array1d(1..14 ,[4, 5, 5, 6, 3, 6, 3, 4, 1, 2, 3, 4, 5, 6]);
next = array1d(1..14 ,[8, 13, 2, 6, 7, 14, 11, 12, 10, 5, 1, 3, 4, 9]);
makespan = 363;
----------
assign = array1d(1..14 ,[4, 5, 5, 6, 3, 6, 3, 4, 1, 2, 3, 4, 5, 6]);
next = array1d(1..14 ,[8, 13, 2, 6, 7, 14, 11, 12, 10, 5, 1, 3, 4, 9]);
makespan = 360;
----------
assign = array1d(1..14 ,[4, 5, 5, 6, 3, 6, 3, 4, 1, 2, 3, 4, 5, 6]);
next = array1d(1..14 ,[8, 13, 2, 6, 7, 14, 11, 12, 10, 5, 1, 3, 4, 9]);
makespan = 356;
----------
assign = array1d(1..14 ,[4, 5, 5, 6, 3, 6, 3, 4, 1, 2, 3, 4, 5, 6]);
next = array1d(1..14 ,[8, 13, 2, 6, 7, 14, 11, 12, 10, 5, 1, 3, 4, 9]);
makespan = 347;
----------
assign = array1d(1..14 ,[4, 5, 5, 6, 3, 6, 3, 4, 1, 2, 3, 4, 5, 6]);
next = array1d(1..14 ,[8, 13, 2, 6, 7, 14, 11, 12, 10, 5, 1, 3, 4, 9]);
makespan = 344;
----------
assign = array1d(1..14 ,[4, 5, 5, 6, 3, 6, 3, 4, 1, 2, 3, 4, 5, 6]);
next = array1d(1..14 ,[8, 13, 2, 6, 7, 14, 11, 12, 10, 5, 1, 3, 4, 9]);
makespan = 341;
----------
assign = array1d(1..14 ,[4, 5, 5, 6, 3, 6, 3, 4, 1, 2, 3, 4, 5, 6]);
next = array1d(1..14 ,[8, 13, 2, 6, 7, 14, 11, 12, 10, 5, 1, 3, 4, 9]);
makespan = 337;
----------
assign = array1d(1..14 ,[4, 5, 5, 6, 3, 6, 3, 4, 1, 2, 3, 4, 5, 6]);
next = array1d(1..14 ,[8, 13, 2, 6, 7, 14, 11, 12, 10, 5, 1, 3, 4, 9]);
makespan = 328;
----------
assign = array1d(1..14 ,[4, 5, 5, 6, 3, 6, 3, 4, 1, 2, 3, 4, 5, 6]);
next = array1d(1..14 ,[8, 13, 2, 6, 7, 14, 11, 12, 10, 5, 1, 3, 4, 9]);
makespan = 326;
----------
assign = array1d(1..14 ,[4, 5, 5, 6, 3, 6, 3, 4, 1, 2, 3, 4, 5, 6]);
next = array1d(1..14 ,[8, 13, 2, 6, 7, 14, 11, 12, 10, 5, 1, 3, 4, 9]);
makespan = 325;
----------
assign = array1d(1..14 ,[4, 5, 5, 6, 3, 6, 3, 4, 1, 2, 3, 4, 5, 6]);
next = array1d(1..14 ,[8, 13, 2, 6, 7, 14, 11, 12, 10, 5, 1, 3, 4, 9]);
makespan = 319;
----------
assign = array1d(1..14 ,[4, 2, 5, 6, 3, 6, 3, 4, 1, 2, 3, 4, 5, 6]);
next = array1d(1..14 ,[8, 10, 13, 6, 7, 14, 11, 12, 2, 5, 1, 3, 4, 9]);
makespan = 317;
----------
assign = array1d(1..14 ,[4, 6, 4, 5, 3, 5, 3, 6, 1, 2, 3, 4, 5, 6]);
next = array1d(1..14 ,[3, 14, 12, 6, 7, 13, 11, 2, 10, 5, 1, 4, 8, 9]);
makespan = 316;
----------
assign = array1d(1..14 ,[4, 3, 6, 5, 3, 5, 6, 4, 1, 2, 3, 4, 5, 6]);
next = array1d(1..14 ,[8, 5, 14, 6, 11, 13, 3, 12, 10, 2, 1, 4, 7, 9]);
makespan = 314;
----------
assign = array1d(1..14 ,[6, 4, 3, 5, 4, 5, 3, 6, 1, 2, 3, 4, 5, 6]);
next = array1d(1..14 ,[14, 5, 11, 6, 12, 13, 3, 1, 10, 7, 2, 4, 8, 9]);
makespan = 311;
----------
assign = array1d(1..14 ,[6, 3, 6, 4, 5, 4, 5, 3, 1, 2, 3, 4, 5, 6]);
next = array1d(1..14 ,[14, 8, 1, 6, 7, 12, 13, 11, 10, 2, 4, 5, 3, 9]);
makespan = 310;
----------
assign = array1d(1..14 ,[6, 6, 4, 1, 5, 1, 5, 4, 1, 2, 3, 4, 5, 6]);
next = array1d(1..14 ,[14, 1, 8, 6, 13, 9, 5, 12, 10, 11, 3, 7, 2, 4]);
makespan = 309;
----------
assign = array1d(1..14 ,[6, 4, 5, 4, 2, 3, 5, 6, 1, 2, 3, 4, 5, 6]);
next = array1d(1..14 ,[8, 12, 13, 2, 10, 11, 3, 14, 5, 6, 4, 7, 1, 9]);
makespan = 308;
----------
assign = array1d(1..14 ,[5, 4, 6, 4, 3, 5, 3, 6, 1, 2, 3, 4, 5, 6]);
next = array1d(1..14 ,[13, 12, 8, 2, 11, 1, 5, 14, 10, 7, 4, 6, 3, 9]);
makespan = 306;
----------
assign = array1d(1..14 ,[5, 4, 5, 4, 3, 6, 3, 6, 1, 2, 3, 4, 5, 6]);
next = array1d(1..14 ,[3, 12, 13, 2, 11, 8, 5, 14, 10, 7, 4, 1, 6, 9]);
makespan = 304;
----------
assign = array1d(1..14 ,[3, 4, 6, 2, 4, 6, 5, 5, 1, 2, 3, 4, 5, 6]);
next = array1d(1..14 ,[11, 5, 6, 10, 12, 14, 8, 13, 4, 1, 2, 7, 3, 9]);
makespan = 302;
----------
assign = array1d(1..14 ,[4, 6, 2, 1, 5, 4, 5, 6, 1, 2, 3, 4, 5, 6]);
next = array1d(1..14 ,[12, 14, 10, 9, 7, 1, 13, 2, 3, 11, 6, 5, 8, 4]);
makespan = 301;
----------
assign = array1d(1..14 ,[6, 6, 2, 3, 3, 1, 5, 5, 1, 2, 3, 4, 5, 6]);
next = array1d(1..14 ,[14, 1, 10, 11, 4, 9, 8, 13, 3, 5, 12, 7, 2, 6]);
makespan = 300;
----------
assign = array1d(1..14 ,[6, 6, 2, 3, 3, 4, 5, 5, 1, 2, 3, 4, 5, 6]);
next = array1d(1..14 ,[14, 1, 10, 11, 4, 12, 8, 13, 3, 5, 6, 7, 2, 9]);
makespan = 299;
----------
assign = array1d(1..14 ,[2, 4, 3, 6, 4, 3, 5, 5, 1, 2, 3, 4, 5, 6]);
next = array1d(1..14 ,[10, 5, 6, 14, 12, 11, 8, 13, 1, 3, 2, 7, 4, 9]);
makespan = 298;
----------
assign = array1d(1..14 ,[3, 4, 1, 6, 4, 1, 5, 5, 1, 2, 3, 4, 5, 6]);
next = array1d(1..14 ,[11, 5, 6, 14, 12, 9, 8, 13, 10, 1, 2, 7, 4, 3]);
makespan = 296;
----------
assign = array1d(1..14 ,[2, 4, 5, 6, 4, 5, 3, 3, 1, 2, 3, 4, 5, 6]);
next = array1d(1..14 ,[10, 5, 6, 14, 12, 13, 8, 11, 1, 7, 2, 3, 4, 9]);
makespan = 294;
----------
assign = array1d(1..14 ,[2, 4, 5, 6, 4, 5, 3, 3, 1, 2, 3, 4, 5, 6]);
next = array1d(1..14 ,[10, 5, 6, 14, 12, 13, 8, 11, 1, 7, 2, 3, 4, 9]);
makespan = 293;
----------
assign = array1d(1..14 ,[3, 4, 6, 3, 4, 6, 1, 1, 1, 2, 3, 4, 5, 6]);
next = array1d(1..14 ,[4, 5, 14, 11, 12, 3, 8, 9, 10, 1, 2, 13, 6, 7]);
makespan = 292;
----------
assign = array1d(1..14 ,[2, 3, 6, 4, 3, 5, 5, 6, 1, 2, 3, 4, 5, 6]);
next = array1d(1..14 ,[10, 5, 14, 12, 11, 7, 13, 3, 1, 2, 4, 6, 8, 9]);
makespan = 291;
----------
assign = array1d(1..14 ,[4, 1, 5, 6, 5, 1, 4, 6, 1, 2, 3, 4, 5, 6]);
next = array1d(1..14 ,[7, 6, 13, 14, 3, 9, 12, 4, 10, 11, 1, 5, 8, 2]);
makespan = 290;
----------
assign = array1d(1..14 ,[4, 1, 5, 6, 3, 1, 4, 6, 1, 2, 3, 4, 5, 6]);
next = array1d(1..14 ,[7, 6, 13, 14, 11, 9, 12, 4, 10, 5, 1, 3, 8, 2]);
makespan = 288;
----------
assign = array1d(1..14 ,[4, 1, 6, 3, 3, 1, 4, 6, 1, 2, 3, 4, 5, 6]);
next = array1d(1..14 ,[7, 6, 14, 11, 4, 9, 12, 3, 10, 5, 1, 13, 8, 2]);
makespan = 287;
----------
assign = array1d(1..14 ,[4, 1, 6, 6, 2, 1, 4, 5, 1, 2, 3, 4, 5, 6]);
next = array1d(1..14 ,[7, 6, 4, 14, 10, 9, 12, 13, 5, 11, 1, 8, 3, 2]);
makespan = 284;
----------
assign = array1d(1..14 ,[4, 1, 6, 6, 2, 1, 4, 5, 1, 2, 3, 4, 5, 6]);
next = array1d(1..14 ,[7, 6, 4, 14, 10, 9, 12, 13, 5, 11, 1, 8, 3, 2]);
makespan = 283;
----------
assign = array1d(1..14 ,[4, 1, 6, 6, 2, 1, 4, 5, 1, 2, 3, 4, 5, 6]);
next = array1d(1..14 ,[7, 6, 4, 14, 10, 9, 12, 13, 5, 11, 1, 8, 3, 2]);
makespan = 280;
----------
assign = array1d(1..14 ,[4, 1, 6, 6, 2, 1, 4, 5, 1, 2, 3, 4, 5, 6]);
next = array1d(1..14 ,[7, 6, 4, 14, 10, 9, 12, 13, 5, 11, 1, 8, 3, 2]);
makespan = 279;
----------
assign = array1d(1..14 ,[4, 1, 6, 6, 2, 1, 4, 5, 1, 2, 3, 4, 5, 6]);
next = array1d(1..14 ,[7, 6, 4, 14, 10, 9, 12, 13, 5, 11, 1, 8, 3, 2]);
makespan = 277;
----------
assign = array1d(1..14 ,[4, 1, 6, 6, 2, 1, 4, 5, 1, 2, 3, 4, 5, 6]);
next = array1d(1..14 ,[7, 6, 4, 14, 10, 9, 12, 13, 5, 11, 1, 8, 3, 2]);
makespan = 276;
----------
assign = array1d(1..14 ,[4, 1, 6, 6, 2, 1, 4, 5, 1, 2, 3, 4, 5, 6]);
next = array1d(1..14 ,[7, 6, 4, 14, 10, 9, 12, 13, 5, 11, 1, 8, 3, 2]);
makespan = 273;
----------
assign = array1d(1..14 ,[4, 1, 6, 6, 2, 1, 4, 5, 1, 2, 3, 4, 5, 6]);
next = array1d(1..14 ,[7, 6, 4, 14, 10, 9, 12, 13, 5, 11, 1, 8, 3, 2]);
makespan = 271;
----------
assign = array1d(1..14 ,[4, 1, 6, 6, 2, 2, 4, 1, 1, 2, 3, 4, 5, 6]);
next = array1d(1..14 ,[7, 8, 4, 14, 10, 5, 12, 9, 6, 11, 1, 13, 3, 2]);
makespan = 270;
----------
assign = array1d(1..14 ,[5, 1, 4, 6, 2, 2, 3, 1, 1, 2, 3, 4, 5, 6]);
next = array1d(1..14 ,[13, 8, 12, 14, 10, 5, 11, 9, 6, 7, 3, 1, 4, 2]);
makespan = 269;
----------
assign = array1d(1..14 ,[4, 1, 5, 2, 6, 5, 4, 3, 1, 2, 3, 4, 5, 6]);
next = array1d(1..14 ,[7, 9, 6, 10, 14, 13, 12, 11, 4, 8, 1, 3, 5, 2]);
makespan = 267;
----------
assign = array1d(1..14 ,[3, 6, 5, 1, 4, 1, 2, 5, 1, 2, 3, 4, 5, 6]);
next = array1d(1..14 ,[11, 14, 8, 6, 12, 9, 10, 13, 7, 1, 5, 3, 2, 4]);
makespan = 263;
----------
assign = array1d(1..14 ,[5, 3, 6, 1, 4, 1, 2, 6, 1, 2, 3, 4, 5, 6]);
next = array1d(1..14 ,[13, 11, 14, 9, 12, 4, 10, 3, 7, 2, 5, 1, 8, 6]);
makespan = 259;
----------
assign = array1d(1..14 ,[5, 3, 3, 6, 2, 2, 1, 4, 1, 2, 3, 4, 5, 6]);
next = array1d(1..14 ,[13, 11, 2, 14, 10, 5, 9, 12, 6, 3, 8, 1, 4, 7]);
makespan = 258;
----------
assign = array1d(1..14 ,[4, 3, 3, 1, 6, 2, 5, 1, 1, 2, 3, 4, 5, 6]);
next = array1d(1..14 ,[12, 11, 2, 9, 14, 10, 13, 4, 6, 3, 1, 7, 5, 8]);
makespan = 257;
----------
assign = array1d(1..14 ,[3, 5, 6, 1, 2, 1, 4, 6, 1, 2, 3, 4, 5, 6]);
next = array1d(1..14 ,[11, 13, 8, 6, 10, 9, 12, 14, 5, 1, 7, 2, 3, 4]);
makespan = 256;
----------
assign = array1d(1..14 ,[2, 6, 3, 1, 3, 5, 4, 1, 1, 2, 3, 4, 5, 6]);
next = array1d(1..14 ,[10, 14, 11, 9, 3, 13, 12, 4, 1, 5, 7, 6, 2, 8]);
makespan = 254;
----------
assign = array1d(1..14 ,[4, 1, 1, 6, 2, 2, 5, 3, 1, 2, 3, 4, 5, 6]);
next = array1d(1..14 ,[12, 9, 2, 14, 10, 5, 13, 11, 6, 8, 1, 7, 4, 3]);
makespan = 253;
----------
assign = array1d(1..14 ,[3, 2, 5, 1, 6, 1, 4, 5, 1, 2, 3, 4, 5, 6]);
next = array1d(1..14 ,[11, 10, 8, 6, 14, 9, 12, 13, 2, 1, 7, 3, 5, 4]);
makespan = 252;
----------
assign = array1d(1..14 ,[6, 2, 5, 1, 3, 5, 4, 1, 1, 2, 3, 4, 5, 6]);
next = array1d(1..14 ,[14, 10, 6, 9, 11, 13, 12, 4, 2, 5, 7, 3, 1, 8]);
makespan = 251;
----------
assign = array1d(1..14 ,[4, 3, 5, 1, 2, 1, 6, 5, 1, 2, 3, 4, 5, 6]);
next = array1d(1..14 ,[12, 11, 8, 6, 10, 9, 14, 13, 5, 2, 1, 3, 7, 4]);
makespan = 250;
----------
assign = array1d(1..14 ,[4, 3, 5, 1, 2, 1, 6, 5, 1, 2, 3, 4, 5, 6]);
next = array1d(1..14 ,[12, 11, 8, 6, 10, 9, 14, 13, 5, 2, 1, 3, 7, 4]);
makespan = 248;
----------
assign = array1d(1..14 ,[4, 6, 5, 1, 3, 5, 2, 1, 1, 2, 3, 4, 5, 6]);
next = array1d(1..14 ,[12, 14, 6, 8, 11, 13, 10, 9, 7, 5, 1, 3, 2, 4]);
makespan = 247;
----------
assign = array1d(1..14 ,[6, 3, 5, 1, 2, 1, 4, 5, 1, 2, 3, 4, 5, 6]);
next = array1d(1..14 ,[14, 11, 8, 6, 10, 9, 12, 13, 5, 2, 7, 3, 1, 4]);
makespan = 246;
----------
assign = array1d(1..14 ,[6, 4, 5, 1, 2, 1, 3, 5, 1, 2, 3, 4, 5, 6]);
next = array1d(1..14 ,[14, 12, 8, 6, 10, 9, 11, 13, 5, 7, 2, 3, 1, 4]);
makespan = 245;
----------
==========
	Command being timed: "mzn-chuffed lbbd-datasets/Rabadi-2006/dzn-s-dominant/model.mzn lbbd-datasets/Rabadi-2006/dzn-s-dominant/8on6Rp50Rs50_5Ameer.dzn"
	User time (seconds): 0.71
	System time (seconds): 0.03
	Percent of CPU this job got: 2%
	Elapsed (wall clock) time (h:mm:ss or m:ss): 0:28.31
	Average shared text size (kbytes): 0
	Average unshared data size (kbytes): 0
	Average stack size (kbytes): 0
	Average total size (kbytes): 0
	Maximum resident set size (kbytes): 44656
	Average resident set size (kbytes): 0
	Major (requiring I/O) page faults: 0
	Minor (reclaiming a frame) page faults: 4237
	Voluntary context switches: 358
	Involuntary context switches: 5
	Swaps: 0
	File system inputs: 0
	File system outputs: 496
	Socket messages sent: 0
	Socket messages received: 0
	Signals delivered: 0
	Page size (bytes): 4096
	Exit status: 0
