+ /usr/bin/timeout 600 /usr/bin/time -v mzn-chuffed lbbd-datasets/Rabadi-2006/dzn-balanced/model.mzn lbbd-datasets/Rabadi-2006/dzn-balanced/11on6Rp50Rs50_15Ameer.dzn
% No search annotation given. Defaulting to VSIDS!
assign = array1d(1..17 ,[6, 6, 6, 6, 6, 6, 6, 6, 6, 6, 6, 1, 2, 3, 4, 5, 6]);
next = array1d(1..17 ,[2, 3, 4, 5, 6, 7, 8, 9, 10, 11, 17, 13, 14, 15, 16, 1, 12]);
makespan = 1543;
----------
assign = array1d(1..17 ,[6, 6, 6, 6, 6, 6, 6, 6, 6, 6, 6, 1, 2, 3, 4, 5, 6]);
next = array1d(1..17 ,[3, 4, 2, 5, 6, 7, 8, 9, 10, 11, 17, 13, 14, 15, 16, 1, 12]);
makespan = 1526;
----------
assign = array1d(1..17 ,[6, 6, 6, 6, 6, 6, 6, 6, 2, 6, 6, 1, 2, 3, 4, 5, 6]);
next = array1d(1..17 ,[8, 6, 7, 5, 1, 10, 2, 17, 13, 4, 3, 9, 14, 15, 16, 11, 12]);
makespan = 1493;
----------
assign = array1d(1..17 ,[6, 6, 6, 6, 6, 6, 5, 6, 6, 6, 6, 1, 2, 3, 4, 5, 6]);
next = array1d(1..17 ,[17, 3, 4, 6, 8, 9, 16, 2, 1, 11, 5, 13, 14, 15, 7, 10, 12]);
makespan = 1492;
----------
assign = array1d(1..17 ,[6, 6, 6, 6, 6, 6, 6, 6, 5, 6, 6, 1, 2, 3, 4, 5, 6]);
next = array1d(1..17 ,[7, 1, 2, 3, 17, 4, 5, 10, 16, 11, 6, 13, 14, 15, 9, 8, 12]);
makespan = 1491;
----------
assign = array1d(1..17 ,[6, 6, 6, 6, 1, 6, 6, 6, 6, 6, 6, 1, 2, 3, 4, 5, 6]);
next = array1d(1..17 ,[3, 10, 6, 2, 12, 9, 8, 11, 17, 1, 4, 13, 14, 15, 16, 7, 5]);
makespan = 1490;
----------
assign = array1d(1..17 ,[6, 6, 6, 6, 6, 6, 6, 6, 6, 6, 2, 1, 2, 3, 4, 5, 6]);
next = array1d(1..17 ,[7, 6, 1, 17, 2, 9, 8, 4, 3, 5, 13, 11, 14, 15, 16, 10, 12]);
makespan = 1485;
----------
assign = array1d(1..17 ,[6, 6, 6, 6, 6, 6, 5, 6, 6, 6, 6, 1, 2, 3, 4, 5, 6]);
next = array1d(1..17 ,[3, 1, 11, 2, 10, 8, 16, 4, 17, 9, 5, 13, 14, 15, 7, 6, 12]);
makespan = 1484;
----------
assign = array1d(1..17 ,[6, 6, 6, 6, 6, 6, 1, 6, 6, 6, 6, 1, 2, 3, 4, 5, 6]);
next = array1d(1..17 ,[6, 17, 10, 5, 1, 8, 12, 11, 3, 4, 2, 13, 14, 15, 16, 9, 7]);
makespan = 1479;
----------
assign = array1d(1..17 ,[6, 6, 6, 6, 6, 6, 5, 6, 6, 6, 6, 1, 2, 3, 4, 5, 6]);
next = array1d(1..17 ,[5, 6, 11, 1, 10, 8, 16, 17, 3, 2, 4, 13, 14, 15, 7, 9, 12]);
makespan = 1475;
----------
assign = array1d(1..17 ,[6, 6, 6, 6, 6, 6, 1, 6, 6, 6, 6, 1, 2, 3, 4, 5, 6]);
next = array1d(1..17 ,[10, 1, 2, 9, 17, 11, 12, 4, 3, 6, 5, 13, 14, 15, 16, 8, 7]);
makespan = 1471;
----------
assign = array1d(1..17 ,[6, 6, 6, 6, 6, 6, 6, 6, 6, 6, 5, 1, 2, 3, 4, 5, 6]);
next = array1d(1..17 ,[2, 6, 1, 3, 10, 9, 8, 17, 5, 7, 16, 13, 14, 15, 11, 4, 12]);
makespan = 1469;
----------
assign = array1d(1..17 ,[6, 6, 6, 6, 6, 6, 1, 6, 6, 6, 6, 1, 2, 3, 4, 5, 6]);
next = array1d(1..17 ,[3, 17, 6, 5, 1, 9, 12, 10, 11, 4, 2, 13, 14, 15, 16, 8, 7]);
makespan = 1468;
----------
assign = array1d(1..17 ,[6, 6, 6, 6, 6, 6, 6, 6, 6, 2, 6, 1, 2, 3, 4, 5, 6]);
next = array1d(1..17 ,[2, 17, 9, 6, 1, 8, 3, 11, 4, 13, 5, 10, 14, 15, 16, 7, 12]);
makespan = 1467;
----------
assign = array1d(1..17 ,[6, 6, 6, 6, 6, 6, 1, 6, 6, 6, 6, 1, 2, 3, 4, 5, 6]);
next = array1d(1..17 ,[10, 1, 8, 5, 17, 9, 12, 2, 11, 4, 3, 13, 14, 15, 16, 6, 7]);
makespan = 1466;
----------
assign = array1d(1..17 ,[6, 6, 6, 6, 6, 6, 6, 6, 6, 6, 4, 1, 2, 3, 4, 5, 6]);
next = array1d(1..17 ,[7, 6, 1, 3, 9, 17, 8, 2, 10, 4, 15, 13, 14, 11, 16, 5, 12]);
makespan = 1465;
----------
assign = array1d(1..17 ,[6, 6, 6, 6, 6, 6, 6, 6, 6, 6, 5, 1, 2, 3, 4, 5, 6]);
next = array1d(1..17 ,[7, 17, 9, 1, 10, 8, 3, 2, 5, 6, 16, 13, 14, 15, 11, 4, 12]);
makespan = 1463;
----------
assign = array1d(1..17 ,[6, 6, 6, 6, 6, 6, 6, 6, 6, 1, 6, 1, 2, 3, 4, 5, 6]);
next = array1d(1..17 ,[8, 6, 4, 9, 3, 11, 17, 2, 7, 12, 5, 13, 14, 15, 16, 1, 10]);
makespan = 1462;
----------
assign = array1d(1..17 ,[6, 6, 6, 6, 6, 6, 6, 6, 6, 5, 6, 1, 2, 3, 4, 5, 6]);
next = array1d(1..17 ,[5, 7, 6, 9, 11, 1, 17, 2, 3, 16, 8, 13, 14, 15, 10, 4, 12]);
makespan = 1456;
----------
assign = array1d(1..17 ,[6, 6, 6, 6, 6, 6, 6, 6, 6, 6, 1, 1, 2, 3, 4, 5, 6]);
next = array1d(1..17 ,[8, 7, 17, 9, 4, 5, 3, 2, 10, 1, 12, 13, 14, 15, 16, 6, 11]);
makespan = 1454;
----------
assign = array1d(1..17 ,[6, 6, 6, 6, 6, 6, 6, 6, 6, 6, 3, 1, 2, 3, 4, 5, 6]);
next = array1d(1..17 ,[3, 9, 4, 7, 10, 8, 17, 2, 1, 6, 14, 13, 11, 15, 16, 5, 12]);
makespan = 1453;
----------
assign = array1d(1..17 ,[6, 6, 6, 6, 6, 6, 6, 6, 6, 5, 6, 1, 2, 3, 4, 5, 6]);
next = array1d(1..17 ,[8, 1, 11, 5, 2, 9, 4, 17, 7, 16, 6, 13, 14, 15, 10, 3, 12]);
makespan = 1452;
----------
assign = array1d(1..17 ,[6, 6, 6, 6, 6, 6, 6, 6, 6, 5, 6, 1, 2, 3, 4, 5, 6]);
next = array1d(1..17 ,[7, 8, 6, 5, 2, 9, 17, 1, 4, 16, 3, 13, 14, 15, 10, 11, 12]);
makespan = 1451;
----------
assign = array1d(1..17 ,[6, 6, 6, 6, 6, 6, 6, 6, 6, 3, 6, 1, 2, 3, 4, 5, 6]);
next = array1d(1..17 ,[5, 1, 6, 8, 7, 11, 3, 2, 17, 14, 9, 13, 10, 15, 16, 4, 12]);
makespan = 1448;
----------
assign = array1d(1..17 ,[6, 6, 6, 6, 6, 6, 6, 6, 6, 5, 6, 1, 2, 3, 4, 5, 6]);
next = array1d(1..17 ,[6, 1, 4, 7, 17, 5, 8, 2, 11, 16, 3, 13, 14, 15, 10, 9, 12]);
makespan = 1447;
----------
assign = array1d(1..17 ,[6, 6, 6, 6, 6, 6, 6, 6, 6, 1, 6, 1, 2, 3, 4, 5, 6]);
next = array1d(1..17 ,[2, 6, 17, 8, 1, 9, 4, 11, 3, 12, 5, 13, 14, 15, 16, 7, 10]);
makespan = 1446;
----------
