+ /usr/bin/timeout 600 /usr/bin/time -v mzn-chuffed lbbd-datasets/planningandscheduling/makespan-insts/model.mzn lbbd-datasets/planningandscheduling/makespan-insts/c38j2m4.dzn
% No search annotation given. Defaulting to VSIDS!
obj = 95
----------
obj = 94
----------
obj = 93
----------
obj = 92
----------
obj = 91
----------
obj = 90
----------
obj = 89
----------
obj = 88
----------
obj = 87
----------
obj = 86
----------
obj = 85
----------
obj = 84
----------
obj = 83
----------
obj = 82
----------
obj = 81
----------
obj = 80
----------
obj = 79
----------
obj = 78
----------
obj = 77
----------
obj = 76
----------
obj = 75
----------
obj = 74
----------
obj = 73
----------
obj = 72
----------
obj = 71
----------
obj = 70
----------
obj = 69
----------
obj = 68
----------
obj = 67
----------
obj = 66
----------
obj = 65
----------
obj = 64
----------
obj = 63
----------
obj = 62
----------
obj = 61
----------
obj = 60
----------
obj = 59
----------
obj = 58
----------
obj = 57
----------
obj = 56
----------
obj = 55
----------
obj = 54
----------
obj = 53
----------
obj = 52
----------
obj = 51
----------
obj = 50
----------
obj = 49
----------
obj = 48
----------
obj = 47
----------
obj = 46
----------
obj = 45
----------
obj = 44
----------
obj = 43
----------
