+ /usr/bin/timeout 600 /usr/bin/time -v mzn-chuffed lbbd-datasets/planningandscheduling/cost-insts/model.mzn lbbd-datasets/planningandscheduling/cost-insts/c10j4m3.dzn
% No search annotation given. Defaulting to VSIDS!
obj = 549
----------
obj = 515
----------
obj = 501
----------
obj = 488
----------
obj = 483
----------
obj = 470
----------
obj = 464
----------
obj = 459
----------
obj = 446
----------
obj = 434
----------
obj = 421
----------
obj = 410
----------
obj = 397
----------
obj = 389
----------
obj = 376
----------
obj = 366
----------
obj = 353
----------
obj = 331
----------
obj = 321
----------
obj = 318
----------
obj = 315
----------
obj = 304
----------
obj = 291
----------
obj = 287
----------
obj = 269
----------
obj = 264
----------
obj = 251
----------
obj = 247
----------
==========
	Command being timed: "mzn-chuffed lbbd-datasets/planningandscheduling/cost-insts/model.mzn lbbd-datasets/planningandscheduling/cost-insts/c10j4m3.dzn"
	User time (seconds): 0.17
	System time (seconds): 0.00
	Percent of CPU this job got: 89%
	Elapsed (wall clock) time (h:mm:ss or m:ss): 0:00.20
	Average shared text size (kbytes): 0
	Average unshared data size (kbytes): 0
	Average stack size (kbytes): 0
	Average total size (kbytes): 0
	Maximum resident set size (kbytes): 27904
	Average resident set size (kbytes): 0
	Major (requiring I/O) page faults: 0
	Minor (reclaiming a frame) page faults: 2366
	Voluntary context switches: 35
	Involuntary context switches: 4
	Swaps: 0
	File system inputs: 0
	File system outputs: 64
	Socket messages sent: 0
	Socket messages received: 0
	Signals delivered: 0
	Page size (bytes): 4096
	Exit status: 0
