+ /usr/bin/timeout 600 /usr/bin/time -v mzn-chuffed lbbd-datasets/sscplp/trucks-dzn/model.mzn lbbd-datasets/sscplp/trucks-dzn/p15-l50-c150-correlated.dzn
% No search annotation given. Defaulting to VSIDS!
source = [14, 14, 15, 15, 15, 12, 12, 2, 15, 11, 4, 15, 4, 4, 7, 10, 8, 7, 7, 5, 9, 6, 3, 12, 14, 14, 3, 14, 3, 4]
open = [false, true, true, true, true, true, true, true, true, true, true, true, false, true, true]
trucks_used = [0, 1, 3, 4, 1, 1, 3, 1, 1, 1, 1, 3, 0, 5, 5]
truck_assigned = [3, 5, 5, 2, 3, 2, 3, 1, 4, 1, 4, 2, 3, 2, 3, 1, 1, 3, 2, 1, 1, 1, 1, 1, 4, 2, 2, 3, 3, 4]
obj = 15981
----------
source = [5, 14, 15, 15, 15, 6, 12, 5, 15, 12, 4, 15, 4, 4, 4, 14, 14, 4, 6, 12, 4, 12, 3, 3, 14, 14, 7, 3, 3, 4]
open = [false, false, true, true, true, true, true, false, false, false, false, true, false, true, true]
trucks_used = [0, 0, 4, 7, 2, 2, 1, 0, 0, 0, 0, 4, 0, 5, 5]
truck_assigned = [2, 3, 2, 3, 4, 1, 4, 2, 5, 4, 5, 3, 7, 6, 2, 2, 1, 1, 2, 3, 4, 3, 3, 1, 5, 4, 1, 2, 4, 6]
obj = 12573
----------
source = [5, 5, 4, 12, 4, 14, 3, 14, 6, 3, 4, 12, 4, 4, 12, 12, 4, 4, 12, 3, 4, 5, 14, 6, 14, 14, 15, 15, 12, 4]
open = [false, false, true, true, true, true, false, false, false, false, false, true, false, true, true]
trucks_used = [0, 0, 3, 9, 3, 2, 0, 0, 0, 0, 0, 6, 0, 5, 2]
truck_assigned = [3, 2, 3, 6, 7, 2, 1, 5, 2, 3, 4, 1, 9, 8, 4, 5, 5, 7, 6, 3, 6, 2, 4, 1, 1, 3, 2, 2, 3, 8]
obj = 11979
----------
source = [1, 4, 5, 12, 5, 4, 15, 15, 9, 13, 13, 12, 4, 1, 12, 12, 4, 4, 5, 5, 4, 5, 12, 14, 4, 5, 14, 4, 12, 2]
open = [true, true, false, true, true, false, false, false, true, false, false, true, true, true, true]
trucks_used = [2, 1, 0, 8, 5, 0, 0, 0, 1, 0, 0, 6, 2, 2, 2]
truck_assigned = [1, 6, 4, 6, 5, 7, 2, 1, 1, 2, 1, 3, 8, 2, 4, 1, 4, 6, 2, 5, 2, 4, 6, 1, 7, 3, 2, 5, 5, 1]
obj = 11959
----------
source = [12, 14, 5, 4, 4, 4, 1, 13, 5, 9, 12, 5, 4, 13, 12, 9, 15, 4, 5, 15, 4, 13, 5, 14, 4, 5, 15, 4, 4, 12]
open = [true, false, false, true, true, false, false, false, true, false, false, true, true, true, true]
trucks_used = [1, 0, 0, 9, 6, 0, 0, 0, 2, 0, 0, 4, 3, 2, 3]
truck_assigned = [4, 2, 4, 5, 1, 9, 1, 2, 4, 2, 3, 3, 8, 2, 3, 1, 3, 4, 6, 3, 4, 3, 5, 1, 9, 5, 2, 6, 7, 2]
obj = 11429
----------
source = [13, 7, 8, 12, 14, 12, 15, 15, 14, 8, 7, 12, 12, 10, 8, 13, 12, 12, 8, 11, 14, 9, 9, 14, 12, 15, 11, 12, 12, 10]
open = [false, false, false, false, false, false, true, true, true, true, true, true, true, true, true]
trucks_used = [0, 0, 0, 0, 0, 0, 2, 2, 2, 2, 1, 8, 2, 3, 3]
truck_assigned = [2, 2, 2, 1, 1, 2, 1, 3, 3, 2, 2, 7, 6, 2, 2, 2, 4, 4, 1, 1, 2, 1, 2, 2, 3, 2, 1, 5, 8, 2]
obj = 11427
----------
source = [13, 7, 8, 12, 14, 14, 15, 15, 14, 8, 11, 12, 12, 10, 8, 13, 12, 12, 8, 12, 14, 9, 12, 7, 15, 15, 11, 12, 9, 10]
open = [false, false, false, false, false, false, true, true, true, true, true, true, true, true, true]
trucks_used = [0, 0, 0, 0, 0, 0, 2, 2, 2, 2, 1, 7, 2, 3, 4]
truck_assigned = [2, 2, 2, 4, 1, 3, 2, 4, 2, 1, 1, 3, 7, 2, 1, 2, 4, 6, 2, 7, 3, 2, 6, 2, 4, 3, 1, 5, 1, 2]
obj = 11423
----------
source = [13, 7, 8, 12, 14, 14, 15, 15, 14, 8, 11, 12, 12, 10, 8, 13, 12, 12, 8, 12, 12, 9, 12, 7, 15, 15, 11, 12, 9, 10]
open = [false, false, false, false, false, false, true, true, true, true, true, true, true, true, true]
trucks_used = [0, 0, 0, 0, 0, 0, 2, 2, 2, 2, 1, 7, 2, 3, 4]
truck_assigned = [2, 2, 2, 4, 1, 3, 2, 4, 2, 1, 1, 5, 3, 2, 1, 2, 7, 7, 2, 6, 2, 2, 4, 2, 4, 3, 1, 6, 1, 2]
obj = 11422
----------
source = [13, 7, 8, 12, 12, 12, 15, 15, 14, 8, 7, 12, 12, 10, 8, 13, 12, 12, 8, 11, 14, 9, 9, 14, 15, 15, 11, 12, 8, 10]
open = [false, false, false, false, false, false, true, true, true, true, true, true, true, true, true]
trucks_used = [0, 0, 0, 0, 0, 0, 2, 2, 2, 2, 1, 7, 2, 3, 4]
truck_assigned = [2, 2, 1, 4, 1, 3, 2, 3, 3, 1, 2, 5, 2, 2, 2, 2, 7, 7, 2, 1, 2, 2, 1, 2, 3, 4, 1, 6, 1, 1]
obj = 11420
----------
source = [9, 7, 8, 12, 14, 12, 15, 15, 14, 8, 11, 12, 12, 10, 8, 13, 12, 9, 8, 13, 14, 11, 7, 14, 15, 15, 12, 12, 8, 10]
open = [false, false, false, false, false, false, true, true, true, true, true, true, true, true, true]
trucks_used = [0, 0, 0, 0, 0, 0, 2, 2, 2, 2, 1, 7, 2, 3, 4]
truck_assigned = [2, 2, 1, 7, 1, 4, 2, 3, 3, 1, 1, 5, 3, 2, 2, 2, 7, 1, 2, 2, 1, 1, 2, 2, 3, 4, 1, 6, 1, 1]
obj = 11414
----------
source = [13, 7, 8, 9, 12, 12, 15, 15, 14, 8, 11, 12, 12, 10, 8, 13, 12, 9, 14, 11, 12, 9, 7, 14, 15, 15, 12, 12, 8, 10]
open = [false, false, false, false, false, false, true, true, true, true, true, true, true, true, true]
trucks_used = [0, 0, 0, 0, 0, 0, 2, 2, 2, 2, 1, 7, 2, 3, 4]
truck_assigned = [2, 2, 2, 1, 2, 5, 2, 3, 3, 1, 1, 6, 4, 2, 2, 2, 7, 2, 1, 1, 1, 2, 2, 2, 3, 4, 7, 3, 2, 2]
obj = 11413
----------
source = [13, 7, 8, 9, 14, 12, 15, 15, 14, 8, 11, 12, 12, 10, 8, 13, 12, 9, 8, 11, 12, 9, 7, 14, 15, 15, 12, 12, 8, 10]
open = [false, false, false, false, false, false, true, true, true, true, true, true, true, true, true]
trucks_used = [0, 0, 0, 0, 0, 0, 2, 2, 2, 2, 1, 7, 2, 3, 4]
truck_assigned = [2, 2, 2, 1, 1, 5, 2, 3, 3, 1, 1, 6, 2, 2, 2, 2, 7, 2, 1, 1, 4, 2, 1, 2, 3, 4, 7, 3, 2, 2]
obj = 11409
----------
source = [13, 7, 8, 9, 14, 12, 15, 15, 14, 8, 11, 12, 12, 10, 8, 13, 12, 12, 7, 11, 12, 9, 7, 14, 15, 15, 12, 12, 8, 10]
open = [false, false, false, false, false, false, true, true, true, true, true, true, true, true, true]
trucks_used = [0, 0, 0, 0, 0, 0, 2, 2, 2, 2, 1, 7, 2, 3, 4]
truck_assigned = [2, 2, 2, 1, 1, 6, 2, 3, 3, 1, 1, 2, 5, 2, 2, 2, 3, 3, 1, 1, 7, 2, 2, 2, 3, 4, 7, 4, 2, 1]
obj = 11406
----------
source = [13, 7, 8, 12, 12, 12, 15, 15, 14, 8, 7, 12, 12, 10, 8, 13, 12, 9, 14, 11, 12, 9, 12, 14, 15, 15, 11, 12, 8, 10]
open = [false, false, false, false, false, false, true, true, true, true, true, true, true, true, true]
trucks_used = [0, 0, 0, 0, 0, 0, 2, 2, 2, 2, 1, 7, 2, 3, 4]
truck_assigned = [2, 2, 2, 1, 2, 7, 2, 3, 3, 1, 2, 4, 6, 2, 2, 2, 5, 2, 1, 1, 5, 2, 1, 2, 3, 4, 1, 3, 2, 2]
obj = 11405
----------
source = [13, 7, 8, 12, 14, 12, 15, 15, 14, 8, 7, 12, 12, 10, 8, 13, 12, 9, 8, 11, 12, 9, 12, 14, 15, 15, 11, 12, 8, 10]
open = [false, false, false, false, false, false, true, true, true, true, true, true, true, true, true]
trucks_used = [0, 0, 0, 0, 0, 0, 2, 2, 2, 2, 1, 7, 2, 3, 4]
truck_assigned = [2, 2, 2, 4, 1, 7, 2, 3, 3, 1, 2, 3, 2, 2, 2, 2, 6, 2, 1, 1, 6, 2, 4, 2, 3, 4, 1, 5, 2, 1]
obj = 11401
----------
source = [13, 7, 8, 12, 14, 14, 15, 15, 14, 8, 11, 12, 12, 10, 8, 13, 12, 9, 8, 11, 12, 9, 12, 7, 15, 15, 12, 12, 8, 10]
open = [false, false, false, false, false, false, true, true, true, true, true, true, true, true, true]
trucks_used = [0, 0, 0, 0, 0, 0, 2, 2, 2, 2, 1, 7, 2, 3, 4]
truck_assigned = [2, 2, 2, 6, 2, 1, 2, 3, 3, 1, 1, 5, 3, 2, 2, 2, 7, 2, 1, 1, 7, 2, 6, 2, 3, 4, 2, 4, 2, 1]
obj = 11400
----------
source = [8, 12, 9, 11, 10, 14, 15, 15, 14, 12, 11, 12, 12, 10, 8, 13, 12, 8, 14, 13, 12, 11, 12, 7, 15, 15, 9, 12, 8, 7]
open = [false, false, false, false, false, false, true, true, true, true, true, true, true, true, true]
trucks_used = [0, 0, 0, 0, 0, 0, 2, 2, 2, 2, 1, 7, 2, 3, 4]
truck_assigned = [1, 4, 1, 1, 1, 3, 2, 3, 2, 2, 1, 3, 5, 2, 2, 2, 4, 1, 1, 2, 7, 1, 7, 2, 3, 4, 2, 6, 2, 2]
obj = 11389
----------
source = [8, 12, 9, 11, 10, 14, 15, 15, 14, 12, 11, 12, 12, 10, 8, 13, 12, 7, 14, 13, 12, 11, 12, 7, 15, 15, 9, 12, 8, 7]
open = [false, false, false, false, false, false, true, true, true, true, true, true, true, true, true]
trucks_used = [0, 0, 0, 0, 0, 0, 2, 2, 2, 2, 1, 7, 2, 3, 4]
truck_assigned = [1, 5, 1, 1, 1, 1, 2, 3, 2, 4, 1, 3, 6, 2, 2, 2, 5, 2, 3, 2, 2, 1, 4, 1, 3, 4, 2, 7, 2, 1]
obj = 11386
----------
source = [13, 12, 12, 11, 9, 14, 15, 15, 14, 12, 11, 12, 12, 9, 8, 13, 14, 7, 8, 10, 10, 9, 12, 7, 15, 15, 11, 12, 8, 7]
open = [false, false, false, false, false, false, true, true, true, true, true, true, true, true, true]
trucks_used = [0, 0, 0, 0, 0, 0, 2, 2, 2, 2, 1, 7, 2, 3, 4]
truck_assigned = [2, 6, 2, 1, 1, 3, 2, 3, 2, 5, 1, 3, 4, 2, 2, 2, 1, 2, 1, 2, 2, 1, 6, 1, 3, 4, 1, 7, 2, 2]
obj = 11385
----------
source = [8, 12, 9, 11, 7, 14, 15, 15, 14, 12, 11, 12, 12, 9, 8, 13, 12, 8, 14, 10, 10, 11, 12, 7, 15, 15, 13, 12, 8, 7]
open = [false, false, false, false, false, false, true, true, true, true, true, true, true, true, true]
trucks_used = [0, 0, 0, 0, 0, 0, 2, 2, 2, 2, 1, 7, 2, 3, 4]
truck_assigned = [1, 4, 1, 1, 2, 1, 2, 3, 2, 7, 1, 6, 5, 2, 2, 2, 4, 1, 3, 2, 2, 1, 7, 1, 3, 4, 2, 3, 2, 2]
obj = 11382
----------
source = [10, 12, 9, 11, 7, 14, 15, 15, 14, 9, 11, 12, 12, 12, 8, 13, 12, 8, 14, 12, 10, 9, 11, 7, 15, 15, 13, 12, 8, 7]
open = [false, false, false, false, false, false, true, true, true, true, true, true, true, true, true]
trucks_used = [0, 0, 0, 0, 0, 0, 2, 2, 2, 2, 1, 7, 2, 3, 4]
truck_assigned = [2, 6, 2, 1, 2, 1, 2, 3, 2, 1, 1, 7, 4, 2, 2, 2, 6, 1, 3, 7, 2, 1, 1, 1, 3, 4, 2, 5, 2, 2]
obj = 11378
----------
source = [13, 12, 9, 11, 9, 14, 15, 15, 14, 8, 11, 12, 12, 14, 8, 13, 12, 11, 8, 12, 10, 9, 12, 7, 15, 15, 10, 12, 8, 7]
open = [false, false, false, false, false, false, true, true, true, true, true, true, true, true, true]
trucks_used = [0, 0, 0, 0, 0, 0, 2, 2, 2, 2, 1, 7, 2, 3, 4]
truck_assigned = [2, 7, 2, 1, 1, 3, 2, 3, 2, 1, 1, 3, 5, 1, 2, 2, 4, 1, 1, 7, 2, 1, 7, 2, 3, 4, 1, 6, 2, 2]
obj = 11354
----------
source = [13, 12, 9, 11, 9, 14, 15, 15, 14, 11, 11, 12, 12, 10, 8, 13, 12, 7, 14, 12, 10, 9, 12, 7, 15, 15, 8, 12, 8, 7]
open = [false, false, false, false, false, false, true, true, true, true, true, true, true, true, true]
trucks_used = [0, 0, 0, 0, 0, 0, 2, 2, 2, 2, 1, 7, 2, 3, 4]
truck_assigned = [2, 7, 2, 1, 1, 1, 2, 3, 3, 1, 1, 3, 5, 2, 2, 2, 4, 1, 2, 7, 2, 1, 7, 2, 3, 4, 1, 6, 2, 2]
obj = 11340
----------
source = [13, 12, 12, 11, 9, 14, 15, 12, 14, 8, 11, 12, 12, 15, 8, 13, 12, 7, 8, 10, 10, 11, 14, 7, 15, 15, 9, 12, 8, 7]
open = [false, false, false, false, false, false, true, true, true, true, true, true, true, true, true]
trucks_used = [0, 0, 0, 0, 0, 0, 2, 2, 2, 2, 1, 7, 2, 3, 4]
truck_assigned = [2, 7, 7, 1, 2, 3, 2, 6, 2, 1, 1, 4, 5, 3, 2, 2, 6, 1, 1, 2, 2, 1, 1, 2, 1, 4, 2, 3, 2, 2]
obj = 11339
----------
source = [10, 9, 12, 11, 9, 14, 15, 12, 14, 8, 11, 12, 12, 15, 8, 13, 12, 8, 14, 13, 10, 11, 12, 7, 15, 15, 12, 12, 8, 7]
open = [false, false, false, false, false, false, true, true, true, true, true, true, true, true, true]
trucks_used = [0, 0, 0, 0, 0, 0, 2, 2, 2, 2, 1, 7, 2, 3, 4]
truck_assigned = [2, 2, 7, 1, 2, 1, 2, 2, 3, 1, 1, 5, 3, 4, 2, 2, 7, 1, 2, 2, 2, 1, 6, 2, 3, 1, 6, 4, 2, 2]
obj = 11330
----------
source = [10, 9, 12, 11, 9, 14, 15, 12, 14, 8, 11, 12, 12, 15, 8, 13, 12, 7, 14, 13, 10, 11, 12, 7, 15, 15, 12, 12, 8, 7]
open = [false, false, false, false, false, false, true, true, true, true, true, true, true, true, true]
trucks_used = [0, 0, 0, 0, 0, 0, 2, 2, 2, 2, 1, 7, 2, 3, 4]
truck_assigned = [2, 2, 2, 1, 2, 1, 4, 5, 3, 1, 1, 3, 6, 1, 2, 2, 7, 1, 2, 2, 2, 1, 5, 2, 2, 3, 7, 4, 2, 2]
obj = 11327
----------
source = [13, 9, 12, 11, 9, 14, 15, 12, 14, 8, 11, 12, 12, 15, 8, 13, 12, 8, 14, 10, 10, 11, 12, 7, 15, 15, 12, 12, 8, 7]
open = [false, false, false, false, false, false, true, true, true, true, true, true, true, true, true]
trucks_used = [0, 0, 0, 0, 0, 0, 2, 2, 2, 2, 1, 7, 2, 3, 4]
truck_assigned = [2, 2, 5, 1, 2, 1, 4, 6, 3, 1, 1, 2, 3, 3, 2, 2, 7, 1, 2, 2, 2, 1, 6, 2, 2, 1, 7, 4, 2, 2]
obj = 11320
----------
source = [13, 9, 12, 11, 9, 14, 15, 12, 14, 8, 11, 12, 12, 15, 8, 13, 12, 7, 14, 10, 10, 11, 12, 7, 15, 15, 12, 12, 8, 7]
open = [false, false, false, false, false, false, true, true, true, true, true, true, true, true, true]
trucks_used = [0, 0, 0, 0, 0, 0, 2, 2, 2, 2, 1, 7, 2, 3, 4]
truck_assigned = [2, 2, 7, 1, 2, 1, 1, 6, 3, 1, 1, 2, 3, 2, 2, 2, 7, 1, 2, 2, 2, 1, 6, 2, 3, 4, 4, 5, 2, 2]
obj = 11317
----------
source = [13, 8, 12, 11, 7, 14, 15, 12, 14, 9, 11, 12, 10, 15, 8, 13, 12, 11, 14, 10, 12, 9, 12, 7, 15, 15, 12, 12, 8, 7]
open = [false, false, false, false, false, false, true, true, true, true, true, true, true, true, true]
trucks_used = [0, 0, 0, 0, 0, 0, 2, 2, 2, 2, 1, 7, 2, 3, 4]
truck_assigned = [2, 1, 6, 1, 2, 1, 1, 7, 3, 2, 1, 4, 2, 3, 2, 2, 7, 1, 2, 2, 5, 2, 6, 2, 2, 4, 5, 3, 2, 1]
obj = 11308
----------
source = [13, 9, 12, 11, 9, 14, 15, 12, 14, 8, 10, 12, 10, 15, 8, 13, 12, 7, 8, 12, 14, 11, 11, 7, 15, 15, 12, 12, 8, 7]
open = [false, false, false, false, false, false, true, true, true, true, true, true, true, true, true]
trucks_used = [0, 0, 0, 0, 0, 0, 2, 2, 2, 2, 1, 7, 2, 3, 4]
truck_assigned = [2, 2, 6, 1, 2, 2, 1, 7, 3, 1, 2, 4, 2, 3, 2, 2, 7, 1, 1, 6, 2, 1, 1, 2, 2, 4, 5, 3, 2, 2]
obj = 11300
----------
source = [13, 12, 12, 11, 9, 14, 15, 10, 14, 8, 11, 12, 10, 15, 8, 13, 12, 7, 14, 12, 10, 9, 12, 7, 15, 15, 11, 12, 8, 7]
open = [false, false, false, false, false, false, true, true, true, true, true, true, true, true, true]
trucks_used = [0, 0, 0, 0, 0, 0, 2, 2, 2, 2, 1, 7, 2, 3, 4]
truck_assigned = [2, 6, 6, 1, 2, 1, 1, 1, 3, 1, 1, 4, 2, 2, 2, 2, 7, 1, 2, 7, 2, 2, 7, 2, 3, 4, 1, 5, 2, 2]
obj = 11292
----------
source = [13, 9, 12, 15, 9, 14, 15, 10, 14, 8, 11, 12, 11, 10, 8, 13, 12, 7, 8, 12, 14, 11, 12, 7, 15, 15, 12, 12, 8, 7]
open = [false, false, false, false, false, false, true, true, true, true, true, true, true, true, true]
trucks_used = [0, 0, 0, 0, 0, 0, 2, 2, 2, 2, 1, 7, 2, 3, 4]
truck_assigned = [2, 2, 6, 1, 2, 2, 2, 2, 3, 1, 1, 4, 1, 2, 2, 2, 7, 1, 1, 7, 2, 1, 7, 2, 3, 4, 3, 5, 2, 2]
obj = 11263
----------
source = [13, 12, 12, 15, 9, 14, 15, 10, 14, 8, 11, 12, 11, 10, 8, 13, 12, 7, 8, 12, 14, 9, 12, 7, 15, 15, 11, 12, 8, 7]
open = [false, false, false, false, false, false, true, true, true, true, true, true, true, true, true]
trucks_used = [0, 0, 0, 0, 0, 0, 2, 2, 2, 2, 1, 7, 2, 3, 4]
truck_assigned = [2, 4, 7, 4, 2, 2, 3, 2, 3, 1, 1, 5, 1, 2, 2, 2, 7, 1, 1, 6, 2, 2, 4, 2, 1, 2, 1, 6, 2, 2]
obj = 11249
----------
source = [13, 12, 12, 15, 9, 14, 15, 10, 14, 8, 11, 12, 11, 10, 8, 13, 12, 7, 8, 12, 14, 11, 12, 7, 15, 15, 9, 12, 8, 7]
open = [false, false, false, false, false, false, true, true, true, true, true, true, true, true, true]
trucks_used = [0, 0, 0, 0, 0, 0, 2, 2, 2, 2, 1, 7, 2, 3, 4]
truck_assigned = [2, 5, 7, 4, 2, 2, 3, 2, 3, 1, 1, 6, 1, 2, 2, 2, 7, 1, 1, 6, 1, 1, 5, 2, 1, 2, 2, 4, 2, 2]
obj = 11233
----------
source = [13, 14, 12, 11, 9, 12, 15, 15, 14, 8, 11, 12, 10, 10, 8, 13, 12, 7, 8, 12, 14, 11, 12, 7, 15, 15, 9, 12, 8, 7]
open = [false, false, false, false, false, false, true, true, true, true, true, true, true, true, true]
trucks_used = [0, 0, 0, 0, 0, 0, 2, 2, 2, 2, 1, 7, 2, 3, 4]
truck_assigned = [2, 2, 5, 1, 2, 4, 3, 4, 3, 1, 1, 7, 2, 2, 2, 2, 1, 1, 1, 7, 1, 1, 5, 2, 4, 2, 2, 6, 2, 2]
obj = 11229
----------
source = [10, 12, 12, 11, 9, 14, 15, 13, 14, 8, 11, 12, 10, 15, 8, 13, 12, 7, 8, 12, 14, 11, 12, 7, 15, 15, 9, 12, 8, 7]
open = [false, false, false, false, false, false, true, true, true, true, true, true, true, true, true]
trucks_used = [0, 0, 0, 0, 0, 0, 2, 2, 2, 2, 1, 7, 2, 3, 4]
truck_assigned = [2, 6, 7, 1, 2, 2, 3, 2, 3, 1, 1, 4, 2, 2, 2, 2, 6, 1, 1, 6, 2, 1, 7, 2, 4, 1, 2, 5, 2, 2]
obj = 11225
----------
source = [13, 12, 12, 11, 9, 14, 15, 15, 14, 8, 11, 12, 11, 10, 8, 13, 12, 7, 8, 12, 14, 10, 12, 7, 15, 15, 9, 12, 8, 7]
open = [false, false, false, false, false, false, true, true, true, true, true, true, true, true, true]
trucks_used = [0, 0, 0, 0, 0, 0, 2, 2, 2, 2, 1, 7, 2, 3, 4]
truck_assigned = [2, 6, 7, 1, 2, 2, 3, 4, 3, 1, 1, 4, 1, 2, 2, 2, 6, 1, 1, 6, 2, 2, 7, 2, 4, 2, 2, 5, 2, 2]
obj = 11210
----------
source = [13, 12, 12, 11, 9, 14, 15, 15, 14, 8, 11, 12, 10, 10, 8, 13, 12, 8, 14, 12, 10, 11, 12, 7, 15, 15, 9, 12, 8, 7]
open = [false, false, false, false, false, false, true, true, true, true, true, true, true, true, true]
trucks_used = [0, 0, 0, 0, 0, 0, 2, 2, 2, 2, 1, 7, 2, 3, 4]
truck_assigned = [2, 6, 7, 1, 2, 1, 3, 4, 3, 1, 1, 4, 2, 1, 2, 2, 6, 1, 2, 6, 2, 1, 7, 2, 4, 2, 2, 5, 2, 2]
obj = 11209
----------
source = [13, 12, 12, 11, 9, 14, 15, 15, 14, 8, 11, 12, 10, 10, 8, 13, 12, 7, 14, 12, 10, 11, 12, 7, 15, 15, 9, 12, 8, 7]
open = [false, false, false, false, false, false, true, true, true, true, true, true, true, true, true]
trucks_used = [0, 0, 0, 0, 0, 0, 2, 2, 2, 2, 1, 7, 2, 3, 4]
truck_assigned = [2, 6, 7, 1, 2, 1, 3, 4, 3, 1, 1, 4, 2, 1, 2, 2, 6, 1, 2, 6, 2, 1, 7, 2, 4, 2, 2, 5, 2, 2]
obj = 11206
----------
source = [13, 12, 12, 11, 9, 14, 15, 15, 14, 8, 11, 12, 10, 10, 8, 13, 12, 7, 8, 12, 14, 11, 12, 7, 15, 15, 9, 12, 8, 7]
open = [false, false, false, false, false, false, true, true, true, true, true, true, true, true, true]
trucks_used = [0, 0, 0, 0, 0, 0, 2, 2, 2, 2, 1, 7, 2, 3, 4]
truck_assigned = [2, 6, 7, 1, 2, 2, 3, 4, 3, 1, 1, 4, 2, 2, 2, 2, 6, 1, 1, 6, 1, 1, 7, 2, 4, 2, 2, 5, 2, 2]
obj = 11195
----------
source = [13, 12, 12, 11, 9, 14, 15, 15, 14, 8, 11, 12, 10, 10, 8, 13, 12, 8, 10, 12, 14, 11, 12, 7, 15, 15, 9, 12, 8, 7]
open = [false, false, false, false, false, false, true, true, true, true, true, true, true, true, true]
trucks_used = [0, 0, 0, 0, 0, 0, 2, 2, 2, 2, 1, 7, 2, 3, 4]
truck_assigned = [2, 6, 7, 1, 2, 2, 3, 4, 3, 1, 1, 4, 2, 2, 2, 2, 6, 1, 1, 6, 2, 1, 7, 2, 4, 2, 2, 5, 2, 2]
obj = 11194
----------
source = [13, 12, 12, 11, 9, 14, 15, 15, 14, 8, 11, 12, 10, 10, 8, 13, 12, 7, 10, 12, 14, 11, 12, 7, 15, 15, 9, 12, 8, 7]
open = [false, false, false, false, false, false, true, true, true, true, true, true, true, true, true]
trucks_used = [0, 0, 0, 0, 0, 0, 2, 2, 2, 2, 1, 7, 2, 3, 4]
truck_assigned = [2, 6, 7, 1, 2, 2, 3, 4, 3, 1, 1, 4, 2, 2, 2, 2, 6, 1, 1, 6, 2, 1, 7, 2, 4, 2, 2, 5, 2, 2]
obj = 11191
----------
source = [13, 12, 12, 14, 9, 14, 15, 15, 14, 8, 11, 12, 10, 10, 8, 13, 12, 8, 11, 12, 10, 11, 12, 7, 15, 15, 9, 12, 8, 7]
open = [false, false, false, false, false, false, true, true, true, true, true, true, true, true, true]
trucks_used = [0, 0, 0, 0, 0, 0, 2, 2, 2, 2, 1, 7, 2, 3, 4]
truck_assigned = [2, 6, 7, 1, 2, 2, 3, 4, 3, 1, 1, 4, 2, 1, 2, 2, 6, 1, 1, 6, 2, 1, 7, 2, 4, 2, 2, 5, 2, 2]
obj = 11189
----------
source = [13, 12, 12, 14, 9, 14, 15, 15, 14, 8, 11, 12, 10, 10, 8, 13, 12, 7, 11, 12, 10, 11, 12, 7, 15, 15, 9, 12, 8, 7]
open = [false, false, false, false, false, false, true, true, true, true, true, true, true, true, true]
trucks_used = [0, 0, 0, 0, 0, 0, 2, 2, 2, 2, 1, 7, 2, 3, 4]
truck_assigned = [2, 6, 7, 3, 2, 2, 3, 4, 1, 1, 1, 4, 2, 1, 2, 2, 6, 1, 1, 6, 2, 1, 7, 2, 4, 2, 2, 5, 2, 2]
obj = 11186
----------
source = [13, 7, 12, 11, 9, 14, 15, 15, 14, 8, 12, 12, 10, 14, 8, 13, 12, 7, 11, 12, 12, 11, 12, 10, 15, 15, 9, 12, 8, 7]
open = [false, false, false, false, false, false, true, true, true, true, true, true, true, true, true]
trucks_used = [0, 0, 0, 0, 0, 0, 2, 2, 2, 2, 1, 7, 2, 3, 4]
truck_assigned = [2, 2, 7, 1, 2, 2, 3, 4, 3, 1, 3, 4, 2, 1, 2, 2, 6, 2, 1, 6, 6, 1, 7, 2, 4, 2, 2, 5, 2, 1]
obj = 11184
----------
source = [13, 7, 12, 11, 9, 14, 15, 15, 14, 8, 11, 12, 10, 9, 8, 13, 12, 8, 11, 12, 14, 9, 12, 10, 15, 15, 12, 12, 8, 7]
open = [false, false, false, false, false, false, true, true, true, true, true, true, true, true, true]
trucks_used = [0, 0, 0, 0, 0, 0, 2, 2, 2, 2, 1, 7, 2, 3, 4]
truck_assigned = [2, 2, 7, 1, 2, 3, 3, 4, 2, 2, 1, 5, 2, 1, 1, 2, 7, 1, 1, 6, 3, 2, 4, 2, 4, 2, 4, 6, 2, 2]
obj = 11182
----------
source = [13, 7, 12, 11, 9, 14, 15, 15, 14, 8, 11, 12, 10, 9, 8, 13, 12, 7, 11, 12, 14, 9, 12, 10, 15, 15, 12, 12, 8, 7]
open = [false, false, false, false, false, false, true, true, true, true, true, true, true, true, true]
trucks_used = [0, 0, 0, 0, 0, 0, 2, 2, 2, 2, 1, 7, 2, 3, 4]
truck_assigned = [2, 2, 7, 1, 2, 3, 3, 4, 2, 2, 1, 5, 2, 1, 1, 2, 7, 1, 1, 6, 3, 2, 4, 2, 4, 2, 4, 6, 2, 2]
obj = 11179
----------
source = [14, 7, 12, 11, 9, 12, 15, 13, 14, 8, 11, 12, 10, 14, 8, 13, 12, 7, 15, 12, 14, 11, 12, 10, 15, 15, 9, 12, 8, 7]
open = [false, false, false, false, false, false, true, true, true, true, true, true, true, true, true]
trucks_used = [0, 0, 0, 0, 0, 0, 2, 2, 2, 2, 1, 7, 2, 3, 4]
truck_assigned = [1, 2, 7, 1, 2, 6, 3, 2, 2, 1, 1, 4, 2, 3, 2, 2, 7, 1, 4, 6, 3, 1, 5, 2, 4, 2, 2, 3, 2, 2]
obj = 11178
----------
source = [13, 7, 12, 11, 9, 14, 15, 12, 14, 8, 11, 12, 10, 14, 8, 13, 12, 8, 15, 12, 12, 11, 12, 10, 15, 15, 9, 12, 8, 7]
open = [false, false, false, false, false, false, true, true, true, true, true, true, true, true, true]
trucks_used = [0, 0, 0, 0, 0, 0, 2, 2, 2, 2, 1, 7, 2, 3, 4]
truck_assigned = [2, 2, 4, 1, 2, 2, 3, 3, 3, 2, 1, 6, 2, 1, 2, 2, 7, 1, 4, 7, 3, 1, 7, 2, 4, 2, 2, 5, 1, 2]
obj = 11170
----------
source = [13, 7, 12, 11, 9, 14, 15, 12, 14, 8, 11, 12, 10, 14, 8, 13, 12, 7, 15, 12, 12, 11, 12, 10, 15, 15, 9, 12, 8, 7]
open = [false, false, false, false, false, false, true, true, true, true, true, true, true, true, true]
trucks_used = [0, 0, 0, 0, 0, 0, 2, 2, 2, 2, 1, 7, 2, 3, 4]
truck_assigned = [2, 1, 5, 1, 2, 2, 3, 4, 3, 2, 1, 6, 2, 1, 2, 2, 7, 2, 4, 7, 4, 1, 7, 2, 4, 2, 2, 3, 1, 2]
obj = 11167
----------
source = [13, 7, 12, 11, 9, 12, 15, 15, 14, 8, 11, 12, 10, 10, 8, 13, 12, 7, 10, 12, 14, 11, 12, 14, 15, 15, 9, 12, 8, 7]
open = [false, false, false, false, false, false, true, true, true, true, true, true, true, true, true]
trucks_used = [0, 0, 0, 0, 0, 0, 2, 2, 2, 2, 1, 7, 2, 3, 4]
truck_assigned = [2, 2, 7, 1, 2, 4, 3, 4, 3, 2, 1, 6, 2, 2, 2, 2, 2, 1, 1, 6, 2, 1, 7, 2, 4, 2, 2, 5, 1, 2]
obj = 11164
----------
source = [13, 7, 12, 11, 9, 12, 15, 15, 14, 8, 11, 12, 10, 10, 8, 13, 12, 8, 11, 12, 10, 14, 12, 14, 15, 15, 9, 12, 8, 7]
open = [false, false, false, false, false, false, true, true, true, true, true, true, true, true, true]
trucks_used = [0, 0, 0, 0, 0, 0, 2, 2, 2, 2, 1, 7, 2, 3, 4]
truck_assigned = [2, 2, 7, 1, 2, 4, 3, 4, 3, 2, 1, 6, 2, 1, 2, 2, 3, 1, 1, 6, 2, 1, 7, 2, 4, 2, 2, 5, 1, 2]
obj = 11161
----------
source = [13, 7, 12, 11, 9, 12, 15, 15, 14, 8, 11, 12, 10, 10, 8, 13, 12, 7, 11, 12, 10, 14, 12, 14, 15, 15, 9, 12, 8, 7]
open = [false, false, false, false, false, false, true, true, true, true, true, true, true, true, true]
trucks_used = [0, 0, 0, 0, 0, 0, 2, 2, 2, 2, 1, 7, 2, 3, 4]
truck_assigned = [2, 2, 7, 1, 2, 4, 3, 4, 3, 2, 1, 6, 2, 1, 2, 2, 2, 1, 1, 6, 2, 1, 7, 2, 4, 2, 2, 5, 1, 2]
obj = 11158
----------
source = [13, 7, 12, 14, 9, 14, 15, 15, 14, 8, 11, 12, 10, 10, 8, 13, 12, 7, 11, 12, 10, 11, 12, 9, 15, 15, 12, 12, 8, 7]
open = [false, false, false, false, false, false, true, true, true, true, true, true, true, true, true]
trucks_used = [0, 0, 0, 0, 0, 0, 2, 2, 2, 2, 1, 7, 2, 3, 4]
truck_assigned = [2, 2, 7, 1, 2, 2, 3, 4, 3, 2, 1, 6, 2, 1, 2, 2, 4, 2, 1, 6, 2, 1, 7, 2, 4, 2, 4, 5, 1, 1]
obj = 11152
----------
source = [10, 7, 13, 11, 9, 12, 15, 15, 14, 8, 11, 12, 10, 13, 8, 13, 12, 13, 11, 12, 12, 14, 12, 8, 15, 15, 9, 12, 14, 7]
open = [false, false, false, false, false, false, true, true, true, true, true, true, true, true, true]
trucks_used = [0, 0, 0, 0, 0, 0, 2, 2, 2, 2, 1, 7, 2, 3, 4]
truck_assigned = [2, 2, 2, 1, 2, 4, 3, 4, 3, 2, 1, 7, 2, 2, 2, 1, 6, 1, 1, 7, 6, 2, 5, 1, 4, 2, 2, 3, 2, 2]
obj = 11140
----------
source = [14, 7, 8, 11, 9, 12, 15, 15, 14, 8, 11, 12, 11, 10, 14, 13, 12, 13, 13, 12, 12, 10, 12, 8, 15, 15, 9, 12, 8, 7]
open = [false, false, false, false, false, false, true, true, true, true, true, true, true, true, true]
trucks_used = [0, 0, 0, 0, 0, 0, 2, 2, 2, 2, 1, 7, 2, 3, 4]
truck_assigned = [2, 2, 1, 1, 2, 4, 3, 4, 3, 2, 1, 3, 1, 2, 1, 2, 6, 2, 1, 7, 6, 2, 5, 2, 4, 2, 2, 7, 1, 2]
obj = 11139
----------
source = [14, 7, 8, 11, 9, 12, 15, 15, 14, 8, 13, 12, 10, 10, 14, 13, 12, 8, 11, 12, 12, 11, 12, 8, 15, 15, 9, 12, 8, 7]
open = [false, false, false, false, false, false, true, true, true, true, true, true, true, true, true]
trucks_used = [0, 0, 0, 0, 0, 0, 2, 2, 2, 2, 1, 7, 2, 3, 4]
truck_assigned = [2, 2, 2, 1, 2, 7, 3, 4, 3, 2, 2, 3, 2, 2, 1, 2, 5, 1, 1, 7, 4, 1, 5, 1, 4, 2, 2, 6, 2, 2]
obj = 11135
----------
source = [14, 7, 8, 11, 9, 12, 15, 15, 14, 8, 13, 12, 10, 10, 14, 13, 12, 7, 11, 12, 12, 11, 12, 8, 15, 15, 9, 12, 8, 7]
open = [false, false, false, false, false, false, true, true, true, true, true, true, true, true, true]
trucks_used = [0, 0, 0, 0, 0, 0, 2, 2, 2, 2, 1, 7, 2, 3, 4]
truck_assigned = [2, 2, 1, 1, 2, 4, 3, 4, 3, 2, 2, 5, 2, 2, 2, 2, 6, 1, 1, 7, 7, 1, 7, 2, 4, 2, 2, 3, 1, 2]
obj = 11132
----------
source = [14, 7, 13, 11, 9, 12, 15, 15, 14, 8, 13, 12, 10, 10, 14, 13, 12, 7, 11, 12, 12, 11, 12, 8, 15, 15, 9, 12, 8, 7]
open = [false, false, false, false, false, false, true, true, true, true, true, true, true, true, true]
trucks_used = [0, 0, 0, 0, 0, 0, 2, 2, 2, 2, 1, 7, 2, 3, 4]
truck_assigned = [2, 2, 2, 1, 2, 4, 3, 4, 3, 2, 1, 5, 2, 2, 1, 2, 7, 1, 1, 7, 7, 1, 6, 2, 4, 2, 2, 3, 1, 2]
obj = 11131
----------
source = [8, 7, 13, 11, 9, 12, 15, 15, 14, 8, 11, 12, 11, 10, 8, 13, 12, 7, 10, 12, 12, 14, 12, 14, 15, 15, 9, 12, 13, 7]
open = [false, false, false, false, false, false, true, true, true, true, true, true, true, true, true]
trucks_used = [0, 0, 0, 0, 0, 0, 2, 2, 2, 2, 1, 7, 2, 3, 4]
truck_assigned = [1, 1, 2, 1, 2, 4, 3, 4, 3, 2, 1, 5, 1, 2, 2, 2, 7, 2, 2, 7, 7, 2, 6, 2, 4, 2, 2, 3, 1, 2]
obj = 11130
----------
source = [10, 7, 13, 11, 9, 14, 15, 12, 14, 8, 11, 12, 10, 15, 8, 13, 12, 7, 12, 12, 14, 11, 12, 8, 15, 15, 9, 12, 13, 7]
open = [false, false, false, false, false, false, true, true, true, true, true, true, true, true, true]
trucks_used = [0, 0, 0, 0, 0, 0, 2, 2, 2, 2, 1, 7, 2, 3, 4]
truck_assigned = [2, 2, 2, 1, 2, 2, 3, 4, 3, 2, 1, 5, 2, 2, 2, 2, 7, 2, 4, 7, 1, 1, 7, 1, 4, 1, 2, 6, 1, 1]
obj = 11129
----------
source = [10, 7, 13, 13, 9, 12, 15, 15, 14, 8, 11, 12, 10, 8, 14, 13, 12, 7, 11, 12, 12, 11, 12, 8, 15, 15, 9, 12, 14, 7]
open = [false, false, false, false, false, false, true, true, true, true, true, true, true, true, true]
trucks_used = [0, 0, 0, 0, 0, 0, 2, 2, 2, 2, 1, 7, 2, 3, 4]
truck_assigned = [2, 2, 2, 1, 2, 3, 3, 4, 3, 2, 1, 6, 2, 1, 2, 2, 5, 2, 1, 7, 5, 1, 4, 2, 4, 2, 2, 7, 2, 1]
obj = 11126
----------
source = [14, 7, 13, 13, 9, 12, 15, 15, 14, 8, 11, 12, 11, 10, 14, 13, 12, 13, 11, 12, 12, 10, 12, 8, 15, 15, 9, 12, 8, 7]
open = [false, false, false, false, false, false, true, true, true, true, true, true, true, true, true]
trucks_used = [0, 0, 0, 0, 0, 0, 2, 2, 2, 2, 1, 7, 2, 3, 4]
truck_assigned = [2, 2, 2, 1, 2, 4, 3, 4, 3, 2, 1, 6, 1, 2, 2, 2, 5, 1, 1, 7, 5, 2, 3, 2, 4, 2, 2, 7, 1, 2]
obj = 11125
----------
source = [8, 7, 8, 13, 9, 12, 15, 15, 14, 8, 11, 12, 11, 10, 14, 13, 12, 7, 10, 12, 12, 11, 12, 8, 15, 15, 9, 12, 14, 7]
open = [false, false, false, false, false, false, true, true, true, true, true, true, true, true, true]
trucks_used = [0, 0, 0, 0, 0, 0, 2, 2, 2, 2, 1, 7, 2, 3, 4]
truck_assigned = [2, 2, 1, 2, 2, 4, 3, 4, 3, 2, 1, 6, 1, 2, 2, 2, 5, 1, 2, 7, 5, 1, 3, 1, 4, 2, 2, 7, 2, 2]
obj = 11119
----------
source = [13, 7, 8, 14, 9, 12, 15, 15, 14, 8, 11, 12, 10, 10, 8, 13, 12, 12, 11, 12, 14, 11, 12, 8, 15, 15, 9, 12, 14, 7]
open = [false, false, false, false, false, false, true, true, true, true, true, true, true, true, true]
trucks_used = [0, 0, 0, 0, 0, 0, 2, 2, 2, 2, 1, 7, 2, 3, 4]
truck_assigned = [2, 2, 2, 2, 2, 4, 3, 4, 3, 2, 1, 6, 2, 2, 2, 2, 5, 3, 1, 7, 2, 1, 5, 1, 4, 2, 2, 7, 1, 2]
obj = 11113
----------
source = [13, 7, 8, 11, 9, 12, 15, 15, 14, 8, 11, 12, 10, 10, 8, 13, 12, 12, 11, 12, 14, 14, 12, 8, 15, 15, 9, 12, 14, 7]
open = [false, false, false, false, false, false, true, true, true, true, true, true, true, true, true]
trucks_used = [0, 0, 0, 0, 0, 0, 2, 2, 2, 2, 1, 7, 2, 3, 4]
truck_assigned = [2, 2, 2, 1, 2, 6, 3, 4, 2, 2, 1, 4, 2, 2, 2, 2, 7, 5, 1, 7, 3, 1, 7, 1, 4, 2, 2, 3, 3, 2]
obj = 11112
----------
source = [13, 7, 8, 14, 9, 14, 15, 15, 14, 12, 11, 12, 11, 10, 8, 13, 12, 7, 12, 12, 10, 11, 12, 8, 15, 15, 9, 12, 8, 7]
open = [false, false, false, false, false, false, true, true, true, true, true, true, true, true, true]
trucks_used = [0, 0, 0, 0, 0, 0, 2, 2, 2, 2, 1, 7, 2, 3, 4]
truck_assigned = [2, 2, 2, 2, 2, 1, 3, 4, 3, 4, 1, 5, 1, 2, 1, 2, 7, 2, 4, 7, 2, 1, 7, 2, 4, 2, 2, 6, 1, 1]
obj = 11104
----------
source = [13, 7, 8, 14, 9, 14, 15, 15, 14, 12, 11, 12, 10, 10, 8, 13, 12, 7, 11, 12, 12, 11, 12, 8, 15, 15, 9, 12, 8, 7]
open = [false, false, false, false, false, false, true, true, true, true, true, true, true, true, true]
trucks_used = [0, 0, 0, 0, 0, 0, 2, 2, 2, 2, 1, 7, 2, 3, 4]
truck_assigned = [2, 2, 2, 3, 2, 2, 3, 4, 1, 4, 1, 5, 2, 2, 1, 2, 7, 1, 1, 7, 4, 1, 7, 2, 4, 2, 2, 6, 1, 2]
obj = 11099
----------
source = [13, 7, 8, 14, 9, 12, 15, 15, 14, 8, 11, 12, 10, 10, 14, 13, 12, 7, 11, 12, 12, 11, 12, 8, 15, 15, 9, 12, 8, 7]
open = [false, false, false, false, false, false, true, true, true, true, true, true, true, true, true]
trucks_used = [0, 0, 0, 0, 0, 0, 2, 2, 2, 2, 1, 7, 2, 3, 4]
truck_assigned = [2, 1, 2, 3, 2, 5, 3, 4, 2, 1, 1, 7, 2, 2, 3, 2, 6, 2, 1, 7, 6, 1, 4, 2, 4, 2, 2, 3, 1, 2]
obj = 11092
----------
source = [13, 7, 8, 14, 9, 12, 15, 15, 14, 8, 11, 12, 10, 10, 8, 13, 12, 7, 11, 12, 12, 11, 12, 14, 15, 15, 9, 12, 8, 7]
open = [false, false, false, false, false, false, true, true, true, true, true, true, true, true, true]
trucks_used = [0, 0, 0, 0, 0, 0, 2, 2, 2, 2, 1, 7, 2, 3, 4]
truck_assigned = [2, 2, 2, 3, 2, 7, 3, 4, 2, 2, 1, 6, 2, 2, 1, 2, 5, 2, 1, 7, 4, 1, 5, 1, 4, 2, 2, 3, 2, 1]
obj = 11089
----------
source = [13, 7, 8, 14, 9, 12, 15, 15, 14, 8, 11, 12, 10, 10, 8, 13, 12, 7, 11, 12, 12, 11, 12, 8, 15, 15, 9, 12, 14, 7]
open = [false, false, false, false, false, false, true, true, true, true, true, true, true, true, true]
trucks_used = [0, 0, 0, 0, 0, 0, 2, 2, 2, 2, 1, 7, 2, 3, 4]
truck_assigned = [2, 1, 2, 3, 2, 7, 3, 4, 2, 1, 1, 6, 2, 2, 1, 2, 5, 2, 1, 7, 4, 1, 5, 2, 4, 2, 2, 3, 3, 2]
obj = 11086
----------
source = [13, 7, 8, 11, 9, 12, 15, 15, 14, 8, 11, 12, 10, 10, 8, 13, 12, 7, 11, 12, 12, 14, 12, 8, 15, 15, 9, 12, 14, 7]
open = [false, false, false, false, false, false, true, true, true, true, true, true, true, true, true]
trucks_used = [0, 0, 0, 0, 0, 0, 2, 2, 2, 2, 1, 7, 2, 3, 4]
truck_assigned = [2, 2, 2, 1, 2, 7, 3, 4, 2, 1, 1, 6, 2, 2, 1, 2, 5, 2, 1, 7, 4, 3, 5, 2, 4, 2, 2, 3, 3, 1]
obj = 11085
----------
source = [13, 7, 8, 14, 9, 14, 15, 15, 14, 8, 11, 12, 10, 10, 8, 13, 12, 7, 11, 12, 12, 11, 12, 9, 15, 15, 12, 12, 8, 7]
open = [false, false, false, false, false, false, true, true, true, true, true, true, true, true, true]
trucks_used = [0, 0, 0, 0, 0, 0, 2, 2, 2, 2, 1, 7, 2, 3, 4]
truck_assigned = [2, 1, 2, 2, 2, 1, 3, 4, 3, 2, 1, 7, 2, 2, 1, 2, 5, 2, 1, 7, 6, 1, 6, 2, 4, 2, 5, 4, 2, 2]
obj = 11082
----------
source = [13, 7, 8, 14, 9, 14, 15, 12, 14, 12, 11, 12, 10, 10, 8, 13, 12, 15, 11, 12, 15, 11, 12, 8, 12, 15, 9, 12, 8, 7]
open = [false, false, false, false, false, false, true, true, true, true, true, true, true, true, true]
trucks_used = [0, 0, 0, 0, 0, 0, 2, 2, 2, 2, 1, 7, 2, 3, 4]
truck_assigned = [2, 2, 2, 2, 2, 1, 3, 4, 3, 3, 1, 6, 2, 2, 1, 2, 7, 4, 1, 7, 4, 1, 7, 2, 3, 2, 2, 5, 1, 2]
obj = 11080
----------
source = [13, 12, 8, 14, 9, 14, 15, 12, 14, 8, 11, 12, 10, 10, 7, 13, 12, 15, 11, 12, 15, 11, 7, 8, 12, 15, 9, 12, 8, 7]
open = [false, false, false, false, false, false, true, true, true, true, true, true, true, true, true]
trucks_used = [0, 0, 0, 0, 0, 0, 2, 2, 2, 2, 1, 7, 2, 3, 4]
truck_assigned = [2, 4, 2, 2, 2, 1, 3, 5, 3, 1, 1, 7, 2, 2, 2, 2, 5, 4, 1, 7, 4, 1, 2, 2, 3, 2, 2, 6, 1, 2]
obj = 11074
----------
source = [14, 7, 8, 11, 9, 12, 15, 14, 14, 8, 11, 12, 11, 15, 8, 13, 12, 8, 10, 13, 12, 9, 12, 8, 15, 15, 12, 12, 10, 7]
open = [false, false, false, false, false, false, true, true, true, true, true, true, true, true, true]
trucks_used = [0, 0, 0, 0, 0, 0, 1, 2, 2, 2, 1, 7, 2, 3, 4]
truck_assigned = [2, 1, 1, 1, 2, 4, 1, 1, 3, 2, 1, 7, 1, 2, 1, 2, 6, 1, 2, 2, 6, 2, 3, 2, 3, 4, 3, 5, 2, 1]
obj = 11064
----------
source = [13, 7, 8, 11, 9, 12, 15, 15, 14, 8, 11, 12, 10, 10, 14, 13, 12, 11, 11, 12, 12, 11, 12, 8, 15, 15, 9, 12, 14, 7]
open = [false, false, false, false, false, false, true, true, true, true, true, true, true, true, true]
trucks_used = [0, 0, 0, 0, 0, 0, 1, 2, 2, 2, 2, 7, 2, 3, 4]
truck_assigned = [2, 1, 1, 1, 2, 5, 2, 3, 3, 2, 2, 4, 2, 2, 2, 2, 7, 2, 2, 7, 7, 1, 3, 2, 3, 4, 2, 6, 2, 1]
obj = 11057
----------
source = [10, 12, 8, 12, 9, 14, 15, 15, 14, 8, 11, 12, 10, 14, 7, 13, 12, 8, 11, 13, 12, 11, 7, 9, 15, 15, 12, 12, 8, 7]
open = [false, false, false, false, false, false, true, true, true, true, true, true, true, true, true]
trucks_used = [0, 0, 0, 0, 0, 0, 1, 2, 2, 2, 1, 7, 2, 3, 4]
truck_assigned = [2, 5, 1, 3, 2, 2, 2, 3, 3, 2, 1, 6, 2, 1, 1, 2, 7, 2, 1, 1, 7, 1, 1, 1, 3, 4, 5, 4, 1, 1]
obj = 11053
----------
source = [10, 7, 8, 12, 9, 14, 15, 15, 14, 8, 11, 12, 11, 14, 8, 13, 12, 8, 12, 13, 10, 11, 12, 9, 15, 15, 12, 12, 8, 7]
open = [false, false, false, false, false, false, true, true, true, true, true, true, true, true, true]
trucks_used = [0, 0, 0, 0, 0, 0, 1, 2, 2, 2, 1, 7, 2, 3, 4]
truck_assigned = [2, 1, 1, 6, 2, 2, 2, 3, 3, 2, 1, 7, 1, 1, 1, 2, 6, 2, 3, 2, 2, 1, 4, 1, 3, 4, 4, 5, 1, 1]
obj = 11051
----------
source = [10, 7, 8, 12, 9, 14, 15, 15, 14, 8, 11, 12, 10, 14, 8, 13, 12, 8, 11, 13, 12, 11, 12, 9, 15, 15, 12, 12, 8, 7]
open = [false, false, false, false, false, false, true, true, true, true, true, true, true, true, true]
trucks_used = [0, 0, 0, 0, 0, 0, 1, 2, 2, 2, 1, 7, 2, 3, 4]
truck_assigned = [2, 1, 1, 7, 2, 2, 2, 3, 3, 2, 1, 3, 2, 1, 1, 2, 7, 2, 1, 1, 4, 1, 5, 2, 3, 4, 5, 6, 1, 1]
obj = 11046
----------
source = [10, 7, 13, 12, 9, 14, 15, 13, 14, 12, 11, 12, 11, 14, 8, 13, 12, 8, 15, 12, 10, 9, 12, 8, 15, 15, 11, 12, 8, 7]
open = [false, false, false, false, false, false, true, true, true, true, true, true, true, true, true]
trucks_used = [0, 0, 0, 0, 0, 0, 1, 2, 2, 2, 1, 7, 2, 3, 4]
truck_assigned = [2, 1, 2, 7, 2, 2, 2, 2, 3, 6, 1, 4, 1, 1, 2, 1, 7, 1, 3, 5, 2, 2, 6, 1, 3, 4, 1, 5, 2, 1]
obj = 11045
----------
source = [10, 7, 8, 12, 9, 14, 15, 15, 14, 12, 11, 12, 11, 14, 8, 13, 12, 8, 11, 12, 10, 9, 12, 8, 15, 15, 13, 12, 8, 7]
open = [false, false, false, false, false, false, true, true, true, true, true, true, true, true, true]
trucks_used = [0, 0, 0, 0, 0, 0, 1, 2, 2, 2, 1, 7, 2, 3, 4]
truck_assigned = [2, 1, 2, 7, 2, 2, 2, 3, 3, 6, 1, 4, 1, 1, 2, 2, 1, 1, 1, 7, 2, 2, 6, 1, 3, 4, 2, 5, 2, 1]
obj = 11040
----------
source = [9, 7, 8, 12, 9, 14, 15, 15, 14, 8, 11, 12, 10, 14, 8, 13, 12, 8, 11, 12, 12, 11, 12, 10, 15, 15, 13, 12, 8, 7]
open = [false, false, false, false, false, false, true, true, true, true, true, true, true, true, true]
trucks_used = [0, 0, 0, 0, 0, 0, 1, 2, 2, 2, 1, 7, 2, 3, 4]
truck_assigned = [2, 1, 2, 7, 2, 2, 2, 3, 3, 1, 1, 5, 2, 1, 2, 2, 6, 1, 1, 7, 3, 1, 6, 2, 3, 4, 2, 4, 2, 1]
obj = 11036
----------
source = [10, 7, 8, 12, 9, 14, 15, 15, 14, 8, 11, 12, 10, 14, 8, 13, 12, 8, 11, 12, 12, 11, 12, 9, 15, 15, 13, 12, 8, 7]
open = [false, false, false, false, false, false, true, true, true, true, true, true, true, true, true]
trucks_used = [0, 0, 0, 0, 0, 0, 1, 2, 2, 2, 1, 7, 2, 3, 4]
truck_assigned = [2, 1, 2, 7, 2, 2, 2, 3, 3, 1, 1, 3, 2, 1, 2, 2, 6, 1, 1, 7, 5, 1, 6, 2, 3, 4, 2, 4, 2, 1]
obj = 11029
----------
source = [13, 7, 8, 10, 9, 12, 15, 15, 14, 8, 10, 12, 11, 14, 8, 13, 12, 8, 11, 12, 12, 11, 12, 8, 15, 15, 9, 12, 14, 7]
open = [false, false, false, false, false, false, true, true, true, true, true, true, true, true, true]
trucks_used = [0, 0, 0, 0, 0, 0, 1, 2, 2, 2, 1, 7, 2, 3, 4]
truck_assigned = [2, 1, 2, 1, 2, 3, 2, 3, 1, 2, 2, 6, 1, 2, 2, 2, 4, 1, 1, 7, 7, 1, 7, 1, 3, 4, 2, 5, 3, 1]
obj = 11028
----------
source = [13, 7, 8, 10, 9, 14, 15, 15, 14, 8, 10, 12, 11, 14, 8, 13, 12, 8, 11, 12, 12, 11, 12, 9, 15, 15, 12, 12, 8, 7]
open = [false, false, false, false, false, false, true, true, true, true, true, true, true, true, true]
trucks_used = [0, 0, 0, 0, 0, 0, 1, 2, 2, 2, 1, 7, 2, 3, 4]
truck_assigned = [2, 1, 2, 2, 2, 1, 2, 3, 2, 1, 1, 6, 1, 3, 2, 2, 5, 1, 1, 7, 7, 1, 7, 2, 3, 4, 5, 4, 2, 1]
obj = 11024
----------
source = [13, 7, 8, 12, 9, 14, 15, 15, 14, 8, 11, 12, 10, 14, 8, 13, 12, 8, 11, 12, 12, 9, 12, 10, 15, 15, 11, 12, 8, 7]
open = [false, false, false, false, false, false, true, true, true, true, true, true, true, true, true]
trucks_used = [0, 0, 0, 0, 0, 0, 1, 2, 2, 2, 1, 7, 2, 3, 4]
truck_assigned = [2, 1, 2, 5, 2, 1, 2, 3, 2, 1, 1, 6, 2, 3, 2, 2, 5, 1, 1, 7, 7, 2, 7, 2, 3, 4, 1, 4, 2, 1]
obj = 11015
----------
source = [13, 7, 8, 12, 9, 14, 15, 15, 14, 12, 11, 12, 10, 14, 8, 13, 12, 8, 11, 12, 12, 11, 12, 10, 15, 15, 9, 12, 8, 7]
open = [false, false, false, false, false, false, true, true, true, true, true, true, true, true, true]
trucks_used = [0, 0, 0, 0, 0, 0, 1, 2, 2, 2, 1, 7, 2, 3, 4]
truck_assigned = [2, 1, 2, 5, 2, 1, 2, 3, 2, 3, 1, 6, 2, 3, 2, 2, 5, 1, 1, 7, 7, 1, 7, 2, 3, 4, 2, 4, 2, 1]
obj = 11012
----------
source = [13, 7, 8, 12, 9, 14, 15, 15, 14, 8, 11, 12, 10, 14, 8, 13, 12, 8, 11, 12, 12, 11, 12, 10, 15, 15, 9, 12, 8, 7]
open = [false, false, false, false, false, false, true, true, true, true, true, true, true, true, true]
trucks_used = [0, 0, 0, 0, 0, 0, 1, 2, 2, 2, 1, 7, 2, 3, 4]
truck_assigned = [2, 1, 2, 6, 2, 1, 2, 3, 2, 1, 1, 4, 2, 3, 2, 2, 6, 1, 1, 7, 7, 1, 7, 2, 3, 4, 2, 5, 2, 1]
obj = 10999
----------
source = [13, 7, 8, 12, 9, 14, 15, 12, 14, 8, 11, 12, 10, 14, 8, 13, 12, 15, 11, 12, 15, 9, 12, 10, 12, 15, 11, 12, 8, 7]
open = [false, false, false, false, false, false, true, true, true, true, true, true, true, true, true]
trucks_used = [0, 0, 0, 0, 0, 0, 1, 2, 2, 2, 1, 7, 2, 3, 4]
truck_assigned = [2, 1, 2, 7, 2, 1, 3, 3, 2, 1, 1, 4, 2, 3, 2, 2, 6, 2, 1, 6, 2, 2, 7, 2, 3, 4, 1, 5, 2, 1]
obj = 10993
----------
source = [13, 7, 8, 12, 9, 14, 15, 12, 14, 8, 11, 12, 10, 14, 8, 13, 12, 15, 11, 12, 15, 11, 12, 10, 12, 15, 9, 12, 8, 7]
open = [false, false, false, false, false, false, true, true, true, true, true, true, true, true, true]
trucks_used = [0, 0, 0, 0, 0, 0, 1, 2, 2, 2, 1, 7, 2, 3, 4]
truck_assigned = [2, 1, 2, 7, 2, 1, 4, 4, 2, 1, 1, 6, 2, 3, 2, 2, 7, 3, 1, 6, 3, 1, 4, 2, 3, 2, 2, 5, 2, 1]
obj = 10977
----------
source = [10, 12, 8, 11, 9, 14, 15, 13, 14, 8, 7, 12, 10, 14, 7, 13, 12, 15, 11, 12, 15, 9, 12, 8, 12, 15, 11, 12, 8, 7]
open = [false, false, false, false, false, false, true, true, true, true, true, true, true, true, true]
trucks_used = [0, 0, 0, 0, 0, 0, 1, 2, 2, 2, 1, 7, 2, 3, 4]
truck_assigned = [2, 4, 2, 1, 2, 1, 3, 2, 2, 2, 1, 6, 2, 3, 1, 2, 7, 4, 1, 7, 4, 2, 7, 1, 3, 2, 1, 5, 2, 1]
obj = 10973
----------
source = [10, 12, 13, 11, 9, 14, 15, 13, 14, 8, 7, 12, 10, 14, 7, 13, 12, 15, 11, 12, 15, 9, 12, 8, 12, 15, 11, 12, 8, 7]
open = [false, false, false, false, false, false, true, true, true, true, true, true, true, true, true]
trucks_used = [0, 0, 0, 0, 0, 0, 1, 2, 2, 2, 1, 7, 2, 3, 4]
truck_assigned = [2, 7, 2, 1, 2, 1, 3, 1, 2, 2, 1, 5, 2, 3, 1, 2, 4, 4, 1, 7, 4, 2, 7, 1, 3, 2, 1, 6, 2, 1]
obj = 10972
----------
source = [10, 7, 8, 13, 9, 14, 15, 12, 14, 8, 11, 12, 10, 14, 8, 13, 13, 15, 11, 12, 15, 11, 12, 9, 12, 15, 12, 12, 8, 7]
open = [false, false, false, false, false, false, true, true, true, true, true, true, true, true, true]
trucks_used = [0, 0, 0, 0, 0, 0, 1, 2, 2, 2, 1, 7, 2, 3, 4]
truck_assigned = [2, 1, 2, 2, 2, 1, 3, 4, 2, 2, 1, 5, 2, 3, 1, 2, 2, 4, 1, 7, 4, 1, 7, 2, 3, 2, 3, 6, 2, 1]
obj = 10964
----------
source = [10, 7, 13, 13, 9, 14, 15, 12, 14, 8, 11, 12, 10, 14, 8, 13, 13, 15, 11, 12, 15, 11, 12, 9, 12, 15, 12, 12, 8, 7]
open = [false, false, false, false, false, false, true, true, true, true, true, true, true, true, true]
trucks_used = [0, 0, 0, 0, 0, 0, 1, 2, 2, 2, 1, 7, 2, 3, 4]
truck_assigned = [2, 1, 2, 1, 2, 1, 3, 6, 2, 2, 1, 4, 2, 3, 1, 2, 2, 4, 1, 7, 4, 1, 7, 2, 6, 2, 5, 3, 2, 1]
obj = 10963
----------
source = [10, 7, 8, 11, 9, 14, 15, 13, 14, 8, 11, 12, 10, 14, 8, 13, 13, 15, 12, 12, 15, 11, 12, 9, 12, 15, 12, 12, 8, 7]
open = [false, false, false, false, false, false, true, true, true, true, true, true, true, true, true]
trucks_used = [0, 0, 0, 0, 0, 0, 1, 2, 2, 2, 1, 7, 2, 3, 4]
truck_assigned = [2, 1, 2, 1, 2, 1, 3, 2, 2, 2, 1, 5, 2, 3, 1, 2, 2, 4, 4, 6, 4, 1, 7, 2, 3, 2, 7, 6, 2, 1]
obj = 10961
----------
source = [13, 7, 8, 11, 9, 14, 15, 12, 14, 8, 11, 12, 10, 14, 8, 13, 9, 15, 11, 12, 15, 9, 12, 10, 12, 15, 12, 12, 8, 7]
open = [false, false, false, false, false, false, true, true, true, true, true, true, true, true, true]
trucks_used = [0, 0, 0, 0, 0, 0, 1, 2, 2, 2, 1, 7, 2, 3, 4]
truck_assigned = [2, 1, 2, 1, 2, 1, 3, 5, 2, 2, 1, 4, 2, 3, 1, 2, 1, 4, 1, 6, 4, 2, 7, 1, 5, 2, 7, 6, 2, 1]
obj = 10959
----------
source = [13, 7, 8, 11, 9, 14, 15, 12, 14, 8, 11, 12, 10, 14, 8, 13, 12, 15, 12, 12, 15, 9, 12, 10, 12, 15, 11, 12, 8, 7]
open = [false, false, false, false, false, false, true, true, true, true, true, true, true, true, true]
trucks_used = [0, 0, 0, 0, 0, 0, 1, 2, 2, 2, 1, 7, 2, 3, 4]
truck_assigned = [2, 1, 2, 1, 2, 1, 3, 6, 2, 2, 1, 5, 2, 3, 1, 2, 4, 4, 3, 7, 4, 2, 4, 2, 6, 2, 1, 7, 2, 1]
obj = 10955
----------
source = [13, 7, 8, 11, 9, 14, 15, 15, 14, 8, 11, 12, 10, 14, 8, 13, 12, 8, 11, 12, 12, 9, 12, 10, 15, 15, 12, 12, 8, 7]
open = [false, false, false, false, false, false, true, true, true, true, true, true, true, true, true]
trucks_used = [0, 0, 0, 0, 0, 0, 1, 2, 2, 2, 1, 7, 2, 3, 4]
truck_assigned = [2, 1, 2, 1, 2, 1, 3, 2, 2, 2, 1, 4, 2, 3, 1, 2, 6, 1, 1, 7, 5, 2, 6, 2, 2, 4, 5, 7, 2, 1]
obj = 10950
----------
source = [13, 7, 8, 11, 9, 14, 15, 12, 14, 8, 11, 12, 10, 14, 8, 13, 12, 15, 12, 12, 15, 11, 12, 10, 12, 15, 9, 12, 8, 7]
open = [false, false, false, false, false, false, true, true, true, true, true, true, true, true, true]
trucks_used = [0, 0, 0, 0, 0, 0, 1, 2, 2, 2, 1, 7, 2, 3, 4]
truck_assigned = [2, 1, 2, 1, 2, 1, 3, 6, 2, 2, 1, 3, 2, 3, 1, 2, 5, 4, 4, 7, 4, 1, 5, 1, 6, 2, 2, 7, 2, 1]
obj = 10939
----------
source = [13, 12, 8, 14, 9, 14, 15, 10, 14, 8, 7, 12, 11, 10, 7, 13, 12, 15, 11, 12, 15, 11, 12, 8, 12, 15, 9, 12, 8, 7]
open = [false, false, false, false, false, false, true, true, true, true, true, true, true, true, true]
trucks_used = [0, 0, 0, 0, 0, 0, 1, 2, 2, 2, 1, 7, 2, 3, 4]
truck_assigned = [2, 4, 2, 2, 2, 1, 3, 2, 3, 2, 1, 5, 1, 2, 1, 2, 6, 4, 1, 7, 4, 1, 6, 1, 3, 2, 2, 7, 2, 1]
obj = 10935
----------
source = [13, 7, 8, 14, 9, 14, 15, 12, 14, 12, 11, 12, 10, 10, 8, 13, 12, 15, 11, 12, 15, 11, 12, 8, 12, 15, 9, 12, 8, 7]
open = [false, false, false, false, false, false, true, true, true, true, true, true, true, true, true]
trucks_used = [0, 0, 0, 0, 0, 0, 1, 2, 2, 2, 1, 7, 2, 3, 4]
truck_assigned = [2, 1, 1, 2, 2, 1, 3, 6, 3, 3, 1, 5, 2, 2, 1, 2, 7, 4, 1, 7, 4, 1, 7, 2, 6, 2, 2, 4, 2, 1]
obj = 10930
----------
source = [13, 12, 8, 14, 9, 14, 15, 12, 14, 8, 11, 12, 10, 10, 7, 13, 12, 15, 11, 12, 15, 11, 7, 8, 12, 15, 9, 12, 8, 7]
open = [false, false, false, false, false, false, true, true, true, true, true, true, true, true, true]
trucks_used = [0, 0, 0, 0, 0, 0, 1, 2, 2, 2, 1, 7, 2, 3, 4]
truck_assigned = [2, 6, 1, 2, 2, 1, 3, 6, 3, 1, 1, 5, 2, 2, 1, 2, 7, 4, 1, 5, 4, 1, 1, 2, 7, 2, 2, 4, 2, 1]
obj = 10924
----------
source = [8, 13, 13, 11, 9, 12, 15, 15, 14, 8, 7, 12, 10, 10, 7, 14, 12, 8, 11, 12, 12, 11, 12, 8, 15, 15, 9, 12, 14, 7]
open = [false, false, false, false, false, false, true, true, true, true, true, true, true, true, true]
trucks_used = [0, 0, 0, 0, 0, 0, 1, 2, 1, 2, 1, 7, 2, 3, 4]
truck_assigned = [1, 2, 1, 1, 1, 5, 3, 2, 2, 2, 1, 4, 2, 2, 1, 3, 7, 1, 1, 7, 6, 1, 7, 2, 2, 4, 1, 3, 3, 1]
obj = 10918
----------
source = [13, 7, 8, 11, 9, 12, 15, 15, 14, 8, 11, 12, 10, 10, 14, 13, 12, 11, 11, 12, 12, 11, 12, 8, 15, 15, 9, 12, 14, 7]
open = [false, false, false, false, false, false, true, true, true, true, true, true, true, true, true]
trucks_used = [0, 0, 0, 0, 0, 0, 1, 2, 1, 2, 2, 7, 2, 3, 4]
truck_assigned = [2, 1, 1, 1, 1, 7, 3, 2, 2, 2, 2, 5, 2, 2, 3, 2, 6, 2, 2, 7, 6, 1, 4, 2, 2, 4, 1, 3, 3, 1]
obj = 10907
----------
source = [13, 14, 12, 11, 9, 12, 15, 15, 14, 8, 7, 12, 10, 10, 7, 13, 12, 8, 11, 12, 14, 9, 12, 8, 15, 15, 11, 12, 8, 7]
open = [false, false, false, false, false, false, true, true, true, true, true, true, true, true, true]
trucks_used = [0, 0, 0, 0, 0, 0, 1, 2, 1, 2, 1, 7, 2, 3, 4]
truck_assigned = [2, 2, 3, 1, 1, 6, 3, 2, 3, 2, 1, 7, 2, 2, 1, 2, 5, 1, 1, 7, 2, 1, 5, 2, 2, 4, 1, 4, 1, 1]
obj = 10901
----------
source = [13, 14, 12, 11, 9, 12, 15, 15, 14, 8, 11, 12, 10, 10, 7, 13, 12, 8, 12, 12, 14, 11, 7, 8, 15, 15, 9, 12, 8, 7]
open = [false, false, false, false, false, false, true, true, true, true, true, true, true, true, true]
trucks_used = [0, 0, 0, 0, 0, 0, 1, 2, 1, 2, 1, 7, 2, 3, 4]
truck_assigned = [2, 2, 6, 1, 1, 7, 3, 2, 3, 2, 1, 4, 2, 2, 1, 2, 6, 1, 5, 7, 2, 1, 1, 2, 2, 4, 1, 3, 1, 1]
obj = 10894
----------
source = [13, 14, 12, 11, 9, 12, 15, 15, 14, 8, 7, 12, 10, 10, 7, 13, 12, 8, 11, 12, 14, 11, 12, 8, 15, 15, 9, 12, 8, 7]
open = [false, false, false, false, false, false, true, true, true, true, true, true, true, true, true]
trucks_used = [0, 0, 0, 0, 0, 0, 1, 2, 1, 2, 1, 7, 2, 3, 4]
truck_assigned = [2, 2, 7, 1, 1, 4, 3, 2, 3, 2, 1, 5, 2, 2, 1, 2, 7, 1, 1, 6, 2, 1, 3, 2, 2, 4, 1, 6, 1, 1]
obj = 10885
----------
source = [13, 14, 8, 11, 9, 12, 15, 12, 14, 8, 11, 12, 10, 15, 7, 13, 12, 8, 12, 10, 14, 11, 12, 8, 15, 15, 9, 12, 8, 7]
open = [false, false, false, false, false, false, true, true, true, true, true, true, true, true, true]
trucks_used = [0, 0, 0, 0, 0, 0, 1, 2, 1, 2, 1, 7, 2, 3, 4]
truck_assigned = [2, 2, 1, 1, 1, 7, 3, 3, 3, 1, 1, 4, 2, 2, 1, 2, 1, 2, 6, 1, 2, 1, 6, 2, 1, 4, 1, 5, 1, 1]
obj = 10880
----------
source = [8, 14, 8, 11, 9, 12, 15, 15, 14, 8, 11, 12, 10, 10, 7, 13, 12, 12, 12, 12, 14, 11, 7, 9, 15, 15, 13, 12, 8, 7]
open = [false, false, false, false, false, false, true, true, true, true, true, true, true, true, true]
trucks_used = [0, 0, 0, 0, 0, 0, 1, 2, 1, 2, 1, 7, 2, 3, 4]
truck_assigned = [1, 2, 2, 1, 1, 4, 3, 2, 3, 2, 1, 6, 2, 2, 1, 2, 7, 3, 7, 7, 2, 1, 1, 1, 2, 4, 2, 5, 2, 1]
obj = 10876
----------
source = [13, 14, 8, 11, 9, 12, 15, 15, 14, 8, 11, 12, 12, 10, 7, 13, 12, 8, 10, 12, 14, 11, 12, 8, 15, 15, 9, 12, 8, 7]
open = [false, false, false, false, false, false, true, true, true, true, true, true, true, true, true]
trucks_used = [0, 0, 0, 0, 0, 0, 1, 2, 1, 2, 1, 7, 2, 3, 4]
truck_assigned = [2, 2, 2, 1, 1, 4, 3, 2, 3, 2, 1, 6, 3, 2, 1, 2, 7, 1, 2, 7, 2, 1, 7, 1, 2, 4, 1, 5, 2, 1]
obj = 10870
----------
source = [13, 14, 8, 11, 9, 12, 15, 15, 14, 8, 11, 12, 10, 10, 7, 13, 12, 12, 12, 12, 14, 9, 7, 8, 15, 15, 11, 12, 8, 7]
open = [false, false, false, false, false, false, true, true, true, true, true, true, true, true, true]
trucks_used = [0, 0, 0, 0, 0, 0, 1, 2, 1, 2, 1, 7, 2, 3, 4]
truck_assigned = [2, 2, 2, 1, 1, 4, 3, 2, 3, 2, 1, 6, 2, 2, 1, 2, 7, 3, 7, 7, 2, 1, 1, 1, 2, 4, 1, 5, 2, 1]
obj = 10867
----------
source = [13, 14, 8, 11, 9, 12, 15, 15, 14, 8, 11, 12, 10, 10, 7, 13, 12, 12, 12, 12, 14, 11, 7, 8, 15, 15, 9, 12, 8, 7]
open = [false, false, false, false, false, false, true, true, true, true, true, true, true, true, true]
trucks_used = [0, 0, 0, 0, 0, 0, 1, 2, 1, 2, 1, 7, 2, 3, 4]
truck_assigned = [2, 2, 2, 1, 1, 4, 3, 2, 3, 2, 1, 6, 2, 2, 1, 2, 7, 3, 7, 7, 2, 1, 1, 1, 2, 4, 1, 5, 2, 1]
obj = 10851
----------
source = [13, 14, 8, 11, 9, 12, 15, 15, 14, 8, 7, 12, 10, 10, 7, 13, 12, 12, 11, 12, 14, 11, 12, 8, 15, 15, 9, 12, 8, 7]
open = [false, false, false, false, false, false, true, true, true, true, true, true, true, true, true]
trucks_used = [0, 0, 0, 0, 0, 0, 1, 2, 1, 2, 1, 7, 2, 3, 4]
truck_assigned = [2, 2, 2, 1, 1, 4, 3, 2, 3, 2, 1, 6, 2, 2, 1, 2, 7, 7, 1, 6, 2, 1, 3, 1, 2, 4, 1, 5, 2, 1]
obj = 10842
----------
source = [13, 14, 8, 14, 9, 12, 15, 15, 14, 8, 11, 12, 10, 10, 7, 13, 12, 8, 11, 12, 12, 11, 12, 8, 15, 15, 9, 12, 8, 7]
open = [false, false, false, false, false, false, true, true, true, true, true, true, true, true, true]
trucks_used = [0, 0, 0, 0, 0, 0, 1, 2, 1, 2, 1, 7, 2, 3, 4]
truck_assigned = [2, 2, 2, 1, 1, 3, 3, 2, 3, 2, 1, 6, 2, 2, 1, 2, 7, 1, 1, 7, 4, 1, 7, 1, 2, 4, 1, 5, 2, 1]
obj = 10831
----------
source = [13, 14, 8, 11, 9, 12, 15, 12, 14, 8, 11, 12, 10, 10, 7, 13, 12, 15, 14, 12, 15, 11, 7, 8, 12, 15, 9, 12, 8, 7]
open = [false, false, false, false, false, false, true, true, true, true, true, true, true, true, true]
trucks_used = [0, 0, 0, 0, 0, 0, 1, 2, 1, 2, 1, 7, 2, 3, 4]
truck_assigned = [2, 3, 2, 1, 1, 6, 3, 7, 2, 2, 1, 4, 2, 2, 1, 2, 7, 4, 1, 6, 4, 1, 1, 1, 3, 2, 1, 5, 2, 1]
obj = 10828
----------
source = [13, 14, 8, 14, 9, 12, 15, 12, 14, 8, 11, 12, 10, 10, 7, 13, 12, 15, 11, 12, 15, 9, 7, 8, 12, 15, 11, 12, 8, 7]
open = [false, false, false, false, false, false, true, true, true, true, true, true, true, true, true]
trucks_used = [0, 0, 0, 0, 0, 0, 1, 2, 1, 2, 1, 7, 2, 3, 4]
truck_assigned = [2, 3, 2, 2, 1, 6, 3, 7, 1, 2, 1, 4, 2, 2, 1, 2, 7, 4, 1, 6, 4, 1, 1, 1, 3, 2, 1, 5, 2, 1]
obj = 10824
----------
source = [13, 14, 8, 14, 9, 12, 15, 12, 14, 8, 11, 12, 11, 10, 7, 13, 12, 15, 10, 12, 15, 11, 7, 8, 12, 15, 9, 12, 8, 7]
open = [false, false, false, false, false, false, true, true, true, true, true, true, true, true, true]
trucks_used = [0, 0, 0, 0, 0, 0, 1, 2, 1, 2, 1, 7, 2, 3, 4]
truck_assigned = [2, 1, 2, 3, 1, 6, 3, 7, 2, 2, 1, 4, 1, 2, 1, 2, 7, 4, 2, 6, 4, 1, 1, 1, 3, 2, 1, 5, 2, 1]
obj = 10820
----------
source = [13, 14, 8, 14, 9, 12, 15, 10, 14, 8, 7, 12, 11, 10, 7, 13, 12, 15, 11, 12, 15, 11, 12, 8, 12, 15, 9, 12, 8, 7]
open = [false, false, false, false, false, false, true, true, true, true, true, true, true, true, true]
trucks_used = [0, 0, 0, 0, 0, 0, 1, 2, 1, 2, 1, 7, 2, 3, 4]
truck_assigned = [2, 3, 2, 1, 1, 7, 3, 2, 2, 2, 1, 5, 1, 2, 1, 2, 4, 4, 1, 7, 4, 1, 4, 1, 3, 2, 1, 6, 2, 1]
obj = 10819
----------
source = [13, 14, 8, 14, 9, 12, 15, 12, 14, 8, 11, 12, 10, 10, 7, 13, 12, 15, 11, 12, 15, 11, 7, 8, 12, 15, 9, 12, 8, 7]
open = [false, false, false, false, false, false, true, true, true, true, true, true, true, true, true]
trucks_used = [0, 0, 0, 0, 0, 0, 1, 2, 1, 2, 1, 7, 2, 3, 4]
truck_assigned = [2, 1, 2, 2, 1, 6, 3, 7, 3, 2, 1, 4, 2, 2, 1, 2, 7, 4, 1, 6, 4, 1, 1, 1, 3, 2, 1, 5, 2, 1]
obj = 10808
----------
source = [10, 14, 8, 11, 9, 12, 15, 5, 14, 12, 11, 12, 10, 15, 8, 13, 12, 8, 12, 5, 14, 9, 12, 8, 15, 15, 11, 12, 8, 13]
open = [false, false, false, false, true, false, false, true, true, true, true, true, true, true, true]
trucks_used = [0, 0, 0, 0, 1, 0, 0, 2, 1, 2, 1, 7, 2, 3, 4]
truck_assigned = [2, 3, 2, 1, 1, 7, 3, 1, 2, 5, 1, 3, 2, 2, 2, 2, 6, 2, 6, 1, 3, 1, 5, 1, 1, 4, 1, 4, 1, 2]
obj = 10805
----------
source = [10, 14, 13, 11, 9, 12, 15, 5, 14, 12, 11, 12, 10, 15, 8, 13, 12, 8, 12, 5, 14, 9, 12, 8, 15, 15, 11, 12, 8, 13]
open = [false, false, false, false, true, false, false, true, true, true, true, true, true, true, true]
trucks_used = [0, 0, 0, 0, 1, 0, 0, 2, 1, 2, 1, 7, 2, 3, 4]
truck_assigned = [2, 3, 2, 1, 1, 4, 3, 1, 2, 6, 1, 3, 2, 1, 1, 2, 7, 2, 7, 1, 3, 1, 6, 1, 2, 4, 1, 5, 2, 1]
obj = 10804
----------
source = [10, 14, 8, 14, 9, 12, 15, 5, 14, 9, 11, 12, 11, 15, 8, 13, 12, 8, 12, 5, 10, 11, 12, 8, 15, 15, 13, 12, 8, 12]
open = [false, false, false, false, true, false, false, true, true, true, true, true, true, true, true]
trucks_used = [0, 0, 0, 0, 1, 0, 0, 2, 1, 2, 1, 7, 2, 3, 4]
truck_assigned = [2, 3, 1, 1, 1, 4, 3, 1, 2, 1, 1, 3, 1, 1, 1, 2, 7, 2, 7, 1, 2, 1, 6, 2, 2, 4, 2, 5, 1, 6]
obj = 10800
----------
source = [10, 14, 8, 14, 9, 12, 15, 5, 14, 12, 11, 12, 11, 15, 8, 13, 12, 8, 12, 5, 10, 11, 12, 8, 15, 15, 13, 12, 8, 9]
open = [false, false, false, false, true, false, false, true, true, true, true, true, true, true, true]
trucks_used = [0, 0, 0, 0, 1, 0, 0, 2, 1, 2, 1, 7, 2, 3, 4]
truck_assigned = [2, 3, 1, 1, 1, 4, 3, 1, 2, 6, 1, 3, 1, 2, 1, 2, 7, 2, 7, 1, 2, 1, 6, 2, 1, 4, 1, 5, 1, 1]
obj = 10796
----------
source = [10, 14, 13, 14, 9, 12, 15, 5, 14, 12, 11, 12, 11, 15, 8, 13, 12, 8, 12, 5, 10, 11, 12, 8, 15, 15, 9, 12, 8, 13]
open = [false, false, false, false, true, false, false, true, true, true, true, true, true, true, true]
trucks_used = [0, 0, 0, 0, 1, 0, 0, 2, 1, 2, 1, 7, 2, 3, 4]
truck_assigned = [2, 3, 2, 1, 1, 4, 3, 1, 2, 6, 1, 3, 1, 1, 1, 2, 7, 2, 7, 1, 2, 1, 6, 2, 2, 4, 1, 5, 1, 1]
obj = 10795
----------
source = [10, 14, 8, 11, 9, 12, 15, 5, 14, 9, 11, 12, 10, 15, 8, 13, 12, 8, 12, 5, 14, 11, 12, 8, 15, 15, 13, 12, 8, 12]
open = [false, false, false, false, true, false, false, true, true, true, true, true, true, true, true]
trucks_used = [0, 0, 0, 0, 1, 0, 0, 2, 1, 2, 1, 7, 2, 3, 4]
truck_assigned = [2, 2, 1, 1, 1, 4, 3, 1, 3, 1, 1, 3, 2, 1, 1, 2, 7, 2, 7, 1, 2, 1, 6, 2, 2, 4, 2, 5, 1, 6]
obj = 10793
----------
source = [10, 14, 8, 11, 9, 12, 15, 5, 14, 12, 11, 12, 10, 15, 8, 13, 12, 8, 12, 5, 14, 11, 12, 8, 15, 15, 13, 12, 8, 9]
open = [false, false, false, false, true, false, false, true, true, true, true, true, true, true, true]
trucks_used = [0, 0, 0, 0, 1, 0, 0, 2, 1, 2, 1, 7, 2, 3, 4]
truck_assigned = [2, 3, 1, 1, 1, 4, 3, 1, 2, 6, 1, 3, 2, 2, 1, 2, 7, 2, 7, 1, 3, 1, 6, 2, 1, 4, 1, 5, 1, 1]
obj = 10789
----------
source = [10, 14, 13, 11, 9, 12, 15, 5, 14, 12, 11, 12, 10, 15, 8, 13, 12, 8, 12, 5, 14, 11, 12, 8, 15, 15, 9, 12, 8, 13]
open = [false, false, false, false, true, false, false, true, true, true, true, true, true, true, true]
trucks_used = [0, 0, 0, 0, 1, 0, 0, 2, 1, 2, 1, 7, 2, 3, 4]
truck_assigned = [2, 2, 2, 1, 1, 4, 3, 1, 3, 6, 1, 3, 2, 2, 1, 2, 7, 2, 7, 1, 2, 1, 6, 2, 1, 4, 1, 5, 1, 1]
obj = 10788
----------
source = [13, 14, 8, 11, 9, 12, 15, 15, 14, 12, 11, 12, 11, 10, 8, 13, 12, 8, 12, 5, 14, 12, 5, 8, 15, 15, 9, 12, 8, 10]
open = [false, false, false, false, true, false, false, true, true, true, true, true, true, true, true]
trucks_used = [0, 0, 0, 0, 1, 0, 0, 2, 1, 2, 1, 7, 2, 3, 4]
truck_assigned = [2, 2, 1, 1, 1, 4, 3, 2, 3, 6, 1, 2, 1, 2, 1, 2, 7, 2, 7, 1, 2, 3, 1, 2, 2, 4, 1, 5, 1, 2]
obj = 10780
----------
source = [13, 14, 8, 11, 9, 12, 15, 5, 14, 11, 11, 12, 12, 10, 8, 13, 12, 8, 15, 5, 14, 9, 12, 8, 15, 15, 12, 12, 8, 10]
open = [false, false, false, false, true, false, false, true, true, true, true, true, true, true, true]
trucks_used = [0, 0, 0, 0, 1, 0, 0, 2, 1, 2, 1, 7, 2, 3, 4]
truck_assigned = [2, 2, 1, 1, 1, 5, 3, 1, 3, 1, 1, 4, 3, 2, 1, 2, 7, 2, 2, 1, 2, 1, 7, 2, 2, 4, 2, 6, 1, 2]
obj = 10778
----------
source = [13, 14, 8, 11, 9, 12, 15, 5, 14, 9, 11, 12, 12, 10, 8, 13, 12, 8, 15, 5, 14, 11, 12, 8, 15, 15, 12, 12, 8, 10]
open = [false, false, false, false, true, false, false, true, true, true, true, true, true, true, true]
trucks_used = [0, 0, 0, 0, 1, 0, 0, 2, 1, 2, 1, 7, 2, 3, 4]
truck_assigned = [2, 2, 1, 1, 1, 6, 4, 1, 3, 1, 1, 4, 3, 2, 1, 2, 7, 2, 3, 1, 2, 1, 2, 2, 3, 2, 7, 5, 1, 2]
obj = 10775
----------
source = [13, 14, 8, 15, 9, 12, 15, 5, 14, 12, 11, 12, 11, 10, 8, 13, 12, 8, 12, 5, 14, 9, 12, 8, 15, 15, 11, 12, 8, 10]
open = [false, false, false, false, true, false, false, true, true, true, true, true, true, true, true]
trucks_used = [0, 0, 0, 0, 1, 0, 0, 2, 1, 2, 1, 7, 2, 3, 4]
truck_assigned = [2, 2, 1, 2, 1, 7, 4, 1, 3, 5, 1, 4, 1, 2, 1, 2, 6, 2, 5, 1, 2, 1, 6, 2, 1, 3, 1, 3, 1, 2]
obj = 10772
----------
source = [13, 14, 8, 11, 9, 12, 15, 12, 14, 12, 11, 12, 12, 10, 8, 13, 12, 8, 15, 5, 14, 11, 5, 8, 15, 15, 9, 12, 8, 10]
open = [false, false, false, false, true, false, false, true, true, true, true, true, true, true, true]
trucks_used = [0, 0, 0, 0, 1, 0, 0, 2, 1, 2, 1, 7, 2, 3, 4]
truck_assigned = [2, 3, 1, 1, 1, 6, 4, 3, 2, 7, 1, 5, 4, 2, 1, 2, 7, 2, 2, 1, 3, 1, 1, 2, 2, 3, 1, 2, 1, 2]
obj = 10771
----------
source = [13, 14, 8, 11, 9, 12, 15, 5, 14, 12, 11, 12, 12, 10, 8, 13, 12, 8, 15, 5, 14, 11, 12, 8, 15, 15, 9, 12, 8, 10]
open = [false, false, false, false, true, false, false, true, true, true, true, true, true, true, true]
trucks_used = [0, 0, 0, 0, 1, 0, 0, 2, 1, 2, 1, 7, 2, 3, 4]
truck_assigned = [2, 2, 1, 1, 1, 6, 2, 1, 3, 7, 1, 5, 2, 2, 1, 2, 7, 2, 3, 1, 2, 1, 3, 2, 3, 4, 1, 4, 1, 2]
obj = 10760
----------
source = [13, 14, 8, 11, 9, 12, 15, 15, 14, 12, 11, 12, 11, 10, 8, 13, 12, 8, 12, 5, 14, 5, 12, 8, 15, 15, 9, 12, 8, 10]
open = [false, false, false, false, true, false, false, true, true, true, true, true, true, true, true]
trucks_used = [0, 0, 0, 0, 1, 0, 0, 2, 1, 2, 1, 7, 2, 3, 4]
truck_assigned = [2, 3, 1, 1, 1, 3, 2, 3, 2, 7, 1, 4, 1, 2, 1, 2, 7, 2, 6, 1, 3, 1, 6, 2, 3, 4, 1, 5, 1, 2]
obj = 10757
----------
source = [13, 14, 8, 15, 9, 12, 15, 5, 14, 12, 11, 12, 11, 10, 8, 13, 12, 8, 12, 5, 14, 11, 12, 8, 15, 15, 9, 12, 8, 10]
open = [false, false, false, false, true, false, false, true, true, true, true, true, true, true, true]
trucks_used = [0, 0, 0, 0, 1, 0, 0, 2, 1, 2, 1, 7, 2, 3, 4]
truck_assigned = [2, 3, 1, 3, 1, 3, 1, 1, 2, 7, 1, 4, 1, 2, 1, 2, 7, 2, 6, 1, 3, 1, 6, 2, 2, 4, 1, 5, 1, 2]
obj = 10756
----------
source = [13, 14, 8, 14, 9, 12, 15, 5, 14, 11, 11, 12, 11, 10, 8, 13, 12, 8, 15, 5, 12, 9, 12, 8, 15, 15, 12, 12, 8, 10]
open = [false, false, false, false, true, false, false, true, true, true, true, true, true, true, true]
trucks_used = [0, 0, 0, 0, 1, 0, 0, 2, 1, 2, 1, 7, 2, 3, 4]
truck_assigned = [2, 1, 1, 2, 1, 6, 4, 1, 3, 1, 1, 4, 1, 2, 1, 2, 7, 2, 3, 1, 3, 1, 7, 2, 3, 2, 3, 5, 1, 2]
obj = 10751
----------
source = [13, 14, 8, 14, 9, 12, 15, 5, 14, 9, 11, 12, 11, 10, 8, 13, 12, 8, 15, 5, 12, 11, 12, 8, 15, 15, 12, 12, 8, 10]
open = [false, false, false, false, true, false, false, true, true, true, true, true, true, true, true]
trucks_used = [0, 0, 0, 0, 1, 0, 0, 2, 1, 2, 1, 7, 2, 3, 4]
truck_assigned = [2, 1, 1, 2, 1, 7, 4, 1, 3, 1, 1, 5, 1, 2, 1, 2, 4, 2, 3, 1, 6, 1, 4, 2, 3, 2, 6, 3, 1, 2]
obj = 10748
----------
source = [13, 14, 8, 14, 9, 12, 15, 5, 14, 12, 11, 12, 11, 10, 8, 13, 12, 8, 15, 5, 12, 11, 12, 8, 15, 15, 9, 12, 8, 10]
open = [false, false, false, false, true, false, false, true, true, true, true, true, true, true, true]
trucks_used = [0, 0, 0, 0, 1, 0, 0, 2, 1, 2, 1, 7, 2, 3, 4]
truck_assigned = [2, 1, 1, 2, 1, 6, 4, 1, 3, 4, 1, 5, 1, 2, 1, 2, 7, 2, 3, 1, 7, 1, 4, 2, 3, 2, 1, 3, 1, 2]
obj = 10733
----------
source = [13, 14, 8, 11, 9, 12, 15, 5, 14, 8, 11, 12, 10, 15, 8, 13, 12, 8, 12, 5, 14, 11, 12, 10, 15, 15, 9, 12, 8, 12]
open = [false, false, false, false, true, false, false, true, true, true, true, true, true, true, true]
trucks_used = [0, 0, 0, 0, 1, 0, 0, 2, 1, 2, 1, 7, 2, 3, 4]
truck_assigned = [2, 2, 1, 1, 1, 7, 4, 1, 3, 1, 1, 4, 2, 2, 1, 2, 6, 2, 6, 1, 2, 1, 3, 2, 3, 1, 1, 5, 2, 3]
obj = 10731
----------
source = [13, 14, 8, 11, 9, 12, 15, 15, 14, 8, 11, 12, 10, 10, 8, 13, 12, 12, 11, 5, 14, 9, 12, 5, 15, 15, 12, 12, 8, 5]
open = [false, false, false, false, true, false, false, true, true, true, true, true, true, true, true]
trucks_used = [0, 0, 0, 0, 1, 0, 0, 2, 1, 2, 1, 7, 2, 3, 4]
truck_assigned = [2, 2, 2, 1, 1, 4, 4, 3, 3, 2, 1, 5, 2, 2, 1, 2, 7, 3, 1, 1, 2, 1, 3, 1, 3, 2, 7, 6, 2, 1]
obj = 10722
----------
source = [13, 14, 8, 11, 9, 12, 15, 5, 14, 8, 11, 12, 12, 10, 8, 13, 12, 15, 11, 5, 14, 9, 12, 5, 15, 15, 12, 12, 8, 10]
open = [false, false, false, false, true, false, false, true, true, true, true, true, true, true, true]
trucks_used = [0, 0, 0, 0, 1, 0, 0, 2, 1, 2, 1, 7, 2, 3, 4]
truck_assigned = [2, 3, 2, 1, 1, 4, 4, 1, 2, 2, 1, 5, 3, 2, 1, 2, 7, 2, 1, 1, 3, 1, 2, 1, 3, 1, 7, 6, 2, 2]
obj = 10720
----------
source = [13, 14, 8, 14, 9, 12, 15, 15, 14, 8, 11, 12, 10, 10, 8, 13, 12, 11, 11, 5, 12, 9, 12, 5, 15, 15, 12, 12, 8, 5]
open = [false, false, false, false, true, false, false, true, true, true, true, true, true, true, true]
trucks_used = [0, 0, 0, 0, 1, 0, 0, 2, 1, 2, 1, 7, 2, 3, 4]
truck_assigned = [2, 3, 2, 2, 1, 3, 2, 4, 1, 2, 1, 5, 2, 2, 1, 2, 7, 1, 1, 1, 4, 1, 4, 1, 4, 3, 7, 6, 2, 1]
obj = 10712
----------
source = [13, 14, 8, 11, 9, 12, 15, 5, 14, 8, 11, 12, 12, 10, 8, 13, 12, 11, 15, 5, 14, 9, 12, 5, 15, 15, 12, 12, 8, 10]
open = [false, false, false, false, true, false, false, true, true, true, true, true, true, true, true]
trucks_used = [0, 0, 0, 0, 1, 0, 0, 2, 1, 2, 1, 7, 2, 3, 4]
truck_assigned = [2, 3, 2, 1, 1, 4, 2, 1, 2, 2, 1, 5, 3, 2, 1, 2, 7, 1, 4, 1, 3, 1, 2, 1, 4, 3, 7, 6, 2, 2]
obj = 10709
----------
source = [13, 14, 8, 14, 9, 12, 15, 5, 14, 8, 11, 12, 10, 10, 8, 13, 12, 15, 11, 5, 12, 11, 12, 5, 15, 15, 9, 12, 8, 12]
open = [false, false, false, false, true, false, false, true, true, true, true, true, true, true, true]
trucks_used = [0, 0, 0, 0, 1, 0, 0, 2, 1, 2, 1, 7, 2, 3, 4]
truck_assigned = [2, 3, 2, 2, 1, 3, 1, 1, 1, 2, 1, 5, 2, 2, 1, 2, 7, 4, 1, 1, 4, 1, 4, 1, 2, 3, 1, 6, 2, 7]
obj = 10700
----------
source = [13, 14, 8, 11, 9, 12, 15, 5, 14, 8, 11, 12, 10, 10, 8, 13, 12, 15, 12, 5, 14, 11, 12, 5, 15, 15, 9, 12, 8, 12]
open = [false, false, false, false, true, false, false, true, true, true, true, true, true, true, true]
trucks_used = [0, 0, 0, 0, 1, 0, 0, 2, 1, 2, 1, 7, 2, 3, 4]
truck_assigned = [2, 3, 2, 1, 1, 3, 1, 1, 2, 2, 1, 5, 2, 2, 1, 2, 7, 3, 4, 1, 3, 1, 4, 1, 2, 4, 1, 6, 2, 7]
obj = 10698
----------
source = [13, 14, 8, 11, 9, 12, 15, 5, 14, 8, 11, 12, 11, 10, 8, 13, 12, 12, 15, 5, 14, 9, 12, 5, 15, 15, 12, 12, 8, 10]
open = [false, false, false, false, true, false, false, true, true, true, true, true, true, true, true]
trucks_used = [0, 0, 0, 0, 1, 0, 0, 2, 1, 2, 1, 7, 2, 3, 4]
truck_assigned = [2, 3, 2, 1, 1, 5, 4, 1, 2, 2, 1, 4, 1, 2, 1, 2, 7, 2, 2, 1, 3, 1, 7, 1, 2, 3, 3, 6, 2, 2]
obj = 10692
----------
source = [13, 14, 8, 14, 9, 12, 15, 5, 14, 8, 11, 12, 11, 10, 8, 13, 12, 11, 15, 5, 12, 9, 12, 5, 15, 15, 12, 12, 8, 10]
open = [false, false, false, false, true, false, false, true, true, true, true, true, true, true, true]
trucks_used = [0, 0, 0, 0, 1, 0, 0, 2, 1, 2, 1, 7, 2, 3, 4]
truck_assigned = [2, 3, 2, 2, 1, 6, 4, 1, 1, 2, 1, 5, 1, 2, 1, 2, 7, 1, 2, 1, 4, 1, 7, 1, 2, 3, 4, 3, 2, 2]
obj = 10682
----------
source = [13, 14, 8, 14, 9, 12, 15, 5, 14, 8, 11, 12, 11, 10, 8, 13, 12, 8, 15, 12, 12, 11, 12, 5, 15, 15, 9, 12, 8, 10]
open = [false, false, false, false, true, false, false, true, true, true, true, true, true, true, true]
trucks_used = [0, 0, 0, 0, 1, 0, 0, 2, 1, 2, 1, 7, 2, 3, 4]
truck_assigned = [2, 3, 1, 2, 1, 7, 4, 1, 1, 1, 1, 5, 1, 2, 1, 2, 3, 2, 2, 7, 4, 1, 4, 1, 2, 3, 1, 6, 2, 2]
obj = 10681
----------
source = [13, 14, 8, 11, 9, 12, 15, 5, 14, 8, 11, 14, 12, 10, 8, 13, 12, 8, 15, 12, 12, 11, 12, 5, 15, 15, 9, 12, 8, 10]
open = [false, false, false, false, true, false, false, true, true, true, true, true, true, true, true]
trucks_used = [0, 0, 0, 0, 1, 0, 0, 2, 1, 2, 1, 7, 2, 3, 4]
truck_assigned = [2, 3, 1, 1, 1, 4, 4, 1, 2, 1, 1, 1, 3, 2, 1, 2, 6, 2, 2, 7, 6, 1, 5, 1, 2, 3, 1, 7, 2, 2]
obj = 10667
----------
source = [13, 14, 8, 11, 9, 12, 15, 5, 14, 8, 11, 14, 11, 10, 8, 13, 12, 12, 15, 5, 12, 9, 12, 5, 15, 15, 12, 12, 8, 10]
open = [false, false, false, false, true, false, false, true, true, true, true, true, true, true, true]
trucks_used = [0, 0, 0, 0, 1, 0, 0, 2, 1, 2, 1, 7, 2, 3, 4]
truck_assigned = [2, 1, 2, 1, 1, 2, 4, 1, 2, 2, 1, 3, 1, 2, 1, 2, 6, 4, 2, 1, 6, 1, 5, 1, 2, 3, 5, 7, 2, 2]
obj = 10651
----------
source = [13, 14, 8, 14, 9, 12, 15, 5, 14, 8, 11, 15, 11, 10, 8, 13, 12, 12, 12, 5, 10, 11, 12, 5, 15, 15, 9, 12, 8, 12]
open = [false, false, false, false, true, false, false, true, true, true, true, true, true, true, true]
trucks_used = [0, 0, 0, 0, 1, 0, 0, 2, 1, 2, 1, 7, 2, 3, 4]
truck_assigned = [2, 3, 2, 1, 1, 6, 4, 1, 2, 2, 1, 2, 1, 2, 1, 2, 7, 7, 3, 1, 2, 1, 5, 1, 2, 3, 1, 4, 2, 5]
obj = 10648
----------
source = [13, 14, 8, 11, 9, 12, 15, 5, 14, 8, 11, 15, 10, 10, 8, 13, 12, 12, 12, 5, 14, 11, 12, 5, 15, 15, 9, 12, 8, 12]
open = [false, false, false, false, true, false, false, true, true, true, true, true, true, true, true]
trucks_used = [0, 0, 0, 0, 1, 0, 0, 2, 1, 2, 1, 7, 2, 3, 4]
truck_assigned = [2, 3, 2, 1, 1, 3, 2, 1, 2, 2, 1, 4, 2, 2, 1, 2, 4, 6, 7, 1, 3, 1, 6, 1, 4, 3, 1, 5, 2, 7]
obj = 10641
----------
source = [13, 14, 8, 14, 9, 12, 15, 5, 14, 8, 11, 15, 11, 10, 8, 13, 12, 12, 11, 5, 12, 9, 12, 5, 15, 15, 12, 12, 8, 10]
open = [false, false, false, false, true, false, false, true, true, true, true, true, true, true, true]
trucks_used = [0, 0, 0, 0, 1, 0, 0, 2, 1, 2, 1, 7, 2, 3, 4]
truck_assigned = [2, 3, 2, 1, 1, 6, 2, 1, 2, 2, 1, 4, 1, 2, 1, 2, 7, 3, 1, 1, 4, 1, 7, 1, 4, 3, 4, 5, 2, 2]
obj = 10636
----------
source = [13, 14, 8, 14, 9, 12, 15, 5, 14, 12, 11, 15, 11, 10, 8, 13, 12, 15, 12, 5, 12, 11, 12, 5, 15, 15, 9, 12, 8, 10]
open = [false, false, false, false, true, false, false, true, true, true, true, true, true, true, true]
trucks_used = [0, 0, 0, 0, 1, 0, 0, 2, 1, 2, 1, 7, 2, 3, 4]
truck_assigned = [2, 3, 2, 1, 1, 6, 1, 1, 2, 3, 1, 4, 1, 2, 2, 2, 4, 4, 7, 1, 4, 1, 7, 1, 2, 3, 1, 5, 2, 2]
obj = 10632
----------
source = [13, 14, 8, 14, 9, 11, 15, 5, 14, 12, 11, 15, 11, 10, 8, 13, 12, 15, 10, 5, 12, 9, 12, 8, 15, 15, 12, 12, 8, 12]
open = [false, false, false, false, true, false, false, true, true, true, true, true, true, true, true]
trucks_used = [0, 0, 0, 0, 1, 0, 0, 2, 1, 2, 1, 7, 2, 3, 4]
truck_assigned = [2, 3, 2, 1, 1, 1, 1, 1, 2, 7, 1, 4, 1, 2, 2, 2, 5, 4, 2, 1, 6, 1, 7, 1, 2, 3, 5, 4, 2, 6]
obj = 10618
----------
source = [13, 14, 8, 14, 9, 11, 15, 5, 14, 12, 11, 15, 11, 10, 8, 13, 12, 15, 8, 12, 12, 10, 12, 5, 15, 15, 9, 12, 8, 12]
open = [false, false, false, false, true, false, false, true, true, true, true, true, true, true, true]
trucks_used = [0, 0, 0, 0, 1, 0, 0, 2, 1, 2, 1, 7, 2, 3, 4]
truck_assigned = [2, 3, 2, 1, 1, 1, 1, 1, 2, 6, 1, 4, 1, 2, 2, 2, 6, 4, 1, 3, 7, 2, 4, 1, 2, 3, 1, 5, 2, 7]
obj = 10608
----------
source = [13, 14, 8, 14, 9, 11, 15, 5, 14, 12, 11, 15, 11, 10, 8, 13, 12, 15, 10, 5, 12, 9, 12, 5, 15, 15, 12, 12, 8, 12]
open = [false, false, false, false, true, false, false, true, true, true, true, true, true, true, true]
trucks_used = [0, 0, 0, 0, 1, 0, 0, 2, 1, 2, 1, 7, 2, 3, 4]
truck_assigned = [2, 3, 2, 1, 1, 1, 1, 1, 2, 6, 1, 4, 1, 2, 2, 2, 6, 4, 2, 1, 7, 1, 4, 1, 2, 3, 4, 5, 2, 7]
obj = 10580
----------
source = [13, 14, 8, 14, 9, 8, 15, 5, 14, 12, 11, 15, 11, 10, 8, 13, 12, 11, 10, 5, 12, 9, 12, 5, 15, 15, 12, 12, 8, 12]
open = [false, false, false, false, true, false, false, true, true, true, true, true, true, true, true]
trucks_used = [0, 0, 0, 0, 1, 0, 0, 2, 1, 2, 1, 7, 2, 3, 4]
truck_assigned = [2, 3, 2, 1, 1, 1, 2, 1, 2, 6, 1, 4, 1, 2, 2, 2, 6, 1, 2, 1, 7, 1, 4, 1, 4, 3, 4, 5, 2, 7]
obj = 10579
----------
source = [13, 14, 8, 14, 9, 8, 15, 5, 14, 12, 11, 15, 11, 10, 8, 13, 12, 15, 10, 12, 12, 11, 12, 5, 15, 15, 9, 12, 8, 12]
open = [false, false, false, false, true, false, false, true, true, true, true, true, true, true, true]
trucks_used = [0, 0, 0, 0, 1, 0, 0, 2, 1, 2, 1, 7, 2, 3, 4]
truck_assigned = [2, 3, 2, 1, 1, 2, 1, 1, 2, 6, 1, 4, 1, 2, 1, 2, 6, 4, 2, 5, 7, 1, 4, 1, 2, 3, 1, 5, 2, 7]
obj = 10573
----------
source = [13, 14, 8, 14, 9, 8, 15, 5, 14, 12, 11, 15, 11, 10, 8, 13, 12, 11, 12, 5, 12, 9, 12, 5, 15, 15, 12, 12, 8, 10]
open = [false, false, false, false, true, false, false, true, true, true, true, true, true, true, true]
trucks_used = [0, 0, 0, 0, 1, 0, 0, 2, 1, 2, 1, 7, 2, 3, 4]
truck_assigned = [2, 3, 2, 1, 1, 1, 2, 1, 2, 6, 1, 4, 1, 2, 2, 2, 7, 1, 4, 1, 7, 1, 4, 1, 4, 3, 6, 5, 2, 2]
obj = 10571
----------
source = [13, 14, 8, 14, 9, 8, 15, 5, 14, 12, 11, 15, 10, 10, 8, 13, 12, 11, 11, 5, 12, 9, 12, 5, 15, 15, 12, 12, 8, 12]
open = [false, false, false, false, true, false, false, true, true, true, true, true, true, true, true]
trucks_used = [0, 0, 0, 0, 1, 0, 0, 2, 1, 2, 1, 7, 2, 3, 4]
truck_assigned = [2, 3, 2, 1, 1, 1, 2, 1, 2, 7, 1, 4, 2, 2, 2, 2, 6, 1, 1, 1, 4, 1, 6, 1, 4, 3, 7, 5, 2, 4]
obj = 10567
----------
source = [13, 14, 8, 14, 9, 8, 15, 5, 14, 12, 11, 15, 11, 10, 8, 13, 12, 15, 12, 12, 12, 11, 12, 5, 15, 15, 9, 12, 8, 10]
open = [false, false, false, false, true, false, false, true, true, true, true, true, true, true, true]
trucks_used = [0, 0, 0, 0, 1, 0, 0, 2, 1, 2, 1, 7, 2, 3, 4]
truck_assigned = [2, 3, 2, 1, 1, 1, 1, 1, 2, 7, 1, 4, 1, 2, 2, 2, 6, 4, 6, 6, 4, 1, 7, 1, 2, 3, 1, 5, 2, 2]
obj = 10565
----------
source = [13, 14, 8, 14, 9, 8, 15, 5, 14, 12, 11, 15, 10, 10, 8, 13, 12, 15, 11, 12, 12, 11, 12, 5, 15, 15, 9, 12, 8, 12]
open = [false, false, false, false, true, false, false, true, true, true, true, true, true, true, true]
trucks_used = [0, 0, 0, 0, 1, 0, 0, 2, 1, 2, 1, 7, 2, 3, 4]
truck_assigned = [2, 3, 2, 1, 1, 2, 1, 1, 2, 7, 1, 4, 2, 2, 1, 2, 6, 4, 1, 6, 6, 1, 7, 1, 2, 3, 1, 5, 2, 4]
obj = 10561
----------
source = [13, 14, 8, 11, 9, 8, 15, 5, 10, 8, 11, 15, 10, 12, 14, 13, 12, 15, 11, 5, 12, 9, 12, 5, 15, 15, 12, 12, 14, 12]
open = [false, false, false, false, true, false, false, true, true, true, true, true, true, true, true]
trucks_used = [0, 0, 0, 0, 1, 0, 0, 2, 1, 2, 1, 7, 2, 3, 4]
truck_assigned = [2, 2, 2, 1, 1, 2, 1, 1, 2, 2, 1, 4, 2, 3, 3, 2, 7, 4, 1, 1, 7, 1, 6, 1, 2, 3, 6, 5, 3, 4]
obj = 10555
----------
source = [8, 14, 8, 11, 9, 13, 15, 13, 5, 8, 11, 15, 11, 10, 8, 14, 12, 12, 12, 12, 12, 9, 5, 5, 15, 15, 12, 12, 14, 10]
open = [false, false, false, false, true, false, false, true, true, true, true, true, true, true, true]
trucks_used = [0, 0, 0, 0, 1, 0, 0, 2, 1, 2, 1, 7, 2, 3, 4]
truck_assigned = [1, 3, 2, 1, 1, 2, 2, 2, 1, 2, 1, 4, 1, 2, 2, 1, 6, 4, 6, 6, 7, 1, 1, 1, 4, 3, 7, 5, 2, 2]
obj = 10550
----------
source = [8, 14, 8, 11, 9, 13, 15, 13, 5, 8, 11, 15, 10, 10, 8, 14, 12, 12, 11, 12, 12, 9, 5, 5, 15, 15, 12, 12, 14, 12]
open = [false, false, false, false, true, false, false, true, true, true, true, true, true, true, true]
trucks_used = [0, 0, 0, 0, 1, 0, 0, 2, 1, 2, 1, 7, 2, 3, 4]
truck_assigned = [1, 2, 2, 1, 1, 2, 2, 2, 1, 2, 1, 4, 2, 2, 2, 3, 5, 6, 1, 6, 7, 1, 1, 1, 4, 3, 7, 4, 3, 5]
obj = 10546
----------
source = [13, 14, 8, 12, 9, 8, 15, 13, 5, 8, 11, 15, 11, 10, 8, 14, 12, 15, 12, 12, 12, 11, 5, 5, 15, 15, 12, 12, 14, 10]
open = [false, false, false, false, true, false, false, true, true, true, true, true, true, true, true]
trucks_used = [0, 0, 0, 0, 1, 0, 0, 2, 1, 2, 1, 7, 2, 3, 4]
truck_assigned = [1, 3, 2, 4, 1, 2, 1, 2, 1, 1, 1, 4, 1, 2, 2, 2, 7, 4, 5, 7, 7, 1, 1, 1, 2, 3, 5, 6, 2, 2]
obj = 10545
----------
source = [13, 14, 8, 14, 9, 8, 15, 13, 5, 12, 11, 15, 11, 10, 8, 12, 12, 15, 12, 12, 12, 9, 5, 5, 15, 15, 11, 12, 14, 10]
open = [false, false, false, false, true, false, false, true, true, true, true, true, true, true, true]
trucks_used = [0, 0, 0, 0, 1, 0, 0, 2, 1, 2, 1, 7, 2, 3, 4]
truck_assigned = [1, 3, 2, 2, 1, 2, 1, 2, 1, 5, 1, 4, 1, 2, 2, 4, 7, 4, 5, 7, 7, 1, 1, 1, 2, 3, 1, 6, 2, 2]
obj = 10544
----------
source = [13, 14, 8, 11, 9, 8, 15, 13, 5, 8, 12, 15, 11, 10, 14, 14, 12, 15, 12, 12, 12, 9, 12, 5, 15, 15, 11, 12, 8, 10]
open = [false, false, false, false, true, false, false, true, true, true, true, true, true, true, true]
trucks_used = [0, 0, 0, 0, 1, 0, 0, 2, 1, 2, 1, 7, 2, 3, 4]
truck_assigned = [1, 3, 2, 1, 1, 2, 1, 2, 1, 2, 4, 4, 1, 2, 2, 1, 6, 4, 6, 7, 5, 1, 5, 1, 2, 3, 1, 7, 1, 2]
obj = 10537
----------
source = [13, 14, 8, 11, 9, 8, 15, 13, 5, 8, 12, 15, 11, 10, 8, 14, 12, 15, 12, 12, 12, 9, 12, 5, 15, 15, 11, 12, 14, 10]
open = [false, false, false, false, true, false, false, true, true, true, true, true, true, true, true]
trucks_used = [0, 0, 0, 0, 1, 0, 0, 2, 1, 2, 1, 7, 2, 3, 4]
truck_assigned = [1, 3, 2, 1, 1, 2, 1, 2, 1, 2, 7, 4, 1, 2, 1, 1, 4, 4, 7, 6, 6, 1, 6, 1, 2, 3, 1, 5, 2, 2]
obj = 10531
----------
source = [13, 14, 8, 13, 9, 8, 15, 5, 5, 12, 12, 15, 11, 10, 8, 14, 12, 15, 11, 12, 12, 9, 12, 5, 15, 15, 11, 12, 14, 10]
open = [false, false, false, false, true, false, false, true, true, true, true, true, true, true, true]
trucks_used = [0, 0, 0, 0, 1, 0, 0, 2, 1, 2, 1, 7, 2, 3, 4]
truck_assigned = [2, 2, 2, 2, 1, 2, 1, 1, 1, 4, 7, 4, 1, 2, 2, 3, 7, 4, 1, 6, 6, 1, 6, 1, 2, 3, 1, 5, 3, 2]
obj = 10526
----------
source = [13, 14, 8, 11, 9, 8, 15, 13, 5, 8, 12, 15, 11, 10, 14, 14, 12, 15, 12, 12, 12, 11, 12, 5, 15, 15, 9, 12, 8, 10]
open = [false, false, false, false, true, false, false, true, true, true, true, true, true, true, true]
trucks_used = [0, 0, 0, 0, 1, 0, 0, 2, 1, 2, 1, 7, 2, 3, 4]
truck_assigned = [2, 3, 2, 1, 1, 2, 1, 2, 1, 2, 7, 4, 1, 2, 2, 2, 7, 4, 6, 6, 5, 1, 6, 1, 2, 3, 1, 4, 1, 2]
obj = 10521
----------
source = [13, 14, 8, 11, 9, 8, 15, 13, 5, 8, 12, 15, 11, 10, 8, 14, 12, 15, 12, 12, 12, 11, 12, 5, 15, 15, 9, 12, 14, 10]
open = [false, false, false, false, true, false, false, true, true, true, true, true, true, true, true]
trucks_used = [0, 0, 0, 0, 1, 0, 0, 2, 1, 2, 1, 7, 2, 3, 4]
truck_assigned = [2, 3, 2, 1, 1, 2, 1, 2, 1, 2, 7, 4, 1, 2, 1, 2, 7, 4, 6, 6, 5, 1, 6, 1, 2, 3, 1, 4, 2, 2]
obj = 10515
----------
source = [13, 14, 8, 13, 9, 8, 15, 5, 5, 12, 12, 15, 11, 10, 8, 14, 12, 15, 11, 12, 12, 11, 12, 5, 15, 15, 9, 12, 14, 10]
open = [false, false, false, false, true, false, false, true, true, true, true, true, true, true, true]
trucks_used = [0, 0, 0, 0, 1, 0, 0, 2, 1, 2, 1, 7, 2, 3, 4]
truck_assigned = [1, 3, 2, 2, 1, 2, 1, 1, 1, 4, 7, 4, 1, 2, 2, 2, 7, 4, 1, 6, 6, 1, 6, 1, 2, 3, 1, 5, 2, 2]
obj = 10510
----------
source = [13, 14, 8, 13, 9, 8, 15, 5, 11, 8, 12, 15, 11, 10, 8, 14, 12, 15, 12, 12, 12, 11, 12, 5, 15, 15, 9, 12, 14, 10]
open = [false, false, false, false, true, false, false, true, true, true, true, true, true, true, true]
trucks_used = [0, 0, 0, 0, 1, 0, 0, 2, 1, 2, 1, 7, 2, 3, 4]
truck_assigned = [1, 2, 2, 2, 1, 2, 1, 1, 1, 2, 7, 4, 1, 2, 1, 3, 7, 4, 6, 6, 5, 1, 6, 1, 2, 3, 1, 4, 3, 2]
obj = 10507
----------
source = [13, 14, 8, 11, 9, 8, 15, 5, 8, 12, 11, 15, 11, 10, 14, 14, 12, 15, 12, 5, 12, 9, 12, 5, 15, 15, 12, 12, 13, 10]
open = [false, false, false, false, true, false, false, true, true, true, true, true, true, true, true]
trucks_used = [0, 0, 0, 0, 1, 0, 0, 2, 1, 2, 1, 7, 2, 3, 4]
truck_assigned = [1, 3, 2, 1, 1, 2, 1, 1, 2, 4, 1, 4, 1, 2, 2, 1, 7, 4, 6, 1, 6, 1, 7, 1, 2, 3, 4, 5, 2, 2]
obj = 10501
----------
source = [13, 14, 8, 11, 9, 8, 15, 5, 8, 12, 11, 15, 10, 10, 14, 14, 12, 15, 11, 5, 12, 9, 12, 5, 15, 15, 12, 12, 13, 12]
open = [false, false, false, false, true, false, false, true, true, true, true, true, true, true, true]
trucks_used = [0, 0, 0, 0, 1, 0, 0, 2, 1, 2, 1, 7, 2, 3, 4]
truck_assigned = [2, 3, 2, 1, 1, 2, 1, 1, 1, 6, 1, 4, 2, 1, 2, 1, 5, 4, 1, 1, 7, 1, 6, 1, 2, 3, 7, 4, 2, 5]
obj = 10497
----------
source = [13, 14, 8, 13, 9, 8, 15, 5, 11, 12, 11, 15, 10, 10, 8, 14, 12, 15, 11, 5, 12, 9, 12, 5, 15, 15, 12, 12, 14, 12]
open = [false, false, false, false, true, false, false, true, true, true, true, true, true, true, true]
trucks_used = [0, 0, 0, 0, 1, 0, 0, 2, 1, 2, 1, 7, 2, 3, 4]
truck_assigned = [2, 3, 2, 2, 1, 2, 1, 1, 1, 7, 1, 4, 2, 2, 2, 2, 4, 4, 1, 1, 6, 1, 7, 1, 2, 3, 4, 5, 2, 6]
obj = 10496
----------
source = [13, 14, 8, 14, 9, 8, 15, 12, 11, 8, 11, 15, 11, 10, 8, 13, 12, 15, 12, 5, 12, 9, 12, 5, 15, 15, 12, 12, 14, 10]
open = [false, false, false, false, true, false, false, true, true, true, true, true, true, true, true]
trucks_used = [0, 0, 0, 0, 1, 0, 0, 2, 1, 2, 1, 7, 2, 3, 4]
truck_assigned = [2, 2, 2, 3, 1, 2, 1, 4, 1, 2, 1, 4, 1, 2, 1, 2, 4, 4, 6, 1, 7, 1, 7, 1, 2, 3, 6, 5, 3, 2]
obj = 10495
----------
source = [13, 14, 8, 11, 9, 8, 15, 12, 8, 12, 11, 15, 11, 10, 14, 13, 12, 15, 12, 5, 12, 9, 5, 5, 15, 15, 12, 12, 14, 10]
open = [false, false, false, false, true, false, false, true, true, true, true, true, true, true, true]
trucks_used = [0, 0, 0, 0, 1, 0, 0, 2, 1, 2, 1, 7, 2, 3, 4]
truck_assigned = [1, 3, 2, 1, 1, 2, 1, 3, 2, 4, 1, 4, 1, 2, 2, 2, 6, 4, 7, 1, 7, 1, 1, 1, 2, 3, 6, 5, 2, 2]
obj = 10483
----------
source = [13, 14, 8, 11, 9, 8, 15, 5, 8, 12, 11, 15, 11, 10, 14, 13, 12, 15, 12, 5, 12, 9, 12, 5, 15, 15, 12, 12, 14, 10]
open = [false, false, false, false, true, false, false, true, true, true, true, true, true, true, true]
trucks_used = [0, 0, 0, 0, 1, 0, 0, 2, 1, 2, 1, 7, 2, 3, 4]
truck_assigned = [2, 3, 2, 1, 1, 2, 1, 1, 2, 5, 1, 4, 1, 2, 1, 2, 6, 4, 7, 1, 7, 1, 5, 1, 2, 3, 6, 4, 2, 2]
obj = 10472
----------
source = [13, 14, 8, 11, 9, 8, 15, 5, 8, 12, 11, 15, 10, 10, 14, 13, 12, 15, 11, 5, 12, 9, 12, 5, 15, 15, 12, 12, 14, 12]
open = [false, false, false, false, true, false, false, true, true, true, true, true, true, true, true]
trucks_used = [0, 0, 0, 0, 1, 0, 0, 2, 1, 2, 1, 7, 2, 3, 4]
truck_assigned = [2, 3, 2, 1, 1, 2, 1, 1, 1, 5, 1, 4, 2, 2, 1, 2, 6, 4, 1, 1, 7, 1, 7, 1, 2, 3, 6, 4, 2, 5]
obj = 10468
----------
source = [14, 14, 8, 14, 9, 11, 15, 5, 5, 8, 11, 15, 11, 10, 8, 13, 12, 15, 13, 12, 12, 9, 12, 5, 12, 15, 12, 12, 8, 10]
open = [false, false, false, false, true, false, false, true, true, true, true, true, true, true, true]
trucks_used = [0, 0, 0, 0, 1, 0, 0, 2, 1, 2, 1, 7, 2, 3, 4]
truck_assigned = [3, 2, 2, 3, 1, 1, 2, 1, 1, 2, 1, 4, 1, 2, 2, 2, 7, 4, 2, 6, 6, 1, 6, 1, 4, 3, 7, 5, 1, 2]
obj = 10466
----------
source = [8, 14, 8, 11, 9, 8, 15, 5, 5, 8, 11, 15, 11, 10, 14, 13, 12, 15, 13, 12, 12, 9, 12, 5, 12, 15, 12, 12, 14, 10]
open = [false, false, false, false, true, false, false, true, true, true, true, true, true, true, true]
trucks_used = [0, 0, 0, 0, 1, 0, 0, 2, 1, 2, 1, 7, 2, 3, 4]
truck_assigned = [1, 3, 2, 1, 1, 2, 2, 1, 1, 2, 1, 4, 1, 2, 2, 2, 5, 4, 2, 7, 6, 1, 5, 1, 7, 3, 6, 4, 2, 2]
obj = 10457
----------
source = [12, 14, 8, 13, 9, 8, 15, 5, 11, 8, 11, 15, 11, 10, 8, 13, 12, 15, 12, 5, 14, 9, 12, 5, 12, 15, 12, 12, 14, 10]
open = [false, false, false, false, true, false, false, true, true, true, true, true, true, true, true]
trucks_used = [0, 0, 0, 0, 1, 0, 0, 2, 1, 2, 1, 7, 2, 3, 4]
truck_assigned = [6, 3, 2, 2, 1, 2, 2, 1, 1, 2, 1, 4, 1, 2, 1, 2, 5, 4, 5, 1, 3, 1, 7, 1, 7, 3, 4, 3, 2, 2]
obj = 10456
----------
source = [8, 14, 8, 13, 9, 8, 15, 5, 11, 8, 11, 15, 11, 10, 14, 13, 12, 15, 12, 5, 12, 9, 12, 5, 12, 15, 12, 12, 14, 10]
open = [false, false, false, false, true, false, false, true, true, true, true, true, true, true, true]
trucks_used = [0, 0, 0, 0, 1, 0, 0, 2, 1, 2, 1, 7, 2, 3, 4]
truck_assigned = [1, 3, 2, 2, 1, 2, 2, 1, 1, 2, 1, 4, 1, 2, 1, 2, 6, 4, 6, 1, 5, 1, 7, 1, 5, 3, 7, 4, 2, 2]
obj = 10455
----------
source = [12, 14, 8, 13, 9, 8, 15, 5, 11, 8, 11, 15, 11, 10, 14, 13, 12, 15, 13, 5, 12, 9, 12, 5, 12, 15, 12, 12, 14, 10]
open = [false, false, false, false, true, false, false, true, true, true, true, true, true, true, true]
trucks_used = [0, 0, 0, 0, 1, 0, 0, 2, 1, 2, 1, 7, 2, 3, 4]
truck_assigned = [6, 3, 2, 2, 1, 2, 2, 1, 1, 2, 1, 4, 1, 2, 2, 1, 7, 4, 2, 1, 5, 1, 7, 1, 3, 3, 5, 4, 2, 2]
obj = 10450
----------
source = [8, 14, 8, 13, 9, 8, 15, 5, 11, 8, 11, 15, 11, 10, 14, 13, 12, 15, 13, 12, 12, 9, 12, 5, 12, 15, 12, 12, 14, 10]
open = [false, false, false, false, true, false, false, true, true, true, true, true, true, true, true]
trucks_used = [0, 0, 0, 0, 1, 0, 0, 2, 1, 2, 1, 7, 2, 3, 4]
truck_assigned = [1, 3, 2, 1, 1, 2, 2, 1, 1, 2, 1, 4, 1, 2, 2, 2, 5, 4, 2, 5, 6, 1, 7, 1, 7, 3, 6, 4, 2, 2]
obj = 10443
----------
source = [13, 14, 8, 14, 9, 8, 15, 5, 11, 8, 11, 15, 11, 10, 14, 13, 12, 15, 12, 12, 14, 9, 12, 5, 12, 15, 12, 12, 8, 10]
open = [false, false, false, false, true, false, false, true, true, true, true, true, true, true, true]
trucks_used = [0, 0, 0, 0, 1, 0, 0, 2, 1, 2, 1, 7, 2, 3, 4]
truck_assigned = [2, 3, 2, 2, 1, 2, 2, 1, 1, 2, 1, 4, 1, 2, 2, 2, 6, 4, 5, 5, 3, 1, 7, 1, 7, 3, 6, 4, 1, 2]
obj = 10440
----------
source = [13, 14, 8, 14, 9, 8, 15, 5, 11, 8, 11, 15, 11, 10, 8, 13, 12, 15, 12, 12, 14, 9, 12, 5, 12, 15, 12, 12, 14, 10]
open = [false, false, false, false, true, false, false, true, true, true, true, true, true, true, true]
trucks_used = [0, 0, 0, 0, 1, 0, 0, 2, 1, 2, 1, 7, 2, 3, 4]
truck_assigned = [2, 3, 2, 2, 1, 2, 2, 1, 1, 2, 1, 4, 1, 2, 1, 2, 6, 4, 5, 7, 3, 1, 5, 1, 6, 3, 7, 4, 2, 2]
obj = 10434
----------
source = [13, 14, 8, 14, 9, 8, 15, 5, 11, 8, 11, 15, 11, 10, 8, 13, 12, 15, 12, 12, 5, 9, 12, 5, 12, 15, 12, 12, 14, 10]
open = [false, false, false, false, true, false, false, true, true, true, true, true, true, true, true]
trucks_used = [0, 0, 0, 0, 1, 0, 0, 2, 1, 2, 1, 7, 2, 3, 4]
truck_assigned = [2, 3, 2, 2, 1, 2, 2, 1, 1, 2, 1, 4, 1, 2, 1, 2, 6, 4, 5, 7, 1, 1, 5, 1, 6, 3, 7, 4, 2, 2]
obj = 10431
----------
source = [13, 14, 8, 11, 9, 8, 15, 5, 5, 8, 11, 15, 11, 10, 14, 13, 12, 15, 12, 12, 14, 9, 12, 5, 12, 15, 12, 12, 8, 10]
open = [false, false, false, false, true, false, false, true, true, true, true, true, true, true, true]
trucks_used = [0, 0, 0, 0, 1, 0, 0, 2, 1, 2, 1, 7, 2, 3, 4]
truck_assigned = [2, 3, 2, 1, 1, 2, 2, 1, 1, 2, 1, 4, 1, 2, 1, 2, 6, 4, 5, 7, 3, 1, 5, 1, 6, 3, 7, 4, 1, 2]
obj = 10427
----------
source = [13, 14, 8, 11, 9, 8, 15, 5, 5, 8, 11, 15, 11, 10, 8, 13, 12, 15, 12, 12, 14, 9, 12, 5, 12, 15, 12, 12, 14, 10]
open = [false, false, false, false, true, false, false, true, true, true, true, true, true, true, true]
trucks_used = [0, 0, 0, 0, 1, 0, 0, 2, 1, 2, 1, 7, 2, 3, 4]
truck_assigned = [2, 3, 2, 1, 1, 2, 2, 1, 1, 2, 1, 4, 1, 2, 1, 2, 6, 4, 5, 7, 1, 1, 5, 1, 6, 3, 7, 4, 2, 2]
obj = 10421
----------
source = [11, 14, 8, 12, 13, 8, 15, 13, 11, 8, 11, 15, 15, 10, 14, 14, 12, 11, 12, 5, 12, 10, 5, 5, 15, 15, 12, 12, 12, 13]
open = [false, false, false, false, true, false, false, true, false, true, true, true, true, true, true]
trucks_used = [0, 0, 0, 0, 2, 0, 0, 2, 0, 2, 2, 7, 2, 3, 4]
truck_assigned = [2, 3, 2, 4, 2, 2, 3, 1, 1, 2, 2, 2, 4, 2, 2, 2, 7, 1, 6, 2, 6, 2, 2, 2, 2, 1, 7, 5, 3, 1]
obj = 10415
----------
source = [11, 14, 10, 12, 13, 8, 15, 13, 8, 8, 11, 15, 11, 10, 14, 14, 12, 15, 11, 5, 12, 11, 5, 5, 12, 15, 12, 12, 12, 13]
open = [false, false, false, false, true, false, false, true, false, true, true, true, true, true, true]
trucks_used = [0, 0, 0, 0, 2, 0, 0, 2, 0, 2, 3, 7, 2, 3, 4]
truck_assigned = [3, 3, 1, 4, 2, 2, 2, 1, 2, 1, 3, 4, 2, 2, 2, 2, 7, 4, 2, 2, 7, 2, 2, 1, 6, 3, 6, 5, 3, 1]
obj = 10414
----------
source = [11, 14, 10, 5, 13, 8, 15, 13, 8, 8, 11, 15, 11, 10, 14, 14, 12, 15, 11, 12, 12, 11, 5, 5, 12, 15, 12, 12, 12, 13]
open = [false, false, false, false, true, false, false, true, false, true, true, true, true, true, true]
trucks_used = [0, 0, 0, 0, 2, 0, 0, 2, 0, 2, 3, 7, 2, 3, 4]
truck_assigned = [3, 3, 2, 2, 2, 1, 2, 1, 2, 2, 3, 4, 2, 2, 2, 2, 7, 4, 2, 7, 7, 2, 1, 2, 6, 3, 6, 5, 4, 1]
obj = 10413
----------
source = [11, 14, 13, 12, 5, 8, 15, 13, 8, 8, 11, 15, 11, 10, 14, 14, 12, 15, 11, 5, 12, 11, 5, 5, 12, 15, 12, 12, 12, 10]
open = [false, false, false, false, true, false, false, true, false, true, true, true, true, true, true]
trucks_used = [0, 0, 0, 0, 2, 0, 0, 2, 0, 2, 3, 7, 2, 3, 4]
truck_assigned = [3, 3, 2, 4, 1, 1, 2, 2, 2, 2, 3, 4, 2, 2, 2, 1, 7, 4, 2, 2, 7, 2, 2, 1, 6, 3, 6, 5, 3, 2]
obj = 10394
----------
source = [11, 14, 13, 12, 13, 8, 15, 13, 8, 8, 11, 15, 11, 10, 14, 14, 12, 15, 11, 5, 12, 11, 5, 5, 12, 15, 12, 12, 12, 10]
open = [false, false, false, false, true, false, false, true, false, true, true, true, true, true, true]
trucks_used = [0, 0, 0, 0, 2, 0, 0, 2, 0, 2, 3, 7, 2, 3, 4]
truck_assigned = [3, 3, 1, 4, 2, 2, 2, 1, 2, 1, 3, 4, 2, 2, 2, 2, 7, 4, 2, 2, 7, 2, 2, 1, 6, 3, 6, 5, 3, 2]
obj = 10388
----------
source = [11, 14, 13, 5, 13, 8, 15, 13, 8, 8, 11, 15, 11, 10, 14, 14, 12, 15, 11, 12, 12, 11, 5, 5, 12, 15, 12, 12, 12, 10]
open = [false, false, false, false, true, false, false, true, false, true, true, true, true, true, true]
trucks_used = [0, 0, 0, 0, 2, 0, 0, 2, 0, 2, 3, 7, 2, 3, 4]
truck_assigned = [3, 3, 1, 1, 2, 1, 2, 1, 2, 2, 3, 4, 2, 2, 2, 2, 7, 4, 2, 7, 7, 2, 2, 1, 6, 3, 6, 5, 3, 2]
obj = 10387
----------
source = [11, 14, 13, 13, 5, 8, 15, 5, 8, 8, 11, 15, 11, 10, 14, 14, 12, 15, 11, 13, 12, 10, 5, 5, 12, 15, 12, 12, 12, 12]
open = [false, false, false, false, true, false, false, true, false, true, true, true, true, true, true]
trucks_used = [0, 0, 0, 0, 2, 0, 0, 2, 0, 2, 3, 7, 2, 3, 4]
truck_assigned = [3, 3, 2, 2, 1, 1, 2, 2, 2, 2, 3, 4, 2, 2, 2, 2, 4, 4, 2, 2, 7, 2, 2, 1, 7, 3, 6, 3, 5, 6]
obj = 10375
----------
source = [11, 14, 13, 13, 10, 8, 15, 5, 8, 8, 11, 15, 11, 10, 14, 14, 12, 15, 11, 13, 12, 11, 5, 5, 12, 15, 12, 12, 12, 12]
open = [false, false, false, false, true, false, false, true, false, true, true, true, true, true, true]
trucks_used = [0, 0, 0, 0, 2, 0, 0, 2, 0, 2, 3, 7, 2, 3, 4]
truck_assigned = [3, 3, 2, 2, 2, 2, 2, 2, 2, 1, 3, 4, 2, 1, 2, 2, 6, 4, 2, 2, 7, 2, 2, 1, 7, 3, 4, 3, 5, 6]
obj = 10373
----------
source = [11, 14, 13, 13, 10, 8, 15, 13, 8, 8, 11, 15, 11, 10, 14, 14, 12, 15, 11, 5, 12, 11, 5, 5, 12, 15, 12, 12, 12, 12]
open = [false, false, false, false, true, false, false, true, false, true, true, true, true, true, true]
trucks_used = [0, 0, 0, 0, 2, 0, 0, 2, 0, 2, 3, 7, 2, 3, 4]
truck_assigned = [3, 3, 2, 1, 1, 2, 2, 2, 1, 2, 3, 4, 2, 2, 2, 1, 5, 4, 2, 2, 4, 2, 2, 2, 5, 3, 7, 3, 6, 7]
obj = 10364
----------
source = [11, 14, 13, 13, 13, 8, 15, 13, 8, 8, 11, 15, 11, 10, 14, 14, 12, 15, 11, 5, 12, 10, 5, 5, 12, 15, 12, 12, 12, 12]
open = [false, false, false, false, true, false, false, true, false, true, true, true, true, true, true]
trucks_used = [0, 0, 0, 0, 2, 0, 0, 2, 0, 2, 3, 7, 2, 3, 4]
truck_assigned = [3, 3, 2, 1, 1, 2, 2, 2, 1, 2, 3, 4, 2, 2, 2, 2, 5, 4, 2, 2, 4, 2, 2, 2, 5, 3, 7, 3, 6, 7]
obj = 10360
----------
source = [11, 14, 10, 13, 13, 8, 15, 13, 8, 8, 11, 15, 11, 10, 14, 14, 12, 15, 11, 5, 12, 11, 5, 5, 12, 15, 12, 12, 12, 12]
open = [false, false, false, false, true, false, false, true, false, true, true, true, true, true, true]
trucks_used = [0, 0, 0, 0, 2, 0, 0, 2, 0, 2, 3, 7, 2, 3, 4]
truck_assigned = [3, 3, 2, 2, 1, 1, 2, 2, 2, 2, 3, 4, 2, 2, 2, 1, 5, 4, 2, 2, 4, 2, 2, 2, 5, 3, 7, 3, 6, 7]
obj = 10354
----------
source = [11, 14, 13, 13, 5, 8, 15, 13, 8, 8, 11, 15, 10, 10, 14, 14, 12, 15, 11, 5, 12, 11, 5, 5, 12, 15, 12, 12, 12, 12]
open = [false, false, false, false, true, false, false, true, false, true, true, true, true, true, true]
trucks_used = [0, 0, 0, 0, 2, 0, 0, 2, 0, 2, 3, 7, 2, 3, 4]
truck_assigned = [3, 3, 2, 1, 2, 2, 2, 2, 1, 2, 3, 4, 2, 2, 2, 1, 5, 4, 2, 2, 4, 2, 1, 1, 5, 3, 7, 3, 6, 7]
obj = 10351
----------
source = [11, 14, 13, 13, 5, 8, 15, 13, 8, 8, 11, 15, 11, 10, 14, 14, 12, 15, 11, 5, 10, 11, 12, 5, 12, 15, 12, 12, 12, 12]
open = [false, false, false, false, true, false, false, true, false, true, true, true, true, true, true]
trucks_used = [0, 0, 0, 0, 2, 0, 0, 2, 0, 2, 3, 7, 2, 3, 4]
truck_assigned = [3, 3, 2, 1, 2, 2, 2, 2, 1, 2, 3, 4, 2, 2, 2, 2, 5, 4, 2, 2, 1, 2, 3, 1, 5, 3, 7, 4, 6, 7]
obj = 10343
----------
source = [11, 14, 10, 13, 5, 8, 15, 13, 8, 8, 11, 15, 15, 14, 14, 10, 12, 15, 13, 5, 14, 5, 12, 5, 12, 15, 12, 12, 12, 12]
open = [false, false, false, false, true, false, false, true, false, true, true, true, true, true, true]
trucks_used = [0, 0, 0, 0, 2, 0, 0, 2, 0, 2, 1, 7, 2, 3, 4]
truck_assigned = [1, 1, 1, 2, 2, 1, 3, 2, 2, 2, 1, 1, 4, 3, 2, 2, 5, 1, 1, 2, 3, 1, 3, 1, 5, 2, 7, 4, 6, 7]
obj = 10309
----------
source = [10, 14, 14, 13, 13, 8, 15, 12, 8, 8, 11, 15, 10, 14, 14, 13, 12, 15, 11, 5, 12, 11, 12, 5, 14, 15, 12, 12, 12, 5]
open = [false, false, false, false, true, false, false, true, false, true, true, true, true, true, true]
trucks_used = [0, 0, 0, 0, 1, 0, 0, 2, 0, 2, 1, 7, 2, 5, 4]
truck_assigned = [2, 3, 2, 2, 2, 1, 2, 7, 2, 2, 1, 4, 2, 5, 4, 1, 6, 4, 1, 1, 6, 1, 7, 1, 1, 3, 4, 3, 5, 1]
obj = 10305
----------
source = [10, 14, 14, 11, 13, 8, 15, 13, 8, 8, 11, 15, 10, 14, 14, 13, 12, 15, 12, 5, 12, 11, 12, 5, 14, 15, 12, 12, 12, 5]
open = [false, false, false, false, true, false, false, true, false, true, true, true, true, true, true]
trucks_used = [0, 0, 0, 0, 1, 0, 0, 2, 0, 2, 1, 7, 2, 5, 4]
truck_assigned = [2, 3, 2, 1, 2, 2, 2, 1, 2, 1, 1, 4, 2, 5, 4, 2, 5, 4, 3, 1, 6, 1, 6, 1, 1, 3, 5, 4, 7, 1]
obj = 10302
----------
source = [10, 14, 14, 11, 13, 8, 15, 5, 8, 8, 11, 15, 10, 14, 14, 13, 12, 15, 12, 5, 12, 11, 12, 5, 14, 15, 12, 12, 12, 13]
open = [false, false, false, false, true, false, false, true, false, true, true, true, true, true, true]
trucks_used = [0, 0, 0, 0, 1, 0, 0, 2, 0, 2, 1, 7, 2, 5, 4]
truck_assigned = [2, 3, 2, 1, 2, 2, 2, 1, 1, 2, 1, 4, 2, 5, 4, 2, 6, 4, 7, 1, 5, 1, 7, 1, 1, 3, 6, 4, 3, 1]
obj = 10300
----------
source = [10, 14, 14, 14, 13, 8, 15, 5, 8, 12, 11, 15, 10, 14, 8, 13, 12, 15, 11, 5, 14, 11, 12, 5, 12, 15, 12, 12, 12, 13]
open = [false, false, false, false, true, false, false, true, false, true, true, true, true, true, true]
trucks_used = [0, 0, 0, 0, 1, 0, 0, 2, 0, 2, 1, 7, 2, 5, 4]
truck_assigned = [2, 5, 3, 2, 2, 2, 2, 1, 2, 4, 1, 4, 2, 4, 1, 2, 7, 4, 1, 1, 5, 1, 4, 1, 2, 3, 7, 5, 6, 1]
obj = 10280
----------
source = [10, 14, 14, 11, 13, 8, 15, 5, 8, 12, 11, 15, 10, 14, 8, 13, 12, 15, 11, 5, 14, 14, 12, 5, 12, 15, 12, 12, 12, 13]
open = [false, false, false, false, true, false, false, true, false, true, true, true, true, true, true]
trucks_used = [0, 0, 0, 0, 1, 0, 0, 2, 0, 2, 1, 7, 2, 5, 4]
truck_assigned = [2, 5, 3, 1, 2, 1, 2, 1, 2, 7, 1, 4, 2, 4, 2, 2, 7, 4, 1, 1, 4, 5, 4, 1, 2, 3, 4, 5, 6, 1]
obj = 10279
----------
source = [10, 14, 14, 14, 13, 8, 15, 5, 11, 8, 11, 15, 10, 14, 8, 13, 12, 15, 13, 5, 14, 11, 12, 5, 12, 15, 12, 12, 12, 12]
open = [false, false, false, false, true, false, false, true, false, true, true, true, true, true, true]
trucks_used = [0, 0, 0, 0, 1, 0, 0, 2, 0, 2, 1, 7, 2, 5, 4]
truck_assigned = [2, 5, 3, 2, 2, 2, 2, 1, 1, 1, 1, 4, 2, 4, 2, 2, 7, 4, 1, 1, 5, 1, 4, 1, 3, 3, 7, 5, 6, 4]
obj = 10276
----------
source = [10, 14, 14, 11, 13, 8, 15, 5, 11, 8, 11, 15, 10, 14, 8, 13, 12, 15, 13, 5, 14, 14, 12, 5, 12, 15, 12, 12, 12, 12]
open = [false, false, false, false, true, false, false, true, false, true, true, true, true, true, true]
trucks_used = [0, 0, 0, 0, 1, 0, 0, 2, 0, 2, 1, 7, 2, 5, 4]
truck_assigned = [2, 5, 3, 1, 2, 2, 2, 1, 1, 1, 1, 4, 2, 4, 2, 2, 7, 4, 1, 1, 4, 5, 5, 1, 5, 3, 3, 4, 6, 7]
obj = 10275
----------
source = [10, 14, 14, 13, 13, 8, 15, 5, 11, 8, 11, 15, 10, 14, 8, 13, 12, 15, 11, 5, 14, 14, 12, 5, 12, 15, 12, 12, 12, 12]
open = [false, false, false, false, true, false, false, true, false, true, true, true, true, true, true]
trucks_used = [0, 0, 0, 0, 1, 0, 0, 2, 0, 2, 1, 7, 2, 5, 4]
truck_assigned = [2, 5, 3, 1, 2, 2, 2, 1, 1, 1, 1, 4, 2, 4, 2, 2, 7, 4, 1, 1, 4, 5, 6, 1, 5, 3, 6, 4, 3, 7]
obj = 10262
----------
source = [13, 14, 14, 14, 15, 8, 15, 5, 11, 8, 11, 15, 10, 10, 8, 13, 12, 8, 11, 5, 14, 14, 12, 5, 12, 15, 12, 12, 12, 12]
open = [false, false, false, false, true, false, false, true, false, true, true, true, true, true, true]
trucks_used = [0, 0, 0, 0, 1, 0, 0, 2, 0, 2, 1, 7, 2, 5, 4]
truck_assigned = [2, 3, 5, 4, 4, 2, 1, 1, 1, 1, 1, 3, 2, 2, 2, 2, 3, 1, 1, 1, 5, 4, 7, 1, 6, 2, 6, 4, 5, 7]
obj = 10243
----------
source = [13, 14, 14, 11, 14, 8, 15, 5, 11, 8, 12, 15, 11, 10, 8, 13, 12, 15, 11, 5, 14, 14, 12, 5, 12, 15, 12, 12, 12, 10]
open = [false, false, false, false, true, false, false, true, false, true, true, true, true, true, true]
trucks_used = [0, 0, 0, 0, 1, 0, 0, 2, 0, 2, 1, 7, 2, 5, 4]
truck_assigned = [2, 4, 5, 1, 3, 2, 4, 1, 1, 1, 7, 3, 1, 2, 2, 2, 4, 3, 1, 1, 5, 4, 4, 1, 7, 2, 3, 5, 6, 2]
obj = 10239
----------
source = [12, 14, 14, 9, 9, 8, 15, 5, 8, 9, 12, 15, 15, 14, 8, 13, 12, 14, 5, 10, 10, 14, 12, 5, 12, 15, 13, 12, 12, 5]
open = [false, false, false, false, true, false, false, true, true, true, false, true, true, true, true]
trucks_used = [0, 0, 0, 0, 3, 0, 0, 2, 2, 2, 0, 7, 2, 5, 4]
truck_assigned = [7, 3, 1, 2, 1, 1, 2, 3, 2, 1, 4, 3, 4, 4, 2, 2, 4, 5, 2, 2, 2, 2, 5, 1, 5, 1, 1, 3, 6, 3]
obj = 10234
----------
source = [12, 14, 14, 9, 9, 8, 15, 12, 8, 9, 12, 14, 15, 10, 8, 13, 12, 15, 14, 13, 12, 14, 12, 5, 12, 15, 5, 12, 5, 10]
open = [false, false, false, false, true, false, false, true, true, true, false, true, true, true, true]
trucks_used = [0, 0, 0, 0, 3, 0, 0, 2, 2, 2, 0, 8, 1, 5, 4]
truck_assigned = [8, 3, 2, 1, 2, 2, 4, 6, 1, 2, 7, 5, 2, 2, 2, 1, 5, 3, 4, 1, 5, 5, 6, 2, 7, 1, 2, 4, 3, 2]
obj = 10226
----------
source = [12, 14, 14, 9, 9, 8, 15, 12, 8, 9, 12, 15, 15, 10, 8, 13, 12, 12, 14, 13, 14, 14, 12, 5, 12, 15, 5, 12, 5, 10]
open = [false, false, false, false, true, false, false, true, true, true, false, true, true, true, true]
trucks_used = [0, 0, 0, 0, 3, 0, 0, 2, 2, 2, 0, 8, 1, 5, 4]
truck_assigned = [4, 3, 5, 2, 1, 1, 3, 8, 2, 1, 7, 2, 4, 2, 2, 1, 7, 1, 4, 1, 5, 4, 5, 2, 8, 1, 2, 6, 3, 2]
obj = 10210
----------
source = [12, 14, 14, 9, 9, 8, 15, 12, 8, 9, 12, 14, 15, 10, 8, 13, 12, 12, 15, 13, 14, 14, 12, 5, 12, 15, 5, 12, 5, 10]
open = [false, false, false, false, true, false, false, true, true, true, false, true, true, true, true]
trucks_used = [0, 0, 0, 0, 3, 0, 0, 2, 2, 2, 0, 8, 1, 5, 4]
truck_assigned = [4, 4, 5, 2, 1, 2, 2, 8, 2, 1, 7, 3, 4, 2, 1, 1, 7, 5, 3, 1, 5, 4, 5, 2, 8, 1, 2, 6, 3, 2]
obj = 10205
----------
source = [12, 14, 14, 9, 9, 8, 15, 12, 8, 8, 12, 14, 15, 10, 14, 13, 12, 14, 15, 13, 12, 9, 12, 5, 12, 15, 5, 12, 5, 10]
open = [false, false, false, false, true, false, false, true, true, true, false, true, true, true, true]
trucks_used = [0, 0, 0, 0, 3, 0, 0, 2, 2, 2, 0, 8, 1, 5, 4]
truck_assigned = [6, 4, 3, 2, 1, 1, 3, 7, 1, 2, 8, 1, 2, 2, 2, 1, 8, 5, 4, 1, 4, 1, 7, 2, 4, 1, 2, 5, 3, 2]
obj = 10195
----------
source = [12, 14, 14, 9, 9, 8, 15, 12, 8, 8, 12, 14, 15, 10, 14, 13, 12, 12, 15, 13, 14, 9, 12, 5, 12, 15, 5, 12, 5, 10]
open = [false, false, false, false, true, false, false, true, true, true, false, true, true, true, true]
trucks_used = [0, 0, 0, 0, 3, 0, 0, 2, 2, 2, 0, 8, 1, 5, 4]
truck_assigned = [6, 2, 4, 2, 1, 2, 3, 7, 1, 2, 8, 3, 2, 2, 5, 1, 8, 2, 4, 1, 5, 1, 7, 2, 4, 1, 1, 5, 3, 2]
obj = 10170
----------
source = [12, 14, 12, 9, 9, 8, 15, 12, 8, 8, 12, 14, 15, 10, 14, 13, 12, 14, 15, 5, 14, 9, 12, 5, 12, 15, 13, 12, 5, 10]
open = [false, false, false, false, true, false, false, true, true, true, false, true, true, true, true]
trucks_used = [0, 0, 0, 0, 3, 0, 0, 2, 2, 2, 0, 8, 1, 5, 4]
truck_assigned = [8, 2, 4, 1, 2, 1, 3, 7, 2, 2, 6, 4, 2, 2, 5, 1, 4, 3, 4, 3, 5, 2, 7, 3, 6, 1, 1, 5, 2, 2]
obj = 10158
----------
source = [12, 14, 14, 9, 9, 8, 15, 13, 8, 12, 12, 14, 15, 10, 8, 14, 12, 12, 15, 5, 14, 9, 12, 5, 12, 15, 13, 12, 5, 10]
open = [false, false, false, false, true, false, false, true, true, true, false, true, true, true, true]
trucks_used = [0, 0, 0, 0, 3, 0, 0, 2, 2, 2, 0, 8, 1, 5, 4]
truck_assigned = [8, 4, 3, 2, 1, 1, 1, 1, 2, 1, 7, 5, 4, 2, 1, 2, 6, 6, 3, 3, 5, 1, 3, 3, 7, 2, 1, 5, 2, 2]
obj = 10139
----------
source = [12, 14, 14, 9, 9, 8, 15, 12, 8, 8, 12, 14, 15, 10, 14, 13, 12, 12, 15, 5, 14, 9, 12, 5, 12, 15, 13, 12, 5, 10]
open = [false, false, false, false, true, false, false, true, true, true, false, true, true, true, true]
trucks_used = [0, 0, 0, 0, 3, 0, 0, 2, 2, 2, 0, 8, 1, 5, 4]
truck_assigned = [5, 3, 2, 1, 2, 2, 1, 8, 1, 2, 6, 4, 4, 2, 5, 1, 8, 7, 3, 3, 5, 2, 7, 3, 6, 2, 1, 4, 1, 2]
obj = 10119
----------
source = [8, 14, 12, 9, 9, 8, 15, 10, 14, 12, 12, 14, 15, 10, 8, 13, 12, 12, 15, 5, 14, 9, 12, 5, 14, 15, 13, 12, 5, 12]
open = [false, false, false, false, true, false, false, true, true, true, false, true, true, true, true]
trucks_used = [0, 0, 0, 0, 2, 0, 0, 2, 2, 2, 0, 8, 1, 5, 4]
truck_assigned = [2, 4, 6, 1, 2, 1, 2, 2, 5, 7, 1, 2, 3, 2, 2, 1, 5, 5, 4, 1, 1, 2, 6, 1, 3, 1, 1, 8, 2, 7]
obj = 10116
----------
source = [8, 14, 12, 14, 14, 8, 15, 12, 13, 12, 4, 14, 15, 12, 4, 4, 12, 12, 15, 5, 15, 12, 14, 4, 15, 12, 5, 15, 8, 13]
open = [false, false, false, true, true, false, false, true, false, false, false, true, true, true, true]
trucks_used = [0, 0, 0, 2, 1, 0, 0, 2, 0, 0, 0, 8, 2, 5, 6]
truck_assigned = [2, 5, 7, 2, 3, 1, 4, 2, 2, 8, 2, 4, 5, 6, 2, 1, 7, 3, 6, 1, 2, 5, 1, 1, 1, 8, 1, 6, 2, 1]
obj = 10072
----------
source = [4, 14, 12, 14, 14, 5, 15, 12, 8, 12, 4, 14, 15, 12, 4, 13, 12, 12, 15, 5, 15, 12, 14, 8, 15, 12, 13, 15, 8, 4]
open = [false, false, false, true, true, false, false, true, false, false, false, true, true, true, true]
trucks_used = [0, 0, 0, 2, 1, 0, 0, 2, 0, 0, 0, 8, 2, 5, 6]
truck_assigned = [1, 3, 5, 2, 5, 1, 6, 2, 2, 6, 2, 1, 3, 7, 1, 2, 8, 4, 4, 1, 5, 8, 4, 1, 5, 6, 1, 4, 2, 2]
obj = 10041
----------
source = [5, 14, 12, 14, 14, 4, 5, 12, 8, 12, 13, 14, 14, 12, 13, 4, 12, 12, 12, 15, 14, 5, 4, 8, 8, 12, 15, 14, 8, 4]
open = [false, false, false, true, true, false, false, true, false, false, false, true, true, true, true]
trucks_used = [0, 0, 0, 2, 2, 0, 0, 4, 0, 0, 0, 8, 2, 7, 1]
truck_assigned = [2, 4, 6, 5, 6, 1, 1, 5, 4, 7, 2, 7, 2, 2, 1, 2, 8, 8, 3, 1, 7, 1, 1, 3, 2, 7, 1, 5, 4, 2]
obj = 10018
----------
