+ /usr/bin/timeout 600 /usr/bin/time -v mzn-chuffed lbbd-datasets/sscplp/dzn/model.mzn lbbd-datasets/sscplp/dzn/p13.dzn
% No search annotation given. Defaulting to VSIDS!
source = [8, 8, 6, 9, 13, 7, 10, 15, 8, 10, 10, 14, 12, 11, 11, 11, 11, 12, 12, 13, 12, 13, 13, 13, 13, 14, 14, 14, 15, 15]
obj = 7679
----------
source = [8, 8, 6, 9, 13, 7, 10, 15, 8, 10, 10, 14, 12, 11, 11, 11, 11, 12, 12, 13, 12, 13, 13, 13, 13, 14, 14, 14, 15, 15]
obj = 7192
----------
source = [8, 8, 6, 9, 13, 7, 10, 15, 8, 10, 10, 14, 12, 11, 11, 11, 11, 12, 12, 13, 12, 13, 13, 13, 13, 14, 14, 14, 15, 15]
obj = 7092
----------
source = [8, 8, 6, 9, 13, 7, 10, 15, 8, 10, 10, 14, 12, 11, 11, 11, 11, 12, 12, 13, 12, 13, 13, 13, 13, 14, 14, 14, 15, 15]
obj = 6605
----------
source = [8, 8, 6, 9, 13, 7, 10, 15, 8, 10, 10, 14, 12, 11, 11, 11, 11, 12, 12, 13, 12, 13, 13, 13, 13, 14, 14, 14, 15, 15]
obj = 6388
----------
source = [8, 8, 6, 9, 13, 7, 10, 15, 8, 10, 10, 14, 12, 11, 11, 11, 11, 12, 12, 13, 12, 13, 13, 13, 13, 14, 14, 14, 15, 15]
obj = 5901
----------
source = [8, 8, 6, 9, 13, 7, 10, 15, 8, 10, 10, 14, 12, 11, 11, 11, 11, 12, 12, 13, 12, 13, 13, 13, 13, 14, 14, 14, 15, 15]
obj = 5624
----------
source = [8, 8, 6, 9, 13, 7, 10, 15, 8, 10, 10, 14, 12, 11, 11, 11, 11, 12, 12, 13, 12, 13, 13, 13, 13, 14, 14, 14, 15, 15]
obj = 5454
----------
source = [8, 8, 4, 9, 13, 7, 10, 15, 8, 10, 10, 14, 12, 11, 11, 11, 11, 12, 12, 13, 12, 13, 13, 13, 13, 14, 14, 14, 15, 15]
obj = 5375
----------
source = [8, 8, 6, 11, 13, 6, 10, 10, 8, 10, 10, 14, 12, 11, 13, 11, 11, 14, 12, 13, 12, 14, 13, 13, 7, 15, 14, 14, 9, 15]
obj = 5373
----------
source = [8, 8, 11, 11, 13, 6, 10, 15, 8, 10, 10, 14, 12, 13, 11, 11, 6, 12, 12, 7, 12, 15, 13, 13, 13, 9, 14, 14, 14, 15]
obj = 5371
----------
source = [8, 8, 11, 11, 13, 6, 10, 15, 8, 10, 10, 11, 12, 13, 11, 11, 6, 12, 12, 13, 12, 15, 13, 13, 7, 9, 14, 14, 14, 15]
obj = 5367
----------
source = [8, 8, 11, 11, 13, 6, 10, 15, 8, 10, 10, 14, 12, 13, 11, 11, 6, 12, 12, 13, 12, 15, 13, 13, 7, 9, 14, 14, 14, 15]
obj = 5364
----------
source = [8, 8, 11, 11, 13, 6, 10, 6, 8, 10, 10, 11, 12, 6, 11, 11, 13, 12, 12, 13, 12, 13, 15, 13, 7, 9, 14, 14, 14, 15]
obj = 5362
----------
source = [8, 8, 6, 11, 13, 6, 10, 6, 8, 10, 10, 11, 12, 7, 11, 11, 13, 12, 12, 13, 12, 14, 15, 13, 13, 11, 9, 14, 14, 15]
obj = 5357
----------
source = [8, 12, 6, 11, 13, 7, 10, 10, 8, 10, 10, 11, 14, 6, 11, 11, 13, 12, 12, 13, 12, 14, 15, 13, 13, 11, 14, 14, 9, 15]
obj = 5354
----------
source = [8, 12, 6, 11, 13, 7, 10, 6, 8, 10, 10, 11, 14, 6, 11, 11, 13, 12, 12, 13, 12, 14, 15, 13, 13, 11, 14, 14, 9, 15]
obj = 5351
----------
source = [8, 8, 6, 11, 13, 7, 10, 6, 8, 10, 10, 11, 14, 6, 11, 11, 13, 12, 12, 13, 12, 14, 15, 13, 13, 11, 14, 14, 9, 15]
obj = 5349
----------
source = [8, 12, 6, 11, 13, 6, 10, 10, 8, 10, 10, 11, 14, 7, 11, 11, 13, 12, 12, 13, 12, 14, 15, 13, 13, 11, 14, 14, 9, 15]
obj = 5348
----------
source = [8, 12, 11, 11, 13, 6, 10, 6, 8, 10, 10, 11, 14, 6, 11, 13, 13, 12, 12, 13, 12, 14, 15, 13, 7, 11, 14, 14, 9, 15]
obj = 5341
----------
source = [8, 8, 11, 11, 13, 6, 10, 6, 8, 10, 10, 11, 14, 6, 11, 13, 13, 12, 12, 13, 12, 14, 15, 13, 7, 11, 14, 14, 9, 15]
obj = 5339
----------
source = [8, 8, 11, 11, 13, 6, 10, 10, 8, 10, 10, 11, 7, 6, 11, 13, 13, 12, 12, 13, 12, 14, 15, 13, 11, 12, 14, 14, 9, 15]
obj = 5334
----------
source = [8, 8, 11, 11, 13, 6, 10, 6, 8, 10, 10, 11, 7, 6, 11, 13, 13, 12, 12, 13, 12, 14, 15, 13, 11, 12, 14, 14, 9, 15]
obj = 5331
----------
source = [8, 8, 11, 11, 13, 6, 10, 10, 8, 10, 10, 11, 9, 6, 11, 13, 13, 12, 12, 13, 12, 11, 15, 13, 7, 12, 14, 14, 14, 15]
obj = 5328
----------
source = [8, 8, 11, 11, 13, 6, 10, 6, 8, 10, 10, 11, 9, 6, 11, 13, 13, 12, 12, 13, 12, 11, 15, 13, 7, 12, 14, 14, 14, 15]
obj = 5325
----------
source = [8, 8, 11, 11, 13, 6, 10, 6, 8, 7, 10, 11, 9, 6, 11, 13, 13, 12, 12, 13, 12, 11, 15, 13, 10, 12, 14, 14, 14, 15]
obj = 5322
----------
source = [8, 8, 11, 11, 13, 6, 10, 6, 8, 13, 10, 11, 7, 6, 11, 13, 13, 12, 12, 14, 12, 14, 15, 13, 10, 12, 14, 14, 9, 15]
obj = 5317
----------
source = [11, 15, 11, 11, 13, 6, 8, 15, 8, 10, 10, 6, 13, 7, 11, 13, 13, 10, 12, 14, 12, 14, 6, 13, 12, 11, 14, 14, 9, 15]
obj = 5304
----------
source = [11, 15, 11, 11, 13, 6, 8, 15, 8, 10, 10, 11, 13, 7, 11, 13, 13, 10, 12, 14, 12, 14, 6, 13, 12, 10, 14, 14, 9, 15]
obj = 5302
----------
source = [10, 15, 11, 11, 13, 6, 14, 15, 8, 10, 8, 6, 13, 7, 11, 13, 13, 10, 12, 10, 12, 11, 6, 13, 12, 11, 14, 14, 9, 15]
obj = 5298
----------
source = [10, 13, 11, 11, 13, 6, 8, 15, 8, 10, 10, 6, 13, 7, 11, 14, 13, 10, 12, 13, 12, 11, 6, 13, 12, 11, 14, 14, 9, 15]
obj = 5289
----------
source = [10, 14, 11, 11, 13, 6, 8, 15, 8, 10, 10, 11, 13, 7, 11, 13, 13, 10, 12, 15, 12, 14, 6, 13, 12, 11, 14, 14, 9, 15]
obj = 5287
----------
source = [12, 15, 11, 11, 13, 6, 8, 15, 8, 10, 10, 11, 13, 7, 11, 13, 13, 10, 12, 14, 12, 14, 6, 13, 11, 10, 14, 14, 9, 15]
obj = 5281
----------
source = [12, 12, 11, 11, 13, 6, 8, 15, 8, 10, 10, 11, 13, 7, 11, 13, 13, 10, 12, 14, 12, 14, 6, 13, 11, 10, 14, 14, 9, 15]
obj = 5277
----------
source = [15, 8, 11, 11, 13, 6, 14, 15, 8, 10, 10, 6, 13, 7, 11, 13, 13, 10, 12, 8, 12, 11, 6, 13, 12, 11, 14, 14, 9, 15]
obj = 5269
----------
source = [15, 8, 11, 11, 13, 6, 14, 15, 8, 10, 10, 11, 13, 7, 11, 13, 13, 10, 12, 8, 12, 11, 6, 13, 12, 10, 14, 14, 9, 15]
obj = 5267
----------
source = [15, 13, 11, 11, 13, 6, 14, 15, 8, 10, 8, 8, 13, 7, 11, 10, 13, 10, 12, 13, 12, 11, 6, 13, 12, 11, 14, 14, 9, 15]
obj = 5265
----------
source = [10, 15, 11, 11, 13, 6, 8, 15, 8, 10, 10, 6, 13, 7, 11, 13, 13, 10, 12, 14, 12, 11, 6, 13, 12, 11, 14, 14, 9, 15]
obj = 5257
----------
source = [10, 15, 11, 11, 13, 6, 8, 15, 8, 10, 10, 9, 13, 7, 11, 13, 13, 10, 12, 9, 12, 11, 6, 13, 12, 11, 14, 14, 14, 15]
obj = 5256
----------
source = [10, 15, 11, 11, 13, 6, 14, 15, 8, 10, 10, 8, 13, 7, 11, 13, 13, 10, 12, 8, 12, 11, 6, 13, 12, 11, 14, 14, 9, 15]
obj = 5247
----------
source = [10, 15, 11, 11, 13, 6, 8, 12, 8, 10, 10, 11, 13, 7, 11, 13, 13, 10, 12, 14, 12, 14, 6, 13, 12, 11, 14, 14, 9, 15]
obj = 5244
----------
source = [10, 15, 11, 11, 13, 6, 8, 15, 8, 10, 10, 11, 13, 7, 11, 13, 13, 10, 12, 14, 12, 14, 6, 13, 12, 11, 14, 14, 9, 15]
obj = 5228
----------
source = [10, 13, 11, 11, 13, 6, 8, 15, 8, 10, 10, 11, 13, 7, 11, 13, 14, 10, 12, 15, 12, 14, 6, 13, 12, 11, 13, 14, 9, 15]
obj = 5220
----------
source = [12, 13, 11, 11, 13, 6, 8, 15, 8, 10, 10, 11, 13, 7, 11, 13, 14, 10, 12, 10, 12, 14, 6, 13, 13, 11, 15, 14, 9, 15]
obj = 5211
----------
source = [12, 13, 11, 11, 13, 6, 8, 15, 8, 10, 10, 11, 13, 7, 11, 13, 14, 10, 12, 12, 12, 14, 6, 13, 13, 11, 15, 14, 9, 15]
obj = 5196
----------
source = [15, 13, 11, 11, 13, 6, 8, 15, 13, 10, 8, 11, 13, 7, 11, 10, 14, 10, 12, 13, 12, 14, 6, 13, 12, 11, 8, 14, 9, 15]
obj = 5183
----------
source = [10, 15, 11, 11, 13, 6, 8, 15, 13, 10, 10, 11, 13, 7, 11, 13, 14, 10, 12, 8, 12, 14, 6, 13, 12, 11, 8, 14, 9, 15]
obj = 5165
----------
source = [15, 8, 11, 11, 13, 11, 8, 15, 13, 10, 10, 9, 13, 7, 11, 13, 14, 10, 12, 9, 12, 14, 6, 13, 12, 10, 8, 14, 6, 15]
obj = 5157
----------
source = [10, 15, 11, 11, 13, 7, 8, 15, 13, 10, 10, 9, 13, 8, 11, 13, 14, 10, 12, 9, 12, 14, 6, 13, 12, 11, 6, 14, 6, 15]
obj = 5148
----------
source = [15, 13, 11, 11, 8, 6, 8, 15, 13, 10, 8, 11, 13, 7, 11, 12, 14, 10, 12, 9, 12, 14, 6, 13, 10, 11, 8, 14, 13, 15]
obj = 5142
----------
source = [15, 13, 11, 11, 8, 6, 8, 15, 13, 10, 8, 9, 13, 7, 11, 10, 14, 10, 12, 9, 12, 14, 6, 13, 12, 11, 8, 14, 13, 15]
obj = 5131
----------
source = [15, 13, 11, 11, 8, 6, 8, 15, 13, 10, 8, 11, 13, 7, 11, 10, 14, 10, 12, 9, 12, 14, 6, 13, 12, 11, 8, 14, 13, 15]
obj = 5125
----------
source = [15, 13, 11, 11, 8, 6, 8, 15, 13, 10, 10, 11, 13, 7, 11, 11, 14, 10, 12, 9, 12, 14, 6, 13, 12, 10, 8, 14, 13, 15]
obj = 5122
----------
source = [15, 13, 11, 11, 8, 6, 8, 15, 13, 10, 10, 11, 13, 7, 11, 11, 14, 10, 12, 8, 12, 14, 6, 13, 12, 10, 8, 14, 13, 15]
obj = 5119
----------
source = [10, 13, 11, 11, 13, 7, 8, 15, 8, 10, 10, 11, 13, 6, 11, 13, 14, 10, 12, 9, 12, 14, 6, 13, 12, 11, 15, 14, 13, 15]
obj = 5114
----------
source = [10, 13, 11, 11, 13, 7, 8, 15, 8, 10, 10, 11, 13, 6, 11, 13, 14, 10, 12, 9, 12, 14, 13, 13, 12, 11, 15, 14, 6, 15]
obj = 5112
----------
source = [10, 13, 11, 11, 13, 6, 8, 15, 8, 10, 10, 11, 13, 7, 11, 13, 14, 10, 12, 9, 12, 14, 6, 13, 12, 11, 15, 14, 13, 15]
obj = 5108
----------
source = [10, 13, 11, 11, 13, 6, 8, 15, 8, 10, 10, 11, 13, 7, 11, 13, 14, 10, 12, 9, 12, 14, 13, 13, 12, 11, 15, 14, 6, 15]
obj = 5106
----------
source = [15, 13, 11, 11, 8, 7, 8, 15, 13, 10, 10, 6, 13, 6, 11, 11, 14, 10, 12, 8, 12, 14, 6, 13, 12, 9, 8, 14, 13, 15]
obj = 5098
----------
source = [15, 13, 11, 11, 8, 7, 8, 15, 13, 10, 10, 11, 13, 6, 11, 11, 14, 10, 12, 8, 12, 14, 6, 13, 12, 9, 8, 14, 13, 15]
obj = 5089
----------
source = [10, 15, 11, 11, 13, 7, 8, 15, 13, 10, 10, 11, 13, 6, 11, 11, 14, 10, 12, 8, 12, 14, 6, 13, 12, 9, 8, 14, 13, 15]
obj = 5087
----------
source = [10, 13, 11, 11, 8, 7, 8, 15, 13, 10, 10, 6, 13, 6, 11, 11, 14, 10, 12, 8, 12, 14, 6, 13, 12, 9, 8, 14, 13, 15]
obj = 5079
----------
source = [10, 13, 11, 11, 8, 7, 8, 15, 13, 10, 10, 11, 13, 6, 11, 11, 14, 10, 12, 8, 12, 14, 6, 13, 12, 9, 8, 14, 13, 15]
obj = 5070
----------
source = [10, 13, 11, 11, 8, 6, 8, 15, 13, 10, 10, 11, 13, 7, 11, 11, 14, 10, 12, 8, 12, 14, 6, 13, 12, 9, 8, 14, 13, 15]
obj = 5064
----------
source = [15, 13, 11, 11, 13, 11, 8, 15, 13, 10, 13, 11, 13, 7, 11, 10, 14, 10, 12, 8, 12, 14, 6, 13, 12, 9, 8, 14, 6, 15]
obj = 5050
----------
source = [15, 13, 11, 11, 13, 6, 8, 15, 13, 10, 13, 11, 13, 7, 11, 10, 14, 10, 12, 8, 12, 14, 11, 13, 12, 9, 8, 14, 6, 15]
obj = 5048
----------
source = [10, 13, 11, 11, 13, 6, 8, 15, 13, 10, 13, 11, 10, 7, 11, 11, 14, 10, 12, 8, 12, 14, 13, 13, 12, 9, 8, 14, 6, 15]
obj = 5046
----------
source = [12, 13, 11, 11, 8, 7, 8, 15, 6, 10, 13, 11, 13, 6, 11, 11, 14, 10, 12, 8, 12, 14, 13, 13, 10, 9, 8, 14, 13, 15]
obj = 5045
----------
source = [10, 13, 11, 11, 8, 7, 8, 15, 6, 10, 13, 11, 13, 6, 11, 11, 14, 10, 12, 8, 12, 14, 13, 13, 12, 9, 8, 14, 13, 15]
obj = 5043
----------
source = [10, 13, 11, 11, 8, 6, 8, 15, 6, 10, 13, 11, 13, 7, 11, 11, 14, 10, 12, 8, 12, 14, 13, 13, 12, 9, 8, 14, 13, 15]
obj = 5037
----------
source = [10, 13, 11, 11, 13, 6, 8, 15, 8, 10, 13, 11, 13, 7, 11, 11, 14, 10, 12, 13, 12, 14, 13, 13, 12, 9, 15, 14, 6, 15]
obj = 5031
----------
source = [12, 12, 11, 11, 8, 6, 8, 15, 13, 10, 13, 11, 13, 7, 11, 11, 14, 10, 12, 8, 12, 14, 6, 13, 10, 9, 8, 14, 13, 15]
obj = 5030
----------
source = [12, 13, 11, 11, 13, 7, 8, 15, 13, 10, 13, 11, 13, 14, 11, 11, 14, 10, 12, 8, 12, 6, 6, 13, 10, 9, 8, 12, 6, 15]
obj = 5024
----------
source = [12, 13, 11, 11, 13, 14, 8, 15, 13, 10, 13, 11, 13, 7, 11, 11, 14, 10, 12, 8, 12, 6, 6, 13, 10, 9, 8, 12, 6, 15]
obj = 5014
----------
source = [12, 8, 11, 11, 8, 6, 8, 15, 13, 10, 13, 11, 13, 7, 11, 11, 14, 10, 12, 14, 12, 14, 6, 13, 10, 9, 8, 12, 13, 15]
obj = 5011
----------
source = [12, 13, 11, 11, 13, 6, 14, 15, 8, 10, 13, 8, 13, 7, 11, 11, 14, 10, 12, 13, 12, 6, 13, 13, 10, 9, 8, 12, 6, 15]
obj = 5008
----------
source = [10, 13, 11, 15, 13, 6, 14, 10, 8, 10, 13, 8, 13, 7, 11, 11, 14, 10, 12, 13, 12, 11, 6, 11, 12, 9, 8, 13, 13, 15]
obj = 5007
----------
source = [10, 13, 11, 15, 13, 6, 14, 6, 8, 10, 13, 8, 13, 7, 11, 11, 14, 10, 12, 13, 12, 11, 6, 11, 12, 9, 8, 13, 13, 15]
obj = 5004
----------
source = [12, 13, 11, 11, 8, 6, 14, 6, 8, 10, 13, 11, 13, 7, 11, 13, 14, 10, 12, 13, 12, 11, 6, 11, 10, 9, 8, 12, 13, 15]
obj = 5002
----------
source = [12, 13, 11, 15, 13, 6, 14, 6, 8, 10, 13, 8, 13, 7, 11, 11, 14, 10, 12, 13, 12, 11, 6, 11, 10, 9, 8, 12, 13, 15]
obj = 4998
----------
source = [10, 13, 11, 15, 13, 7, 8, 6, 13, 10, 13, 8, 13, 6, 11, 11, 14, 10, 12, 14, 12, 14, 6, 11, 12, 9, 8, 11, 13, 15]
obj = 4996
----------
source = [10, 13, 11, 15, 13, 6, 8, 6, 13, 10, 13, 8, 13, 7, 11, 11, 14, 10, 12, 14, 12, 14, 6, 11, 12, 9, 8, 11, 13, 15]
obj = 4990
----------
source = [12, 13, 11, 15, 13, 6, 8, 6, 13, 10, 13, 11, 13, 7, 11, 11, 14, 10, 12, 8, 12, 11, 6, 14, 10, 9, 8, 12, 13, 15]
obj = 4989
----------
source = [12, 13, 11, 15, 13, 6, 8, 6, 13, 10, 13, 11, 13, 7, 11, 11, 14, 10, 12, 14, 12, 14, 6, 11, 10, 9, 8, 12, 13, 15]
obj = 4982
----------
source = [12, 13, 11, 15, 13, 6, 8, 6, 13, 10, 13, 11, 13, 7, 11, 11, 14, 10, 12, 8, 12, 14, 6, 11, 10, 9, 8, 12, 13, 15]
obj = 4981
----------
source = [12, 13, 11, 15, 13, 6, 8, 6, 13, 10, 13, 11, 13, 7, 11, 11, 14, 10, 12, 14, 12, 14, 13, 11, 10, 9, 8, 12, 6, 15]
obj = 4980
----------
source = [12, 13, 11, 15, 13, 6, 8, 6, 13, 10, 13, 11, 13, 7, 11, 11, 14, 10, 12, 8, 12, 14, 13, 11, 10, 9, 8, 12, 6, 15]
obj = 4979
----------
source = [12, 13, 11, 11, 13, 11, 13, 15, 8, 10, 13, 11, 13, 7, 11, 13, 14, 10, 12, 14, 12, 14, 6, 15, 10, 9, 8, 12, 6, 15]
obj = 4977
----------
source = [12, 13, 11, 11, 13, 7, 13, 6, 13, 10, 13, 11, 13, 8, 11, 11, 14, 10, 12, 14, 12, 14, 6, 15, 10, 9, 8, 12, 6, 15]
obj = 4976
----------
source = [12, 13, 11, 11, 8, 7, 13, 6, 8, 10, 13, 11, 13, 6, 11, 11, 14, 10, 12, 14, 12, 14, 13, 15, 10, 9, 8, 13, 6, 15]
obj = 4972
----------
source = [12, 13, 11, 11, 13, 6, 13, 15, 8, 10, 13, 11, 7, 6, 11, 11, 14, 10, 12, 14, 12, 14, 13, 15, 10, 9, 8, 12, 13, 15]
obj = 4962
----------
source = [12, 13, 11, 11, 13, 6, 13, 15, 8, 10, 13, 11, 13, 7, 11, 11, 14, 10, 12, 14, 12, 14, 6, 15, 10, 9, 8, 12, 13, 15]
obj = 4959
----------
source = [12, 13, 11, 11, 13, 6, 13, 15, 8, 10, 13, 11, 13, 7, 11, 11, 14, 10, 12, 14, 12, 14, 13, 15, 10, 9, 8, 12, 6, 15]
obj = 4957
----------
source = [10, 13, 11, 15, 13, 7, 13, 6, 8, 10, 13, 11, 13, 11, 11, 11, 14, 10, 12, 14, 12, 14, 6, 13, 12, 9, 8, 13, 6, 15]
obj = 4949
----------
source = [10, 13, 11, 15, 13, 11, 13, 10, 8, 10, 13, 11, 13, 7, 11, 11, 14, 10, 12, 14, 12, 14, 6, 13, 12, 9, 8, 13, 6, 15]
obj = 4946
----------
source = [10, 13, 11, 15, 13, 11, 13, 6, 8, 10, 13, 11, 13, 7, 11, 11, 14, 10, 12, 14, 12, 14, 6, 13, 12, 9, 8, 13, 6, 15]
obj = 4943
----------
source = [10, 13, 11, 15, 13, 6, 13, 6, 8, 10, 13, 11, 13, 7, 11, 11, 14, 10, 12, 14, 12, 14, 11, 13, 12, 9, 8, 13, 6, 15]
obj = 4941
----------
source = [10, 13, 11, 15, 8, 6, 13, 6, 8, 10, 13, 11, 13, 7, 11, 11, 14, 10, 12, 14, 12, 14, 6, 13, 12, 9, 8, 11, 13, 15]
obj = 4929
----------
source = [12, 13, 11, 15, 8, 6, 13, 10, 8, 10, 13, 11, 13, 7, 11, 11, 14, 10, 12, 14, 12, 14, 6, 13, 10, 9, 8, 12, 13, 15]
obj = 4924
----------
source = [12, 13, 11, 15, 8, 6, 13, 6, 8, 10, 13, 11, 13, 7, 11, 11, 14, 10, 12, 14, 12, 14, 6, 13, 10, 9, 8, 12, 13, 15]
obj = 4921
----------
source = [12, 13, 11, 15, 13, 6, 13, 6, 8, 10, 13, 11, 13, 7, 11, 11, 14, 10, 12, 14, 12, 14, 6, 11, 10, 9, 8, 13, 13, 15]
obj = 4914
----------
source = [12, 13, 11, 15, 13, 6, 13, 6, 8, 10, 13, 11, 13, 7, 11, 11, 14, 10, 12, 13, 12, 14, 6, 11, 10, 9, 8, 12, 13, 15]
obj = 4913
----------
source = [12, 13, 11, 15, 8, 6, 13, 10, 8, 10, 13, 11, 13, 7, 11, 11, 14, 10, 12, 14, 12, 14, 6, 11, 10, 9, 8, 12, 13, 15]
obj = 4910
----------
source = [12, 13, 11, 15, 13, 6, 13, 10, 8, 10, 13, 11, 13, 7, 11, 11, 14, 10, 12, 14, 12, 14, 6, 11, 10, 9, 8, 12, 13, 15]
obj = 4909
----------
source = [12, 13, 11, 15, 13, 6, 13, 6, 8, 10, 13, 11, 13, 7, 11, 11, 14, 10, 12, 14, 12, 14, 6, 11, 10, 9, 8, 12, 13, 15]
obj = 4906
----------
source = [12, 13, 11, 15, 8, 6, 13, 6, 8, 10, 13, 11, 13, 7, 11, 11, 14, 10, 12, 14, 12, 14, 13, 11, 10, 9, 8, 12, 6, 15]
obj = 4905
----------
source = [12, 13, 11, 15, 13, 6, 13, 6, 8, 10, 13, 11, 13, 7, 11, 11, 14, 10, 12, 14, 12, 14, 13, 11, 10, 9, 8, 12, 6, 15]
obj = 4904
----------
source = [10, 13, 11, 15, 12, 13, 13, 10, 8, 10, 13, 8, 7, 6, 11, 11, 14, 10, 12, 14, 12, 14, 6, 11, 12, 9, 8, 11, 13, 15]
obj = 4902
----------
source = [10, 13, 11, 15, 12, 13, 13, 6, 8, 10, 13, 8, 7, 6, 11, 11, 14, 10, 12, 14, 12, 14, 6, 11, 12, 9, 8, 11, 13, 15]
obj = 4899
----------
source = [10, 13, 11, 15, 12, 13, 13, 6, 8, 10, 13, 8, 7, 6, 11, 11, 14, 10, 12, 14, 12, 14, 13, 11, 12, 9, 8, 11, 6, 15]
obj = 4897
----------
source = [10, 13, 11, 15, 12, 13, 13, 6, 8, 10, 13, 8, 13, 7, 11, 11, 14, 10, 12, 14, 12, 14, 6, 11, 12, 9, 8, 11, 6, 15]
obj = 4894
----------
source = [12, 13, 11, 15, 12, 10, 13, 6, 13, 10, 13, 8, 13, 7, 11, 11, 14, 10, 12, 14, 12, 14, 6, 11, 8, 9, 8, 11, 6, 15]
obj = 4891
----------
source = [12, 13, 11, 15, 12, 11, 13, 10, 8, 10, 13, 8, 7, 11, 11, 13, 14, 10, 12, 14, 12, 14, 6, 6, 10, 9, 8, 13, 6, 15]
obj = 4886
----------
source = [15, 13, 11, 11, 12, 11, 13, 6, 8, 10, 13, 11, 13, 7, 11, 10, 14, 10, 12, 13, 12, 6, 6, 14, 12, 9, 8, 13, 6, 15]
obj = 4884
----------
source = [13, 13, 11, 15, 12, 11, 7, 10, 8, 10, 13, 8, 13, 6, 11, 10, 14, 10, 12, 14, 12, 14, 13, 11, 12, 9, 8, 13, 6, 15]
obj = 4883
----------
source = [13, 13, 11, 15, 12, 11, 7, 6, 8, 10, 13, 11, 13, 6, 11, 10, 14, 10, 12, 14, 12, 14, 13, 11, 12, 9, 8, 13, 6, 15]
obj = 4880
----------
source = [12, 13, 11, 15, 12, 11, 7, 6, 8, 10, 13, 8, 13, 6, 11, 11, 14, 10, 12, 14, 12, 14, 13, 13, 10, 9, 8, 13, 6, 15]
obj = 4875
----------
source = [10, 13, 11, 15, 12, 11, 7, 6, 8, 10, 13, 11, 13, 6, 11, 11, 14, 10, 12, 14, 12, 14, 13, 13, 12, 9, 8, 13, 6, 15]
obj = 4873
----------
source = [10, 13, 11, 15, 6, 11, 7, 6, 8, 10, 13, 8, 13, 6, 11, 13, 14, 10, 12, 14, 12, 14, 13, 11, 12, 9, 8, 11, 6, 15]
obj = 4872
----------
source = [10, 13, 11, 15, 7, 11, 7, 6, 8, 10, 13, 8, 13, 6, 11, 13, 14, 10, 12, 14, 12, 14, 13, 11, 12, 9, 8, 11, 6, 15]
obj = 4870
----------
source = [10, 13, 11, 15, 12, 11, 7, 6, 8, 10, 13, 8, 13, 6, 11, 13, 14, 10, 12, 14, 12, 14, 13, 11, 12, 9, 8, 11, 6, 15]
obj = 4862
----------
source = [10, 13, 11, 15, 12, 11, 13, 10, 8, 10, 13, 8, 13, 7, 11, 13, 14, 10, 12, 14, 12, 14, 6, 11, 12, 9, 8, 11, 6, 15]
obj = 4857
----------
source = [10, 13, 11, 15, 12, 11, 13, 6, 8, 10, 13, 8, 13, 7, 11, 13, 14, 10, 12, 14, 12, 14, 6, 11, 12, 9, 8, 11, 6, 15]
obj = 4854
----------
source = [12, 13, 11, 15, 12, 7, 13, 10, 8, 10, 13, 8, 13, 6, 11, 11, 14, 10, 12, 13, 12, 14, 13, 11, 10, 9, 8, 11, 6, 15]
obj = 4852
----------
source = [12, 13, 11, 15, 12, 7, 13, 6, 8, 10, 13, 8, 13, 6, 11, 11, 14, 10, 12, 13, 12, 14, 13, 11, 10, 9, 8, 11, 6, 15]
obj = 4849
----------
source = [12, 13, 11, 15, 12, 7, 13, 6, 8, 10, 13, 11, 13, 6, 11, 11, 14, 10, 12, 14, 12, 14, 13, 11, 10, 9, 8, 13, 6, 15]
obj = 4840
----------
source = [10, 13, 11, 15, 12, 7, 13, 6, 8, 10, 13, 8, 13, 6, 11, 11, 14, 10, 12, 14, 12, 14, 13, 11, 12, 9, 8, 13, 6, 15]
obj = 4838
----------
source = [12, 13, 11, 15, 12, 6, 13, 10, 8, 10, 13, 11, 13, 7, 11, 11, 14, 10, 12, 14, 12, 14, 13, 11, 10, 9, 8, 13, 6, 15]
obj = 4837
----------
source = [12, 13, 11, 15, 12, 6, 13, 6, 8, 10, 13, 11, 13, 7, 11, 11, 14, 10, 12, 14, 12, 14, 13, 11, 10, 9, 8, 13, 6, 15]
obj = 4834
----------
source = [10, 13, 11, 15, 12, 6, 13, 6, 8, 10, 13, 11, 13, 7, 11, 11, 14, 10, 12, 14, 12, 14, 13, 11, 12, 9, 8, 13, 6, 15]
obj = 4832
----------
source = [10, 13, 11, 15, 12, 7, 13, 6, 8, 10, 13, 11, 11, 6, 11, 11, 14, 12, 12, 14, 12, 14, 13, 12, 10, 9, 8, 13, 6, 15]
obj = 4829
----------
source = [10, 13, 11, 15, 12, 6, 13, 10, 8, 10, 13, 8, 7, 14, 11, 11, 14, 12, 12, 13, 12, 7, 13, 12, 11, 9, 8, 13, 6, 15]
obj = 4827
----------
source = [10, 13, 11, 15, 12, 6, 13, 6, 8, 10, 13, 11, 7, 14, 11, 11, 14, 12, 12, 13, 12, 7, 13, 12, 11, 9, 8, 13, 6, 15]
obj = 4824
----------
source = [10, 13, 11, 15, 12, 6, 13, 6, 8, 10, 13, 11, 13, 7, 11, 11, 14, 12, 12, 14, 12, 14, 13, 12, 11, 10, 8, 13, 6, 15]
obj = 4822
----------
source = [10, 13, 11, 15, 12, 6, 13, 6, 8, 10, 13, 11, 10, 7, 11, 11, 14, 12, 12, 14, 12, 14, 13, 12, 11, 9, 8, 13, 6, 15]
obj = 4821
----------
source = [10, 13, 11, 15, 12, 14, 13, 6, 8, 10, 13, 8, 7, 6, 11, 11, 14, 12, 12, 13, 12, 7, 13, 12, 11, 9, 8, 13, 6, 15]
obj = 4820
----------
source = [10, 13, 11, 15, 12, 14, 13, 10, 8, 10, 13, 8, 7, 6, 11, 11, 14, 12, 12, 13, 12, 6, 13, 12, 11, 9, 8, 13, 6, 15]
obj = 4818
----------
source = [10, 13, 11, 15, 12, 6, 6, 10, 8, 10, 13, 11, 13, 7, 11, 11, 14, 12, 12, 14, 12, 14, 13, 12, 11, 9, 8, 13, 13, 15]
obj = 4810
----------
source = [10, 13, 11, 15, 12, 6, 13, 6, 8, 10, 13, 8, 9, 7, 11, 13, 14, 12, 12, 14, 12, 14, 6, 12, 11, 11, 8, 11, 13, 15]
obj = 4806
----------
source = [10, 13, 11, 15, 12, 6, 13, 6, 8, 10, 13, 8, 13, 7, 11, 11, 14, 12, 12, 13, 12, 14, 6, 12, 11, 9, 8, 14, 13, 15]
obj = 4805
----------
source = [10, 13, 11, 15, 12, 6, 13, 10, 8, 10, 13, 11, 13, 7, 11, 11, 14, 12, 12, 14, 12, 14, 6, 12, 11, 9, 8, 13, 13, 15]
obj = 4791
----------
source = [10, 13, 11, 15, 12, 6, 13, 6, 8, 10, 13, 11, 13, 7, 11, 11, 14, 12, 12, 14, 12, 14, 6, 12, 11, 9, 8, 13, 13, 15]
obj = 4788
----------
source = [10, 13, 11, 15, 12, 6, 13, 6, 8, 10, 13, 11, 13, 7, 11, 11, 14, 12, 12, 14, 12, 14, 13, 12, 11, 9, 8, 13, 6, 15]
obj = 4786
----------
source = [10, 13, 11, 15, 12, 14, 13, 6, 8, 10, 13, 11, 7, 6, 11, 11, 14, 12, 12, 13, 12, 7, 13, 12, 10, 9, 8, 11, 6, 15]
obj = 4778
----------
source = [10, 13, 11, 11, 12, 6, 13, 15, 8, 10, 13, 11, 7, 14, 11, 11, 14, 12, 12, 13, 12, 6, 13, 12, 10, 9, 8, 13, 6, 15]
obj = 4777
----------
source = [10, 13, 11, 15, 12, 14, 13, 6, 8, 10, 13, 11, 7, 6, 11, 11, 14, 12, 12, 13, 12, 7, 13, 12, 10, 9, 8, 13, 6, 15]
obj = 4776
----------
source = [10, 13, 11, 15, 12, 14, 13, 6, 8, 10, 13, 11, 7, 6, 11, 11, 14, 12, 12, 13, 12, 11, 13, 12, 10, 9, 8, 13, 6, 15]
obj = 4775
----------
source = [10, 13, 11, 11, 12, 14, 13, 15, 8, 10, 13, 11, 7, 6, 11, 11, 14, 12, 12, 13, 12, 6, 13, 12, 10, 9, 8, 13, 6, 15]
obj = 4773
----------
source = [10, 13, 11, 15, 12, 14, 13, 6, 8, 10, 13, 11, 13, 7, 11, 11, 14, 12, 12, 13, 12, 11, 6, 12, 10, 9, 8, 13, 6, 15]
obj = 4772
----------
source = [10, 13, 11, 15, 12, 14, 13, 6, 8, 10, 13, 8, 13, 7, 11, 11, 14, 12, 12, 13, 12, 6, 6, 12, 10, 9, 8, 11, 6, 15]
obj = 4770
----------
source = [10, 13, 11, 15, 12, 14, 13, 6, 8, 10, 13, 8, 13, 7, 11, 11, 14, 12, 12, 13, 12, 6, 6, 12, 10, 9, 8, 13, 6, 15]
obj = 4768
----------
source = [10, 13, 11, 11, 12, 7, 13, 15, 8, 10, 13, 8, 13, 6, 11, 11, 14, 12, 12, 14, 12, 6, 13, 12, 10, 9, 8, 13, 6, 15]
obj = 4766
----------
source = [10, 13, 11, 15, 12, 6, 13, 6, 8, 10, 13, 11, 13, 7, 11, 11, 14, 12, 12, 14, 12, 11, 13, 12, 10, 9, 8, 11, 6, 15]
obj = 4764
----------
source = [10, 13, 11, 15, 12, 6, 13, 6, 8, 10, 13, 11, 13, 7, 11, 11, 14, 12, 12, 14, 12, 11, 13, 12, 10, 9, 8, 13, 6, 15]
obj = 4762
----------
source = [10, 13, 11, 11, 12, 6, 13, 15, 8, 10, 13, 11, 13, 7, 11, 11, 14, 12, 12, 14, 12, 6, 13, 12, 10, 9, 8, 13, 6, 15]
obj = 4760
----------
source = [10, 13, 11, 15, 12, 6, 13, 6, 8, 10, 13, 8, 7, 6, 11, 11, 14, 12, 12, 14, 12, 14, 13, 12, 10, 9, 8, 11, 13, 15]
obj = 4749
----------
source = [10, 13, 11, 15, 12, 7, 13, 6, 8, 10, 13, 11, 13, 6, 11, 11, 14, 12, 12, 14, 12, 14, 13, 12, 10, 9, 8, 13, 6, 15]
obj = 4748
----------
source = [10, 13, 11, 15, 12, 6, 13, 6, 8, 10, 13, 8, 13, 7, 11, 11, 14, 12, 12, 14, 12, 14, 13, 12, 10, 9, 8, 11, 6, 15]
obj = 4744
----------
source = [10, 13, 11, 15, 12, 6, 13, 6, 8, 10, 13, 8, 13, 7, 11, 11, 14, 12, 12, 14, 12, 14, 13, 12, 10, 9, 8, 13, 6, 15]
obj = 4742
----------
source = [12, 13, 11, 15, 12, 7, 10, 9, 13, 10, 13, 8, 11, 8, 11, 11, 14, 12, 12, 9, 12, 10, 13, 14, 5, 5, 8, 11, 13, 15]
obj = 4738
----------
source = [12, 13, 11, 15, 12, 7, 10, 9, 13, 10, 13, 8, 11, 8, 11, 11, 14, 12, 12, 13, 12, 10, 13, 14, 5, 9, 8, 11, 5, 15]
obj = 4732
----------
source = [12, 13, 5, 15, 12, 14, 10, 9, 13, 10, 13, 11, 11, 7, 11, 11, 14, 12, 12, 8, 12, 10, 13, 11, 8, 9, 8, 11, 13, 15]
obj = 4731
----------
source = [12, 13, 11, 15, 12, 14, 10, 9, 8, 10, 13, 11, 11, 7, 11, 13, 14, 12, 12, 13, 12, 10, 13, 11, 5, 9, 8, 11, 5, 15]
obj = 4729
----------
source = [12, 13, 11, 15, 12, 14, 13, 9, 8, 10, 13, 8, 11, 7, 11, 11, 5, 12, 12, 14, 12, 10, 13, 14, 10, 9, 8, 11, 13, 15]
obj = 4723
----------
source = [10, 13, 11, 9, 12, 14, 13, 13, 8, 10, 13, 8, 11, 7, 11, 11, 14, 12, 12, 8, 12, 10, 13, 11, 5, 5, 15, 12, 13, 15]
obj = 4722
----------
source = [12, 5, 11, 15, 12, 11, 13, 9, 8, 10, 5, 10, 11, 7, 11, 13, 14, 12, 12, 9, 14, 10, 13, 12, 8, 10, 5, 11, 13, 15]
obj = 4718
----------
source = [12, 13, 11, 15, 12, 11, 13, 9, 8, 10, 5, 10, 11, 7, 11, 13, 14, 12, 12, 9, 14, 10, 13, 12, 8, 10, 5, 13, 5, 15]
obj = 4713
----------
source = [10, 13, 11, 15, 12, 7, 13, 9, 8, 10, 5, 10, 11, 5, 11, 13, 14, 12, 12, 9, 14, 10, 13, 12, 12, 11, 8, 13, 11, 15]
obj = 4707
----------
source = [10, 13, 11, 15, 12, 7, 11, 9, 8, 10, 5, 10, 11, 5, 11, 13, 14, 12, 12, 9, 14, 10, 13, 12, 12, 11, 8, 13, 13, 15]
obj = 4703
----------
source = [10, 13, 11, 15, 12, 7, 13, 9, 8, 10, 5, 10, 11, 5, 11, 13, 14, 12, 12, 9, 14, 10, 11, 12, 12, 11, 8, 13, 13, 15]
obj = 4695
----------
source = [10, 13, 11, 15, 12, 7, 13, 9, 8, 10, 13, 10, 11, 5, 11, 13, 14, 12, 12, 9, 14, 10, 13, 12, 12, 11, 8, 11, 5, 15]
obj = 4692
----------
source = [10, 13, 11, 15, 12, 7, 13, 9, 8, 10, 5, 10, 11, 14, 11, 13, 14, 12, 12, 9, 8, 10, 13, 12, 12, 11, 5, 13, 5, 15]
obj = 4690
----------
source = [10, 13, 11, 15, 12, 14, 13, 9, 8, 10, 5, 10, 11, 7, 11, 13, 14, 12, 12, 13, 8, 10, 13, 12, 12, 11, 5, 11, 5, 15]
obj = 4687
----------
source = [10, 13, 11, 15, 12, 14, 13, 9, 8, 10, 5, 10, 11, 7, 11, 13, 14, 12, 12, 9, 8, 10, 13, 12, 12, 11, 5, 11, 5, 15]
obj = 4682
----------
source = [10, 13, 11, 15, 12, 14, 13, 9, 8, 10, 5, 10, 11, 7, 11, 13, 14, 12, 12, 9, 8, 10, 13, 12, 12, 11, 5, 13, 5, 15]
obj = 4680
----------
source = [12, 13, 11, 15, 12, 11, 13, 9, 13, 10, 5, 14, 11, 7, 11, 10, 14, 12, 12, 8, 8, 10, 13, 14, 12, 9, 8, 11, 5, 15]
obj = 4678
----------
source = [12, 13, 11, 15, 12, 14, 13, 9, 13, 10, 5, 11, 11, 7, 11, 10, 14, 12, 12, 8, 8, 10, 13, 11, 12, 9, 8, 11, 5, 15]
obj = 4677
----------
source = [10, 13, 11, 15, 12, 14, 13, 9, 13, 10, 5, 10, 11, 7, 11, 13, 14, 12, 12, 8, 8, 10, 11, 12, 12, 9, 8, 11, 5, 15]
obj = 4669
----------
source = [10, 13, 11, 15, 12, 7, 13, 9, 13, 10, 5, 10, 11, 14, 11, 11, 14, 12, 12, 8, 8, 10, 13, 12, 12, 9, 8, 11, 5, 15]
obj = 4661
----------
source = [10, 13, 11, 15, 12, 14, 13, 9, 13, 10, 5, 10, 11, 7, 11, 11, 14, 12, 12, 8, 8, 10, 13, 12, 12, 9, 5, 11, 5, 15]
obj = 4660
----------
source = [10, 13, 11, 15, 12, 14, 13, 9, 13, 10, 5, 10, 11, 7, 11, 11, 14, 12, 12, 8, 8, 10, 13, 12, 12, 9, 8, 11, 5, 15]
obj = 4651
----------
source = [10, 13, 11, 15, 12, 7, 13, 9, 13, 10, 5, 10, 11, 5, 11, 11, 14, 12, 12, 8, 12, 10, 14, 12, 8, 9, 8, 11, 13, 15]
obj = 4641
----------
source = [10, 13, 11, 15, 12, 14, 13, 9, 13, 10, 5, 10, 11, 7, 11, 11, 14, 12, 12, 8, 12, 10, 13, 12, 8, 9, 8, 11, 5, 15]
obj = 4635
----------
source = [12, 5, 11, 15, 12, 14, 13, 9, 13, 10, 5, 10, 11, 7, 11, 11, 14, 12, 12, 8, 12, 10, 13, 11, 8, 9, 8, 13, 5, 15]
obj = 4632
----------
source = [10, 5, 11, 15, 12, 14, 13, 9, 13, 10, 5, 10, 11, 7, 11, 11, 14, 12, 12, 8, 12, 10, 13, 12, 8, 9, 8, 11, 5, 15]
obj = 4628
----------
source = [10, 5, 11, 15, 12, 14, 13, 9, 13, 10, 5, 10, 11, 7, 11, 11, 14, 12, 12, 8, 12, 10, 13, 12, 8, 9, 8, 13, 5, 15]
obj = 4626
----------
source = [10, 5, 11, 15, 12, 14, 7, 9, 13, 10, 5, 10, 11, 5, 11, 11, 14, 12, 12, 8, 12, 10, 13, 12, 8, 9, 8, 13, 13, 15]
obj = 4625
----------
source = [10, 5, 11, 11, 12, 14, 13, 9, 13, 10, 5, 10, 9, 7, 11, 11, 14, 12, 12, 8, 12, 10, 13, 12, 8, 15, 8, 13, 5, 15]
obj = 4623
----------
source = [12, 5, 11, 15, 12, 10, 13, 9, 13, 10, 5, 11, 9, 7, 11, 11, 14, 12, 12, 8, 12, 10, 13, 14, 8, 11, 8, 13, 5, 15]
obj = 4619
----------
source = [12, 5, 11, 15, 12, 10, 13, 9, 13, 10, 5, 14, 9, 7, 11, 11, 14, 12, 12, 8, 12, 10, 13, 14, 8, 11, 8, 13, 5, 15]
obj = 4616
----------
source = [12, 5, 11, 15, 12, 10, 13, 9, 13, 10, 5, 14, 9, 7, 11, 11, 14, 12, 12, 8, 12, 10, 11, 14, 8, 5, 8, 13, 13, 15]
obj = 4615
----------
source = [12, 5, 11, 15, 12, 10, 13, 9, 13, 10, 5, 11, 13, 7, 11, 11, 14, 12, 12, 8, 12, 10, 13, 14, 8, 9, 8, 11, 5, 15]
obj = 4606
----------
source = [12, 5, 11, 15, 12, 10, 13, 9, 13, 10, 5, 14, 13, 7, 11, 11, 14, 12, 12, 8, 12, 10, 13, 14, 8, 9, 8, 11, 5, 15]
obj = 4603
----------
source = [12, 5, 11, 15, 12, 7, 13, 9, 13, 10, 5, 10, 13, 14, 11, 11, 14, 12, 12, 8, 12, 10, 13, 9, 8, 10, 8, 11, 5, 15]
obj = 4601
----------
source = [12, 5, 11, 15, 12, 7, 13, 9, 13, 10, 5, 10, 13, 14, 11, 11, 14, 12, 12, 8, 12, 10, 13, 11, 8, 10, 8, 11, 5, 15]
obj = 4599
----------
source = [12, 5, 11, 15, 12, 7, 13, 9, 13, 10, 5, 11, 9, 14, 11, 10, 14, 12, 12, 8, 12, 10, 13, 11, 8, 11, 8, 11, 5, 15]
obj = 4598
----------
source = [12, 5, 11, 15, 12, 7, 13, 9, 13, 10, 5, 11, 9, 14, 11, 10, 14, 12, 12, 8, 12, 10, 13, 11, 8, 11, 8, 13, 5, 15]
obj = 4596
----------
source = [12, 5, 11, 15, 12, 7, 13, 13, 13, 10, 5, 10, 9, 14, 11, 11, 14, 12, 12, 8, 12, 10, 13, 11, 8, 10, 8, 13, 5, 15]
obj = 4593
----------
source = [12, 5, 11, 15, 12, 7, 13, 9, 13, 10, 5, 10, 9, 14, 11, 11, 14, 12, 12, 8, 12, 10, 13, 11, 8, 10, 8, 13, 5, 15]
obj = 4583
----------
source = [12, 5, 11, 15, 12, 7, 13, 9, 13, 10, 5, 10, 13, 14, 11, 11, 14, 12, 12, 8, 12, 10, 13, 11, 8, 9, 8, 11, 5, 15]
obj = 4563
----------
source = [12, 5, 11, 15, 12, 14, 13, 9, 13, 10, 5, 10, 13, 7, 11, 11, 14, 12, 12, 8, 12, 10, 13, 11, 8, 9, 8, 11, 5, 15]
obj = 4553
----------
source = [10, 5, 11, 15, 12, 14, 13, 9, 13, 10, 5, 10, 13, 7, 11, 11, 14, 12, 12, 8, 12, 10, 13, 12, 8, 9, 8, 11, 5, 15]
obj = 4547
----------
source = [10, 5, 11, 15, 12, 14, 7, 9, 13, 10, 5, 10, 13, 5, 11, 11, 14, 12, 12, 8, 12, 10, 13, 12, 8, 9, 8, 11, 13, 15]
obj = 4546
----------
source = [10, 5, 11, 11, 15, 7, 13, 9, 11, 10, 5, 10, 13, 5, 12, 11, 14, 14, 12, 8, 12, 10, 13, 14, 8, 9, 8, 13, 13, 15]
obj = 4535
----------
source = [10, 5, 11, 15, 12, 14, 13, 9, 11, 10, 5, 10, 13, 7, 5, 11, 14, 12, 12, 8, 12, 10, 13, 11, 8, 9, 8, 13, 13, 15]
obj = 4529
----------
source = [10, 5, 11, 15, 12, 7, 13, 9, 11, 10, 5, 10, 13, 14, 5, 11, 14, 12, 12, 8, 12, 10, 13, 12, 8, 9, 8, 13, 13, 15]
obj = 4521
----------
source = [10, 13, 11, 15, 12, 14, 13, 9, 11, 10, 5, 10, 13, 7, 5, 11, 14, 12, 12, 8, 12, 10, 13, 12, 8, 9, 8, 11, 13, 15]
obj = 4520
----------
source = [10, 5, 11, 15, 12, 14, 13, 9, 11, 10, 5, 10, 13, 7, 5, 11, 14, 12, 12, 8, 12, 10, 13, 12, 8, 9, 8, 13, 13, 15]
obj = 4511
----------
source = [10, 5, 11, 15, 12, 11, 13, 9, 13, 10, 5, 10, 7, 14, 5, 11, 14, 12, 12, 8, 12, 10, 11, 12, 8, 9, 8, 13, 13, 15]
obj = 4508
----------
source = [10, 5, 11, 15, 12, 11, 13, 9, 13, 10, 5, 10, 13, 7, 5, 11, 14, 12, 12, 8, 12, 10, 14, 12, 8, 9, 8, 11, 13, 15]
obj = 4495
----------
source = [10, 5, 11, 15, 12, 7, 13, 9, 13, 10, 5, 10, 13, 14, 5, 11, 14, 12, 12, 8, 12, 10, 11, 12, 8, 9, 8, 11, 13, 15]
obj = 4494
----------
source = [10, 5, 11, 15, 12, 14, 13, 9, 13, 10, 5, 10, 13, 7, 5, 11, 14, 12, 12, 8, 12, 10, 11, 12, 8, 9, 8, 11, 13, 15]
obj = 4484
----------
