+ /usr/bin/timeout 600 /usr/bin/time -v mzn-chuffed lbbd-datasets/Rabadi-2006/dzn-p-dominant/model.mzn lbbd-datasets/Rabadi-2006/dzn-p-dominant/8on6Rp50Rs50_4Ameer.dzn
% No search annotation given. Defaulting to VSIDS!
assign = array1d(1..14 ,[6, 6, 6, 6, 6, 6, 6, 6, 1, 2, 3, 4, 5, 6]);
next = array1d(1..14 ,[2, 3, 4, 5, 6, 7, 8, 14, 10, 11, 12, 13, 1, 9]);
makespan = 1707;
----------
assign = array1d(1..14 ,[6, 6, 6, 6, 6, 6, 6, 6, 1, 2, 3, 4, 5, 6]);
next = array1d(1..14 ,[2, 4, 5, 3, 6, 7, 8, 14, 10, 11, 12, 13, 1, 9]);
makespan = 1705;
----------
assign = array1d(1..14 ,[6, 6, 6, 6, 5, 6, 6, 6, 1, 2, 3, 4, 5, 6]);
next = array1d(1..14 ,[7, 1, 2, 14, 13, 3, 4, 6, 10, 11, 12, 5, 8, 9]);
makespan = 1568;
----------
assign = array1d(1..14 ,[6, 6, 6, 5, 6, 6, 6, 6, 1, 2, 3, 4, 5, 6]);
next = array1d(1..14 ,[5, 7, 8, 13, 14, 2, 3, 1, 10, 11, 12, 4, 6, 9]);
makespan = 1567;
----------
assign = array1d(1..14 ,[6, 5, 6, 6, 6, 6, 6, 6, 1, 2, 3, 4, 5, 6]);
next = array1d(1..14 ,[6, 13, 8, 14, 7, 4, 3, 1, 10, 11, 12, 2, 5, 9]);
makespan = 1561;
----------
assign = array1d(1..14 ,[6, 6, 6, 6, 6, 6, 6, 5, 1, 2, 3, 4, 5, 6]);
next = array1d(1..14 ,[5, 7, 6, 1, 14, 2, 4, 13, 10, 11, 12, 8, 3, 9]);
makespan = 1560;
----------
assign = array1d(1..14 ,[6, 6, 6, 6, 6, 6, 6, 5, 1, 2, 3, 4, 5, 6]);
next = array1d(1..14 ,[7, 1, 6, 14, 3, 4, 5, 13, 10, 11, 12, 8, 2, 9]);
makespan = 1558;
----------
assign = array1d(1..14 ,[1, 6, 6, 6, 6, 6, 6, 6, 1, 2, 3, 4, 5, 6]);
next = array1d(1..14 ,[9, 6, 8, 14, 2, 7, 3, 4, 10, 11, 12, 13, 5, 1]);
makespan = 1554;
----------
assign = array1d(1..14 ,[1, 6, 6, 6, 6, 6, 6, 6, 1, 2, 3, 4, 5, 6]);
next = array1d(1..14 ,[9, 4, 8, 7, 6, 14, 3, 5, 10, 11, 12, 13, 2, 1]);
makespan = 1553;
----------
assign = array1d(1..14 ,[6, 6, 6, 6, 6, 5, 6, 6, 1, 2, 3, 4, 5, 6]);
next = array1d(1..14 ,[7, 4, 2, 1, 14, 13, 8, 5, 10, 11, 12, 6, 3, 9]);
makespan = 1552;
----------
assign = array1d(1..14 ,[6, 1, 6, 6, 6, 6, 6, 6, 1, 2, 3, 4, 5, 6]);
next = array1d(1..14 ,[5, 9, 1, 7, 8, 14, 3, 6, 10, 11, 12, 13, 4, 2]);
makespan = 1550;
----------
assign = array1d(1..14 ,[6, 5, 6, 6, 6, 6, 6, 6, 1, 2, 3, 4, 5, 6]);
next = array1d(1..14 ,[5, 13, 4, 1, 6, 14, 3, 7, 10, 11, 12, 2, 8, 9]);
makespan = 1548;
----------
assign = array1d(1..14 ,[6, 1, 6, 6, 6, 6, 6, 6, 1, 2, 3, 4, 5, 6]);
next = array1d(1..14 ,[7, 9, 6, 1, 14, 4, 8, 5, 10, 11, 12, 13, 3, 2]);
makespan = 1547;
----------
assign = array1d(1..14 ,[6, 5, 6, 6, 6, 6, 6, 6, 1, 2, 3, 4, 5, 6]);
next = array1d(1..14 ,[7, 13, 8, 5, 1, 3, 14, 4, 10, 11, 12, 2, 6, 9]);
makespan = 1544;
----------
assign = array1d(1..14 ,[6, 5, 6, 6, 6, 6, 6, 6, 1, 2, 3, 4, 5, 6]);
next = array1d(1..14 ,[7, 13, 8, 1, 14, 4, 5, 6, 10, 11, 12, 2, 3, 9]);
makespan = 1542;
----------
assign = array1d(1..14 ,[6, 2, 6, 6, 6, 6, 6, 6, 1, 2, 3, 4, 5, 6]);
next = array1d(1..14 ,[4, 10, 6, 5, 7, 14, 3, 1, 2, 11, 12, 13, 8, 9]);
makespan = 1540;
----------
assign = array1d(1..14 ,[6, 6, 5, 6, 6, 6, 6, 6, 1, 2, 3, 4, 5, 6]);
next = array1d(1..14 ,[7, 5, 13, 6, 14, 2, 4, 1, 10, 11, 12, 3, 8, 9]);
makespan = 1493;
----------
assign = array1d(1..14 ,[6, 6, 3, 6, 6, 6, 6, 6, 1, 2, 3, 4, 5, 6]);
next = array1d(1..14 ,[7, 5, 11, 14, 6, 8, 4, 1, 10, 3, 12, 13, 2, 9]);
makespan = 1491;
----------
assign = array1d(1..14 ,[6, 6, 6, 6, 6, 1, 6, 6, 1, 2, 3, 4, 5, 6]);
next = array1d(1..14 ,[7, 5, 14, 2, 3, 9, 4, 1, 10, 11, 12, 13, 8, 6]);
makespan = 1488;
----------
assign = array1d(1..14 ,[6, 6, 6, 6, 6, 1, 6, 6, 1, 2, 3, 4, 5, 6]);
next = array1d(1..14 ,[7, 5, 14, 2, 3, 9, 4, 1, 10, 11, 12, 13, 8, 6]);
makespan = 1479;
----------
assign = array1d(1..14 ,[6, 6, 6, 6, 6, 1, 6, 6, 1, 2, 3, 4, 5, 6]);
next = array1d(1..14 ,[7, 5, 14, 2, 3, 9, 4, 1, 10, 11, 12, 13, 8, 6]);
makespan = 1477;
----------
assign = array1d(1..14 ,[6, 6, 1, 6, 6, 1, 6, 6, 1, 2, 3, 4, 5, 6]);
next = array1d(1..14 ,[7, 5, 6, 2, 14, 9, 4, 1, 10, 11, 12, 13, 8, 3]);
makespan = 1439;
----------
assign = array1d(1..14 ,[6, 6, 2, 6, 6, 2, 6, 6, 1, 2, 3, 4, 5, 6]);
next = array1d(1..14 ,[7, 5, 6, 2, 14, 10, 4, 1, 3, 11, 12, 13, 8, 9]);
makespan = 1429;
----------
assign = array1d(1..14 ,[6, 6, 1, 6, 6, 1, 6, 6, 1, 2, 3, 4, 5, 6]);
next = array1d(1..14 ,[7, 5, 6, 2, 14, 9, 4, 1, 10, 11, 12, 13, 8, 3]);
makespan = 1426;
----------
assign = array1d(1..14 ,[6, 6, 2, 6, 6, 2, 6, 6, 1, 2, 3, 4, 5, 6]);
next = array1d(1..14 ,[7, 5, 6, 2, 14, 10, 4, 1, 3, 11, 12, 13, 8, 9]);
makespan = 1423;
----------
assign = array1d(1..14 ,[6, 6, 1, 6, 6, 1, 6, 6, 1, 2, 3, 4, 5, 6]);
next = array1d(1..14 ,[7, 5, 6, 2, 14, 9, 4, 1, 10, 11, 12, 13, 8, 3]);
makespan = 1421;
----------
assign = array1d(1..14 ,[6, 6, 4, 6, 6, 4, 6, 6, 1, 2, 3, 4, 5, 6]);
next = array1d(1..14 ,[7, 5, 6, 2, 14, 12, 4, 1, 10, 11, 3, 13, 8, 9]);
makespan = 1420;
----------
assign = array1d(1..14 ,[6, 6, 1, 6, 6, 1, 6, 6, 1, 2, 3, 4, 5, 6]);
next = array1d(1..14 ,[7, 5, 6, 2, 14, 9, 4, 1, 10, 11, 12, 13, 8, 3]);
makespan = 1414;
----------
assign = array1d(1..14 ,[6, 6, 4, 6, 6, 4, 6, 6, 1, 2, 3, 4, 5, 6]);
next = array1d(1..14 ,[7, 5, 6, 2, 14, 12, 4, 1, 10, 11, 3, 13, 8, 9]);
makespan = 1413;
----------
assign = array1d(1..14 ,[6, 6, 1, 6, 6, 1, 6, 6, 1, 2, 3, 4, 5, 6]);
next = array1d(1..14 ,[7, 5, 6, 2, 14, 9, 4, 1, 10, 11, 12, 13, 8, 3]);
makespan = 1412;
----------
assign = array1d(1..14 ,[6, 6, 4, 6, 6, 4, 6, 6, 1, 2, 3, 4, 5, 6]);
next = array1d(1..14 ,[7, 5, 6, 2, 14, 12, 4, 1, 10, 11, 3, 13, 8, 9]);
makespan = 1410;
----------
assign = array1d(1..14 ,[6, 6, 1, 6, 6, 1, 6, 6, 1, 2, 3, 4, 5, 6]);
next = array1d(1..14 ,[7, 5, 6, 2, 14, 9, 4, 1, 10, 11, 12, 13, 8, 3]);
makespan = 1409;
----------
assign = array1d(1..14 ,[6, 6, 4, 6, 6, 4, 6, 6, 1, 2, 3, 4, 5, 6]);
next = array1d(1..14 ,[7, 5, 6, 2, 14, 12, 4, 1, 10, 11, 3, 13, 8, 9]);
makespan = 1408;
----------
assign = array1d(1..14 ,[6, 6, 1, 6, 6, 1, 6, 6, 1, 2, 3, 4, 5, 6]);
next = array1d(1..14 ,[7, 5, 6, 2, 14, 9, 4, 1, 10, 11, 12, 13, 8, 3]);
makespan = 1407;
----------
assign = array1d(1..14 ,[6, 6, 4, 6, 6, 4, 6, 6, 1, 2, 3, 4, 5, 6]);
next = array1d(1..14 ,[7, 5, 6, 2, 14, 12, 4, 1, 10, 11, 3, 13, 8, 9]);
makespan = 1406;
----------
assign = array1d(1..14 ,[6, 6, 1, 6, 6, 1, 6, 6, 1, 2, 3, 4, 5, 6]);
next = array1d(1..14 ,[7, 5, 6, 2, 14, 9, 4, 1, 10, 11, 12, 13, 8, 3]);
makespan = 1404;
----------
assign = array1d(1..14 ,[6, 6, 4, 6, 6, 4, 6, 6, 1, 2, 3, 4, 5, 6]);
next = array1d(1..14 ,[7, 5, 6, 2, 14, 12, 4, 1, 10, 11, 3, 13, 8, 9]);
makespan = 1401;
----------
assign = array1d(1..14 ,[6, 6, 1, 6, 6, 1, 6, 6, 1, 2, 3, 4, 5, 6]);
next = array1d(1..14 ,[7, 5, 6, 2, 14, 9, 4, 1, 10, 11, 12, 13, 8, 3]);
makespan = 1400;
----------
assign = array1d(1..14 ,[6, 6, 4, 6, 6, 4, 6, 6, 1, 2, 3, 4, 5, 6]);
next = array1d(1..14 ,[7, 5, 6, 2, 14, 12, 4, 1, 10, 11, 3, 13, 8, 9]);
makespan = 1399;
----------
assign = array1d(1..14 ,[6, 6, 1, 6, 6, 1, 6, 6, 1, 2, 3, 4, 5, 6]);
next = array1d(1..14 ,[7, 5, 6, 2, 14, 9, 4, 1, 10, 11, 12, 13, 8, 3]);
makespan = 1397;
----------
assign = array1d(1..14 ,[6, 6, 4, 6, 6, 4, 6, 6, 1, 2, 3, 4, 5, 6]);
next = array1d(1..14 ,[7, 5, 6, 2, 14, 12, 4, 1, 10, 11, 3, 13, 8, 9]);
makespan = 1396;
----------
assign = array1d(1..14 ,[6, 6, 1, 6, 6, 1, 6, 6, 1, 2, 3, 4, 5, 6]);
next = array1d(1..14 ,[7, 5, 6, 2, 14, 9, 4, 1, 10, 11, 12, 13, 8, 3]);
makespan = 1394;
----------
assign = array1d(1..14 ,[6, 6, 4, 6, 6, 4, 6, 6, 1, 2, 3, 4, 5, 6]);
next = array1d(1..14 ,[7, 5, 6, 2, 14, 12, 4, 1, 10, 11, 3, 13, 8, 9]);
makespan = 1393;
----------
assign = array1d(1..14 ,[6, 6, 1, 6, 6, 1, 6, 6, 1, 2, 3, 4, 5, 6]);
next = array1d(1..14 ,[7, 5, 6, 2, 14, 9, 4, 1, 10, 11, 12, 13, 8, 3]);
makespan = 1390;
----------
assign = array1d(1..14 ,[6, 6, 4, 6, 6, 4, 6, 6, 1, 2, 3, 4, 5, 6]);
next = array1d(1..14 ,[7, 5, 6, 2, 14, 12, 4, 1, 10, 11, 3, 13, 8, 9]);
makespan = 1387;
----------
assign = array1d(1..14 ,[6, 6, 1, 6, 6, 1, 6, 6, 1, 2, 3, 4, 5, 6]);
next = array1d(1..14 ,[7, 5, 6, 2, 14, 9, 4, 1, 10, 11, 12, 13, 8, 3]);
makespan = 1386;
----------
assign = array1d(1..14 ,[6, 6, 4, 6, 6, 4, 6, 6, 1, 2, 3, 4, 5, 6]);
next = array1d(1..14 ,[7, 5, 6, 2, 14, 12, 4, 1, 10, 11, 3, 13, 8, 9]);
makespan = 1383;
----------
assign = array1d(1..14 ,[6, 6, 1, 6, 6, 1, 6, 6, 1, 2, 3, 4, 5, 6]);
next = array1d(1..14 ,[7, 5, 6, 2, 14, 9, 4, 1, 10, 11, 12, 13, 8, 3]);
makespan = 1380;
----------
assign = array1d(1..14 ,[6, 6, 4, 6, 6, 4, 6, 6, 1, 2, 3, 4, 5, 6]);
next = array1d(1..14 ,[7, 5, 6, 2, 14, 12, 4, 1, 10, 11, 3, 13, 8, 9]);
makespan = 1369;
----------
assign = array1d(1..14 ,[6, 6, 1, 6, 6, 1, 6, 6, 1, 2, 3, 4, 5, 6]);
next = array1d(1..14 ,[7, 5, 6, 2, 14, 9, 4, 1, 10, 11, 12, 13, 8, 3]);
makespan = 1366;
----------
assign = array1d(1..14 ,[6, 6, 4, 6, 6, 4, 6, 6, 1, 2, 3, 4, 5, 6]);
next = array1d(1..14 ,[7, 5, 6, 2, 14, 12, 4, 1, 10, 11, 3, 13, 8, 9]);
makespan = 1353;
----------
assign = array1d(1..14 ,[6, 6, 1, 6, 6, 1, 6, 6, 1, 2, 3, 4, 5, 6]);
next = array1d(1..14 ,[7, 5, 6, 2, 14, 9, 4, 1, 10, 11, 12, 13, 8, 3]);
makespan = 1309;
----------
assign = array1d(1..14 ,[6, 6, 4, 6, 6, 4, 6, 6, 1, 2, 3, 4, 5, 6]);
next = array1d(1..14 ,[7, 5, 6, 2, 14, 12, 4, 1, 10, 11, 3, 13, 8, 9]);
makespan = 1282;
----------
assign = array1d(1..14 ,[6, 6, 1, 6, 6, 1, 6, 6, 1, 2, 3, 4, 5, 6]);
next = array1d(1..14 ,[7, 5, 6, 14, 8, 9, 4, 1, 10, 11, 12, 13, 2, 3]);
makespan = 1281;
----------
assign = array1d(1..14 ,[6, 6, 4, 6, 6, 4, 6, 6, 1, 2, 3, 4, 5, 6]);
next = array1d(1..14 ,[7, 5, 6, 14, 8, 12, 4, 1, 10, 11, 3, 13, 2, 9]);
makespan = 1280;
----------
assign = array1d(1..14 ,[6, 6, 1, 6, 6, 1, 6, 6, 1, 2, 3, 4, 5, 6]);
next = array1d(1..14 ,[7, 5, 6, 14, 8, 9, 4, 1, 10, 11, 12, 13, 2, 3]);
makespan = 1279;
----------
assign = array1d(1..14 ,[6, 6, 4, 4, 6, 6, 6, 6, 1, 2, 3, 4, 5, 6]);
next = array1d(1..14 ,[7, 5, 4, 12, 6, 8, 14, 1, 10, 11, 3, 13, 2, 9]);
makespan = 1277;
----------
assign = array1d(1..14 ,[6, 6, 5, 5, 6, 5, 6, 6, 1, 2, 3, 4, 5, 6]);
next = array1d(1..14 ,[7, 5, 4, 6, 14, 13, 2, 1, 10, 11, 12, 3, 8, 9]);
makespan = 1273;
----------
assign = array1d(1..14 ,[6, 6, 3, 3, 6, 3, 6, 6, 1, 2, 3, 4, 5, 6]);
next = array1d(1..14 ,[7, 5, 4, 6, 14, 11, 2, 1, 10, 3, 12, 13, 8, 9]);
makespan = 1272;
----------
assign = array1d(1..14 ,[6, 6, 1, 1, 6, 1, 6, 6, 1, 2, 3, 4, 5, 6]);
next = array1d(1..14 ,[7, 5, 4, 6, 14, 9, 2, 1, 10, 11, 12, 13, 8, 3]);
makespan = 1269;
----------
assign = array1d(1..14 ,[6, 6, 3, 3, 6, 3, 6, 6, 1, 2, 3, 4, 5, 6]);
next = array1d(1..14 ,[7, 5, 4, 6, 14, 11, 2, 1, 10, 3, 12, 13, 8, 9]);
makespan = 1268;
----------
assign = array1d(1..14 ,[6, 6, 1, 1, 6, 1, 6, 6, 1, 2, 3, 4, 5, 6]);
next = array1d(1..14 ,[7, 5, 4, 6, 14, 9, 2, 1, 10, 11, 12, 13, 8, 3]);
makespan = 1267;
----------
assign = array1d(1..14 ,[6, 6, 3, 3, 6, 3, 6, 6, 1, 2, 3, 4, 5, 6]);
next = array1d(1..14 ,[7, 5, 4, 6, 14, 11, 2, 1, 10, 3, 12, 13, 8, 9]);
makespan = 1266;
----------
assign = array1d(1..14 ,[6, 6, 1, 1, 6, 1, 6, 6, 1, 2, 3, 4, 5, 6]);
next = array1d(1..14 ,[7, 5, 4, 6, 14, 9, 2, 1, 10, 11, 12, 13, 8, 3]);
makespan = 1264;
----------
assign = array1d(1..14 ,[6, 6, 3, 3, 6, 3, 6, 6, 1, 2, 3, 4, 5, 6]);
next = array1d(1..14 ,[7, 5, 4, 6, 14, 11, 2, 1, 10, 3, 12, 13, 8, 9]);
makespan = 1263;
----------
assign = array1d(1..14 ,[6, 6, 4, 4, 6, 4, 6, 6, 1, 2, 3, 4, 5, 6]);
next = array1d(1..14 ,[7, 5, 4, 6, 14, 12, 2, 1, 10, 11, 3, 13, 8, 9]);
makespan = 1261;
----------
assign = array1d(1..14 ,[6, 6, 1, 1, 6, 1, 6, 6, 1, 2, 3, 4, 5, 6]);
next = array1d(1..14 ,[7, 5, 4, 6, 14, 9, 2, 1, 10, 11, 12, 13, 8, 3]);
makespan = 1260;
----------
assign = array1d(1..14 ,[6, 6, 5, 5, 6, 5, 6, 6, 1, 2, 3, 4, 5, 6]);
next = array1d(1..14 ,[7, 5, 4, 6, 14, 13, 2, 1, 10, 11, 12, 3, 8, 9]);
makespan = 1259;
----------
assign = array1d(1..14 ,[6, 6, 1, 1, 6, 1, 6, 6, 1, 2, 3, 4, 5, 6]);
next = array1d(1..14 ,[7, 5, 4, 6, 14, 9, 2, 1, 10, 11, 12, 13, 8, 3]);
makespan = 1257;
----------
assign = array1d(1..14 ,[6, 6, 5, 5, 6, 5, 6, 6, 1, 2, 3, 4, 5, 6]);
next = array1d(1..14 ,[7, 5, 4, 6, 14, 13, 2, 1, 10, 11, 12, 3, 8, 9]);
makespan = 1256;
----------
assign = array1d(1..14 ,[6, 6, 1, 1, 6, 1, 6, 6, 1, 2, 3, 4, 5, 6]);
next = array1d(1..14 ,[7, 5, 4, 6, 14, 9, 2, 1, 10, 11, 12, 13, 8, 3]);
makespan = 1255;
----------
assign = array1d(1..14 ,[6, 6, 5, 5, 6, 5, 6, 6, 1, 2, 3, 4, 5, 6]);
next = array1d(1..14 ,[7, 5, 4, 6, 14, 13, 2, 1, 10, 11, 12, 3, 8, 9]);
makespan = 1254;
----------
assign = array1d(1..14 ,[6, 6, 1, 1, 6, 1, 6, 6, 1, 2, 3, 4, 5, 6]);
next = array1d(1..14 ,[7, 5, 4, 6, 14, 9, 2, 1, 10, 11, 12, 13, 8, 3]);
makespan = 1253;
----------
assign = array1d(1..14 ,[6, 6, 5, 5, 6, 5, 6, 6, 1, 2, 3, 4, 5, 6]);
next = array1d(1..14 ,[7, 5, 4, 6, 14, 13, 2, 1, 10, 11, 12, 3, 8, 9]);
makespan = 1252;
----------
assign = array1d(1..14 ,[6, 6, 1, 1, 6, 1, 6, 6, 1, 2, 3, 4, 5, 6]);
next = array1d(1..14 ,[7, 5, 4, 6, 14, 9, 2, 1, 10, 11, 12, 13, 8, 3]);
makespan = 1251;
----------
assign = array1d(1..14 ,[6, 6, 5, 5, 6, 5, 6, 6, 1, 2, 3, 4, 5, 6]);
next = array1d(1..14 ,[7, 5, 4, 6, 14, 13, 2, 1, 10, 11, 12, 3, 8, 9]);
makespan = 1250;
----------
assign = array1d(1..14 ,[6, 6, 1, 1, 6, 1, 6, 6, 1, 2, 3, 4, 5, 6]);
next = array1d(1..14 ,[7, 5, 4, 6, 14, 9, 2, 1, 10, 11, 12, 13, 8, 3]);
makespan = 1249;
----------
assign = array1d(1..14 ,[6, 6, 5, 5, 6, 5, 6, 6, 1, 2, 3, 4, 5, 6]);
next = array1d(1..14 ,[7, 5, 4, 6, 14, 13, 2, 1, 10, 11, 12, 3, 8, 9]);
makespan = 1248;
----------
assign = array1d(1..14 ,[6, 6, 1, 1, 6, 1, 6, 6, 1, 2, 3, 4, 5, 6]);
next = array1d(1..14 ,[7, 5, 4, 6, 14, 9, 2, 1, 10, 11, 12, 13, 8, 3]);
makespan = 1247;
----------
assign = array1d(1..14 ,[6, 6, 5, 5, 6, 5, 6, 6, 1, 2, 3, 4, 5, 6]);
next = array1d(1..14 ,[7, 5, 4, 6, 14, 13, 2, 1, 10, 11, 12, 3, 8, 9]);
makespan = 1246;
----------
assign = array1d(1..14 ,[6, 6, 1, 1, 6, 1, 6, 6, 1, 2, 3, 4, 5, 6]);
next = array1d(1..14 ,[7, 5, 4, 6, 14, 9, 2, 1, 10, 11, 12, 13, 8, 3]);
makespan = 1245;
----------
assign = array1d(1..14 ,[6, 6, 1, 1, 6, 1, 6, 6, 1, 2, 3, 4, 5, 6]);
next = array1d(1..14 ,[7, 5, 4, 6, 14, 9, 2, 1, 10, 11, 12, 13, 8, 3]);
makespan = 1244;
----------
assign = array1d(1..14 ,[6, 6, 2, 2, 6, 2, 6, 6, 1, 2, 3, 4, 5, 6]);
next = array1d(1..14 ,[7, 5, 4, 6, 14, 10, 2, 1, 3, 11, 12, 13, 8, 9]);
makespan = 1243;
----------
assign = array1d(1..14 ,[6, 6, 3, 3, 6, 3, 6, 6, 1, 2, 3, 4, 5, 6]);
next = array1d(1..14 ,[7, 5, 4, 6, 14, 11, 2, 1, 10, 3, 12, 13, 8, 9]);
makespan = 1242;
----------
assign = array1d(1..14 ,[6, 6, 3, 3, 6, 3, 6, 6, 1, 2, 3, 4, 5, 6]);
next = array1d(1..14 ,[7, 5, 4, 6, 14, 11, 2, 1, 10, 3, 12, 13, 8, 9]);
makespan = 1241;
----------
assign = array1d(1..14 ,[6, 6, 3, 3, 6, 3, 6, 6, 1, 2, 3, 4, 5, 6]);
next = array1d(1..14 ,[7, 5, 4, 6, 14, 11, 2, 1, 10, 3, 12, 13, 8, 9]);
makespan = 1240;
----------
assign = array1d(1..14 ,[6, 6, 3, 3, 6, 3, 6, 6, 1, 2, 3, 4, 5, 6]);
next = array1d(1..14 ,[7, 5, 4, 6, 14, 11, 2, 1, 10, 3, 12, 13, 8, 9]);
makespan = 1239;
----------
assign = array1d(1..14 ,[6, 6, 3, 3, 6, 3, 6, 6, 1, 2, 3, 4, 5, 6]);
next = array1d(1..14 ,[7, 5, 4, 6, 14, 11, 2, 1, 10, 3, 12, 13, 8, 9]);
makespan = 1237;
----------
assign = array1d(1..14 ,[6, 6, 3, 3, 6, 3, 6, 6, 1, 2, 3, 4, 5, 6]);
next = array1d(1..14 ,[7, 5, 4, 6, 14, 11, 2, 1, 10, 3, 12, 13, 8, 9]);
makespan = 1236;
----------
assign = array1d(1..14 ,[6, 6, 3, 3, 6, 3, 6, 6, 1, 2, 3, 4, 5, 6]);
next = array1d(1..14 ,[7, 5, 4, 6, 14, 11, 2, 1, 10, 3, 12, 13, 8, 9]);
makespan = 1234;
----------
assign = array1d(1..14 ,[6, 6, 3, 3, 6, 3, 6, 6, 1, 2, 3, 4, 5, 6]);
next = array1d(1..14 ,[7, 5, 4, 6, 14, 11, 2, 1, 10, 3, 12, 13, 8, 9]);
makespan = 1233;
----------
assign = array1d(1..14 ,[6, 6, 3, 3, 6, 3, 6, 6, 1, 2, 3, 4, 5, 6]);
next = array1d(1..14 ,[7, 5, 4, 6, 14, 11, 2, 1, 10, 3, 12, 13, 8, 9]);
makespan = 1230;
----------
assign = array1d(1..14 ,[6, 6, 3, 3, 6, 3, 6, 6, 1, 2, 3, 4, 5, 6]);
next = array1d(1..14 ,[7, 5, 4, 6, 14, 11, 2, 1, 10, 3, 12, 13, 8, 9]);
makespan = 1229;
----------
assign = array1d(1..14 ,[6, 6, 3, 3, 6, 3, 6, 6, 1, 2, 3, 4, 5, 6]);
next = array1d(1..14 ,[7, 5, 4, 6, 14, 11, 2, 1, 10, 3, 12, 13, 8, 9]);
makespan = 1227;
----------
assign = array1d(1..14 ,[6, 6, 3, 3, 6, 3, 6, 6, 1, 2, 3, 4, 5, 6]);
next = array1d(1..14 ,[7, 5, 4, 6, 14, 11, 2, 1, 10, 3, 12, 13, 8, 9]);
makespan = 1226;
----------
assign = array1d(1..14 ,[6, 6, 3, 3, 6, 3, 6, 6, 1, 2, 3, 4, 5, 6]);
next = array1d(1..14 ,[7, 5, 4, 6, 14, 11, 2, 1, 10, 3, 12, 13, 8, 9]);
makespan = 1224;
----------
assign = array1d(1..14 ,[6, 6, 3, 3, 6, 3, 6, 6, 1, 2, 3, 4, 5, 6]);
next = array1d(1..14 ,[7, 5, 4, 6, 14, 11, 2, 1, 10, 3, 12, 13, 8, 9]);
makespan = 1223;
----------
assign = array1d(1..14 ,[6, 6, 3, 3, 6, 3, 6, 6, 1, 2, 3, 4, 5, 6]);
next = array1d(1..14 ,[7, 5, 4, 6, 14, 11, 2, 1, 10, 3, 12, 13, 8, 9]);
makespan = 1218;
----------
assign = array1d(1..14 ,[6, 6, 3, 3, 6, 3, 6, 6, 1, 2, 3, 4, 5, 6]);
next = array1d(1..14 ,[7, 5, 4, 6, 14, 11, 2, 1, 10, 3, 12, 13, 8, 9]);
makespan = 1212;
----------
assign = array1d(1..14 ,[6, 6, 1, 1, 6, 1, 6, 6, 1, 2, 3, 4, 5, 6]);
next = array1d(1..14 ,[7, 5, 4, 6, 14, 9, 2, 1, 10, 11, 12, 13, 8, 3]);
makespan = 1155;
----------
assign = array1d(1..14 ,[6, 6, 4, 4, 6, 4, 6, 6, 1, 2, 3, 4, 5, 6]);
next = array1d(1..14 ,[7, 5, 4, 6, 14, 12, 2, 1, 10, 11, 3, 13, 8, 9]);
makespan = 1152;
----------
assign = array1d(1..14 ,[6, 6, 5, 5, 6, 5, 6, 6, 1, 2, 3, 4, 5, 6]);
next = array1d(1..14 ,[7, 5, 4, 6, 14, 13, 2, 1, 10, 11, 12, 3, 8, 9]);
makespan = 1127;
----------
assign = array1d(1..14 ,[6, 6, 1, 1, 6, 1, 6, 6, 1, 2, 3, 4, 5, 6]);
next = array1d(1..14 ,[7, 5, 4, 6, 14, 9, 2, 1, 10, 11, 12, 13, 8, 3]);
makespan = 1126;
----------
assign = array1d(1..14 ,[6, 6, 5, 5, 6, 5, 6, 6, 1, 2, 3, 4, 5, 6]);
next = array1d(1..14 ,[7, 5, 4, 6, 14, 13, 2, 1, 10, 11, 12, 3, 8, 9]);
makespan = 1123;
----------
assign = array1d(1..14 ,[6, 6, 1, 1, 6, 1, 6, 6, 1, 2, 3, 4, 5, 6]);
next = array1d(1..14 ,[7, 5, 4, 6, 14, 9, 2, 1, 10, 11, 12, 13, 8, 3]);
makespan = 1120;
----------
assign = array1d(1..14 ,[6, 6, 5, 5, 6, 5, 6, 6, 1, 2, 3, 4, 5, 6]);
next = array1d(1..14 ,[7, 5, 4, 6, 14, 13, 2, 1, 10, 11, 12, 3, 8, 9]);
makespan = 1119;
----------
assign = array1d(1..14 ,[6, 6, 1, 1, 6, 1, 6, 6, 1, 2, 3, 4, 5, 6]);
next = array1d(1..14 ,[7, 5, 4, 6, 14, 9, 2, 1, 10, 11, 12, 13, 8, 3]);
makespan = 1116;
----------
assign = array1d(1..14 ,[6, 6, 5, 5, 6, 5, 6, 6, 1, 2, 3, 4, 5, 6]);
next = array1d(1..14 ,[7, 5, 4, 6, 14, 13, 2, 1, 10, 11, 12, 3, 8, 9]);
makespan = 1115;
----------
assign = array1d(1..14 ,[6, 6, 3, 3, 6, 3, 6, 6, 1, 2, 3, 4, 5, 6]);
next = array1d(1..14 ,[7, 5, 4, 6, 14, 11, 2, 1, 10, 3, 12, 13, 8, 9]);
makespan = 1114;
----------
assign = array1d(1..14 ,[6, 6, 5, 5, 6, 5, 6, 6, 1, 2, 3, 4, 5, 6]);
next = array1d(1..14 ,[7, 5, 4, 6, 14, 13, 2, 1, 10, 11, 12, 3, 8, 9]);
makespan = 1113;
----------
assign = array1d(1..14 ,[6, 6, 1, 1, 6, 1, 6, 6, 1, 2, 3, 4, 5, 6]);
next = array1d(1..14 ,[7, 5, 4, 6, 14, 9, 2, 1, 10, 11, 12, 13, 8, 3]);
makespan = 1112;
----------
assign = array1d(1..14 ,[6, 6, 5, 5, 6, 5, 6, 6, 1, 2, 3, 4, 5, 6]);
next = array1d(1..14 ,[7, 5, 4, 6, 14, 13, 2, 1, 10, 11, 12, 3, 8, 9]);
makespan = 1111;
----------
assign = array1d(1..14 ,[6, 6, 4, 4, 6, 4, 6, 6, 1, 2, 3, 4, 5, 6]);
next = array1d(1..14 ,[7, 5, 4, 6, 14, 12, 2, 1, 10, 11, 3, 13, 8, 9]);
makespan = 1110;
----------
assign = array1d(1..14 ,[6, 6, 3, 3, 6, 3, 6, 6, 1, 2, 3, 4, 5, 6]);
next = array1d(1..14 ,[7, 5, 4, 6, 14, 11, 2, 1, 10, 3, 12, 13, 8, 9]);
makespan = 1109;
----------
assign = array1d(1..14 ,[6, 6, 2, 2, 6, 2, 6, 6, 1, 2, 3, 4, 5, 6]);
next = array1d(1..14 ,[7, 5, 4, 6, 14, 10, 2, 1, 3, 11, 12, 13, 8, 9]);
makespan = 1108;
----------
assign = array1d(1..14 ,[6, 6, 1, 1, 6, 1, 6, 6, 1, 2, 3, 4, 5, 6]);
next = array1d(1..14 ,[7, 5, 4, 6, 14, 9, 2, 1, 10, 11, 12, 13, 8, 3]);
makespan = 1107;
----------
assign = array1d(1..14 ,[6, 6, 2, 2, 6, 2, 6, 6, 1, 2, 3, 4, 5, 6]);
next = array1d(1..14 ,[7, 5, 4, 6, 14, 10, 2, 1, 3, 11, 12, 13, 8, 9]);
makespan = 1106;
----------
assign = array1d(1..14 ,[6, 6, 1, 1, 6, 1, 6, 6, 1, 2, 3, 4, 5, 6]);
next = array1d(1..14 ,[7, 5, 4, 6, 14, 9, 2, 1, 10, 11, 12, 13, 8, 3]);
makespan = 1105;
----------
assign = array1d(1..14 ,[6, 6, 2, 2, 6, 2, 6, 6, 1, 2, 3, 4, 5, 6]);
next = array1d(1..14 ,[7, 5, 4, 6, 14, 10, 2, 1, 3, 11, 12, 13, 8, 9]);
makespan = 1104;
----------
assign = array1d(1..14 ,[6, 6, 1, 1, 6, 1, 6, 6, 1, 2, 3, 4, 5, 6]);
next = array1d(1..14 ,[7, 5, 4, 6, 14, 9, 2, 1, 10, 11, 12, 13, 8, 3]);
makespan = 1103;
----------
assign = array1d(1..14 ,[6, 6, 2, 2, 6, 2, 6, 6, 1, 2, 3, 4, 5, 6]);
next = array1d(1..14 ,[7, 5, 4, 6, 14, 10, 2, 1, 3, 11, 12, 13, 8, 9]);
makespan = 1102;
----------
assign = array1d(1..14 ,[6, 6, 1, 1, 6, 1, 6, 6, 1, 2, 3, 4, 5, 6]);
next = array1d(1..14 ,[7, 5, 4, 6, 14, 9, 2, 1, 10, 11, 12, 13, 8, 3]);
makespan = 1101;
----------
assign = array1d(1..14 ,[6, 6, 2, 2, 6, 2, 6, 6, 1, 2, 3, 4, 5, 6]);
next = array1d(1..14 ,[7, 5, 4, 6, 14, 10, 2, 1, 3, 11, 12, 13, 8, 9]);
makespan = 1100;
----------
assign = array1d(1..14 ,[6, 6, 1, 1, 6, 1, 6, 6, 1, 2, 3, 4, 5, 6]);
next = array1d(1..14 ,[7, 5, 4, 6, 14, 9, 2, 1, 10, 11, 12, 13, 8, 3]);
makespan = 1099;
----------
assign = array1d(1..14 ,[6, 6, 2, 2, 6, 2, 6, 6, 1, 2, 3, 4, 5, 6]);
next = array1d(1..14 ,[7, 5, 4, 6, 14, 10, 2, 1, 3, 11, 12, 13, 8, 9]);
makespan = 1097;
----------
assign = array1d(1..14 ,[6, 6, 1, 1, 6, 1, 6, 6, 1, 2, 3, 4, 5, 6]);
next = array1d(1..14 ,[7, 5, 4, 6, 14, 9, 2, 1, 10, 11, 12, 13, 8, 3]);
makespan = 1096;
----------
assign = array1d(1..14 ,[6, 6, 2, 2, 6, 2, 6, 6, 1, 2, 3, 4, 5, 6]);
next = array1d(1..14 ,[7, 5, 4, 6, 14, 10, 2, 1, 3, 11, 12, 13, 8, 9]);
makespan = 1095;
----------
assign = array1d(1..14 ,[6, 6, 1, 1, 6, 1, 6, 6, 1, 2, 3, 4, 5, 6]);
next = array1d(1..14 ,[7, 5, 4, 6, 14, 9, 2, 1, 10, 11, 12, 13, 8, 3]);
makespan = 1094;
----------
assign = array1d(1..14 ,[6, 6, 2, 2, 6, 2, 6, 6, 1, 2, 3, 4, 5, 6]);
next = array1d(1..14 ,[7, 5, 4, 6, 14, 10, 2, 1, 3, 11, 12, 13, 8, 9]);
makespan = 1093;
----------
assign = array1d(1..14 ,[6, 6, 3, 3, 6, 3, 6, 6, 1, 2, 3, 4, 5, 6]);
next = array1d(1..14 ,[7, 5, 4, 6, 14, 11, 2, 1, 10, 3, 12, 13, 8, 9]);
makespan = 1092;
----------
assign = array1d(1..14 ,[6, 6, 4, 4, 6, 4, 6, 6, 1, 2, 3, 4, 5, 6]);
next = array1d(1..14 ,[7, 5, 4, 6, 14, 12, 2, 1, 10, 11, 3, 13, 8, 9]);
makespan = 1091;
----------
assign = array1d(1..14 ,[6, 6, 5, 5, 6, 5, 6, 6, 1, 2, 3, 4, 5, 6]);
next = array1d(1..14 ,[7, 5, 4, 6, 14, 13, 2, 1, 10, 11, 12, 3, 8, 9]);
makespan = 1090;
----------
assign = array1d(1..14 ,[6, 6, 1, 1, 6, 1, 6, 6, 1, 2, 3, 4, 5, 6]);
next = array1d(1..14 ,[7, 5, 4, 6, 14, 9, 2, 1, 10, 11, 12, 13, 8, 3]);
makespan = 1089;
----------
assign = array1d(1..14 ,[6, 6, 5, 5, 6, 5, 6, 6, 1, 2, 3, 4, 5, 6]);
next = array1d(1..14 ,[7, 5, 4, 6, 14, 13, 2, 1, 10, 11, 12, 3, 8, 9]);
makespan = 1088;
----------
assign = array1d(1..14 ,[6, 6, 1, 1, 6, 1, 6, 6, 1, 2, 3, 4, 5, 6]);
next = array1d(1..14 ,[7, 5, 4, 6, 14, 9, 2, 1, 10, 11, 12, 13, 8, 3]);
makespan = 1087;
----------
assign = array1d(1..14 ,[6, 6, 5, 5, 6, 5, 6, 6, 1, 2, 3, 4, 5, 6]);
next = array1d(1..14 ,[7, 5, 4, 6, 14, 13, 2, 1, 10, 11, 12, 3, 8, 9]);
makespan = 1086;
----------
assign = array1d(1..14 ,[6, 6, 1, 1, 6, 1, 6, 6, 1, 2, 3, 4, 5, 6]);
next = array1d(1..14 ,[7, 5, 4, 6, 14, 9, 2, 1, 10, 11, 12, 13, 8, 3]);
makespan = 1085;
----------
assign = array1d(1..14 ,[6, 6, 5, 5, 6, 5, 6, 6, 1, 2, 3, 4, 5, 6]);
next = array1d(1..14 ,[7, 5, 4, 6, 14, 13, 2, 1, 10, 11, 12, 3, 8, 9]);
makespan = 1084;
----------
assign = array1d(1..14 ,[6, 6, 5, 5, 6, 5, 6, 6, 1, 2, 3, 4, 5, 6]);
next = array1d(1..14 ,[7, 5, 4, 6, 14, 13, 2, 1, 10, 11, 12, 3, 8, 9]);
makespan = 1083;
----------
assign = array1d(1..14 ,[6, 6, 1, 1, 6, 1, 6, 6, 1, 2, 3, 4, 5, 6]);
next = array1d(1..14 ,[7, 5, 4, 6, 14, 9, 2, 1, 10, 11, 12, 13, 8, 3]);
makespan = 1082;
----------
assign = array1d(1..14 ,[6, 6, 5, 5, 6, 5, 6, 6, 1, 2, 3, 4, 5, 6]);
next = array1d(1..14 ,[7, 5, 4, 6, 14, 13, 2, 1, 10, 11, 12, 3, 8, 9]);
makespan = 1081;
----------
assign = array1d(1..14 ,[6, 6, 3, 3, 6, 3, 6, 6, 1, 2, 3, 4, 5, 6]);
next = array1d(1..14 ,[7, 5, 4, 6, 14, 11, 2, 1, 10, 3, 12, 13, 8, 9]);
makespan = 1080;
----------
assign = array1d(1..14 ,[6, 6, 5, 5, 6, 5, 6, 6, 1, 2, 3, 4, 5, 6]);
next = array1d(1..14 ,[7, 5, 4, 6, 14, 13, 2, 1, 10, 11, 12, 3, 8, 9]);
makespan = 1077;
----------
assign = array1d(1..14 ,[6, 6, 1, 1, 6, 1, 6, 6, 1, 2, 3, 4, 5, 6]);
next = array1d(1..14 ,[7, 5, 4, 6, 14, 9, 2, 1, 10, 11, 12, 13, 8, 3]);
makespan = 1076;
----------
assign = array1d(1..14 ,[6, 6, 2, 2, 6, 2, 6, 6, 1, 2, 3, 4, 5, 6]);
next = array1d(1..14 ,[7, 5, 4, 6, 14, 10, 2, 1, 3, 11, 12, 13, 8, 9]);
makespan = 1073;
----------
assign = array1d(1..14 ,[6, 6, 5, 5, 6, 5, 6, 6, 1, 2, 3, 4, 5, 6]);
next = array1d(1..14 ,[7, 5, 4, 6, 14, 13, 2, 1, 10, 11, 12, 3, 8, 9]);
makespan = 1070;
----------
assign = array1d(1..14 ,[6, 6, 5, 5, 6, 5, 6, 6, 1, 2, 3, 4, 5, 6]);
next = array1d(1..14 ,[7, 5, 4, 6, 8, 13, 14, 1, 10, 11, 12, 3, 2, 9]);
makespan = 1069;
----------
assign = array1d(1..14 ,[6, 6, 5, 5, 6, 5, 6, 6, 1, 2, 3, 4, 5, 6]);
next = array1d(1..14 ,[7, 5, 4, 6, 8, 13, 14, 1, 10, 11, 12, 3, 2, 9]);
makespan = 1065;
----------
assign = array1d(1..14 ,[6, 6, 5, 5, 6, 5, 6, 6, 1, 2, 3, 4, 5, 6]);
next = array1d(1..14 ,[14, 5, 4, 6, 8, 13, 2, 1, 10, 11, 12, 3, 7, 9]);
makespan = 1058;
----------
assign = array1d(1..14 ,[6, 6, 3, 3, 6, 3, 6, 6, 1, 2, 3, 4, 5, 6]);
next = array1d(1..14 ,[14, 5, 4, 6, 8, 11, 2, 1, 10, 3, 12, 13, 7, 9]);
makespan = 1053;
----------
assign = array1d(1..14 ,[6, 6, 4, 4, 6, 4, 6, 6, 1, 2, 3, 4, 5, 6]);
next = array1d(1..14 ,[14, 5, 4, 6, 8, 12, 2, 1, 10, 11, 3, 13, 7, 9]);
makespan = 1038;
----------
assign = array1d(1..14 ,[6, 6, 4, 4, 6, 4, 6, 6, 1, 2, 3, 4, 5, 6]);
next = array1d(1..14 ,[2, 5, 4, 6, 14, 12, 8, 1, 10, 11, 3, 13, 7, 9]);
makespan = 1027;
----------
assign = array1d(1..14 ,[6, 6, 4, 4, 6, 4, 4, 6, 1, 2, 3, 4, 5, 6]);
next = array1d(1..14 ,[14, 5, 4, 7, 8, 12, 6, 1, 10, 11, 3, 13, 2, 9]);
makespan = 998;
----------
assign = array1d(1..14 ,[6, 6, 1, 1, 6, 1, 1, 6, 1, 2, 3, 4, 5, 6]);
next = array1d(1..14 ,[14, 5, 4, 7, 8, 9, 6, 1, 10, 11, 12, 13, 2, 3]);
makespan = 974;
----------
assign = array1d(1..14 ,[6, 6, 5, 5, 6, 5, 5, 6, 1, 2, 3, 4, 5, 6]);
next = array1d(1..14 ,[2, 5, 6, 13, 14, 7, 4, 1, 10, 11, 12, 3, 8, 9]);
makespan = 973;
----------
assign = array1d(1..14 ,[6, 6, 4, 4, 6, 4, 4, 6, 1, 2, 3, 4, 5, 6]);
next = array1d(1..14 ,[14, 5, 7, 6, 8, 12, 4, 1, 10, 11, 3, 13, 2, 9]);
makespan = 972;
----------
assign = array1d(1..14 ,[6, 6, 1, 1, 6, 1, 1, 6, 1, 2, 3, 4, 5, 6]);
next = array1d(1..14 ,[14, 5, 7, 6, 8, 9, 4, 1, 10, 11, 12, 13, 2, 3]);
makespan = 971;
----------
assign = array1d(1..14 ,[6, 6, 4, 4, 6, 4, 4, 6, 1, 2, 3, 4, 5, 6]);
next = array1d(1..14 ,[14, 5, 7, 6, 8, 12, 4, 1, 10, 11, 3, 13, 2, 9]);
makespan = 970;
----------
assign = array1d(1..14 ,[6, 6, 1, 1, 6, 1, 1, 6, 1, 2, 3, 4, 5, 6]);
next = array1d(1..14 ,[14, 5, 7, 6, 8, 9, 4, 1, 10, 11, 12, 13, 2, 3]);
makespan = 969;
----------
assign = array1d(1..14 ,[6, 6, 4, 4, 6, 4, 4, 6, 1, 2, 3, 4, 5, 6]);
next = array1d(1..14 ,[14, 5, 7, 6, 8, 12, 4, 1, 10, 11, 3, 13, 2, 9]);
makespan = 967;
----------
assign = array1d(1..14 ,[6, 6, 1, 1, 6, 1, 1, 6, 1, 2, 3, 4, 5, 6]);
next = array1d(1..14 ,[14, 5, 7, 6, 8, 9, 4, 1, 10, 11, 12, 13, 2, 3]);
makespan = 966;
----------
assign = array1d(1..14 ,[6, 6, 4, 4, 6, 4, 4, 6, 1, 2, 3, 4, 5, 6]);
next = array1d(1..14 ,[14, 5, 7, 6, 8, 12, 4, 1, 10, 11, 3, 13, 2, 9]);
makespan = 963;
----------
assign = array1d(1..14 ,[6, 6, 1, 1, 6, 1, 1, 6, 1, 2, 3, 4, 5, 6]);
next = array1d(1..14 ,[14, 5, 7, 6, 8, 9, 4, 1, 10, 11, 12, 13, 2, 3]);
makespan = 962;
----------
assign = array1d(1..14 ,[6, 6, 4, 4, 6, 4, 4, 6, 1, 2, 3, 4, 5, 6]);
next = array1d(1..14 ,[14, 5, 7, 6, 8, 12, 4, 1, 10, 11, 3, 13, 2, 9]);
makespan = 960;
----------
assign = array1d(1..14 ,[6, 6, 1, 1, 6, 1, 1, 6, 1, 2, 3, 4, 5, 6]);
next = array1d(1..14 ,[14, 5, 7, 6, 8, 9, 4, 1, 10, 11, 12, 13, 2, 3]);
makespan = 959;
----------
assign = array1d(1..14 ,[6, 6, 4, 4, 6, 4, 4, 6, 1, 2, 3, 4, 5, 6]);
next = array1d(1..14 ,[14, 5, 7, 6, 8, 12, 4, 1, 10, 11, 3, 13, 2, 9]);
makespan = 957;
----------
assign = array1d(1..14 ,[6, 6, 1, 1, 6, 1, 1, 6, 1, 2, 3, 4, 5, 6]);
next = array1d(1..14 ,[14, 5, 7, 6, 8, 9, 4, 1, 10, 11, 12, 13, 2, 3]);
makespan = 956;
----------
assign = array1d(1..14 ,[6, 6, 4, 4, 6, 4, 4, 6, 1, 2, 3, 4, 5, 6]);
next = array1d(1..14 ,[14, 5, 7, 6, 8, 12, 4, 1, 10, 11, 3, 13, 2, 9]);
makespan = 955;
----------
assign = array1d(1..14 ,[6, 6, 1, 1, 6, 1, 1, 6, 1, 2, 3, 4, 5, 6]);
next = array1d(1..14 ,[14, 5, 7, 6, 8, 9, 4, 1, 10, 11, 12, 13, 2, 3]);
makespan = 954;
----------
assign = array1d(1..14 ,[6, 6, 4, 4, 6, 4, 4, 6, 1, 2, 3, 4, 5, 6]);
next = array1d(1..14 ,[14, 5, 7, 6, 8, 12, 4, 1, 10, 11, 3, 13, 2, 9]);
makespan = 953;
----------
assign = array1d(1..14 ,[6, 6, 1, 1, 6, 1, 1, 6, 1, 2, 3, 4, 5, 6]);
next = array1d(1..14 ,[14, 5, 7, 6, 8, 9, 4, 1, 10, 11, 12, 13, 2, 3]);
makespan = 952;
----------
assign = array1d(1..14 ,[6, 6, 4, 4, 6, 4, 4, 6, 1, 2, 3, 4, 5, 6]);
next = array1d(1..14 ,[14, 5, 7, 6, 8, 12, 4, 1, 10, 11, 3, 13, 2, 9]);
makespan = 951;
----------
assign = array1d(1..14 ,[6, 6, 1, 1, 6, 1, 1, 6, 1, 2, 3, 4, 5, 6]);
next = array1d(1..14 ,[14, 5, 7, 6, 8, 9, 4, 1, 10, 11, 12, 13, 2, 3]);
makespan = 950;
----------
assign = array1d(1..14 ,[6, 6, 4, 4, 6, 4, 4, 6, 1, 2, 3, 4, 5, 6]);
next = array1d(1..14 ,[14, 5, 7, 6, 8, 12, 4, 1, 10, 11, 3, 13, 2, 9]);
makespan = 949;
----------
assign = array1d(1..14 ,[6, 6, 1, 1, 6, 1, 1, 6, 1, 2, 3, 4, 5, 6]);
next = array1d(1..14 ,[14, 5, 7, 6, 8, 9, 4, 1, 10, 11, 12, 13, 2, 3]);
makespan = 948;
----------
assign = array1d(1..14 ,[6, 6, 4, 4, 6, 4, 4, 6, 1, 2, 3, 4, 5, 6]);
next = array1d(1..14 ,[14, 5, 7, 6, 8, 12, 4, 1, 10, 11, 3, 13, 2, 9]);
makespan = 947;
----------
assign = array1d(1..14 ,[6, 6, 1, 1, 6, 1, 1, 6, 1, 2, 3, 4, 5, 6]);
next = array1d(1..14 ,[14, 5, 7, 6, 8, 9, 4, 1, 10, 11, 12, 13, 2, 3]);
makespan = 946;
----------
assign = array1d(1..14 ,[6, 6, 4, 4, 6, 4, 4, 6, 1, 2, 3, 4, 5, 6]);
next = array1d(1..14 ,[14, 5, 7, 6, 8, 12, 4, 1, 10, 11, 3, 13, 2, 9]);
makespan = 945;
----------
assign = array1d(1..14 ,[6, 6, 1, 1, 6, 1, 1, 6, 1, 2, 3, 4, 5, 6]);
next = array1d(1..14 ,[14, 5, 7, 6, 8, 9, 4, 1, 10, 11, 12, 13, 2, 3]);
makespan = 944;
----------
assign = array1d(1..14 ,[6, 6, 4, 4, 6, 4, 4, 6, 1, 2, 3, 4, 5, 6]);
next = array1d(1..14 ,[14, 5, 7, 6, 8, 12, 4, 1, 10, 11, 3, 13, 2, 9]);
makespan = 943;
----------
assign = array1d(1..14 ,[6, 6, 1, 1, 6, 1, 1, 6, 1, 2, 3, 4, 5, 6]);
next = array1d(1..14 ,[14, 5, 7, 6, 8, 9, 4, 1, 10, 11, 12, 13, 2, 3]);
makespan = 942;
----------
assign = array1d(1..14 ,[6, 6, 4, 4, 6, 4, 4, 6, 1, 2, 3, 4, 5, 6]);
next = array1d(1..14 ,[14, 5, 7, 6, 8, 12, 4, 1, 10, 11, 3, 13, 2, 9]);
makespan = 941;
----------
assign = array1d(1..14 ,[6, 6, 1, 1, 6, 1, 1, 6, 1, 2, 3, 4, 5, 6]);
next = array1d(1..14 ,[14, 5, 7, 6, 8, 9, 4, 1, 10, 11, 12, 13, 2, 3]);
makespan = 940;
----------
assign = array1d(1..14 ,[6, 6, 4, 4, 6, 4, 4, 6, 1, 2, 3, 4, 5, 6]);
next = array1d(1..14 ,[14, 5, 7, 6, 8, 12, 4, 1, 10, 11, 3, 13, 2, 9]);
makespan = 939;
----------
assign = array1d(1..14 ,[6, 6, 1, 1, 6, 1, 1, 6, 1, 2, 3, 4, 5, 6]);
next = array1d(1..14 ,[14, 5, 7, 6, 8, 9, 4, 1, 10, 11, 12, 13, 2, 3]);
makespan = 937;
----------
assign = array1d(1..14 ,[6, 6, 4, 4, 6, 4, 4, 6, 1, 2, 3, 4, 5, 6]);
next = array1d(1..14 ,[14, 5, 7, 6, 8, 12, 4, 1, 10, 11, 3, 13, 2, 9]);
makespan = 936;
----------
assign = array1d(1..14 ,[6, 6, 1, 1, 6, 1, 1, 6, 1, 2, 3, 4, 5, 6]);
next = array1d(1..14 ,[14, 5, 7, 6, 8, 9, 4, 1, 10, 11, 12, 13, 2, 3]);
makespan = 935;
----------
assign = array1d(1..14 ,[6, 6, 4, 4, 6, 4, 4, 6, 1, 2, 3, 4, 5, 6]);
next = array1d(1..14 ,[14, 5, 7, 6, 8, 12, 4, 1, 10, 11, 3, 13, 2, 9]);
makespan = 934;
----------
assign = array1d(1..14 ,[6, 6, 1, 1, 6, 1, 1, 6, 1, 2, 3, 4, 5, 6]);
next = array1d(1..14 ,[14, 5, 7, 6, 8, 9, 4, 1, 10, 11, 12, 13, 2, 3]);
makespan = 933;
----------
assign = array1d(1..14 ,[6, 6, 4, 4, 6, 4, 4, 6, 1, 2, 3, 4, 5, 6]);
next = array1d(1..14 ,[14, 5, 7, 6, 8, 12, 4, 1, 10, 11, 3, 13, 2, 9]);
makespan = 932;
----------
assign = array1d(1..14 ,[6, 6, 1, 1, 6, 1, 1, 6, 1, 2, 3, 4, 5, 6]);
next = array1d(1..14 ,[14, 5, 7, 6, 8, 9, 4, 1, 10, 11, 12, 13, 2, 3]);
makespan = 930;
----------
assign = array1d(1..14 ,[6, 6, 4, 4, 6, 4, 4, 6, 1, 2, 3, 4, 5, 6]);
next = array1d(1..14 ,[14, 5, 7, 6, 8, 12, 4, 1, 10, 11, 3, 13, 2, 9]);
makespan = 929;
----------
assign = array1d(1..14 ,[6, 6, 1, 1, 6, 1, 1, 6, 1, 2, 3, 4, 5, 6]);
next = array1d(1..14 ,[14, 5, 7, 6, 8, 9, 4, 1, 10, 11, 12, 13, 2, 3]);
makespan = 928;
----------
assign = array1d(1..14 ,[6, 6, 4, 4, 6, 4, 4, 6, 1, 2, 3, 4, 5, 6]);
next = array1d(1..14 ,[14, 5, 7, 6, 8, 12, 4, 1, 10, 11, 3, 13, 2, 9]);
makespan = 927;
----------
assign = array1d(1..14 ,[6, 6, 1, 1, 6, 1, 1, 6, 1, 2, 3, 4, 5, 6]);
next = array1d(1..14 ,[14, 5, 7, 6, 8, 9, 4, 1, 10, 11, 12, 13, 2, 3]);
makespan = 924;
----------
assign = array1d(1..14 ,[6, 6, 4, 4, 6, 4, 4, 6, 1, 2, 3, 4, 5, 6]);
next = array1d(1..14 ,[14, 5, 7, 6, 8, 12, 4, 1, 10, 11, 3, 13, 2, 9]);
makespan = 923;
----------
assign = array1d(1..14 ,[6, 6, 1, 1, 6, 1, 1, 6, 1, 2, 3, 4, 5, 6]);
next = array1d(1..14 ,[14, 5, 7, 6, 8, 9, 4, 1, 10, 11, 12, 13, 2, 3]);
makespan = 916;
----------
assign = array1d(1..14 ,[6, 6, 4, 4, 6, 4, 4, 6, 1, 2, 3, 4, 5, 6]);
next = array1d(1..14 ,[14, 5, 7, 6, 8, 12, 4, 1, 10, 11, 3, 13, 2, 9]);
makespan = 910;
----------
assign = array1d(1..14 ,[6, 6, 5, 5, 6, 5, 5, 6, 1, 2, 3, 4, 5, 6]);
next = array1d(1..14 ,[14, 5, 7, 6, 8, 13, 4, 1, 10, 11, 12, 3, 2, 9]);
makespan = 907;
----------
assign = array1d(1..14 ,[6, 6, 1, 1, 6, 1, 1, 6, 1, 2, 3, 4, 5, 6]);
next = array1d(1..14 ,[14, 5, 7, 6, 8, 9, 4, 1, 10, 11, 12, 13, 2, 3]);
makespan = 899;
----------
assign = array1d(1..14 ,[6, 6, 5, 5, 6, 5, 5, 6, 1, 2, 3, 4, 5, 6]);
next = array1d(1..14 ,[14, 5, 7, 6, 8, 13, 4, 1, 10, 11, 12, 3, 2, 9]);
makespan = 891;
----------
assign = array1d(1..14 ,[6, 6, 1, 1, 6, 1, 1, 6, 1, 2, 3, 4, 5, 6]);
next = array1d(1..14 ,[14, 5, 7, 6, 8, 9, 4, 1, 10, 11, 12, 13, 2, 3]);
makespan = 882;
----------
assign = array1d(1..14 ,[6, 6, 3, 3, 6, 3, 3, 6, 1, 2, 3, 4, 5, 6]);
next = array1d(1..14 ,[14, 5, 7, 6, 8, 11, 4, 1, 10, 3, 12, 13, 2, 9]);
makespan = 876;
----------
assign = array1d(1..14 ,[6, 6, 4, 4, 6, 4, 4, 6, 1, 2, 3, 4, 5, 6]);
next = array1d(1..14 ,[14, 5, 7, 6, 8, 12, 4, 1, 10, 11, 3, 13, 2, 9]);
makespan = 854;
----------
assign = array1d(1..14 ,[6, 6, 4, 4, 6, 4, 4, 6, 1, 2, 3, 4, 5, 6]);
next = array1d(1..14 ,[14, 5, 7, 6, 8, 12, 4, 1, 10, 11, 3, 13, 2, 9]);
makespan = 820;
----------
assign = array1d(1..14 ,[6, 6, 4, 4, 6, 4, 4, 6, 1, 2, 3, 4, 5, 6]);
next = array1d(1..14 ,[2, 5, 7, 6, 14, 12, 4, 1, 10, 11, 3, 13, 8, 9]);
makespan = 818;
----------
assign = array1d(1..14 ,[4, 6, 4, 4, 6, 6, 4, 6, 1, 2, 3, 4, 5, 6]);
next = array1d(1..14 ,[12, 5, 7, 1, 8, 2, 4, 14, 10, 11, 3, 13, 6, 9]);
makespan = 816;
----------
assign = array1d(1..14 ,[6, 6, 4, 4, 6, 4, 4, 6, 1, 2, 3, 4, 5, 6]);
next = array1d(1..14 ,[14, 8, 7, 6, 2, 12, 4, 1, 10, 11, 3, 13, 5, 9]);
makespan = 815;
----------
assign = array1d(1..14 ,[1, 6, 6, 1, 6, 6, 1, 1, 1, 2, 3, 4, 5, 6]);
next = array1d(1..14 ,[8, 5, 14, 1, 3, 2, 4, 9, 10, 11, 12, 13, 6, 7]);
makespan = 813;
----------
assign = array1d(1..14 ,[6, 6, 4, 4, 6, 4, 4, 6, 1, 2, 3, 4, 5, 6]);
next = array1d(1..14 ,[14, 8, 7, 6, 2, 12, 4, 1, 10, 11, 3, 13, 5, 9]);
makespan = 810;
----------
assign = array1d(1..14 ,[1, 6, 6, 1, 6, 6, 1, 1, 1, 2, 3, 4, 5, 6]);
next = array1d(1..14 ,[8, 5, 14, 1, 3, 2, 4, 9, 10, 11, 12, 13, 6, 7]);
makespan = 809;
----------
assign = array1d(1..14 ,[6, 6, 4, 4, 6, 4, 4, 6, 1, 2, 3, 4, 5, 6]);
next = array1d(1..14 ,[14, 8, 7, 6, 2, 12, 4, 1, 10, 11, 3, 13, 5, 9]);
makespan = 806;
----------
assign = array1d(1..14 ,[1, 6, 6, 1, 6, 6, 1, 1, 1, 2, 3, 4, 5, 6]);
next = array1d(1..14 ,[8, 5, 14, 1, 3, 2, 4, 9, 10, 11, 12, 13, 6, 7]);
makespan = 804;
----------
assign = array1d(1..14 ,[6, 6, 5, 1, 1, 1, 1, 6, 1, 2, 3, 4, 5, 6]);
next = array1d(1..14 ,[14, 8, 13, 6, 7, 9, 4, 1, 10, 11, 12, 3, 2, 5]);
makespan = 803;
----------
assign = array1d(1..14 ,[6, 6, 3, 1, 1, 1, 1, 6, 1, 2, 3, 4, 5, 6]);
next = array1d(1..14 ,[14, 8, 11, 6, 7, 9, 4, 1, 10, 3, 12, 13, 2, 5]);
makespan = 802;
----------
assign = array1d(1..14 ,[6, 6, 3, 1, 1, 1, 1, 6, 1, 2, 3, 4, 5, 6]);
next = array1d(1..14 ,[14, 8, 11, 6, 7, 9, 4, 1, 10, 3, 12, 13, 2, 5]);
makespan = 800;
----------
assign = array1d(1..14 ,[6, 6, 3, 1, 1, 1, 1, 6, 1, 2, 3, 4, 5, 6]);
next = array1d(1..14 ,[14, 8, 11, 6, 7, 9, 4, 1, 10, 3, 12, 13, 2, 5]);
makespan = 799;
----------
assign = array1d(1..14 ,[6, 6, 3, 1, 1, 1, 1, 6, 1, 2, 3, 4, 5, 6]);
next = array1d(1..14 ,[14, 8, 11, 6, 7, 9, 4, 1, 10, 3, 12, 13, 2, 5]);
makespan = 797;
----------
assign = array1d(1..14 ,[6, 6, 3, 1, 1, 1, 1, 6, 1, 2, 3, 4, 5, 6]);
next = array1d(1..14 ,[14, 8, 11, 6, 7, 9, 4, 1, 10, 3, 12, 13, 2, 5]);
makespan = 796;
----------
assign = array1d(1..14 ,[6, 6, 3, 1, 1, 1, 1, 6, 1, 2, 3, 4, 5, 6]);
next = array1d(1..14 ,[14, 8, 11, 6, 7, 9, 4, 1, 10, 3, 12, 13, 2, 5]);
makespan = 795;
----------
assign = array1d(1..14 ,[6, 6, 3, 1, 1, 1, 1, 6, 1, 2, 3, 4, 5, 6]);
next = array1d(1..14 ,[14, 8, 11, 6, 7, 9, 4, 1, 10, 3, 12, 13, 2, 5]);
makespan = 792;
----------
assign = array1d(1..14 ,[6, 6, 3, 1, 1, 1, 1, 6, 1, 2, 3, 4, 5, 6]);
next = array1d(1..14 ,[14, 8, 11, 6, 7, 9, 4, 1, 10, 3, 12, 13, 2, 5]);
makespan = 790;
----------
assign = array1d(1..14 ,[6, 6, 3, 1, 1, 1, 1, 6, 1, 2, 3, 4, 5, 6]);
next = array1d(1..14 ,[14, 8, 11, 6, 7, 9, 4, 1, 10, 3, 12, 13, 2, 5]);
makespan = 789;
----------
assign = array1d(1..14 ,[6, 6, 3, 1, 1, 1, 1, 6, 1, 2, 3, 4, 5, 6]);
next = array1d(1..14 ,[14, 8, 11, 6, 7, 9, 4, 1, 10, 3, 12, 13, 2, 5]);
makespan = 788;
----------
assign = array1d(1..14 ,[1, 1, 1, 6, 6, 6, 6, 1, 1, 2, 3, 4, 5, 6]);
next = array1d(1..14 ,[2, 8, 1, 6, 14, 5, 4, 9, 10, 11, 12, 13, 7, 3]);
makespan = 787;
----------
assign = array1d(1..14 ,[1, 1, 1, 6, 6, 6, 6, 1, 1, 2, 3, 4, 5, 6]);
next = array1d(1..14 ,[2, 8, 1, 6, 14, 5, 4, 9, 10, 11, 12, 13, 7, 3]);
makespan = 786;
----------
assign = array1d(1..14 ,[1, 1, 1, 6, 6, 6, 6, 1, 1, 2, 3, 4, 5, 6]);
next = array1d(1..14 ,[2, 8, 1, 6, 14, 5, 4, 9, 10, 11, 12, 13, 7, 3]);
makespan = 784;
----------
assign = array1d(1..14 ,[1, 1, 1, 6, 6, 6, 6, 1, 1, 2, 3, 4, 5, 6]);
next = array1d(1..14 ,[2, 8, 1, 6, 14, 5, 4, 9, 10, 11, 12, 13, 7, 3]);
makespan = 783;
----------
assign = array1d(1..14 ,[1, 1, 1, 6, 6, 6, 6, 1, 1, 2, 3, 4, 5, 6]);
next = array1d(1..14 ,[2, 8, 1, 6, 14, 5, 4, 9, 10, 11, 12, 13, 7, 3]);
makespan = 782;
----------
assign = array1d(1..14 ,[1, 1, 1, 6, 6, 6, 6, 1, 1, 2, 3, 4, 5, 6]);
next = array1d(1..14 ,[2, 8, 1, 6, 14, 5, 4, 9, 10, 11, 12, 13, 7, 3]);
makespan = 781;
----------
assign = array1d(1..14 ,[5, 1, 1, 6, 1, 6, 6, 1, 1, 2, 3, 4, 5, 6]);
next = array1d(1..14 ,[13, 8, 5, 6, 2, 14, 4, 9, 10, 11, 12, 1, 7, 3]);
makespan = 776;
----------
assign = array1d(1..14 ,[5, 1, 1, 6, 1, 6, 6, 1, 1, 2, 3, 4, 5, 6]);
next = array1d(1..14 ,[13, 8, 5, 6, 2, 14, 4, 9, 10, 11, 12, 1, 7, 3]);
makespan = 775;
----------
assign = array1d(1..14 ,[5, 1, 1, 6, 1, 6, 6, 1, 1, 2, 3, 4, 5, 6]);
next = array1d(1..14 ,[13, 8, 5, 6, 2, 14, 4, 9, 10, 11, 12, 1, 7, 3]);
makespan = 760;
----------
assign = array1d(1..14 ,[5, 6, 5, 4, 6, 4, 4, 6, 1, 2, 3, 4, 5, 6]);
next = array1d(1..14 ,[3, 8, 13, 6, 2, 12, 4, 14, 10, 11, 7, 1, 5, 9]);
makespan = 757;
----------
assign = array1d(1..14 ,[1, 1, 1, 6, 1, 6, 6, 5, 1, 2, 3, 4, 5, 6]);
next = array1d(1..14 ,[3, 9, 5, 6, 2, 14, 4, 13, 10, 11, 12, 8, 7, 1]);
makespan = 755;
----------
assign = array1d(1..14 ,[5, 6, 6, 4, 6, 4, 4, 5, 1, 2, 3, 4, 5, 6]);
next = array1d(1..14 ,[8, 14, 5, 6, 2, 12, 4, 13, 10, 11, 7, 1, 3, 9]);
makespan = 754;
----------
assign = array1d(1..14 ,[5, 4, 5, 6, 5, 6, 6, 4, 1, 2, 3, 4, 5, 6]);
next = array1d(1..14 ,[3, 8, 5, 6, 13, 14, 4, 12, 10, 11, 2, 1, 7, 9]);
makespan = 753;
----------
assign = array1d(1..14 ,[1, 6, 1, 5, 1, 5, 6, 6, 1, 2, 3, 4, 5, 6]);
next = array1d(1..14 ,[3, 8, 5, 6, 9, 13, 14, 7, 10, 11, 12, 4, 2, 1]);
makespan = 750;
----------
assign = array1d(1..14 ,[5, 6, 5, 3, 5, 3, 6, 6, 1, 2, 3, 4, 5, 6]);
next = array1d(1..14 ,[3, 8, 5, 6, 13, 11, 14, 7, 10, 4, 12, 1, 2, 9]);
makespan = 746;
----------
assign = array1d(1..14 ,[6, 4, 6, 5, 6, 5, 5, 4, 1, 2, 3, 4, 5, 6]);
next = array1d(1..14 ,[3, 8, 5, 6, 14, 13, 4, 12, 10, 11, 2, 7, 1, 9]);
makespan = 741;
----------
assign = array1d(1..14 ,[2, 5, 2, 6, 6, 6, 5, 5, 1, 2, 3, 4, 5, 6]);
next = array1d(1..14 ,[3, 8, 10, 6, 4, 14, 13, 7, 1, 11, 12, 2, 5, 9]);
makespan = 737;
----------
assign = array1d(1..14 ,[5, 6, 5, 3, 5, 3, 6, 6, 1, 2, 3, 4, 5, 6]);
next = array1d(1..14 ,[3, 8, 5, 6, 13, 11, 14, 7, 10, 4, 12, 1, 2, 9]);
makespan = 736;
----------
assign = array1d(1..14 ,[5, 6, 5, 3, 5, 3, 6, 6, 1, 2, 3, 4, 5, 6]);
next = array1d(1..14 ,[3, 8, 5, 6, 13, 11, 14, 7, 10, 4, 12, 1, 2, 9]);
makespan = 735;
----------
assign = array1d(1..14 ,[5, 6, 5, 3, 5, 3, 6, 6, 1, 2, 3, 4, 5, 6]);
next = array1d(1..14 ,[3, 8, 5, 6, 13, 11, 14, 7, 10, 4, 12, 1, 2, 9]);
makespan = 734;
----------
assign = array1d(1..14 ,[5, 6, 5, 3, 5, 3, 6, 6, 1, 2, 3, 4, 5, 6]);
next = array1d(1..14 ,[3, 8, 5, 6, 13, 11, 14, 7, 10, 4, 12, 1, 2, 9]);
makespan = 732;
----------
assign = array1d(1..14 ,[5, 6, 5, 3, 5, 3, 6, 6, 1, 2, 3, 4, 5, 6]);
next = array1d(1..14 ,[3, 8, 5, 6, 13, 11, 14, 7, 10, 4, 12, 1, 2, 9]);
makespan = 731;
----------
assign = array1d(1..14 ,[5, 6, 5, 3, 5, 3, 6, 6, 1, 2, 3, 4, 5, 6]);
next = array1d(1..14 ,[3, 8, 5, 6, 13, 11, 14, 7, 10, 4, 12, 1, 2, 9]);
makespan = 729;
----------
assign = array1d(1..14 ,[5, 6, 5, 3, 5, 3, 6, 6, 1, 2, 3, 4, 5, 6]);
next = array1d(1..14 ,[3, 8, 5, 6, 13, 11, 14, 7, 10, 4, 12, 1, 2, 9]);
makespan = 728;
----------
assign = array1d(1..14 ,[5, 6, 5, 3, 5, 3, 6, 6, 1, 2, 3, 4, 5, 6]);
next = array1d(1..14 ,[3, 8, 5, 6, 13, 11, 14, 7, 10, 4, 12, 1, 2, 9]);
makespan = 727;
----------
assign = array1d(1..14 ,[5, 6, 5, 3, 5, 3, 6, 6, 1, 2, 3, 4, 5, 6]);
next = array1d(1..14 ,[3, 8, 5, 6, 13, 11, 14, 7, 10, 4, 12, 1, 2, 9]);
makespan = 721;
----------
assign = array1d(1..14 ,[5, 6, 5, 3, 5, 3, 6, 6, 1, 2, 3, 4, 5, 6]);
next = array1d(1..14 ,[3, 8, 5, 6, 13, 11, 14, 7, 10, 4, 12, 1, 2, 9]);
makespan = 720;
----------
assign = array1d(1..14 ,[5, 6, 5, 3, 5, 3, 6, 6, 1, 2, 3, 4, 5, 6]);
next = array1d(1..14 ,[3, 8, 5, 6, 13, 11, 14, 7, 10, 4, 12, 1, 2, 9]);
makespan = 717;
----------
assign = array1d(1..14 ,[5, 6, 5, 3, 5, 3, 6, 6, 1, 2, 3, 4, 5, 6]);
next = array1d(1..14 ,[3, 8, 5, 6, 13, 11, 14, 7, 10, 4, 12, 1, 2, 9]);
makespan = 716;
----------
assign = array1d(1..14 ,[5, 6, 5, 3, 5, 3, 6, 6, 1, 2, 3, 4, 5, 6]);
next = array1d(1..14 ,[3, 8, 5, 6, 13, 11, 14, 7, 10, 4, 12, 1, 2, 9]);
makespan = 715;
----------
assign = array1d(1..14 ,[5, 6, 5, 3, 5, 3, 6, 6, 1, 2, 3, 4, 5, 6]);
next = array1d(1..14 ,[3, 8, 5, 6, 13, 11, 14, 7, 10, 4, 12, 1, 2, 9]);
makespan = 714;
----------
assign = array1d(1..14 ,[5, 6, 5, 3, 5, 3, 6, 6, 1, 2, 3, 4, 5, 6]);
next = array1d(1..14 ,[3, 8, 5, 6, 13, 11, 14, 7, 10, 4, 12, 1, 2, 9]);
makespan = 712;
----------
assign = array1d(1..14 ,[5, 6, 5, 3, 5, 3, 6, 6, 1, 2, 3, 4, 5, 6]);
next = array1d(1..14 ,[3, 8, 5, 6, 13, 11, 14, 7, 10, 4, 12, 1, 2, 9]);
makespan = 711;
----------
assign = array1d(1..14 ,[5, 6, 5, 3, 5, 3, 6, 6, 1, 2, 3, 4, 5, 6]);
next = array1d(1..14 ,[3, 8, 5, 6, 13, 11, 14, 7, 10, 4, 12, 1, 2, 9]);
makespan = 690;
----------
assign = array1d(1..14 ,[5, 6, 5, 3, 5, 3, 6, 6, 1, 2, 3, 4, 5, 6]);
next = array1d(1..14 ,[3, 8, 5, 6, 13, 11, 14, 7, 10, 4, 12, 1, 2, 9]);
makespan = 689;
----------
assign = array1d(1..14 ,[5, 6, 5, 3, 5, 3, 6, 6, 1, 2, 3, 4, 5, 6]);
next = array1d(1..14 ,[3, 8, 5, 6, 13, 11, 14, 7, 10, 4, 12, 1, 2, 9]);
makespan = 684;
----------
assign = array1d(1..14 ,[5, 6, 5, 3, 5, 3, 6, 6, 1, 2, 3, 4, 5, 6]);
next = array1d(1..14 ,[3, 8, 5, 6, 13, 11, 14, 7, 10, 4, 12, 1, 2, 9]);
makespan = 681;
----------
assign = array1d(1..14 ,[5, 6, 5, 3, 5, 3, 6, 6, 1, 2, 3, 4, 5, 6]);
next = array1d(1..14 ,[3, 8, 5, 6, 13, 11, 14, 7, 10, 4, 12, 1, 2, 9]);
makespan = 677;
----------
assign = array1d(1..14 ,[5, 6, 5, 3, 5, 3, 6, 6, 1, 2, 3, 4, 5, 6]);
next = array1d(1..14 ,[3, 8, 5, 6, 13, 11, 14, 7, 10, 4, 12, 1, 2, 9]);
makespan = 669;
----------
assign = array1d(1..14 ,[5, 6, 5, 3, 5, 3, 6, 6, 1, 2, 3, 4, 5, 6]);
next = array1d(1..14 ,[3, 8, 5, 6, 13, 11, 14, 7, 10, 4, 12, 1, 2, 9]);
makespan = 667;
----------
assign = array1d(1..14 ,[5, 6, 5, 3, 5, 3, 6, 6, 1, 2, 3, 4, 5, 6]);
next = array1d(1..14 ,[3, 8, 5, 6, 13, 11, 14, 7, 10, 4, 12, 1, 2, 9]);
makespan = 649;
----------
assign = array1d(1..14 ,[5, 6, 5, 3, 5, 3, 6, 6, 1, 2, 3, 4, 5, 6]);
next = array1d(1..14 ,[3, 8, 5, 6, 13, 11, 14, 7, 10, 4, 12, 1, 2, 9]);
makespan = 646;
----------
assign = array1d(1..14 ,[5, 6, 5, 3, 5, 3, 6, 6, 1, 2, 3, 4, 5, 6]);
next = array1d(1..14 ,[3, 8, 5, 6, 13, 11, 14, 7, 10, 4, 12, 1, 2, 9]);
makespan = 642;
----------
assign = array1d(1..14 ,[5, 6, 5, 3, 5, 3, 6, 6, 1, 2, 3, 4, 5, 6]);
next = array1d(1..14 ,[3, 8, 5, 6, 13, 11, 14, 7, 10, 4, 12, 1, 2, 9]);
makespan = 638;
----------
assign = array1d(1..14 ,[5, 6, 5, 3, 5, 3, 6, 6, 1, 2, 3, 4, 5, 6]);
next = array1d(1..14 ,[3, 8, 5, 6, 13, 11, 14, 7, 10, 4, 12, 1, 2, 9]);
makespan = 627;
----------
assign = array1d(1..14 ,[5, 6, 5, 3, 5, 3, 6, 6, 1, 2, 3, 4, 5, 6]);
next = array1d(1..14 ,[3, 8, 5, 6, 13, 11, 14, 7, 10, 4, 12, 1, 2, 9]);
makespan = 610;
----------
assign = array1d(1..14 ,[5, 6, 5, 3, 5, 3, 6, 6, 1, 2, 3, 4, 5, 6]);
next = array1d(1..14 ,[3, 8, 5, 6, 13, 11, 14, 7, 10, 4, 12, 1, 2, 9]);
makespan = 608;
----------
assign = array1d(1..14 ,[5, 6, 5, 3, 5, 3, 6, 6, 1, 2, 3, 4, 5, 6]);
next = array1d(1..14 ,[3, 8, 5, 6, 13, 11, 14, 7, 10, 4, 12, 1, 2, 9]);
makespan = 600;
----------
assign = array1d(1..14 ,[5, 6, 5, 3, 5, 3, 6, 6, 1, 2, 3, 4, 5, 6]);
next = array1d(1..14 ,[3, 8, 5, 6, 13, 11, 14, 7, 10, 4, 12, 1, 2, 9]);
makespan = 596;
----------
assign = array1d(1..14 ,[5, 6, 5, 3, 5, 3, 6, 6, 1, 2, 3, 4, 5, 6]);
next = array1d(1..14 ,[3, 8, 5, 6, 13, 11, 14, 7, 10, 4, 12, 1, 2, 9]);
makespan = 591;
----------
assign = array1d(1..14 ,[5, 6, 5, 3, 5, 3, 6, 6, 1, 2, 3, 4, 5, 6]);
next = array1d(1..14 ,[3, 8, 5, 6, 13, 11, 14, 7, 10, 4, 12, 1, 2, 9]);
makespan = 576;
----------
assign = array1d(1..14 ,[5, 2, 5, 6, 6, 6, 2, 2, 1, 2, 3, 4, 5, 6]);
next = array1d(1..14 ,[3, 8, 13, 6, 14, 5, 10, 7, 2, 11, 12, 1, 4, 9]);
makespan = 575;
----------
assign = array1d(1..14 ,[5, 2, 2, 5, 6, 6, 6, 2, 1, 2, 3, 4, 5, 6]);
next = array1d(1..14 ,[13, 8, 2, 1, 14, 5, 6, 10, 3, 11, 12, 4, 7, 9]);
makespan = 574;
----------
assign = array1d(1..14 ,[5, 2, 2, 5, 6, 6, 6, 2, 1, 2, 3, 4, 5, 6]);
next = array1d(1..14 ,[13, 8, 2, 1, 14, 5, 6, 10, 3, 11, 12, 4, 7, 9]);
makespan = 571;
----------
assign = array1d(1..14 ,[5, 2, 2, 5, 6, 6, 6, 2, 1, 2, 3, 4, 5, 6]);
next = array1d(1..14 ,[13, 8, 2, 1, 6, 14, 5, 10, 3, 11, 12, 4, 7, 9]);
makespan = 566;
----------
assign = array1d(1..14 ,[5, 2, 2, 5, 6, 5, 3, 2, 1, 2, 3, 4, 5, 6]);
next = array1d(1..14 ,[6, 8, 2, 1, 14, 13, 11, 10, 3, 7, 12, 4, 5, 9]);
makespan = 560;
----------
assign = array1d(1..14 ,[5, 2, 2, 5, 1, 6, 6, 2, 1, 2, 3, 4, 5, 6]);
next = array1d(1..14 ,[13, 8, 2, 1, 9, 7, 14, 10, 3, 11, 12, 4, 6, 5]);
makespan = 558;
----------
assign = array1d(1..14 ,[5, 2, 2, 6, 5, 5, 6, 2, 1, 2, 3, 4, 5, 6]);
next = array1d(1..14 ,[6, 8, 2, 14, 13, 5, 4, 10, 3, 11, 12, 1, 7, 9]);
makespan = 549;
----------
assign = array1d(1..14 ,[1, 1, 1, 5, 5, 4, 6, 6, 1, 2, 3, 4, 5, 6]);
next = array1d(1..14 ,[3, 9, 2, 13, 4, 12, 14, 7, 10, 11, 6, 5, 8, 1]);
makespan = 544;
----------
assign = array1d(1..14 ,[4, 5, 4, 6, 5, 6, 1, 3, 1, 2, 3, 4, 5, 6]);
next = array1d(1..14 ,[3, 5, 12, 6, 13, 14, 9, 11, 10, 8, 1, 2, 4, 7]);
makespan = 540;
----------
assign = array1d(1..14 ,[5, 6, 6, 4, 4, 5, 3, 3, 1, 2, 3, 4, 5, 6]);
next = array1d(1..14 ,[13, 14, 2, 12, 4, 1, 8, 11, 10, 7, 5, 6, 3, 9]);
makespan = 537;
----------
assign = array1d(1..14 ,[4, 3, 3, 6, 6, 4, 5, 5, 1, 2, 3, 4, 5, 6]);
next = array1d(1..14 ,[6, 11, 2, 14, 4, 12, 8, 13, 10, 3, 1, 7, 5, 9]);
makespan = 531;
----------
assign = array1d(1..14 ,[4, 5, 5, 6, 6, 4, 3, 3, 1, 2, 3, 4, 5, 6]);
next = array1d(1..14 ,[6, 13, 2, 14, 4, 12, 8, 11, 10, 7, 1, 3, 5, 9]);
makespan = 528;
----------
assign = array1d(1..14 ,[4, 5, 5, 6, 6, 4, 3, 3, 1, 2, 3, 4, 5, 6]);
next = array1d(1..14 ,[6, 13, 2, 14, 4, 12, 8, 11, 10, 7, 1, 3, 5, 9]);
makespan = 527;
----------
assign = array1d(1..14 ,[4, 5, 5, 6, 6, 4, 3, 3, 1, 2, 3, 4, 5, 6]);
next = array1d(1..14 ,[6, 13, 2, 14, 4, 12, 8, 11, 10, 7, 1, 3, 5, 9]);
makespan = 524;
----------
assign = array1d(1..14 ,[4, 5, 5, 6, 6, 4, 3, 3, 1, 2, 3, 4, 5, 6]);
next = array1d(1..14 ,[6, 13, 2, 14, 4, 12, 8, 11, 10, 7, 1, 3, 5, 9]);
makespan = 523;
----------
assign = array1d(1..14 ,[4, 5, 5, 6, 6, 4, 3, 3, 1, 2, 3, 4, 5, 6]);
next = array1d(1..14 ,[6, 13, 2, 14, 4, 12, 8, 11, 10, 7, 1, 3, 5, 9]);
makespan = 521;
----------
assign = array1d(1..14 ,[4, 5, 5, 6, 6, 4, 3, 3, 1, 2, 3, 4, 5, 6]);
next = array1d(1..14 ,[6, 13, 2, 14, 4, 12, 8, 11, 10, 7, 1, 3, 5, 9]);
makespan = 517;
----------
assign = array1d(1..14 ,[4, 5, 5, 6, 6, 4, 3, 3, 1, 2, 3, 4, 5, 6]);
next = array1d(1..14 ,[6, 13, 2, 14, 4, 12, 8, 11, 10, 7, 1, 3, 5, 9]);
makespan = 515;
----------
assign = array1d(1..14 ,[4, 5, 5, 6, 6, 4, 3, 3, 1, 2, 3, 4, 5, 6]);
next = array1d(1..14 ,[6, 13, 2, 14, 4, 12, 8, 11, 10, 7, 1, 3, 5, 9]);
makespan = 510;
----------
assign = array1d(1..14 ,[4, 5, 5, 6, 6, 4, 3, 3, 1, 2, 3, 4, 5, 6]);
next = array1d(1..14 ,[6, 13, 2, 14, 4, 12, 8, 11, 10, 7, 1, 3, 5, 9]);
makespan = 508;
----------
assign = array1d(1..14 ,[4, 5, 5, 6, 6, 4, 3, 3, 1, 2, 3, 4, 5, 6]);
next = array1d(1..14 ,[6, 13, 2, 14, 4, 12, 8, 11, 10, 7, 1, 3, 5, 9]);
makespan = 506;
----------
assign = array1d(1..14 ,[4, 5, 5, 6, 6, 4, 3, 3, 1, 2, 3, 4, 5, 6]);
next = array1d(1..14 ,[6, 13, 2, 14, 4, 12, 8, 11, 10, 7, 1, 3, 5, 9]);
makespan = 493;
----------
assign = array1d(1..14 ,[4, 5, 5, 6, 6, 4, 3, 3, 1, 2, 3, 4, 5, 6]);
next = array1d(1..14 ,[6, 13, 2, 14, 4, 12, 8, 11, 10, 7, 1, 3, 5, 9]);
makespan = 492;
----------
assign = array1d(1..14 ,[4, 5, 5, 6, 6, 4, 3, 3, 1, 2, 3, 4, 5, 6]);
next = array1d(1..14 ,[6, 13, 2, 14, 4, 12, 8, 11, 10, 7, 1, 3, 5, 9]);
makespan = 490;
----------
assign = array1d(1..14 ,[4, 5, 5, 6, 6, 4, 3, 3, 1, 2, 3, 4, 5, 6]);
next = array1d(1..14 ,[6, 13, 2, 14, 4, 12, 8, 11, 10, 7, 1, 3, 5, 9]);
makespan = 489;
----------
assign = array1d(1..14 ,[4, 5, 5, 6, 6, 4, 3, 3, 1, 2, 3, 4, 5, 6]);
next = array1d(1..14 ,[6, 13, 2, 14, 4, 12, 8, 11, 10, 7, 1, 3, 5, 9]);
makespan = 457;
----------
assign = array1d(1..14 ,[4, 5, 5, 6, 6, 4, 3, 3, 1, 2, 3, 4, 5, 6]);
next = array1d(1..14 ,[6, 13, 2, 14, 4, 12, 8, 11, 10, 7, 1, 3, 5, 9]);
makespan = 456;
----------
assign = array1d(1..14 ,[4, 5, 5, 6, 6, 4, 3, 3, 1, 2, 3, 4, 5, 6]);
next = array1d(1..14 ,[6, 13, 2, 14, 4, 12, 8, 11, 10, 7, 1, 3, 5, 9]);
makespan = 443;
----------
assign = array1d(1..14 ,[4, 5, 5, 6, 6, 4, 3, 3, 1, 2, 3, 4, 5, 6]);
next = array1d(1..14 ,[6, 13, 2, 14, 4, 12, 8, 11, 10, 7, 1, 3, 5, 9]);
makespan = 440;
----------
assign = array1d(1..14 ,[4, 5, 5, 6, 6, 4, 3, 3, 1, 2, 3, 4, 5, 6]);
next = array1d(1..14 ,[6, 13, 2, 14, 4, 12, 8, 11, 10, 7, 1, 3, 5, 9]);
makespan = 434;
----------
assign = array1d(1..14 ,[4, 5, 5, 6, 6, 4, 3, 3, 1, 2, 3, 4, 5, 6]);
next = array1d(1..14 ,[6, 13, 2, 14, 4, 12, 8, 11, 10, 7, 1, 3, 5, 9]);
makespan = 405;
----------
assign = array1d(1..14 ,[4, 5, 5, 6, 6, 4, 3, 3, 1, 2, 3, 4, 5, 6]);
next = array1d(1..14 ,[6, 13, 2, 14, 4, 12, 8, 11, 10, 7, 1, 3, 5, 9]);
makespan = 397;
----------
assign = array1d(1..14 ,[1, 5, 5, 6, 6, 1, 4, 4, 1, 2, 3, 4, 5, 6]);
next = array1d(1..14 ,[6, 13, 2, 14, 4, 9, 8, 12, 10, 11, 7, 3, 5, 1]);
makespan = 391;
----------
assign = array1d(1..14 ,[1, 5, 5, 6, 6, 1, 4, 4, 1, 2, 3, 4, 5, 6]);
next = array1d(1..14 ,[6, 13, 2, 14, 4, 9, 8, 12, 10, 11, 7, 3, 5, 1]);
makespan = 385;
----------
assign = array1d(1..14 ,[1, 5, 5, 6, 6, 1, 4, 4, 1, 2, 3, 4, 5, 6]);
next = array1d(1..14 ,[6, 13, 2, 14, 4, 9, 8, 12, 10, 11, 7, 3, 5, 1]);
makespan = 382;
----------
assign = array1d(1..14 ,[1, 5, 5, 6, 6, 1, 4, 4, 1, 2, 3, 4, 5, 6]);
next = array1d(1..14 ,[6, 13, 2, 14, 4, 9, 8, 12, 10, 11, 7, 3, 5, 1]);
makespan = 373;
----------
assign = array1d(1..14 ,[1, 5, 5, 6, 6, 1, 4, 4, 1, 2, 3, 4, 5, 6]);
next = array1d(1..14 ,[6, 13, 2, 14, 4, 9, 8, 12, 10, 11, 7, 3, 5, 1]);
makespan = 371;
----------
assign = array1d(1..14 ,[1, 5, 5, 2, 2, 1, 6, 6, 1, 2, 3, 4, 5, 6]);
next = array1d(1..14 ,[6, 13, 2, 10, 4, 9, 8, 14, 5, 11, 12, 3, 7, 1]);
makespan = 370;
----------
assign = array1d(1..14 ,[1, 5, 5, 2, 2, 1, 6, 6, 1, 2, 3, 4, 5, 6]);
next = array1d(1..14 ,[6, 13, 2, 10, 4, 9, 8, 14, 5, 11, 12, 3, 7, 1]);
makespan = 369;
----------
assign = array1d(1..14 ,[1, 5, 5, 2, 2, 1, 6, 6, 1, 2, 3, 4, 5, 6]);
next = array1d(1..14 ,[6, 13, 2, 10, 4, 9, 8, 14, 5, 11, 12, 3, 7, 1]);
makespan = 368;
----------
assign = array1d(1..14 ,[1, 5, 5, 2, 2, 1, 6, 6, 1, 2, 3, 4, 5, 6]);
next = array1d(1..14 ,[6, 13, 2, 10, 4, 9, 8, 14, 5, 11, 12, 3, 7, 1]);
makespan = 365;
----------
assign = array1d(1..14 ,[5, 4, 4, 2, 2, 5, 6, 6, 1, 2, 3, 4, 5, 6]);
next = array1d(1..14 ,[6, 12, 2, 10, 4, 13, 8, 14, 5, 11, 3, 1, 7, 9]);
makespan = 362;
----------
assign = array1d(1..14 ,[5, 2, 2, 6, 6, 5, 4, 4, 1, 2, 3, 4, 5, 6]);
next = array1d(1..14 ,[6, 10, 2, 5, 14, 13, 8, 12, 3, 11, 7, 1, 4, 9]);
makespan = 360;
----------
assign = array1d(1..14 ,[5, 2, 2, 6, 6, 5, 4, 3, 1, 2, 3, 4, 5, 6]);
next = array1d(1..14 ,[6, 10, 2, 5, 14, 13, 12, 11, 3, 8, 7, 1, 4, 9]);
makespan = 358;
----------
assign = array1d(1..14 ,[5, 2, 2, 6, 6, 5, 4, 4, 1, 2, 3, 4, 5, 6]);
next = array1d(1..14 ,[6, 10, 2, 5, 14, 13, 8, 12, 3, 11, 7, 1, 4, 9]);
makespan = 355;
----------
assign = array1d(1..14 ,[5, 2, 2, 6, 6, 5, 1, 1, 1, 2, 3, 4, 5, 6]);
next = array1d(1..14 ,[6, 10, 2, 5, 14, 13, 8, 9, 3, 11, 12, 1, 4, 7]);
makespan = 353;
----------
assign = array1d(1..14 ,[5, 2, 2, 6, 4, 5, 1, 1, 1, 2, 3, 4, 5, 6]);
next = array1d(1..14 ,[6, 10, 2, 14, 12, 13, 8, 9, 3, 11, 5, 1, 4, 7]);
makespan = 352;
----------
assign = array1d(1..14 ,[1, 3, 6, 6, 3, 1, 5, 4, 1, 2, 3, 4, 5, 6]);
next = array1d(1..14 ,[6, 5, 14, 3, 11, 9, 13, 12, 10, 2, 8, 7, 4, 1]);
makespan = 347;
----------
assign = array1d(1..14 ,[1, 3, 4, 4, 3, 1, 5, 6, 1, 2, 3, 4, 5, 6]);
next = array1d(1..14 ,[6, 5, 12, 3, 11, 9, 13, 14, 10, 2, 4, 7, 8, 1]);
makespan = 345;
----------
assign = array1d(1..14 ,[1, 3, 6, 1, 3, 2, 5, 4, 1, 2, 3, 4, 5, 6]);
next = array1d(1..14 ,[4, 5, 14, 9, 11, 10, 13, 12, 6, 2, 8, 7, 3, 1]);
makespan = 343;
----------
assign = array1d(1..14 ,[1, 5, 6, 1, 6, 5, 2, 4, 1, 2, 3, 4, 5, 6]);
next = array1d(1..14 ,[4, 6, 14, 9, 3, 13, 10, 12, 7, 11, 8, 2, 5, 1]);
makespan = 336;
----------
assign = array1d(1..14 ,[1, 5, 4, 1, 4, 5, 3, 6, 1, 2, 3, 4, 5, 6]);
next = array1d(1..14 ,[4, 13, 5, 9, 12, 2, 11, 14, 10, 7, 3, 6, 8, 1]);
makespan = 335;
----------
assign = array1d(1..14 ,[5, 3, 6, 4, 3, 5, 4, 2, 1, 2, 3, 4, 5, 6]);
next = array1d(1..14 ,[6, 5, 14, 7, 11, 13, 12, 10, 8, 2, 4, 1, 3, 9]);
makespan = 332;
----------
assign = array1d(1..14 ,[5, 3, 4, 1, 3, 5, 6, 1, 1, 2, 3, 4, 5, 6]);
next = array1d(1..14 ,[6, 5, 12, 8, 11, 13, 14, 9, 10, 2, 3, 1, 7, 4]);
makespan = 331;
----------
assign = array1d(1..14 ,[2, 5, 6, 1, 5, 4, 3, 1, 1, 2, 3, 4, 5, 6]);
next = array1d(1..14 ,[10, 5, 14, 8, 13, 12, 11, 9, 1, 7, 6, 2, 3, 4]);
makespan = 323;
----------
assign = array1d(1..14 ,[2, 5, 6, 1, 5, 4, 3, 1, 1, 2, 3, 4, 5, 6]);
next = array1d(1..14 ,[10, 5, 14, 8, 13, 12, 11, 9, 1, 7, 6, 2, 3, 4]);
makespan = 321;
----------
assign = array1d(1..14 ,[2, 5, 6, 1, 5, 4, 3, 1, 1, 2, 3, 4, 5, 6]);
next = array1d(1..14 ,[10, 5, 14, 8, 13, 12, 11, 9, 1, 7, 6, 2, 3, 4]);
makespan = 320;
----------
assign = array1d(1..14 ,[5, 5, 6, 1, 3, 4, 2, 1, 1, 2, 3, 4, 5, 6]);
next = array1d(1..14 ,[2, 13, 14, 8, 11, 12, 10, 9, 7, 5, 6, 1, 3, 4]);
makespan = 318;
----------
assign = array1d(1..14 ,[1, 4, 3, 2, 6, 1, 5, 2, 1, 2, 3, 4, 5, 6]);
next = array1d(1..14 ,[6, 12, 11, 10, 14, 9, 13, 4, 8, 3, 2, 7, 5, 1]);
makespan = 317;
----------
assign = array1d(1..14 ,[1, 2, 6, 5, 4, 1, 3, 2, 1, 2, 3, 4, 5, 6]);
next = array1d(1..14 ,[6, 8, 14, 13, 12, 9, 11, 10, 2, 7, 5, 4, 3, 1]);
makespan = 316;
----------
assign = array1d(1..14 ,[6, 5, 1, 2, 3, 5, 4, 2, 1, 2, 3, 4, 5, 6]);
next = array1d(1..14 ,[14, 13, 9, 10, 11, 2, 12, 4, 8, 5, 7, 6, 1, 3]);
makespan = 315;
----------
==========
	Command being timed: "mzn-chuffed lbbd-datasets/Rabadi-2006/dzn-p-dominant/model.mzn lbbd-datasets/Rabadi-2006/dzn-p-dominant/8on6Rp50Rs50_4Ameer.dzn"
	User time (seconds): 0.65
	System time (seconds): 0.02
	Percent of CPU this job got: 6%
	Elapsed (wall clock) time (h:mm:ss or m:ss): 0:09.77
	Average shared text size (kbytes): 0
	Average unshared data size (kbytes): 0
	Average stack size (kbytes): 0
	Average total size (kbytes): 0
	Maximum resident set size (kbytes): 44496
	Average resident set size (kbytes): 0
	Major (requiring I/O) page faults: 0
	Minor (reclaiming a frame) page faults: 4218
	Voluntary context switches: 342
	Involuntary context switches: 3
	Swaps: 0
	File system inputs: 0
	File system outputs: 488
	Socket messages sent: 0
	Socket messages received: 0
	Signals delivered: 0
	Page size (bytes): 4096
	Exit status: 0
