+ /usr/bin/timeout 600 /usr/bin/time -v mzn-chuffed lbbd-datasets/sscplp/trucks-dzn/model.mzn lbbd-datasets/sscplp/trucks-dzn/p21-l50-c80-correlated.dzn
% No search annotation given. Defaulting to VSIDS!
source = [3, 2, 7, 7, 2, 3, 15, 20, 20, 3, 3, 6, 4, 2, 3, 3, 14, 3, 6, 7, 13, 19, 5, 3, 2, 13, 3, 13, 3, 14, 5, 19, 3, 6, 20, 15, 3, 2, 15, 4]
open = [false, true, true, true, true, true, true, false, false, false, false, false, true, true, true, false, false, false, true, true]
trucks_used = [0, 5, 12, 2, 2, 3, 3, 0, 0, 0, 0, 0, 3, 2, 3, 0, 0, 0, 2, 3]
truck_assigned = [10, 5, 3, 3, 4, 4, 3, 2, 3, 11, 11, 2, 2, 4, 2, 6, 2, 10, 1, 2, 3, 2, 2, 5, 5, 2, 9, 1, 8, 1, 1, 1, 12, 3, 3, 3, 7, 5, 2, 1]
obj = 10600
----------
source = [13, 17, 16, 4, 6, 3, 17, 20, 20, 3, 4, 20, 2, 6, 3, 3, 13, 6, 5, 6, 3, 19, 6, 3, 15, 3, 3, 2, 13, 16, 2, 20, 6, 15, 11, 2, 11, 3, 16, 3]
open = [false, true, true, true, true, true, false, false, false, false, true, false, true, false, true, true, true, false, true, true]
trucks_used = [0, 4, 10, 2, 1, 6, 0, 0, 0, 0, 1, 0, 2, 0, 1, 2, 1, 0, 1, 3]
truck_assigned = [2, 1, 1, 2, 6, 8, 1, 3, 2, 8, 2, 3, 3, 4, 9, 10, 1, 3, 1, 5, 7, 1, 6, 6, 1, 4, 4, 2, 2, 2, 4, 1, 2, 1, 1, 3, 1, 5, 2, 3]
obj = 10599
----------
source = [6, 17, 20, 13, 4, 3, 16, 8, 16, 6, 3, 20, 2, 6, 3, 6, 6, 6, 20, 2, 3, 8, 13, 3, 11, 2, 2, 3, 3, 2, 20, 6, 13, 4, 11, 17, 6, 6, 16, 3]
open = [false, true, true, true, false, true, false, true, false, false, true, false, true, false, false, true, true, false, false, true]
trucks_used = [0, 5, 8, 2, 0, 9, 0, 2, 0, 0, 1, 0, 3, 0, 0, 2, 2, 0, 0, 4]
truck_assigned = [4, 2, 4, 2, 1, 8, 2, 2, 1, 5, 7, 1, 4, 8, 5, 3, 9, 6, 3, 5, 3, 1, 3, 1, 1, 4, 2, 7, 4, 1, 4, 1, 2, 2, 1, 1, 2, 7, 2, 6]
obj = 10589
----------
