+ /usr/bin/timeout 600 /usr/bin/time -v mzn-chuffed lbbd-datasets/sscplp/trucks-dzn/model.mzn lbbd-datasets/sscplp/trucks-dzn/p17-l50-c150-correlated.dzn
% No search annotation given. Defaulting to VSIDS!
source = [15, 15, 5, 15, 15, 3, 15, 9, 3, 5, 13, 15, 13, 13, 13, 3, 3, 5, 5, 5, 15, 5, 5, 5, 13, 15, 15, 13, 5, 15]
open = [false, false, true, false, true, false, false, false, true, false, false, false, true, false, true]
trucks_used = [0, 0, 4, 0, 9, 0, 0, 0, 1, 0, 0, 0, 6, 0, 10]
truck_assigned = [5, 8, 7, 8, 9, 2, 6, 1, 4, 8, 6, 7, 3, 2, 4, 3, 4, 9, 9, 5, 10, 3, 4, 6, 5, 6, 4, 3, 4, 7]
obj = 21075
----------
source = [15, 15, 3, 15, 15, 3, 15, 15, 3, 5, 3, 3, 15, 15, 3, 5, 5, 15, 5, 5, 15, 5, 5, 5, 3, 15, 15, 3, 3, 15]
open = [false, false, true, false, true, false, false, false, false, false, false, false, false, false, true]
trucks_used = [0, 0, 9, 0, 8, 0, 0, 0, 0, 0, 0, 0, 0, 0, 13]
truck_assigned = [10, 12, 7, 12, 13, 4, 11, 2, 9, 2, 7, 9, 3, 7, 5, 3, 4, 9, 7, 8, 6, 6, 5, 7, 8, 11, 9, 3, 6, 8]
obj = 18404
----------
source = [13, 5, 10, 5, 5, 3, 3, 3, 3, 5, 3, 3, 3, 3, 3, 5, 5, 5, 5, 9, 5, 5, 9, 10, 3, 5, 9, 3, 3, 5]
open = [false, false, true, false, true, false, false, false, true, true, false, false, true, false, false]
trucks_used = [0, 0, 12, 0, 12, 0, 0, 0, 3, 1, 0, 0, 1, 0, 0]
truck_assigned = [1, 7, 1, 11, 9, 9, 4, 6, 8, 6, 8, 11, 11, 3, 5, 10, 12, 1, 8, 1, 3, 8, 2, 1, 12, 4, 3, 10, 7, 12]
obj = 18401
----------
source = [6, 5, 5, 3, 5, 3, 3, 3, 3, 5, 3, 3, 3, 3, 3, 5, 3, 3, 9, 5, 5, 5, 5, 13, 5, 13, 3, 3, 9, 5]
open = [false, false, true, false, true, true, false, false, true, false, false, false, true, false, false]
trucks_used = [0, 0, 14, 0, 11, 1, 0, 0, 2, 0, 0, 0, 2, 0, 0]
truck_assigned = [1, 10, 3, 8, 4, 14, 11, 7, 13, 7, 9, 12, 5, 13, 6, 11, 2, 4, 2, 6, 9, 8, 5, 2, 9, 1, 12, 10, 1, 2]
obj = 18059
----------
source = [10, 5, 5, 3, 5, 3, 5, 3, 13, 3, 3, 5, 3, 3, 3, 5, 3, 13, 10, 5, 5, 5, 5, 13, 3, 13, 3, 3, 6, 5]
open = [false, false, true, false, true, true, false, false, false, true, false, false, true, false, false]
trucks_used = [0, 0, 12, 0, 11, 1, 0, 0, 0, 2, 0, 0, 4, 0, 0]
truck_assigned = [2, 10, 6, 9, 9, 5, 11, 10, 2, 11, 11, 11, 12, 8, 3, 3, 4, 4, 1, 7, 5, 2, 8, 4, 6, 3, 12, 7, 1, 4]
obj = 17993
----------
source = [10, 3, 5, 3, 5, 6, 5, 3, 10, 3, 13, 13, 10, 3, 3, 5, 5, 3, 10, 5, 5, 5, 5, 3, 13, 3, 3, 5, 3, 5]
open = [false, false, true, false, true, true, false, false, false, true, false, false, true, false, false]
trucks_used = [0, 0, 11, 0, 11, 1, 0, 0, 0, 4, 0, 0, 3, 0, 0]
truck_assigned = [4, 10, 6, 6, 2, 1, 11, 5, 1, 10, 3, 1, 2, 9, 7, 5, 4, 3, 3, 10, 7, 9, 8, 3, 2, 8, 10, 4, 11, 3]
obj = 17978
----------
source = [4, 5, 5, 3, 5, 3, 3, 3, 5, 3, 5, 6, 5, 5, 3, 5, 14, 3, 3, 5, 5, 5, 5, 14, 14, 3, 14, 5, 3, 5]
open = [false, false, true, true, true, true, false, false, false, false, false, false, false, true, false]
trucks_used = [0, 0, 10, 1, 14, 1, 0, 0, 0, 0, 0, 0, 0, 4, 0]
truck_assigned = [1, 5, 11, 7, 6, 5, 1, 8, 3, 10, 13, 1, 4, 9, 9, 8, 4, 2, 4, 10, 12, 14, 13, 2, 3, 10, 1, 7, 6, 7]
obj = 17873
----------
source = [3, 5, 5, 14, 5, 3, 6, 5, 5, 3, 5, 5, 5, 5, 3, 5, 14, 5, 3, 3, 14, 14, 6, 5, 14, 4, 14, 3, 3, 14]
open = [false, false, true, true, true, true, false, false, false, false, false, false, false, true, false]
trucks_used = [0, 0, 8, 1, 12, 2, 0, 0, 0, 0, 0, 0, 0, 7, 0]
truck_assigned = [8, 5, 4, 5, 6, 5, 1, 12, 11, 8, 11, 12, 9, 10, 4, 3, 5, 8, 7, 3, 4, 1, 2, 7, 6, 1, 7, 6, 2, 3]
obj = 17871
----------
source = [3, 5, 5, 3, 5, 3, 5, 5, 5, 3, 5, 3, 5, 3, 3, 5, 6, 5, 4, 3, 5, 3, 6, 5, 14, 14, 4, 5, 3, 14]
open = [false, false, true, true, true, true, false, false, false, false, false, false, false, true, false]
trucks_used = [0, 0, 10, 1, 13, 2, 0, 0, 0, 0, 0, 0, 0, 3, 0]
truck_assigned = [9, 8, 4, 3, 3, 6, 12, 13, 7, 10, 9, 8, 6, 7, 5, 5, 2, 10, 1, 9, 2, 10, 1, 11, 3, 2, 1, 9, 4, 1]
obj = 17745
----------
source = [3, 3, 3, 3, 5, 5, 4, 3, 5, 5, 3, 4, 5, 14, 3, 3, 6, 3, 3, 5, 5, 5, 5, 5, 14, 14, 14, 3, 5, 14]
open = [false, false, true, true, true, true, false, false, false, false, false, false, false, true, false]
trucks_used = [0, 0, 11, 1, 11, 1, 0, 0, 0, 0, 0, 0, 0, 5, 0]
truck_assigned = [10, 8, 10, 4, 5, 4, 1, 11, 11, 9, 8, 1, 3, 1, 5, 6, 1, 6, 9, 10, 8, 7, 6, 2, 5, 2, 3, 7, 11, 4]
obj = 17744
----------
source = [9, 3, 3, 3, 5, 5, 5, 3, 5, 5, 5, 3, 5, 5, 3, 3, 9, 9, 3, 5, 5, 5, 5, 5, 4, 6, 9, 3, 4, 5]
open = [false, false, true, true, true, true, false, false, true, false, false, false, false, false, false]
trucks_used = [0, 0, 9, 2, 14, 1, 0, 0, 4, 0, 0, 0, 0, 0, 0]
truck_assigned = [3, 5, 9, 5, 8, 7, 2, 3, 9, 11, 14, 9, 5, 6, 7, 4, 2, 1, 8, 12, 13, 10, 14, 4, 1, 1, 4, 6, 2, 7]
obj = 17440
----------
source = [9, 3, 3, 3, 5, 9, 9, 3, 4, 5, 4, 3, 5, 9, 3, 3, 3, 9, 3, 5, 5, 5, 5, 5, 5, 6, 5, 3, 4, 5]
open = [false, false, true, true, true, true, false, false, true, false, false, false, false, false, false]
trucks_used = [0, 0, 10, 3, 11, 1, 0, 0, 5, 0, 0, 0, 0, 0, 0]
truck_assigned = [5, 6, 10, 3, 4, 2, 3, 7, 2, 7, 3, 5, 3, 3, 4, 10, 6, 4, 9, 9, 10, 5, 11, 6, 11, 1, 8, 8, 3, 2]
obj = 17379
----------
source = [6, 5, 3, 3, 5, 9, 5, 3, 5, 5, 3, 3, 5, 3, 4, 3, 3, 3, 3, 5, 5, 5, 5, 5, 6, 9, 5, 3, 4, 5]
open = [false, false, true, true, true, true, false, false, true, false, false, false, false, false, false]
trucks_used = [0, 0, 11, 2, 13, 2, 0, 0, 1, 0, 0, 0, 0, 0, 0]
truck_assigned = [1, 3, 11, 9, 5, 1, 8, 6, 10, 2, 7, 8, 13, 4, 2, 8, 11, 9, 10, 1, 7, 9, 12, 6, 2, 1, 11, 5, 1, 4]
obj = 17277
----------
source = [3, 5, 6, 3, 5, 3, 5, 3, 5, 5, 3, 3, 5, 3, 4, 5, 9, 3, 3, 5, 5, 5, 3, 5, 9, 4, 5, 3, 6, 5]
open = [false, false, true, true, true, true, false, false, true, false, false, false, false, false, false]
trucks_used = [0, 0, 11, 2, 13, 1, 0, 0, 2, 0, 0, 0, 0, 0, 0]
truck_assigned = [11, 10, 1, 6, 8, 9, 3, 5, 2, 5, 7, 10, 12, 8, 2, 7, 1, 11, 3, 6, 4, 9, 1, 1, 2, 1, 13, 4, 1, 11]
obj = 17271
----------
source = [14, 3, 9, 3, 9, 3, 5, 3, 5, 5, 3, 3, 3, 3, 5, 5, 14, 3, 3, 5, 5, 3, 3, 5, 9, 5, 3, 5, 14, 3]
open = [false, false, true, false, true, false, false, false, true, false, false, false, false, true, false]
trucks_used = [0, 0, 14, 0, 10, 0, 0, 0, 2, 0, 0, 0, 0, 3, 0]
truck_assigned = [2, 12, 1, 12, 2, 11, 5, 8, 7, 10, 9, 13, 13, 14, 3, 8, 3, 14, 5, 2, 9, 9, 10, 6, 2, 4, 6, 1, 1, 7]
obj = 17267
----------
source = [6, 5, 10, 3, 6, 3, 5, 3, 5, 4, 3, 3, 3, 3, 5, 5, 3, 5, 3, 5, 5, 3, 10, 5, 10, 5, 3, 5, 3, 3]
open = [false, false, true, true, true, true, false, false, false, true, false, false, false, false, false]
trucks_used = [0, 0, 13, 1, 11, 2, 0, 0, 0, 2, 0, 0, 0, 0, 0]
truck_assigned = [2, 2, 2, 6, 1, 9, 3, 13, 8, 1, 11, 3, 12, 5, 4, 11, 7, 1, 8, 6, 10, 11, 2, 7, 1, 9, 12, 5, 4, 10]
obj = 17187
----------
source = [6, 3, 10, 3, 5, 5, 3, 3, 3, 5, 3, 4, 3, 3, 5, 5, 3, 3, 10, 6, 3, 3, 3, 5, 5, 5, 3, 5, 3, 3]
open = [false, false, true, true, true, true, false, false, false, true, false, false, false, false, false]
trucks_used = [0, 0, 16, 1, 9, 2, 0, 0, 0, 2, 0, 0, 0, 0, 0]
truck_assigned = [2, 16, 1, 9, 9, 8, 8, 12, 9, 4, 16, 1, 15, 10, 5, 6, 13, 14, 2, 1, 6, 6, 11, 3, 2, 2, 15, 7, 7, 14]
obj = 17123
----------
source = [12, 3, 12, 3, 3, 3, 12, 3, 3, 5, 3, 5, 3, 12, 3, 12, 3, 3, 5, 12, 3, 3, 6, 5, 5, 5, 3, 3, 5, 3]
open = [false, false, true, false, true, true, false, false, false, false, false, true, false, false, false]
trucks_used = [0, 0, 16, 0, 7, 1, 0, 0, 0, 0, 0, 6, 0, 0, 0]
truck_assigned = [4, 10, 3, 14, 12, 7, 1, 8, 15, 4, 12, 7, 16, 5, 13, 5, 10, 14, 3, 6, 9, 9, 1, 6, 2, 5, 16, 11, 7, 15]
obj = 16588
----------
source = [12, 3, 12, 3, 5, 3, 12, 3, 12, 3, 5, 5, 12, 12, 3, 12, 3, 5, 5, 12, 3, 3, 5, 3, 5, 3, 5, 3, 5, 12]
open = [false, false, true, false, true, false, false, false, false, false, false, true, false, false, false]
trucks_used = [0, 0, 12, 0, 9, 0, 0, 0, 0, 0, 0, 9, 0, 0, 0]
truck_assigned = [5, 8, 6, 8, 9, 6, 9, 7, 4, 10, 8, 7, 8, 6, 5, 8, 11, 4, 5, 7, 10, 9, 7, 11, 3, 9, 6, 12, 8, 4]
obj = 15907
----------
source = [12, 3, 12, 3, 5, 3, 12, 3, 5, 3, 3, 5, 3, 5, 3, 12, 3, 5, 5, 12, 3, 3, 5, 3, 12, 3, 5, 5, 5, 5]
open = [false, false, true, false, true, false, false, false, false, false, false, true, false, false, false]
trucks_used = [0, 0, 13, 0, 11, 0, 0, 0, 0, 0, 0, 5, 0, 0, 0]
truck_assigned = [2, 13, 3, 12, 10, 13, 1, 9, 6, 12, 7, 8, 6, 5, 10, 3, 8, 9, 9, 4, 6, 11, 8, 8, 5, 11, 7, 11, 11, 4]
obj = 15810
----------
source = [12, 12, 12, 12, 3, 5, 12, 12, 5, 3, 3, 3, 3, 5, 5, 3, 3, 5, 5, 12, 5, 5, 3, 3, 12, 5, 5, 5, 5, 5]
open = [false, false, true, false, true, false, false, false, false, false, false, true, false, false, false]
trucks_used = [0, 0, 9, 0, 12, 0, 0, 0, 0, 0, 0, 8, 0, 0, 0]
truck_assigned = [4, 8, 8, 3, 8, 6, 5, 7, 5, 6, 6, 9, 5, 11, 4, 9, 8, 10, 11, 6, 8, 7, 7, 5, 7, 3, 9, 12, 12, 6]
obj = 15800
----------
source = [7, 5, 7, 5, 7, 5, 5, 5, 5, 3, 3, 7, 5, 5, 5, 3, 5, 3, 3, 3, 5, 5, 3, 7, 5, 5, 5, 3, 7, 5]
open = [false, false, true, false, true, false, true, false, false, false, false, false, false, false, false]
trucks_used = [0, 0, 8, 0, 16, 0, 4, 0, 0, 0, 0, 0, 0, 0, 0]
truck_assigned = [2, 8, 1, 6, 1, 11, 5, 9, 3, 6, 7, 4, 10, 4, 14, 6, 11, 7, 5, 4, 16, 13, 8, 3, 16, 12, 15, 2, 3, 7]
obj = 15788
----------
source = [7, 3, 7, 5, 3, 5, 5, 7, 5, 3, 3, 7, 7, 5, 7, 3, 5, 7, 5, 7, 7, 7, 3, 5, 5, 3, 3, 5, 7, 5]
open = [false, false, true, false, true, false, true, false, false, false, false, false, false, false, false]
trucks_used = [0, 0, 8, 0, 10, 0, 11, 0, 0, 0, 0, 0, 0, 0, 0]
truck_assigned = [5, 7, 11, 7, 8, 9, 8, 9, 6, 5, 8, 10, 9, 5, 11, 6, 2, 8, 8, 7, 3, 6, 7, 10, 10, 5, 2, 4, 6, 9]
obj = 15762
----------
source = [7, 7, 14, 5, 5, 5, 5, 7, 5, 13, 7, 7, 7, 5, 5, 13, 5, 7, 5, 7, 7, 7, 13, 5, 5, 4, 7, 5, 7, 5]
open = [false, false, false, true, true, false, true, false, false, false, false, false, true, true, false]
trucks_used = [0, 0, 0, 1, 13, 0, 12, 0, 0, 0, 0, 0, 3, 1, 0]
truck_assigned = [9, 3, 1, 6, 9, 12, 7, 12, 8, 2, 8, 4, 12, 11, 2, 1, 10, 11, 11, 10, 6, 7, 3, 13, 13, 1, 5, 10, 7, 12]
obj = 15725
----------
source = [15, 5, 7, 7, 15, 7, 7, 7, 7, 15, 5, 5, 15, 7, 7, 7, 5, 7, 15, 5, 5, 5, 7, 5, 15, 7, 5, 5, 5, 5]
open = [false, false, false, false, true, false, true, false, false, false, false, false, false, false, true]
trucks_used = [0, 0, 0, 0, 12, 0, 12, 0, 0, 0, 0, 0, 0, 0, 6]
truck_assigned = [4, 10, 10, 8, 6, 9, 5, 7, 6, 2, 11, 12, 1, 8, 10, 3, 11, 4, 3, 9, 12, 5, 12, 8, 5, 11, 4, 7, 7, 6]
obj = 15657
----------
source = [15, 7, 7, 7, 7, 15, 7, 7, 15, 15, 11, 11, 15, 7, 7, 7, 11, 7, 15, 15, 7, 15, 6, 7, 15, 11, 7, 11, 6, 15]
open = [false, false, false, false, false, true, true, false, false, false, true, false, false, false, true]
trucks_used = [0, 0, 0, 0, 0, 2, 13, 0, 0, 0, 5, 0, 0, 0, 10]
truck_assigned = [9, 12, 13, 9, 5, 1, 1, 13, 7, 8, 2, 3, 4, 10, 12, 11, 5, 8, 6, 10, 7, 3, 1, 9, 7, 4, 10, 5, 2, 5]
obj = 14551
----------
