+ /usr/bin/timeout 600 /usr/bin/time -v mzn-chuffed lbbd-datasets/Rabadi-2006/dzn-balanced/model.mzn lbbd-datasets/Rabadi-2006/dzn-balanced/11on8Rp50Rs50_14Ameer.dzn
% No search annotation given. Defaulting to VSIDS!
assign = array1d(1..19 ,[8, 8, 8, 8, 8, 8, 8, 8, 8, 8, 8, 1, 2, 3, 4, 5, 6, 7, 8]);
next = array1d(1..19 ,[2, 3, 4, 5, 6, 7, 8, 9, 10, 11, 19, 13, 14, 15, 16, 17, 18, 1, 12]);
makespan = 1558;
----------
assign = array1d(1..19 ,[8, 8, 8, 8, 8, 8, 8, 8, 8, 8, 8, 1, 2, 3, 4, 5, 6, 7, 8]);
next = array1d(1..19 ,[4, 3, 5, 2, 6, 7, 8, 9, 10, 11, 19, 13, 14, 15, 16, 17, 18, 1, 12]);
makespan = 1557;
----------
assign = array1d(1..19 ,[8, 8, 8, 8, 8, 8, 8, 8, 8, 7, 8, 1, 2, 3, 4, 5, 6, 7, 8]);
next = array1d(1..19 ,[6, 8, 11, 1, 19, 7, 2, 3, 4, 18, 5, 13, 14, 15, 16, 17, 10, 9, 12]);
makespan = 1508;
----------
assign = array1d(1..19 ,[8, 8, 8, 8, 8, 7, 8, 8, 8, 8, 8, 1, 2, 3, 4, 5, 6, 7, 8]);
next = array1d(1..19 ,[5, 4, 8, 3, 19, 18, 9, 7, 10, 11, 1, 13, 14, 15, 16, 17, 6, 2, 12]);
makespan = 1505;
----------
assign = array1d(1..19 ,[8, 7, 8, 8, 8, 8, 8, 8, 8, 8, 8, 1, 2, 3, 4, 5, 6, 7, 8]);
next = array1d(1..19 ,[8, 18, 7, 3, 1, 11, 6, 4, 19, 9, 10, 13, 14, 15, 16, 17, 2, 5, 12]);
makespan = 1504;
----------
assign = array1d(1..19 ,[8, 8, 8, 8, 1, 8, 8, 8, 8, 8, 8, 1, 2, 3, 4, 5, 6, 7, 8]);
next = array1d(1..19 ,[8, 6, 7, 11, 12, 1, 9, 3, 10, 4, 19, 13, 14, 15, 16, 17, 18, 2, 5]);
makespan = 1496;
----------
assign = array1d(1..19 ,[8, 8, 8, 8, 8, 8, 8, 8, 6, 8, 8, 1, 2, 3, 4, 5, 6, 7, 8]);
next = array1d(1..19 ,[2, 8, 6, 11, 3, 7, 1, 4, 17, 19, 10, 13, 14, 15, 16, 9, 18, 5, 12]);
makespan = 1494;
----------
assign = array1d(1..19 ,[8, 8, 8, 8, 7, 8, 8, 8, 8, 8, 8, 1, 2, 3, 4, 5, 6, 7, 8]);
next = array1d(1..19 ,[19, 4, 6, 8, 18, 7, 1, 3, 2, 9, 10, 13, 14, 15, 16, 17, 5, 11, 12]);
makespan = 1483;
----------
assign = array1d(1..19 ,[8, 8, 8, 8, 8, 8, 6, 8, 8, 8, 8, 1, 2, 3, 4, 5, 6, 7, 8]);
next = array1d(1..19 ,[3, 8, 2, 11, 6, 19, 17, 5, 1, 9, 10, 13, 14, 15, 16, 7, 18, 4, 12]);
makespan = 1482;
----------
assign = array1d(1..19 ,[1, 8, 8, 8, 8, 8, 8, 8, 8, 8, 8, 1, 2, 3, 4, 5, 6, 7, 8]);
next = array1d(1..19 ,[12, 11, 7, 3, 10, 19, 6, 2, 4, 9, 5, 13, 14, 15, 16, 17, 18, 8, 1]);
makespan = 1480;
----------
assign = array1d(1..19 ,[8, 8, 8, 8, 8, 8, 1, 8, 8, 8, 8, 1, 2, 3, 4, 5, 6, 7, 8]);
next = array1d(1..19 ,[6, 8, 5, 1, 11, 19, 12, 3, 4, 9, 10, 13, 14, 15, 16, 17, 18, 2, 7]);
makespan = 1479;
----------
assign = array1d(1..19 ,[8, 8, 8, 8, 8, 8, 8, 7, 8, 8, 8, 1, 2, 3, 4, 5, 6, 7, 8]);
next = array1d(1..19 ,[3, 1, 6, 11, 19, 7, 9, 18, 5, 2, 10, 13, 14, 15, 16, 17, 8, 4, 12]);
makespan = 1478;
----------
assign = array1d(1..19 ,[8, 8, 8, 8, 8, 8, 8, 1, 8, 8, 8, 1, 2, 3, 4, 5, 6, 7, 8]);
next = array1d(1..19 ,[10, 7, 6, 3, 2, 1, 9, 12, 4, 11, 19, 13, 14, 15, 16, 17, 18, 5, 8]);
makespan = 1477;
----------
assign = array1d(1..19 ,[8, 8, 8, 1, 8, 8, 8, 8, 8, 8, 8, 1, 2, 3, 4, 5, 6, 7, 8]);
next = array1d(1..19 ,[9, 11, 8, 12, 10, 2, 5, 6, 7, 19, 1, 13, 14, 15, 16, 17, 18, 3, 4]);
makespan = 1476;
----------
assign = array1d(1..19 ,[8, 8, 8, 8, 8, 8, 8, 2, 8, 8, 8, 1, 2, 3, 4, 5, 6, 7, 8]);
next = array1d(1..19 ,[4, 11, 6, 3, 2, 7, 9, 13, 19, 1, 10, 8, 14, 15, 16, 17, 18, 5, 12]);
makespan = 1475;
----------
assign = array1d(1..19 ,[1, 8, 8, 8, 8, 8, 8, 8, 8, 8, 8, 1, 2, 3, 4, 5, 6, 7, 8]);
next = array1d(1..19 ,[12, 8, 11, 3, 6, 4, 5, 9, 7, 19, 10, 13, 14, 15, 16, 17, 18, 2, 1]);
makespan = 1474;
----------
