+ /usr/bin/timeout 600 /usr/bin/time -v mzn-chuffed lbbd-datasets/Rabadi-2006/dzn-p-dominant/model.mzn lbbd-datasets/Rabadi-2006/dzn-p-dominant/6on4Rp50Rs50_2Ameer.dzn
% No search annotation given. Defaulting to VSIDS!
assign = array1d(1..10 ,[4, 4, 4, 4, 4, 4, 1, 2, 3, 4]);
next = array1d(1..10 ,[2, 3, 4, 5, 6, 10, 8, 9, 1, 7]);
makespan = 1276;
----------
assign = array1d(1..10 ,[4, 4, 4, 4, 4, 4, 1, 2, 3, 4]);
next = array1d(1..10 ,[3, 4, 2, 5, 6, 10, 8, 9, 1, 7]);
makespan = 1250;
----------
assign = array1d(1..10 ,[4, 4, 4, 4, 4, 3, 1, 2, 3, 4]);
next = array1d(1..10 ,[2, 3, 5, 10, 4, 9, 8, 6, 1, 7]);
makespan = 1148;
----------
assign = array1d(1..10 ,[4, 4, 4, 1, 4, 4, 1, 2, 3, 4]);
next = array1d(1..10 ,[2, 5, 10, 7, 3, 1, 8, 9, 6, 4]);
makespan = 1140;
----------
assign = array1d(1..10 ,[4, 4, 1, 4, 4, 4, 1, 2, 3, 4]);
next = array1d(1..10 ,[5, 4, 7, 10, 2, 1, 8, 9, 6, 3]);
makespan = 1134;
----------
assign = array1d(1..10 ,[4, 4, 4, 4, 4, 3, 1, 2, 3, 4]);
next = array1d(1..10 ,[2, 4, 5, 10, 1, 9, 8, 6, 3, 7]);
makespan = 1131;
----------
assign = array1d(1..10 ,[4, 4, 3, 4, 4, 4, 1, 2, 3, 4]);
next = array1d(1..10 ,[2, 5, 9, 10, 4, 1, 8, 3, 6, 7]);
makespan = 1126;
----------
assign = array1d(1..10 ,[4, 1, 4, 4, 4, 4, 1, 2, 3, 4]);
next = array1d(1..10 ,[5, 7, 10, 6, 3, 1, 8, 9, 4, 2]);
makespan = 1124;
----------
assign = array1d(1..10 ,[4, 4, 1, 4, 4, 4, 1, 2, 3, 4]);
next = array1d(1..10 ,[2, 4, 7, 10, 1, 5, 8, 9, 6, 3]);
makespan = 1122;
----------
assign = array1d(1..10 ,[4, 4, 1, 4, 4, 4, 1, 2, 3, 4]);
next = array1d(1..10 ,[2, 5, 7, 10, 4, 1, 8, 9, 6, 3]);
makespan = 1114;
----------
assign = array1d(1..10 ,[4, 1, 4, 4, 4, 4, 1, 2, 3, 4]);
next = array1d(1..10 ,[5, 7, 10, 6, 3, 1, 8, 9, 4, 2]);
makespan = 1113;
----------
assign = array1d(1..10 ,[4, 4, 1, 4, 4, 4, 1, 2, 3, 4]);
next = array1d(1..10 ,[5, 4, 7, 10, 2, 1, 8, 9, 6, 3]);
makespan = 1112;
----------
assign = array1d(1..10 ,[4, 4, 1, 4, 4, 4, 1, 2, 3, 4]);
next = array1d(1..10 ,[5, 4, 7, 6, 10, 1, 8, 9, 2, 3]);
makespan = 1111;
----------
assign = array1d(1..10 ,[4, 4, 1, 4, 4, 4, 1, 2, 3, 4]);
next = array1d(1..10 ,[2, 4, 7, 10, 1, 5, 8, 9, 6, 3]);
makespan = 1105;
----------
assign = array1d(1..10 ,[4, 4, 1, 4, 4, 4, 1, 2, 3, 4]);
next = array1d(1..10 ,[5, 4, 7, 6, 10, 1, 8, 9, 2, 3]);
makespan = 1104;
----------
assign = array1d(1..10 ,[4, 4, 4, 1, 4, 4, 1, 2, 3, 4]);
next = array1d(1..10 ,[10, 3, 5, 7, 1, 2, 8, 9, 6, 4]);
makespan = 1102;
----------
assign = array1d(1..10 ,[4, 4, 4, 1, 4, 4, 1, 2, 3, 4]);
next = array1d(1..10 ,[10, 3, 5, 7, 1, 2, 8, 9, 6, 4]);
makespan = 1094;
----------
assign = array1d(1..10 ,[4, 4, 4, 1, 4, 4, 1, 2, 3, 4]);
next = array1d(1..10 ,[6, 3, 10, 7, 1, 2, 8, 9, 5, 4]);
makespan = 1066;
----------
assign = array1d(1..10 ,[4, 4, 3, 4, 4, 4, 1, 2, 3, 4]);
next = array1d(1..10 ,[10, 4, 9, 5, 1, 2, 8, 3, 6, 7]);
makespan = 1051;
----------
assign = array1d(1..10 ,[4, 4, 1, 4, 4, 4, 1, 2, 3, 4]);
next = array1d(1..10 ,[6, 10, 7, 5, 1, 2, 8, 9, 4, 3]);
makespan = 1036;
----------
assign = array1d(1..10 ,[4, 4, 3, 4, 4, 4, 1, 2, 3, 4]);
next = array1d(1..10 ,[6, 10, 9, 5, 1, 2, 8, 3, 4, 7]);
makespan = 1025;
----------
assign = array1d(1..10 ,[4, 4, 1, 3, 4, 4, 1, 2, 3, 4]);
next = array1d(1..10 ,[6, 10, 7, 9, 1, 2, 8, 4, 5, 3]);
makespan = 1003;
----------
assign = array1d(1..10 ,[4, 4, 2, 1, 4, 4, 1, 2, 3, 4]);
next = array1d(1..10 ,[6, 10, 8, 7, 1, 2, 3, 9, 5, 4]);
makespan = 996;
----------
assign = array1d(1..10 ,[4, 4, 2, 3, 4, 4, 1, 2, 3, 4]);
next = array1d(1..10 ,[6, 10, 8, 9, 1, 2, 3, 4, 5, 7]);
makespan = 995;
----------
assign = array1d(1..10 ,[4, 4, 2, 1, 4, 4, 1, 2, 3, 4]);
next = array1d(1..10 ,[6, 10, 8, 7, 1, 2, 3, 9, 5, 4]);
makespan = 994;
----------
assign = array1d(1..10 ,[4, 4, 2, 3, 4, 4, 1, 2, 3, 4]);
next = array1d(1..10 ,[6, 10, 8, 9, 1, 2, 3, 4, 5, 7]);
makespan = 989;
----------
assign = array1d(1..10 ,[4, 4, 2, 1, 4, 4, 1, 2, 3, 4]);
next = array1d(1..10 ,[6, 10, 8, 7, 1, 2, 3, 9, 5, 4]);
makespan = 985;
----------
assign = array1d(1..10 ,[4, 4, 2, 3, 4, 4, 1, 2, 3, 4]);
next = array1d(1..10 ,[6, 10, 8, 9, 1, 2, 3, 4, 5, 7]);
makespan = 983;
----------
assign = array1d(1..10 ,[4, 4, 2, 1, 4, 4, 1, 2, 3, 4]);
next = array1d(1..10 ,[6, 10, 8, 7, 1, 2, 3, 9, 5, 4]);
makespan = 979;
----------
assign = array1d(1..10 ,[4, 4, 2, 3, 4, 4, 1, 2, 3, 4]);
next = array1d(1..10 ,[6, 10, 8, 9, 1, 2, 3, 4, 5, 7]);
makespan = 977;
----------
assign = array1d(1..10 ,[4, 4, 2, 1, 4, 4, 1, 2, 3, 4]);
next = array1d(1..10 ,[6, 10, 8, 7, 1, 2, 3, 9, 5, 4]);
makespan = 974;
----------
assign = array1d(1..10 ,[4, 4, 2, 3, 4, 4, 1, 2, 3, 4]);
next = array1d(1..10 ,[6, 10, 8, 9, 1, 2, 3, 4, 5, 7]);
makespan = 970;
----------
assign = array1d(1..10 ,[4, 4, 2, 1, 4, 4, 1, 2, 3, 4]);
next = array1d(1..10 ,[6, 10, 8, 7, 1, 2, 3, 9, 5, 4]);
makespan = 966;
----------
assign = array1d(1..10 ,[4, 4, 2, 3, 4, 4, 1, 2, 3, 4]);
next = array1d(1..10 ,[6, 10, 8, 9, 1, 2, 3, 4, 5, 7]);
makespan = 959;
----------
assign = array1d(1..10 ,[4, 4, 2, 1, 4, 4, 1, 2, 3, 4]);
next = array1d(1..10 ,[6, 10, 8, 7, 1, 2, 3, 9, 5, 4]);
makespan = 957;
----------
assign = array1d(1..10 ,[4, 4, 2, 3, 4, 4, 1, 2, 3, 4]);
next = array1d(1..10 ,[6, 10, 8, 9, 1, 2, 3, 4, 5, 7]);
makespan = 954;
----------
assign = array1d(1..10 ,[4, 4, 2, 1, 4, 4, 1, 2, 3, 4]);
next = array1d(1..10 ,[6, 10, 8, 7, 1, 2, 3, 9, 5, 4]);
makespan = 950;
----------
assign = array1d(1..10 ,[4, 4, 2, 3, 4, 4, 1, 2, 3, 4]);
next = array1d(1..10 ,[6, 10, 8, 9, 1, 2, 3, 4, 5, 7]);
makespan = 948;
----------
assign = array1d(1..10 ,[4, 4, 2, 1, 4, 4, 1, 2, 3, 4]);
next = array1d(1..10 ,[6, 10, 8, 7, 1, 2, 3, 9, 5, 4]);
makespan = 937;
----------
assign = array1d(1..10 ,[4, 4, 2, 3, 4, 4, 1, 2, 3, 4]);
next = array1d(1..10 ,[6, 10, 8, 9, 1, 2, 3, 4, 5, 7]);
makespan = 918;
----------
assign = array1d(1..10 ,[4, 4, 2, 1, 4, 4, 1, 2, 3, 4]);
next = array1d(1..10 ,[6, 10, 8, 7, 1, 2, 3, 9, 5, 4]);
makespan = 914;
----------
assign = array1d(1..10 ,[4, 4, 2, 3, 4, 4, 1, 2, 3, 4]);
next = array1d(1..10 ,[6, 10, 8, 9, 1, 2, 3, 4, 5, 7]);
makespan = 892;
----------
assign = array1d(1..10 ,[4, 4, 2, 1, 4, 4, 1, 2, 3, 4]);
next = array1d(1..10 ,[6, 10, 8, 7, 1, 2, 3, 9, 5, 4]);
makespan = 851;
----------
assign = array1d(1..10 ,[4, 4, 2, 3, 4, 4, 1, 2, 3, 4]);
next = array1d(1..10 ,[6, 10, 8, 9, 1, 2, 3, 4, 5, 7]);
makespan = 849;
----------
assign = array1d(1..10 ,[4, 4, 2, 1, 4, 4, 1, 2, 3, 4]);
next = array1d(1..10 ,[6, 10, 8, 7, 1, 2, 3, 9, 5, 4]);
makespan = 842;
----------
assign = array1d(1..10 ,[4, 4, 2, 3, 4, 4, 1, 2, 3, 4]);
next = array1d(1..10 ,[6, 10, 8, 9, 1, 2, 3, 4, 5, 7]);
makespan = 838;
----------
assign = array1d(1..10 ,[4, 4, 2, 1, 4, 4, 1, 2, 3, 4]);
next = array1d(1..10 ,[6, 10, 8, 7, 1, 2, 3, 9, 5, 4]);
makespan = 831;
----------
assign = array1d(1..10 ,[4, 4, 2, 3, 4, 4, 1, 2, 3, 4]);
next = array1d(1..10 ,[6, 10, 8, 9, 1, 2, 3, 4, 5, 7]);
makespan = 829;
----------
assign = array1d(1..10 ,[4, 4, 2, 1, 4, 4, 1, 2, 3, 4]);
next = array1d(1..10 ,[6, 10, 8, 7, 1, 2, 3, 9, 5, 4]);
makespan = 825;
----------
assign = array1d(1..10 ,[4, 4, 2, 3, 4, 4, 1, 2, 3, 4]);
next = array1d(1..10 ,[6, 10, 8, 9, 1, 2, 3, 4, 5, 7]);
makespan = 822;
----------
assign = array1d(1..10 ,[4, 4, 2, 1, 4, 4, 1, 2, 3, 4]);
next = array1d(1..10 ,[6, 10, 8, 7, 1, 2, 3, 9, 5, 4]);
makespan = 820;
----------
assign = array1d(1..10 ,[4, 4, 2, 3, 4, 4, 1, 2, 3, 4]);
next = array1d(1..10 ,[6, 10, 8, 9, 1, 2, 3, 4, 5, 7]);
makespan = 814;
----------
assign = array1d(1..10 ,[4, 4, 2, 1, 4, 4, 1, 2, 3, 4]);
next = array1d(1..10 ,[6, 10, 8, 7, 1, 2, 3, 9, 5, 4]);
makespan = 812;
----------
assign = array1d(1..10 ,[4, 4, 2, 3, 4, 4, 1, 2, 3, 4]);
next = array1d(1..10 ,[6, 10, 8, 9, 1, 2, 3, 4, 5, 7]);
makespan = 811;
----------
assign = array1d(1..10 ,[4, 1, 2, 4, 4, 4, 1, 2, 3, 4]);
next = array1d(1..10 ,[6, 7, 8, 5, 1, 10, 3, 9, 4, 2]);
makespan = 809;
----------
assign = array1d(1..10 ,[4, 2, 4, 1, 4, 2, 1, 2, 3, 4]);
next = array1d(1..10 ,[10, 8, 5, 7, 1, 2, 6, 9, 3, 4]);
makespan = 805;
----------
assign = array1d(1..10 ,[4, 1, 4, 3, 4, 1, 1, 2, 3, 4]);
next = array1d(1..10 ,[10, 7, 5, 9, 1, 2, 8, 4, 3, 6]);
makespan = 803;
----------
assign = array1d(1..10 ,[4, 2, 4, 1, 4, 2, 1, 2, 3, 4]);
next = array1d(1..10 ,[10, 8, 5, 7, 1, 2, 6, 9, 3, 4]);
makespan = 796;
----------
assign = array1d(1..10 ,[4, 1, 4, 3, 4, 1, 1, 2, 3, 4]);
next = array1d(1..10 ,[10, 7, 5, 9, 1, 2, 8, 4, 3, 6]);
makespan = 795;
----------
assign = array1d(1..10 ,[4, 2, 4, 1, 4, 2, 1, 2, 3, 4]);
next = array1d(1..10 ,[10, 8, 5, 7, 1, 2, 6, 9, 3, 4]);
makespan = 792;
----------
assign = array1d(1..10 ,[4, 1, 4, 3, 4, 1, 1, 2, 3, 4]);
next = array1d(1..10 ,[10, 7, 5, 9, 1, 2, 8, 4, 3, 6]);
makespan = 785;
----------
assign = array1d(1..10 ,[4, 2, 4, 1, 4, 2, 1, 2, 3, 4]);
next = array1d(1..10 ,[10, 8, 5, 7, 1, 2, 6, 9, 3, 4]);
makespan = 783;
----------
assign = array1d(1..10 ,[4, 1, 4, 3, 4, 1, 1, 2, 3, 4]);
next = array1d(1..10 ,[10, 7, 5, 9, 1, 2, 8, 4, 3, 6]);
makespan = 781;
----------
assign = array1d(1..10 ,[4, 2, 4, 1, 4, 2, 1, 2, 3, 4]);
next = array1d(1..10 ,[10, 8, 5, 7, 1, 2, 6, 9, 3, 4]);
makespan = 773;
----------
assign = array1d(1..10 ,[4, 1, 4, 3, 4, 1, 1, 2, 3, 4]);
next = array1d(1..10 ,[10, 7, 5, 9, 1, 2, 8, 4, 3, 6]);
makespan = 769;
----------
assign = array1d(1..10 ,[4, 2, 4, 1, 4, 2, 1, 2, 3, 4]);
next = array1d(1..10 ,[10, 8, 5, 7, 1, 2, 6, 9, 3, 4]);
makespan = 767;
----------
assign = array1d(1..10 ,[4, 1, 4, 3, 4, 1, 1, 2, 3, 4]);
next = array1d(1..10 ,[10, 7, 5, 9, 1, 2, 8, 4, 3, 6]);
makespan = 758;
----------
assign = array1d(1..10 ,[4, 2, 4, 1, 4, 2, 1, 2, 3, 4]);
next = array1d(1..10 ,[10, 8, 5, 7, 1, 2, 6, 9, 3, 4]);
makespan = 740;
----------
assign = array1d(1..10 ,[4, 1, 4, 3, 4, 1, 1, 2, 3, 4]);
next = array1d(1..10 ,[10, 7, 5, 9, 1, 2, 8, 4, 3, 6]);
makespan = 733;
----------
assign = array1d(1..10 ,[4, 2, 4, 1, 4, 2, 1, 2, 3, 4]);
next = array1d(1..10 ,[10, 8, 5, 7, 1, 2, 6, 9, 3, 4]);
makespan = 710;
----------
assign = array1d(1..10 ,[4, 1, 4, 3, 4, 1, 1, 2, 3, 4]);
next = array1d(1..10 ,[10, 7, 5, 9, 1, 2, 8, 4, 3, 6]);
makespan = 697;
----------
assign = array1d(1..10 ,[4, 1, 4, 2, 4, 1, 1, 2, 3, 4]);
next = array1d(1..10 ,[10, 7, 5, 8, 1, 2, 4, 9, 3, 6]);
makespan = 686;
----------
assign = array1d(1..10 ,[4, 1, 4, 3, 4, 1, 1, 2, 3, 4]);
next = array1d(1..10 ,[10, 7, 5, 9, 1, 2, 8, 4, 3, 6]);
makespan = 684;
----------
assign = array1d(1..10 ,[4, 2, 4, 1, 4, 2, 1, 2, 3, 4]);
next = array1d(1..10 ,[10, 8, 5, 7, 1, 2, 6, 9, 3, 4]);
makespan = 681;
----------
assign = array1d(1..10 ,[4, 1, 4, 3, 4, 1, 1, 2, 3, 4]);
next = array1d(1..10 ,[10, 7, 5, 9, 1, 2, 8, 4, 3, 6]);
makespan = 677;
----------
assign = array1d(1..10 ,[4, 2, 4, 1, 4, 2, 1, 2, 3, 4]);
next = array1d(1..10 ,[10, 8, 5, 7, 1, 2, 6, 9, 3, 4]);
makespan = 675;
----------
assign = array1d(1..10 ,[4, 2, 4, 1, 4, 2, 1, 2, 3, 4]);
next = array1d(1..10 ,[10, 8, 5, 7, 1, 2, 6, 9, 3, 4]);
makespan = 668;
----------
assign = array1d(1..10 ,[4, 2, 4, 1, 4, 2, 1, 2, 3, 4]);
next = array1d(1..10 ,[10, 8, 5, 7, 1, 2, 6, 9, 3, 4]);
makespan = 664;
----------
assign = array1d(1..10 ,[4, 1, 4, 3, 4, 1, 1, 2, 3, 4]);
next = array1d(1..10 ,[10, 7, 5, 9, 1, 2, 8, 4, 3, 6]);
makespan = 661;
----------
assign = array1d(1..10 ,[4, 2, 4, 1, 4, 2, 1, 2, 3, 4]);
next = array1d(1..10 ,[10, 8, 5, 7, 1, 2, 6, 9, 3, 4]);
makespan = 660;
----------
assign = array1d(1..10 ,[4, 1, 4, 3, 4, 1, 1, 2, 3, 4]);
next = array1d(1..10 ,[10, 7, 5, 9, 1, 2, 8, 4, 3, 6]);
makespan = 659;
----------
assign = array1d(1..10 ,[4, 2, 4, 1, 4, 2, 1, 2, 3, 4]);
next = array1d(1..10 ,[10, 8, 5, 7, 1, 2, 6, 9, 3, 4]);
makespan = 657;
----------
assign = array1d(1..10 ,[4, 1, 4, 3, 4, 1, 1, 2, 3, 4]);
next = array1d(1..10 ,[10, 7, 5, 9, 1, 2, 8, 4, 3, 6]);
makespan = 655;
----------
assign = array1d(1..10 ,[4, 1, 4, 2, 4, 1, 1, 2, 3, 4]);
next = array1d(1..10 ,[10, 7, 5, 8, 1, 2, 4, 9, 3, 6]);
makespan = 651;
----------
assign = array1d(1..10 ,[4, 1, 4, 3, 4, 1, 1, 2, 3, 4]);
next = array1d(1..10 ,[10, 7, 5, 9, 1, 2, 8, 4, 3, 6]);
makespan = 640;
----------
assign = array1d(1..10 ,[4, 1, 4, 2, 4, 1, 1, 2, 3, 4]);
next = array1d(1..10 ,[10, 7, 5, 8, 1, 2, 4, 9, 3, 6]);
makespan = 638;
----------
assign = array1d(1..10 ,[4, 2, 4, 1, 4, 2, 1, 2, 3, 4]);
next = array1d(1..10 ,[10, 8, 5, 7, 1, 2, 6, 9, 3, 4]);
makespan = 631;
----------
assign = array1d(1..10 ,[4, 1, 4, 3, 4, 1, 1, 2, 3, 4]);
next = array1d(1..10 ,[10, 7, 5, 9, 1, 2, 8, 4, 3, 6]);
makespan = 615;
----------
assign = array1d(1..10 ,[4, 1, 4, 2, 4, 1, 1, 2, 3, 4]);
next = array1d(1..10 ,[3, 7, 10, 8, 1, 2, 4, 9, 5, 6]);
makespan = 608;
----------
assign = array1d(1..10 ,[4, 2, 4, 1, 4, 2, 1, 2, 3, 4]);
next = array1d(1..10 ,[3, 8, 10, 7, 1, 2, 6, 9, 5, 4]);
makespan = 567;
----------
assign = array1d(1..10 ,[4, 2, 2, 4, 4, 2, 1, 2, 3, 4]);
next = array1d(1..10 ,[10, 8, 6, 5, 1, 2, 3, 9, 4, 7]);
makespan = 563;
----------
assign = array1d(1..10 ,[4, 2, 2, 4, 4, 2, 1, 2, 3, 4]);
next = array1d(1..10 ,[10, 3, 8, 5, 1, 2, 6, 9, 4, 7]);
makespan = 561;
----------
assign = array1d(1..10 ,[4, 2, 3, 4, 4, 2, 1, 2, 3, 4]);
next = array1d(1..10 ,[10, 8, 9, 5, 1, 2, 6, 3, 4, 7]);
makespan = 556;
----------
assign = array1d(1..10 ,[2, 3, 4, 3, 2, 4, 1, 2, 3, 4]);
next = array1d(1..10 ,[5, 9, 6, 2, 8, 10, 1, 4, 3, 7]);
makespan = 516;
----------
assign = array1d(1..10 ,[4, 3, 2, 3, 4, 2, 1, 2, 3, 4]);
next = array1d(1..10 ,[5, 9, 6, 2, 10, 8, 3, 4, 1, 7]);
makespan = 507;
----------
assign = array1d(1..10 ,[2, 3, 4, 3, 2, 4, 1, 2, 3, 4]);
next = array1d(1..10 ,[5, 4, 6, 9, 8, 10, 1, 2, 3, 7]);
makespan = 496;
----------
assign = array1d(1..10 ,[2, 3, 4, 3, 2, 4, 1, 2, 3, 4]);
next = array1d(1..10 ,[5, 4, 6, 9, 8, 10, 1, 2, 3, 7]);
makespan = 494;
----------
assign = array1d(1..10 ,[2, 3, 4, 3, 2, 4, 1, 2, 3, 4]);
next = array1d(1..10 ,[5, 4, 6, 9, 8, 10, 1, 2, 3, 7]);
makespan = 493;
----------
assign = array1d(1..10 ,[2, 3, 4, 3, 2, 4, 1, 2, 3, 4]);
next = array1d(1..10 ,[5, 4, 6, 9, 8, 10, 1, 2, 3, 7]);
makespan = 486;
----------
assign = array1d(1..10 ,[2, 3, 4, 3, 2, 4, 1, 2, 3, 4]);
next = array1d(1..10 ,[5, 4, 6, 9, 8, 10, 1, 2, 3, 7]);
makespan = 473;
----------
assign = array1d(1..10 ,[2, 3, 4, 3, 2, 4, 1, 2, 3, 4]);
next = array1d(1..10 ,[5, 4, 6, 9, 8, 10, 1, 2, 3, 7]);
makespan = 456;
----------
assign = array1d(1..10 ,[2, 3, 4, 3, 2, 4, 1, 2, 3, 4]);
next = array1d(1..10 ,[5, 4, 6, 9, 8, 10, 1, 2, 3, 7]);
makespan = 434;
----------
assign = array1d(1..10 ,[2, 3, 4, 3, 2, 4, 1, 2, 3, 4]);
next = array1d(1..10 ,[5, 4, 6, 9, 8, 10, 1, 2, 3, 7]);
makespan = 430;
----------
assign = array1d(1..10 ,[2, 3, 4, 3, 2, 4, 1, 2, 3, 4]);
next = array1d(1..10 ,[5, 9, 6, 2, 8, 10, 1, 4, 3, 7]);
makespan = 427;
----------
assign = array1d(1..10 ,[2, 3, 4, 3, 2, 4, 1, 2, 3, 4]);
next = array1d(1..10 ,[5, 9, 6, 2, 8, 10, 1, 4, 3, 7]);
makespan = 417;
----------
assign = array1d(1..10 ,[2, 3, 4, 3, 2, 4, 1, 2, 3, 4]);
next = array1d(1..10 ,[5, 9, 6, 2, 8, 10, 1, 4, 3, 7]);
makespan = 414;
----------
assign = array1d(1..10 ,[2, 3, 4, 1, 2, 4, 1, 2, 3, 4]);
next = array1d(1..10 ,[5, 9, 6, 7, 8, 10, 1, 2, 3, 4]);
makespan = 407;
----------
assign = array1d(1..10 ,[3, 2, 4, 2, 3, 4, 1, 2, 3, 4]);
next = array1d(1..10 ,[5, 8, 6, 2, 9, 10, 4, 1, 3, 7]);
makespan = 406;
----------
assign = array1d(1..10 ,[3, 2, 4, 2, 3, 4, 1, 2, 3, 4]);
next = array1d(1..10 ,[5, 8, 6, 2, 9, 10, 4, 1, 3, 7]);
makespan = 405;
----------
assign = array1d(1..10 ,[3, 4, 2, 4, 3, 2, 1, 2, 3, 4]);
next = array1d(1..10 ,[5, 10, 6, 2, 9, 8, 3, 1, 4, 7]);
makespan = 389;
----------
assign = array1d(1..10 ,[4, 3, 2, 1, 4, 2, 1, 2, 3, 4]);
next = array1d(1..10 ,[5, 9, 6, 7, 10, 8, 3, 2, 1, 4]);
makespan = 384;
----------
assign = array1d(1..10 ,[1, 2, 3, 4, 1, 3, 1, 2, 3, 4]);
next = array1d(1..10 ,[5, 8, 6, 10, 7, 9, 2, 3, 4, 1]);
makespan = 382;
----------
assign = array1d(1..10 ,[4, 3, 2, 1, 4, 2, 1, 2, 3, 4]);
next = array1d(1..10 ,[5, 9, 6, 7, 10, 8, 3, 2, 1, 4]);
makespan = 367;
----------
assign = array1d(1..10 ,[1, 4, 2, 3, 1, 2, 1, 2, 3, 4]);
next = array1d(1..10 ,[5, 10, 6, 9, 7, 8, 3, 4, 2, 1]);
makespan = 364;
----------
assign = array1d(1..10 ,[4, 4, 2, 1, 3, 2, 1, 2, 3, 4]);
next = array1d(1..10 ,[10, 1, 6, 7, 9, 8, 3, 5, 2, 4]);
makespan = 362;
----------
assign = array1d(1..10 ,[1, 4, 2, 3, 1, 2, 1, 2, 3, 4]);
next = array1d(1..10 ,[7, 10, 6, 9, 1, 8, 3, 4, 2, 5]);
makespan = 359;
----------
assign = array1d(1..10 ,[3, 2, 2, 4, 4, 1, 1, 2, 3, 4]);
next = array1d(1..10 ,[9, 3, 8, 5, 10, 7, 2, 1, 4, 6]);
makespan = 358;
----------
assign = array1d(1..10 ,[4, 2, 2, 3, 4, 1, 1, 2, 3, 4]);
next = array1d(1..10 ,[10, 3, 8, 9, 1, 7, 2, 4, 5, 6]);
makespan = 346;
----------
assign = array1d(1..10 ,[1, 3, 2, 4, 4, 2, 1, 2, 3, 4]);
next = array1d(1..10 ,[7, 9, 6, 5, 10, 8, 3, 2, 4, 1]);
makespan = 345;
----------
assign = array1d(1..10 ,[1, 3, 2, 4, 4, 2, 1, 2, 3, 4]);
next = array1d(1..10 ,[7, 9, 6, 5, 10, 8, 3, 2, 4, 1]);
makespan = 342;
----------
==========
	Command being timed: "mzn-chuffed lbbd-datasets/Rabadi-2006/dzn-p-dominant/model.mzn lbbd-datasets/Rabadi-2006/dzn-p-dominant/6on4Rp50Rs50_2Ameer.dzn"
	User time (seconds): 0.32
	System time (seconds): 0.01
	Percent of CPU this job got: 57%
	Elapsed (wall clock) time (h:mm:ss or m:ss): 0:00.57
	Average shared text size (kbytes): 0
	Average unshared data size (kbytes): 0
	Average stack size (kbytes): 0
	Average total size (kbytes): 0
	Maximum resident set size (kbytes): 32464
	Average resident set size (kbytes): 0
	Major (requiring I/O) page faults: 0
	Minor (reclaiming a frame) page faults: 2874
	Voluntary context switches: 126
	Involuntary context switches: 2
	Swaps: 0
	File system inputs: 0
	File system outputs: 200
	Socket messages sent: 0
	Socket messages received: 0
	Signals delivered: 0
	Page size (bytes): 4096
	Exit status: 0
