+ /usr/bin/timeout 600 /usr/bin/time -v mzn-chuffed lbbd-datasets/planningandscheduling/cost-insts/model.mzn lbbd-datasets/planningandscheduling/cost-insts/c36j2m4.dzn
% No search annotation given. Defaulting to VSIDS!
obj = 980
----------
obj = 975
----------
obj = 974
----------
obj = 959
----------
obj = 958
----------
obj = 956
----------
obj = 950
----------
obj = 929
----------
obj = 916
----------
obj = 901
----------
obj = 889
----------
obj = 880
----------
obj = 864
----------
obj = 857
----------
obj = 842
----------
obj = 836
----------
obj = 835
----------
obj = 822
----------
obj = 810
----------
obj = 791
----------
obj = 775
----------
obj = 774
----------
obj = 756
----------
obj = 742
----------
obj = 737
----------
obj = 735
----------
obj = 734
----------
obj = 729
----------
obj = 720
----------
obj = 711
----------
obj = 705
----------
obj = 704
----------
obj = 700
----------
obj = 686
----------
obj = 684
----------
obj = 680
----------
obj = 678
----------
obj = 668
----------
obj = 667
----------
obj = 665
----------
obj = 663
----------
obj = 660
----------
obj = 655
----------
obj = 653
----------
