+ /usr/bin/timeout 600 /usr/bin/time -v mzn-chuffed lbbd-datasets/Rabadi-2006/dzn-balanced/model.mzn lbbd-datasets/Rabadi-2006/dzn-balanced/8on4Rp50Rs50_2Ameer.dzn
% No search annotation given. Defaulting to VSIDS!
assign = array1d(1..12 ,[4, 4, 4, 4, 4, 4, 4, 4, 1, 2, 3, 4]);
next = array1d(1..12 ,[2, 3, 4, 5, 6, 7, 8, 12, 10, 11, 1, 9]);
makespan = 1168;
----------
assign = array1d(1..12 ,[4, 4, 4, 4, 4, 4, 4, 4, 1, 2, 3, 4]);
next = array1d(1..12 ,[3, 4, 2, 5, 6, 7, 8, 12, 10, 11, 1, 9]);
makespan = 1159;
----------
assign = array1d(1..12 ,[4, 4, 1, 4, 4, 4, 4, 4, 1, 2, 3, 4]);
next = array1d(1..12 ,[6, 5, 9, 1, 8, 2, 4, 12, 10, 11, 7, 3]);
makespan = 1117;
----------
assign = array1d(1..12 ,[4, 4, 4, 1, 4, 4, 4, 4, 1, 2, 3, 4]);
next = array1d(1..12 ,[6, 5, 12, 9, 1, 7, 8, 3, 10, 11, 2, 4]);
makespan = 1116;
----------
assign = array1d(1..12 ,[4, 1, 4, 4, 4, 4, 4, 4, 1, 2, 3, 4]);
next = array1d(1..12 ,[6, 9, 12, 8, 1, 7, 4, 3, 10, 11, 5, 2]);
makespan = 1107;
----------
assign = array1d(1..12 ,[1, 4, 4, 4, 4, 4, 4, 4, 1, 2, 3, 4]);
next = array1d(1..12 ,[9, 5, 12, 7, 8, 2, 6, 3, 10, 11, 4, 1]);
makespan = 1101;
----------
assign = array1d(1..12 ,[4, 4, 4, 4, 1, 4, 4, 4, 1, 2, 3, 4]);
next = array1d(1..12 ,[6, 8, 12, 1, 9, 2, 4, 3, 10, 11, 7, 5]);
makespan = 1090;
----------
assign = array1d(1..12 ,[4, 1, 4, 4, 4, 4, 4, 4, 1, 2, 3, 4]);
next = array1d(1..12 ,[6, 9, 12, 8, 1, 7, 4, 3, 10, 11, 5, 2]);
makespan = 1086;
----------
assign = array1d(1..12 ,[4, 4, 4, 4, 1, 4, 4, 4, 1, 2, 3, 4]);
next = array1d(1..12 ,[6, 8, 12, 2, 9, 7, 4, 3, 10, 11, 1, 5]);
makespan = 1076;
----------
assign = array1d(1..12 ,[1, 4, 4, 4, 4, 4, 4, 4, 1, 2, 3, 4]);
next = array1d(1..12 ,[9, 5, 12, 7, 8, 2, 6, 3, 10, 11, 4, 1]);
makespan = 1072;
----------
assign = array1d(1..12 ,[4, 4, 4, 4, 1, 4, 4, 4, 1, 2, 3, 4]);
next = array1d(1..12 ,[6, 8, 12, 1, 9, 2, 4, 3, 10, 11, 7, 5]);
makespan = 1071;
----------
assign = array1d(1..12 ,[4, 4, 4, 1, 4, 4, 4, 4, 1, 2, 3, 4]);
next = array1d(1..12 ,[12, 7, 8, 9, 3, 5, 6, 1, 10, 11, 2, 4]);
makespan = 1069;
----------
assign = array1d(1..12 ,[4, 4, 4, 1, 4, 4, 4, 4, 1, 2, 3, 4]);
next = array1d(1..12 ,[12, 7, 8, 9, 3, 5, 6, 1, 10, 11, 2, 4]);
makespan = 1055;
----------
assign = array1d(1..12 ,[4, 4, 4, 1, 4, 4, 4, 4, 1, 2, 3, 4]);
next = array1d(1..12 ,[12, 7, 8, 9, 3, 5, 6, 1, 10, 11, 2, 4]);
makespan = 1049;
----------
assign = array1d(1..12 ,[4, 4, 4, 1, 4, 4, 4, 4, 1, 2, 3, 4]);
next = array1d(1..12 ,[12, 7, 8, 9, 3, 5, 6, 1, 10, 11, 2, 4]);
makespan = 1040;
----------
assign = array1d(1..12 ,[4, 4, 4, 1, 4, 4, 4, 4, 1, 2, 3, 4]);
next = array1d(1..12 ,[12, 7, 8, 9, 3, 5, 6, 1, 10, 11, 2, 4]);
makespan = 1038;
----------
assign = array1d(1..12 ,[4, 4, 4, 1, 4, 4, 4, 4, 1, 2, 3, 4]);
next = array1d(1..12 ,[12, 7, 8, 9, 3, 5, 6, 1, 10, 11, 2, 4]);
makespan = 1034;
----------
assign = array1d(1..12 ,[4, 4, 4, 1, 4, 4, 4, 4, 1, 2, 3, 4]);
next = array1d(1..12 ,[12, 7, 8, 9, 3, 5, 6, 1, 10, 11, 2, 4]);
makespan = 1029;
----------
assign = array1d(1..12 ,[4, 4, 4, 1, 4, 4, 4, 4, 1, 2, 3, 4]);
next = array1d(1..12 ,[12, 7, 8, 9, 3, 5, 6, 1, 10, 11, 2, 4]);
makespan = 1025;
----------
assign = array1d(1..12 ,[4, 4, 4, 1, 4, 4, 4, 4, 1, 2, 3, 4]);
next = array1d(1..12 ,[12, 7, 8, 9, 3, 5, 6, 1, 10, 11, 2, 4]);
makespan = 1024;
----------
assign = array1d(1..12 ,[4, 4, 4, 1, 4, 4, 4, 4, 1, 2, 3, 4]);
next = array1d(1..12 ,[12, 7, 8, 9, 3, 5, 6, 1, 10, 11, 2, 4]);
makespan = 1023;
----------
assign = array1d(1..12 ,[4, 4, 4, 1, 4, 4, 4, 4, 1, 2, 3, 4]);
next = array1d(1..12 ,[12, 7, 8, 9, 3, 5, 6, 1, 10, 11, 2, 4]);
makespan = 1019;
----------
assign = array1d(1..12 ,[4, 4, 4, 1, 4, 4, 4, 4, 1, 2, 3, 4]);
next = array1d(1..12 ,[12, 7, 8, 9, 3, 5, 6, 1, 10, 11, 2, 4]);
makespan = 1017;
----------
assign = array1d(1..12 ,[4, 4, 4, 1, 4, 4, 4, 4, 1, 2, 3, 4]);
next = array1d(1..12 ,[2, 7, 8, 9, 3, 5, 12, 1, 10, 11, 6, 4]);
makespan = 1015;
----------
assign = array1d(1..12 ,[4, 4, 4, 1, 4, 4, 4, 4, 1, 2, 3, 4]);
next = array1d(1..12 ,[2, 7, 8, 9, 3, 5, 12, 1, 10, 11, 6, 4]);
makespan = 1010;
----------
assign = array1d(1..12 ,[4, 4, 4, 1, 4, 4, 4, 4, 1, 2, 3, 4]);
next = array1d(1..12 ,[2, 7, 8, 9, 3, 5, 12, 1, 10, 11, 6, 4]);
makespan = 1009;
----------
assign = array1d(1..12 ,[4, 4, 4, 1, 4, 4, 4, 4, 1, 2, 3, 4]);
next = array1d(1..12 ,[2, 7, 8, 9, 3, 5, 12, 1, 10, 11, 6, 4]);
makespan = 1008;
----------
assign = array1d(1..12 ,[4, 4, 4, 1, 4, 4, 4, 4, 1, 2, 3, 4]);
next = array1d(1..12 ,[2, 7, 8, 9, 3, 5, 12, 1, 10, 11, 6, 4]);
makespan = 1004;
----------
assign = array1d(1..12 ,[4, 4, 4, 1, 4, 4, 4, 4, 1, 2, 3, 4]);
next = array1d(1..12 ,[2, 7, 8, 9, 3, 5, 12, 1, 10, 11, 6, 4]);
makespan = 1002;
----------
assign = array1d(1..12 ,[4, 4, 4, 1, 4, 4, 4, 4, 1, 2, 3, 4]);
next = array1d(1..12 ,[2, 7, 8, 9, 3, 5, 12, 1, 10, 11, 6, 4]);
makespan = 999;
----------
assign = array1d(1..12 ,[1, 4, 4, 4, 4, 4, 4, 4, 1, 2, 3, 4]);
next = array1d(1..12 ,[9, 7, 8, 2, 3, 5, 6, 12, 10, 11, 4, 1]);
makespan = 998;
----------
assign = array1d(1..12 ,[1, 4, 4, 4, 4, 4, 4, 4, 1, 2, 3, 4]);
next = array1d(1..12 ,[9, 7, 8, 2, 3, 5, 6, 12, 10, 11, 4, 1]);
makespan = 994;
----------
assign = array1d(1..12 ,[1, 4, 4, 4, 4, 4, 4, 4, 1, 2, 3, 4]);
next = array1d(1..12 ,[9, 7, 8, 2, 3, 5, 6, 12, 10, 11, 4, 1]);
makespan = 993;
----------
assign = array1d(1..12 ,[1, 4, 4, 4, 4, 4, 4, 4, 1, 2, 3, 4]);
next = array1d(1..12 ,[9, 7, 8, 2, 3, 5, 6, 12, 10, 11, 4, 1]);
makespan = 991;
----------
assign = array1d(1..12 ,[1, 4, 4, 4, 4, 4, 4, 4, 1, 2, 3, 4]);
next = array1d(1..12 ,[9, 7, 8, 2, 3, 5, 6, 12, 10, 11, 4, 1]);
makespan = 989;
----------
assign = array1d(1..12 ,[1, 4, 4, 4, 4, 4, 4, 4, 1, 2, 3, 4]);
next = array1d(1..12 ,[9, 7, 8, 2, 3, 5, 12, 4, 10, 11, 6, 1]);
makespan = 988;
----------
assign = array1d(1..12 ,[1, 4, 4, 4, 4, 4, 4, 4, 1, 2, 3, 4]);
next = array1d(1..12 ,[9, 7, 8, 2, 3, 5, 12, 4, 10, 11, 6, 1]);
makespan = 987;
----------
assign = array1d(1..12 ,[1, 4, 4, 4, 4, 4, 4, 4, 1, 2, 3, 4]);
next = array1d(1..12 ,[9, 7, 8, 2, 3, 5, 12, 4, 10, 11, 6, 1]);
makespan = 981;
----------
assign = array1d(1..12 ,[1, 4, 4, 1, 4, 4, 4, 4, 1, 2, 3, 4]);
next = array1d(1..12 ,[4, 7, 8, 9, 3, 5, 6, 12, 10, 11, 2, 1]);
makespan = 979;
----------
assign = array1d(1..12 ,[1, 4, 4, 1, 4, 4, 4, 4, 1, 2, 3, 4]);
next = array1d(1..12 ,[4, 7, 8, 9, 3, 5, 6, 12, 10, 11, 2, 1]);
makespan = 977;
----------
assign = array1d(1..12 ,[1, 4, 4, 1, 4, 4, 4, 4, 1, 2, 3, 4]);
next = array1d(1..12 ,[4, 7, 8, 9, 3, 5, 6, 12, 10, 11, 2, 1]);
makespan = 973;
----------
assign = array1d(1..12 ,[1, 4, 4, 1, 4, 4, 4, 4, 1, 2, 3, 4]);
next = array1d(1..12 ,[4, 7, 8, 9, 3, 5, 6, 12, 10, 11, 2, 1]);
makespan = 972;
----------
assign = array1d(1..12 ,[1, 4, 4, 1, 4, 4, 4, 4, 1, 2, 3, 4]);
next = array1d(1..12 ,[4, 7, 8, 9, 3, 5, 6, 12, 10, 11, 2, 1]);
makespan = 971;
----------
assign = array1d(1..12 ,[1, 4, 4, 1, 4, 4, 4, 4, 1, 2, 3, 4]);
next = array1d(1..12 ,[4, 7, 8, 9, 3, 5, 6, 12, 10, 11, 2, 1]);
makespan = 967;
----------
assign = array1d(1..12 ,[1, 4, 4, 1, 4, 4, 4, 4, 1, 2, 3, 4]);
next = array1d(1..12 ,[4, 7, 8, 9, 3, 5, 6, 12, 10, 11, 2, 1]);
makespan = 963;
----------
assign = array1d(1..12 ,[1, 4, 4, 1, 4, 4, 4, 4, 1, 2, 3, 4]);
next = array1d(1..12 ,[4, 7, 8, 9, 3, 5, 6, 12, 10, 11, 2, 1]);
makespan = 962;
----------
assign = array1d(1..12 ,[1, 4, 4, 1, 4, 4, 4, 4, 1, 2, 3, 4]);
next = array1d(1..12 ,[4, 7, 8, 9, 3, 5, 6, 12, 10, 11, 2, 1]);
makespan = 958;
----------
assign = array1d(1..12 ,[1, 4, 4, 1, 4, 4, 4, 4, 1, 2, 3, 4]);
next = array1d(1..12 ,[4, 7, 8, 9, 3, 5, 6, 12, 10, 11, 2, 1]);
makespan = 957;
----------
assign = array1d(1..12 ,[1, 4, 4, 1, 4, 4, 4, 4, 1, 2, 3, 4]);
next = array1d(1..12 ,[4, 7, 8, 9, 3, 5, 6, 12, 10, 11, 2, 1]);
makespan = 956;
----------
assign = array1d(1..12 ,[1, 4, 4, 1, 4, 4, 4, 4, 1, 2, 3, 4]);
next = array1d(1..12 ,[4, 7, 8, 9, 3, 5, 6, 12, 10, 11, 2, 1]);
makespan = 952;
----------
assign = array1d(1..12 ,[1, 4, 4, 1, 4, 4, 4, 4, 1, 2, 3, 4]);
next = array1d(1..12 ,[4, 7, 8, 9, 3, 5, 6, 12, 10, 11, 2, 1]);
makespan = 950;
----------
assign = array1d(1..12 ,[1, 4, 4, 1, 4, 4, 4, 4, 1, 2, 3, 4]);
next = array1d(1..12 ,[4, 7, 8, 9, 3, 5, 6, 12, 10, 11, 2, 1]);
makespan = 948;
----------
assign = array1d(1..12 ,[1, 4, 4, 1, 4, 4, 4, 4, 1, 2, 3, 4]);
next = array1d(1..12 ,[4, 7, 8, 9, 3, 5, 6, 12, 10, 11, 2, 1]);
makespan = 947;
----------
assign = array1d(1..12 ,[1, 4, 4, 1, 4, 4, 4, 4, 1, 2, 3, 4]);
next = array1d(1..12 ,[4, 7, 8, 9, 3, 5, 6, 12, 10, 11, 2, 1]);
makespan = 946;
----------
assign = array1d(1..12 ,[1, 4, 4, 1, 4, 4, 4, 4, 1, 2, 3, 4]);
next = array1d(1..12 ,[4, 7, 8, 9, 3, 5, 6, 12, 10, 11, 2, 1]);
makespan = 943;
----------
assign = array1d(1..12 ,[1, 4, 4, 1, 4, 4, 4, 4, 1, 2, 3, 4]);
next = array1d(1..12 ,[4, 7, 8, 9, 3, 5, 6, 12, 10, 11, 2, 1]);
makespan = 942;
----------
assign = array1d(1..12 ,[1, 4, 4, 1, 4, 4, 4, 4, 1, 2, 3, 4]);
next = array1d(1..12 ,[4, 7, 8, 9, 3, 5, 6, 12, 10, 11, 2, 1]);
makespan = 941;
----------
assign = array1d(1..12 ,[1, 4, 4, 1, 4, 4, 4, 4, 1, 2, 3, 4]);
next = array1d(1..12 ,[4, 7, 8, 9, 3, 5, 6, 12, 10, 11, 2, 1]);
makespan = 939;
----------
assign = array1d(1..12 ,[1, 4, 4, 1, 4, 4, 4, 4, 1, 2, 3, 4]);
next = array1d(1..12 ,[4, 7, 8, 9, 3, 5, 6, 12, 10, 11, 2, 1]);
makespan = 937;
----------
assign = array1d(1..12 ,[1, 4, 4, 1, 4, 4, 4, 4, 1, 2, 3, 4]);
next = array1d(1..12 ,[4, 7, 8, 9, 3, 5, 6, 12, 10, 11, 2, 1]);
makespan = 935;
----------
assign = array1d(1..12 ,[1, 4, 4, 1, 4, 4, 4, 4, 1, 2, 3, 4]);
next = array1d(1..12 ,[4, 7, 8, 9, 3, 5, 6, 12, 10, 11, 2, 1]);
makespan = 933;
----------
assign = array1d(1..12 ,[1, 4, 4, 1, 4, 4, 4, 4, 1, 2, 3, 4]);
next = array1d(1..12 ,[4, 7, 8, 9, 3, 5, 6, 12, 10, 11, 2, 1]);
makespan = 932;
----------
assign = array1d(1..12 ,[1, 4, 4, 1, 4, 4, 4, 4, 1, 2, 3, 4]);
next = array1d(1..12 ,[4, 7, 8, 9, 3, 5, 6, 12, 10, 11, 2, 1]);
makespan = 931;
----------
assign = array1d(1..12 ,[1, 4, 4, 1, 4, 4, 4, 4, 1, 2, 3, 4]);
next = array1d(1..12 ,[4, 7, 8, 9, 3, 5, 6, 12, 10, 11, 2, 1]);
makespan = 930;
----------
assign = array1d(1..12 ,[1, 4, 4, 1, 4, 4, 4, 4, 1, 2, 3, 4]);
next = array1d(1..12 ,[4, 7, 8, 9, 3, 5, 6, 12, 10, 11, 2, 1]);
makespan = 928;
----------
assign = array1d(1..12 ,[1, 4, 4, 1, 4, 4, 4, 4, 1, 2, 3, 4]);
next = array1d(1..12 ,[4, 7, 8, 9, 3, 5, 6, 12, 10, 11, 2, 1]);
makespan = 927;
----------
assign = array1d(1..12 ,[1, 4, 4, 1, 4, 4, 4, 4, 1, 2, 3, 4]);
next = array1d(1..12 ,[4, 7, 8, 9, 3, 5, 6, 12, 10, 11, 2, 1]);
makespan = 926;
----------
assign = array1d(1..12 ,[1, 4, 4, 1, 4, 4, 4, 4, 1, 2, 3, 4]);
next = array1d(1..12 ,[4, 7, 8, 9, 3, 5, 6, 12, 10, 11, 2, 1]);
makespan = 925;
----------
assign = array1d(1..12 ,[1, 4, 4, 1, 4, 4, 4, 4, 1, 2, 3, 4]);
next = array1d(1..12 ,[4, 7, 8, 9, 3, 5, 6, 12, 10, 11, 2, 1]);
makespan = 924;
----------
assign = array1d(1..12 ,[1, 4, 4, 1, 4, 4, 4, 4, 1, 2, 3, 4]);
next = array1d(1..12 ,[4, 7, 8, 9, 3, 5, 6, 12, 10, 11, 2, 1]);
makespan = 922;
----------
assign = array1d(1..12 ,[1, 4, 4, 1, 4, 4, 4, 4, 1, 2, 3, 4]);
next = array1d(1..12 ,[4, 7, 8, 9, 3, 5, 6, 12, 10, 11, 2, 1]);
makespan = 920;
----------
assign = array1d(1..12 ,[1, 4, 4, 1, 4, 4, 4, 4, 1, 2, 3, 4]);
next = array1d(1..12 ,[4, 7, 8, 9, 3, 5, 6, 12, 10, 11, 2, 1]);
makespan = 918;
----------
assign = array1d(1..12 ,[1, 4, 4, 1, 4, 4, 4, 4, 1, 2, 3, 4]);
next = array1d(1..12 ,[4, 7, 8, 9, 3, 5, 6, 12, 10, 11, 2, 1]);
makespan = 916;
----------
assign = array1d(1..12 ,[1, 4, 4, 1, 4, 4, 4, 4, 1, 2, 3, 4]);
next = array1d(1..12 ,[4, 7, 8, 9, 3, 5, 6, 12, 10, 11, 2, 1]);
makespan = 912;
----------
assign = array1d(1..12 ,[1, 4, 4, 1, 4, 4, 4, 4, 1, 2, 3, 4]);
next = array1d(1..12 ,[4, 7, 8, 9, 3, 5, 6, 12, 10, 11, 2, 1]);
makespan = 911;
----------
assign = array1d(1..12 ,[1, 4, 4, 1, 4, 4, 4, 4, 1, 2, 3, 4]);
next = array1d(1..12 ,[4, 7, 8, 9, 3, 5, 6, 12, 10, 11, 2, 1]);
makespan = 910;
----------
assign = array1d(1..12 ,[1, 4, 4, 1, 4, 4, 4, 4, 1, 2, 3, 4]);
next = array1d(1..12 ,[4, 7, 8, 9, 3, 5, 6, 12, 10, 11, 2, 1]);
makespan = 909;
----------
assign = array1d(1..12 ,[1, 4, 4, 1, 4, 4, 4, 4, 1, 2, 3, 4]);
next = array1d(1..12 ,[4, 7, 8, 9, 3, 5, 6, 12, 10, 11, 2, 1]);
makespan = 906;
----------
assign = array1d(1..12 ,[1, 4, 4, 1, 4, 4, 4, 4, 1, 2, 3, 4]);
next = array1d(1..12 ,[4, 7, 8, 9, 3, 5, 6, 12, 10, 11, 2, 1]);
makespan = 905;
----------
assign = array1d(1..12 ,[1, 4, 4, 1, 4, 4, 4, 4, 1, 2, 3, 4]);
next = array1d(1..12 ,[4, 7, 8, 9, 3, 5, 6, 12, 10, 11, 2, 1]);
makespan = 901;
----------
assign = array1d(1..12 ,[1, 4, 4, 1, 4, 4, 4, 4, 1, 2, 3, 4]);
next = array1d(1..12 ,[4, 7, 8, 9, 3, 5, 6, 12, 10, 11, 2, 1]);
makespan = 899;
----------
assign = array1d(1..12 ,[1, 4, 4, 1, 4, 4, 4, 4, 1, 2, 3, 4]);
next = array1d(1..12 ,[4, 7, 8, 9, 3, 5, 6, 12, 10, 11, 2, 1]);
makespan = 898;
----------
assign = array1d(1..12 ,[1, 4, 4, 1, 4, 4, 4, 4, 1, 2, 3, 4]);
next = array1d(1..12 ,[4, 7, 8, 9, 3, 5, 6, 12, 10, 11, 2, 1]);
makespan = 897;
----------
assign = array1d(1..12 ,[1, 4, 4, 1, 4, 4, 4, 4, 1, 2, 3, 4]);
next = array1d(1..12 ,[4, 7, 8, 9, 3, 5, 6, 12, 10, 11, 2, 1]);
makespan = 896;
----------
assign = array1d(1..12 ,[1, 4, 4, 1, 4, 4, 4, 4, 1, 2, 3, 4]);
next = array1d(1..12 ,[4, 7, 8, 9, 3, 5, 6, 12, 10, 11, 2, 1]);
makespan = 895;
----------
assign = array1d(1..12 ,[1, 4, 4, 1, 4, 4, 4, 4, 1, 2, 3, 4]);
next = array1d(1..12 ,[4, 7, 8, 9, 3, 5, 6, 12, 10, 11, 2, 1]);
makespan = 894;
----------
assign = array1d(1..12 ,[1, 4, 4, 1, 4, 4, 4, 4, 1, 2, 3, 4]);
next = array1d(1..12 ,[4, 7, 8, 9, 3, 5, 6, 12, 10, 11, 2, 1]);
makespan = 892;
----------
assign = array1d(1..12 ,[1, 4, 4, 1, 4, 4, 4, 4, 1, 2, 3, 4]);
next = array1d(1..12 ,[4, 7, 8, 9, 3, 5, 6, 12, 10, 11, 2, 1]);
makespan = 891;
----------
assign = array1d(1..12 ,[1, 4, 4, 1, 4, 4, 4, 4, 1, 2, 3, 4]);
next = array1d(1..12 ,[4, 7, 8, 9, 3, 5, 6, 12, 10, 11, 2, 1]);
makespan = 890;
----------
assign = array1d(1..12 ,[1, 4, 4, 1, 4, 4, 4, 4, 1, 2, 3, 4]);
next = array1d(1..12 ,[4, 7, 8, 9, 3, 5, 6, 12, 10, 11, 2, 1]);
makespan = 889;
----------
assign = array1d(1..12 ,[1, 4, 4, 1, 4, 4, 4, 4, 1, 2, 3, 4]);
next = array1d(1..12 ,[4, 7, 8, 9, 3, 5, 6, 12, 10, 11, 2, 1]);
makespan = 885;
----------
assign = array1d(1..12 ,[1, 4, 4, 1, 4, 4, 4, 4, 1, 2, 3, 4]);
next = array1d(1..12 ,[4, 7, 8, 9, 3, 5, 6, 12, 10, 11, 2, 1]);
makespan = 881;
----------
assign = array1d(1..12 ,[1, 4, 4, 1, 4, 4, 4, 4, 1, 2, 3, 4]);
next = array1d(1..12 ,[4, 7, 8, 9, 3, 5, 6, 12, 10, 11, 2, 1]);
makespan = 880;
----------
assign = array1d(1..12 ,[1, 4, 4, 1, 4, 4, 4, 4, 1, 2, 3, 4]);
next = array1d(1..12 ,[4, 7, 8, 9, 3, 5, 6, 12, 10, 11, 2, 1]);
makespan = 879;
----------
assign = array1d(1..12 ,[1, 4, 4, 1, 4, 4, 4, 4, 1, 2, 3, 4]);
next = array1d(1..12 ,[4, 7, 8, 9, 3, 5, 6, 12, 10, 11, 2, 1]);
makespan = 878;
----------
assign = array1d(1..12 ,[1, 4, 4, 1, 4, 4, 4, 4, 1, 2, 3, 4]);
next = array1d(1..12 ,[4, 7, 8, 9, 3, 5, 6, 12, 10, 11, 2, 1]);
makespan = 876;
----------
assign = array1d(1..12 ,[1, 4, 4, 1, 4, 4, 4, 4, 1, 2, 3, 4]);
next = array1d(1..12 ,[4, 7, 8, 9, 3, 5, 6, 12, 10, 11, 2, 1]);
makespan = 875;
----------
assign = array1d(1..12 ,[1, 4, 4, 1, 4, 4, 4, 4, 1, 2, 3, 4]);
next = array1d(1..12 ,[4, 7, 8, 9, 3, 5, 6, 12, 10, 11, 2, 1]);
makespan = 874;
----------
assign = array1d(1..12 ,[1, 4, 4, 1, 4, 4, 4, 4, 1, 2, 3, 4]);
next = array1d(1..12 ,[4, 7, 8, 9, 3, 5, 6, 12, 10, 11, 2, 1]);
makespan = 872;
----------
assign = array1d(1..12 ,[1, 4, 4, 1, 4, 4, 4, 4, 1, 2, 3, 4]);
next = array1d(1..12 ,[4, 7, 8, 9, 3, 5, 6, 12, 10, 11, 2, 1]);
makespan = 870;
----------
assign = array1d(1..12 ,[1, 4, 4, 1, 4, 4, 4, 4, 1, 2, 3, 4]);
next = array1d(1..12 ,[4, 7, 8, 9, 3, 5, 6, 12, 10, 11, 2, 1]);
makespan = 868;
----------
assign = array1d(1..12 ,[1, 4, 4, 1, 4, 4, 4, 4, 1, 2, 3, 4]);
next = array1d(1..12 ,[4, 7, 8, 9, 3, 5, 6, 12, 10, 11, 2, 1]);
makespan = 866;
----------
assign = array1d(1..12 ,[1, 4, 4, 1, 4, 4, 4, 4, 1, 2, 3, 4]);
next = array1d(1..12 ,[4, 7, 8, 9, 3, 5, 6, 12, 10, 11, 2, 1]);
makespan = 865;
----------
assign = array1d(1..12 ,[1, 4, 4, 1, 4, 4, 4, 4, 1, 2, 3, 4]);
next = array1d(1..12 ,[4, 7, 8, 9, 3, 5, 6, 12, 10, 11, 2, 1]);
makespan = 864;
----------
assign = array1d(1..12 ,[1, 4, 4, 1, 4, 4, 4, 4, 1, 2, 3, 4]);
next = array1d(1..12 ,[4, 7, 8, 9, 3, 5, 6, 12, 10, 11, 2, 1]);
makespan = 863;
----------
assign = array1d(1..12 ,[1, 4, 4, 1, 4, 4, 4, 4, 1, 2, 3, 4]);
next = array1d(1..12 ,[4, 7, 8, 9, 3, 5, 6, 12, 10, 11, 2, 1]);
makespan = 861;
----------
assign = array1d(1..12 ,[1, 4, 4, 1, 4, 4, 4, 4, 1, 2, 3, 4]);
next = array1d(1..12 ,[4, 7, 8, 9, 3, 5, 6, 12, 10, 11, 2, 1]);
makespan = 860;
----------
assign = array1d(1..12 ,[1, 4, 4, 1, 4, 4, 4, 4, 1, 2, 3, 4]);
next = array1d(1..12 ,[4, 7, 8, 9, 3, 5, 6, 12, 10, 11, 2, 1]);
makespan = 859;
----------
assign = array1d(1..12 ,[1, 4, 4, 1, 4, 4, 4, 4, 1, 2, 3, 4]);
next = array1d(1..12 ,[4, 7, 8, 9, 3, 5, 6, 12, 10, 11, 2, 1]);
makespan = 858;
----------
assign = array1d(1..12 ,[1, 4, 4, 1, 4, 4, 4, 4, 1, 2, 3, 4]);
next = array1d(1..12 ,[4, 7, 8, 9, 3, 5, 6, 12, 10, 11, 2, 1]);
makespan = 857;
----------
assign = array1d(1..12 ,[1, 4, 4, 1, 4, 4, 4, 4, 1, 2, 3, 4]);
next = array1d(1..12 ,[4, 7, 8, 9, 3, 5, 6, 12, 10, 11, 2, 1]);
makespan = 856;
----------
assign = array1d(1..12 ,[1, 4, 4, 1, 4, 4, 4, 4, 1, 2, 3, 4]);
next = array1d(1..12 ,[4, 7, 8, 9, 3, 5, 6, 12, 10, 11, 2, 1]);
makespan = 855;
----------
assign = array1d(1..12 ,[1, 4, 4, 1, 4, 4, 4, 4, 1, 2, 3, 4]);
next = array1d(1..12 ,[4, 7, 8, 9, 3, 5, 6, 12, 10, 11, 2, 1]);
makespan = 853;
----------
assign = array1d(1..12 ,[1, 4, 4, 1, 4, 4, 4, 4, 1, 2, 3, 4]);
next = array1d(1..12 ,[4, 7, 8, 9, 3, 5, 6, 12, 10, 11, 2, 1]);
makespan = 851;
----------
assign = array1d(1..12 ,[1, 4, 4, 1, 4, 4, 4, 4, 1, 2, 3, 4]);
next = array1d(1..12 ,[4, 7, 8, 9, 3, 5, 6, 12, 10, 11, 2, 1]);
makespan = 850;
----------
assign = array1d(1..12 ,[1, 4, 4, 1, 4, 4, 4, 4, 1, 2, 3, 4]);
next = array1d(1..12 ,[4, 7, 8, 9, 3, 5, 6, 12, 10, 11, 2, 1]);
makespan = 849;
----------
assign = array1d(1..12 ,[1, 4, 4, 1, 4, 4, 4, 4, 1, 2, 3, 4]);
next = array1d(1..12 ,[4, 7, 8, 9, 3, 5, 6, 12, 10, 11, 2, 1]);
makespan = 848;
----------
assign = array1d(1..12 ,[1, 4, 4, 1, 4, 4, 4, 4, 1, 2, 3, 4]);
next = array1d(1..12 ,[4, 7, 8, 9, 3, 5, 6, 12, 10, 11, 2, 1]);
makespan = 847;
----------
assign = array1d(1..12 ,[1, 4, 4, 1, 4, 4, 4, 4, 1, 2, 3, 4]);
next = array1d(1..12 ,[4, 7, 8, 9, 3, 5, 6, 12, 10, 11, 2, 1]);
makespan = 846;
----------
assign = array1d(1..12 ,[1, 4, 4, 1, 4, 4, 4, 4, 1, 2, 3, 4]);
next = array1d(1..12 ,[4, 7, 8, 9, 3, 5, 6, 12, 10, 11, 2, 1]);
makespan = 845;
----------
assign = array1d(1..12 ,[1, 4, 4, 1, 4, 4, 4, 4, 1, 2, 3, 4]);
next = array1d(1..12 ,[4, 7, 8, 9, 3, 5, 6, 12, 10, 11, 2, 1]);
makespan = 844;
----------
assign = array1d(1..12 ,[1, 4, 4, 1, 4, 4, 4, 4, 1, 2, 3, 4]);
next = array1d(1..12 ,[4, 7, 8, 9, 3, 5, 6, 12, 10, 11, 2, 1]);
makespan = 843;
----------
assign = array1d(1..12 ,[1, 4, 4, 1, 4, 4, 4, 4, 1, 2, 3, 4]);
next = array1d(1..12 ,[4, 7, 8, 9, 3, 5, 6, 12, 10, 11, 2, 1]);
makespan = 842;
----------
assign = array1d(1..12 ,[1, 4, 4, 1, 4, 4, 4, 4, 1, 2, 3, 4]);
next = array1d(1..12 ,[4, 7, 8, 9, 3, 5, 6, 12, 10, 11, 2, 1]);
makespan = 840;
----------
assign = array1d(1..12 ,[1, 4, 4, 1, 4, 4, 4, 4, 1, 2, 3, 4]);
next = array1d(1..12 ,[4, 7, 8, 9, 3, 5, 6, 12, 10, 11, 2, 1]);
makespan = 838;
----------
assign = array1d(1..12 ,[3, 4, 4, 3, 4, 4, 4, 4, 1, 2, 3, 4]);
next = array1d(1..12 ,[11, 7, 8, 1, 3, 5, 12, 2, 10, 4, 6, 9]);
makespan = 836;
----------
assign = array1d(1..12 ,[3, 4, 4, 3, 4, 4, 4, 4, 1, 2, 3, 4]);
next = array1d(1..12 ,[11, 7, 8, 1, 3, 5, 12, 2, 10, 4, 6, 9]);
makespan = 834;
----------
assign = array1d(1..12 ,[3, 4, 4, 3, 4, 4, 4, 4, 1, 2, 3, 4]);
next = array1d(1..12 ,[11, 7, 8, 1, 3, 5, 12, 2, 10, 4, 6, 9]);
makespan = 833;
----------
assign = array1d(1..12 ,[3, 4, 4, 3, 4, 4, 4, 4, 1, 2, 3, 4]);
next = array1d(1..12 ,[11, 7, 8, 1, 3, 5, 12, 2, 10, 4, 6, 9]);
makespan = 832;
----------
assign = array1d(1..12 ,[3, 4, 4, 3, 4, 4, 4, 4, 1, 2, 3, 4]);
next = array1d(1..12 ,[11, 7, 8, 1, 3, 5, 12, 2, 10, 4, 6, 9]);
makespan = 830;
----------
assign = array1d(1..12 ,[3, 4, 4, 3, 4, 4, 4, 4, 1, 2, 3, 4]);
next = array1d(1..12 ,[11, 7, 8, 1, 3, 5, 12, 2, 10, 4, 6, 9]);
makespan = 829;
----------
assign = array1d(1..12 ,[3, 4, 4, 3, 4, 4, 4, 4, 1, 2, 3, 4]);
next = array1d(1..12 ,[11, 7, 8, 1, 3, 5, 12, 2, 10, 4, 6, 9]);
makespan = 828;
----------
assign = array1d(1..12 ,[3, 4, 4, 3, 4, 4, 4, 4, 1, 2, 3, 4]);
next = array1d(1..12 ,[11, 7, 8, 1, 3, 5, 12, 2, 10, 4, 6, 9]);
makespan = 827;
----------
assign = array1d(1..12 ,[3, 4, 4, 3, 4, 4, 4, 4, 1, 2, 3, 4]);
next = array1d(1..12 ,[11, 7, 8, 1, 3, 5, 12, 2, 10, 4, 6, 9]);
makespan = 823;
----------
assign = array1d(1..12 ,[3, 4, 4, 3, 4, 4, 4, 4, 1, 2, 3, 4]);
next = array1d(1..12 ,[11, 7, 8, 1, 3, 5, 12, 2, 10, 4, 6, 9]);
makespan = 819;
----------
assign = array1d(1..12 ,[3, 4, 4, 3, 4, 4, 4, 4, 1, 2, 3, 4]);
next = array1d(1..12 ,[11, 7, 8, 1, 3, 5, 12, 2, 10, 4, 6, 9]);
makespan = 818;
----------
assign = array1d(1..12 ,[3, 4, 4, 3, 4, 4, 4, 4, 1, 2, 3, 4]);
next = array1d(1..12 ,[11, 7, 8, 1, 3, 5, 12, 2, 10, 4, 6, 9]);
makespan = 817;
----------
assign = array1d(1..12 ,[3, 4, 4, 3, 4, 4, 4, 4, 1, 2, 3, 4]);
next = array1d(1..12 ,[11, 7, 8, 1, 3, 5, 12, 2, 10, 4, 6, 9]);
makespan = 814;
----------
assign = array1d(1..12 ,[3, 4, 4, 3, 4, 4, 4, 4, 1, 2, 3, 4]);
next = array1d(1..12 ,[11, 7, 8, 1, 3, 5, 12, 2, 10, 4, 6, 9]);
makespan = 813;
----------
assign = array1d(1..12 ,[3, 4, 4, 3, 4, 4, 4, 4, 1, 2, 3, 4]);
next = array1d(1..12 ,[11, 7, 8, 1, 3, 5, 12, 2, 10, 4, 6, 9]);
makespan = 812;
----------
assign = array1d(1..12 ,[3, 4, 4, 3, 4, 4, 4, 4, 1, 2, 3, 4]);
next = array1d(1..12 ,[11, 7, 8, 1, 3, 5, 12, 2, 10, 4, 6, 9]);
makespan = 811;
----------
assign = array1d(1..12 ,[3, 4, 4, 3, 4, 4, 4, 4, 1, 2, 3, 4]);
next = array1d(1..12 ,[11, 7, 8, 1, 3, 5, 12, 2, 10, 4, 6, 9]);
makespan = 809;
----------
assign = array1d(1..12 ,[3, 4, 4, 3, 4, 4, 4, 4, 1, 2, 3, 4]);
next = array1d(1..12 ,[11, 7, 8, 1, 3, 5, 12, 2, 10, 4, 6, 9]);
makespan = 807;
----------
assign = array1d(1..12 ,[3, 4, 4, 3, 4, 4, 4, 4, 1, 2, 3, 4]);
next = array1d(1..12 ,[11, 7, 8, 1, 3, 5, 12, 2, 10, 4, 6, 9]);
makespan = 803;
----------
assign = array1d(1..12 ,[3, 3, 4, 3, 4, 4, 4, 4, 1, 2, 3, 4]);
next = array1d(1..12 ,[11, 1, 8, 2, 3, 5, 6, 12, 10, 4, 7, 9]);
makespan = 802;
----------
assign = array1d(1..12 ,[1, 1, 4, 1, 4, 4, 4, 4, 1, 2, 3, 4]);
next = array1d(1..12 ,[9, 1, 8, 2, 3, 5, 6, 12, 10, 11, 7, 4]);
makespan = 799;
----------
assign = array1d(1..12 ,[3, 3, 4, 3, 4, 4, 4, 4, 1, 2, 3, 4]);
next = array1d(1..12 ,[11, 1, 8, 2, 3, 5, 6, 12, 10, 4, 7, 9]);
makespan = 798;
----------
assign = array1d(1..12 ,[1, 1, 4, 1, 4, 4, 4, 4, 1, 2, 3, 4]);
next = array1d(1..12 ,[9, 1, 8, 2, 3, 5, 6, 12, 10, 11, 7, 4]);
makespan = 797;
----------
assign = array1d(1..12 ,[3, 3, 4, 3, 4, 4, 4, 4, 1, 2, 3, 4]);
next = array1d(1..12 ,[11, 1, 8, 2, 3, 5, 6, 12, 10, 4, 7, 9]);
makespan = 796;
----------
assign = array1d(1..12 ,[1, 1, 4, 1, 4, 4, 4, 4, 1, 2, 3, 4]);
next = array1d(1..12 ,[9, 1, 8, 2, 3, 5, 6, 12, 10, 11, 7, 4]);
makespan = 792;
----------
assign = array1d(1..12 ,[3, 3, 4, 3, 4, 4, 4, 4, 1, 2, 3, 4]);
next = array1d(1..12 ,[11, 1, 8, 2, 3, 5, 6, 12, 10, 4, 7, 9]);
makespan = 790;
----------
assign = array1d(1..12 ,[1, 1, 4, 1, 4, 4, 4, 4, 1, 2, 3, 4]);
next = array1d(1..12 ,[9, 1, 8, 2, 3, 5, 6, 12, 10, 11, 7, 4]);
makespan = 788;
----------
assign = array1d(1..12 ,[3, 3, 4, 3, 4, 4, 4, 4, 1, 2, 3, 4]);
next = array1d(1..12 ,[11, 1, 8, 2, 3, 5, 6, 12, 10, 4, 7, 9]);
makespan = 786;
----------
assign = array1d(1..12 ,[1, 1, 4, 1, 4, 4, 4, 4, 1, 2, 3, 4]);
next = array1d(1..12 ,[9, 1, 8, 2, 3, 5, 6, 12, 10, 11, 7, 4]);
makespan = 784;
----------
assign = array1d(1..12 ,[3, 3, 4, 3, 4, 4, 4, 4, 1, 2, 3, 4]);
next = array1d(1..12 ,[11, 1, 8, 2, 3, 5, 6, 12, 10, 4, 7, 9]);
makespan = 783;
----------
assign = array1d(1..12 ,[1, 1, 4, 1, 4, 4, 4, 4, 1, 2, 3, 4]);
next = array1d(1..12 ,[9, 1, 8, 2, 3, 5, 6, 12, 10, 11, 7, 4]);
makespan = 782;
----------
assign = array1d(1..12 ,[3, 3, 4, 3, 4, 4, 4, 4, 1, 2, 3, 4]);
next = array1d(1..12 ,[11, 1, 8, 2, 3, 5, 6, 12, 10, 4, 7, 9]);
makespan = 781;
----------
assign = array1d(1..12 ,[1, 1, 4, 1, 4, 4, 4, 4, 1, 2, 3, 4]);
next = array1d(1..12 ,[9, 1, 8, 2, 3, 5, 6, 12, 10, 11, 7, 4]);
makespan = 780;
----------
assign = array1d(1..12 ,[3, 3, 4, 3, 4, 4, 4, 4, 1, 2, 3, 4]);
next = array1d(1..12 ,[11, 1, 8, 2, 3, 5, 6, 12, 10, 4, 7, 9]);
makespan = 778;
----------
assign = array1d(1..12 ,[1, 1, 4, 1, 4, 4, 4, 4, 1, 2, 3, 4]);
next = array1d(1..12 ,[9, 1, 8, 2, 3, 5, 6, 12, 10, 11, 7, 4]);
makespan = 777;
----------
assign = array1d(1..12 ,[3, 3, 4, 3, 4, 4, 4, 4, 1, 2, 3, 4]);
next = array1d(1..12 ,[11, 1, 8, 2, 3, 5, 6, 12, 10, 4, 7, 9]);
makespan = 776;
----------
assign = array1d(1..12 ,[1, 1, 4, 1, 4, 4, 4, 4, 1, 2, 3, 4]);
next = array1d(1..12 ,[9, 1, 8, 2, 3, 5, 6, 12, 10, 11, 7, 4]);
makespan = 775;
----------
assign = array1d(1..12 ,[3, 3, 4, 3, 4, 4, 4, 4, 1, 2, 3, 4]);
next = array1d(1..12 ,[11, 1, 8, 2, 3, 5, 6, 12, 10, 4, 7, 9]);
makespan = 773;
----------
assign = array1d(1..12 ,[1, 1, 4, 1, 4, 4, 4, 4, 1, 2, 3, 4]);
next = array1d(1..12 ,[9, 1, 8, 2, 3, 5, 6, 12, 10, 11, 7, 4]);
makespan = 771;
----------
assign = array1d(1..12 ,[3, 3, 4, 3, 4, 4, 4, 4, 1, 2, 3, 4]);
next = array1d(1..12 ,[11, 1, 8, 2, 3, 5, 6, 12, 10, 4, 7, 9]);
makespan = 769;
----------
assign = array1d(1..12 ,[1, 1, 4, 1, 4, 4, 4, 4, 1, 2, 3, 4]);
next = array1d(1..12 ,[9, 1, 8, 2, 3, 5, 6, 12, 10, 11, 7, 4]);
makespan = 767;
----------
assign = array1d(1..12 ,[3, 3, 4, 3, 4, 4, 4, 4, 1, 2, 3, 4]);
next = array1d(1..12 ,[11, 1, 8, 2, 3, 5, 6, 12, 10, 4, 7, 9]);
makespan = 766;
----------
assign = array1d(1..12 ,[1, 1, 4, 1, 4, 4, 4, 4, 1, 2, 3, 4]);
next = array1d(1..12 ,[9, 1, 8, 2, 3, 5, 6, 12, 10, 11, 7, 4]);
makespan = 765;
----------
assign = array1d(1..12 ,[3, 3, 4, 3, 4, 4, 4, 4, 1, 2, 3, 4]);
next = array1d(1..12 ,[11, 1, 8, 2, 3, 5, 6, 12, 10, 4, 7, 9]);
makespan = 762;
----------
assign = array1d(1..12 ,[1, 1, 4, 1, 4, 4, 4, 4, 1, 2, 3, 4]);
next = array1d(1..12 ,[9, 1, 8, 2, 3, 5, 6, 12, 10, 11, 7, 4]);
makespan = 761;
----------
assign = array1d(1..12 ,[3, 3, 4, 3, 4, 4, 4, 4, 1, 2, 3, 4]);
next = array1d(1..12 ,[11, 1, 8, 2, 3, 5, 6, 12, 10, 4, 7, 9]);
makespan = 760;
----------
assign = array1d(1..12 ,[1, 1, 4, 1, 4, 4, 4, 4, 1, 2, 3, 4]);
next = array1d(1..12 ,[9, 1, 8, 2, 3, 5, 6, 12, 10, 11, 7, 4]);
makespan = 758;
----------
assign = array1d(1..12 ,[3, 3, 4, 3, 4, 4, 4, 4, 1, 2, 3, 4]);
next = array1d(1..12 ,[11, 1, 8, 2, 3, 5, 6, 12, 10, 4, 7, 9]);
makespan = 756;
----------
assign = array1d(1..12 ,[1, 1, 4, 1, 4, 4, 4, 4, 1, 2, 3, 4]);
next = array1d(1..12 ,[9, 1, 8, 2, 3, 5, 6, 12, 10, 11, 7, 4]);
makespan = 752;
----------
assign = array1d(1..12 ,[3, 3, 4, 3, 4, 4, 4, 4, 1, 2, 3, 4]);
next = array1d(1..12 ,[11, 1, 8, 2, 3, 5, 6, 12, 10, 4, 7, 9]);
makespan = 751;
----------
assign = array1d(1..12 ,[1, 1, 4, 1, 4, 4, 4, 4, 1, 2, 3, 4]);
next = array1d(1..12 ,[9, 1, 8, 2, 3, 5, 6, 12, 10, 11, 7, 4]);
makespan = 750;
----------
assign = array1d(1..12 ,[3, 3, 4, 3, 4, 4, 4, 4, 1, 2, 3, 4]);
next = array1d(1..12 ,[11, 1, 8, 2, 3, 5, 6, 12, 10, 4, 7, 9]);
makespan = 747;
----------
assign = array1d(1..12 ,[1, 1, 4, 1, 4, 4, 4, 4, 1, 2, 3, 4]);
next = array1d(1..12 ,[9, 1, 8, 2, 3, 5, 6, 12, 10, 11, 7, 4]);
makespan = 746;
----------
assign = array1d(1..12 ,[3, 3, 4, 3, 4, 4, 4, 4, 1, 2, 3, 4]);
next = array1d(1..12 ,[11, 1, 8, 2, 3, 5, 6, 12, 10, 4, 7, 9]);
makespan = 745;
----------
assign = array1d(1..12 ,[1, 1, 4, 1, 4, 4, 4, 4, 1, 2, 3, 4]);
next = array1d(1..12 ,[9, 1, 8, 2, 3, 5, 6, 12, 10, 11, 7, 4]);
makespan = 741;
----------
assign = array1d(1..12 ,[3, 3, 4, 3, 4, 4, 4, 4, 1, 2, 3, 4]);
next = array1d(1..12 ,[11, 1, 8, 2, 3, 5, 6, 12, 10, 4, 7, 9]);
makespan = 737;
----------
assign = array1d(1..12 ,[1, 1, 4, 1, 4, 4, 4, 4, 1, 2, 3, 4]);
next = array1d(1..12 ,[9, 1, 8, 2, 3, 5, 6, 12, 10, 11, 7, 4]);
makespan = 736;
----------
assign = array1d(1..12 ,[3, 3, 4, 3, 4, 4, 4, 4, 1, 2, 3, 4]);
next = array1d(1..12 ,[11, 1, 8, 2, 3, 5, 6, 12, 10, 4, 7, 9]);
makespan = 735;
----------
assign = array1d(1..12 ,[1, 1, 4, 1, 4, 4, 4, 4, 1, 2, 3, 4]);
next = array1d(1..12 ,[9, 1, 8, 2, 3, 5, 6, 12, 10, 11, 7, 4]);
makespan = 733;
----------
assign = array1d(1..12 ,[3, 3, 4, 3, 4, 4, 4, 4, 1, 2, 3, 4]);
next = array1d(1..12 ,[11, 1, 8, 2, 3, 5, 6, 12, 10, 4, 7, 9]);
makespan = 731;
----------
assign = array1d(1..12 ,[1, 1, 4, 1, 4, 4, 4, 4, 1, 2, 3, 4]);
next = array1d(1..12 ,[9, 1, 8, 2, 3, 5, 6, 12, 10, 11, 7, 4]);
makespan = 729;
----------
assign = array1d(1..12 ,[3, 3, 4, 3, 4, 4, 4, 4, 1, 2, 3, 4]);
next = array1d(1..12 ,[11, 1, 8, 2, 3, 5, 6, 12, 10, 4, 7, 9]);
makespan = 721;
----------
assign = array1d(1..12 ,[1, 1, 4, 1, 4, 4, 4, 4, 1, 2, 3, 4]);
next = array1d(1..12 ,[9, 1, 8, 2, 3, 5, 6, 12, 10, 11, 7, 4]);
makespan = 720;
----------
assign = array1d(1..12 ,[3, 3, 4, 3, 4, 4, 4, 4, 1, 2, 3, 4]);
next = array1d(1..12 ,[11, 1, 8, 2, 3, 5, 6, 12, 10, 4, 7, 9]);
makespan = 719;
----------
assign = array1d(1..12 ,[1, 1, 4, 1, 4, 4, 4, 4, 1, 2, 3, 4]);
next = array1d(1..12 ,[9, 1, 8, 2, 3, 5, 6, 12, 10, 11, 7, 4]);
makespan = 717;
----------
assign = array1d(1..12 ,[3, 3, 4, 3, 4, 4, 4, 4, 1, 2, 3, 4]);
next = array1d(1..12 ,[11, 1, 8, 2, 3, 5, 6, 12, 10, 4, 7, 9]);
makespan = 715;
----------
assign = array1d(1..12 ,[1, 1, 4, 1, 4, 4, 4, 4, 1, 2, 3, 4]);
next = array1d(1..12 ,[9, 1, 8, 2, 3, 5, 6, 12, 10, 11, 7, 4]);
makespan = 714;
----------
assign = array1d(1..12 ,[3, 3, 4, 3, 4, 4, 4, 4, 1, 2, 3, 4]);
next = array1d(1..12 ,[11, 1, 8, 2, 3, 5, 6, 12, 10, 4, 7, 9]);
makespan = 713;
----------
assign = array1d(1..12 ,[1, 1, 4, 1, 4, 4, 4, 4, 1, 2, 3, 4]);
next = array1d(1..12 ,[9, 1, 8, 2, 3, 5, 6, 12, 10, 11, 7, 4]);
makespan = 710;
----------
assign = array1d(1..12 ,[3, 3, 4, 3, 4, 4, 4, 4, 1, 2, 3, 4]);
next = array1d(1..12 ,[11, 1, 8, 2, 3, 5, 6, 12, 10, 4, 7, 9]);
makespan = 706;
----------
assign = array1d(1..12 ,[1, 1, 4, 1, 4, 4, 4, 4, 1, 2, 3, 4]);
next = array1d(1..12 ,[9, 1, 8, 2, 3, 5, 6, 12, 10, 11, 7, 4]);
makespan = 704;
----------
assign = array1d(1..12 ,[3, 3, 4, 3, 4, 4, 4, 4, 1, 2, 3, 4]);
next = array1d(1..12 ,[11, 1, 8, 2, 3, 5, 6, 12, 10, 4, 7, 9]);
makespan = 700;
----------
assign = array1d(1..12 ,[1, 1, 4, 1, 4, 4, 4, 4, 1, 2, 3, 4]);
next = array1d(1..12 ,[9, 1, 8, 2, 3, 5, 6, 12, 10, 11, 7, 4]);
makespan = 699;
----------
assign = array1d(1..12 ,[3, 3, 4, 3, 4, 4, 4, 4, 1, 2, 3, 4]);
next = array1d(1..12 ,[11, 1, 8, 2, 3, 5, 6, 12, 10, 4, 7, 9]);
makespan = 698;
----------
assign = array1d(1..12 ,[1, 1, 4, 1, 4, 4, 4, 4, 1, 2, 3, 4]);
next = array1d(1..12 ,[9, 1, 8, 2, 3, 5, 6, 12, 10, 11, 7, 4]);
makespan = 693;
----------
assign = array1d(1..12 ,[3, 3, 4, 3, 4, 4, 4, 4, 1, 2, 3, 4]);
next = array1d(1..12 ,[11, 1, 8, 2, 3, 5, 6, 12, 10, 4, 7, 9]);
makespan = 691;
----------
assign = array1d(1..12 ,[1, 1, 4, 1, 4, 4, 4, 4, 1, 2, 3, 4]);
next = array1d(1..12 ,[9, 1, 8, 2, 3, 5, 6, 12, 10, 11, 7, 4]);
makespan = 689;
----------
assign = array1d(1..12 ,[3, 3, 4, 3, 4, 4, 4, 4, 1, 2, 3, 4]);
next = array1d(1..12 ,[11, 1, 8, 2, 3, 5, 6, 12, 10, 4, 7, 9]);
makespan = 685;
----------
assign = array1d(1..12 ,[1, 1, 4, 1, 4, 4, 4, 4, 1, 2, 3, 4]);
next = array1d(1..12 ,[9, 1, 8, 2, 3, 5, 6, 12, 10, 11, 7, 4]);
makespan = 684;
----------
assign = array1d(1..12 ,[3, 3, 4, 3, 4, 4, 4, 4, 1, 2, 3, 4]);
next = array1d(1..12 ,[11, 1, 8, 2, 3, 5, 6, 12, 10, 4, 7, 9]);
makespan = 683;
----------
assign = array1d(1..12 ,[1, 1, 4, 1, 4, 4, 4, 4, 1, 2, 3, 4]);
next = array1d(1..12 ,[9, 1, 8, 2, 3, 5, 6, 12, 10, 11, 7, 4]);
makespan = 679;
----------
assign = array1d(1..12 ,[3, 3, 4, 3, 4, 4, 4, 4, 1, 2, 3, 4]);
next = array1d(1..12 ,[11, 1, 8, 2, 3, 5, 6, 12, 10, 4, 7, 9]);
makespan = 674;
----------
assign = array1d(1..12 ,[1, 1, 4, 1, 4, 4, 4, 4, 1, 2, 3, 4]);
next = array1d(1..12 ,[9, 1, 8, 2, 3, 5, 6, 12, 10, 11, 7, 4]);
makespan = 670;
----------
assign = array1d(1..12 ,[3, 3, 4, 3, 4, 4, 4, 4, 1, 2, 3, 4]);
next = array1d(1..12 ,[11, 1, 8, 2, 3, 5, 6, 12, 10, 4, 7, 9]);
makespan = 668;
----------
assign = array1d(1..12 ,[1, 1, 4, 1, 4, 4, 4, 4, 1, 2, 3, 4]);
next = array1d(1..12 ,[9, 1, 8, 2, 3, 5, 6, 12, 10, 11, 7, 4]);
makespan = 667;
----------
assign = array1d(1..12 ,[3, 3, 4, 3, 4, 4, 4, 4, 1, 2, 3, 4]);
next = array1d(1..12 ,[11, 1, 8, 2, 3, 5, 6, 12, 10, 4, 7, 9]);
makespan = 666;
----------
assign = array1d(1..12 ,[1, 1, 4, 1, 4, 4, 4, 4, 1, 2, 3, 4]);
next = array1d(1..12 ,[9, 1, 8, 2, 3, 5, 12, 7, 10, 11, 6, 4]);
makespan = 659;
----------
assign = array1d(1..12 ,[3, 3, 4, 3, 4, 4, 4, 4, 1, 2, 3, 4]);
next = array1d(1..12 ,[11, 1, 8, 2, 3, 5, 12, 7, 10, 4, 6, 9]);
makespan = 657;
----------
assign = array1d(1..12 ,[1, 1, 4, 4, 4, 4, 1, 4, 1, 2, 3, 4]);
next = array1d(1..12 ,[2, 7, 8, 6, 3, 5, 9, 12, 10, 11, 4, 1]);
makespan = 653;
----------
assign = array1d(1..12 ,[1, 1, 4, 4, 4, 4, 1, 4, 1, 2, 3, 4]);
next = array1d(1..12 ,[2, 7, 8, 6, 3, 5, 9, 12, 10, 11, 4, 1]);
makespan = 642;
----------
assign = array1d(1..12 ,[1, 1, 4, 4, 4, 4, 1, 4, 1, 2, 3, 4]);
next = array1d(1..12 ,[2, 7, 8, 6, 3, 5, 9, 12, 10, 11, 4, 1]);
makespan = 629;
----------
assign = array1d(1..12 ,[1, 1, 4, 1, 4, 4, 1, 4, 1, 2, 3, 4]);
next = array1d(1..12 ,[4, 7, 8, 2, 3, 5, 9, 12, 10, 11, 6, 1]);
makespan = 628;
----------
assign = array1d(1..12 ,[1, 1, 4, 1, 4, 4, 1, 4, 1, 2, 3, 4]);
next = array1d(1..12 ,[4, 7, 8, 2, 3, 5, 9, 12, 10, 11, 6, 1]);
makespan = 618;
----------
assign = array1d(1..12 ,[1, 1, 4, 1, 4, 4, 1, 4, 1, 2, 3, 4]);
next = array1d(1..12 ,[4, 7, 8, 2, 3, 5, 9, 12, 10, 11, 6, 1]);
makespan = 616;
----------
assign = array1d(1..12 ,[1, 1, 4, 1, 4, 4, 1, 4, 1, 2, 3, 4]);
next = array1d(1..12 ,[4, 7, 8, 2, 3, 5, 9, 12, 10, 11, 6, 1]);
makespan = 596;
----------
assign = array1d(1..12 ,[1, 1, 4, 1, 4, 4, 1, 4, 1, 2, 3, 4]);
next = array1d(1..12 ,[4, 7, 8, 2, 3, 5, 9, 12, 10, 11, 6, 1]);
makespan = 589;
----------
assign = array1d(1..12 ,[1, 1, 4, 1, 4, 4, 1, 4, 1, 2, 3, 4]);
next = array1d(1..12 ,[4, 7, 8, 2, 3, 5, 9, 12, 10, 11, 6, 1]);
makespan = 575;
----------
assign = array1d(1..12 ,[1, 1, 4, 1, 4, 4, 1, 4, 1, 2, 3, 4]);
next = array1d(1..12 ,[4, 7, 8, 2, 3, 5, 9, 12, 10, 11, 6, 1]);
makespan = 564;
----------
assign = array1d(1..12 ,[1, 1, 4, 1, 4, 4, 1, 4, 1, 2, 3, 4]);
next = array1d(1..12 ,[4, 7, 8, 2, 3, 5, 9, 12, 10, 11, 6, 1]);
makespan = 540;
----------
assign = array1d(1..12 ,[1, 1, 4, 1, 4, 4, 1, 4, 1, 2, 3, 4]);
next = array1d(1..12 ,[4, 7, 8, 2, 3, 5, 9, 12, 10, 11, 6, 1]);
makespan = 529;
----------
assign = array1d(1..12 ,[1, 1, 4, 1, 4, 4, 1, 4, 1, 2, 3, 4]);
next = array1d(1..12 ,[4, 7, 8, 2, 3, 5, 9, 12, 10, 11, 6, 1]);
makespan = 500;
----------
assign = array1d(1..12 ,[2, 2, 4, 2, 4, 4, 2, 4, 1, 2, 3, 4]);
next = array1d(1..12 ,[4, 7, 8, 2, 3, 5, 10, 12, 1, 11, 6, 9]);
makespan = 497;
----------
assign = array1d(1..12 ,[2, 2, 4, 2, 4, 4, 2, 4, 1, 2, 3, 4]);
next = array1d(1..12 ,[4, 7, 12, 2, 3, 5, 10, 6, 1, 11, 8, 9]);
makespan = 484;
----------
assign = array1d(1..12 ,[2, 2, 4, 2, 4, 4, 4, 2, 1, 2, 3, 4]);
next = array1d(1..12 ,[4, 10, 7, 2, 3, 5, 12, 1, 8, 11, 6, 9]);
makespan = 482;
----------
assign = array1d(1..12 ,[1, 3, 4, 4, 4, 4, 3, 1, 1, 2, 3, 4]);
next = array1d(1..12 ,[8, 7, 12, 6, 3, 5, 11, 9, 10, 2, 4, 1]);
makespan = 477;
----------
assign = array1d(1..12 ,[2, 2, 4, 2, 4, 4, 2, 1, 1, 2, 3, 4]);
next = array1d(1..12 ,[4, 7, 12, 2, 3, 5, 10, 9, 1, 11, 6, 8]);
makespan = 441;
----------
assign = array1d(1..12 ,[2, 2, 4, 2, 4, 4, 2, 1, 1, 2, 3, 4]);
next = array1d(1..12 ,[4, 7, 12, 2, 3, 5, 10, 9, 1, 11, 6, 8]);
makespan = 439;
----------
assign = array1d(1..12 ,[1, 3, 4, 3, 4, 4, 3, 2, 1, 2, 3, 4]);
next = array1d(1..12 ,[9, 7, 12, 2, 3, 5, 11, 10, 8, 4, 6, 1]);
makespan = 437;
----------
assign = array1d(1..12 ,[1, 3, 4, 3, 4, 4, 3, 2, 1, 2, 3, 4]);
next = array1d(1..12 ,[9, 7, 12, 2, 3, 5, 11, 10, 8, 4, 6, 1]);
makespan = 427;
----------
assign = array1d(1..12 ,[1, 3, 4, 3, 4, 4, 3, 2, 1, 2, 3, 4]);
next = array1d(1..12 ,[9, 7, 12, 2, 3, 5, 11, 10, 8, 4, 6, 1]);
makespan = 423;
----------
assign = array1d(1..12 ,[1, 3, 4, 3, 4, 4, 3, 2, 1, 2, 3, 4]);
next = array1d(1..12 ,[9, 7, 12, 2, 3, 5, 11, 10, 8, 4, 6, 1]);
makespan = 403;
----------
assign = array1d(1..12 ,[1, 3, 4, 3, 4, 4, 3, 2, 1, 2, 3, 4]);
next = array1d(1..12 ,[9, 7, 12, 2, 3, 5, 11, 10, 8, 4, 6, 1]);
makespan = 385;
----------
assign = array1d(1..12 ,[1, 3, 4, 3, 4, 4, 3, 2, 1, 2, 3, 4]);
next = array1d(1..12 ,[9, 7, 12, 2, 3, 5, 11, 10, 8, 4, 6, 1]);
makespan = 381;
----------
assign = array1d(1..12 ,[3, 2, 4, 2, 4, 4, 2, 3, 1, 2, 3, 4]);
next = array1d(1..12 ,[8, 7, 12, 2, 3, 5, 10, 11, 4, 1, 6, 9]);
makespan = 371;
----------
assign = array1d(1..12 ,[3, 2, 4, 2, 4, 4, 2, 3, 1, 2, 3, 4]);
next = array1d(1..12 ,[8, 7, 12, 2, 3, 5, 10, 11, 4, 1, 6, 9]);
makespan = 361;
----------
assign = array1d(1..12 ,[3, 2, 4, 2, 4, 4, 2, 3, 1, 2, 3, 4]);
next = array1d(1..12 ,[8, 7, 12, 2, 3, 5, 10, 11, 4, 1, 6, 9]);
makespan = 345;
----------
assign = array1d(1..12 ,[1, 2, 1, 2, 4, 4, 2, 3, 1, 2, 3, 4]);
next = array1d(1..12 ,[9, 7, 1, 2, 12, 5, 10, 11, 4, 8, 6, 3]);
makespan = 329;
----------
assign = array1d(1..12 ,[2, 3, 1, 3, 4, 4, 2, 1, 1, 2, 3, 4]);
next = array1d(1..12 ,[7, 11, 8, 2, 12, 5, 10, 9, 1, 4, 6, 3]);
makespan = 319;
----------
assign = array1d(1..12 ,[1, 2, 1, 3, 4, 4, 2, 3, 1, 2, 3, 4]);
next = array1d(1..12 ,[3, 7, 9, 11, 12, 5, 10, 4, 2, 8, 6, 1]);
makespan = 318;
----------
assign = array1d(1..12 ,[1, 4, 3, 2, 1, 2, 4, 3, 1, 2, 3, 4]);
next = array1d(1..12 ,[5, 7, 8, 6, 9, 10, 12, 11, 4, 3, 2, 1]);
makespan = 316;
----------
assign = array1d(1..12 ,[3, 1, 4, 4, 2, 4, 1, 2, 1, 2, 3, 4]);
next = array1d(1..12 ,[11, 7, 4, 6, 10, 12, 9, 5, 8, 1, 3, 2]);
makespan = 315;
----------
assign = array1d(1..12 ,[1, 2, 2, 4, 3, 3, 2, 4, 1, 2, 3, 4]);
next = array1d(1..12 ,[9, 7, 10, 12, 11, 5, 3, 4, 2, 6, 8, 1]);
makespan = 314;
----------
assign = array1d(1..12 ,[3, 3, 4, 4, 2, 4, 1, 2, 1, 2, 3, 4]);
next = array1d(1..12 ,[11, 1, 6, 12, 10, 4, 9, 5, 8, 2, 3, 7]);
makespan = 312;
----------
assign = array1d(1..12 ,[4, 1, 2, 1, 3, 3, 2, 4, 1, 2, 3, 4]);
next = array1d(1..12 ,[8, 9, 7, 2, 11, 5, 10, 12, 3, 6, 1, 4]);
makespan = 310;
----------
assign = array1d(1..12 ,[1, 2, 4, 2, 3, 3, 4, 1, 1, 2, 3, 4]);
next = array1d(1..12 ,[8, 10, 7, 2, 11, 5, 12, 9, 4, 6, 3, 1]);
makespan = 305;
----------
assign = array1d(1..12 ,[1, 2, 4, 2, 4, 3, 3, 1, 1, 2, 3, 4]);
next = array1d(1..12 ,[8, 4, 12, 10, 3, 7, 11, 9, 2, 6, 5, 1]);
makespan = 304;
----------
assign = array1d(1..12 ,[2, 1, 4, 1, 3, 3, 4, 2, 1, 2, 3, 4]);
next = array1d(1..12 ,[8, 4, 7, 9, 11, 5, 12, 10, 1, 6, 3, 2]);
makespan = 301;
----------
assign = array1d(1..12 ,[3, 1, 4, 2, 4, 1, 2, 3, 1, 2, 3, 4]);
next = array1d(1..12 ,[8, 9, 12, 10, 3, 2, 4, 11, 7, 1, 5, 6]);
makespan = 300;
----------
assign = array1d(1..12 ,[3, 1, 4, 2, 1, 2, 4, 3, 1, 2, 3, 4]);
next = array1d(1..12 ,[8, 5, 7, 10, 9, 4, 12, 11, 6, 1, 3, 2]);
makespan = 299;
----------
assign = array1d(1..12 ,[4, 2, 4, 3, 2, 1, 3, 1, 1, 2, 3, 4]);
next = array1d(1..12 ,[3, 5, 12, 11, 10, 8, 4, 9, 2, 7, 1, 6]);
makespan = 298;
----------
assign = array1d(1..12 ,[3, 2, 4, 4, 3, 1, 2, 1, 1, 2, 3, 4]);
next = array1d(1..12 ,[5, 10, 12, 3, 11, 8, 2, 9, 7, 1, 4, 6]);
makespan = 296;
----------
assign = array1d(1..12 ,[3, 1, 4, 4, 3, 1, 2, 2, 1, 2, 3, 4]);
next = array1d(1..12 ,[5, 9, 12, 3, 11, 2, 8, 10, 7, 1, 4, 6]);
makespan = 294;
----------
assign = array1d(1..12 ,[1, 2, 4, 4, 3, 2, 3, 1, 1, 2, 3, 4]);
next = array1d(1..12 ,[8, 6, 12, 3, 7, 10, 11, 9, 2, 5, 4, 1]);
makespan = 292;
----------
assign = array1d(1..12 ,[3, 1, 2, 3, 4, 1, 4, 2, 1, 2, 3, 4]);
next = array1d(1..12 ,[4, 6, 10, 11, 7, 9, 12, 3, 8, 1, 5, 2]);
makespan = 290;
----------
assign = array1d(1..12 ,[3, 1, 4, 2, 1, 3, 2, 4, 1, 2, 3, 4]);
next = array1d(1..12 ,[6, 5, 12, 10, 9, 11, 4, 3, 7, 1, 8, 2]);
makespan = 289;
----------
assign = array1d(1..12 ,[3, 1, 4, 3, 2, 1, 2, 4, 1, 2, 3, 4]);
next = array1d(1..12 ,[4, 9, 12, 11, 7, 2, 10, 3, 5, 1, 8, 6]);
makespan = 288;
----------
assign = array1d(1..12 ,[3, 2, 4, 4, 2, 1, 1, 3, 1, 2, 3, 4]);
next = array1d(1..12 ,[8, 5, 4, 12, 10, 9, 6, 11, 2, 1, 3, 7]);
makespan = 287;
----------
assign = array1d(1..12 ,[1, 2, 4, 1, 2, 3, 3, 4, 1, 2, 3, 4]);
next = array1d(1..12 ,[4, 5, 12, 9, 10, 11, 6, 3, 2, 7, 8, 1]);
makespan = 285;
----------
assign = array1d(1..12 ,[3, 2, 1, 3, 4, 1, 4, 2, 1, 2, 3, 4]);
next = array1d(1..12 ,[4, 8, 6, 11, 12, 9, 5, 10, 2, 1, 7, 3]);
makespan = 283;
----------
assign = array1d(1..12 ,[3, 2, 3, 1, 4, 2, 4, 1, 1, 2, 3, 4]);
next = array1d(1..12 ,[11, 6, 1, 8, 7, 10, 12, 9, 2, 3, 5, 4]);
makespan = 282;
----------
assign = array1d(1..12 ,[2, 3, 1, 2, 4, 3, 1, 4, 1, 2, 3, 4]);
next = array1d(1..12 ,[10, 6, 7, 1, 8, 11, 9, 12, 4, 2, 5, 3]);
makespan = 280;
----------
assign = array1d(1..12 ,[2, 3, 1, 2, 4, 3, 1, 4, 1, 2, 3, 4]);
next = array1d(1..12 ,[10, 6, 7, 1, 8, 11, 9, 12, 4, 2, 5, 3]);
makespan = 279;
----------
assign = array1d(1..12 ,[2, 3, 3, 1, 4, 2, 1, 4, 1, 2, 3, 4]);
next = array1d(1..12 ,[6, 11, 2, 9, 12, 10, 4, 5, 1, 3, 8, 7]);
makespan = 278;
----------
assign = array1d(1..12 ,[3, 1, 1, 2, 4, 3, 2, 4, 1, 2, 3, 4]);
next = array1d(1..12 ,[6, 9, 2, 7, 12, 11, 10, 5, 4, 1, 8, 3]);
makespan = 277;
----------
assign = array1d(1..12 ,[2, 3, 1, 3, 4, 2, 1, 4, 1, 2, 3, 4]);
next = array1d(1..12 ,[6, 4, 7, 11, 12, 10, 9, 5, 1, 2, 8, 3]);
makespan = 276;
----------
assign = array1d(1..12 ,[2, 3, 1, 3, 4, 2, 4, 1, 1, 2, 3, 4]);
next = array1d(1..12 ,[6, 11, 8, 2, 12, 10, 5, 9, 1, 4, 7, 3]);
makespan = 275;
----------
assign = array1d(1..12 ,[3, 1, 4, 2, 1, 3, 2, 4, 1, 2, 3, 4]);
next = array1d(1..12 ,[6, 9, 8, 7, 2, 11, 10, 12, 4, 1, 3, 5]);
makespan = 274;
----------
assign = array1d(1..12 ,[2, 2, 4, 3, 1, 3, 1, 4, 1, 2, 3, 4]);
next = array1d(1..12 ,[2, 10, 8, 11, 7, 4, 9, 12, 1, 6, 3, 5]);
makespan = 273;
----------
assign = array1d(1..12 ,[2, 2, 4, 3, 1, 3, 1, 4, 1, 2, 3, 4]);
next = array1d(1..12 ,[2, 10, 8, 11, 7, 4, 9, 12, 1, 6, 3, 5]);
makespan = 272;
----------
assign = array1d(1..12 ,[2, 2, 4, 3, 4, 3, 1, 1, 1, 2, 3, 4]);
next = array1d(1..12 ,[2, 10, 12, 11, 3, 4, 9, 7, 1, 6, 5, 8]);
makespan = 271;
----------
assign = array1d(1..12 ,[2, 3, 4, 1, 4, 1, 3, 2, 1, 2, 3, 4]);
next = array1d(1..12 ,[10, 7, 12, 9, 3, 4, 11, 1, 8, 2, 5, 6]);
makespan = 270;
----------
assign = array1d(1..12 ,[2, 2, 4, 3, 4, 3, 1, 1, 1, 2, 3, 4]);
next = array1d(1..12 ,[10, 1, 12, 11, 3, 4, 8, 9, 2, 6, 5, 7]);
makespan = 269;
----------
assign = array1d(1..12 ,[2, 2, 2, 4, 1, 4, 3, 3, 1, 2, 3, 4]);
next = array1d(1..12 ,[10, 3, 1, 12, 9, 4, 8, 11, 2, 7, 6, 5]);
makespan = 268;
----------
assign = array1d(1..12 ,[2, 2, 1, 4, 1, 4, 3, 3, 1, 2, 3, 4]);
next = array1d(1..12 ,[2, 10, 9, 12, 3, 4, 8, 11, 1, 7, 6, 5]);
makespan = 267;
----------
assign = array1d(1..12 ,[2, 2, 2, 1, 4, 4, 3, 3, 1, 2, 3, 4]);
next = array1d(1..12 ,[2, 10, 1, 9, 6, 12, 8, 11, 3, 7, 5, 4]);
makespan = 266;
----------
assign = array1d(1..12 ,[2, 2, 2, 4, 1, 1, 3, 4, 1, 2, 3, 4]);
next = array1d(1..12 ,[2, 10, 1, 8, 6, 9, 11, 12, 3, 7, 4, 5]);
makespan = 265;
----------
assign = array1d(1..12 ,[2, 2, 3, 4, 1, 1, 3, 4, 1, 2, 3, 4]);
next = array1d(1..12 ,[2, 10, 7, 8, 6, 9, 11, 12, 1, 3, 4, 5]);
makespan = 264;
----------
assign = array1d(1..12 ,[2, 2, 3, 4, 1, 1, 3, 4, 1, 2, 3, 4]);
next = array1d(1..12 ,[2, 10, 7, 8, 6, 9, 11, 12, 1, 3, 4, 5]);
makespan = 261;
----------
assign = array1d(1..12 ,[2, 2, 3, 4, 1, 1, 3, 4, 1, 2, 3, 4]);
next = array1d(1..12 ,[2, 10, 7, 8, 6, 9, 11, 12, 1, 3, 4, 5]);
makespan = 260;
----------
assign = array1d(1..12 ,[2, 2, 3, 4, 1, 1, 3, 4, 1, 2, 3, 4]);
next = array1d(1..12 ,[2, 10, 7, 8, 6, 9, 11, 12, 1, 3, 4, 5]);
makespan = 259;
----------
assign = array1d(1..12 ,[2, 2, 3, 4, 1, 1, 3, 4, 1, 2, 3, 4]);
next = array1d(1..12 ,[2, 10, 7, 8, 6, 9, 11, 12, 1, 3, 4, 5]);
makespan = 258;
----------
assign = array1d(1..12 ,[2, 2, 3, 4, 1, 1, 3, 4, 1, 2, 3, 4]);
next = array1d(1..12 ,[2, 10, 7, 8, 6, 9, 11, 12, 1, 3, 4, 5]);
makespan = 257;
----------
assign = array1d(1..12 ,[2, 2, 3, 4, 1, 1, 3, 4, 1, 2, 3, 4]);
next = array1d(1..12 ,[2, 10, 7, 8, 6, 9, 11, 12, 1, 3, 4, 5]);
makespan = 256;
----------
assign = array1d(1..12 ,[2, 2, 3, 4, 1, 1, 3, 4, 1, 2, 3, 4]);
next = array1d(1..12 ,[2, 10, 7, 8, 6, 9, 11, 12, 1, 3, 4, 5]);
makespan = 255;
----------
assign = array1d(1..12 ,[2, 2, 3, 4, 1, 1, 3, 4, 1, 2, 3, 4]);
next = array1d(1..12 ,[2, 10, 7, 8, 6, 9, 11, 12, 1, 3, 4, 5]);
makespan = 253;
----------
assign = array1d(1..12 ,[2, 2, 3, 4, 1, 1, 3, 4, 1, 2, 3, 4]);
next = array1d(1..12 ,[2, 10, 7, 8, 6, 9, 11, 12, 1, 3, 4, 5]);
makespan = 252;
----------
assign = array1d(1..12 ,[2, 2, 3, 4, 1, 1, 3, 4, 1, 2, 3, 4]);
next = array1d(1..12 ,[2, 10, 7, 8, 6, 9, 11, 12, 1, 3, 4, 5]);
makespan = 250;
----------
assign = array1d(1..12 ,[2, 2, 3, 4, 1, 1, 3, 4, 1, 2, 3, 4]);
next = array1d(1..12 ,[2, 10, 7, 8, 6, 9, 11, 12, 1, 3, 4, 5]);
makespan = 249;
----------
assign = array1d(1..12 ,[2, 2, 3, 4, 1, 1, 3, 4, 1, 2, 3, 4]);
next = array1d(1..12 ,[2, 10, 7, 8, 6, 9, 11, 12, 1, 3, 4, 5]);
makespan = 248;
----------
assign = array1d(1..12 ,[2, 2, 3, 4, 1, 1, 3, 4, 1, 2, 3, 4]);
next = array1d(1..12 ,[2, 10, 7, 8, 6, 9, 11, 12, 1, 3, 4, 5]);
makespan = 247;
----------
assign = array1d(1..12 ,[2, 2, 3, 4, 1, 1, 3, 4, 1, 2, 3, 4]);
next = array1d(1..12 ,[2, 10, 7, 8, 6, 9, 11, 12, 1, 3, 4, 5]);
makespan = 246;
----------
assign = array1d(1..12 ,[2, 2, 3, 4, 1, 1, 3, 4, 1, 2, 3, 4]);
next = array1d(1..12 ,[2, 10, 7, 8, 6, 9, 11, 12, 1, 3, 4, 5]);
makespan = 245;
----------
assign = array1d(1..12 ,[2, 2, 3, 4, 1, 1, 3, 4, 1, 2, 3, 4]);
next = array1d(1..12 ,[2, 10, 7, 8, 6, 9, 11, 12, 1, 3, 4, 5]);
makespan = 244;
----------
assign = array1d(1..12 ,[2, 2, 3, 4, 1, 1, 3, 4, 1, 2, 3, 4]);
next = array1d(1..12 ,[2, 10, 7, 8, 6, 9, 11, 12, 1, 3, 4, 5]);
makespan = 243;
----------
assign = array1d(1..12 ,[2, 2, 3, 4, 1, 1, 3, 4, 1, 2, 3, 4]);
next = array1d(1..12 ,[2, 10, 7, 8, 6, 9, 11, 12, 1, 3, 4, 5]);
makespan = 242;
----------
assign = array1d(1..12 ,[2, 2, 3, 4, 1, 1, 3, 4, 1, 2, 3, 4]);
next = array1d(1..12 ,[2, 10, 7, 12, 6, 9, 11, 4, 1, 3, 8, 5]);
makespan = 241;
----------
assign = array1d(1..12 ,[2, 2, 3, 4, 1, 1, 3, 4, 1, 2, 3, 4]);
next = array1d(1..12 ,[2, 10, 7, 12, 6, 9, 11, 4, 1, 3, 8, 5]);
makespan = 238;
----------
assign = array1d(1..12 ,[2, 2, 3, 4, 1, 1, 3, 4, 1, 2, 3, 4]);
next = array1d(1..12 ,[2, 10, 7, 12, 6, 9, 11, 4, 1, 3, 8, 5]);
makespan = 237;
----------
assign = array1d(1..12 ,[2, 2, 4, 1, 1, 3, 3, 4, 1, 2, 3, 4]);
next = array1d(1..12 ,[2, 10, 8, 9, 4, 7, 11, 12, 1, 6, 3, 5]);
makespan = 236;
----------
assign = array1d(1..12 ,[2, 2, 4, 3, 1, 1, 3, 4, 1, 2, 3, 4]);
next = array1d(1..12 ,[2, 10, 8, 7, 6, 9, 11, 12, 1, 4, 3, 5]);
makespan = 234;
----------
assign = array1d(1..12 ,[1, 3, 2, 4, 1, 4, 3, 2, 1, 2, 3, 4]);
next = array1d(1..12 ,[9, 7, 8, 12, 1, 4, 11, 10, 3, 2, 6, 5]);
makespan = 233;
----------
assign = array1d(1..12 ,[1, 3, 2, 4, 1, 4, 3, 2, 1, 2, 3, 4]);
next = array1d(1..12 ,[9, 7, 8, 12, 1, 4, 11, 10, 3, 2, 6, 5]);
makespan = 232;
----------
assign = array1d(1..12 ,[1, 3, 2, 4, 1, 4, 3, 2, 1, 2, 3, 4]);
next = array1d(1..12 ,[9, 7, 8, 12, 1, 4, 11, 10, 3, 2, 6, 5]);
makespan = 231;
----------
assign = array1d(1..12 ,[1, 3, 2, 4, 1, 4, 3, 2, 1, 2, 3, 4]);
next = array1d(1..12 ,[9, 7, 8, 12, 1, 4, 11, 10, 3, 2, 6, 5]);
makespan = 229;
----------
assign = array1d(1..12 ,[1, 3, 2, 4, 1, 4, 3, 2, 1, 2, 3, 4]);
next = array1d(1..12 ,[9, 7, 8, 12, 1, 4, 11, 10, 3, 2, 6, 5]);
makespan = 228;
----------
assign = array1d(1..12 ,[1, 3, 2, 4, 1, 4, 3, 2, 1, 2, 3, 4]);
next = array1d(1..12 ,[9, 7, 8, 12, 1, 4, 11, 10, 3, 2, 6, 5]);
makespan = 227;
----------
assign = array1d(1..12 ,[1, 3, 2, 4, 1, 4, 3, 2, 1, 2, 3, 4]);
next = array1d(1..12 ,[9, 7, 8, 12, 1, 4, 11, 10, 3, 2, 6, 5]);
makespan = 226;
----------
assign = array1d(1..12 ,[1, 3, 2, 4, 1, 4, 3, 2, 1, 2, 3, 4]);
next = array1d(1..12 ,[9, 7, 8, 12, 1, 4, 11, 10, 3, 2, 6, 5]);
makespan = 224;
----------
assign = array1d(1..12 ,[1, 3, 2, 4, 1, 4, 3, 2, 1, 2, 3, 4]);
next = array1d(1..12 ,[9, 7, 8, 12, 1, 4, 11, 10, 3, 2, 6, 5]);
makespan = 223;
----------
assign = array1d(1..12 ,[1, 3, 2, 4, 1, 4, 3, 2, 1, 2, 3, 4]);
next = array1d(1..12 ,[9, 7, 8, 12, 1, 4, 11, 10, 3, 2, 6, 5]);
makespan = 222;
----------
assign = array1d(1..12 ,[1, 3, 2, 4, 1, 4, 3, 2, 1, 2, 3, 4]);
next = array1d(1..12 ,[9, 7, 8, 12, 1, 4, 11, 10, 3, 2, 6, 5]);
makespan = 221;
----------
assign = array1d(1..12 ,[1, 3, 2, 4, 1, 4, 3, 2, 1, 2, 3, 4]);
next = array1d(1..12 ,[9, 7, 8, 12, 1, 4, 11, 10, 3, 2, 6, 5]);
makespan = 220;
----------
assign = array1d(1..12 ,[1, 3, 2, 4, 4, 1, 3, 2, 1, 2, 3, 4]);
next = array1d(1..12 ,[6, 7, 8, 5, 12, 9, 11, 10, 3, 2, 4, 1]);
makespan = 218;
----------
assign = array1d(1..12 ,[3, 1, 2, 4, 1, 4, 3, 2, 1, 2, 3, 4]);
next = array1d(1..12 ,[11, 5, 8, 12, 9, 4, 1, 10, 3, 7, 6, 2]);
makespan = 216;
----------
assign = array1d(1..12 ,[2, 1, 3, 4, 1, 4, 3, 2, 1, 2, 3, 4]);
next = array1d(1..12 ,[10, 5, 7, 12, 9, 4, 11, 1, 8, 3, 6, 2]);
makespan = 215;
----------
assign = array1d(1..12 ,[2, 4, 3, 1, 2, 4, 3, 1, 1, 2, 3, 4]);
next = array1d(1..12 ,[5, 6, 7, 9, 10, 12, 11, 4, 1, 3, 2, 8]);
makespan = 214;
----------
assign = array1d(1..12 ,[3, 1, 2, 2, 1, 4, 3, 4, 1, 2, 3, 4]);
next = array1d(1..12 ,[11, 5, 4, 10, 9, 12, 1, 6, 3, 7, 8, 2]);
makespan = 212;
----------
assign = array1d(1..12 ,[2, 1, 4, 4, 1, 3, 3, 2, 1, 2, 3, 4]);
next = array1d(1..12 ,[8, 5, 12, 3, 9, 11, 6, 10, 1, 7, 4, 2]);
makespan = 211;
----------
assign = array1d(1..12 ,[2, 3, 4, 1, 2, 3, 4, 1, 1, 2, 3, 4]);
next = array1d(1..12 ,[5, 11, 12, 8, 10, 2, 3, 9, 1, 6, 7, 4]);
makespan = 210;
----------
assign = array1d(1..12 ,[2, 3, 3, 1, 1, 4, 2, 4, 1, 2, 3, 4]);
next = array1d(1..12 ,[7, 11, 2, 5, 9, 12, 10, 6, 1, 3, 8, 4]);
makespan = 209;
----------
assign = array1d(1..12 ,[3, 2, 4, 4, 1, 1, 3, 2, 1, 2, 3, 4]);
next = array1d(1..12 ,[11, 10, 12, 3, 6, 9, 1, 2, 8, 7, 4, 5]);
makespan = 208;
----------
assign = array1d(1..12 ,[3, 1, 2, 4, 1, 4, 3, 2, 1, 2, 3, 4]);
next = array1d(1..12 ,[11, 9, 10, 12, 2, 4, 1, 3, 8, 7, 6, 5]);
makespan = 207;
----------
assign = array1d(1..12 ,[2, 1, 4, 2, 1, 4, 3, 3, 1, 2, 3, 4]);
next = array1d(1..12 ,[10, 9, 6, 1, 2, 12, 11, 7, 4, 8, 3, 5]);
makespan = 206;
----------
assign = array1d(1..12 ,[2, 1, 3, 2, 1, 4, 3, 4, 1, 2, 3, 4]);
next = array1d(1..12 ,[4, 5, 7, 10, 9, 12, 11, 6, 1, 3, 8, 2]);
makespan = 205;
----------
assign = array1d(1..12 ,[2, 3, 3, 1, 1, 4, 2, 4, 1, 2, 3, 4]);
next = array1d(1..12 ,[10, 3, 11, 5, 9, 12, 1, 6, 7, 2, 8, 4]);
makespan = 204;
----------
assign = array1d(1..12 ,[2, 1, 3, 2, 1, 4, 3, 4, 1, 2, 3, 4]);
next = array1d(1..12 ,[4, 5, 11, 10, 9, 12, 3, 6, 1, 7, 8, 2]);
makespan = 203;
----------
assign = array1d(1..12 ,[2, 1, 3, 4, 1, 4, 3, 2, 1, 2, 3, 4]);
next = array1d(1..12 ,[8, 9, 11, 12, 2, 4, 3, 10, 1, 7, 6, 5]);
makespan = 202;
----------
assign = array1d(1..12 ,[2, 1, 4, 4, 1, 2, 3, 3, 1, 2, 3, 4]);
next = array1d(1..12 ,[6, 9, 12, 3, 2, 10, 11, 7, 1, 8, 4, 5]);
makespan = 201;
----------
assign = array1d(1..12 ,[2, 1, 3, 2, 1, 4, 3, 4, 1, 2, 3, 4]);
next = array1d(1..12 ,[4, 9, 11, 10, 2, 12, 3, 6, 1, 7, 8, 5]);
makespan = 200;
----------
assign = array1d(1..12 ,[2, 1, 3, 4, 1, 4, 3, 2, 1, 2, 3, 4]);
next = array1d(1..12 ,[8, 9, 11, 12, 2, 4, 3, 10, 1, 7, 6, 5]);
makespan = 199;
----------
assign = array1d(1..12 ,[2, 2, 4, 1, 1, 4, 3, 3, 1, 2, 3, 4]);
next = array1d(1..12 ,[10, 1, 12, 5, 9, 3, 11, 7, 2, 8, 6, 4]);
makespan = 198;
----------
assign = array1d(1..12 ,[2, 2, 4, 1, 1, 4, 3, 3, 1, 2, 3, 4]);
next = array1d(1..12 ,[10, 1, 12, 5, 9, 3, 11, 7, 2, 8, 6, 4]);
makespan = 197;
----------
assign = array1d(1..12 ,[2, 2, 4, 1, 1, 4, 3, 3, 1, 2, 3, 4]);
next = array1d(1..12 ,[10, 1, 12, 5, 9, 3, 11, 7, 2, 8, 6, 4]);
makespan = 196;
----------
assign = array1d(1..12 ,[2, 2, 4, 1, 1, 4, 3, 3, 1, 2, 3, 4]);
next = array1d(1..12 ,[10, 1, 12, 5, 9, 3, 11, 7, 2, 8, 6, 4]);
makespan = 194;
----------
assign = array1d(1..12 ,[2, 2, 4, 1, 1, 4, 3, 3, 1, 2, 3, 4]);
next = array1d(1..12 ,[2, 10, 12, 5, 9, 3, 11, 7, 1, 8, 6, 4]);
makespan = 193;
----------
assign = array1d(1..12 ,[2, 2, 4, 1, 1, 4, 3, 3, 1, 2, 3, 4]);
next = array1d(1..12 ,[2, 10, 12, 5, 9, 3, 11, 7, 1, 8, 6, 4]);
makespan = 192;
----------
assign = array1d(1..12 ,[2, 2, 4, 1, 1, 4, 3, 3, 1, 2, 3, 4]);
next = array1d(1..12 ,[2, 10, 6, 5, 9, 12, 11, 7, 1, 8, 3, 4]);
makespan = 191;
----------
==========
	Command being timed: "mzn-chuffed lbbd-datasets/Rabadi-2006/dzn-balanced/model.mzn lbbd-datasets/Rabadi-2006/dzn-balanced/8on4Rp50Rs50_2Ameer.dzn"
	User time (seconds): 0.36
	System time (seconds): 0.01
	Percent of CPU this job got: 4%
	Elapsed (wall clock) time (h:mm:ss or m:ss): 0:08.02
	Average shared text size (kbytes): 0
	Average unshared data size (kbytes): 0
	Average stack size (kbytes): 0
	Average total size (kbytes): 0
	Maximum resident set size (kbytes): 40608
	Average resident set size (kbytes): 0
	Major (requiring I/O) page faults: 0
	Minor (reclaiming a frame) page faults: 3662
	Voluntary context switches: 348
	Involuntary context switches: 4
	Swaps: 0
	File system inputs: 0
	File system outputs: 368
	Socket messages sent: 0
	Socket messages received: 0
	Signals delivered: 0
	Page size (bytes): 4096
	Exit status: 0
