+ /usr/bin/timeout 600 /usr/bin/time -v mzn-chuffed lbbd-datasets/Rabadi-2006/dzn-p-dominant/model.mzn lbbd-datasets/Rabadi-2006/dzn-p-dominant/6on2Rp50Rs50_13Ameer.dzn
% No search annotation given. Defaulting to VSIDS!
assign = array1d(1..8 ,[2, 2, 2, 2, 2, 2, 1, 2]);
next = array1d(1..8 ,[2, 3, 4, 5, 6, 8, 1, 7]);
makespan = 1312;
----------
assign = array1d(1..8 ,[2, 2, 2, 2, 2, 2, 1, 2]);
next = array1d(1..8 ,[3, 4, 2, 5, 6, 8, 1, 7]);
makespan = 1277;
----------
assign = array1d(1..8 ,[2, 2, 1, 2, 2, 2, 1, 2]);
next = array1d(1..8 ,[2, 8, 7, 1, 4, 5, 6, 3]);
makespan = 1211;
----------
assign = array1d(1..8 ,[2, 2, 1, 2, 2, 2, 1, 2]);
next = array1d(1..8 ,[2, 8, 7, 1, 4, 5, 6, 3]);
makespan = 1167;
----------
assign = array1d(1..8 ,[2, 2, 1, 2, 2, 2, 1, 2]);
next = array1d(1..8 ,[2, 8, 7, 1, 4, 5, 6, 3]);
makespan = 1160;
----------
assign = array1d(1..8 ,[2, 2, 1, 2, 2, 2, 1, 2]);
next = array1d(1..8 ,[2, 8, 7, 1, 4, 5, 6, 3]);
makespan = 1158;
----------
assign = array1d(1..8 ,[2, 2, 1, 2, 2, 2, 1, 2]);
next = array1d(1..8 ,[2, 8, 7, 1, 4, 5, 6, 3]);
makespan = 1154;
----------
assign = array1d(1..8 ,[2, 2, 1, 2, 2, 2, 1, 2]);
next = array1d(1..8 ,[2, 8, 7, 1, 4, 5, 6, 3]);
makespan = 1153;
----------
assign = array1d(1..8 ,[2, 2, 1, 2, 2, 2, 1, 2]);
next = array1d(1..8 ,[2, 8, 7, 1, 4, 5, 6, 3]);
makespan = 1141;
----------
assign = array1d(1..8 ,[2, 2, 1, 2, 2, 2, 1, 2]);
next = array1d(1..8 ,[2, 8, 7, 1, 4, 5, 6, 3]);
makespan = 1084;
----------
assign = array1d(1..8 ,[2, 2, 1, 2, 2, 2, 1, 2]);
next = array1d(1..8 ,[2, 8, 7, 1, 4, 5, 6, 3]);
makespan = 1057;
----------
assign = array1d(1..8 ,[2, 1, 2, 2, 2, 2, 1, 2]);
next = array1d(1..8 ,[3, 7, 8, 1, 4, 5, 6, 2]);
makespan = 1030;
----------
assign = array1d(1..8 ,[2, 2, 1, 2, 2, 2, 1, 2]);
next = array1d(1..8 ,[8, 6, 7, 1, 4, 5, 2, 3]);
makespan = 1020;
----------
assign = array1d(1..8 ,[2, 1, 1, 2, 2, 2, 1, 2]);
next = array1d(1..8 ,[8, 3, 7, 1, 4, 5, 6, 2]);
makespan = 1015;
----------
assign = array1d(1..8 ,[2, 1, 1, 2, 2, 2, 1, 2]);
next = array1d(1..8 ,[8, 3, 7, 1, 4, 5, 6, 2]);
makespan = 1013;
----------
assign = array1d(1..8 ,[2, 1, 1, 2, 2, 2, 1, 2]);
next = array1d(1..8 ,[8, 3, 7, 1, 4, 5, 6, 2]);
makespan = 1009;
----------
assign = array1d(1..8 ,[2, 1, 1, 2, 2, 2, 1, 2]);
next = array1d(1..8 ,[8, 3, 7, 1, 4, 5, 6, 2]);
makespan = 1008;
----------
assign = array1d(1..8 ,[2, 1, 1, 2, 2, 2, 1, 2]);
next = array1d(1..8 ,[8, 3, 7, 1, 4, 5, 6, 2]);
makespan = 1006;
----------
assign = array1d(1..8 ,[2, 1, 1, 2, 2, 2, 1, 2]);
next = array1d(1..8 ,[8, 3, 7, 1, 4, 5, 6, 2]);
makespan = 1002;
----------
assign = array1d(1..8 ,[2, 1, 1, 2, 2, 2, 1, 2]);
next = array1d(1..8 ,[8, 3, 7, 1, 4, 5, 6, 2]);
makespan = 1001;
----------
assign = array1d(1..8 ,[2, 1, 1, 2, 2, 2, 1, 2]);
next = array1d(1..8 ,[8, 3, 7, 1, 4, 5, 6, 2]);
makespan = 1000;
----------
assign = array1d(1..8 ,[2, 1, 1, 2, 2, 2, 1, 2]);
next = array1d(1..8 ,[8, 3, 7, 1, 4, 5, 6, 2]);
makespan = 999;
----------
assign = array1d(1..8 ,[2, 1, 1, 2, 2, 2, 1, 2]);
next = array1d(1..8 ,[8, 3, 7, 1, 4, 5, 6, 2]);
makespan = 996;
----------
assign = array1d(1..8 ,[2, 1, 1, 2, 2, 2, 1, 2]);
next = array1d(1..8 ,[8, 3, 7, 1, 4, 5, 6, 2]);
makespan = 995;
----------
assign = array1d(1..8 ,[2, 1, 1, 2, 2, 2, 1, 2]);
next = array1d(1..8 ,[8, 3, 7, 1, 4, 5, 6, 2]);
makespan = 989;
----------
assign = array1d(1..8 ,[2, 1, 1, 2, 2, 2, 1, 2]);
next = array1d(1..8 ,[8, 3, 7, 1, 4, 5, 6, 2]);
makespan = 987;
----------
assign = array1d(1..8 ,[2, 1, 1, 2, 2, 2, 1, 2]);
next = array1d(1..8 ,[8, 3, 7, 1, 4, 5, 6, 2]);
makespan = 982;
----------
assign = array1d(1..8 ,[2, 1, 1, 2, 2, 2, 1, 2]);
next = array1d(1..8 ,[8, 3, 7, 1, 4, 5, 6, 2]);
makespan = 975;
----------
assign = array1d(1..8 ,[2, 1, 1, 2, 2, 2, 1, 2]);
next = array1d(1..8 ,[8, 3, 7, 1, 4, 5, 6, 2]);
makespan = 966;
----------
assign = array1d(1..8 ,[2, 1, 1, 2, 2, 2, 1, 2]);
next = array1d(1..8 ,[8, 3, 7, 1, 4, 5, 6, 2]);
makespan = 939;
----------
assign = array1d(1..8 ,[2, 1, 1, 2, 2, 2, 1, 2]);
next = array1d(1..8 ,[8, 3, 7, 1, 4, 5, 6, 2]);
makespan = 861;
----------
assign = array1d(1..8 ,[2, 1, 1, 2, 2, 2, 1, 2]);
next = array1d(1..8 ,[8, 3, 7, 1, 4, 5, 6, 2]);
makespan = 857;
----------
assign = array1d(1..8 ,[2, 1, 1, 2, 2, 2, 1, 2]);
next = array1d(1..8 ,[8, 3, 7, 1, 4, 5, 6, 2]);
makespan = 856;
----------
assign = array1d(1..8 ,[2, 1, 1, 2, 2, 2, 1, 2]);
next = array1d(1..8 ,[8, 3, 7, 1, 4, 5, 6, 2]);
makespan = 855;
----------
assign = array1d(1..8 ,[2, 1, 1, 2, 2, 2, 1, 2]);
next = array1d(1..8 ,[8, 3, 7, 1, 4, 5, 6, 2]);
makespan = 854;
----------
assign = array1d(1..8 ,[2, 1, 1, 2, 2, 2, 1, 2]);
next = array1d(1..8 ,[8, 3, 7, 1, 4, 5, 6, 2]);
makespan = 850;
----------
assign = array1d(1..8 ,[2, 1, 1, 2, 2, 2, 1, 2]);
next = array1d(1..8 ,[8, 3, 7, 1, 4, 5, 6, 2]);
makespan = 848;
----------
assign = array1d(1..8 ,[2, 1, 1, 2, 2, 2, 1, 2]);
next = array1d(1..8 ,[8, 3, 7, 1, 4, 5, 6, 2]);
makespan = 847;
----------
assign = array1d(1..8 ,[2, 1, 1, 2, 2, 2, 1, 2]);
next = array1d(1..8 ,[8, 3, 7, 1, 4, 5, 6, 2]);
makespan = 844;
----------
assign = array1d(1..8 ,[2, 1, 1, 2, 2, 2, 1, 2]);
next = array1d(1..8 ,[8, 3, 7, 1, 4, 5, 6, 2]);
makespan = 843;
----------
assign = array1d(1..8 ,[2, 1, 1, 2, 2, 2, 1, 2]);
next = array1d(1..8 ,[8, 3, 7, 1, 4, 5, 6, 2]);
makespan = 841;
----------
assign = array1d(1..8 ,[2, 1, 1, 2, 2, 2, 1, 2]);
next = array1d(1..8 ,[8, 3, 7, 1, 4, 5, 6, 2]);
makespan = 837;
----------
assign = array1d(1..8 ,[2, 1, 1, 2, 2, 2, 1, 2]);
next = array1d(1..8 ,[8, 3, 7, 1, 4, 5, 6, 2]);
makespan = 835;
----------
assign = array1d(1..8 ,[2, 1, 1, 2, 2, 2, 1, 2]);
next = array1d(1..8 ,[8, 3, 7, 1, 4, 5, 6, 2]);
makespan = 831;
----------
assign = array1d(1..8 ,[2, 1, 1, 2, 2, 2, 1, 2]);
next = array1d(1..8 ,[8, 3, 7, 1, 4, 5, 6, 2]);
makespan = 830;
----------
assign = array1d(1..8 ,[2, 1, 1, 2, 2, 2, 1, 2]);
next = array1d(1..8 ,[8, 3, 7, 1, 4, 5, 6, 2]);
makespan = 828;
----------
assign = array1d(1..8 ,[2, 1, 1, 2, 2, 2, 1, 2]);
next = array1d(1..8 ,[8, 3, 7, 1, 4, 5, 6, 2]);
makespan = 824;
----------
assign = array1d(1..8 ,[2, 1, 1, 2, 2, 2, 1, 2]);
next = array1d(1..8 ,[8, 3, 7, 1, 4, 5, 6, 2]);
makespan = 821;
----------
assign = array1d(1..8 ,[2, 1, 1, 2, 2, 2, 1, 2]);
next = array1d(1..8 ,[6, 3, 7, 1, 8, 5, 4, 2]);
makespan = 812;
----------
assign = array1d(1..8 ,[1, 1, 1, 2, 2, 2, 1, 2]);
next = array1d(1..8 ,[3, 1, 7, 8, 4, 5, 6, 2]);
makespan = 781;
----------
assign = array1d(1..8 ,[1, 1, 1, 2, 2, 2, 1, 2]);
next = array1d(1..8 ,[3, 1, 7, 8, 4, 5, 6, 2]);
makespan = 770;
----------
assign = array1d(1..8 ,[1, 1, 1, 2, 2, 2, 1, 2]);
next = array1d(1..8 ,[3, 1, 7, 8, 4, 5, 6, 2]);
makespan = 760;
----------
assign = array1d(1..8 ,[1, 1, 1, 2, 2, 2, 1, 2]);
next = array1d(1..8 ,[3, 1, 7, 8, 4, 5, 6, 2]);
makespan = 709;
----------
assign = array1d(1..8 ,[1, 1, 1, 2, 2, 2, 1, 2]);
next = array1d(1..8 ,[3, 1, 7, 8, 4, 5, 6, 2]);
makespan = 703;
----------
assign = array1d(1..8 ,[1, 1, 1, 2, 2, 2, 1, 2]);
next = array1d(1..8 ,[3, 1, 7, 8, 4, 5, 6, 2]);
makespan = 702;
----------
assign = array1d(1..8 ,[1, 1, 1, 2, 2, 2, 1, 2]);
next = array1d(1..8 ,[3, 1, 7, 8, 4, 5, 6, 2]);
makespan = 698;
----------
assign = array1d(1..8 ,[1, 1, 1, 2, 2, 2, 1, 2]);
next = array1d(1..8 ,[3, 1, 7, 8, 4, 5, 6, 2]);
makespan = 696;
----------
assign = array1d(1..8 ,[1, 1, 1, 2, 2, 2, 1, 2]);
next = array1d(1..8 ,[3, 1, 7, 8, 4, 5, 6, 2]);
makespan = 690;
----------
assign = array1d(1..8 ,[1, 1, 1, 2, 2, 2, 1, 2]);
next = array1d(1..8 ,[3, 1, 7, 8, 4, 5, 6, 2]);
makespan = 689;
----------
assign = array1d(1..8 ,[1, 1, 1, 2, 2, 2, 1, 2]);
next = array1d(1..8 ,[3, 1, 7, 8, 4, 5, 6, 2]);
makespan = 686;
----------
assign = array1d(1..8 ,[1, 1, 1, 2, 2, 2, 1, 2]);
next = array1d(1..8 ,[3, 1, 7, 8, 4, 5, 6, 2]);
makespan = 685;
----------
assign = array1d(1..8 ,[1, 1, 1, 2, 2, 2, 1, 2]);
next = array1d(1..8 ,[3, 1, 7, 8, 4, 5, 6, 2]);
makespan = 683;
----------
assign = array1d(1..8 ,[1, 1, 1, 2, 2, 2, 1, 2]);
next = array1d(1..8 ,[3, 1, 7, 8, 4, 5, 6, 2]);
makespan = 679;
----------
assign = array1d(1..8 ,[1, 1, 1, 2, 2, 2, 1, 2]);
next = array1d(1..8 ,[3, 1, 7, 8, 4, 5, 6, 2]);
makespan = 677;
----------
assign = array1d(1..8 ,[1, 1, 1, 2, 2, 2, 1, 2]);
next = array1d(1..8 ,[3, 1, 7, 8, 4, 5, 6, 2]);
makespan = 676;
----------
assign = array1d(1..8 ,[1, 1, 1, 2, 2, 2, 1, 2]);
next = array1d(1..8 ,[3, 1, 7, 8, 4, 5, 6, 2]);
makespan = 672;
----------
assign = array1d(1..8 ,[1, 1, 1, 2, 2, 2, 1, 2]);
next = array1d(1..8 ,[3, 1, 7, 8, 4, 5, 6, 2]);
makespan = 636;
----------
assign = array1d(1..8 ,[1, 1, 1, 2, 2, 2, 1, 2]);
next = array1d(1..8 ,[3, 1, 7, 8, 4, 5, 6, 2]);
makespan = 612;
----------
assign = array1d(1..8 ,[1, 1, 1, 2, 2, 2, 1, 2]);
next = array1d(1..8 ,[3, 1, 7, 6, 8, 5, 4, 2]);
makespan = 605;
----------
assign = array1d(1..8 ,[1, 2, 1, 1, 2, 2, 1, 2]);
next = array1d(1..8 ,[7, 6, 4, 1, 8, 5, 2, 3]);
makespan = 603;
----------
assign = array1d(1..8 ,[1, 2, 1, 1, 2, 2, 1, 2]);
next = array1d(1..8 ,[4, 6, 1, 7, 8, 5, 2, 3]);
makespan = 599;
----------
assign = array1d(1..8 ,[1, 2, 1, 1, 2, 2, 1, 2]);
next = array1d(1..8 ,[7, 6, 1, 3, 8, 5, 2, 4]);
makespan = 598;
----------
assign = array1d(1..8 ,[2, 1, 1, 2, 2, 1, 1, 2]);
next = array1d(1..8 ,[8, 3, 6, 1, 4, 7, 5, 2]);
makespan = 593;
----------
assign = array1d(1..8 ,[1, 2, 1, 2, 1, 2, 1, 2]);
next = array1d(1..8 ,[5, 8, 7, 6, 3, 2, 4, 1]);
makespan = 592;
----------
assign = array1d(1..8 ,[1, 2, 1, 2, 1, 2, 1, 2]);
next = array1d(1..8 ,[5, 8, 1, 6, 7, 2, 4, 3]);
makespan = 590;
----------
assign = array1d(1..8 ,[1, 2, 1, 2, 1, 2, 1, 2]);
next = array1d(1..8 ,[5, 8, 1, 6, 7, 2, 4, 3]);
makespan = 589;
----------
assign = array1d(1..8 ,[1, 1, 2, 2, 1, 2, 1, 2]);
next = array1d(1..8 ,[5, 1, 4, 8, 7, 3, 6, 2]);
makespan = 588;
----------
assign = array1d(1..8 ,[2, 1, 1, 2, 1, 2, 1, 2]);
next = array1d(1..8 ,[6, 3, 5, 8, 7, 4, 1, 2]);
makespan = 585;
----------
assign = array1d(1..8 ,[1, 1, 2, 2, 1, 2, 1, 2]);
next = array1d(1..8 ,[5, 1, 8, 3, 7, 4, 6, 2]);
makespan = 580;
----------
assign = array1d(1..8 ,[1, 1, 2, 2, 1, 2, 1, 2]);
next = array1d(1..8 ,[5, 1, 8, 3, 7, 4, 6, 2]);
makespan = 579;
----------
assign = array1d(1..8 ,[1, 1, 2, 2, 1, 2, 1, 2]);
next = array1d(1..8 ,[5, 1, 4, 6, 7, 8, 3, 2]);
makespan = 576;
----------
assign = array1d(1..8 ,[2, 1, 1, 2, 1, 2, 1, 2]);
next = array1d(1..8 ,[6, 3, 5, 1, 7, 8, 4, 2]);
makespan = 572;
----------
assign = array1d(1..8 ,[1, 2, 2, 1, 1, 2, 1, 2]);
next = array1d(1..8 ,[7, 6, 8, 1, 4, 3, 2, 5]);
makespan = 571;
----------
assign = array1d(1..8 ,[1, 2, 1, 2, 1, 2, 1, 2]);
next = array1d(1..8 ,[7, 6, 1, 8, 3, 4, 2, 5]);
makespan = 570;
----------
assign = array1d(1..8 ,[1, 2, 1, 2, 1, 2, 1, 2]);
next = array1d(1..8 ,[7, 6, 1, 8, 3, 4, 2, 5]);
makespan = 569;
----------
==========
	Command being timed: "mzn-chuffed lbbd-datasets/Rabadi-2006/dzn-p-dominant/model.mzn lbbd-datasets/Rabadi-2006/dzn-p-dominant/6on2Rp50Rs50_13Ameer.dzn"
	User time (seconds): 0.21
	System time (seconds): 0.00
	Percent of CPU this job got: 67%
	Elapsed (wall clock) time (h:mm:ss or m:ss): 0:00.32
	Average shared text size (kbytes): 0
	Average unshared data size (kbytes): 0
	Average stack size (kbytes): 0
	Average total size (kbytes): 0
	Maximum resident set size (kbytes): 29728
	Average resident set size (kbytes): 0
	Major (requiring I/O) page faults: 0
	Minor (reclaiming a frame) page faults: 2580
	Voluntary context switches: 89
	Involuntary context switches: 2
	Swaps: 0
	File system inputs: 0
	File system outputs: 112
	Socket messages sent: 0
	Socket messages received: 0
	Signals delivered: 0
	Page size (bytes): 4096
	Exit status: 0
