+ /usr/bin/timeout 600 /usr/bin/time -v mzn-chuffed lbbd-datasets/Rabadi-2006/dzn-balanced/model.mzn lbbd-datasets/Rabadi-2006/dzn-balanced/11on4Rp50Rs50_9Ameer.dzn
% No search annotation given. Defaulting to VSIDS!
assign = array1d(1..15 ,[4, 4, 4, 4, 4, 4, 4, 4, 4, 4, 4, 1, 2, 3, 4]);
next = array1d(1..15 ,[2, 3, 4, 5, 6, 7, 8, 9, 10, 11, 15, 13, 14, 1, 12]);
makespan = 1588;
----------
assign = array1d(1..15 ,[4, 4, 4, 4, 4, 4, 4, 4, 4, 4, 4, 1, 2, 3, 4]);
next = array1d(1..15 ,[4, 3, 5, 2, 6, 7, 8, 9, 10, 11, 15, 13, 14, 1, 12]);
makespan = 1579;
----------
assign = array1d(1..15 ,[4, 4, 4, 4, 1, 4, 4, 4, 4, 4, 4, 1, 2, 3, 4]);
next = array1d(1..15 ,[7, 15, 1, 11, 12, 4, 8, 10, 2, 9, 3, 13, 14, 6, 5]);
makespan = 1524;
----------
assign = array1d(1..15 ,[4, 4, 4, 4, 4, 4, 4, 4, 4, 1, 4, 1, 2, 3, 4]);
next = array1d(1..15 ,[11, 1, 8, 9, 7, 4, 2, 15, 3, 12, 6, 13, 14, 5, 10]);
makespan = 1523;
----------
assign = array1d(1..15 ,[4, 4, 1, 4, 4, 4, 4, 4, 4, 4, 4, 1, 2, 3, 4]);
next = array1d(1..15 ,[11, 6, 12, 9, 7, 15, 8, 1, 2, 4, 10, 13, 14, 5, 3]);
makespan = 1522;
----------
assign = array1d(1..15 ,[4, 4, 4, 4, 4, 4, 4, 4, 1, 4, 4, 1, 2, 3, 4]);
next = array1d(1..15 ,[10, 4, 8, 15, 7, 11, 1, 6, 12, 3, 2, 13, 14, 5, 9]);
makespan = 1519;
----------
assign = array1d(1..15 ,[2, 4, 4, 4, 4, 4, 4, 4, 4, 4, 4, 1, 2, 3, 4]);
next = array1d(1..15 ,[13, 4, 2, 11, 3, 7, 15, 6, 8, 9, 10, 1, 14, 5, 12]);
makespan = 1517;
----------
assign = array1d(1..15 ,[4, 4, 4, 4, 4, 4, 4, 4, 3, 4, 4, 1, 2, 3, 4]);
next = array1d(1..15 ,[4, 6, 2, 8, 7, 5, 10, 3, 14, 15, 1, 13, 9, 11, 12]);
makespan = 1514;
----------
assign = array1d(1..15 ,[4, 4, 4, 4, 4, 4, 4, 4, 4, 1, 4, 1, 2, 3, 4]);
next = array1d(1..15 ,[11, 1, 8, 9, 4, 5, 15, 6, 2, 12, 7, 13, 14, 3, 10]);
makespan = 1511;
----------
assign = array1d(1..15 ,[4, 4, 4, 4, 4, 4, 4, 4, 4, 3, 4, 1, 2, 3, 4]);
next = array1d(1..15 ,[15, 3, 8, 9, 4, 11, 2, 6, 7, 14, 1, 13, 10, 5, 12]);
makespan = 1508;
----------
assign = array1d(1..15 ,[4, 4, 4, 4, 4, 4, 3, 4, 4, 4, 4, 1, 2, 3, 4]);
next = array1d(1..15 ,[10, 15, 2, 8, 4, 1, 14, 11, 3, 9, 6, 13, 7, 5, 12]);
makespan = 1507;
----------
assign = array1d(1..15 ,[1, 4, 4, 4, 4, 4, 4, 4, 4, 4, 4, 1, 2, 3, 4]);
next = array1d(1..15 ,[12, 11, 10, 9, 7, 4, 8, 15, 3, 2, 5, 13, 14, 6, 1]);
makespan = 1506;
----------
assign = array1d(1..15 ,[4, 4, 4, 4, 4, 4, 1, 4, 4, 4, 4, 1, 2, 3, 4]);
next = array1d(1..15 ,[4, 1, 10, 8, 15, 5, 12, 6, 2, 9, 3, 13, 14, 11, 7]);
makespan = 1505;
----------
