+ /usr/bin/timeout 600 /usr/bin/time -v mzn-chuffed lbbd-datasets/Rabadi-2006/dzn-p-dominant/model.mzn lbbd-datasets/Rabadi-2006/dzn-p-dominant/11on6Rp50Rs50_8Ameer.dzn
% No search annotation given. Defaulting to VSIDS!
assign = array1d(1..17 ,[6, 6, 6, 6, 6, 6, 6, 6, 6, 6, 6, 1, 2, 3, 4, 5, 6]);
next = array1d(1..17 ,[2, 3, 4, 5, 6, 7, 8, 9, 10, 11, 17, 13, 14, 15, 16, 1, 12]);
makespan = 2414;
----------
assign = array1d(1..17 ,[6, 6, 6, 6, 6, 6, 6, 6, 6, 6, 6, 1, 2, 3, 4, 5, 6]);
next = array1d(1..17 ,[3, 4, 2, 5, 6, 7, 8, 9, 10, 11, 17, 13, 14, 15, 16, 1, 12]);
makespan = 2390;
----------
assign = array1d(1..17 ,[6, 6, 6, 6, 6, 6, 6, 6, 6, 6, 6, 1, 2, 3, 4, 5, 6]);
next = array1d(1..17 ,[2, 11, 4, 5, 6, 7, 8, 9, 10, 17, 3, 13, 14, 15, 16, 1, 12]);
makespan = 2368;
----------
assign = array1d(1..17 ,[1, 6, 6, 6, 6, 6, 6, 6, 6, 6, 6, 1, 2, 3, 4, 5, 6]);
next = array1d(1..17 ,[12, 9, 4, 10, 11, 5, 17, 7, 8, 6, 2, 13, 14, 15, 16, 3, 1]);
makespan = 2307;
----------
assign = array1d(1..17 ,[6, 6, 6, 6, 6, 6, 6, 6, 5, 6, 6, 1, 2, 3, 4, 5, 6]);
next = array1d(1..17 ,[8, 1, 4, 10, 11, 5, 2, 3, 16, 6, 17, 13, 14, 15, 9, 7, 12]);
makespan = 2293;
----------
assign = array1d(1..17 ,[1, 6, 6, 6, 6, 6, 6, 6, 6, 6, 6, 1, 2, 3, 4, 5, 6]);
next = array1d(1..17 ,[12, 6, 4, 7, 17, 5, 2, 11, 8, 3, 10, 13, 14, 15, 16, 9, 1]);
makespan = 2291;
----------
