+ /usr/bin/timeout 600 /usr/bin/time -v mzn-chuffed lbbd-datasets/Rabadi-2006/dzn-p-dominant/model.mzn lbbd-datasets/Rabadi-2006/dzn-p-dominant/6on2Rp50Rs50_4Ameer.dzn
% No search annotation given. Defaulting to VSIDS!
assign = array1d(1..8 ,[2, 2, 2, 2, 2, 2, 1, 2]);
next = array1d(1..8 ,[2, 3, 4, 5, 6, 8, 1, 7]);
makespan = 1356;
----------
assign = array1d(1..8 ,[2, 2, 2, 2, 2, 2, 1, 2]);
next = array1d(1..8 ,[3, 4, 2, 5, 6, 8, 1, 7]);
makespan = 1303;
----------
assign = array1d(1..8 ,[2, 2, 2, 2, 2, 2, 1, 2]);
next = array1d(1..8 ,[5, 8, 4, 1, 2, 3, 6, 7]);
makespan = 1258;
----------
assign = array1d(1..8 ,[2, 2, 2, 2, 2, 2, 1, 2]);
next = array1d(1..8 ,[5, 6, 4, 1, 2, 8, 3, 7]);
makespan = 1252;
----------
assign = array1d(1..8 ,[2, 2, 2, 2, 2, 1, 1, 2]);
next = array1d(1..8 ,[5, 8, 4, 1, 2, 7, 3, 6]);
makespan = 1229;
----------
assign = array1d(1..8 ,[2, 2, 2, 2, 2, 1, 1, 2]);
next = array1d(1..8 ,[5, 8, 4, 1, 2, 7, 3, 6]);
makespan = 1215;
----------
assign = array1d(1..8 ,[2, 2, 2, 2, 2, 1, 1, 2]);
next = array1d(1..8 ,[5, 8, 4, 1, 2, 7, 3, 6]);
makespan = 1212;
----------
assign = array1d(1..8 ,[2, 2, 2, 2, 2, 1, 1, 2]);
next = array1d(1..8 ,[5, 8, 4, 1, 2, 7, 3, 6]);
makespan = 1206;
----------
assign = array1d(1..8 ,[2, 2, 2, 2, 2, 1, 1, 2]);
next = array1d(1..8 ,[5, 8, 4, 1, 2, 7, 3, 6]);
makespan = 1199;
----------
assign = array1d(1..8 ,[2, 2, 2, 2, 2, 1, 1, 2]);
next = array1d(1..8 ,[5, 8, 4, 1, 2, 7, 3, 6]);
makespan = 1184;
----------
assign = array1d(1..8 ,[2, 2, 2, 2, 2, 1, 1, 2]);
next = array1d(1..8 ,[5, 8, 4, 1, 2, 7, 3, 6]);
makespan = 1183;
----------
assign = array1d(1..8 ,[2, 2, 2, 2, 2, 1, 1, 2]);
next = array1d(1..8 ,[5, 8, 4, 1, 2, 7, 3, 6]);
makespan = 1088;
----------
assign = array1d(1..8 ,[2, 2, 2, 2, 2, 1, 1, 2]);
next = array1d(1..8 ,[5, 8, 4, 1, 2, 7, 3, 6]);
makespan = 1085;
----------
assign = array1d(1..8 ,[2, 2, 2, 2, 2, 1, 1, 2]);
next = array1d(1..8 ,[5, 8, 4, 1, 2, 7, 3, 6]);
makespan = 1079;
----------
assign = array1d(1..8 ,[2, 2, 2, 2, 2, 1, 1, 2]);
next = array1d(1..8 ,[5, 8, 4, 1, 2, 7, 3, 6]);
makespan = 1072;
----------
assign = array1d(1..8 ,[2, 2, 2, 2, 2, 1, 1, 2]);
next = array1d(1..8 ,[5, 8, 4, 1, 2, 7, 3, 6]);
makespan = 1071;
----------
assign = array1d(1..8 ,[2, 2, 2, 2, 2, 1, 1, 2]);
next = array1d(1..8 ,[5, 8, 4, 1, 2, 7, 3, 6]);
makespan = 1067;
----------
assign = array1d(1..8 ,[2, 2, 2, 2, 2, 1, 1, 2]);
next = array1d(1..8 ,[5, 8, 4, 1, 2, 7, 3, 6]);
makespan = 1065;
----------
assign = array1d(1..8 ,[2, 2, 2, 2, 2, 1, 1, 2]);
next = array1d(1..8 ,[5, 8, 4, 1, 2, 7, 3, 6]);
makespan = 1062;
----------
assign = array1d(1..8 ,[2, 2, 2, 2, 2, 1, 1, 2]);
next = array1d(1..8 ,[5, 8, 4, 1, 2, 7, 3, 6]);
makespan = 1058;
----------
assign = array1d(1..8 ,[2, 2, 2, 2, 2, 1, 1, 2]);
next = array1d(1..8 ,[5, 8, 4, 1, 2, 7, 3, 6]);
makespan = 1056;
----------
assign = array1d(1..8 ,[2, 2, 2, 2, 2, 1, 1, 2]);
next = array1d(1..8 ,[5, 8, 4, 1, 2, 7, 3, 6]);
makespan = 1055;
----------
assign = array1d(1..8 ,[2, 2, 2, 2, 2, 1, 1, 2]);
next = array1d(1..8 ,[5, 8, 4, 1, 2, 7, 3, 6]);
makespan = 1049;
----------
assign = array1d(1..8 ,[2, 2, 2, 2, 2, 1, 1, 2]);
next = array1d(1..8 ,[5, 8, 4, 1, 2, 7, 3, 6]);
makespan = 1042;
----------
assign = array1d(1..8 ,[2, 2, 2, 2, 2, 1, 1, 2]);
next = array1d(1..8 ,[5, 8, 4, 1, 2, 7, 3, 6]);
makespan = 1039;
----------
assign = array1d(1..8 ,[2, 2, 2, 2, 2, 1, 1, 2]);
next = array1d(1..8 ,[5, 8, 4, 1, 2, 7, 3, 6]);
makespan = 1033;
----------
assign = array1d(1..8 ,[2, 2, 2, 2, 2, 1, 1, 2]);
next = array1d(1..8 ,[5, 8, 4, 1, 2, 7, 3, 6]);
makespan = 1026;
----------
assign = array1d(1..8 ,[2, 2, 2, 2, 2, 1, 1, 2]);
next = array1d(1..8 ,[5, 8, 4, 1, 2, 7, 3, 6]);
makespan = 1011;
----------
assign = array1d(1..8 ,[2, 1, 2, 2, 2, 1, 1, 2]);
next = array1d(1..8 ,[5, 7, 4, 1, 8, 2, 3, 6]);
makespan = 977;
----------
assign = array1d(1..8 ,[2, 1, 2, 2, 2, 1, 1, 2]);
next = array1d(1..8 ,[5, 7, 4, 1, 8, 2, 3, 6]);
makespan = 963;
----------
assign = array1d(1..8 ,[2, 1, 2, 2, 2, 1, 1, 2]);
next = array1d(1..8 ,[5, 7, 4, 1, 8, 2, 3, 6]);
makespan = 944;
----------
assign = array1d(1..8 ,[2, 1, 2, 2, 2, 1, 1, 2]);
next = array1d(1..8 ,[5, 7, 4, 1, 8, 2, 3, 6]);
makespan = 938;
----------
assign = array1d(1..8 ,[2, 1, 2, 2, 2, 1, 1, 2]);
next = array1d(1..8 ,[5, 7, 4, 1, 8, 2, 3, 6]);
makespan = 935;
----------
assign = array1d(1..8 ,[2, 1, 2, 2, 2, 1, 1, 2]);
next = array1d(1..8 ,[5, 7, 4, 1, 8, 2, 3, 6]);
makespan = 934;
----------
assign = array1d(1..8 ,[2, 1, 2, 2, 2, 1, 1, 2]);
next = array1d(1..8 ,[5, 7, 4, 1, 8, 2, 3, 6]);
makespan = 931;
----------
assign = array1d(1..8 ,[2, 1, 2, 2, 2, 1, 1, 2]);
next = array1d(1..8 ,[5, 7, 4, 1, 8, 2, 3, 6]);
makespan = 928;
----------
assign = array1d(1..8 ,[2, 1, 2, 2, 2, 1, 1, 2]);
next = array1d(1..8 ,[5, 7, 4, 1, 8, 2, 3, 6]);
makespan = 921;
----------
assign = array1d(1..8 ,[2, 1, 2, 2, 2, 1, 1, 2]);
next = array1d(1..8 ,[5, 7, 4, 1, 8, 2, 3, 6]);
makespan = 915;
----------
assign = array1d(1..8 ,[2, 1, 2, 2, 2, 1, 1, 2]);
next = array1d(1..8 ,[5, 7, 4, 1, 8, 2, 3, 6]);
makespan = 914;
----------
assign = array1d(1..8 ,[2, 1, 2, 2, 2, 1, 1, 2]);
next = array1d(1..8 ,[5, 7, 4, 1, 8, 2, 3, 6]);
makespan = 912;
----------
assign = array1d(1..8 ,[2, 1, 2, 2, 2, 1, 1, 2]);
next = array1d(1..8 ,[5, 7, 4, 1, 8, 2, 3, 6]);
makespan = 908;
----------
assign = array1d(1..8 ,[2, 1, 2, 2, 2, 1, 1, 2]);
next = array1d(1..8 ,[5, 7, 4, 1, 8, 2, 3, 6]);
makespan = 906;
----------
assign = array1d(1..8 ,[2, 1, 2, 2, 2, 1, 1, 2]);
next = array1d(1..8 ,[5, 7, 4, 1, 8, 2, 3, 6]);
makespan = 899;
----------
assign = array1d(1..8 ,[2, 1, 2, 2, 2, 1, 1, 2]);
next = array1d(1..8 ,[5, 7, 4, 1, 8, 2, 3, 6]);
makespan = 898;
----------
assign = array1d(1..8 ,[2, 1, 2, 2, 2, 1, 1, 2]);
next = array1d(1..8 ,[5, 7, 4, 1, 8, 2, 3, 6]);
makespan = 892;
----------
assign = array1d(1..8 ,[2, 1, 2, 2, 2, 1, 1, 2]);
next = array1d(1..8 ,[5, 7, 4, 1, 8, 2, 3, 6]);
makespan = 889;
----------
assign = array1d(1..8 ,[2, 1, 2, 2, 2, 1, 1, 2]);
next = array1d(1..8 ,[5, 7, 4, 1, 8, 2, 3, 6]);
makespan = 885;
----------
assign = array1d(1..8 ,[2, 1, 2, 2, 2, 1, 1, 2]);
next = array1d(1..8 ,[5, 7, 4, 1, 8, 2, 3, 6]);
makespan = 882;
----------
assign = array1d(1..8 ,[2, 1, 2, 2, 2, 1, 1, 2]);
next = array1d(1..8 ,[5, 7, 4, 1, 8, 2, 3, 6]);
makespan = 876;
----------
assign = array1d(1..8 ,[2, 1, 2, 2, 2, 1, 1, 2]);
next = array1d(1..8 ,[5, 7, 4, 1, 8, 2, 3, 6]);
makespan = 794;
----------
assign = array1d(1..8 ,[2, 1, 2, 2, 2, 1, 1, 2]);
next = array1d(1..8 ,[5, 7, 4, 1, 8, 2, 3, 6]);
makespan = 790;
----------
assign = array1d(1..8 ,[2, 2, 1, 2, 2, 1, 1, 2]);
next = array1d(1..8 ,[5, 8, 6, 1, 2, 7, 4, 3]);
makespan = 787;
----------
assign = array1d(1..8 ,[2, 2, 1, 2, 2, 1, 1, 2]);
next = array1d(1..8 ,[5, 8, 6, 1, 2, 7, 4, 3]);
makespan = 785;
----------
assign = array1d(1..8 ,[2, 1, 2, 2, 2, 1, 1, 2]);
next = array1d(1..8 ,[5, 7, 8, 1, 3, 2, 4, 6]);
makespan = 781;
----------
assign = array1d(1..8 ,[2, 1, 2, 2, 2, 1, 1, 2]);
next = array1d(1..8 ,[5, 7, 8, 1, 3, 2, 4, 6]);
makespan = 771;
----------
assign = array1d(1..8 ,[2, 1, 2, 2, 2, 1, 1, 2]);
next = array1d(1..8 ,[5, 7, 8, 1, 3, 2, 4, 6]);
makespan = 765;
----------
assign = array1d(1..8 ,[2, 1, 2, 2, 2, 1, 1, 2]);
next = array1d(1..8 ,[5, 7, 8, 1, 3, 2, 4, 6]);
makespan = 764;
----------
assign = array1d(1..8 ,[2, 1, 2, 2, 2, 1, 1, 2]);
next = array1d(1..8 ,[5, 7, 8, 1, 3, 2, 4, 6]);
makespan = 762;
----------
assign = array1d(1..8 ,[2, 1, 2, 2, 2, 1, 1, 2]);
next = array1d(1..8 ,[5, 7, 8, 1, 3, 2, 4, 6]);
makespan = 758;
----------
assign = array1d(1..8 ,[2, 1, 2, 2, 2, 1, 1, 2]);
next = array1d(1..8 ,[5, 7, 8, 1, 3, 2, 4, 6]);
makespan = 757;
----------
assign = array1d(1..8 ,[2, 1, 1, 2, 2, 1, 1, 2]);
next = array1d(1..8 ,[5, 7, 6, 1, 8, 2, 4, 3]);
makespan = 755;
----------
assign = array1d(1..8 ,[2, 1, 1, 2, 2, 1, 1, 2]);
next = array1d(1..8 ,[5, 7, 6, 1, 8, 2, 4, 3]);
makespan = 749;
----------
assign = array1d(1..8 ,[2, 1, 1, 2, 2, 1, 1, 2]);
next = array1d(1..8 ,[5, 7, 6, 1, 8, 2, 4, 3]);
makespan = 748;
----------
assign = array1d(1..8 ,[2, 1, 1, 2, 2, 1, 1, 2]);
next = array1d(1..8 ,[5, 7, 6, 1, 8, 2, 4, 3]);
makespan = 742;
----------
assign = array1d(1..8 ,[2, 1, 1, 2, 2, 1, 1, 2]);
next = array1d(1..8 ,[5, 7, 6, 1, 8, 2, 4, 3]);
makespan = 741;
----------
assign = array1d(1..8 ,[2, 1, 1, 2, 2, 1, 1, 2]);
next = array1d(1..8 ,[5, 7, 6, 1, 8, 2, 4, 3]);
makespan = 735;
----------
assign = array1d(1..8 ,[2, 1, 1, 2, 2, 1, 1, 2]);
next = array1d(1..8 ,[5, 7, 6, 1, 8, 2, 4, 3]);
makespan = 732;
----------
assign = array1d(1..8 ,[2, 1, 1, 2, 2, 1, 1, 2]);
next = array1d(1..8 ,[5, 7, 6, 1, 8, 2, 4, 3]);
makespan = 708;
----------
assign = array1d(1..8 ,[2, 1, 1, 2, 2, 1, 1, 2]);
next = array1d(1..8 ,[5, 7, 6, 1, 8, 2, 4, 3]);
makespan = 691;
----------
assign = array1d(1..8 ,[2, 1, 1, 2, 2, 1, 1, 2]);
next = array1d(1..8 ,[5, 7, 6, 1, 8, 2, 4, 3]);
makespan = 598;
----------
assign = array1d(1..8 ,[2, 1, 1, 2, 2, 1, 1, 2]);
next = array1d(1..8 ,[5, 7, 6, 1, 8, 2, 4, 3]);
makespan = 568;
----------
assign = array1d(1..8 ,[2, 1, 1, 2, 2, 1, 1, 2]);
next = array1d(1..8 ,[5, 6, 2, 1, 8, 7, 4, 3]);
makespan = 564;
----------
assign = array1d(1..8 ,[2, 1, 1, 2, 2, 1, 1, 2]);
next = array1d(1..8 ,[5, 6, 2, 8, 4, 7, 1, 3]);
makespan = 561;
----------
assign = array1d(1..8 ,[2, 1, 2, 1, 2, 1, 1, 2]);
next = array1d(1..8 ,[5, 6, 8, 7, 3, 4, 1, 2]);
makespan = 553;
----------
assign = array1d(1..8 ,[2, 1, 2, 1, 2, 1, 1, 2]);
next = array1d(1..8 ,[5, 6, 8, 7, 3, 4, 1, 2]);
makespan = 551;
----------
==========
	Command being timed: "mzn-chuffed lbbd-datasets/Rabadi-2006/dzn-p-dominant/model.mzn lbbd-datasets/Rabadi-2006/dzn-p-dominant/6on2Rp50Rs50_4Ameer.dzn"
	User time (seconds): 0.22
	System time (seconds): 0.00
	Percent of CPU this job got: 66%
	Elapsed (wall clock) time (h:mm:ss or m:ss): 0:00.34
	Average shared text size (kbytes): 0
	Average unshared data size (kbytes): 0
	Average stack size (kbytes): 0
	Average total size (kbytes): 0
	Maximum resident set size (kbytes): 29680
	Average resident set size (kbytes): 0
	Major (requiring I/O) page faults: 0
	Minor (reclaiming a frame) page faults: 2573
	Voluntary context switches: 81
	Involuntary context switches: 3
	Swaps: 0
	File system inputs: 0
	File system outputs: 112
	Socket messages sent: 0
	Socket messages received: 0
	Signals delivered: 0
	Page size (bytes): 4096
	Exit status: 0
