+ /usr/bin/timeout 600 /usr/bin/time -v mzn-chuffed lbbd-datasets/Rabadi-2006/dzn-balanced/model.mzn lbbd-datasets/Rabadi-2006/dzn-balanced/7on2Rp50Rs50_11Ameer.dzn
% No search annotation given. Defaulting to VSIDS!
assign = array1d(1..9 ,[2, 2, 2, 2, 2, 2, 2, 1, 2]);
next = array1d(1..9 ,[2, 3, 4, 5, 6, 7, 9, 1, 8]);
makespan = 969;
----------
assign = array1d(1..9 ,[2, 2, 2, 2, 2, 2, 2, 1, 2]);
next = array1d(1..9 ,[3, 6, 5, 2, 4, 7, 9, 1, 8]);
makespan = 967;
----------
assign = array1d(1..9 ,[2, 2, 2, 2, 2, 2, 1, 1, 2]);
next = array1d(1..9 ,[2, 9, 1, 3, 4, 5, 8, 6, 7]);
makespan = 907;
----------
assign = array1d(1..9 ,[2, 1, 2, 2, 2, 2, 2, 1, 2]);
next = array1d(1..9 ,[6, 8, 1, 3, 4, 9, 5, 7, 2]);
makespan = 906;
----------
assign = array1d(1..9 ,[2, 1, 2, 2, 2, 2, 2, 1, 2]);
next = array1d(1..9 ,[7, 8, 1, 3, 4, 5, 9, 6, 2]);
makespan = 894;
----------
assign = array1d(1..9 ,[2, 1, 2, 2, 2, 2, 2, 1, 2]);
next = array1d(1..9 ,[6, 8, 5, 3, 7, 4, 9, 1, 2]);
makespan = 892;
----------
assign = array1d(1..9 ,[1, 2, 2, 2, 2, 2, 2, 1, 2]);
next = array1d(1..9 ,[8, 7, 6, 3, 9, 2, 5, 4, 1]);
makespan = 891;
----------
assign = array1d(1..9 ,[2, 1, 2, 2, 2, 2, 2, 1, 2]);
next = array1d(1..9 ,[7, 8, 1, 3, 4, 5, 9, 6, 2]);
makespan = 884;
----------
assign = array1d(1..9 ,[2, 1, 2, 2, 2, 2, 2, 1, 2]);
next = array1d(1..9 ,[6, 8, 5, 3, 7, 4, 9, 1, 2]);
makespan = 880;
----------
assign = array1d(1..9 ,[2, 1, 2, 2, 2, 2, 2, 1, 2]);
next = array1d(1..9 ,[5, 8, 1, 3, 7, 4, 9, 6, 2]);
makespan = 857;
----------
assign = array1d(1..9 ,[2, 1, 2, 2, 2, 2, 2, 1, 2]);
next = array1d(1..9 ,[5, 8, 1, 9, 7, 4, 6, 3, 2]);
makespan = 850;
----------
assign = array1d(1..9 ,[2, 1, 2, 2, 2, 2, 2, 1, 2]);
next = array1d(1..9 ,[5, 8, 1, 9, 7, 4, 6, 3, 2]);
makespan = 847;
----------
assign = array1d(1..9 ,[2, 1, 2, 2, 2, 2, 2, 1, 2]);
next = array1d(1..9 ,[5, 8, 1, 9, 7, 4, 6, 3, 2]);
makespan = 837;
----------
assign = array1d(1..9 ,[2, 1, 2, 2, 2, 2, 2, 1, 2]);
next = array1d(1..9 ,[5, 8, 1, 9, 7, 4, 6, 3, 2]);
makespan = 835;
----------
assign = array1d(1..9 ,[2, 1, 2, 2, 2, 2, 2, 1, 2]);
next = array1d(1..9 ,[5, 8, 1, 9, 7, 4, 6, 3, 2]);
makespan = 834;
----------
assign = array1d(1..9 ,[2, 1, 2, 2, 2, 2, 2, 1, 2]);
next = array1d(1..9 ,[5, 8, 1, 9, 7, 4, 6, 3, 2]);
makespan = 832;
----------
assign = array1d(1..9 ,[2, 1, 2, 2, 2, 2, 2, 1, 2]);
next = array1d(1..9 ,[5, 8, 1, 9, 7, 4, 6, 3, 2]);
makespan = 830;
----------
assign = array1d(1..9 ,[2, 1, 2, 2, 2, 2, 2, 1, 2]);
next = array1d(1..9 ,[5, 8, 1, 9, 7, 4, 6, 3, 2]);
makespan = 829;
----------
assign = array1d(1..9 ,[2, 1, 2, 2, 2, 2, 2, 1, 2]);
next = array1d(1..9 ,[5, 8, 1, 9, 7, 4, 6, 3, 2]);
makespan = 823;
----------
assign = array1d(1..9 ,[2, 1, 2, 2, 2, 2, 2, 1, 2]);
next = array1d(1..9 ,[5, 8, 1, 9, 7, 4, 6, 3, 2]);
makespan = 818;
----------
assign = array1d(1..9 ,[2, 1, 2, 2, 2, 2, 2, 1, 2]);
next = array1d(1..9 ,[5, 8, 1, 9, 7, 4, 6, 3, 2]);
makespan = 817;
----------
assign = array1d(1..9 ,[2, 1, 2, 2, 2, 2, 2, 1, 2]);
next = array1d(1..9 ,[5, 8, 1, 9, 7, 4, 6, 3, 2]);
makespan = 816;
----------
assign = array1d(1..9 ,[2, 1, 2, 2, 2, 2, 2, 1, 2]);
next = array1d(1..9 ,[5, 8, 1, 9, 7, 4, 6, 3, 2]);
makespan = 814;
----------
assign = array1d(1..9 ,[2, 1, 2, 2, 2, 2, 2, 1, 2]);
next = array1d(1..9 ,[5, 8, 1, 9, 7, 4, 6, 3, 2]);
makespan = 813;
----------
assign = array1d(1..9 ,[2, 1, 2, 2, 2, 2, 2, 1, 2]);
next = array1d(1..9 ,[5, 8, 1, 9, 7, 4, 6, 3, 2]);
makespan = 809;
----------
assign = array1d(1..9 ,[2, 1, 2, 2, 2, 2, 2, 1, 2]);
next = array1d(1..9 ,[5, 8, 1, 9, 6, 4, 3, 7, 2]);
makespan = 805;
----------
assign = array1d(1..9 ,[2, 1, 2, 2, 2, 2, 2, 1, 2]);
next = array1d(1..9 ,[5, 8, 1, 9, 6, 4, 3, 7, 2]);
makespan = 803;
----------
assign = array1d(1..9 ,[2, 1, 2, 2, 2, 2, 2, 1, 2]);
next = array1d(1..9 ,[5, 8, 1, 9, 6, 4, 3, 7, 2]);
makespan = 802;
----------
assign = array1d(1..9 ,[2, 1, 2, 2, 2, 2, 2, 1, 2]);
next = array1d(1..9 ,[5, 8, 1, 9, 6, 4, 3, 7, 2]);
makespan = 796;
----------
assign = array1d(1..9 ,[2, 1, 2, 2, 2, 2, 1, 1, 2]);
next = array1d(1..9 ,[5, 7, 1, 9, 6, 4, 8, 3, 2]);
makespan = 775;
----------
assign = array1d(1..9 ,[2, 1, 2, 2, 2, 2, 1, 1, 2]);
next = array1d(1..9 ,[5, 7, 1, 9, 6, 4, 8, 3, 2]);
makespan = 773;
----------
assign = array1d(1..9 ,[2, 1, 2, 2, 2, 2, 1, 1, 2]);
next = array1d(1..9 ,[5, 7, 1, 9, 6, 4, 8, 3, 2]);
makespan = 772;
----------
assign = array1d(1..9 ,[2, 1, 2, 2, 2, 2, 1, 1, 2]);
next = array1d(1..9 ,[5, 7, 1, 9, 6, 4, 8, 3, 2]);
makespan = 761;
----------
assign = array1d(1..9 ,[2, 1, 2, 2, 2, 2, 1, 1, 2]);
next = array1d(1..9 ,[5, 7, 1, 9, 6, 4, 8, 3, 2]);
makespan = 760;
----------
assign = array1d(1..9 ,[2, 1, 2, 2, 2, 2, 1, 1, 2]);
next = array1d(1..9 ,[5, 7, 1, 9, 6, 4, 8, 3, 2]);
makespan = 759;
----------
assign = array1d(1..9 ,[2, 1, 2, 2, 2, 2, 1, 1, 2]);
next = array1d(1..9 ,[5, 7, 1, 9, 6, 4, 8, 3, 2]);
makespan = 758;
----------
assign = array1d(1..9 ,[2, 1, 2, 2, 2, 2, 1, 1, 2]);
next = array1d(1..9 ,[5, 7, 1, 9, 6, 4, 8, 3, 2]);
makespan = 757;
----------
assign = array1d(1..9 ,[2, 1, 2, 2, 2, 2, 1, 1, 2]);
next = array1d(1..9 ,[5, 7, 1, 9, 6, 4, 8, 3, 2]);
makespan = 756;
----------
assign = array1d(1..9 ,[2, 1, 2, 2, 2, 2, 1, 1, 2]);
next = array1d(1..9 ,[5, 7, 1, 9, 6, 4, 8, 3, 2]);
makespan = 755;
----------
assign = array1d(1..9 ,[2, 1, 2, 2, 2, 2, 1, 1, 2]);
next = array1d(1..9 ,[5, 7, 1, 9, 6, 4, 8, 3, 2]);
makespan = 754;
----------
assign = array1d(1..9 ,[2, 1, 2, 2, 2, 2, 1, 1, 2]);
next = array1d(1..9 ,[5, 7, 1, 9, 6, 4, 8, 3, 2]);
makespan = 752;
----------
assign = array1d(1..9 ,[2, 1, 2, 2, 2, 2, 1, 1, 2]);
next = array1d(1..9 ,[5, 7, 1, 9, 6, 4, 8, 3, 2]);
makespan = 751;
----------
assign = array1d(1..9 ,[2, 1, 2, 2, 2, 2, 1, 1, 2]);
next = array1d(1..9 ,[5, 7, 1, 9, 6, 4, 8, 3, 2]);
makespan = 748;
----------
assign = array1d(1..9 ,[2, 1, 2, 2, 2, 2, 1, 1, 2]);
next = array1d(1..9 ,[5, 7, 1, 9, 6, 4, 8, 3, 2]);
makespan = 746;
----------
assign = array1d(1..9 ,[2, 1, 2, 2, 2, 2, 1, 1, 2]);
next = array1d(1..9 ,[5, 7, 1, 9, 6, 4, 8, 3, 2]);
makespan = 745;
----------
assign = array1d(1..9 ,[2, 1, 2, 2, 2, 2, 1, 1, 2]);
next = array1d(1..9 ,[5, 7, 1, 9, 6, 4, 8, 3, 2]);
makespan = 743;
----------
assign = array1d(1..9 ,[2, 1, 2, 2, 2, 2, 1, 1, 2]);
next = array1d(1..9 ,[5, 7, 1, 9, 6, 4, 8, 3, 2]);
makespan = 741;
----------
assign = array1d(1..9 ,[2, 1, 2, 2, 2, 2, 1, 1, 2]);
next = array1d(1..9 ,[5, 7, 1, 9, 6, 4, 8, 3, 2]);
makespan = 740;
----------
assign = array1d(1..9 ,[2, 1, 2, 2, 2, 2, 1, 1, 2]);
next = array1d(1..9 ,[5, 7, 1, 9, 6, 4, 8, 3, 2]);
makespan = 739;
----------
assign = array1d(1..9 ,[2, 1, 2, 2, 2, 2, 1, 1, 2]);
next = array1d(1..9 ,[5, 7, 1, 9, 6, 4, 8, 3, 2]);
makespan = 738;
----------
assign = array1d(1..9 ,[2, 1, 2, 2, 2, 2, 1, 1, 2]);
next = array1d(1..9 ,[5, 7, 1, 9, 6, 4, 8, 3, 2]);
makespan = 736;
----------
assign = array1d(1..9 ,[2, 1, 2, 2, 2, 2, 1, 1, 2]);
next = array1d(1..9 ,[5, 7, 1, 9, 6, 4, 8, 3, 2]);
makespan = 728;
----------
assign = array1d(1..9 ,[2, 1, 2, 2, 2, 2, 1, 1, 2]);
next = array1d(1..9 ,[5, 7, 1, 9, 6, 4, 8, 3, 2]);
makespan = 727;
----------
assign = array1d(1..9 ,[2, 1, 2, 2, 2, 2, 1, 1, 2]);
next = array1d(1..9 ,[5, 7, 1, 9, 6, 4, 8, 3, 2]);
makespan = 725;
----------
assign = array1d(1..9 ,[2, 1, 2, 2, 2, 2, 1, 1, 2]);
next = array1d(1..9 ,[5, 7, 1, 9, 6, 4, 8, 3, 2]);
makespan = 724;
----------
assign = array1d(1..9 ,[2, 1, 2, 2, 2, 2, 1, 1, 2]);
next = array1d(1..9 ,[5, 7, 1, 9, 6, 4, 8, 3, 2]);
makespan = 708;
----------
assign = array1d(1..9 ,[2, 1, 2, 2, 2, 2, 1, 1, 2]);
next = array1d(1..9 ,[5, 7, 1, 9, 6, 4, 8, 3, 2]);
makespan = 698;
----------
assign = array1d(1..9 ,[2, 1, 2, 2, 2, 2, 1, 1, 2]);
next = array1d(1..9 ,[5, 7, 1, 9, 6, 4, 8, 3, 2]);
makespan = 697;
----------
assign = array1d(1..9 ,[2, 1, 2, 2, 2, 2, 1, 1, 2]);
next = array1d(1..9 ,[5, 7, 1, 9, 6, 4, 8, 3, 2]);
makespan = 695;
----------
assign = array1d(1..9 ,[2, 1, 2, 2, 2, 2, 1, 1, 2]);
next = array1d(1..9 ,[5, 7, 1, 9, 6, 4, 8, 3, 2]);
makespan = 694;
----------
assign = array1d(1..9 ,[2, 1, 2, 2, 2, 2, 1, 1, 2]);
next = array1d(1..9 ,[5, 7, 1, 9, 6, 4, 8, 3, 2]);
makespan = 686;
----------
assign = array1d(1..9 ,[2, 1, 2, 2, 2, 2, 1, 1, 2]);
next = array1d(1..9 ,[5, 7, 1, 9, 6, 4, 8, 3, 2]);
makespan = 684;
----------
assign = array1d(1..9 ,[2, 1, 2, 2, 2, 2, 1, 1, 2]);
next = array1d(1..9 ,[5, 7, 1, 9, 6, 4, 8, 3, 2]);
makespan = 683;
----------
assign = array1d(1..9 ,[2, 1, 2, 2, 2, 2, 1, 1, 2]);
next = array1d(1..9 ,[5, 7, 1, 9, 6, 4, 8, 3, 2]);
makespan = 682;
----------
assign = array1d(1..9 ,[2, 1, 2, 2, 2, 2, 1, 1, 2]);
next = array1d(1..9 ,[5, 7, 1, 9, 6, 4, 8, 3, 2]);
makespan = 681;
----------
assign = array1d(1..9 ,[2, 1, 2, 2, 2, 2, 1, 1, 2]);
next = array1d(1..9 ,[5, 7, 1, 9, 6, 4, 8, 3, 2]);
makespan = 679;
----------
assign = array1d(1..9 ,[2, 1, 2, 2, 2, 2, 1, 1, 2]);
next = array1d(1..9 ,[5, 7, 1, 9, 6, 4, 8, 3, 2]);
makespan = 677;
----------
assign = array1d(1..9 ,[2, 1, 2, 2, 2, 2, 1, 1, 2]);
next = array1d(1..9 ,[5, 7, 1, 9, 6, 4, 8, 3, 2]);
makespan = 676;
----------
assign = array1d(1..9 ,[2, 1, 2, 2, 2, 2, 1, 1, 2]);
next = array1d(1..9 ,[5, 7, 1, 9, 6, 4, 8, 3, 2]);
makespan = 675;
----------
assign = array1d(1..9 ,[2, 1, 2, 2, 2, 2, 1, 1, 2]);
next = array1d(1..9 ,[5, 7, 1, 9, 6, 4, 8, 3, 2]);
makespan = 671;
----------
assign = array1d(1..9 ,[2, 1, 2, 2, 2, 2, 1, 1, 2]);
next = array1d(1..9 ,[5, 7, 1, 9, 6, 4, 8, 3, 2]);
makespan = 670;
----------
assign = array1d(1..9 ,[2, 1, 2, 2, 2, 2, 1, 1, 2]);
next = array1d(1..9 ,[5, 7, 1, 9, 6, 4, 8, 3, 2]);
makespan = 668;
----------
assign = array1d(1..9 ,[2, 1, 2, 2, 2, 2, 1, 1, 2]);
next = array1d(1..9 ,[5, 7, 1, 9, 6, 4, 8, 3, 2]);
makespan = 667;
----------
assign = array1d(1..9 ,[2, 1, 2, 2, 2, 2, 1, 1, 2]);
next = array1d(1..9 ,[5, 7, 1, 9, 6, 4, 8, 3, 2]);
makespan = 666;
----------
assign = array1d(1..9 ,[2, 1, 2, 2, 2, 2, 1, 1, 2]);
next = array1d(1..9 ,[5, 7, 1, 9, 6, 4, 8, 3, 2]);
makespan = 665;
----------
assign = array1d(1..9 ,[2, 1, 2, 2, 2, 2, 1, 1, 2]);
next = array1d(1..9 ,[5, 7, 1, 9, 6, 4, 8, 3, 2]);
makespan = 664;
----------
assign = array1d(1..9 ,[2, 1, 2, 2, 2, 2, 1, 1, 2]);
next = array1d(1..9 ,[5, 7, 1, 9, 6, 4, 8, 3, 2]);
makespan = 663;
----------
assign = array1d(1..9 ,[2, 1, 2, 2, 2, 2, 1, 1, 2]);
next = array1d(1..9 ,[5, 7, 1, 9, 6, 4, 8, 3, 2]);
makespan = 662;
----------
assign = array1d(1..9 ,[2, 1, 2, 2, 2, 2, 1, 1, 2]);
next = array1d(1..9 ,[5, 7, 1, 9, 6, 4, 8, 3, 2]);
makespan = 661;
----------
assign = array1d(1..9 ,[2, 1, 2, 2, 2, 2, 1, 1, 2]);
next = array1d(1..9 ,[5, 7, 1, 9, 6, 4, 8, 3, 2]);
makespan = 654;
----------
assign = array1d(1..9 ,[2, 1, 2, 1, 2, 1, 2, 1, 2]);
next = array1d(1..9 ,[5, 8, 1, 6, 7, 2, 9, 3, 4]);
makespan = 650;
----------
assign = array1d(1..9 ,[2, 1, 2, 1, 2, 1, 2, 1, 2]);
next = array1d(1..9 ,[5, 6, 1, 2, 7, 8, 9, 3, 4]);
makespan = 647;
----------
assign = array1d(1..9 ,[2, 1, 2, 1, 2, 1, 2, 1, 2]);
next = array1d(1..9 ,[5, 6, 1, 2, 7, 8, 9, 3, 4]);
makespan = 638;
----------
assign = array1d(1..9 ,[2, 1, 2, 1, 2, 1, 2, 1, 2]);
next = array1d(1..9 ,[5, 6, 1, 2, 7, 8, 9, 3, 4]);
makespan = 620;
----------
assign = array1d(1..9 ,[2, 1, 2, 1, 2, 1, 2, 1, 2]);
next = array1d(1..9 ,[5, 6, 1, 2, 7, 8, 9, 3, 4]);
makespan = 619;
----------
assign = array1d(1..9 ,[2, 1, 2, 1, 2, 1, 2, 1, 2]);
next = array1d(1..9 ,[5, 6, 1, 2, 7, 8, 9, 3, 4]);
makespan = 617;
----------
assign = array1d(1..9 ,[2, 1, 2, 1, 2, 1, 2, 1, 2]);
next = array1d(1..9 ,[5, 6, 1, 2, 7, 8, 9, 3, 4]);
makespan = 611;
----------
assign = array1d(1..9 ,[2, 1, 2, 1, 2, 1, 2, 1, 2]);
next = array1d(1..9 ,[5, 6, 1, 2, 7, 8, 9, 3, 4]);
makespan = 609;
----------
assign = array1d(1..9 ,[2, 1, 2, 1, 2, 1, 2, 1, 2]);
next = array1d(1..9 ,[5, 6, 1, 2, 7, 8, 9, 3, 4]);
makespan = 608;
----------
assign = array1d(1..9 ,[2, 1, 2, 1, 2, 1, 2, 1, 2]);
next = array1d(1..9 ,[5, 6, 1, 2, 7, 8, 9, 3, 4]);
makespan = 606;
----------
assign = array1d(1..9 ,[2, 1, 2, 1, 2, 1, 2, 1, 2]);
next = array1d(1..9 ,[5, 6, 1, 2, 7, 8, 9, 3, 4]);
makespan = 605;
----------
assign = array1d(1..9 ,[2, 1, 2, 1, 2, 1, 2, 1, 2]);
next = array1d(1..9 ,[5, 6, 1, 2, 7, 8, 9, 3, 4]);
makespan = 604;
----------
assign = array1d(1..9 ,[2, 1, 2, 1, 2, 1, 2, 1, 2]);
next = array1d(1..9 ,[5, 6, 1, 2, 7, 8, 9, 3, 4]);
makespan = 599;
----------
assign = array1d(1..9 ,[2, 1, 2, 1, 2, 1, 2, 1, 2]);
next = array1d(1..9 ,[5, 6, 1, 2, 7, 8, 9, 3, 4]);
makespan = 593;
----------
assign = array1d(1..9 ,[2, 1, 2, 1, 2, 1, 2, 1, 2]);
next = array1d(1..9 ,[5, 6, 1, 2, 7, 8, 9, 3, 4]);
makespan = 592;
----------
assign = array1d(1..9 ,[2, 1, 2, 1, 2, 1, 2, 1, 2]);
next = array1d(1..9 ,[5, 6, 1, 2, 7, 8, 9, 3, 4]);
makespan = 590;
----------
assign = array1d(1..9 ,[2, 1, 2, 1, 2, 1, 2, 1, 2]);
next = array1d(1..9 ,[5, 6, 1, 2, 7, 8, 9, 3, 4]);
makespan = 588;
----------
assign = array1d(1..9 ,[2, 1, 2, 1, 2, 1, 2, 1, 2]);
next = array1d(1..9 ,[5, 6, 1, 2, 7, 8, 9, 3, 4]);
makespan = 587;
----------
assign = array1d(1..9 ,[2, 1, 2, 1, 2, 1, 2, 1, 2]);
next = array1d(1..9 ,[5, 6, 1, 2, 7, 8, 9, 3, 4]);
makespan = 586;
----------
assign = array1d(1..9 ,[2, 1, 2, 1, 2, 1, 2, 1, 2]);
next = array1d(1..9 ,[5, 6, 1, 2, 7, 8, 9, 3, 4]);
makespan = 585;
----------
assign = array1d(1..9 ,[2, 1, 2, 1, 2, 1, 2, 1, 2]);
next = array1d(1..9 ,[5, 6, 1, 2, 7, 8, 9, 3, 4]);
makespan = 579;
----------
assign = array1d(1..9 ,[2, 1, 2, 1, 2, 1, 2, 1, 2]);
next = array1d(1..9 ,[5, 6, 1, 2, 7, 8, 9, 3, 4]);
makespan = 572;
----------
assign = array1d(1..9 ,[2, 1, 2, 1, 2, 1, 2, 1, 2]);
next = array1d(1..9 ,[5, 6, 1, 2, 7, 8, 9, 3, 4]);
makespan = 549;
----------
assign = array1d(1..9 ,[2, 1, 2, 1, 2, 1, 2, 1, 2]);
next = array1d(1..9 ,[5, 6, 1, 2, 9, 8, 3, 7, 4]);
makespan = 543;
----------
assign = array1d(1..9 ,[2, 1, 2, 1, 2, 1, 2, 1, 2]);
next = array1d(1..9 ,[5, 6, 1, 2, 9, 8, 3, 7, 4]);
makespan = 542;
----------
assign = array1d(1..9 ,[2, 1, 2, 1, 2, 1, 2, 1, 2]);
next = array1d(1..9 ,[5, 6, 1, 2, 9, 8, 3, 7, 4]);
makespan = 519;
----------
assign = array1d(1..9 ,[2, 1, 2, 1, 2, 2, 1, 1, 2]);
next = array1d(1..9 ,[5, 7, 1, 2, 6, 9, 8, 3, 4]);
makespan = 516;
----------
assign = array1d(1..9 ,[2, 1, 2, 1, 2, 2, 1, 1, 2]);
next = array1d(1..9 ,[5, 7, 1, 2, 6, 9, 8, 3, 4]);
makespan = 511;
----------
assign = array1d(1..9 ,[2, 1, 2, 1, 2, 2, 1, 1, 2]);
next = array1d(1..9 ,[5, 7, 1, 2, 6, 9, 8, 3, 4]);
makespan = 502;
----------
assign = array1d(1..9 ,[2, 1, 2, 1, 2, 1, 1, 1, 2]);
next = array1d(1..9 ,[5, 7, 1, 2, 9, 8, 6, 3, 4]);
makespan = 496;
----------
assign = array1d(1..9 ,[2, 1, 2, 1, 2, 1, 1, 1, 2]);
next = array1d(1..9 ,[5, 7, 1, 2, 9, 8, 6, 3, 4]);
makespan = 466;
----------
assign = array1d(1..9 ,[2, 1, 2, 1, 2, 1, 1, 1, 2]);
next = array1d(1..9 ,[5, 7, 1, 2, 9, 8, 6, 3, 4]);
makespan = 459;
----------
assign = array1d(1..9 ,[2, 2, 1, 1, 2, 1, 1, 1, 2]);
next = array1d(1..9 ,[5, 9, 8, 7, 2, 3, 6, 1, 4]);
makespan = 454;
----------
assign = array1d(1..9 ,[2, 2, 1, 1, 2, 1, 1, 1, 2]);
next = array1d(1..9 ,[2, 5, 8, 7, 9, 3, 6, 1, 4]);
makespan = 453;
----------
assign = array1d(1..9 ,[2, 2, 1, 1, 2, 1, 1, 1, 2]);
next = array1d(1..9 ,[2, 5, 8, 7, 9, 3, 6, 1, 4]);
makespan = 452;
----------
assign = array1d(1..9 ,[2, 1, 1, 2, 2, 1, 1, 1, 2]);
next = array1d(1..9 ,[4, 7, 8, 5, 9, 3, 6, 1, 2]);
makespan = 449;
----------
assign = array1d(1..9 ,[2, 2, 1, 1, 2, 1, 1, 1, 2]);
next = array1d(1..9 ,[5, 1, 7, 3, 9, 8, 6, 2, 4]);
makespan = 445;
----------
assign = array1d(1..9 ,[2, 2, 1, 1, 2, 1, 1, 1, 2]);
next = array1d(1..9 ,[5, 9, 4, 8, 2, 3, 6, 1, 7]);
makespan = 440;
----------
assign = array1d(1..9 ,[1, 2, 1, 1, 2, 2, 1, 1, 2]);
next = array1d(1..9 ,[8, 5, 1, 3, 9, 2, 4, 6, 7]);
makespan = 439;
----------
assign = array1d(1..9 ,[2, 2, 1, 1, 2, 1, 1, 1, 2]);
next = array1d(1..9 ,[5, 1, 4, 8, 9, 3, 6, 2, 7]);
makespan = 438;
----------
assign = array1d(1..9 ,[2, 2, 1, 2, 1, 1, 1, 1, 2]);
next = array1d(1..9 ,[9, 4, 8, 1, 7, 3, 6, 2, 5]);
makespan = 436;
----------
assign = array1d(1..9 ,[2, 2, 1, 1, 2, 1, 1, 1, 2]);
next = array1d(1..9 ,[5, 9, 4, 8, 2, 3, 6, 1, 7]);
makespan = 435;
----------
assign = array1d(1..9 ,[1, 2, 1, 1, 2, 2, 1, 1, 2]);
next = array1d(1..9 ,[8, 6, 1, 3, 9, 5, 4, 2, 7]);
makespan = 434;
----------
assign = array1d(1..9 ,[1, 2, 1, 1, 2, 2, 1, 1, 2]);
next = array1d(1..9 ,[8, 6, 1, 3, 9, 5, 4, 2, 7]);
makespan = 433;
----------
assign = array1d(1..9 ,[1, 2, 1, 1, 2, 2, 1, 1, 2]);
next = array1d(1..9 ,[8, 6, 1, 3, 9, 5, 4, 2, 7]);
makespan = 432;
----------
assign = array1d(1..9 ,[1, 2, 1, 1, 2, 2, 1, 1, 2]);
next = array1d(1..9 ,[8, 6, 1, 3, 9, 5, 4, 2, 7]);
makespan = 431;
----------
assign = array1d(1..9 ,[1, 2, 1, 1, 2, 2, 1, 1, 2]);
next = array1d(1..9 ,[8, 6, 1, 3, 9, 5, 4, 2, 7]);
makespan = 430;
----------
assign = array1d(1..9 ,[1, 2, 1, 1, 2, 2, 1, 1, 2]);
next = array1d(1..9 ,[8, 6, 1, 3, 9, 5, 4, 2, 7]);
makespan = 429;
----------
assign = array1d(1..9 ,[2, 2, 1, 1, 2, 1, 1, 1, 2]);
next = array1d(1..9 ,[5, 9, 8, 6, 2, 3, 4, 1, 7]);
makespan = 428;
----------
==========
	Command being timed: "mzn-chuffed lbbd-datasets/Rabadi-2006/dzn-balanced/model.mzn lbbd-datasets/Rabadi-2006/dzn-balanced/7on2Rp50Rs50_11Ameer.dzn"
	User time (seconds): 0.24
	System time (seconds): 0.00
	Percent of CPU this job got: 28%
	Elapsed (wall clock) time (h:mm:ss or m:ss): 0:00.87
	Average shared text size (kbytes): 0
	Average unshared data size (kbytes): 0
	Average stack size (kbytes): 0
	Average total size (kbytes): 0
	Maximum resident set size (kbytes): 30912
	Average resident set size (kbytes): 0
	Major (requiring I/O) page faults: 0
	Minor (reclaiming a frame) page faults: 2698
	Voluntary context switches: 135
	Involuntary context switches: 2
	Swaps: 0
	File system inputs: 0
	File system outputs: 160
	Socket messages sent: 0
	Socket messages received: 0
	Signals delivered: 0
	Page size (bytes): 4096
	Exit status: 0
