+ /usr/bin/timeout 600 /usr/bin/time -v mzn-chuffed lbbd-datasets/Rabadi-2006/dzn-s-dominant/model.mzn lbbd-datasets/Rabadi-2006/dzn-s-dominant/9on2Rp50Rs50_7Ameer.dzn
% No search annotation given. Defaulting to VSIDS!
assign = array1d(1..11 ,[2, 2, 2, 2, 2, 2, 2, 2, 2, 1, 2]);
next = array1d(1..11 ,[2, 3, 4, 5, 6, 7, 8, 9, 11, 1, 10]);
makespan = 2004;
----------
assign = array1d(1..11 ,[2, 2, 2, 2, 2, 2, 2, 2, 2, 1, 2]);
next = array1d(1..11 ,[3, 4, 2, 5, 6, 7, 8, 9, 11, 1, 10]);
makespan = 1931;
----------
assign = array1d(1..11 ,[2, 2, 2, 2, 2, 2, 2, 2, 2, 1, 2]);
next = array1d(1..11 ,[9, 7, 8, 11, 1, 4, 5, 2, 6, 3, 10]);
makespan = 1929;
----------
assign = array1d(1..11 ,[2, 2, 2, 2, 2, 2, 2, 2, 2, 1, 2]);
next = array1d(1..11 ,[4, 1, 11, 8, 3, 2, 6, 9, 5, 7, 10]);
makespan = 1922;
----------
assign = array1d(1..11 ,[2, 2, 2, 2, 2, 2, 2, 2, 2, 1, 2]);
next = array1d(1..11 ,[2, 8, 11, 1, 3, 4, 5, 7, 6, 9, 10]);
makespan = 1918;
----------
assign = array1d(1..11 ,[2, 2, 2, 2, 2, 2, 2, 2, 2, 1, 2]);
next = array1d(1..11 ,[5, 1, 11, 8, 3, 2, 4, 9, 6, 7, 10]);
makespan = 1906;
----------
assign = array1d(1..11 ,[2, 2, 2, 2, 2, 2, 2, 2, 2, 1, 2]);
next = array1d(1..11 ,[5, 7, 8, 1, 3, 4, 11, 2, 6, 9, 10]);
makespan = 1905;
----------
assign = array1d(1..11 ,[2, 2, 2, 2, 2, 2, 2, 2, 2, 1, 2]);
next = array1d(1..11 ,[5, 1, 8, 11, 3, 2, 6, 9, 4, 7, 10]);
makespan = 1886;
----------
assign = array1d(1..11 ,[2, 1, 2, 2, 2, 2, 2, 2, 2, 1, 2]);
next = array1d(1..11 ,[5, 10, 9, 1, 3, 11, 4, 7, 6, 8, 2]);
makespan = 1885;
----------
assign = array1d(1..11 ,[2, 1, 2, 2, 2, 2, 2, 2, 2, 1, 2]);
next = array1d(1..11 ,[5, 10, 9, 1, 3, 11, 4, 7, 6, 8, 2]);
makespan = 1883;
----------
assign = array1d(1..11 ,[2, 1, 2, 2, 2, 2, 2, 2, 2, 1, 2]);
next = array1d(1..11 ,[5, 10, 9, 1, 3, 11, 4, 7, 6, 8, 2]);
makespan = 1882;
----------
assign = array1d(1..11 ,[2, 1, 2, 2, 2, 2, 2, 2, 2, 1, 2]);
next = array1d(1..11 ,[5, 10, 9, 1, 3, 11, 4, 7, 6, 8, 2]);
makespan = 1879;
----------
assign = array1d(1..11 ,[2, 1, 2, 2, 2, 2, 2, 2, 2, 1, 2]);
next = array1d(1..11 ,[5, 10, 9, 1, 3, 11, 4, 7, 6, 8, 2]);
makespan = 1877;
----------
assign = array1d(1..11 ,[2, 1, 2, 2, 2, 2, 2, 2, 2, 1, 2]);
next = array1d(1..11 ,[5, 10, 9, 1, 3, 11, 4, 7, 6, 8, 2]);
makespan = 1872;
----------
assign = array1d(1..11 ,[2, 1, 2, 2, 2, 2, 2, 2, 2, 1, 2]);
next = array1d(1..11 ,[5, 10, 9, 1, 3, 11, 4, 7, 6, 8, 2]);
makespan = 1870;
----------
assign = array1d(1..11 ,[2, 1, 2, 2, 2, 2, 2, 2, 2, 1, 2]);
next = array1d(1..11 ,[5, 10, 9, 1, 3, 11, 4, 7, 6, 8, 2]);
makespan = 1869;
----------
assign = array1d(1..11 ,[2, 1, 2, 2, 2, 2, 2, 2, 2, 1, 2]);
next = array1d(1..11 ,[5, 10, 9, 1, 3, 11, 4, 7, 6, 8, 2]);
makespan = 1867;
----------
assign = array1d(1..11 ,[2, 1, 2, 2, 2, 2, 2, 2, 2, 1, 2]);
next = array1d(1..11 ,[5, 10, 9, 1, 3, 11, 4, 7, 6, 8, 2]);
makespan = 1866;
----------
assign = array1d(1..11 ,[2, 1, 2, 2, 2, 2, 2, 2, 2, 1, 2]);
next = array1d(1..11 ,[5, 10, 9, 1, 3, 11, 4, 7, 6, 8, 2]);
makespan = 1865;
----------
assign = array1d(1..11 ,[2, 1, 2, 2, 2, 2, 2, 2, 2, 1, 2]);
next = array1d(1..11 ,[5, 10, 9, 1, 3, 11, 4, 7, 6, 8, 2]);
makespan = 1863;
----------
assign = array1d(1..11 ,[2, 1, 2, 2, 2, 2, 2, 2, 2, 1, 2]);
next = array1d(1..11 ,[5, 10, 9, 1, 3, 11, 4, 7, 6, 8, 2]);
makespan = 1862;
----------
assign = array1d(1..11 ,[2, 1, 2, 2, 2, 2, 2, 2, 2, 1, 2]);
next = array1d(1..11 ,[5, 10, 9, 1, 3, 11, 4, 7, 6, 8, 2]);
makespan = 1860;
----------
assign = array1d(1..11 ,[2, 1, 2, 2, 2, 2, 2, 2, 2, 1, 2]);
next = array1d(1..11 ,[5, 10, 9, 1, 3, 11, 4, 7, 6, 8, 2]);
makespan = 1856;
----------
assign = array1d(1..11 ,[2, 1, 2, 2, 2, 2, 2, 2, 2, 1, 2]);
next = array1d(1..11 ,[5, 10, 9, 1, 3, 11, 4, 7, 6, 8, 2]);
makespan = 1854;
----------
assign = array1d(1..11 ,[2, 1, 2, 2, 2, 2, 2, 2, 2, 1, 2]);
next = array1d(1..11 ,[5, 10, 9, 1, 3, 11, 4, 7, 6, 8, 2]);
makespan = 1853;
----------
assign = array1d(1..11 ,[2, 1, 2, 2, 2, 2, 2, 2, 2, 1, 2]);
next = array1d(1..11 ,[5, 10, 9, 1, 3, 11, 4, 7, 6, 8, 2]);
makespan = 1852;
----------
assign = array1d(1..11 ,[2, 1, 2, 2, 2, 2, 2, 2, 2, 1, 2]);
next = array1d(1..11 ,[5, 10, 9, 1, 3, 11, 4, 7, 6, 8, 2]);
makespan = 1849;
----------
assign = array1d(1..11 ,[2, 1, 2, 2, 2, 2, 2, 2, 2, 1, 2]);
next = array1d(1..11 ,[5, 10, 9, 1, 3, 11, 4, 7, 6, 8, 2]);
makespan = 1847;
----------
assign = array1d(1..11 ,[2, 1, 2, 2, 2, 2, 2, 2, 2, 1, 2]);
next = array1d(1..11 ,[5, 10, 9, 1, 3, 11, 4, 7, 6, 8, 2]);
makespan = 1845;
----------
assign = array1d(1..11 ,[2, 1, 2, 2, 2, 2, 2, 2, 2, 1, 2]);
next = array1d(1..11 ,[5, 10, 9, 1, 3, 11, 4, 7, 6, 8, 2]);
makespan = 1843;
----------
assign = array1d(1..11 ,[2, 1, 2, 2, 2, 2, 2, 2, 2, 1, 2]);
next = array1d(1..11 ,[5, 10, 9, 1, 3, 11, 4, 7, 6, 8, 2]);
makespan = 1840;
----------
assign = array1d(1..11 ,[2, 1, 2, 2, 2, 2, 2, 2, 2, 1, 2]);
next = array1d(1..11 ,[5, 10, 9, 1, 3, 11, 4, 7, 6, 8, 2]);
makespan = 1839;
----------
assign = array1d(1..11 ,[2, 1, 2, 2, 2, 2, 2, 2, 2, 1, 2]);
next = array1d(1..11 ,[5, 10, 9, 1, 3, 11, 4, 7, 6, 8, 2]);
makespan = 1837;
----------
assign = array1d(1..11 ,[2, 1, 2, 2, 2, 2, 2, 2, 2, 1, 2]);
next = array1d(1..11 ,[5, 10, 9, 1, 3, 11, 4, 7, 6, 8, 2]);
makespan = 1836;
----------
assign = array1d(1..11 ,[2, 1, 2, 2, 2, 2, 2, 2, 2, 1, 2]);
next = array1d(1..11 ,[5, 10, 9, 1, 3, 11, 4, 7, 6, 8, 2]);
makespan = 1833;
----------
assign = array1d(1..11 ,[2, 1, 2, 2, 2, 2, 2, 2, 2, 1, 2]);
next = array1d(1..11 ,[5, 10, 9, 1, 3, 11, 4, 7, 6, 8, 2]);
makespan = 1832;
----------
assign = array1d(1..11 ,[2, 1, 2, 2, 2, 2, 2, 2, 2, 1, 2]);
next = array1d(1..11 ,[5, 10, 9, 1, 3, 11, 4, 7, 6, 8, 2]);
makespan = 1831;
----------
assign = array1d(1..11 ,[2, 1, 2, 2, 2, 2, 2, 2, 2, 1, 2]);
next = array1d(1..11 ,[5, 10, 9, 1, 3, 11, 4, 7, 6, 8, 2]);
makespan = 1830;
----------
assign = array1d(1..11 ,[2, 1, 2, 2, 2, 2, 2, 2, 2, 1, 2]);
next = array1d(1..11 ,[5, 10, 9, 1, 3, 11, 4, 7, 6, 8, 2]);
makespan = 1824;
----------
assign = array1d(1..11 ,[2, 1, 2, 2, 2, 2, 2, 2, 2, 1, 2]);
next = array1d(1..11 ,[5, 10, 9, 1, 3, 11, 4, 7, 6, 8, 2]);
makespan = 1823;
----------
assign = array1d(1..11 ,[2, 1, 2, 2, 2, 2, 2, 2, 2, 1, 2]);
next = array1d(1..11 ,[5, 10, 9, 1, 3, 11, 4, 7, 6, 8, 2]);
makespan = 1820;
----------
assign = array1d(1..11 ,[2, 1, 2, 2, 2, 2, 2, 2, 2, 1, 2]);
next = array1d(1..11 ,[5, 10, 9, 1, 3, 11, 4, 7, 6, 8, 2]);
makespan = 1819;
----------
assign = array1d(1..11 ,[2, 1, 2, 2, 2, 2, 2, 2, 2, 1, 2]);
next = array1d(1..11 ,[5, 10, 9, 1, 3, 11, 4, 7, 6, 8, 2]);
makespan = 1817;
----------
assign = array1d(1..11 ,[2, 1, 2, 2, 2, 2, 2, 2, 2, 1, 2]);
next = array1d(1..11 ,[5, 10, 9, 1, 3, 11, 4, 7, 6, 8, 2]);
makespan = 1813;
----------
assign = array1d(1..11 ,[2, 1, 2, 2, 2, 2, 2, 2, 2, 1, 2]);
next = array1d(1..11 ,[5, 10, 9, 1, 3, 11, 4, 7, 6, 8, 2]);
makespan = 1811;
----------
assign = array1d(1..11 ,[2, 1, 2, 2, 2, 2, 2, 2, 2, 1, 2]);
next = array1d(1..11 ,[5, 10, 9, 1, 3, 11, 4, 7, 6, 8, 2]);
makespan = 1810;
----------
assign = array1d(1..11 ,[2, 1, 2, 2, 2, 2, 2, 2, 2, 1, 2]);
next = array1d(1..11 ,[5, 10, 9, 1, 3, 11, 4, 7, 6, 8, 2]);
makespan = 1808;
----------
assign = array1d(1..11 ,[2, 1, 2, 2, 2, 2, 2, 2, 2, 1, 2]);
next = array1d(1..11 ,[5, 10, 9, 1, 3, 11, 4, 7, 6, 8, 2]);
makespan = 1807;
----------
assign = array1d(1..11 ,[2, 1, 2, 2, 2, 2, 2, 2, 2, 1, 2]);
next = array1d(1..11 ,[5, 10, 9, 1, 3, 11, 4, 7, 6, 8, 2]);
makespan = 1804;
----------
assign = array1d(1..11 ,[2, 1, 2, 2, 2, 2, 2, 2, 2, 1, 2]);
next = array1d(1..11 ,[5, 10, 9, 1, 3, 11, 4, 7, 6, 8, 2]);
makespan = 1801;
----------
assign = array1d(1..11 ,[2, 1, 2, 2, 2, 2, 2, 2, 2, 1, 2]);
next = array1d(1..11 ,[5, 10, 9, 1, 3, 11, 4, 7, 6, 8, 2]);
makespan = 1800;
----------
assign = array1d(1..11 ,[2, 1, 2, 2, 2, 2, 2, 2, 2, 1, 2]);
next = array1d(1..11 ,[5, 10, 9, 1, 3, 11, 4, 7, 6, 8, 2]);
makespan = 1797;
----------
assign = array1d(1..11 ,[2, 1, 2, 2, 2, 2, 2, 2, 2, 1, 2]);
next = array1d(1..11 ,[5, 10, 9, 1, 3, 11, 4, 7, 6, 8, 2]);
makespan = 1796;
----------
assign = array1d(1..11 ,[2, 1, 2, 2, 2, 2, 2, 2, 2, 1, 2]);
next = array1d(1..11 ,[5, 10, 9, 1, 3, 11, 4, 7, 6, 8, 2]);
makespan = 1795;
----------
assign = array1d(1..11 ,[2, 1, 2, 2, 2, 2, 2, 2, 2, 1, 2]);
next = array1d(1..11 ,[5, 10, 9, 1, 3, 11, 4, 7, 6, 8, 2]);
makespan = 1794;
----------
assign = array1d(1..11 ,[2, 1, 2, 2, 2, 2, 2, 2, 2, 1, 2]);
next = array1d(1..11 ,[5, 10, 9, 1, 3, 11, 4, 7, 6, 8, 2]);
makespan = 1793;
----------
assign = array1d(1..11 ,[2, 1, 2, 2, 2, 2, 2, 2, 2, 1, 2]);
next = array1d(1..11 ,[5, 10, 9, 1, 3, 11, 4, 7, 6, 8, 2]);
makespan = 1791;
----------
assign = array1d(1..11 ,[2, 1, 2, 2, 2, 2, 2, 2, 2, 1, 2]);
next = array1d(1..11 ,[5, 10, 9, 1, 3, 11, 4, 7, 6, 8, 2]);
makespan = 1790;
----------
assign = array1d(1..11 ,[2, 1, 2, 2, 2, 2, 2, 2, 2, 1, 2]);
next = array1d(1..11 ,[5, 10, 9, 1, 3, 11, 4, 7, 6, 8, 2]);
makespan = 1788;
----------
assign = array1d(1..11 ,[2, 1, 2, 2, 2, 2, 2, 2, 2, 1, 2]);
next = array1d(1..11 ,[5, 10, 9, 1, 3, 11, 4, 7, 6, 8, 2]);
makespan = 1787;
----------
assign = array1d(1..11 ,[2, 1, 2, 2, 2, 2, 2, 2, 2, 1, 2]);
next = array1d(1..11 ,[5, 10, 9, 1, 3, 11, 4, 7, 6, 8, 2]);
makespan = 1785;
----------
assign = array1d(1..11 ,[2, 1, 2, 2, 2, 2, 2, 2, 2, 1, 2]);
next = array1d(1..11 ,[5, 10, 9, 1, 3, 11, 4, 7, 6, 8, 2]);
makespan = 1784;
----------
assign = array1d(1..11 ,[2, 1, 2, 2, 2, 2, 2, 2, 2, 1, 2]);
next = array1d(1..11 ,[5, 10, 9, 1, 3, 11, 4, 7, 6, 8, 2]);
makespan = 1783;
----------
assign = array1d(1..11 ,[2, 1, 2, 2, 2, 2, 2, 2, 2, 1, 2]);
next = array1d(1..11 ,[5, 10, 9, 1, 3, 11, 4, 7, 6, 8, 2]);
makespan = 1781;
----------
assign = array1d(1..11 ,[2, 1, 2, 2, 2, 2, 2, 2, 2, 1, 2]);
next = array1d(1..11 ,[5, 10, 9, 1, 3, 11, 4, 7, 6, 8, 2]);
makespan = 1780;
----------
assign = array1d(1..11 ,[2, 1, 2, 2, 2, 2, 2, 2, 2, 1, 2]);
next = array1d(1..11 ,[5, 10, 9, 1, 3, 11, 4, 7, 6, 8, 2]);
makespan = 1779;
----------
assign = array1d(1..11 ,[2, 1, 2, 2, 2, 2, 2, 2, 2, 1, 2]);
next = array1d(1..11 ,[5, 10, 9, 1, 3, 11, 4, 7, 6, 8, 2]);
makespan = 1778;
----------
assign = array1d(1..11 ,[2, 1, 2, 2, 2, 2, 2, 2, 2, 1, 2]);
next = array1d(1..11 ,[5, 10, 9, 1, 3, 11, 4, 7, 6, 8, 2]);
makespan = 1777;
----------
assign = array1d(1..11 ,[2, 1, 2, 2, 2, 2, 2, 2, 2, 1, 2]);
next = array1d(1..11 ,[5, 10, 9, 1, 3, 11, 4, 7, 6, 8, 2]);
makespan = 1776;
----------
assign = array1d(1..11 ,[2, 1, 2, 2, 2, 2, 2, 2, 2, 1, 2]);
next = array1d(1..11 ,[5, 10, 9, 1, 3, 11, 4, 7, 6, 8, 2]);
makespan = 1774;
----------
assign = array1d(1..11 ,[2, 1, 2, 2, 2, 2, 2, 2, 2, 1, 2]);
next = array1d(1..11 ,[5, 10, 9, 1, 3, 11, 4, 7, 6, 8, 2]);
makespan = 1772;
----------
assign = array1d(1..11 ,[2, 1, 2, 2, 2, 2, 2, 2, 2, 1, 2]);
next = array1d(1..11 ,[5, 10, 9, 1, 3, 11, 4, 7, 6, 8, 2]);
makespan = 1771;
----------
assign = array1d(1..11 ,[2, 1, 2, 2, 2, 2, 2, 2, 2, 1, 2]);
next = array1d(1..11 ,[5, 10, 9, 1, 3, 11, 4, 7, 6, 8, 2]);
makespan = 1770;
----------
assign = array1d(1..11 ,[2, 1, 2, 2, 2, 2, 2, 2, 2, 1, 2]);
next = array1d(1..11 ,[5, 10, 9, 1, 3, 11, 4, 7, 6, 8, 2]);
makespan = 1768;
----------
assign = array1d(1..11 ,[2, 1, 2, 2, 2, 2, 2, 2, 2, 1, 2]);
next = array1d(1..11 ,[5, 10, 9, 1, 3, 11, 4, 7, 6, 8, 2]);
makespan = 1767;
----------
assign = array1d(1..11 ,[2, 1, 2, 2, 2, 2, 2, 2, 2, 1, 2]);
next = array1d(1..11 ,[5, 10, 9, 1, 3, 11, 4, 7, 6, 8, 2]);
makespan = 1766;
----------
assign = array1d(1..11 ,[2, 1, 2, 2, 2, 2, 2, 2, 2, 1, 2]);
next = array1d(1..11 ,[5, 10, 9, 1, 3, 11, 4, 7, 6, 8, 2]);
makespan = 1765;
----------
assign = array1d(1..11 ,[2, 1, 2, 2, 2, 2, 2, 2, 2, 1, 2]);
next = array1d(1..11 ,[5, 10, 9, 1, 3, 11, 4, 7, 6, 8, 2]);
makespan = 1764;
----------
assign = array1d(1..11 ,[2, 1, 2, 2, 2, 2, 2, 2, 2, 1, 2]);
next = array1d(1..11 ,[5, 10, 9, 1, 3, 11, 4, 7, 6, 8, 2]);
makespan = 1763;
----------
assign = array1d(1..11 ,[2, 1, 2, 2, 2, 2, 2, 2, 2, 1, 2]);
next = array1d(1..11 ,[5, 10, 9, 1, 3, 11, 4, 7, 6, 8, 2]);
makespan = 1762;
----------
assign = array1d(1..11 ,[2, 1, 2, 2, 2, 2, 2, 2, 2, 1, 2]);
next = array1d(1..11 ,[5, 10, 9, 1, 3, 11, 4, 7, 6, 8, 2]);
makespan = 1761;
----------
assign = array1d(1..11 ,[2, 1, 2, 2, 2, 2, 2, 2, 2, 1, 2]);
next = array1d(1..11 ,[5, 10, 9, 1, 3, 11, 4, 7, 6, 8, 2]);
makespan = 1758;
----------
assign = array1d(1..11 ,[2, 1, 2, 2, 2, 2, 2, 2, 2, 1, 2]);
next = array1d(1..11 ,[5, 10, 9, 1, 3, 11, 4, 7, 6, 8, 2]);
makespan = 1757;
----------
assign = array1d(1..11 ,[2, 1, 2, 2, 2, 2, 2, 2, 2, 1, 2]);
next = array1d(1..11 ,[5, 10, 9, 1, 3, 11, 4, 7, 6, 8, 2]);
makespan = 1755;
----------
assign = array1d(1..11 ,[2, 1, 2, 2, 2, 2, 2, 2, 2, 1, 2]);
next = array1d(1..11 ,[5, 10, 9, 1, 3, 11, 4, 7, 6, 8, 2]);
makespan = 1754;
----------
assign = array1d(1..11 ,[2, 1, 2, 2, 2, 2, 2, 2, 2, 1, 2]);
next = array1d(1..11 ,[5, 10, 9, 1, 3, 11, 4, 7, 6, 8, 2]);
makespan = 1753;
----------
assign = array1d(1..11 ,[2, 1, 2, 2, 2, 2, 2, 2, 2, 1, 2]);
next = array1d(1..11 ,[5, 10, 9, 1, 3, 11, 4, 7, 6, 8, 2]);
makespan = 1751;
----------
assign = array1d(1..11 ,[2, 1, 2, 2, 2, 2, 2, 2, 2, 1, 2]);
next = array1d(1..11 ,[5, 10, 9, 1, 3, 11, 4, 7, 6, 8, 2]);
makespan = 1750;
----------
assign = array1d(1..11 ,[2, 1, 2, 2, 2, 2, 2, 2, 2, 1, 2]);
next = array1d(1..11 ,[5, 10, 9, 1, 3, 11, 4, 7, 6, 8, 2]);
makespan = 1749;
----------
assign = array1d(1..11 ,[2, 1, 2, 2, 2, 2, 2, 2, 2, 1, 2]);
next = array1d(1..11 ,[5, 10, 9, 1, 3, 11, 4, 7, 6, 8, 2]);
makespan = 1748;
----------
assign = array1d(1..11 ,[2, 1, 2, 2, 2, 2, 2, 2, 2, 1, 2]);
next = array1d(1..11 ,[5, 10, 9, 1, 3, 11, 4, 7, 6, 8, 2]);
makespan = 1747;
----------
assign = array1d(1..11 ,[2, 1, 2, 2, 2, 2, 2, 2, 2, 1, 2]);
next = array1d(1..11 ,[5, 10, 9, 1, 3, 11, 4, 7, 6, 8, 2]);
makespan = 1746;
----------
assign = array1d(1..11 ,[2, 1, 2, 2, 2, 2, 2, 2, 2, 1, 2]);
next = array1d(1..11 ,[5, 10, 9, 1, 3, 11, 4, 7, 6, 8, 2]);
makespan = 1745;
----------
assign = array1d(1..11 ,[2, 1, 2, 2, 2, 2, 2, 2, 2, 1, 2]);
next = array1d(1..11 ,[5, 10, 9, 1, 3, 11, 4, 7, 6, 8, 2]);
makespan = 1744;
----------
assign = array1d(1..11 ,[2, 1, 2, 2, 2, 2, 2, 2, 2, 1, 2]);
next = array1d(1..11 ,[5, 10, 9, 1, 3, 11, 4, 7, 6, 8, 2]);
makespan = 1742;
----------
assign = array1d(1..11 ,[2, 1, 2, 2, 2, 2, 2, 2, 2, 1, 2]);
next = array1d(1..11 ,[5, 10, 9, 1, 3, 11, 4, 7, 6, 8, 2]);
makespan = 1741;
----------
assign = array1d(1..11 ,[2, 1, 2, 2, 2, 2, 2, 2, 2, 1, 2]);
next = array1d(1..11 ,[5, 10, 9, 1, 3, 11, 4, 7, 6, 8, 2]);
makespan = 1738;
----------
assign = array1d(1..11 ,[2, 1, 2, 2, 2, 2, 2, 2, 2, 1, 2]);
next = array1d(1..11 ,[5, 10, 9, 1, 3, 11, 4, 7, 6, 8, 2]);
makespan = 1737;
----------
assign = array1d(1..11 ,[2, 1, 2, 2, 2, 2, 2, 2, 2, 1, 2]);
next = array1d(1..11 ,[5, 10, 9, 1, 3, 11, 4, 7, 6, 8, 2]);
makespan = 1735;
----------
assign = array1d(1..11 ,[2, 1, 2, 2, 2, 2, 2, 2, 2, 1, 2]);
next = array1d(1..11 ,[5, 10, 9, 1, 3, 11, 4, 7, 6, 8, 2]);
makespan = 1734;
----------
assign = array1d(1..11 ,[2, 1, 2, 2, 2, 2, 2, 2, 2, 1, 2]);
next = array1d(1..11 ,[5, 10, 9, 1, 3, 11, 4, 7, 6, 8, 2]);
makespan = 1732;
----------
assign = array1d(1..11 ,[2, 1, 2, 2, 2, 2, 2, 2, 2, 1, 2]);
next = array1d(1..11 ,[5, 10, 9, 1, 3, 11, 4, 7, 6, 8, 2]);
makespan = 1731;
----------
assign = array1d(1..11 ,[2, 1, 2, 2, 2, 2, 2, 2, 2, 1, 2]);
next = array1d(1..11 ,[5, 10, 9, 1, 3, 11, 4, 7, 6, 8, 2]);
makespan = 1729;
----------
assign = array1d(1..11 ,[2, 1, 2, 2, 2, 2, 2, 2, 2, 1, 2]);
next = array1d(1..11 ,[5, 10, 9, 1, 3, 11, 4, 7, 6, 8, 2]);
makespan = 1728;
----------
assign = array1d(1..11 ,[2, 1, 2, 2, 2, 2, 2, 2, 2, 1, 2]);
next = array1d(1..11 ,[5, 10, 9, 1, 3, 11, 4, 7, 6, 8, 2]);
makespan = 1727;
----------
assign = array1d(1..11 ,[2, 1, 2, 2, 2, 2, 2, 2, 2, 1, 2]);
next = array1d(1..11 ,[5, 10, 9, 1, 3, 11, 4, 7, 6, 8, 2]);
makespan = 1726;
----------
assign = array1d(1..11 ,[2, 1, 2, 2, 2, 2, 2, 2, 2, 1, 2]);
next = array1d(1..11 ,[5, 10, 9, 1, 3, 11, 4, 7, 6, 8, 2]);
makespan = 1725;
----------
assign = array1d(1..11 ,[2, 1, 2, 2, 2, 2, 2, 2, 2, 1, 2]);
next = array1d(1..11 ,[5, 10, 9, 1, 3, 11, 4, 7, 6, 8, 2]);
makespan = 1724;
----------
assign = array1d(1..11 ,[2, 1, 2, 2, 2, 2, 2, 2, 2, 1, 2]);
next = array1d(1..11 ,[5, 10, 9, 1, 3, 11, 4, 7, 6, 8, 2]);
makespan = 1723;
----------
assign = array1d(1..11 ,[2, 1, 2, 2, 2, 2, 2, 2, 2, 1, 2]);
next = array1d(1..11 ,[5, 10, 9, 1, 3, 11, 4, 7, 6, 8, 2]);
makespan = 1722;
----------
assign = array1d(1..11 ,[2, 1, 2, 2, 2, 2, 2, 2, 2, 1, 2]);
next = array1d(1..11 ,[5, 10, 9, 1, 3, 11, 4, 7, 6, 8, 2]);
makespan = 1721;
----------
assign = array1d(1..11 ,[2, 1, 2, 2, 2, 2, 2, 2, 2, 1, 2]);
next = array1d(1..11 ,[5, 10, 9, 1, 3, 11, 4, 7, 6, 8, 2]);
makespan = 1719;
----------
assign = array1d(1..11 ,[2, 1, 2, 2, 2, 2, 2, 2, 2, 1, 2]);
next = array1d(1..11 ,[5, 10, 9, 1, 3, 11, 4, 7, 6, 8, 2]);
makespan = 1718;
----------
assign = array1d(1..11 ,[2, 1, 2, 2, 2, 2, 2, 2, 2, 1, 2]);
next = array1d(1..11 ,[5, 10, 9, 1, 3, 11, 4, 7, 6, 8, 2]);
makespan = 1715;
----------
assign = array1d(1..11 ,[2, 1, 2, 2, 2, 2, 2, 2, 2, 1, 2]);
next = array1d(1..11 ,[5, 10, 9, 1, 3, 11, 4, 7, 6, 8, 2]);
makespan = 1714;
----------
assign = array1d(1..11 ,[2, 1, 2, 2, 2, 2, 2, 2, 2, 1, 2]);
next = array1d(1..11 ,[5, 10, 9, 1, 3, 11, 4, 7, 6, 8, 2]);
makespan = 1713;
----------
assign = array1d(1..11 ,[2, 1, 2, 2, 2, 2, 2, 2, 2, 1, 2]);
next = array1d(1..11 ,[5, 10, 9, 1, 3, 11, 4, 7, 6, 8, 2]);
makespan = 1712;
----------
assign = array1d(1..11 ,[2, 1, 2, 2, 2, 2, 2, 2, 2, 1, 2]);
next = array1d(1..11 ,[5, 10, 9, 1, 3, 11, 4, 7, 6, 8, 2]);
makespan = 1711;
----------
assign = array1d(1..11 ,[2, 1, 2, 2, 2, 2, 2, 2, 2, 1, 2]);
next = array1d(1..11 ,[5, 10, 9, 1, 3, 11, 4, 7, 6, 8, 2]);
makespan = 1710;
----------
assign = array1d(1..11 ,[2, 1, 2, 2, 2, 2, 2, 2, 2, 1, 2]);
next = array1d(1..11 ,[5, 10, 9, 1, 3, 11, 4, 7, 6, 8, 2]);
makespan = 1709;
----------
assign = array1d(1..11 ,[2, 1, 2, 2, 2, 2, 2, 2, 2, 1, 2]);
next = array1d(1..11 ,[5, 10, 9, 1, 3, 11, 4, 7, 6, 8, 2]);
makespan = 1708;
----------
assign = array1d(1..11 ,[2, 1, 2, 2, 2, 2, 2, 2, 2, 1, 2]);
next = array1d(1..11 ,[5, 10, 9, 1, 3, 11, 4, 7, 6, 8, 2]);
makespan = 1707;
----------
assign = array1d(1..11 ,[2, 1, 2, 2, 2, 2, 2, 2, 2, 1, 2]);
next = array1d(1..11 ,[5, 10, 11, 1, 3, 8, 4, 7, 6, 9, 2]);
makespan = 1706;
----------
assign = array1d(1..11 ,[2, 1, 2, 2, 2, 2, 2, 2, 2, 1, 2]);
next = array1d(1..11 ,[5, 10, 11, 1, 3, 8, 4, 7, 6, 9, 2]);
makespan = 1705;
----------
assign = array1d(1..11 ,[2, 1, 2, 2, 2, 2, 2, 2, 2, 1, 2]);
next = array1d(1..11 ,[5, 10, 11, 1, 3, 8, 4, 7, 6, 9, 2]);
makespan = 1704;
----------
assign = array1d(1..11 ,[2, 1, 2, 2, 2, 2, 2, 2, 2, 1, 2]);
next = array1d(1..11 ,[5, 10, 11, 1, 3, 8, 4, 7, 6, 9, 2]);
makespan = 1703;
----------
assign = array1d(1..11 ,[2, 1, 2, 2, 2, 2, 2, 2, 2, 1, 2]);
next = array1d(1..11 ,[5, 10, 11, 1, 3, 8, 4, 7, 6, 9, 2]);
makespan = 1702;
----------
assign = array1d(1..11 ,[2, 1, 2, 2, 2, 2, 2, 2, 2, 1, 2]);
next = array1d(1..11 ,[5, 10, 11, 1, 3, 8, 4, 7, 6, 9, 2]);
makespan = 1701;
----------
assign = array1d(1..11 ,[2, 1, 2, 2, 2, 2, 2, 2, 2, 1, 2]);
next = array1d(1..11 ,[5, 10, 11, 1, 3, 8, 4, 7, 6, 9, 2]);
makespan = 1699;
----------
assign = array1d(1..11 ,[2, 1, 2, 2, 2, 2, 2, 2, 2, 1, 2]);
next = array1d(1..11 ,[5, 10, 11, 1, 3, 8, 4, 7, 6, 9, 2]);
makespan = 1698;
----------
assign = array1d(1..11 ,[2, 1, 2, 2, 2, 2, 2, 2, 2, 1, 2]);
next = array1d(1..11 ,[5, 10, 11, 1, 3, 8, 4, 7, 6, 9, 2]);
makespan = 1697;
----------
assign = array1d(1..11 ,[2, 1, 2, 2, 2, 2, 2, 2, 2, 1, 2]);
next = array1d(1..11 ,[5, 10, 11, 1, 3, 8, 4, 7, 6, 9, 2]);
makespan = 1696;
----------
assign = array1d(1..11 ,[2, 1, 2, 2, 2, 2, 2, 2, 2, 1, 2]);
next = array1d(1..11 ,[5, 10, 11, 1, 3, 8, 4, 7, 6, 9, 2]);
makespan = 1695;
----------
assign = array1d(1..11 ,[2, 1, 2, 2, 2, 2, 2, 2, 2, 1, 2]);
next = array1d(1..11 ,[5, 10, 11, 1, 3, 8, 4, 7, 6, 9, 2]);
makespan = 1694;
----------
assign = array1d(1..11 ,[2, 1, 2, 2, 2, 2, 2, 2, 2, 1, 2]);
next = array1d(1..11 ,[5, 10, 11, 1, 3, 8, 4, 7, 6, 9, 2]);
makespan = 1693;
----------
assign = array1d(1..11 ,[2, 1, 2, 2, 2, 2, 2, 2, 2, 1, 2]);
next = array1d(1..11 ,[5, 10, 11, 1, 3, 8, 4, 7, 6, 9, 2]);
makespan = 1692;
----------
assign = array1d(1..11 ,[2, 1, 2, 2, 2, 2, 2, 2, 2, 1, 2]);
next = array1d(1..11 ,[5, 10, 9, 1, 3, 8, 11, 7, 6, 4, 2]);
makespan = 1691;
----------
assign = array1d(1..11 ,[2, 1, 2, 2, 2, 2, 2, 2, 2, 1, 2]);
next = array1d(1..11 ,[5, 10, 9, 1, 3, 8, 11, 7, 6, 4, 2]);
makespan = 1689;
----------
assign = array1d(1..11 ,[2, 1, 2, 2, 2, 2, 2, 2, 2, 1, 2]);
next = array1d(1..11 ,[5, 10, 9, 1, 3, 8, 11, 7, 6, 4, 2]);
makespan = 1688;
----------
assign = array1d(1..11 ,[2, 1, 2, 2, 2, 2, 2, 2, 2, 1, 2]);
next = array1d(1..11 ,[5, 10, 9, 1, 3, 8, 11, 7, 6, 4, 2]);
makespan = 1686;
----------
assign = array1d(1..11 ,[2, 1, 2, 2, 2, 2, 2, 2, 2, 1, 2]);
next = array1d(1..11 ,[5, 10, 9, 1, 3, 8, 11, 7, 6, 4, 2]);
makespan = 1685;
----------
assign = array1d(1..11 ,[2, 1, 2, 2, 2, 2, 2, 2, 2, 1, 2]);
next = array1d(1..11 ,[5, 10, 9, 1, 3, 8, 11, 7, 6, 4, 2]);
makespan = 1684;
----------
assign = array1d(1..11 ,[2, 1, 2, 2, 2, 2, 2, 2, 2, 1, 2]);
next = array1d(1..11 ,[5, 10, 9, 1, 3, 8, 11, 7, 6, 4, 2]);
makespan = 1683;
----------
assign = array1d(1..11 ,[2, 1, 2, 2, 2, 2, 2, 2, 2, 1, 2]);
next = array1d(1..11 ,[5, 10, 9, 1, 3, 8, 11, 7, 6, 4, 2]);
makespan = 1682;
----------
assign = array1d(1..11 ,[2, 1, 2, 2, 2, 2, 2, 2, 2, 1, 2]);
next = array1d(1..11 ,[5, 10, 9, 1, 3, 8, 11, 7, 6, 4, 2]);
makespan = 1681;
----------
assign = array1d(1..11 ,[2, 1, 2, 2, 2, 2, 2, 2, 2, 1, 2]);
next = array1d(1..11 ,[5, 10, 9, 1, 3, 8, 11, 7, 6, 4, 2]);
makespan = 1680;
----------
assign = array1d(1..11 ,[2, 1, 2, 2, 2, 2, 2, 2, 2, 1, 2]);
next = array1d(1..11 ,[5, 10, 9, 1, 3, 8, 11, 7, 6, 4, 2]);
makespan = 1679;
----------
assign = array1d(1..11 ,[2, 1, 2, 2, 2, 2, 2, 2, 2, 1, 2]);
next = array1d(1..11 ,[5, 10, 9, 1, 3, 8, 11, 7, 6, 4, 2]);
makespan = 1678;
----------
assign = array1d(1..11 ,[2, 1, 2, 2, 2, 2, 2, 2, 2, 1, 2]);
next = array1d(1..11 ,[5, 10, 9, 1, 3, 8, 11, 7, 6, 4, 2]);
makespan = 1677;
----------
assign = array1d(1..11 ,[2, 2, 2, 2, 2, 2, 1, 2, 2, 1, 2]);
next = array1d(1..11 ,[5, 9, 8, 1, 3, 4, 10, 11, 6, 2, 7]);
makespan = 1676;
----------
assign = array1d(1..11 ,[2, 2, 2, 2, 2, 2, 1, 2, 2, 1, 2]);
next = array1d(1..11 ,[5, 9, 8, 1, 3, 4, 10, 11, 6, 2, 7]);
makespan = 1675;
----------
assign = array1d(1..11 ,[2, 2, 2, 2, 2, 2, 1, 2, 2, 1, 2]);
next = array1d(1..11 ,[5, 9, 8, 1, 3, 4, 10, 11, 6, 2, 7]);
makespan = 1673;
----------
assign = array1d(1..11 ,[2, 2, 2, 2, 2, 2, 1, 2, 2, 1, 2]);
next = array1d(1..11 ,[5, 9, 8, 1, 3, 4, 10, 11, 6, 2, 7]);
makespan = 1672;
----------
assign = array1d(1..11 ,[2, 2, 2, 2, 2, 2, 1, 2, 2, 1, 2]);
next = array1d(1..11 ,[5, 9, 8, 1, 3, 4, 10, 11, 6, 2, 7]);
makespan = 1671;
----------
assign = array1d(1..11 ,[2, 2, 2, 2, 2, 2, 1, 2, 2, 1, 2]);
next = array1d(1..11 ,[5, 9, 8, 1, 3, 4, 10, 11, 6, 2, 7]);
makespan = 1669;
----------
assign = array1d(1..11 ,[2, 2, 2, 2, 2, 2, 1, 2, 2, 1, 2]);
next = array1d(1..11 ,[5, 9, 8, 1, 3, 4, 10, 11, 6, 2, 7]);
makespan = 1668;
----------
assign = array1d(1..11 ,[2, 2, 2, 2, 2, 2, 1, 2, 2, 1, 2]);
next = array1d(1..11 ,[5, 9, 8, 1, 3, 4, 10, 11, 6, 2, 7]);
makespan = 1666;
----------
assign = array1d(1..11 ,[2, 2, 2, 2, 2, 2, 1, 2, 2, 1, 2]);
next = array1d(1..11 ,[5, 9, 8, 1, 3, 4, 10, 11, 6, 2, 7]);
makespan = 1665;
----------
assign = array1d(1..11 ,[2, 2, 2, 2, 2, 2, 1, 2, 2, 1, 2]);
next = array1d(1..11 ,[5, 9, 8, 1, 3, 4, 10, 11, 6, 2, 7]);
makespan = 1664;
----------
assign = array1d(1..11 ,[2, 2, 2, 2, 2, 2, 1, 2, 2, 1, 2]);
next = array1d(1..11 ,[5, 9, 8, 1, 3, 4, 10, 11, 6, 2, 7]);
makespan = 1663;
----------
assign = array1d(1..11 ,[2, 2, 2, 2, 2, 2, 1, 2, 2, 1, 2]);
next = array1d(1..11 ,[5, 9, 8, 1, 3, 4, 10, 11, 6, 2, 7]);
makespan = 1662;
----------
assign = array1d(1..11 ,[2, 2, 2, 2, 2, 2, 1, 2, 2, 1, 2]);
next = array1d(1..11 ,[5, 9, 8, 1, 3, 4, 10, 11, 6, 2, 7]);
makespan = 1660;
----------
assign = array1d(1..11 ,[2, 2, 2, 2, 2, 2, 1, 2, 2, 1, 2]);
next = array1d(1..11 ,[5, 9, 8, 1, 3, 4, 10, 11, 6, 2, 7]);
makespan = 1659;
----------
assign = array1d(1..11 ,[2, 2, 2, 2, 2, 2, 1, 2, 2, 1, 2]);
next = array1d(1..11 ,[5, 9, 8, 1, 3, 4, 10, 11, 6, 2, 7]);
makespan = 1658;
----------
assign = array1d(1..11 ,[2, 2, 2, 2, 2, 2, 1, 2, 2, 1, 2]);
next = array1d(1..11 ,[5, 9, 8, 1, 3, 4, 10, 11, 6, 2, 7]);
makespan = 1657;
----------
assign = array1d(1..11 ,[2, 2, 2, 2, 2, 2, 1, 2, 2, 1, 2]);
next = array1d(1..11 ,[5, 9, 8, 1, 3, 4, 10, 11, 6, 2, 7]);
makespan = 1656;
----------
assign = array1d(1..11 ,[2, 2, 2, 2, 2, 2, 1, 2, 2, 1, 2]);
next = array1d(1..11 ,[5, 9, 8, 1, 3, 4, 10, 11, 6, 2, 7]);
makespan = 1655;
----------
assign = array1d(1..11 ,[2, 2, 2, 2, 2, 2, 1, 2, 2, 1, 2]);
next = array1d(1..11 ,[5, 9, 8, 1, 3, 4, 10, 11, 6, 2, 7]);
makespan = 1653;
----------
assign = array1d(1..11 ,[2, 2, 2, 2, 2, 2, 1, 2, 2, 1, 2]);
next = array1d(1..11 ,[5, 9, 8, 1, 3, 4, 10, 11, 6, 2, 7]);
makespan = 1652;
----------
assign = array1d(1..11 ,[2, 2, 2, 2, 2, 2, 1, 2, 2, 1, 2]);
next = array1d(1..11 ,[5, 9, 8, 1, 3, 4, 10, 11, 6, 2, 7]);
makespan = 1650;
----------
assign = array1d(1..11 ,[2, 2, 2, 2, 2, 2, 1, 2, 2, 1, 2]);
next = array1d(1..11 ,[5, 9, 8, 1, 3, 4, 10, 11, 6, 2, 7]);
makespan = 1649;
----------
assign = array1d(1..11 ,[2, 2, 2, 2, 2, 2, 1, 2, 2, 1, 2]);
next = array1d(1..11 ,[5, 9, 8, 1, 3, 11, 10, 2, 6, 4, 7]);
makespan = 1648;
----------
assign = array1d(1..11 ,[2, 2, 2, 2, 2, 2, 1, 2, 2, 1, 2]);
next = array1d(1..11 ,[5, 9, 8, 1, 3, 11, 10, 2, 6, 4, 7]);
makespan = 1646;
----------
assign = array1d(1..11 ,[2, 2, 2, 2, 2, 2, 1, 2, 2, 1, 2]);
next = array1d(1..11 ,[5, 9, 8, 1, 3, 11, 10, 2, 6, 4, 7]);
makespan = 1645;
----------
assign = array1d(1..11 ,[2, 2, 2, 2, 2, 2, 1, 2, 2, 1, 2]);
next = array1d(1..11 ,[5, 9, 8, 1, 3, 11, 10, 2, 6, 4, 7]);
makespan = 1644;
----------
assign = array1d(1..11 ,[2, 2, 2, 2, 2, 2, 1, 2, 2, 1, 2]);
next = array1d(1..11 ,[5, 9, 8, 1, 3, 11, 10, 2, 6, 4, 7]);
makespan = 1643;
----------
assign = array1d(1..11 ,[2, 2, 2, 2, 2, 2, 1, 2, 2, 1, 2]);
next = array1d(1..11 ,[5, 9, 8, 1, 3, 11, 10, 2, 6, 4, 7]);
makespan = 1642;
----------
assign = array1d(1..11 ,[2, 2, 2, 2, 2, 2, 1, 2, 2, 1, 2]);
next = array1d(1..11 ,[5, 9, 8, 1, 3, 11, 10, 2, 6, 4, 7]);
makespan = 1640;
----------
assign = array1d(1..11 ,[2, 2, 2, 2, 2, 2, 1, 2, 2, 1, 2]);
next = array1d(1..11 ,[5, 9, 8, 1, 3, 11, 10, 2, 6, 4, 7]);
makespan = 1639;
----------
assign = array1d(1..11 ,[2, 2, 2, 2, 2, 2, 1, 2, 2, 1, 2]);
next = array1d(1..11 ,[5, 9, 8, 1, 3, 11, 10, 2, 6, 4, 7]);
makespan = 1637;
----------
assign = array1d(1..11 ,[2, 2, 2, 2, 2, 2, 1, 2, 2, 1, 2]);
next = array1d(1..11 ,[5, 9, 8, 1, 3, 11, 10, 2, 6, 4, 7]);
makespan = 1636;
----------
assign = array1d(1..11 ,[2, 2, 2, 2, 2, 2, 1, 2, 2, 1, 2]);
next = array1d(1..11 ,[5, 9, 8, 1, 3, 11, 10, 2, 6, 4, 7]);
makespan = 1635;
----------
assign = array1d(1..11 ,[2, 2, 2, 2, 2, 2, 1, 2, 2, 1, 2]);
next = array1d(1..11 ,[5, 9, 8, 1, 3, 11, 10, 2, 6, 4, 7]);
makespan = 1634;
----------
assign = array1d(1..11 ,[2, 2, 2, 2, 2, 2, 1, 2, 2, 1, 2]);
next = array1d(1..11 ,[5, 9, 2, 1, 3, 8, 10, 11, 6, 4, 7]);
makespan = 1633;
----------
assign = array1d(1..11 ,[2, 2, 2, 2, 2, 2, 1, 2, 2, 1, 2]);
next = array1d(1..11 ,[5, 9, 2, 1, 3, 8, 10, 11, 6, 4, 7]);
makespan = 1632;
----------
assign = array1d(1..11 ,[2, 2, 2, 2, 2, 2, 1, 2, 2, 1, 2]);
next = array1d(1..11 ,[5, 9, 2, 1, 3, 8, 10, 11, 6, 4, 7]);
makespan = 1631;
----------
assign = array1d(1..11 ,[2, 2, 2, 2, 2, 2, 1, 2, 2, 1, 2]);
next = array1d(1..11 ,[5, 9, 2, 1, 3, 8, 10, 11, 6, 4, 7]);
makespan = 1630;
----------
assign = array1d(1..11 ,[2, 2, 2, 2, 2, 2, 1, 2, 2, 1, 2]);
next = array1d(1..11 ,[5, 9, 2, 1, 3, 8, 10, 11, 6, 4, 7]);
makespan = 1629;
----------
assign = array1d(1..11 ,[2, 2, 2, 2, 2, 2, 1, 2, 2, 1, 2]);
next = array1d(1..11 ,[5, 9, 2, 1, 3, 8, 10, 11, 6, 4, 7]);
makespan = 1628;
----------
assign = array1d(1..11 ,[2, 2, 2, 2, 2, 2, 1, 2, 2, 1, 2]);
next = array1d(1..11 ,[5, 9, 2, 1, 3, 8, 10, 11, 6, 4, 7]);
makespan = 1627;
----------
assign = array1d(1..11 ,[2, 2, 2, 2, 2, 2, 1, 2, 2, 1, 2]);
next = array1d(1..11 ,[5, 9, 2, 1, 3, 8, 10, 11, 6, 4, 7]);
makespan = 1626;
----------
assign = array1d(1..11 ,[2, 2, 2, 2, 2, 2, 1, 2, 2, 1, 2]);
next = array1d(1..11 ,[5, 9, 2, 1, 3, 8, 10, 11, 6, 4, 7]);
makespan = 1625;
----------
assign = array1d(1..11 ,[2, 2, 2, 2, 2, 2, 1, 2, 2, 1, 2]);
next = array1d(1..11 ,[5, 9, 2, 1, 3, 8, 10, 11, 6, 4, 7]);
makespan = 1624;
----------
assign = array1d(1..11 ,[2, 2, 2, 2, 2, 2, 1, 2, 2, 1, 2]);
next = array1d(1..11 ,[5, 9, 2, 1, 3, 8, 10, 11, 6, 4, 7]);
makespan = 1623;
----------
assign = array1d(1..11 ,[2, 2, 2, 2, 2, 2, 1, 2, 2, 1, 2]);
next = array1d(1..11 ,[5, 9, 2, 1, 3, 8, 10, 11, 6, 4, 7]);
makespan = 1622;
----------
assign = array1d(1..11 ,[2, 2, 2, 2, 2, 2, 1, 2, 2, 1, 2]);
next = array1d(1..11 ,[5, 9, 2, 1, 3, 8, 10, 11, 6, 4, 7]);
makespan = 1621;
----------
assign = array1d(1..11 ,[2, 2, 2, 2, 2, 2, 1, 1, 2, 1, 2]);
next = array1d(1..11 ,[5, 9, 2, 1, 3, 11, 10, 7, 6, 4, 8]);
makespan = 1620;
----------
assign = array1d(1..11 ,[2, 2, 2, 2, 2, 2, 1, 1, 2, 1, 2]);
next = array1d(1..11 ,[5, 9, 2, 1, 3, 11, 10, 7, 6, 4, 8]);
makespan = 1619;
----------
assign = array1d(1..11 ,[2, 2, 2, 2, 2, 2, 1, 1, 2, 1, 2]);
next = array1d(1..11 ,[5, 9, 2, 1, 3, 11, 10, 7, 6, 4, 8]);
makespan = 1617;
----------
assign = array1d(1..11 ,[2, 2, 2, 2, 2, 2, 1, 1, 2, 1, 2]);
next = array1d(1..11 ,[5, 9, 2, 1, 3, 11, 10, 7, 6, 4, 8]);
makespan = 1616;
----------
assign = array1d(1..11 ,[2, 2, 2, 2, 2, 2, 1, 1, 2, 1, 2]);
next = array1d(1..11 ,[5, 9, 2, 1, 3, 11, 10, 7, 6, 4, 8]);
makespan = 1615;
----------
assign = array1d(1..11 ,[2, 2, 2, 2, 2, 2, 1, 1, 2, 1, 2]);
next = array1d(1..11 ,[5, 9, 2, 1, 3, 11, 10, 7, 6, 4, 8]);
makespan = 1614;
----------
assign = array1d(1..11 ,[2, 2, 2, 2, 2, 2, 1, 1, 2, 1, 2]);
next = array1d(1..11 ,[5, 9, 2, 1, 3, 11, 10, 7, 6, 4, 8]);
makespan = 1613;
----------
assign = array1d(1..11 ,[2, 2, 2, 2, 2, 2, 1, 1, 2, 1, 2]);
next = array1d(1..11 ,[5, 9, 2, 1, 3, 11, 10, 7, 6, 4, 8]);
makespan = 1612;
----------
assign = array1d(1..11 ,[2, 2, 2, 2, 2, 2, 1, 1, 2, 1, 2]);
next = array1d(1..11 ,[5, 9, 2, 1, 3, 11, 10, 7, 6, 4, 8]);
makespan = 1611;
----------
assign = array1d(1..11 ,[2, 2, 2, 2, 2, 2, 1, 1, 2, 1, 2]);
next = array1d(1..11 ,[5, 9, 2, 1, 3, 11, 10, 7, 6, 4, 8]);
makespan = 1610;
----------
assign = array1d(1..11 ,[2, 2, 2, 2, 2, 2, 1, 1, 2, 1, 2]);
next = array1d(1..11 ,[5, 9, 2, 1, 3, 11, 10, 7, 6, 4, 8]);
makespan = 1609;
----------
assign = array1d(1..11 ,[2, 2, 2, 2, 2, 2, 1, 1, 2, 1, 2]);
next = array1d(1..11 ,[5, 9, 2, 1, 3, 11, 10, 7, 6, 4, 8]);
makespan = 1607;
----------
assign = array1d(1..11 ,[2, 2, 2, 2, 2, 2, 1, 1, 2, 1, 2]);
next = array1d(1..11 ,[5, 9, 2, 1, 3, 11, 10, 7, 6, 4, 8]);
makespan = 1606;
----------
assign = array1d(1..11 ,[2, 2, 2, 2, 2, 2, 1, 1, 2, 1, 2]);
next = array1d(1..11 ,[5, 9, 2, 1, 3, 11, 10, 7, 6, 4, 8]);
makespan = 1605;
----------
assign = array1d(1..11 ,[2, 2, 2, 2, 2, 2, 1, 1, 2, 1, 2]);
next = array1d(1..11 ,[5, 9, 2, 1, 3, 11, 10, 7, 6, 4, 8]);
makespan = 1604;
----------
assign = array1d(1..11 ,[2, 2, 2, 2, 2, 2, 1, 1, 2, 1, 2]);
next = array1d(1..11 ,[5, 9, 2, 1, 3, 11, 10, 7, 6, 4, 8]);
makespan = 1603;
----------
assign = array1d(1..11 ,[2, 2, 2, 2, 2, 2, 1, 1, 2, 1, 2]);
next = array1d(1..11 ,[5, 9, 2, 1, 3, 11, 10, 7, 6, 4, 8]);
makespan = 1602;
----------
assign = array1d(1..11 ,[2, 2, 2, 2, 2, 2, 1, 1, 2, 1, 2]);
next = array1d(1..11 ,[5, 9, 2, 1, 3, 11, 10, 7, 6, 4, 8]);
makespan = 1600;
----------
assign = array1d(1..11 ,[2, 2, 2, 2, 2, 2, 1, 1, 2, 1, 2]);
next = array1d(1..11 ,[5, 9, 2, 1, 3, 11, 10, 7, 6, 4, 8]);
makespan = 1599;
----------
assign = array1d(1..11 ,[2, 2, 2, 2, 2, 2, 1, 1, 2, 1, 2]);
next = array1d(1..11 ,[5, 9, 2, 1, 3, 11, 10, 7, 6, 4, 8]);
makespan = 1598;
----------
assign = array1d(1..11 ,[2, 2, 2, 2, 2, 2, 1, 1, 2, 1, 2]);
next = array1d(1..11 ,[5, 9, 2, 1, 3, 11, 10, 7, 6, 4, 8]);
makespan = 1597;
----------
assign = array1d(1..11 ,[2, 2, 2, 2, 2, 2, 1, 1, 2, 1, 2]);
next = array1d(1..11 ,[5, 9, 2, 1, 3, 11, 10, 7, 6, 4, 8]);
makespan = 1596;
----------
assign = array1d(1..11 ,[2, 2, 2, 2, 2, 2, 1, 1, 2, 1, 2]);
next = array1d(1..11 ,[5, 9, 2, 1, 3, 11, 10, 7, 6, 4, 8]);
makespan = 1595;
----------
assign = array1d(1..11 ,[2, 2, 2, 2, 2, 2, 1, 1, 2, 1, 2]);
next = array1d(1..11 ,[5, 9, 2, 1, 3, 11, 10, 7, 6, 4, 8]);
makespan = 1594;
----------
assign = array1d(1..11 ,[2, 2, 2, 2, 2, 2, 1, 1, 2, 1, 2]);
next = array1d(1..11 ,[5, 9, 2, 1, 3, 11, 10, 7, 6, 4, 8]);
makespan = 1593;
----------
assign = array1d(1..11 ,[2, 2, 2, 2, 2, 2, 1, 1, 2, 1, 2]);
next = array1d(1..11 ,[5, 9, 2, 1, 3, 11, 10, 7, 6, 4, 8]);
makespan = 1590;
----------
assign = array1d(1..11 ,[2, 2, 2, 2, 2, 2, 1, 1, 2, 1, 2]);
next = array1d(1..11 ,[5, 9, 2, 1, 3, 11, 10, 7, 6, 4, 8]);
makespan = 1589;
----------
assign = array1d(1..11 ,[2, 2, 2, 2, 2, 2, 1, 1, 2, 1, 2]);
next = array1d(1..11 ,[5, 9, 2, 1, 3, 11, 10, 7, 6, 4, 8]);
makespan = 1587;
----------
assign = array1d(1..11 ,[2, 2, 2, 2, 2, 2, 1, 1, 2, 1, 2]);
next = array1d(1..11 ,[5, 9, 2, 1, 3, 11, 10, 7, 6, 4, 8]);
makespan = 1586;
----------
assign = array1d(1..11 ,[2, 2, 2, 2, 2, 2, 1, 1, 2, 1, 2]);
next = array1d(1..11 ,[5, 9, 2, 1, 3, 11, 10, 7, 6, 4, 8]);
makespan = 1584;
----------
assign = array1d(1..11 ,[2, 2, 2, 2, 2, 2, 1, 1, 2, 1, 2]);
next = array1d(1..11 ,[5, 9, 2, 1, 3, 11, 10, 7, 6, 4, 8]);
makespan = 1583;
----------
assign = array1d(1..11 ,[2, 2, 2, 2, 2, 2, 1, 1, 2, 1, 2]);
next = array1d(1..11 ,[5, 9, 2, 1, 3, 11, 10, 7, 6, 4, 8]);
makespan = 1582;
----------
assign = array1d(1..11 ,[2, 2, 2, 2, 2, 2, 1, 1, 2, 1, 2]);
next = array1d(1..11 ,[5, 9, 2, 1, 3, 11, 10, 7, 6, 4, 8]);
makespan = 1581;
----------
assign = array1d(1..11 ,[2, 2, 2, 2, 2, 2, 1, 1, 2, 1, 2]);
next = array1d(1..11 ,[5, 9, 2, 1, 3, 11, 10, 7, 6, 4, 8]);
makespan = 1580;
----------
assign = array1d(1..11 ,[2, 2, 2, 2, 2, 2, 1, 1, 2, 1, 2]);
next = array1d(1..11 ,[5, 9, 2, 1, 3, 11, 10, 7, 6, 4, 8]);
makespan = 1579;
----------
assign = array1d(1..11 ,[2, 2, 2, 2, 2, 2, 1, 1, 2, 1, 2]);
next = array1d(1..11 ,[5, 9, 2, 1, 3, 11, 10, 7, 6, 4, 8]);
makespan = 1577;
----------
assign = array1d(1..11 ,[2, 2, 2, 2, 2, 2, 1, 1, 2, 1, 2]);
next = array1d(1..11 ,[5, 9, 2, 1, 3, 11, 10, 7, 6, 4, 8]);
makespan = 1576;
----------
assign = array1d(1..11 ,[2, 2, 2, 2, 2, 2, 1, 1, 2, 1, 2]);
next = array1d(1..11 ,[5, 9, 2, 1, 3, 11, 10, 7, 6, 4, 8]);
makespan = 1574;
----------
assign = array1d(1..11 ,[2, 2, 2, 2, 2, 2, 1, 1, 2, 1, 2]);
next = array1d(1..11 ,[5, 9, 2, 1, 3, 11, 10, 7, 6, 4, 8]);
makespan = 1573;
----------
assign = array1d(1..11 ,[2, 2, 2, 2, 2, 2, 1, 1, 2, 1, 2]);
next = array1d(1..11 ,[5, 9, 2, 1, 3, 11, 10, 7, 6, 4, 8]);
makespan = 1571;
----------
assign = array1d(1..11 ,[2, 2, 2, 2, 2, 2, 1, 1, 2, 1, 2]);
next = array1d(1..11 ,[5, 9, 2, 1, 3, 11, 10, 7, 6, 4, 8]);
makespan = 1570;
----------
assign = array1d(1..11 ,[2, 2, 2, 2, 2, 2, 1, 1, 2, 1, 2]);
next = array1d(1..11 ,[5, 9, 2, 1, 3, 11, 10, 7, 6, 4, 8]);
makespan = 1567;
----------
assign = array1d(1..11 ,[2, 2, 2, 2, 2, 2, 1, 1, 2, 1, 2]);
next = array1d(1..11 ,[5, 9, 2, 1, 3, 11, 10, 7, 6, 4, 8]);
makespan = 1566;
----------
assign = array1d(1..11 ,[2, 2, 2, 2, 2, 2, 1, 1, 2, 1, 2]);
next = array1d(1..11 ,[5, 9, 2, 1, 3, 11, 10, 7, 6, 4, 8]);
makespan = 1564;
----------
assign = array1d(1..11 ,[2, 2, 2, 2, 2, 2, 1, 1, 2, 1, 2]);
next = array1d(1..11 ,[5, 9, 2, 1, 3, 11, 10, 7, 6, 4, 8]);
makespan = 1563;
----------
assign = array1d(1..11 ,[2, 2, 2, 2, 2, 2, 1, 1, 2, 1, 2]);
next = array1d(1..11 ,[5, 9, 2, 1, 3, 11, 10, 7, 6, 4, 8]);
makespan = 1562;
----------
assign = array1d(1..11 ,[2, 2, 2, 2, 2, 2, 1, 1, 2, 1, 2]);
next = array1d(1..11 ,[5, 9, 2, 1, 3, 11, 10, 7, 6, 4, 8]);
makespan = 1561;
----------
assign = array1d(1..11 ,[2, 2, 2, 2, 2, 2, 1, 1, 2, 1, 2]);
next = array1d(1..11 ,[5, 9, 2, 1, 3, 11, 10, 7, 6, 4, 8]);
makespan = 1560;
----------
assign = array1d(1..11 ,[2, 2, 2, 2, 2, 2, 1, 1, 2, 1, 2]);
next = array1d(1..11 ,[5, 9, 2, 1, 3, 11, 10, 7, 6, 4, 8]);
makespan = 1559;
----------
assign = array1d(1..11 ,[2, 2, 2, 2, 2, 2, 1, 1, 2, 1, 2]);
next = array1d(1..11 ,[5, 9, 2, 1, 3, 11, 10, 7, 6, 4, 8]);
makespan = 1558;
----------
assign = array1d(1..11 ,[2, 2, 2, 2, 2, 2, 1, 1, 2, 1, 2]);
next = array1d(1..11 ,[5, 9, 2, 1, 3, 11, 10, 7, 6, 4, 8]);
makespan = 1557;
----------
assign = array1d(1..11 ,[2, 2, 2, 2, 2, 2, 1, 1, 2, 1, 2]);
next = array1d(1..11 ,[5, 9, 2, 1, 3, 11, 10, 7, 6, 4, 8]);
makespan = 1555;
----------
assign = array1d(1..11 ,[2, 2, 2, 2, 2, 2, 1, 1, 2, 1, 2]);
next = array1d(1..11 ,[5, 9, 2, 1, 3, 11, 10, 7, 6, 4, 8]);
makespan = 1554;
----------
assign = array1d(1..11 ,[2, 2, 2, 2, 2, 2, 1, 1, 2, 1, 2]);
next = array1d(1..11 ,[5, 9, 2, 1, 3, 11, 10, 7, 6, 4, 8]);
makespan = 1553;
----------
assign = array1d(1..11 ,[2, 2, 2, 2, 2, 2, 1, 1, 2, 1, 2]);
next = array1d(1..11 ,[5, 9, 2, 1, 3, 11, 10, 7, 6, 4, 8]);
makespan = 1551;
----------
assign = array1d(1..11 ,[2, 2, 2, 2, 2, 2, 1, 1, 2, 1, 2]);
next = array1d(1..11 ,[5, 9, 2, 1, 3, 11, 10, 7, 6, 4, 8]);
makespan = 1550;
----------
assign = array1d(1..11 ,[2, 2, 2, 2, 2, 2, 1, 1, 2, 1, 2]);
next = array1d(1..11 ,[5, 9, 2, 1, 3, 11, 10, 7, 6, 4, 8]);
makespan = 1547;
----------
assign = array1d(1..11 ,[2, 2, 2, 2, 2, 2, 1, 1, 2, 1, 2]);
next = array1d(1..11 ,[5, 9, 2, 1, 3, 11, 10, 7, 6, 4, 8]);
makespan = 1546;
----------
assign = array1d(1..11 ,[2, 2, 2, 2, 2, 2, 1, 1, 2, 1, 2]);
next = array1d(1..11 ,[5, 9, 2, 1, 3, 11, 10, 7, 6, 4, 8]);
makespan = 1545;
----------
assign = array1d(1..11 ,[2, 2, 2, 2, 2, 2, 1, 1, 2, 1, 2]);
next = array1d(1..11 ,[5, 9, 2, 1, 3, 11, 10, 7, 6, 4, 8]);
makespan = 1544;
----------
assign = array1d(1..11 ,[2, 2, 2, 2, 2, 2, 1, 1, 2, 1, 2]);
next = array1d(1..11 ,[5, 9, 2, 1, 3, 11, 10, 7, 6, 4, 8]);
makespan = 1543;
----------
assign = array1d(1..11 ,[2, 2, 2, 2, 2, 2, 1, 1, 2, 1, 2]);
next = array1d(1..11 ,[5, 9, 2, 1, 3, 11, 10, 7, 6, 4, 8]);
makespan = 1542;
----------
assign = array1d(1..11 ,[2, 2, 2, 2, 2, 2, 1, 1, 2, 1, 2]);
next = array1d(1..11 ,[5, 9, 2, 1, 3, 11, 10, 7, 6, 4, 8]);
makespan = 1541;
----------
assign = array1d(1..11 ,[2, 2, 2, 2, 2, 2, 1, 1, 2, 1, 2]);
next = array1d(1..11 ,[5, 9, 2, 1, 3, 11, 10, 7, 6, 4, 8]);
makespan = 1540;
----------
assign = array1d(1..11 ,[2, 2, 2, 2, 2, 2, 1, 1, 2, 1, 2]);
next = array1d(1..11 ,[5, 9, 2, 1, 3, 11, 10, 7, 6, 4, 8]);
makespan = 1538;
----------
assign = array1d(1..11 ,[2, 2, 2, 2, 2, 2, 1, 1, 2, 1, 2]);
next = array1d(1..11 ,[5, 9, 2, 1, 3, 11, 10, 7, 6, 4, 8]);
makespan = 1537;
----------
assign = array1d(1..11 ,[2, 2, 2, 2, 2, 2, 1, 1, 2, 1, 2]);
next = array1d(1..11 ,[5, 9, 2, 1, 3, 11, 10, 7, 6, 4, 8]);
makespan = 1536;
----------
assign = array1d(1..11 ,[2, 2, 2, 2, 2, 2, 1, 1, 2, 1, 2]);
next = array1d(1..11 ,[5, 9, 2, 1, 3, 11, 10, 7, 6, 4, 8]);
makespan = 1534;
----------
assign = array1d(1..11 ,[2, 2, 2, 2, 2, 2, 1, 1, 2, 1, 2]);
next = array1d(1..11 ,[5, 9, 2, 1, 3, 11, 10, 7, 6, 4, 8]);
makespan = 1532;
----------
assign = array1d(1..11 ,[2, 2, 2, 2, 2, 2, 1, 1, 2, 1, 2]);
next = array1d(1..11 ,[5, 9, 2, 1, 3, 11, 10, 7, 6, 4, 8]);
makespan = 1531;
----------
assign = array1d(1..11 ,[2, 2, 2, 2, 2, 2, 1, 1, 2, 1, 2]);
next = array1d(1..11 ,[5, 9, 2, 1, 3, 11, 10, 7, 6, 4, 8]);
makespan = 1530;
----------
assign = array1d(1..11 ,[2, 2, 2, 2, 2, 2, 1, 1, 2, 1, 2]);
next = array1d(1..11 ,[5, 9, 2, 1, 3, 11, 10, 7, 6, 4, 8]);
makespan = 1529;
----------
assign = array1d(1..11 ,[2, 2, 2, 2, 2, 2, 1, 1, 2, 1, 2]);
next = array1d(1..11 ,[5, 9, 2, 1, 3, 11, 10, 7, 6, 4, 8]);
makespan = 1528;
----------
assign = array1d(1..11 ,[2, 2, 2, 2, 2, 2, 1, 1, 2, 1, 2]);
next = array1d(1..11 ,[5, 9, 2, 1, 3, 11, 10, 7, 6, 4, 8]);
makespan = 1527;
----------
assign = array1d(1..11 ,[2, 2, 2, 2, 2, 2, 1, 1, 2, 1, 2]);
next = array1d(1..11 ,[5, 9, 2, 1, 3, 11, 10, 7, 6, 4, 8]);
makespan = 1525;
----------
assign = array1d(1..11 ,[2, 2, 2, 2, 2, 2, 1, 1, 2, 1, 2]);
next = array1d(1..11 ,[5, 9, 2, 1, 3, 11, 10, 7, 6, 4, 8]);
makespan = 1524;
----------
assign = array1d(1..11 ,[2, 2, 2, 2, 2, 2, 1, 1, 2, 1, 2]);
next = array1d(1..11 ,[5, 9, 2, 1, 3, 11, 10, 7, 6, 4, 8]);
makespan = 1523;
----------
assign = array1d(1..11 ,[2, 2, 2, 2, 2, 2, 1, 1, 2, 1, 2]);
next = array1d(1..11 ,[5, 9, 2, 1, 3, 11, 10, 7, 6, 4, 8]);
makespan = 1521;
----------
assign = array1d(1..11 ,[2, 2, 2, 2, 2, 2, 1, 1, 2, 1, 2]);
next = array1d(1..11 ,[5, 9, 2, 1, 3, 11, 10, 7, 6, 4, 8]);
makespan = 1520;
----------
assign = array1d(1..11 ,[2, 2, 2, 2, 2, 2, 1, 1, 2, 1, 2]);
next = array1d(1..11 ,[5, 9, 2, 1, 3, 11, 10, 7, 6, 4, 8]);
makespan = 1518;
----------
assign = array1d(1..11 ,[2, 2, 2, 2, 2, 2, 1, 1, 2, 1, 2]);
next = array1d(1..11 ,[5, 9, 2, 1, 3, 11, 10, 7, 6, 4, 8]);
makespan = 1517;
----------
assign = array1d(1..11 ,[2, 2, 2, 2, 2, 2, 1, 1, 2, 1, 2]);
next = array1d(1..11 ,[5, 9, 2, 1, 3, 11, 10, 7, 6, 4, 8]);
makespan = 1515;
----------
assign = array1d(1..11 ,[2, 2, 2, 2, 2, 2, 1, 1, 2, 1, 2]);
next = array1d(1..11 ,[5, 9, 2, 1, 3, 11, 10, 7, 6, 4, 8]);
makespan = 1514;
----------
assign = array1d(1..11 ,[2, 2, 2, 2, 2, 2, 1, 1, 2, 1, 2]);
next = array1d(1..11 ,[5, 9, 2, 1, 3, 11, 10, 7, 6, 4, 8]);
makespan = 1513;
----------
assign = array1d(1..11 ,[2, 2, 2, 2, 2, 2, 1, 1, 2, 1, 2]);
next = array1d(1..11 ,[5, 9, 2, 1, 3, 11, 10, 7, 6, 4, 8]);
makespan = 1512;
----------
assign = array1d(1..11 ,[2, 2, 2, 2, 2, 2, 1, 1, 2, 1, 2]);
next = array1d(1..11 ,[5, 9, 2, 1, 3, 11, 10, 7, 6, 4, 8]);
makespan = 1511;
----------
assign = array1d(1..11 ,[2, 2, 2, 2, 2, 2, 1, 1, 2, 1, 2]);
next = array1d(1..11 ,[5, 9, 2, 1, 3, 11, 10, 7, 6, 4, 8]);
makespan = 1509;
----------
assign = array1d(1..11 ,[2, 2, 2, 2, 2, 2, 1, 1, 2, 1, 2]);
next = array1d(1..11 ,[5, 9, 2, 1, 3, 11, 10, 7, 6, 4, 8]);
makespan = 1508;
----------
assign = array1d(1..11 ,[2, 2, 2, 2, 2, 2, 1, 1, 2, 1, 2]);
next = array1d(1..11 ,[5, 9, 2, 1, 3, 11, 10, 7, 6, 4, 8]);
makespan = 1507;
----------
assign = array1d(1..11 ,[2, 2, 2, 2, 2, 2, 1, 1, 2, 1, 2]);
next = array1d(1..11 ,[5, 9, 2, 1, 3, 11, 10, 7, 6, 4, 8]);
makespan = 1504;
----------
assign = array1d(1..11 ,[2, 2, 2, 2, 2, 2, 1, 1, 2, 1, 2]);
next = array1d(1..11 ,[5, 9, 2, 1, 3, 11, 10, 7, 6, 4, 8]);
makespan = 1503;
----------
assign = array1d(1..11 ,[2, 2, 2, 2, 2, 2, 1, 1, 2, 1, 2]);
next = array1d(1..11 ,[5, 9, 2, 1, 3, 11, 10, 7, 6, 4, 8]);
makespan = 1501;
----------
assign = array1d(1..11 ,[2, 2, 2, 2, 2, 2, 1, 1, 2, 1, 2]);
next = array1d(1..11 ,[5, 9, 2, 1, 3, 11, 10, 7, 6, 4, 8]);
makespan = 1500;
----------
assign = array1d(1..11 ,[2, 2, 2, 2, 2, 2, 1, 1, 2, 1, 2]);
next = array1d(1..11 ,[5, 9, 2, 1, 3, 11, 10, 7, 6, 4, 8]);
makespan = 1498;
----------
assign = array1d(1..11 ,[2, 2, 2, 2, 2, 2, 1, 1, 2, 1, 2]);
next = array1d(1..11 ,[5, 9, 2, 1, 3, 11, 10, 7, 6, 4, 8]);
makespan = 1497;
----------
assign = array1d(1..11 ,[2, 2, 2, 2, 2, 2, 1, 1, 2, 1, 2]);
next = array1d(1..11 ,[5, 9, 2, 1, 3, 11, 10, 7, 6, 4, 8]);
makespan = 1495;
----------
assign = array1d(1..11 ,[2, 2, 2, 2, 2, 2, 1, 1, 2, 1, 2]);
next = array1d(1..11 ,[5, 9, 2, 1, 3, 11, 10, 7, 6, 4, 8]);
makespan = 1493;
----------
assign = array1d(1..11 ,[2, 2, 2, 2, 2, 2, 1, 1, 2, 1, 2]);
next = array1d(1..11 ,[5, 9, 2, 1, 3, 11, 10, 7, 6, 4, 8]);
makespan = 1491;
----------
assign = array1d(1..11 ,[2, 2, 2, 2, 2, 2, 1, 1, 2, 1, 2]);
next = array1d(1..11 ,[5, 9, 2, 1, 3, 11, 10, 7, 6, 4, 8]);
makespan = 1489;
----------
assign = array1d(1..11 ,[2, 2, 2, 2, 2, 2, 1, 1, 2, 1, 2]);
next = array1d(1..11 ,[5, 9, 2, 1, 3, 11, 10, 7, 6, 4, 8]);
makespan = 1488;
----------
assign = array1d(1..11 ,[2, 2, 2, 2, 2, 2, 1, 1, 2, 1, 2]);
next = array1d(1..11 ,[5, 9, 2, 1, 3, 11, 10, 7, 6, 4, 8]);
makespan = 1485;
----------
assign = array1d(1..11 ,[2, 2, 2, 2, 2, 2, 1, 1, 2, 1, 2]);
next = array1d(1..11 ,[5, 9, 2, 1, 3, 11, 10, 7, 6, 4, 8]);
makespan = 1484;
----------
assign = array1d(1..11 ,[2, 2, 2, 2, 2, 2, 1, 1, 2, 1, 2]);
next = array1d(1..11 ,[5, 9, 2, 1, 3, 11, 10, 7, 6, 4, 8]);
makespan = 1479;
----------
assign = array1d(1..11 ,[2, 2, 2, 2, 2, 2, 1, 1, 2, 1, 2]);
next = array1d(1..11 ,[5, 9, 2, 1, 3, 11, 10, 7, 6, 4, 8]);
makespan = 1478;
----------
assign = array1d(1..11 ,[2, 2, 2, 2, 2, 2, 1, 1, 2, 1, 2]);
next = array1d(1..11 ,[5, 9, 2, 1, 3, 11, 10, 7, 6, 4, 8]);
makespan = 1477;
----------
assign = array1d(1..11 ,[2, 2, 2, 2, 2, 2, 1, 1, 2, 1, 2]);
next = array1d(1..11 ,[5, 9, 2, 1, 3, 11, 10, 7, 6, 4, 8]);
makespan = 1476;
----------
assign = array1d(1..11 ,[2, 2, 2, 2, 2, 2, 1, 1, 2, 1, 2]);
next = array1d(1..11 ,[5, 9, 2, 1, 3, 11, 10, 7, 6, 4, 8]);
makespan = 1475;
----------
assign = array1d(1..11 ,[2, 2, 2, 2, 2, 2, 1, 1, 2, 1, 2]);
next = array1d(1..11 ,[5, 9, 2, 1, 3, 11, 10, 7, 6, 4, 8]);
makespan = 1472;
----------
assign = array1d(1..11 ,[2, 2, 2, 2, 2, 2, 1, 1, 2, 1, 2]);
next = array1d(1..11 ,[5, 9, 2, 1, 3, 11, 10, 7, 6, 4, 8]);
makespan = 1471;
----------
assign = array1d(1..11 ,[2, 2, 2, 2, 2, 2, 1, 1, 2, 1, 2]);
next = array1d(1..11 ,[5, 9, 2, 1, 3, 11, 10, 7, 6, 4, 8]);
makespan = 1469;
----------
assign = array1d(1..11 ,[2, 2, 2, 2, 2, 2, 1, 1, 2, 1, 2]);
next = array1d(1..11 ,[5, 9, 2, 1, 3, 11, 10, 7, 6, 4, 8]);
makespan = 1468;
----------
assign = array1d(1..11 ,[2, 2, 2, 2, 2, 2, 1, 1, 2, 1, 2]);
next = array1d(1..11 ,[5, 9, 2, 1, 3, 11, 10, 7, 6, 4, 8]);
makespan = 1466;
----------
assign = array1d(1..11 ,[2, 2, 2, 2, 2, 2, 1, 1, 2, 1, 2]);
next = array1d(1..11 ,[5, 9, 2, 1, 3, 11, 10, 7, 6, 4, 8]);
makespan = 1465;
----------
assign = array1d(1..11 ,[2, 2, 2, 2, 2, 2, 1, 1, 2, 1, 2]);
next = array1d(1..11 ,[5, 9, 2, 1, 3, 11, 10, 7, 6, 4, 8]);
makespan = 1463;
----------
assign = array1d(1..11 ,[2, 2, 2, 2, 2, 2, 1, 1, 2, 1, 2]);
next = array1d(1..11 ,[5, 9, 2, 1, 3, 11, 10, 7, 6, 4, 8]);
makespan = 1461;
----------
assign = array1d(1..11 ,[2, 2, 2, 2, 2, 2, 1, 1, 2, 1, 2]);
next = array1d(1..11 ,[5, 9, 2, 1, 3, 11, 10, 7, 6, 4, 8]);
makespan = 1459;
----------
assign = array1d(1..11 ,[2, 2, 2, 2, 2, 2, 1, 1, 2, 1, 2]);
next = array1d(1..11 ,[5, 9, 2, 1, 3, 11, 10, 7, 6, 4, 8]);
makespan = 1456;
----------
assign = array1d(1..11 ,[2, 2, 2, 2, 2, 2, 1, 1, 2, 1, 2]);
next = array1d(1..11 ,[5, 9, 2, 1, 3, 11, 10, 7, 6, 4, 8]);
makespan = 1455;
----------
assign = array1d(1..11 ,[2, 2, 2, 2, 2, 2, 1, 1, 2, 1, 2]);
next = array1d(1..11 ,[5, 9, 2, 1, 3, 11, 10, 7, 6, 4, 8]);
makespan = 1454;
----------
assign = array1d(1..11 ,[2, 2, 2, 2, 2, 2, 1, 1, 2, 1, 2]);
next = array1d(1..11 ,[5, 9, 2, 1, 3, 11, 10, 7, 6, 4, 8]);
makespan = 1452;
----------
assign = array1d(1..11 ,[2, 2, 2, 2, 2, 2, 1, 1, 2, 1, 2]);
next = array1d(1..11 ,[5, 9, 2, 1, 3, 11, 10, 7, 6, 4, 8]);
makespan = 1448;
----------
assign = array1d(1..11 ,[2, 2, 2, 2, 2, 2, 1, 1, 2, 1, 2]);
next = array1d(1..11 ,[5, 9, 2, 1, 3, 11, 10, 7, 6, 4, 8]);
makespan = 1445;
----------
assign = array1d(1..11 ,[2, 2, 2, 2, 2, 2, 1, 1, 2, 1, 2]);
next = array1d(1..11 ,[5, 9, 2, 1, 3, 11, 10, 7, 6, 4, 8]);
makespan = 1443;
----------
assign = array1d(1..11 ,[2, 2, 2, 2, 2, 2, 1, 1, 2, 1, 2]);
next = array1d(1..11 ,[5, 9, 2, 1, 3, 11, 10, 7, 6, 4, 8]);
makespan = 1442;
----------
assign = array1d(1..11 ,[2, 2, 2, 2, 2, 2, 1, 1, 2, 1, 2]);
next = array1d(1..11 ,[5, 9, 2, 1, 3, 11, 10, 7, 6, 4, 8]);
makespan = 1439;
----------
assign = array1d(1..11 ,[2, 2, 2, 2, 2, 2, 1, 1, 2, 1, 2]);
next = array1d(1..11 ,[5, 9, 2, 1, 3, 11, 10, 7, 6, 4, 8]);
makespan = 1438;
----------
assign = array1d(1..11 ,[2, 2, 2, 2, 2, 2, 1, 1, 2, 1, 2]);
next = array1d(1..11 ,[5, 9, 2, 1, 3, 11, 10, 7, 6, 4, 8]);
makespan = 1431;
----------
assign = array1d(1..11 ,[2, 2, 2, 2, 2, 2, 1, 1, 2, 1, 2]);
next = array1d(1..11 ,[5, 9, 2, 1, 3, 11, 10, 7, 6, 4, 8]);
makespan = 1429;
----------
assign = array1d(1..11 ,[2, 2, 2, 2, 2, 2, 1, 1, 2, 1, 2]);
next = array1d(1..11 ,[5, 9, 2, 1, 3, 11, 10, 7, 6, 4, 8]);
makespan = 1425;
----------
assign = array1d(1..11 ,[2, 2, 2, 2, 2, 2, 1, 1, 2, 1, 2]);
next = array1d(1..11 ,[5, 9, 2, 1, 3, 11, 10, 7, 6, 4, 8]);
makespan = 1422;
----------
assign = array1d(1..11 ,[2, 2, 2, 2, 2, 2, 1, 1, 2, 1, 2]);
next = array1d(1..11 ,[5, 9, 2, 1, 3, 11, 10, 7, 6, 4, 8]);
makespan = 1410;
----------
assign = array1d(1..11 ,[2, 2, 2, 2, 2, 2, 1, 1, 2, 1, 2]);
next = array1d(1..11 ,[5, 9, 2, 1, 3, 11, 10, 7, 6, 4, 8]);
makespan = 1396;
----------
assign = array1d(1..11 ,[2, 1, 2, 2, 2, 2, 1, 1, 2, 1, 2]);
next = array1d(1..11 ,[5, 8, 11, 1, 3, 4, 10, 7, 6, 9, 2]);
makespan = 1361;
----------
assign = array1d(1..11 ,[2, 1, 2, 2, 2, 2, 1, 1, 2, 1, 2]);
next = array1d(1..11 ,[5, 8, 11, 1, 3, 4, 10, 7, 6, 9, 2]);
makespan = 1356;
----------
assign = array1d(1..11 ,[2, 1, 2, 2, 2, 2, 1, 1, 2, 1, 2]);
next = array1d(1..11 ,[5, 8, 11, 1, 3, 4, 10, 7, 6, 9, 2]);
makespan = 1355;
----------
assign = array1d(1..11 ,[2, 1, 2, 2, 2, 2, 1, 1, 2, 1, 2]);
next = array1d(1..11 ,[5, 8, 11, 1, 3, 4, 10, 7, 6, 9, 2]);
makespan = 1353;
----------
assign = array1d(1..11 ,[2, 1, 2, 2, 2, 2, 1, 1, 2, 1, 2]);
next = array1d(1..11 ,[5, 8, 11, 1, 3, 4, 10, 7, 6, 9, 2]);
makespan = 1352;
----------
assign = array1d(1..11 ,[2, 1, 2, 2, 2, 2, 1, 1, 2, 1, 2]);
next = array1d(1..11 ,[5, 8, 11, 1, 3, 4, 10, 7, 6, 9, 2]);
makespan = 1342;
----------
assign = array1d(1..11 ,[2, 1, 2, 2, 2, 2, 1, 1, 2, 1, 2]);
next = array1d(1..11 ,[5, 8, 11, 1, 3, 4, 10, 7, 6, 9, 2]);
makespan = 1337;
----------
assign = array1d(1..11 ,[2, 1, 2, 2, 2, 2, 1, 1, 2, 1, 2]);
next = array1d(1..11 ,[5, 8, 11, 1, 3, 4, 10, 7, 6, 9, 2]);
makespan = 1313;
----------
assign = array1d(1..11 ,[2, 1, 2, 2, 2, 2, 1, 1, 2, 1, 2]);
next = array1d(1..11 ,[5, 8, 11, 1, 3, 4, 10, 7, 6, 9, 2]);
makespan = 1307;
----------
assign = array1d(1..11 ,[2, 1, 2, 2, 2, 2, 1, 1, 2, 1, 2]);
next = array1d(1..11 ,[5, 8, 11, 1, 3, 4, 10, 7, 6, 9, 2]);
makespan = 1304;
----------
assign = array1d(1..11 ,[2, 1, 2, 2, 2, 2, 1, 1, 2, 1, 2]);
next = array1d(1..11 ,[5, 8, 11, 1, 3, 4, 10, 7, 6, 9, 2]);
makespan = 1301;
----------
assign = array1d(1..11 ,[2, 1, 2, 2, 2, 2, 1, 1, 2, 1, 2]);
next = array1d(1..11 ,[5, 8, 11, 1, 3, 4, 10, 7, 6, 9, 2]);
makespan = 1300;
----------
assign = array1d(1..11 ,[2, 1, 2, 2, 2, 2, 1, 1, 2, 1, 2]);
next = array1d(1..11 ,[5, 8, 11, 1, 3, 4, 10, 7, 6, 9, 2]);
makespan = 1299;
----------
assign = array1d(1..11 ,[2, 1, 2, 2, 2, 2, 1, 1, 2, 1, 2]);
next = array1d(1..11 ,[5, 8, 11, 1, 3, 4, 10, 7, 6, 9, 2]);
makespan = 1294;
----------
assign = array1d(1..11 ,[2, 1, 2, 2, 2, 2, 1, 1, 2, 1, 2]);
next = array1d(1..11 ,[5, 8, 11, 1, 3, 4, 10, 7, 6, 9, 2]);
makespan = 1286;
----------
assign = array1d(1..11 ,[2, 1, 2, 2, 2, 2, 1, 1, 2, 1, 2]);
next = array1d(1..11 ,[5, 8, 11, 1, 3, 4, 10, 7, 6, 9, 2]);
makespan = 1285;
----------
assign = array1d(1..11 ,[2, 1, 2, 2, 2, 2, 1, 1, 2, 1, 2]);
next = array1d(1..11 ,[5, 8, 11, 1, 3, 4, 10, 7, 6, 9, 2]);
makespan = 1277;
----------
assign = array1d(1..11 ,[2, 1, 2, 2, 2, 2, 1, 1, 2, 1, 2]);
next = array1d(1..11 ,[5, 8, 11, 1, 3, 4, 10, 7, 6, 9, 2]);
makespan = 1262;
----------
assign = array1d(1..11 ,[2, 1, 2, 2, 2, 2, 1, 1, 2, 1, 2]);
next = array1d(1..11 ,[5, 8, 11, 1, 3, 4, 10, 7, 6, 9, 2]);
makespan = 1256;
----------
assign = array1d(1..11 ,[2, 1, 2, 2, 2, 2, 1, 1, 2, 1, 2]);
next = array1d(1..11 ,[5, 8, 11, 1, 3, 4, 10, 7, 6, 9, 2]);
makespan = 1254;
----------
assign = array1d(1..11 ,[2, 1, 2, 2, 2, 2, 1, 1, 2, 1, 2]);
next = array1d(1..11 ,[5, 8, 11, 1, 3, 4, 10, 7, 6, 9, 2]);
makespan = 1247;
----------
assign = array1d(1..11 ,[2, 1, 2, 2, 2, 2, 1, 1, 2, 1, 2]);
next = array1d(1..11 ,[5, 8, 11, 1, 3, 4, 10, 7, 6, 9, 2]);
makespan = 1244;
----------
assign = array1d(1..11 ,[2, 1, 2, 2, 2, 2, 1, 1, 2, 1, 2]);
next = array1d(1..11 ,[5, 8, 11, 1, 3, 4, 10, 7, 6, 9, 2]);
makespan = 1234;
----------
assign = array1d(1..11 ,[2, 1, 2, 2, 2, 2, 1, 1, 2, 1, 2]);
next = array1d(1..11 ,[5, 8, 11, 1, 3, 4, 10, 7, 6, 9, 2]);
makespan = 1213;
----------
assign = array1d(1..11 ,[2, 1, 2, 2, 2, 2, 1, 1, 2, 1, 2]);
next = array1d(1..11 ,[5, 8, 11, 1, 3, 4, 10, 7, 6, 9, 2]);
makespan = 1208;
----------
assign = array1d(1..11 ,[2, 1, 2, 2, 2, 2, 1, 1, 2, 1, 2]);
next = array1d(1..11 ,[5, 8, 9, 1, 3, 11, 2, 10, 6, 4, 7]);
makespan = 1203;
----------
assign = array1d(1..11 ,[2, 1, 2, 2, 2, 2, 1, 1, 2, 1, 2]);
next = array1d(1..11 ,[5, 10, 9, 1, 11, 4, 2, 7, 6, 3, 8]);
makespan = 1202;
----------
assign = array1d(1..11 ,[2, 1, 2, 2, 2, 2, 1, 1, 2, 1, 2]);
next = array1d(1..11 ,[5, 10, 9, 1, 11, 4, 2, 7, 6, 3, 8]);
makespan = 1196;
----------
assign = array1d(1..11 ,[2, 1, 2, 2, 2, 2, 1, 1, 2, 1, 2]);
next = array1d(1..11 ,[5, 10, 9, 1, 11, 4, 2, 7, 6, 3, 8]);
makespan = 1193;
----------
assign = array1d(1..11 ,[2, 1, 1, 2, 2, 2, 1, 1, 2, 1, 2]);
next = array1d(1..11 ,[5, 10, 8, 1, 11, 4, 2, 7, 6, 9, 3]);
makespan = 1189;
----------
assign = array1d(1..11 ,[2, 1, 1, 2, 2, 2, 1, 1, 2, 1, 2]);
next = array1d(1..11 ,[5, 10, 8, 1, 11, 4, 2, 7, 6, 9, 3]);
makespan = 1185;
----------
assign = array1d(1..11 ,[2, 1, 1, 2, 2, 2, 1, 1, 2, 1, 2]);
next = array1d(1..11 ,[5, 10, 8, 1, 11, 4, 2, 7, 6, 9, 3]);
makespan = 1161;
----------
assign = array1d(1..11 ,[2, 1, 1, 2, 2, 2, 1, 1, 2, 1, 2]);
next = array1d(1..11 ,[5, 10, 8, 1, 11, 4, 2, 7, 6, 9, 3]);
makespan = 1154;
----------
assign = array1d(1..11 ,[2, 1, 1, 2, 2, 2, 1, 1, 2, 1, 2]);
next = array1d(1..11 ,[5, 10, 8, 1, 11, 4, 2, 7, 6, 9, 3]);
makespan = 1151;
----------
assign = array1d(1..11 ,[2, 1, 1, 2, 2, 2, 1, 1, 2, 1, 2]);
next = array1d(1..11 ,[5, 10, 8, 1, 11, 4, 2, 7, 6, 9, 3]);
makespan = 1148;
----------
assign = array1d(1..11 ,[2, 1, 1, 2, 2, 2, 1, 1, 2, 1, 2]);
next = array1d(1..11 ,[5, 10, 8, 1, 11, 4, 2, 7, 6, 9, 3]);
makespan = 1147;
----------
assign = array1d(1..11 ,[2, 1, 1, 2, 2, 2, 1, 1, 2, 1, 2]);
next = array1d(1..11 ,[5, 10, 8, 1, 11, 4, 2, 7, 6, 9, 3]);
makespan = 1143;
----------
assign = array1d(1..11 ,[2, 1, 1, 2, 2, 2, 1, 1, 2, 1, 2]);
next = array1d(1..11 ,[5, 10, 8, 1, 11, 4, 2, 7, 6, 9, 3]);
makespan = 1137;
----------
assign = array1d(1..11 ,[2, 1, 1, 2, 2, 2, 1, 1, 2, 1, 2]);
next = array1d(1..11 ,[5, 10, 8, 1, 11, 4, 2, 7, 6, 9, 3]);
makespan = 1131;
----------
assign = array1d(1..11 ,[2, 1, 1, 2, 2, 2, 1, 1, 2, 1, 2]);
next = array1d(1..11 ,[5, 10, 8, 1, 11, 4, 2, 7, 6, 9, 3]);
makespan = 1099;
----------
assign = array1d(1..11 ,[2, 1, 1, 2, 2, 2, 1, 1, 2, 1, 2]);
next = array1d(1..11 ,[5, 10, 8, 1, 11, 4, 2, 7, 6, 9, 3]);
makespan = 1091;
----------
assign = array1d(1..11 ,[2, 1, 1, 2, 2, 2, 1, 1, 2, 1, 2]);
next = array1d(1..11 ,[5, 10, 8, 1, 11, 4, 2, 7, 6, 9, 3]);
makespan = 1088;
----------
assign = array1d(1..11 ,[2, 1, 1, 2, 2, 2, 1, 1, 2, 1, 2]);
next = array1d(1..11 ,[5, 10, 8, 1, 11, 4, 2, 7, 6, 9, 3]);
makespan = 1081;
----------
assign = array1d(1..11 ,[2, 1, 1, 2, 2, 2, 1, 1, 2, 1, 2]);
next = array1d(1..11 ,[5, 10, 8, 1, 11, 4, 2, 7, 6, 9, 3]);
makespan = 1076;
----------
assign = array1d(1..11 ,[2, 1, 1, 2, 2, 2, 1, 1, 2, 1, 2]);
next = array1d(1..11 ,[5, 10, 8, 1, 11, 4, 2, 7, 6, 9, 3]);
makespan = 1070;
----------
assign = array1d(1..11 ,[2, 1, 1, 2, 2, 2, 1, 1, 2, 1, 2]);
next = array1d(1..11 ,[5, 10, 8, 1, 11, 4, 2, 7, 6, 9, 3]);
makespan = 1069;
----------
assign = array1d(1..11 ,[2, 1, 1, 2, 2, 2, 1, 1, 2, 1, 2]);
next = array1d(1..11 ,[5, 10, 8, 1, 11, 4, 2, 7, 6, 9, 3]);
makespan = 1062;
----------
assign = array1d(1..11 ,[2, 1, 1, 2, 2, 2, 1, 1, 2, 1, 2]);
next = array1d(1..11 ,[5, 10, 8, 1, 11, 4, 2, 7, 6, 9, 3]);
makespan = 1054;
----------
assign = array1d(1..11 ,[2, 1, 1, 2, 2, 2, 1, 1, 2, 1, 2]);
next = array1d(1..11 ,[5, 10, 8, 1, 11, 4, 2, 7, 6, 9, 3]);
makespan = 1052;
----------
assign = array1d(1..11 ,[2, 1, 1, 2, 2, 2, 1, 1, 2, 1, 2]);
next = array1d(1..11 ,[5, 10, 8, 1, 11, 4, 2, 7, 6, 9, 3]);
makespan = 1039;
----------
assign = array1d(1..11 ,[2, 1, 1, 2, 2, 2, 1, 1, 2, 1, 2]);
next = array1d(1..11 ,[5, 10, 8, 1, 11, 4, 2, 7, 6, 9, 3]);
makespan = 1033;
----------
assign = array1d(1..11 ,[2, 1, 1, 2, 2, 2, 1, 1, 2, 1, 2]);
next = array1d(1..11 ,[5, 10, 8, 1, 11, 4, 2, 7, 6, 9, 3]);
makespan = 1025;
----------
assign = array1d(1..11 ,[2, 1, 1, 2, 2, 2, 1, 1, 2, 1, 2]);
next = array1d(1..11 ,[5, 10, 8, 1, 11, 4, 2, 7, 6, 9, 3]);
makespan = 1020;
----------
assign = array1d(1..11 ,[2, 1, 1, 2, 2, 2, 1, 1, 2, 1, 2]);
next = array1d(1..11 ,[5, 10, 8, 1, 11, 4, 2, 7, 6, 9, 3]);
makespan = 1016;
----------
assign = array1d(1..11 ,[2, 1, 1, 2, 2, 2, 1, 1, 2, 1, 2]);
next = array1d(1..11 ,[5, 10, 8, 1, 11, 4, 2, 7, 6, 9, 3]);
makespan = 1000;
----------
assign = array1d(1..11 ,[2, 1, 1, 2, 2, 2, 1, 1, 2, 1, 2]);
next = array1d(1..11 ,[5, 10, 8, 1, 9, 11, 2, 7, 6, 4, 3]);
makespan = 996;
----------
assign = array1d(1..11 ,[2, 1, 1, 2, 2, 2, 1, 1, 2, 1, 2]);
next = array1d(1..11 ,[5, 10, 8, 11, 9, 4, 2, 7, 6, 1, 3]);
makespan = 994;
----------
assign = array1d(1..11 ,[2, 1, 2, 1, 2, 2, 1, 1, 2, 1, 2]);
next = array1d(1..11 ,[5, 7, 11, 10, 9, 3, 8, 4, 6, 1, 2]);
makespan = 988;
----------
assign = array1d(1..11 ,[2, 1, 2, 1, 2, 2, 1, 1, 2, 1, 2]);
next = array1d(1..11 ,[5, 7, 11, 10, 9, 3, 8, 4, 6, 1, 2]);
makespan = 981;
----------
assign = array1d(1..11 ,[2, 1, 2, 1, 2, 2, 1, 1, 2, 1, 2]);
next = array1d(1..11 ,[5, 7, 11, 10, 9, 3, 8, 4, 6, 1, 2]);
makespan = 980;
----------
assign = array1d(1..11 ,[2, 2, 1, 1, 2, 2, 1, 1, 2, 1, 2]);
next = array1d(1..11 ,[5, 11, 7, 3, 9, 2, 10, 4, 6, 1, 8]);
makespan = 979;
----------
assign = array1d(1..11 ,[2, 1, 2, 1, 2, 2, 1, 1, 2, 1, 2]);
next = array1d(1..11 ,[5, 7, 1, 10, 9, 11, 8, 4, 6, 3, 2]);
makespan = 971;
----------
assign = array1d(1..11 ,[2, 1, 2, 1, 2, 2, 1, 1, 2, 1, 2]);
next = array1d(1..11 ,[5, 7, 1, 10, 9, 11, 8, 4, 6, 3, 2]);
makespan = 965;
----------
assign = array1d(1..11 ,[2, 1, 2, 1, 2, 2, 1, 1, 2, 1, 2]);
next = array1d(1..11 ,[5, 7, 1, 10, 9, 11, 8, 4, 6, 3, 2]);
makespan = 964;
----------
assign = array1d(1..11 ,[2, 1, 1, 1, 2, 2, 1, 1, 2, 1, 2]);
next = array1d(1..11 ,[5, 3, 4, 8, 9, 11, 2, 10, 6, 1, 7]);
makespan = 962;
----------
assign = array1d(1..11 ,[2, 1, 1, 1, 2, 2, 1, 1, 2, 1, 2]);
next = array1d(1..11 ,[5, 10, 7, 8, 9, 11, 2, 3, 6, 1, 4]);
makespan = 961;
----------
assign = array1d(1..11 ,[2, 1, 1, 1, 2, 2, 1, 1, 2, 1, 2]);
next = array1d(1..11 ,[5, 3, 7, 8, 9, 11, 10, 2, 6, 1, 4]);
makespan = 959;
----------
assign = array1d(1..11 ,[2, 1, 1, 1, 2, 2, 1, 1, 2, 1, 2]);
next = array1d(1..11 ,[5, 8, 7, 10, 11, 1, 2, 4, 6, 9, 3]);
makespan = 956;
----------
assign = array1d(1..11 ,[2, 1, 1, 1, 2, 1, 2, 1, 2, 1, 2]);
next = array1d(1..11 ,[5, 3, 6, 10, 9, 8, 1, 4, 11, 7, 2]);
makespan = 953;
----------
assign = array1d(1..11 ,[2, 1, 1, 1, 2, 1, 2, 1, 2, 1, 2]);
next = array1d(1..11 ,[5, 3, 8, 6, 9, 2, 1, 10, 11, 7, 4]);
makespan = 951;
----------
assign = array1d(1..11 ,[2, 1, 1, 1, 2, 1, 2, 1, 2, 1, 2]);
next = array1d(1..11 ,[5, 3, 10, 8, 9, 4, 1, 2, 11, 7, 6]);
makespan = 947;
----------
assign = array1d(1..11 ,[2, 1, 1, 1, 2, 1, 2, 1, 2, 1, 2]);
next = array1d(1..11 ,[5, 3, 10, 8, 9, 4, 1, 2, 11, 7, 6]);
makespan = 945;
----------
assign = array1d(1..11 ,[2, 1, 1, 1, 2, 1, 2, 1, 2, 1, 2]);
next = array1d(1..11 ,[5, 3, 10, 8, 9, 4, 1, 2, 11, 7, 6]);
makespan = 943;
----------
assign = array1d(1..11 ,[2, 1, 1, 1, 2, 1, 2, 1, 2, 1, 2]);
next = array1d(1..11 ,[5, 3, 10, 8, 9, 4, 1, 2, 11, 7, 6]);
makespan = 942;
----------
assign = array1d(1..11 ,[2, 1, 1, 1, 2, 1, 2, 1, 2, 1, 2]);
next = array1d(1..11 ,[5, 3, 10, 8, 9, 4, 1, 2, 11, 7, 6]);
makespan = 941;
----------
assign = array1d(1..11 ,[2, 1, 1, 1, 2, 1, 2, 1, 2, 1, 2]);
next = array1d(1..11 ,[5, 3, 10, 8, 9, 4, 1, 2, 11, 7, 6]);
makespan = 933;
----------
assign = array1d(1..11 ,[2, 1, 1, 1, 2, 1, 2, 1, 2, 1, 2]);
next = array1d(1..11 ,[5, 3, 10, 8, 9, 4, 1, 2, 11, 7, 6]);
makespan = 930;
----------
assign = array1d(1..11 ,[2, 1, 1, 1, 2, 1, 2, 1, 2, 1, 2]);
next = array1d(1..11 ,[5, 3, 10, 8, 9, 4, 1, 2, 11, 7, 6]);
makespan = 928;
----------
assign = array1d(1..11 ,[2, 1, 1, 1, 2, 1, 2, 1, 2, 1, 2]);
next = array1d(1..11 ,[5, 3, 6, 8, 9, 4, 1, 10, 11, 7, 2]);
makespan = 926;
----------
assign = array1d(1..11 ,[2, 1, 1, 1, 2, 1, 2, 1, 2, 1, 2]);
next = array1d(1..11 ,[5, 3, 6, 8, 9, 4, 1, 10, 11, 7, 2]);
makespan = 922;
----------
assign = array1d(1..11 ,[2, 1, 1, 1, 2, 1, 2, 1, 2, 1, 2]);
next = array1d(1..11 ,[5, 3, 6, 8, 9, 4, 1, 10, 11, 7, 2]);
makespan = 916;
----------
assign = array1d(1..11 ,[2, 1, 1, 1, 2, 1, 2, 1, 2, 1, 2]);
next = array1d(1..11 ,[5, 3, 6, 8, 9, 4, 1, 10, 11, 7, 2]);
makespan = 914;
----------
assign = array1d(1..11 ,[2, 1, 1, 1, 2, 1, 2, 1, 2, 1, 2]);
next = array1d(1..11 ,[5, 3, 6, 8, 9, 4, 1, 10, 11, 7, 2]);
makespan = 909;
----------
assign = array1d(1..11 ,[2, 1, 1, 1, 2, 1, 2, 1, 2, 1, 2]);
next = array1d(1..11 ,[5, 10, 6, 3, 9, 2, 1, 4, 11, 7, 8]);
makespan = 906;
----------
assign = array1d(1..11 ,[2, 1, 2, 1, 1, 1, 2, 2, 1, 1, 2]);
next = array1d(1..11 ,[7, 6, 8, 9, 2, 4, 11, 1, 10, 3, 5]);
makespan = 905;
----------
assign = array1d(1..11 ,[2, 1, 1, 1, 1, 1, 2, 2, 2, 1, 2]);
next = array1d(1..11 ,[8, 6, 2, 3, 4, 10, 11, 9, 7, 1, 5]);
makespan = 904;
----------
assign = array1d(1..11 ,[2, 1, 1, 1, 1, 1, 2, 2, 2, 1, 2]);
next = array1d(1..11 ,[11, 6, 2, 3, 4, 10, 8, 9, 1, 7, 5]);
makespan = 903;
----------
assign = array1d(1..11 ,[2, 1, 2, 2, 2, 1, 1, 1, 2, 1, 2]);
next = array1d(1..11 ,[9, 6, 1, 3, 4, 8, 10, 7, 11, 5, 2]);
makespan = 902;
----------
assign = array1d(1..11 ,[1, 2, 2, 1, 2, 1, 1, 2, 1, 1, 2]);
next = array1d(1..11 ,[6, 8, 11, 9, 3, 10, 4, 5, 1, 2, 7]);
makespan = 901;
----------
assign = array1d(1..11 ,[2, 1, 1, 1, 2, 1, 2, 2, 1, 1, 2]);
next = array1d(1..11 ,[5, 3, 6, 9, 11, 4, 8, 1, 10, 7, 2]);
makespan = 900;
----------
assign = array1d(1..11 ,[2, 1, 1, 1, 2, 1, 2, 2, 1, 1, 2]);
next = array1d(1..11 ,[5, 3, 6, 9, 11, 4, 8, 1, 10, 7, 2]);
makespan = 899;
----------
assign = array1d(1..11 ,[2, 1, 1, 1, 2, 1, 2, 2, 1, 1, 2]);
next = array1d(1..11 ,[5, 3, 6, 9, 7, 4, 8, 11, 10, 1, 2]);
makespan = 898;
----------
assign = array1d(1..11 ,[1, 1, 1, 1, 2, 2, 2, 2, 1, 1, 2]);
next = array1d(1..11 ,[4, 3, 1, 9, 8, 11, 6, 7, 10, 5, 2]);
makespan = 897;
----------
assign = array1d(1..11 ,[1, 2, 2, 2, 1, 1, 1, 2, 2, 1, 2]);
next = array1d(1..11 ,[7, 9, 11, 3, 1, 10, 6, 2, 4, 8, 5]);
makespan = 896;
----------
assign = array1d(1..11 ,[1, 1, 2, 1, 2, 2, 2, 1, 1, 1, 2]);
next = array1d(1..11 ,[2, 10, 5, 9, 11, 7, 3, 4, 1, 6, 8]);
makespan = 895;
----------
assign = array1d(1..11 ,[2, 2, 2, 2, 1, 1, 1, 1, 2, 1, 2]);
next = array1d(1..11 ,[9, 4, 1, 3, 10, 8, 5, 7, 11, 2, 6]);
makespan = 894;
----------
assign = array1d(1..11 ,[2, 1, 1, 1, 1, 2, 2, 1, 2, 1, 2]);
next = array1d(1..11 ,[9, 10, 5, 8, 4, 11, 6, 2, 7, 1, 3]);
makespan = 893;
----------
assign = array1d(1..11 ,[2, 1, 1, 1, 1, 2, 2, 1, 2, 1, 2]);
next = array1d(1..11 ,[9, 10, 5, 3, 2, 11, 6, 4, 7, 1, 8]);
makespan = 892;
----------
assign = array1d(1..11 ,[2, 1, 1, 1, 1, 1, 2, 2, 2, 1, 2]);
next = array1d(1..11 ,[9, 10, 5, 3, 6, 2, 8, 11, 7, 1, 4]);
makespan = 891;
----------
assign = array1d(1..11 ,[1, 1, 2, 1, 2, 2, 1, 2, 1, 1, 2]);
next = array1d(1..11 ,[2, 10, 6, 9, 11, 8, 4, 5, 1, 3, 7]);
makespan = 890;
----------
assign = array1d(1..11 ,[2, 1, 1, 1, 1, 2, 2, 1, 2, 1, 2]);
next = array1d(1..11 ,[6, 10, 5, 8, 4, 9, 11, 2, 7, 1, 3]);
makespan = 889;
----------
assign = array1d(1..11 ,[2, 1, 1, 1, 1, 1, 2, 2, 2, 1, 2]);
next = array1d(1..11 ,[7, 10, 2, 3, 4, 5, 8, 9, 11, 1, 6]);
makespan = 888;
----------
assign = array1d(1..11 ,[2, 1, 1, 1, 1, 1, 2, 2, 2, 1, 2]);
next = array1d(1..11 ,[7, 10, 2, 3, 4, 5, 8, 9, 11, 1, 6]);
makespan = 887;
----------
assign = array1d(1..11 ,[2, 1, 1, 1, 1, 1, 2, 2, 2, 1, 2]);
next = array1d(1..11 ,[7, 10, 2, 3, 4, 5, 8, 9, 11, 1, 6]);
makespan = 886;
----------
assign = array1d(1..11 ,[2, 1, 1, 1, 1, 1, 2, 2, 2, 1, 2]);
next = array1d(1..11 ,[7, 10, 2, 3, 4, 5, 8, 9, 11, 1, 6]);
makespan = 885;
----------
assign = array1d(1..11 ,[2, 1, 1, 1, 1, 1, 2, 2, 2, 1, 2]);
next = array1d(1..11 ,[7, 10, 2, 3, 4, 5, 8, 9, 11, 1, 6]);
makespan = 884;
----------
assign = array1d(1..11 ,[2, 2, 2, 2, 1, 1, 1, 1, 2, 1, 2]);
next = array1d(1..11 ,[11, 9, 1, 3, 8, 5, 6, 10, 4, 2, 7]);
makespan = 883;
----------
assign = array1d(1..11 ,[2, 1, 2, 2, 2, 1, 2, 1, 1, 1, 2]);
next = array1d(1..11 ,[11, 9, 1, 3, 4, 8, 5, 2, 10, 7, 6]);
makespan = 882;
----------
assign = array1d(1..11 ,[1, 2, 2, 2, 2, 1, 1, 1, 2, 1, 2]);
next = array1d(1..11 ,[7, 11, 9, 3, 4, 8, 6, 10, 2, 5, 1]);
makespan = 881;
----------
assign = array1d(1..11 ,[1, 2, 2, 2, 2, 1, 1, 1, 2, 1, 2]);
next = array1d(1..11 ,[8, 11, 9, 3, 4, 1, 6, 10, 2, 5, 7]);
makespan = 880;
----------
assign = array1d(1..11 ,[2, 2, 2, 2, 2, 1, 1, 1, 1, 1, 2]);
next = array1d(1..11 ,[11, 5, 1, 3, 4, 9, 6, 10, 8, 2, 7]);
makespan = 879;
----------
assign = array1d(1..11 ,[1, 2, 2, 1, 1, 1, 2, 2, 1, 1, 2]);
next = array1d(1..11 ,[6, 3, 11, 9, 4, 10, 8, 2, 1, 7, 5]);
makespan = 878;
----------
assign = array1d(1..11 ,[2, 1, 1, 1, 1, 1, 2, 2, 2, 1, 2]);
next = array1d(1..11 ,[7, 10, 6, 3, 4, 2, 9, 1, 11, 8, 5]);
makespan = 877;
----------
assign = array1d(1..11 ,[1, 2, 2, 1, 1, 1, 2, 2, 1, 1, 2]);
next = array1d(1..11 ,[6, 8, 2, 9, 4, 10, 3, 11, 1, 7, 5]);
makespan = 876;
----------
assign = array1d(1..11 ,[1, 1, 2, 1, 1, 1, 2, 2, 2, 1, 2]);
next = array1d(1..11 ,[6, 10, 9, 1, 4, 2, 3, 11, 8, 7, 5]);
makespan = 875;
----------
assign = array1d(1..11 ,[1, 1, 2, 1, 1, 1, 2, 2, 2, 1, 2]);
next = array1d(1..11 ,[6, 10, 9, 1, 4, 2, 8, 3, 11, 7, 5]);
makespan = 874;
----------
assign = array1d(1..11 ,[1, 1, 2, 1, 1, 1, 2, 2, 2, 1, 2]);
next = array1d(1..11 ,[6, 10, 9, 1, 4, 2, 11, 3, 7, 8, 5]);
makespan = 873;
----------
assign = array1d(1..11 ,[2, 1, 1, 1, 1, 1, 2, 2, 2, 1, 2]);
next = array1d(1..11 ,[11, 3, 5, 10, 4, 2, 9, 7, 1, 8, 6]);
makespan = 872;
----------
assign = array1d(1..11 ,[2, 1, 1, 1, 1, 2, 2, 2, 1, 1, 2]);
next = array1d(1..11 ,[11, 3, 5, 9, 4, 8, 6, 1, 10, 7, 2]);
makespan = 871;
----------
assign = array1d(1..11 ,[2, 1, 1, 1, 1, 2, 2, 2, 1, 1, 2]);
next = array1d(1..11 ,[8, 3, 5, 9, 4, 7, 11, 6, 10, 1, 2]);
makespan = 870;
----------
assign = array1d(1..11 ,[2, 1, 1, 1, 1, 2, 2, 2, 1, 1, 2]);
next = array1d(1..11 ,[8, 3, 5, 9, 4, 11, 6, 7, 10, 1, 2]);
makespan = 869;
----------
assign = array1d(1..11 ,[2, 1, 1, 1, 1, 2, 2, 2, 1, 1, 2]);
next = array1d(1..11 ,[7, 3, 5, 9, 4, 11, 8, 6, 10, 1, 2]);
makespan = 868;
----------
assign = array1d(1..11 ,[2, 1, 1, 1, 1, 2, 2, 2, 1, 1, 2]);
next = array1d(1..11 ,[6, 3, 5, 9, 4, 8, 11, 7, 10, 1, 2]);
makespan = 867;
----------
assign = array1d(1..11 ,[2, 1, 1, 1, 1, 2, 2, 2, 1, 1, 2]);
next = array1d(1..11 ,[6, 3, 5, 9, 4, 8, 11, 7, 10, 1, 2]);
makespan = 866;
----------
assign = array1d(1..11 ,[2, 1, 1, 1, 1, 2, 2, 2, 1, 1, 2]);
next = array1d(1..11 ,[8, 3, 5, 9, 4, 7, 11, 6, 10, 1, 2]);
makespan = 865;
----------
assign = array1d(1..11 ,[2, 1, 1, 1, 1, 2, 2, 2, 1, 1, 2]);
next = array1d(1..11 ,[8, 3, 5, 9, 4, 1, 6, 11, 10, 7, 2]);
makespan = 864;
----------
assign = array1d(1..11 ,[2, 1, 1, 1, 1, 2, 2, 2, 1, 1, 2]);
next = array1d(1..11 ,[8, 3, 5, 9, 4, 1, 6, 11, 10, 7, 2]);
makespan = 863;
----------
assign = array1d(1..11 ,[2, 1, 1, 1, 1, 2, 2, 2, 1, 1, 2]);
next = array1d(1..11 ,[7, 3, 5, 9, 4, 1, 8, 11, 10, 6, 2]);
makespan = 862;
----------
assign = array1d(1..11 ,[2, 1, 1, 1, 1, 2, 2, 2, 1, 1, 2]);
next = array1d(1..11 ,[8, 3, 5, 9, 4, 11, 6, 7, 10, 1, 2]);
makespan = 861;
----------
assign = array1d(1..11 ,[1, 1, 2, 1, 1, 2, 2, 2, 1, 1, 2]);
next = array1d(1..11 ,[2, 10, 6, 9, 4, 8, 3, 11, 1, 7, 5]);
makespan = 860;
----------
assign = array1d(1..11 ,[1, 1, 2, 1, 1, 2, 2, 2, 1, 1, 2]);
next = array1d(1..11 ,[2, 10, 6, 9, 4, 11, 8, 3, 1, 7, 5]);
makespan = 859;
----------
assign = array1d(1..11 ,[1, 1, 2, 1, 1, 2, 2, 2, 1, 1, 2]);
next = array1d(1..11 ,[2, 10, 7, 9, 4, 11, 6, 3, 1, 8, 5]);
makespan = 858;
----------
==========
	Command being timed: "mzn-chuffed lbbd-datasets/Rabadi-2006/dzn-s-dominant/model.mzn lbbd-datasets/Rabadi-2006/dzn-s-dominant/9on2Rp50Rs50_7Ameer.dzn"
	User time (seconds): 0.41
	System time (seconds): 0.01
	Percent of CPU this job got: 0%
	Elapsed (wall clock) time (h:mm:ss or m:ss): 4:34.67
	Average shared text size (kbytes): 0
	Average unshared data size (kbytes): 0
	Average stack size (kbytes): 0
	Average total size (kbytes): 0
	Maximum resident set size (kbytes): 34912
	Average resident set size (kbytes): 0
	Major (requiring I/O) page faults: 0
	Minor (reclaiming a frame) page faults: 3170
	Voluntary context switches: 466
	Involuntary context switches: 4
	Swaps: 0
	File system inputs: 0
	File system outputs: 368
	Socket messages sent: 0
	Socket messages received: 0
	Signals delivered: 0
	Page size (bytes): 4096
	Exit status: 0
