+ /usr/bin/timeout 600 /usr/bin/time -v mzn-chuffed lbbd-datasets/sscplp/trucks-dzn/model.mzn lbbd-datasets/sscplp/trucks-dzn/p21-l40-c50-uncorrelated.dzn
% No search annotation given. Defaulting to VSIDS!
source = [7, 12, 8, 6, 10, 12, 9, 1, 7, 5, 15, 7, 14, 20, 6, 20, 12, 20, 15, 12, 15, 15, 20, 8, 9, 20, 5, 1, 7, 20, 5, 20, 15, 9, 6, 8, 12, 20, 10, 5]
open = [true, false, false, false, true, true, true, true, true, true, false, true, false, true, true, false, false, false, false, true]
trucks_used = [2, 0, 0, 0, 4, 3, 4, 3, 3, 2, 0, 5, 0, 1, 5, 0, 0, 0, 0, 8]
truck_assigned = [2, 4, 2, 2, 2, 3, 2, 1, 4, 3, 4, 1, 1, 3, 3, 6, 1, 5, 2, 2, 3, 2, 7, 1, 3, 8, 4, 2, 3, 4, 1, 2, 5, 3, 1, 3, 5, 6, 1, 2]
obj = 9075
----------
