+ /usr/bin/timeout 600 /usr/bin/time -v mzn-chuffed lbbd-datasets/Rabadi-2006/dzn-p-dominant/model.mzn lbbd-datasets/Rabadi-2006/dzn-p-dominant/10on8Rp50Rs50_5Ameer.dzn
% No search annotation given. Defaulting to VSIDS!
assign = array1d(1..18 ,[8, 8, 8, 8, 8, 8, 8, 8, 8, 8, 1, 2, 3, 4, 5, 6, 7, 8]);
next = array1d(1..18 ,[2, 3, 4, 5, 6, 7, 8, 9, 10, 18, 12, 13, 14, 15, 16, 17, 1, 11]);
makespan = 2168;
----------
assign = array1d(1..18 ,[8, 8, 8, 8, 8, 8, 8, 8, 8, 8, 1, 2, 3, 4, 5, 6, 7, 8]);
next = array1d(1..18 ,[3, 4, 2, 5, 6, 7, 8, 9, 10, 18, 12, 13, 14, 15, 16, 17, 1, 11]);
makespan = 2139;
----------
assign = array1d(1..18 ,[8, 8, 8, 8, 8, 8, 8, 8, 8, 8, 1, 2, 3, 4, 5, 6, 7, 8]);
next = array1d(1..18 ,[2, 8, 4, 1, 6, 7, 18, 9, 10, 5, 12, 13, 14, 15, 16, 17, 3, 11]);
makespan = 2128;
----------
assign = array1d(1..18 ,[8, 8, 8, 8, 8, 8, 8, 8, 8, 6, 1, 2, 3, 4, 5, 6, 7, 8]);
next = array1d(1..18 ,[2, 8, 4, 5, 6, 7, 1, 9, 18, 16, 12, 13, 14, 15, 10, 17, 3, 11]);
makespan = 2009;
----------
assign = array1d(1..18 ,[8, 8, 8, 8, 8, 8, 8, 1, 8, 8, 1, 2, 3, 4, 5, 6, 7, 8]);
next = array1d(1..18 ,[2, 9, 4, 1, 6, 7, 3, 11, 10, 18, 12, 13, 14, 15, 16, 17, 5, 8]);
makespan = 2005;
----------
assign = array1d(1..18 ,[8, 8, 8, 8, 8, 8, 8, 5, 8, 8, 1, 2, 3, 4, 5, 6, 7, 8]);
next = array1d(1..18 ,[2, 9, 4, 5, 6, 7, 18, 15, 10, 3, 12, 13, 14, 8, 16, 17, 1, 11]);
makespan = 1998;
----------
assign = array1d(1..18 ,[8, 8, 8, 8, 8, 8, 8, 7, 8, 8, 1, 2, 3, 4, 5, 6, 7, 8]);
next = array1d(1..18 ,[2, 9, 4, 5, 6, 7, 18, 17, 10, 3, 12, 13, 14, 15, 16, 8, 1, 11]);
makespan = 1967;
----------
assign = array1d(1..18 ,[8, 8, 8, 8, 8, 8, 8, 4, 8, 8, 1, 2, 3, 4, 5, 6, 7, 8]);
next = array1d(1..18 ,[2, 9, 4, 5, 6, 7, 18, 14, 10, 3, 12, 13, 8, 15, 16, 17, 1, 11]);
makespan = 1949;
----------
assign = array1d(1..18 ,[8, 8, 8, 8, 8, 8, 8, 2, 8, 8, 1, 2, 3, 4, 5, 6, 7, 8]);
next = array1d(1..18 ,[2, 3, 4, 5, 6, 7, 18, 12, 10, 1, 8, 13, 14, 15, 16, 17, 9, 11]);
makespan = 1940;
----------
assign = array1d(1..18 ,[8, 8, 8, 8, 8, 8, 8, 7, 8, 8, 1, 2, 3, 4, 5, 6, 7, 8]);
next = array1d(1..18 ,[2, 3, 4, 5, 6, 7, 18, 17, 10, 1, 12, 13, 14, 15, 16, 8, 9, 11]);
makespan = 1937;
----------
assign = array1d(1..18 ,[8, 8, 8, 8, 8, 8, 8, 4, 8, 8, 1, 2, 3, 4, 5, 6, 7, 8]);
next = array1d(1..18 ,[2, 3, 4, 5, 6, 7, 18, 14, 10, 1, 12, 13, 8, 15, 16, 17, 9, 11]);
makespan = 1934;
----------
assign = array1d(1..18 ,[8, 8, 8, 8, 8, 8, 8, 3, 8, 8, 1, 2, 3, 4, 5, 6, 7, 8]);
next = array1d(1..18 ,[2, 5, 4, 1, 6, 7, 18, 13, 10, 3, 12, 8, 14, 15, 16, 17, 9, 11]);
makespan = 1933;
----------
assign = array1d(1..18 ,[8, 8, 8, 8, 8, 8, 8, 6, 8, 8, 1, 2, 3, 4, 5, 6, 7, 8]);
next = array1d(1..18 ,[2, 5, 4, 1, 6, 7, 18, 16, 10, 3, 12, 13, 14, 15, 8, 17, 9, 11]);
makespan = 1921;
----------
assign = array1d(1..18 ,[8, 8, 8, 8, 8, 8, 8, 3, 8, 8, 1, 2, 3, 4, 5, 6, 7, 8]);
next = array1d(1..18 ,[2, 5, 4, 1, 6, 7, 18, 13, 10, 3, 12, 8, 14, 15, 16, 17, 9, 11]);
makespan = 1909;
----------
assign = array1d(1..18 ,[8, 8, 8, 8, 8, 8, 8, 5, 8, 8, 1, 2, 3, 4, 5, 6, 7, 8]);
next = array1d(1..18 ,[2, 5, 4, 9, 6, 7, 3, 15, 10, 18, 12, 13, 14, 8, 16, 17, 1, 11]);
makespan = 1901;
----------
assign = array1d(1..18 ,[8, 8, 8, 8, 8, 8, 8, 4, 8, 8, 1, 2, 3, 4, 5, 6, 7, 8]);
next = array1d(1..18 ,[2, 5, 4, 9, 6, 7, 18, 14, 10, 1, 12, 13, 8, 15, 16, 17, 3, 11]);
makespan = 1899;
----------
assign = array1d(1..18 ,[8, 8, 8, 8, 8, 8, 8, 6, 8, 8, 1, 2, 3, 4, 5, 6, 7, 8]);
next = array1d(1..18 ,[2, 5, 4, 9, 6, 7, 18, 16, 10, 1, 12, 13, 14, 15, 8, 17, 3, 11]);
makespan = 1883;
----------
assign = array1d(1..18 ,[8, 8, 8, 8, 8, 8, 1, 4, 8, 8, 1, 2, 3, 4, 5, 6, 7, 8]);
next = array1d(1..18 ,[2, 9, 4, 5, 6, 18, 11, 14, 10, 3, 12, 13, 8, 15, 16, 17, 1, 7]);
makespan = 1862;
----------
assign = array1d(1..18 ,[8, 8, 8, 8, 8, 8, 1, 6, 8, 8, 1, 2, 3, 4, 5, 6, 7, 8]);
next = array1d(1..18 ,[2, 18, 4, 5, 6, 1, 11, 16, 10, 3, 12, 13, 14, 15, 8, 17, 9, 7]);
makespan = 1850;
----------
assign = array1d(1..18 ,[8, 8, 8, 8, 8, 8, 1, 4, 8, 8, 1, 2, 3, 4, 5, 6, 7, 8]);
next = array1d(1..18 ,[2, 18, 4, 5, 6, 1, 11, 14, 10, 3, 12, 13, 8, 15, 16, 17, 9, 7]);
makespan = 1841;
----------
assign = array1d(1..18 ,[8, 8, 8, 8, 8, 8, 1, 6, 8, 8, 1, 2, 3, 4, 5, 6, 7, 8]);
next = array1d(1..18 ,[2, 18, 4, 5, 6, 1, 11, 16, 10, 3, 12, 13, 14, 15, 8, 17, 9, 7]);
makespan = 1830;
----------
assign = array1d(1..18 ,[8, 8, 8, 8, 8, 8, 1, 4, 8, 8, 1, 2, 3, 4, 5, 6, 7, 8]);
next = array1d(1..18 ,[2, 18, 4, 5, 6, 1, 11, 14, 10, 3, 12, 13, 8, 15, 16, 17, 9, 7]);
makespan = 1813;
----------
assign = array1d(1..18 ,[8, 8, 8, 8, 8, 8, 1, 3, 8, 8, 1, 2, 3, 4, 5, 6, 7, 8]);
next = array1d(1..18 ,[2, 18, 4, 5, 6, 1, 11, 13, 10, 3, 12, 8, 14, 15, 16, 17, 9, 7]);
makespan = 1804;
----------
assign = array1d(1..18 ,[8, 8, 8, 8, 8, 8, 1, 2, 8, 8, 1, 2, 3, 4, 5, 6, 7, 8]);
next = array1d(1..18 ,[2, 18, 4, 5, 6, 1, 11, 12, 10, 3, 8, 13, 14, 15, 16, 17, 9, 7]);
makespan = 1796;
----------
assign = array1d(1..18 ,[8, 8, 8, 8, 8, 8, 1, 3, 8, 8, 1, 2, 3, 4, 5, 6, 7, 8]);
next = array1d(1..18 ,[2, 9, 4, 5, 6, 18, 11, 13, 10, 3, 12, 8, 14, 15, 16, 17, 1, 7]);
makespan = 1793;
----------
assign = array1d(1..18 ,[8, 8, 8, 8, 8, 8, 1, 2, 8, 8, 1, 2, 3, 4, 5, 6, 7, 8]);
next = array1d(1..18 ,[2, 9, 4, 5, 6, 18, 11, 12, 10, 3, 8, 13, 14, 15, 16, 17, 1, 7]);
makespan = 1790;
----------
assign = array1d(1..18 ,[8, 8, 8, 8, 8, 8, 1, 3, 8, 8, 1, 2, 3, 4, 5, 6, 7, 8]);
next = array1d(1..18 ,[2, 9, 4, 5, 6, 18, 11, 13, 10, 3, 12, 8, 14, 15, 16, 17, 1, 7]);
makespan = 1785;
----------
assign = array1d(1..18 ,[8, 8, 8, 8, 8, 8, 1, 2, 8, 8, 1, 2, 3, 4, 5, 6, 7, 8]);
next = array1d(1..18 ,[2, 9, 4, 5, 6, 18, 11, 12, 10, 3, 8, 13, 14, 15, 16, 17, 1, 7]);
makespan = 1782;
----------
assign = array1d(1..18 ,[8, 8, 8, 8, 8, 8, 1, 3, 8, 8, 1, 2, 3, 4, 5, 6, 7, 8]);
next = array1d(1..18 ,[2, 9, 4, 5, 6, 18, 11, 13, 10, 3, 12, 8, 14, 15, 16, 17, 1, 7]);
makespan = 1779;
----------
assign = array1d(1..18 ,[8, 8, 8, 8, 8, 8, 1, 2, 8, 8, 1, 2, 3, 4, 5, 6, 7, 8]);
next = array1d(1..18 ,[2, 9, 4, 5, 6, 18, 11, 12, 10, 3, 8, 13, 14, 15, 16, 17, 1, 7]);
makespan = 1776;
----------
assign = array1d(1..18 ,[8, 8, 8, 8, 8, 8, 1, 5, 8, 8, 1, 2, 3, 4, 5, 6, 7, 8]);
next = array1d(1..18 ,[2, 9, 4, 5, 6, 18, 11, 15, 10, 3, 12, 13, 14, 8, 16, 17, 1, 7]);
makespan = 1771;
----------
assign = array1d(1..18 ,[8, 8, 8, 8, 8, 8, 1, 7, 8, 8, 1, 2, 3, 4, 5, 6, 7, 8]);
next = array1d(1..18 ,[2, 3, 4, 5, 6, 9, 11, 17, 10, 18, 12, 13, 14, 15, 16, 8, 1, 7]);
makespan = 1764;
----------
assign = array1d(1..18 ,[8, 8, 8, 8, 8, 8, 1, 2, 8, 8, 1, 2, 3, 4, 5, 6, 7, 8]);
next = array1d(1..18 ,[2, 3, 4, 5, 6, 9, 11, 12, 10, 18, 8, 13, 14, 15, 16, 17, 1, 7]);
makespan = 1757;
----------
assign = array1d(1..18 ,[8, 8, 8, 8, 8, 8, 1, 7, 8, 8, 1, 2, 3, 4, 5, 6, 7, 8]);
next = array1d(1..18 ,[2, 3, 4, 5, 6, 9, 11, 17, 10, 18, 12, 13, 14, 15, 16, 8, 1, 7]);
makespan = 1756;
----------
assign = array1d(1..18 ,[8, 8, 8, 8, 8, 8, 1, 2, 8, 8, 1, 2, 3, 4, 5, 6, 7, 8]);
next = array1d(1..18 ,[2, 3, 4, 5, 6, 9, 11, 12, 10, 18, 8, 13, 14, 15, 16, 17, 1, 7]);
makespan = 1754;
----------
assign = array1d(1..18 ,[8, 8, 8, 8, 8, 8, 1, 7, 8, 8, 1, 2, 3, 4, 5, 6, 7, 8]);
next = array1d(1..18 ,[2, 3, 4, 5, 6, 9, 11, 17, 10, 18, 12, 13, 14, 15, 16, 8, 1, 7]);
makespan = 1748;
----------
assign = array1d(1..18 ,[8, 8, 8, 8, 8, 8, 1, 2, 8, 8, 1, 2, 3, 4, 5, 6, 7, 8]);
next = array1d(1..18 ,[2, 3, 4, 5, 6, 9, 11, 12, 10, 18, 8, 13, 14, 15, 16, 17, 1, 7]);
makespan = 1739;
----------
assign = array1d(1..18 ,[8, 8, 8, 8, 8, 8, 1, 7, 8, 8, 1, 2, 3, 4, 5, 6, 7, 8]);
next = array1d(1..18 ,[2, 3, 4, 5, 6, 9, 11, 17, 10, 18, 12, 13, 14, 15, 16, 8, 1, 7]);
makespan = 1734;
----------
assign = array1d(1..18 ,[8, 8, 8, 8, 8, 8, 1, 2, 8, 8, 1, 2, 3, 4, 5, 6, 7, 8]);
next = array1d(1..18 ,[2, 3, 4, 5, 6, 9, 11, 12, 10, 18, 8, 13, 14, 15, 16, 17, 1, 7]);
makespan = 1731;
----------
assign = array1d(1..18 ,[8, 8, 8, 8, 8, 8, 1, 7, 8, 8, 1, 2, 3, 4, 5, 6, 7, 8]);
next = array1d(1..18 ,[2, 3, 4, 5, 6, 9, 11, 17, 10, 18, 12, 13, 14, 15, 16, 8, 1, 7]);
makespan = 1729;
----------
assign = array1d(1..18 ,[8, 8, 8, 8, 8, 8, 1, 2, 8, 8, 1, 2, 3, 4, 5, 6, 7, 8]);
next = array1d(1..18 ,[2, 5, 4, 18, 6, 9, 11, 12, 10, 3, 8, 13, 14, 15, 16, 17, 1, 7]);
makespan = 1722;
----------
assign = array1d(1..18 ,[8, 8, 8, 8, 8, 8, 1, 7, 8, 8, 1, 2, 3, 4, 5, 6, 7, 8]);
next = array1d(1..18 ,[2, 5, 4, 18, 6, 9, 11, 17, 10, 3, 12, 13, 14, 15, 16, 8, 1, 7]);
makespan = 1714;
----------
assign = array1d(1..18 ,[8, 8, 8, 8, 8, 8, 1, 2, 8, 8, 1, 2, 3, 4, 5, 6, 7, 8]);
next = array1d(1..18 ,[2, 5, 4, 1, 6, 9, 11, 12, 10, 18, 8, 13, 14, 15, 16, 17, 3, 7]);
makespan = 1700;
----------
assign = array1d(1..18 ,[8, 8, 8, 8, 8, 8, 1, 7, 8, 8, 1, 2, 3, 4, 5, 6, 7, 8]);
next = array1d(1..18 ,[2, 5, 4, 1, 6, 9, 11, 17, 10, 18, 12, 13, 14, 15, 16, 8, 3, 7]);
makespan = 1699;
----------
assign = array1d(1..18 ,[8, 8, 8, 8, 8, 8, 1, 2, 8, 8, 1, 2, 3, 4, 5, 6, 7, 8]);
next = array1d(1..18 ,[2, 5, 4, 1, 6, 9, 11, 12, 10, 18, 8, 13, 14, 15, 16, 17, 3, 7]);
makespan = 1689;
----------
assign = array1d(1..18 ,[8, 8, 1, 1, 8, 8, 8, 7, 8, 8, 1, 2, 3, 4, 5, 6, 7, 8]);
next = array1d(1..18 ,[2, 9, 11, 3, 6, 18, 1, 17, 10, 5, 12, 13, 14, 15, 16, 8, 7, 4]);
makespan = 1686;
----------
assign = array1d(1..18 ,[8, 8, 1, 1, 8, 8, 8, 5, 8, 8, 1, 2, 3, 4, 5, 6, 7, 8]);
next = array1d(1..18 ,[2, 18, 11, 3, 6, 1, 9, 15, 10, 5, 12, 13, 14, 8, 16, 17, 7, 4]);
makespan = 1666;
----------
assign = array1d(1..18 ,[8, 8, 1, 1, 8, 8, 8, 7, 8, 8, 1, 2, 3, 4, 5, 6, 7, 8]);
next = array1d(1..18 ,[2, 18, 11, 3, 6, 1, 9, 17, 10, 5, 12, 13, 14, 15, 16, 8, 7, 4]);
makespan = 1663;
----------
assign = array1d(1..18 ,[8, 8, 1, 1, 8, 8, 8, 2, 8, 8, 1, 2, 3, 4, 5, 6, 7, 8]);
next = array1d(1..18 ,[2, 18, 11, 3, 6, 1, 9, 12, 10, 5, 8, 13, 14, 15, 16, 17, 7, 4]);
makespan = 1658;
----------
assign = array1d(1..18 ,[8, 8, 1, 1, 8, 8, 8, 7, 8, 8, 1, 2, 3, 4, 5, 6, 7, 8]);
next = array1d(1..18 ,[2, 18, 11, 3, 6, 1, 9, 17, 10, 5, 12, 13, 14, 15, 16, 8, 7, 4]);
makespan = 1652;
----------
assign = array1d(1..18 ,[8, 8, 1, 1, 8, 8, 8, 2, 8, 8, 1, 2, 3, 4, 5, 6, 7, 8]);
next = array1d(1..18 ,[2, 18, 11, 3, 6, 1, 9, 12, 10, 5, 8, 13, 14, 15, 16, 17, 7, 4]);
makespan = 1640;
----------
assign = array1d(1..18 ,[8, 8, 1, 1, 8, 8, 8, 7, 8, 8, 1, 2, 3, 4, 5, 6, 7, 8]);
next = array1d(1..18 ,[2, 18, 11, 3, 6, 1, 9, 17, 10, 5, 12, 13, 14, 15, 16, 8, 7, 4]);
makespan = 1635;
----------
assign = array1d(1..18 ,[8, 8, 1, 1, 8, 8, 8, 7, 8, 8, 1, 2, 3, 4, 5, 6, 7, 8]);
next = array1d(1..18 ,[2, 18, 11, 3, 6, 1, 9, 17, 10, 5, 12, 13, 14, 15, 16, 8, 7, 4]);
makespan = 1632;
----------
assign = array1d(1..18 ,[8, 8, 1, 1, 8, 8, 8, 2, 8, 8, 1, 2, 3, 4, 5, 6, 7, 8]);
next = array1d(1..18 ,[2, 18, 11, 3, 6, 1, 9, 12, 10, 5, 8, 13, 14, 15, 16, 17, 7, 4]);
makespan = 1621;
----------
assign = array1d(1..18 ,[8, 8, 1, 1, 8, 8, 8, 7, 8, 8, 1, 2, 3, 4, 5, 6, 7, 8]);
next = array1d(1..18 ,[2, 18, 11, 3, 6, 1, 9, 17, 10, 5, 12, 13, 14, 15, 16, 8, 7, 4]);
makespan = 1607;
----------
assign = array1d(1..18 ,[8, 8, 1, 1, 8, 8, 8, 2, 8, 8, 1, 2, 3, 4, 5, 6, 7, 8]);
next = array1d(1..18 ,[2, 18, 11, 3, 6, 1, 9, 12, 10, 5, 8, 13, 14, 15, 16, 17, 7, 4]);
makespan = 1606;
----------
assign = array1d(1..18 ,[8, 8, 1, 1, 8, 8, 8, 7, 8, 8, 1, 2, 3, 4, 5, 6, 7, 8]);
next = array1d(1..18 ,[2, 18, 11, 3, 6, 1, 9, 17, 10, 5, 12, 13, 14, 15, 16, 8, 7, 4]);
makespan = 1604;
----------
assign = array1d(1..18 ,[8, 8, 1, 1, 8, 8, 8, 2, 8, 8, 1, 2, 3, 4, 5, 6, 7, 8]);
next = array1d(1..18 ,[2, 18, 11, 3, 6, 1, 9, 12, 10, 5, 8, 13, 14, 15, 16, 17, 7, 4]);
makespan = 1601;
----------
assign = array1d(1..18 ,[8, 8, 1, 1, 8, 8, 8, 7, 8, 8, 1, 2, 3, 4, 5, 6, 7, 8]);
next = array1d(1..18 ,[2, 18, 11, 3, 6, 1, 9, 17, 10, 5, 12, 13, 14, 15, 16, 8, 7, 4]);
makespan = 1600;
----------
assign = array1d(1..18 ,[8, 8, 1, 1, 8, 8, 8, 2, 8, 8, 1, 2, 3, 4, 5, 6, 7, 8]);
next = array1d(1..18 ,[2, 18, 11, 3, 6, 1, 9, 12, 10, 5, 8, 13, 14, 15, 16, 17, 7, 4]);
makespan = 1598;
----------
assign = array1d(1..18 ,[8, 8, 1, 1, 8, 8, 8, 7, 8, 8, 1, 2, 3, 4, 5, 6, 7, 8]);
next = array1d(1..18 ,[2, 18, 11, 3, 6, 1, 9, 17, 10, 5, 12, 13, 14, 15, 16, 8, 7, 4]);
makespan = 1597;
----------
assign = array1d(1..18 ,[8, 8, 1, 1, 8, 8, 8, 2, 8, 8, 1, 2, 3, 4, 5, 6, 7, 8]);
next = array1d(1..18 ,[2, 18, 11, 3, 6, 1, 9, 12, 10, 5, 8, 13, 14, 15, 16, 17, 7, 4]);
makespan = 1586;
----------
assign = array1d(1..18 ,[8, 8, 1, 1, 8, 8, 8, 7, 8, 8, 1, 2, 3, 4, 5, 6, 7, 8]);
next = array1d(1..18 ,[2, 18, 11, 3, 6, 1, 9, 17, 10, 5, 12, 13, 14, 15, 16, 8, 7, 4]);
makespan = 1582;
----------
assign = array1d(1..18 ,[8, 8, 1, 1, 8, 8, 8, 2, 8, 8, 1, 2, 3, 4, 5, 6, 7, 8]);
next = array1d(1..18 ,[2, 18, 11, 3, 6, 1, 9, 12, 10, 5, 8, 13, 14, 15, 16, 17, 7, 4]);
makespan = 1579;
----------
assign = array1d(1..18 ,[8, 8, 1, 1, 8, 8, 8, 7, 8, 8, 1, 2, 3, 4, 5, 6, 7, 8]);
next = array1d(1..18 ,[2, 18, 11, 3, 6, 1, 9, 17, 10, 5, 12, 13, 14, 15, 16, 8, 7, 4]);
makespan = 1578;
----------
assign = array1d(1..18 ,[8, 8, 1, 1, 8, 8, 8, 2, 8, 8, 1, 2, 3, 4, 5, 6, 7, 8]);
next = array1d(1..18 ,[2, 18, 11, 3, 6, 1, 9, 12, 10, 5, 8, 13, 14, 15, 16, 17, 7, 4]);
makespan = 1576;
----------
assign = array1d(1..18 ,[8, 8, 1, 1, 8, 8, 8, 7, 8, 8, 1, 2, 3, 4, 5, 6, 7, 8]);
next = array1d(1..18 ,[2, 18, 11, 3, 6, 1, 9, 17, 10, 5, 12, 13, 14, 15, 16, 8, 7, 4]);
makespan = 1570;
----------
assign = array1d(1..18 ,[8, 8, 1, 1, 8, 8, 8, 2, 8, 8, 1, 2, 3, 4, 5, 6, 7, 8]);
next = array1d(1..18 ,[2, 18, 11, 3, 6, 1, 9, 12, 10, 5, 8, 13, 14, 15, 16, 17, 7, 4]);
makespan = 1565;
----------
assign = array1d(1..18 ,[8, 8, 1, 1, 8, 8, 8, 7, 8, 8, 1, 2, 3, 4, 5, 6, 7, 8]);
next = array1d(1..18 ,[2, 18, 11, 3, 6, 1, 9, 17, 10, 5, 12, 13, 14, 15, 16, 8, 7, 4]);
makespan = 1563;
----------
assign = array1d(1..18 ,[8, 8, 1, 1, 8, 8, 8, 2, 8, 8, 1, 2, 3, 4, 5, 6, 7, 8]);
next = array1d(1..18 ,[2, 18, 11, 3, 6, 1, 9, 12, 10, 5, 8, 13, 14, 15, 16, 17, 7, 4]);
makespan = 1559;
----------
assign = array1d(1..18 ,[8, 8, 1, 1, 8, 8, 8, 7, 8, 8, 1, 2, 3, 4, 5, 6, 7, 8]);
next = array1d(1..18 ,[2, 18, 11, 3, 6, 1, 9, 17, 10, 5, 12, 13, 14, 15, 16, 8, 7, 4]);
makespan = 1546;
----------
assign = array1d(1..18 ,[8, 8, 1, 1, 8, 8, 8, 2, 8, 8, 1, 2, 3, 4, 5, 6, 7, 8]);
next = array1d(1..18 ,[2, 7, 11, 3, 6, 1, 18, 12, 10, 5, 8, 13, 14, 15, 16, 17, 9, 4]);
makespan = 1531;
----------
assign = array1d(1..18 ,[8, 8, 1, 1, 8, 8, 8, 2, 8, 8, 1, 2, 3, 4, 5, 6, 7, 8]);
next = array1d(1..18 ,[2, 9, 11, 3, 6, 18, 1, 12, 10, 5, 8, 13, 14, 15, 16, 17, 7, 4]);
makespan = 1524;
----------
assign = array1d(1..18 ,[8, 8, 1, 1, 8, 8, 8, 4, 8, 8, 1, 2, 3, 4, 5, 6, 7, 8]);
next = array1d(1..18 ,[2, 9, 11, 3, 6, 18, 1, 14, 10, 5, 12, 13, 8, 15, 16, 17, 7, 4]);
makespan = 1521;
----------
assign = array1d(1..18 ,[8, 8, 1, 1, 8, 8, 8, 3, 8, 8, 1, 2, 3, 4, 5, 6, 7, 8]);
next = array1d(1..18 ,[2, 9, 11, 3, 6, 18, 1, 13, 10, 5, 12, 8, 14, 15, 16, 17, 7, 4]);
makespan = 1519;
----------
assign = array1d(1..18 ,[8, 8, 1, 1, 8, 8, 8, 4, 8, 8, 1, 2, 3, 4, 5, 6, 7, 8]);
next = array1d(1..18 ,[2, 9, 11, 3, 6, 1, 5, 14, 10, 18, 12, 13, 8, 15, 16, 17, 7, 4]);
makespan = 1514;
----------
assign = array1d(1..18 ,[8, 8, 1, 1, 8, 8, 8, 2, 8, 8, 1, 2, 3, 4, 5, 6, 7, 8]);
next = array1d(1..18 ,[2, 18, 11, 3, 6, 9, 1, 12, 10, 7, 8, 13, 14, 15, 16, 17, 5, 4]);
makespan = 1509;
----------
assign = array1d(1..18 ,[8, 8, 4, 8, 8, 8, 8, 5, 8, 4, 1, 2, 3, 4, 5, 6, 7, 8]);
next = array1d(1..18 ,[7, 18, 10, 2, 1, 4, 9, 15, 6, 14, 12, 13, 3, 8, 16, 17, 5, 11]);
makespan = 1508;
----------
assign = array1d(1..18 ,[8, 5, 2, 4, 8, 8, 8, 8, 8, 8, 1, 2, 3, 4, 5, 6, 7, 8]);
next = array1d(1..18 ,[18, 15, 12, 14, 1, 9, 8, 6, 5, 7, 3, 13, 4, 2, 16, 17, 10, 11]);
makespan = 1507;
----------
assign = array1d(1..18 ,[8, 2, 6, 7, 8, 8, 8, 8, 8, 8, 1, 2, 3, 4, 5, 6, 7, 8]);
next = array1d(1..18 ,[8, 12, 16, 17, 10, 18, 1, 6, 5, 7, 2, 13, 14, 15, 3, 4, 9, 11]);
makespan = 1506;
----------
assign = array1d(1..18 ,[8, 8, 7, 8, 7, 8, 8, 7, 8, 8, 1, 2, 3, 4, 5, 6, 7, 8]);
next = array1d(1..18 ,[18, 1, 8, 10, 3, 2, 6, 17, 7, 9, 12, 13, 14, 15, 16, 5, 4, 11]);
makespan = 1505;
----------
assign = array1d(1..18 ,[8, 8, 7, 8, 8, 7, 8, 7, 8, 8, 1, 2, 3, 4, 5, 6, 7, 8]);
next = array1d(1..18 ,[18, 7, 6, 10, 9, 8, 5, 17, 1, 2, 12, 13, 14, 15, 16, 3, 4, 11]);
makespan = 1504;
----------
assign = array1d(1..18 ,[8, 8, 6, 7, 8, 8, 8, 7, 8, 8, 1, 2, 3, 4, 5, 6, 7, 8]);
next = array1d(1..18 ,[5, 7, 16, 8, 6, 10, 9, 17, 18, 2, 12, 13, 14, 15, 3, 4, 1, 11]);
makespan = 1503;
----------
assign = array1d(1..18 ,[7, 8, 7, 7, 7, 8, 8, 8, 8, 8, 1, 2, 3, 4, 5, 6, 7, 8]);
next = array1d(1..18 ,[17, 7, 4, 5, 1, 10, 9, 18, 8, 2, 12, 13, 14, 15, 16, 3, 6, 11]);
makespan = 1502;
----------
assign = array1d(1..18 ,[1, 8, 7, 7, 8, 8, 8, 7, 8, 8, 1, 2, 3, 4, 5, 6, 7, 8]);
next = array1d(1..18 ,[11, 7, 8, 3, 6, 18, 9, 17, 5, 2, 12, 13, 14, 15, 16, 4, 10, 1]);
makespan = 1499;
----------
assign = array1d(1..18 ,[1, 8, 1, 1, 8, 8, 8, 1, 8, 8, 1, 2, 3, 4, 5, 6, 7, 8]);
next = array1d(1..18 ,[11, 7, 8, 1, 18, 10, 9, 4, 5, 2, 12, 13, 14, 15, 16, 17, 6, 3]);
makespan = 1498;
----------
assign = array1d(1..18 ,[7, 8, 7, 7, 8, 8, 8, 7, 8, 8, 1, 2, 3, 4, 5, 6, 7, 8]);
next = array1d(1..18 ,[17, 7, 8, 1, 6, 18, 9, 4, 5, 2, 12, 13, 14, 15, 16, 3, 10, 11]);
makespan = 1497;
----------
assign = array1d(1..18 ,[7, 8, 7, 7, 8, 8, 8, 7, 8, 8, 1, 2, 3, 4, 5, 6, 7, 8]);
next = array1d(1..18 ,[17, 7, 8, 1, 6, 18, 9, 4, 5, 2, 12, 13, 14, 15, 16, 3, 10, 11]);
makespan = 1496;
----------
assign = array1d(1..18 ,[7, 8, 7, 7, 8, 8, 8, 7, 8, 8, 1, 2, 3, 4, 5, 6, 7, 8]);
next = array1d(1..18 ,[17, 7, 8, 1, 6, 18, 9, 4, 5, 2, 12, 13, 14, 15, 16, 3, 10, 11]);
makespan = 1494;
----------
assign = array1d(1..18 ,[7, 8, 7, 7, 8, 8, 8, 7, 8, 8, 1, 2, 3, 4, 5, 6, 7, 8]);
next = array1d(1..18 ,[17, 7, 8, 1, 6, 18, 9, 4, 5, 2, 12, 13, 14, 15, 16, 3, 10, 11]);
makespan = 1492;
----------
assign = array1d(1..18 ,[7, 8, 7, 7, 8, 8, 8, 7, 8, 8, 1, 2, 3, 4, 5, 6, 7, 8]);
next = array1d(1..18 ,[17, 7, 8, 1, 6, 18, 9, 4, 5, 2, 12, 13, 14, 15, 16, 3, 10, 11]);
makespan = 1490;
----------
assign = array1d(1..18 ,[7, 8, 7, 7, 8, 8, 8, 7, 8, 8, 1, 2, 3, 4, 5, 6, 7, 8]);
next = array1d(1..18 ,[17, 7, 8, 1, 6, 18, 9, 4, 5, 2, 12, 13, 14, 15, 16, 3, 10, 11]);
makespan = 1475;
----------
assign = array1d(1..18 ,[7, 8, 7, 7, 8, 8, 8, 7, 8, 8, 1, 2, 3, 4, 5, 6, 7, 8]);
next = array1d(1..18 ,[17, 7, 8, 1, 6, 18, 9, 4, 5, 2, 12, 13, 14, 15, 16, 3, 10, 11]);
makespan = 1473;
----------
assign = array1d(1..18 ,[7, 8, 7, 7, 8, 8, 8, 7, 8, 8, 1, 2, 3, 4, 5, 6, 7, 8]);
next = array1d(1..18 ,[17, 7, 8, 1, 6, 18, 9, 4, 5, 2, 12, 13, 14, 15, 16, 3, 10, 11]);
makespan = 1454;
----------
assign = array1d(1..18 ,[7, 8, 7, 7, 8, 8, 8, 7, 8, 8, 1, 2, 3, 4, 5, 6, 7, 8]);
next = array1d(1..18 ,[17, 7, 8, 1, 6, 18, 9, 4, 5, 2, 12, 13, 14, 15, 16, 3, 10, 11]);
makespan = 1447;
----------
assign = array1d(1..18 ,[7, 8, 7, 7, 8, 8, 8, 7, 8, 8, 1, 2, 3, 4, 5, 6, 7, 8]);
next = array1d(1..18 ,[17, 7, 8, 1, 6, 18, 9, 4, 5, 2, 12, 13, 14, 15, 16, 3, 10, 11]);
makespan = 1444;
----------
assign = array1d(1..18 ,[7, 8, 7, 7, 8, 8, 8, 7, 8, 8, 1, 2, 3, 4, 5, 6, 7, 8]);
next = array1d(1..18 ,[17, 7, 8, 1, 6, 18, 9, 4, 5, 2, 12, 13, 14, 15, 16, 3, 10, 11]);
makespan = 1442;
----------
assign = array1d(1..18 ,[7, 8, 7, 7, 8, 8, 8, 7, 8, 8, 1, 2, 3, 4, 5, 6, 7, 8]);
next = array1d(1..18 ,[17, 7, 8, 1, 6, 18, 9, 4, 5, 2, 12, 13, 14, 15, 16, 3, 10, 11]);
makespan = 1422;
----------
assign = array1d(1..18 ,[7, 8, 7, 7, 8, 8, 8, 7, 8, 8, 1, 2, 3, 4, 5, 6, 7, 8]);
next = array1d(1..18 ,[17, 7, 8, 1, 6, 18, 9, 4, 5, 2, 12, 13, 14, 15, 16, 3, 10, 11]);
makespan = 1402;
----------
assign = array1d(1..18 ,[7, 8, 7, 7, 8, 8, 8, 7, 8, 8, 1, 2, 3, 4, 5, 6, 7, 8]);
next = array1d(1..18 ,[17, 7, 8, 1, 6, 18, 9, 4, 5, 2, 12, 13, 14, 15, 16, 3, 10, 11]);
makespan = 1398;
----------
assign = array1d(1..18 ,[7, 8, 7, 7, 8, 8, 8, 7, 8, 8, 1, 2, 3, 4, 5, 6, 7, 8]);
next = array1d(1..18 ,[17, 7, 8, 1, 6, 18, 9, 4, 5, 2, 12, 13, 14, 15, 16, 3, 10, 11]);
makespan = 1397;
----------
assign = array1d(1..18 ,[7, 8, 7, 7, 8, 8, 8, 7, 8, 8, 1, 2, 3, 4, 5, 6, 7, 8]);
next = array1d(1..18 ,[17, 7, 8, 1, 6, 18, 9, 4, 5, 2, 12, 13, 14, 15, 16, 3, 10, 11]);
makespan = 1396;
----------
assign = array1d(1..18 ,[7, 8, 7, 7, 8, 8, 8, 7, 8, 8, 1, 2, 3, 4, 5, 6, 7, 8]);
next = array1d(1..18 ,[17, 7, 8, 1, 6, 18, 9, 4, 5, 2, 12, 13, 14, 15, 16, 3, 10, 11]);
makespan = 1394;
----------
assign = array1d(1..18 ,[7, 8, 7, 7, 8, 8, 8, 7, 8, 8, 1, 2, 3, 4, 5, 6, 7, 8]);
next = array1d(1..18 ,[17, 7, 8, 1, 6, 18, 9, 4, 5, 2, 12, 13, 14, 15, 16, 3, 10, 11]);
makespan = 1393;
----------
assign = array1d(1..18 ,[7, 8, 7, 7, 8, 8, 8, 7, 8, 8, 1, 2, 3, 4, 5, 6, 7, 8]);
next = array1d(1..18 ,[17, 7, 8, 1, 6, 18, 9, 4, 5, 2, 12, 13, 14, 15, 16, 3, 10, 11]);
makespan = 1391;
----------
assign = array1d(1..18 ,[7, 8, 7, 7, 8, 8, 8, 7, 8, 8, 1, 2, 3, 4, 5, 6, 7, 8]);
next = array1d(1..18 ,[17, 7, 8, 1, 6, 18, 9, 4, 5, 2, 12, 13, 14, 15, 16, 3, 10, 11]);
makespan = 1389;
----------
assign = array1d(1..18 ,[7, 8, 7, 7, 8, 8, 8, 7, 8, 8, 1, 2, 3, 4, 5, 6, 7, 8]);
next = array1d(1..18 ,[17, 7, 8, 1, 6, 18, 9, 4, 5, 2, 12, 13, 14, 15, 16, 3, 10, 11]);
makespan = 1388;
----------
assign = array1d(1..18 ,[7, 8, 7, 7, 8, 8, 8, 7, 8, 8, 1, 2, 3, 4, 5, 6, 7, 8]);
next = array1d(1..18 ,[17, 7, 8, 1, 6, 18, 9, 4, 5, 2, 12, 13, 14, 15, 16, 3, 10, 11]);
makespan = 1387;
----------
assign = array1d(1..18 ,[7, 8, 7, 7, 8, 8, 8, 7, 8, 8, 1, 2, 3, 4, 5, 6, 7, 8]);
next = array1d(1..18 ,[17, 7, 8, 1, 6, 18, 9, 4, 5, 2, 12, 13, 14, 15, 16, 3, 10, 11]);
makespan = 1385;
----------
assign = array1d(1..18 ,[7, 8, 7, 7, 8, 8, 8, 7, 8, 8, 1, 2, 3, 4, 5, 6, 7, 8]);
next = array1d(1..18 ,[17, 7, 8, 1, 6, 18, 9, 4, 5, 2, 12, 13, 14, 15, 16, 3, 10, 11]);
makespan = 1381;
----------
assign = array1d(1..18 ,[7, 8, 7, 7, 8, 8, 8, 7, 8, 8, 1, 2, 3, 4, 5, 6, 7, 8]);
next = array1d(1..18 ,[17, 7, 8, 1, 6, 18, 9, 4, 5, 2, 12, 13, 14, 15, 16, 3, 10, 11]);
makespan = 1377;
----------
assign = array1d(1..18 ,[7, 8, 7, 7, 8, 8, 8, 7, 8, 8, 1, 2, 3, 4, 5, 6, 7, 8]);
next = array1d(1..18 ,[17, 7, 8, 1, 6, 18, 9, 4, 5, 2, 12, 13, 14, 15, 16, 3, 10, 11]);
makespan = 1376;
----------
assign = array1d(1..18 ,[7, 8, 7, 7, 8, 8, 8, 7, 8, 8, 1, 2, 3, 4, 5, 6, 7, 8]);
next = array1d(1..18 ,[17, 7, 8, 1, 6, 18, 9, 4, 5, 2, 12, 13, 14, 15, 16, 3, 10, 11]);
makespan = 1375;
----------
assign = array1d(1..18 ,[7, 8, 7, 7, 8, 8, 8, 7, 8, 8, 1, 2, 3, 4, 5, 6, 7, 8]);
next = array1d(1..18 ,[17, 7, 8, 1, 6, 18, 9, 4, 5, 2, 12, 13, 14, 15, 16, 3, 10, 11]);
makespan = 1369;
----------
assign = array1d(1..18 ,[7, 8, 7, 7, 8, 8, 8, 7, 8, 8, 1, 2, 3, 4, 5, 6, 7, 8]);
next = array1d(1..18 ,[17, 7, 8, 1, 6, 18, 9, 4, 5, 2, 12, 13, 14, 15, 16, 3, 10, 11]);
makespan = 1367;
----------
assign = array1d(1..18 ,[7, 8, 7, 7, 8, 8, 8, 7, 8, 8, 1, 2, 3, 4, 5, 6, 7, 8]);
next = array1d(1..18 ,[17, 7, 8, 1, 6, 18, 9, 4, 5, 2, 12, 13, 14, 15, 16, 3, 10, 11]);
makespan = 1364;
----------
assign = array1d(1..18 ,[7, 8, 7, 7, 8, 8, 8, 7, 8, 8, 1, 2, 3, 4, 5, 6, 7, 8]);
next = array1d(1..18 ,[17, 7, 8, 1, 6, 18, 9, 4, 5, 2, 12, 13, 14, 15, 16, 3, 10, 11]);
makespan = 1363;
----------
assign = array1d(1..18 ,[7, 8, 7, 7, 8, 8, 8, 7, 8, 8, 1, 2, 3, 4, 5, 6, 7, 8]);
next = array1d(1..18 ,[17, 7, 8, 1, 6, 18, 9, 4, 5, 2, 12, 13, 14, 15, 16, 3, 10, 11]);
makespan = 1362;
----------
assign = array1d(1..18 ,[7, 8, 7, 7, 8, 8, 8, 7, 8, 8, 1, 2, 3, 4, 5, 6, 7, 8]);
next = array1d(1..18 ,[17, 7, 8, 1, 6, 18, 9, 4, 5, 2, 12, 13, 14, 15, 16, 3, 10, 11]);
makespan = 1361;
----------
assign = array1d(1..18 ,[7, 8, 7, 7, 8, 8, 8, 7, 8, 8, 1, 2, 3, 4, 5, 6, 7, 8]);
next = array1d(1..18 ,[17, 7, 8, 1, 6, 18, 9, 4, 5, 2, 12, 13, 14, 15, 16, 3, 10, 11]);
makespan = 1359;
----------
assign = array1d(1..18 ,[7, 8, 7, 7, 8, 8, 8, 7, 8, 8, 1, 2, 3, 4, 5, 6, 7, 8]);
next = array1d(1..18 ,[17, 7, 8, 1, 6, 18, 9, 4, 5, 2, 12, 13, 14, 15, 16, 3, 10, 11]);
makespan = 1357;
----------
assign = array1d(1..18 ,[7, 8, 7, 7, 8, 8, 8, 7, 8, 8, 1, 2, 3, 4, 5, 6, 7, 8]);
next = array1d(1..18 ,[17, 7, 8, 1, 6, 18, 9, 4, 5, 2, 12, 13, 14, 15, 16, 3, 10, 11]);
makespan = 1356;
----------
assign = array1d(1..18 ,[7, 8, 7, 7, 8, 8, 8, 7, 8, 8, 1, 2, 3, 4, 5, 6, 7, 8]);
next = array1d(1..18 ,[17, 7, 8, 1, 6, 18, 9, 4, 5, 2, 12, 13, 14, 15, 16, 3, 10, 11]);
makespan = 1354;
----------
assign = array1d(1..18 ,[7, 8, 7, 7, 8, 8, 8, 7, 8, 8, 1, 2, 3, 4, 5, 6, 7, 8]);
next = array1d(1..18 ,[17, 7, 8, 1, 6, 18, 9, 4, 5, 2, 12, 13, 14, 15, 16, 3, 10, 11]);
makespan = 1351;
----------
assign = array1d(1..18 ,[7, 8, 7, 7, 8, 8, 8, 7, 8, 8, 1, 2, 3, 4, 5, 6, 7, 8]);
next = array1d(1..18 ,[17, 7, 8, 1, 6, 18, 9, 4, 5, 2, 12, 13, 14, 15, 16, 3, 10, 11]);
makespan = 1350;
----------
assign = array1d(1..18 ,[7, 8, 7, 7, 8, 8, 8, 7, 8, 8, 1, 2, 3, 4, 5, 6, 7, 8]);
next = array1d(1..18 ,[17, 7, 8, 1, 6, 18, 9, 4, 5, 2, 12, 13, 14, 15, 16, 3, 10, 11]);
makespan = 1349;
----------
assign = array1d(1..18 ,[7, 8, 7, 7, 8, 8, 8, 7, 8, 8, 1, 2, 3, 4, 5, 6, 7, 8]);
next = array1d(1..18 ,[17, 7, 8, 1, 6, 18, 9, 4, 5, 2, 12, 13, 14, 15, 16, 3, 10, 11]);
makespan = 1344;
----------
assign = array1d(1..18 ,[7, 8, 7, 7, 8, 8, 8, 7, 8, 8, 1, 2, 3, 4, 5, 6, 7, 8]);
next = array1d(1..18 ,[17, 7, 8, 1, 6, 18, 9, 4, 5, 2, 12, 13, 14, 15, 16, 3, 10, 11]);
makespan = 1343;
----------
assign = array1d(1..18 ,[7, 8, 7, 7, 8, 8, 8, 7, 8, 8, 1, 2, 3, 4, 5, 6, 7, 8]);
next = array1d(1..18 ,[17, 7, 8, 1, 6, 18, 9, 4, 5, 2, 12, 13, 14, 15, 16, 3, 10, 11]);
makespan = 1320;
----------
assign = array1d(1..18 ,[7, 8, 7, 7, 8, 8, 8, 7, 8, 8, 1, 2, 3, 4, 5, 6, 7, 8]);
next = array1d(1..18 ,[17, 7, 8, 1, 6, 18, 9, 4, 5, 2, 12, 13, 14, 15, 16, 3, 10, 11]);
makespan = 1312;
----------
assign = array1d(1..18 ,[7, 8, 7, 7, 8, 8, 8, 7, 8, 8, 1, 2, 3, 4, 5, 6, 7, 8]);
next = array1d(1..18 ,[17, 7, 8, 1, 6, 18, 9, 4, 5, 2, 12, 13, 14, 15, 16, 3, 10, 11]);
makespan = 1298;
----------
assign = array1d(1..18 ,[7, 8, 7, 7, 8, 8, 8, 7, 8, 8, 1, 2, 3, 4, 5, 6, 7, 8]);
next = array1d(1..18 ,[17, 7, 8, 1, 6, 18, 9, 4, 5, 2, 12, 13, 14, 15, 16, 3, 10, 11]);
makespan = 1291;
----------
assign = array1d(1..18 ,[7, 8, 7, 7, 8, 8, 8, 7, 8, 8, 1, 2, 3, 4, 5, 6, 7, 8]);
next = array1d(1..18 ,[17, 7, 8, 1, 6, 18, 9, 4, 5, 2, 12, 13, 14, 15, 16, 3, 10, 11]);
makespan = 1289;
----------
assign = array1d(1..18 ,[1, 8, 1, 1, 8, 1, 8, 1, 8, 8, 1, 2, 3, 4, 5, 6, 7, 8]);
next = array1d(1..18 ,[6, 7, 8, 11, 18, 3, 9, 4, 5, 2, 12, 13, 14, 15, 16, 17, 10, 1]);
makespan = 1251;
----------
assign = array1d(1..18 ,[1, 8, 1, 1, 8, 1, 8, 1, 8, 8, 1, 2, 3, 4, 5, 6, 7, 8]);
next = array1d(1..18 ,[6, 7, 8, 11, 18, 3, 9, 4, 5, 2, 12, 13, 14, 15, 16, 17, 10, 1]);
makespan = 1250;
----------
assign = array1d(1..18 ,[1, 8, 1, 1, 8, 1, 8, 1, 8, 8, 1, 2, 3, 4, 5, 6, 7, 8]);
next = array1d(1..18 ,[6, 7, 8, 11, 18, 3, 9, 4, 5, 2, 12, 13, 14, 15, 16, 17, 10, 1]);
makespan = 1249;
----------
assign = array1d(1..18 ,[1, 8, 1, 1, 8, 1, 8, 1, 8, 8, 1, 2, 3, 4, 5, 6, 7, 8]);
next = array1d(1..18 ,[6, 7, 8, 11, 18, 3, 9, 4, 5, 2, 12, 13, 14, 15, 16, 17, 10, 1]);
makespan = 1247;
----------
assign = array1d(1..18 ,[1, 8, 1, 1, 8, 1, 8, 1, 8, 8, 1, 2, 3, 4, 5, 6, 7, 8]);
next = array1d(1..18 ,[6, 7, 8, 11, 18, 3, 9, 4, 5, 2, 12, 13, 14, 15, 16, 17, 10, 1]);
makespan = 1238;
----------
assign = array1d(1..18 ,[1, 8, 1, 1, 8, 1, 8, 1, 8, 8, 1, 2, 3, 4, 5, 6, 7, 8]);
next = array1d(1..18 ,[6, 7, 8, 11, 18, 3, 9, 4, 5, 2, 12, 13, 14, 15, 16, 17, 10, 1]);
makespan = 1237;
----------
assign = array1d(1..18 ,[1, 8, 1, 1, 8, 1, 8, 1, 8, 8, 1, 2, 3, 4, 5, 6, 7, 8]);
next = array1d(1..18 ,[6, 7, 8, 11, 18, 3, 9, 4, 5, 2, 12, 13, 14, 15, 16, 17, 10, 1]);
makespan = 1236;
----------
assign = array1d(1..18 ,[1, 8, 1, 1, 8, 1, 8, 1, 8, 8, 1, 2, 3, 4, 5, 6, 7, 8]);
next = array1d(1..18 ,[6, 7, 8, 11, 18, 3, 9, 4, 5, 2, 12, 13, 14, 15, 16, 17, 10, 1]);
makespan = 1234;
----------
assign = array1d(1..18 ,[1, 8, 1, 1, 8, 1, 8, 1, 8, 8, 1, 2, 3, 4, 5, 6, 7, 8]);
next = array1d(1..18 ,[6, 7, 8, 11, 18, 3, 9, 4, 5, 2, 12, 13, 14, 15, 16, 17, 10, 1]);
makespan = 1230;
----------
assign = array1d(1..18 ,[1, 8, 1, 1, 8, 1, 8, 1, 8, 8, 1, 2, 3, 4, 5, 6, 7, 8]);
next = array1d(1..18 ,[6, 7, 8, 11, 18, 3, 9, 4, 5, 2, 12, 13, 14, 15, 16, 17, 10, 1]);
makespan = 1229;
----------
assign = array1d(1..18 ,[1, 8, 1, 1, 8, 1, 8, 1, 8, 8, 1, 2, 3, 4, 5, 6, 7, 8]);
next = array1d(1..18 ,[6, 7, 8, 11, 18, 3, 9, 4, 5, 2, 12, 13, 14, 15, 16, 17, 10, 1]);
makespan = 1226;
----------
assign = array1d(1..18 ,[1, 8, 1, 1, 8, 1, 8, 1, 8, 8, 1, 2, 3, 4, 5, 6, 7, 8]);
next = array1d(1..18 ,[6, 7, 8, 11, 18, 3, 9, 4, 5, 2, 12, 13, 14, 15, 16, 17, 10, 1]);
makespan = 1224;
----------
assign = array1d(1..18 ,[1, 8, 1, 1, 8, 1, 8, 1, 8, 8, 1, 2, 3, 4, 5, 6, 7, 8]);
next = array1d(1..18 ,[6, 7, 8, 11, 18, 3, 9, 4, 5, 2, 12, 13, 14, 15, 16, 17, 10, 1]);
makespan = 1222;
----------
assign = array1d(1..18 ,[1, 8, 1, 1, 8, 1, 8, 1, 8, 8, 1, 2, 3, 4, 5, 6, 7, 8]);
next = array1d(1..18 ,[6, 7, 8, 11, 18, 3, 9, 4, 5, 2, 12, 13, 14, 15, 16, 17, 10, 1]);
makespan = 1220;
----------
assign = array1d(1..18 ,[1, 8, 1, 1, 8, 1, 8, 1, 8, 8, 1, 2, 3, 4, 5, 6, 7, 8]);
next = array1d(1..18 ,[6, 7, 8, 11, 18, 3, 9, 4, 5, 2, 12, 13, 14, 15, 16, 17, 10, 1]);
makespan = 1219;
----------
assign = array1d(1..18 ,[1, 8, 1, 1, 8, 1, 8, 1, 8, 8, 1, 2, 3, 4, 5, 6, 7, 8]);
next = array1d(1..18 ,[6, 7, 8, 11, 18, 3, 9, 4, 5, 2, 12, 13, 14, 15, 16, 17, 10, 1]);
makespan = 1218;
----------
assign = array1d(1..18 ,[1, 8, 1, 1, 8, 1, 8, 1, 8, 8, 1, 2, 3, 4, 5, 6, 7, 8]);
next = array1d(1..18 ,[6, 7, 8, 11, 18, 3, 9, 4, 5, 2, 12, 13, 14, 15, 16, 17, 10, 1]);
makespan = 1217;
----------
assign = array1d(1..18 ,[1, 8, 1, 1, 8, 1, 8, 1, 8, 8, 1, 2, 3, 4, 5, 6, 7, 8]);
next = array1d(1..18 ,[6, 7, 8, 11, 18, 3, 9, 4, 5, 2, 12, 13, 14, 15, 16, 17, 10, 1]);
makespan = 1209;
----------
assign = array1d(1..18 ,[1, 8, 1, 1, 8, 1, 8, 1, 8, 8, 1, 2, 3, 4, 5, 6, 7, 8]);
next = array1d(1..18 ,[6, 7, 8, 11, 18, 3, 9, 4, 5, 2, 12, 13, 14, 15, 16, 17, 10, 1]);
makespan = 1205;
----------
assign = array1d(1..18 ,[1, 8, 1, 1, 8, 1, 8, 1, 8, 8, 1, 2, 3, 4, 5, 6, 7, 8]);
next = array1d(1..18 ,[6, 7, 8, 11, 18, 3, 9, 4, 5, 2, 12, 13, 14, 15, 16, 17, 10, 1]);
makespan = 1201;
----------
assign = array1d(1..18 ,[1, 8, 1, 1, 8, 1, 8, 1, 8, 8, 1, 2, 3, 4, 5, 6, 7, 8]);
next = array1d(1..18 ,[6, 7, 8, 11, 18, 3, 9, 4, 5, 2, 12, 13, 14, 15, 16, 17, 10, 1]);
makespan = 1200;
----------
assign = array1d(1..18 ,[1, 8, 1, 1, 8, 1, 8, 1, 8, 8, 1, 2, 3, 4, 5, 6, 7, 8]);
next = array1d(1..18 ,[6, 7, 8, 11, 18, 3, 9, 4, 5, 2, 12, 13, 14, 15, 16, 17, 10, 1]);
makespan = 1196;
----------
assign = array1d(1..18 ,[1, 8, 1, 1, 8, 1, 8, 1, 8, 8, 1, 2, 3, 4, 5, 6, 7, 8]);
next = array1d(1..18 ,[6, 7, 8, 11, 18, 3, 9, 4, 5, 2, 12, 13, 14, 15, 16, 17, 10, 1]);
makespan = 1191;
----------
assign = array1d(1..18 ,[1, 8, 1, 1, 8, 1, 8, 1, 8, 8, 1, 2, 3, 4, 5, 6, 7, 8]);
next = array1d(1..18 ,[6, 7, 8, 11, 18, 3, 9, 4, 5, 2, 12, 13, 14, 15, 16, 17, 10, 1]);
makespan = 1190;
----------
assign = array1d(1..18 ,[1, 8, 1, 1, 8, 1, 8, 1, 8, 8, 1, 2, 3, 4, 5, 6, 7, 8]);
next = array1d(1..18 ,[6, 7, 8, 11, 18, 3, 9, 4, 5, 2, 12, 13, 14, 15, 16, 17, 10, 1]);
makespan = 1176;
----------
assign = array1d(1..18 ,[1, 8, 1, 1, 8, 1, 8, 1, 8, 8, 1, 2, 3, 4, 5, 6, 7, 8]);
next = array1d(1..18 ,[6, 7, 8, 11, 18, 3, 9, 4, 5, 2, 12, 13, 14, 15, 16, 17, 10, 1]);
makespan = 1165;
----------
assign = array1d(1..18 ,[1, 8, 1, 1, 8, 1, 8, 1, 8, 8, 1, 2, 3, 4, 5, 6, 7, 8]);
next = array1d(1..18 ,[6, 7, 8, 11, 18, 3, 9, 4, 5, 2, 12, 13, 14, 15, 16, 17, 10, 1]);
makespan = 1134;
----------
assign = array1d(1..18 ,[1, 8, 1, 1, 8, 1, 8, 1, 8, 8, 1, 2, 3, 4, 5, 6, 7, 8]);
next = array1d(1..18 ,[6, 7, 8, 11, 18, 3, 9, 4, 5, 2, 12, 13, 14, 15, 16, 17, 10, 1]);
makespan = 1127;
----------
assign = array1d(1..18 ,[1, 8, 1, 1, 8, 1, 8, 1, 8, 8, 1, 2, 3, 4, 5, 6, 7, 8]);
next = array1d(1..18 ,[6, 7, 8, 11, 18, 3, 9, 4, 5, 2, 12, 13, 14, 15, 16, 17, 10, 1]);
makespan = 1120;
----------
assign = array1d(1..18 ,[1, 8, 1, 1, 8, 1, 8, 1, 8, 8, 1, 2, 3, 4, 5, 6, 7, 8]);
next = array1d(1..18 ,[6, 7, 8, 11, 18, 3, 9, 4, 5, 2, 12, 13, 14, 15, 16, 17, 10, 1]);
makespan = 1084;
----------
assign = array1d(1..18 ,[1, 8, 1, 1, 8, 1, 8, 1, 8, 8, 1, 2, 3, 4, 5, 6, 7, 8]);
next = array1d(1..18 ,[6, 7, 8, 11, 18, 3, 9, 4, 5, 2, 12, 13, 14, 15, 16, 17, 10, 1]);
makespan = 1083;
----------
assign = array1d(1..18 ,[2, 8, 1, 8, 1, 1, 8, 1, 8, 8, 1, 2, 3, 4, 5, 6, 7, 8]);
next = array1d(1..18 ,[12, 7, 8, 10, 6, 3, 9, 11, 18, 2, 1, 13, 14, 15, 16, 17, 4, 5]);
makespan = 1082;
----------
assign = array1d(1..18 ,[7, 8, 6, 8, 6, 6, 8, 6, 8, 8, 1, 2, 3, 4, 5, 6, 7, 8]);
next = array1d(1..18 ,[17, 7, 8, 10, 6, 3, 9, 16, 18, 2, 12, 13, 14, 15, 5, 1, 4, 11]);
makespan = 1077;
----------
assign = array1d(1..18 ,[2, 8, 1, 8, 1, 1, 8, 1, 8, 8, 1, 2, 3, 4, 5, 6, 7, 8]);
next = array1d(1..18 ,[12, 7, 8, 10, 6, 3, 9, 11, 18, 2, 1, 13, 14, 15, 16, 17, 4, 5]);
makespan = 1076;
----------
assign = array1d(1..18 ,[7, 8, 6, 8, 6, 6, 8, 6, 8, 8, 1, 2, 3, 4, 5, 6, 7, 8]);
next = array1d(1..18 ,[17, 7, 8, 18, 6, 3, 9, 16, 4, 2, 12, 13, 14, 15, 5, 1, 10, 11]);
makespan = 1074;
----------
assign = array1d(1..18 ,[2, 8, 1, 8, 1, 1, 8, 1, 8, 8, 1, 2, 3, 4, 5, 6, 7, 8]);
next = array1d(1..18 ,[12, 7, 8, 18, 6, 3, 9, 11, 4, 2, 1, 13, 14, 15, 16, 17, 10, 5]);
makespan = 1073;
----------
assign = array1d(1..18 ,[7, 8, 6, 8, 6, 6, 8, 6, 8, 8, 1, 2, 3, 4, 5, 6, 7, 8]);
next = array1d(1..18 ,[17, 7, 8, 18, 6, 3, 9, 16, 4, 2, 12, 13, 14, 15, 5, 1, 10, 11]);
makespan = 1072;
----------
assign = array1d(1..18 ,[2, 8, 1, 8, 1, 1, 8, 1, 8, 8, 1, 2, 3, 4, 5, 6, 7, 8]);
next = array1d(1..18 ,[12, 7, 8, 18, 6, 3, 9, 11, 4, 2, 1, 13, 14, 15, 16, 17, 10, 5]);
makespan = 1071;
----------
assign = array1d(1..18 ,[7, 8, 6, 8, 6, 6, 8, 6, 8, 8, 1, 2, 3, 4, 5, 6, 7, 8]);
next = array1d(1..18 ,[17, 7, 8, 18, 6, 3, 9, 16, 4, 2, 12, 13, 14, 15, 5, 1, 10, 11]);
makespan = 1067;
----------
assign = array1d(1..18 ,[2, 8, 1, 8, 1, 1, 8, 1, 8, 8, 1, 2, 3, 4, 5, 6, 7, 8]);
next = array1d(1..18 ,[12, 7, 8, 18, 6, 3, 9, 11, 4, 2, 1, 13, 14, 15, 16, 17, 10, 5]);
makespan = 1066;
----------
assign = array1d(1..18 ,[7, 8, 6, 8, 6, 6, 8, 6, 8, 8, 1, 2, 3, 4, 5, 6, 7, 8]);
next = array1d(1..18 ,[17, 7, 8, 18, 6, 3, 9, 16, 4, 2, 12, 13, 14, 15, 5, 1, 10, 11]);
makespan = 1065;
----------
assign = array1d(1..18 ,[2, 8, 1, 8, 1, 1, 8, 1, 8, 8, 1, 2, 3, 4, 5, 6, 7, 8]);
next = array1d(1..18 ,[12, 7, 8, 18, 6, 3, 9, 11, 4, 2, 1, 13, 14, 15, 16, 17, 10, 5]);
makespan = 1064;
----------
assign = array1d(1..18 ,[7, 8, 6, 8, 6, 6, 8, 6, 8, 8, 1, 2, 3, 4, 5, 6, 7, 8]);
next = array1d(1..18 ,[17, 7, 8, 18, 6, 3, 9, 16, 4, 2, 12, 13, 14, 15, 5, 1, 10, 11]);
makespan = 1063;
----------
assign = array1d(1..18 ,[2, 8, 1, 8, 1, 1, 8, 1, 8, 8, 1, 2, 3, 4, 5, 6, 7, 8]);
next = array1d(1..18 ,[12, 7, 8, 18, 6, 3, 9, 11, 4, 2, 1, 13, 14, 15, 16, 17, 10, 5]);
makespan = 1060;
----------
assign = array1d(1..18 ,[7, 8, 6, 8, 6, 6, 8, 6, 8, 8, 1, 2, 3, 4, 5, 6, 7, 8]);
next = array1d(1..18 ,[17, 7, 8, 18, 6, 3, 9, 16, 4, 2, 12, 13, 14, 15, 5, 1, 10, 11]);
makespan = 1056;
----------
assign = array1d(1..18 ,[2, 8, 1, 8, 1, 1, 8, 1, 8, 8, 1, 2, 3, 4, 5, 6, 7, 8]);
next = array1d(1..18 ,[12, 7, 8, 18, 6, 3, 9, 11, 4, 2, 1, 13, 14, 15, 16, 17, 10, 5]);
makespan = 1055;
----------
assign = array1d(1..18 ,[7, 8, 6, 8, 6, 6, 8, 6, 8, 8, 1, 2, 3, 4, 5, 6, 7, 8]);
next = array1d(1..18 ,[17, 7, 8, 18, 6, 3, 9, 16, 4, 2, 12, 13, 14, 15, 5, 1, 10, 11]);
makespan = 1048;
----------
assign = array1d(1..18 ,[2, 8, 1, 8, 1, 1, 8, 1, 8, 8, 1, 2, 3, 4, 5, 6, 7, 8]);
next = array1d(1..18 ,[12, 7, 8, 18, 6, 3, 9, 11, 4, 2, 1, 13, 14, 15, 16, 17, 10, 5]);
makespan = 1045;
----------
assign = array1d(1..18 ,[1, 8, 6, 6, 6, 6, 8, 6, 8, 8, 1, 2, 3, 4, 5, 6, 7, 8]);
next = array1d(1..18 ,[11, 7, 8, 16, 6, 3, 9, 4, 18, 2, 12, 13, 14, 15, 5, 17, 10, 1]);
makespan = 1044;
----------
assign = array1d(1..18 ,[1, 8, 7, 7, 7, 8, 8, 7, 8, 8, 1, 2, 3, 4, 5, 6, 7, 8]);
next = array1d(1..18 ,[11, 7, 8, 17, 4, 18, 9, 5, 6, 2, 12, 13, 14, 15, 16, 3, 10, 1]);
makespan = 1042;
----------
assign = array1d(1..18 ,[1, 8, 7, 7, 7, 8, 8, 7, 8, 8, 1, 2, 3, 4, 5, 6, 7, 8]);
next = array1d(1..18 ,[11, 7, 8, 17, 4, 18, 9, 5, 6, 2, 12, 13, 14, 15, 16, 3, 10, 1]);
makespan = 1040;
----------
assign = array1d(1..18 ,[1, 8, 7, 7, 7, 8, 8, 7, 8, 8, 1, 2, 3, 4, 5, 6, 7, 8]);
next = array1d(1..18 ,[11, 7, 8, 17, 4, 18, 9, 5, 6, 2, 12, 13, 14, 15, 16, 3, 10, 1]);
makespan = 1030;
----------
assign = array1d(1..18 ,[7, 8, 6, 6, 6, 6, 8, 6, 8, 8, 1, 2, 3, 4, 5, 6, 7, 8]);
next = array1d(1..18 ,[17, 7, 8, 3, 6, 16, 9, 5, 18, 2, 12, 13, 14, 15, 4, 1, 10, 11]);
makespan = 1026;
----------
assign = array1d(1..18 ,[6, 7, 8, 8, 8, 8, 7, 8, 7, 6, 1, 2, 3, 4, 5, 6, 7, 8]);
next = array1d(1..18 ,[16, 7, 8, 3, 6, 18, 9, 5, 17, 1, 12, 13, 14, 15, 10, 2, 4, 11]);
makespan = 1018;
----------
assign = array1d(1..18 ,[6, 8, 6, 8, 6, 6, 8, 6, 8, 8, 1, 2, 3, 4, 5, 6, 7, 8]);
next = array1d(1..18 ,[16, 7, 8, 9, 6, 1, 4, 5, 18, 2, 12, 13, 14, 15, 3, 17, 10, 11]);
makespan = 1015;
----------
assign = array1d(1..18 ,[6, 8, 8, 7, 8, 8, 6, 8, 7, 6, 1, 2, 3, 4, 5, 6, 7, 8]);
next = array1d(1..18 ,[16, 18, 8, 17, 6, 2, 10, 5, 4, 1, 12, 13, 14, 15, 7, 9, 3, 11]);
makespan = 1009;
----------
assign = array1d(1..18 ,[7, 7, 8, 6, 8, 8, 7, 8, 6, 7, 1, 2, 3, 4, 5, 6, 7, 8]);
next = array1d(1..18 ,[17, 1, 8, 16, 6, 18, 10, 5, 4, 2, 12, 13, 14, 15, 9, 7, 3, 11]);
makespan = 1007;
----------
assign = array1d(1..18 ,[8, 7, 8, 8, 1, 1, 7, 8, 8, 7, 1, 2, 3, 4, 5, 6, 7, 8]);
next = array1d(1..18 ,[9, 17, 8, 3, 6, 11, 10, 18, 4, 2, 12, 13, 14, 15, 16, 7, 1, 5]);
makespan = 1004;
----------
assign = array1d(1..18 ,[2, 8, 8, 8, 2, 2, 8, 2, 2, 8, 1, 2, 3, 4, 5, 6, 7, 8]);
next = array1d(1..18 ,[9, 18, 7, 3, 6, 1, 10, 5, 12, 2, 8, 13, 14, 15, 16, 17, 4, 11]);
makespan = 1002;
----------
assign = array1d(1..18 ,[6, 8, 8, 8, 6, 6, 8, 6, 6, 8, 1, 2, 3, 4, 5, 6, 7, 8]);
next = array1d(1..18 ,[9, 18, 7, 3, 6, 1, 10, 5, 16, 2, 12, 13, 14, 15, 8, 17, 4, 11]);
makespan = 998;
----------
assign = array1d(1..18 ,[6, 8, 8, 8, 6, 6, 8, 6, 6, 8, 1, 2, 3, 4, 5, 6, 7, 8]);
next = array1d(1..18 ,[9, 18, 7, 3, 6, 1, 10, 5, 16, 2, 12, 13, 14, 15, 8, 17, 4, 11]);
makespan = 997;
----------
assign = array1d(1..18 ,[6, 8, 8, 8, 6, 6, 8, 6, 6, 8, 1, 2, 3, 4, 5, 6, 7, 8]);
next = array1d(1..18 ,[9, 4, 18, 3, 6, 1, 10, 5, 16, 2, 12, 13, 14, 15, 8, 17, 7, 11]);
makespan = 995;
----------
assign = array1d(1..18 ,[6, 8, 8, 8, 6, 6, 8, 6, 6, 8, 1, 2, 3, 4, 5, 6, 7, 8]);
next = array1d(1..18 ,[9, 4, 18, 3, 6, 1, 10, 5, 16, 2, 12, 13, 14, 15, 8, 17, 7, 11]);
makespan = 993;
----------
assign = array1d(1..18 ,[8, 1, 7, 7, 8, 8, 1, 7, 8, 1, 1, 2, 3, 4, 5, 6, 7, 8]);
next = array1d(1..18 ,[9, 11, 8, 3, 6, 1, 10, 17, 18, 2, 12, 13, 14, 15, 16, 4, 5, 7]);
makespan = 987;
----------
assign = array1d(1..18 ,[7, 1, 1, 8, 8, 8, 1, 8, 7, 1, 1, 2, 3, 4, 5, 6, 7, 8]);
next = array1d(1..18 ,[9, 11, 7, 8, 6, 18, 10, 5, 17, 2, 12, 13, 14, 15, 16, 1, 4, 3]);
makespan = 983;
----------
assign = array1d(1..18 ,[7, 1, 8, 7, 8, 8, 1, 8, 7, 1, 1, 2, 3, 4, 5, 6, 7, 8]);
next = array1d(1..18 ,[9, 11, 18, 17, 6, 3, 10, 5, 4, 2, 12, 13, 14, 15, 16, 1, 8, 7]);
makespan = 981;
----------
assign = array1d(1..18 ,[7, 1, 8, 7, 8, 8, 1, 8, 7, 1, 1, 2, 3, 4, 5, 6, 7, 8]);
next = array1d(1..18 ,[9, 11, 18, 17, 6, 3, 10, 5, 4, 2, 12, 13, 14, 15, 16, 1, 8, 7]);
makespan = 979;
----------
assign = array1d(1..18 ,[7, 1, 8, 7, 8, 8, 1, 8, 7, 1, 1, 2, 3, 4, 5, 6, 7, 8]);
next = array1d(1..18 ,[9, 11, 18, 17, 6, 3, 10, 5, 4, 2, 12, 13, 14, 15, 16, 1, 8, 7]);
makespan = 978;
----------
assign = array1d(1..18 ,[7, 1, 8, 7, 8, 8, 1, 8, 7, 1, 1, 2, 3, 4, 5, 6, 7, 8]);
next = array1d(1..18 ,[9, 11, 18, 17, 6, 3, 10, 5, 4, 2, 12, 13, 14, 15, 16, 1, 8, 7]);
makespan = 974;
----------
assign = array1d(1..18 ,[7, 1, 8, 7, 8, 8, 1, 8, 7, 1, 1, 2, 3, 4, 5, 6, 7, 8]);
next = array1d(1..18 ,[9, 11, 18, 17, 6, 3, 10, 5, 4, 2, 12, 13, 14, 15, 16, 1, 8, 7]);
makespan = 967;
----------
assign = array1d(1..18 ,[7, 1, 8, 7, 8, 8, 1, 8, 7, 1, 1, 2, 3, 4, 5, 6, 7, 8]);
next = array1d(1..18 ,[9, 11, 18, 17, 6, 3, 10, 5, 4, 2, 12, 13, 14, 15, 16, 1, 8, 7]);
makespan = 965;
----------
assign = array1d(1..18 ,[7, 1, 8, 7, 8, 8, 1, 8, 7, 1, 1, 2, 3, 4, 5, 6, 7, 8]);
next = array1d(1..18 ,[9, 11, 18, 17, 6, 3, 10, 5, 4, 2, 12, 13, 14, 15, 16, 1, 8, 7]);
makespan = 957;
----------
assign = array1d(1..18 ,[7, 1, 8, 7, 8, 8, 1, 8, 7, 1, 1, 2, 3, 4, 5, 6, 7, 8]);
next = array1d(1..18 ,[9, 11, 18, 17, 6, 3, 10, 5, 4, 2, 12, 13, 14, 15, 16, 1, 8, 7]);
makespan = 954;
----------
assign = array1d(1..18 ,[7, 1, 8, 7, 8, 8, 1, 8, 7, 1, 1, 2, 3, 4, 5, 6, 7, 8]);
next = array1d(1..18 ,[9, 11, 18, 17, 6, 3, 10, 5, 4, 2, 12, 13, 14, 15, 16, 1, 8, 7]);
makespan = 946;
----------
assign = array1d(1..18 ,[7, 1, 8, 7, 8, 8, 1, 8, 7, 1, 1, 2, 3, 4, 5, 6, 7, 8]);
next = array1d(1..18 ,[9, 11, 18, 17, 6, 3, 10, 5, 4, 2, 12, 13, 14, 15, 16, 1, 8, 7]);
makespan = 943;
----------
assign = array1d(1..18 ,[7, 1, 8, 7, 8, 8, 1, 8, 7, 1, 1, 2, 3, 4, 5, 6, 7, 8]);
next = array1d(1..18 ,[9, 11, 18, 17, 6, 3, 10, 5, 4, 2, 12, 13, 14, 15, 16, 1, 8, 7]);
makespan = 940;
----------
assign = array1d(1..18 ,[7, 1, 8, 7, 8, 8, 1, 8, 7, 1, 1, 2, 3, 4, 5, 6, 7, 8]);
next = array1d(1..18 ,[9, 11, 18, 17, 6, 3, 10, 5, 4, 2, 12, 13, 14, 15, 16, 1, 8, 7]);
makespan = 927;
----------
assign = array1d(1..18 ,[7, 1, 8, 7, 8, 8, 1, 8, 7, 1, 1, 2, 3, 4, 5, 6, 7, 8]);
next = array1d(1..18 ,[9, 11, 18, 17, 6, 3, 10, 5, 4, 2, 12, 13, 14, 15, 16, 1, 8, 7]);
makespan = 924;
----------
assign = array1d(1..18 ,[7, 1, 8, 7, 8, 8, 1, 8, 7, 1, 1, 2, 3, 4, 5, 6, 7, 8]);
next = array1d(1..18 ,[9, 11, 18, 17, 6, 3, 10, 5, 4, 2, 12, 13, 14, 15, 16, 1, 8, 7]);
makespan = 923;
----------
assign = array1d(1..18 ,[7, 1, 8, 7, 8, 8, 1, 8, 7, 1, 1, 2, 3, 4, 5, 6, 7, 8]);
next = array1d(1..18 ,[9, 11, 18, 17, 6, 3, 10, 5, 4, 2, 12, 13, 14, 15, 16, 1, 8, 7]);
makespan = 918;
----------
assign = array1d(1..18 ,[7, 1, 8, 7, 8, 8, 1, 8, 7, 1, 1, 2, 3, 4, 5, 6, 7, 8]);
next = array1d(1..18 ,[9, 11, 18, 17, 6, 3, 10, 5, 4, 2, 12, 13, 14, 15, 16, 1, 8, 7]);
makespan = 915;
----------
assign = array1d(1..18 ,[7, 1, 8, 7, 8, 8, 1, 8, 7, 1, 1, 2, 3, 4, 5, 6, 7, 8]);
next = array1d(1..18 ,[9, 11, 18, 17, 6, 3, 10, 5, 4, 2, 12, 13, 14, 15, 16, 1, 8, 7]);
makespan = 908;
----------
assign = array1d(1..18 ,[7, 1, 8, 7, 8, 8, 1, 8, 7, 1, 1, 2, 3, 4, 5, 6, 7, 8]);
next = array1d(1..18 ,[9, 11, 18, 17, 6, 3, 10, 5, 4, 2, 12, 13, 14, 15, 16, 1, 8, 7]);
makespan = 904;
----------
assign = array1d(1..18 ,[7, 1, 8, 7, 8, 8, 1, 8, 7, 1, 1, 2, 3, 4, 5, 6, 7, 8]);
next = array1d(1..18 ,[9, 11, 18, 17, 6, 3, 10, 5, 4, 2, 12, 13, 14, 15, 16, 1, 8, 7]);
makespan = 899;
----------
assign = array1d(1..18 ,[7, 1, 8, 7, 8, 8, 1, 8, 7, 1, 1, 2, 3, 4, 5, 6, 7, 8]);
next = array1d(1..18 ,[9, 11, 18, 17, 6, 3, 10, 5, 4, 2, 12, 13, 14, 15, 16, 1, 8, 7]);
makespan = 893;
----------
assign = array1d(1..18 ,[7, 1, 8, 7, 8, 8, 1, 8, 7, 1, 1, 2, 3, 4, 5, 6, 7, 8]);
next = array1d(1..18 ,[9, 11, 18, 17, 6, 3, 10, 5, 4, 2, 12, 13, 14, 15, 16, 1, 8, 7]);
makespan = 891;
----------
assign = array1d(1..18 ,[7, 1, 8, 7, 8, 8, 1, 8, 7, 1, 1, 2, 3, 4, 5, 6, 7, 8]);
next = array1d(1..18 ,[9, 11, 18, 17, 6, 3, 10, 5, 4, 2, 12, 13, 14, 15, 16, 1, 8, 7]);
makespan = 889;
----------
assign = array1d(1..18 ,[7, 1, 8, 7, 8, 8, 1, 8, 7, 1, 1, 2, 3, 4, 5, 6, 7, 8]);
next = array1d(1..18 ,[9, 11, 18, 17, 6, 3, 10, 5, 4, 2, 12, 13, 14, 15, 16, 1, 8, 7]);
makespan = 882;
----------
assign = array1d(1..18 ,[7, 1, 8, 7, 8, 8, 1, 8, 7, 1, 1, 2, 3, 4, 5, 6, 7, 8]);
next = array1d(1..18 ,[9, 11, 18, 17, 6, 3, 10, 5, 4, 2, 12, 13, 14, 15, 16, 1, 8, 7]);
makespan = 874;
----------
assign = array1d(1..18 ,[7, 1, 8, 7, 8, 8, 1, 8, 7, 1, 1, 2, 3, 4, 5, 6, 7, 8]);
next = array1d(1..18 ,[9, 11, 18, 17, 6, 3, 10, 5, 4, 2, 12, 13, 14, 15, 16, 1, 8, 7]);
makespan = 864;
----------
assign = array1d(1..18 ,[7, 1, 8, 7, 8, 8, 1, 8, 7, 1, 1, 2, 3, 4, 5, 6, 7, 8]);
next = array1d(1..18 ,[9, 11, 18, 17, 6, 3, 10, 5, 4, 2, 12, 13, 14, 15, 16, 1, 8, 7]);
makespan = 858;
----------
assign = array1d(1..18 ,[7, 1, 8, 7, 8, 8, 1, 8, 7, 1, 1, 2, 3, 4, 5, 6, 7, 8]);
next = array1d(1..18 ,[9, 11, 18, 17, 6, 3, 10, 5, 4, 2, 12, 13, 14, 15, 16, 1, 8, 7]);
makespan = 851;
----------
assign = array1d(1..18 ,[7, 1, 7, 7, 8, 8, 8, 8, 7, 1, 1, 2, 3, 4, 5, 6, 7, 8]);
next = array1d(1..18 ,[9, 11, 17, 3, 6, 7, 18, 5, 4, 2, 12, 13, 14, 15, 16, 1, 8, 10]);
makespan = 830;
----------
assign = array1d(1..18 ,[7, 1, 7, 7, 8, 8, 8, 8, 7, 1, 1, 2, 3, 4, 5, 6, 7, 8]);
next = array1d(1..18 ,[9, 11, 17, 3, 6, 7, 18, 5, 4, 2, 12, 13, 14, 15, 16, 1, 8, 10]);
makespan = 828;
----------
assign = array1d(1..18 ,[7, 1, 7, 7, 8, 8, 8, 8, 7, 1, 1, 2, 3, 4, 5, 6, 7, 8]);
next = array1d(1..18 ,[9, 11, 17, 3, 6, 7, 18, 5, 4, 2, 12, 13, 14, 15, 16, 1, 8, 10]);
makespan = 812;
----------
assign = array1d(1..18 ,[7, 1, 7, 7, 8, 8, 8, 8, 7, 1, 1, 2, 3, 4, 5, 6, 7, 8]);
next = array1d(1..18 ,[9, 11, 17, 3, 6, 7, 18, 5, 4, 2, 12, 13, 14, 15, 16, 1, 8, 10]);
makespan = 811;
----------
assign = array1d(1..18 ,[7, 1, 7, 7, 8, 8, 8, 8, 7, 1, 1, 2, 3, 4, 5, 6, 7, 8]);
next = array1d(1..18 ,[9, 11, 17, 3, 6, 7, 18, 5, 4, 2, 12, 13, 14, 15, 16, 1, 8, 10]);
makespan = 801;
----------
assign = array1d(1..18 ,[7, 1, 7, 7, 8, 8, 8, 8, 7, 1, 1, 2, 3, 4, 5, 6, 7, 8]);
next = array1d(1..18 ,[9, 11, 17, 3, 6, 7, 18, 5, 4, 2, 12, 13, 14, 15, 16, 1, 8, 10]);
makespan = 799;
----------
assign = array1d(1..18 ,[2, 1, 2, 2, 8, 8, 8, 8, 2, 1, 1, 2, 3, 4, 5, 6, 7, 8]);
next = array1d(1..18 ,[9, 11, 12, 3, 6, 7, 18, 5, 4, 2, 1, 13, 14, 15, 16, 17, 8, 10]);
makespan = 795;
----------
assign = array1d(1..18 ,[1, 5, 1, 1, 8, 8, 8, 8, 1, 5, 1, 2, 3, 4, 5, 6, 7, 8]);
next = array1d(1..18 ,[9, 15, 11, 3, 6, 7, 18, 5, 4, 2, 12, 13, 14, 10, 16, 17, 8, 1]);
makespan = 789;
----------
assign = array1d(1..18 ,[1, 5, 1, 1, 8, 8, 8, 8, 1, 5, 1, 2, 3, 4, 5, 6, 7, 8]);
next = array1d(1..18 ,[9, 15, 11, 3, 6, 7, 18, 5, 4, 2, 12, 13, 14, 10, 16, 17, 8, 1]);
makespan = 788;
----------
assign = array1d(1..18 ,[1, 5, 1, 1, 8, 8, 8, 8, 1, 5, 1, 2, 3, 4, 5, 6, 7, 8]);
next = array1d(1..18 ,[9, 15, 11, 3, 6, 7, 18, 5, 4, 2, 12, 13, 14, 10, 16, 17, 8, 1]);
makespan = 787;
----------
assign = array1d(1..18 ,[8, 5, 7, 8, 7, 7, 5, 8, 8, 5, 1, 2, 3, 4, 5, 6, 7, 8]);
next = array1d(1..18 ,[9, 15, 5, 8, 6, 17, 10, 18, 4, 2, 12, 13, 14, 7, 16, 3, 1, 11]);
makespan = 776;
----------
assign = array1d(1..18 ,[7, 6, 8, 8, 6, 8, 8, 6, 7, 7, 1, 2, 3, 4, 5, 6, 7, 8]);
next = array1d(1..18 ,[9, 16, 6, 3, 2, 18, 4, 5, 17, 1, 12, 13, 14, 15, 8, 10, 7, 11]);
makespan = 774;
----------
assign = array1d(1..18 ,[7, 8, 5, 7, 8, 5, 4, 8, 7, 5, 1, 2, 3, 4, 5, 6, 7, 8]);
next = array1d(1..18 ,[9, 18, 10, 17, 2, 15, 14, 5, 4, 6, 12, 13, 7, 3, 16, 1, 8, 11]);
makespan = 773;
----------
assign = array1d(1..18 ,[7, 6, 7, 8, 6, 8, 8, 6, 6, 7, 1, 2, 3, 4, 5, 6, 7, 8]);
next = array1d(1..18 ,[17, 16, 10, 18, 2, 7, 4, 5, 8, 1, 12, 13, 14, 15, 9, 3, 6, 11]);
makespan = 772;
----------
assign = array1d(1..18 ,[8, 6, 8, 7, 6, 7, 7, 6, 6, 8, 1, 2, 3, 4, 5, 6, 7, 8]);
next = array1d(1..18 ,[3, 16, 10, 17, 2, 7, 4, 5, 8, 18, 12, 13, 14, 15, 9, 6, 1, 11]);
makespan = 769;
----------
assign = array1d(1..18 ,[8, 6, 7, 8, 6, 8, 8, 6, 6, 7, 1, 2, 3, 4, 5, 6, 7, 8]);
next = array1d(1..18 ,[18, 16, 10, 1, 2, 7, 4, 5, 8, 17, 12, 13, 14, 15, 9, 3, 6, 11]);
makespan = 767;
----------
assign = array1d(1..18 ,[7, 7, 5, 6, 8, 6, 6, 8, 8, 5, 1, 2, 3, 4, 5, 6, 7, 8]);
next = array1d(1..18 ,[17, 1, 10, 16, 18, 7, 4, 5, 8, 15, 12, 13, 14, 3, 6, 2, 9, 11]);
makespan = 763;
----------
assign = array1d(1..18 ,[7, 7, 1, 6, 8, 6, 6, 8, 8, 1, 1, 2, 3, 4, 5, 6, 7, 8]);
next = array1d(1..18 ,[17, 1, 10, 16, 18, 7, 4, 5, 8, 11, 12, 13, 14, 15, 6, 2, 9, 3]);
makespan = 762;
----------
assign = array1d(1..18 ,[7, 7, 1, 6, 8, 6, 6, 8, 8, 1, 1, 2, 3, 4, 5, 6, 7, 8]);
next = array1d(1..18 ,[17, 1, 10, 16, 18, 7, 4, 5, 8, 11, 12, 13, 14, 15, 6, 2, 9, 3]);
makespan = 757;
----------
assign = array1d(1..18 ,[7, 7, 1, 6, 8, 6, 6, 8, 8, 1, 1, 2, 3, 4, 5, 6, 7, 8]);
next = array1d(1..18 ,[17, 1, 10, 16, 18, 7, 4, 5, 8, 11, 12, 13, 14, 15, 6, 2, 9, 3]);
makespan = 755;
----------
assign = array1d(1..18 ,[7, 7, 1, 6, 8, 6, 6, 8, 8, 1, 1, 2, 3, 4, 5, 6, 7, 8]);
next = array1d(1..18 ,[17, 1, 10, 16, 18, 7, 4, 5, 8, 11, 12, 13, 14, 15, 6, 2, 9, 3]);
makespan = 753;
----------
assign = array1d(1..18 ,[7, 7, 1, 6, 8, 6, 6, 8, 8, 1, 1, 2, 3, 4, 5, 6, 7, 8]);
next = array1d(1..18 ,[17, 1, 10, 16, 18, 7, 4, 5, 8, 11, 12, 13, 14, 15, 6, 2, 9, 3]);
makespan = 752;
----------
assign = array1d(1..18 ,[7, 7, 1, 6, 8, 6, 6, 8, 8, 1, 1, 2, 3, 4, 5, 6, 7, 8]);
next = array1d(1..18 ,[17, 1, 10, 16, 18, 7, 4, 5, 8, 11, 12, 13, 14, 15, 6, 2, 9, 3]);
makespan = 749;
----------
assign = array1d(1..18 ,[7, 7, 1, 6, 8, 6, 6, 8, 8, 1, 1, 2, 3, 4, 5, 6, 7, 8]);
next = array1d(1..18 ,[17, 1, 10, 16, 18, 7, 4, 5, 8, 11, 12, 13, 14, 15, 6, 2, 9, 3]);
makespan = 748;
----------
assign = array1d(1..18 ,[7, 7, 1, 6, 8, 6, 6, 8, 8, 1, 1, 2, 3, 4, 5, 6, 7, 8]);
next = array1d(1..18 ,[17, 1, 10, 16, 18, 7, 4, 5, 8, 11, 12, 13, 14, 15, 6, 2, 9, 3]);
makespan = 747;
----------
assign = array1d(1..18 ,[7, 7, 1, 6, 8, 6, 6, 8, 8, 1, 1, 2, 3, 4, 5, 6, 7, 8]);
next = array1d(1..18 ,[17, 1, 10, 16, 18, 7, 4, 5, 8, 11, 12, 13, 14, 15, 6, 2, 9, 3]);
makespan = 746;
----------
assign = array1d(1..18 ,[7, 7, 1, 6, 8, 6, 6, 8, 8, 1, 1, 2, 3, 4, 5, 6, 7, 8]);
next = array1d(1..18 ,[17, 1, 10, 16, 18, 7, 4, 5, 8, 11, 12, 13, 14, 15, 6, 2, 9, 3]);
makespan = 740;
----------
assign = array1d(1..18 ,[7, 7, 1, 6, 8, 6, 6, 8, 8, 1, 1, 2, 3, 4, 5, 6, 7, 8]);
next = array1d(1..18 ,[17, 1, 10, 16, 18, 7, 4, 5, 8, 11, 12, 13, 14, 15, 6, 2, 9, 3]);
makespan = 739;
----------
assign = array1d(1..18 ,[7, 7, 1, 6, 8, 6, 6, 8, 8, 1, 1, 2, 3, 4, 5, 6, 7, 8]);
next = array1d(1..18 ,[17, 1, 10, 16, 18, 7, 4, 5, 8, 11, 12, 13, 14, 15, 6, 2, 9, 3]);
makespan = 738;
----------
assign = array1d(1..18 ,[7, 7, 1, 6, 8, 6, 6, 8, 8, 1, 1, 2, 3, 4, 5, 6, 7, 8]);
next = array1d(1..18 ,[17, 1, 10, 16, 18, 7, 4, 5, 8, 11, 12, 13, 14, 15, 6, 2, 9, 3]);
makespan = 735;
----------
assign = array1d(1..18 ,[7, 7, 1, 6, 8, 6, 6, 8, 8, 1, 1, 2, 3, 4, 5, 6, 7, 8]);
next = array1d(1..18 ,[17, 1, 10, 16, 18, 7, 4, 5, 8, 11, 12, 13, 14, 15, 6, 2, 9, 3]);
makespan = 731;
----------
assign = array1d(1..18 ,[7, 7, 1, 6, 8, 6, 6, 8, 8, 1, 1, 2, 3, 4, 5, 6, 7, 8]);
next = array1d(1..18 ,[17, 1, 10, 16, 18, 7, 4, 5, 8, 11, 12, 13, 14, 15, 6, 2, 9, 3]);
makespan = 730;
----------
assign = array1d(1..18 ,[7, 7, 1, 6, 8, 6, 6, 8, 8, 1, 1, 2, 3, 4, 5, 6, 7, 8]);
next = array1d(1..18 ,[17, 1, 10, 16, 18, 7, 4, 5, 8, 11, 12, 13, 14, 15, 6, 2, 9, 3]);
makespan = 729;
----------
assign = array1d(1..18 ,[7, 7, 1, 6, 8, 6, 6, 8, 8, 1, 1, 2, 3, 4, 5, 6, 7, 8]);
next = array1d(1..18 ,[17, 1, 10, 16, 18, 7, 4, 5, 8, 11, 12, 13, 14, 15, 6, 2, 9, 3]);
makespan = 727;
----------
assign = array1d(1..18 ,[7, 7, 1, 6, 8, 6, 6, 8, 8, 1, 1, 2, 3, 4, 5, 6, 7, 8]);
next = array1d(1..18 ,[17, 1, 10, 16, 18, 7, 4, 5, 8, 11, 12, 13, 14, 15, 6, 2, 9, 3]);
makespan = 724;
----------
assign = array1d(1..18 ,[7, 7, 1, 6, 8, 6, 6, 8, 8, 1, 1, 2, 3, 4, 5, 6, 7, 8]);
next = array1d(1..18 ,[17, 1, 10, 16, 18, 7, 4, 5, 8, 11, 12, 13, 14, 15, 6, 2, 9, 3]);
makespan = 723;
----------
assign = array1d(1..18 ,[7, 7, 1, 6, 8, 6, 6, 8, 8, 1, 1, 2, 3, 4, 5, 6, 7, 8]);
next = array1d(1..18 ,[17, 1, 10, 16, 18, 7, 4, 5, 8, 11, 12, 13, 14, 15, 6, 2, 9, 3]);
makespan = 722;
----------
assign = array1d(1..18 ,[7, 7, 1, 6, 8, 6, 6, 8, 8, 1, 1, 2, 3, 4, 5, 6, 7, 8]);
next = array1d(1..18 ,[17, 1, 10, 16, 18, 7, 4, 5, 8, 11, 12, 13, 14, 15, 6, 2, 9, 3]);
makespan = 715;
----------
assign = array1d(1..18 ,[7, 7, 1, 6, 8, 6, 6, 8, 8, 1, 1, 2, 3, 4, 5, 6, 7, 8]);
next = array1d(1..18 ,[17, 1, 10, 16, 18, 7, 4, 5, 8, 11, 12, 13, 14, 15, 6, 2, 9, 3]);
makespan = 714;
----------
assign = array1d(1..18 ,[7, 7, 1, 6, 8, 6, 6, 8, 8, 1, 1, 2, 3, 4, 5, 6, 7, 8]);
next = array1d(1..18 ,[17, 1, 10, 16, 18, 7, 4, 5, 8, 11, 12, 13, 14, 15, 6, 2, 9, 3]);
makespan = 711;
----------
assign = array1d(1..18 ,[7, 7, 1, 6, 8, 6, 6, 8, 8, 1, 1, 2, 3, 4, 5, 6, 7, 8]);
next = array1d(1..18 ,[17, 1, 10, 16, 18, 7, 4, 5, 8, 11, 12, 13, 14, 15, 6, 2, 9, 3]);
makespan = 707;
----------
assign = array1d(1..18 ,[7, 7, 1, 6, 8, 6, 6, 8, 8, 1, 1, 2, 3, 4, 5, 6, 7, 8]);
next = array1d(1..18 ,[17, 1, 10, 16, 18, 7, 4, 5, 8, 11, 12, 13, 14, 15, 6, 2, 9, 3]);
makespan = 705;
----------
assign = array1d(1..18 ,[7, 7, 1, 6, 8, 6, 6, 8, 8, 1, 1, 2, 3, 4, 5, 6, 7, 8]);
next = array1d(1..18 ,[17, 1, 10, 16, 18, 7, 4, 5, 8, 11, 12, 13, 14, 15, 6, 2, 9, 3]);
makespan = 693;
----------
assign = array1d(1..18 ,[7, 7, 1, 6, 8, 6, 6, 8, 8, 1, 1, 2, 3, 4, 5, 6, 7, 8]);
next = array1d(1..18 ,[17, 1, 10, 16, 18, 7, 4, 5, 8, 11, 12, 13, 14, 15, 6, 2, 9, 3]);
makespan = 686;
----------
assign = array1d(1..18 ,[7, 7, 1, 6, 8, 6, 6, 8, 8, 1, 1, 2, 3, 4, 5, 6, 7, 8]);
next = array1d(1..18 ,[17, 1, 10, 16, 18, 7, 4, 5, 8, 11, 12, 13, 14, 15, 6, 2, 9, 3]);
makespan = 684;
----------
assign = array1d(1..18 ,[7, 7, 1, 6, 8, 6, 6, 8, 8, 1, 1, 2, 3, 4, 5, 6, 7, 8]);
next = array1d(1..18 ,[17, 1, 10, 16, 18, 7, 4, 5, 8, 11, 12, 13, 14, 15, 6, 2, 9, 3]);
makespan = 679;
----------
assign = array1d(1..18 ,[7, 7, 1, 6, 8, 6, 6, 8, 8, 1, 1, 2, 3, 4, 5, 6, 7, 8]);
next = array1d(1..18 ,[17, 1, 10, 16, 18, 7, 4, 5, 8, 11, 12, 13, 14, 15, 6, 2, 9, 3]);
makespan = 678;
----------
assign = array1d(1..18 ,[7, 7, 1, 6, 8, 6, 6, 8, 8, 1, 1, 2, 3, 4, 5, 6, 7, 8]);
next = array1d(1..18 ,[17, 1, 10, 16, 18, 7, 4, 5, 8, 11, 12, 13, 14, 15, 6, 2, 9, 3]);
makespan = 676;
----------
assign = array1d(1..18 ,[7, 7, 1, 6, 8, 6, 6, 8, 8, 1, 1, 2, 3, 4, 5, 6, 7, 8]);
next = array1d(1..18 ,[17, 1, 10, 16, 18, 7, 4, 5, 8, 11, 12, 13, 14, 15, 6, 2, 9, 3]);
makespan = 675;
----------
assign = array1d(1..18 ,[7, 7, 1, 6, 8, 6, 6, 8, 8, 1, 1, 2, 3, 4, 5, 6, 7, 8]);
next = array1d(1..18 ,[17, 1, 10, 16, 18, 7, 4, 5, 8, 11, 12, 13, 14, 15, 6, 2, 9, 3]);
makespan = 674;
----------
assign = array1d(1..18 ,[7, 7, 1, 6, 8, 6, 6, 8, 8, 1, 1, 2, 3, 4, 5, 6, 7, 8]);
next = array1d(1..18 ,[17, 1, 10, 16, 18, 7, 4, 5, 8, 11, 12, 13, 14, 15, 6, 2, 9, 3]);
makespan = 670;
----------
assign = array1d(1..18 ,[7, 7, 1, 6, 8, 6, 6, 8, 8, 1, 1, 2, 3, 4, 5, 6, 7, 8]);
next = array1d(1..18 ,[17, 1, 10, 16, 18, 7, 4, 5, 8, 11, 12, 13, 14, 15, 6, 2, 9, 3]);
makespan = 661;
----------
assign = array1d(1..18 ,[7, 7, 1, 6, 8, 6, 6, 8, 8, 1, 1, 2, 3, 4, 5, 6, 7, 8]);
next = array1d(1..18 ,[17, 1, 10, 16, 18, 7, 4, 5, 8, 11, 12, 13, 14, 15, 6, 2, 9, 3]);
makespan = 654;
----------
assign = array1d(1..18 ,[7, 7, 1, 6, 8, 6, 6, 8, 8, 1, 1, 2, 3, 4, 5, 6, 7, 8]);
next = array1d(1..18 ,[17, 1, 10, 16, 18, 7, 4, 5, 8, 11, 12, 13, 14, 15, 6, 2, 9, 3]);
makespan = 642;
----------
assign = array1d(1..18 ,[7, 7, 1, 6, 8, 6, 6, 8, 8, 1, 1, 2, 3, 4, 5, 6, 7, 8]);
next = array1d(1..18 ,[17, 1, 10, 16, 18, 7, 4, 5, 8, 11, 12, 13, 14, 15, 6, 2, 9, 3]);
makespan = 630;
----------
assign = array1d(1..18 ,[7, 7, 1, 6, 8, 6, 6, 8, 8, 1, 1, 2, 3, 4, 5, 6, 7, 8]);
next = array1d(1..18 ,[17, 1, 10, 16, 18, 7, 4, 5, 8, 11, 12, 13, 14, 15, 6, 2, 9, 3]);
makespan = 622;
----------
assign = array1d(1..18 ,[7, 7, 1, 6, 8, 6, 6, 8, 8, 1, 1, 2, 3, 4, 5, 6, 7, 8]);
next = array1d(1..18 ,[17, 1, 10, 16, 18, 7, 4, 5, 8, 11, 12, 13, 14, 15, 6, 2, 9, 3]);
makespan = 617;
----------
assign = array1d(1..18 ,[7, 7, 1, 6, 8, 6, 6, 8, 8, 1, 1, 2, 3, 4, 5, 6, 7, 8]);
next = array1d(1..18 ,[17, 1, 10, 16, 18, 7, 4, 5, 8, 11, 12, 13, 14, 15, 6, 2, 9, 3]);
makespan = 615;
----------
assign = array1d(1..18 ,[7, 7, 5, 8, 6, 8, 8, 6, 6, 5, 1, 2, 3, 4, 5, 6, 7, 8]);
next = array1d(1..18 ,[17, 1, 10, 18, 16, 7, 4, 5, 8, 15, 12, 13, 14, 3, 9, 2, 6, 11]);
makespan = 611;
----------
assign = array1d(1..18 ,[7, 7, 8, 5, 6, 5, 5, 6, 6, 8, 1, 2, 3, 4, 5, 6, 7, 8]);
next = array1d(1..18 ,[17, 1, 10, 15, 16, 7, 4, 5, 8, 18, 12, 13, 14, 6, 9, 2, 3, 11]);
makespan = 610;
----------
assign = array1d(1..18 ,[7, 7, 8, 5, 6, 5, 5, 6, 6, 8, 1, 2, 3, 4, 5, 6, 7, 8]);
next = array1d(1..18 ,[17, 1, 10, 15, 16, 7, 4, 5, 8, 18, 12, 13, 14, 6, 9, 2, 3, 11]);
makespan = 607;
----------
assign = array1d(1..18 ,[7, 7, 8, 4, 6, 4, 4, 6, 6, 8, 1, 2, 3, 4, 5, 6, 7, 8]);
next = array1d(1..18 ,[17, 1, 10, 14, 16, 7, 4, 5, 8, 18, 12, 13, 6, 15, 9, 2, 3, 11]);
makespan = 600;
----------
assign = array1d(1..18 ,[7, 7, 8, 4, 6, 4, 4, 6, 6, 8, 1, 2, 3, 4, 5, 6, 7, 8]);
next = array1d(1..18 ,[17, 1, 10, 14, 16, 7, 4, 5, 8, 18, 12, 13, 6, 15, 9, 2, 3, 11]);
makespan = 595;
----------
assign = array1d(1..18 ,[7, 7, 5, 8, 6, 8, 8, 6, 6, 5, 1, 2, 3, 4, 5, 6, 7, 8]);
next = array1d(1..18 ,[17, 1, 10, 18, 16, 7, 4, 5, 8, 15, 12, 13, 14, 3, 9, 2, 6, 11]);
makespan = 594;
----------
assign = array1d(1..18 ,[7, 7, 5, 8, 6, 8, 8, 6, 6, 5, 1, 2, 3, 4, 5, 6, 7, 8]);
next = array1d(1..18 ,[17, 1, 10, 18, 16, 7, 4, 5, 8, 15, 12, 13, 14, 3, 9, 2, 6, 11]);
makespan = 591;
----------
assign = array1d(1..18 ,[7, 7, 5, 8, 6, 8, 8, 6, 6, 5, 1, 2, 3, 4, 5, 6, 7, 8]);
next = array1d(1..18 ,[17, 1, 10, 18, 16, 7, 4, 5, 8, 15, 12, 13, 14, 3, 9, 2, 6, 11]);
makespan = 588;
----------
assign = array1d(1..18 ,[7, 7, 5, 8, 3, 8, 8, 3, 3, 5, 1, 2, 3, 4, 5, 6, 7, 8]);
next = array1d(1..18 ,[17, 1, 10, 18, 13, 7, 4, 5, 8, 15, 12, 9, 14, 3, 16, 2, 6, 11]);
makespan = 584;
----------
assign = array1d(1..18 ,[7, 6, 5, 8, 6, 8, 8, 6, 7, 5, 1, 2, 3, 4, 5, 6, 7, 8]);
next = array1d(1..18 ,[17, 16, 10, 18, 2, 7, 4, 5, 1, 15, 12, 13, 14, 3, 8, 9, 6, 11]);
makespan = 581;
----------
assign = array1d(1..18 ,[7, 6, 5, 8, 6, 8, 8, 6, 7, 5, 1, 2, 3, 4, 5, 6, 7, 8]);
next = array1d(1..18 ,[17, 16, 10, 18, 2, 7, 4, 5, 1, 15, 12, 13, 14, 3, 8, 9, 6, 11]);
makespan = 574;
----------
assign = array1d(1..18 ,[7, 6, 5, 8, 6, 8, 8, 6, 7, 5, 1, 2, 3, 4, 5, 6, 7, 8]);
next = array1d(1..18 ,[17, 16, 10, 18, 2, 7, 4, 5, 1, 15, 12, 13, 14, 3, 8, 9, 6, 11]);
makespan = 568;
----------
assign = array1d(1..18 ,[7, 6, 5, 8, 6, 8, 8, 6, 7, 5, 1, 2, 3, 4, 5, 6, 7, 8]);
next = array1d(1..18 ,[17, 16, 10, 18, 2, 7, 4, 5, 1, 15, 12, 13, 14, 3, 8, 9, 6, 11]);
makespan = 563;
----------
assign = array1d(1..18 ,[7, 6, 5, 8, 6, 8, 8, 6, 7, 5, 1, 2, 3, 4, 5, 6, 7, 8]);
next = array1d(1..18 ,[17, 16, 10, 18, 2, 7, 4, 5, 1, 15, 12, 13, 14, 3, 8, 9, 6, 11]);
makespan = 546;
----------
assign = array1d(1..18 ,[7, 6, 5, 8, 6, 8, 8, 6, 7, 5, 1, 2, 3, 4, 5, 6, 7, 8]);
next = array1d(1..18 ,[17, 16, 10, 18, 2, 7, 4, 5, 1, 15, 12, 13, 14, 3, 8, 9, 6, 11]);
makespan = 543;
----------
assign = array1d(1..18 ,[7, 6, 5, 8, 6, 8, 8, 6, 7, 5, 1, 2, 3, 4, 5, 6, 7, 8]);
next = array1d(1..18 ,[17, 16, 10, 18, 2, 7, 4, 5, 1, 15, 12, 13, 14, 3, 8, 9, 6, 11]);
makespan = 542;
----------
assign = array1d(1..18 ,[8, 6, 7, 8, 6, 5, 5, 6, 3, 7, 1, 2, 3, 4, 5, 6, 7, 8]);
next = array1d(1..18 ,[18, 16, 10, 1, 2, 7, 15, 5, 13, 17, 12, 9, 14, 6, 8, 3, 4, 11]);
makespan = 534;
----------
assign = array1d(1..18 ,[3, 6, 7, 8, 6, 5, 5, 6, 8, 7, 1, 2, 3, 4, 5, 6, 7, 8]);
next = array1d(1..18 ,[13, 16, 10, 9, 2, 7, 15, 5, 18, 17, 12, 1, 14, 6, 8, 3, 4, 11]);
makespan = 520;
----------
assign = array1d(1..18 ,[3, 6, 8, 8, 6, 5, 5, 6, 3, 7, 1, 2, 3, 4, 5, 6, 7, 8]);
next = array1d(1..18 ,[9, 16, 18, 3, 2, 7, 15, 5, 13, 17, 12, 1, 14, 6, 8, 10, 4, 11]);
makespan = 519;
----------
assign = array1d(1..18 ,[3, 6, 8, 8, 6, 5, 5, 6, 3, 7, 1, 2, 3, 4, 5, 6, 7, 8]);
next = array1d(1..18 ,[9, 16, 18, 3, 2, 7, 15, 5, 13, 17, 12, 1, 14, 6, 8, 10, 4, 11]);
makespan = 518;
----------
assign = array1d(1..18 ,[3, 6, 8, 8, 6, 5, 5, 6, 3, 7, 1, 2, 3, 4, 5, 6, 7, 8]);
next = array1d(1..18 ,[9, 16, 18, 3, 2, 7, 15, 5, 13, 17, 12, 1, 14, 6, 8, 10, 4, 11]);
makespan = 517;
----------
assign = array1d(1..18 ,[2, 7, 8, 8, 6, 5, 5, 6, 2, 3, 1, 2, 3, 4, 5, 6, 7, 8]);
next = array1d(1..18 ,[9, 17, 18, 3, 16, 7, 15, 5, 12, 13, 1, 10, 14, 6, 8, 2, 4, 11]);
makespan = 504;
----------
assign = array1d(1..18 ,[8, 6, 5, 5, 6, 4, 4, 7, 7, 8, 1, 2, 3, 4, 5, 6, 7, 8]);
next = array1d(1..18 ,[18, 16, 15, 3, 2, 7, 14, 17, 8, 1, 12, 13, 6, 4, 5, 9, 10, 11]);
makespan = 503;
----------
assign = array1d(1..18 ,[8, 8, 6, 6, 5, 4, 4, 7, 7, 2, 1, 2, 3, 4, 5, 6, 7, 8]);
next = array1d(1..18 ,[18, 1, 16, 3, 15, 7, 14, 9, 17, 12, 10, 13, 6, 5, 4, 8, 2, 11]);
makespan = 502;
----------
assign = array1d(1..18 ,[8, 7, 5, 5, 6, 2, 6, 7, 8, 2, 1, 2, 3, 4, 5, 6, 7, 8]);
next = array1d(1..18 ,[9, 8, 15, 3, 7, 12, 16, 17, 18, 6, 10, 13, 14, 4, 5, 2, 1, 11]);
makespan = 500;
----------
assign = array1d(1..18 ,[7, 7, 8, 8, 4, 5, 6, 6, 4, 5, 1, 2, 3, 4, 5, 6, 7, 8]);
next = array1d(1..18 ,[17, 1, 18, 3, 14, 10, 8, 16, 5, 15, 12, 13, 9, 6, 7, 2, 4, 11]);
makespan = 498;
----------
assign = array1d(1..18 ,[5, 6, 6, 4, 8, 8, 5, 4, 7, 7, 1, 2, 3, 4, 5, 6, 7, 8]);
next = array1d(1..18 ,[7, 3, 16, 14, 18, 5, 15, 4, 17, 9, 12, 13, 8, 1, 2, 10, 6, 11]);
makespan = 497;
----------
assign = array1d(1..18 ,[7, 8, 8, 6, 6, 1, 7, 4, 1, 4, 1, 2, 3, 4, 5, 6, 7, 8]);
next = array1d(1..18 ,[7, 3, 18, 5, 16, 9, 17, 10, 11, 14, 12, 13, 8, 15, 4, 1, 2, 6]);
makespan = 496;
----------
assign = array1d(1..18 ,[5, 7, 8, 8, 6, 4, 7, 4, 5, 6, 1, 2, 3, 4, 5, 6, 7, 8]);
next = array1d(1..18 ,[9, 17, 4, 18, 10, 8, 2, 14, 15, 16, 12, 13, 6, 1, 5, 7, 3, 11]);
makespan = 493;
----------
assign = array1d(1..18 ,[7, 1, 3, 3, 6, 8, 2, 8, 7, 6, 1, 2, 3, 4, 5, 6, 7, 8]);
next = array1d(1..18 ,[9, 11, 4, 13, 10, 8, 12, 18, 17, 16, 7, 3, 14, 15, 5, 1, 6, 2]);
makespan = 492;
----------
assign = array1d(1..18 ,[7, 1, 4, 4, 2, 8, 1, 8, 7, 2, 1, 2, 3, 4, 5, 6, 7, 8]);
next = array1d(1..18 ,[9, 11, 4, 14, 10, 8, 2, 18, 17, 12, 5, 13, 3, 15, 16, 1, 6, 7]);
makespan = 486;
----------
assign = array1d(1..18 ,[7, 6, 6, 5, 2, 8, 5, 8, 7, 2, 1, 2, 3, 4, 5, 6, 7, 8]);
next = array1d(1..18 ,[9, 16, 2, 7, 10, 18, 15, 6, 17, 12, 5, 13, 14, 4, 3, 1, 8, 11]);
makespan = 484;
----------
assign = array1d(1..18 ,[1, 7, 8, 7, 5, 6, 8, 5, 6, 2, 1, 2, 3, 4, 5, 6, 7, 8]);
next = array1d(1..18 ,[11, 17, 18, 2, 15, 16, 3, 5, 6, 12, 10, 13, 14, 8, 9, 4, 7, 1]);
makespan = 483;
----------
assign = array1d(1..18 ,[2, 7, 7, 8, 4, 5, 8, 4, 5, 1, 1, 2, 3, 4, 5, 6, 7, 8]);
next = array1d(1..18 ,[12, 17, 2, 7, 14, 15, 18, 5, 6, 11, 1, 13, 8, 9, 16, 3, 4, 10]);
makespan = 481;
----------
assign = array1d(1..18 ,[2, 7, 7, 4, 1, 5, 4, 1, 5, 8, 1, 2, 3, 4, 5, 6, 7, 8]);
next = array1d(1..18 ,[12, 17, 2, 7, 11, 15, 14, 5, 6, 18, 1, 13, 4, 9, 16, 3, 10, 8]);
makespan = 480;
----------
assign = array1d(1..18 ,[8, 7, 7, 4, 1, 5, 4, 1, 5, 8, 1, 2, 3, 4, 5, 6, 7, 8]);
next = array1d(1..18 ,[10, 17, 2, 7, 11, 15, 14, 5, 6, 18, 12, 13, 4, 9, 16, 3, 1, 8]);
makespan = 479;
----------
assign = array1d(1..18 ,[8, 7, 7, 6, 1, 5, 6, 1, 5, 8, 1, 2, 3, 4, 5, 6, 7, 8]);
next = array1d(1..18 ,[10, 17, 2, 7, 11, 15, 16, 5, 6, 18, 12, 13, 14, 9, 4, 3, 1, 8]);
makespan = 478;
----------
assign = array1d(1..18 ,[8, 7, 7, 6, 1, 5, 6, 1, 5, 8, 1, 2, 3, 4, 5, 6, 7, 8]);
next = array1d(1..18 ,[10, 17, 2, 7, 11, 15, 16, 5, 6, 18, 12, 13, 14, 9, 4, 3, 1, 8]);
makespan = 477;
----------
assign = array1d(1..18 ,[8, 7, 7, 6, 1, 5, 6, 1, 5, 8, 1, 2, 3, 4, 5, 6, 7, 8]);
next = array1d(1..18 ,[10, 17, 2, 7, 11, 15, 16, 5, 6, 18, 12, 13, 14, 9, 4, 3, 1, 8]);
makespan = 476;
----------
assign = array1d(1..18 ,[8, 7, 7, 6, 1, 5, 6, 1, 5, 8, 1, 2, 3, 4, 5, 6, 7, 8]);
next = array1d(1..18 ,[10, 17, 2, 7, 11, 15, 16, 5, 6, 18, 12, 13, 14, 9, 4, 3, 1, 8]);
makespan = 475;
----------
assign = array1d(1..18 ,[8, 7, 7, 6, 1, 5, 6, 1, 5, 8, 1, 2, 3, 4, 5, 6, 7, 8]);
next = array1d(1..18 ,[10, 17, 2, 7, 11, 15, 16, 5, 6, 18, 12, 13, 14, 9, 4, 3, 1, 8]);
makespan = 474;
----------
assign = array1d(1..18 ,[8, 7, 7, 6, 1, 5, 6, 1, 5, 8, 1, 2, 3, 4, 5, 6, 7, 8]);
next = array1d(1..18 ,[10, 17, 2, 7, 11, 15, 16, 5, 6, 18, 12, 13, 14, 9, 4, 3, 1, 8]);
makespan = 472;
----------
assign = array1d(1..18 ,[8, 7, 7, 6, 1, 5, 6, 1, 5, 8, 1, 2, 3, 4, 5, 6, 7, 8]);
next = array1d(1..18 ,[10, 17, 2, 7, 11, 15, 16, 5, 6, 18, 12, 13, 14, 9, 4, 3, 1, 8]);
makespan = 468;
----------
assign = array1d(1..18 ,[8, 7, 7, 6, 1, 5, 6, 1, 5, 8, 1, 2, 3, 4, 5, 6, 7, 8]);
next = array1d(1..18 ,[10, 17, 2, 7, 11, 15, 16, 5, 6, 18, 12, 13, 14, 9, 4, 3, 1, 8]);
makespan = 466;
----------
assign = array1d(1..18 ,[8, 7, 7, 6, 1, 5, 6, 1, 5, 8, 1, 2, 3, 4, 5, 6, 7, 8]);
next = array1d(1..18 ,[10, 17, 2, 7, 11, 15, 16, 5, 6, 18, 12, 13, 14, 9, 4, 3, 1, 8]);
makespan = 462;
----------
assign = array1d(1..18 ,[8, 7, 7, 6, 1, 5, 6, 1, 5, 8, 1, 2, 3, 4, 5, 6, 7, 8]);
next = array1d(1..18 ,[10, 17, 2, 7, 11, 15, 16, 5, 6, 18, 12, 13, 14, 9, 4, 3, 1, 8]);
makespan = 460;
----------
assign = array1d(1..18 ,[8, 7, 7, 6, 1, 5, 6, 1, 5, 8, 1, 2, 3, 4, 5, 6, 7, 8]);
next = array1d(1..18 ,[10, 17, 2, 7, 11, 15, 16, 5, 6, 18, 12, 13, 14, 9, 4, 3, 1, 8]);
makespan = 459;
----------
assign = array1d(1..18 ,[8, 7, 7, 6, 1, 5, 6, 1, 5, 8, 1, 2, 3, 4, 5, 6, 7, 8]);
next = array1d(1..18 ,[10, 17, 2, 7, 11, 15, 16, 5, 6, 18, 12, 13, 14, 9, 4, 3, 1, 8]);
makespan = 458;
----------
assign = array1d(1..18 ,[8, 7, 7, 6, 1, 5, 6, 1, 5, 8, 1, 2, 3, 4, 5, 6, 7, 8]);
next = array1d(1..18 ,[10, 17, 2, 7, 11, 15, 16, 5, 6, 18, 12, 13, 14, 9, 4, 3, 1, 8]);
makespan = 457;
----------
assign = array1d(1..18 ,[8, 7, 7, 6, 1, 5, 6, 1, 5, 8, 1, 2, 3, 4, 5, 6, 7, 8]);
next = array1d(1..18 ,[10, 17, 2, 7, 11, 15, 16, 5, 6, 18, 12, 13, 14, 9, 4, 3, 1, 8]);
makespan = 456;
----------
assign = array1d(1..18 ,[8, 7, 7, 6, 1, 5, 6, 1, 5, 8, 1, 2, 3, 4, 5, 6, 7, 8]);
next = array1d(1..18 ,[10, 17, 2, 7, 11, 15, 16, 5, 6, 18, 12, 13, 14, 9, 4, 3, 1, 8]);
makespan = 455;
----------
assign = array1d(1..18 ,[8, 7, 7, 6, 1, 5, 6, 1, 5, 8, 1, 2, 3, 4, 5, 6, 7, 8]);
next = array1d(1..18 ,[10, 17, 2, 7, 11, 15, 16, 5, 6, 18, 12, 13, 14, 9, 4, 3, 1, 8]);
makespan = 454;
----------
assign = array1d(1..18 ,[8, 7, 7, 6, 1, 5, 6, 1, 5, 8, 1, 2, 3, 4, 5, 6, 7, 8]);
next = array1d(1..18 ,[10, 17, 2, 7, 11, 15, 16, 5, 6, 18, 12, 13, 14, 9, 4, 3, 1, 8]);
makespan = 453;
----------
assign = array1d(1..18 ,[8, 7, 7, 6, 1, 5, 6, 1, 5, 8, 1, 2, 3, 4, 5, 6, 7, 8]);
next = array1d(1..18 ,[10, 17, 2, 7, 11, 15, 16, 5, 6, 18, 12, 13, 14, 9, 4, 3, 1, 8]);
makespan = 452;
----------
assign = array1d(1..18 ,[8, 7, 7, 6, 1, 5, 6, 1, 5, 8, 1, 2, 3, 4, 5, 6, 7, 8]);
next = array1d(1..18 ,[10, 17, 2, 7, 11, 15, 16, 5, 6, 18, 12, 13, 14, 9, 4, 3, 1, 8]);
makespan = 450;
----------
assign = array1d(1..18 ,[8, 7, 7, 6, 1, 5, 6, 1, 5, 8, 1, 2, 3, 4, 5, 6, 7, 8]);
next = array1d(1..18 ,[10, 17, 2, 7, 11, 15, 16, 5, 6, 18, 12, 13, 14, 9, 4, 3, 1, 8]);
makespan = 449;
----------
assign = array1d(1..18 ,[8, 7, 7, 6, 1, 5, 6, 1, 5, 8, 1, 2, 3, 4, 5, 6, 7, 8]);
next = array1d(1..18 ,[10, 17, 2, 7, 11, 15, 16, 5, 6, 18, 12, 13, 14, 9, 4, 3, 1, 8]);
makespan = 448;
----------
assign = array1d(1..18 ,[8, 7, 7, 6, 1, 5, 6, 1, 5, 8, 1, 2, 3, 4, 5, 6, 7, 8]);
next = array1d(1..18 ,[10, 17, 2, 7, 11, 15, 16, 5, 6, 18, 12, 13, 14, 9, 4, 3, 1, 8]);
makespan = 446;
----------
assign = array1d(1..18 ,[8, 7, 7, 6, 1, 5, 6, 1, 5, 8, 1, 2, 3, 4, 5, 6, 7, 8]);
next = array1d(1..18 ,[10, 17, 2, 7, 11, 15, 16, 5, 6, 18, 12, 13, 14, 9, 4, 3, 1, 8]);
makespan = 443;
----------
assign = array1d(1..18 ,[8, 7, 7, 6, 1, 5, 6, 1, 5, 8, 1, 2, 3, 4, 5, 6, 7, 8]);
next = array1d(1..18 ,[10, 17, 2, 7, 11, 15, 16, 5, 6, 18, 12, 13, 14, 9, 4, 3, 1, 8]);
makespan = 440;
----------
assign = array1d(1..18 ,[8, 7, 7, 6, 1, 5, 6, 1, 5, 8, 1, 2, 3, 4, 5, 6, 7, 8]);
next = array1d(1..18 ,[10, 17, 2, 7, 11, 15, 16, 5, 6, 18, 12, 13, 14, 9, 4, 3, 1, 8]);
makespan = 439;
----------
assign = array1d(1..18 ,[8, 7, 7, 6, 1, 5, 6, 1, 5, 8, 1, 2, 3, 4, 5, 6, 7, 8]);
next = array1d(1..18 ,[10, 17, 2, 7, 11, 15, 16, 5, 6, 18, 12, 13, 14, 9, 4, 3, 1, 8]);
makespan = 437;
----------
assign = array1d(1..18 ,[8, 7, 7, 6, 1, 5, 6, 1, 5, 8, 1, 2, 3, 4, 5, 6, 7, 8]);
next = array1d(1..18 ,[10, 17, 2, 7, 11, 15, 16, 5, 6, 18, 12, 13, 14, 9, 4, 3, 1, 8]);
makespan = 436;
----------
assign = array1d(1..18 ,[8, 7, 7, 6, 1, 5, 6, 1, 5, 8, 1, 2, 3, 4, 5, 6, 7, 8]);
next = array1d(1..18 ,[10, 17, 2, 7, 11, 15, 16, 5, 6, 18, 12, 13, 14, 9, 4, 3, 1, 8]);
makespan = 434;
----------
assign = array1d(1..18 ,[8, 7, 7, 6, 1, 5, 6, 1, 5, 8, 1, 2, 3, 4, 5, 6, 7, 8]);
next = array1d(1..18 ,[10, 17, 2, 7, 11, 15, 16, 5, 6, 18, 12, 13, 14, 9, 4, 3, 1, 8]);
makespan = 432;
----------
assign = array1d(1..18 ,[8, 7, 7, 6, 1, 5, 6, 1, 5, 8, 1, 2, 3, 4, 5, 6, 7, 8]);
next = array1d(1..18 ,[10, 17, 2, 7, 11, 15, 16, 5, 6, 18, 12, 13, 14, 9, 4, 3, 1, 8]);
makespan = 430;
----------
assign = array1d(1..18 ,[8, 7, 7, 6, 1, 5, 6, 1, 5, 8, 1, 2, 3, 4, 5, 6, 7, 8]);
next = array1d(1..18 ,[10, 17, 2, 7, 11, 15, 16, 5, 6, 18, 12, 13, 14, 9, 4, 3, 1, 8]);
makespan = 429;
----------
assign = array1d(1..18 ,[8, 7, 7, 6, 1, 5, 6, 1, 5, 8, 1, 2, 3, 4, 5, 6, 7, 8]);
next = array1d(1..18 ,[10, 17, 2, 7, 11, 15, 16, 5, 6, 18, 12, 13, 14, 9, 4, 3, 1, 8]);
makespan = 428;
----------
assign = array1d(1..18 ,[8, 7, 7, 6, 1, 5, 6, 1, 5, 8, 1, 2, 3, 4, 5, 6, 7, 8]);
next = array1d(1..18 ,[10, 17, 2, 7, 11, 15, 16, 5, 6, 18, 12, 13, 14, 9, 4, 3, 1, 8]);
makespan = 426;
----------
assign = array1d(1..18 ,[8, 7, 7, 6, 1, 5, 6, 1, 5, 8, 1, 2, 3, 4, 5, 6, 7, 8]);
next = array1d(1..18 ,[10, 17, 2, 7, 11, 15, 16, 5, 6, 18, 12, 13, 14, 9, 4, 3, 1, 8]);
makespan = 424;
----------
assign = array1d(1..18 ,[8, 7, 7, 6, 1, 5, 6, 1, 5, 8, 1, 2, 3, 4, 5, 6, 7, 8]);
next = array1d(1..18 ,[10, 17, 2, 7, 11, 15, 16, 5, 6, 18, 12, 13, 14, 9, 4, 3, 1, 8]);
makespan = 420;
----------
assign = array1d(1..18 ,[8, 7, 7, 6, 1, 5, 6, 1, 5, 8, 1, 2, 3, 4, 5, 6, 7, 8]);
next = array1d(1..18 ,[10, 17, 2, 7, 11, 15, 16, 5, 6, 18, 12, 13, 14, 9, 4, 3, 1, 8]);
makespan = 418;
----------
assign = array1d(1..18 ,[8, 7, 7, 6, 1, 5, 6, 1, 5, 8, 1, 2, 3, 4, 5, 6, 7, 8]);
next = array1d(1..18 ,[10, 17, 2, 7, 11, 15, 16, 5, 6, 18, 12, 13, 14, 9, 4, 3, 1, 8]);
makespan = 413;
----------
assign = array1d(1..18 ,[8, 7, 7, 6, 1, 5, 6, 1, 5, 8, 1, 2, 3, 4, 5, 6, 7, 8]);
next = array1d(1..18 ,[10, 17, 2, 7, 11, 15, 16, 5, 6, 18, 12, 13, 14, 9, 4, 3, 1, 8]);
makespan = 411;
----------
assign = array1d(1..18 ,[8, 7, 7, 6, 1, 5, 6, 1, 5, 8, 1, 2, 3, 4, 5, 6, 7, 8]);
next = array1d(1..18 ,[10, 17, 2, 7, 11, 15, 16, 5, 6, 18, 12, 13, 14, 9, 4, 3, 1, 8]);
makespan = 407;
----------
assign = array1d(1..18 ,[8, 7, 7, 6, 1, 5, 6, 1, 5, 8, 1, 2, 3, 4, 5, 6, 7, 8]);
next = array1d(1..18 ,[10, 17, 2, 7, 11, 15, 16, 5, 6, 18, 12, 13, 14, 9, 4, 3, 1, 8]);
makespan = 404;
----------
assign = array1d(1..18 ,[8, 7, 7, 6, 1, 5, 6, 1, 5, 8, 1, 2, 3, 4, 5, 6, 7, 8]);
next = array1d(1..18 ,[10, 17, 2, 7, 11, 15, 16, 5, 6, 18, 12, 13, 14, 9, 4, 3, 1, 8]);
makespan = 403;
----------
assign = array1d(1..18 ,[8, 7, 7, 6, 1, 5, 6, 1, 5, 8, 1, 2, 3, 4, 5, 6, 7, 8]);
next = array1d(1..18 ,[10, 17, 2, 7, 11, 15, 16, 5, 6, 18, 12, 13, 14, 9, 4, 3, 1, 8]);
makespan = 399;
----------
assign = array1d(1..18 ,[8, 7, 7, 6, 1, 5, 6, 1, 5, 8, 1, 2, 3, 4, 5, 6, 7, 8]);
next = array1d(1..18 ,[10, 17, 2, 7, 11, 15, 16, 5, 6, 18, 12, 13, 14, 9, 4, 3, 1, 8]);
makespan = 398;
----------
assign = array1d(1..18 ,[8, 7, 7, 6, 1, 5, 6, 1, 5, 8, 1, 2, 3, 4, 5, 6, 7, 8]);
next = array1d(1..18 ,[10, 17, 2, 7, 11, 15, 16, 5, 6, 18, 12, 13, 14, 9, 4, 3, 1, 8]);
makespan = 390;
----------
assign = array1d(1..18 ,[8, 7, 7, 6, 1, 5, 6, 1, 5, 8, 1, 2, 3, 4, 5, 6, 7, 8]);
next = array1d(1..18 ,[10, 17, 2, 7, 11, 15, 16, 5, 6, 18, 12, 13, 14, 9, 4, 3, 1, 8]);
makespan = 389;
----------
assign = array1d(1..18 ,[8, 7, 7, 6, 1, 5, 6, 1, 5, 8, 1, 2, 3, 4, 5, 6, 7, 8]);
next = array1d(1..18 ,[10, 17, 2, 7, 11, 15, 16, 5, 6, 18, 12, 13, 14, 9, 4, 3, 1, 8]);
makespan = 388;
----------
assign = array1d(1..18 ,[8, 7, 7, 6, 1, 5, 6, 1, 5, 8, 1, 2, 3, 4, 5, 6, 7, 8]);
next = array1d(1..18 ,[10, 17, 2, 7, 11, 15, 16, 5, 6, 18, 12, 13, 14, 9, 4, 3, 1, 8]);
makespan = 385;
----------
assign = array1d(1..18 ,[8, 7, 7, 6, 1, 5, 6, 1, 5, 8, 1, 2, 3, 4, 5, 6, 7, 8]);
next = array1d(1..18 ,[10, 17, 2, 7, 11, 15, 16, 5, 6, 18, 12, 13, 14, 9, 4, 3, 1, 8]);
makespan = 384;
----------
assign = array1d(1..18 ,[8, 7, 7, 6, 1, 5, 6, 1, 5, 8, 1, 2, 3, 4, 5, 6, 7, 8]);
next = array1d(1..18 ,[10, 17, 2, 7, 11, 15, 16, 5, 6, 18, 12, 13, 14, 9, 4, 3, 1, 8]);
makespan = 383;
----------
assign = array1d(1..18 ,[8, 7, 7, 6, 1, 5, 6, 1, 5, 8, 1, 2, 3, 4, 5, 6, 7, 8]);
next = array1d(1..18 ,[10, 17, 2, 7, 11, 15, 16, 5, 6, 18, 12, 13, 14, 9, 4, 3, 1, 8]);
makespan = 382;
----------
assign = array1d(1..18 ,[8, 7, 7, 6, 1, 5, 6, 1, 5, 8, 1, 2, 3, 4, 5, 6, 7, 8]);
next = array1d(1..18 ,[10, 17, 2, 7, 11, 15, 16, 5, 6, 18, 12, 13, 14, 9, 4, 3, 1, 8]);
makespan = 381;
----------
assign = array1d(1..18 ,[8, 7, 7, 6, 1, 5, 6, 1, 5, 8, 1, 2, 3, 4, 5, 6, 7, 8]);
next = array1d(1..18 ,[10, 17, 2, 7, 11, 15, 16, 5, 6, 18, 12, 13, 14, 9, 4, 3, 1, 8]);
makespan = 379;
----------
assign = array1d(1..18 ,[8, 7, 7, 6, 1, 5, 6, 1, 5, 8, 1, 2, 3, 4, 5, 6, 7, 8]);
next = array1d(1..18 ,[10, 17, 2, 7, 11, 15, 16, 5, 6, 18, 12, 13, 14, 9, 4, 3, 1, 8]);
makespan = 378;
----------
assign = array1d(1..18 ,[8, 7, 7, 6, 1, 5, 6, 1, 5, 8, 1, 2, 3, 4, 5, 6, 7, 8]);
next = array1d(1..18 ,[10, 17, 2, 7, 11, 15, 16, 5, 6, 18, 12, 13, 14, 9, 4, 3, 1, 8]);
makespan = 377;
----------
assign = array1d(1..18 ,[8, 5, 5, 6, 1, 7, 6, 1, 7, 8, 1, 2, 3, 4, 5, 6, 7, 8]);
next = array1d(1..18 ,[10, 15, 2, 7, 11, 17, 16, 5, 6, 18, 12, 13, 14, 3, 4, 9, 1, 8]);
makespan = 374;
----------
assign = array1d(1..18 ,[6, 5, 5, 8, 3, 7, 8, 3, 7, 1, 1, 2, 3, 4, 5, 6, 7, 8]);
next = array1d(1..18 ,[16, 15, 2, 7, 13, 17, 18, 5, 6, 11, 12, 8, 14, 3, 1, 9, 4, 10]);
makespan = 373;
----------
assign = array1d(1..18 ,[6, 2, 2, 8, 3, 5, 8, 3, 7, 7, 1, 2, 3, 4, 5, 6, 7, 8]);
next = array1d(1..18 ,[16, 12, 2, 7, 13, 15, 18, 5, 17, 9, 3, 8, 14, 6, 1, 10, 4, 11]);
makespan = 372;
----------
assign = array1d(1..18 ,[6, 8, 2, 6, 8, 7, 2, 7, 3, 5, 1, 2, 3, 4, 5, 6, 7, 8]);
next = array1d(1..18 ,[4, 18, 12, 16, 2, 8, 3, 17, 13, 15, 7, 9, 14, 10, 1, 6, 5, 11]);
makespan = 371;
----------
assign = array1d(1..18 ,[1, 7, 2, 6, 8, 8, 2, 5, 7, 6, 1, 2, 3, 4, 5, 6, 7, 8]);
next = array1d(1..18 ,[11, 17, 12, 10, 6, 18, 3, 15, 2, 16, 7, 13, 14, 8, 4, 9, 5, 1]);
makespan = 368;
----------
assign = array1d(1..18 ,[8, 5, 5, 6, 2, 7, 2, 8, 7, 6, 1, 2, 3, 4, 5, 6, 7, 8]);
next = array1d(1..18 ,[8, 15, 2, 10, 7, 9, 12, 18, 17, 16, 5, 13, 14, 3, 4, 6, 1, 11]);
makespan = 367;
----------
assign = array1d(1..18 ,[5, 8, 3, 3, 7, 8, 5, 6, 7, 6, 1, 2, 3, 4, 5, 6, 7, 8]);
next = array1d(1..18 ,[7, 18, 4, 13, 17, 2, 15, 16, 5, 8, 12, 3, 14, 1, 10, 9, 6, 11]);
makespan = 366;
----------
assign = array1d(1..18 ,[8, 6, 7, 7, 6, 4, 8, 5, 2, 4, 1, 2, 3, 4, 5, 6, 7, 8]);
next = array1d(1..18 ,[7, 5, 4, 17, 16, 14, 18, 15, 12, 6, 9, 13, 10, 8, 2, 3, 1, 11]);
makespan = 365;
----------
assign = array1d(1..18 ,[6, 7, 3, 3, 6, 8, 5, 7, 5, 8, 1, 2, 3, 4, 5, 6, 7, 8]);
next = array1d(1..18 ,[16, 8, 4, 13, 1, 18, 9, 17, 15, 6, 12, 3, 14, 7, 5, 2, 10, 11]);
makespan = 364;
----------
assign = array1d(1..18 ,[7, 8, 4, 4, 1, 8, 5, 6, 7, 6, 1, 2, 3, 4, 5, 6, 7, 8]);
next = array1d(1..18 ,[9, 18, 14, 3, 11, 2, 15, 16, 17, 8, 12, 13, 4, 7, 10, 1, 6, 5]);
makespan = 363;
----------
assign = array1d(1..18 ,[7, 8, 6, 5, 6, 8, 2, 4, 7, 2, 1, 2, 3, 4, 5, 6, 7, 8]);
next = array1d(1..18 ,[9, 18, 5, 15, 16, 2, 12, 14, 17, 7, 10, 13, 8, 4, 3, 1, 6, 11]);
makespan = 362;
----------
assign = array1d(1..18 ,[7, 2, 6, 5, 6, 8, 4, 3, 8, 3, 1, 2, 3, 4, 5, 6, 7, 8]);
next = array1d(1..18 ,[17, 12, 5, 15, 16, 9, 14, 10, 18, 13, 2, 8, 7, 4, 3, 1, 6, 11]);
makespan = 361;
----------
assign = array1d(1..18 ,[7, 2, 6, 8, 6, 2, 8, 4, 3, 4, 1, 2, 3, 4, 5, 6, 7, 8]);
next = array1d(1..18 ,[17, 12, 5, 18, 16, 2, 4, 10, 13, 14, 6, 9, 8, 15, 3, 1, 7, 11]);
makespan = 360;
----------
assign = array1d(1..18 ,[7, 8, 3, 4, 2, 8, 3, 6, 5, 6, 1, 2, 3, 4, 5, 6, 7, 8]);
next = array1d(1..18 ,[17, 18, 13, 14, 12, 2, 3, 10, 15, 16, 5, 7, 4, 9, 8, 1, 6, 11]);
makespan = 359;
----------
assign = array1d(1..18 ,[7, 5, 8, 4, 6, 5, 3, 6, 4, 1, 1, 2, 3, 4, 5, 6, 7, 8]);
next = array1d(1..18 ,[17, 15, 18, 14, 16, 2, 13, 5, 4, 11, 12, 7, 9, 6, 8, 1, 3, 10]);
makespan = 358;
----------
assign = array1d(1..18 ,[5, 8, 5, 6, 3, 3, 8, 7, 7, 6, 1, 2, 3, 4, 5, 6, 7, 8]);
next = array1d(1..18 ,[3, 7, 15, 16, 13, 5, 18, 9, 17, 4, 12, 6, 14, 1, 10, 8, 2, 11]);
makespan = 357;
----------
assign = array1d(1..18 ,[3, 8, 1, 8, 6, 5, 7, 5, 4, 6, 1, 2, 3, 4, 5, 6, 7, 8]);
next = array1d(1..18 ,[13, 4, 11, 18, 10, 8, 17, 15, 14, 16, 12, 1, 9, 6, 5, 7, 2, 3]);
makespan = 356;
----------
assign = array1d(1..18 ,[3, 6, 2, 1, 4, 8, 7, 6, 8, 4, 1, 2, 3, 4, 5, 6, 7, 8]);
next = array1d(1..18 ,[13, 8, 12, 11, 10, 9, 17, 16, 18, 14, 3, 1, 5, 15, 2, 7, 6, 4]);
makespan = 355;
----------
assign = array1d(1..18 ,[6, 7, 3, 8, 6, 5, 8, 7, 5, 3, 1, 2, 3, 4, 5, 6, 7, 8]);
next = array1d(1..18 ,[5, 8, 13, 18, 16, 15, 4, 17, 6, 3, 12, 10, 14, 9, 1, 2, 7, 11]);
makespan = 354;
----------
assign = array1d(1..18 ,[3, 7, 5, 4, 8, 3, 6, 7, 1, 6, 1, 2, 3, 4, 5, 6, 7, 8]);
next = array1d(1..18 ,[13, 8, 15, 14, 18, 1, 16, 17, 11, 7, 12, 6, 4, 3, 10, 2, 5, 9]);
makespan = 353;
----------
assign = array1d(1..18 ,[5, 7, 5, 4, 8, 2, 1, 7, 6, 4, 1, 2, 3, 4, 5, 6, 7, 8]);
next = array1d(1..18 ,[15, 8, 1, 10, 18, 12, 11, 17, 16, 14, 6, 13, 4, 3, 9, 2, 5, 7]);
makespan = 352;
----------
assign = array1d(1..18 ,[6, 8, 5, 8, 5, 4, 2, 2, 7, 7, 1, 2, 3, 4, 5, 6, 7, 8]);
next = array1d(1..18 ,[16, 4, 5, 18, 15, 14, 8, 12, 10, 17, 7, 13, 6, 3, 1, 9, 2, 11]);
makespan = 351;
----------
assign = array1d(1..18 ,[3, 8, 5, 8, 5, 3, 6, 6, 7, 7, 1, 2, 3, 4, 5, 6, 7, 8]);
next = array1d(1..18 ,[13, 4, 5, 18, 15, 1, 8, 16, 10, 17, 12, 6, 14, 3, 7, 9, 2, 11]);
makespan = 350;
----------
assign = array1d(1..18 ,[5, 4, 6, 7, 6, 5, 8, 7, 1, 8, 1, 2, 3, 4, 5, 6, 7, 8]);
next = array1d(1..18 ,[15, 14, 5, 8, 16, 1, 10, 17, 11, 18, 12, 13, 2, 6, 3, 4, 7, 9]);
makespan = 349;
----------
assign = array1d(1..18 ,[5, 7, 4, 6, 3, 5, 8, 3, 7, 8, 1, 2, 3, 4, 5, 6, 7, 8]);
next = array1d(1..18 ,[15, 9, 14, 16, 13, 1, 10, 5, 17, 18, 12, 8, 3, 6, 4, 2, 7, 11]);
makespan = 348;
----------
assign = array1d(1..18 ,[2, 7, 8, 3, 6, 5, 6, 4, 7, 2, 1, 2, 3, 4, 5, 6, 7, 8]);
next = array1d(1..18 ,[10, 9, 18, 13, 16, 15, 5, 14, 17, 12, 1, 4, 8, 6, 7, 2, 3, 11]);
makespan = 347;
----------
assign = array1d(1..18 ,[5, 3, 5, 6, 6, 7, 8, 8, 4, 3, 1, 2, 3, 4, 5, 6, 7, 8]);
next = array1d(1..18 ,[15, 13, 1, 16, 4, 17, 18, 7, 14, 2, 12, 10, 9, 3, 5, 6, 8, 11]);
makespan = 346;
----------
assign = array1d(1..18 ,[5, 6, 5, 3, 6, 7, 2, 4, 8, 1, 1, 2, 3, 4, 5, 6, 7, 8]);
next = array1d(1..18 ,[15, 5, 1, 13, 16, 17, 12, 14, 18, 11, 7, 4, 8, 3, 2, 6, 9, 10]);
makespan = 345;
----------
assign = array1d(1..18 ,[4, 1, 2, 6, 5, 7, 8, 8, 3, 6, 1, 2, 3, 4, 5, 6, 7, 8]);
next = array1d(1..18 ,[14, 11, 12, 10, 15, 17, 18, 7, 13, 16, 3, 9, 1, 5, 4, 6, 8, 2]);
makespan = 343;
----------
assign = array1d(1..18 ,[1, 4, 2, 6, 5, 7, 8, 8, 5, 6, 1, 2, 3, 4, 5, 6, 7, 8]);
next = array1d(1..18 ,[11, 14, 12, 10, 15, 17, 18, 7, 5, 16, 3, 13, 2, 9, 4, 6, 8, 1]);
makespan = 342;
----------
assign = array1d(1..18 ,[5, 6, 2, 4, 6, 1, 8, 8, 7, 4, 1, 2, 3, 4, 5, 6, 7, 8]);
next = array1d(1..18 ,[15, 5, 12, 10, 16, 11, 18, 7, 17, 14, 3, 13, 4, 1, 2, 9, 8, 6]);
makespan = 340;
----------
assign = array1d(1..18 ,[7, 5, 4, 6, 3, 8, 8, 2, 5, 6, 1, 2, 3, 4, 5, 6, 7, 8]);
next = array1d(1..18 ,[17, 15, 14, 10, 13, 7, 18, 12, 2, 16, 8, 5, 3, 9, 4, 1, 6, 11]);
makespan = 339;
----------
assign = array1d(1..18 ,[1, 7, 8, 2, 5, 3, 4, 1, 6, 4, 1, 2, 3, 4, 5, 6, 7, 8]);
next = array1d(1..18 ,[8, 17, 18, 12, 15, 13, 14, 11, 16, 7, 4, 6, 10, 5, 9, 2, 3, 1]);
makespan = 338;
----------
assign = array1d(1..18 ,[1, 6, 3, 8, 6, 7, 4, 5, 2, 4, 1, 2, 3, 4, 5, 6, 7, 8]);
next = array1d(1..18 ,[11, 5, 13, 18, 16, 17, 14, 15, 12, 7, 9, 3, 10, 8, 2, 6, 4, 1]);
makespan = 337;
----------
assign = array1d(1..18 ,[1, 7, 8, 4, 6, 3, 6, 1, 7, 4, 1, 2, 3, 4, 5, 6, 7, 8]);
next = array1d(1..18 ,[8, 9, 18, 10, 7, 13, 16, 11, 17, 14, 12, 6, 4, 15, 5, 2, 3, 1]);
makespan = 336;
----------
assign = array1d(1..18 ,[1, 8, 3, 4, 6, 3, 6, 5, 7, 4, 1, 2, 3, 4, 5, 6, 7, 8]);
next = array1d(1..18 ,[11, 18, 6, 10, 7, 13, 16, 15, 17, 14, 12, 3, 4, 8, 5, 9, 2, 1]);
makespan = 335;
----------
assign = array1d(1..18 ,[8, 5, 3, 4, 6, 3, 6, 7, 5, 4, 1, 2, 3, 4, 5, 6, 7, 8]);
next = array1d(1..18 ,[18, 15, 6, 10, 16, 13, 5, 17, 2, 14, 12, 3, 4, 9, 7, 8, 1, 11]);
makespan = 334;
----------
assign = array1d(1..18 ,[1, 6, 2, 7, 5, 3, 6, 4, 7, 8, 1, 2, 3, 4, 5, 6, 7, 8]);
next = array1d(1..18 ,[11, 16, 12, 17, 15, 13, 2, 14, 4, 18, 3, 6, 8, 5, 7, 9, 10, 1]);
makespan = 333;
----------
assign = array1d(1..18 ,[1, 8, 4, 3, 6, 2, 6, 5, 7, 7, 1, 2, 3, 4, 5, 6, 7, 8]);
next = array1d(1..18 ,[11, 18, 14, 13, 7, 12, 16, 15, 10, 17, 6, 4, 3, 8, 5, 9, 2, 1]);
makespan = 332;
----------
assign = array1d(1..18 ,[5, 2, 5, 4, 7, 3, 1, 8, 6, 4, 1, 2, 3, 4, 5, 6, 7, 8]);
next = array1d(1..18 ,[15, 12, 1, 10, 17, 13, 11, 18, 16, 14, 2, 6, 4, 3, 9, 5, 8, 7]);
makespan = 331;
----------
assign = array1d(1..18 ,[8, 7, 3, 6, 2, 3, 6, 4, 7, 5, 1, 2, 3, 4, 5, 6, 7, 8]);
next = array1d(1..18 ,[18, 17, 6, 16, 12, 13, 4, 14, 2, 15, 5, 3, 8, 10, 7, 9, 1, 11]);
makespan = 330;
----------
assign = array1d(1..18 ,[2, 3, 7, 1, 6, 4, 2, 8, 5, 6, 1, 2, 3, 4, 5, 6, 7, 8]);
next = array1d(1..18 ,[7, 13, 17, 11, 16, 14, 12, 18, 15, 5, 1, 2, 6, 9, 10, 3, 8, 4]);
makespan = 329;
----------
assign = array1d(1..18 ,[2, 7, 5, 8, 6, 5, 2, 4, 7, 6, 1, 2, 3, 4, 5, 6, 7, 8]);
next = array1d(1..18 ,[7, 17, 15, 18, 16, 3, 12, 14, 2, 5, 1, 13, 8, 6, 10, 9, 4, 11]);
makespan = 328;
----------
assign = array1d(1..18 ,[3, 6, 2, 5, 6, 8, 8, 1, 7, 4, 1, 2, 3, 4, 5, 6, 7, 8]);
next = array1d(1..18 ,[13, 16, 12, 15, 2, 7, 18, 11, 17, 14, 3, 1, 10, 4, 5, 9, 6, 8]);
makespan = 327;
----------
assign = array1d(1..18 ,[4, 7, 8, 2, 5, 1, 6, 3, 7, 6, 1, 2, 3, 4, 5, 6, 7, 8]);
next = array1d(1..18 ,[14, 17, 18, 12, 15, 11, 10, 13, 2, 16, 4, 8, 1, 5, 7, 9, 3, 6]);
makespan = 326;
----------
assign = array1d(1..18 ,[8, 7, 1, 5, 3, 2, 6, 4, 7, 6, 1, 2, 3, 4, 5, 6, 7, 8]);
next = array1d(1..18 ,[18, 17, 11, 15, 13, 12, 10, 14, 2, 16, 6, 5, 8, 4, 7, 9, 1, 3]);
makespan = 325;
----------
assign = array1d(1..18 ,[3, 6, 2, 7, 1, 5, 6, 8, 5, 4, 1, 2, 3, 4, 5, 6, 7, 8]);
next = array1d(1..18 ,[13, 7, 12, 17, 11, 15, 16, 18, 6, 14, 3, 1, 10, 9, 2, 4, 8, 5]);
makespan = 324;
----------
assign = array1d(1..18 ,[7, 1, 5, 4, 3, 5, 6, 2, 8, 6, 1, 2, 3, 4, 5, 6, 7, 8]);
next = array1d(1..18 ,[17, 11, 15, 14, 13, 3, 10, 12, 18, 16, 8, 5, 4, 6, 7, 1, 9, 2]);
makespan = 323;
----------
assign = array1d(1..18 ,[2, 7, 4, 5, 1, 3, 6, 8, 7, 6, 1, 2, 3, 4, 5, 6, 7, 8]);
next = array1d(1..18 ,[12, 17, 14, 15, 11, 13, 10, 18, 2, 16, 1, 6, 3, 4, 7, 9, 8, 5]);
makespan = 322;
----------
assign = array1d(1..18 ,[3, 1, 5, 7, 6, 5, 6, 2, 4, 8, 1, 2, 3, 4, 5, 6, 7, 8]);
next = array1d(1..18 ,[13, 11, 15, 17, 16, 3, 5, 12, 14, 18, 8, 1, 9, 6, 7, 4, 10, 2]);
makespan = 321;
----------
assign = array1d(1..18 ,[3, 7, 5, 8, 6, 5, 6, 4, 7, 2, 1, 2, 3, 4, 5, 6, 7, 8]);
next = array1d(1..18 ,[13, 17, 15, 18, 16, 3, 5, 14, 2, 12, 10, 1, 8, 6, 7, 9, 4, 11]);
makespan = 320;
----------
==========
	Command being timed: "mzn-chuffed lbbd-datasets/Rabadi-2006/dzn-p-dominant/model.mzn lbbd-datasets/Rabadi-2006/dzn-p-dominant/10on8Rp50Rs50_5Ameer.dzn"
	User time (seconds): 1.19
	System time (seconds): 0.04
	Percent of CPU this job got: 26%
	Elapsed (wall clock) time (h:mm:ss or m:ss): 0:04.72
	Average shared text size (kbytes): 0
	Average unshared data size (kbytes): 0
	Average stack size (kbytes): 0
	Average total size (kbytes): 0
	Maximum resident set size (kbytes): 59776
	Average resident set size (kbytes): 0
	Major (requiring I/O) page faults: 0
	Minor (reclaiming a frame) page faults: 6024
	Voluntary context switches: 430
	Involuntary context switches: 7
	Swaps: 0
	File system inputs: 0
	File system outputs: 904
	Socket messages sent: 0
	Socket messages received: 0
	Signals delivered: 0
	Page size (bytes): 4096
	Exit status: 0
