+ /usr/bin/timeout 600 /usr/bin/time -v mzn-chuffed lbbd-datasets/Rabadi-2006/dzn-balanced/model.mzn lbbd-datasets/Rabadi-2006/dzn-balanced/7on2Rp50Rs50_8Ameer.dzn
% No search annotation given. Defaulting to VSIDS!
assign = array1d(1..9 ,[2, 2, 2, 2, 2, 2, 2, 1, 2]);
next = array1d(1..9 ,[2, 3, 4, 5, 6, 7, 9, 1, 8]);
makespan = 965;
----------
assign = array1d(1..9 ,[2, 2, 2, 2, 2, 2, 2, 1, 2]);
next = array1d(1..9 ,[4, 6, 2, 5, 3, 7, 9, 1, 8]);
makespan = 958;
----------
assign = array1d(1..9 ,[2, 2, 2, 2, 2, 2, 1, 1, 2]);
next = array1d(1..9 ,[3, 9, 6, 1, 2, 5, 8, 4, 7]);
makespan = 900;
----------
assign = array1d(1..9 ,[1, 2, 2, 2, 2, 2, 2, 1, 2]);
next = array1d(1..9 ,[8, 5, 6, 2, 7, 4, 9, 3, 1]);
makespan = 897;
----------
assign = array1d(1..9 ,[2, 2, 2, 1, 2, 2, 2, 1, 2]);
next = array1d(1..9 ,[6, 5, 2, 8, 9, 7, 3, 1, 4]);
makespan = 886;
----------
assign = array1d(1..9 ,[2, 2, 2, 1, 2, 2, 2, 1, 2]);
next = array1d(1..9 ,[6, 9, 5, 8, 1, 2, 3, 7, 4]);
makespan = 882;
----------
assign = array1d(1..9 ,[2, 2, 2, 2, 2, 1, 2, 1, 2]);
next = array1d(1..9 ,[2, 4, 9, 7, 1, 8, 3, 5, 6]);
makespan = 881;
----------
assign = array1d(1..9 ,[2, 2, 2, 1, 2, 2, 2, 1, 2]);
next = array1d(1..9 ,[2, 6, 5, 8, 1, 9, 3, 7, 4]);
makespan = 880;
----------
assign = array1d(1..9 ,[2, 2, 2, 1, 2, 2, 2, 1, 2]);
next = array1d(1..9 ,[2, 6, 5, 8, 1, 9, 3, 7, 4]);
makespan = 879;
----------
assign = array1d(1..9 ,[2, 2, 2, 1, 2, 2, 2, 1, 2]);
next = array1d(1..9 ,[2, 6, 5, 8, 1, 9, 3, 7, 4]);
makespan = 873;
----------
assign = array1d(1..9 ,[2, 2, 2, 1, 2, 2, 2, 1, 2]);
next = array1d(1..9 ,[2, 6, 5, 8, 1, 9, 3, 7, 4]);
makespan = 867;
----------
assign = array1d(1..9 ,[2, 2, 2, 1, 2, 2, 2, 1, 2]);
next = array1d(1..9 ,[2, 6, 5, 8, 1, 9, 3, 7, 4]);
makespan = 848;
----------
assign = array1d(1..9 ,[2, 2, 2, 1, 2, 1, 2, 1, 2]);
next = array1d(1..9 ,[2, 9, 5, 6, 1, 8, 3, 7, 4]);
makespan = 833;
----------
assign = array1d(1..9 ,[2, 2, 2, 1, 2, 1, 2, 1, 2]);
next = array1d(1..9 ,[2, 9, 5, 6, 1, 8, 3, 7, 4]);
makespan = 832;
----------
assign = array1d(1..9 ,[2, 2, 2, 1, 2, 1, 2, 1, 2]);
next = array1d(1..9 ,[2, 9, 5, 6, 1, 8, 3, 7, 4]);
makespan = 830;
----------
assign = array1d(1..9 ,[2, 2, 2, 1, 2, 1, 2, 1, 2]);
next = array1d(1..9 ,[2, 9, 5, 6, 1, 8, 3, 7, 4]);
makespan = 818;
----------
assign = array1d(1..9 ,[2, 2, 2, 1, 2, 1, 2, 1, 2]);
next = array1d(1..9 ,[2, 9, 5, 6, 1, 8, 3, 7, 4]);
makespan = 815;
----------
assign = array1d(1..9 ,[2, 2, 2, 1, 2, 1, 2, 1, 2]);
next = array1d(1..9 ,[2, 9, 5, 6, 1, 8, 3, 7, 4]);
makespan = 814;
----------
assign = array1d(1..9 ,[2, 2, 2, 1, 2, 1, 2, 1, 2]);
next = array1d(1..9 ,[2, 9, 5, 6, 1, 8, 3, 7, 4]);
makespan = 813;
----------
assign = array1d(1..9 ,[2, 2, 2, 1, 2, 1, 2, 1, 2]);
next = array1d(1..9 ,[2, 9, 5, 6, 1, 8, 3, 7, 4]);
makespan = 812;
----------
assign = array1d(1..9 ,[2, 2, 2, 1, 2, 1, 2, 1, 2]);
next = array1d(1..9 ,[2, 9, 5, 6, 1, 8, 3, 7, 4]);
makespan = 804;
----------
assign = array1d(1..9 ,[2, 2, 2, 1, 2, 1, 2, 1, 2]);
next = array1d(1..9 ,[2, 9, 5, 6, 1, 8, 3, 7, 4]);
makespan = 802;
----------
assign = array1d(1..9 ,[2, 2, 2, 1, 2, 1, 2, 1, 2]);
next = array1d(1..9 ,[2, 9, 5, 6, 1, 8, 3, 7, 4]);
makespan = 800;
----------
assign = array1d(1..9 ,[2, 2, 2, 1, 2, 1, 2, 1, 2]);
next = array1d(1..9 ,[2, 9, 5, 6, 1, 8, 3, 7, 4]);
makespan = 794;
----------
assign = array1d(1..9 ,[2, 2, 2, 1, 2, 1, 2, 1, 2]);
next = array1d(1..9 ,[2, 9, 5, 6, 1, 8, 3, 7, 4]);
makespan = 793;
----------
assign = array1d(1..9 ,[2, 2, 2, 1, 2, 1, 2, 1, 2]);
next = array1d(1..9 ,[2, 9, 5, 6, 1, 8, 3, 7, 4]);
makespan = 786;
----------
assign = array1d(1..9 ,[2, 2, 2, 1, 2, 1, 2, 1, 2]);
next = array1d(1..9 ,[2, 9, 5, 6, 1, 8, 3, 7, 4]);
makespan = 781;
----------
assign = array1d(1..9 ,[2, 2, 2, 1, 2, 1, 2, 1, 2]);
next = array1d(1..9 ,[2, 9, 5, 6, 1, 8, 3, 7, 4]);
makespan = 766;
----------
assign = array1d(1..9 ,[2, 2, 2, 1, 2, 1, 2, 1, 2]);
next = array1d(1..9 ,[2, 9, 5, 6, 1, 8, 3, 7, 4]);
makespan = 765;
----------
assign = array1d(1..9 ,[2, 2, 2, 1, 2, 1, 2, 1, 2]);
next = array1d(1..9 ,[2, 9, 5, 6, 1, 8, 3, 7, 4]);
makespan = 751;
----------
assign = array1d(1..9 ,[2, 2, 2, 1, 2, 1, 2, 1, 2]);
next = array1d(1..9 ,[2, 9, 5, 6, 1, 8, 3, 7, 4]);
makespan = 747;
----------
assign = array1d(1..9 ,[2, 2, 2, 1, 2, 1, 2, 1, 2]);
next = array1d(1..9 ,[2, 9, 5, 6, 1, 8, 3, 7, 4]);
makespan = 735;
----------
assign = array1d(1..9 ,[2, 2, 2, 1, 2, 1, 2, 1, 2]);
next = array1d(1..9 ,[2, 9, 5, 6, 1, 8, 3, 7, 4]);
makespan = 729;
----------
assign = array1d(1..9 ,[2, 2, 2, 1, 2, 1, 2, 1, 2]);
next = array1d(1..9 ,[2, 9, 5, 6, 1, 8, 3, 7, 4]);
makespan = 726;
----------
assign = array1d(1..9 ,[2, 2, 2, 1, 2, 1, 2, 1, 2]);
next = array1d(1..9 ,[2, 9, 5, 6, 1, 8, 3, 7, 4]);
makespan = 720;
----------
assign = array1d(1..9 ,[2, 2, 2, 1, 2, 1, 2, 1, 2]);
next = array1d(1..9 ,[2, 9, 5, 6, 1, 8, 3, 7, 4]);
makespan = 717;
----------
assign = array1d(1..9 ,[2, 2, 2, 1, 2, 1, 2, 1, 2]);
next = array1d(1..9 ,[2, 9, 5, 6, 1, 8, 3, 7, 4]);
makespan = 716;
----------
assign = array1d(1..9 ,[2, 2, 2, 1, 2, 1, 2, 1, 2]);
next = array1d(1..9 ,[2, 9, 5, 6, 1, 8, 3, 7, 4]);
makespan = 715;
----------
assign = array1d(1..9 ,[2, 2, 2, 1, 2, 1, 2, 1, 2]);
next = array1d(1..9 ,[2, 9, 5, 6, 1, 8, 3, 7, 4]);
makespan = 714;
----------
assign = array1d(1..9 ,[2, 2, 2, 1, 2, 1, 2, 1, 2]);
next = array1d(1..9 ,[2, 9, 5, 6, 1, 8, 3, 7, 4]);
makespan = 712;
----------
assign = array1d(1..9 ,[2, 1, 2, 1, 2, 1, 2, 1, 2]);
next = array1d(1..9 ,[9, 6, 5, 8, 1, 4, 3, 7, 2]);
makespan = 707;
----------
assign = array1d(1..9 ,[2, 1, 2, 1, 2, 1, 2, 1, 2]);
next = array1d(1..9 ,[9, 6, 5, 8, 1, 4, 3, 7, 2]);
makespan = 700;
----------
assign = array1d(1..9 ,[2, 1, 2, 1, 2, 1, 2, 1, 2]);
next = array1d(1..9 ,[9, 6, 5, 8, 1, 4, 3, 7, 2]);
makespan = 696;
----------
assign = array1d(1..9 ,[2, 1, 2, 1, 2, 1, 2, 1, 2]);
next = array1d(1..9 ,[9, 6, 5, 8, 1, 4, 3, 7, 2]);
makespan = 692;
----------
assign = array1d(1..9 ,[2, 1, 2, 1, 2, 1, 2, 1, 2]);
next = array1d(1..9 ,[9, 6, 5, 8, 1, 4, 3, 7, 2]);
makespan = 653;
----------
assign = array1d(1..9 ,[2, 1, 2, 1, 2, 1, 2, 1, 2]);
next = array1d(1..9 ,[9, 6, 5, 8, 1, 4, 3, 7, 2]);
makespan = 651;
----------
assign = array1d(1..9 ,[2, 1, 2, 1, 2, 1, 2, 1, 2]);
next = array1d(1..9 ,[9, 6, 5, 8, 1, 4, 3, 7, 2]);
makespan = 650;
----------
assign = array1d(1..9 ,[2, 1, 2, 1, 2, 1, 2, 1, 2]);
next = array1d(1..9 ,[9, 6, 5, 8, 1, 4, 3, 7, 2]);
makespan = 649;
----------
assign = array1d(1..9 ,[2, 1, 2, 1, 2, 1, 2, 1, 2]);
next = array1d(1..9 ,[9, 6, 5, 8, 1, 4, 3, 7, 2]);
makespan = 646;
----------
assign = array1d(1..9 ,[2, 1, 2, 1, 2, 1, 2, 1, 2]);
next = array1d(1..9 ,[9, 6, 5, 8, 1, 4, 3, 7, 2]);
makespan = 644;
----------
assign = array1d(1..9 ,[2, 1, 2, 1, 2, 1, 2, 1, 2]);
next = array1d(1..9 ,[9, 6, 5, 8, 1, 4, 3, 7, 2]);
makespan = 643;
----------
assign = array1d(1..9 ,[2, 1, 2, 1, 2, 1, 2, 1, 2]);
next = array1d(1..9 ,[9, 6, 5, 8, 1, 4, 3, 7, 2]);
makespan = 642;
----------
assign = array1d(1..9 ,[2, 1, 2, 1, 2, 1, 2, 1, 2]);
next = array1d(1..9 ,[9, 6, 5, 8, 1, 4, 3, 7, 2]);
makespan = 635;
----------
assign = array1d(1..9 ,[2, 1, 2, 1, 2, 1, 2, 1, 2]);
next = array1d(1..9 ,[9, 6, 5, 8, 1, 4, 3, 7, 2]);
makespan = 626;
----------
assign = array1d(1..9 ,[2, 1, 2, 1, 2, 1, 2, 1, 2]);
next = array1d(1..9 ,[9, 6, 5, 8, 1, 4, 3, 7, 2]);
makespan = 582;
----------
assign = array1d(1..9 ,[2, 1, 2, 1, 2, 1, 2, 1, 2]);
next = array1d(1..9 ,[9, 6, 5, 8, 1, 4, 3, 7, 2]);
makespan = 581;
----------
assign = array1d(1..9 ,[2, 1, 2, 1, 2, 1, 2, 1, 2]);
next = array1d(1..9 ,[9, 6, 5, 8, 1, 4, 3, 7, 2]);
makespan = 568;
----------
assign = array1d(1..9 ,[2, 1, 2, 1, 2, 1, 2, 1, 2]);
next = array1d(1..9 ,[9, 6, 5, 8, 1, 4, 3, 7, 2]);
makespan = 567;
----------
assign = array1d(1..9 ,[2, 1, 2, 1, 2, 1, 2, 1, 2]);
next = array1d(1..9 ,[9, 6, 5, 8, 1, 4, 3, 7, 2]);
makespan = 565;
----------
assign = array1d(1..9 ,[2, 1, 2, 1, 2, 1, 2, 1, 2]);
next = array1d(1..9 ,[9, 6, 1, 2, 7, 8, 3, 5, 4]);
makespan = 564;
----------
assign = array1d(1..9 ,[1, 1, 2, 2, 1, 1, 2, 1, 2]);
next = array1d(1..9 ,[2, 5, 9, 7, 6, 8, 3, 4, 1]);
makespan = 563;
----------
assign = array1d(1..9 ,[2, 1, 2, 2, 1, 1, 2, 1, 2]);
next = array1d(1..9 ,[9, 5, 4, 1, 6, 8, 3, 7, 2]);
makespan = 559;
----------
assign = array1d(1..9 ,[2, 1, 2, 2, 1, 1, 2, 1, 2]);
next = array1d(1..9 ,[9, 5, 4, 1, 6, 8, 3, 7, 2]);
makespan = 558;
----------
assign = array1d(1..9 ,[2, 1, 2, 2, 1, 1, 2, 1, 2]);
next = array1d(1..9 ,[9, 5, 4, 1, 6, 8, 3, 7, 2]);
makespan = 554;
----------
assign = array1d(1..9 ,[2, 1, 2, 2, 1, 1, 2, 1, 2]);
next = array1d(1..9 ,[9, 5, 4, 1, 6, 8, 3, 7, 2]);
makespan = 549;
----------
assign = array1d(1..9 ,[2, 1, 2, 2, 1, 1, 2, 1, 2]);
next = array1d(1..9 ,[9, 5, 4, 1, 6, 8, 3, 7, 2]);
makespan = 548;
----------
assign = array1d(1..9 ,[2, 1, 2, 2, 1, 1, 2, 1, 2]);
next = array1d(1..9 ,[9, 5, 4, 1, 6, 8, 3, 7, 2]);
makespan = 544;
----------
assign = array1d(1..9 ,[2, 1, 2, 1, 1, 1, 2, 1, 2]);
next = array1d(1..9 ,[9, 5, 1, 8, 6, 4, 3, 7, 2]);
makespan = 537;
----------
assign = array1d(1..9 ,[1, 1, 2, 2, 1, 2, 2, 1, 2]);
next = array1d(1..9 ,[8, 5, 4, 6, 1, 9, 3, 7, 2]);
makespan = 536;
----------
assign = array1d(1..9 ,[1, 2, 2, 1, 2, 1, 2, 1, 2]);
next = array1d(1..9 ,[4, 5, 2, 6, 9, 8, 3, 7, 1]);
makespan = 524;
----------
assign = array1d(1..9 ,[2, 2, 2, 1, 1, 1, 2, 1, 2]);
next = array1d(1..9 ,[9, 1, 2, 5, 6, 8, 3, 7, 4]);
makespan = 512;
----------
assign = array1d(1..9 ,[1, 1, 2, 1, 1, 2, 2, 1, 2]);
next = array1d(1..9 ,[2, 8, 9, 5, 1, 7, 3, 6, 4]);
makespan = 509;
----------
assign = array1d(1..9 ,[1, 1, 2, 1, 2, 1, 2, 1, 2]);
next = array1d(1..9 ,[4, 1, 5, 8, 9, 2, 3, 7, 6]);
makespan = 508;
----------
assign = array1d(1..9 ,[1, 2, 2, 1, 1, 2, 2, 1, 2]);
next = array1d(1..9 ,[4, 6, 2, 8, 1, 9, 3, 7, 5]);
makespan = 500;
----------
assign = array1d(1..9 ,[1, 2, 2, 1, 1, 2, 2, 1, 2]);
next = array1d(1..9 ,[4, 6, 2, 8, 1, 9, 3, 7, 5]);
makespan = 497;
----------
assign = array1d(1..9 ,[1, 2, 2, 1, 1, 1, 2, 1, 2]);
next = array1d(1..9 ,[6, 7, 9, 8, 1, 4, 3, 2, 5]);
makespan = 494;
----------
assign = array1d(1..9 ,[1, 2, 2, 1, 1, 1, 2, 1, 2]);
next = array1d(1..9 ,[8, 7, 9, 5, 1, 4, 3, 2, 6]);
makespan = 493;
----------
assign = array1d(1..9 ,[1, 2, 2, 1, 1, 1, 2, 1, 2]);
next = array1d(1..9 ,[8, 7, 9, 5, 1, 4, 3, 2, 6]);
makespan = 492;
----------
assign = array1d(1..9 ,[1, 2, 2, 1, 1, 1, 2, 1, 2]);
next = array1d(1..9 ,[8, 7, 9, 5, 1, 4, 3, 2, 6]);
makespan = 491;
----------
assign = array1d(1..9 ,[1, 2, 2, 1, 1, 1, 2, 1, 2]);
next = array1d(1..9 ,[8, 7, 9, 5, 1, 4, 3, 2, 6]);
makespan = 489;
----------
assign = array1d(1..9 ,[1, 2, 2, 1, 1, 1, 2, 1, 2]);
next = array1d(1..9 ,[8, 7, 9, 5, 1, 4, 3, 2, 6]);
makespan = 487;
----------
assign = array1d(1..9 ,[1, 2, 2, 1, 1, 1, 2, 1, 2]);
next = array1d(1..9 ,[8, 7, 9, 5, 1, 4, 3, 2, 6]);
makespan = 486;
----------
assign = array1d(1..9 ,[1, 2, 2, 1, 1, 1, 2, 1, 2]);
next = array1d(1..9 ,[8, 7, 9, 5, 1, 4, 3, 2, 6]);
makespan = 485;
----------
assign = array1d(1..9 ,[1, 2, 2, 1, 1, 1, 2, 1, 2]);
next = array1d(1..9 ,[8, 7, 9, 5, 1, 4, 3, 2, 6]);
makespan = 484;
----------
assign = array1d(1..9 ,[1, 2, 2, 1, 1, 1, 2, 1, 2]);
next = array1d(1..9 ,[8, 7, 9, 5, 1, 4, 3, 2, 6]);
makespan = 482;
----------
assign = array1d(1..9 ,[1, 2, 2, 1, 1, 1, 2, 1, 2]);
next = array1d(1..9 ,[8, 7, 9, 5, 1, 4, 3, 2, 6]);
makespan = 481;
----------
assign = array1d(1..9 ,[1, 2, 2, 1, 1, 1, 2, 1, 2]);
next = array1d(1..9 ,[8, 7, 9, 5, 1, 4, 3, 2, 6]);
makespan = 479;
----------
assign = array1d(1..9 ,[1, 2, 2, 1, 1, 1, 2, 1, 2]);
next = array1d(1..9 ,[8, 7, 9, 5, 1, 4, 3, 2, 6]);
makespan = 478;
----------
assign = array1d(1..9 ,[1, 2, 2, 1, 1, 2, 2, 1, 2]);
next = array1d(1..9 ,[8, 6, 9, 5, 1, 3, 2, 7, 4]);
makespan = 475;
----------
assign = array1d(1..9 ,[1, 2, 1, 1, 2, 2, 1, 1, 2]);
next = array1d(1..9 ,[8, 9, 1, 7, 6, 2, 3, 5, 4]);
makespan = 474;
----------
assign = array1d(1..9 ,[1, 2, 1, 1, 2, 2, 1, 1, 2]);
next = array1d(1..9 ,[8, 9, 1, 7, 6, 2, 3, 5, 4]);
makespan = 473;
----------
assign = array1d(1..9 ,[1, 2, 1, 1, 2, 2, 1, 1, 2]);
next = array1d(1..9 ,[8, 9, 1, 7, 6, 2, 3, 5, 4]);
makespan = 472;
----------
assign = array1d(1..9 ,[1, 2, 1, 1, 2, 2, 1, 1, 2]);
next = array1d(1..9 ,[8, 9, 1, 7, 6, 2, 3, 5, 4]);
makespan = 471;
----------
assign = array1d(1..9 ,[1, 2, 1, 1, 2, 2, 1, 1, 2]);
next = array1d(1..9 ,[8, 9, 1, 7, 6, 2, 3, 5, 4]);
makespan = 470;
----------
assign = array1d(1..9 ,[1, 2, 1, 1, 2, 2, 1, 1, 2]);
next = array1d(1..9 ,[8, 9, 1, 7, 6, 2, 3, 5, 4]);
makespan = 469;
----------
assign = array1d(1..9 ,[1, 2, 1, 1, 2, 2, 1, 1, 2]);
next = array1d(1..9 ,[8, 9, 1, 7, 6, 2, 3, 5, 4]);
makespan = 468;
----------
assign = array1d(1..9 ,[1, 2, 1, 1, 2, 2, 1, 1, 2]);
next = array1d(1..9 ,[8, 9, 1, 7, 6, 2, 3, 5, 4]);
makespan = 467;
----------
assign = array1d(1..9 ,[1, 2, 1, 1, 2, 2, 1, 1, 2]);
next = array1d(1..9 ,[8, 9, 1, 7, 6, 2, 3, 5, 4]);
makespan = 466;
----------
assign = array1d(1..9 ,[1, 2, 1, 1, 2, 2, 1, 1, 2]);
next = array1d(1..9 ,[8, 9, 1, 7, 6, 2, 3, 5, 4]);
makespan = 465;
----------
assign = array1d(1..9 ,[1, 2, 1, 1, 2, 2, 1, 1, 2]);
next = array1d(1..9 ,[8, 9, 1, 7, 6, 2, 3, 5, 4]);
makespan = 464;
----------
assign = array1d(1..9 ,[1, 2, 1, 1, 2, 2, 1, 1, 2]);
next = array1d(1..9 ,[8, 9, 1, 7, 6, 2, 3, 5, 4]);
makespan = 463;
----------
assign = array1d(1..9 ,[1, 2, 1, 1, 2, 2, 1, 1, 2]);
next = array1d(1..9 ,[8, 9, 1, 7, 6, 2, 3, 5, 4]);
makespan = 462;
----------
assign = array1d(1..9 ,[1, 2, 1, 1, 2, 2, 1, 1, 2]);
next = array1d(1..9 ,[8, 9, 1, 7, 6, 2, 3, 5, 4]);
makespan = 461;
----------
assign = array1d(1..9 ,[1, 2, 1, 1, 2, 2, 1, 1, 2]);
next = array1d(1..9 ,[8, 9, 1, 7, 6, 2, 3, 5, 4]);
makespan = 460;
----------
assign = array1d(1..9 ,[1, 2, 1, 1, 2, 2, 1, 1, 2]);
next = array1d(1..9 ,[8, 9, 1, 7, 6, 2, 3, 5, 4]);
makespan = 459;
----------
assign = array1d(1..9 ,[1, 2, 1, 1, 2, 2, 1, 1, 2]);
next = array1d(1..9 ,[8, 9, 1, 7, 6, 2, 3, 5, 4]);
makespan = 458;
----------
assign = array1d(1..9 ,[1, 2, 1, 1, 2, 2, 1, 1, 2]);
next = array1d(1..9 ,[8, 9, 1, 7, 6, 2, 3, 5, 4]);
makespan = 457;
----------
assign = array1d(1..9 ,[1, 2, 1, 1, 2, 2, 1, 1, 2]);
next = array1d(1..9 ,[8, 9, 1, 7, 6, 2, 3, 5, 4]);
makespan = 456;
----------
assign = array1d(1..9 ,[1, 2, 1, 1, 2, 2, 1, 1, 2]);
next = array1d(1..9 ,[8, 9, 1, 7, 6, 2, 3, 5, 4]);
makespan = 455;
----------
==========
	Command being timed: "mzn-chuffed lbbd-datasets/Rabadi-2006/dzn-balanced/model.mzn lbbd-datasets/Rabadi-2006/dzn-balanced/7on2Rp50Rs50_8Ameer.dzn"
	User time (seconds): 0.25
	System time (seconds): 0.01
	Percent of CPU this job got: 44%
	Elapsed (wall clock) time (h:mm:ss or m:ss): 0:00.60
	Average shared text size (kbytes): 0
	Average unshared data size (kbytes): 0
	Average stack size (kbytes): 0
	Average total size (kbytes): 0
	Maximum resident set size (kbytes): 30736
	Average resident set size (kbytes): 0
	Major (requiring I/O) page faults: 0
	Minor (reclaiming a frame) page faults: 2677
	Voluntary context switches: 112
	Involuntary context switches: 4
	Swaps: 0
	File system inputs: 0
	File system outputs: 152
	Socket messages sent: 0
	Socket messages received: 0
	Signals delivered: 0
	Page size (bytes): 4096
	Exit status: 0
