+ /usr/bin/timeout 600 /usr/bin/time -v mzn-chuffed lbbd-datasets/Rabadi-2006/dzn-p-dominant/model.mzn lbbd-datasets/Rabadi-2006/dzn-p-dominant/9on4Rp50Rs50_4Ameer.dzn
% No search annotation given. Defaulting to VSIDS!
assign = array1d(1..13 ,[4, 4, 4, 4, 4, 4, 4, 4, 4, 1, 2, 3, 4]);
next = array1d(1..13 ,[2, 3, 4, 5, 6, 7, 8, 9, 13, 11, 12, 1, 10]);
makespan = 1930;
----------
assign = array1d(1..13 ,[4, 4, 4, 4, 4, 4, 4, 4, 4, 1, 2, 3, 4]);
next = array1d(1..13 ,[4, 3, 5, 2, 6, 7, 8, 9, 13, 11, 12, 1, 10]);
makespan = 1904;
----------
assign = array1d(1..13 ,[4, 4, 4, 4, 4, 4, 4, 4, 1, 1, 2, 3, 4]);
next = array1d(1..13 ,[5, 4, 13, 6, 3, 7, 1, 2, 10, 11, 12, 8, 9]);
makespan = 1822;
----------
assign = array1d(1..13 ,[4, 4, 4, 4, 4, 4, 4, 4, 1, 1, 2, 3, 4]);
next = array1d(1..13 ,[5, 6, 1, 7, 13, 4, 3, 2, 10, 11, 12, 8, 9]);
makespan = 1803;
----------
assign = array1d(1..13 ,[4, 4, 4, 4, 4, 4, 4, 1, 4, 1, 2, 3, 4]);
next = array1d(1..13 ,[5, 6, 7, 1, 3, 9, 2, 10, 13, 11, 12, 4, 8]);
makespan = 1796;
----------
assign = array1d(1..13 ,[4, 4, 4, 4, 4, 4, 4, 1, 4, 1, 2, 3, 4]);
next = array1d(1..13 ,[5, 4, 1, 6, 9, 7, 3, 10, 13, 11, 12, 2, 8]);
makespan = 1795;
----------
assign = array1d(1..13 ,[4, 4, 4, 4, 3, 4, 4, 4, 4, 1, 2, 3, 4]);
next = array1d(1..13 ,[2, 3, 8, 9, 12, 1, 13, 4, 7, 11, 5, 6, 10]);
makespan = 1789;
----------
assign = array1d(1..13 ,[4, 1, 4, 4, 1, 4, 4, 4, 4, 1, 2, 3, 4]);
next = array1d(1..13 ,[13, 5, 8, 9, 10, 1, 6, 4, 7, 11, 12, 3, 2]);
makespan = 1787;
----------
assign = array1d(1..13 ,[4, 1, 4, 4, 1, 4, 4, 4, 4, 1, 2, 3, 4]);
next = array1d(1..13 ,[13, 5, 8, 9, 10, 1, 6, 4, 7, 11, 12, 3, 2]);
makespan = 1782;
----------
assign = array1d(1..13 ,[4, 1, 4, 4, 1, 4, 4, 4, 4, 1, 2, 3, 4]);
next = array1d(1..13 ,[13, 5, 8, 9, 10, 1, 6, 4, 7, 11, 12, 3, 2]);
makespan = 1771;
----------
assign = array1d(1..13 ,[4, 1, 4, 4, 1, 4, 4, 4, 4, 1, 2, 3, 4]);
next = array1d(1..13 ,[13, 5, 8, 9, 10, 1, 6, 4, 7, 11, 12, 3, 2]);
makespan = 1766;
----------
assign = array1d(1..13 ,[4, 1, 4, 4, 1, 4, 4, 4, 4, 1, 2, 3, 4]);
next = array1d(1..13 ,[13, 5, 8, 9, 10, 1, 6, 4, 7, 11, 12, 3, 2]);
makespan = 1760;
----------
assign = array1d(1..13 ,[4, 1, 4, 4, 1, 4, 4, 4, 4, 1, 2, 3, 4]);
next = array1d(1..13 ,[13, 5, 8, 9, 10, 1, 6, 4, 7, 11, 12, 3, 2]);
makespan = 1757;
----------
assign = array1d(1..13 ,[4, 1, 4, 4, 1, 4, 4, 4, 4, 1, 2, 3, 4]);
next = array1d(1..13 ,[13, 5, 8, 9, 10, 1, 6, 4, 7, 11, 12, 3, 2]);
makespan = 1690;
----------
assign = array1d(1..13 ,[4, 1, 4, 4, 1, 4, 4, 4, 4, 1, 2, 3, 4]);
next = array1d(1..13 ,[13, 5, 8, 9, 10, 1, 6, 4, 7, 11, 12, 3, 2]);
makespan = 1668;
----------
assign = array1d(1..13 ,[4, 1, 4, 4, 1, 4, 4, 4, 4, 1, 2, 3, 4]);
next = array1d(1..13 ,[13, 5, 8, 9, 10, 1, 6, 4, 7, 11, 12, 3, 2]);
makespan = 1662;
----------
assign = array1d(1..13 ,[4, 1, 4, 4, 1, 4, 4, 4, 4, 1, 2, 3, 4]);
next = array1d(1..13 ,[13, 5, 8, 9, 10, 1, 6, 4, 7, 11, 12, 3, 2]);
makespan = 1658;
----------
assign = array1d(1..13 ,[4, 1, 4, 4, 1, 4, 4, 4, 4, 1, 2, 3, 4]);
next = array1d(1..13 ,[13, 5, 8, 9, 10, 1, 6, 4, 7, 11, 12, 3, 2]);
makespan = 1655;
----------
assign = array1d(1..13 ,[4, 1, 4, 4, 1, 4, 4, 4, 4, 1, 2, 3, 4]);
next = array1d(1..13 ,[13, 5, 8, 9, 10, 1, 6, 4, 7, 11, 12, 3, 2]);
makespan = 1654;
----------
assign = array1d(1..13 ,[4, 1, 4, 4, 1, 4, 4, 4, 4, 1, 2, 3, 4]);
next = array1d(1..13 ,[13, 5, 8, 9, 10, 1, 6, 4, 7, 11, 12, 3, 2]);
makespan = 1641;
----------
assign = array1d(1..13 ,[4, 1, 4, 4, 1, 4, 4, 4, 4, 1, 2, 3, 4]);
next = array1d(1..13 ,[13, 5, 8, 9, 10, 1, 6, 4, 7, 11, 12, 3, 2]);
makespan = 1639;
----------
assign = array1d(1..13 ,[4, 1, 4, 4, 1, 4, 4, 4, 4, 1, 2, 3, 4]);
next = array1d(1..13 ,[13, 5, 8, 9, 10, 1, 6, 4, 7, 11, 12, 3, 2]);
makespan = 1633;
----------
assign = array1d(1..13 ,[4, 1, 4, 4, 1, 4, 4, 4, 4, 1, 2, 3, 4]);
next = array1d(1..13 ,[13, 5, 8, 9, 10, 1, 6, 4, 7, 11, 12, 3, 2]);
makespan = 1631;
----------
assign = array1d(1..13 ,[4, 1, 4, 4, 1, 4, 4, 4, 4, 1, 2, 3, 4]);
next = array1d(1..13 ,[13, 5, 8, 9, 10, 1, 6, 4, 7, 11, 12, 3, 2]);
makespan = 1630;
----------
assign = array1d(1..13 ,[4, 1, 4, 4, 1, 4, 4, 4, 4, 1, 2, 3, 4]);
next = array1d(1..13 ,[13, 5, 8, 9, 10, 1, 6, 4, 7, 11, 12, 3, 2]);
makespan = 1626;
----------
assign = array1d(1..13 ,[4, 1, 4, 4, 1, 4, 4, 4, 4, 1, 2, 3, 4]);
next = array1d(1..13 ,[13, 5, 8, 9, 10, 1, 6, 4, 7, 11, 12, 3, 2]);
makespan = 1625;
----------
assign = array1d(1..13 ,[4, 1, 4, 4, 1, 4, 4, 4, 4, 1, 2, 3, 4]);
next = array1d(1..13 ,[13, 5, 8, 9, 10, 1, 6, 4, 7, 11, 12, 3, 2]);
makespan = 1618;
----------
assign = array1d(1..13 ,[4, 1, 4, 4, 1, 4, 4, 4, 4, 1, 2, 3, 4]);
next = array1d(1..13 ,[13, 5, 8, 9, 10, 1, 6, 4, 7, 11, 12, 3, 2]);
makespan = 1609;
----------
assign = array1d(1..13 ,[4, 1, 4, 4, 1, 4, 4, 4, 4, 1, 2, 3, 4]);
next = array1d(1..13 ,[13, 5, 8, 9, 10, 1, 6, 4, 7, 11, 12, 3, 2]);
makespan = 1606;
----------
assign = array1d(1..13 ,[4, 1, 4, 4, 1, 4, 4, 4, 4, 1, 2, 3, 4]);
next = array1d(1..13 ,[13, 5, 8, 9, 10, 1, 6, 4, 7, 11, 12, 3, 2]);
makespan = 1596;
----------
assign = array1d(1..13 ,[4, 1, 4, 4, 1, 4, 4, 4, 4, 1, 2, 3, 4]);
next = array1d(1..13 ,[13, 5, 8, 9, 10, 1, 6, 4, 7, 11, 12, 3, 2]);
makespan = 1566;
----------
assign = array1d(1..13 ,[4, 1, 4, 4, 1, 4, 4, 4, 4, 1, 2, 3, 4]);
next = array1d(1..13 ,[3, 5, 8, 9, 10, 1, 13, 4, 7, 11, 12, 6, 2]);
makespan = 1563;
----------
assign = array1d(1..13 ,[4, 1, 4, 4, 1, 4, 4, 4, 4, 1, 2, 3, 4]);
next = array1d(1..13 ,[4, 5, 8, 9, 10, 1, 3, 13, 7, 11, 12, 6, 2]);
makespan = 1562;
----------
assign = array1d(1..13 ,[4, 1, 4, 4, 1, 4, 4, 4, 4, 1, 2, 3, 4]);
next = array1d(1..13 ,[4, 5, 8, 9, 10, 1, 13, 6, 7, 11, 12, 3, 2]);
makespan = 1551;
----------
assign = array1d(1..13 ,[4, 1, 4, 4, 1, 4, 4, 4, 4, 1, 2, 3, 4]);
next = array1d(1..13 ,[4, 5, 8, 9, 10, 1, 13, 6, 7, 11, 12, 3, 2]);
makespan = 1541;
----------
assign = array1d(1..13 ,[4, 1, 4, 4, 1, 4, 4, 4, 4, 1, 2, 3, 4]);
next = array1d(1..13 ,[4, 5, 8, 9, 10, 1, 13, 6, 7, 11, 12, 3, 2]);
makespan = 1526;
----------
assign = array1d(1..13 ,[1, 1, 4, 4, 1, 4, 4, 4, 4, 1, 2, 3, 4]);
next = array1d(1..13 ,[5, 1, 8, 9, 10, 13, 6, 4, 7, 11, 12, 3, 2]);
makespan = 1524;
----------
assign = array1d(1..13 ,[1, 1, 4, 4, 1, 4, 4, 4, 4, 1, 2, 3, 4]);
next = array1d(1..13 ,[5, 1, 8, 9, 10, 13, 6, 4, 7, 11, 12, 3, 2]);
makespan = 1516;
----------
assign = array1d(1..13 ,[1, 1, 4, 4, 1, 4, 4, 4, 4, 1, 2, 3, 4]);
next = array1d(1..13 ,[5, 1, 8, 9, 10, 13, 6, 4, 7, 11, 12, 3, 2]);
makespan = 1514;
----------
assign = array1d(1..13 ,[1, 1, 4, 4, 1, 4, 4, 4, 4, 1, 2, 3, 4]);
next = array1d(1..13 ,[5, 1, 8, 9, 10, 13, 6, 4, 7, 11, 12, 3, 2]);
makespan = 1498;
----------
assign = array1d(1..13 ,[1, 1, 4, 4, 1, 4, 4, 4, 4, 1, 2, 3, 4]);
next = array1d(1..13 ,[5, 1, 8, 9, 10, 13, 6, 4, 7, 11, 12, 3, 2]);
makespan = 1495;
----------
assign = array1d(1..13 ,[1, 1, 4, 4, 1, 4, 4, 4, 4, 1, 2, 3, 4]);
next = array1d(1..13 ,[5, 1, 8, 9, 10, 13, 6, 4, 7, 11, 12, 3, 2]);
makespan = 1491;
----------
assign = array1d(1..13 ,[1, 1, 4, 4, 1, 4, 4, 4, 4, 1, 2, 3, 4]);
next = array1d(1..13 ,[5, 1, 8, 9, 10, 13, 6, 4, 7, 11, 12, 3, 2]);
makespan = 1490;
----------
assign = array1d(1..13 ,[1, 1, 4, 4, 1, 4, 4, 4, 4, 1, 2, 3, 4]);
next = array1d(1..13 ,[5, 1, 8, 9, 10, 13, 6, 4, 7, 11, 12, 3, 2]);
makespan = 1486;
----------
assign = array1d(1..13 ,[1, 1, 4, 4, 1, 4, 4, 4, 4, 1, 2, 3, 4]);
next = array1d(1..13 ,[5, 1, 8, 9, 10, 13, 6, 4, 7, 11, 12, 3, 2]);
makespan = 1485;
----------
assign = array1d(1..13 ,[1, 1, 4, 4, 1, 4, 4, 4, 4, 1, 2, 3, 4]);
next = array1d(1..13 ,[5, 1, 8, 9, 10, 13, 6, 4, 7, 11, 12, 3, 2]);
makespan = 1483;
----------
assign = array1d(1..13 ,[1, 1, 4, 4, 1, 4, 4, 4, 4, 1, 2, 3, 4]);
next = array1d(1..13 ,[5, 1, 8, 9, 10, 13, 6, 4, 7, 11, 12, 3, 2]);
makespan = 1482;
----------
assign = array1d(1..13 ,[1, 1, 4, 4, 1, 4, 4, 4, 4, 1, 2, 3, 4]);
next = array1d(1..13 ,[5, 1, 8, 9, 10, 13, 6, 4, 7, 11, 12, 3, 2]);
makespan = 1481;
----------
assign = array1d(1..13 ,[1, 1, 4, 4, 1, 4, 4, 4, 4, 1, 2, 3, 4]);
next = array1d(1..13 ,[5, 1, 8, 9, 10, 13, 6, 4, 7, 11, 12, 3, 2]);
makespan = 1480;
----------
assign = array1d(1..13 ,[1, 1, 4, 4, 1, 4, 4, 4, 4, 1, 2, 3, 4]);
next = array1d(1..13 ,[5, 1, 8, 9, 10, 13, 6, 4, 7, 11, 12, 3, 2]);
makespan = 1477;
----------
assign = array1d(1..13 ,[1, 1, 4, 4, 1, 4, 4, 4, 4, 1, 2, 3, 4]);
next = array1d(1..13 ,[5, 1, 8, 9, 10, 13, 6, 4, 7, 11, 12, 3, 2]);
makespan = 1473;
----------
assign = array1d(1..13 ,[1, 1, 4, 4, 1, 4, 4, 4, 4, 1, 2, 3, 4]);
next = array1d(1..13 ,[5, 1, 8, 9, 10, 13, 6, 4, 7, 11, 12, 3, 2]);
makespan = 1469;
----------
assign = array1d(1..13 ,[1, 1, 4, 4, 1, 4, 4, 4, 4, 1, 2, 3, 4]);
next = array1d(1..13 ,[5, 1, 8, 9, 10, 13, 6, 4, 7, 11, 12, 3, 2]);
makespan = 1466;
----------
assign = array1d(1..13 ,[1, 1, 4, 4, 1, 4, 4, 4, 4, 1, 2, 3, 4]);
next = array1d(1..13 ,[5, 1, 8, 9, 10, 13, 6, 4, 7, 11, 12, 3, 2]);
makespan = 1460;
----------
assign = array1d(1..13 ,[1, 1, 4, 4, 1, 4, 4, 4, 4, 1, 2, 3, 4]);
next = array1d(1..13 ,[5, 1, 8, 9, 10, 13, 6, 4, 7, 11, 12, 3, 2]);
makespan = 1456;
----------
assign = array1d(1..13 ,[1, 1, 4, 4, 1, 4, 4, 4, 4, 1, 2, 3, 4]);
next = array1d(1..13 ,[5, 1, 8, 9, 10, 13, 6, 4, 7, 11, 12, 3, 2]);
makespan = 1448;
----------
assign = array1d(1..13 ,[1, 1, 4, 4, 1, 4, 4, 4, 4, 1, 2, 3, 4]);
next = array1d(1..13 ,[5, 1, 8, 9, 10, 13, 6, 4, 7, 11, 12, 3, 2]);
makespan = 1423;
----------
assign = array1d(1..13 ,[1, 1, 4, 4, 1, 4, 4, 4, 4, 1, 2, 3, 4]);
next = array1d(1..13 ,[5, 1, 8, 9, 10, 13, 6, 4, 7, 11, 12, 3, 2]);
makespan = 1408;
----------
assign = array1d(1..13 ,[1, 1, 4, 4, 1, 4, 4, 4, 4, 1, 2, 3, 4]);
next = array1d(1..13 ,[5, 1, 8, 9, 10, 13, 6, 4, 7, 11, 12, 3, 2]);
makespan = 1399;
----------
assign = array1d(1..13 ,[1, 1, 4, 4, 1, 4, 4, 4, 4, 1, 2, 3, 4]);
next = array1d(1..13 ,[5, 1, 8, 9, 10, 13, 6, 4, 7, 11, 12, 3, 2]);
makespan = 1393;
----------
assign = array1d(1..13 ,[1, 1, 4, 4, 1, 4, 4, 4, 4, 1, 2, 3, 4]);
next = array1d(1..13 ,[5, 1, 8, 9, 10, 13, 6, 4, 7, 11, 12, 3, 2]);
makespan = 1375;
----------
assign = array1d(1..13 ,[1, 1, 4, 4, 1, 4, 4, 4, 4, 1, 2, 3, 4]);
next = array1d(1..13 ,[5, 1, 8, 9, 10, 13, 6, 4, 7, 11, 12, 3, 2]);
makespan = 1356;
----------
assign = array1d(1..13 ,[1, 1, 4, 4, 1, 4, 4, 4, 4, 1, 2, 3, 4]);
next = array1d(1..13 ,[5, 1, 8, 9, 10, 13, 6, 4, 7, 11, 12, 3, 2]);
makespan = 1354;
----------
assign = array1d(1..13 ,[1, 1, 4, 4, 1, 4, 4, 4, 4, 1, 2, 3, 4]);
next = array1d(1..13 ,[5, 1, 8, 9, 10, 13, 6, 4, 7, 11, 12, 3, 2]);
makespan = 1353;
----------
assign = array1d(1..13 ,[1, 1, 4, 4, 1, 4, 4, 4, 4, 1, 2, 3, 4]);
next = array1d(1..13 ,[5, 1, 8, 9, 10, 3, 6, 13, 7, 11, 12, 4, 2]);
makespan = 1350;
----------
assign = array1d(1..13 ,[1, 1, 4, 4, 1, 4, 4, 4, 4, 1, 2, 3, 4]);
next = array1d(1..13 ,[5, 1, 8, 9, 10, 3, 6, 13, 7, 11, 12, 4, 2]);
makespan = 1348;
----------
assign = array1d(1..13 ,[1, 1, 4, 4, 1, 4, 4, 4, 4, 1, 2, 3, 4]);
next = array1d(1..13 ,[5, 1, 8, 9, 10, 3, 6, 13, 7, 11, 12, 4, 2]);
makespan = 1337;
----------
assign = array1d(1..13 ,[1, 1, 4, 4, 1, 4, 4, 4, 4, 1, 2, 3, 4]);
next = array1d(1..13 ,[5, 1, 8, 9, 10, 3, 6, 13, 7, 11, 12, 4, 2]);
makespan = 1336;
----------
assign = array1d(1..13 ,[1, 1, 4, 4, 1, 4, 4, 4, 4, 1, 2, 3, 4]);
next = array1d(1..13 ,[5, 1, 8, 9, 10, 3, 6, 13, 7, 11, 12, 4, 2]);
makespan = 1331;
----------
assign = array1d(1..13 ,[1, 1, 4, 4, 1, 4, 4, 4, 4, 1, 2, 3, 4]);
next = array1d(1..13 ,[5, 1, 8, 9, 10, 3, 6, 13, 7, 11, 12, 4, 2]);
makespan = 1327;
----------
assign = array1d(1..13 ,[1, 1, 4, 4, 1, 4, 4, 4, 4, 1, 2, 3, 4]);
next = array1d(1..13 ,[5, 1, 8, 9, 10, 3, 13, 4, 7, 11, 12, 6, 2]);
makespan = 1323;
----------
assign = array1d(1..13 ,[1, 1, 4, 4, 1, 4, 4, 4, 4, 1, 2, 3, 4]);
next = array1d(1..13 ,[5, 1, 8, 9, 10, 3, 13, 4, 7, 11, 12, 6, 2]);
makespan = 1319;
----------
assign = array1d(1..13 ,[1, 1, 4, 4, 1, 4, 4, 4, 4, 1, 2, 3, 4]);
next = array1d(1..13 ,[5, 1, 8, 9, 10, 3, 13, 4, 7, 11, 12, 6, 2]);
makespan = 1318;
----------
assign = array1d(1..13 ,[1, 1, 4, 4, 1, 4, 4, 4, 4, 1, 2, 3, 4]);
next = array1d(1..13 ,[5, 1, 8, 9, 10, 3, 13, 4, 7, 11, 12, 6, 2]);
makespan = 1315;
----------
assign = array1d(1..13 ,[1, 1, 4, 4, 1, 4, 4, 4, 4, 1, 2, 3, 4]);
next = array1d(1..13 ,[5, 1, 8, 9, 10, 3, 13, 4, 7, 11, 12, 6, 2]);
makespan = 1314;
----------
assign = array1d(1..13 ,[4, 1, 4, 4, 1, 1, 4, 4, 4, 1, 2, 3, 4]);
next = array1d(1..13 ,[4, 10, 8, 9, 2, 5, 13, 1, 7, 11, 12, 3, 6]);
makespan = 1313;
----------
assign = array1d(1..13 ,[4, 1, 4, 4, 1, 1, 4, 4, 4, 1, 2, 3, 4]);
next = array1d(1..13 ,[4, 10, 8, 9, 2, 5, 13, 1, 7, 11, 12, 3, 6]);
makespan = 1312;
----------
assign = array1d(1..13 ,[4, 1, 4, 4, 1, 1, 4, 4, 4, 1, 2, 3, 4]);
next = array1d(1..13 ,[4, 10, 8, 9, 2, 5, 13, 1, 7, 11, 12, 3, 6]);
makespan = 1296;
----------
assign = array1d(1..13 ,[1, 1, 4, 4, 1, 1, 4, 4, 4, 1, 2, 3, 4]);
next = array1d(1..13 ,[6, 10, 8, 9, 2, 5, 3, 13, 7, 11, 12, 4, 1]);
makespan = 1293;
----------
assign = array1d(1..13 ,[1, 1, 4, 4, 1, 1, 4, 4, 4, 1, 2, 3, 4]);
next = array1d(1..13 ,[6, 5, 8, 9, 10, 2, 3, 13, 7, 11, 12, 4, 1]);
makespan = 1286;
----------
assign = array1d(1..13 ,[1, 1, 4, 4, 1, 1, 4, 4, 4, 1, 2, 3, 4]);
next = array1d(1..13 ,[6, 5, 8, 9, 10, 2, 3, 13, 7, 11, 12, 4, 1]);
makespan = 1273;
----------
assign = array1d(1..13 ,[1, 1, 4, 4, 1, 1, 4, 4, 4, 1, 2, 3, 4]);
next = array1d(1..13 ,[6, 5, 8, 9, 10, 2, 3, 13, 7, 11, 12, 4, 1]);
makespan = 1257;
----------
assign = array1d(1..13 ,[1, 1, 4, 4, 1, 1, 4, 4, 4, 1, 2, 3, 4]);
next = array1d(1..13 ,[6, 5, 8, 9, 10, 2, 3, 13, 7, 11, 12, 4, 1]);
makespan = 1250;
----------
assign = array1d(1..13 ,[1, 1, 4, 4, 1, 1, 4, 4, 4, 1, 2, 3, 4]);
next = array1d(1..13 ,[6, 5, 8, 9, 10, 2, 3, 13, 7, 11, 12, 4, 1]);
makespan = 1234;
----------
assign = array1d(1..13 ,[1, 1, 4, 4, 1, 1, 4, 4, 4, 1, 2, 3, 4]);
next = array1d(1..13 ,[6, 5, 8, 9, 10, 2, 3, 13, 7, 11, 12, 4, 1]);
makespan = 1226;
----------
assign = array1d(1..13 ,[1, 1, 4, 4, 1, 1, 4, 4, 4, 1, 2, 3, 4]);
next = array1d(1..13 ,[6, 5, 8, 9, 10, 2, 3, 13, 7, 11, 12, 4, 1]);
makespan = 1210;
----------
assign = array1d(1..13 ,[1, 1, 4, 4, 1, 1, 4, 4, 4, 1, 2, 3, 4]);
next = array1d(1..13 ,[6, 5, 8, 9, 10, 2, 3, 13, 7, 11, 12, 4, 1]);
makespan = 1202;
----------
assign = array1d(1..13 ,[1, 1, 4, 4, 1, 1, 4, 4, 4, 1, 2, 3, 4]);
next = array1d(1..13 ,[6, 5, 8, 9, 10, 2, 3, 13, 7, 11, 12, 4, 1]);
makespan = 1197;
----------
assign = array1d(1..13 ,[1, 1, 4, 4, 1, 1, 4, 4, 4, 1, 2, 3, 4]);
next = array1d(1..13 ,[6, 5, 8, 9, 10, 2, 3, 13, 7, 11, 12, 4, 1]);
makespan = 1190;
----------
assign = array1d(1..13 ,[1, 1, 4, 4, 1, 1, 4, 4, 4, 1, 2, 3, 4]);
next = array1d(1..13 ,[6, 5, 8, 9, 10, 2, 3, 13, 7, 11, 12, 4, 1]);
makespan = 1184;
----------
assign = array1d(1..13 ,[1, 1, 4, 4, 1, 1, 4, 4, 4, 1, 2, 3, 4]);
next = array1d(1..13 ,[6, 5, 8, 9, 10, 2, 3, 13, 7, 11, 12, 4, 1]);
makespan = 1183;
----------
assign = array1d(1..13 ,[1, 1, 4, 4, 1, 1, 4, 4, 4, 1, 2, 3, 4]);
next = array1d(1..13 ,[6, 5, 8, 9, 10, 2, 3, 13, 7, 11, 12, 4, 1]);
makespan = 1180;
----------
assign = array1d(1..13 ,[1, 1, 4, 4, 1, 1, 4, 4, 4, 1, 2, 3, 4]);
next = array1d(1..13 ,[6, 5, 8, 9, 10, 2, 3, 13, 7, 11, 12, 4, 1]);
makespan = 1177;
----------
assign = array1d(1..13 ,[1, 1, 4, 4, 1, 1, 4, 4, 4, 1, 2, 3, 4]);
next = array1d(1..13 ,[6, 5, 8, 9, 10, 2, 3, 13, 7, 11, 12, 4, 1]);
makespan = 1163;
----------
assign = array1d(1..13 ,[1, 1, 4, 4, 1, 1, 4, 4, 4, 1, 2, 3, 4]);
next = array1d(1..13 ,[6, 5, 8, 9, 10, 2, 3, 13, 7, 11, 12, 4, 1]);
makespan = 1161;
----------
assign = array1d(1..13 ,[1, 1, 4, 4, 1, 1, 4, 4, 4, 1, 2, 3, 4]);
next = array1d(1..13 ,[6, 5, 8, 9, 10, 2, 3, 13, 7, 11, 12, 4, 1]);
makespan = 1158;
----------
assign = array1d(1..13 ,[1, 1, 4, 4, 1, 1, 4, 4, 4, 1, 2, 3, 4]);
next = array1d(1..13 ,[6, 5, 8, 9, 10, 2, 3, 13, 7, 11, 12, 4, 1]);
makespan = 1151;
----------
assign = array1d(1..13 ,[1, 1, 4, 4, 1, 1, 4, 4, 4, 1, 2, 3, 4]);
next = array1d(1..13 ,[6, 5, 8, 9, 10, 2, 3, 13, 7, 11, 12, 4, 1]);
makespan = 1148;
----------
assign = array1d(1..13 ,[1, 1, 4, 4, 1, 1, 4, 4, 4, 1, 2, 3, 4]);
next = array1d(1..13 ,[6, 5, 8, 9, 10, 2, 3, 13, 7, 11, 12, 4, 1]);
makespan = 1145;
----------
assign = array1d(1..13 ,[1, 1, 4, 4, 1, 1, 4, 4, 4, 1, 2, 3, 4]);
next = array1d(1..13 ,[6, 5, 8, 9, 10, 2, 3, 13, 7, 11, 12, 4, 1]);
makespan = 1109;
----------
assign = array1d(1..13 ,[1, 1, 4, 4, 1, 1, 4, 4, 4, 1, 2, 3, 4]);
next = array1d(1..13 ,[6, 5, 8, 9, 10, 2, 13, 4, 7, 11, 12, 3, 1]);
makespan = 1090;
----------
assign = array1d(1..13 ,[4, 4, 3, 4, 3, 3, 4, 3, 4, 1, 2, 3, 4]);
next = array1d(1..13 ,[4, 1, 5, 9, 6, 12, 13, 3, 7, 11, 8, 2, 10]);
makespan = 1081;
----------
assign = array1d(1..13 ,[1, 1, 4, 4, 1, 1, 4, 4, 4, 1, 2, 3, 4]);
next = array1d(1..13 ,[5, 6, 8, 3, 2, 10, 4, 13, 7, 11, 12, 9, 1]);
makespan = 1061;
----------
assign = array1d(1..13 ,[1, 1, 4, 4, 1, 1, 4, 4, 4, 1, 2, 3, 4]);
next = array1d(1..13 ,[5, 6, 8, 3, 2, 10, 4, 13, 7, 11, 12, 9, 1]);
makespan = 1054;
----------
assign = array1d(1..13 ,[1, 1, 4, 4, 1, 1, 4, 4, 4, 1, 2, 3, 4]);
next = array1d(1..13 ,[5, 6, 8, 3, 2, 10, 4, 13, 7, 11, 12, 9, 1]);
makespan = 1051;
----------
assign = array1d(1..13 ,[1, 1, 4, 4, 1, 1, 4, 4, 4, 1, 2, 3, 4]);
next = array1d(1..13 ,[5, 6, 8, 3, 2, 10, 13, 9, 7, 11, 12, 4, 1]);
makespan = 1048;
----------
assign = array1d(1..13 ,[1, 1, 4, 4, 1, 1, 4, 4, 4, 1, 2, 3, 4]);
next = array1d(1..13 ,[5, 6, 8, 3, 2, 10, 13, 9, 7, 11, 12, 4, 1]);
makespan = 1042;
----------
assign = array1d(1..13 ,[1, 1, 4, 4, 1, 1, 4, 4, 4, 1, 2, 3, 4]);
next = array1d(1..13 ,[5, 6, 8, 3, 2, 10, 13, 9, 7, 11, 12, 4, 1]);
makespan = 1037;
----------
assign = array1d(1..13 ,[1, 1, 4, 4, 1, 1, 4, 4, 4, 1, 2, 3, 4]);
next = array1d(1..13 ,[5, 6, 8, 3, 2, 10, 13, 9, 7, 11, 12, 4, 1]);
makespan = 1036;
----------
assign = array1d(1..13 ,[1, 1, 4, 1, 4, 1, 4, 4, 4, 1, 2, 3, 4]);
next = array1d(1..13 ,[4, 6, 8, 2, 13, 10, 5, 9, 7, 11, 12, 3, 1]);
makespan = 1021;
----------
assign = array1d(1..13 ,[3, 3, 4, 2, 2, 2, 4, 4, 4, 1, 2, 3, 4]);
next = array1d(1..13 ,[2, 12, 8, 5, 11, 4, 13, 9, 7, 6, 1, 3, 10]);
makespan = 1020;
----------
assign = array1d(1..13 ,[3, 3, 4, 2, 2, 2, 4, 4, 4, 1, 2, 3, 4]);
next = array1d(1..13 ,[2, 12, 8, 5, 11, 4, 3, 13, 7, 6, 1, 9, 10]);
makespan = 1015;
----------
assign = array1d(1..13 ,[3, 3, 4, 3, 3, 3, 4, 4, 4, 1, 2, 3, 4]);
next = array1d(1..13 ,[2, 6, 8, 5, 1, 12, 3, 13, 7, 11, 4, 9, 10]);
makespan = 1014;
----------
assign = array1d(1..13 ,[3, 3, 4, 3, 3, 3, 4, 4, 4, 1, 2, 3, 4]);
next = array1d(1..13 ,[2, 6, 8, 5, 1, 12, 3, 13, 7, 11, 4, 9, 10]);
makespan = 1010;
----------
assign = array1d(1..13 ,[3, 3, 4, 3, 3, 3, 4, 4, 4, 1, 2, 3, 4]);
next = array1d(1..13 ,[2, 6, 8, 5, 1, 12, 3, 13, 7, 11, 4, 9, 10]);
makespan = 1009;
----------
assign = array1d(1..13 ,[3, 3, 4, 3, 3, 2, 4, 4, 4, 1, 2, 3, 4]);
next = array1d(1..13 ,[2, 12, 8, 5, 1, 11, 3, 13, 7, 6, 4, 9, 10]);
makespan = 1004;
----------
assign = array1d(1..13 ,[4, 4, 3, 4, 3, 3, 4, 3, 4, 1, 2, 3, 4]);
next = array1d(1..13 ,[9, 1, 8, 13, 3, 12, 4, 6, 7, 11, 5, 2, 10]);
makespan = 1002;
----------
assign = array1d(1..13 ,[3, 3, 1, 4, 3, 4, 4, 3, 4, 1, 2, 3, 4]);
next = array1d(1..13 ,[2, 8, 10, 9, 1, 4, 13, 12, 7, 11, 5, 6, 3]);
makespan = 988;
----------
assign = array1d(1..13 ,[3, 3, 1, 4, 3, 4, 4, 3, 4, 1, 2, 3, 4]);
next = array1d(1..13 ,[2, 8, 10, 9, 1, 4, 13, 12, 7, 11, 5, 6, 3]);
makespan = 985;
----------
assign = array1d(1..13 ,[3, 3, 1, 4, 3, 4, 4, 3, 4, 1, 2, 3, 4]);
next = array1d(1..13 ,[2, 8, 10, 9, 1, 4, 13, 12, 7, 11, 5, 6, 3]);
makespan = 974;
----------
assign = array1d(1..13 ,[3, 3, 1, 4, 3, 4, 4, 3, 4, 1, 2, 3, 4]);
next = array1d(1..13 ,[2, 8, 10, 9, 1, 4, 13, 12, 7, 11, 5, 6, 3]);
makespan = 971;
----------
assign = array1d(1..13 ,[3, 3, 1, 4, 3, 4, 4, 3, 4, 1, 2, 3, 4]);
next = array1d(1..13 ,[2, 8, 10, 9, 1, 4, 13, 12, 7, 11, 5, 6, 3]);
makespan = 959;
----------
assign = array1d(1..13 ,[3, 3, 1, 4, 3, 4, 4, 3, 4, 1, 2, 3, 4]);
next = array1d(1..13 ,[2, 8, 10, 9, 1, 4, 13, 12, 7, 11, 5, 6, 3]);
makespan = 952;
----------
assign = array1d(1..13 ,[3, 3, 1, 4, 3, 4, 4, 3, 4, 1, 2, 3, 4]);
next = array1d(1..13 ,[2, 8, 10, 9, 1, 4, 13, 12, 7, 11, 5, 6, 3]);
makespan = 947;
----------
assign = array1d(1..13 ,[3, 3, 1, 4, 3, 4, 4, 3, 4, 1, 2, 3, 4]);
next = array1d(1..13 ,[2, 8, 10, 9, 1, 4, 13, 12, 7, 11, 5, 6, 3]);
makespan = 938;
----------
assign = array1d(1..13 ,[3, 3, 1, 4, 3, 4, 4, 3, 4, 1, 2, 3, 4]);
next = array1d(1..13 ,[2, 8, 10, 9, 1, 4, 13, 12, 7, 11, 5, 6, 3]);
makespan = 936;
----------
assign = array1d(1..13 ,[3, 3, 1, 4, 3, 4, 4, 3, 4, 1, 2, 3, 4]);
next = array1d(1..13 ,[2, 8, 10, 9, 1, 4, 13, 12, 7, 11, 5, 6, 3]);
makespan = 930;
----------
assign = array1d(1..13 ,[3, 3, 1, 4, 3, 4, 4, 3, 4, 1, 2, 3, 4]);
next = array1d(1..13 ,[2, 8, 10, 9, 1, 4, 13, 12, 7, 11, 5, 6, 3]);
makespan = 925;
----------
assign = array1d(1..13 ,[3, 3, 1, 4, 3, 4, 4, 3, 4, 1, 2, 3, 4]);
next = array1d(1..13 ,[2, 8, 10, 9, 1, 4, 13, 12, 7, 11, 5, 6, 3]);
makespan = 920;
----------
assign = array1d(1..13 ,[3, 3, 1, 4, 3, 4, 4, 3, 4, 1, 2, 3, 4]);
next = array1d(1..13 ,[2, 8, 10, 9, 1, 4, 13, 12, 7, 11, 5, 6, 3]);
makespan = 916;
----------
assign = array1d(1..13 ,[3, 3, 1, 4, 3, 4, 4, 3, 4, 1, 2, 3, 4]);
next = array1d(1..13 ,[2, 8, 10, 9, 1, 4, 13, 12, 7, 11, 5, 6, 3]);
makespan = 915;
----------
assign = array1d(1..13 ,[3, 3, 1, 4, 3, 4, 4, 3, 4, 1, 2, 3, 4]);
next = array1d(1..13 ,[2, 8, 10, 9, 1, 4, 13, 12, 7, 11, 5, 6, 3]);
makespan = 914;
----------
assign = array1d(1..13 ,[3, 3, 1, 4, 3, 4, 4, 3, 4, 1, 2, 3, 4]);
next = array1d(1..13 ,[2, 8, 10, 9, 1, 4, 13, 12, 7, 11, 5, 6, 3]);
makespan = 913;
----------
assign = array1d(1..13 ,[3, 3, 1, 4, 3, 4, 4, 3, 4, 1, 2, 3, 4]);
next = array1d(1..13 ,[2, 8, 10, 9, 1, 4, 13, 12, 7, 11, 5, 6, 3]);
makespan = 909;
----------
assign = array1d(1..13 ,[3, 3, 1, 4, 3, 4, 4, 3, 4, 1, 2, 3, 4]);
next = array1d(1..13 ,[2, 8, 10, 9, 1, 4, 13, 12, 7, 11, 5, 6, 3]);
makespan = 908;
----------
assign = array1d(1..13 ,[3, 3, 1, 4, 3, 4, 4, 3, 4, 1, 2, 3, 4]);
next = array1d(1..13 ,[2, 8, 10, 9, 1, 4, 13, 12, 7, 11, 5, 6, 3]);
makespan = 903;
----------
assign = array1d(1..13 ,[3, 3, 1, 4, 3, 4, 4, 3, 4, 1, 2, 3, 4]);
next = array1d(1..13 ,[2, 8, 10, 9, 1, 4, 13, 12, 7, 11, 5, 6, 3]);
makespan = 897;
----------
assign = array1d(1..13 ,[3, 3, 1, 4, 3, 4, 4, 3, 4, 1, 2, 3, 4]);
next = array1d(1..13 ,[2, 8, 10, 9, 1, 4, 13, 12, 7, 11, 5, 6, 3]);
makespan = 895;
----------
assign = array1d(1..13 ,[3, 3, 1, 4, 3, 4, 4, 3, 4, 1, 2, 3, 4]);
next = array1d(1..13 ,[2, 8, 10, 9, 1, 4, 13, 12, 7, 11, 5, 6, 3]);
makespan = 891;
----------
assign = array1d(1..13 ,[3, 3, 1, 4, 3, 4, 4, 3, 4, 1, 2, 3, 4]);
next = array1d(1..13 ,[2, 8, 10, 9, 1, 4, 13, 12, 7, 11, 5, 6, 3]);
makespan = 884;
----------
assign = array1d(1..13 ,[3, 3, 4, 4, 3, 3, 4, 2, 4, 1, 2, 3, 4]);
next = array1d(1..13 ,[2, 6, 13, 9, 1, 12, 3, 11, 7, 8, 5, 4, 10]);
makespan = 879;
----------
assign = array1d(1..13 ,[3, 3, 4, 4, 3, 3, 4, 2, 4, 1, 2, 3, 4]);
next = array1d(1..13 ,[2, 6, 13, 9, 1, 12, 3, 11, 7, 8, 5, 4, 10]);
makespan = 876;
----------
assign = array1d(1..13 ,[3, 3, 4, 4, 3, 3, 4, 2, 4, 1, 2, 3, 4]);
next = array1d(1..13 ,[2, 6, 13, 9, 1, 12, 3, 11, 7, 8, 5, 4, 10]);
makespan = 873;
----------
assign = array1d(1..13 ,[3, 3, 4, 4, 3, 3, 4, 2, 4, 1, 2, 3, 4]);
next = array1d(1..13 ,[2, 6, 13, 9, 1, 12, 3, 11, 7, 8, 5, 4, 10]);
makespan = 867;
----------
assign = array1d(1..13 ,[3, 3, 4, 4, 3, 3, 4, 2, 4, 1, 2, 3, 4]);
next = array1d(1..13 ,[2, 6, 13, 9, 1, 12, 3, 11, 7, 8, 5, 4, 10]);
makespan = 865;
----------
assign = array1d(1..13 ,[3, 3, 4, 4, 3, 3, 4, 2, 4, 1, 2, 3, 4]);
next = array1d(1..13 ,[2, 6, 4, 9, 1, 12, 13, 11, 7, 8, 5, 3, 10]);
makespan = 862;
----------
assign = array1d(1..13 ,[3, 3, 4, 4, 3, 3, 4, 2, 4, 1, 2, 3, 4]);
next = array1d(1..13 ,[2, 6, 4, 9, 1, 12, 13, 11, 7, 8, 5, 3, 10]);
makespan = 838;
----------
assign = array1d(1..13 ,[3, 3, 2, 4, 3, 3, 4, 2, 4, 1, 2, 3, 4]);
next = array1d(1..13 ,[2, 6, 11, 9, 1, 12, 13, 3, 7, 8, 5, 4, 10]);
makespan = 837;
----------
assign = array1d(1..13 ,[3, 3, 4, 2, 3, 2, 4, 2, 4, 1, 2, 3, 4]);
next = array1d(1..13 ,[2, 12, 13, 11, 1, 4, 3, 6, 7, 8, 5, 9, 10]);
makespan = 830;
----------
assign = array1d(1..13 ,[3, 3, 4, 2, 3, 2, 4, 2, 4, 1, 2, 3, 4]);
next = array1d(1..13 ,[2, 12, 13, 11, 1, 4, 3, 6, 7, 8, 5, 9, 10]);
makespan = 818;
----------
assign = array1d(1..13 ,[3, 3, 1, 4, 3, 4, 4, 3, 4, 1, 2, 3, 4]);
next = array1d(1..13 ,[2, 8, 10, 7, 1, 4, 13, 12, 6, 11, 5, 9, 3]);
makespan = 815;
----------
assign = array1d(1..13 ,[3, 3, 1, 4, 3, 4, 1, 4, 1, 1, 2, 3, 4]);
next = array1d(1..13 ,[2, 12, 10, 13, 1, 4, 3, 6, 7, 11, 5, 8, 9]);
makespan = 802;
----------
assign = array1d(1..13 ,[3, 3, 1, 4, 3, 4, 1, 4, 1, 1, 2, 3, 4]);
next = array1d(1..13 ,[2, 12, 9, 13, 1, 4, 10, 6, 7, 11, 5, 8, 3]);
makespan = 787;
----------
assign = array1d(1..13 ,[3, 3, 1, 4, 3, 4, 1, 4, 1, 1, 2, 3, 4]);
next = array1d(1..13 ,[2, 12, 9, 13, 1, 4, 10, 6, 7, 11, 5, 8, 3]);
makespan = 775;
----------
assign = array1d(1..13 ,[3, 3, 1, 4, 3, 4, 1, 4, 1, 1, 2, 3, 4]);
next = array1d(1..13 ,[2, 12, 9, 13, 1, 4, 10, 6, 7, 11, 5, 8, 3]);
makespan = 770;
----------
assign = array1d(1..13 ,[3, 3, 1, 4, 3, 4, 1, 4, 1, 1, 2, 3, 4]);
next = array1d(1..13 ,[2, 12, 9, 13, 1, 4, 10, 6, 7, 11, 5, 8, 3]);
makespan = 768;
----------
assign = array1d(1..13 ,[3, 3, 1, 4, 3, 4, 1, 4, 1, 1, 2, 3, 4]);
next = array1d(1..13 ,[2, 12, 9, 13, 1, 4, 10, 6, 7, 11, 5, 8, 3]);
makespan = 766;
----------
assign = array1d(1..13 ,[3, 3, 1, 4, 3, 4, 1, 4, 1, 1, 2, 3, 4]);
next = array1d(1..13 ,[2, 12, 9, 13, 1, 4, 10, 6, 7, 11, 5, 8, 3]);
makespan = 761;
----------
assign = array1d(1..13 ,[3, 3, 1, 4, 3, 4, 1, 4, 1, 1, 2, 3, 4]);
next = array1d(1..13 ,[2, 12, 9, 13, 1, 4, 10, 6, 7, 11, 5, 8, 3]);
makespan = 752;
----------
assign = array1d(1..13 ,[3, 3, 1, 4, 3, 4, 1, 4, 1, 1, 2, 3, 4]);
next = array1d(1..13 ,[2, 12, 9, 13, 1, 4, 10, 6, 7, 11, 5, 8, 3]);
makespan = 747;
----------
assign = array1d(1..13 ,[3, 3, 1, 4, 3, 4, 1, 4, 1, 1, 2, 3, 4]);
next = array1d(1..13 ,[2, 12, 9, 13, 1, 4, 10, 6, 7, 11, 5, 8, 3]);
makespan = 704;
----------
assign = array1d(1..13 ,[3, 3, 1, 4, 3, 4, 1, 4, 1, 1, 2, 3, 4]);
next = array1d(1..13 ,[2, 12, 9, 13, 1, 4, 10, 6, 7, 11, 5, 8, 3]);
makespan = 697;
----------
assign = array1d(1..13 ,[3, 3, 1, 4, 3, 4, 1, 4, 1, 1, 2, 3, 4]);
next = array1d(1..13 ,[2, 12, 9, 13, 1, 4, 10, 6, 7, 11, 5, 8, 3]);
makespan = 688;
----------
assign = array1d(1..13 ,[3, 3, 1, 4, 3, 4, 1, 4, 1, 1, 2, 3, 4]);
next = array1d(1..13 ,[2, 12, 9, 13, 1, 4, 10, 6, 7, 11, 5, 8, 3]);
makespan = 681;
----------
assign = array1d(1..13 ,[3, 3, 1, 4, 3, 4, 1, 4, 1, 1, 2, 3, 4]);
next = array1d(1..13 ,[2, 12, 9, 13, 1, 4, 10, 6, 7, 11, 5, 8, 3]);
makespan = 678;
----------
assign = array1d(1..13 ,[3, 3, 1, 4, 3, 4, 1, 4, 1, 1, 2, 3, 4]);
next = array1d(1..13 ,[2, 12, 9, 13, 1, 4, 10, 6, 7, 11, 5, 8, 3]);
makespan = 674;
----------
assign = array1d(1..13 ,[3, 3, 1, 4, 3, 4, 1, 4, 1, 1, 2, 3, 4]);
next = array1d(1..13 ,[2, 12, 9, 13, 1, 4, 10, 6, 7, 11, 5, 8, 3]);
makespan = 673;
----------
assign = array1d(1..13 ,[3, 3, 1, 4, 3, 4, 1, 4, 1, 1, 2, 3, 4]);
next = array1d(1..13 ,[2, 12, 9, 13, 1, 4, 10, 6, 7, 11, 5, 8, 3]);
makespan = 667;
----------
assign = array1d(1..13 ,[3, 3, 1, 4, 3, 4, 1, 4, 1, 1, 2, 3, 4]);
next = array1d(1..13 ,[2, 12, 9, 13, 1, 4, 10, 6, 7, 11, 5, 8, 3]);
makespan = 650;
----------
assign = array1d(1..13 ,[3, 3, 1, 4, 3, 4, 1, 4, 1, 1, 2, 3, 4]);
next = array1d(1..13 ,[2, 12, 9, 13, 1, 4, 10, 6, 7, 11, 5, 8, 3]);
makespan = 640;
----------
assign = array1d(1..13 ,[3, 3, 1, 4, 3, 4, 1, 4, 1, 1, 2, 3, 4]);
next = array1d(1..13 ,[2, 12, 9, 13, 1, 4, 10, 6, 7, 11, 5, 8, 3]);
makespan = 634;
----------
assign = array1d(1..13 ,[3, 3, 1, 4, 3, 4, 1, 4, 1, 1, 2, 3, 4]);
next = array1d(1..13 ,[2, 12, 9, 13, 1, 4, 10, 6, 7, 11, 5, 8, 3]);
makespan = 632;
----------
assign = array1d(1..13 ,[3, 3, 1, 4, 3, 4, 1, 4, 1, 1, 2, 3, 4]);
next = array1d(1..13 ,[2, 12, 9, 13, 1, 4, 10, 6, 7, 11, 5, 8, 3]);
makespan = 631;
----------
assign = array1d(1..13 ,[3, 3, 2, 4, 3, 4, 2, 4, 2, 1, 2, 3, 4]);
next = array1d(1..13 ,[2, 12, 9, 13, 1, 4, 11, 6, 7, 3, 5, 8, 10]);
makespan = 624;
----------
assign = array1d(1..13 ,[3, 3, 2, 4, 3, 4, 2, 1, 2, 1, 2, 3, 4]);
next = array1d(1..13 ,[2, 12, 9, 13, 1, 4, 11, 10, 7, 3, 5, 6, 8]);
makespan = 623;
----------
assign = array1d(1..13 ,[3, 3, 4, 2, 3, 2, 4, 2, 4, 1, 2, 3, 4]);
next = array1d(1..13 ,[2, 12, 9, 11, 1, 4, 13, 6, 7, 8, 5, 3, 10]);
makespan = 609;
----------
assign = array1d(1..13 ,[3, 3, 4, 1, 3, 1, 4, 1, 4, 1, 2, 3, 4]);
next = array1d(1..13 ,[2, 12, 9, 10, 1, 4, 13, 6, 7, 11, 5, 3, 8]);
makespan = 597;
----------
assign = array1d(1..13 ,[3, 3, 4, 1, 3, 1, 4, 1, 4, 1, 2, 3, 4]);
next = array1d(1..13 ,[2, 12, 9, 10, 1, 4, 13, 6, 7, 11, 5, 3, 8]);
makespan = 595;
----------
assign = array1d(1..13 ,[3, 3, 2, 1, 3, 1, 4, 1, 4, 1, 2, 3, 4]);
next = array1d(1..13 ,[2, 12, 11, 10, 1, 4, 13, 6, 7, 3, 5, 9, 8]);
makespan = 593;
----------
assign = array1d(1..13 ,[3, 3, 2, 1, 3, 1, 4, 1, 4, 1, 2, 3, 4]);
next = array1d(1..13 ,[2, 12, 11, 10, 1, 4, 13, 6, 7, 3, 5, 9, 8]);
makespan = 589;
----------
assign = array1d(1..13 ,[3, 3, 2, 1, 3, 1, 4, 1, 4, 1, 2, 3, 4]);
next = array1d(1..13 ,[2, 12, 11, 10, 1, 4, 13, 6, 7, 3, 5, 9, 8]);
makespan = 583;
----------
assign = array1d(1..13 ,[3, 3, 2, 1, 3, 1, 4, 1, 4, 1, 2, 3, 4]);
next = array1d(1..13 ,[2, 12, 11, 10, 1, 4, 13, 6, 7, 3, 5, 9, 8]);
makespan = 570;
----------
assign = array1d(1..13 ,[3, 3, 2, 1, 3, 1, 4, 1, 4, 1, 2, 3, 4]);
next = array1d(1..13 ,[2, 12, 11, 10, 1, 4, 13, 6, 7, 3, 5, 9, 8]);
makespan = 556;
----------
assign = array1d(1..13 ,[3, 4, 4, 1, 3, 1, 2, 1, 2, 1, 2, 3, 4]);
next = array1d(1..13 ,[12, 3, 13, 10, 1, 4, 11, 6, 7, 9, 5, 2, 8]);
makespan = 547;
----------
assign = array1d(1..13 ,[2, 4, 1, 1, 2, 1, 3, 4, 3, 1, 2, 3, 4]);
next = array1d(1..13 ,[11, 8, 6, 10, 1, 4, 12, 13, 7, 5, 9, 2, 3]);
makespan = 545;
----------
assign = array1d(1..13 ,[2, 1, 4, 4, 2, 1, 3, 2, 3, 1, 2, 3, 4]);
next = array1d(1..13 ,[8, 6, 13, 3, 1, 10, 12, 11, 7, 5, 9, 4, 2]);
makespan = 539;
----------
assign = array1d(1..13 ,[2, 3, 2, 1, 3, 1, 4, 3, 4, 1, 2, 3, 4]);
next = array1d(1..13 ,[3, 5, 11, 10, 8, 4, 13, 12, 7, 1, 2, 9, 6]);
makespan = 538;
----------
assign = array1d(1..13 ,[4, 1, 4, 1, 3, 2, 2, 1, 3, 1, 2, 3, 4]);
next = array1d(1..13 ,[3, 8, 13, 2, 9, 11, 6, 10, 12, 7, 5, 1, 4]);
makespan = 535;
----------
assign = array1d(1..13 ,[3, 1, 3, 1, 4, 1, 4, 2, 2, 1, 2, 3, 4]);
next = array1d(1..13 ,[3, 10, 12, 2, 7, 4, 13, 9, 11, 8, 1, 5, 6]);
makespan = 534;
----------
assign = array1d(1..13 ,[3, 1, 4, 1, 3, 1, 2, 2, 4, 1, 2, 3, 4]);
next = array1d(1..13 ,[5, 10, 9, 2, 12, 4, 11, 7, 13, 8, 1, 3, 6]);
makespan = 531;
----------
assign = array1d(1..13 ,[3, 4, 3, 4, 2, 2, 1, 1, 4, 1, 2, 3, 4]);
next = array1d(1..13 ,[3, 9, 12, 2, 11, 5, 10, 7, 13, 6, 1, 4, 8]);
makespan = 529;
----------
assign = array1d(1..13 ,[4, 3, 1, 4, 3, 2, 1, 3, 2, 1, 2, 3, 4]);
next = array1d(1..13 ,[4, 5, 7, 13, 8, 9, 10, 12, 11, 6, 2, 1, 3]);
makespan = 528;
----------
assign = array1d(1..13 ,[4, 2, 1, 2, 4, 1, 3, 3, 4, 1, 2, 3, 4]);
next = array1d(1..13 ,[9, 11, 6, 2, 13, 10, 12, 7, 5, 4, 8, 1, 3]);
makespan = 524;
----------
assign = array1d(1..13 ,[1, 1, 2, 1, 4, 3, 3, 4, 2, 1, 2, 3, 4]);
next = array1d(1..13 ,[4, 10, 11, 2, 8, 12, 6, 13, 3, 9, 7, 5, 1]);
makespan = 523;
----------
assign = array1d(1..13 ,[4, 4, 3, 1, 2, 1, 3, 1, 2, 1, 2, 3, 4]);
next = array1d(1..13 ,[13, 1, 7, 10, 9, 8, 12, 4, 11, 5, 3, 2, 6]);
makespan = 522;
----------
assign = array1d(1..13 ,[3, 1, 4, 1, 2, 4, 3, 1, 2, 1, 2, 3, 4]);
next = array1d(1..13 ,[12, 8, 6, 2, 9, 13, 1, 10, 11, 5, 7, 3, 4]);
makespan = 521;
----------
assign = array1d(1..13 ,[3, 1, 2, 1, 2, 4, 3, 1, 4, 1, 2, 3, 4]);
next = array1d(1..13 ,[7, 10, 5, 2, 11, 9, 12, 4, 13, 3, 1, 6, 8]);
makespan = 520;
----------
assign = array1d(1..13 ,[4, 4, 2, 1, 2, 3, 3, 1, 4, 1, 2, 3, 4]);
next = array1d(1..13 ,[9, 13, 5, 10, 11, 12, 6, 4, 2, 3, 7, 1, 8]);
makespan = 519;
----------
assign = array1d(1..13 ,[4, 4, 2, 3, 1, 3, 2, 1, 4, 1, 2, 3, 4]);
next = array1d(1..13 ,[9, 1, 7, 6, 8, 12, 11, 10, 13, 3, 4, 2, 5]);
makespan = 518;
----------
assign = array1d(1..13 ,[4, 4, 2, 1, 3, 3, 2, 1, 4, 1, 2, 3, 4]);
next = array1d(1..13 ,[9, 1, 7, 10, 6, 12, 11, 4, 13, 3, 5, 2, 8]);
makespan = 517;
----------
assign = array1d(1..13 ,[4, 1, 2, 1, 3, 4, 2, 1, 3, 1, 2, 3, 4]);
next = array1d(1..13 ,[6, 10, 11, 2, 9, 13, 3, 4, 12, 7, 5, 1, 8]);
makespan = 516;
----------
assign = array1d(1..13 ,[3, 1, 2, 1, 4, 1, 2, 3, 4, 1, 2, 3, 4]);
next = array1d(1..13 ,[8, 10, 11, 2, 13, 4, 3, 12, 5, 7, 1, 9, 6]);
makespan = 515;
----------
assign = array1d(1..13 ,[1, 3, 2, 1, 3, 1, 2, 4, 4, 1, 2, 3, 4]);
next = array1d(1..13 ,[6, 5, 11, 10, 12, 4, 3, 9, 13, 7, 2, 8, 1]);
makespan = 514;
----------
assign = array1d(1..13 ,[4, 1, 2, 1, 3, 4, 2, 1, 3, 1, 2, 3, 4]);
next = array1d(1..13 ,[13, 10, 11, 2, 9, 1, 3, 4, 12, 7, 5, 6, 8]);
makespan = 513;
----------
assign = array1d(1..13 ,[4, 3, 2, 1, 1, 4, 3, 3, 2, 1, 2, 3, 4]);
next = array1d(1..13 ,[6, 7, 9, 5, 10, 13, 12, 2, 11, 3, 8, 1, 4]);
makespan = 512;
----------
assign = array1d(1..13 ,[4, 3, 1, 2, 4, 2, 3, 3, 1, 1, 2, 3, 4]);
next = array1d(1..13 ,[13, 7, 9, 11, 1, 4, 12, 2, 10, 6, 8, 5, 3]);
makespan = 511;
----------
assign = array1d(1..13 ,[1, 3, 1, 4, 2, 4, 3, 3, 2, 1, 2, 3, 4]);
next = array1d(1..13 ,[10, 7, 1, 13, 11, 4, 12, 2, 5, 9, 8, 6, 3]);
makespan = 510;
----------
assign = array1d(1..13 ,[1, 2, 4, 1, 3, 1, 2, 4, 3, 1, 2, 3, 4]);
next = array1d(1..13 ,[6, 7, 13, 10, 12, 4, 11, 3, 5, 2, 9, 8, 1]);
makespan = 509;
----------
assign = array1d(1..13 ,[1, 3, 2, 1, 2, 1, 3, 4, 4, 1, 2, 3, 4]);
next = array1d(1..13 ,[6, 7, 5, 10, 11, 4, 12, 9, 13, 3, 2, 8, 1]);
makespan = 508;
----------
assign = array1d(1..13 ,[1, 4, 4, 1, 3, 1, 2, 3, 2, 1, 2, 3, 4]);
next = array1d(1..13 ,[6, 3, 13, 10, 8, 4, 9, 12, 11, 7, 5, 2, 1]);
makespan = 507;
----------
==========
	Command being timed: "mzn-chuffed lbbd-datasets/Rabadi-2006/dzn-p-dominant/model.mzn lbbd-datasets/Rabadi-2006/dzn-p-dominant/9on4Rp50Rs50_4Ameer.dzn"
	User time (seconds): 0.51
	System time (seconds): 0.02
	Percent of CPU this job got: 4%
	Elapsed (wall clock) time (h:mm:ss or m:ss): 0:12.15
	Average shared text size (kbytes): 0
	Average unshared data size (kbytes): 0
	Average stack size (kbytes): 0
	Average total size (kbytes): 0
	Maximum resident set size (kbytes): 41088
	Average resident set size (kbytes): 0
	Major (requiring I/O) page faults: 0
	Minor (reclaiming a frame) page faults: 3773
	Voluntary context switches: 216
	Involuntary context switches: 5
	Swaps: 0
	File system inputs: 0
	File system outputs: 400
	Socket messages sent: 0
	Socket messages received: 0
	Signals delivered: 0
	Page size (bytes): 4096
	Exit status: 0
