+ /usr/bin/timeout 600 /usr/bin/time -v mzn-chuffed lbbd-datasets/planningandscheduling/makespan-insts/model.mzn lbbd-datasets/planningandscheduling/makespan-insts/c30j4m4.dzn
% No search annotation given. Defaulting to VSIDS!
obj = 62
----------
obj = 61
----------
obj = 60
----------
obj = 59
----------
obj = 58
----------
obj = 57
----------
obj = 56
----------
obj = 55
----------
obj = 54
----------
obj = 53
----------
obj = 52
----------
obj = 51
----------
obj = 50
----------
obj = 49
----------
obj = 48
----------
obj = 47
----------
obj = 46
----------
obj = 45
----------
obj = 44
----------
obj = 43
----------
obj = 42
----------
obj = 41
----------
obj = 40
----------
obj = 39
----------
obj = 38
----------
obj = 37
----------
obj = 36
----------
obj = 35
----------
obj = 34
----------
obj = 33
----------
obj = 32
----------
obj = 31
----------
obj = 30
----------
obj = 29
----------
==========
	Command being timed: "mzn-chuffed lbbd-datasets/planningandscheduling/makespan-insts/model.mzn lbbd-datasets/planningandscheduling/makespan-insts/c30j4m4.dzn"
	User time (seconds): 0.29
	System time (seconds): 0.01
	Percent of CPU this job got: 1%
	Elapsed (wall clock) time (h:mm:ss or m:ss): 0:27.81
	Average shared text size (kbytes): 0
	Average unshared data size (kbytes): 0
	Average stack size (kbytes): 0
	Average total size (kbytes): 0
	Maximum resident set size (kbytes): 30848
	Average resident set size (kbytes): 0
	Major (requiring I/O) page faults: 0
	Minor (reclaiming a frame) page faults: 2717
	Voluntary context switches: 40
	Involuntary context switches: 2
	Swaps: 0
	File system inputs: 0
	File system outputs: 160
	Socket messages sent: 0
	Socket messages received: 0
	Signals delivered: 0
	Page size (bytes): 4096
	Exit status: 0
