+ /usr/bin/timeout 600 /usr/bin/time -v mzn-chuffed lbbd-datasets/Rabadi-2006/dzn-balanced/model.mzn lbbd-datasets/Rabadi-2006/dzn-balanced/7on4Rp50Rs50_3Ameer.dzn
assign = array1d(1..11 ,[4, 4, 4, 4, 4, 4, 4, 1, 2, 3, 4]);
next = array1d(1..11 ,[2, 3, 4, 5, 6, 7, 11, 9, 10, 1, 8]);
makespan = 1003;
----------
assign = array1d(1..11 ,[4, 4, 4, 4, 4, 4, 4, 1, 2, 3, 4]);
next = array1d(1..11 ,[4, 3, 5, 2, 6, 7, 11, 9, 10, 1, 8]);
makespan = 996;
----------
% No search annotation given. Defaulting to VSIDS!
assign = array1d(1..11 ,[4, 1, 4, 4, 4, 4, 4, 1, 2, 3, 4]);
next = array1d(1..11 ,[5, 8, 4, 6, 3, 7, 11, 9, 10, 1, 2]);
makespan = 948;
----------
assign = array1d(1..11 ,[4, 4, 4, 1, 4, 4, 4, 1, 2, 3, 4]);
next = array1d(1..11 ,[3, 5, 6, 8, 1, 7, 11, 9, 10, 2, 4]);
makespan = 944;
----------
assign = array1d(1..11 ,[4, 4, 4, 3, 4, 4, 4, 1, 2, 3, 4]);
next = array1d(1..11 ,[3, 6, 2, 10, 1, 7, 11, 9, 4, 5, 8]);
makespan = 942;
----------
assign = array1d(1..11 ,[4, 4, 4, 2, 4, 4, 4, 1, 2, 3, 4]);
next = array1d(1..11 ,[6, 5, 2, 9, 1, 7, 11, 4, 10, 3, 8]);
makespan = 935;
----------
assign = array1d(1..11 ,[4, 4, 4, 4, 4, 4, 3, 1, 2, 3, 4]);
next = array1d(1..11 ,[5, 1, 4, 6, 3, 11, 10, 9, 7, 2, 8]);
makespan = 931;
----------
assign = array1d(1..11 ,[4, 4, 4, 4, 4, 4, 2, 1, 2, 3, 4]);
next = array1d(1..11 ,[3, 5, 6, 1, 4, 11, 9, 7, 10, 2, 8]);
makespan = 930;
----------
assign = array1d(1..11 ,[4, 4, 4, 3, 4, 4, 4, 1, 2, 3, 4]);
next = array1d(1..11 ,[5, 6, 2, 10, 3, 7, 11, 9, 4, 1, 8]);
makespan = 923;
----------
assign = array1d(1..11 ,[4, 4, 4, 1, 4, 4, 4, 1, 2, 3, 4]);
next = array1d(1..11 ,[6, 1, 2, 8, 3, 7, 11, 9, 10, 5, 4]);
makespan = 917;
----------
assign = array1d(1..11 ,[4, 4, 4, 1, 4, 4, 4, 1, 2, 3, 4]);
next = array1d(1..11 ,[6, 1, 2, 8, 3, 7, 11, 9, 10, 5, 4]);
makespan = 916;
----------
assign = array1d(1..11 ,[4, 4, 4, 1, 4, 4, 4, 1, 2, 3, 4]);
next = array1d(1..11 ,[6, 1, 2, 8, 3, 7, 11, 9, 10, 5, 4]);
makespan = 913;
----------
assign = array1d(1..11 ,[4, 4, 4, 4, 4, 4, 2, 1, 2, 3, 4]);
next = array1d(1..11 ,[3, 1, 5, 2, 6, 11, 9, 7, 10, 4, 8]);
makespan = 907;
----------
assign = array1d(1..11 ,[4, 4, 4, 4, 4, 4, 3, 1, 2, 3, 4]);
next = array1d(1..11 ,[3, 1, 5, 2, 6, 11, 10, 9, 7, 4, 8]);
makespan = 887;
----------
assign = array1d(1..11 ,[4, 4, 4, 4, 4, 4, 1, 1, 2, 3, 4]);
next = array1d(1..11 ,[3, 1, 5, 2, 6, 11, 8, 9, 10, 4, 7]);
makespan = 875;
----------
assign = array1d(1..11 ,[4, 4, 4, 4, 4, 4, 3, 1, 2, 3, 4]);
next = array1d(1..11 ,[3, 1, 5, 2, 6, 11, 10, 9, 7, 4, 8]);
makespan = 873;
----------
assign = array1d(1..11 ,[4, 4, 4, 1, 4, 4, 4, 1, 2, 3, 4]);
next = array1d(1..11 ,[3, 1, 5, 8, 6, 11, 2, 9, 10, 7, 4]);
makespan = 869;
----------
assign = array1d(1..11 ,[4, 4, 4, 1, 4, 4, 4, 1, 2, 3, 4]);
next = array1d(1..11 ,[3, 1, 5, 8, 6, 11, 2, 9, 10, 7, 4]);
makespan = 862;
----------
assign = array1d(1..11 ,[4, 4, 4, 1, 4, 4, 4, 1, 2, 3, 4]);
next = array1d(1..11 ,[3, 1, 5, 8, 6, 11, 2, 9, 10, 7, 4]);
makespan = 858;
----------
assign = array1d(1..11 ,[4, 4, 4, 1, 4, 4, 4, 1, 2, 3, 4]);
next = array1d(1..11 ,[3, 1, 5, 8, 6, 11, 2, 9, 10, 7, 4]);
makespan = 856;
----------
assign = array1d(1..11 ,[4, 4, 4, 1, 4, 4, 4, 1, 2, 3, 4]);
next = array1d(1..11 ,[3, 1, 5, 8, 6, 11, 2, 9, 10, 7, 4]);
makespan = 853;
----------
assign = array1d(1..11 ,[4, 4, 4, 3, 4, 4, 1, 1, 2, 3, 4]);
next = array1d(1..11 ,[3, 1, 5, 10, 6, 11, 8, 9, 4, 2, 7]);
makespan = 852;
----------
assign = array1d(1..11 ,[4, 4, 4, 3, 4, 4, 2, 1, 2, 3, 4]);
next = array1d(1..11 ,[3, 1, 5, 10, 6, 11, 9, 7, 4, 2, 8]);
makespan = 846;
----------
assign = array1d(1..11 ,[4, 4, 4, 3, 4, 4, 1, 1, 2, 3, 4]);
next = array1d(1..11 ,[3, 1, 5, 10, 6, 11, 8, 9, 4, 2, 7]);
makespan = 844;
----------
assign = array1d(1..11 ,[4, 4, 4, 3, 4, 4, 2, 1, 2, 3, 4]);
next = array1d(1..11 ,[3, 1, 5, 10, 6, 11, 9, 7, 4, 2, 8]);
makespan = 840;
----------
assign = array1d(1..11 ,[4, 4, 4, 3, 4, 4, 1, 1, 2, 3, 4]);
next = array1d(1..11 ,[3, 1, 5, 10, 6, 11, 8, 9, 4, 2, 7]);
makespan = 834;
----------
assign = array1d(1..11 ,[4, 4, 4, 1, 4, 4, 3, 1, 2, 3, 4]);
next = array1d(1..11 ,[3, 1, 5, 8, 6, 11, 10, 9, 7, 2, 4]);
makespan = 827;
----------
assign = array1d(1..11 ,[4, 4, 4, 3, 4, 4, 1, 1, 2, 3, 4]);
next = array1d(1..11 ,[3, 1, 5, 10, 6, 11, 8, 9, 4, 2, 7]);
makespan = 821;
----------
assign = array1d(1..11 ,[4, 4, 4, 1, 4, 4, 3, 1, 2, 3, 4]);
next = array1d(1..11 ,[3, 1, 5, 8, 6, 11, 10, 9, 7, 2, 4]);
makespan = 817;
----------
assign = array1d(1..11 ,[4, 4, 4, 3, 4, 4, 1, 1, 2, 3, 4]);
next = array1d(1..11 ,[3, 1, 5, 10, 6, 11, 8, 9, 4, 2, 7]);
makespan = 814;
----------
assign = array1d(1..11 ,[4, 4, 4, 1, 4, 4, 3, 1, 2, 3, 4]);
next = array1d(1..11 ,[3, 1, 5, 8, 6, 11, 10, 9, 7, 2, 4]);
makespan = 811;
----------
assign = array1d(1..11 ,[4, 4, 4, 3, 4, 4, 1, 1, 2, 3, 4]);
next = array1d(1..11 ,[3, 1, 5, 10, 6, 11, 8, 9, 4, 2, 7]);
makespan = 807;
----------
assign = array1d(1..11 ,[4, 4, 4, 1, 4, 4, 3, 1, 2, 3, 4]);
next = array1d(1..11 ,[3, 1, 5, 8, 6, 11, 10, 9, 7, 2, 4]);
makespan = 801;
----------
assign = array1d(1..11 ,[4, 4, 4, 3, 4, 4, 1, 1, 2, 3, 4]);
next = array1d(1..11 ,[3, 1, 5, 10, 6, 11, 8, 9, 4, 2, 7]);
makespan = 797;
----------
assign = array1d(1..11 ,[4, 4, 4, 1, 4, 4, 3, 1, 2, 3, 4]);
next = array1d(1..11 ,[3, 1, 5, 8, 6, 11, 10, 9, 7, 2, 4]);
makespan = 791;
----------
assign = array1d(1..11 ,[4, 4, 4, 3, 4, 4, 1, 1, 2, 3, 4]);
next = array1d(1..11 ,[3, 1, 5, 10, 6, 11, 8, 9, 4, 2, 7]);
makespan = 790;
----------
assign = array1d(1..11 ,[4, 4, 4, 1, 4, 4, 3, 1, 2, 3, 4]);
next = array1d(1..11 ,[3, 1, 5, 8, 6, 11, 10, 9, 7, 2, 4]);
makespan = 789;
----------
assign = array1d(1..11 ,[4, 4, 4, 3, 4, 4, 1, 1, 2, 3, 4]);
next = array1d(1..11 ,[3, 1, 5, 10, 6, 11, 8, 9, 4, 2, 7]);
makespan = 785;
----------
assign = array1d(1..11 ,[4, 4, 4, 1, 4, 4, 3, 1, 2, 3, 4]);
next = array1d(1..11 ,[3, 1, 5, 8, 6, 11, 10, 9, 7, 2, 4]);
makespan = 783;
----------
assign = array1d(1..11 ,[4, 4, 4, 3, 4, 4, 1, 1, 2, 3, 4]);
next = array1d(1..11 ,[3, 1, 5, 10, 6, 11, 8, 9, 4, 2, 7]);
makespan = 782;
----------
assign = array1d(1..11 ,[4, 4, 4, 1, 4, 4, 3, 1, 2, 3, 4]);
next = array1d(1..11 ,[3, 1, 5, 8, 6, 11, 10, 9, 7, 2, 4]);
makespan = 779;
----------
assign = array1d(1..11 ,[4, 4, 4, 3, 4, 4, 1, 1, 2, 3, 4]);
next = array1d(1..11 ,[3, 1, 5, 10, 6, 11, 8, 9, 4, 2, 7]);
makespan = 773;
----------
assign = array1d(1..11 ,[4, 4, 4, 1, 4, 4, 3, 1, 2, 3, 4]);
next = array1d(1..11 ,[3, 1, 5, 8, 6, 11, 10, 9, 7, 2, 4]);
makespan = 772;
----------
assign = array1d(1..11 ,[4, 4, 4, 3, 4, 4, 1, 1, 2, 3, 4]);
next = array1d(1..11 ,[3, 1, 5, 10, 6, 11, 8, 9, 4, 2, 7]);
makespan = 766;
----------
assign = array1d(1..11 ,[4, 4, 4, 1, 4, 4, 3, 1, 2, 3, 4]);
next = array1d(1..11 ,[3, 1, 5, 8, 6, 11, 10, 9, 7, 2, 4]);
makespan = 762;
----------
assign = array1d(1..11 ,[4, 4, 4, 3, 4, 4, 1, 1, 2, 3, 4]);
next = array1d(1..11 ,[3, 1, 5, 10, 6, 11, 8, 9, 4, 2, 7]);
makespan = 760;
----------
assign = array1d(1..11 ,[4, 4, 4, 1, 4, 4, 3, 1, 2, 3, 4]);
next = array1d(1..11 ,[3, 1, 5, 8, 6, 11, 10, 9, 7, 2, 4]);
makespan = 756;
----------
assign = array1d(1..11 ,[4, 4, 4, 3, 4, 4, 1, 1, 2, 3, 4]);
next = array1d(1..11 ,[3, 1, 5, 10, 6, 11, 8, 9, 4, 2, 7]);
makespan = 754;
----------
assign = array1d(1..11 ,[4, 4, 4, 3, 4, 4, 2, 1, 2, 3, 4]);
next = array1d(1..11 ,[3, 1, 5, 10, 6, 11, 9, 7, 4, 2, 8]);
makespan = 750;
----------
assign = array1d(1..11 ,[4, 4, 4, 1, 4, 4, 3, 1, 2, 3, 4]);
next = array1d(1..11 ,[3, 1, 5, 8, 6, 11, 10, 9, 7, 2, 4]);
makespan = 748;
----------
assign = array1d(1..11 ,[4, 4, 4, 1, 4, 4, 3, 1, 2, 3, 4]);
next = array1d(1..11 ,[3, 1, 5, 8, 6, 11, 10, 9, 7, 2, 4]);
makespan = 744;
----------
assign = array1d(1..11 ,[4, 4, 4, 3, 4, 4, 1, 1, 2, 3, 4]);
next = array1d(1..11 ,[3, 1, 5, 10, 6, 11, 8, 9, 4, 2, 7]);
makespan = 738;
----------
assign = array1d(1..11 ,[4, 4, 4, 1, 4, 4, 3, 1, 2, 3, 4]);
next = array1d(1..11 ,[3, 1, 5, 8, 6, 11, 10, 9, 7, 2, 4]);
makespan = 731;
----------
assign = array1d(1..11 ,[4, 4, 4, 3, 4, 4, 1, 1, 2, 3, 4]);
next = array1d(1..11 ,[3, 1, 5, 10, 6, 11, 8, 9, 4, 2, 7]);
makespan = 728;
----------
assign = array1d(1..11 ,[4, 4, 4, 1, 4, 4, 3, 1, 2, 3, 4]);
next = array1d(1..11 ,[3, 1, 5, 8, 6, 11, 10, 9, 7, 2, 4]);
makespan = 725;
----------
assign = array1d(1..11 ,[4, 4, 4, 3, 4, 4, 1, 1, 2, 3, 4]);
next = array1d(1..11 ,[3, 1, 5, 10, 6, 11, 8, 9, 4, 2, 7]);
makespan = 724;
----------
assign = array1d(1..11 ,[4, 4, 4, 3, 4, 4, 2, 1, 2, 3, 4]);
next = array1d(1..11 ,[3, 1, 5, 10, 6, 11, 9, 7, 4, 2, 8]);
makespan = 721;
----------
assign = array1d(1..11 ,[4, 4, 4, 1, 4, 4, 3, 1, 2, 3, 4]);
next = array1d(1..11 ,[3, 1, 5, 8, 6, 11, 10, 9, 7, 2, 4]);
makespan = 718;
----------
assign = array1d(1..11 ,[4, 4, 4, 3, 4, 4, 2, 1, 2, 3, 4]);
next = array1d(1..11 ,[3, 1, 5, 10, 6, 11, 9, 7, 4, 2, 8]);
makespan = 717;
----------
assign = array1d(1..11 ,[4, 4, 4, 1, 4, 4, 3, 1, 2, 3, 4]);
next = array1d(1..11 ,[3, 11, 5, 8, 6, 2, 10, 9, 7, 1, 4]);
makespan = 711;
----------
assign = array1d(1..11 ,[4, 4, 4, 3, 4, 4, 1, 1, 2, 3, 4]);
next = array1d(1..11 ,[3, 11, 5, 10, 6, 2, 8, 9, 4, 1, 7]);
makespan = 705;
----------
assign = array1d(1..11 ,[4, 4, 4, 1, 4, 4, 3, 1, 2, 3, 4]);
next = array1d(1..11 ,[3, 11, 5, 8, 6, 2, 10, 9, 7, 1, 4]);
makespan = 704;
----------
assign = array1d(1..11 ,[4, 3, 4, 3, 4, 4, 1, 1, 2, 3, 4]);
next = array1d(1..11 ,[3, 10, 5, 2, 6, 11, 8, 9, 4, 1, 7]);
makespan = 702;
----------
assign = array1d(1..11 ,[4, 1, 4, 1, 4, 4, 2, 1, 2, 3, 4]);
next = array1d(1..11 ,[3, 8, 5, 2, 6, 11, 9, 7, 10, 1, 4]);
makespan = 701;
----------
assign = array1d(1..11 ,[4, 2, 4, 2, 4, 4, 1, 1, 2, 3, 4]);
next = array1d(1..11 ,[3, 9, 5, 2, 6, 11, 8, 4, 10, 1, 7]);
makespan = 699;
----------
assign = array1d(1..11 ,[4, 1, 4, 1, 4, 4, 2, 1, 2, 3, 4]);
next = array1d(1..11 ,[3, 8, 5, 2, 6, 11, 9, 7, 10, 1, 4]);
makespan = 695;
----------
assign = array1d(1..11 ,[4, 2, 4, 2, 4, 4, 1, 1, 2, 3, 4]);
next = array1d(1..11 ,[3, 9, 5, 2, 6, 11, 8, 4, 10, 1, 7]);
makespan = 693;
----------
assign = array1d(1..11 ,[4, 1, 4, 1, 4, 4, 2, 1, 2, 3, 4]);
next = array1d(1..11 ,[3, 8, 5, 2, 6, 11, 9, 7, 10, 1, 4]);
makespan = 689;
----------
assign = array1d(1..11 ,[4, 2, 4, 2, 4, 4, 1, 1, 2, 3, 4]);
next = array1d(1..11 ,[3, 9, 5, 2, 6, 11, 8, 4, 10, 1, 7]);
makespan = 687;
----------
assign = array1d(1..11 ,[4, 1, 4, 1, 4, 4, 2, 1, 2, 3, 4]);
next = array1d(1..11 ,[3, 8, 5, 2, 6, 11, 9, 7, 10, 1, 4]);
makespan = 683;
----------
assign = array1d(1..11 ,[4, 2, 4, 2, 4, 4, 1, 1, 2, 3, 4]);
next = array1d(1..11 ,[3, 9, 5, 2, 6, 11, 8, 4, 10, 1, 7]);
makespan = 677;
----------
assign = array1d(1..11 ,[4, 1, 4, 1, 4, 4, 2, 1, 2, 3, 4]);
next = array1d(1..11 ,[3, 8, 5, 2, 6, 11, 9, 7, 10, 1, 4]);
makespan = 676;
----------
assign = array1d(1..11 ,[4, 2, 4, 2, 4, 4, 1, 1, 2, 3, 4]);
next = array1d(1..11 ,[3, 9, 5, 2, 6, 11, 8, 4, 10, 1, 7]);
makespan = 670;
----------
assign = array1d(1..11 ,[4, 1, 4, 1, 4, 4, 2, 1, 2, 3, 4]);
next = array1d(1..11 ,[3, 8, 5, 2, 6, 11, 9, 7, 10, 1, 4]);
makespan = 666;
----------
assign = array1d(1..11 ,[4, 2, 4, 2, 4, 4, 1, 1, 2, 3, 4]);
next = array1d(1..11 ,[3, 9, 5, 2, 6, 11, 8, 4, 10, 1, 7]);
makespan = 664;
----------
assign = array1d(1..11 ,[4, 1, 4, 1, 4, 4, 2, 1, 2, 3, 4]);
next = array1d(1..11 ,[3, 8, 5, 2, 6, 11, 9, 7, 10, 1, 4]);
makespan = 658;
----------
assign = array1d(1..11 ,[4, 2, 4, 2, 4, 4, 1, 1, 2, 3, 4]);
next = array1d(1..11 ,[3, 9, 5, 2, 6, 11, 8, 4, 10, 1, 7]);
makespan = 655;
----------
assign = array1d(1..11 ,[4, 1, 4, 1, 4, 4, 2, 1, 2, 3, 4]);
next = array1d(1..11 ,[3, 8, 5, 2, 6, 11, 9, 7, 10, 1, 4]);
makespan = 652;
----------
assign = array1d(1..11 ,[4, 2, 4, 2, 4, 4, 1, 1, 2, 3, 4]);
next = array1d(1..11 ,[3, 9, 5, 2, 6, 11, 8, 4, 10, 1, 7]);
makespan = 648;
----------
assign = array1d(1..11 ,[4, 3, 4, 3, 4, 4, 2, 1, 2, 3, 4]);
next = array1d(1..11 ,[3, 10, 5, 2, 6, 11, 9, 7, 4, 1, 8]);
makespan = 646;
----------
assign = array1d(1..11 ,[4, 2, 4, 2, 4, 4, 1, 1, 2, 3, 4]);
next = array1d(1..11 ,[3, 9, 5, 2, 6, 11, 8, 4, 10, 1, 7]);
makespan = 641;
----------
assign = array1d(1..11 ,[4, 1, 4, 1, 4, 4, 2, 1, 2, 3, 4]);
next = array1d(1..11 ,[3, 8, 5, 2, 6, 11, 9, 7, 10, 1, 4]);
makespan = 638;
----------
assign = array1d(1..11 ,[4, 2, 4, 2, 4, 4, 1, 1, 2, 3, 4]);
next = array1d(1..11 ,[3, 9, 5, 2, 6, 11, 8, 4, 10, 1, 7]);
makespan = 635;
----------
assign = array1d(1..11 ,[4, 1, 4, 1, 4, 4, 2, 1, 2, 3, 4]);
next = array1d(1..11 ,[3, 8, 5, 2, 6, 11, 9, 7, 10, 1, 4]);
makespan = 632;
----------
assign = array1d(1..11 ,[4, 2, 4, 2, 4, 4, 1, 1, 2, 3, 4]);
next = array1d(1..11 ,[3, 9, 5, 2, 6, 11, 8, 4, 10, 1, 7]);
makespan = 629;
----------
assign = array1d(1..11 ,[4, 1, 4, 1, 4, 4, 2, 1, 2, 3, 4]);
next = array1d(1..11 ,[3, 8, 5, 2, 6, 11, 9, 7, 10, 1, 4]);
makespan = 628;
----------
assign = array1d(1..11 ,[4, 2, 4, 2, 4, 4, 1, 1, 2, 3, 4]);
next = array1d(1..11 ,[3, 9, 5, 2, 6, 11, 8, 4, 10, 1, 7]);
makespan = 622;
----------
assign = array1d(1..11 ,[4, 1, 4, 1, 4, 4, 2, 1, 2, 3, 4]);
next = array1d(1..11 ,[3, 8, 5, 2, 6, 11, 9, 7, 10, 1, 4]);
makespan = 615;
----------
assign = array1d(1..11 ,[4, 2, 4, 2, 4, 4, 3, 1, 2, 3, 4]);
next = array1d(1..11 ,[3, 9, 5, 2, 6, 11, 10, 4, 7, 1, 8]);
makespan = 609;
----------
assign = array1d(1..11 ,[4, 2, 4, 2, 4, 4, 1, 1, 2, 3, 4]);
next = array1d(1..11 ,[3, 9, 5, 2, 6, 11, 8, 4, 10, 1, 7]);
makespan = 605;
----------
assign = array1d(1..11 ,[4, 2, 4, 2, 4, 4, 3, 1, 2, 3, 4]);
next = array1d(1..11 ,[3, 9, 5, 2, 6, 11, 10, 4, 7, 1, 8]);
makespan = 603;
----------
assign = array1d(1..11 ,[4, 2, 4, 2, 4, 4, 1, 1, 2, 3, 4]);
next = array1d(1..11 ,[3, 9, 5, 2, 6, 11, 8, 4, 10, 1, 7]);
makespan = 597;
----------
assign = array1d(1..11 ,[4, 2, 4, 2, 4, 4, 3, 1, 2, 3, 4]);
next = array1d(1..11 ,[3, 9, 5, 2, 6, 11, 10, 4, 7, 1, 8]);
makespan = 593;
----------
assign = array1d(1..11 ,[4, 2, 4, 2, 4, 4, 1, 1, 2, 3, 4]);
next = array1d(1..11 ,[3, 9, 5, 2, 6, 11, 8, 4, 10, 1, 7]);
makespan = 591;
----------
assign = array1d(1..11 ,[4, 2, 4, 2, 4, 4, 3, 1, 2, 3, 4]);
next = array1d(1..11 ,[3, 9, 5, 2, 6, 11, 10, 4, 7, 1, 8]);
makespan = 587;
----------
assign = array1d(1..11 ,[4, 2, 4, 2, 4, 4, 1, 1, 2, 3, 4]);
next = array1d(1..11 ,[3, 9, 5, 2, 6, 11, 8, 4, 10, 1, 7]);
makespan = 580;
----------
assign = array1d(1..11 ,[4, 2, 4, 2, 4, 4, 3, 1, 2, 3, 4]);
next = array1d(1..11 ,[3, 9, 5, 2, 6, 11, 10, 4, 7, 1, 8]);
makespan = 574;
----------
assign = array1d(1..11 ,[4, 2, 4, 2, 4, 4, 1, 1, 2, 3, 4]);
next = array1d(1..11 ,[3, 9, 5, 2, 6, 11, 8, 4, 10, 1, 7]);
makespan = 568;
----------
assign = array1d(1..11 ,[4, 2, 4, 2, 4, 4, 3, 1, 2, 3, 4]);
next = array1d(1..11 ,[3, 9, 11, 2, 6, 1, 10, 4, 7, 5, 8]);
makespan = 567;
----------
assign = array1d(1..11 ,[4, 2, 4, 2, 4, 4, 3, 1, 2, 3, 4]);
next = array1d(1..11 ,[3, 9, 11, 2, 6, 1, 10, 4, 7, 5, 8]);
makespan = 563;
----------
assign = array1d(1..11 ,[4, 2, 4, 2, 4, 4, 2, 1, 2, 3, 4]);
next = array1d(1..11 ,[11, 4, 5, 9, 6, 1, 2, 7, 10, 3, 8]);
makespan = 562;
----------
assign = array1d(1..11 ,[4, 3, 4, 3, 4, 4, 3, 1, 2, 3, 4]);
next = array1d(1..11 ,[11, 4, 5, 10, 6, 1, 2, 9, 7, 3, 8]);
makespan = 557;
----------
assign = array1d(1..11 ,[4, 2, 4, 2, 4, 4, 2, 1, 2, 3, 4]);
next = array1d(1..11 ,[11, 4, 5, 9, 6, 1, 2, 7, 10, 3, 8]);
makespan = 542;
----------
assign = array1d(1..11 ,[4, 3, 4, 3, 4, 4, 3, 1, 2, 3, 4]);
next = array1d(1..11 ,[11, 4, 5, 10, 6, 1, 2, 9, 7, 3, 8]);
makespan = 535;
----------
assign = array1d(1..11 ,[4, 2, 4, 2, 4, 4, 2, 1, 2, 3, 4]);
next = array1d(1..11 ,[11, 4, 5, 9, 6, 1, 2, 7, 10, 3, 8]);
makespan = 531;
----------
assign = array1d(1..11 ,[1, 1, 4, 1, 4, 4, 3, 1, 2, 3, 4]);
next = array1d(1..11 ,[2, 4, 5, 8, 6, 11, 10, 9, 7, 3, 1]);
makespan = 509;
----------
assign = array1d(1..11 ,[1, 1, 4, 1, 4, 4, 3, 1, 2, 3, 4]);
next = array1d(1..11 ,[2, 4, 5, 8, 6, 11, 10, 9, 7, 3, 1]);
makespan = 507;
----------
assign = array1d(1..11 ,[1, 1, 4, 1, 4, 4, 3, 1, 2, 3, 4]);
next = array1d(1..11 ,[2, 4, 5, 8, 6, 11, 10, 9, 7, 3, 1]);
makespan = 506;
----------
assign = array1d(1..11 ,[1, 1, 4, 1, 4, 4, 3, 1, 2, 3, 4]);
next = array1d(1..11 ,[2, 4, 5, 8, 6, 11, 10, 9, 7, 3, 1]);
makespan = 502;
----------
assign = array1d(1..11 ,[1, 1, 4, 1, 4, 4, 3, 1, 2, 3, 4]);
next = array1d(1..11 ,[2, 4, 5, 8, 6, 11, 10, 9, 7, 3, 1]);
makespan = 501;
----------
assign = array1d(1..11 ,[1, 1, 4, 1, 4, 4, 3, 1, 2, 3, 4]);
next = array1d(1..11 ,[2, 4, 5, 8, 6, 11, 10, 9, 7, 3, 1]);
makespan = 480;
----------
assign = array1d(1..11 ,[1, 1, 4, 1, 4, 4, 3, 1, 2, 3, 4]);
next = array1d(1..11 ,[2, 4, 5, 8, 6, 11, 10, 9, 7, 3, 1]);
makespan = 474;
----------
assign = array1d(1..11 ,[1, 1, 4, 1, 4, 4, 3, 1, 2, 3, 4]);
next = array1d(1..11 ,[2, 4, 5, 8, 6, 11, 10, 9, 7, 3, 1]);
makespan = 446;
----------
assign = array1d(1..11 ,[1, 1, 4, 1, 4, 4, 3, 1, 2, 3, 4]);
next = array1d(1..11 ,[2, 4, 5, 8, 6, 11, 10, 9, 7, 3, 1]);
makespan = 441;
----------
assign = array1d(1..11 ,[1, 1, 4, 1, 4, 4, 3, 1, 2, 3, 4]);
next = array1d(1..11 ,[2, 4, 5, 8, 6, 11, 10, 9, 7, 3, 1]);
makespan = 419;
----------
assign = array1d(1..11 ,[1, 1, 4, 1, 4, 4, 3, 1, 2, 3, 4]);
next = array1d(1..11 ,[2, 4, 11, 8, 6, 3, 10, 9, 7, 5, 1]);
makespan = 412;
----------
assign = array1d(1..11 ,[4, 3, 3, 1, 4, 4, 3, 1, 2, 3, 4]);
next = array1d(1..11 ,[11, 3, 10, 8, 6, 1, 2, 9, 7, 5, 4]);
makespan = 387;
----------
assign = array1d(1..11 ,[4, 1, 1, 1, 4, 4, 3, 1, 2, 3, 4]);
next = array1d(1..11 ,[11, 3, 4, 8, 6, 1, 10, 9, 7, 5, 2]);
makespan = 383;
----------
assign = array1d(1..11 ,[2, 3, 3, 2, 4, 4, 3, 1, 2, 3, 4]);
next = array1d(1..11 ,[9, 3, 10, 1, 6, 11, 2, 4, 7, 5, 8]);
makespan = 361;
----------
assign = array1d(1..11 ,[3, 4, 2, 4, 2, 2, 4, 1, 2, 3, 4]);
next = array1d(1..11 ,[10, 7, 5, 2, 6, 9, 11, 3, 1, 4, 8]);
makespan = 357;
----------
assign = array1d(1..11 ,[3, 4, 4, 2, 2, 2, 4, 1, 2, 3, 4]);
next = array1d(1..11 ,[10, 11, 7, 5, 6, 9, 2, 4, 1, 3, 8]);
makespan = 355;
----------
assign = array1d(1..11 ,[4, 4, 4, 3, 2, 3, 3, 1, 2, 3, 4]);
next = array1d(1..11 ,[2, 3, 11, 10, 9, 7, 4, 5, 6, 1, 8]);
makespan = 344;
----------
assign = array1d(1..11 ,[3, 4, 4, 2, 2, 2, 4, 1, 2, 3, 4]);
next = array1d(1..11 ,[10, 11, 7, 5, 6, 9, 2, 4, 1, 3, 8]);
makespan = 343;
----------
assign = array1d(1..11 ,[3, 4, 4, 2, 2, 2, 4, 1, 2, 3, 4]);
next = array1d(1..11 ,[10, 7, 11, 5, 6, 9, 3, 4, 1, 2, 8]);
makespan = 341;
----------
assign = array1d(1..11 ,[2, 4, 4, 3, 2, 3, 3, 1, 2, 3, 4]);
next = array1d(1..11 ,[5, 3, 11, 10, 9, 7, 4, 1, 6, 2, 8]);
makespan = 338;
----------
assign = array1d(1..11 ,[1, 2, 3, 3, 3, 4, 4, 1, 2, 3, 4]);
next = array1d(1..11 ,[8, 9, 4, 5, 10, 7, 11, 2, 3, 6, 1]);
makespan = 332;
----------
assign = array1d(1..11 ,[2, 3, 2, 2, 4, 4, 3, 1, 2, 3, 4]);
next = array1d(1..11 ,[3, 10, 4, 9, 6, 11, 2, 1, 7, 5, 8]);
makespan = 329;
----------
assign = array1d(1..11 ,[4, 4, 3, 3, 2, 2, 4, 1, 2, 3, 4]);
next = array1d(1..11 ,[7, 11, 4, 10, 6, 9, 2, 5, 3, 1, 8]);
makespan = 326;
----------
assign = array1d(1..11 ,[4, 4, 3, 3, 2, 2, 4, 1, 2, 3, 4]);
next = array1d(1..11 ,[7, 11, 4, 10, 6, 9, 2, 5, 3, 1, 8]);
makespan = 323;
----------
assign = array1d(1..11 ,[4, 4, 3, 3, 2, 2, 4, 1, 2, 3, 4]);
next = array1d(1..11 ,[7, 11, 4, 10, 6, 9, 2, 5, 3, 1, 8]);
makespan = 320;
----------
assign = array1d(1..11 ,[4, 4, 3, 3, 2, 2, 4, 1, 2, 3, 4]);
next = array1d(1..11 ,[7, 11, 4, 10, 6, 9, 2, 5, 3, 1, 8]);
makespan = 317;
----------
assign = array1d(1..11 ,[4, 4, 3, 3, 2, 2, 4, 1, 2, 3, 4]);
next = array1d(1..11 ,[7, 11, 4, 10, 6, 9, 2, 5, 3, 1, 8]);
makespan = 316;
----------
assign = array1d(1..11 ,[4, 4, 3, 3, 2, 2, 4, 1, 2, 3, 4]);
next = array1d(1..11 ,[7, 11, 4, 10, 6, 9, 2, 5, 3, 1, 8]);
makespan = 314;
----------
assign = array1d(1..11 ,[4, 4, 3, 3, 2, 2, 4, 1, 2, 3, 4]);
next = array1d(1..11 ,[7, 11, 4, 10, 6, 9, 2, 5, 3, 1, 8]);
makespan = 313;
----------
assign = array1d(1..11 ,[4, 3, 2, 2, 1, 1, 4, 1, 2, 3, 4]);
next = array1d(1..11 ,[7, 10, 4, 9, 6, 8, 11, 3, 2, 1, 5]);
makespan = 310;
----------
assign = array1d(1..11 ,[4, 4, 2, 2, 1, 1, 3, 1, 2, 3, 4]);
next = array1d(1..11 ,[11, 1, 4, 9, 6, 8, 10, 3, 7, 2, 5]);
makespan = 309;
----------
assign = array1d(1..11 ,[2, 3, 1, 1, 4, 4, 3, 1, 2, 3, 4]);
next = array1d(1..11 ,[9, 10, 4, 8, 6, 11, 2, 1, 7, 5, 3]);
makespan = 300;
----------
assign = array1d(1..11 ,[2, 1, 1, 4, 3, 3, 4, 1, 2, 3, 4]);
next = array1d(1..11 ,[9, 3, 8, 7, 6, 10, 11, 1, 5, 4, 2]);
makespan = 298;
----------
assign = array1d(1..11 ,[2, 1, 3, 3, 4, 4, 1, 1, 2, 3, 4]);
next = array1d(1..11 ,[9, 8, 4, 10, 6, 11, 2, 1, 3, 5, 7]);
makespan = 294;
----------
assign = array1d(1..11 ,[3, 1, 3, 2, 4, 4, 1, 1, 2, 3, 4]);
next = array1d(1..11 ,[10, 8, 1, 9, 6, 11, 2, 4, 3, 5, 7]);
makespan = 292;
----------
assign = array1d(1..11 ,[3, 4, 3, 1, 2, 2, 4, 1, 2, 3, 4]);
next = array1d(1..11 ,[3, 11, 10, 8, 6, 9, 2, 5, 1, 7, 4]);
makespan = 290;
----------
assign = array1d(1..11 ,[2, 4, 4, 1, 3, 3, 2, 1, 2, 3, 4]);
next = array1d(1..11 ,[7, 3, 11, 8, 6, 10, 9, 1, 5, 2, 4]);
makespan = 287;
----------
assign = array1d(1..11 ,[1, 2, 2, 3, 4, 4, 1, 1, 2, 3, 4]);
next = array1d(1..11 ,[7, 3, 9, 10, 6, 11, 8, 2, 4, 5, 1]);
makespan = 285;
----------
assign = array1d(1..11 ,[2, 4, 4, 3, 1, 1, 2, 1, 2, 3, 4]);
next = array1d(1..11 ,[7, 3, 11, 10, 6, 8, 9, 1, 4, 2, 5]);
makespan = 283;
----------
assign = array1d(1..11 ,[4, 1, 1, 4, 3, 3, 2, 1, 2, 3, 4]);
next = array1d(1..11 ,[4, 3, 8, 11, 6, 10, 9, 7, 5, 1, 2]);
makespan = 282;
----------
assign = array1d(1..11 ,[4, 2, 4, 1, 3, 3, 2, 1, 2, 3, 4]);
next = array1d(1..11 ,[3, 9, 11, 8, 6, 10, 2, 7, 5, 1, 4]);
makespan = 279;
----------
assign = array1d(1..11 ,[4, 1, 4, 2, 3, 3, 1, 1, 2, 3, 4]);
next = array1d(1..11 ,[3, 8, 11, 9, 6, 10, 2, 4, 5, 1, 7]);
makespan = 278;
----------
assign = array1d(1..11 ,[3, 2, 2, 4, 4, 3, 1, 1, 2, 3, 4]);
next = array1d(1..11 ,[6, 3, 9, 5, 11, 10, 8, 2, 1, 4, 7]);
makespan = 275;
----------
assign = array1d(1..11 ,[3, 2, 2, 4, 3, 4, 1, 1, 2, 3, 4]);
next = array1d(1..11 ,[5, 3, 9, 11, 10, 4, 8, 2, 1, 6, 7]);
makespan = 273;
----------
assign = array1d(1..11 ,[3, 4, 4, 2, 3, 2, 1, 1, 2, 3, 4]);
next = array1d(1..11 ,[5, 3, 11, 9, 10, 4, 8, 6, 1, 2, 7]);
makespan = 272;
----------
assign = array1d(1..11 ,[3, 2, 2, 4, 3, 4, 1, 1, 2, 3, 4]);
next = array1d(1..11 ,[5, 3, 9, 11, 10, 4, 8, 2, 1, 6, 7]);
makespan = 271;
----------
assign = array1d(1..11 ,[3, 2, 2, 4, 3, 4, 1, 1, 2, 3, 4]);
next = array1d(1..11 ,[5, 3, 9, 11, 10, 4, 8, 2, 1, 6, 7]);
makespan = 265;
----------
assign = array1d(1..11 ,[3, 2, 2, 4, 3, 4, 1, 1, 2, 3, 4]);
next = array1d(1..11 ,[5, 3, 9, 11, 10, 4, 8, 2, 1, 6, 7]);
makespan = 259;
----------
assign = array1d(1..11 ,[3, 2, 2, 4, 3, 4, 1, 1, 2, 3, 4]);
next = array1d(1..11 ,[5, 3, 9, 11, 10, 4, 8, 2, 1, 6, 7]);
makespan = 258;
----------
assign = array1d(1..11 ,[3, 2, 2, 4, 3, 4, 1, 1, 2, 3, 4]);
next = array1d(1..11 ,[5, 3, 9, 11, 10, 4, 8, 2, 1, 6, 7]);
makespan = 253;
----------
assign = array1d(1..11 ,[3, 2, 2, 4, 3, 4, 1, 1, 2, 3, 4]);
next = array1d(1..11 ,[5, 3, 9, 11, 10, 4, 8, 2, 1, 6, 7]);
makespan = 252;
----------
assign = array1d(1..11 ,[3, 2, 2, 4, 3, 4, 1, 1, 2, 3, 4]);
next = array1d(1..11 ,[5, 3, 9, 11, 10, 4, 8, 2, 1, 6, 7]);
makespan = 250;
----------
assign = array1d(1..11 ,[3, 2, 2, 4, 3, 4, 1, 1, 2, 3, 4]);
next = array1d(1..11 ,[5, 3, 9, 11, 10, 4, 8, 2, 1, 6, 7]);
makespan = 247;
----------
assign = array1d(1..11 ,[3, 2, 2, 4, 3, 4, 1, 1, 2, 3, 4]);
next = array1d(1..11 ,[5, 3, 9, 11, 10, 4, 8, 2, 1, 6, 7]);
makespan = 244;
----------
assign = array1d(1..11 ,[4, 4, 1, 3, 1, 3, 2, 1, 2, 3, 4]);
next = array1d(1..11 ,[11, 1, 8, 10, 3, 4, 9, 7, 6, 2, 5]);
makespan = 243;
----------
assign = array1d(1..11 ,[4, 2, 2, 4, 3, 3, 1, 1, 2, 3, 4]);
next = array1d(1..11 ,[11, 3, 9, 1, 6, 10, 8, 2, 5, 4, 7]);
makespan = 241;
----------
assign = array1d(1..11 ,[4, 3, 3, 4, 2, 2, 1, 1, 2, 3, 4]);
next = array1d(1..11 ,[11, 3, 10, 1, 6, 9, 8, 5, 2, 4, 7]);
makespan = 237;
----------
assign = array1d(1..11 ,[4, 1, 3, 4, 2, 2, 3, 1, 2, 3, 4]);
next = array1d(1..11 ,[11, 8, 7, 1, 6, 9, 10, 5, 3, 4, 2]);
makespan = 236;
----------
assign = array1d(1..11 ,[1, 4, 4, 1, 2, 3, 3, 1, 2, 3, 4]);
next = array1d(1..11 ,[8, 3, 11, 1, 9, 7, 10, 5, 6, 2, 4]);
makespan = 235;
----------
assign = array1d(1..11 ,[2, 4, 1, 2, 4, 3, 3, 1, 2, 3, 4]);
next = array1d(1..11 ,[9, 11, 8, 1, 2, 7, 10, 4, 6, 5, 3]);
makespan = 231;
----------
assign = array1d(1..11 ,[2, 4, 1, 2, 4, 3, 3, 1, 2, 3, 4]);
next = array1d(1..11 ,[9, 11, 8, 1, 2, 7, 10, 4, 6, 5, 3]);
makespan = 230;
----------
assign = array1d(1..11 ,[2, 4, 1, 2, 4, 3, 3, 1, 2, 3, 4]);
next = array1d(1..11 ,[9, 11, 8, 1, 2, 7, 10, 4, 6, 5, 3]);
makespan = 229;
----------
assign = array1d(1..11 ,[2, 4, 1, 2, 4, 3, 3, 1, 2, 3, 4]);
next = array1d(1..11 ,[9, 11, 8, 1, 2, 7, 10, 4, 6, 5, 3]);
makespan = 227;
----------
assign = array1d(1..11 ,[2, 4, 1, 2, 4, 3, 3, 1, 2, 3, 4]);
next = array1d(1..11 ,[9, 11, 8, 1, 2, 7, 10, 4, 6, 5, 3]);
makespan = 224;
----------
assign = array1d(1..11 ,[2, 4, 1, 2, 4, 3, 3, 1, 2, 3, 4]);
next = array1d(1..11 ,[9, 11, 8, 1, 2, 7, 10, 4, 6, 5, 3]);
makespan = 220;
----------
assign = array1d(1..11 ,[2, 4, 1, 2, 4, 3, 3, 1, 2, 3, 4]);
next = array1d(1..11 ,[9, 11, 8, 1, 2, 7, 10, 4, 6, 5, 3]);
makespan = 218;
----------
assign = array1d(1..11 ,[2, 4, 1, 2, 4, 3, 3, 1, 2, 3, 4]);
next = array1d(1..11 ,[9, 11, 8, 1, 2, 7, 10, 4, 6, 5, 3]);
makespan = 215;
----------
assign = array1d(1..11 ,[2, 4, 1, 2, 4, 3, 3, 1, 2, 3, 4]);
next = array1d(1..11 ,[9, 11, 8, 1, 2, 7, 10, 4, 6, 5, 3]);
makespan = 214;
----------
assign = array1d(1..11 ,[2, 4, 1, 2, 4, 3, 3, 1, 2, 3, 4]);
next = array1d(1..11 ,[9, 11, 8, 1, 2, 7, 10, 4, 6, 5, 3]);
makespan = 213;
----------
assign = array1d(1..11 ,[2, 4, 1, 2, 4, 3, 3, 1, 2, 3, 4]);
next = array1d(1..11 ,[9, 11, 8, 1, 2, 7, 10, 4, 6, 5, 3]);
makespan = 212;
----------
assign = array1d(1..11 ,[2, 4, 1, 2, 4, 3, 3, 1, 2, 3, 4]);
next = array1d(1..11 ,[9, 11, 8, 1, 2, 7, 10, 4, 6, 5, 3]);
makespan = 207;
----------
assign = array1d(1..11 ,[1, 3, 3, 1, 4, 2, 2, 1, 2, 3, 4]);
next = array1d(1..11 ,[8, 3, 10, 1, 11, 7, 9, 6, 2, 5, 4]);
makespan = 204;
----------
assign = array1d(1..11 ,[1, 3, 3, 1, 4, 2, 2, 1, 2, 3, 4]);
next = array1d(1..11 ,[8, 3, 10, 1, 11, 7, 9, 6, 2, 5, 4]);
makespan = 202;
----------
assign = array1d(1..11 ,[1, 3, 3, 1, 4, 2, 2, 1, 2, 3, 4]);
next = array1d(1..11 ,[8, 3, 10, 1, 11, 7, 9, 6, 2, 5, 4]);
makespan = 201;
----------
assign = array1d(1..11 ,[1, 3, 3, 1, 4, 2, 2, 1, 2, 3, 4]);
next = array1d(1..11 ,[8, 3, 10, 1, 11, 7, 9, 6, 2, 5, 4]);
makespan = 197;
----------
assign = array1d(1..11 ,[1, 3, 3, 1, 4, 2, 2, 1, 2, 3, 4]);
next = array1d(1..11 ,[8, 3, 10, 1, 11, 7, 9, 6, 2, 5, 4]);
makespan = 193;
----------
assign = array1d(1..11 ,[3, 4, 1, 3, 2, 2, 4, 1, 2, 3, 4]);
next = array1d(1..11 ,[10, 7, 8, 1, 6, 9, 11, 5, 4, 2, 3]);
makespan = 192;
----------
assign = array1d(1..11 ,[4, 4, 1, 3, 2, 2, 3, 1, 2, 3, 4]);
next = array1d(1..11 ,[2, 11, 8, 10, 6, 9, 4, 5, 7, 1, 3]);
makespan = 191;
----------
assign = array1d(1..11 ,[2, 3, 4, 3, 1, 2, 1, 1, 2, 3, 4]);
next = array1d(1..11 ,[6, 10, 11, 2, 8, 9, 5, 1, 4, 3, 7]);
makespan = 190;
----------
assign = array1d(1..11 ,[1, 4, 2, 2, 1, 3, 4, 1, 2, 3, 4]);
next = array1d(1..11 ,[5, 7, 4, 9, 8, 10, 11, 3, 6, 2, 1]);
makespan = 189;
----------
assign = array1d(1..11 ,[4, 4, 2, 3, 1, 2, 3, 1, 2, 3, 4]);
next = array1d(1..11 ,[2, 11, 9, 10, 8, 3, 4, 6, 7, 1, 5]);
makespan = 188;
----------
assign = array1d(1..11 ,[2, 4, 2, 1, 1, 3, 4, 1, 2, 3, 4]);
next = array1d(1..11 ,[3, 7, 9, 5, 8, 10, 11, 1, 6, 2, 4]);
makespan = 187;
----------
assign = array1d(1..11 ,[4, 4, 3, 2, 2, 1, 3, 1, 2, 3, 4]);
next = array1d(1..11 ,[2, 11, 7, 5, 9, 8, 10, 4, 3, 1, 6]);
makespan = 186;
----------
assign = array1d(1..11 ,[4, 4, 3, 2, 2, 1, 3, 1, 2, 3, 4]);
next = array1d(1..11 ,[2, 11, 7, 5, 9, 8, 10, 4, 3, 1, 6]);
makespan = 184;
----------
assign = array1d(1..11 ,[4, 4, 3, 2, 2, 1, 3, 1, 2, 3, 4]);
next = array1d(1..11 ,[2, 11, 7, 5, 9, 8, 10, 4, 3, 1, 6]);
makespan = 183;
----------
assign = array1d(1..11 ,[1, 4, 2, 3, 1, 2, 3, 1, 2, 3, 4]);
next = array1d(1..11 ,[5, 11, 9, 10, 8, 3, 4, 6, 7, 2, 1]);
makespan = 182;
----------
assign = array1d(1..11 ,[4, 4, 3, 2, 2, 1, 3, 1, 2, 3, 4]);
next = array1d(1..11 ,[2, 11, 7, 5, 9, 8, 10, 4, 3, 1, 6]);
makespan = 181;
----------
assign = array1d(1..11 ,[4, 4, 2, 2, 1, 3, 1, 1, 2, 3, 4]);
next = array1d(1..11 ,[2, 11, 4, 9, 8, 10, 5, 3, 6, 1, 7]);
makespan = 180;
----------
assign = array1d(1..11 ,[4, 4, 1, 2, 2, 3, 1, 1, 2, 3, 4]);
next = array1d(1..11 ,[2, 11, 7, 5, 9, 10, 8, 4, 6, 1, 3]);
makespan = 179;
----------
assign = array1d(1..11 ,[4, 4, 1, 2, 2, 3, 1, 1, 2, 3, 4]);
next = array1d(1..11 ,[2, 11, 7, 5, 9, 10, 8, 4, 6, 1, 3]);
makespan = 178;
----------
==========
	Command being timed: "mzn-chuffed lbbd-datasets/Rabadi-2006/dzn-balanced/model.mzn lbbd-datasets/Rabadi-2006/dzn-balanced/7on4Rp50Rs50_3Ameer.dzn"
	User time (seconds): 0.41
	System time (seconds): 0.01
	Percent of CPU this job got: 34%
	Elapsed (wall clock) time (h:mm:ss or m:ss): 0:01.24
	Average shared text size (kbytes): 0
	Average unshared data size (kbytes): 0
	Average stack size (kbytes): 0
	Average total size (kbytes): 0
	Maximum resident set size (kbytes): 34064
	Average resident set size (kbytes): 0
	Major (requiring I/O) page faults: 0
	Minor (reclaiming a frame) page faults: 3107
	Voluntary context switches: 199
	Involuntary context switches: 6
	Swaps: 0
	File system inputs: 0
	File system outputs: 272
	Socket messages sent: 0
	Socket messages received: 0
	Signals delivered: 0
	Page size (bytes): 4096
	Exit status: 0
