+ /usr/bin/timeout 600 /usr/bin/time -v mzn-chuffed lbbd-datasets/Rabadi-2006/dzn-balanced/model.mzn lbbd-datasets/Rabadi-2006/dzn-balanced/7on2Rp50Rs50_7Ameer.dzn
% No search annotation given. Defaulting to VSIDS!
assign = array1d(1..9 ,[2, 2, 2, 2, 2, 2, 2, 1, 2]);
next = array1d(1..9 ,[2, 3, 4, 5, 6, 7, 9, 1, 8]);
makespan = 900;
----------
assign = array1d(1..9 ,[2, 2, 2, 2, 2, 2, 2, 1, 2]);
next = array1d(1..9 ,[4, 3, 5, 2, 6, 7, 9, 1, 8]);
makespan = 865;
----------
assign = array1d(1..9 ,[1, 2, 1, 1, 2, 2, 2, 1, 2]);
next = array1d(1..9 ,[4, 5, 8, 3, 6, 7, 9, 2, 1]);
makespan = 699;
----------
assign = array1d(1..9 ,[2, 2, 2, 2, 2, 1, 1, 1, 2]);
next = array1d(1..9 ,[5, 4, 2, 1, 9, 8, 6, 3, 7]);
makespan = 698;
----------
assign = array1d(1..9 ,[2, 2, 2, 2, 2, 1, 1, 1, 2]);
next = array1d(1..9 ,[5, 4, 2, 1, 9, 8, 6, 3, 7]);
makespan = 697;
----------
assign = array1d(1..9 ,[2, 2, 2, 2, 2, 1, 1, 1, 2]);
next = array1d(1..9 ,[5, 4, 2, 1, 9, 8, 6, 3, 7]);
makespan = 696;
----------
assign = array1d(1..9 ,[2, 2, 2, 2, 2, 1, 1, 1, 2]);
next = array1d(1..9 ,[5, 4, 2, 1, 9, 8, 6, 3, 7]);
makespan = 675;
----------
assign = array1d(1..9 ,[2, 2, 1, 2, 2, 1, 2, 1, 2]);
next = array1d(1..9 ,[5, 4, 8, 1, 7, 3, 9, 2, 6]);
makespan = 663;
----------
assign = array1d(1..9 ,[2, 2, 1, 2, 2, 2, 1, 1, 2]);
next = array1d(1..9 ,[5, 4, 8, 1, 6, 9, 3, 2, 7]);
makespan = 662;
----------
assign = array1d(1..9 ,[2, 2, 1, 2, 2, 2, 1, 1, 2]);
next = array1d(1..9 ,[5, 4, 8, 1, 6, 9, 3, 2, 7]);
makespan = 661;
----------
assign = array1d(1..9 ,[2, 2, 1, 2, 2, 2, 1, 1, 2]);
next = array1d(1..9 ,[5, 4, 8, 1, 6, 9, 3, 2, 7]);
makespan = 660;
----------
assign = array1d(1..9 ,[2, 2, 1, 2, 2, 2, 1, 1, 2]);
next = array1d(1..9 ,[5, 4, 8, 1, 6, 9, 3, 2, 7]);
makespan = 659;
----------
assign = array1d(1..9 ,[2, 2, 1, 2, 2, 2, 1, 1, 2]);
next = array1d(1..9 ,[5, 4, 8, 1, 6, 9, 3, 2, 7]);
makespan = 658;
----------
assign = array1d(1..9 ,[2, 2, 1, 2, 2, 2, 1, 1, 2]);
next = array1d(1..9 ,[5, 4, 8, 1, 6, 9, 3, 2, 7]);
makespan = 657;
----------
assign = array1d(1..9 ,[2, 2, 1, 2, 2, 2, 1, 1, 2]);
next = array1d(1..9 ,[5, 4, 8, 1, 6, 9, 3, 2, 7]);
makespan = 656;
----------
assign = array1d(1..9 ,[2, 2, 1, 2, 2, 2, 1, 1, 2]);
next = array1d(1..9 ,[5, 4, 8, 1, 6, 9, 3, 2, 7]);
makespan = 655;
----------
assign = array1d(1..9 ,[2, 2, 1, 2, 2, 1, 1, 1, 2]);
next = array1d(1..9 ,[5, 4, 8, 1, 9, 7, 3, 2, 6]);
makespan = 651;
----------
assign = array1d(1..9 ,[2, 2, 1, 2, 2, 1, 1, 1, 2]);
next = array1d(1..9 ,[5, 4, 7, 1, 9, 8, 6, 2, 3]);
makespan = 650;
----------
assign = array1d(1..9 ,[2, 2, 1, 2, 2, 1, 1, 1, 2]);
next = array1d(1..9 ,[5, 4, 7, 1, 9, 8, 6, 2, 3]);
makespan = 649;
----------
assign = array1d(1..9 ,[2, 2, 1, 2, 2, 1, 1, 1, 2]);
next = array1d(1..9 ,[5, 4, 7, 1, 9, 8, 6, 2, 3]);
makespan = 648;
----------
assign = array1d(1..9 ,[2, 2, 1, 2, 2, 1, 1, 1, 2]);
next = array1d(1..9 ,[5, 4, 7, 1, 9, 8, 6, 2, 3]);
makespan = 647;
----------
assign = array1d(1..9 ,[2, 2, 1, 2, 2, 1, 1, 1, 2]);
next = array1d(1..9 ,[5, 4, 7, 1, 9, 8, 6, 2, 3]);
makespan = 646;
----------
assign = array1d(1..9 ,[2, 2, 1, 2, 2, 1, 1, 1, 2]);
next = array1d(1..9 ,[5, 4, 7, 1, 9, 8, 6, 2, 3]);
makespan = 645;
----------
assign = array1d(1..9 ,[2, 2, 1, 2, 2, 1, 1, 1, 2]);
next = array1d(1..9 ,[5, 4, 7, 1, 9, 8, 6, 2, 3]);
makespan = 644;
----------
assign = array1d(1..9 ,[2, 2, 1, 2, 2, 1, 1, 1, 2]);
next = array1d(1..9 ,[5, 4, 7, 1, 9, 8, 6, 2, 3]);
makespan = 642;
----------
assign = array1d(1..9 ,[2, 2, 1, 2, 2, 1, 1, 1, 2]);
next = array1d(1..9 ,[5, 4, 7, 1, 9, 8, 6, 2, 3]);
makespan = 640;
----------
assign = array1d(1..9 ,[2, 2, 1, 2, 2, 1, 1, 1, 2]);
next = array1d(1..9 ,[5, 4, 7, 1, 9, 8, 6, 2, 3]);
makespan = 639;
----------
assign = array1d(1..9 ,[2, 2, 1, 2, 2, 1, 1, 1, 2]);
next = array1d(1..9 ,[5, 4, 7, 1, 9, 8, 6, 2, 3]);
makespan = 638;
----------
assign = array1d(1..9 ,[2, 2, 1, 2, 2, 1, 1, 1, 2]);
next = array1d(1..9 ,[5, 4, 7, 1, 9, 8, 6, 2, 3]);
makespan = 637;
----------
assign = array1d(1..9 ,[2, 2, 1, 2, 2, 1, 1, 1, 2]);
next = array1d(1..9 ,[5, 4, 7, 1, 9, 8, 6, 2, 3]);
makespan = 636;
----------
assign = array1d(1..9 ,[2, 2, 1, 2, 2, 1, 1, 1, 2]);
next = array1d(1..9 ,[5, 4, 7, 1, 9, 8, 6, 2, 3]);
makespan = 635;
----------
assign = array1d(1..9 ,[2, 2, 1, 2, 2, 1, 1, 1, 2]);
next = array1d(1..9 ,[5, 4, 7, 1, 9, 8, 6, 2, 3]);
makespan = 604;
----------
assign = array1d(1..9 ,[2, 2, 1, 2, 2, 1, 1, 1, 2]);
next = array1d(1..9 ,[5, 4, 7, 1, 9, 8, 6, 2, 3]);
makespan = 599;
----------
assign = array1d(1..9 ,[2, 2, 1, 2, 2, 1, 1, 1, 2]);
next = array1d(1..9 ,[5, 4, 7, 1, 9, 8, 6, 2, 3]);
makespan = 598;
----------
assign = array1d(1..9 ,[2, 2, 1, 2, 2, 1, 1, 1, 2]);
next = array1d(1..9 ,[5, 4, 7, 1, 9, 8, 6, 2, 3]);
makespan = 597;
----------
assign = array1d(1..9 ,[2, 2, 1, 2, 2, 1, 1, 1, 2]);
next = array1d(1..9 ,[5, 4, 7, 1, 9, 8, 6, 2, 3]);
makespan = 596;
----------
assign = array1d(1..9 ,[2, 2, 1, 2, 2, 1, 1, 1, 2]);
next = array1d(1..9 ,[5, 4, 7, 1, 9, 8, 6, 2, 3]);
makespan = 594;
----------
assign = array1d(1..9 ,[2, 2, 1, 2, 2, 1, 1, 1, 2]);
next = array1d(1..9 ,[5, 4, 7, 1, 9, 8, 6, 2, 3]);
makespan = 590;
----------
assign = array1d(1..9 ,[2, 2, 1, 2, 2, 1, 1, 1, 2]);
next = array1d(1..9 ,[5, 4, 7, 1, 9, 8, 6, 2, 3]);
makespan = 588;
----------
assign = array1d(1..9 ,[2, 2, 1, 2, 2, 1, 1, 1, 2]);
next = array1d(1..9 ,[5, 4, 7, 1, 9, 8, 6, 2, 3]);
makespan = 587;
----------
assign = array1d(1..9 ,[2, 2, 1, 2, 2, 1, 1, 1, 2]);
next = array1d(1..9 ,[5, 4, 7, 1, 9, 8, 6, 2, 3]);
makespan = 586;
----------
assign = array1d(1..9 ,[2, 2, 1, 2, 2, 1, 1, 1, 2]);
next = array1d(1..9 ,[5, 4, 7, 1, 9, 8, 6, 2, 3]);
makespan = 585;
----------
assign = array1d(1..9 ,[2, 2, 1, 2, 2, 1, 1, 1, 2]);
next = array1d(1..9 ,[5, 4, 7, 1, 9, 8, 6, 2, 3]);
makespan = 584;
----------
assign = array1d(1..9 ,[2, 2, 1, 2, 2, 1, 1, 1, 2]);
next = array1d(1..9 ,[5, 4, 7, 1, 9, 8, 6, 2, 3]);
makespan = 583;
----------
assign = array1d(1..9 ,[2, 2, 1, 2, 2, 1, 1, 1, 2]);
next = array1d(1..9 ,[5, 4, 7, 1, 9, 8, 6, 2, 3]);
makespan = 582;
----------
assign = array1d(1..9 ,[2, 2, 1, 2, 2, 1, 1, 1, 2]);
next = array1d(1..9 ,[5, 4, 7, 1, 9, 8, 6, 2, 3]);
makespan = 578;
----------
assign = array1d(1..9 ,[2, 2, 1, 2, 2, 1, 1, 1, 2]);
next = array1d(1..9 ,[5, 4, 7, 1, 9, 8, 6, 2, 3]);
makespan = 575;
----------
assign = array1d(1..9 ,[2, 2, 1, 2, 2, 1, 1, 1, 2]);
next = array1d(1..9 ,[5, 4, 7, 1, 9, 8, 6, 2, 3]);
makespan = 573;
----------
assign = array1d(1..9 ,[2, 2, 1, 2, 2, 1, 1, 1, 2]);
next = array1d(1..9 ,[5, 4, 7, 1, 9, 8, 6, 2, 3]);
makespan = 534;
----------
assign = array1d(1..9 ,[2, 2, 1, 2, 2, 1, 1, 1, 2]);
next = array1d(1..9 ,[5, 4, 7, 1, 9, 8, 6, 2, 3]);
makespan = 527;
----------
assign = array1d(1..9 ,[2, 2, 1, 2, 2, 1, 1, 1, 2]);
next = array1d(1..9 ,[5, 4, 7, 1, 9, 8, 6, 2, 3]);
makespan = 526;
----------
assign = array1d(1..9 ,[2, 2, 1, 2, 2, 1, 1, 1, 2]);
next = array1d(1..9 ,[5, 9, 7, 1, 2, 8, 6, 4, 3]);
makespan = 524;
----------
assign = array1d(1..9 ,[2, 2, 1, 2, 2, 1, 1, 1, 2]);
next = array1d(1..9 ,[5, 9, 7, 1, 2, 8, 6, 4, 3]);
makespan = 523;
----------
assign = array1d(1..9 ,[2, 2, 1, 2, 2, 1, 1, 1, 2]);
next = array1d(1..9 ,[5, 9, 7, 1, 2, 8, 6, 4, 3]);
makespan = 522;
----------
assign = array1d(1..9 ,[2, 2, 1, 2, 2, 1, 1, 1, 2]);
next = array1d(1..9 ,[5, 9, 7, 1, 2, 8, 6, 4, 3]);
makespan = 513;
----------
assign = array1d(1..9 ,[2, 1, 2, 2, 2, 1, 1, 1, 2]);
next = array1d(1..9 ,[5, 6, 4, 1, 9, 7, 8, 3, 2]);
makespan = 498;
----------
assign = array1d(1..9 ,[2, 1, 1, 2, 2, 2, 1, 1, 2]);
next = array1d(1..9 ,[5, 8, 2, 1, 6, 9, 3, 4, 7]);
makespan = 495;
----------
assign = array1d(1..9 ,[2, 1, 1, 2, 2, 2, 1, 1, 2]);
next = array1d(1..9 ,[5, 8, 2, 1, 9, 4, 3, 6, 7]);
makespan = 493;
----------
assign = array1d(1..9 ,[2, 1, 1, 2, 2, 2, 1, 1, 2]);
next = array1d(1..9 ,[5, 8, 2, 1, 9, 4, 3, 6, 7]);
makespan = 489;
----------
assign = array1d(1..9 ,[2, 1, 1, 2, 2, 2, 1, 1, 2]);
next = array1d(1..9 ,[5, 8, 2, 1, 9, 4, 3, 6, 7]);
makespan = 484;
----------
assign = array1d(1..9 ,[2, 1, 1, 2, 2, 2, 1, 1, 2]);
next = array1d(1..9 ,[5, 8, 2, 1, 9, 4, 3, 6, 7]);
makespan = 482;
----------
assign = array1d(1..9 ,[2, 1, 1, 2, 2, 2, 1, 1, 2]);
next = array1d(1..9 ,[5, 8, 2, 1, 9, 4, 3, 6, 7]);
makespan = 481;
----------
assign = array1d(1..9 ,[2, 1, 1, 2, 2, 2, 1, 1, 2]);
next = array1d(1..9 ,[5, 8, 2, 1, 9, 4, 3, 6, 7]);
makespan = 473;
----------
assign = array1d(1..9 ,[2, 1, 1, 2, 2, 2, 1, 1, 2]);
next = array1d(1..9 ,[5, 7, 2, 6, 9, 1, 8, 4, 3]);
makespan = 471;
----------
assign = array1d(1..9 ,[2, 1, 1, 2, 2, 2, 1, 1, 2]);
next = array1d(1..9 ,[5, 8, 7, 9, 4, 1, 2, 6, 3]);
makespan = 470;
----------
assign = array1d(1..9 ,[2, 1, 1, 1, 2, 2, 2, 1, 2]);
next = array1d(1..9 ,[5, 4, 8, 3, 7, 1, 9, 6, 2]);
makespan = 469;
----------
assign = array1d(1..9 ,[2, 1, 1, 1, 2, 2, 2, 1, 2]);
next = array1d(1..9 ,[5, 4, 8, 3, 7, 1, 9, 6, 2]);
makespan = 465;
----------
assign = array1d(1..9 ,[2, 1, 1, 1, 2, 2, 2, 1, 2]);
next = array1d(1..9 ,[5, 4, 8, 3, 7, 1, 9, 6, 2]);
makespan = 464;
----------
assign = array1d(1..9 ,[2, 1, 1, 1, 2, 2, 2, 1, 2]);
next = array1d(1..9 ,[5, 4, 8, 3, 9, 1, 6, 7, 2]);
makespan = 462;
----------
assign = array1d(1..9 ,[2, 1, 1, 1, 2, 2, 2, 1, 2]);
next = array1d(1..9 ,[5, 4, 8, 3, 9, 1, 6, 7, 2]);
makespan = 461;
----------
assign = array1d(1..9 ,[2, 1, 2, 2, 2, 1, 1, 1, 2]);
next = array1d(1..9 ,[4, 6, 5, 3, 9, 8, 2, 1, 7]);
makespan = 460;
----------
assign = array1d(1..9 ,[2, 1, 2, 1, 1, 2, 2, 1, 2]);
next = array1d(1..9 ,[3, 4, 7, 5, 8, 1, 9, 6, 2]);
makespan = 459;
----------
assign = array1d(1..9 ,[1, 2, 2, 2, 1, 1, 2, 1, 2]);
next = array1d(1..9 ,[5, 7, 2, 3, 6, 8, 9, 4, 1]);
makespan = 458;
----------
assign = array1d(1..9 ,[1, 2, 1, 2, 1, 2, 2, 1, 2]);
next = array1d(1..9 ,[5, 9, 8, 7, 3, 4, 2, 6, 1]);
makespan = 456;
----------
assign = array1d(1..9 ,[1, 2, 1, 2, 1, 2, 2, 1, 2]);
next = array1d(1..9 ,[5, 9, 8, 7, 3, 4, 2, 6, 1]);
makespan = 453;
----------
assign = array1d(1..9 ,[2, 1, 1, 2, 1, 2, 2, 1, 2]);
next = array1d(1..9 ,[6, 8, 2, 7, 3, 4, 9, 1, 5]);
makespan = 451;
----------
assign = array1d(1..9 ,[2, 1, 1, 2, 1, 2, 2, 1, 2]);
next = array1d(1..9 ,[6, 8, 2, 7, 3, 4, 9, 1, 5]);
makespan = 449;
----------
assign = array1d(1..9 ,[2, 1, 1, 2, 1, 2, 2, 1, 2]);
next = array1d(1..9 ,[6, 8, 2, 7, 3, 4, 9, 1, 5]);
makespan = 447;
----------
assign = array1d(1..9 ,[2, 1, 1, 2, 1, 2, 2, 1, 2]);
next = array1d(1..9 ,[6, 8, 2, 7, 3, 4, 9, 1, 5]);
makespan = 445;
----------
assign = array1d(1..9 ,[2, 1, 1, 2, 1, 2, 2, 1, 2]);
next = array1d(1..9 ,[6, 8, 2, 7, 3, 4, 9, 1, 5]);
makespan = 444;
----------
assign = array1d(1..9 ,[2, 1, 1, 2, 1, 2, 2, 1, 2]);
next = array1d(1..9 ,[6, 8, 2, 7, 3, 4, 9, 1, 5]);
makespan = 443;
----------
assign = array1d(1..9 ,[2, 1, 1, 2, 1, 2, 2, 1, 2]);
next = array1d(1..9 ,[6, 8, 2, 7, 3, 4, 9, 1, 5]);
makespan = 441;
----------
assign = array1d(1..9 ,[2, 1, 1, 2, 1, 2, 2, 1, 2]);
next = array1d(1..9 ,[6, 8, 2, 7, 3, 4, 9, 1, 5]);
makespan = 439;
----------
assign = array1d(1..9 ,[2, 1, 1, 2, 1, 2, 2, 1, 2]);
next = array1d(1..9 ,[6, 8, 2, 7, 3, 4, 9, 1, 5]);
makespan = 438;
----------
assign = array1d(1..9 ,[2, 1, 1, 2, 1, 2, 2, 1, 2]);
next = array1d(1..9 ,[6, 8, 2, 7, 3, 4, 9, 1, 5]);
makespan = 437;
----------
assign = array1d(1..9 ,[2, 1, 1, 2, 1, 2, 2, 1, 2]);
next = array1d(1..9 ,[6, 8, 2, 7, 3, 4, 9, 1, 5]);
makespan = 436;
----------
assign = array1d(1..9 ,[2, 1, 1, 2, 1, 2, 2, 1, 2]);
next = array1d(1..9 ,[6, 8, 2, 7, 3, 4, 9, 1, 5]);
makespan = 434;
----------
assign = array1d(1..9 ,[2, 1, 1, 2, 1, 2, 2, 1, 2]);
next = array1d(1..9 ,[6, 8, 2, 7, 3, 4, 9, 1, 5]);
makespan = 430;
----------
assign = array1d(1..9 ,[2, 1, 1, 2, 1, 2, 2, 1, 2]);
next = array1d(1..9 ,[6, 8, 2, 7, 3, 4, 9, 1, 5]);
makespan = 429;
----------
assign = array1d(1..9 ,[2, 1, 1, 2, 1, 2, 2, 1, 2]);
next = array1d(1..9 ,[6, 8, 2, 7, 3, 4, 9, 1, 5]);
makespan = 428;
----------
assign = array1d(1..9 ,[2, 1, 1, 2, 1, 2, 2, 1, 2]);
next = array1d(1..9 ,[6, 8, 2, 7, 3, 4, 9, 1, 5]);
makespan = 426;
----------
assign = array1d(1..9 ,[2, 1, 1, 2, 1, 2, 2, 1, 2]);
next = array1d(1..9 ,[6, 8, 2, 7, 3, 4, 9, 1, 5]);
makespan = 424;
----------
assign = array1d(1..9 ,[1, 2, 1, 2, 1, 2, 2, 1, 2]);
next = array1d(1..9 ,[5, 6, 8, 7, 3, 4, 9, 2, 1]);
makespan = 423;
----------
assign = array1d(1..9 ,[2, 1, 2, 2, 1, 2, 1, 1, 2]);
next = array1d(1..9 ,[4, 5, 9, 3, 8, 1, 2, 6, 7]);
makespan = 422;
----------
assign = array1d(1..9 ,[1, 1, 2, 2, 1, 2, 2, 1, 2]);
next = array1d(1..9 ,[8, 5, 9, 3, 1, 4, 6, 7, 2]);
makespan = 421;
----------
assign = array1d(1..9 ,[1, 1, 2, 1, 2, 2, 2, 1, 2]);
next = array1d(1..9 ,[8, 4, 5, 1, 9, 3, 6, 7, 2]);
makespan = 419;
----------
assign = array1d(1..9 ,[2, 2, 1, 1, 1, 2, 2, 1, 2]);
next = array1d(1..9 ,[9, 7, 5, 3, 8, 1, 6, 2, 4]);
makespan = 418;
----------
assign = array1d(1..9 ,[2, 2, 1, 1, 1, 2, 2, 1, 2]);
next = array1d(1..9 ,[9, 7, 5, 8, 4, 1, 6, 2, 3]);
makespan = 417;
----------
assign = array1d(1..9 ,[1, 2, 2, 1, 1, 2, 2, 1, 2]);
next = array1d(1..9 ,[5, 7, 9, 8, 4, 3, 6, 2, 1]);
makespan = 416;
----------
assign = array1d(1..9 ,[1, 1, 1, 2, 2, 2, 2, 1, 2]);
next = array1d(1..9 ,[3, 8, 2, 7, 9, 4, 5, 6, 1]);
makespan = 415;
----------
assign = array1d(1..9 ,[1, 1, 2, 2, 1, 2, 2, 1, 2]);
next = array1d(1..9 ,[5, 8, 9, 7, 2, 3, 6, 4, 1]);
makespan = 414;
----------
assign = array1d(1..9 ,[1, 1, 2, 2, 1, 2, 2, 1, 2]);
next = array1d(1..9 ,[5, 8, 9, 7, 2, 3, 6, 4, 1]);
makespan = 413;
----------
assign = array1d(1..9 ,[1, 1, 1, 2, 2, 2, 2, 1, 2]);
next = array1d(1..9 ,[8, 1, 2, 7, 9, 4, 5, 6, 3]);
makespan = 412;
----------
assign = array1d(1..9 ,[1, 2, 2, 1, 1, 2, 2, 1, 2]);
next = array1d(1..9 ,[5, 7, 9, 8, 4, 3, 6, 2, 1]);
makespan = 411;
----------
assign = array1d(1..9 ,[1, 2, 2, 1, 1, 2, 2, 1, 2]);
next = array1d(1..9 ,[5, 7, 9, 8, 4, 3, 6, 2, 1]);
makespan = 410;
----------
assign = array1d(1..9 ,[1, 2, 2, 1, 1, 2, 2, 1, 2]);
next = array1d(1..9 ,[5, 7, 9, 8, 4, 3, 6, 2, 1]);
makespan = 409;
----------
assign = array1d(1..9 ,[1, 2, 2, 1, 1, 2, 2, 1, 2]);
next = array1d(1..9 ,[5, 7, 9, 8, 4, 3, 6, 2, 1]);
makespan = 408;
----------
assign = array1d(1..9 ,[1, 2, 2, 1, 1, 2, 2, 1, 2]);
next = array1d(1..9 ,[5, 7, 9, 8, 4, 3, 6, 2, 1]);
makespan = 407;
----------
==========
	Command being timed: "mzn-chuffed lbbd-datasets/Rabadi-2006/dzn-balanced/model.mzn lbbd-datasets/Rabadi-2006/dzn-balanced/7on2Rp50Rs50_7Ameer.dzn"
	User time (seconds): 0.24
	System time (seconds): 0.00
	Percent of CPU this job got: 36%
	Elapsed (wall clock) time (h:mm:ss or m:ss): 0:00.70
	Average shared text size (kbytes): 0
	Average unshared data size (kbytes): 0
	Average stack size (kbytes): 0
	Average total size (kbytes): 0
	Maximum resident set size (kbytes): 30784
	Average resident set size (kbytes): 0
	Major (requiring I/O) page faults: 0
	Minor (reclaiming a frame) page faults: 2679
	Voluntary context switches: 112
	Involuntary context switches: 3
	Swaps: 0
	File system inputs: 0
	File system outputs: 152
	Socket messages sent: 0
	Socket messages received: 0
	Signals delivered: 0
	Page size (bytes): 4096
	Exit status: 0
