+ /usr/bin/timeout 600 /usr/bin/time -v mzn-chuffed lbbd-datasets/Rabadi-2006/dzn-balanced/model.mzn lbbd-datasets/Rabadi-2006/dzn-balanced/8on2Rp50Rs50_1Ameer.dzn
% No search annotation given. Defaulting to VSIDS!
assign = array1d(1..10 ,[2, 2, 2, 2, 2, 2, 2, 2, 1, 2]);
next = array1d(1..10 ,[2, 3, 4, 5, 6, 7, 8, 10, 1, 9]);
makespan = 1108;
----------
assign = array1d(1..10 ,[2, 2, 2, 2, 2, 2, 2, 2, 1, 2]);
next = array1d(1..10 ,[4, 3, 5, 2, 6, 7, 8, 10, 1, 9]);
makespan = 1107;
----------
assign = array1d(1..10 ,[2, 2, 2, 2, 2, 2, 1, 2, 1, 2]);
next = array1d(1..10 ,[2, 3, 6, 8, 4, 10, 9, 1, 5, 7]);
makespan = 1061;
----------
assign = array1d(1..10 ,[2, 2, 2, 2, 2, 2, 1, 2, 1, 2]);
next = array1d(1..10 ,[3, 5, 10, 2, 6, 8, 9, 1, 4, 7]);
makespan = 1056;
----------
assign = array1d(1..10 ,[2, 2, 2, 2, 2, 1, 2, 2, 1, 2]);
next = array1d(1..10 ,[4, 10, 5, 7, 1, 9, 2, 3, 8, 6]);
makespan = 1052;
----------
assign = array1d(1..10 ,[2, 2, 1, 2, 2, 2, 2, 2, 1, 2]);
next = array1d(1..10 ,[10, 4, 9, 8, 1, 2, 6, 5, 7, 3]);
makespan = 1050;
----------
assign = array1d(1..10 ,[2, 2, 2, 2, 2, 1, 2, 2, 1, 2]);
next = array1d(1..10 ,[3, 1, 4, 8, 7, 9, 2, 10, 5, 6]);
makespan = 1024;
----------
assign = array1d(1..10 ,[2, 2, 2, 2, 2, 1, 2, 2, 1, 2]);
next = array1d(1..10 ,[3, 7, 5, 2, 8, 9, 10, 4, 1, 6]);
makespan = 1023;
----------
assign = array1d(1..10 ,[1, 2, 2, 2, 2, 2, 2, 2, 1, 2]);
next = array1d(1..10 ,[9, 6, 2, 7, 4, 5, 10, 3, 8, 1]);
makespan = 1022;
----------
assign = array1d(1..10 ,[2, 2, 2, 2, 2, 1, 2, 2, 1, 2]);
next = array1d(1..10 ,[4, 3, 5, 7, 1, 9, 10, 2, 8, 6]);
makespan = 1020;
----------
assign = array1d(1..10 ,[2, 2, 2, 2, 2, 1, 2, 2, 1, 2]);
next = array1d(1..10 ,[2, 5, 7, 8, 4, 9, 10, 3, 1, 6]);
makespan = 1018;
----------
assign = array1d(1..10 ,[2, 2, 2, 2, 2, 1, 2, 2, 1, 2]);
next = array1d(1..10 ,[3, 1, 8, 7, 2, 9, 10, 4, 5, 6]);
makespan = 1017;
----------
assign = array1d(1..10 ,[2, 2, 2, 2, 2, 1, 2, 2, 1, 2]);
next = array1d(1..10 ,[3, 1, 10, 7, 8, 9, 5, 2, 4, 6]);
makespan = 1016;
----------
assign = array1d(1..10 ,[2, 2, 2, 1, 2, 2, 2, 2, 1, 2]);
next = array1d(1..10 ,[8, 5, 6, 9, 10, 1, 3, 2, 7, 4]);
makespan = 1000;
----------
assign = array1d(1..10 ,[2, 2, 2, 1, 2, 2, 2, 2, 1, 2]);
next = array1d(1..10 ,[8, 5, 6, 9, 10, 1, 3, 2, 7, 4]);
makespan = 998;
----------
assign = array1d(1..10 ,[2, 2, 2, 1, 2, 2, 2, 2, 1, 2]);
next = array1d(1..10 ,[8, 5, 6, 9, 10, 1, 3, 2, 7, 4]);
makespan = 994;
----------
assign = array1d(1..10 ,[2, 2, 2, 1, 2, 2, 2, 2, 1, 2]);
next = array1d(1..10 ,[8, 5, 6, 9, 10, 1, 3, 2, 7, 4]);
makespan = 971;
----------
assign = array1d(1..10 ,[2, 2, 2, 1, 2, 2, 2, 2, 1, 2]);
next = array1d(1..10 ,[8, 5, 6, 9, 10, 1, 3, 2, 7, 4]);
makespan = 970;
----------
assign = array1d(1..10 ,[2, 2, 2, 1, 2, 2, 2, 2, 1, 2]);
next = array1d(1..10 ,[8, 5, 6, 9, 10, 1, 3, 2, 7, 4]);
makespan = 968;
----------
assign = array1d(1..10 ,[2, 2, 2, 1, 2, 2, 2, 2, 1, 2]);
next = array1d(1..10 ,[8, 5, 6, 9, 10, 1, 3, 2, 7, 4]);
makespan = 967;
----------
assign = array1d(1..10 ,[2, 2, 2, 1, 2, 2, 2, 2, 1, 2]);
next = array1d(1..10 ,[8, 5, 6, 9, 10, 1, 3, 2, 7, 4]);
makespan = 966;
----------
assign = array1d(1..10 ,[2, 2, 2, 1, 2, 2, 2, 2, 1, 2]);
next = array1d(1..10 ,[8, 5, 6, 9, 10, 1, 3, 2, 7, 4]);
makespan = 965;
----------
assign = array1d(1..10 ,[2, 2, 2, 1, 2, 2, 2, 2, 1, 2]);
next = array1d(1..10 ,[8, 5, 6, 9, 10, 1, 3, 2, 7, 4]);
makespan = 964;
----------
assign = array1d(1..10 ,[2, 2, 2, 1, 2, 2, 2, 2, 1, 2]);
next = array1d(1..10 ,[8, 5, 6, 9, 10, 1, 3, 2, 7, 4]);
makespan = 962;
----------
assign = array1d(1..10 ,[2, 2, 2, 1, 2, 2, 2, 2, 1, 2]);
next = array1d(1..10 ,[8, 5, 6, 9, 10, 1, 3, 2, 7, 4]);
makespan = 960;
----------
assign = array1d(1..10 ,[2, 2, 2, 1, 2, 2, 2, 2, 1, 2]);
next = array1d(1..10 ,[8, 5, 6, 9, 10, 1, 3, 2, 7, 4]);
makespan = 958;
----------
assign = array1d(1..10 ,[2, 2, 2, 1, 2, 2, 2, 2, 1, 2]);
next = array1d(1..10 ,[8, 5, 6, 9, 10, 1, 3, 2, 7, 4]);
makespan = 942;
----------
assign = array1d(1..10 ,[2, 2, 2, 1, 2, 2, 1, 2, 1, 2]);
next = array1d(1..10 ,[8, 5, 6, 9, 10, 1, 4, 2, 3, 7]);
makespan = 937;
----------
assign = array1d(1..10 ,[2, 2, 2, 1, 2, 2, 1, 2, 1, 2]);
next = array1d(1..10 ,[8, 5, 6, 9, 10, 1, 4, 2, 3, 7]);
makespan = 935;
----------
assign = array1d(1..10 ,[2, 2, 2, 1, 2, 2, 1, 2, 1, 2]);
next = array1d(1..10 ,[8, 5, 6, 9, 10, 1, 4, 2, 3, 7]);
makespan = 934;
----------
assign = array1d(1..10 ,[2, 2, 2, 1, 2, 2, 1, 2, 1, 2]);
next = array1d(1..10 ,[8, 5, 6, 9, 10, 1, 4, 2, 3, 7]);
makespan = 933;
----------
assign = array1d(1..10 ,[2, 2, 2, 1, 2, 2, 1, 2, 1, 2]);
next = array1d(1..10 ,[8, 5, 6, 9, 10, 1, 4, 2, 3, 7]);
makespan = 932;
----------
assign = array1d(1..10 ,[2, 2, 2, 1, 2, 2, 1, 2, 1, 2]);
next = array1d(1..10 ,[8, 5, 6, 9, 10, 1, 4, 2, 3, 7]);
makespan = 931;
----------
assign = array1d(1..10 ,[2, 2, 2, 1, 2, 2, 1, 2, 1, 2]);
next = array1d(1..10 ,[8, 5, 6, 9, 10, 1, 4, 2, 3, 7]);
makespan = 930;
----------
assign = array1d(1..10 ,[2, 2, 2, 1, 2, 2, 1, 2, 1, 2]);
next = array1d(1..10 ,[8, 5, 6, 9, 10, 1, 4, 2, 3, 7]);
makespan = 928;
----------
assign = array1d(1..10 ,[2, 2, 2, 1, 2, 2, 1, 2, 1, 2]);
next = array1d(1..10 ,[8, 5, 6, 9, 10, 1, 4, 2, 3, 7]);
makespan = 926;
----------
assign = array1d(1..10 ,[2, 2, 2, 1, 2, 2, 1, 2, 1, 2]);
next = array1d(1..10 ,[8, 5, 6, 9, 10, 1, 4, 2, 3, 7]);
makespan = 915;
----------
assign = array1d(1..10 ,[2, 2, 2, 1, 2, 2, 1, 2, 1, 2]);
next = array1d(1..10 ,[8, 5, 6, 9, 10, 1, 4, 2, 3, 7]);
makespan = 914;
----------
assign = array1d(1..10 ,[2, 2, 2, 1, 2, 2, 1, 2, 1, 2]);
next = array1d(1..10 ,[8, 5, 6, 9, 10, 1, 4, 2, 3, 7]);
makespan = 913;
----------
assign = array1d(1..10 ,[2, 2, 2, 1, 2, 2, 1, 2, 1, 2]);
next = array1d(1..10 ,[8, 5, 6, 9, 10, 1, 4, 2, 3, 7]);
makespan = 912;
----------
assign = array1d(1..10 ,[2, 2, 2, 1, 2, 2, 1, 2, 1, 2]);
next = array1d(1..10 ,[8, 5, 6, 9, 10, 1, 4, 2, 3, 7]);
makespan = 910;
----------
assign = array1d(1..10 ,[2, 2, 2, 1, 2, 2, 1, 2, 1, 2]);
next = array1d(1..10 ,[8, 5, 6, 9, 10, 1, 4, 2, 3, 7]);
makespan = 909;
----------
assign = array1d(1..10 ,[2, 2, 2, 1, 2, 2, 1, 2, 1, 2]);
next = array1d(1..10 ,[8, 5, 6, 9, 10, 1, 4, 2, 3, 7]);
makespan = 908;
----------
assign = array1d(1..10 ,[2, 2, 2, 1, 2, 2, 1, 2, 1, 2]);
next = array1d(1..10 ,[8, 5, 6, 9, 10, 1, 4, 2, 3, 7]);
makespan = 906;
----------
assign = array1d(1..10 ,[2, 2, 2, 1, 2, 2, 1, 2, 1, 2]);
next = array1d(1..10 ,[8, 5, 6, 9, 10, 1, 4, 2, 3, 7]);
makespan = 904;
----------
assign = array1d(1..10 ,[2, 2, 2, 1, 2, 2, 1, 2, 1, 2]);
next = array1d(1..10 ,[8, 5, 6, 9, 10, 1, 4, 2, 3, 7]);
makespan = 902;
----------
assign = array1d(1..10 ,[2, 2, 2, 1, 2, 2, 1, 2, 1, 2]);
next = array1d(1..10 ,[8, 5, 6, 9, 10, 1, 4, 2, 3, 7]);
makespan = 887;
----------
assign = array1d(1..10 ,[2, 2, 2, 1, 2, 2, 1, 2, 1, 2]);
next = array1d(1..10 ,[8, 5, 6, 9, 10, 1, 4, 2, 3, 7]);
makespan = 885;
----------
assign = array1d(1..10 ,[2, 2, 2, 1, 2, 2, 1, 2, 1, 2]);
next = array1d(1..10 ,[8, 5, 6, 9, 10, 1, 4, 2, 3, 7]);
makespan = 883;
----------
assign = array1d(1..10 ,[2, 2, 2, 1, 2, 2, 1, 2, 1, 2]);
next = array1d(1..10 ,[8, 5, 6, 9, 10, 1, 4, 2, 3, 7]);
makespan = 882;
----------
assign = array1d(1..10 ,[2, 2, 2, 1, 2, 2, 1, 2, 1, 2]);
next = array1d(1..10 ,[8, 5, 6, 9, 10, 1, 4, 2, 3, 7]);
makespan = 881;
----------
assign = array1d(1..10 ,[2, 2, 2, 1, 2, 2, 1, 2, 1, 2]);
next = array1d(1..10 ,[8, 5, 6, 9, 10, 1, 4, 2, 3, 7]);
makespan = 880;
----------
assign = array1d(1..10 ,[2, 2, 2, 1, 2, 2, 1, 2, 1, 2]);
next = array1d(1..10 ,[8, 5, 6, 9, 10, 1, 4, 2, 3, 7]);
makespan = 879;
----------
assign = array1d(1..10 ,[2, 2, 2, 1, 2, 2, 1, 2, 1, 2]);
next = array1d(1..10 ,[8, 5, 6, 9, 10, 1, 4, 2, 3, 7]);
makespan = 878;
----------
assign = array1d(1..10 ,[2, 2, 2, 1, 2, 2, 1, 2, 1, 2]);
next = array1d(1..10 ,[8, 5, 6, 9, 10, 1, 4, 2, 3, 7]);
makespan = 877;
----------
assign = array1d(1..10 ,[2, 2, 2, 1, 2, 2, 1, 2, 1, 2]);
next = array1d(1..10 ,[8, 5, 6, 9, 10, 1, 4, 2, 3, 7]);
makespan = 876;
----------
assign = array1d(1..10 ,[2, 2, 2, 1, 2, 2, 1, 2, 1, 2]);
next = array1d(1..10 ,[8, 5, 6, 9, 10, 1, 4, 2, 3, 7]);
makespan = 875;
----------
assign = array1d(1..10 ,[2, 2, 2, 1, 2, 2, 1, 2, 1, 2]);
next = array1d(1..10 ,[8, 5, 6, 9, 10, 1, 4, 2, 3, 7]);
makespan = 874;
----------
assign = array1d(1..10 ,[2, 2, 2, 1, 2, 2, 1, 2, 1, 2]);
next = array1d(1..10 ,[8, 5, 6, 9, 10, 1, 4, 2, 3, 7]);
makespan = 873;
----------
assign = array1d(1..10 ,[2, 2, 2, 1, 2, 2, 1, 2, 1, 2]);
next = array1d(1..10 ,[8, 5, 6, 9, 10, 1, 4, 2, 3, 7]);
makespan = 872;
----------
assign = array1d(1..10 ,[2, 2, 2, 1, 2, 2, 1, 2, 1, 2]);
next = array1d(1..10 ,[8, 5, 6, 9, 10, 1, 4, 2, 3, 7]);
makespan = 870;
----------
assign = array1d(1..10 ,[2, 2, 2, 1, 2, 2, 1, 2, 1, 2]);
next = array1d(1..10 ,[8, 5, 6, 9, 10, 1, 4, 2, 3, 7]);
makespan = 868;
----------
assign = array1d(1..10 ,[2, 2, 2, 1, 2, 2, 1, 2, 1, 2]);
next = array1d(1..10 ,[8, 5, 6, 9, 10, 1, 4, 2, 3, 7]);
makespan = 857;
----------
assign = array1d(1..10 ,[2, 2, 2, 1, 2, 2, 1, 2, 1, 2]);
next = array1d(1..10 ,[8, 5, 6, 9, 10, 1, 4, 2, 3, 7]);
makespan = 856;
----------
assign = array1d(1..10 ,[2, 2, 2, 1, 2, 2, 1, 2, 1, 2]);
next = array1d(1..10 ,[8, 5, 6, 9, 10, 1, 4, 2, 3, 7]);
makespan = 854;
----------
assign = array1d(1..10 ,[2, 2, 2, 1, 2, 2, 1, 2, 1, 2]);
next = array1d(1..10 ,[8, 5, 6, 9, 10, 1, 4, 2, 3, 7]);
makespan = 852;
----------
assign = array1d(1..10 ,[2, 2, 2, 1, 2, 2, 1, 2, 1, 2]);
next = array1d(1..10 ,[8, 5, 6, 9, 10, 1, 4, 2, 3, 7]);
makespan = 850;
----------
assign = array1d(1..10 ,[2, 2, 2, 1, 2, 2, 1, 2, 1, 2]);
next = array1d(1..10 ,[8, 5, 6, 9, 10, 1, 4, 2, 3, 7]);
makespan = 849;
----------
assign = array1d(1..10 ,[2, 2, 2, 1, 2, 2, 1, 2, 1, 2]);
next = array1d(1..10 ,[8, 5, 6, 9, 10, 1, 4, 2, 3, 7]);
makespan = 847;
----------
assign = array1d(1..10 ,[2, 2, 2, 1, 2, 2, 1, 2, 1, 2]);
next = array1d(1..10 ,[8, 5, 6, 9, 10, 1, 4, 2, 3, 7]);
makespan = 845;
----------
assign = array1d(1..10 ,[2, 2, 2, 1, 2, 2, 1, 2, 1, 2]);
next = array1d(1..10 ,[8, 5, 6, 9, 10, 1, 4, 2, 3, 7]);
makespan = 844;
----------
assign = array1d(1..10 ,[2, 2, 2, 1, 2, 2, 1, 2, 1, 2]);
next = array1d(1..10 ,[8, 5, 6, 9, 10, 1, 4, 2, 3, 7]);
makespan = 843;
----------
assign = array1d(1..10 ,[2, 2, 2, 1, 2, 2, 1, 2, 1, 2]);
next = array1d(1..10 ,[8, 5, 6, 9, 10, 1, 4, 2, 3, 7]);
makespan = 842;
----------
assign = array1d(1..10 ,[2, 2, 2, 1, 2, 2, 1, 2, 1, 2]);
next = array1d(1..10 ,[8, 5, 6, 9, 10, 1, 4, 2, 3, 7]);
makespan = 841;
----------
assign = array1d(1..10 ,[2, 2, 2, 1, 2, 2, 1, 2, 1, 2]);
next = array1d(1..10 ,[8, 5, 6, 9, 10, 1, 4, 2, 3, 7]);
makespan = 840;
----------
assign = array1d(1..10 ,[2, 2, 2, 1, 2, 2, 1, 2, 1, 2]);
next = array1d(1..10 ,[8, 5, 6, 9, 10, 1, 4, 2, 3, 7]);
makespan = 838;
----------
assign = array1d(1..10 ,[2, 2, 2, 1, 2, 2, 1, 2, 1, 2]);
next = array1d(1..10 ,[8, 5, 6, 9, 10, 1, 4, 2, 3, 7]);
makespan = 829;
----------
assign = array1d(1..10 ,[2, 2, 2, 1, 2, 2, 1, 2, 1, 2]);
next = array1d(1..10 ,[8, 5, 6, 9, 10, 1, 4, 2, 3, 7]);
makespan = 827;
----------
assign = array1d(1..10 ,[2, 2, 2, 1, 2, 2, 1, 2, 1, 2]);
next = array1d(1..10 ,[8, 5, 6, 9, 10, 1, 4, 2, 3, 7]);
makespan = 826;
----------
assign = array1d(1..10 ,[2, 2, 2, 1, 2, 2, 1, 2, 1, 2]);
next = array1d(1..10 ,[8, 5, 6, 9, 10, 1, 4, 2, 3, 7]);
makespan = 825;
----------
assign = array1d(1..10 ,[2, 2, 2, 1, 2, 2, 1, 2, 1, 2]);
next = array1d(1..10 ,[8, 5, 6, 9, 10, 1, 4, 2, 3, 7]);
makespan = 824;
----------
assign = array1d(1..10 ,[2, 2, 1, 1, 2, 2, 2, 2, 1, 2]);
next = array1d(1..10 ,[8, 5, 9, 3, 7, 1, 10, 2, 6, 4]);
makespan = 823;
----------
assign = array1d(1..10 ,[2, 2, 1, 1, 2, 2, 2, 2, 1, 2]);
next = array1d(1..10 ,[8, 5, 9, 3, 7, 1, 10, 2, 6, 4]);
makespan = 822;
----------
assign = array1d(1..10 ,[2, 2, 1, 1, 2, 2, 2, 2, 1, 2]);
next = array1d(1..10 ,[8, 5, 9, 3, 7, 1, 10, 2, 6, 4]);
makespan = 821;
----------
assign = array1d(1..10 ,[2, 2, 1, 1, 2, 2, 2, 2, 1, 2]);
next = array1d(1..10 ,[8, 5, 9, 3, 7, 1, 10, 2, 6, 4]);
makespan = 820;
----------
assign = array1d(1..10 ,[2, 2, 1, 1, 2, 2, 2, 2, 1, 2]);
next = array1d(1..10 ,[8, 5, 9, 3, 7, 1, 10, 2, 6, 4]);
makespan = 819;
----------
assign = array1d(1..10 ,[2, 2, 1, 1, 2, 2, 2, 2, 1, 2]);
next = array1d(1..10 ,[8, 5, 9, 3, 7, 1, 10, 2, 6, 4]);
makespan = 818;
----------
assign = array1d(1..10 ,[2, 2, 1, 1, 2, 2, 2, 2, 1, 2]);
next = array1d(1..10 ,[8, 5, 9, 3, 7, 1, 10, 2, 6, 4]);
makespan = 817;
----------
assign = array1d(1..10 ,[2, 2, 1, 1, 2, 2, 2, 2, 1, 2]);
next = array1d(1..10 ,[8, 5, 9, 3, 7, 1, 10, 2, 6, 4]);
makespan = 816;
----------
assign = array1d(1..10 ,[2, 2, 1, 1, 2, 2, 2, 2, 1, 2]);
next = array1d(1..10 ,[8, 5, 9, 3, 7, 1, 10, 2, 6, 4]);
makespan = 814;
----------
assign = array1d(1..10 ,[2, 2, 1, 1, 2, 2, 2, 2, 1, 2]);
next = array1d(1..10 ,[8, 5, 9, 3, 7, 1, 10, 2, 6, 4]);
makespan = 812;
----------
assign = array1d(1..10 ,[2, 2, 1, 1, 2, 2, 2, 2, 1, 2]);
next = array1d(1..10 ,[8, 5, 9, 3, 7, 1, 10, 2, 6, 4]);
makespan = 810;
----------
assign = array1d(1..10 ,[2, 2, 1, 1, 2, 2, 2, 2, 1, 2]);
next = array1d(1..10 ,[8, 5, 9, 3, 7, 1, 10, 2, 6, 4]);
makespan = 802;
----------
assign = array1d(1..10 ,[2, 2, 1, 1, 2, 2, 1, 2, 1, 2]);
next = array1d(1..10 ,[8, 5, 9, 3, 10, 1, 4, 2, 6, 7]);
makespan = 801;
----------
assign = array1d(1..10 ,[2, 2, 1, 1, 2, 2, 1, 2, 1, 2]);
next = array1d(1..10 ,[8, 5, 9, 3, 10, 1, 4, 2, 6, 7]);
makespan = 797;
----------
assign = array1d(1..10 ,[2, 2, 1, 1, 2, 2, 1, 2, 1, 2]);
next = array1d(1..10 ,[8, 5, 9, 3, 10, 1, 4, 2, 6, 7]);
makespan = 795;
----------
assign = array1d(1..10 ,[2, 2, 1, 1, 2, 2, 1, 2, 1, 2]);
next = array1d(1..10 ,[8, 5, 9, 3, 10, 1, 4, 2, 6, 7]);
makespan = 793;
----------
assign = array1d(1..10 ,[2, 2, 1, 1, 2, 2, 1, 2, 1, 2]);
next = array1d(1..10 ,[8, 5, 9, 3, 10, 1, 4, 2, 6, 7]);
makespan = 792;
----------
assign = array1d(1..10 ,[2, 2, 1, 1, 2, 2, 1, 2, 1, 2]);
next = array1d(1..10 ,[8, 5, 9, 3, 10, 1, 4, 2, 6, 7]);
makespan = 791;
----------
assign = array1d(1..10 ,[2, 2, 1, 1, 2, 2, 1, 2, 1, 2]);
next = array1d(1..10 ,[8, 5, 9, 3, 10, 1, 4, 2, 6, 7]);
makespan = 790;
----------
assign = array1d(1..10 ,[2, 2, 1, 1, 2, 2, 1, 2, 1, 2]);
next = array1d(1..10 ,[8, 5, 9, 3, 10, 1, 4, 2, 6, 7]);
makespan = 789;
----------
assign = array1d(1..10 ,[2, 2, 1, 1, 2, 2, 1, 2, 1, 2]);
next = array1d(1..10 ,[8, 5, 9, 3, 10, 1, 4, 2, 6, 7]);
makespan = 788;
----------
assign = array1d(1..10 ,[2, 2, 1, 1, 2, 2, 1, 2, 1, 2]);
next = array1d(1..10 ,[8, 5, 9, 3, 10, 1, 4, 2, 6, 7]);
makespan = 787;
----------
assign = array1d(1..10 ,[2, 2, 1, 1, 2, 2, 1, 2, 1, 2]);
next = array1d(1..10 ,[8, 5, 9, 3, 10, 1, 4, 2, 6, 7]);
makespan = 786;
----------
assign = array1d(1..10 ,[2, 2, 1, 1, 2, 2, 1, 2, 1, 2]);
next = array1d(1..10 ,[8, 5, 9, 3, 10, 1, 4, 2, 6, 7]);
makespan = 785;
----------
assign = array1d(1..10 ,[2, 2, 1, 1, 2, 2, 1, 2, 1, 2]);
next = array1d(1..10 ,[8, 5, 9, 3, 10, 1, 4, 2, 6, 7]);
makespan = 784;
----------
assign = array1d(1..10 ,[2, 2, 1, 1, 2, 2, 1, 2, 1, 2]);
next = array1d(1..10 ,[8, 5, 9, 3, 10, 1, 4, 2, 6, 7]);
makespan = 783;
----------
assign = array1d(1..10 ,[2, 2, 1, 1, 2, 2, 1, 2, 1, 2]);
next = array1d(1..10 ,[8, 5, 9, 3, 10, 1, 4, 2, 6, 7]);
makespan = 782;
----------
assign = array1d(1..10 ,[2, 2, 1, 1, 2, 2, 1, 2, 1, 2]);
next = array1d(1..10 ,[8, 5, 9, 3, 10, 1, 4, 2, 6, 7]);
makespan = 780;
----------
assign = array1d(1..10 ,[2, 2, 1, 1, 2, 2, 1, 2, 1, 2]);
next = array1d(1..10 ,[8, 5, 9, 3, 10, 1, 4, 2, 6, 7]);
makespan = 771;
----------
assign = array1d(1..10 ,[2, 2, 1, 1, 2, 2, 1, 2, 1, 2]);
next = array1d(1..10 ,[8, 5, 9, 3, 10, 1, 4, 2, 6, 7]);
makespan = 769;
----------
assign = array1d(1..10 ,[2, 2, 1, 1, 2, 2, 1, 2, 1, 2]);
next = array1d(1..10 ,[8, 5, 9, 3, 10, 1, 4, 2, 6, 7]);
makespan = 768;
----------
assign = array1d(1..10 ,[2, 2, 1, 1, 2, 2, 1, 2, 1, 2]);
next = array1d(1..10 ,[8, 5, 9, 3, 10, 1, 4, 2, 6, 7]);
makespan = 767;
----------
assign = array1d(1..10 ,[2, 2, 1, 1, 2, 2, 1, 2, 1, 2]);
next = array1d(1..10 ,[8, 5, 9, 3, 10, 1, 4, 2, 6, 7]);
makespan = 766;
----------
assign = array1d(1..10 ,[2, 2, 1, 1, 2, 2, 1, 2, 1, 2]);
next = array1d(1..10 ,[8, 5, 9, 3, 10, 1, 4, 2, 6, 7]);
makespan = 765;
----------
assign = array1d(1..10 ,[2, 2, 1, 1, 2, 2, 1, 2, 1, 2]);
next = array1d(1..10 ,[8, 5, 9, 3, 10, 1, 4, 2, 6, 7]);
makespan = 764;
----------
assign = array1d(1..10 ,[2, 2, 1, 1, 2, 2, 1, 2, 1, 2]);
next = array1d(1..10 ,[8, 5, 9, 3, 10, 1, 4, 2, 6, 7]);
makespan = 762;
----------
assign = array1d(1..10 ,[2, 2, 1, 1, 2, 2, 1, 2, 1, 2]);
next = array1d(1..10 ,[8, 5, 9, 3, 10, 1, 4, 2, 6, 7]);
makespan = 760;
----------
assign = array1d(1..10 ,[2, 2, 1, 1, 2, 2, 1, 2, 1, 2]);
next = array1d(1..10 ,[8, 5, 9, 3, 10, 1, 4, 2, 6, 7]);
makespan = 759;
----------
assign = array1d(1..10 ,[2, 2, 1, 1, 2, 2, 1, 2, 1, 2]);
next = array1d(1..10 ,[8, 5, 9, 3, 10, 1, 4, 2, 6, 7]);
makespan = 757;
----------
assign = array1d(1..10 ,[2, 2, 1, 1, 2, 2, 1, 2, 1, 2]);
next = array1d(1..10 ,[8, 5, 9, 3, 10, 1, 4, 2, 6, 7]);
makespan = 756;
----------
assign = array1d(1..10 ,[2, 2, 1, 1, 2, 2, 1, 2, 1, 2]);
next = array1d(1..10 ,[8, 5, 9, 3, 10, 1, 4, 2, 6, 7]);
makespan = 755;
----------
assign = array1d(1..10 ,[2, 2, 1, 1, 2, 2, 1, 2, 1, 2]);
next = array1d(1..10 ,[8, 5, 9, 3, 10, 1, 4, 2, 6, 7]);
makespan = 754;
----------
assign = array1d(1..10 ,[2, 2, 1, 1, 2, 2, 1, 2, 1, 2]);
next = array1d(1..10 ,[8, 5, 9, 3, 10, 1, 4, 2, 6, 7]);
makespan = 753;
----------
assign = array1d(1..10 ,[2, 2, 1, 1, 2, 2, 1, 2, 1, 2]);
next = array1d(1..10 ,[8, 5, 9, 3, 10, 1, 4, 2, 6, 7]);
makespan = 752;
----------
assign = array1d(1..10 ,[2, 2, 1, 1, 2, 2, 1, 2, 1, 2]);
next = array1d(1..10 ,[8, 5, 9, 3, 10, 1, 4, 2, 6, 7]);
makespan = 741;
----------
assign = array1d(1..10 ,[2, 2, 1, 1, 2, 2, 1, 2, 1, 2]);
next = array1d(1..10 ,[8, 5, 9, 3, 10, 1, 4, 2, 6, 7]);
makespan = 739;
----------
assign = array1d(1..10 ,[2, 2, 1, 1, 2, 2, 1, 2, 1, 2]);
next = array1d(1..10 ,[8, 5, 9, 3, 10, 1, 4, 2, 6, 7]);
makespan = 737;
----------
assign = array1d(1..10 ,[2, 2, 1, 1, 2, 2, 1, 2, 1, 2]);
next = array1d(1..10 ,[8, 5, 9, 3, 10, 1, 4, 2, 6, 7]);
makespan = 736;
----------
assign = array1d(1..10 ,[2, 2, 1, 1, 2, 2, 1, 2, 1, 2]);
next = array1d(1..10 ,[8, 5, 9, 3, 10, 1, 4, 2, 6, 7]);
makespan = 735;
----------
assign = array1d(1..10 ,[2, 2, 1, 1, 2, 2, 1, 2, 1, 2]);
next = array1d(1..10 ,[8, 5, 9, 3, 10, 1, 4, 2, 6, 7]);
makespan = 734;
----------
assign = array1d(1..10 ,[2, 2, 1, 1, 2, 2, 1, 2, 1, 2]);
next = array1d(1..10 ,[8, 5, 9, 3, 10, 1, 4, 2, 6, 7]);
makespan = 733;
----------
assign = array1d(1..10 ,[2, 2, 1, 1, 2, 2, 1, 2, 1, 2]);
next = array1d(1..10 ,[8, 5, 9, 3, 10, 1, 4, 2, 6, 7]);
makespan = 732;
----------
assign = array1d(1..10 ,[2, 2, 1, 1, 2, 2, 1, 2, 1, 2]);
next = array1d(1..10 ,[8, 5, 9, 3, 10, 1, 4, 2, 6, 7]);
makespan = 731;
----------
assign = array1d(1..10 ,[2, 2, 1, 1, 2, 2, 1, 2, 1, 2]);
next = array1d(1..10 ,[8, 5, 9, 3, 10, 1, 4, 2, 6, 7]);
makespan = 730;
----------
assign = array1d(1..10 ,[2, 2, 1, 1, 2, 2, 1, 2, 1, 2]);
next = array1d(1..10 ,[8, 5, 9, 3, 10, 1, 4, 2, 6, 7]);
makespan = 729;
----------
assign = array1d(1..10 ,[2, 2, 1, 1, 2, 2, 1, 2, 1, 2]);
next = array1d(1..10 ,[8, 5, 9, 3, 10, 1, 4, 2, 6, 7]);
makespan = 728;
----------
assign = array1d(1..10 ,[2, 2, 1, 1, 2, 2, 1, 2, 1, 2]);
next = array1d(1..10 ,[8, 5, 9, 3, 10, 1, 4, 2, 6, 7]);
makespan = 727;
----------
assign = array1d(1..10 ,[2, 2, 1, 1, 2, 2, 1, 2, 1, 2]);
next = array1d(1..10 ,[8, 5, 9, 3, 10, 1, 4, 2, 6, 7]);
makespan = 726;
----------
assign = array1d(1..10 ,[2, 2, 1, 1, 2, 2, 1, 2, 1, 2]);
next = array1d(1..10 ,[8, 5, 9, 3, 10, 1, 4, 2, 6, 7]);
makespan = 724;
----------
assign = array1d(1..10 ,[2, 2, 1, 1, 2, 2, 1, 2, 1, 2]);
next = array1d(1..10 ,[8, 5, 9, 3, 10, 1, 4, 2, 6, 7]);
makespan = 722;
----------
assign = array1d(1..10 ,[2, 2, 1, 1, 2, 2, 1, 2, 1, 2]);
next = array1d(1..10 ,[8, 5, 9, 3, 10, 1, 4, 2, 6, 7]);
makespan = 719;
----------
assign = array1d(1..10 ,[2, 2, 1, 1, 2, 2, 1, 2, 1, 2]);
next = array1d(1..10 ,[8, 5, 9, 3, 10, 1, 4, 2, 6, 7]);
makespan = 707;
----------
assign = array1d(1..10 ,[2, 2, 1, 1, 2, 2, 1, 2, 1, 2]);
next = array1d(1..10 ,[8, 5, 9, 3, 10, 1, 4, 2, 6, 7]);
makespan = 705;
----------
assign = array1d(1..10 ,[2, 2, 1, 1, 2, 2, 1, 2, 1, 2]);
next = array1d(1..10 ,[8, 5, 9, 3, 10, 1, 4, 2, 6, 7]);
makespan = 703;
----------
assign = array1d(1..10 ,[2, 2, 1, 1, 2, 2, 1, 2, 1, 2]);
next = array1d(1..10 ,[8, 5, 9, 3, 10, 1, 4, 2, 6, 7]);
makespan = 701;
----------
assign = array1d(1..10 ,[2, 2, 1, 1, 2, 2, 1, 2, 1, 2]);
next = array1d(1..10 ,[8, 5, 9, 3, 10, 1, 4, 2, 6, 7]);
makespan = 700;
----------
assign = array1d(1..10 ,[2, 2, 1, 1, 2, 2, 1, 2, 1, 2]);
next = array1d(1..10 ,[8, 5, 9, 3, 10, 1, 4, 2, 6, 7]);
makespan = 699;
----------
assign = array1d(1..10 ,[2, 2, 1, 1, 2, 2, 1, 2, 1, 2]);
next = array1d(1..10 ,[8, 5, 9, 3, 10, 1, 4, 2, 6, 7]);
makespan = 697;
----------
assign = array1d(1..10 ,[2, 2, 1, 1, 2, 2, 1, 2, 1, 2]);
next = array1d(1..10 ,[8, 5, 9, 3, 10, 1, 4, 2, 6, 7]);
makespan = 696;
----------
assign = array1d(1..10 ,[2, 2, 1, 1, 2, 2, 1, 2, 1, 2]);
next = array1d(1..10 ,[8, 5, 9, 3, 10, 1, 4, 2, 6, 7]);
makespan = 695;
----------
assign = array1d(1..10 ,[2, 2, 1, 1, 2, 2, 1, 2, 1, 2]);
next = array1d(1..10 ,[8, 5, 9, 3, 10, 1, 4, 2, 6, 7]);
makespan = 694;
----------
assign = array1d(1..10 ,[2, 2, 1, 1, 2, 2, 1, 2, 1, 2]);
next = array1d(1..10 ,[8, 5, 9, 3, 10, 1, 4, 2, 6, 7]);
makespan = 683;
----------
assign = array1d(1..10 ,[2, 2, 1, 1, 2, 2, 1, 2, 1, 2]);
next = array1d(1..10 ,[8, 5, 9, 3, 10, 1, 4, 2, 6, 7]);
makespan = 681;
----------
assign = array1d(1..10 ,[2, 2, 1, 1, 2, 2, 1, 2, 1, 2]);
next = array1d(1..10 ,[8, 5, 9, 3, 10, 1, 4, 2, 6, 7]);
makespan = 679;
----------
assign = array1d(1..10 ,[2, 2, 1, 1, 2, 2, 1, 2, 1, 2]);
next = array1d(1..10 ,[8, 5, 9, 3, 10, 1, 4, 2, 6, 7]);
makespan = 678;
----------
assign = array1d(1..10 ,[2, 2, 1, 1, 2, 2, 1, 2, 1, 2]);
next = array1d(1..10 ,[8, 5, 9, 3, 10, 1, 4, 2, 6, 7]);
makespan = 677;
----------
assign = array1d(1..10 ,[2, 2, 1, 1, 2, 2, 1, 2, 1, 2]);
next = array1d(1..10 ,[8, 5, 9, 3, 10, 1, 4, 2, 6, 7]);
makespan = 676;
----------
assign = array1d(1..10 ,[2, 2, 1, 1, 2, 2, 1, 2, 1, 2]);
next = array1d(1..10 ,[8, 5, 9, 3, 10, 1, 4, 2, 6, 7]);
makespan = 675;
----------
assign = array1d(1..10 ,[2, 2, 1, 1, 2, 2, 1, 2, 1, 2]);
next = array1d(1..10 ,[8, 5, 9, 3, 10, 1, 4, 2, 6, 7]);
makespan = 674;
----------
assign = array1d(1..10 ,[2, 2, 1, 1, 2, 2, 1, 2, 1, 2]);
next = array1d(1..10 ,[8, 5, 9, 3, 10, 1, 4, 2, 6, 7]);
makespan = 672;
----------
assign = array1d(1..10 ,[2, 2, 1, 1, 2, 2, 1, 2, 1, 2]);
next = array1d(1..10 ,[8, 5, 9, 3, 10, 1, 4, 2, 6, 7]);
makespan = 666;
----------
assign = array1d(1..10 ,[2, 2, 1, 1, 1, 2, 1, 2, 1, 2]);
next = array1d(1..10 ,[8, 10, 9, 5, 3, 1, 4, 2, 6, 7]);
makespan = 661;
----------
assign = array1d(1..10 ,[2, 2, 1, 1, 1, 2, 1, 2, 1, 2]);
next = array1d(1..10 ,[8, 10, 9, 5, 3, 1, 4, 2, 6, 7]);
makespan = 651;
----------
assign = array1d(1..10 ,[2, 2, 1, 1, 1, 2, 1, 2, 1, 2]);
next = array1d(1..10 ,[8, 10, 9, 5, 3, 1, 4, 2, 6, 7]);
makespan = 649;
----------
assign = array1d(1..10 ,[2, 2, 1, 1, 1, 2, 1, 2, 1, 2]);
next = array1d(1..10 ,[8, 10, 9, 5, 3, 1, 4, 2, 6, 7]);
makespan = 647;
----------
assign = array1d(1..10 ,[2, 2, 1, 1, 1, 2, 1, 2, 1, 2]);
next = array1d(1..10 ,[8, 10, 9, 5, 3, 1, 4, 2, 6, 7]);
makespan = 645;
----------
assign = array1d(1..10 ,[2, 2, 1, 1, 1, 2, 1, 2, 1, 2]);
next = array1d(1..10 ,[8, 10, 9, 5, 3, 1, 4, 2, 6, 7]);
makespan = 644;
----------
assign = array1d(1..10 ,[2, 2, 1, 1, 1, 2, 1, 2, 1, 2]);
next = array1d(1..10 ,[8, 10, 9, 5, 3, 1, 4, 2, 6, 7]);
makespan = 643;
----------
assign = array1d(1..10 ,[2, 2, 1, 1, 1, 2, 1, 2, 1, 2]);
next = array1d(1..10 ,[8, 10, 9, 5, 3, 1, 4, 2, 6, 7]);
makespan = 642;
----------
assign = array1d(1..10 ,[2, 2, 1, 1, 1, 2, 1, 2, 1, 2]);
next = array1d(1..10 ,[8, 10, 9, 5, 3, 1, 4, 2, 6, 7]);
makespan = 641;
----------
assign = array1d(1..10 ,[2, 2, 1, 1, 1, 2, 1, 2, 1, 2]);
next = array1d(1..10 ,[8, 10, 9, 5, 3, 1, 4, 2, 6, 7]);
makespan = 639;
----------
assign = array1d(1..10 ,[2, 2, 1, 1, 1, 2, 1, 2, 1, 2]);
next = array1d(1..10 ,[8, 10, 9, 5, 3, 1, 4, 2, 6, 7]);
makespan = 638;
----------
assign = array1d(1..10 ,[2, 2, 1, 1, 1, 2, 1, 2, 1, 2]);
next = array1d(1..10 ,[8, 10, 9, 5, 3, 1, 4, 2, 6, 7]);
makespan = 623;
----------
assign = array1d(1..10 ,[2, 2, 1, 1, 1, 2, 1, 2, 1, 2]);
next = array1d(1..10 ,[8, 10, 9, 5, 3, 1, 4, 2, 6, 7]);
makespan = 621;
----------
assign = array1d(1..10 ,[2, 2, 1, 1, 1, 2, 1, 2, 1, 2]);
next = array1d(1..10 ,[8, 10, 9, 5, 3, 1, 4, 2, 6, 7]);
makespan = 615;
----------
assign = array1d(1..10 ,[2, 2, 1, 1, 1, 2, 1, 2, 1, 2]);
next = array1d(1..10 ,[8, 10, 9, 5, 3, 1, 4, 2, 6, 7]);
makespan = 611;
----------
assign = array1d(1..10 ,[2, 2, 1, 1, 1, 2, 1, 2, 1, 2]);
next = array1d(1..10 ,[8, 10, 9, 5, 3, 1, 4, 2, 6, 7]);
makespan = 609;
----------
assign = array1d(1..10 ,[2, 2, 1, 1, 1, 2, 1, 2, 1, 2]);
next = array1d(1..10 ,[8, 10, 9, 5, 3, 1, 4, 2, 6, 7]);
makespan = 607;
----------
assign = array1d(1..10 ,[2, 2, 1, 1, 1, 2, 1, 2, 1, 2]);
next = array1d(1..10 ,[8, 10, 9, 5, 3, 1, 4, 2, 6, 7]);
makespan = 591;
----------
assign = array1d(1..10 ,[2, 2, 1, 1, 1, 2, 1, 2, 1, 2]);
next = array1d(1..10 ,[8, 10, 9, 5, 3, 1, 4, 2, 6, 7]);
makespan = 589;
----------
assign = array1d(1..10 ,[2, 2, 1, 1, 1, 2, 1, 2, 1, 2]);
next = array1d(1..10 ,[8, 10, 9, 5, 3, 1, 4, 2, 6, 7]);
makespan = 587;
----------
assign = array1d(1..10 ,[2, 2, 1, 1, 1, 2, 1, 2, 1, 2]);
next = array1d(1..10 ,[8, 10, 9, 5, 3, 1, 4, 2, 6, 7]);
makespan = 585;
----------
assign = array1d(1..10 ,[2, 2, 1, 1, 1, 2, 1, 2, 1, 2]);
next = array1d(1..10 ,[8, 10, 9, 5, 3, 1, 4, 2, 6, 7]);
makespan = 533;
----------
assign = array1d(1..10 ,[2, 2, 1, 1, 1, 2, 1, 2, 1, 2]);
next = array1d(1..10 ,[8, 6, 7, 5, 9, 10, 4, 2, 1, 3]);
makespan = 530;
----------
assign = array1d(1..10 ,[2, 2, 1, 1, 1, 2, 1, 2, 1, 2]);
next = array1d(1..10 ,[8, 6, 7, 5, 9, 10, 4, 2, 1, 3]);
makespan = 521;
----------
assign = array1d(1..10 ,[2, 2, 1, 1, 1, 2, 1, 2, 1, 2]);
next = array1d(1..10 ,[8, 6, 7, 5, 9, 10, 4, 2, 1, 3]);
makespan = 518;
----------
assign = array1d(1..10 ,[2, 2, 1, 1, 1, 2, 1, 2, 1, 2]);
next = array1d(1..10 ,[8, 6, 9, 5, 3, 10, 4, 2, 1, 7]);
makespan = 517;
----------
assign = array1d(1..10 ,[2, 2, 1, 1, 2, 1, 1, 2, 1, 2]);
next = array1d(1..10 ,[8, 5, 6, 3, 10, 9, 4, 2, 1, 7]);
makespan = 509;
----------
assign = array1d(1..10 ,[2, 2, 1, 1, 2, 1, 1, 2, 1, 2]);
next = array1d(1..10 ,[8, 5, 6, 9, 10, 4, 3, 2, 1, 7]);
makespan = 503;
----------
assign = array1d(1..10 ,[2, 2, 1, 1, 2, 1, 1, 2, 1, 2]);
next = array1d(1..10 ,[8, 5, 6, 9, 10, 4, 3, 2, 1, 7]);
makespan = 501;
----------
assign = array1d(1..10 ,[2, 2, 1, 1, 2, 1, 1, 2, 1, 2]);
next = array1d(1..10 ,[8, 5, 6, 9, 10, 4, 3, 2, 1, 7]);
makespan = 492;
----------
assign = array1d(1..10 ,[2, 2, 1, 1, 1, 1, 2, 2, 1, 2]);
next = array1d(1..10 ,[8, 10, 4, 9, 6, 3, 1, 2, 7, 5]);
makespan = 491;
----------
assign = array1d(1..10 ,[2, 2, 1, 1, 1, 1, 2, 2, 1, 2]);
next = array1d(1..10 ,[2, 8, 4, 6, 9, 5, 10, 7, 1, 3]);
makespan = 490;
----------
assign = array1d(1..10 ,[2, 2, 1, 1, 1, 1, 2, 2, 1, 2]);
next = array1d(1..10 ,[2, 8, 4, 6, 9, 5, 10, 7, 1, 3]);
makespan = 489;
----------
assign = array1d(1..10 ,[1, 2, 1, 1, 1, 2, 2, 2, 1, 2]);
next = array1d(1..10 ,[5, 8, 1, 9, 4, 10, 2, 6, 7, 3]);
makespan = 487;
----------
assign = array1d(1..10 ,[1, 2, 1, 1, 2, 1, 2, 2, 1, 2]);
next = array1d(1..10 ,[6, 8, 4, 1, 10, 9, 2, 5, 7, 3]);
makespan = 486;
----------
assign = array1d(1..10 ,[1, 2, 1, 1, 2, 1, 2, 2, 1, 2]);
next = array1d(1..10 ,[4, 8, 6, 9, 10, 1, 2, 5, 7, 3]);
makespan = 485;
----------
assign = array1d(1..10 ,[1, 2, 1, 1, 2, 1, 2, 2, 1, 2]);
next = array1d(1..10 ,[4, 8, 9, 3, 10, 1, 2, 5, 7, 6]);
makespan = 484;
----------
assign = array1d(1..10 ,[1, 2, 1, 1, 2, 1, 2, 2, 1, 2]);
next = array1d(1..10 ,[4, 8, 9, 3, 10, 1, 2, 5, 7, 6]);
makespan = 483;
----------
assign = array1d(1..10 ,[1, 2, 1, 1, 2, 1, 2, 2, 1, 2]);
next = array1d(1..10 ,[4, 8, 9, 3, 10, 1, 2, 5, 7, 6]);
makespan = 480;
----------
assign = array1d(1..10 ,[1, 2, 1, 1, 2, 1, 2, 2, 1, 2]);
next = array1d(1..10 ,[4, 8, 9, 3, 10, 1, 2, 5, 7, 6]);
makespan = 479;
----------
assign = array1d(1..10 ,[1, 2, 1, 1, 2, 1, 2, 2, 1, 2]);
next = array1d(1..10 ,[4, 8, 9, 3, 10, 1, 2, 5, 7, 6]);
makespan = 478;
----------
assign = array1d(1..10 ,[1, 2, 1, 1, 2, 1, 2, 2, 1, 2]);
next = array1d(1..10 ,[4, 8, 9, 3, 10, 1, 2, 5, 7, 6]);
makespan = 477;
----------
assign = array1d(1..10 ,[1, 2, 1, 1, 2, 1, 2, 2, 1, 2]);
next = array1d(1..10 ,[4, 8, 9, 3, 10, 1, 2, 5, 7, 6]);
makespan = 476;
----------
assign = array1d(1..10 ,[1, 2, 1, 1, 2, 1, 2, 2, 1, 2]);
next = array1d(1..10 ,[4, 8, 9, 3, 10, 1, 2, 5, 7, 6]);
makespan = 475;
----------
assign = array1d(1..10 ,[1, 2, 1, 1, 2, 1, 2, 2, 1, 2]);
next = array1d(1..10 ,[4, 8, 9, 3, 10, 1, 2, 5, 7, 6]);
makespan = 474;
----------
assign = array1d(1..10 ,[1, 2, 1, 1, 2, 1, 2, 2, 1, 2]);
next = array1d(1..10 ,[4, 8, 9, 3, 10, 1, 2, 5, 7, 6]);
makespan = 473;
----------
assign = array1d(1..10 ,[1, 2, 1, 1, 2, 1, 2, 2, 1, 2]);
next = array1d(1..10 ,[4, 8, 9, 3, 10, 1, 2, 5, 7, 6]);
makespan = 472;
----------
assign = array1d(1..10 ,[1, 2, 1, 1, 2, 1, 2, 2, 1, 2]);
next = array1d(1..10 ,[4, 8, 9, 3, 10, 1, 2, 5, 7, 6]);
makespan = 469;
----------
assign = array1d(1..10 ,[2, 2, 1, 1, 2, 1, 1, 2, 1, 2]);
next = array1d(1..10 ,[5, 8, 4, 6, 2, 9, 3, 10, 1, 7]);
makespan = 468;
----------
assign = array1d(1..10 ,[1, 1, 2, 1, 2, 1, 2, 2, 1, 2]);
next = array1d(1..10 ,[4, 9, 5, 6, 10, 2, 3, 7, 8, 1]);
makespan = 467;
----------
assign = array1d(1..10 ,[1, 2, 1, 1, 1, 2, 2, 2, 1, 2]);
next = array1d(1..10 ,[5, 8, 1, 3, 9, 7, 10, 6, 2, 4]);
makespan = 466;
----------
assign = array1d(1..10 ,[2, 2, 1, 1, 2, 1, 1, 2, 1, 2]);
next = array1d(1..10 ,[5, 8, 4, 6, 2, 9, 3, 10, 1, 7]);
makespan = 465;
----------
assign = array1d(1..10 ,[1, 2, 1, 1, 2, 2, 1, 2, 1, 2]);
next = array1d(1..10 ,[7, 8, 1, 9, 2, 10, 4, 6, 5, 3]);
makespan = 464;
----------
assign = array1d(1..10 ,[1, 1, 1, 1, 2, 2, 2, 2, 1, 2]);
next = array1d(1..10 ,[3, 9, 4, 2, 8, 10, 5, 6, 7, 1]);
makespan = 463;
----------
assign = array1d(1..10 ,[2, 2, 1, 1, 2, 1, 1, 2, 1, 2]);
next = array1d(1..10 ,[5, 8, 4, 6, 2, 9, 3, 10, 1, 7]);
makespan = 462;
----------
assign = array1d(1..10 ,[2, 2, 1, 1, 2, 1, 1, 2, 1, 2]);
next = array1d(1..10 ,[5, 8, 4, 6, 2, 9, 3, 10, 1, 7]);
makespan = 461;
----------
assign = array1d(1..10 ,[2, 1, 1, 1, 2, 1, 2, 2, 1, 2]);
next = array1d(1..10 ,[5, 3, 4, 6, 7, 9, 8, 10, 1, 2]);
makespan = 460;
----------
assign = array1d(1..10 ,[1, 2, 1, 1, 1, 2, 2, 2, 1, 2]);
next = array1d(1..10 ,[4, 8, 1, 5, 9, 7, 10, 6, 2, 3]);
makespan = 459;
----------
assign = array1d(1..10 ,[1, 2, 1, 1, 2, 2, 1, 2, 1, 2]);
next = array1d(1..10 ,[7, 8, 4, 9, 2, 10, 3, 6, 5, 1]);
makespan = 458;
----------
assign = array1d(1..10 ,[1, 2, 1, 1, 2, 1, 2, 2, 1, 2]);
next = array1d(1..10 ,[9, 8, 1, 6, 10, 3, 5, 7, 2, 4]);
makespan = 457;
----------
assign = array1d(1..10 ,[1, 2, 1, 1, 2, 1, 2, 2, 1, 2]);
next = array1d(1..10 ,[4, 8, 1, 6, 2, 9, 10, 7, 5, 3]);
makespan = 456;
----------
assign = array1d(1..10 ,[1, 2, 1, 1, 2, 1, 2, 2, 1, 2]);
next = array1d(1..10 ,[3, 10, 4, 6, 2, 9, 5, 7, 8, 1]);
makespan = 455;
----------
assign = array1d(1..10 ,[1, 2, 1, 1, 2, 1, 2, 2, 1, 2]);
next = array1d(1..10 ,[4, 10, 1, 6, 2, 9, 5, 7, 8, 3]);
makespan = 454;
----------
assign = array1d(1..10 ,[1, 2, 1, 1, 2, 1, 2, 2, 1, 2]);
next = array1d(1..10 ,[4, 10, 1, 6, 2, 9, 5, 7, 8, 3]);
makespan = 453;
----------
assign = array1d(1..10 ,[1, 1, 1, 1, 2, 2, 2, 2, 1, 2]);
next = array1d(1..10 ,[2, 3, 4, 9, 10, 7, 5, 6, 8, 1]);
makespan = 452;
----------
assign = array1d(1..10 ,[1, 1, 1, 1, 2, 2, 2, 2, 1, 2]);
next = array1d(1..10 ,[3, 9, 4, 2, 7, 10, 8, 6, 5, 1]);
makespan = 451;
----------
assign = array1d(1..10 ,[1, 1, 1, 1, 2, 2, 2, 2, 1, 2]);
next = array1d(1..10 ,[2, 4, 1, 9, 10, 7, 5, 6, 8, 3]);
makespan = 450;
----------
assign = array1d(1..10 ,[1, 1, 1, 1, 2, 2, 2, 2, 1, 2]);
next = array1d(1..10 ,[2, 9, 1, 3, 10, 7, 5, 6, 8, 4]);
makespan = 449;
----------
assign = array1d(1..10 ,[1, 2, 1, 1, 2, 1, 2, 2, 1, 2]);
next = array1d(1..10 ,[3, 10, 4, 6, 2, 9, 8, 5, 7, 1]);
makespan = 448;
----------
assign = array1d(1..10 ,[1, 2, 1, 1, 2, 1, 2, 2, 1, 2]);
next = array1d(1..10 ,[4, 10, 1, 6, 2, 9, 8, 5, 7, 3]);
makespan = 447;
----------
assign = array1d(1..10 ,[1, 1, 1, 1, 2, 2, 2, 2, 1, 2]);
next = array1d(1..10 ,[4, 9, 1, 2, 10, 7, 5, 6, 8, 3]);
makespan = 446;
----------
assign = array1d(1..10 ,[1, 1, 1, 1, 2, 2, 2, 2, 1, 2]);
next = array1d(1..10 ,[4, 9, 1, 2, 10, 7, 5, 6, 8, 3]);
makespan = 445;
----------
assign = array1d(1..10 ,[1, 2, 1, 1, 2, 1, 2, 2, 1, 2]);
next = array1d(1..10 ,[4, 10, 1, 6, 2, 9, 8, 5, 7, 3]);
makespan = 444;
----------
assign = array1d(1..10 ,[1, 2, 1, 1, 2, 1, 2, 2, 1, 2]);
next = array1d(1..10 ,[4, 8, 1, 6, 2, 9, 10, 7, 5, 3]);
makespan = 443;
----------
assign = array1d(1..10 ,[1, 2, 1, 1, 2, 1, 2, 2, 1, 2]);
next = array1d(1..10 ,[4, 8, 1, 6, 2, 9, 10, 7, 5, 3]);
makespan = 442;
----------
assign = array1d(1..10 ,[1, 2, 1, 1, 2, 1, 2, 2, 1, 2]);
next = array1d(1..10 ,[4, 8, 1, 6, 2, 9, 10, 7, 5, 3]);
makespan = 441;
----------
assign = array1d(1..10 ,[1, 2, 1, 1, 2, 1, 2, 2, 1, 2]);
next = array1d(1..10 ,[4, 10, 1, 6, 2, 9, 8, 5, 7, 3]);
makespan = 440;
----------
assign = array1d(1..10 ,[1, 2, 1, 1, 2, 1, 2, 2, 1, 2]);
next = array1d(1..10 ,[4, 8, 1, 6, 2, 9, 10, 7, 5, 3]);
makespan = 439;
----------
assign = array1d(1..10 ,[1, 2, 1, 1, 2, 1, 2, 2, 1, 2]);
next = array1d(1..10 ,[4, 8, 1, 6, 2, 9, 10, 7, 5, 3]);
makespan = 438;
----------
assign = array1d(1..10 ,[1, 2, 1, 1, 2, 1, 2, 2, 1, 2]);
next = array1d(1..10 ,[4, 8, 1, 6, 2, 9, 10, 7, 5, 3]);
makespan = 437;
----------
assign = array1d(1..10 ,[1, 2, 1, 1, 2, 1, 2, 2, 1, 2]);
next = array1d(1..10 ,[4, 8, 1, 6, 2, 9, 5, 10, 7, 3]);
makespan = 436;
----------
assign = array1d(1..10 ,[1, 2, 1, 1, 2, 1, 2, 2, 1, 2]);
next = array1d(1..10 ,[4, 8, 1, 6, 2, 9, 5, 10, 7, 3]);
makespan = 435;
----------
assign = array1d(1..10 ,[1, 2, 1, 1, 2, 1, 2, 2, 1, 2]);
next = array1d(1..10 ,[4, 8, 1, 6, 2, 9, 5, 10, 7, 3]);
makespan = 434;
----------
assign = array1d(1..10 ,[1, 2, 1, 1, 2, 1, 2, 2, 1, 2]);
next = array1d(1..10 ,[4, 8, 1, 6, 2, 9, 5, 10, 7, 3]);
makespan = 433;
----------
assign = array1d(1..10 ,[1, 2, 1, 1, 2, 1, 2, 2, 1, 2]);
next = array1d(1..10 ,[4, 8, 1, 6, 2, 9, 5, 10, 7, 3]);
makespan = 432;
----------
assign = array1d(1..10 ,[1, 2, 1, 1, 2, 1, 2, 2, 1, 2]);
next = array1d(1..10 ,[4, 8, 1, 6, 2, 9, 5, 10, 7, 3]);
makespan = 431;
----------
assign = array1d(1..10 ,[1, 2, 1, 1, 2, 1, 2, 2, 1, 2]);
next = array1d(1..10 ,[4, 8, 1, 6, 2, 9, 5, 10, 7, 3]);
makespan = 430;
----------
assign = array1d(1..10 ,[1, 2, 1, 1, 2, 1, 2, 2, 1, 2]);
next = array1d(1..10 ,[4, 8, 1, 6, 2, 9, 5, 10, 7, 3]);
makespan = 429;
----------
assign = array1d(1..10 ,[1, 2, 1, 1, 2, 1, 2, 2, 1, 2]);
next = array1d(1..10 ,[4, 8, 1, 6, 2, 9, 5, 10, 7, 3]);
makespan = 428;
----------
==========
	Command being timed: "mzn-chuffed lbbd-datasets/Rabadi-2006/dzn-balanced/model.mzn lbbd-datasets/Rabadi-2006/dzn-balanced/8on2Rp50Rs50_1Ameer.dzn"
	User time (seconds): 0.33
	System time (seconds): 0.02
	Percent of CPU this job got: 7%
	Elapsed (wall clock) time (h:mm:ss or m:ss): 0:05.09
	Average shared text size (kbytes): 0
	Average unshared data size (kbytes): 0
	Average stack size (kbytes): 0
	Average total size (kbytes): 0
	Maximum resident set size (kbytes): 32560
	Average resident set size (kbytes): 0
	Major (requiring I/O) page faults: 0
	Minor (reclaiming a frame) page faults: 2892
	Voluntary context switches: 253
	Involuntary context switches: 5
	Swaps: 0
	File system inputs: 0
	File system outputs: 216
	Socket messages sent: 0
	Socket messages received: 0
	Signals delivered: 0
	Page size (bytes): 4096
	Exit status: 0
