+ /usr/bin/timeout 600 /usr/bin/time -v mzn-chuffed lbbd-datasets/planningandscheduling/makespan-insts/model.mzn lbbd-datasets/planningandscheduling/makespan-insts/de14j3m3.dzn
% No search annotation given. Defaulting to VSIDS!
obj = 46
----------
obj = 45
----------
obj = 44
----------
obj = 43
----------
obj = 42
----------
obj = 41
----------
obj = 40
----------
obj = 39
----------
obj = 38
----------
obj = 37
----------
obj = 36
----------
obj = 35
----------
obj = 34
----------
obj = 33
----------
obj = 32
----------
obj = 31
----------
obj = 30
----------
obj = 29
----------
obj = 28
----------
==========
	Command being timed: "mzn-chuffed lbbd-datasets/planningandscheduling/makespan-insts/model.mzn lbbd-datasets/planningandscheduling/makespan-insts/de14j3m3.dzn"
	User time (seconds): 0.18
	System time (seconds): 0.01
	Percent of CPU this job got: 73%
	Elapsed (wall clock) time (h:mm:ss or m:ss): 0:00.26
	Average shared text size (kbytes): 0
	Average unshared data size (kbytes): 0
	Average stack size (kbytes): 0
	Average total size (kbytes): 0
	Maximum resident set size (kbytes): 28064
	Average resident set size (kbytes): 0
	Major (requiring I/O) page faults: 0
	Minor (reclaiming a frame) page faults: 2385
	Voluntary context switches: 25
	Involuntary context switches: 2
	Swaps: 0
	File system inputs: 0
	File system outputs: 64
	Socket messages sent: 0
	Socket messages received: 0
	Signals delivered: 0
	Page size (bytes): 4096
	Exit status: 0
