+ /usr/bin/timeout 600 /usr/bin/time -v mzn-chuffed lbbd-datasets/Rabadi-2006/dzn-s-dominant/model.mzn lbbd-datasets/Rabadi-2006/dzn-s-dominant/9on6Rp50Rs50_10Ameer.dzn
% No search annotation given. Defaulting to VSIDS!
assign = array1d(1..15 ,[6, 6, 6, 6, 6, 6, 6, 6, 6, 1, 2, 3, 4, 5, 6]);
next = array1d(1..15 ,[2, 3, 4, 5, 6, 7, 8, 9, 15, 11, 12, 13, 14, 1, 10]);
makespan = 1874;
----------
assign = array1d(1..15 ,[6, 6, 6, 6, 6, 6, 6, 6, 6, 1, 2, 3, 4, 5, 6]);
next = array1d(1..15 ,[3, 4, 2, 5, 6, 7, 8, 9, 15, 11, 12, 13, 14, 1, 10]);
makespan = 1833;
----------
assign = array1d(1..15 ,[6, 6, 6, 6, 6, 6, 6, 6, 6, 1, 2, 3, 4, 5, 6]);
next = array1d(1..15 ,[2, 8, 4, 5, 6, 7, 1, 9, 15, 11, 12, 13, 14, 3, 10]);
makespan = 1829;
----------
assign = array1d(1..15 ,[6, 6, 6, 6, 6, 6, 6, 6, 3, 1, 2, 3, 4, 5, 6]);
next = array1d(1..15 ,[2, 15, 4, 5, 6, 7, 8, 1, 12, 11, 9, 13, 14, 3, 10]);
makespan = 1647;
----------
assign = array1d(1..15 ,[6, 6, 5, 6, 6, 6, 6, 6, 6, 1, 2, 3, 4, 5, 6]);
next = array1d(1..15 ,[2, 6, 14, 5, 15, 7, 8, 9, 4, 11, 12, 13, 3, 1, 10]);
makespan = 1617;
----------
assign = array1d(1..15 ,[6, 6, 6, 6, 5, 6, 6, 6, 6, 1, 2, 3, 4, 5, 6]);
next = array1d(1..15 ,[2, 6, 4, 1, 14, 7, 15, 9, 3, 11, 12, 13, 5, 8, 10]);
makespan = 1616;
----------
assign = array1d(1..15 ,[6, 6, 6, 6, 3, 6, 6, 6, 6, 1, 2, 3, 4, 5, 6]);
next = array1d(1..15 ,[2, 8, 4, 1, 12, 7, 15, 9, 6, 11, 5, 13, 14, 3, 10]);
makespan = 1611;
----------
assign = array1d(1..15 ,[6, 6, 6, 6, 5, 6, 6, 6, 6, 1, 2, 3, 4, 5, 6]);
next = array1d(1..15 ,[2, 8, 4, 15, 14, 7, 1, 9, 3, 11, 12, 13, 5, 6, 10]);
makespan = 1607;
----------
assign = array1d(1..15 ,[6, 6, 6, 6, 3, 6, 6, 6, 6, 1, 2, 3, 4, 5, 6]);
next = array1d(1..15 ,[2, 8, 4, 6, 12, 7, 15, 9, 3, 11, 5, 13, 14, 1, 10]);
makespan = 1604;
----------
assign = array1d(1..15 ,[6, 6, 6, 6, 3, 6, 6, 6, 6, 1, 2, 3, 4, 5, 6]);
next = array1d(1..15 ,[2, 6, 4, 15, 12, 7, 3, 9, 1, 11, 5, 13, 14, 8, 10]);
makespan = 1603;
----------
assign = array1d(1..15 ,[6, 6, 6, 6, 1, 6, 6, 6, 6, 1, 2, 3, 4, 5, 6]);
next = array1d(1..15 ,[2, 8, 4, 6, 10, 7, 15, 9, 3, 11, 12, 13, 14, 1, 5]);
makespan = 1581;
----------
assign = array1d(1..15 ,[6, 6, 6, 6, 1, 6, 6, 6, 6, 1, 2, 3, 4, 5, 6]);
next = array1d(1..15 ,[2, 8, 4, 6, 10, 7, 15, 9, 3, 11, 12, 13, 14, 1, 5]);
makespan = 1579;
----------
assign = array1d(1..15 ,[6, 6, 6, 6, 1, 6, 6, 6, 6, 1, 2, 3, 4, 5, 6]);
next = array1d(1..15 ,[2, 8, 4, 6, 10, 7, 15, 9, 3, 11, 12, 13, 14, 1, 5]);
makespan = 1569;
----------
assign = array1d(1..15 ,[6, 6, 6, 6, 1, 6, 1, 6, 6, 1, 2, 3, 4, 5, 6]);
next = array1d(1..15 ,[2, 8, 4, 6, 10, 1, 5, 9, 15, 11, 12, 13, 14, 3, 7]);
makespan = 1562;
----------
assign = array1d(1..15 ,[6, 6, 6, 6, 4, 2, 6, 6, 6, 1, 2, 3, 4, 5, 6]);
next = array1d(1..15 ,[2, 15, 4, 1, 13, 11, 3, 9, 7, 6, 12, 5, 14, 8, 10]);
makespan = 1533;
----------
assign = array1d(1..15 ,[6, 6, 6, 6, 4, 2, 6, 6, 6, 1, 2, 3, 4, 5, 6]);
next = array1d(1..15 ,[2, 15, 4, 1, 13, 11, 3, 9, 7, 6, 12, 5, 14, 8, 10]);
makespan = 1510;
----------
assign = array1d(1..15 ,[6, 6, 6, 6, 4, 2, 2, 6, 6, 1, 2, 3, 4, 5, 6]);
next = array1d(1..15 ,[2, 8, 4, 1, 13, 7, 11, 9, 15, 6, 12, 5, 14, 3, 10]);
makespan = 1499;
----------
assign = array1d(1..15 ,[6, 6, 6, 6, 4, 2, 2, 6, 6, 1, 2, 3, 4, 5, 6]);
next = array1d(1..15 ,[2, 8, 4, 1, 13, 7, 11, 9, 15, 6, 12, 5, 14, 3, 10]);
makespan = 1479;
----------
assign = array1d(1..15 ,[6, 6, 6, 6, 4, 2, 2, 6, 6, 1, 2, 3, 4, 5, 6]);
next = array1d(1..15 ,[2, 8, 4, 1, 13, 7, 11, 9, 15, 6, 12, 5, 14, 3, 10]);
makespan = 1464;
----------
assign = array1d(1..15 ,[6, 6, 6, 6, 4, 2, 2, 6, 6, 1, 2, 3, 4, 5, 6]);
next = array1d(1..15 ,[2, 8, 4, 1, 13, 7, 11, 9, 15, 6, 12, 5, 14, 3, 10]);
makespan = 1463;
----------
assign = array1d(1..15 ,[6, 6, 6, 6, 4, 2, 2, 6, 6, 1, 2, 3, 4, 5, 6]);
next = array1d(1..15 ,[2, 8, 4, 1, 13, 7, 11, 9, 15, 6, 12, 5, 14, 3, 10]);
makespan = 1460;
----------
assign = array1d(1..15 ,[6, 6, 6, 6, 4, 2, 2, 6, 6, 1, 2, 3, 4, 5, 6]);
next = array1d(1..15 ,[2, 8, 4, 1, 13, 7, 11, 9, 15, 6, 12, 5, 14, 3, 10]);
makespan = 1444;
----------
assign = array1d(1..15 ,[6, 6, 6, 6, 4, 2, 2, 6, 6, 1, 2, 3, 4, 5, 6]);
next = array1d(1..15 ,[2, 8, 4, 1, 13, 7, 11, 9, 15, 6, 12, 5, 14, 3, 10]);
makespan = 1442;
----------
assign = array1d(1..15 ,[6, 6, 6, 6, 4, 2, 2, 6, 6, 1, 2, 3, 4, 5, 6]);
next = array1d(1..15 ,[2, 8, 4, 1, 13, 7, 11, 9, 15, 6, 12, 5, 14, 3, 10]);
makespan = 1417;
----------
assign = array1d(1..15 ,[6, 6, 6, 6, 4, 2, 2, 6, 6, 1, 2, 3, 4, 5, 6]);
next = array1d(1..15 ,[2, 8, 4, 1, 13, 7, 11, 9, 15, 6, 12, 5, 14, 3, 10]);
makespan = 1416;
----------
assign = array1d(1..15 ,[6, 6, 6, 6, 4, 2, 2, 6, 6, 1, 2, 3, 4, 5, 6]);
next = array1d(1..15 ,[2, 8, 4, 1, 13, 7, 11, 9, 15, 6, 12, 5, 14, 3, 10]);
makespan = 1398;
----------
assign = array1d(1..15 ,[6, 6, 6, 6, 4, 2, 2, 6, 6, 1, 2, 3, 4, 5, 6]);
next = array1d(1..15 ,[2, 8, 4, 1, 13, 7, 11, 9, 15, 6, 12, 5, 14, 3, 10]);
makespan = 1395;
----------
assign = array1d(1..15 ,[6, 6, 6, 6, 4, 2, 2, 6, 6, 1, 2, 3, 4, 5, 6]);
next = array1d(1..15 ,[2, 8, 4, 1, 13, 7, 11, 9, 15, 6, 12, 5, 14, 3, 10]);
makespan = 1394;
----------
assign = array1d(1..15 ,[6, 6, 6, 6, 4, 2, 2, 6, 6, 1, 2, 3, 4, 5, 6]);
next = array1d(1..15 ,[2, 8, 4, 1, 13, 7, 11, 9, 15, 6, 12, 5, 14, 3, 10]);
makespan = 1393;
----------
assign = array1d(1..15 ,[6, 6, 6, 6, 4, 2, 2, 6, 6, 1, 2, 3, 4, 5, 6]);
next = array1d(1..15 ,[2, 8, 4, 1, 13, 7, 11, 9, 15, 6, 12, 5, 14, 3, 10]);
makespan = 1388;
----------
assign = array1d(1..15 ,[6, 6, 6, 6, 4, 2, 2, 6, 6, 1, 2, 3, 4, 5, 6]);
next = array1d(1..15 ,[2, 8, 4, 1, 13, 7, 11, 9, 15, 6, 12, 5, 14, 3, 10]);
makespan = 1387;
----------
assign = array1d(1..15 ,[6, 6, 6, 6, 4, 2, 2, 6, 6, 1, 2, 3, 4, 5, 6]);
next = array1d(1..15 ,[2, 8, 4, 1, 13, 7, 11, 9, 15, 6, 12, 5, 14, 3, 10]);
makespan = 1383;
----------
assign = array1d(1..15 ,[6, 6, 6, 6, 4, 2, 2, 6, 6, 1, 2, 3, 4, 5, 6]);
next = array1d(1..15 ,[2, 8, 4, 1, 13, 7, 11, 9, 15, 6, 12, 5, 14, 3, 10]);
makespan = 1378;
----------
assign = array1d(1..15 ,[6, 6, 6, 6, 4, 2, 2, 6, 6, 1, 2, 3, 4, 5, 6]);
next = array1d(1..15 ,[2, 8, 4, 1, 13, 7, 11, 9, 15, 6, 12, 5, 14, 3, 10]);
makespan = 1377;
----------
assign = array1d(1..15 ,[6, 6, 6, 6, 4, 2, 2, 6, 6, 1, 2, 3, 4, 5, 6]);
next = array1d(1..15 ,[2, 8, 4, 1, 13, 7, 11, 9, 15, 6, 12, 5, 14, 3, 10]);
makespan = 1375;
----------
assign = array1d(1..15 ,[6, 6, 6, 6, 4, 2, 2, 6, 6, 1, 2, 3, 4, 5, 6]);
next = array1d(1..15 ,[2, 8, 4, 1, 13, 7, 11, 9, 15, 6, 12, 5, 14, 3, 10]);
makespan = 1355;
----------
assign = array1d(1..15 ,[6, 6, 6, 6, 4, 2, 2, 6, 6, 1, 2, 3, 4, 5, 6]);
next = array1d(1..15 ,[2, 8, 4, 1, 13, 7, 11, 9, 15, 6, 12, 5, 14, 3, 10]);
makespan = 1351;
----------
assign = array1d(1..15 ,[6, 6, 6, 6, 4, 2, 2, 6, 6, 1, 2, 3, 4, 5, 6]);
next = array1d(1..15 ,[2, 8, 4, 1, 13, 7, 11, 9, 15, 6, 12, 5, 14, 3, 10]);
makespan = 1350;
----------
assign = array1d(1..15 ,[6, 6, 6, 6, 4, 2, 2, 6, 6, 1, 2, 3, 4, 5, 6]);
next = array1d(1..15 ,[2, 8, 4, 1, 13, 7, 11, 9, 15, 6, 12, 5, 14, 3, 10]);
makespan = 1347;
----------
assign = array1d(1..15 ,[6, 6, 6, 6, 4, 2, 2, 6, 6, 1, 2, 3, 4, 5, 6]);
next = array1d(1..15 ,[2, 8, 4, 1, 13, 7, 11, 9, 15, 6, 12, 5, 14, 3, 10]);
makespan = 1345;
----------
assign = array1d(1..15 ,[6, 6, 6, 6, 4, 2, 2, 6, 6, 1, 2, 3, 4, 5, 6]);
next = array1d(1..15 ,[2, 8, 4, 1, 13, 7, 11, 9, 15, 6, 12, 5, 14, 3, 10]);
makespan = 1327;
----------
assign = array1d(1..15 ,[6, 6, 6, 6, 4, 2, 2, 6, 6, 1, 2, 3, 4, 5, 6]);
next = array1d(1..15 ,[2, 8, 4, 1, 13, 7, 11, 9, 15, 6, 12, 5, 14, 3, 10]);
makespan = 1322;
----------
assign = array1d(1..15 ,[6, 6, 6, 6, 4, 2, 2, 6, 6, 1, 2, 3, 4, 5, 6]);
next = array1d(1..15 ,[2, 8, 4, 1, 13, 7, 11, 9, 15, 6, 12, 5, 14, 3, 10]);
makespan = 1318;
----------
assign = array1d(1..15 ,[6, 6, 6, 6, 4, 2, 2, 6, 6, 1, 2, 3, 4, 5, 6]);
next = array1d(1..15 ,[2, 8, 4, 1, 13, 7, 11, 9, 15, 6, 12, 5, 14, 3, 10]);
makespan = 1312;
----------
assign = array1d(1..15 ,[6, 6, 6, 6, 4, 2, 2, 6, 6, 1, 2, 3, 4, 5, 6]);
next = array1d(1..15 ,[2, 8, 4, 1, 13, 7, 11, 9, 15, 6, 12, 5, 14, 3, 10]);
makespan = 1311;
----------
assign = array1d(1..15 ,[6, 6, 6, 6, 4, 2, 2, 6, 6, 1, 2, 3, 4, 5, 6]);
next = array1d(1..15 ,[2, 8, 4, 1, 13, 7, 11, 9, 15, 6, 12, 5, 14, 3, 10]);
makespan = 1305;
----------
assign = array1d(1..15 ,[6, 6, 6, 6, 4, 2, 2, 6, 6, 1, 2, 3, 4, 5, 6]);
next = array1d(1..15 ,[2, 8, 4, 1, 13, 7, 11, 9, 15, 6, 12, 5, 14, 3, 10]);
makespan = 1298;
----------
assign = array1d(1..15 ,[6, 6, 6, 6, 4, 2, 2, 6, 6, 1, 2, 3, 4, 5, 6]);
next = array1d(1..15 ,[2, 8, 4, 1, 13, 7, 11, 9, 15, 6, 12, 5, 14, 3, 10]);
makespan = 1262;
----------
assign = array1d(1..15 ,[6, 6, 6, 6, 4, 2, 2, 6, 6, 1, 2, 3, 4, 5, 6]);
next = array1d(1..15 ,[2, 8, 4, 1, 13, 7, 11, 9, 15, 6, 12, 5, 14, 3, 10]);
makespan = 1260;
----------
assign = array1d(1..15 ,[6, 6, 6, 6, 4, 2, 2, 6, 6, 1, 2, 3, 4, 5, 6]);
next = array1d(1..15 ,[2, 8, 4, 1, 13, 7, 11, 9, 15, 6, 12, 5, 14, 3, 10]);
makespan = 1252;
----------
assign = array1d(1..15 ,[6, 6, 6, 6, 4, 2, 2, 6, 6, 1, 2, 3, 4, 5, 6]);
next = array1d(1..15 ,[2, 8, 4, 1, 13, 7, 11, 9, 15, 6, 12, 5, 14, 3, 10]);
makespan = 1245;
----------
assign = array1d(1..15 ,[6, 6, 6, 6, 4, 2, 2, 6, 6, 1, 2, 3, 4, 5, 6]);
next = array1d(1..15 ,[2, 8, 4, 1, 13, 7, 11, 9, 15, 6, 12, 5, 14, 3, 10]);
makespan = 1216;
----------
assign = array1d(1..15 ,[6, 6, 6, 6, 4, 2, 2, 6, 6, 1, 2, 3, 4, 5, 6]);
next = array1d(1..15 ,[2, 8, 4, 1, 13, 7, 11, 9, 15, 6, 12, 5, 14, 3, 10]);
makespan = 1209;
----------
assign = array1d(1..15 ,[6, 6, 6, 6, 4, 2, 2, 6, 6, 1, 2, 3, 4, 5, 6]);
next = array1d(1..15 ,[2, 8, 4, 1, 13, 7, 11, 9, 15, 6, 12, 5, 14, 3, 10]);
makespan = 1188;
----------
assign = array1d(1..15 ,[6, 6, 6, 6, 4, 2, 2, 6, 6, 1, 2, 3, 4, 5, 6]);
next = array1d(1..15 ,[2, 8, 4, 1, 13, 7, 11, 9, 15, 6, 12, 5, 14, 3, 10]);
makespan = 1179;
----------
assign = array1d(1..15 ,[6, 6, 6, 6, 4, 2, 2, 6, 6, 1, 2, 3, 4, 5, 6]);
next = array1d(1..15 ,[2, 8, 4, 1, 13, 7, 11, 9, 15, 6, 12, 5, 14, 3, 10]);
makespan = 1175;
----------
assign = array1d(1..15 ,[6, 6, 6, 6, 4, 2, 2, 6, 6, 1, 2, 3, 4, 5, 6]);
next = array1d(1..15 ,[2, 8, 4, 15, 13, 7, 11, 9, 3, 6, 12, 5, 14, 1, 10]);
makespan = 1156;
----------
assign = array1d(1..15 ,[6, 6, 6, 6, 1, 2, 2, 6, 6, 1, 2, 3, 4, 5, 6]);
next = array1d(1..15 ,[2, 8, 4, 15, 10, 7, 11, 9, 3, 6, 12, 13, 14, 1, 5]);
makespan = 1141;
----------
assign = array1d(1..15 ,[6, 6, 6, 6, 1, 2, 2, 6, 6, 1, 2, 3, 4, 5, 6]);
next = array1d(1..15 ,[2, 8, 4, 15, 10, 7, 11, 9, 3, 6, 12, 13, 14, 1, 5]);
makespan = 1135;
----------
assign = array1d(1..15 ,[6, 6, 6, 6, 1, 2, 6, 3, 3, 1, 2, 3, 4, 5, 6]);
next = array1d(1..15 ,[2, 7, 4, 15, 10, 11, 3, 9, 12, 6, 8, 13, 14, 1, 5]);
makespan = 1131;
----------
assign = array1d(1..15 ,[6, 6, 6, 6, 1, 4, 6, 4, 4, 1, 2, 3, 4, 5, 6]);
next = array1d(1..15 ,[2, 7, 4, 15, 10, 8, 3, 9, 13, 11, 12, 6, 14, 1, 5]);
makespan = 1110;
----------
assign = array1d(1..15 ,[6, 6, 6, 6, 1, 4, 6, 4, 4, 1, 2, 3, 4, 5, 6]);
next = array1d(1..15 ,[2, 7, 4, 15, 10, 8, 3, 9, 13, 11, 12, 6, 14, 1, 5]);
makespan = 1090;
----------
assign = array1d(1..15 ,[6, 6, 6, 6, 1, 4, 6, 4, 4, 1, 2, 3, 4, 5, 6]);
next = array1d(1..15 ,[2, 7, 4, 15, 10, 8, 3, 9, 13, 11, 12, 6, 14, 1, 5]);
makespan = 1081;
----------
assign = array1d(1..15 ,[6, 6, 6, 6, 1, 4, 6, 4, 4, 1, 2, 3, 4, 5, 6]);
next = array1d(1..15 ,[2, 7, 4, 15, 10, 8, 3, 9, 13, 11, 12, 6, 14, 1, 5]);
makespan = 1065;
----------
assign = array1d(1..15 ,[6, 6, 6, 6, 1, 4, 6, 4, 4, 1, 2, 3, 4, 5, 6]);
next = array1d(1..15 ,[2, 7, 4, 15, 10, 8, 3, 9, 13, 11, 12, 6, 14, 1, 5]);
makespan = 1050;
----------
assign = array1d(1..15 ,[6, 6, 6, 6, 1, 4, 6, 4, 4, 1, 2, 3, 4, 5, 6]);
next = array1d(1..15 ,[2, 7, 4, 15, 10, 8, 3, 9, 13, 11, 12, 6, 14, 1, 5]);
makespan = 1045;
----------
assign = array1d(1..15 ,[6, 6, 6, 6, 1, 4, 6, 4, 4, 1, 2, 3, 4, 5, 6]);
next = array1d(1..15 ,[2, 7, 4, 15, 10, 8, 3, 9, 13, 11, 12, 6, 14, 1, 5]);
makespan = 1035;
----------
assign = array1d(1..15 ,[6, 6, 6, 6, 1, 4, 6, 4, 4, 1, 2, 3, 4, 5, 6]);
next = array1d(1..15 ,[2, 7, 4, 15, 10, 8, 3, 9, 13, 11, 12, 6, 14, 1, 5]);
makespan = 1033;
----------
assign = array1d(1..15 ,[6, 6, 6, 6, 1, 4, 6, 4, 4, 1, 2, 3, 4, 5, 6]);
next = array1d(1..15 ,[2, 7, 4, 15, 10, 8, 3, 9, 13, 11, 12, 6, 14, 1, 5]);
makespan = 1026;
----------
assign = array1d(1..15 ,[6, 6, 6, 6, 1, 4, 6, 4, 4, 1, 2, 3, 4, 5, 6]);
next = array1d(1..15 ,[2, 7, 4, 15, 10, 8, 3, 9, 13, 11, 12, 6, 14, 1, 5]);
makespan = 1024;
----------
assign = array1d(1..15 ,[6, 6, 6, 6, 1, 4, 6, 4, 4, 1, 2, 3, 4, 5, 6]);
next = array1d(1..15 ,[2, 7, 4, 15, 10, 8, 3, 9, 13, 11, 12, 6, 14, 1, 5]);
makespan = 1017;
----------
assign = array1d(1..15 ,[6, 6, 6, 6, 1, 4, 6, 4, 4, 1, 2, 3, 4, 5, 6]);
next = array1d(1..15 ,[2, 7, 4, 15, 10, 8, 3, 9, 13, 11, 12, 6, 14, 1, 5]);
makespan = 1014;
----------
assign = array1d(1..15 ,[6, 6, 6, 6, 1, 4, 6, 4, 4, 1, 2, 3, 4, 5, 6]);
next = array1d(1..15 ,[2, 7, 4, 15, 10, 8, 3, 9, 13, 11, 12, 6, 14, 1, 5]);
makespan = 1010;
----------
assign = array1d(1..15 ,[6, 6, 6, 6, 1, 4, 6, 4, 4, 1, 2, 3, 4, 5, 6]);
next = array1d(1..15 ,[2, 7, 4, 15, 10, 8, 3, 9, 13, 11, 12, 6, 14, 1, 5]);
makespan = 1005;
----------
assign = array1d(1..15 ,[6, 6, 6, 6, 1, 4, 6, 4, 4, 1, 2, 3, 4, 5, 6]);
next = array1d(1..15 ,[2, 7, 4, 15, 10, 8, 3, 9, 13, 11, 12, 6, 14, 1, 5]);
makespan = 1003;
----------
assign = array1d(1..15 ,[6, 6, 6, 6, 1, 4, 6, 4, 4, 1, 2, 3, 4, 5, 6]);
next = array1d(1..15 ,[2, 7, 4, 15, 10, 8, 3, 9, 13, 11, 12, 6, 14, 1, 5]);
makespan = 963;
----------
assign = array1d(1..15 ,[6, 6, 6, 6, 1, 4, 4, 6, 4, 1, 2, 3, 4, 5, 6]);
next = array1d(1..15 ,[2, 3, 4, 15, 10, 7, 9, 1, 13, 11, 12, 6, 14, 8, 5]);
makespan = 957;
----------
assign = array1d(1..15 ,[6, 6, 6, 6, 1, 4, 4, 6, 1, 1, 2, 3, 4, 5, 6]);
next = array1d(1..15 ,[2, 15, 4, 8, 9, 7, 13, 1, 10, 11, 12, 6, 14, 3, 5]);
makespan = 948;
----------
assign = array1d(1..15 ,[6, 6, 6, 6, 2, 4, 1, 4, 6, 1, 2, 3, 4, 5, 6]);
next = array1d(1..15 ,[2, 9, 4, 15, 11, 8, 10, 13, 3, 5, 12, 6, 14, 1, 7]);
makespan = 947;
----------
assign = array1d(1..15 ,[6, 6, 6, 6, 2, 4, 1, 4, 6, 1, 2, 3, 4, 5, 6]);
next = array1d(1..15 ,[2, 9, 4, 15, 11, 8, 10, 13, 3, 5, 12, 6, 14, 1, 7]);
makespan = 946;
----------
assign = array1d(1..15 ,[6, 6, 6, 6, 1, 5, 5, 4, 6, 1, 2, 3, 4, 5, 6]);
next = array1d(1..15 ,[2, 9, 4, 15, 10, 7, 14, 13, 3, 11, 12, 8, 6, 1, 5]);
makespan = 944;
----------
assign = array1d(1..15 ,[6, 6, 6, 6, 1, 5, 4, 5, 6, 1, 2, 3, 4, 5, 6]);
next = array1d(1..15 ,[2, 9, 4, 15, 10, 8, 13, 14, 3, 11, 12, 7, 6, 1, 5]);
makespan = 940;
----------
assign = array1d(1..15 ,[6, 6, 6, 6, 2, 1, 4, 1, 6, 1, 2, 3, 4, 5, 6]);
next = array1d(1..15 ,[2, 9, 4, 15, 11, 8, 13, 10, 3, 5, 12, 7, 14, 1, 6]);
makespan = 933;
----------
assign = array1d(1..15 ,[6, 6, 6, 6, 2, 1, 4, 6, 5, 1, 2, 3, 4, 5, 6]);
next = array1d(1..15 ,[2, 8, 4, 15, 11, 10, 13, 3, 14, 5, 12, 7, 9, 1, 6]);
makespan = 931;
----------
assign = array1d(1..15 ,[6, 6, 6, 6, 4, 1, 5, 4, 3, 1, 2, 3, 4, 5, 6]);
next = array1d(1..15 ,[2, 15, 4, 1, 8, 10, 14, 13, 12, 11, 9, 5, 7, 3, 6]);
makespan = 903;
----------
assign = array1d(1..15 ,[6, 6, 6, 6, 5, 1, 5, 4, 5, 1, 2, 3, 4, 5, 6]);
next = array1d(1..15 ,[2, 3, 4, 15, 9, 10, 14, 13, 7, 11, 12, 8, 5, 1, 6]);
makespan = 895;
----------
assign = array1d(1..15 ,[6, 6, 6, 6, 5, 1, 3, 4, 3, 1, 2, 3, 4, 5, 6]);
next = array1d(1..15 ,[2, 3, 4, 15, 14, 10, 12, 13, 7, 11, 9, 8, 5, 1, 6]);
makespan = 891;
----------
assign = array1d(1..15 ,[6, 6, 6, 6, 1, 5, 3, 4, 3, 1, 2, 3, 4, 5, 6]);
next = array1d(1..15 ,[2, 3, 4, 15, 10, 14, 12, 13, 7, 11, 9, 8, 6, 1, 5]);
makespan = 890;
----------
assign = array1d(1..15 ,[6, 6, 6, 6, 5, 1, 3, 4, 3, 1, 2, 3, 4, 5, 6]);
next = array1d(1..15 ,[2, 3, 4, 15, 14, 10, 12, 13, 7, 11, 9, 8, 5, 1, 6]);
makespan = 888;
----------
assign = array1d(1..15 ,[6, 6, 6, 6, 1, 5, 3, 4, 3, 1, 2, 3, 4, 5, 6]);
next = array1d(1..15 ,[2, 3, 4, 15, 10, 14, 12, 13, 7, 11, 9, 8, 6, 1, 5]);
makespan = 886;
----------
assign = array1d(1..15 ,[6, 6, 6, 6, 5, 1, 3, 4, 3, 1, 2, 3, 4, 5, 6]);
next = array1d(1..15 ,[2, 3, 4, 15, 14, 10, 12, 13, 7, 11, 9, 8, 5, 1, 6]);
makespan = 885;
----------
assign = array1d(1..15 ,[6, 6, 6, 6, 1, 5, 3, 4, 3, 1, 2, 3, 4, 5, 6]);
next = array1d(1..15 ,[2, 3, 4, 15, 10, 14, 12, 13, 7, 11, 9, 8, 6, 1, 5]);
makespan = 880;
----------
assign = array1d(1..15 ,[6, 6, 6, 6, 5, 1, 3, 4, 3, 1, 2, 3, 4, 5, 6]);
next = array1d(1..15 ,[2, 3, 4, 15, 14, 10, 12, 13, 7, 11, 9, 8, 5, 1, 6]);
makespan = 878;
----------
assign = array1d(1..15 ,[6, 6, 6, 6, 1, 5, 3, 4, 3, 1, 2, 3, 4, 5, 6]);
next = array1d(1..15 ,[2, 3, 4, 15, 10, 14, 12, 13, 7, 11, 9, 8, 6, 1, 5]);
makespan = 874;
----------
assign = array1d(1..15 ,[6, 6, 6, 6, 5, 1, 3, 4, 3, 1, 2, 3, 4, 5, 6]);
next = array1d(1..15 ,[2, 3, 4, 15, 14, 10, 12, 13, 7, 11, 9, 8, 5, 1, 6]);
makespan = 872;
----------
assign = array1d(1..15 ,[6, 6, 6, 6, 1, 5, 3, 4, 3, 1, 2, 3, 4, 5, 6]);
next = array1d(1..15 ,[2, 3, 4, 15, 10, 14, 12, 13, 7, 11, 9, 8, 6, 1, 5]);
makespan = 868;
----------
assign = array1d(1..15 ,[6, 6, 6, 6, 5, 1, 3, 4, 3, 1, 2, 3, 4, 5, 6]);
next = array1d(1..15 ,[2, 3, 4, 15, 14, 10, 12, 13, 7, 11, 9, 8, 5, 1, 6]);
makespan = 863;
----------
assign = array1d(1..15 ,[6, 6, 6, 6, 1, 5, 3, 4, 3, 1, 2, 3, 4, 5, 6]);
next = array1d(1..15 ,[2, 3, 4, 15, 10, 14, 12, 13, 7, 11, 9, 8, 6, 1, 5]);
makespan = 857;
----------
assign = array1d(1..15 ,[6, 6, 6, 6, 5, 1, 3, 4, 3, 1, 2, 3, 4, 5, 6]);
next = array1d(1..15 ,[2, 3, 4, 15, 14, 10, 12, 13, 7, 11, 9, 8, 5, 1, 6]);
makespan = 852;
----------
assign = array1d(1..15 ,[6, 6, 6, 6, 1, 5, 3, 4, 3, 1, 2, 3, 4, 5, 6]);
next = array1d(1..15 ,[2, 3, 4, 15, 10, 14, 12, 13, 7, 11, 9, 8, 6, 1, 5]);
makespan = 845;
----------
assign = array1d(1..15 ,[6, 6, 6, 6, 5, 1, 3, 4, 3, 1, 2, 3, 4, 5, 6]);
next = array1d(1..15 ,[2, 3, 4, 15, 14, 10, 12, 13, 7, 11, 9, 8, 5, 1, 6]);
makespan = 842;
----------
assign = array1d(1..15 ,[6, 6, 6, 6, 1, 5, 3, 4, 3, 1, 2, 3, 4, 5, 6]);
next = array1d(1..15 ,[2, 3, 4, 15, 10, 14, 12, 13, 7, 11, 9, 8, 6, 1, 5]);
makespan = 841;
----------
assign = array1d(1..15 ,[6, 6, 6, 6, 5, 1, 3, 4, 3, 1, 2, 3, 4, 5, 6]);
next = array1d(1..15 ,[2, 3, 4, 15, 14, 10, 12, 13, 7, 11, 9, 8, 5, 1, 6]);
makespan = 837;
----------
assign = array1d(1..15 ,[6, 6, 6, 6, 1, 5, 3, 4, 3, 1, 2, 3, 4, 5, 6]);
next = array1d(1..15 ,[2, 3, 4, 15, 10, 14, 12, 13, 7, 11, 9, 8, 6, 1, 5]);
makespan = 834;
----------
assign = array1d(1..15 ,[6, 6, 6, 6, 5, 1, 3, 4, 3, 1, 2, 3, 4, 5, 6]);
next = array1d(1..15 ,[2, 3, 4, 15, 14, 10, 12, 13, 7, 11, 9, 8, 5, 1, 6]);
makespan = 833;
----------
assign = array1d(1..15 ,[6, 6, 6, 6, 1, 5, 3, 4, 3, 1, 2, 3, 4, 5, 6]);
next = array1d(1..15 ,[2, 3, 4, 15, 10, 14, 12, 13, 7, 11, 9, 8, 6, 1, 5]);
makespan = 828;
----------
assign = array1d(1..15 ,[6, 6, 6, 6, 5, 1, 3, 4, 3, 1, 2, 3, 4, 5, 6]);
next = array1d(1..15 ,[2, 3, 4, 15, 14, 10, 12, 13, 7, 11, 9, 8, 5, 1, 6]);
makespan = 825;
----------
assign = array1d(1..15 ,[6, 6, 6, 6, 1, 5, 3, 4, 3, 1, 2, 3, 4, 5, 6]);
next = array1d(1..15 ,[2, 3, 4, 15, 10, 14, 12, 13, 7, 11, 9, 8, 6, 1, 5]);
makespan = 824;
----------
assign = array1d(1..15 ,[6, 6, 6, 6, 5, 1, 3, 4, 3, 1, 2, 3, 4, 5, 6]);
next = array1d(1..15 ,[2, 3, 4, 15, 14, 10, 12, 13, 7, 11, 9, 8, 5, 1, 6]);
makespan = 823;
----------
assign = array1d(1..15 ,[6, 6, 6, 6, 1, 5, 3, 4, 3, 1, 2, 3, 4, 5, 6]);
next = array1d(1..15 ,[2, 3, 4, 15, 10, 14, 12, 13, 7, 11, 9, 8, 6, 1, 5]);
makespan = 820;
----------
assign = array1d(1..15 ,[6, 6, 6, 6, 5, 1, 3, 4, 3, 1, 2, 3, 4, 5, 6]);
next = array1d(1..15 ,[2, 3, 4, 15, 14, 10, 12, 13, 7, 11, 9, 8, 5, 1, 6]);
makespan = 812;
----------
assign = array1d(1..15 ,[6, 6, 6, 6, 1, 5, 3, 4, 3, 1, 2, 3, 4, 5, 6]);
next = array1d(1..15 ,[2, 3, 4, 15, 10, 14, 12, 13, 7, 11, 9, 8, 6, 1, 5]);
makespan = 809;
----------
assign = array1d(1..15 ,[6, 6, 6, 6, 5, 1, 3, 4, 3, 1, 2, 3, 4, 5, 6]);
next = array1d(1..15 ,[2, 3, 4, 15, 14, 10, 12, 13, 7, 11, 9, 8, 5, 1, 6]);
makespan = 803;
----------
assign = array1d(1..15 ,[6, 6, 6, 6, 1, 5, 3, 4, 3, 1, 2, 3, 4, 5, 6]);
next = array1d(1..15 ,[2, 3, 4, 15, 10, 14, 12, 13, 7, 11, 9, 8, 6, 1, 5]);
makespan = 802;
----------
assign = array1d(1..15 ,[6, 6, 6, 6, 5, 1, 3, 4, 3, 1, 2, 3, 4, 5, 6]);
next = array1d(1..15 ,[2, 3, 4, 15, 14, 10, 12, 13, 7, 11, 9, 8, 5, 1, 6]);
makespan = 801;
----------
assign = array1d(1..15 ,[6, 6, 6, 6, 1, 5, 3, 4, 3, 1, 2, 3, 4, 5, 6]);
next = array1d(1..15 ,[2, 3, 4, 15, 10, 14, 12, 13, 7, 11, 9, 8, 6, 1, 5]);
makespan = 794;
----------
assign = array1d(1..15 ,[6, 6, 6, 6, 5, 1, 3, 4, 3, 1, 2, 3, 4, 5, 6]);
next = array1d(1..15 ,[2, 3, 4, 15, 14, 10, 12, 13, 7, 11, 9, 8, 5, 1, 6]);
makespan = 791;
----------
assign = array1d(1..15 ,[6, 6, 6, 6, 1, 5, 3, 4, 3, 1, 2, 3, 4, 5, 6]);
next = array1d(1..15 ,[2, 3, 4, 15, 10, 14, 12, 13, 7, 11, 9, 8, 6, 1, 5]);
makespan = 790;
----------
assign = array1d(1..15 ,[6, 6, 6, 6, 5, 1, 3, 4, 3, 1, 2, 3, 4, 5, 6]);
next = array1d(1..15 ,[2, 3, 4, 15, 14, 10, 12, 13, 7, 11, 9, 8, 5, 1, 6]);
makespan = 789;
----------
assign = array1d(1..15 ,[6, 6, 6, 6, 1, 5, 3, 4, 3, 1, 2, 3, 4, 5, 6]);
next = array1d(1..15 ,[2, 3, 4, 15, 10, 14, 12, 13, 7, 11, 9, 8, 6, 1, 5]);
makespan = 788;
----------
assign = array1d(1..15 ,[6, 6, 6, 6, 5, 1, 3, 4, 3, 1, 2, 3, 4, 5, 6]);
next = array1d(1..15 ,[2, 3, 4, 15, 14, 10, 12, 13, 7, 11, 9, 8, 5, 1, 6]);
makespan = 784;
----------
assign = array1d(1..15 ,[6, 6, 6, 6, 1, 5, 3, 4, 3, 1, 2, 3, 4, 5, 6]);
next = array1d(1..15 ,[2, 3, 4, 15, 10, 14, 12, 13, 7, 11, 9, 8, 6, 1, 5]);
makespan = 776;
----------
assign = array1d(1..15 ,[6, 6, 6, 6, 5, 1, 3, 4, 3, 1, 2, 3, 4, 5, 6]);
next = array1d(1..15 ,[2, 3, 4, 15, 14, 10, 12, 13, 7, 11, 9, 8, 5, 1, 6]);
makespan = 775;
----------
assign = array1d(1..15 ,[6, 6, 6, 6, 1, 5, 3, 4, 3, 1, 2, 3, 4, 5, 6]);
next = array1d(1..15 ,[2, 3, 4, 15, 10, 14, 12, 13, 7, 11, 9, 8, 6, 1, 5]);
makespan = 767;
----------
assign = array1d(1..15 ,[6, 6, 6, 6, 5, 1, 3, 4, 3, 1, 2, 3, 4, 5, 6]);
next = array1d(1..15 ,[2, 3, 4, 15, 14, 10, 12, 13, 7, 11, 9, 8, 5, 1, 6]);
makespan = 762;
----------
assign = array1d(1..15 ,[6, 6, 6, 6, 1, 5, 3, 4, 3, 1, 2, 3, 4, 5, 6]);
next = array1d(1..15 ,[2, 3, 4, 15, 10, 14, 12, 13, 7, 11, 9, 8, 6, 1, 5]);
makespan = 759;
----------
assign = array1d(1..15 ,[6, 6, 6, 6, 5, 1, 3, 4, 3, 1, 2, 3, 4, 5, 6]);
next = array1d(1..15 ,[2, 3, 4, 15, 14, 10, 12, 13, 7, 11, 9, 8, 5, 1, 6]);
makespan = 758;
----------
assign = array1d(1..15 ,[6, 6, 6, 6, 1, 4, 1, 4, 1, 1, 2, 3, 4, 5, 6]);
next = array1d(1..15 ,[15, 1, 4, 2, 10, 8, 9, 13, 5, 11, 12, 6, 14, 3, 7]);
makespan = 757;
----------
assign = array1d(1..15 ,[4, 6, 6, 6, 6, 5, 1, 1, 5, 1, 2, 3, 4, 5, 6]);
next = array1d(1..15 ,[13, 5, 4, 15, 3, 14, 8, 10, 6, 11, 12, 1, 9, 2, 7]);
makespan = 756;
----------
assign = array1d(1..15 ,[3, 6, 6, 6, 6, 4, 1, 1, 5, 1, 2, 3, 4, 5, 6]);
next = array1d(1..15 ,[12, 5, 4, 15, 3, 13, 10, 7, 14, 11, 1, 6, 9, 2, 8]);
makespan = 755;
----------
assign = array1d(1..15 ,[6, 1, 6, 6, 6, 5, 4, 5, 5, 1, 2, 3, 4, 5, 6]);
next = array1d(1..15 ,[5, 10, 4, 15, 3, 14, 13, 6, 8, 11, 12, 7, 9, 1, 2]);
makespan = 753;
----------
assign = array1d(1..15 ,[4, 4, 6, 6, 4, 5, 6, 6, 5, 1, 2, 3, 4, 5, 6]);
next = array1d(1..15 ,[5, 13, 4, 15, 2, 14, 3, 7, 6, 11, 12, 1, 9, 8, 10]);
makespan = 752;
----------
assign = array1d(1..15 ,[4, 4, 6, 6, 4, 5, 4, 1, 5, 1, 2, 3, 4, 5, 6]);
next = array1d(1..15 ,[5, 13, 4, 15, 2, 14, 1, 10, 6, 11, 12, 7, 9, 3, 8]);
makespan = 750;
----------
assign = array1d(1..15 ,[4, 4, 6, 6, 4, 5, 6, 6, 5, 1, 2, 3, 4, 5, 6]);
next = array1d(1..15 ,[5, 13, 4, 15, 2, 14, 3, 7, 6, 11, 12, 1, 9, 8, 10]);
makespan = 749;
----------
assign = array1d(1..15 ,[6, 6, 1, 1, 6, 5, 3, 1, 6, 1, 2, 3, 4, 5, 6]);
next = array1d(1..15 ,[5, 9, 8, 10, 2, 14, 12, 4, 15, 11, 7, 13, 6, 1, 3]);
makespan = 747;
----------
assign = array1d(1..15 ,[6, 6, 1, 1, 6, 5, 3, 1, 6, 1, 2, 3, 4, 5, 6]);
next = array1d(1..15 ,[5, 9, 8, 10, 2, 14, 12, 4, 15, 11, 7, 13, 6, 1, 3]);
makespan = 746;
----------
assign = array1d(1..15 ,[6, 6, 1, 1, 6, 5, 3, 1, 6, 1, 2, 3, 4, 5, 6]);
next = array1d(1..15 ,[5, 9, 8, 10, 2, 14, 12, 4, 15, 11, 7, 13, 6, 1, 3]);
makespan = 745;
----------
assign = array1d(1..15 ,[6, 6, 1, 1, 6, 5, 3, 1, 6, 1, 2, 3, 4, 5, 6]);
next = array1d(1..15 ,[5, 9, 8, 10, 2, 14, 12, 4, 15, 11, 7, 13, 6, 1, 3]);
makespan = 744;
----------
assign = array1d(1..15 ,[6, 6, 1, 1, 6, 5, 3, 1, 6, 1, 2, 3, 4, 5, 6]);
next = array1d(1..15 ,[5, 9, 8, 10, 2, 14, 12, 4, 15, 11, 7, 13, 6, 1, 3]);
makespan = 743;
----------
assign = array1d(1..15 ,[6, 6, 1, 1, 6, 5, 3, 1, 6, 1, 2, 3, 4, 5, 6]);
next = array1d(1..15 ,[5, 9, 8, 10, 2, 14, 12, 4, 15, 11, 7, 13, 6, 1, 3]);
makespan = 742;
----------
assign = array1d(1..15 ,[6, 6, 1, 1, 6, 5, 3, 1, 6, 1, 2, 3, 4, 5, 6]);
next = array1d(1..15 ,[5, 9, 8, 10, 2, 14, 12, 4, 15, 11, 7, 13, 6, 1, 3]);
makespan = 741;
----------
assign = array1d(1..15 ,[6, 6, 1, 1, 6, 5, 3, 1, 6, 1, 2, 3, 4, 5, 6]);
next = array1d(1..15 ,[5, 9, 8, 10, 2, 14, 12, 4, 15, 11, 7, 13, 6, 1, 3]);
makespan = 740;
----------
assign = array1d(1..15 ,[4, 4, 6, 6, 4, 2, 6, 6, 4, 1, 2, 3, 4, 5, 6]);
next = array1d(1..15 ,[5, 9, 4, 15, 2, 11, 3, 7, 13, 6, 12, 1, 14, 8, 10]);
makespan = 739;
----------
assign = array1d(1..15 ,[6, 4, 6, 6, 6, 4, 4, 5, 4, 1, 2, 3, 4, 5, 6]);
next = array1d(1..15 ,[5, 9, 4, 15, 3, 7, 13, 14, 6, 11, 12, 2, 8, 1, 10]);
makespan = 736;
----------
assign = array1d(1..15 ,[5, 6, 4, 2, 5, 6, 6, 5, 6, 1, 2, 3, 4, 5, 6]);
next = array1d(1..15 ,[5, 9, 13, 11, 8, 7, 15, 14, 6, 4, 12, 3, 1, 2, 10]);
makespan = 734;
----------
assign = array1d(1..15 ,[5, 6, 4, 2, 5, 6, 6, 5, 6, 1, 2, 3, 4, 5, 6]);
next = array1d(1..15 ,[5, 9, 13, 11, 8, 7, 15, 14, 6, 4, 12, 3, 1, 2, 10]);
makespan = 733;
----------
assign = array1d(1..15 ,[5, 6, 4, 2, 5, 6, 6, 5, 6, 1, 2, 3, 4, 5, 6]);
next = array1d(1..15 ,[5, 9, 13, 11, 8, 7, 15, 14, 6, 4, 12, 3, 1, 2, 10]);
makespan = 732;
----------
assign = array1d(1..15 ,[5, 6, 4, 2, 5, 6, 6, 5, 6, 1, 2, 3, 4, 5, 6]);
next = array1d(1..15 ,[5, 9, 13, 11, 8, 7, 15, 14, 6, 4, 12, 3, 1, 2, 10]);
makespan = 730;
----------
assign = array1d(1..15 ,[5, 6, 4, 2, 5, 6, 6, 5, 6, 1, 2, 3, 4, 5, 6]);
next = array1d(1..15 ,[5, 9, 13, 11, 8, 7, 15, 14, 6, 4, 12, 3, 1, 2, 10]);
makespan = 729;
----------
assign = array1d(1..15 ,[6, 4, 6, 6, 6, 4, 4, 3, 4, 1, 2, 3, 4, 5, 6]);
next = array1d(1..15 ,[15, 9, 4, 5, 1, 7, 13, 12, 6, 11, 8, 2, 14, 3, 10]);
makespan = 726;
----------
assign = array1d(1..15 ,[6, 4, 6, 6, 5, 4, 4, 5, 4, 1, 2, 3, 4, 5, 6]);
next = array1d(1..15 ,[3, 9, 4, 15, 8, 7, 13, 14, 6, 11, 12, 2, 5, 1, 10]);
makespan = 722;
----------
assign = array1d(1..15 ,[3, 4, 6, 6, 6, 4, 4, 6, 4, 1, 2, 3, 4, 5, 6]);
next = array1d(1..15 ,[12, 9, 4, 5, 8, 7, 13, 15, 6, 11, 1, 2, 14, 3, 10]);
makespan = 721;
----------
assign = array1d(1..15 ,[6, 4, 6, 6, 4, 4, 5, 5, 4, 1, 2, 3, 4, 5, 6]);
next = array1d(1..15 ,[3, 9, 4, 15, 2, 13, 8, 14, 6, 11, 12, 5, 7, 1, 10]);
makespan = 720;
----------
assign = array1d(1..15 ,[6, 4, 6, 6, 4, 4, 5, 5, 4, 1, 2, 3, 4, 5, 6]);
next = array1d(1..15 ,[3, 9, 4, 15, 2, 13, 8, 14, 6, 11, 12, 5, 7, 1, 10]);
makespan = 718;
----------
assign = array1d(1..15 ,[6, 4, 6, 6, 4, 4, 5, 5, 4, 1, 2, 3, 4, 5, 6]);
next = array1d(1..15 ,[3, 9, 4, 15, 2, 13, 8, 14, 6, 11, 12, 5, 7, 1, 10]);
makespan = 715;
----------
assign = array1d(1..15 ,[6, 4, 6, 6, 4, 4, 5, 5, 4, 1, 2, 3, 4, 5, 6]);
next = array1d(1..15 ,[3, 9, 4, 15, 2, 13, 8, 14, 6, 11, 12, 5, 7, 1, 10]);
makespan = 714;
----------
assign = array1d(1..15 ,[6, 4, 6, 6, 4, 4, 5, 5, 4, 1, 2, 3, 4, 5, 6]);
next = array1d(1..15 ,[3, 9, 4, 15, 2, 13, 8, 14, 6, 11, 12, 5, 7, 1, 10]);
makespan = 711;
----------
assign = array1d(1..15 ,[6, 4, 6, 6, 4, 4, 5, 5, 4, 1, 2, 3, 4, 5, 6]);
next = array1d(1..15 ,[3, 9, 4, 15, 2, 13, 8, 14, 6, 11, 12, 5, 7, 1, 10]);
makespan = 710;
----------
assign = array1d(1..15 ,[6, 4, 6, 6, 4, 4, 5, 5, 4, 1, 2, 3, 4, 5, 6]);
next = array1d(1..15 ,[3, 9, 4, 15, 2, 13, 8, 14, 6, 11, 12, 5, 7, 1, 10]);
makespan = 708;
----------
assign = array1d(1..15 ,[6, 4, 6, 6, 4, 4, 5, 5, 4, 1, 2, 3, 4, 5, 6]);
next = array1d(1..15 ,[3, 9, 4, 15, 2, 13, 8, 14, 6, 11, 12, 5, 7, 1, 10]);
makespan = 706;
----------
assign = array1d(1..15 ,[6, 4, 6, 6, 4, 4, 5, 5, 4, 1, 2, 3, 4, 5, 6]);
next = array1d(1..15 ,[3, 9, 4, 15, 2, 13, 8, 14, 6, 11, 12, 5, 7, 1, 10]);
makespan = 705;
----------
assign = array1d(1..15 ,[6, 4, 6, 6, 4, 4, 5, 5, 4, 1, 2, 3, 4, 5, 6]);
next = array1d(1..15 ,[3, 9, 4, 15, 2, 13, 8, 14, 6, 11, 12, 5, 7, 1, 10]);
makespan = 702;
----------
assign = array1d(1..15 ,[6, 4, 6, 6, 4, 4, 5, 5, 4, 1, 2, 3, 4, 5, 6]);
next = array1d(1..15 ,[3, 9, 4, 15, 2, 13, 8, 14, 6, 11, 12, 5, 7, 1, 10]);
makespan = 701;
----------
assign = array1d(1..15 ,[6, 4, 6, 6, 4, 4, 5, 5, 4, 1, 2, 3, 4, 5, 6]);
next = array1d(1..15 ,[3, 9, 4, 15, 2, 13, 8, 14, 6, 11, 12, 5, 7, 1, 10]);
makespan = 698;
----------
assign = array1d(1..15 ,[6, 4, 6, 6, 4, 4, 5, 5, 4, 1, 2, 3, 4, 5, 6]);
next = array1d(1..15 ,[3, 9, 4, 15, 2, 13, 8, 14, 6, 11, 12, 5, 7, 1, 10]);
makespan = 697;
----------
assign = array1d(1..15 ,[6, 4, 6, 6, 4, 4, 5, 5, 4, 1, 2, 3, 4, 5, 6]);
next = array1d(1..15 ,[3, 9, 4, 15, 2, 13, 8, 14, 6, 11, 12, 5, 7, 1, 10]);
makespan = 695;
----------
assign = array1d(1..15 ,[6, 4, 6, 6, 4, 4, 5, 5, 4, 1, 2, 3, 4, 5, 6]);
next = array1d(1..15 ,[3, 9, 4, 15, 2, 13, 8, 14, 6, 11, 12, 5, 7, 1, 10]);
makespan = 694;
----------
assign = array1d(1..15 ,[1, 6, 4, 2, 6, 5, 5, 5, 6, 1, 2, 3, 4, 5, 6]);
next = array1d(1..15 ,[10, 9, 13, 11, 2, 7, 8, 14, 15, 4, 12, 3, 6, 5, 1]);
makespan = 693;
----------
assign = array1d(1..15 ,[1, 6, 4, 2, 6, 5, 5, 5, 6, 1, 2, 3, 4, 5, 6]);
next = array1d(1..15 ,[10, 9, 13, 11, 2, 14, 8, 6, 15, 4, 12, 3, 7, 5, 1]);
makespan = 692;
----------
assign = array1d(1..15 ,[1, 6, 4, 2, 1, 6, 5, 6, 6, 1, 2, 3, 4, 5, 6]);
next = array1d(1..15 ,[5, 9, 13, 11, 10, 15, 14, 2, 6, 4, 12, 3, 7, 8, 1]);
makespan = 690;
----------
assign = array1d(1..15 ,[6, 4, 3, 1, 6, 4, 6, 4, 4, 1, 2, 3, 4, 5, 6]);
next = array1d(1..15 ,[5, 9, 12, 10, 15, 13, 1, 2, 6, 11, 3, 8, 14, 7, 4]);
makespan = 689;
----------
assign = array1d(1..15 ,[2, 6, 5, 1, 2, 6, 5, 6, 6, 1, 2, 3, 4, 5, 6]);
next = array1d(1..15 ,[5, 9, 14, 10, 11, 15, 3, 2, 6, 1, 12, 13, 7, 8, 4]);
makespan = 688;
----------
assign = array1d(1..15 ,[2, 6, 5, 1, 2, 6, 5, 3, 6, 1, 2, 3, 4, 5, 6]);
next = array1d(1..15 ,[5, 9, 14, 10, 11, 15, 3, 12, 6, 1, 8, 13, 7, 2, 4]);
makespan = 687;
----------
assign = array1d(1..15 ,[2, 4, 6, 3, 6, 4, 6, 4, 4, 1, 2, 3, 4, 5, 6]);
next = array1d(1..15 ,[11, 9, 5, 12, 15, 13, 3, 2, 6, 1, 4, 8, 14, 7, 10]);
makespan = 686;
----------
assign = array1d(1..15 ,[4, 3, 6, 6, 6, 4, 6, 3, 4, 1, 2, 3, 4, 5, 6]);
next = array1d(1..15 ,[9, 12, 15, 5, 7, 13, 3, 2, 6, 11, 8, 1, 14, 4, 10]);
makespan = 685;
----------
assign = array1d(1..15 ,[4, 3, 6, 6, 6, 4, 6, 3, 4, 1, 2, 3, 4, 5, 6]);
next = array1d(1..15 ,[9, 12, 15, 5, 7, 13, 3, 2, 6, 11, 8, 1, 14, 4, 10]);
makespan = 684;
----------
assign = array1d(1..15 ,[4, 3, 6, 6, 6, 4, 6, 3, 4, 1, 2, 3, 4, 5, 6]);
next = array1d(1..15 ,[9, 12, 15, 5, 7, 13, 3, 2, 6, 11, 8, 1, 14, 4, 10]);
makespan = 683;
----------
assign = array1d(1..15 ,[4, 3, 6, 6, 6, 4, 6, 3, 4, 1, 2, 3, 4, 5, 6]);
next = array1d(1..15 ,[9, 12, 15, 5, 7, 13, 3, 2, 6, 11, 8, 1, 14, 4, 10]);
makespan = 682;
----------
assign = array1d(1..15 ,[4, 3, 6, 6, 6, 4, 6, 3, 4, 1, 2, 3, 4, 5, 6]);
next = array1d(1..15 ,[9, 12, 15, 5, 7, 13, 3, 2, 6, 11, 8, 1, 14, 4, 10]);
makespan = 681;
----------
assign = array1d(1..15 ,[4, 3, 6, 6, 6, 4, 6, 3, 4, 1, 2, 3, 4, 5, 6]);
next = array1d(1..15 ,[9, 12, 15, 5, 7, 13, 3, 2, 6, 11, 8, 1, 14, 4, 10]);
makespan = 680;
----------
assign = array1d(1..15 ,[4, 3, 6, 6, 6, 4, 6, 3, 4, 1, 2, 3, 4, 5, 6]);
next = array1d(1..15 ,[9, 12, 15, 5, 7, 13, 3, 2, 6, 11, 8, 1, 14, 4, 10]);
makespan = 679;
----------
assign = array1d(1..15 ,[4, 3, 6, 6, 6, 4, 6, 3, 4, 1, 2, 3, 4, 5, 6]);
next = array1d(1..15 ,[9, 12, 15, 5, 7, 13, 3, 2, 6, 11, 8, 1, 14, 4, 10]);
makespan = 678;
----------
assign = array1d(1..15 ,[4, 3, 6, 6, 6, 4, 6, 3, 4, 1, 2, 3, 4, 5, 6]);
next = array1d(1..15 ,[9, 12, 15, 5, 7, 13, 3, 2, 6, 11, 8, 1, 14, 4, 10]);
makespan = 677;
----------
assign = array1d(1..15 ,[4, 3, 6, 6, 6, 4, 6, 3, 4, 1, 2, 3, 4, 5, 6]);
next = array1d(1..15 ,[9, 12, 15, 5, 7, 13, 3, 2, 6, 11, 8, 1, 14, 4, 10]);
makespan = 676;
----------
assign = array1d(1..15 ,[4, 3, 6, 6, 6, 4, 6, 3, 4, 1, 2, 3, 4, 5, 6]);
next = array1d(1..15 ,[9, 12, 15, 5, 7, 13, 3, 2, 6, 11, 8, 1, 14, 4, 10]);
makespan = 675;
----------
assign = array1d(1..15 ,[4, 5, 6, 6, 6, 6, 4, 4, 5, 1, 2, 3, 4, 5, 6]);
next = array1d(1..15 ,[13, 9, 5, 15, 6, 4, 1, 7, 14, 11, 12, 8, 2, 3, 10]);
makespan = 674;
----------
assign = array1d(1..15 ,[5, 5, 1, 3, 1, 2, 6, 6, 6, 1, 2, 3, 4, 5, 6]);
next = array1d(1..15 ,[2, 14, 10, 12, 3, 11, 9, 15, 8, 6, 4, 13, 1, 7, 5]);
makespan = 673;
----------
assign = array1d(1..15 ,[6, 1, 1, 4, 2, 4, 6, 6, 2, 1, 2, 3, 4, 5, 6]);
next = array1d(1..15 ,[15, 10, 2, 13, 9, 4, 1, 7, 11, 5, 12, 6, 14, 8, 3]);
makespan = 672;
----------
assign = array1d(1..15 ,[5, 5, 4, 4, 2, 2, 6, 6, 6, 1, 2, 3, 4, 5, 6]);
next = array1d(1..15 ,[2, 14, 13, 3, 6, 11, 15, 7, 8, 5, 12, 4, 1, 9, 10]);
makespan = 671;
----------
assign = array1d(1..15 ,[4, 4, 4, 6, 6, 6, 5, 3, 3, 1, 2, 3, 4, 5, 6]);
next = array1d(1..15 ,[2, 13, 1, 15, 6, 4, 14, 12, 8, 11, 9, 3, 7, 5, 10]);
makespan = 670;
----------
assign = array1d(1..15 ,[5, 5, 6, 6, 1, 6, 1, 3, 2, 1, 2, 3, 4, 5, 6]);
next = array1d(1..15 ,[14, 1, 15, 3, 10, 4, 5, 12, 11, 9, 8, 13, 2, 6, 7]);
makespan = 669;
----------
assign = array1d(1..15 ,[5, 4, 5, 6, 6, 6, 3, 5, 2, 1, 2, 3, 4, 5, 6]);
next = array1d(1..15 ,[14, 13, 1, 15, 6, 4, 12, 3, 11, 9, 7, 2, 8, 5, 10]);
makespan = 666;
----------
assign = array1d(1..15 ,[5, 5, 6, 6, 6, 6, 3, 3, 4, 1, 2, 3, 4, 5, 6]);
next = array1d(1..15 ,[14, 1, 5, 3, 15, 4, 12, 7, 13, 11, 8, 9, 2, 6, 10]);
makespan = 665;
----------
assign = array1d(1..15 ,[4, 1, 5, 6, 4, 6, 6, 2, 2, 1, 2, 3, 4, 5, 6]);
next = array1d(1..15 ,[5, 10, 14, 15, 13, 4, 6, 9, 11, 8, 12, 1, 3, 7, 2]);
makespan = 664;
----------
assign = array1d(1..15 ,[3, 4, 5, 6, 5, 6, 5, 4, 6, 1, 2, 3, 4, 5, 6]);
next = array1d(1..15 ,[12, 13, 14, 9, 7, 4, 3, 2, 15, 11, 1, 8, 5, 6, 10]);
makespan = 663;
----------
assign = array1d(1..15 ,[4, 5, 4, 6, 5, 6, 4, 5, 6, 1, 2, 3, 4, 5, 6]);
next = array1d(1..15 ,[13, 5, 1, 15, 8, 4, 3, 14, 6, 11, 12, 7, 2, 9, 10]);
makespan = 662;
----------
assign = array1d(1..15 ,[4, 5, 4, 6, 5, 6, 6, 5, 4, 1, 2, 3, 4, 5, 6]);
next = array1d(1..15 ,[3, 5, 13, 15, 8, 4, 6, 14, 1, 11, 12, 9, 2, 7, 10]);
makespan = 661;
----------
assign = array1d(1..15 ,[4, 6, 5, 4, 6, 4, 5, 6, 5, 1, 2, 3, 4, 5, 6]);
next = array1d(1..15 ,[4, 5, 14, 6, 8, 13, 3, 15, 7, 11, 12, 1, 9, 2, 10]);
makespan = 660;
----------
assign = array1d(1..15 ,[6, 5, 6, 6, 5, 3, 3, 5, 4, 1, 2, 3, 4, 5, 6]);
next = array1d(1..15 ,[4, 5, 15, 3, 8, 7, 12, 14, 13, 11, 6, 9, 2, 1, 10]);
makespan = 659;
----------
assign = array1d(1..15 ,[1, 2, 2, 6, 6, 6, 1, 6, 1, 1, 2, 3, 4, 5, 6]);
next = array1d(1..15 ,[7, 3, 11, 6, 8, 15, 9, 4, 10, 2, 12, 13, 14, 5, 1]);
makespan = 658;
----------
assign = array1d(1..15 ,[4, 3, 5, 6, 6, 6, 3, 3, 4, 1, 2, 3, 4, 5, 6]);
next = array1d(1..15 ,[9, 7, 14, 5, 6, 15, 8, 12, 13, 11, 2, 1, 3, 4, 10]);
makespan = 657;
----------
assign = array1d(1..15 ,[4, 1, 3, 6, 6, 6, 3, 3, 4, 1, 2, 3, 4, 5, 6]);
next = array1d(1..15 ,[9, 10, 7, 15, 6, 4, 8, 12, 13, 11, 3, 1, 14, 5, 2]);
makespan = 656;
----------
assign = array1d(1..15 ,[6, 3, 5, 6, 4, 3, 5, 6, 3, 1, 2, 3, 4, 5, 6]);
next = array1d(1..15 ,[15, 9, 7, 8, 13, 12, 14, 1, 6, 11, 2, 5, 3, 4, 10]);
makespan = 653;
----------
assign = array1d(1..15 ,[6, 1, 4, 6, 3, 3, 5, 6, 3, 1, 2, 3, 4, 5, 6]);
next = array1d(1..15 ,[15, 10, 13, 8, 12, 5, 14, 1, 6, 11, 9, 3, 7, 4, 2]);
makespan = 652;
----------
assign = array1d(1..15 ,[6, 4, 2, 6, 1, 1, 5, 6, 1, 1, 2, 3, 4, 5, 6]);
next = array1d(1..15 ,[15, 13, 11, 8, 10, 5, 14, 1, 6, 3, 12, 2, 7, 4, 9]);
makespan = 651;
----------
assign = array1d(1..15 ,[6, 4, 2, 6, 1, 1, 5, 6, 1, 1, 2, 3, 4, 5, 6]);
next = array1d(1..15 ,[15, 13, 11, 8, 10, 5, 14, 1, 6, 3, 12, 2, 7, 4, 9]);
makespan = 650;
----------
assign = array1d(1..15 ,[6, 4, 2, 6, 1, 1, 5, 6, 1, 1, 2, 3, 4, 5, 6]);
next = array1d(1..15 ,[15, 13, 11, 8, 10, 5, 14, 1, 6, 3, 12, 2, 7, 4, 9]);
makespan = 649;
----------
assign = array1d(1..15 ,[6, 4, 2, 6, 1, 1, 5, 6, 1, 1, 2, 3, 4, 5, 6]);
next = array1d(1..15 ,[15, 13, 11, 8, 10, 5, 14, 1, 6, 3, 12, 2, 7, 4, 9]);
makespan = 648;
----------
assign = array1d(1..15 ,[6, 4, 2, 6, 1, 1, 5, 6, 1, 1, 2, 3, 4, 5, 6]);
next = array1d(1..15 ,[15, 13, 11, 8, 10, 5, 14, 1, 6, 3, 12, 2, 7, 4, 9]);
makespan = 647;
----------
assign = array1d(1..15 ,[6, 4, 2, 6, 1, 1, 5, 6, 1, 1, 2, 3, 4, 5, 6]);
next = array1d(1..15 ,[15, 13, 11, 8, 10, 5, 14, 1, 6, 3, 12, 2, 7, 4, 9]);
makespan = 645;
----------
assign = array1d(1..15 ,[6, 4, 2, 6, 1, 1, 5, 6, 1, 1, 2, 3, 4, 5, 6]);
next = array1d(1..15 ,[15, 13, 11, 8, 10, 5, 14, 1, 6, 3, 12, 2, 7, 4, 9]);
makespan = 644;
----------
assign = array1d(1..15 ,[6, 4, 2, 6, 1, 1, 5, 6, 1, 1, 2, 3, 4, 5, 6]);
next = array1d(1..15 ,[15, 13, 11, 8, 10, 5, 14, 1, 6, 3, 12, 2, 7, 4, 9]);
makespan = 643;
----------
assign = array1d(1..15 ,[6, 4, 2, 6, 1, 1, 5, 6, 1, 1, 2, 3, 4, 5, 6]);
next = array1d(1..15 ,[15, 13, 11, 8, 10, 5, 14, 1, 6, 3, 12, 2, 7, 4, 9]);
makespan = 641;
----------
assign = array1d(1..15 ,[6, 4, 2, 6, 1, 1, 5, 6, 1, 1, 2, 3, 4, 5, 6]);
next = array1d(1..15 ,[15, 13, 11, 8, 10, 5, 14, 1, 6, 3, 12, 2, 7, 4, 9]);
makespan = 635;
----------
assign = array1d(1..15 ,[6, 4, 2, 6, 1, 1, 5, 6, 1, 1, 2, 3, 4, 5, 6]);
next = array1d(1..15 ,[15, 13, 11, 8, 10, 5, 14, 1, 6, 3, 12, 2, 7, 4, 9]);
makespan = 634;
----------
assign = array1d(1..15 ,[6, 4, 2, 6, 1, 1, 5, 6, 1, 1, 2, 3, 4, 5, 6]);
next = array1d(1..15 ,[15, 13, 11, 8, 10, 5, 14, 1, 6, 3, 12, 2, 7, 4, 9]);
makespan = 633;
----------
assign = array1d(1..15 ,[6, 4, 2, 6, 1, 1, 5, 6, 1, 1, 2, 3, 4, 5, 6]);
next = array1d(1..15 ,[15, 13, 11, 8, 10, 5, 14, 1, 6, 3, 12, 2, 7, 4, 9]);
makespan = 632;
----------
assign = array1d(1..15 ,[6, 4, 2, 6, 1, 1, 5, 6, 1, 1, 2, 3, 4, 5, 6]);
next = array1d(1..15 ,[15, 13, 11, 8, 10, 5, 14, 1, 6, 3, 12, 2, 7, 4, 9]);
makespan = 631;
----------
assign = array1d(1..15 ,[6, 4, 2, 6, 1, 1, 5, 6, 1, 1, 2, 3, 4, 5, 6]);
next = array1d(1..15 ,[15, 13, 11, 8, 10, 5, 14, 1, 6, 3, 12, 2, 7, 4, 9]);
makespan = 630;
----------
assign = array1d(1..15 ,[6, 4, 2, 6, 1, 1, 5, 6, 1, 1, 2, 3, 4, 5, 6]);
next = array1d(1..15 ,[15, 13, 11, 8, 10, 5, 14, 1, 6, 3, 12, 2, 7, 4, 9]);
makespan = 629;
----------
assign = array1d(1..15 ,[6, 4, 2, 6, 1, 1, 5, 6, 1, 1, 2, 3, 4, 5, 6]);
next = array1d(1..15 ,[15, 13, 11, 8, 10, 5, 14, 1, 6, 3, 12, 2, 7, 4, 9]);
makespan = 628;
----------
assign = array1d(1..15 ,[6, 4, 2, 6, 1, 1, 5, 6, 1, 1, 2, 3, 4, 5, 6]);
next = array1d(1..15 ,[15, 13, 11, 8, 10, 5, 14, 1, 6, 3, 12, 2, 7, 4, 9]);
makespan = 627;
----------
assign = array1d(1..15 ,[6, 4, 2, 6, 1, 1, 5, 6, 1, 1, 2, 3, 4, 5, 6]);
next = array1d(1..15 ,[15, 13, 11, 8, 10, 5, 14, 1, 6, 3, 12, 2, 7, 4, 9]);
makespan = 626;
----------
assign = array1d(1..15 ,[6, 4, 2, 6, 1, 1, 5, 6, 1, 1, 2, 3, 4, 5, 6]);
next = array1d(1..15 ,[15, 13, 11, 8, 10, 5, 14, 1, 6, 3, 12, 2, 7, 4, 9]);
makespan = 625;
----------
assign = array1d(1..15 ,[6, 4, 2, 6, 1, 1, 5, 6, 1, 1, 2, 3, 4, 5, 6]);
next = array1d(1..15 ,[15, 13, 11, 8, 10, 5, 14, 1, 6, 3, 12, 2, 7, 4, 9]);
makespan = 623;
----------
assign = array1d(1..15 ,[6, 4, 2, 6, 1, 1, 5, 6, 1, 1, 2, 3, 4, 5, 6]);
next = array1d(1..15 ,[15, 13, 11, 8, 10, 5, 14, 1, 6, 3, 12, 2, 7, 4, 9]);
makespan = 622;
----------
assign = array1d(1..15 ,[6, 4, 2, 6, 1, 1, 5, 6, 1, 1, 2, 3, 4, 5, 6]);
next = array1d(1..15 ,[15, 13, 11, 8, 10, 5, 14, 1, 6, 3, 12, 2, 7, 4, 9]);
makespan = 621;
----------
assign = array1d(1..15 ,[6, 4, 2, 6, 1, 1, 5, 6, 1, 1, 2, 3, 4, 5, 6]);
next = array1d(1..15 ,[15, 13, 11, 8, 10, 5, 14, 1, 6, 3, 12, 2, 7, 4, 9]);
makespan = 620;
----------
assign = array1d(1..15 ,[6, 4, 2, 6, 1, 1, 5, 6, 1, 1, 2, 3, 4, 5, 6]);
next = array1d(1..15 ,[15, 13, 11, 8, 10, 5, 14, 1, 6, 3, 12, 2, 7, 4, 9]);
makespan = 619;
----------
assign = array1d(1..15 ,[6, 4, 2, 6, 1, 1, 5, 6, 1, 1, 2, 3, 4, 5, 6]);
next = array1d(1..15 ,[15, 13, 11, 8, 10, 5, 14, 1, 6, 3, 12, 2, 7, 4, 9]);
makespan = 618;
----------
assign = array1d(1..15 ,[6, 4, 2, 6, 1, 1, 5, 6, 1, 1, 2, 3, 4, 5, 6]);
next = array1d(1..15 ,[15, 13, 11, 8, 10, 5, 14, 1, 6, 3, 12, 2, 7, 4, 9]);
makespan = 617;
----------
assign = array1d(1..15 ,[6, 4, 2, 6, 1, 1, 5, 6, 1, 1, 2, 3, 4, 5, 6]);
next = array1d(1..15 ,[15, 13, 11, 8, 10, 5, 14, 1, 6, 3, 12, 2, 7, 4, 9]);
makespan = 616;
----------
assign = array1d(1..15 ,[6, 4, 2, 6, 1, 1, 5, 6, 1, 1, 2, 3, 4, 5, 6]);
next = array1d(1..15 ,[15, 13, 11, 8, 10, 5, 14, 1, 6, 3, 12, 2, 7, 4, 9]);
makespan = 615;
----------
assign = array1d(1..15 ,[6, 4, 2, 6, 1, 1, 5, 6, 1, 1, 2, 3, 4, 5, 6]);
next = array1d(1..15 ,[15, 13, 11, 8, 10, 5, 14, 1, 6, 3, 12, 2, 7, 4, 9]);
makespan = 614;
----------
assign = array1d(1..15 ,[6, 4, 2, 6, 1, 1, 5, 6, 1, 1, 2, 3, 4, 5, 6]);
next = array1d(1..15 ,[15, 13, 11, 8, 10, 5, 14, 1, 6, 3, 12, 2, 7, 4, 9]);
makespan = 613;
----------
assign = array1d(1..15 ,[6, 4, 2, 6, 1, 1, 5, 6, 1, 1, 2, 3, 4, 5, 6]);
next = array1d(1..15 ,[15, 13, 11, 8, 10, 5, 14, 1, 6, 3, 12, 2, 7, 4, 9]);
makespan = 612;
----------
assign = array1d(1..15 ,[6, 4, 2, 6, 1, 1, 5, 6, 1, 1, 2, 3, 4, 5, 6]);
next = array1d(1..15 ,[15, 13, 11, 8, 10, 5, 14, 1, 6, 3, 12, 2, 7, 4, 9]);
makespan = 611;
----------
assign = array1d(1..15 ,[6, 4, 2, 6, 1, 1, 5, 6, 1, 1, 2, 3, 4, 5, 6]);
next = array1d(1..15 ,[15, 13, 11, 8, 10, 5, 14, 1, 6, 3, 12, 2, 7, 4, 9]);
makespan = 610;
----------
assign = array1d(1..15 ,[6, 4, 2, 6, 1, 1, 5, 6, 1, 1, 2, 3, 4, 5, 6]);
next = array1d(1..15 ,[15, 13, 11, 8, 10, 5, 14, 1, 6, 3, 12, 2, 7, 4, 9]);
makespan = 609;
----------
assign = array1d(1..15 ,[6, 4, 2, 6, 1, 1, 5, 6, 1, 1, 2, 3, 4, 5, 6]);
next = array1d(1..15 ,[15, 13, 11, 8, 10, 5, 14, 1, 6, 3, 12, 2, 7, 4, 9]);
makespan = 608;
----------
assign = array1d(1..15 ,[6, 4, 2, 6, 1, 1, 5, 6, 1, 1, 2, 3, 4, 5, 6]);
next = array1d(1..15 ,[15, 13, 11, 8, 10, 5, 14, 1, 6, 3, 12, 2, 7, 4, 9]);
makespan = 607;
----------
assign = array1d(1..15 ,[6, 4, 2, 6, 1, 1, 5, 6, 1, 1, 2, 3, 4, 5, 6]);
next = array1d(1..15 ,[15, 13, 11, 8, 10, 5, 14, 1, 6, 3, 12, 2, 7, 4, 9]);
makespan = 606;
----------
assign = array1d(1..15 ,[6, 4, 2, 6, 1, 1, 5, 6, 1, 1, 2, 3, 4, 5, 6]);
next = array1d(1..15 ,[15, 13, 11, 8, 10, 5, 14, 1, 6, 3, 12, 2, 7, 4, 9]);
makespan = 605;
----------
assign = array1d(1..15 ,[6, 4, 2, 6, 1, 1, 5, 6, 1, 1, 2, 3, 4, 5, 6]);
next = array1d(1..15 ,[15, 13, 11, 8, 10, 5, 14, 1, 6, 3, 12, 2, 7, 4, 9]);
makespan = 604;
----------
assign = array1d(1..15 ,[6, 4, 2, 6, 1, 1, 5, 6, 1, 1, 2, 3, 4, 5, 6]);
next = array1d(1..15 ,[15, 13, 11, 8, 10, 5, 14, 1, 6, 3, 12, 2, 7, 4, 9]);
makespan = 603;
----------
assign = array1d(1..15 ,[6, 4, 2, 6, 1, 1, 5, 6, 1, 1, 2, 3, 4, 5, 6]);
next = array1d(1..15 ,[15, 13, 11, 8, 10, 5, 14, 1, 6, 3, 12, 2, 7, 4, 9]);
makespan = 602;
----------
assign = array1d(1..15 ,[6, 4, 2, 6, 1, 1, 5, 6, 1, 1, 2, 3, 4, 5, 6]);
next = array1d(1..15 ,[15, 13, 11, 8, 10, 5, 14, 1, 6, 3, 12, 2, 7, 4, 9]);
makespan = 601;
----------
assign = array1d(1..15 ,[6, 4, 2, 6, 1, 1, 5, 6, 1, 1, 2, 3, 4, 5, 6]);
next = array1d(1..15 ,[15, 13, 11, 8, 10, 5, 14, 1, 6, 3, 12, 2, 7, 4, 9]);
makespan = 600;
----------
assign = array1d(1..15 ,[6, 4, 2, 6, 1, 1, 5, 6, 1, 1, 2, 3, 4, 5, 6]);
next = array1d(1..15 ,[15, 13, 11, 8, 10, 5, 14, 1, 6, 3, 12, 2, 7, 4, 9]);
makespan = 599;
----------
assign = array1d(1..15 ,[6, 4, 2, 6, 1, 1, 5, 6, 1, 1, 2, 3, 4, 5, 6]);
next = array1d(1..15 ,[15, 13, 11, 8, 10, 5, 14, 1, 6, 3, 12, 2, 7, 4, 9]);
makespan = 598;
----------
assign = array1d(1..15 ,[6, 4, 2, 6, 1, 1, 5, 6, 1, 1, 2, 3, 4, 5, 6]);
next = array1d(1..15 ,[15, 13, 11, 8, 10, 5, 14, 1, 6, 3, 12, 2, 7, 4, 9]);
makespan = 597;
----------
assign = array1d(1..15 ,[6, 4, 2, 6, 1, 1, 5, 6, 1, 1, 2, 3, 4, 5, 6]);
next = array1d(1..15 ,[15, 13, 11, 8, 10, 5, 14, 1, 6, 3, 12, 2, 7, 4, 9]);
makespan = 596;
----------
assign = array1d(1..15 ,[6, 4, 2, 6, 1, 1, 5, 6, 1, 1, 2, 3, 4, 5, 6]);
next = array1d(1..15 ,[15, 13, 11, 8, 10, 5, 14, 1, 6, 3, 12, 2, 7, 4, 9]);
makespan = 595;
----------
assign = array1d(1..15 ,[6, 4, 2, 6, 1, 1, 5, 6, 1, 1, 2, 3, 4, 5, 6]);
next = array1d(1..15 ,[15, 13, 11, 8, 10, 5, 14, 1, 6, 3, 12, 2, 7, 4, 9]);
makespan = 593;
----------
assign = array1d(1..15 ,[6, 4, 2, 6, 1, 1, 5, 6, 1, 1, 2, 3, 4, 5, 6]);
next = array1d(1..15 ,[15, 13, 11, 8, 10, 5, 14, 1, 6, 3, 12, 2, 7, 4, 9]);
makespan = 592;
----------
assign = array1d(1..15 ,[6, 4, 2, 6, 1, 1, 5, 6, 1, 1, 2, 3, 4, 5, 6]);
next = array1d(1..15 ,[15, 13, 11, 8, 10, 5, 14, 1, 6, 3, 12, 2, 7, 4, 9]);
makespan = 591;
----------
assign = array1d(1..15 ,[6, 4, 2, 6, 1, 1, 5, 6, 1, 1, 2, 3, 4, 5, 6]);
next = array1d(1..15 ,[15, 13, 11, 8, 10, 5, 14, 1, 6, 3, 12, 2, 7, 4, 9]);
makespan = 590;
----------
assign = array1d(1..15 ,[6, 4, 2, 6, 1, 1, 5, 6, 1, 1, 2, 3, 4, 5, 6]);
next = array1d(1..15 ,[15, 13, 11, 8, 10, 5, 14, 1, 6, 3, 12, 2, 7, 4, 9]);
makespan = 589;
----------
assign = array1d(1..15 ,[6, 4, 2, 6, 1, 1, 5, 6, 1, 1, 2, 3, 4, 5, 6]);
next = array1d(1..15 ,[15, 13, 11, 8, 10, 5, 14, 1, 6, 3, 12, 2, 7, 4, 9]);
makespan = 587;
----------
assign = array1d(1..15 ,[6, 4, 2, 6, 1, 1, 5, 6, 1, 1, 2, 3, 4, 5, 6]);
next = array1d(1..15 ,[15, 13, 11, 8, 10, 5, 14, 1, 6, 3, 12, 2, 7, 4, 9]);
makespan = 586;
----------
assign = array1d(1..15 ,[6, 4, 2, 6, 1, 1, 5, 6, 1, 1, 2, 3, 4, 5, 6]);
next = array1d(1..15 ,[15, 13, 11, 8, 10, 5, 14, 1, 6, 3, 12, 2, 7, 4, 9]);
makespan = 584;
----------
assign = array1d(1..15 ,[6, 4, 2, 6, 1, 1, 5, 6, 1, 1, 2, 3, 4, 5, 6]);
next = array1d(1..15 ,[15, 13, 11, 8, 10, 5, 14, 1, 6, 3, 12, 2, 7, 4, 9]);
makespan = 583;
----------
assign = array1d(1..15 ,[6, 4, 2, 6, 1, 1, 5, 6, 1, 1, 2, 3, 4, 5, 6]);
next = array1d(1..15 ,[15, 13, 11, 8, 10, 5, 14, 1, 6, 3, 12, 2, 7, 4, 9]);
makespan = 582;
----------
assign = array1d(1..15 ,[6, 4, 2, 6, 1, 1, 5, 6, 1, 1, 2, 3, 4, 5, 6]);
next = array1d(1..15 ,[15, 13, 11, 8, 10, 5, 14, 1, 6, 3, 12, 2, 7, 4, 9]);
makespan = 581;
----------
assign = array1d(1..15 ,[6, 4, 2, 6, 1, 1, 5, 6, 1, 1, 2, 3, 4, 5, 6]);
next = array1d(1..15 ,[15, 13, 11, 8, 10, 5, 14, 1, 6, 3, 12, 2, 7, 4, 9]);
makespan = 579;
----------
assign = array1d(1..15 ,[6, 4, 2, 6, 1, 1, 5, 6, 1, 1, 2, 3, 4, 5, 6]);
next = array1d(1..15 ,[15, 13, 11, 8, 10, 5, 14, 1, 6, 3, 12, 2, 7, 4, 9]);
makespan = 578;
----------
assign = array1d(1..15 ,[6, 4, 2, 6, 1, 1, 5, 6, 1, 1, 2, 3, 4, 5, 6]);
next = array1d(1..15 ,[15, 13, 11, 8, 10, 5, 14, 1, 6, 3, 12, 2, 7, 4, 9]);
makespan = 577;
----------
assign = array1d(1..15 ,[6, 4, 2, 6, 1, 1, 5, 6, 1, 1, 2, 3, 4, 5, 6]);
next = array1d(1..15 ,[15, 13, 11, 8, 10, 5, 14, 1, 6, 3, 12, 2, 7, 4, 9]);
makespan = 575;
----------
assign = array1d(1..15 ,[6, 4, 2, 6, 1, 1, 5, 6, 1, 1, 2, 3, 4, 5, 6]);
next = array1d(1..15 ,[15, 13, 11, 8, 10, 5, 14, 1, 6, 3, 12, 2, 7, 4, 9]);
makespan = 573;
----------
assign = array1d(1..15 ,[6, 4, 2, 6, 1, 1, 5, 6, 1, 1, 2, 3, 4, 5, 6]);
next = array1d(1..15 ,[15, 13, 11, 8, 10, 5, 14, 1, 6, 3, 12, 2, 7, 4, 9]);
makespan = 572;
----------
assign = array1d(1..15 ,[6, 4, 2, 6, 1, 1, 5, 6, 1, 1, 2, 3, 4, 5, 6]);
next = array1d(1..15 ,[15, 13, 11, 8, 10, 5, 14, 1, 6, 3, 12, 2, 7, 4, 9]);
makespan = 571;
----------
assign = array1d(1..15 ,[6, 4, 2, 6, 1, 1, 5, 6, 1, 1, 2, 3, 4, 5, 6]);
next = array1d(1..15 ,[15, 13, 11, 8, 10, 5, 14, 1, 6, 3, 12, 2, 7, 4, 9]);
makespan = 570;
----------
assign = array1d(1..15 ,[6, 4, 2, 6, 1, 1, 5, 6, 1, 1, 2, 3, 4, 5, 6]);
next = array1d(1..15 ,[15, 13, 11, 8, 10, 5, 14, 1, 6, 3, 12, 2, 7, 4, 9]);
makespan = 568;
----------
assign = array1d(1..15 ,[6, 4, 2, 6, 1, 1, 5, 6, 1, 1, 2, 3, 4, 5, 6]);
next = array1d(1..15 ,[15, 13, 11, 8, 10, 5, 14, 1, 6, 3, 12, 2, 7, 4, 9]);
makespan = 567;
----------
assign = array1d(1..15 ,[6, 4, 2, 6, 1, 1, 5, 6, 1, 1, 2, 3, 4, 5, 6]);
next = array1d(1..15 ,[15, 13, 11, 8, 10, 5, 14, 1, 6, 3, 12, 2, 7, 4, 9]);
makespan = 566;
----------
assign = array1d(1..15 ,[6, 4, 2, 6, 1, 1, 5, 6, 1, 1, 2, 3, 4, 5, 6]);
next = array1d(1..15 ,[15, 13, 11, 8, 10, 5, 14, 1, 6, 3, 12, 2, 7, 4, 9]);
makespan = 564;
----------
assign = array1d(1..15 ,[6, 4, 2, 6, 1, 1, 5, 6, 1, 1, 2, 3, 4, 5, 6]);
next = array1d(1..15 ,[15, 13, 11, 8, 10, 5, 14, 1, 6, 3, 12, 2, 7, 4, 9]);
makespan = 562;
----------
assign = array1d(1..15 ,[6, 4, 2, 6, 1, 1, 5, 6, 1, 1, 2, 3, 4, 5, 6]);
next = array1d(1..15 ,[15, 13, 11, 8, 10, 5, 14, 1, 6, 3, 12, 2, 7, 4, 9]);
makespan = 561;
----------
assign = array1d(1..15 ,[6, 4, 2, 6, 1, 1, 5, 6, 1, 1, 2, 3, 4, 5, 6]);
next = array1d(1..15 ,[15, 13, 11, 8, 10, 5, 14, 1, 6, 3, 12, 2, 7, 4, 9]);
makespan = 559;
----------
assign = array1d(1..15 ,[6, 4, 2, 6, 1, 1, 5, 6, 1, 1, 2, 3, 4, 5, 6]);
next = array1d(1..15 ,[15, 13, 11, 8, 10, 5, 14, 1, 6, 3, 12, 2, 7, 4, 9]);
makespan = 558;
----------
assign = array1d(1..15 ,[6, 4, 2, 6, 1, 1, 5, 6, 1, 1, 2, 3, 4, 5, 6]);
next = array1d(1..15 ,[15, 13, 11, 8, 10, 5, 14, 1, 6, 3, 12, 2, 7, 4, 9]);
makespan = 557;
----------
assign = array1d(1..15 ,[6, 4, 2, 6, 1, 1, 5, 6, 1, 1, 2, 3, 4, 5, 6]);
next = array1d(1..15 ,[15, 13, 11, 8, 10, 5, 14, 1, 6, 3, 12, 2, 7, 4, 9]);
makespan = 556;
----------
assign = array1d(1..15 ,[6, 4, 2, 6, 1, 1, 5, 6, 1, 1, 2, 3, 4, 5, 6]);
next = array1d(1..15 ,[15, 13, 11, 8, 10, 5, 14, 1, 6, 3, 12, 2, 7, 4, 9]);
makespan = 555;
----------
assign = array1d(1..15 ,[6, 4, 2, 6, 1, 1, 5, 6, 1, 1, 2, 3, 4, 5, 6]);
next = array1d(1..15 ,[15, 13, 11, 8, 10, 5, 14, 1, 6, 3, 12, 2, 7, 4, 9]);
makespan = 554;
----------
assign = array1d(1..15 ,[6, 4, 2, 6, 1, 1, 5, 6, 1, 1, 2, 3, 4, 5, 6]);
next = array1d(1..15 ,[15, 13, 11, 8, 10, 5, 14, 1, 6, 3, 12, 2, 7, 4, 9]);
makespan = 553;
----------
assign = array1d(1..15 ,[6, 4, 2, 6, 1, 1, 5, 6, 1, 1, 2, 3, 4, 5, 6]);
next = array1d(1..15 ,[15, 13, 11, 8, 10, 5, 14, 1, 6, 3, 12, 2, 7, 4, 9]);
makespan = 552;
----------
assign = array1d(1..15 ,[6, 4, 2, 6, 1, 1, 5, 6, 1, 1, 2, 3, 4, 5, 6]);
next = array1d(1..15 ,[15, 13, 11, 8, 10, 5, 14, 1, 6, 3, 12, 2, 7, 4, 9]);
makespan = 551;
----------
assign = array1d(1..15 ,[6, 4, 2, 6, 1, 1, 5, 6, 1, 1, 2, 3, 4, 5, 6]);
next = array1d(1..15 ,[15, 13, 11, 8, 10, 5, 14, 1, 6, 3, 12, 2, 7, 4, 9]);
makespan = 550;
----------
assign = array1d(1..15 ,[6, 4, 2, 6, 1, 1, 5, 6, 1, 1, 2, 3, 4, 5, 6]);
next = array1d(1..15 ,[15, 13, 11, 8, 10, 5, 14, 1, 6, 3, 12, 2, 7, 4, 9]);
makespan = 549;
----------
assign = array1d(1..15 ,[6, 4, 2, 6, 1, 1, 5, 6, 1, 1, 2, 3, 4, 5, 6]);
next = array1d(1..15 ,[15, 13, 11, 8, 10, 5, 14, 1, 6, 3, 12, 2, 7, 4, 9]);
makespan = 548;
----------
assign = array1d(1..15 ,[6, 4, 2, 6, 1, 1, 5, 6, 1, 1, 2, 3, 4, 5, 6]);
next = array1d(1..15 ,[15, 13, 11, 8, 10, 5, 14, 1, 6, 3, 12, 2, 7, 4, 9]);
makespan = 546;
----------
assign = array1d(1..15 ,[6, 4, 2, 6, 1, 1, 5, 6, 1, 1, 2, 3, 4, 5, 6]);
next = array1d(1..15 ,[15, 13, 11, 8, 10, 5, 14, 1, 6, 3, 12, 2, 7, 4, 9]);
makespan = 545;
----------
assign = array1d(1..15 ,[6, 4, 2, 6, 1, 1, 5, 6, 1, 1, 2, 3, 4, 5, 6]);
next = array1d(1..15 ,[15, 13, 11, 8, 10, 5, 14, 1, 6, 3, 12, 2, 7, 4, 9]);
makespan = 544;
----------
assign = array1d(1..15 ,[6, 4, 2, 6, 1, 1, 5, 6, 1, 1, 2, 3, 4, 5, 6]);
next = array1d(1..15 ,[15, 13, 11, 8, 10, 5, 14, 1, 6, 3, 12, 2, 7, 4, 9]);
makespan = 543;
----------
assign = array1d(1..15 ,[6, 4, 2, 6, 1, 1, 5, 6, 1, 1, 2, 3, 4, 5, 6]);
next = array1d(1..15 ,[15, 13, 11, 8, 10, 5, 14, 1, 6, 3, 12, 2, 7, 4, 9]);
makespan = 541;
----------
assign = array1d(1..15 ,[6, 4, 2, 6, 1, 1, 5, 6, 1, 1, 2, 3, 4, 5, 6]);
next = array1d(1..15 ,[15, 13, 11, 8, 10, 5, 14, 1, 6, 3, 12, 2, 7, 4, 9]);
makespan = 540;
----------
assign = array1d(1..15 ,[6, 4, 2, 6, 1, 1, 5, 6, 1, 1, 2, 3, 4, 5, 6]);
next = array1d(1..15 ,[15, 13, 11, 8, 10, 5, 14, 1, 6, 3, 12, 2, 7, 4, 9]);
makespan = 539;
----------
assign = array1d(1..15 ,[6, 4, 2, 6, 1, 1, 5, 6, 1, 1, 2, 3, 4, 5, 6]);
next = array1d(1..15 ,[15, 13, 11, 8, 10, 5, 14, 1, 6, 3, 12, 2, 7, 4, 9]);
makespan = 538;
----------
assign = array1d(1..15 ,[6, 4, 2, 6, 1, 1, 5, 6, 1, 1, 2, 3, 4, 5, 6]);
next = array1d(1..15 ,[15, 13, 11, 8, 10, 5, 14, 1, 6, 3, 12, 2, 7, 4, 9]);
makespan = 537;
----------
assign = array1d(1..15 ,[6, 4, 2, 6, 1, 1, 5, 6, 1, 1, 2, 3, 4, 5, 6]);
next = array1d(1..15 ,[15, 13, 11, 8, 10, 5, 14, 1, 6, 3, 12, 2, 7, 4, 9]);
makespan = 536;
----------
assign = array1d(1..15 ,[6, 4, 2, 6, 1, 1, 5, 6, 1, 1, 2, 3, 4, 5, 6]);
next = array1d(1..15 ,[15, 13, 11, 8, 10, 5, 14, 1, 6, 3, 12, 2, 7, 4, 9]);
makespan = 535;
----------
assign = array1d(1..15 ,[6, 4, 2, 6, 1, 1, 5, 6, 1, 1, 2, 3, 4, 5, 6]);
next = array1d(1..15 ,[15, 13, 11, 8, 10, 5, 14, 1, 6, 3, 12, 2, 7, 4, 9]);
makespan = 534;
----------
assign = array1d(1..15 ,[6, 4, 2, 6, 1, 1, 5, 6, 1, 1, 2, 3, 4, 5, 6]);
next = array1d(1..15 ,[15, 13, 11, 8, 10, 5, 14, 1, 6, 3, 12, 2, 7, 4, 9]);
makespan = 533;
----------
assign = array1d(1..15 ,[6, 4, 2, 6, 1, 1, 5, 6, 1, 1, 2, 3, 4, 5, 6]);
next = array1d(1..15 ,[15, 13, 11, 8, 10, 5, 14, 1, 6, 3, 12, 2, 7, 4, 9]);
makespan = 531;
----------
assign = array1d(1..15 ,[6, 4, 2, 6, 1, 1, 5, 6, 1, 1, 2, 3, 4, 5, 6]);
next = array1d(1..15 ,[15, 13, 11, 8, 10, 5, 14, 1, 6, 3, 12, 2, 7, 4, 9]);
makespan = 530;
----------
assign = array1d(1..15 ,[6, 4, 2, 6, 1, 1, 5, 6, 3, 1, 2, 3, 4, 5, 6]);
next = array1d(1..15 ,[15, 13, 11, 8, 10, 5, 14, 1, 12, 3, 9, 2, 7, 4, 6]);
makespan = 529;
----------
assign = array1d(1..15 ,[6, 4, 2, 6, 1, 1, 1, 6, 5, 1, 2, 3, 4, 5, 6]);
next = array1d(1..15 ,[15, 13, 11, 8, 7, 5, 10, 1, 14, 3, 12, 2, 9, 4, 6]);
makespan = 528;
----------
assign = array1d(1..15 ,[6, 1, 2, 6, 1, 1, 5, 6, 3, 1, 2, 3, 4, 5, 6]);
next = array1d(1..15 ,[15, 10, 11, 8, 2, 5, 14, 1, 12, 3, 9, 13, 7, 4, 6]);
makespan = 527;
----------
assign = array1d(1..15 ,[6, 1, 2, 6, 1, 1, 5, 6, 3, 1, 2, 3, 4, 5, 6]);
next = array1d(1..15 ,[15, 10, 11, 8, 2, 5, 14, 1, 12, 3, 9, 13, 7, 4, 6]);
makespan = 526;
----------
assign = array1d(1..15 ,[6, 1, 2, 6, 1, 1, 5, 6, 3, 1, 2, 3, 4, 5, 6]);
next = array1d(1..15 ,[15, 10, 11, 8, 2, 5, 14, 1, 12, 3, 9, 13, 7, 4, 6]);
makespan = 525;
----------
assign = array1d(1..15 ,[6, 1, 2, 6, 1, 1, 5, 6, 3, 1, 2, 3, 4, 5, 6]);
next = array1d(1..15 ,[15, 10, 11, 8, 2, 5, 14, 1, 12, 3, 9, 13, 7, 4, 6]);
makespan = 522;
----------
assign = array1d(1..15 ,[6, 1, 2, 6, 1, 1, 5, 6, 3, 1, 2, 3, 4, 5, 6]);
next = array1d(1..15 ,[15, 10, 11, 8, 2, 5, 14, 1, 12, 3, 9, 13, 7, 4, 6]);
makespan = 518;
----------
assign = array1d(1..15 ,[6, 1, 2, 6, 1, 1, 5, 6, 3, 1, 2, 3, 4, 5, 6]);
next = array1d(1..15 ,[15, 10, 11, 8, 2, 5, 14, 1, 12, 3, 9, 13, 7, 4, 6]);
makespan = 517;
----------
assign = array1d(1..15 ,[6, 1, 2, 6, 1, 1, 5, 6, 3, 1, 2, 3, 4, 5, 6]);
next = array1d(1..15 ,[15, 10, 11, 8, 2, 5, 14, 1, 12, 3, 9, 13, 7, 4, 6]);
makespan = 516;
----------
assign = array1d(1..15 ,[6, 1, 2, 6, 1, 1, 5, 6, 3, 1, 2, 3, 4, 5, 6]);
next = array1d(1..15 ,[15, 10, 11, 8, 2, 5, 14, 1, 12, 3, 9, 13, 7, 4, 6]);
makespan = 514;
----------
assign = array1d(1..15 ,[6, 1, 2, 6, 1, 1, 5, 6, 3, 1, 2, 3, 4, 5, 6]);
next = array1d(1..15 ,[15, 10, 11, 8, 2, 5, 14, 1, 12, 3, 9, 13, 7, 4, 6]);
makespan = 512;
----------
assign = array1d(1..15 ,[6, 1, 2, 6, 1, 1, 5, 6, 3, 1, 2, 3, 4, 5, 6]);
next = array1d(1..15 ,[15, 10, 11, 8, 2, 5, 14, 1, 12, 3, 9, 13, 7, 4, 6]);
makespan = 511;
----------
assign = array1d(1..15 ,[6, 1, 2, 6, 1, 1, 5, 6, 3, 1, 2, 3, 4, 5, 6]);
next = array1d(1..15 ,[15, 10, 11, 8, 2, 5, 14, 1, 12, 3, 9, 13, 7, 4, 6]);
makespan = 510;
----------
assign = array1d(1..15 ,[6, 1, 2, 6, 1, 1, 5, 6, 3, 1, 2, 3, 4, 5, 6]);
next = array1d(1..15 ,[15, 10, 11, 8, 2, 5, 14, 1, 12, 3, 9, 13, 7, 4, 6]);
makespan = 509;
----------
assign = array1d(1..15 ,[6, 2, 5, 6, 1, 1, 2, 6, 3, 1, 2, 3, 4, 5, 6]);
next = array1d(1..15 ,[15, 11, 14, 8, 10, 5, 2, 1, 12, 7, 9, 13, 3, 4, 6]);
makespan = 508;
----------
assign = array1d(1..15 ,[6, 2, 5, 6, 1, 1, 2, 6, 3, 1, 2, 3, 4, 5, 6]);
next = array1d(1..15 ,[15, 11, 14, 8, 10, 5, 2, 1, 12, 7, 9, 13, 3, 4, 6]);
makespan = 507;
----------
assign = array1d(1..15 ,[6, 2, 5, 6, 1, 1, 2, 6, 3, 1, 2, 3, 4, 5, 6]);
next = array1d(1..15 ,[15, 11, 14, 8, 10, 5, 2, 1, 12, 7, 9, 13, 3, 4, 6]);
makespan = 502;
----------
assign = array1d(1..15 ,[6, 2, 5, 6, 1, 1, 2, 6, 3, 1, 2, 3, 4, 5, 6]);
next = array1d(1..15 ,[15, 11, 14, 8, 10, 5, 2, 1, 12, 7, 9, 13, 3, 4, 6]);
makespan = 501;
----------
assign = array1d(1..15 ,[6, 2, 5, 6, 1, 1, 2, 6, 3, 1, 2, 3, 4, 5, 6]);
next = array1d(1..15 ,[15, 11, 14, 8, 10, 5, 2, 1, 12, 7, 9, 13, 3, 4, 6]);
makespan = 499;
----------
assign = array1d(1..15 ,[6, 2, 5, 6, 1, 1, 2, 6, 3, 1, 2, 3, 4, 5, 6]);
next = array1d(1..15 ,[15, 11, 14, 8, 10, 5, 2, 1, 12, 7, 9, 13, 3, 4, 6]);
makespan = 498;
----------
assign = array1d(1..15 ,[6, 2, 5, 6, 1, 1, 2, 6, 3, 1, 2, 3, 4, 5, 6]);
next = array1d(1..15 ,[15, 11, 14, 8, 10, 5, 2, 1, 12, 7, 9, 13, 3, 4, 6]);
makespan = 491;
----------
assign = array1d(1..15 ,[6, 2, 5, 6, 1, 1, 2, 6, 3, 1, 2, 3, 4, 5, 6]);
next = array1d(1..15 ,[15, 11, 14, 8, 10, 5, 2, 1, 12, 7, 9, 13, 3, 4, 6]);
makespan = 488;
----------
assign = array1d(1..15 ,[2, 6, 5, 6, 1, 1, 5, 6, 3, 1, 2, 3, 4, 5, 6]);
next = array1d(1..15 ,[11, 15, 14, 8, 10, 5, 3, 2, 12, 1, 9, 13, 7, 4, 6]);
makespan = 486;
----------
assign = array1d(1..15 ,[2, 6, 5, 6, 1, 1, 5, 6, 3, 1, 2, 3, 4, 5, 6]);
next = array1d(1..15 ,[11, 4, 14, 15, 6, 10, 3, 2, 12, 1, 9, 13, 7, 8, 5]);
makespan = 484;
----------
assign = array1d(1..15 ,[2, 1, 5, 6, 1, 1, 5, 6, 4, 1, 2, 3, 4, 5, 6]);
next = array1d(1..15 ,[11, 5, 14, 8, 6, 10, 3, 15, 13, 1, 12, 9, 7, 4, 2]);
makespan = 481;
----------
assign = array1d(1..15 ,[3, 1, 4, 6, 1, 1, 4, 6, 2, 1, 2, 3, 4, 5, 6]);
next = array1d(1..15 ,[12, 5, 13, 8, 6, 10, 3, 15, 11, 9, 1, 7, 14, 4, 2]);
makespan = 479;
----------
assign = array1d(1..15 ,[5, 4, 5, 6, 1, 1, 3, 6, 4, 1, 2, 3, 4, 5, 6]);
next = array1d(1..15 ,[14, 9, 1, 8, 6, 10, 12, 15, 13, 11, 7, 2, 3, 4, 5]);
makespan = 474;
----------
assign = array1d(1..15 ,[3, 4, 3, 6, 1, 1, 5, 6, 4, 1, 2, 3, 4, 5, 6]);
next = array1d(1..15 ,[12, 9, 1, 8, 6, 10, 14, 15, 13, 11, 3, 2, 7, 4, 5]);
makespan = 473;
----------
assign = array1d(1..15 ,[2, 3, 4, 6, 1, 1, 6, 5, 5, 1, 2, 3, 4, 5, 6]);
next = array1d(1..15 ,[11, 12, 13, 15, 6, 10, 4, 9, 14, 1, 2, 3, 8, 7, 5]);
makespan = 472;
----------
assign = array1d(1..15 ,[5, 2, 4, 5, 1, 1, 4, 6, 6, 1, 2, 3, 4, 5, 6]);
next = array1d(1..15 ,[14, 11, 13, 1, 6, 10, 3, 9, 15, 2, 12, 7, 4, 8, 5]);
makespan = 470;
----------
assign = array1d(1..15 ,[2, 3, 2, 6, 5, 4, 3, 6, 5, 1, 2, 3, 4, 5, 6]);
next = array1d(1..15 ,[3, 12, 11, 8, 14, 13, 2, 15, 5, 1, 7, 6, 9, 4, 10]);
makespan = 468;
----------
assign = array1d(1..15 ,[4, 3, 2, 6, 5, 4, 3, 6, 5, 1, 2, 3, 4, 5, 6]);
next = array1d(1..15 ,[6, 12, 11, 8, 14, 13, 2, 15, 5, 3, 7, 1, 9, 4, 10]);
makespan = 466;
----------
assign = array1d(1..15 ,[2, 3, 2, 4, 5, 5, 3, 6, 6, 1, 2, 3, 4, 5, 6]);
next = array1d(1..15 ,[3, 7, 11, 13, 6, 14, 12, 9, 15, 1, 2, 4, 5, 8, 10]);
makespan = 465;
----------
assign = array1d(1..15 ,[5, 2, 5, 2, 6, 6, 3, 4, 4, 1, 2, 3, 4, 5, 6]);
next = array1d(1..15 ,[3, 4, 14, 11, 6, 15, 12, 9, 13, 2, 7, 8, 1, 5, 10]);
makespan = 462;
----------
assign = array1d(1..15 ,[2, 3, 2, 3, 4, 5, 4, 6, 6, 1, 2, 3, 4, 5, 6]);
next = array1d(1..15 ,[3, 4, 11, 12, 13, 14, 5, 9, 15, 1, 2, 7, 6, 8, 10]);
makespan = 461;
----------
assign = array1d(1..15 ,[2, 4, 2, 4, 3, 5, 3, 6, 6, 1, 2, 3, 4, 5, 6]);
next = array1d(1..15 ,[3, 4, 11, 13, 12, 14, 5, 9, 15, 1, 7, 2, 6, 8, 10]);
makespan = 459;
----------
assign = array1d(1..15 ,[4, 4, 3, 6, 2, 5, 2, 3, 6, 1, 2, 3, 4, 5, 6]);
next = array1d(1..15 ,[13, 1, 8, 9, 11, 14, 5, 12, 15, 7, 3, 2, 6, 4, 10]);
makespan = 458;
----------
assign = array1d(1..15 ,[4, 4, 6, 2, 3, 3, 5, 6, 1, 1, 2, 3, 4, 5, 6]);
next = array1d(1..15 ,[13, 1, 8, 11, 6, 12, 14, 15, 10, 4, 5, 2, 7, 3, 9]);
makespan = 456;
----------
assign = array1d(1..15 ,[5, 5, 6, 3, 6, 3, 4, 4, 1, 1, 2, 3, 4, 5, 6]);
next = array1d(1..15 ,[14, 1, 15, 6, 3, 12, 13, 7, 10, 11, 4, 8, 2, 5, 9]);
makespan = 452;
----------
assign = array1d(1..15 ,[2, 5, 6, 4, 6, 2, 4, 5, 1, 1, 2, 3, 4, 5, 6]);
next = array1d(1..15 ,[6, 8, 15, 7, 3, 11, 13, 14, 10, 1, 12, 4, 2, 5, 9]);
makespan = 450;
----------
assign = array1d(1..15 ,[3, 6, 6, 4, 5, 3, 4, 5, 1, 1, 2, 3, 4, 5, 6]);
next = array1d(1..15 ,[6, 3, 15, 7, 14, 12, 13, 5, 10, 11, 1, 4, 8, 2, 9]);
makespan = 449;
----------
assign = array1d(1..15 ,[6, 3, 1, 5, 4, 6, 5, 1, 4, 1, 2, 3, 4, 5, 6]);
next = array1d(1..15 ,[6, 12, 8, 7, 9, 15, 14, 10, 13, 11, 2, 5, 4, 1, 3]);
makespan = 448;
----------
assign = array1d(1..15 ,[6, 1, 3, 6, 5, 4, 3, 4, 5, 1, 2, 3, 4, 5, 6]);
next = array1d(1..15 ,[4, 10, 12, 15, 9, 8, 3, 13, 14, 11, 7, 6, 5, 1, 2]);
makespan = 447;
----------
assign = array1d(1..15 ,[5, 3, 1, 5, 3, 6, 1, 6, 4, 1, 2, 3, 4, 5, 6]);
next = array1d(1..15 ,[14, 5, 10, 1, 12, 8, 3, 15, 13, 11, 2, 9, 4, 6, 7]);
makespan = 446;
----------
assign = array1d(1..15 ,[1, 5, 4, 3, 5, 6, 4, 3, 6, 1, 2, 3, 4, 5, 6]);
next = array1d(1..15 ,[10, 5, 13, 12, 14, 15, 3, 4, 6, 11, 8, 7, 2, 9, 1]);
makespan = 445;
----------
assign = array1d(1..15 ,[1, 4, 4, 3, 5, 6, 6, 3, 5, 1, 2, 3, 4, 5, 6]);
next = array1d(1..15 ,[10, 13, 2, 12, 9, 7, 15, 4, 14, 11, 8, 3, 5, 6, 1]);
makespan = 444;
----------
assign = array1d(1..15 ,[3, 1, 6, 5, 6, 3, 2, 5, 1, 1, 2, 3, 4, 5, 6]);
next = array1d(1..15 ,[6, 9, 15, 14, 3, 12, 11, 4, 10, 7, 1, 13, 8, 5, 2]);
makespan = 443;
----------
assign = array1d(1..15 ,[3, 3, 4, 5, 6, 5, 4, 6, 1, 1, 2, 3, 4, 5, 6]);
next = array1d(1..15 ,[2, 12, 13, 6, 15, 14, 3, 5, 10, 11, 1, 7, 4, 8, 9]);
makespan = 440;
----------
assign = array1d(1..15 ,[6, 6, 5, 3, 1, 1, 5, 2, 2, 1, 2, 3, 4, 5, 6]);
next = array1d(1..15 ,[2, 15, 14, 12, 10, 5, 3, 11, 8, 9, 4, 13, 7, 1, 6]);
makespan = 439;
----------
assign = array1d(1..15 ,[6, 5, 6, 2, 4, 4, 3, 2, 5, 1, 2, 3, 4, 5, 6]);
next = array1d(1..15 ,[15, 14, 1, 11, 13, 5, 12, 4, 2, 8, 7, 6, 9, 3, 10]);
makespan = 438;
----------
assign = array1d(1..15 ,[5, 3, 4, 2, 6, 5, 6, 2, 4, 1, 2, 3, 4, 5, 6]);
next = array1d(1..15 ,[14, 12, 13, 11, 15, 1, 5, 4, 3, 8, 2, 9, 6, 7, 10]);
makespan = 435;
----------
assign = array1d(1..15 ,[3, 1, 5, 5, 4, 6, 2, 3, 6, 1, 2, 3, 4, 5, 6]);
next = array1d(1..15 ,[8, 10, 14, 3, 13, 9, 11, 12, 15, 7, 1, 5, 4, 6, 2]);
makespan = 434;
----------
assign = array1d(1..15 ,[4, 5, 5, 1, 3, 6, 3, 4, 6, 1, 2, 3, 4, 5, 6]);
next = array1d(1..15 ,[8, 3, 14, 10, 12, 9, 5, 13, 15, 11, 7, 1, 2, 6, 4]);
makespan = 433;
----------
assign = array1d(1..15 ,[5, 6, 2, 2, 5, 4, 6, 3, 4, 1, 2, 3, 4, 5, 6]);
next = array1d(1..15 ,[14, 7, 11, 3, 1, 9, 15, 12, 13, 4, 8, 6, 5, 2, 10]);
makespan = 432;
----------
assign = array1d(1..15 ,[4, 5, 6, 1, 3, 6, 3, 4, 5, 1, 2, 3, 4, 5, 6]);
next = array1d(1..15 ,[8, 14, 6, 10, 12, 15, 5, 13, 2, 11, 7, 1, 9, 3, 4]);
makespan = 431;
----------
assign = array1d(1..15 ,[4, 4, 6, 6, 3, 5, 3, 1, 5, 1, 2, 3, 4, 5, 6]);
next = array1d(1..15 ,[2, 13, 15, 3, 12, 9, 5, 10, 14, 11, 7, 1, 6, 4, 8]);
makespan = 430;
----------
assign = array1d(1..15 ,[6, 5, 6, 1, 2, 4, 2, 5, 4, 1, 2, 3, 4, 5, 6]);
next = array1d(1..15 ,[3, 8, 15, 10, 11, 9, 5, 14, 13, 7, 12, 6, 2, 1, 4]);
makespan = 429;
----------
assign = array1d(1..15 ,[2, 3, 6, 4, 2, 5, 5, 4, 6, 1, 2, 3, 4, 5, 6]);
next = array1d(1..15 ,[5, 12, 9, 8, 11, 7, 14, 13, 15, 1, 2, 4, 6, 3, 10]);
makespan = 427;
----------
assign = array1d(1..15 ,[4, 6, 6, 5, 2, 4, 2, 5, 1, 1, 2, 3, 4, 5, 6]);
next = array1d(1..15 ,[6, 15, 2, 8, 11, 13, 5, 14, 10, 7, 12, 1, 4, 3, 9]);
makespan = 426;
----------
assign = array1d(1..15 ,[4, 3, 6, 5, 3, 4, 1, 5, 6, 1, 2, 3, 4, 5, 6]);
next = array1d(1..15 ,[6, 5, 9, 8, 12, 13, 10, 14, 15, 11, 2, 1, 4, 3, 7]);
makespan = 424;
----------
assign = array1d(1..15 ,[4, 3, 6, 5, 3, 4, 1, 5, 6, 1, 2, 3, 4, 5, 6]);
next = array1d(1..15 ,[6, 5, 9, 8, 12, 13, 10, 14, 15, 11, 2, 1, 4, 3, 7]);
makespan = 423;
----------
assign = array1d(1..15 ,[4, 3, 6, 5, 3, 4, 1, 5, 6, 1, 2, 3, 4, 5, 6]);
next = array1d(1..15 ,[6, 5, 9, 8, 12, 13, 10, 14, 15, 11, 2, 1, 4, 3, 7]);
makespan = 421;
----------
assign = array1d(1..15 ,[4, 3, 6, 5, 3, 4, 1, 5, 6, 1, 2, 3, 4, 5, 6]);
next = array1d(1..15 ,[6, 5, 9, 8, 12, 13, 10, 14, 15, 11, 2, 1, 4, 3, 7]);
makespan = 419;
----------
assign = array1d(1..15 ,[4, 3, 6, 5, 3, 4, 1, 5, 6, 1, 2, 3, 4, 5, 6]);
next = array1d(1..15 ,[6, 5, 9, 8, 12, 13, 10, 14, 15, 11, 2, 1, 4, 3, 7]);
makespan = 417;
----------
assign = array1d(1..15 ,[4, 3, 6, 5, 3, 4, 1, 5, 6, 1, 2, 3, 4, 5, 6]);
next = array1d(1..15 ,[6, 5, 9, 8, 12, 13, 10, 14, 15, 11, 2, 1, 4, 3, 7]);
makespan = 415;
----------
assign = array1d(1..15 ,[4, 3, 6, 5, 3, 4, 1, 5, 6, 1, 2, 3, 4, 5, 6]);
next = array1d(1..15 ,[6, 5, 9, 8, 12, 13, 10, 14, 15, 11, 2, 1, 4, 3, 7]);
makespan = 413;
----------
assign = array1d(1..15 ,[4, 3, 6, 5, 3, 4, 1, 5, 6, 1, 2, 3, 4, 5, 6]);
next = array1d(1..15 ,[6, 5, 9, 8, 12, 13, 10, 14, 15, 11, 2, 1, 4, 3, 7]);
makespan = 412;
----------
assign = array1d(1..15 ,[4, 3, 6, 5, 3, 4, 1, 5, 6, 1, 2, 3, 4, 5, 6]);
next = array1d(1..15 ,[6, 5, 9, 8, 12, 13, 10, 14, 15, 11, 2, 1, 4, 3, 7]);
makespan = 410;
----------
assign = array1d(1..15 ,[4, 3, 6, 5, 3, 4, 1, 5, 6, 1, 2, 3, 4, 5, 6]);
next = array1d(1..15 ,[6, 5, 9, 8, 12, 13, 10, 14, 15, 11, 2, 1, 4, 3, 7]);
makespan = 409;
----------
assign = array1d(1..15 ,[4, 3, 6, 5, 3, 4, 1, 5, 6, 1, 2, 3, 4, 5, 6]);
next = array1d(1..15 ,[6, 5, 9, 8, 12, 13, 10, 14, 15, 11, 2, 1, 4, 3, 7]);
makespan = 408;
----------
assign = array1d(1..15 ,[4, 3, 6, 5, 3, 4, 1, 5, 6, 1, 2, 3, 4, 5, 6]);
next = array1d(1..15 ,[6, 5, 9, 8, 12, 13, 10, 14, 15, 11, 2, 1, 4, 3, 7]);
makespan = 407;
----------
assign = array1d(1..15 ,[4, 3, 6, 5, 3, 4, 1, 5, 6, 1, 2, 3, 4, 5, 6]);
next = array1d(1..15 ,[6, 5, 9, 8, 12, 13, 10, 14, 15, 11, 2, 1, 4, 3, 7]);
makespan = 406;
----------
assign = array1d(1..15 ,[4, 3, 6, 5, 3, 4, 1, 5, 6, 1, 2, 3, 4, 5, 6]);
next = array1d(1..15 ,[6, 5, 9, 8, 12, 13, 10, 14, 15, 11, 2, 1, 4, 3, 7]);
makespan = 405;
----------
assign = array1d(1..15 ,[4, 3, 6, 5, 3, 4, 1, 5, 6, 1, 2, 3, 4, 5, 6]);
next = array1d(1..15 ,[6, 5, 9, 8, 12, 13, 10, 14, 15, 11, 2, 1, 4, 3, 7]);
makespan = 404;
----------
assign = array1d(1..15 ,[4, 3, 6, 5, 3, 4, 1, 5, 6, 1, 2, 3, 4, 5, 6]);
next = array1d(1..15 ,[6, 5, 9, 8, 12, 13, 10, 14, 15, 11, 2, 1, 4, 3, 7]);
makespan = 403;
----------
assign = array1d(1..15 ,[4, 3, 6, 5, 3, 4, 1, 5, 6, 1, 2, 3, 4, 5, 6]);
next = array1d(1..15 ,[6, 5, 9, 8, 12, 13, 10, 14, 15, 11, 2, 1, 4, 3, 7]);
makespan = 402;
----------
assign = array1d(1..15 ,[4, 3, 6, 5, 3, 4, 1, 5, 6, 1, 2, 3, 4, 5, 6]);
next = array1d(1..15 ,[6, 5, 9, 8, 12, 13, 10, 14, 15, 11, 2, 1, 4, 3, 7]);
makespan = 401;
----------
assign = array1d(1..15 ,[4, 3, 6, 5, 3, 4, 1, 5, 6, 1, 2, 3, 4, 5, 6]);
next = array1d(1..15 ,[6, 5, 9, 8, 12, 13, 10, 14, 15, 11, 2, 1, 4, 3, 7]);
makespan = 400;
----------
assign = array1d(1..15 ,[4, 3, 6, 5, 3, 4, 1, 5, 6, 1, 2, 3, 4, 5, 6]);
next = array1d(1..15 ,[6, 5, 9, 8, 12, 13, 10, 14, 15, 11, 2, 1, 4, 3, 7]);
makespan = 399;
----------
assign = array1d(1..15 ,[4, 3, 6, 5, 3, 4, 1, 5, 6, 1, 2, 3, 4, 5, 6]);
next = array1d(1..15 ,[6, 5, 9, 8, 12, 13, 10, 14, 15, 11, 2, 1, 4, 3, 7]);
makespan = 398;
----------
assign = array1d(1..15 ,[4, 3, 6, 5, 3, 4, 1, 5, 6, 1, 2, 3, 4, 5, 6]);
next = array1d(1..15 ,[6, 5, 9, 8, 12, 13, 10, 14, 15, 11, 2, 1, 4, 3, 7]);
makespan = 396;
----------
assign = array1d(1..15 ,[4, 3, 6, 5, 3, 4, 1, 5, 6, 1, 2, 3, 4, 5, 6]);
next = array1d(1..15 ,[6, 5, 9, 8, 12, 13, 10, 14, 15, 11, 2, 1, 4, 3, 7]);
makespan = 395;
----------
assign = array1d(1..15 ,[4, 3, 6, 5, 3, 4, 1, 5, 6, 1, 2, 3, 4, 5, 6]);
next = array1d(1..15 ,[6, 5, 9, 8, 12, 13, 10, 14, 15, 11, 2, 1, 4, 3, 7]);
makespan = 394;
----------
assign = array1d(1..15 ,[4, 3, 6, 5, 3, 4, 1, 5, 6, 1, 2, 3, 4, 5, 6]);
next = array1d(1..15 ,[6, 5, 9, 8, 12, 13, 10, 14, 15, 11, 2, 1, 4, 3, 7]);
makespan = 393;
----------
assign = array1d(1..15 ,[4, 3, 6, 5, 3, 4, 1, 5, 6, 1, 2, 3, 4, 5, 6]);
next = array1d(1..15 ,[6, 5, 9, 8, 12, 13, 10, 14, 15, 11, 2, 1, 4, 3, 7]);
makespan = 392;
----------
assign = array1d(1..15 ,[4, 3, 6, 5, 3, 4, 1, 5, 6, 1, 2, 3, 4, 5, 6]);
next = array1d(1..15 ,[6, 5, 9, 8, 12, 13, 10, 14, 15, 11, 2, 1, 4, 3, 7]);
makespan = 391;
----------
assign = array1d(1..15 ,[4, 3, 6, 5, 3, 4, 1, 5, 6, 1, 2, 3, 4, 5, 6]);
next = array1d(1..15 ,[6, 5, 9, 8, 12, 13, 10, 14, 15, 11, 2, 1, 4, 3, 7]);
makespan = 390;
----------
assign = array1d(1..15 ,[4, 3, 6, 5, 3, 4, 1, 5, 6, 1, 2, 3, 4, 5, 6]);
next = array1d(1..15 ,[6, 5, 9, 8, 12, 13, 10, 14, 15, 11, 2, 1, 4, 3, 7]);
makespan = 389;
----------
assign = array1d(1..15 ,[4, 3, 6, 5, 3, 4, 1, 5, 6, 1, 2, 3, 4, 5, 6]);
next = array1d(1..15 ,[6, 5, 9, 8, 12, 13, 10, 14, 15, 11, 2, 1, 4, 3, 7]);
makespan = 388;
----------
assign = array1d(1..15 ,[4, 3, 6, 5, 3, 4, 1, 5, 6, 1, 2, 3, 4, 5, 6]);
next = array1d(1..15 ,[6, 5, 9, 8, 12, 13, 10, 14, 15, 11, 2, 1, 4, 3, 7]);
makespan = 387;
----------
assign = array1d(1..15 ,[4, 3, 6, 5, 3, 4, 1, 5, 6, 1, 2, 3, 4, 5, 6]);
next = array1d(1..15 ,[6, 5, 9, 8, 12, 13, 10, 14, 15, 11, 2, 1, 4, 3, 7]);
makespan = 386;
----------
assign = array1d(1..15 ,[4, 3, 6, 5, 3, 4, 1, 5, 6, 1, 2, 3, 4, 5, 6]);
next = array1d(1..15 ,[6, 5, 9, 8, 12, 13, 10, 14, 15, 11, 2, 1, 4, 3, 7]);
makespan = 384;
----------
assign = array1d(1..15 ,[4, 3, 6, 5, 3, 4, 1, 5, 6, 1, 2, 3, 4, 5, 6]);
next = array1d(1..15 ,[6, 5, 9, 8, 12, 13, 10, 14, 15, 11, 2, 1, 4, 3, 7]);
makespan = 382;
----------
assign = array1d(1..15 ,[4, 3, 6, 5, 3, 4, 1, 5, 6, 1, 2, 3, 4, 5, 6]);
next = array1d(1..15 ,[6, 5, 9, 8, 12, 13, 10, 14, 15, 11, 2, 1, 4, 3, 7]);
makespan = 381;
----------
assign = array1d(1..15 ,[4, 3, 6, 5, 3, 4, 1, 5, 6, 1, 2, 3, 4, 5, 6]);
next = array1d(1..15 ,[6, 5, 9, 8, 12, 13, 10, 14, 15, 11, 2, 1, 4, 3, 7]);
makespan = 380;
----------
assign = array1d(1..15 ,[4, 3, 6, 5, 3, 4, 1, 5, 6, 1, 2, 3, 4, 5, 6]);
next = array1d(1..15 ,[6, 5, 9, 8, 12, 13, 10, 14, 15, 11, 2, 1, 4, 3, 7]);
makespan = 379;
----------
assign = array1d(1..15 ,[4, 3, 6, 5, 3, 4, 1, 5, 6, 1, 2, 3, 4, 5, 6]);
next = array1d(1..15 ,[6, 5, 9, 8, 12, 13, 10, 14, 15, 11, 2, 1, 4, 3, 7]);
makespan = 378;
----------
assign = array1d(1..15 ,[4, 3, 6, 5, 3, 4, 1, 5, 6, 1, 2, 3, 4, 5, 6]);
next = array1d(1..15 ,[6, 5, 9, 8, 12, 13, 10, 14, 15, 11, 2, 1, 4, 3, 7]);
makespan = 377;
----------
assign = array1d(1..15 ,[4, 3, 6, 5, 3, 4, 1, 5, 6, 1, 2, 3, 4, 5, 6]);
next = array1d(1..15 ,[6, 5, 9, 8, 12, 13, 10, 14, 15, 11, 2, 1, 4, 3, 7]);
makespan = 375;
----------
assign = array1d(1..15 ,[4, 3, 6, 5, 3, 4, 1, 5, 6, 1, 2, 3, 4, 5, 6]);
next = array1d(1..15 ,[6, 5, 9, 8, 12, 13, 10, 14, 15, 11, 2, 1, 4, 3, 7]);
makespan = 374;
----------
assign = array1d(1..15 ,[4, 3, 6, 5, 3, 4, 1, 5, 6, 1, 2, 3, 4, 5, 6]);
next = array1d(1..15 ,[6, 5, 9, 8, 12, 13, 10, 14, 15, 11, 2, 1, 4, 3, 7]);
makespan = 373;
----------
assign = array1d(1..15 ,[4, 3, 6, 5, 3, 4, 1, 5, 6, 1, 2, 3, 4, 5, 6]);
next = array1d(1..15 ,[6, 5, 9, 8, 12, 13, 10, 14, 15, 11, 2, 1, 4, 3, 7]);
makespan = 372;
----------
assign = array1d(1..15 ,[4, 3, 6, 5, 3, 4, 1, 5, 6, 1, 2, 3, 4, 5, 6]);
next = array1d(1..15 ,[6, 5, 9, 8, 12, 13, 10, 14, 15, 11, 2, 1, 4, 3, 7]);
makespan = 371;
----------
assign = array1d(1..15 ,[4, 3, 6, 5, 3, 4, 1, 5, 6, 1, 2, 3, 4, 5, 6]);
next = array1d(1..15 ,[6, 5, 9, 8, 12, 13, 10, 14, 15, 11, 2, 1, 4, 3, 7]);
makespan = 370;
----------
assign = array1d(1..15 ,[4, 3, 6, 5, 3, 4, 1, 5, 6, 1, 2, 3, 4, 5, 6]);
next = array1d(1..15 ,[6, 5, 9, 8, 12, 13, 10, 14, 15, 11, 2, 1, 4, 3, 7]);
makespan = 369;
----------
assign = array1d(1..15 ,[4, 3, 6, 5, 3, 4, 1, 5, 6, 1, 2, 3, 4, 5, 6]);
next = array1d(1..15 ,[6, 5, 9, 8, 12, 13, 10, 14, 15, 11, 2, 1, 4, 3, 7]);
makespan = 368;
----------
assign = array1d(1..15 ,[4, 3, 6, 5, 3, 4, 1, 5, 6, 1, 2, 3, 4, 5, 6]);
next = array1d(1..15 ,[6, 5, 9, 8, 12, 13, 10, 14, 15, 11, 2, 1, 4, 3, 7]);
makespan = 367;
----------
assign = array1d(1..15 ,[4, 3, 6, 5, 3, 4, 1, 5, 6, 1, 2, 3, 4, 5, 6]);
next = array1d(1..15 ,[6, 5, 9, 8, 12, 13, 10, 14, 15, 11, 2, 1, 4, 3, 7]);
makespan = 366;
----------
assign = array1d(1..15 ,[4, 3, 6, 5, 3, 4, 1, 5, 6, 1, 2, 3, 4, 5, 6]);
next = array1d(1..15 ,[6, 5, 9, 8, 12, 13, 10, 14, 15, 11, 2, 1, 4, 3, 7]);
makespan = 365;
----------
assign = array1d(1..15 ,[4, 3, 6, 5, 3, 4, 1, 5, 6, 1, 2, 3, 4, 5, 6]);
next = array1d(1..15 ,[6, 5, 9, 8, 12, 13, 10, 14, 15, 11, 2, 1, 4, 3, 7]);
makespan = 364;
----------
assign = array1d(1..15 ,[4, 3, 6, 5, 3, 4, 1, 5, 6, 1, 2, 3, 4, 5, 6]);
next = array1d(1..15 ,[6, 5, 9, 8, 12, 13, 10, 14, 15, 11, 2, 1, 4, 3, 7]);
makespan = 363;
----------
assign = array1d(1..15 ,[4, 3, 6, 5, 3, 4, 1, 5, 6, 1, 2, 3, 4, 5, 6]);
next = array1d(1..15 ,[6, 5, 9, 8, 12, 13, 10, 14, 15, 11, 2, 1, 4, 3, 7]);
makespan = 362;
----------
assign = array1d(1..15 ,[4, 3, 6, 5, 3, 4, 1, 5, 6, 1, 2, 3, 4, 5, 6]);
next = array1d(1..15 ,[6, 5, 9, 8, 12, 13, 10, 14, 15, 11, 2, 1, 4, 3, 7]);
makespan = 361;
----------
assign = array1d(1..15 ,[4, 3, 6, 5, 3, 4, 1, 5, 6, 1, 2, 3, 4, 5, 6]);
next = array1d(1..15 ,[6, 5, 9, 8, 12, 13, 10, 14, 15, 11, 2, 1, 4, 3, 7]);
makespan = 360;
----------
assign = array1d(1..15 ,[4, 3, 6, 5, 3, 4, 1, 5, 6, 1, 2, 3, 4, 5, 6]);
next = array1d(1..15 ,[6, 5, 9, 8, 12, 13, 10, 14, 15, 11, 2, 1, 4, 3, 7]);
makespan = 359;
----------
assign = array1d(1..15 ,[4, 3, 6, 5, 3, 4, 1, 5, 6, 1, 2, 3, 4, 5, 6]);
next = array1d(1..15 ,[6, 5, 9, 8, 12, 13, 10, 14, 15, 11, 2, 1, 4, 3, 7]);
makespan = 358;
----------
assign = array1d(1..15 ,[4, 3, 6, 5, 3, 4, 1, 5, 6, 1, 2, 3, 4, 5, 6]);
next = array1d(1..15 ,[6, 5, 9, 8, 12, 13, 10, 14, 15, 11, 2, 1, 4, 3, 7]);
makespan = 357;
----------
assign = array1d(1..15 ,[4, 3, 6, 5, 3, 4, 1, 5, 6, 1, 2, 3, 4, 5, 6]);
next = array1d(1..15 ,[6, 5, 9, 8, 12, 13, 10, 14, 15, 11, 2, 1, 4, 3, 7]);
makespan = 356;
----------
assign = array1d(1..15 ,[4, 3, 6, 5, 3, 4, 1, 5, 6, 1, 2, 3, 4, 5, 6]);
next = array1d(1..15 ,[6, 5, 9, 8, 12, 13, 10, 14, 15, 11, 2, 1, 4, 3, 7]);
makespan = 355;
----------
assign = array1d(1..15 ,[4, 3, 6, 5, 3, 4, 1, 5, 6, 1, 2, 3, 4, 5, 6]);
next = array1d(1..15 ,[6, 5, 9, 8, 12, 13, 10, 14, 15, 11, 2, 1, 4, 3, 7]);
makespan = 354;
----------
assign = array1d(1..15 ,[4, 3, 6, 5, 3, 4, 1, 5, 6, 1, 2, 3, 4, 5, 6]);
next = array1d(1..15 ,[6, 5, 9, 8, 12, 13, 10, 14, 15, 11, 2, 1, 4, 3, 7]);
makespan = 353;
----------
assign = array1d(1..15 ,[4, 3, 6, 5, 3, 4, 1, 5, 6, 1, 2, 3, 4, 5, 6]);
next = array1d(1..15 ,[6, 5, 9, 8, 12, 13, 10, 14, 15, 11, 2, 1, 4, 3, 7]);
makespan = 352;
----------
assign = array1d(1..15 ,[4, 3, 6, 5, 3, 4, 1, 5, 6, 1, 2, 3, 4, 5, 6]);
next = array1d(1..15 ,[6, 5, 9, 8, 12, 13, 10, 14, 15, 11, 2, 1, 4, 3, 7]);
makespan = 351;
----------
assign = array1d(1..15 ,[4, 3, 6, 5, 3, 4, 1, 5, 6, 1, 2, 3, 4, 5, 6]);
next = array1d(1..15 ,[6, 5, 9, 8, 12, 13, 10, 14, 15, 11, 2, 1, 4, 3, 7]);
makespan = 350;
----------
assign = array1d(1..15 ,[4, 3, 6, 5, 3, 4, 1, 5, 6, 1, 2, 3, 4, 5, 6]);
next = array1d(1..15 ,[6, 5, 9, 8, 12, 13, 10, 14, 15, 11, 2, 1, 4, 3, 7]);
makespan = 349;
----------
assign = array1d(1..15 ,[4, 3, 6, 5, 3, 4, 1, 5, 6, 1, 2, 3, 4, 5, 6]);
next = array1d(1..15 ,[6, 5, 9, 8, 12, 13, 10, 14, 15, 11, 2, 1, 4, 3, 7]);
makespan = 348;
----------
assign = array1d(1..15 ,[4, 3, 6, 5, 3, 4, 1, 5, 6, 1, 2, 3, 4, 5, 6]);
next = array1d(1..15 ,[6, 5, 9, 8, 12, 13, 10, 14, 15, 11, 2, 1, 4, 3, 7]);
makespan = 347;
----------
assign = array1d(1..15 ,[4, 3, 6, 5, 3, 4, 1, 5, 6, 1, 2, 3, 4, 5, 6]);
next = array1d(1..15 ,[6, 5, 9, 8, 12, 13, 10, 14, 15, 11, 2, 1, 4, 3, 7]);
makespan = 346;
----------
assign = array1d(1..15 ,[4, 2, 6, 5, 2, 4, 1, 5, 6, 1, 2, 3, 4, 5, 6]);
next = array1d(1..15 ,[6, 5, 9, 8, 11, 13, 10, 14, 15, 2, 12, 1, 4, 3, 7]);
makespan = 345;
----------
assign = array1d(1..15 ,[4, 2, 6, 5, 2, 4, 1, 5, 6, 1, 2, 3, 4, 5, 6]);
next = array1d(1..15 ,[6, 5, 9, 8, 11, 13, 10, 14, 15, 2, 12, 1, 4, 3, 7]);
makespan = 344;
----------
assign = array1d(1..15 ,[4, 2, 6, 5, 2, 4, 1, 5, 6, 1, 2, 3, 4, 5, 6]);
next = array1d(1..15 ,[6, 5, 9, 8, 11, 13, 10, 14, 15, 2, 12, 1, 4, 3, 7]);
makespan = 343;
----------
assign = array1d(1..15 ,[4, 2, 6, 5, 2, 4, 1, 5, 6, 1, 2, 3, 4, 5, 6]);
next = array1d(1..15 ,[6, 5, 9, 8, 11, 13, 10, 14, 15, 2, 12, 1, 4, 3, 7]);
makespan = 342;
----------
assign = array1d(1..15 ,[4, 2, 6, 5, 2, 4, 1, 5, 6, 1, 2, 3, 4, 5, 6]);
next = array1d(1..15 ,[6, 5, 9, 8, 11, 13, 10, 14, 15, 2, 12, 1, 4, 3, 7]);
makespan = 341;
----------
assign = array1d(1..15 ,[4, 2, 6, 5, 2, 4, 1, 5, 6, 1, 2, 3, 4, 5, 6]);
next = array1d(1..15 ,[6, 5, 9, 8, 11, 13, 10, 14, 15, 2, 12, 1, 4, 3, 7]);
makespan = 340;
----------
assign = array1d(1..15 ,[4, 1, 6, 5, 1, 4, 3, 5, 6, 1, 2, 3, 4, 5, 6]);
next = array1d(1..15 ,[6, 5, 9, 8, 10, 13, 12, 14, 15, 11, 7, 1, 4, 3, 2]);
makespan = 339;
----------
assign = array1d(1..15 ,[4, 1, 6, 5, 1, 4, 3, 5, 6, 1, 2, 3, 4, 5, 6]);
next = array1d(1..15 ,[6, 5, 9, 8, 10, 13, 12, 14, 15, 11, 7, 1, 4, 3, 2]);
makespan = 338;
----------
assign = array1d(1..15 ,[4, 1, 6, 5, 1, 4, 3, 5, 6, 1, 2, 3, 4, 5, 6]);
next = array1d(1..15 ,[6, 5, 9, 8, 10, 13, 12, 14, 15, 11, 7, 1, 4, 3, 2]);
makespan = 337;
----------
assign = array1d(1..15 ,[4, 1, 6, 5, 1, 4, 3, 5, 6, 1, 2, 3, 4, 5, 6]);
next = array1d(1..15 ,[6, 5, 9, 8, 10, 13, 12, 14, 15, 11, 7, 1, 4, 3, 2]);
makespan = 336;
----------
assign = array1d(1..15 ,[4, 1, 6, 5, 1, 4, 3, 5, 6, 1, 2, 3, 4, 5, 6]);
next = array1d(1..15 ,[6, 5, 9, 8, 10, 13, 12, 14, 15, 11, 7, 1, 4, 3, 2]);
makespan = 335;
----------
assign = array1d(1..15 ,[4, 1, 6, 5, 1, 4, 3, 5, 6, 1, 2, 3, 4, 5, 6]);
next = array1d(1..15 ,[6, 5, 9, 8, 10, 13, 12, 14, 15, 11, 7, 1, 4, 3, 2]);
makespan = 334;
----------
assign = array1d(1..15 ,[4, 1, 6, 5, 1, 4, 3, 5, 6, 1, 2, 3, 4, 5, 6]);
next = array1d(1..15 ,[6, 5, 9, 8, 10, 13, 12, 14, 15, 11, 7, 1, 4, 3, 2]);
makespan = 333;
----------
assign = array1d(1..15 ,[4, 1, 6, 5, 1, 4, 3, 5, 6, 1, 2, 3, 4, 5, 6]);
next = array1d(1..15 ,[6, 5, 9, 8, 10, 13, 12, 14, 15, 11, 7, 1, 4, 3, 2]);
makespan = 331;
----------
assign = array1d(1..15 ,[4, 1, 6, 5, 1, 4, 3, 5, 6, 1, 2, 3, 4, 5, 6]);
next = array1d(1..15 ,[6, 5, 9, 8, 10, 13, 12, 14, 15, 11, 7, 1, 4, 3, 2]);
makespan = 330;
----------
assign = array1d(1..15 ,[4, 1, 6, 5, 1, 4, 3, 5, 6, 1, 2, 3, 4, 5, 6]);
next = array1d(1..15 ,[6, 5, 9, 8, 10, 13, 12, 14, 15, 11, 7, 1, 4, 3, 2]);
makespan = 329;
----------
assign = array1d(1..15 ,[4, 1, 6, 5, 1, 4, 3, 5, 6, 1, 2, 3, 4, 5, 6]);
next = array1d(1..15 ,[6, 5, 9, 8, 10, 13, 12, 14, 15, 11, 7, 1, 4, 3, 2]);
makespan = 328;
----------
assign = array1d(1..15 ,[4, 1, 6, 5, 1, 4, 3, 5, 6, 1, 2, 3, 4, 5, 6]);
next = array1d(1..15 ,[6, 5, 9, 8, 10, 13, 12, 14, 15, 11, 7, 1, 4, 3, 2]);
makespan = 327;
----------
assign = array1d(1..15 ,[4, 1, 6, 5, 1, 4, 3, 5, 6, 1, 2, 3, 4, 5, 6]);
next = array1d(1..15 ,[6, 5, 9, 8, 10, 13, 12, 14, 15, 11, 7, 1, 4, 3, 2]);
makespan = 326;
----------
assign = array1d(1..15 ,[4, 1, 6, 5, 1, 4, 3, 5, 6, 1, 2, 3, 4, 5, 6]);
next = array1d(1..15 ,[6, 5, 9, 8, 10, 13, 12, 14, 15, 11, 7, 1, 4, 3, 2]);
makespan = 324;
----------
assign = array1d(1..15 ,[4, 1, 6, 5, 1, 4, 3, 5, 6, 1, 2, 3, 4, 5, 6]);
next = array1d(1..15 ,[6, 5, 9, 8, 10, 13, 12, 14, 15, 11, 7, 1, 4, 3, 2]);
makespan = 323;
----------
assign = array1d(1..15 ,[4, 1, 6, 5, 1, 4, 3, 5, 6, 1, 2, 3, 4, 5, 6]);
next = array1d(1..15 ,[6, 5, 9, 8, 10, 13, 12, 14, 15, 11, 7, 1, 4, 3, 2]);
makespan = 322;
----------
assign = array1d(1..15 ,[4, 1, 6, 5, 1, 4, 3, 5, 6, 1, 2, 3, 4, 5, 6]);
next = array1d(1..15 ,[6, 5, 15, 8, 10, 13, 12, 14, 3, 11, 7, 1, 4, 9, 2]);
makespan = 321;
----------
assign = array1d(1..15 ,[4, 1, 6, 5, 1, 3, 6, 5, 2, 1, 2, 3, 4, 5, 6]);
next = array1d(1..15 ,[13, 5, 15, 8, 10, 12, 3, 14, 11, 9, 6, 1, 4, 7, 2]);
makespan = 320;
----------
assign = array1d(1..15 ,[5, 4, 3, 6, 4, 5, 3, 6, 1, 1, 2, 3, 4, 5, 6]);
next = array1d(1..15 ,[14, 5, 12, 8, 13, 1, 3, 15, 10, 11, 7, 2, 6, 4, 9]);
makespan = 319;
----------
assign = array1d(1..15 ,[6, 4, 3, 5, 4, 6, 3, 5, 1, 1, 2, 3, 4, 5, 6]);
next = array1d(1..15 ,[6, 5, 12, 8, 13, 15, 3, 14, 10, 11, 7, 2, 4, 1, 9]);
makespan = 318;
----------
assign = array1d(1..15 ,[6, 4, 3, 5, 4, 6, 3, 5, 1, 1, 2, 3, 4, 5, 6]);
next = array1d(1..15 ,[6, 5, 12, 8, 13, 15, 3, 14, 10, 11, 7, 2, 4, 1, 9]);
makespan = 316;
----------
assign = array1d(1..15 ,[6, 4, 3, 5, 4, 6, 3, 5, 1, 1, 2, 3, 4, 5, 6]);
next = array1d(1..15 ,[6, 5, 12, 8, 13, 15, 3, 14, 10, 11, 7, 2, 4, 1, 9]);
makespan = 315;
----------
assign = array1d(1..15 ,[6, 4, 3, 5, 4, 6, 3, 5, 1, 1, 2, 3, 4, 5, 6]);
next = array1d(1..15 ,[6, 5, 12, 8, 13, 15, 3, 14, 10, 11, 7, 2, 4, 1, 9]);
makespan = 314;
----------
assign = array1d(1..15 ,[6, 4, 3, 5, 4, 6, 3, 5, 1, 1, 2, 3, 4, 5, 6]);
next = array1d(1..15 ,[6, 5, 12, 8, 13, 15, 3, 14, 10, 11, 7, 2, 4, 1, 9]);
makespan = 313;
----------
assign = array1d(1..15 ,[6, 4, 3, 5, 4, 6, 3, 5, 1, 1, 2, 3, 4, 5, 6]);
next = array1d(1..15 ,[6, 5, 12, 8, 13, 15, 3, 14, 10, 11, 7, 2, 4, 1, 9]);
makespan = 312;
----------
assign = array1d(1..15 ,[6, 4, 3, 5, 4, 6, 3, 5, 1, 1, 2, 3, 4, 5, 6]);
next = array1d(1..15 ,[6, 5, 12, 8, 13, 15, 3, 14, 10, 11, 7, 2, 4, 1, 9]);
makespan = 311;
----------
assign = array1d(1..15 ,[6, 4, 3, 5, 4, 6, 3, 5, 1, 1, 2, 3, 4, 5, 6]);
next = array1d(1..15 ,[6, 5, 12, 8, 13, 15, 3, 14, 10, 11, 7, 2, 4, 1, 9]);
makespan = 310;
----------
assign = array1d(1..15 ,[6, 4, 3, 5, 4, 6, 3, 5, 1, 1, 2, 3, 4, 5, 6]);
next = array1d(1..15 ,[6, 5, 12, 8, 13, 15, 3, 14, 10, 11, 7, 2, 4, 1, 9]);
makespan = 308;
----------
assign = array1d(1..15 ,[6, 4, 3, 5, 4, 6, 3, 5, 1, 1, 2, 3, 4, 5, 6]);
next = array1d(1..15 ,[6, 5, 12, 8, 13, 15, 3, 14, 10, 11, 7, 2, 4, 1, 9]);
makespan = 307;
----------
assign = array1d(1..15 ,[6, 4, 3, 5, 4, 6, 3, 5, 1, 1, 2, 3, 4, 5, 6]);
next = array1d(1..15 ,[6, 5, 12, 8, 13, 15, 3, 14, 10, 11, 7, 2, 4, 1, 9]);
makespan = 305;
----------
assign = array1d(1..15 ,[6, 4, 3, 5, 4, 6, 3, 5, 1, 1, 2, 3, 4, 5, 6]);
next = array1d(1..15 ,[6, 5, 12, 8, 13, 15, 3, 14, 10, 11, 7, 2, 4, 1, 9]);
makespan = 304;
----------
assign = array1d(1..15 ,[6, 4, 3, 5, 4, 6, 3, 5, 1, 1, 2, 3, 4, 5, 6]);
next = array1d(1..15 ,[6, 5, 12, 8, 13, 15, 3, 14, 10, 11, 7, 2, 4, 1, 9]);
makespan = 303;
----------
assign = array1d(1..15 ,[6, 4, 3, 5, 4, 6, 3, 5, 1, 1, 2, 3, 4, 5, 6]);
next = array1d(1..15 ,[6, 5, 12, 8, 13, 15, 3, 14, 10, 11, 7, 2, 4, 1, 9]);
makespan = 302;
----------
assign = array1d(1..15 ,[6, 4, 3, 5, 4, 6, 3, 5, 1, 1, 2, 3, 4, 5, 6]);
next = array1d(1..15 ,[6, 5, 12, 8, 13, 15, 3, 14, 10, 11, 7, 2, 4, 1, 9]);
makespan = 301;
----------
assign = array1d(1..15 ,[6, 4, 3, 5, 4, 6, 2, 5, 2, 1, 2, 3, 4, 5, 6]);
next = array1d(1..15 ,[6, 5, 12, 8, 13, 15, 11, 14, 7, 9, 3, 2, 4, 1, 10]);
makespan = 300;
----------
assign = array1d(1..15 ,[6, 1, 5, 4, 1, 6, 3, 4, 2, 1, 2, 3, 4, 5, 6]);
next = array1d(1..15 ,[6, 5, 14, 8, 10, 15, 12, 13, 11, 9, 7, 4, 3, 1, 2]);
makespan = 299;
----------
assign = array1d(1..15 ,[4, 1, 6, 5, 1, 3, 6, 5, 2, 1, 2, 3, 4, 5, 6]);
next = array1d(1..15 ,[13, 5, 15, 8, 10, 12, 3, 14, 11, 9, 6, 1, 4, 7, 2]);
makespan = 298;
----------
assign = array1d(1..15 ,[2, 4, 6, 3, 4, 2, 6, 3, 1, 1, 2, 3, 4, 5, 6]);
next = array1d(1..15 ,[6, 5, 15, 8, 13, 11, 3, 12, 10, 1, 4, 2, 14, 7, 9]);
makespan = 297;
----------
assign = array1d(1..15 ,[5, 4, 6, 4, 5, 6, 3, 3, 1, 1, 2, 3, 4, 5, 6]);
next = array1d(1..15 ,[14, 4, 6, 13, 1, 15, 12, 7, 10, 11, 8, 2, 5, 3, 9]);
makespan = 296;
----------
assign = array1d(1..15 ,[5, 6, 3, 6, 5, 3, 2, 4, 4, 1, 2, 3, 4, 5, 6]);
next = array1d(1..15 ,[14, 4, 12, 15, 1, 3, 11, 9, 13, 7, 6, 8, 5, 2, 10]);
makespan = 295;
----------
assign = array1d(1..15 ,[5, 2, 3, 4, 5, 3, 6, 4, 6, 1, 2, 3, 4, 5, 6]);
next = array1d(1..15 ,[14, 11, 12, 8, 1, 3, 15, 13, 7, 2, 6, 4, 5, 9, 10]);
makespan = 294;
----------
assign = array1d(1..15 ,[5, 2, 3, 4, 5, 3, 6, 4, 6, 1, 2, 3, 4, 5, 6]);
next = array1d(1..15 ,[14, 11, 12, 8, 1, 3, 15, 13, 7, 2, 6, 4, 5, 9, 10]);
makespan = 293;
----------
assign = array1d(1..15 ,[5, 2, 3, 4, 5, 3, 6, 4, 6, 1, 2, 3, 4, 5, 6]);
next = array1d(1..15 ,[14, 11, 12, 8, 1, 3, 15, 13, 7, 2, 6, 4, 5, 9, 10]);
makespan = 292;
----------
assign = array1d(1..15 ,[5, 2, 3, 4, 5, 3, 6, 4, 6, 1, 2, 3, 4, 5, 6]);
next = array1d(1..15 ,[14, 11, 12, 8, 1, 3, 15, 13, 7, 2, 6, 4, 5, 9, 10]);
makespan = 291;
----------
assign = array1d(1..15 ,[5, 2, 3, 4, 5, 3, 6, 4, 6, 1, 2, 3, 4, 5, 6]);
next = array1d(1..15 ,[14, 11, 12, 8, 1, 3, 15, 13, 7, 2, 6, 4, 5, 9, 10]);
makespan = 290;
----------
assign = array1d(1..15 ,[5, 2, 3, 4, 5, 3, 6, 4, 6, 1, 2, 3, 4, 5, 6]);
next = array1d(1..15 ,[14, 11, 12, 8, 1, 3, 15, 13, 7, 2, 6, 4, 5, 9, 10]);
makespan = 289;
----------
assign = array1d(1..15 ,[5, 2, 3, 4, 5, 3, 6, 4, 6, 1, 2, 3, 4, 5, 6]);
next = array1d(1..15 ,[14, 11, 12, 8, 1, 3, 15, 13, 7, 2, 6, 4, 5, 9, 10]);
makespan = 288;
----------
assign = array1d(1..15 ,[1, 5, 3, 2, 6, 3, 4, 1, 6, 1, 2, 3, 4, 5, 6]);
next = array1d(1..15 ,[10, 14, 12, 11, 9, 3, 13, 1, 15, 4, 6, 7, 2, 5, 8]);
makespan = 287;
----------
assign = array1d(1..15 ,[3, 2, 6, 1, 1, 4, 5, 3, 6, 1, 2, 3, 4, 5, 6]);
next = array1d(1..15 ,[8, 11, 15, 10, 4, 13, 14, 12, 3, 2, 1, 6, 7, 9, 5]);
makespan = 286;
----------
assign = array1d(1..15 ,[4, 4, 1, 6, 3, 6, 5, 5, 2, 1, 2, 3, 4, 5, 6]);
next = array1d(1..15 ,[2, 13, 10, 6, 12, 15, 14, 7, 11, 9, 5, 1, 8, 4, 3]);
makespan = 285;
----------
assign = array1d(1..15 ,[5, 6, 3, 1, 5, 2, 1, 6, 2, 1, 2, 3, 4, 5, 6]);
next = array1d(1..15 ,[14, 8, 12, 7, 1, 9, 10, 15, 11, 6, 3, 13, 5, 2, 4]);
makespan = 284;
----------
assign = array1d(1..15 ,[5, 6, 3, 6, 5, 4, 2, 2, 1, 1, 2, 3, 4, 5, 6]);
next = array1d(1..15 ,[14, 4, 12, 15, 1, 13, 11, 7, 10, 8, 3, 6, 5, 2, 9]);
makespan = 283;
----------
assign = array1d(1..15 ,[3, 6, 2, 1, 5, 4, 1, 6, 5, 1, 2, 3, 4, 5, 6]);
next = array1d(1..15 ,[12, 8, 11, 7, 9, 13, 10, 15, 14, 3, 1, 6, 5, 2, 4]);
makespan = 282;
----------
assign = array1d(1..15 ,[4, 6, 6, 3, 1, 2, 5, 3, 2, 1, 2, 3, 4, 5, 6]);
next = array1d(1..15 ,[13, 15, 2, 12, 10, 9, 14, 4, 11, 6, 8, 1, 7, 3, 5]);
makespan = 281;
----------
assign = array1d(1..15 ,[2, 6, 4, 1, 5, 2, 1, 6, 5, 1, 2, 3, 4, 5, 6]);
next = array1d(1..15 ,[6, 8, 13, 7, 9, 11, 10, 15, 14, 1, 12, 3, 5, 2, 4]);
makespan = 280;
----------
assign = array1d(1..15 ,[5, 6, 1, 2, 5, 4, 2, 6, 3, 1, 2, 3, 4, 5, 6]);
next = array1d(1..15 ,[14, 8, 10, 7, 1, 13, 11, 15, 12, 4, 9, 6, 5, 2, 3]);
makespan = 279;
----------
assign = array1d(1..15 ,[5, 4, 4, 2, 6, 3, 6, 3, 1, 1, 2, 3, 4, 5, 6]);
next = array1d(1..15 ,[14, 3, 13, 11, 15, 8, 5, 12, 10, 4, 6, 2, 1, 7, 9]);
makespan = 278;
----------
assign = array1d(1..15 ,[2, 1, 5, 4, 1, 2, 3, 5, 6, 1, 2, 3, 4, 5, 6]);
next = array1d(1..15 ,[6, 5, 14, 13, 10, 11, 12, 3, 15, 1, 7, 4, 8, 9, 2]);
makespan = 277;
----------
assign = array1d(1..15 ,[4, 1, 3, 5, 5, 3, 2, 1, 6, 1, 2, 3, 4, 5, 6]);
next = array1d(1..15 ,[13, 8, 12, 14, 4, 3, 11, 10, 15, 7, 6, 1, 5, 9, 2]);
makespan = 276;
----------
assign = array1d(1..15 ,[2, 4, 5, 3, 6, 2, 6, 3, 4, 1, 2, 3, 4, 5, 6]);
next = array1d(1..15 ,[6, 9, 14, 12, 15, 11, 5, 4, 13, 1, 8, 2, 3, 7, 10]);
makespan = 275;
----------
assign = array1d(1..15 ,[2, 4, 5, 3, 6, 2, 6, 3, 4, 1, 2, 3, 4, 5, 6]);
next = array1d(1..15 ,[6, 9, 14, 12, 15, 11, 5, 4, 13, 1, 8, 2, 3, 7, 10]);
makespan = 274;
----------
assign = array1d(1..15 ,[2, 4, 1, 3, 6, 5, 6, 3, 4, 1, 2, 3, 4, 5, 6]);
next = array1d(1..15 ,[11, 9, 10, 12, 15, 14, 5, 4, 13, 1, 8, 2, 6, 7, 3]);
makespan = 273;
----------
assign = array1d(1..15 ,[1, 4, 2, 3, 6, 5, 6, 3, 4, 1, 2, 3, 4, 5, 6]);
next = array1d(1..15 ,[10, 9, 11, 12, 15, 14, 5, 4, 13, 3, 8, 2, 6, 7, 1]);
makespan = 272;
----------
assign = array1d(1..15 ,[6, 4, 1, 5, 2, 2, 3, 3, 4, 1, 2, 3, 4, 5, 6]);
next = array1d(1..15 ,[15, 9, 10, 14, 6, 11, 8, 12, 13, 5, 7, 2, 4, 1, 3]);
makespan = 271;
----------
assign = array1d(1..15 ,[6, 1, 3, 1, 5, 3, 2, 5, 2, 1, 2, 3, 4, 5, 6]);
next = array1d(1..15 ,[15, 4, 12, 10, 14, 3, 9, 5, 11, 7, 6, 13, 8, 1, 2]);
makespan = 270;
----------
assign = array1d(1..15 ,[5, 1, 4, 1, 4, 6, 2, 6, 2, 1, 2, 3, 4, 5, 6]);
next = array1d(1..15 ,[14, 4, 13, 10, 3, 8, 9, 15, 11, 7, 12, 5, 1, 6, 2]);
makespan = 269;
----------
assign = array1d(1..15 ,[6, 3, 4, 1, 4, 5, 2, 5, 2, 1, 2, 3, 4, 5, 6]);
next = array1d(1..15 ,[15, 12, 13, 10, 3, 14, 9, 6, 11, 7, 2, 5, 8, 1, 4]);
makespan = 268;
----------
assign = array1d(1..15 ,[1, 4, 2, 5, 5, 6, 3, 6, 4, 1, 2, 3, 4, 5, 6]);
next = array1d(1..15 ,[10, 9, 11, 5, 14, 8, 12, 15, 13, 3, 7, 2, 4, 6, 1]);
makespan = 267;
----------
assign = array1d(1..15 ,[1, 4, 2, 5, 5, 6, 3, 6, 4, 1, 2, 3, 4, 5, 6]);
next = array1d(1..15 ,[10, 9, 11, 5, 14, 8, 12, 15, 13, 3, 7, 2, 4, 6, 1]);
makespan = 266;
----------
assign = array1d(1..15 ,[1, 4, 2, 5, 5, 6, 3, 6, 4, 1, 2, 3, 4, 5, 6]);
next = array1d(1..15 ,[10, 9, 11, 5, 14, 8, 12, 15, 13, 3, 7, 2, 4, 6, 1]);
makespan = 265;
----------
assign = array1d(1..15 ,[1, 4, 2, 5, 5, 6, 3, 6, 4, 1, 2, 3, 4, 5, 6]);
next = array1d(1..15 ,[10, 9, 11, 5, 14, 8, 12, 15, 13, 3, 7, 2, 4, 6, 1]);
makespan = 264;
----------
assign = array1d(1..15 ,[1, 4, 2, 5, 5, 6, 3, 6, 4, 1, 2, 3, 4, 5, 6]);
next = array1d(1..15 ,[10, 9, 11, 5, 14, 8, 12, 15, 13, 3, 7, 2, 4, 6, 1]);
makespan = 263;
----------
assign = array1d(1..15 ,[1, 4, 2, 5, 5, 6, 3, 6, 4, 1, 2, 3, 4, 5, 6]);
next = array1d(1..15 ,[10, 9, 11, 5, 14, 8, 12, 15, 13, 3, 7, 2, 4, 6, 1]);
makespan = 262;
----------
assign = array1d(1..15 ,[2, 4, 1, 5, 5, 3, 6, 3, 4, 1, 2, 3, 4, 5, 6]);
next = array1d(1..15 ,[11, 9, 10, 5, 14, 8, 15, 12, 13, 1, 6, 2, 4, 7, 3]);
makespan = 261;
----------
assign = array1d(1..15 ,[2, 4, 3, 5, 5, 3, 6, 1, 4, 1, 2, 3, 4, 5, 6]);
next = array1d(1..15 ,[11, 9, 6, 5, 14, 12, 15, 10, 13, 1, 3, 2, 4, 7, 8]);
makespan = 260;
----------
assign = array1d(1..15 ,[1, 6, 3, 5, 5, 3, 2, 2, 4, 1, 2, 3, 4, 5, 6]);
next = array1d(1..15 ,[10, 15, 12, 5, 14, 3, 11, 7, 13, 8, 6, 9, 4, 2, 1]);
makespan = 259;
----------
assign = array1d(1..15 ,[2, 1, 3, 5, 5, 3, 4, 1, 6, 1, 2, 3, 4, 5, 6]);
next = array1d(1..15 ,[11, 10, 6, 5, 14, 12, 13, 2, 15, 1, 3, 7, 4, 9, 8]);
makespan = 258;
----------
assign = array1d(1..15 ,[2, 1, 3, 1, 6, 3, 5, 6, 4, 1, 2, 3, 4, 5, 6]);
next = array1d(1..15 ,[11, 10, 12, 2, 8, 3, 14, 15, 13, 1, 6, 9, 7, 5, 4]);
makespan = 257;
----------
assign = array1d(1..15 ,[5, 1, 3, 6, 4, 3, 2, 6, 2, 1, 2, 3, 4, 5, 6]);
next = array1d(1..15 ,[14, 10, 12, 15, 13, 3, 9, 4, 11, 7, 6, 5, 1, 8, 2]);
makespan = 256;
----------
assign = array1d(1..15 ,[4, 1, 3, 5, 6, 3, 2, 6, 2, 1, 2, 3, 4, 5, 6]);
next = array1d(1..15 ,[13, 10, 12, 14, 8, 3, 9, 15, 11, 7, 6, 1, 4, 5, 2]);
makespan = 254;
----------
assign = array1d(1..15 ,[2, 1, 3, 1, 6, 3, 5, 6, 4, 1, 2, 3, 4, 5, 6]);
next = array1d(1..15 ,[11, 10, 12, 2, 8, 3, 14, 15, 13, 1, 6, 9, 7, 5, 4]);
makespan = 253;
----------
assign = array1d(1..15 ,[3, 4, 5, 6, 1, 6, 2, 4, 2, 1, 2, 3, 4, 5, 6]);
next = array1d(1..15 ,[12, 13, 14, 15, 10, 4, 9, 2, 11, 7, 1, 8, 3, 6, 5]);
makespan = 252;
----------
assign = array1d(1..15 ,[1, 6, 3, 2, 5, 3, 4, 5, 2, 1, 2, 3, 4, 5, 6]);
next = array1d(1..15 ,[10, 15, 12, 9, 8, 3, 13, 14, 11, 4, 6, 7, 5, 2, 1]);
makespan = 249;
----------
assign = array1d(1..15 ,[6, 4, 3, 2, 5, 3, 2, 5, 1, 1, 2, 3, 4, 5, 6]);
next = array1d(1..15 ,[15, 13, 6, 11, 14, 12, 4, 5, 10, 7, 3, 2, 8, 1, 9]);
makespan = 248;
----------
assign = array1d(1..15 ,[4, 1, 3, 1, 5, 6, 2, 5, 2, 1, 2, 3, 4, 5, 6]);
next = array1d(1..15 ,[13, 10, 12, 2, 14, 15, 9, 5, 11, 7, 3, 1, 8, 6, 4]);
makespan = 247;
----------
assign = array1d(1..15 ,[4, 1, 6, 1, 5, 3, 2, 5, 2, 1, 2, 3, 4, 5, 6]);
next = array1d(1..15 ,[13, 10, 15, 2, 14, 12, 9, 5, 11, 7, 6, 1, 8, 3, 4]);
makespan = 246;
----------
==========
	Command being timed: "mzn-chuffed lbbd-datasets/Rabadi-2006/dzn-s-dominant/model.mzn lbbd-datasets/Rabadi-2006/dzn-s-dominant/9on6Rp50Rs50_10Ameer.dzn"
	User time (seconds): 0.58
	System time (seconds): 0.02
	Percent of CPU this job got: 33%
	Elapsed (wall clock) time (h:mm:ss or m:ss): 0:01.79
	Average shared text size (kbytes): 0
	Average unshared data size (kbytes): 0
	Average stack size (kbytes): 0
	Average total size (kbytes): 0
	Maximum resident set size (kbytes): 48128
	Average resident set size (kbytes): 0
	Major (requiring I/O) page faults: 0
	Minor (reclaiming a frame) page faults: 4691
	Voluntary context switches: 531
	Involuntary context switches: 2
	Swaps: 0
	File system inputs: 0
	File system outputs: 648
	Socket messages sent: 0
	Socket messages received: 0
	Signals delivered: 0
	Page size (bytes): 4096
	Exit status: 0
