+ /usr/bin/timeout 600 /usr/bin/time -v mzn-chuffed lbbd-datasets/Rabadi-2006/dzn-s-dominant/model.mzn lbbd-datasets/Rabadi-2006/dzn-s-dominant/7on2Rp50Rs50_15Ameer.dzn
% No search annotation given. Defaulting to VSIDS!
assign = array1d(1..9 ,[2, 2, 2, 2, 2, 2, 2, 1, 2]);
next = array1d(1..9 ,[2, 3, 4, 5, 6, 7, 9, 1, 8]);
makespan = 1522;
----------
assign = array1d(1..9 ,[2, 2, 2, 2, 2, 2, 2, 1, 2]);
next = array1d(1..9 ,[4, 3, 5, 2, 6, 7, 9, 1, 8]);
makespan = 1511;
----------
assign = array1d(1..9 ,[1, 2, 1, 1, 2, 2, 2, 1, 2]);
next = array1d(1..9 ,[4, 5, 8, 3, 6, 7, 9, 2, 1]);
makespan = 1070;
----------
assign = array1d(1..9 ,[1, 1, 1, 2, 2, 2, 2, 1, 2]);
next = array1d(1..9 ,[3, 1, 8, 5, 6, 7, 9, 4, 2]);
makespan = 1036;
----------
assign = array1d(1..9 ,[1, 1, 2, 2, 2, 2, 2, 1, 2]);
next = array1d(1..9 ,[8, 1, 4, 5, 6, 7, 9, 3, 2]);
makespan = 1034;
----------
assign = array1d(1..9 ,[1, 1, 2, 2, 2, 2, 2, 1, 2]);
next = array1d(1..9 ,[8, 1, 4, 5, 6, 7, 9, 3, 2]);
makespan = 1026;
----------
assign = array1d(1..9 ,[1, 1, 2, 2, 2, 2, 2, 1, 2]);
next = array1d(1..9 ,[8, 1, 4, 5, 6, 7, 9, 3, 2]);
makespan = 1025;
----------
assign = array1d(1..9 ,[1, 1, 2, 2, 2, 2, 1, 1, 2]);
next = array1d(1..9 ,[7, 8, 4, 5, 6, 9, 2, 3, 1]);
makespan = 1020;
----------
assign = array1d(1..9 ,[1, 1, 2, 2, 2, 2, 1, 1, 2]);
next = array1d(1..9 ,[8, 1, 4, 5, 6, 9, 2, 3, 7]);
makespan = 1008;
----------
assign = array1d(1..9 ,[1, 2, 1, 2, 2, 2, 2, 1, 2]);
next = array1d(1..9 ,[3, 7, 8, 5, 6, 9, 4, 2, 1]);
makespan = 988;
----------
assign = array1d(1..9 ,[1, 1, 1, 2, 2, 2, 1, 1, 2]);
next = array1d(1..9 ,[3, 7, 2, 5, 6, 9, 8, 4, 1]);
makespan = 939;
----------
assign = array1d(1..9 ,[1, 1, 1, 2, 2, 2, 1, 1, 2]);
next = array1d(1..9 ,[3, 7, 2, 5, 6, 9, 8, 4, 1]);
makespan = 915;
----------
assign = array1d(1..9 ,[1, 1, 1, 2, 2, 2, 1, 1, 2]);
next = array1d(1..9 ,[3, 7, 2, 5, 6, 9, 8, 4, 1]);
makespan = 885;
----------
assign = array1d(1..9 ,[1, 1, 1, 2, 2, 2, 1, 1, 2]);
next = array1d(1..9 ,[3, 7, 2, 5, 6, 9, 8, 4, 1]);
makespan = 878;
----------
assign = array1d(1..9 ,[1, 1, 1, 2, 2, 2, 1, 1, 2]);
next = array1d(1..9 ,[3, 7, 2, 5, 6, 9, 8, 4, 1]);
makespan = 816;
----------
assign = array1d(1..9 ,[1, 1, 1, 2, 2, 2, 1, 1, 2]);
next = array1d(1..9 ,[3, 7, 2, 5, 6, 9, 8, 4, 1]);
makespan = 808;
----------
assign = array1d(1..9 ,[1, 1, 1, 2, 2, 2, 1, 1, 2]);
next = array1d(1..9 ,[3, 7, 2, 5, 6, 9, 8, 4, 1]);
makespan = 791;
----------
assign = array1d(1..9 ,[1, 1, 1, 2, 2, 2, 1, 1, 2]);
next = array1d(1..9 ,[3, 7, 2, 5, 6, 9, 8, 4, 1]);
makespan = 790;
----------
assign = array1d(1..9 ,[1, 1, 1, 2, 2, 2, 1, 1, 2]);
next = array1d(1..9 ,[3, 7, 2, 5, 6, 9, 8, 4, 1]);
makespan = 776;
----------
assign = array1d(1..9 ,[1, 1, 1, 2, 2, 2, 1, 1, 2]);
next = array1d(1..9 ,[3, 7, 2, 5, 6, 9, 8, 4, 1]);
makespan = 750;
----------
assign = array1d(1..9 ,[1, 1, 1, 2, 2, 2, 1, 1, 2]);
next = array1d(1..9 ,[3, 7, 2, 5, 6, 9, 8, 4, 1]);
makespan = 740;
----------
assign = array1d(1..9 ,[1, 1, 1, 2, 2, 2, 1, 1, 2]);
next = array1d(1..9 ,[3, 7, 2, 5, 6, 9, 8, 4, 1]);
makespan = 723;
----------
assign = array1d(1..9 ,[1, 1, 1, 2, 2, 2, 1, 1, 2]);
next = array1d(1..9 ,[3, 7, 2, 5, 6, 9, 8, 4, 1]);
makespan = 722;
----------
assign = array1d(1..9 ,[1, 1, 1, 2, 2, 2, 1, 1, 2]);
next = array1d(1..9 ,[3, 8, 7, 5, 6, 9, 2, 4, 1]);
makespan = 721;
----------
assign = array1d(1..9 ,[1, 1, 1, 2, 2, 2, 1, 1, 2]);
next = array1d(1..9 ,[3, 1, 7, 5, 6, 9, 8, 4, 2]);
makespan = 713;
----------
assign = array1d(1..9 ,[1, 1, 1, 2, 2, 2, 1, 1, 2]);
next = array1d(1..9 ,[3, 1, 7, 5, 6, 9, 8, 4, 2]);
makespan = 711;
----------
assign = array1d(1..9 ,[1, 1, 1, 2, 2, 2, 1, 1, 2]);
next = array1d(1..9 ,[3, 1, 7, 5, 6, 9, 8, 4, 2]);
makespan = 694;
----------
assign = array1d(1..9 ,[1, 1, 1, 2, 2, 2, 1, 1, 2]);
next = array1d(1..9 ,[3, 1, 7, 5, 6, 9, 8, 4, 2]);
makespan = 680;
----------
assign = array1d(1..9 ,[2, 1, 1, 2, 1, 2, 1, 1, 2]);
next = array1d(1..9 ,[6, 3, 5, 1, 7, 9, 8, 4, 2]);
makespan = 675;
----------
assign = array1d(1..9 ,[2, 1, 1, 2, 1, 2, 1, 1, 2]);
next = array1d(1..9 ,[6, 3, 5, 9, 7, 4, 8, 1, 2]);
makespan = 674;
----------
assign = array1d(1..9 ,[1, 1, 2, 2, 1, 2, 1, 1, 2]);
next = array1d(1..9 ,[8, 1, 6, 9, 7, 4, 2, 3, 5]);
makespan = 673;
----------
assign = array1d(1..9 ,[2, 1, 2, 2, 1, 1, 1, 1, 2]);
next = array1d(1..9 ,[9, 8, 1, 3, 6, 7, 2, 4, 5]);
makespan = 672;
----------
assign = array1d(1..9 ,[2, 1, 2, 2, 1, 1, 1, 1, 2]);
next = array1d(1..9 ,[9, 8, 1, 3, 6, 7, 2, 4, 5]);
makespan = 671;
----------
assign = array1d(1..9 ,[2, 1, 2, 2, 1, 1, 1, 1, 2]);
next = array1d(1..9 ,[3, 8, 4, 9, 7, 5, 2, 1, 6]);
makespan = 670;
----------
assign = array1d(1..9 ,[2, 1, 2, 2, 1, 1, 1, 1, 2]);
next = array1d(1..9 ,[9, 8, 1, 3, 7, 5, 2, 4, 6]);
makespan = 669;
----------
assign = array1d(1..9 ,[2, 1, 2, 1, 1, 2, 1, 1, 2]);
next = array1d(1..9 ,[6, 8, 9, 5, 7, 3, 2, 1, 4]);
makespan = 668;
----------
assign = array1d(1..9 ,[1, 1, 2, 2, 1, 2, 1, 1, 2]);
next = array1d(1..9 ,[8, 1, 6, 9, 7, 4, 2, 3, 5]);
makespan = 667;
----------
assign = array1d(1..9 ,[2, 1, 2, 1, 1, 2, 1, 1, 2]);
next = array1d(1..9 ,[6, 8, 9, 5, 7, 3, 2, 1, 4]);
makespan = 666;
----------
assign = array1d(1..9 ,[2, 1, 2, 2, 1, 1, 1, 1, 2]);
next = array1d(1..9 ,[3, 8, 4, 9, 7, 5, 2, 1, 6]);
makespan = 665;
----------
assign = array1d(1..9 ,[2, 1, 2, 2, 1, 1, 1, 1, 2]);
next = array1d(1..9 ,[3, 8, 9, 1, 7, 5, 2, 4, 6]);
makespan = 664;
----------
assign = array1d(1..9 ,[2, 1, 2, 2, 1, 1, 1, 1, 2]);
next = array1d(1..9 ,[3, 8, 9, 1, 7, 5, 2, 4, 6]);
makespan = 663;
----------
assign = array1d(1..9 ,[2, 1, 2, 2, 1, 1, 1, 1, 2]);
next = array1d(1..9 ,[4, 8, 9, 3, 7, 5, 2, 1, 6]);
makespan = 662;
----------
assign = array1d(1..9 ,[2, 1, 2, 2, 1, 1, 1, 1, 2]);
next = array1d(1..9 ,[4, 8, 9, 3, 7, 5, 2, 1, 6]);
makespan = 661;
----------
assign = array1d(1..9 ,[2, 1, 2, 2, 1, 1, 1, 1, 2]);
next = array1d(1..9 ,[4, 8, 9, 3, 7, 5, 2, 1, 6]);
makespan = 660;
----------
assign = array1d(1..9 ,[2, 1, 2, 2, 1, 1, 1, 1, 2]);
next = array1d(1..9 ,[4, 8, 9, 3, 7, 5, 2, 1, 6]);
makespan = 659;
----------
assign = array1d(1..9 ,[2, 1, 2, 2, 1, 1, 1, 1, 2]);
next = array1d(1..9 ,[4, 8, 9, 3, 7, 5, 2, 1, 6]);
makespan = 658;
----------
assign = array1d(1..9 ,[2, 1, 2, 2, 1, 1, 1, 1, 2]);
next = array1d(1..9 ,[4, 8, 9, 3, 7, 5, 2, 1, 6]);
makespan = 657;
----------
assign = array1d(1..9 ,[2, 1, 2, 2, 1, 1, 1, 1, 2]);
next = array1d(1..9 ,[4, 8, 9, 3, 7, 5, 2, 1, 6]);
makespan = 656;
----------
assign = array1d(1..9 ,[2, 1, 2, 2, 1, 1, 1, 1, 2]);
next = array1d(1..9 ,[4, 8, 9, 3, 7, 5, 2, 1, 6]);
makespan = 655;
----------
assign = array1d(1..9 ,[2, 1, 2, 2, 1, 1, 1, 1, 2]);
next = array1d(1..9 ,[4, 8, 9, 3, 7, 5, 2, 1, 6]);
makespan = 654;
----------
assign = array1d(1..9 ,[2, 1, 2, 2, 1, 1, 1, 1, 2]);
next = array1d(1..9 ,[4, 8, 9, 3, 7, 5, 2, 1, 6]);
makespan = 653;
----------
assign = array1d(1..9 ,[2, 1, 2, 2, 1, 1, 1, 1, 2]);
next = array1d(1..9 ,[4, 8, 9, 3, 7, 5, 2, 1, 6]);
makespan = 652;
----------
==========
	Command being timed: "mzn-chuffed lbbd-datasets/Rabadi-2006/dzn-s-dominant/model.mzn lbbd-datasets/Rabadi-2006/dzn-s-dominant/7on2Rp50Rs50_15Ameer.dzn"
	User time (seconds): 0.24
	System time (seconds): 0.00
	Percent of CPU this job got: 22%
	Elapsed (wall clock) time (h:mm:ss or m:ss): 0:01.10
	Average shared text size (kbytes): 0
	Average unshared data size (kbytes): 0
	Average stack size (kbytes): 0
	Average total size (kbytes): 0
	Maximum resident set size (kbytes): 30384
	Average resident set size (kbytes): 0
	Major (requiring I/O) page faults: 0
	Minor (reclaiming a frame) page faults: 2638
	Voluntary context switches: 56
	Involuntary context switches: 3
	Swaps: 0
	File system inputs: 0
	File system outputs: 136
	Socket messages sent: 0
	Socket messages received: 0
	Signals delivered: 0
	Page size (bytes): 4096
	Exit status: 0
