+ /usr/bin/timeout 600 /usr/bin/time -v mzn-chuffed lbbd-datasets/planningandscheduling/makespan-insts/model.mzn lbbd-datasets/planningandscheduling/makespan-insts/df16j3m2.dzn
% No search annotation given. Defaulting to VSIDS!
obj = 94
----------
obj = 93
----------
obj = 92
----------
obj = 91
----------
obj = 90
----------
obj = 89
----------
obj = 88
----------
obj = 87
----------
obj = 86
----------
obj = 85
----------
obj = 84
----------
obj = 83
----------
obj = 82
----------
obj = 81
----------
obj = 80
----------
obj = 79
----------
obj = 78
----------
obj = 77
----------
obj = 76
----------
obj = 75
----------
obj = 74
----------
obj = 73
----------
obj = 72
----------
obj = 71
----------
obj = 70
----------
obj = 69
----------
obj = 68
----------
obj = 67
----------
obj = 66
----------
obj = 65
----------
obj = 64
----------
obj = 63
----------
==========
	Command being timed: "mzn-chuffed lbbd-datasets/planningandscheduling/makespan-insts/model.mzn lbbd-datasets/planningandscheduling/makespan-insts/df16j3m2.dzn"
	User time (seconds): 0.20
	System time (seconds): 0.00
	Percent of CPU this job got: 77%
	Elapsed (wall clock) time (h:mm:ss or m:ss): 0:00.26
	Average shared text size (kbytes): 0
	Average unshared data size (kbytes): 0
	Average stack size (kbytes): 0
	Average total size (kbytes): 0
	Maximum resident set size (kbytes): 28240
	Average resident set size (kbytes): 0
	Major (requiring I/O) page faults: 0
	Minor (reclaiming a frame) page faults: 2401
	Voluntary context switches: 31
	Involuntary context switches: 3
	Swaps: 0
	File system inputs: 0
	File system outputs: 72
	Socket messages sent: 0
	Socket messages received: 0
	Signals delivered: 0
	Page size (bytes): 4096
	Exit status: 0
