+ /usr/bin/timeout 600 /usr/bin/time -v mzn-chuffed lbbd-datasets/planningandscheduling/cost-insts/model.mzn lbbd-datasets/planningandscheduling/cost-insts/c12j3m5.dzn
% No search annotation given. Defaulting to VSIDS!
obj = 475
----------
obj = 471
----------
obj = 470
----------
obj = 467
----------
obj = 450
----------
obj = 435
----------
obj = 431
----------
obj = 421
----------
obj = 408
----------
obj = 386
----------
obj = 383
----------
obj = 381
----------
obj = 374
----------
obj = 358
----------
obj = 349
----------
obj = 347
----------
obj = 346
----------
obj = 339
----------
obj = 338
----------
obj = 336
----------
obj = 328
----------
obj = 326
----------
obj = 318
----------
==========
	Command being timed: "mzn-chuffed lbbd-datasets/planningandscheduling/cost-insts/model.mzn lbbd-datasets/planningandscheduling/cost-insts/c12j3m5.dzn"
	User time (seconds): 0.18
	System time (seconds): 0.00
	Percent of CPU this job got: 67%
	Elapsed (wall clock) time (h:mm:ss or m:ss): 0:00.29
	Average shared text size (kbytes): 0
	Average unshared data size (kbytes): 0
	Average stack size (kbytes): 0
	Average total size (kbytes): 0
	Maximum resident set size (kbytes): 28000
	Average resident set size (kbytes): 0
	Major (requiring I/O) page faults: 0
	Minor (reclaiming a frame) page faults: 2375
	Voluntary context switches: 29
	Involuntary context switches: 3
	Swaps: 0
	File system inputs: 0
	File system outputs: 64
	Socket messages sent: 0
	Socket messages received: 0
	Signals delivered: 0
	Page size (bytes): 4096
	Exit status: 0
