+ /usr/bin/timeout 600 /usr/bin/time -v mzn-chuffed lbbd-datasets/sscplp/trucks-dzn/model.mzn lbbd-datasets/sscplp/trucks-dzn/p25-l100-c150-correlated.dzn
% No search annotation given. Defaulting to VSIDS!
source = [20, 20, 20, 20, 20, 20, 20, 20, 20, 10, 20, 20, 20, 3, 10, 20, 11, 2, 4, 3, 2, 2, 2, 2, 3, 3, 3, 20, 3, 3, 3, 3, 2, 5, 2, 3, 3, 3, 2, 20]
open = [false, true, true, true, true, false, false, false, false, true, true, false, false, false, false, false, false, false, false, true]
trucks_used = [0, 8, 12, 1, 1, 0, 0, 0, 0, 2, 1, 0, 0, 0, 0, 0, 0, 0, 0, 15]
truck_assigned = [4, 5, 4, 5, 5, 13, 15, 8, 13, 2, 14, 14, 14, 12, 2, 9, 1, 3, 1, 7, 2, 3, 1, 1, 10, 10, 11, 15, 9, 10, 8, 7, 2, 1, 3, 12, 12, 11, 8, 15]
obj = 22854
----------
source = [4, 3, 20, 3, 20, 2, 4, 20, 3, 3, 3, 2, 2, 3, 2, 20, 2, 2, 3, 20, 3, 2, 3, 3, 20, 3, 2, 3, 20, 20, 3, 3, 2, 20, 3, 3, 3, 2, 3, 20]
open = [false, true, true, true, false, false, false, false, false, false, false, false, false, false, false, false, false, false, false, true]
trucks_used = [0, 10, 18, 2, 0, 0, 0, 0, 0, 0, 0, 0, 0, 0, 0, 0, 0, 0, 0, 10]
truck_assigned = [2, 18, 9, 17, 9, 9, 2, 10, 17, 2, 18, 8, 10, 14, 10, 3, 3, 9, 17, 9, 15, 6, 16, 4, 10, 14, 9, 18, 6, 3, 16, 14, 8, 10, 10, 15, 16, 10, 15, 2]
obj = 16989
----------
source = [4, 4, 20, 20, 20, 2, 4, 20, 2, 17, 3, 2, 2, 2, 2, 20, 2, 2, 4, 20, 3, 4, 2, 17, 20, 20, 2, 20, 3, 2, 20, 4, 20, 20, 2, 2, 17, 2, 20, 20]
open = [false, true, true, true, false, false, false, false, false, false, false, false, false, false, false, false, true, false, false, true]
trucks_used = [0, 13, 1, 2, 0, 0, 0, 0, 0, 0, 0, 0, 0, 0, 0, 0, 1, 0, 0, 14]
truck_assigned = [2, 2, 11, 10, 10, 10, 1, 11, 12, 1, 1, 11, 13, 8, 13, 14, 13, 11, 2, 14, 1, 1, 12, 1, 12, 12, 11, 13, 1, 3, 13, 2, 14, 12, 10, 12, 1, 12, 11, 13]
obj = 16975
----------
source = [4, 4, 20, 20, 20, 2, 2, 20, 2, 4, 2, 2, 20, 2, 20, 20, 20, 2, 4, 4, 4, 4, 2, 2, 20, 20, 2, 20, 2, 4, 20, 20, 20, 20, 20, 2, 2, 4, 20, 20]
open = [false, true, false, true, false, false, false, false, false, false, false, false, false, false, false, false, false, false, false, true]
trucks_used = [0, 13, 0, 9, 0, 0, 0, 0, 0, 0, 0, 0, 0, 0, 0, 0, 0, 0, 0, 18]
truck_assigned = [9, 9, 17, 16, 18, 11, 3, 17, 13, 1, 4, 12, 14, 12, 14, 16, 13, 12, 9, 6, 9, 5, 13, 8, 15, 18, 13, 15, 4, 8, 14, 16, 15, 14, 12, 13, 10, 8, 17, 18]
obj = 14414
----------
source = [4, 4, 20, 20, 2, 4, 2, 20, 2, 5, 4, 20, 20, 2, 2, 20, 20, 2, 5, 2, 4, 20, 4, 5, 20, 20, 4, 20, 4, 2, 20, 20, 20, 20, 20, 20, 2, 2, 20, 20]
open = [false, true, false, true, true, false, false, false, false, false, false, false, false, false, false, false, false, false, false, true]
trucks_used = [0, 3, 0, 3, 1, 0, 0, 0, 0, 0, 0, 0, 0, 0, 0, 0, 0, 0, 0, 18]
truck_assigned = [2, 2, 18, 17, 3, 2, 2, 14, 1, 1, 2, 14, 16, 3, 2, 18, 17, 1, 1, 2, 1, 14, 3, 1, 12, 15, 3, 16, 3, 1, 15, 17, 13, 16, 18, 11, 3, 1, 13, 15]
obj = 14289
----------
source = [4, 20, 4, 20, 2, 4, 2, 20, 2, 20, 20, 10, 15, 2, 2, 2, 20, 2, 20, 2, 4, 20, 4, 4, 15, 20, 4, 20, 4, 2, 10, 20, 20, 20, 20, 20, 2, 2, 4, 20]
open = [false, true, false, true, false, false, false, false, false, true, false, false, false, false, true, false, false, false, false, true]
trucks_used = [0, 6, 0, 4, 0, 0, 0, 0, 0, 1, 0, 0, 0, 0, 1, 0, 0, 0, 0, 16]
truck_assigned = [3, 12, 2, 15, 5, 3, 4, 14, 4, 14, 14, 1, 1, 4, 6, 6, 15, 5, 13, 3, 3, 13, 4, 2, 1, 16, 4, 16, 4, 6, 1, 15, 10, 16, 11, 16, 5, 6, 3, 12]
obj = 14245
----------
source = [4, 20, 20, 20, 2, 20, 2, 4, 2, 20, 20, 20, 20, 2, 2, 2, 20, 2, 20, 2, 4, 20, 4, 4, 4, 20, 4, 20, 4, 2, 20, 20, 20, 20, 20, 4, 2, 2, 20, 20]
open = [false, true, false, true, false, false, false, false, false, false, false, false, false, false, false, false, false, false, false, true]
trucks_used = [0, 10, 0, 6, 0, 0, 0, 0, 0, 0, 0, 0, 0, 0, 0, 0, 0, 0, 0, 20]
truck_assigned = [5, 14, 14, 16, 8, 15, 5, 5, 9, 20, 17, 19, 17, 8, 10, 9, 20, 9, 17, 10, 5, 18, 4, 5, 3, 19, 6, 20, 6, 9, 16, 19, 18, 19, 18, 6, 10, 8, 16, 15]
obj = 14123
----------
source = [4, 20, 2, 20, 2, 20, 20, 4, 2, 2, 20, 20, 20, 2, 20, 2, 20, 4, 20, 2, 4, 20, 20, 4, 4, 20, 4, 2, 4, 20, 20, 20, 20, 4, 20, 4, 2, 2, 20, 20]
open = [false, true, false, true, false, false, false, false, false, false, false, false, false, false, false, false, false, false, false, true]
trucks_used = [0, 10, 0, 8, 0, 0, 0, 0, 0, 0, 0, 0, 0, 0, 0, 0, 0, 0, 0, 20]
truck_assigned = [7, 16, 9, 18, 9, 18, 15, 7, 10, 10, 19, 17, 19, 10, 15, 10, 17, 6, 16, 9, 6, 20, 14, 8, 8, 17, 8, 9, 7, 14, 19, 18, 20, 6, 20, 8, 8, 9, 16, 15]
obj = 14115
----------
source = [4, 20, 2, 20, 4, 20, 20, 4, 2, 2, 20, 20, 2, 2, 20, 2, 20, 20, 20, 2, 20, 4, 20, 4, 4, 20, 4, 20, 20, 2, 20, 20, 20, 2, 20, 4, 2, 2, 20, 4]
open = [false, true, false, true, false, false, false, false, false, false, false, false, false, false, false, false, false, false, false, true]
trucks_used = [0, 11, 0, 9, 0, 0, 0, 0, 0, 0, 0, 0, 0, 0, 0, 0, 0, 0, 0, 20]
truck_assigned = [8, 18, 11, 20, 5, 20, 17, 8, 11, 11, 2, 18, 3, 11, 20, 10, 18, 2, 17, 4, 6, 8, 19, 9, 9, 2, 9, 9, 19, 9, 17, 16, 19, 7, 16, 9, 7, 10, 16, 4]
obj = 14100
----------
