+ /usr/bin/timeout 600 /usr/bin/time -v mzn-chuffed lbbd-datasets/sscplp/trucks-dzn/model.mzn lbbd-datasets/sscplp/trucks-dzn/p02-l50-c150-uncorrelated.dzn
% No search annotation given. Defaulting to VSIDS!
source = [10, 10, 7, 9, 7, 9, 4, 9, 10, 7, 8, 10, 10, 1, 1, 7, 9, 4, 8, 10]
open = [true, false, false, true, false, false, true, true, true, true]
trucks_used = [2, 0, 0, 2, 0, 0, 4, 2, 4, 6]
truck_assigned = [5, 5, 2, 4, 4, 3, 2, 3, 6, 3, 2, 3, 4, 2, 2, 4, 3, 1, 1, 2]
obj = 6817
----------
source = [10, 7, 9, 9, 8, 10, 4, 7, 10, 7, 4, 10, 10, 8, 4, 7, 10, 4, 7, 10]
open = [false, false, false, true, false, false, true, true, true, true]
trucks_used = [0, 0, 0, 4, 0, 0, 5, 2, 2, 7]
truck_assigned = [6, 5, 1, 2, 1, 2, 2, 1, 7, 3, 3, 6, 3, 2, 3, 4, 5, 4, 2, 4]
obj = 6250
----------
source = [10, 7, 4, 9, 2, 7, 10, 7, 10, 4, 4, 7, 5, 9, 10, 7, 9, 10, 7, 10]
open = [false, true, false, true, true, false, true, false, true, true]
trucks_used = [0, 1, 0, 1, 1, 0, 6, 0, 3, 6]
truck_assigned = [4, 6, 1, 2, 1, 3, 4, 1, 6, 1, 1, 5, 1, 2, 5, 5, 3, 2, 4, 3]
obj = 6238
----------
source = [10, 7, 9, 5, 2, 7, 10, 7, 10, 4, 4, 7, 4, 9, 10, 7, 9, 10, 7, 10]
open = [false, true, false, true, true, false, true, false, true, true]
trucks_used = [0, 1, 0, 1, 1, 0, 6, 0, 3, 6]
truck_assigned = [4, 4, 2, 1, 1, 1, 3, 3, 2, 1, 1, 5, 1, 3, 6, 5, 3, 4, 6, 5]
obj = 6223
----------
source = [10, 7, 4, 9, 1, 7, 10, 7, 10, 1, 4, 7, 4, 9, 10, 7, 9, 10, 7, 10]
open = [true, false, false, true, false, false, true, false, true, true]
trucks_used = [2, 0, 0, 2, 0, 0, 5, 0, 3, 6]
truck_assigned = [6, 5, 2, 3, 1, 4, 6, 3, 4, 2, 2, 5, 2, 3, 5, 1, 1, 2, 2, 3]
obj = 6166
----------
source = [10, 7, 1, 9, 4, 7, 7, 10, 10, 4, 4, 10, 1, 9, 10, 7, 10, 10, 9, 10]
open = [true, false, false, true, false, false, true, false, true, true]
trucks_used = [2, 0, 0, 2, 0, 0, 3, 0, 3, 8]
truck_assigned = [8, 1, 1, 2, 2, 3, 1, 5, 7, 1, 2, 5, 2, 1, 6, 2, 4, 8, 3, 3]
obj = 6162
----------
source = [10, 1, 7, 9, 4, 7, 7, 10, 10, 4, 4, 10, 1, 9, 10, 7, 10, 10, 9, 10]
open = [true, false, false, true, false, false, true, false, true, true]
trucks_used = [1, 0, 0, 2, 0, 0, 3, 0, 3, 8]
truck_assigned = [8, 1, 2, 2, 2, 1, 2, 4, 3, 2, 2, 8, 1, 2, 7, 3, 6, 4, 3, 5]
obj = 6159
----------
source = [10, 7, 10, 9, 4, 10, 7, 10, 7, 4, 4, 10, 1, 9, 1, 7, 10, 10, 9, 10]
open = [true, false, false, true, false, false, true, false, true, true]
trucks_used = [1, 0, 0, 2, 0, 0, 3, 0, 3, 8]
truck_assigned = [5, 2, 5, 2, 2, 4, 2, 6, 1, 1, 2, 4, 1, 2, 1, 3, 8, 6, 3, 7]
obj = 6145
----------
source = [10, 7, 10, 8, 1, 10, 8, 10, 7, 9, 2, 10, 1, 9, 7, 7, 10, 10, 9, 10]
open = [true, true, false, false, false, false, true, true, true, true]
trucks_used = [1, 1, 0, 0, 0, 0, 4, 1, 3, 8]
truck_assigned = [6, 2, 6, 1, 1, 5, 1, 8, 3, 2, 1, 8, 1, 2, 1, 4, 4, 5, 3, 7]
obj = 6134
----------
source = [10, 4, 9, 7, 4, 10, 10, 10, 8, 4, 7, 10, 8, 9, 7, 10, 9, 10, 7, 10]
open = [false, false, false, true, false, false, true, true, true, true]
trucks_used = [0, 0, 0, 1, 0, 0, 4, 2, 3, 8]
truck_assigned = [6, 1, 3, 4, 1, 8, 8, 7, 1, 1, 3, 3, 2, 2, 1, 6, 1, 7, 2, 5]
obj = 6020
----------
source = [7, 7, 4, 7, 7, 9, 10, 10, 9, 4, 8, 10, 4, 9, 8, 10, 10, 10, 10, 10]
open = [false, false, false, true, false, false, true, true, true, true]
trucks_used = [0, 0, 0, 1, 0, 0, 4, 1, 3, 8]
truck_assigned = [1, 4, 1, 3, 4, 2, 8, 7, 1, 1, 1, 7, 1, 3, 1, 4, 5, 8, 1, 6]
obj = 5913
----------
source = [7, 7, 4, 8, 7, 9, 8, 10, 9, 4, 10, 10, 4, 9, 7, 10, 10, 10, 10, 10]
open = [false, false, false, true, false, false, true, true, true, true]
trucks_used = [0, 0, 0, 1, 0, 0, 4, 1, 3, 8]
truck_assigned = [3, 4, 1, 1, 4, 2, 1, 6, 3, 1, 7, 4, 1, 2, 3, 5, 8, 6, 3, 1]
obj = 5871
----------
source = [10, 7, 4, 8, 7, 10, 8, 10, 9, 4, 10, 7, 4, 9, 7, 10, 10, 10, 9, 10]
open = [false, false, false, true, false, false, true, true, true, true]
trucks_used = [0, 0, 0, 1, 0, 0, 4, 1, 3, 8]
truck_assigned = [5, 4, 1, 1, 4, 7, 1, 5, 3, 1, 8, 3, 1, 1, 1, 7, 6, 1, 2, 4]
obj = 5854
----------
source = [10, 7, 9, 8, 7, 10, 8, 10, 10, 4, 4, 10, 4, 9, 10, 10, 9, 10, 7, 7]
open = [false, false, false, true, false, false, true, true, true, true]
trucks_used = [0, 0, 0, 1, 0, 0, 4, 1, 3, 8]
truck_assigned = [5, 4, 3, 1, 4, 8, 1, 6, 4, 1, 1, 6, 1, 2, 7, 5, 2, 8, 1, 3]
obj = 5848
----------
source = [10, 7, 4, 8, 7, 9, 8, 10, 9, 4, 10, 10, 4, 9, 10, 10, 7, 10, 10, 7]
open = [false, false, false, true, false, false, true, true, true, true]
trucks_used = [0, 0, 0, 1, 0, 0, 4, 1, 3, 8]
truck_assigned = [1, 4, 1, 1, 4, 2, 1, 6, 3, 1, 5, 6, 1, 2, 7, 8, 3, 8, 2, 2]
obj = 5810
----------
source = [10, 7, 8, 7, 7, 9, 10, 10, 9, 4, 4, 10, 4, 9, 8, 10, 7, 10, 10, 10]
open = [false, false, false, true, false, false, true, true, true, true]
trucks_used = [0, 0, 0, 1, 0, 0, 4, 1, 3, 8]
truck_assigned = [7, 3, 1, 3, 4, 2, 7, 4, 3, 1, 1, 4, 1, 2, 1, 8, 4, 8, 6, 5]
obj = 5791
----------
source = [10, 7, 4, 8, 7, 9, 8, 10, 9, 4, 10, 10, 4, 9, 7, 10, 7, 10, 10, 10]
open = [false, false, false, true, false, false, true, true, true, true]
trucks_used = [0, 0, 0, 1, 0, 0, 4, 1, 3, 8]
truck_assigned = [5, 3, 1, 1, 4, 2, 1, 7, 3, 1, 6, 7, 1, 2, 4, 5, 2, 4, 8, 2]
obj = 5776
----------
source = [10, 7, 4, 8, 7, 9, 8, 10, 9, 4, 10, 10, 4, 10, 7, 10, 7, 10, 10, 9]
open = [false, false, false, true, false, false, true, true, true, true]
trucks_used = [0, 0, 0, 1, 0, 0, 4, 1, 2, 8]
truck_assigned = [5, 3, 1, 1, 4, 2, 1, 4, 1, 1, 6, 7, 1, 4, 4, 7, 2, 5, 8, 2]
obj = 5721
----------
source = [10, 7, 4, 8, 7, 9, 8, 10, 10, 4, 10, 10, 4, 9, 7, 10, 7, 10, 10, 9]
open = [false, false, false, true, false, false, true, true, true, true]
trucks_used = [0, 0, 0, 1, 0, 0, 4, 1, 2, 8]
truck_assigned = [6, 3, 1, 1, 4, 2, 1, 6, 8, 1, 7, 1, 1, 2, 4, 5, 2, 5, 4, 2]
obj = 5703
----------
source = [10, 7, 4, 7, 7, 9, 8, 10, 9, 4, 10, 10, 4, 8, 10, 10, 7, 10, 10, 9]
open = [false, false, false, true, false, false, true, true, true, true]
trucks_used = [0, 0, 0, 1, 0, 0, 4, 1, 2, 8]
truck_assigned = [6, 4, 1, 3, 4, 1, 1, 1, 2, 1, 7, 2, 1, 1, 8, 6, 3, 4, 5, 1]
obj = 5696
----------
source = [10, 7, 9, 8, 7, 10, 8, 10, 10, 4, 4, 10, 4, 9, 7, 9, 7, 10, 10, 10]
open = [false, false, false, true, false, false, true, true, true, true]
trucks_used = [0, 0, 0, 1, 0, 0, 4, 2, 2, 8]
truck_assigned = [8, 3, 2, 2, 4, 8, 2, 2, 7, 1, 1, 5, 1, 1, 4, 1, 2, 5, 6, 3]
obj = 5687
----------
source = [10, 7, 4, 8, 8, 9, 10, 10, 9, 4, 7, 10, 4, 9, 7, 7, 10, 10, 10, 10]
open = [false, false, false, true, false, false, true, true, true, true]
trucks_used = [0, 0, 0, 1, 0, 0, 4, 2, 2, 8]
truck_assigned = [7, 4, 1, 1, 2, 2, 8, 7, 1, 1, 3, 8, 1, 2, 2, 1, 6, 1, 4, 2]
obj = 5683
----------
source = [10, 7, 8, 8, 7, 9, 10, 10, 9, 4, 4, 10, 4, 9, 7, 7, 10, 10, 10, 10]
open = [false, false, false, true, false, false, true, true, true, true]
trucks_used = [0, 0, 0, 1, 0, 0, 4, 2, 2, 8]
truck_assigned = [3, 4, 1, 2, 4, 2, 7, 6, 1, 1, 1, 6, 1, 2, 2, 3, 5, 7, 1, 8]
obj = 5666
----------
source = [10, 4, 9, 7, 7, 7, 10, 10, 10, 4, 4, 10, 8, 9, 7, 9, 10, 10, 10, 8]
open = [false, false, false, true, false, false, true, true, true, true]
trucks_used = [0, 0, 0, 1, 0, 0, 4, 1, 2, 8]
truck_assigned = [6, 1, 1, 4, 4, 3, 6, 7, 5, 1, 1, 7, 1, 2, 1, 2, 8, 3, 4, 1]
obj = 5654
----------
source = [10, 7, 4, 8, 7, 10, 8, 10, 10, 4, 1, 10, 4, 1, 7, 10, 10, 10, 10, 1]
open = [true, false, false, true, false, false, true, true, false, true]
trucks_used = [2, 0, 0, 1, 0, 0, 2, 2, 0, 9]
truck_assigned = [6, 2, 1, 2, 2, 9, 2, 9, 5, 1, 2, 4, 1, 1, 1, 6, 8, 4, 7, 1]
obj = 5639
----------
source = [10, 4, 8, 7, 7, 10, 7, 10, 10, 4, 4, 10, 1, 1, 8, 10, 10, 10, 10, 1]
open = [true, false, false, true, false, false, true, true, false, true]
trucks_used = [2, 0, 0, 1, 0, 0, 1, 2, 0, 9]
truck_assigned = [5, 1, 2, 1, 1, 9, 1, 9, 6, 1, 1, 7, 1, 2, 1, 7, 3, 5, 8, 2]
obj = 5615
----------
source = [5, 3, 1, 3, 6, 5, 4, 3, 6, 4, 1, 4, 6, 3, 4, 1, 3, 5, 6, 3]
open = [true, false, true, true, true, true, false, false, false, false]
trucks_used = [3, 0, 2, 2, 1, 3, 0, 0, 0, 0]
truck_assigned = [1, 1, 1, 1, 3, 1, 1, 2, 2, 2, 2, 1, 1, 2, 2, 3, 1, 1, 2, 2]
obj = 5578
----------
source = [7, 3, 6, 3, 7, 3, 2, 1, 6, 3, 1, 7, 6, 7, 7, 1, 3, 3, 6, 1]
open = [true, true, true, false, false, true, true, false, false, false]
trucks_used = [4, 1, 3, 0, 0, 2, 2, 0, 0, 0]
truck_assigned = [2, 1, 2, 1, 2, 3, 1, 4, 1, 3, 3, 2, 2, 1, 1, 1, 3, 2, 1, 2]
obj = 5572
----------
source = [7, 3, 6, 3, 7, 3, 3, 1, 6, 2, 1, 7, 6, 7, 7, 1, 3, 3, 6, 1]
open = [true, true, true, false, false, true, true, false, false, false]
trucks_used = [4, 1, 3, 0, 0, 2, 2, 0, 0, 0]
truck_assigned = [2, 2, 2, 1, 2, 2, 3, 3, 1, 1, 4, 2, 2, 1, 1, 1, 3, 1, 1, 2]
obj = 5551
----------
source = [7, 7, 6, 3, 7, 3, 3, 6, 6, 2, 6, 3, 1, 3, 7, 1, 3, 1, 1, 6]
open = [true, true, true, false, false, true, true, false, false, false]
trucks_used = [4, 1, 3, 0, 0, 2, 2, 0, 0, 0]
truck_assigned = [1, 2, 1, 2, 2, 2, 3, 1, 2, 1, 2, 1, 3, 2, 1, 2, 3, 1, 4, 1]
obj = 5528
----------
source = [6, 7, 6, 3, 7, 3, 2, 1, 6, 3, 6, 7, 1, 3, 7, 1, 3, 1, 6, 3]
open = [true, true, true, false, false, true, true, false, false, false]
trucks_used = [4, 1, 2, 0, 0, 3, 2, 0, 0, 0]
truck_assigned = [2, 2, 2, 2, 1, 1, 1, 1, 3, 2, 1, 2, 2, 1, 1, 3, 2, 4, 3, 1]
obj = 5514
----------
source = [8, 3, 6, 3, 7, 3, 8, 3, 6, 7, 6, 7, 1, 3, 7, 1, 3, 1, 6, 1]
open = [true, false, true, false, false, true, true, true, false, false]
trucks_used = [4, 0, 2, 0, 0, 2, 2, 1, 0, 0]
truck_assigned = [1, 2, 2, 2, 1, 1, 1, 1, 1, 2, 2, 2, 3, 1, 1, 4, 2, 2, 1, 3]
obj = 5509
----------
source = [3, 4, 7, 3, 8, 3, 7, 1, 8, 4, 1, 7, 4, 3, 3, 1, 3, 3, 1, 7]
open = [true, false, true, true, false, false, true, true, false, false]
trucks_used = [4, 0, 3, 1, 0, 0, 2, 2, 0, 0]
truck_assigned = [3, 1, 1, 1, 2, 3, 1, 4, 1, 1, 3, 1, 1, 2, 2, 1, 2, 1, 2, 2]
obj = 5498
----------
source = [8, 4, 7, 3, 7, 3, 3, 1, 8, 4, 1, 8, 4, 3, 7, 7, 4, 1, 1, 3]
open = [true, false, true, true, false, false, true, true, false, false]
trucks_used = [4, 0, 2, 2, 0, 0, 2, 3, 0, 0]
truck_assigned = [2, 1, 2, 2, 1, 1, 2, 4, 3, 1, 3, 2, 1, 1, 2, 1, 2, 2, 1, 1]
obj = 5488
----------
source = [8, 4, 8, 3, 7, 3, 1, 1, 3, 4, 7, 8, 4, 3, 7, 1, 3, 7, 1, 3]
open = [true, false, true, true, false, false, true, true, false, false]
trucks_used = [4, 0, 2, 1, 0, 0, 3, 3, 0, 0]
truck_assigned = [3, 1, 2, 2, 1, 1, 1, 4, 2, 1, 2, 3, 1, 1, 1, 3, 1, 3, 2, 2]
obj = 5484
----------
source = [1, 4, 3, 3, 7, 3, 3, 3, 1, 4, 1, 7, 7, 4, 7, 1, 3, 5, 4, 5]
open = [true, false, true, true, true, false, true, false, false, false]
trucks_used = [4, 0, 3, 2, 1, 0, 2, 0, 0, 0]
truck_assigned = [1, 2, 3, 2, 2, 2, 1, 1, 2, 1, 4, 1, 1, 1, 2, 3, 2, 1, 2, 1]
obj = 5482
----------
source = [3, 7, 3, 7, 7, 3, 3, 4, 4, 4, 1, 3, 5, 1, 4, 7, 3, 5, 3, 1]
open = [true, false, true, true, true, false, true, false, false, false]
trucks_used = [2, 0, 5, 3, 1, 0, 2, 0, 0, 0]
truck_assigned = [5, 2, 3, 2, 1, 5, 4, 3, 2, 1, 1, 2, 1, 2, 1, 1, 4, 1, 1, 2]
obj = 5463
----------
