+ /usr/bin/timeout 600 /usr/bin/time -v mzn-chuffed lbbd-datasets/sscplp/trucks-dzn/model.mzn lbbd-datasets/sscplp/trucks-dzn/p11-l40-c100-uncorrelated.dzn
% No search annotation given. Defaulting to VSIDS!
source = [3, 14, 13, 2, 14, 3, 15, 2, 2, 2, 14, 14, 12, 13, 10, 10, 2, 14, 15, 11, 3, 14, 15, 13, 14, 14, 12, 15, 3, 3]
open = [false, true, true, false, false, false, false, false, false, true, true, true, true, true, true]
trucks_used = [0, 5, 5, 0, 0, 0, 0, 0, 0, 2, 1, 2, 3, 8, 4]
truck_assigned = [4, 4, 3, 3, 3, 5, 3, 2, 5, 5, 6, 7, 2, 1, 2, 1, 4, 1, 1, 1, 5, 5, 3, 2, 8, 4, 1, 4, 4, 2]
obj = 6848
----------
source = [3, 4, 13, 7, 14, 4, 4, 13, 4, 10, 15, 3, 3, 13, 3, 11, 15, 14, 15, 3, 10, 15, 14, 13, 14, 14, 3, 14, 4, 15]
open = [false, false, true, true, false, false, true, false, false, true, true, false, true, true, true]
trucks_used = [0, 0, 6, 4, 0, 0, 1, 0, 0, 1, 1, 0, 4, 6, 5]
truck_assigned = [5, 2, 4, 1, 5, 3, 4, 3, 4, 1, 2, 5, 6, 3, 5, 1, 5, 6, 4, 1, 1, 3, 2, 2, 4, 3, 4, 5, 4, 1]
obj = 6844
----------
source = [3, 4, 7, 5, 14, 4, 4, 3, 14, 4, 15, 14, 10, 7, 10, 3, 15, 14, 15, 4, 5, 15, 14, 11, 3, 14, 4, 3, 3, 15]
open = [false, false, true, true, true, false, true, false, false, true, true, false, false, true, true]
trucks_used = [0, 0, 6, 6, 2, 0, 2, 0, 0, 1, 1, 0, 0, 5, 5]
truck_assigned = [6, 2, 2, 2, 1, 3, 4, 5, 4, 4, 2, 5, 1, 1, 1, 3, 5, 2, 4, 6, 1, 3, 3, 1, 2, 5, 5, 4, 6, 1]
obj = 6837
----------
source = [3, 4, 11, 3, 3, 5, 4, 3, 14, 4, 3, 14, 10, 7, 10, 3, 4, 14, 15, 4, 7, 15, 14, 15, 5, 14, 4, 3, 15, 15]
open = [false, false, true, true, true, false, true, false, false, true, true, false, false, true, true]
trucks_used = [0, 0, 7, 6, 2, 0, 2, 0, 0, 1, 1, 0, 0, 5, 5]
truck_assigned = [6, 4, 1, 3, 6, 2, 6, 7, 5, 6, 2, 2, 1, 2, 1, 4, 3, 3, 2, 5, 1, 4, 4, 4, 2, 5, 2, 5, 5, 3]
obj = 6816
----------
source = [3, 4, 7, 3, 3, 5, 5, 3, 14, 4, 15, 3, 4, 7, 10, 9, 4, 15, 15, 4, 10, 15, 14, 3, 4, 14, 3, 3, 15, 15]
open = [false, false, true, true, true, false, true, false, true, true, false, false, false, true, true]
trucks_used = [0, 0, 8, 6, 1, 0, 2, 0, 1, 1, 0, 0, 0, 2, 6]
truck_assigned = [7, 2, 2, 6, 5, 1, 1, 8, 2, 4, 2, 5, 3, 1, 1, 1, 6, 4, 3, 5, 1, 4, 1, 2, 4, 2, 7, 4, 6, 5]
obj = 6812
----------
source = [4, 4, 7, 3, 3, 5, 4, 3, 14, 3, 15, 3, 4, 15, 10, 9, 4, 15, 7, 4, 10, 15, 14, 3, 5, 14, 3, 3, 15, 15]
open = [false, false, true, true, true, false, true, false, true, true, false, false, false, true, true]
trucks_used = [0, 0, 8, 6, 1, 0, 2, 0, 1, 1, 0, 0, 0, 2, 6]
truck_assigned = [5, 3, 2, 7, 3, 1, 3, 6, 2, 4, 4, 8, 6, 5, 1, 1, 5, 5, 2, 4, 1, 1, 1, 3, 1, 2, 8, 5, 6, 3]
obj = 6809
----------
source = [4, 4, 5, 3, 6, 5, 14, 15, 9, 3, 15, 3, 4, 15, 6, 7, 4, 15, 7, 3, 3, 15, 14, 15, 4, 14, 4, 3, 14, 15]
open = [false, false, true, true, true, true, true, false, true, false, false, false, false, true, true]
trucks_used = [0, 0, 6, 6, 1, 2, 1, 0, 1, 0, 0, 0, 0, 3, 7]
truck_assigned = [4, 3, 1, 6, 2, 1, 1, 4, 1, 5, 6, 4, 2, 7, 1, 1, 4, 7, 1, 4, 3, 5, 2, 5, 6, 1, 5, 1, 3, 3]
obj = 6795
----------
source = [8, 12, 1, 4, 8, 13, 3, 4, 1, 3, 6, 5, 4, 8, 4, 7, 8, 15, 4, 7, 3, 4, 8, 15, 13, 6, 12, 9, 13, 8]
open = [true, false, true, true, true, true, true, true, true, false, false, true, true, false, true]
trucks_used = [1, 0, 2, 6, 1, 1, 1, 5, 1, 0, 0, 1, 2, 0, 1]
truck_assigned = [2, 1, 1, 4, 5, 2, 1, 3, 1, 2, 1, 1, 2, 5, 1, 1, 3, 1, 5, 1, 1, 6, 4, 1, 1, 1, 1, 1, 2, 1]
obj = 6787
----------
source = [8, 12, 1, 4, 8, 13, 3, 4, 1, 3, 6, 12, 4, 8, 4, 7, 8, 15, 4, 7, 3, 4, 8, 15, 9, 6, 13, 5, 13, 8]
open = [true, false, true, true, true, true, true, true, true, false, false, true, true, false, true]
trucks_used = [1, 0, 2, 6, 1, 1, 1, 5, 1, 0, 0, 1, 2, 0, 1]
truck_assigned = [5, 1, 1, 5, 3, 1, 1, 4, 1, 2, 1, 1, 1, 2, 3, 1, 4, 1, 6, 1, 1, 2, 1, 1, 1, 1, 2, 1, 2, 3]
obj = 6779
----------
source = [8, 12, 13, 4, 8, 12, 3, 4, 1, 5, 6, 13, 4, 8, 4, 7, 8, 15, 4, 7, 3, 4, 8, 15, 3, 6, 9, 5, 13, 8]
open = [true, false, true, true, true, true, true, true, true, false, false, true, true, false, true]
trucks_used = [1, 0, 2, 6, 1, 1, 1, 5, 1, 0, 0, 1, 2, 0, 1]
truck_assigned = [5, 1, 1, 6, 5, 1, 1, 3, 1, 1, 1, 2, 4, 1, 1, 1, 2, 1, 2, 1, 1, 5, 3, 1, 2, 1, 1, 1, 1, 4]
obj = 6773
----------
source = [8, 12, 8, 4, 8, 12, 3, 4, 1, 3, 6, 13, 4, 8, 4, 7, 3, 15, 4, 7, 3, 4, 8, 15, 5, 13, 9, 5, 13, 8]
open = [true, false, true, true, true, true, true, true, true, false, false, true, true, false, true]
trucks_used = [1, 0, 3, 6, 1, 1, 1, 5, 1, 0, 0, 1, 2, 0, 1]
truck_assigned = [2, 1, 5, 1, 3, 1, 3, 3, 1, 2, 1, 2, 4, 3, 5, 1, 2, 1, 2, 1, 3, 6, 4, 1, 1, 1, 1, 1, 1, 1]
obj = 6772
----------
source = [8, 4, 8, 4, 8, 13, 3, 4, 1, 3, 6, 12, 4, 8, 4, 13, 7, 3, 4, 7, 3, 15, 8, 15, 5, 13, 9, 7, 5, 8]
open = [true, false, true, true, true, true, true, true, true, false, false, true, true, false, true]
trucks_used = [1, 0, 3, 6, 1, 1, 1, 5, 1, 0, 0, 1, 2, 0, 1]
truck_assigned = [2, 2, 5, 5, 3, 2, 2, 4, 1, 1, 1, 1, 6, 3, 1, 1, 1, 3, 3, 1, 2, 1, 4, 1, 1, 2, 1, 1, 1, 1]
obj = 6771
----------
source = [8, 4, 1, 4, 8, 12, 3, 4, 1, 3, 6, 13, 4, 8, 4, 7, 12, 3, 4, 7, 3, 15, 8, 15, 5, 13, 9, 5, 8, 8]
open = [true, false, true, true, true, true, true, true, true, false, false, true, true, false, true]
trucks_used = [1, 0, 3, 6, 1, 1, 1, 5, 1, 0, 0, 1, 2, 0, 1]
truck_assigned = [2, 3, 1, 5, 5, 1, 2, 4, 1, 1, 1, 2, 6, 4, 2, 1, 1, 3, 1, 1, 2, 1, 3, 1, 1, 1, 1, 1, 5, 1]
obj = 6770
----------
source = [8, 4, 12, 4, 8, 13, 3, 4, 9, 3, 6, 13, 4, 15, 4, 7, 3, 15, 4, 5, 1, 15, 1, 15, 5, 13, 3, 7, 8, 8]
open = [true, false, true, true, true, true, true, true, true, false, false, true, true, false, true]
trucks_used = [2, 0, 3, 6, 1, 1, 1, 2, 1, 0, 0, 1, 2, 0, 2]
truck_assigned = [2, 3, 1, 5, 2, 1, 1, 2, 1, 2, 1, 2, 1, 1, 6, 1, 2, 1, 4, 1, 1, 2, 2, 2, 1, 1, 3, 1, 1, 1]
obj = 6765
----------
source = [8, 4, 13, 3, 8, 13, 3, 4, 15, 3, 6, 12, 4, 4, 4, 7, 12, 15, 4, 5, 1, 15, 1, 15, 5, 13, 9, 7, 8, 8]
open = [true, false, true, true, true, true, true, true, true, false, false, true, true, false, true]
trucks_used = [2, 0, 3, 6, 1, 1, 1, 2, 1, 0, 0, 1, 2, 0, 3]
truck_assigned = [1, 6, 2, 3, 1, 1, 2, 3, 2, 1, 1, 1, 2, 3, 4, 1, 1, 3, 5, 1, 1, 3, 2, 1, 1, 1, 1, 1, 2, 2]
obj = 6761
----------
source = [8, 4, 13, 3, 8, 13, 3, 4, 15, 3, 6, 12, 4, 4, 4, 7, 3, 15, 4, 5, 1, 15, 1, 15, 5, 13, 9, 7, 8, 8]
open = [true, false, true, true, true, true, true, true, true, false, false, true, true, false, true]
trucks_used = [2, 0, 3, 6, 1, 1, 1, 2, 1, 0, 0, 1, 2, 0, 3]
truck_assigned = [1, 6, 2, 3, 1, 1, 2, 3, 2, 1, 1, 1, 2, 1, 4, 1, 2, 1, 5, 1, 2, 3, 1, 3, 1, 1, 1, 1, 2, 2]
obj = 6759
----------
source = [8, 4, 13, 3, 8, 4, 3, 4, 15, 3, 6, 13, 4, 8, 4, 7, 3, 15, 4, 5, 1, 15, 1, 15, 5, 12, 9, 7, 8, 13]
open = [true, false, true, true, true, true, true, true, true, false, false, true, true, false, true]
trucks_used = [2, 0, 3, 6, 1, 1, 1, 2, 1, 0, 0, 1, 2, 0, 3]
truck_assigned = [1, 6, 2, 3, 1, 2, 2, 1, 2, 1, 1, 1, 3, 2, 4, 1, 2, 1, 5, 1, 1, 3, 2, 3, 1, 1, 1, 1, 2, 2]
obj = 6749
----------
source = [9, 4, 13, 4, 8, 4, 3, 4, 15, 3, 6, 13, 4, 8, 4, 13, 7, 3, 1, 7, 3, 15, 12, 15, 5, 6, 8, 15, 8, 13]
open = [true, false, true, true, true, true, true, true, true, false, false, true, true, false, true]
trucks_used = [1, 0, 3, 6, 1, 1, 1, 2, 1, 0, 0, 1, 3, 0, 3]
truck_assigned = [1, 6, 3, 2, 1, 4, 3, 3, 3, 2, 1, 2, 5, 2, 1, 1, 1, 1, 1, 1, 3, 2, 1, 2, 1, 1, 1, 1, 2, 3]
obj = 6747
----------
source = [9, 4, 13, 4, 8, 4, 3, 4, 15, 3, 6, 13, 4, 8, 4, 7, 7, 3, 1, 5, 3, 15, 12, 15, 5, 13, 8, 15, 8, 13]
open = [true, false, true, true, true, true, true, true, true, false, false, true, true, false, true]
trucks_used = [1, 0, 3, 6, 1, 1, 1, 2, 1, 0, 0, 1, 3, 0, 3]
truck_assigned = [1, 5, 2, 4, 1, 6, 1, 3, 3, 2, 1, 3, 1, 2, 2, 1, 1, 3, 1, 1, 1, 1, 1, 1, 1, 1, 1, 2, 2, 2]
obj = 6745
----------
source = [9, 4, 13, 3, 12, 4, 3, 4, 15, 3, 6, 13, 4, 8, 4, 7, 7, 15, 4, 5, 3, 15, 1, 15, 5, 1, 13, 15, 8, 13]
open = [true, false, true, true, true, true, true, true, true, false, false, true, true, false, true]
trucks_used = [1, 0, 3, 6, 1, 1, 1, 1, 1, 0, 0, 1, 3, 0, 4]
truck_assigned = [1, 6, 1, 1, 1, 1, 2, 3, 3, 3, 1, 3, 5, 1, 4, 1, 1, 1, 2, 1, 2, 2, 1, 2, 1, 1, 2, 4, 1, 2]
obj = 6734
----------
source = [9, 12, 13, 3, 8, 4, 3, 4, 1, 3, 6, 13, 4, 8, 4, 7, 7, 15, 15, 5, 3, 15, 12, 15, 5, 13, 4, 15, 4, 13]
open = [true, false, true, true, true, true, true, true, true, false, false, true, true, false, true]
trucks_used = [1, 0, 3, 6, 1, 1, 1, 1, 1, 0, 0, 1, 3, 0, 4]
truck_assigned = [1, 1, 2, 3, 1, 6, 2, 5, 1, 1, 1, 3, 3, 1, 4, 1, 1, 2, 3, 1, 2, 1, 1, 2, 1, 1, 2, 4, 6, 2]
obj = 6717
----------
source = [9, 7, 13, 3, 5, 5, 3, 7, 4, 3, 6, 13, 4, 8, 4, 7, 12, 15, 15, 5, 3, 15, 12, 15, 1, 6, 4, 15, 13, 15]
open = [true, false, true, true, true, true, true, true, true, false, false, true, true, false, true]
trucks_used = [1, 0, 3, 3, 2, 1, 2, 1, 1, 0, 0, 1, 2, 0, 6]
truck_assigned = [1, 1, 1, 1, 1, 2, 2, 2, 1, 3, 1, 2, 3, 1, 2, 2, 1, 5, 4, 2, 2, 2, 1, 5, 1, 1, 1, 6, 1, 3]
obj = 6706
----------
source = [9, 7, 13, 4, 3, 5, 3, 1, 4, 3, 6, 13, 4, 8, 4, 7, 12, 15, 15, 5, 3, 15, 12, 15, 5, 6, 3, 15, 13, 15]
open = [true, false, true, true, true, true, true, true, true, false, false, true, true, false, true]
trucks_used = [1, 0, 3, 3, 2, 1, 2, 1, 1, 0, 0, 1, 2, 0, 6]
truck_assigned = [1, 1, 1, 3, 3, 1, 1, 1, 3, 2, 1, 2, 1, 1, 2, 2, 1, 5, 6, 2, 1, 5, 1, 3, 2, 1, 3, 2, 1, 4]
obj = 6705
----------
source = [9, 7, 8, 3, 5, 13, 3, 4, 4, 3, 6, 13, 4, 13, 4, 7, 12, 15, 15, 5, 3, 15, 1, 15, 5, 6, 12, 15, 1, 15]
open = [true, false, true, true, true, true, true, true, true, false, false, true, true, false, true]
trucks_used = [1, 0, 3, 3, 2, 1, 2, 1, 1, 0, 0, 1, 2, 0, 6]
truck_assigned = [1, 1, 1, 1, 1, 2, 2, 3, 3, 3, 1, 1, 1, 2, 2, 2, 1, 5, 6, 2, 2, 5, 1, 3, 2, 1, 1, 2, 1, 4]
obj = 6698
----------
source = [9, 7, 13, 3, 5, 12, 3, 1, 4, 4, 6, 13, 4, 8, 4, 7, 3, 15, 15, 7, 3, 15, 5, 15, 5, 6, 12, 15, 13, 15]
open = [true, false, true, true, true, true, true, true, true, false, false, true, true, false, true]
trucks_used = [1, 0, 3, 3, 2, 1, 2, 1, 1, 0, 0, 1, 2, 0, 6]
truck_assigned = [1, 2, 2, 2, 1, 1, 3, 1, 1, 1, 1, 1, 2, 1, 3, 1, 3, 5, 6, 1, 1, 5, 2, 3, 2, 1, 1, 2, 2, 4]
obj = 6696
----------
source = [9, 7, 13, 4, 5, 12, 3, 1, 4, 3, 6, 13, 4, 8, 4, 7, 3, 15, 15, 7, 3, 15, 12, 15, 1, 6, 12, 15, 13, 15]
open = [true, false, true, true, true, true, true, true, true, false, false, true, true, false, true]
trucks_used = [2, 0, 3, 3, 1, 1, 2, 1, 1, 0, 0, 2, 2, 0, 6]
truck_assigned = [1, 1, 2, 2, 1, 1, 3, 2, 2, 2, 1, 1, 1, 1, 3, 2, 3, 5, 6, 2, 1, 5, 2, 3, 1, 1, 1, 2, 2, 4]
obj = 6695
----------
source = [9, 7, 13, 4, 1, 12, 3, 1, 4, 3, 6, 13, 4, 8, 4, 7, 3, 15, 15, 7, 3, 15, 12, 15, 5, 6, 12, 15, 13, 15]
open = [true, false, true, true, true, true, true, true, true, false, false, true, true, false, true]
trucks_used = [2, 0, 3, 3, 1, 1, 2, 1, 1, 0, 0, 2, 2, 0, 6]
truck_assigned = [1, 1, 2, 2, 1, 1, 3, 2, 2, 2, 1, 1, 1, 1, 3, 2, 3, 5, 6, 2, 1, 5, 2, 3, 1, 1, 1, 2, 2, 4]
obj = 6693
----------
source = [9, 7, 13, 3, 1, 12, 4, 1, 4, 3, 6, 13, 4, 8, 4, 7, 3, 15, 15, 7, 3, 15, 5, 15, 5, 6, 12, 15, 13, 15]
open = [true, false, true, true, true, true, true, true, true, false, false, true, true, false, true]
trucks_used = [2, 0, 3, 3, 1, 1, 2, 1, 1, 0, 0, 1, 2, 0, 6]
truck_assigned = [1, 1, 2, 2, 1, 1, 1, 2, 1, 1, 1, 1, 2, 1, 3, 2, 3, 5, 6, 2, 3, 5, 1, 3, 1, 1, 1, 2, 2, 4]
obj = 6692
----------
source = [9, 7, 13, 3, 1, 12, 3, 1, 4, 3, 6, 13, 4, 8, 4, 7, 12, 15, 15, 7, 3, 15, 5, 15, 5, 6, 4, 15, 13, 15]
open = [true, false, true, true, true, true, true, true, true, false, false, true, true, false, true]
trucks_used = [2, 0, 3, 3, 1, 1, 2, 1, 1, 0, 0, 1, 2, 0, 6]
truck_assigned = [1, 1, 1, 2, 1, 1, 3, 2, 1, 1, 1, 2, 2, 1, 3, 2, 1, 5, 6, 2, 3, 5, 1, 3, 1, 1, 1, 2, 1, 4]
obj = 6681
----------
source = [9, 12, 13, 3, 3, 4, 7, 1, 4, 3, 6, 13, 4, 8, 4, 7, 3, 15, 15, 7, 5, 15, 12, 15, 1, 6, 3, 15, 13, 15]
open = [true, false, true, true, true, true, true, true, true, false, false, true, true, false, true]
trucks_used = [2, 0, 3, 3, 1, 1, 2, 1, 1, 0, 0, 1, 2, 0, 6]
truck_assigned = [1, 1, 1, 1, 2, 1, 1, 2, 1, 3, 1, 2, 2, 1, 3, 2, 3, 5, 6, 2, 1, 5, 1, 3, 1, 1, 2, 2, 1, 4]
obj = 6679
----------
source = [9, 12, 13, 3, 3, 4, 7, 1, 4, 3, 6, 13, 4, 15, 4, 7, 3, 15, 1, 7, 3, 15, 12, 15, 5, 6, 8, 15, 13, 15]
open = [true, false, true, true, true, true, true, true, true, false, false, true, true, false, true]
trucks_used = [2, 0, 3, 3, 1, 1, 2, 1, 1, 0, 0, 1, 2, 0, 6]
truck_assigned = [1, 1, 2, 2, 1, 1, 1, 2, 1, 3, 1, 1, 2, 6, 3, 2, 3, 6, 1, 2, 1, 5, 1, 5, 1, 1, 1, 3, 2, 4]
obj = 6677
----------
source = [9, 12, 13, 3, 3, 4, 3, 1, 4, 3, 6, 13, 4, 15, 4, 7, 3, 15, 7, 5, 1, 15, 8, 15, 5, 6, 12, 15, 13, 15]
open = [true, false, true, true, true, true, true, true, true, false, false, true, true, false, true]
trucks_used = [2, 0, 3, 3, 1, 1, 2, 1, 1, 0, 0, 1, 2, 0, 6]
truck_assigned = [1, 1, 2, 2, 1, 1, 1, 2, 1, 3, 1, 1, 2, 4, 3, 2, 3, 4, 2, 1, 1, 5, 1, 5, 1, 1, 1, 3, 2, 6]
obj = 6662
----------
source = [8, 12, 13, 3, 3, 4, 3, 1, 4, 3, 6, 13, 4, 15, 4, 7, 3, 15, 7, 5, 1, 15, 12, 15, 5, 6, 9, 15, 13, 15]
open = [true, false, true, true, true, true, true, true, true, false, false, true, true, false, true]
trucks_used = [2, 0, 3, 3, 1, 1, 2, 1, 1, 0, 0, 1, 2, 0, 6]
truck_assigned = [1, 1, 2, 2, 1, 1, 1, 2, 1, 3, 1, 1, 2, 4, 3, 2, 3, 4, 2, 1, 1, 5, 1, 5, 1, 1, 1, 3, 2, 6]
obj = 6661
----------
source = [9, 12, 13, 3, 3, 4, 3, 1, 4, 3, 6, 13, 4, 15, 4, 7, 3, 15, 7, 5, 1, 15, 12, 15, 5, 6, 8, 15, 13, 15]
open = [true, false, true, true, true, true, true, true, true, false, false, true, true, false, true]
trucks_used = [2, 0, 3, 3, 1, 1, 2, 1, 1, 0, 0, 1, 2, 0, 6]
truck_assigned = [1, 1, 1, 2, 1, 1, 1, 2, 1, 3, 1, 2, 2, 3, 3, 2, 3, 3, 2, 1, 1, 5, 1, 5, 1, 1, 1, 4, 1, 6]
obj = 6652
----------
source = [8, 12, 13, 3, 3, 4, 3, 1, 4, 3, 6, 13, 4, 7, 4, 7, 3, 15, 15, 5, 1, 15, 12, 15, 5, 6, 9, 15, 13, 15]
open = [true, false, true, true, true, true, true, true, true, false, false, true, true, false, true]
trucks_used = [2, 0, 3, 3, 1, 1, 2, 1, 1, 0, 0, 1, 2, 0, 6]
truck_assigned = [1, 1, 1, 2, 1, 1, 1, 2, 1, 3, 1, 2, 2, 1, 3, 2, 3, 5, 2, 1, 1, 6, 1, 6, 1, 1, 1, 4, 1, 3]
obj = 6637
----------
source = [9, 12, 13, 3, 3, 4, 3, 1, 4, 3, 6, 13, 4, 7, 4, 7, 3, 15, 15, 5, 1, 15, 12, 15, 5, 6, 8, 15, 13, 15]
open = [true, false, true, true, true, true, true, true, true, false, false, true, true, false, true]
trucks_used = [2, 0, 3, 3, 1, 1, 2, 1, 1, 0, 0, 1, 2, 0, 6]
truck_assigned = [1, 1, 1, 2, 1, 1, 1, 2, 1, 3, 1, 2, 2, 1, 3, 2, 3, 3, 6, 1, 1, 2, 1, 3, 1, 1, 1, 5, 1, 4]
obj = 6628
----------
source = [9, 7, 13, 3, 3, 4, 3, 1, 4, 3, 6, 13, 4, 15, 4, 7, 12, 15, 7, 5, 1, 15, 12, 15, 5, 6, 8, 15, 13, 15]
open = [true, false, true, true, true, true, true, true, true, false, false, true, true, false, true]
trucks_used = [2, 0, 3, 3, 1, 1, 2, 1, 1, 0, 0, 1, 2, 0, 6]
truck_assigned = [1, 1, 1, 2, 1, 3, 1, 2, 3, 3, 1, 2, 1, 3, 2, 2, 1, 5, 2, 1, 1, 5, 1, 3, 1, 1, 1, 6, 1, 4]
obj = 6622
----------
source = [9, 7, 13, 3, 3, 12, 3, 1, 4, 3, 6, 5, 4, 15, 4, 13, 3, 15, 7, 7, 1, 15, 8, 15, 4, 6, 12, 15, 13, 15]
open = [true, false, true, true, true, true, true, true, true, false, false, true, true, false, true]
trucks_used = [2, 0, 3, 3, 1, 1, 2, 1, 1, 0, 0, 1, 2, 0, 6]
truck_assigned = [1, 1, 2, 2, 1, 1, 1, 2, 2, 3, 1, 1, 1, 6, 3, 1, 3, 3, 2, 2, 1, 6, 1, 3, 2, 1, 1, 4, 2, 5]
obj = 6612
----------
source = [9, 7, 13, 3, 3, 12, 3, 4, 4, 3, 6, 13, 4, 8, 4, 7, 3, 15, 15, 7, 1, 15, 1, 15, 5, 6, 12, 15, 13, 15]
open = [true, false, true, true, true, true, true, true, true, false, false, true, true, false, true]
trucks_used = [2, 0, 3, 3, 1, 1, 2, 1, 1, 0, 0, 1, 2, 0, 6]
truck_assigned = [1, 1, 2, 2, 1, 1, 1, 1, 1, 3, 1, 1, 3, 1, 2, 2, 3, 3, 4, 2, 1, 2, 2, 3, 1, 1, 1, 6, 2, 5]
obj = 6604
----------
source = [9, 7, 1, 3, 3, 12, 3, 1, 13, 3, 6, 13, 4, 15, 4, 7, 3, 15, 7, 5, 1, 15, 8, 15, 5, 6, 12, 15, 13, 15]
open = [true, false, true, true, true, true, true, true, true, false, false, true, true, false, true]
trucks_used = [2, 0, 3, 2, 1, 1, 2, 1, 1, 0, 0, 1, 2, 0, 6]
truck_assigned = [1, 1, 2, 1, 3, 1, 3, 2, 2, 2, 1, 1, 2, 5, 1, 2, 3, 5, 2, 1, 1, 3, 1, 3, 1, 1, 1, 4, 2, 6]
obj = 6580
----------
source = [9, 12, 1, 3, 3, 13, 3, 7, 7, 13, 6, 1, 4, 8, 4, 7, 3, 15, 15, 5, 1, 15, 12, 15, 5, 6, 3, 15, 8, 15]
open = [true, false, true, true, true, true, true, true, true, false, false, true, true, false, true]
trucks_used = [2, 0, 3, 2, 1, 1, 2, 1, 1, 0, 0, 1, 1, 0, 6]
truck_assigned = [1, 1, 2, 1, 3, 1, 3, 2, 1, 1, 1, 2, 2, 1, 1, 2, 3, 6, 4, 1, 1, 6, 1, 2, 1, 1, 2, 5, 1, 3]
obj = 6577
----------
source = [9, 7, 1, 3, 3, 13, 3, 1, 4, 3, 6, 3, 4, 8, 4, 7, 12, 15, 15, 7, 1, 15, 12, 15, 5, 6, 4, 15, 13, 15]
open = [true, false, true, true, true, true, true, true, true, false, false, true, true, false, true]
trucks_used = [2, 0, 3, 3, 1, 1, 2, 1, 1, 0, 0, 1, 1, 0, 6]
truck_assigned = [1, 2, 2, 1, 2, 1, 2, 2, 2, 3, 1, 2, 1, 1, 3, 1, 1, 4, 3, 1, 1, 6, 1, 6, 1, 1, 2, 5, 1, 2]
obj = 6575
----------
source = [9, 7, 1, 3, 3, 12, 3, 1, 4, 3, 6, 13, 4, 4, 4, 7, 3, 15, 15, 7, 1, 15, 8, 15, 5, 6, 12, 15, 5, 15]
open = [true, false, true, true, true, true, true, true, true, false, false, true, true, false, true]
trucks_used = [2, 0, 3, 3, 1, 1, 2, 1, 1, 0, 0, 1, 1, 0, 6]
truck_assigned = [1, 2, 2, 3, 1, 1, 1, 2, 3, 2, 1, 1, 2, 3, 1, 1, 2, 4, 3, 1, 1, 5, 1, 5, 1, 1, 1, 6, 1, 1]
obj = 6573
----------
source = [9, 7, 1, 3, 3, 13, 3, 1, 4, 13, 6, 5, 4, 8, 4, 7, 12, 15, 15, 7, 1, 15, 12, 15, 4, 6, 3, 15, 3, 15]
open = [true, false, true, true, true, true, true, true, true, false, false, true, true, false, true]
trucks_used = [2, 0, 3, 3, 1, 1, 2, 1, 1, 0, 0, 1, 1, 0, 6]
truck_assigned = [1, 2, 2, 3, 2, 1, 1, 2, 3, 1, 1, 1, 2, 1, 1, 1, 1, 2, 3, 1, 1, 6, 1, 6, 3, 1, 2, 5, 1, 4]
obj = 6568
----------
source = [3, 7, 1, 3, 3, 13, 3, 1, 4, 3, 6, 5, 4, 8, 4, 7, 12, 15, 15, 7, 1, 15, 12, 15, 4, 6, 9, 15, 13, 15]
open = [true, false, true, true, true, true, true, true, true, false, false, true, true, false, true]
trucks_used = [2, 0, 3, 3, 1, 1, 2, 1, 1, 0, 0, 1, 1, 0, 6]
truck_assigned = [2, 2, 2, 3, 2, 1, 2, 2, 3, 1, 1, 1, 2, 1, 1, 1, 1, 2, 3, 1, 1, 5, 1, 5, 3, 1, 1, 6, 1, 4]
obj = 6564
----------
source = [9, 7, 13, 3, 3, 12, 3, 4, 4, 3, 6, 1, 4, 15, 4, 7, 3, 15, 7, 5, 1, 15, 8, 15, 5, 6, 12, 15, 13, 15]
open = [true, false, true, true, true, true, true, true, true, false, false, true, true, false, true]
trucks_used = [2, 0, 3, 3, 1, 1, 2, 1, 1, 0, 0, 1, 1, 0, 6]
truck_assigned = [1, 2, 1, 3, 1, 1, 1, 3, 3, 2, 1, 2, 1, 4, 2, 1, 2, 2, 1, 1, 1, 5, 1, 5, 1, 1, 1, 6, 1, 3]
obj = 6560
----------
source = [9, 7, 1, 3, 3, 13, 3, 4, 4, 13, 6, 5, 4, 8, 4, 7, 12, 15, 15, 7, 3, 15, 1, 15, 3, 6, 12, 15, 8, 15]
open = [true, false, true, true, true, true, true, true, true, false, false, true, true, false, true]
trucks_used = [1, 0, 3, 3, 1, 1, 2, 1, 1, 0, 0, 1, 1, 0, 6]
truck_assigned = [1, 1, 1, 1, 2, 1, 3, 1, 1, 1, 1, 1, 2, 1, 3, 2, 1, 4, 6, 2, 3, 2, 1, 4, 2, 1, 1, 3, 1, 5]
obj = 6557
----------
source = [9, 7, 1, 3, 3, 4, 3, 15, 4, 13, 6, 5, 4, 8, 4, 7, 12, 15, 15, 7, 3, 15, 1, 15, 3, 6, 12, 15, 13, 13]
open = [true, false, true, true, true, true, true, true, true, false, false, true, true, false, true]
trucks_used = [1, 0, 3, 3, 1, 1, 2, 1, 1, 0, 0, 1, 1, 0, 6]
truck_assigned = [1, 1, 1, 1, 2, 3, 3, 5, 3, 1, 1, 1, 1, 1, 2, 2, 1, 4, 6, 2, 3, 3, 1, 4, 2, 1, 1, 2, 1, 1]
obj = 6534
----------
source = [9, 7, 1, 3, 3, 12, 3, 15, 4, 13, 6, 5, 4, 8, 4, 7, 12, 15, 15, 7, 3, 15, 1, 15, 3, 6, 4, 15, 13, 13]
open = [true, false, true, true, true, true, true, true, true, false, false, true, true, false, true]
trucks_used = [1, 0, 3, 3, 1, 1, 2, 1, 1, 0, 0, 1, 1, 0, 6]
truck_assigned = [1, 1, 1, 1, 3, 1, 2, 6, 3, 1, 1, 1, 1, 1, 2, 2, 1, 2, 4, 2, 2, 5, 1, 5, 3, 1, 3, 3, 1, 1]
obj = 6532
----------
source = [9, 7, 1, 4, 3, 13, 3, 15, 4, 3, 6, 5, 4, 8, 4, 7, 12, 15, 15, 7, 3, 15, 1, 15, 3, 6, 12, 15, 13, 13]
open = [true, false, true, true, true, true, true, true, true, false, false, true, true, false, true]
trucks_used = [1, 0, 3, 3, 1, 1, 2, 1, 1, 0, 0, 1, 1, 0, 6]
truck_assigned = [1, 1, 1, 3, 3, 1, 2, 6, 3, 1, 1, 1, 1, 1, 2, 2, 1, 2, 4, 2, 2, 5, 1, 5, 3, 1, 1, 3, 1, 1]
obj = 6528
----------
source = [9, 7, 1, 3, 3, 4, 3, 15, 4, 15, 6, 13, 4, 8, 4, 7, 12, 15, 7, 5, 3, 15, 12, 15, 5, 6, 3, 15, 1, 15]
open = [true, false, true, true, true, true, true, true, true, false, false, true, true, false, true]
trucks_used = [1, 0, 3, 3, 1, 1, 2, 1, 1, 0, 0, 1, 1, 0, 6]
truck_assigned = [1, 2, 1, 1, 2, 3, 3, 6, 3, 5, 1, 1, 1, 1, 2, 1, 1, 2, 1, 1, 3, 4, 1, 5, 1, 1, 2, 1, 1, 3]
obj = 6520
----------
source = [9, 7, 1, 3, 3, 13, 3, 4, 4, 5, 6, 1, 4, 8, 4, 7, 12, 15, 15, 7, 3, 15, 12, 15, 5, 6, 3, 15, 13, 15]
open = [true, false, true, true, true, true, true, true, true, false, false, true, true, false, true]
trucks_used = [1, 0, 3, 3, 1, 1, 2, 1, 1, 0, 0, 1, 1, 0, 6]
truck_assigned = [1, 1, 1, 1, 2, 1, 3, 3, 3, 1, 1, 1, 2, 1, 1, 2, 1, 6, 4, 2, 3, 6, 1, 5, 1, 1, 2, 3, 1, 1]
obj = 6515
----------
source = [9, 7, 1, 3, 3, 13, 3, 1, 4, 13, 6, 5, 4, 8, 4, 7, 12, 15, 15, 7, 3, 15, 12, 15, 4, 6, 3, 15, 8, 15]
open = [true, false, true, true, true, true, true, true, true, false, false, true, true, false, true]
trucks_used = [1, 0, 3, 3, 1, 1, 2, 1, 1, 0, 0, 1, 1, 0, 6]
truck_assigned = [1, 1, 1, 1, 2, 1, 3, 1, 3, 1, 1, 1, 1, 1, 2, 2, 1, 6, 5, 2, 3, 2, 1, 6, 3, 1, 2, 4, 1, 1]
obj = 6501
----------
source = [9, 7, 1, 3, 3, 12, 3, 15, 4, 13, 6, 5, 4, 8, 4, 7, 12, 15, 15, 7, 3, 15, 1, 15, 4, 6, 3, 15, 13, 13]
open = [true, false, true, true, true, true, true, true, true, false, false, true, true, false, true]
trucks_used = [1, 0, 3, 3, 1, 1, 2, 1, 1, 0, 0, 1, 1, 0, 6]
truck_assigned = [1, 1, 1, 3, 1, 1, 2, 4, 3, 1, 1, 1, 1, 1, 2, 2, 1, 6, 5, 2, 2, 1, 1, 6, 3, 1, 1, 2, 1, 1]
obj = 6498
----------
source = [9, 7, 1, 4, 3, 13, 3, 15, 4, 3, 6, 5, 4, 8, 4, 7, 12, 15, 15, 7, 3, 15, 12, 15, 1, 6, 3, 15, 13, 13]
open = [true, false, true, true, true, true, true, true, true, false, false, true, true, false, true]
trucks_used = [1, 0, 3, 3, 1, 1, 2, 1, 1, 0, 0, 1, 1, 0, 6]
truck_assigned = [1, 1, 1, 3, 2, 1, 3, 6, 3, 1, 1, 1, 1, 1, 2, 2, 1, 3, 5, 2, 3, 1, 1, 4, 1, 1, 2, 2, 1, 1]
obj = 6492
----------
source = [3, 7, 1, 3, 3, 13, 3, 15, 1, 15, 6, 3, 4, 8, 4, 7, 12, 15, 15, 7, 3, 15, 12, 15, 5, 6, 9, 5, 13, 13]
open = [true, false, true, true, true, true, true, true, true, false, false, true, true, false, true]
trucks_used = [1, 0, 3, 2, 1, 1, 2, 1, 1, 0, 0, 1, 1, 0, 6]
truck_assigned = [3, 2, 1, 2, 1, 1, 3, 3, 1, 5, 1, 3, 2, 1, 1, 1, 1, 4, 6, 1, 1, 4, 1, 5, 1, 1, 1, 1, 1, 1]
obj = 6488
----------
