+ /usr/bin/timeout 600 /usr/bin/time -v mzn-chuffed lbbd-datasets/planningandscheduling/cost-insts/model.mzn lbbd-datasets/planningandscheduling/cost-insts/e40j8m5.dzn
% No search annotation given. Defaulting to VSIDS!
obj = 1452
----------
obj = 1446
----------
obj = 1424
----------
obj = 1409
----------
obj = 1398
----------
obj = 1391
----------
obj = 1361
----------
obj = 1355
----------
obj = 1348
----------
obj = 1341
----------
obj = 1337
----------
obj = 1335
----------
obj = 1334
----------
obj = 1322
----------
obj = 1318
----------
obj = 1314
----------
obj = 1296
----------
obj = 1292
----------
obj = 1283
----------
obj = 1279
----------
obj = 1276
----------
obj = 1273
----------
obj = 1266
----------
obj = 1265
----------
obj = 1262
----------
obj = 1255
----------
obj = 1254
----------
obj = 1250
----------
obj = 1249
----------
obj = 1247
----------
obj = 1244
----------
obj = 1238
----------
obj = 1230
----------
obj = 1226
----------
obj = 1217
----------
obj = 1212
----------
obj = 1202
----------
obj = 1199
----------
obj = 1196
----------
obj = 1195
----------
obj = 1192
----------
obj = 1176
----------
obj = 1167
----------
obj = 1166
----------
obj = 1163
----------
obj = 1159
----------
obj = 1153
----------
obj = 1151
----------
obj = 1148
----------
obj = 1138
----------
obj = 1136
----------
obj = 1129
----------
obj = 1113
----------
obj = 1092
----------
obj = 1091
----------
obj = 1081
----------
obj = 1080
----------
obj = 1056
----------
obj = 1053
----------
obj = 1052
----------
obj = 1043
----------
obj = 1014
----------
obj = 1013
----------
obj = 1012
----------
obj = 1011
----------
obj = 1010
----------
obj = 1008
----------
obj = 1006
----------
obj = 1005
----------
obj = 1002
----------
obj = 995
----------
obj = 994
----------
obj = 993
----------
obj = 992
----------
obj = 989
----------
obj = 988
----------
obj = 985
----------
obj = 984
----------
obj = 981
----------
obj = 980
----------
obj = 976
----------
obj = 973
----------
obj = 972
----------
obj = 970
----------
obj = 968
----------
obj = 967
----------
obj = 965
----------
obj = 964
----------
obj = 963
----------
obj = 962
----------
obj = 961
----------
obj = 960
----------
obj = 959
----------
obj = 958
----------
obj = 957
----------
obj = 956
----------
obj = 955
----------
obj = 954
----------
obj = 953
----------
obj = 952
----------
obj = 951
----------
obj = 950
----------
obj = 949
----------
obj = 948
----------
obj = 947
----------
obj = 946
----------
obj = 944
----------
obj = 942
----------
obj = 941
----------
obj = 938
----------
obj = 937
----------
obj = 925
----------
obj = 924
----------
obj = 923
----------
obj = 922
----------
obj = 921
----------
obj = 920
----------
obj = 919
----------
obj = 918
----------
obj = 916
----------
obj = 914
----------
obj = 913
----------
obj = 912
----------
obj = 911
----------
obj = 910
----------
obj = 909
----------
obj = 908
----------
obj = 907
----------
obj = 906
----------
obj = 905
----------
obj = 904
----------
obj = 903
----------
obj = 902
----------
obj = 901
----------
obj = 900
----------
obj = 899
----------
obj = 898
----------
obj = 896
----------
obj = 895
----------
obj = 894
----------
obj = 893
----------
obj = 889
----------
obj = 888
----------
obj = 886
----------
obj = 884
----------
obj = 883
----------
obj = 881
----------
obj = 880
----------
obj = 877
----------
obj = 876
----------
obj = 875
----------
obj = 874
----------
obj = 873
----------
obj = 872
----------
obj = 871
----------
obj = 870
----------
obj = 869
----------
==========
	Command being timed: "mzn-chuffed lbbd-datasets/planningandscheduling/cost-insts/model.mzn lbbd-datasets/planningandscheduling/cost-insts/e40j8m5.dzn"
	User time (seconds): 0.62
	System time (seconds): 0.00
	Percent of CPU this job got: 0%
	Elapsed (wall clock) time (h:mm:ss or m:ss): 1:54.02
	Average shared text size (kbytes): 0
	Average unshared data size (kbytes): 0
	Average stack size (kbytes): 0
	Average total size (kbytes): 0
	Maximum resident set size (kbytes): 40432
	Average resident set size (kbytes): 0
	Major (requiring I/O) page faults: 0
	Minor (reclaiming a frame) page faults: 3690
	Voluntary context switches: 163
	Involuntary context switches: 6
	Swaps: 0
	File system inputs: 0
	File system outputs: 440
	Socket messages sent: 0
	Socket messages received: 0
	Signals delivered: 0
	Page size (bytes): 4096
	Exit status: 0
