+ /usr/bin/timeout 600 /usr/bin/time -v mzn-chuffed lbbd-datasets/Rabadi-2006/dzn-s-dominant/model.mzn lbbd-datasets/Rabadi-2006/dzn-s-dominant/11on6Rp50Rs50_13Ameer.dzn
% No search annotation given. Defaulting to VSIDS!
assign = array1d(1..17 ,[6, 6, 6, 6, 6, 6, 6, 6, 6, 6, 6, 1, 2, 3, 4, 5, 6]);
next = array1d(1..17 ,[2, 3, 4, 5, 6, 7, 8, 9, 10, 11, 17, 13, 14, 15, 16, 1, 12]);
makespan = 2310;
----------
assign = array1d(1..17 ,[6, 6, 6, 6, 6, 6, 6, 6, 6, 6, 6, 1, 2, 3, 4, 5, 6]);
next = array1d(1..17 ,[3, 5, 4, 2, 6, 7, 8, 9, 10, 11, 17, 13, 14, 15, 16, 1, 12]);
makespan = 2307;
----------
assign = array1d(1..17 ,[6, 6, 6, 6, 6, 6, 4, 6, 6, 6, 6, 1, 2, 3, 4, 5, 6]);
next = array1d(1..17 ,[2, 4, 9, 17, 8, 5, 15, 11, 1, 6, 3, 13, 14, 7, 16, 10, 12]);
makespan = 2259;
----------
assign = array1d(1..17 ,[6, 6, 6, 6, 6, 6, 6, 6, 6, 1, 6, 1, 2, 3, 4, 5, 6]);
next = array1d(1..17 ,[11, 9, 5, 17, 8, 2, 3, 4, 1, 12, 7, 13, 14, 15, 16, 6, 10]);
makespan = 2256;
----------
assign = array1d(1..17 ,[6, 6, 6, 6, 6, 1, 6, 6, 6, 6, 6, 1, 2, 3, 4, 5, 6]);
next = array1d(1..17 ,[4, 7, 1, 8, 17, 12, 3, 11, 2, 9, 5, 13, 14, 15, 16, 10, 6]);
makespan = 2253;
----------
assign = array1d(1..17 ,[6, 6, 5, 6, 6, 6, 6, 6, 6, 6, 6, 1, 2, 3, 4, 5, 6]);
next = array1d(1..17 ,[10, 11, 16, 7, 2, 8, 6, 17, 5, 9, 4, 13, 14, 15, 3, 1, 12]);
makespan = 2235;
----------
assign = array1d(1..17 ,[6, 6, 6, 6, 6, 1, 6, 6, 6, 6, 6, 1, 2, 3, 4, 5, 6]);
next = array1d(1..17 ,[9, 5, 10, 17, 7, 12, 3, 11, 2, 8, 4, 13, 14, 15, 16, 1, 6]);
makespan = 2231;
----------
assign = array1d(1..17 ,[6, 6, 6, 5, 6, 6, 6, 6, 6, 6, 6, 1, 2, 3, 4, 5, 6]);
next = array1d(1..17 ,[11, 3, 10, 16, 8, 5, 6, 9, 2, 17, 7, 13, 14, 15, 4, 1, 12]);
makespan = 2228;
----------
assign = array1d(1..17 ,[6, 6, 6, 6, 6, 6, 6, 6, 1, 6, 6, 1, 2, 3, 4, 5, 6]);
next = array1d(1..17 ,[4, 7, 1, 11, 17, 8, 3, 5, 12, 2, 6, 13, 14, 15, 16, 10, 9]);
makespan = 2227;
----------
assign = array1d(1..17 ,[1, 6, 6, 6, 6, 6, 6, 6, 6, 6, 6, 1, 2, 3, 4, 5, 6]);
next = array1d(1..17 ,[12, 7, 9, 17, 8, 5, 6, 4, 2, 11, 3, 13, 14, 15, 16, 10, 1]);
makespan = 2224;
----------
assign = array1d(1..17 ,[6, 6, 1, 6, 6, 6, 6, 6, 6, 6, 6, 1, 2, 3, 4, 5, 6]);
next = array1d(1..17 ,[7, 10, 12, 17, 2, 1, 5, 11, 8, 9, 4, 13, 14, 15, 16, 6, 3]);
makespan = 2221;
----------
assign = array1d(1..17 ,[6, 6, 6, 6, 6, 6, 2, 6, 6, 6, 6, 1, 2, 3, 4, 5, 6]);
next = array1d(1..17 ,[4, 17, 1, 10, 3, 5, 13, 11, 8, 2, 6, 7, 14, 15, 16, 9, 12]);
makespan = 2220;
----------
assign = array1d(1..17 ,[6, 6, 1, 6, 6, 6, 6, 6, 6, 6, 6, 1, 2, 3, 4, 5, 6]);
next = array1d(1..17 ,[6, 17, 12, 7, 8, 5, 9, 11, 10, 2, 4, 13, 14, 15, 16, 1, 3]);
makespan = 2218;
----------
assign = array1d(1..17 ,[6, 6, 4, 6, 6, 6, 6, 6, 6, 6, 6, 1, 2, 3, 4, 5, 6]);
next = array1d(1..17 ,[4, 5, 15, 6, 8, 9, 1, 11, 2, 7, 17, 13, 14, 3, 16, 10, 12]);
makespan = 2216;
----------
assign = array1d(1..17 ,[6, 6, 6, 6, 6, 6, 5, 6, 6, 6, 6, 1, 2, 3, 4, 5, 6]);
next = array1d(1..17 ,[11, 9, 1, 10, 8, 5, 16, 3, 17, 2, 4, 13, 14, 15, 7, 6, 12]);
makespan = 2215;
----------
assign = array1d(1..17 ,[6, 6, 6, 6, 6, 6, 5, 6, 6, 6, 6, 1, 2, 3, 4, 5, 6]);
next = array1d(1..17 ,[17, 4, 10, 1, 8, 11, 16, 6, 2, 9, 3, 13, 14, 15, 7, 5, 12]);
makespan = 2214;
----------
assign = array1d(1..17 ,[6, 6, 5, 6, 6, 6, 6, 6, 6, 6, 6, 1, 2, 3, 4, 5, 6]);
next = array1d(1..17 ,[11, 17, 16, 7, 1, 2, 6, 5, 10, 8, 4, 13, 14, 15, 3, 9, 12]);
makespan = 2213;
----------
assign = array1d(1..17 ,[1, 6, 6, 6, 6, 6, 6, 6, 6, 6, 6, 1, 2, 3, 4, 5, 6]);
next = array1d(1..17 ,[12, 8, 5, 17, 6, 11, 3, 7, 2, 9, 4, 13, 14, 15, 16, 10, 1]);
makespan = 2212;
----------
assign = array1d(1..17 ,[1, 6, 6, 6, 6, 6, 6, 6, 6, 6, 6, 1, 2, 3, 4, 5, 6]);
next = array1d(1..17 ,[12, 9, 17, 7, 8, 5, 2, 11, 3, 4, 10, 13, 14, 15, 16, 6, 1]);
makespan = 2211;
----------
