+ /usr/bin/timeout 600 /usr/bin/time -v mzn-chuffed lbbd-datasets/Rabadi-2006/dzn-p-dominant/model.mzn lbbd-datasets/Rabadi-2006/dzn-p-dominant/9on2Rp50Rs50_5Ameer.dzn
% No search annotation given. Defaulting to VSIDS!
assign = array1d(1..11 ,[2, 2, 2, 2, 2, 2, 2, 2, 2, 1, 2]);
next = array1d(1..11 ,[2, 3, 4, 5, 6, 7, 8, 9, 11, 1, 10]);
makespan = 1993;
----------
assign = array1d(1..11 ,[2, 2, 2, 2, 2, 2, 2, 2, 2, 1, 2]);
next = array1d(1..11 ,[3, 4, 2, 5, 6, 7, 8, 9, 11, 1, 10]);
makespan = 1985;
----------
assign = array1d(1..11 ,[2, 2, 2, 2, 2, 2, 2, 2, 2, 1, 2]);
next = array1d(1..11 ,[4, 11, 1, 6, 9, 7, 2, 3, 8, 5, 10]);
makespan = 1903;
----------
assign = array1d(1..11 ,[2, 2, 2, 2, 2, 2, 2, 2, 2, 1, 2]);
next = array1d(1..11 ,[8, 1, 7, 6, 9, 5, 4, 3, 11, 2, 10]);
makespan = 1866;
----------
assign = array1d(1..11 ,[2, 2, 2, 2, 1, 2, 2, 2, 2, 1, 2]);
next = array1d(1..11 ,[4, 1, 9, 6, 10, 3, 2, 11, 8, 7, 5]);
makespan = 1865;
----------
assign = array1d(1..11 ,[2, 2, 2, 2, 1, 2, 2, 2, 2, 1, 2]);
next = array1d(1..11 ,[4, 1, 9, 6, 10, 3, 2, 11, 8, 7, 5]);
makespan = 1862;
----------
assign = array1d(1..11 ,[2, 2, 2, 2, 1, 2, 2, 2, 2, 1, 2]);
next = array1d(1..11 ,[4, 1, 9, 6, 10, 3, 2, 11, 8, 7, 5]);
makespan = 1857;
----------
assign = array1d(1..11 ,[2, 2, 2, 2, 1, 2, 2, 2, 2, 1, 2]);
next = array1d(1..11 ,[4, 1, 9, 6, 10, 3, 2, 11, 8, 7, 5]);
makespan = 1854;
----------
assign = array1d(1..11 ,[2, 2, 2, 2, 1, 2, 2, 2, 2, 1, 2]);
next = array1d(1..11 ,[4, 1, 9, 6, 10, 3, 2, 11, 8, 7, 5]);
makespan = 1850;
----------
assign = array1d(1..11 ,[2, 2, 2, 2, 1, 2, 2, 2, 2, 1, 2]);
next = array1d(1..11 ,[4, 1, 9, 6, 10, 3, 2, 11, 8, 7, 5]);
makespan = 1839;
----------
assign = array1d(1..11 ,[2, 2, 2, 2, 1, 2, 2, 2, 2, 1, 2]);
next = array1d(1..11 ,[4, 1, 9, 6, 10, 3, 2, 11, 8, 7, 5]);
makespan = 1830;
----------
assign = array1d(1..11 ,[2, 2, 2, 2, 1, 2, 2, 2, 2, 1, 2]);
next = array1d(1..11 ,[4, 1, 9, 6, 10, 3, 2, 11, 8, 7, 5]);
makespan = 1823;
----------
assign = array1d(1..11 ,[2, 2, 2, 2, 1, 2, 2, 2, 2, 1, 2]);
next = array1d(1..11 ,[4, 1, 9, 6, 10, 3, 2, 11, 8, 7, 5]);
makespan = 1822;
----------
assign = array1d(1..11 ,[2, 2, 2, 2, 1, 2, 2, 2, 2, 1, 2]);
next = array1d(1..11 ,[4, 1, 9, 6, 10, 3, 2, 11, 8, 7, 5]);
makespan = 1820;
----------
assign = array1d(1..11 ,[2, 2, 2, 2, 1, 2, 2, 2, 2, 1, 2]);
next = array1d(1..11 ,[4, 1, 9, 6, 10, 3, 2, 11, 8, 7, 5]);
makespan = 1804;
----------
assign = array1d(1..11 ,[2, 2, 2, 2, 1, 2, 2, 2, 2, 1, 2]);
next = array1d(1..11 ,[4, 1, 9, 6, 10, 3, 2, 11, 8, 7, 5]);
makespan = 1791;
----------
assign = array1d(1..11 ,[2, 2, 2, 2, 1, 2, 2, 2, 2, 1, 2]);
next = array1d(1..11 ,[4, 1, 9, 6, 10, 3, 2, 11, 8, 7, 5]);
makespan = 1770;
----------
assign = array1d(1..11 ,[2, 2, 2, 2, 1, 2, 2, 2, 2, 1, 2]);
next = array1d(1..11 ,[4, 1, 9, 6, 10, 3, 2, 11, 8, 7, 5]);
makespan = 1754;
----------
assign = array1d(1..11 ,[2, 2, 2, 2, 1, 2, 2, 2, 2, 1, 2]);
next = array1d(1..11 ,[4, 1, 9, 6, 10, 3, 2, 11, 8, 7, 5]);
makespan = 1735;
----------
assign = array1d(1..11 ,[2, 2, 2, 2, 1, 2, 2, 2, 2, 1, 2]);
next = array1d(1..11 ,[4, 1, 9, 6, 10, 3, 2, 11, 8, 7, 5]);
makespan = 1734;
----------
assign = array1d(1..11 ,[2, 2, 2, 2, 1, 2, 2, 2, 2, 1, 2]);
next = array1d(1..11 ,[4, 1, 9, 6, 10, 3, 2, 11, 8, 7, 5]);
makespan = 1729;
----------
assign = array1d(1..11 ,[2, 2, 2, 2, 1, 2, 2, 2, 2, 1, 2]);
next = array1d(1..11 ,[4, 1, 9, 6, 10, 3, 2, 11, 8, 7, 5]);
makespan = 1726;
----------
assign = array1d(1..11 ,[2, 2, 2, 2, 1, 2, 2, 2, 2, 1, 2]);
next = array1d(1..11 ,[4, 1, 9, 6, 10, 3, 2, 11, 8, 7, 5]);
makespan = 1723;
----------
assign = array1d(1..11 ,[2, 2, 2, 2, 1, 2, 2, 2, 2, 1, 2]);
next = array1d(1..11 ,[4, 1, 9, 6, 10, 3, 2, 11, 8, 7, 5]);
makespan = 1722;
----------
assign = array1d(1..11 ,[2, 2, 2, 2, 1, 2, 2, 2, 2, 1, 2]);
next = array1d(1..11 ,[4, 1, 9, 6, 10, 3, 2, 11, 8, 7, 5]);
makespan = 1719;
----------
assign = array1d(1..11 ,[2, 2, 2, 2, 1, 2, 2, 2, 2, 1, 2]);
next = array1d(1..11 ,[4, 1, 9, 6, 10, 3, 2, 11, 8, 7, 5]);
makespan = 1718;
----------
assign = array1d(1..11 ,[2, 2, 2, 2, 1, 2, 1, 2, 2, 1, 2]);
next = array1d(1..11 ,[4, 1, 9, 6, 10, 3, 5, 11, 8, 2, 7]);
makespan = 1714;
----------
assign = array1d(1..11 ,[2, 2, 2, 2, 1, 2, 1, 2, 2, 1, 2]);
next = array1d(1..11 ,[4, 1, 9, 6, 10, 3, 5, 11, 8, 2, 7]);
makespan = 1711;
----------
assign = array1d(1..11 ,[2, 2, 2, 2, 1, 2, 1, 2, 2, 1, 2]);
next = array1d(1..11 ,[4, 1, 9, 6, 10, 3, 5, 11, 8, 2, 7]);
makespan = 1708;
----------
assign = array1d(1..11 ,[2, 2, 2, 2, 1, 2, 1, 2, 2, 1, 2]);
next = array1d(1..11 ,[4, 1, 9, 6, 10, 3, 5, 11, 8, 2, 7]);
makespan = 1703;
----------
assign = array1d(1..11 ,[2, 2, 2, 2, 1, 2, 1, 2, 2, 1, 2]);
next = array1d(1..11 ,[4, 1, 9, 6, 10, 3, 5, 11, 8, 2, 7]);
makespan = 1702;
----------
assign = array1d(1..11 ,[2, 2, 2, 2, 1, 2, 1, 2, 2, 1, 2]);
next = array1d(1..11 ,[4, 1, 9, 6, 10, 3, 5, 11, 8, 2, 7]);
makespan = 1700;
----------
assign = array1d(1..11 ,[2, 2, 2, 2, 1, 2, 1, 2, 2, 1, 2]);
next = array1d(1..11 ,[4, 1, 9, 6, 10, 3, 5, 11, 8, 2, 7]);
makespan = 1699;
----------
assign = array1d(1..11 ,[2, 2, 2, 2, 1, 2, 1, 2, 2, 1, 2]);
next = array1d(1..11 ,[4, 1, 9, 6, 10, 3, 5, 11, 8, 2, 7]);
makespan = 1696;
----------
assign = array1d(1..11 ,[2, 2, 2, 2, 1, 2, 1, 2, 2, 1, 2]);
next = array1d(1..11 ,[4, 1, 9, 6, 10, 3, 5, 11, 8, 2, 7]);
makespan = 1695;
----------
assign = array1d(1..11 ,[2, 2, 2, 2, 1, 2, 1, 2, 2, 1, 2]);
next = array1d(1..11 ,[4, 1, 9, 6, 10, 3, 5, 11, 8, 2, 7]);
makespan = 1694;
----------
assign = array1d(1..11 ,[2, 2, 2, 2, 1, 2, 1, 2, 2, 1, 2]);
next = array1d(1..11 ,[4, 1, 9, 6, 10, 3, 5, 11, 8, 2, 7]);
makespan = 1692;
----------
assign = array1d(1..11 ,[2, 2, 2, 2, 1, 2, 1, 2, 2, 1, 2]);
next = array1d(1..11 ,[4, 1, 9, 6, 10, 3, 5, 11, 8, 2, 7]);
makespan = 1691;
----------
assign = array1d(1..11 ,[2, 2, 2, 2, 1, 2, 1, 2, 2, 1, 2]);
next = array1d(1..11 ,[4, 1, 9, 6, 10, 3, 5, 11, 8, 2, 7]);
makespan = 1690;
----------
assign = array1d(1..11 ,[2, 2, 2, 2, 1, 2, 1, 2, 2, 1, 2]);
next = array1d(1..11 ,[4, 1, 9, 6, 10, 3, 5, 11, 8, 2, 7]);
makespan = 1689;
----------
assign = array1d(1..11 ,[2, 2, 2, 2, 1, 2, 1, 2, 2, 1, 2]);
next = array1d(1..11 ,[4, 1, 9, 6, 10, 3, 5, 11, 8, 2, 7]);
makespan = 1687;
----------
assign = array1d(1..11 ,[2, 2, 2, 2, 1, 2, 1, 2, 2, 1, 2]);
next = array1d(1..11 ,[4, 1, 9, 6, 10, 3, 5, 11, 8, 2, 7]);
makespan = 1685;
----------
assign = array1d(1..11 ,[2, 2, 2, 2, 1, 2, 1, 2, 2, 1, 2]);
next = array1d(1..11 ,[4, 1, 9, 6, 10, 3, 5, 11, 8, 2, 7]);
makespan = 1684;
----------
assign = array1d(1..11 ,[2, 2, 2, 2, 1, 2, 1, 2, 2, 1, 2]);
next = array1d(1..11 ,[4, 1, 9, 6, 10, 3, 5, 11, 8, 2, 7]);
makespan = 1681;
----------
assign = array1d(1..11 ,[2, 2, 2, 2, 1, 2, 1, 2, 2, 1, 2]);
next = array1d(1..11 ,[4, 1, 9, 6, 10, 3, 5, 11, 8, 2, 7]);
makespan = 1680;
----------
assign = array1d(1..11 ,[2, 2, 2, 2, 1, 2, 1, 2, 2, 1, 2]);
next = array1d(1..11 ,[4, 1, 9, 6, 10, 3, 5, 11, 8, 2, 7]);
makespan = 1677;
----------
assign = array1d(1..11 ,[2, 2, 2, 2, 1, 2, 1, 2, 2, 1, 2]);
next = array1d(1..11 ,[4, 1, 9, 6, 10, 3, 5, 11, 8, 2, 7]);
makespan = 1676;
----------
assign = array1d(1..11 ,[2, 2, 2, 2, 1, 2, 1, 2, 2, 1, 2]);
next = array1d(1..11 ,[4, 1, 9, 6, 10, 3, 5, 11, 8, 2, 7]);
makespan = 1669;
----------
assign = array1d(1..11 ,[2, 2, 2, 2, 1, 2, 1, 2, 2, 1, 2]);
next = array1d(1..11 ,[4, 1, 9, 6, 10, 3, 5, 11, 8, 2, 7]);
makespan = 1668;
----------
assign = array1d(1..11 ,[2, 2, 2, 2, 1, 2, 1, 2, 2, 1, 2]);
next = array1d(1..11 ,[4, 1, 9, 6, 10, 3, 5, 11, 8, 2, 7]);
makespan = 1666;
----------
assign = array1d(1..11 ,[2, 2, 2, 2, 1, 2, 1, 2, 2, 1, 2]);
next = array1d(1..11 ,[4, 1, 9, 6, 10, 3, 5, 11, 8, 2, 7]);
makespan = 1660;
----------
assign = array1d(1..11 ,[2, 2, 2, 2, 1, 2, 1, 2, 2, 1, 2]);
next = array1d(1..11 ,[4, 1, 9, 6, 10, 3, 5, 11, 8, 2, 7]);
makespan = 1657;
----------
assign = array1d(1..11 ,[2, 2, 2, 2, 1, 2, 1, 2, 2, 1, 2]);
next = array1d(1..11 ,[4, 1, 9, 6, 10, 3, 5, 11, 8, 2, 7]);
makespan = 1650;
----------
assign = array1d(1..11 ,[2, 2, 2, 2, 1, 2, 1, 2, 2, 1, 2]);
next = array1d(1..11 ,[4, 1, 9, 6, 10, 3, 5, 11, 8, 2, 7]);
makespan = 1646;
----------
assign = array1d(1..11 ,[2, 2, 2, 2, 1, 2, 1, 2, 2, 1, 2]);
next = array1d(1..11 ,[4, 1, 9, 6, 10, 3, 5, 11, 8, 2, 7]);
makespan = 1619;
----------
assign = array1d(1..11 ,[2, 2, 2, 2, 1, 2, 1, 2, 2, 1, 2]);
next = array1d(1..11 ,[4, 1, 9, 6, 10, 3, 5, 11, 8, 2, 7]);
makespan = 1618;
----------
assign = array1d(1..11 ,[2, 2, 2, 2, 1, 2, 1, 2, 2, 1, 2]);
next = array1d(1..11 ,[4, 1, 9, 6, 10, 3, 5, 11, 8, 2, 7]);
makespan = 1598;
----------
assign = array1d(1..11 ,[2, 2, 2, 2, 1, 2, 1, 2, 2, 1, 2]);
next = array1d(1..11 ,[4, 1, 9, 6, 10, 3, 5, 11, 8, 2, 7]);
makespan = 1596;
----------
assign = array1d(1..11 ,[2, 2, 2, 2, 1, 2, 1, 2, 2, 1, 2]);
next = array1d(1..11 ,[4, 1, 9, 6, 10, 3, 5, 11, 8, 2, 7]);
makespan = 1595;
----------
assign = array1d(1..11 ,[2, 2, 2, 2, 1, 2, 1, 2, 2, 1, 2]);
next = array1d(1..11 ,[4, 1, 9, 6, 10, 3, 5, 11, 8, 2, 7]);
makespan = 1591;
----------
assign = array1d(1..11 ,[2, 2, 2, 2, 1, 2, 1, 2, 2, 1, 2]);
next = array1d(1..11 ,[4, 1, 9, 6, 10, 3, 5, 11, 8, 2, 7]);
makespan = 1590;
----------
assign = array1d(1..11 ,[2, 2, 2, 2, 1, 2, 1, 2, 2, 1, 2]);
next = array1d(1..11 ,[4, 1, 9, 6, 10, 3, 5, 11, 8, 2, 7]);
makespan = 1587;
----------
assign = array1d(1..11 ,[2, 2, 2, 2, 1, 2, 1, 2, 2, 1, 2]);
next = array1d(1..11 ,[4, 1, 9, 6, 10, 3, 5, 11, 8, 2, 7]);
makespan = 1586;
----------
assign = array1d(1..11 ,[2, 2, 2, 2, 1, 2, 1, 2, 2, 1, 2]);
next = array1d(1..11 ,[4, 1, 9, 6, 10, 3, 5, 11, 8, 2, 7]);
makespan = 1583;
----------
assign = array1d(1..11 ,[2, 2, 2, 2, 1, 2, 1, 2, 2, 1, 2]);
next = array1d(1..11 ,[4, 1, 9, 6, 10, 3, 5, 11, 8, 2, 7]);
makespan = 1580;
----------
assign = array1d(1..11 ,[2, 2, 2, 2, 1, 2, 1, 2, 2, 1, 2]);
next = array1d(1..11 ,[4, 1, 9, 6, 10, 3, 5, 11, 8, 2, 7]);
makespan = 1575;
----------
assign = array1d(1..11 ,[2, 2, 2, 2, 1, 2, 1, 2, 2, 1, 2]);
next = array1d(1..11 ,[4, 1, 9, 6, 10, 3, 5, 11, 8, 2, 7]);
makespan = 1572;
----------
assign = array1d(1..11 ,[2, 2, 2, 2, 1, 2, 1, 2, 2, 1, 2]);
next = array1d(1..11 ,[4, 1, 9, 6, 10, 3, 5, 11, 8, 2, 7]);
makespan = 1571;
----------
assign = array1d(1..11 ,[2, 2, 2, 2, 1, 2, 1, 2, 2, 1, 2]);
next = array1d(1..11 ,[4, 1, 9, 6, 10, 3, 5, 11, 8, 2, 7]);
makespan = 1569;
----------
assign = array1d(1..11 ,[2, 2, 2, 2, 1, 2, 1, 2, 2, 1, 2]);
next = array1d(1..11 ,[4, 1, 9, 6, 10, 3, 5, 11, 8, 2, 7]);
makespan = 1568;
----------
assign = array1d(1..11 ,[2, 2, 2, 2, 1, 2, 1, 2, 2, 1, 2]);
next = array1d(1..11 ,[4, 1, 9, 6, 10, 3, 5, 11, 8, 2, 7]);
makespan = 1566;
----------
assign = array1d(1..11 ,[2, 2, 2, 2, 1, 2, 1, 2, 2, 1, 2]);
next = array1d(1..11 ,[4, 1, 9, 6, 10, 3, 5, 11, 8, 2, 7]);
makespan = 1565;
----------
assign = array1d(1..11 ,[2, 2, 2, 2, 1, 2, 1, 2, 2, 1, 2]);
next = array1d(1..11 ,[4, 1, 9, 6, 10, 3, 5, 11, 8, 2, 7]);
makespan = 1564;
----------
assign = array1d(1..11 ,[2, 2, 2, 2, 1, 2, 1, 2, 2, 1, 2]);
next = array1d(1..11 ,[4, 1, 9, 6, 10, 3, 5, 11, 8, 2, 7]);
makespan = 1563;
----------
assign = array1d(1..11 ,[2, 2, 2, 2, 1, 2, 1, 2, 2, 1, 2]);
next = array1d(1..11 ,[4, 1, 9, 6, 10, 3, 5, 11, 8, 2, 7]);
makespan = 1561;
----------
assign = array1d(1..11 ,[2, 2, 2, 2, 1, 2, 1, 2, 2, 1, 2]);
next = array1d(1..11 ,[4, 1, 9, 6, 10, 3, 5, 11, 8, 2, 7]);
makespan = 1560;
----------
assign = array1d(1..11 ,[2, 2, 2, 2, 1, 2, 1, 2, 2, 1, 2]);
next = array1d(1..11 ,[4, 1, 9, 6, 10, 3, 5, 11, 8, 2, 7]);
makespan = 1559;
----------
assign = array1d(1..11 ,[2, 2, 2, 2, 1, 2, 1, 2, 2, 1, 2]);
next = array1d(1..11 ,[4, 1, 9, 6, 10, 3, 5, 11, 8, 2, 7]);
makespan = 1557;
----------
assign = array1d(1..11 ,[2, 2, 2, 2, 1, 2, 1, 2, 2, 1, 2]);
next = array1d(1..11 ,[4, 1, 9, 6, 10, 3, 5, 11, 8, 2, 7]);
makespan = 1556;
----------
assign = array1d(1..11 ,[2, 2, 2, 2, 1, 2, 1, 2, 2, 1, 2]);
next = array1d(1..11 ,[4, 1, 9, 6, 10, 3, 5, 11, 8, 2, 7]);
makespan = 1555;
----------
assign = array1d(1..11 ,[2, 2, 2, 2, 1, 2, 1, 2, 2, 1, 2]);
next = array1d(1..11 ,[4, 1, 9, 6, 10, 3, 5, 11, 8, 2, 7]);
makespan = 1553;
----------
assign = array1d(1..11 ,[2, 2, 2, 2, 1, 2, 1, 2, 2, 1, 2]);
next = array1d(1..11 ,[4, 1, 9, 6, 10, 3, 5, 11, 8, 2, 7]);
makespan = 1552;
----------
assign = array1d(1..11 ,[2, 2, 2, 2, 1, 2, 1, 2, 2, 1, 2]);
next = array1d(1..11 ,[4, 1, 9, 6, 10, 3, 5, 11, 8, 2, 7]);
makespan = 1551;
----------
assign = array1d(1..11 ,[2, 2, 2, 2, 1, 2, 1, 2, 2, 1, 2]);
next = array1d(1..11 ,[4, 1, 9, 6, 10, 3, 5, 11, 8, 2, 7]);
makespan = 1550;
----------
assign = array1d(1..11 ,[2, 2, 2, 2, 1, 2, 1, 2, 2, 1, 2]);
next = array1d(1..11 ,[4, 1, 9, 6, 10, 3, 5, 11, 8, 2, 7]);
makespan = 1549;
----------
assign = array1d(1..11 ,[2, 2, 2, 2, 1, 2, 1, 2, 2, 1, 2]);
next = array1d(1..11 ,[4, 1, 9, 6, 10, 3, 5, 11, 8, 2, 7]);
makespan = 1548;
----------
assign = array1d(1..11 ,[2, 2, 2, 2, 1, 2, 1, 2, 2, 1, 2]);
next = array1d(1..11 ,[4, 1, 9, 6, 10, 3, 5, 11, 8, 2, 7]);
makespan = 1546;
----------
assign = array1d(1..11 ,[2, 2, 2, 2, 1, 2, 1, 2, 2, 1, 2]);
next = array1d(1..11 ,[4, 1, 9, 6, 10, 3, 5, 11, 8, 2, 7]);
makespan = 1545;
----------
assign = array1d(1..11 ,[2, 2, 2, 2, 1, 2, 1, 2, 2, 1, 2]);
next = array1d(1..11 ,[4, 1, 9, 6, 10, 3, 5, 11, 8, 2, 7]);
makespan = 1544;
----------
assign = array1d(1..11 ,[2, 2, 2, 2, 1, 2, 1, 2, 2, 1, 2]);
next = array1d(1..11 ,[4, 1, 9, 6, 10, 3, 5, 11, 8, 2, 7]);
makespan = 1541;
----------
assign = array1d(1..11 ,[2, 2, 2, 2, 1, 2, 1, 2, 2, 1, 2]);
next = array1d(1..11 ,[4, 1, 9, 6, 10, 3, 5, 11, 8, 2, 7]);
makespan = 1540;
----------
assign = array1d(1..11 ,[2, 2, 2, 2, 1, 2, 1, 2, 2, 1, 2]);
next = array1d(1..11 ,[4, 1, 9, 6, 10, 3, 5, 11, 8, 2, 7]);
makespan = 1538;
----------
assign = array1d(1..11 ,[2, 2, 2, 2, 1, 2, 1, 2, 2, 1, 2]);
next = array1d(1..11 ,[4, 1, 9, 6, 10, 3, 5, 11, 8, 2, 7]);
makespan = 1537;
----------
assign = array1d(1..11 ,[2, 2, 2, 2, 1, 2, 1, 2, 2, 1, 2]);
next = array1d(1..11 ,[4, 1, 9, 6, 10, 3, 5, 11, 8, 2, 7]);
makespan = 1535;
----------
assign = array1d(1..11 ,[2, 2, 2, 2, 1, 2, 1, 2, 2, 1, 2]);
next = array1d(1..11 ,[4, 1, 9, 6, 10, 3, 5, 11, 8, 2, 7]);
makespan = 1533;
----------
assign = array1d(1..11 ,[2, 2, 2, 2, 1, 2, 1, 2, 2, 1, 2]);
next = array1d(1..11 ,[4, 1, 9, 6, 10, 3, 5, 11, 8, 2, 7]);
makespan = 1532;
----------
assign = array1d(1..11 ,[2, 2, 2, 2, 1, 2, 1, 2, 2, 1, 2]);
next = array1d(1..11 ,[4, 1, 9, 6, 10, 3, 5, 11, 8, 2, 7]);
makespan = 1530;
----------
assign = array1d(1..11 ,[2, 2, 2, 2, 1, 2, 1, 2, 2, 1, 2]);
next = array1d(1..11 ,[4, 1, 9, 6, 10, 3, 5, 11, 8, 2, 7]);
makespan = 1529;
----------
assign = array1d(1..11 ,[2, 2, 2, 2, 1, 2, 1, 2, 2, 1, 2]);
next = array1d(1..11 ,[4, 1, 9, 6, 10, 3, 5, 11, 8, 2, 7]);
makespan = 1527;
----------
assign = array1d(1..11 ,[2, 2, 2, 2, 1, 2, 1, 2, 2, 1, 2]);
next = array1d(1..11 ,[4, 1, 9, 6, 10, 3, 5, 11, 8, 2, 7]);
makespan = 1526;
----------
assign = array1d(1..11 ,[2, 2, 2, 2, 1, 2, 1, 2, 2, 1, 2]);
next = array1d(1..11 ,[4, 1, 9, 6, 10, 3, 5, 11, 8, 2, 7]);
makespan = 1524;
----------
assign = array1d(1..11 ,[2, 2, 2, 2, 1, 2, 1, 2, 2, 1, 2]);
next = array1d(1..11 ,[4, 1, 9, 6, 10, 3, 5, 11, 8, 2, 7]);
makespan = 1523;
----------
assign = array1d(1..11 ,[2, 2, 2, 2, 1, 2, 1, 2, 2, 1, 2]);
next = array1d(1..11 ,[4, 1, 9, 6, 10, 3, 5, 11, 8, 2, 7]);
makespan = 1522;
----------
assign = array1d(1..11 ,[2, 2, 2, 2, 1, 2, 1, 2, 2, 1, 2]);
next = array1d(1..11 ,[4, 1, 9, 6, 10, 3, 5, 11, 8, 2, 7]);
makespan = 1521;
----------
assign = array1d(1..11 ,[2, 2, 2, 2, 1, 2, 1, 2, 2, 1, 2]);
next = array1d(1..11 ,[4, 1, 9, 6, 10, 3, 5, 11, 8, 2, 7]);
makespan = 1519;
----------
assign = array1d(1..11 ,[2, 2, 2, 2, 1, 2, 1, 2, 2, 1, 2]);
next = array1d(1..11 ,[4, 1, 9, 6, 10, 3, 5, 11, 8, 2, 7]);
makespan = 1518;
----------
assign = array1d(1..11 ,[2, 2, 2, 2, 1, 2, 1, 2, 2, 1, 2]);
next = array1d(1..11 ,[4, 1, 9, 6, 10, 3, 5, 11, 8, 2, 7]);
makespan = 1517;
----------
assign = array1d(1..11 ,[2, 2, 2, 2, 1, 2, 1, 2, 2, 1, 2]);
next = array1d(1..11 ,[4, 1, 9, 6, 10, 3, 5, 11, 8, 2, 7]);
makespan = 1515;
----------
assign = array1d(1..11 ,[2, 2, 2, 2, 1, 2, 1, 2, 2, 1, 2]);
next = array1d(1..11 ,[4, 1, 9, 6, 10, 11, 5, 2, 8, 3, 7]);
makespan = 1514;
----------
assign = array1d(1..11 ,[2, 2, 2, 1, 1, 2, 1, 2, 2, 1, 2]);
next = array1d(1..11 ,[11, 1, 9, 10, 4, 3, 5, 2, 8, 6, 7]);
makespan = 1511;
----------
assign = array1d(1..11 ,[2, 2, 2, 1, 1, 2, 1, 2, 2, 1, 2]);
next = array1d(1..11 ,[11, 1, 9, 10, 4, 3, 5, 2, 8, 6, 7]);
makespan = 1507;
----------
assign = array1d(1..11 ,[2, 2, 2, 1, 1, 2, 1, 2, 2, 1, 2]);
next = array1d(1..11 ,[11, 1, 9, 10, 4, 3, 5, 2, 8, 6, 7]);
makespan = 1506;
----------
assign = array1d(1..11 ,[2, 2, 2, 1, 1, 2, 1, 2, 2, 1, 2]);
next = array1d(1..11 ,[11, 1, 9, 10, 4, 3, 5, 2, 8, 6, 7]);
makespan = 1503;
----------
assign = array1d(1..11 ,[2, 2, 2, 1, 1, 2, 1, 2, 2, 1, 2]);
next = array1d(1..11 ,[11, 1, 9, 10, 4, 3, 5, 2, 8, 6, 7]);
makespan = 1497;
----------
assign = array1d(1..11 ,[2, 2, 2, 1, 1, 2, 1, 2, 2, 1, 2]);
next = array1d(1..11 ,[11, 1, 9, 10, 4, 3, 5, 2, 8, 6, 7]);
makespan = 1496;
----------
assign = array1d(1..11 ,[2, 2, 2, 1, 1, 2, 1, 2, 2, 1, 2]);
next = array1d(1..11 ,[11, 1, 9, 10, 4, 3, 5, 2, 8, 6, 7]);
makespan = 1491;
----------
assign = array1d(1..11 ,[2, 2, 2, 1, 1, 2, 1, 2, 2, 1, 2]);
next = array1d(1..11 ,[11, 1, 9, 10, 4, 3, 5, 2, 8, 6, 7]);
makespan = 1487;
----------
assign = array1d(1..11 ,[2, 2, 2, 1, 1, 2, 1, 2, 2, 1, 2]);
next = array1d(1..11 ,[11, 1, 9, 10, 4, 3, 5, 2, 8, 6, 7]);
makespan = 1468;
----------
assign = array1d(1..11 ,[2, 2, 2, 1, 1, 2, 1, 2, 2, 1, 2]);
next = array1d(1..11 ,[11, 1, 9, 10, 4, 3, 5, 2, 8, 6, 7]);
makespan = 1465;
----------
assign = array1d(1..11 ,[2, 2, 2, 1, 1, 2, 1, 2, 2, 1, 2]);
next = array1d(1..11 ,[11, 1, 9, 10, 4, 3, 5, 2, 8, 6, 7]);
makespan = 1459;
----------
assign = array1d(1..11 ,[2, 2, 2, 1, 1, 2, 1, 2, 2, 1, 2]);
next = array1d(1..11 ,[11, 1, 9, 10, 4, 3, 5, 2, 8, 6, 7]);
makespan = 1455;
----------
assign = array1d(1..11 ,[2, 2, 2, 1, 1, 2, 1, 2, 2, 1, 2]);
next = array1d(1..11 ,[11, 1, 9, 10, 4, 3, 5, 2, 8, 6, 7]);
makespan = 1452;
----------
assign = array1d(1..11 ,[2, 2, 2, 1, 1, 2, 1, 2, 2, 1, 2]);
next = array1d(1..11 ,[11, 1, 9, 10, 4, 3, 5, 2, 8, 6, 7]);
makespan = 1447;
----------
assign = array1d(1..11 ,[2, 2, 2, 1, 1, 2, 1, 2, 2, 1, 2]);
next = array1d(1..11 ,[11, 1, 9, 10, 4, 3, 5, 2, 8, 6, 7]);
makespan = 1445;
----------
assign = array1d(1..11 ,[2, 2, 2, 1, 1, 2, 1, 2, 2, 1, 2]);
next = array1d(1..11 ,[11, 1, 9, 10, 4, 3, 5, 2, 8, 6, 7]);
makespan = 1444;
----------
assign = array1d(1..11 ,[2, 2, 2, 1, 1, 2, 1, 2, 2, 1, 2]);
next = array1d(1..11 ,[11, 1, 9, 10, 4, 3, 5, 2, 8, 6, 7]);
makespan = 1441;
----------
assign = array1d(1..11 ,[2, 2, 2, 1, 1, 2, 1, 2, 2, 1, 2]);
next = array1d(1..11 ,[11, 1, 9, 10, 4, 3, 5, 2, 8, 6, 7]);
makespan = 1437;
----------
assign = array1d(1..11 ,[2, 2, 2, 1, 1, 2, 1, 2, 2, 1, 2]);
next = array1d(1..11 ,[11, 1, 9, 10, 4, 3, 5, 2, 8, 6, 7]);
makespan = 1436;
----------
assign = array1d(1..11 ,[2, 2, 2, 1, 1, 2, 1, 2, 2, 1, 2]);
next = array1d(1..11 ,[11, 1, 9, 10, 4, 3, 5, 2, 8, 6, 7]);
makespan = 1435;
----------
assign = array1d(1..11 ,[2, 2, 2, 1, 1, 2, 1, 2, 2, 1, 2]);
next = array1d(1..11 ,[11, 1, 9, 10, 4, 3, 5, 2, 8, 6, 7]);
makespan = 1433;
----------
assign = array1d(1..11 ,[2, 2, 2, 1, 1, 2, 1, 2, 2, 1, 2]);
next = array1d(1..11 ,[11, 1, 9, 10, 4, 3, 5, 2, 8, 6, 7]);
makespan = 1432;
----------
assign = array1d(1..11 ,[2, 2, 2, 1, 1, 2, 1, 2, 2, 1, 2]);
next = array1d(1..11 ,[11, 1, 9, 10, 4, 3, 5, 2, 8, 6, 7]);
makespan = 1430;
----------
assign = array1d(1..11 ,[2, 2, 2, 1, 1, 2, 1, 2, 2, 1, 2]);
next = array1d(1..11 ,[11, 1, 9, 10, 4, 3, 5, 2, 8, 6, 7]);
makespan = 1429;
----------
assign = array1d(1..11 ,[2, 2, 2, 1, 1, 2, 1, 2, 2, 1, 2]);
next = array1d(1..11 ,[11, 1, 9, 10, 4, 3, 5, 2, 8, 6, 7]);
makespan = 1428;
----------
assign = array1d(1..11 ,[2, 2, 2, 1, 1, 2, 1, 2, 2, 1, 2]);
next = array1d(1..11 ,[11, 1, 9, 10, 4, 3, 5, 2, 8, 6, 7]);
makespan = 1427;
----------
assign = array1d(1..11 ,[2, 2, 2, 1, 1, 2, 1, 2, 2, 1, 2]);
next = array1d(1..11 ,[11, 1, 9, 10, 4, 3, 5, 2, 8, 6, 7]);
makespan = 1426;
----------
assign = array1d(1..11 ,[2, 2, 2, 1, 1, 2, 1, 2, 2, 1, 2]);
next = array1d(1..11 ,[11, 1, 9, 10, 4, 3, 5, 2, 8, 6, 7]);
makespan = 1425;
----------
assign = array1d(1..11 ,[2, 2, 2, 1, 1, 2, 1, 2, 2, 1, 2]);
next = array1d(1..11 ,[11, 1, 9, 10, 4, 3, 5, 2, 8, 6, 7]);
makespan = 1424;
----------
assign = array1d(1..11 ,[2, 2, 2, 1, 1, 2, 1, 2, 2, 1, 2]);
next = array1d(1..11 ,[11, 1, 9, 10, 4, 3, 5, 2, 8, 6, 7]);
makespan = 1423;
----------
assign = array1d(1..11 ,[2, 2, 2, 1, 1, 2, 1, 2, 2, 1, 2]);
next = array1d(1..11 ,[11, 1, 9, 10, 4, 3, 5, 2, 8, 6, 7]);
makespan = 1422;
----------
assign = array1d(1..11 ,[2, 2, 2, 1, 1, 2, 1, 2, 2, 1, 2]);
next = array1d(1..11 ,[11, 1, 9, 10, 4, 3, 5, 2, 8, 6, 7]);
makespan = 1421;
----------
assign = array1d(1..11 ,[2, 2, 2, 1, 1, 2, 1, 2, 2, 1, 2]);
next = array1d(1..11 ,[11, 1, 9, 10, 4, 3, 5, 2, 8, 6, 7]);
makespan = 1420;
----------
assign = array1d(1..11 ,[2, 2, 2, 1, 1, 2, 1, 2, 2, 1, 2]);
next = array1d(1..11 ,[11, 1, 9, 10, 4, 3, 5, 2, 8, 6, 7]);
makespan = 1418;
----------
assign = array1d(1..11 ,[2, 2, 2, 1, 1, 2, 1, 2, 2, 1, 2]);
next = array1d(1..11 ,[11, 1, 9, 10, 4, 3, 5, 2, 8, 6, 7]);
makespan = 1417;
----------
assign = array1d(1..11 ,[2, 2, 2, 1, 1, 2, 1, 2, 2, 1, 2]);
next = array1d(1..11 ,[11, 1, 9, 10, 4, 3, 5, 2, 8, 6, 7]);
makespan = 1416;
----------
assign = array1d(1..11 ,[2, 2, 2, 1, 1, 2, 1, 2, 2, 1, 2]);
next = array1d(1..11 ,[11, 1, 9, 10, 4, 3, 5, 2, 8, 6, 7]);
makespan = 1414;
----------
assign = array1d(1..11 ,[2, 2, 2, 1, 1, 2, 1, 2, 2, 1, 2]);
next = array1d(1..11 ,[11, 1, 9, 10, 4, 3, 5, 2, 8, 6, 7]);
makespan = 1413;
----------
assign = array1d(1..11 ,[2, 2, 2, 1, 1, 2, 1, 2, 2, 1, 2]);
next = array1d(1..11 ,[11, 1, 9, 10, 4, 3, 5, 2, 8, 6, 7]);
makespan = 1412;
----------
assign = array1d(1..11 ,[2, 2, 2, 1, 1, 2, 1, 2, 2, 1, 2]);
next = array1d(1..11 ,[11, 1, 9, 10, 4, 3, 5, 2, 8, 6, 7]);
makespan = 1410;
----------
assign = array1d(1..11 ,[2, 2, 2, 1, 1, 2, 1, 2, 2, 1, 2]);
next = array1d(1..11 ,[11, 1, 9, 10, 4, 3, 5, 2, 8, 6, 7]);
makespan = 1409;
----------
assign = array1d(1..11 ,[2, 2, 2, 1, 1, 2, 1, 2, 2, 1, 2]);
next = array1d(1..11 ,[11, 1, 9, 10, 4, 3, 5, 2, 8, 6, 7]);
makespan = 1407;
----------
assign = array1d(1..11 ,[2, 2, 2, 1, 1, 2, 1, 2, 2, 1, 2]);
next = array1d(1..11 ,[11, 1, 9, 10, 4, 3, 5, 2, 8, 6, 7]);
makespan = 1406;
----------
assign = array1d(1..11 ,[2, 2, 2, 1, 1, 2, 1, 2, 2, 1, 2]);
next = array1d(1..11 ,[11, 1, 9, 10, 4, 3, 5, 2, 8, 6, 7]);
makespan = 1405;
----------
assign = array1d(1..11 ,[2, 2, 2, 1, 1, 2, 1, 2, 2, 1, 2]);
next = array1d(1..11 ,[11, 1, 9, 10, 4, 3, 5, 2, 8, 6, 7]);
makespan = 1404;
----------
assign = array1d(1..11 ,[2, 2, 2, 1, 1, 2, 1, 2, 2, 1, 2]);
next = array1d(1..11 ,[11, 1, 9, 10, 4, 3, 5, 2, 8, 6, 7]);
makespan = 1402;
----------
assign = array1d(1..11 ,[2, 2, 2, 1, 1, 2, 1, 2, 2, 1, 2]);
next = array1d(1..11 ,[11, 1, 9, 10, 4, 3, 5, 2, 8, 6, 7]);
makespan = 1401;
----------
assign = array1d(1..11 ,[2, 2, 2, 1, 1, 2, 1, 2, 2, 1, 2]);
next = array1d(1..11 ,[11, 1, 9, 10, 4, 3, 5, 2, 8, 6, 7]);
makespan = 1399;
----------
assign = array1d(1..11 ,[2, 2, 2, 1, 1, 2, 1, 2, 2, 1, 2]);
next = array1d(1..11 ,[11, 1, 9, 10, 4, 3, 5, 2, 8, 6, 7]);
makespan = 1398;
----------
assign = array1d(1..11 ,[2, 2, 2, 1, 1, 2, 1, 2, 2, 1, 2]);
next = array1d(1..11 ,[11, 1, 9, 10, 4, 3, 5, 2, 8, 6, 7]);
makespan = 1397;
----------
assign = array1d(1..11 ,[2, 2, 2, 1, 1, 2, 1, 2, 2, 1, 2]);
next = array1d(1..11 ,[11, 1, 9, 10, 4, 3, 5, 2, 8, 6, 7]);
makespan = 1396;
----------
assign = array1d(1..11 ,[2, 2, 2, 1, 1, 2, 1, 2, 2, 1, 2]);
next = array1d(1..11 ,[11, 1, 9, 10, 4, 3, 5, 2, 8, 6, 7]);
makespan = 1395;
----------
assign = array1d(1..11 ,[2, 2, 2, 1, 1, 2, 1, 2, 2, 1, 2]);
next = array1d(1..11 ,[11, 1, 9, 10, 4, 3, 5, 2, 8, 6, 7]);
makespan = 1394;
----------
assign = array1d(1..11 ,[2, 2, 2, 1, 1, 2, 1, 2, 2, 1, 2]);
next = array1d(1..11 ,[11, 1, 9, 10, 4, 3, 5, 2, 8, 6, 7]);
makespan = 1393;
----------
assign = array1d(1..11 ,[2, 2, 2, 1, 1, 2, 1, 2, 2, 1, 2]);
next = array1d(1..11 ,[11, 1, 9, 10, 4, 3, 5, 2, 8, 6, 7]);
makespan = 1392;
----------
assign = array1d(1..11 ,[2, 2, 2, 1, 1, 2, 1, 2, 2, 1, 2]);
next = array1d(1..11 ,[11, 1, 9, 10, 4, 3, 5, 2, 8, 6, 7]);
makespan = 1391;
----------
assign = array1d(1..11 ,[2, 2, 2, 1, 1, 2, 1, 2, 2, 1, 2]);
next = array1d(1..11 ,[11, 1, 9, 10, 4, 3, 5, 2, 8, 6, 7]);
makespan = 1390;
----------
assign = array1d(1..11 ,[2, 2, 2, 1, 1, 2, 1, 2, 2, 1, 2]);
next = array1d(1..11 ,[11, 1, 9, 10, 4, 3, 5, 2, 8, 6, 7]);
makespan = 1389;
----------
assign = array1d(1..11 ,[2, 2, 2, 1, 1, 2, 1, 2, 2, 1, 2]);
next = array1d(1..11 ,[11, 1, 9, 10, 4, 3, 5, 2, 8, 6, 7]);
makespan = 1387;
----------
assign = array1d(1..11 ,[2, 2, 2, 1, 1, 2, 1, 2, 2, 1, 2]);
next = array1d(1..11 ,[11, 1, 9, 10, 4, 3, 5, 2, 8, 6, 7]);
makespan = 1386;
----------
assign = array1d(1..11 ,[2, 2, 2, 1, 1, 2, 1, 2, 2, 1, 2]);
next = array1d(1..11 ,[11, 1, 9, 10, 4, 3, 5, 2, 8, 6, 7]);
makespan = 1385;
----------
assign = array1d(1..11 ,[2, 2, 2, 1, 1, 2, 1, 2, 2, 1, 2]);
next = array1d(1..11 ,[11, 1, 9, 10, 4, 3, 5, 2, 8, 6, 7]);
makespan = 1384;
----------
assign = array1d(1..11 ,[2, 2, 2, 1, 1, 2, 1, 2, 2, 1, 2]);
next = array1d(1..11 ,[11, 1, 9, 10, 4, 3, 5, 2, 8, 6, 7]);
makespan = 1383;
----------
assign = array1d(1..11 ,[2, 2, 2, 1, 1, 2, 1, 2, 2, 1, 2]);
next = array1d(1..11 ,[11, 1, 9, 10, 4, 3, 5, 2, 8, 6, 7]);
makespan = 1382;
----------
assign = array1d(1..11 ,[2, 2, 2, 1, 1, 2, 1, 2, 2, 1, 2]);
next = array1d(1..11 ,[11, 1, 9, 10, 4, 3, 5, 2, 8, 6, 7]);
makespan = 1381;
----------
assign = array1d(1..11 ,[2, 2, 2, 1, 1, 2, 1, 2, 2, 1, 2]);
next = array1d(1..11 ,[11, 1, 9, 10, 4, 3, 5, 2, 8, 6, 7]);
makespan = 1380;
----------
assign = array1d(1..11 ,[2, 2, 2, 1, 1, 2, 1, 2, 2, 1, 2]);
next = array1d(1..11 ,[11, 1, 9, 10, 4, 3, 5, 2, 8, 6, 7]);
makespan = 1379;
----------
assign = array1d(1..11 ,[2, 2, 2, 1, 1, 2, 1, 2, 2, 1, 2]);
next = array1d(1..11 ,[11, 1, 9, 10, 4, 3, 5, 2, 8, 6, 7]);
makespan = 1378;
----------
assign = array1d(1..11 ,[2, 2, 2, 1, 1, 2, 1, 2, 2, 1, 2]);
next = array1d(1..11 ,[11, 1, 9, 10, 4, 3, 5, 2, 8, 6, 7]);
makespan = 1376;
----------
assign = array1d(1..11 ,[2, 2, 2, 1, 1, 2, 1, 2, 2, 1, 2]);
next = array1d(1..11 ,[11, 1, 9, 10, 4, 3, 5, 2, 8, 6, 7]);
makespan = 1375;
----------
assign = array1d(1..11 ,[2, 2, 2, 1, 1, 2, 1, 2, 2, 1, 2]);
next = array1d(1..11 ,[11, 1, 9, 10, 4, 3, 5, 2, 8, 6, 7]);
makespan = 1372;
----------
assign = array1d(1..11 ,[2, 2, 2, 1, 1, 2, 1, 2, 2, 1, 2]);
next = array1d(1..11 ,[11, 1, 9, 10, 4, 3, 5, 2, 8, 6, 7]);
makespan = 1371;
----------
assign = array1d(1..11 ,[2, 2, 2, 1, 1, 2, 1, 2, 2, 1, 2]);
next = array1d(1..11 ,[11, 1, 9, 10, 4, 3, 5, 2, 8, 6, 7]);
makespan = 1370;
----------
assign = array1d(1..11 ,[2, 2, 2, 1, 1, 2, 1, 2, 2, 1, 2]);
next = array1d(1..11 ,[11, 1, 9, 10, 4, 3, 5, 2, 8, 6, 7]);
makespan = 1368;
----------
assign = array1d(1..11 ,[2, 2, 2, 1, 1, 2, 1, 2, 2, 1, 2]);
next = array1d(1..11 ,[11, 1, 9, 10, 4, 3, 5, 2, 8, 6, 7]);
makespan = 1367;
----------
assign = array1d(1..11 ,[2, 2, 2, 1, 1, 2, 1, 2, 2, 1, 2]);
next = array1d(1..11 ,[11, 1, 9, 10, 4, 3, 5, 2, 8, 6, 7]);
makespan = 1365;
----------
assign = array1d(1..11 ,[2, 2, 2, 1, 1, 2, 1, 2, 2, 1, 2]);
next = array1d(1..11 ,[11, 1, 9, 10, 4, 3, 5, 2, 8, 6, 7]);
makespan = 1364;
----------
assign = array1d(1..11 ,[2, 2, 2, 1, 1, 2, 1, 2, 2, 1, 2]);
next = array1d(1..11 ,[11, 1, 9, 10, 4, 3, 5, 2, 8, 6, 7]);
makespan = 1363;
----------
assign = array1d(1..11 ,[2, 2, 2, 1, 1, 2, 1, 2, 2, 1, 2]);
next = array1d(1..11 ,[11, 1, 9, 10, 4, 3, 5, 2, 8, 6, 7]);
makespan = 1360;
----------
assign = array1d(1..11 ,[2, 2, 2, 1, 1, 2, 1, 2, 2, 1, 2]);
next = array1d(1..11 ,[11, 1, 9, 10, 4, 3, 5, 2, 8, 6, 7]);
makespan = 1359;
----------
assign = array1d(1..11 ,[2, 2, 2, 1, 1, 2, 1, 2, 2, 1, 2]);
next = array1d(1..11 ,[11, 1, 9, 10, 4, 3, 5, 2, 8, 6, 7]);
makespan = 1357;
----------
assign = array1d(1..11 ,[2, 2, 2, 1, 1, 2, 1, 2, 2, 1, 2]);
next = array1d(1..11 ,[11, 1, 9, 10, 4, 3, 5, 2, 8, 6, 7]);
makespan = 1356;
----------
assign = array1d(1..11 ,[2, 2, 2, 1, 1, 2, 1, 2, 2, 1, 2]);
next = array1d(1..11 ,[11, 1, 9, 10, 4, 3, 5, 2, 8, 6, 7]);
makespan = 1353;
----------
assign = array1d(1..11 ,[2, 2, 2, 1, 1, 2, 1, 2, 2, 1, 2]);
next = array1d(1..11 ,[11, 1, 9, 10, 4, 3, 5, 2, 8, 6, 7]);
makespan = 1351;
----------
assign = array1d(1..11 ,[2, 2, 2, 1, 1, 2, 1, 2, 2, 1, 2]);
next = array1d(1..11 ,[11, 1, 9, 10, 4, 3, 5, 2, 8, 6, 7]);
makespan = 1348;
----------
assign = array1d(1..11 ,[2, 2, 2, 1, 1, 2, 1, 2, 2, 1, 2]);
next = array1d(1..11 ,[11, 1, 9, 10, 4, 3, 5, 2, 8, 6, 7]);
makespan = 1344;
----------
assign = array1d(1..11 ,[2, 2, 2, 1, 1, 2, 1, 2, 2, 1, 2]);
next = array1d(1..11 ,[11, 1, 9, 10, 4, 3, 5, 2, 8, 6, 7]);
makespan = 1337;
----------
assign = array1d(1..11 ,[2, 2, 2, 1, 1, 2, 1, 2, 2, 1, 2]);
next = array1d(1..11 ,[11, 1, 9, 10, 4, 3, 5, 2, 8, 6, 7]);
makespan = 1333;
----------
assign = array1d(1..11 ,[2, 2, 2, 1, 1, 2, 1, 2, 2, 1, 2]);
next = array1d(1..11 ,[11, 1, 9, 10, 4, 3, 5, 2, 8, 6, 7]);
makespan = 1324;
----------
assign = array1d(1..11 ,[2, 2, 2, 1, 1, 2, 1, 2, 2, 1, 2]);
next = array1d(1..11 ,[11, 1, 9, 10, 4, 3, 5, 2, 8, 6, 7]);
makespan = 1316;
----------
assign = array1d(1..11 ,[2, 2, 2, 1, 1, 2, 1, 2, 2, 1, 2]);
next = array1d(1..11 ,[11, 1, 9, 10, 4, 3, 5, 2, 8, 6, 7]);
makespan = 1314;
----------
assign = array1d(1..11 ,[2, 2, 2, 2, 1, 1, 1, 2, 2, 1, 2]);
next = array1d(1..11 ,[4, 1, 9, 11, 6, 10, 5, 2, 8, 3, 7]);
makespan = 1305;
----------
assign = array1d(1..11 ,[2, 1, 2, 2, 1, 2, 1, 2, 2, 1, 2]);
next = array1d(1..11 ,[4, 5, 9, 6, 10, 3, 2, 11, 8, 1, 7]);
makespan = 1301;
----------
assign = array1d(1..11 ,[2, 2, 2, 1, 1, 1, 1, 2, 2, 1, 2]);
next = array1d(1..11 ,[11, 1, 9, 6, 4, 10, 5, 2, 8, 3, 7]);
makespan = 1298;
----------
assign = array1d(1..11 ,[2, 2, 2, 1, 1, 1, 1, 2, 2, 1, 2]);
next = array1d(1..11 ,[11, 1, 9, 6, 4, 10, 5, 2, 8, 3, 7]);
makespan = 1297;
----------
assign = array1d(1..11 ,[2, 2, 2, 1, 1, 1, 1, 2, 2, 1, 2]);
next = array1d(1..11 ,[11, 1, 9, 6, 4, 10, 5, 2, 8, 3, 7]);
makespan = 1296;
----------
assign = array1d(1..11 ,[2, 2, 2, 1, 1, 1, 1, 2, 2, 1, 2]);
next = array1d(1..11 ,[11, 1, 9, 6, 4, 10, 5, 2, 8, 3, 7]);
makespan = 1293;
----------
assign = array1d(1..11 ,[2, 2, 2, 1, 1, 1, 1, 2, 2, 1, 2]);
next = array1d(1..11 ,[11, 1, 9, 6, 4, 10, 5, 2, 8, 3, 7]);
makespan = 1292;
----------
assign = array1d(1..11 ,[2, 2, 2, 1, 1, 1, 1, 2, 2, 1, 2]);
next = array1d(1..11 ,[11, 1, 9, 6, 4, 10, 5, 2, 8, 3, 7]);
makespan = 1290;
----------
assign = array1d(1..11 ,[2, 2, 2, 1, 1, 1, 1, 2, 2, 1, 2]);
next = array1d(1..11 ,[11, 1, 9, 6, 4, 10, 5, 2, 8, 3, 7]);
makespan = 1289;
----------
assign = array1d(1..11 ,[2, 2, 2, 1, 1, 1, 1, 2, 2, 1, 2]);
next = array1d(1..11 ,[11, 1, 9, 6, 4, 10, 5, 2, 8, 3, 7]);
makespan = 1286;
----------
assign = array1d(1..11 ,[2, 2, 2, 1, 1, 1, 1, 2, 2, 1, 2]);
next = array1d(1..11 ,[11, 1, 9, 6, 4, 10, 5, 2, 8, 3, 7]);
makespan = 1285;
----------
assign = array1d(1..11 ,[2, 2, 2, 1, 1, 1, 1, 2, 2, 1, 2]);
next = array1d(1..11 ,[11, 1, 9, 6, 4, 10, 5, 2, 8, 3, 7]);
makespan = 1284;
----------
assign = array1d(1..11 ,[2, 2, 2, 1, 1, 1, 1, 2, 2, 1, 2]);
next = array1d(1..11 ,[11, 1, 9, 6, 4, 10, 5, 2, 8, 3, 7]);
makespan = 1282;
----------
assign = array1d(1..11 ,[2, 2, 2, 1, 1, 1, 1, 2, 2, 1, 2]);
next = array1d(1..11 ,[11, 1, 9, 6, 4, 10, 5, 2, 8, 3, 7]);
makespan = 1281;
----------
assign = array1d(1..11 ,[2, 2, 2, 1, 1, 1, 1, 2, 2, 1, 2]);
next = array1d(1..11 ,[11, 1, 9, 6, 4, 10, 5, 2, 8, 3, 7]);
makespan = 1279;
----------
assign = array1d(1..11 ,[2, 2, 2, 1, 1, 1, 1, 2, 2, 1, 2]);
next = array1d(1..11 ,[11, 1, 9, 6, 4, 10, 5, 2, 8, 3, 7]);
makespan = 1278;
----------
assign = array1d(1..11 ,[2, 2, 2, 1, 1, 1, 1, 2, 2, 1, 2]);
next = array1d(1..11 ,[11, 1, 9, 6, 4, 10, 5, 2, 8, 3, 7]);
makespan = 1277;
----------
assign = array1d(1..11 ,[2, 2, 2, 1, 1, 1, 1, 2, 2, 1, 2]);
next = array1d(1..11 ,[11, 1, 9, 6, 4, 10, 5, 2, 8, 3, 7]);
makespan = 1276;
----------
assign = array1d(1..11 ,[2, 2, 2, 1, 1, 1, 1, 2, 2, 1, 2]);
next = array1d(1..11 ,[11, 1, 9, 6, 4, 10, 5, 2, 8, 3, 7]);
makespan = 1274;
----------
assign = array1d(1..11 ,[2, 2, 2, 1, 1, 1, 1, 2, 2, 1, 2]);
next = array1d(1..11 ,[11, 1, 9, 6, 4, 10, 5, 2, 8, 3, 7]);
makespan = 1273;
----------
assign = array1d(1..11 ,[2, 2, 2, 1, 1, 1, 1, 2, 2, 1, 2]);
next = array1d(1..11 ,[11, 1, 9, 6, 4, 10, 5, 2, 8, 3, 7]);
makespan = 1271;
----------
assign = array1d(1..11 ,[2, 2, 2, 1, 1, 1, 1, 2, 2, 1, 2]);
next = array1d(1..11 ,[11, 1, 9, 6, 4, 10, 5, 2, 8, 3, 7]);
makespan = 1270;
----------
assign = array1d(1..11 ,[2, 2, 2, 1, 1, 1, 1, 2, 2, 1, 2]);
next = array1d(1..11 ,[11, 1, 9, 6, 4, 10, 5, 2, 8, 3, 7]);
makespan = 1269;
----------
assign = array1d(1..11 ,[2, 2, 2, 1, 1, 1, 1, 2, 2, 1, 2]);
next = array1d(1..11 ,[11, 1, 9, 6, 4, 10, 5, 2, 8, 3, 7]);
makespan = 1268;
----------
assign = array1d(1..11 ,[2, 2, 2, 1, 1, 1, 1, 2, 2, 1, 2]);
next = array1d(1..11 ,[11, 1, 9, 6, 4, 10, 5, 2, 8, 3, 7]);
makespan = 1267;
----------
assign = array1d(1..11 ,[2, 2, 2, 1, 1, 1, 1, 2, 2, 1, 2]);
next = array1d(1..11 ,[11, 1, 9, 6, 4, 10, 5, 2, 8, 3, 7]);
makespan = 1266;
----------
assign = array1d(1..11 ,[2, 2, 2, 1, 1, 1, 1, 2, 2, 1, 2]);
next = array1d(1..11 ,[11, 1, 9, 6, 4, 10, 5, 2, 8, 3, 7]);
makespan = 1265;
----------
assign = array1d(1..11 ,[2, 2, 2, 1, 1, 1, 1, 2, 2, 1, 2]);
next = array1d(1..11 ,[11, 1, 9, 6, 4, 10, 5, 2, 8, 3, 7]);
makespan = 1264;
----------
assign = array1d(1..11 ,[2, 2, 2, 1, 1, 1, 1, 2, 2, 1, 2]);
next = array1d(1..11 ,[11, 1, 9, 6, 4, 10, 5, 2, 8, 3, 7]);
makespan = 1263;
----------
assign = array1d(1..11 ,[2, 2, 2, 1, 1, 1, 1, 2, 2, 1, 2]);
next = array1d(1..11 ,[11, 1, 9, 6, 4, 10, 5, 2, 8, 3, 7]);
makespan = 1262;
----------
assign = array1d(1..11 ,[2, 2, 2, 1, 1, 1, 1, 2, 2, 1, 2]);
next = array1d(1..11 ,[11, 1, 9, 6, 4, 10, 5, 2, 8, 3, 7]);
makespan = 1261;
----------
assign = array1d(1..11 ,[2, 2, 2, 1, 1, 1, 1, 2, 2, 1, 2]);
next = array1d(1..11 ,[11, 1, 9, 6, 4, 10, 5, 2, 8, 3, 7]);
makespan = 1260;
----------
assign = array1d(1..11 ,[2, 2, 2, 1, 1, 1, 1, 2, 2, 1, 2]);
next = array1d(1..11 ,[11, 1, 9, 6, 4, 10, 5, 2, 8, 3, 7]);
makespan = 1259;
----------
assign = array1d(1..11 ,[2, 2, 2, 1, 1, 1, 1, 2, 2, 1, 2]);
next = array1d(1..11 ,[11, 1, 9, 6, 4, 10, 5, 2, 8, 3, 7]);
makespan = 1258;
----------
assign = array1d(1..11 ,[2, 2, 2, 1, 1, 1, 1, 2, 2, 1, 2]);
next = array1d(1..11 ,[11, 1, 9, 6, 4, 10, 5, 2, 8, 3, 7]);
makespan = 1257;
----------
assign = array1d(1..11 ,[2, 2, 2, 1, 1, 1, 1, 2, 2, 1, 2]);
next = array1d(1..11 ,[11, 1, 9, 6, 4, 10, 5, 2, 8, 3, 7]);
makespan = 1256;
----------
assign = array1d(1..11 ,[2, 2, 2, 1, 1, 1, 1, 2, 2, 1, 2]);
next = array1d(1..11 ,[11, 1, 9, 6, 4, 10, 5, 2, 8, 3, 7]);
makespan = 1255;
----------
assign = array1d(1..11 ,[2, 2, 2, 1, 1, 1, 1, 2, 2, 1, 2]);
next = array1d(1..11 ,[11, 1, 9, 6, 4, 10, 5, 2, 8, 3, 7]);
makespan = 1254;
----------
assign = array1d(1..11 ,[2, 2, 2, 1, 1, 1, 1, 2, 2, 1, 2]);
next = array1d(1..11 ,[11, 1, 9, 6, 4, 10, 5, 2, 8, 3, 7]);
makespan = 1253;
----------
assign = array1d(1..11 ,[2, 2, 2, 1, 1, 1, 1, 2, 2, 1, 2]);
next = array1d(1..11 ,[11, 1, 9, 6, 4, 10, 5, 2, 8, 3, 7]);
makespan = 1252;
----------
assign = array1d(1..11 ,[2, 2, 2, 1, 1, 1, 1, 2, 2, 1, 2]);
next = array1d(1..11 ,[11, 1, 9, 6, 4, 10, 5, 2, 8, 3, 7]);
makespan = 1251;
----------
assign = array1d(1..11 ,[2, 2, 2, 1, 1, 1, 1, 2, 2, 1, 2]);
next = array1d(1..11 ,[11, 1, 9, 6, 4, 10, 5, 2, 8, 3, 7]);
makespan = 1250;
----------
assign = array1d(1..11 ,[2, 2, 2, 1, 1, 1, 1, 2, 2, 1, 2]);
next = array1d(1..11 ,[11, 1, 9, 6, 4, 10, 5, 2, 8, 3, 7]);
makespan = 1248;
----------
assign = array1d(1..11 ,[2, 2, 2, 1, 1, 1, 1, 2, 2, 1, 2]);
next = array1d(1..11 ,[11, 1, 9, 6, 4, 10, 5, 2, 8, 3, 7]);
makespan = 1247;
----------
assign = array1d(1..11 ,[2, 2, 2, 1, 1, 1, 1, 2, 2, 1, 2]);
next = array1d(1..11 ,[11, 1, 9, 6, 4, 10, 5, 2, 8, 3, 7]);
makespan = 1244;
----------
assign = array1d(1..11 ,[2, 2, 2, 1, 1, 1, 1, 2, 2, 1, 2]);
next = array1d(1..11 ,[11, 1, 9, 6, 4, 10, 5, 2, 8, 3, 7]);
makespan = 1243;
----------
assign = array1d(1..11 ,[2, 2, 2, 1, 1, 1, 1, 2, 2, 1, 2]);
next = array1d(1..11 ,[11, 1, 9, 6, 4, 10, 5, 2, 8, 3, 7]);
makespan = 1242;
----------
assign = array1d(1..11 ,[2, 2, 2, 1, 1, 1, 1, 2, 2, 1, 2]);
next = array1d(1..11 ,[11, 1, 9, 6, 4, 10, 5, 2, 8, 3, 7]);
makespan = 1241;
----------
assign = array1d(1..11 ,[2, 2, 2, 1, 1, 1, 1, 2, 2, 1, 2]);
next = array1d(1..11 ,[11, 1, 9, 6, 4, 10, 5, 2, 8, 3, 7]);
makespan = 1240;
----------
assign = array1d(1..11 ,[2, 2, 2, 1, 1, 1, 1, 2, 2, 1, 2]);
next = array1d(1..11 ,[11, 1, 9, 6, 4, 10, 5, 2, 8, 3, 7]);
makespan = 1239;
----------
assign = array1d(1..11 ,[2, 2, 2, 1, 1, 1, 1, 2, 2, 1, 2]);
next = array1d(1..11 ,[11, 1, 9, 6, 4, 10, 5, 2, 8, 3, 7]);
makespan = 1237;
----------
assign = array1d(1..11 ,[2, 2, 2, 1, 1, 1, 1, 2, 2, 1, 2]);
next = array1d(1..11 ,[11, 1, 9, 6, 4, 10, 5, 2, 8, 3, 7]);
makespan = 1236;
----------
assign = array1d(1..11 ,[2, 2, 2, 1, 1, 1, 1, 2, 2, 1, 2]);
next = array1d(1..11 ,[11, 1, 9, 6, 4, 10, 5, 2, 8, 3, 7]);
makespan = 1235;
----------
assign = array1d(1..11 ,[2, 2, 2, 1, 1, 1, 1, 2, 2, 1, 2]);
next = array1d(1..11 ,[11, 1, 9, 6, 4, 10, 5, 2, 8, 3, 7]);
makespan = 1233;
----------
assign = array1d(1..11 ,[2, 2, 2, 1, 1, 1, 1, 2, 2, 1, 2]);
next = array1d(1..11 ,[11, 1, 9, 6, 4, 10, 5, 2, 8, 3, 7]);
makespan = 1232;
----------
assign = array1d(1..11 ,[2, 2, 2, 1, 1, 1, 1, 2, 2, 1, 2]);
next = array1d(1..11 ,[11, 1, 9, 6, 4, 10, 5, 2, 8, 3, 7]);
makespan = 1231;
----------
assign = array1d(1..11 ,[2, 2, 2, 1, 1, 1, 1, 2, 2, 1, 2]);
next = array1d(1..11 ,[11, 1, 9, 6, 4, 10, 5, 2, 8, 3, 7]);
makespan = 1229;
----------
assign = array1d(1..11 ,[2, 2, 2, 1, 1, 1, 1, 2, 2, 1, 2]);
next = array1d(1..11 ,[11, 1, 9, 6, 4, 10, 5, 2, 8, 3, 7]);
makespan = 1228;
----------
assign = array1d(1..11 ,[2, 2, 2, 1, 1, 1, 1, 2, 2, 1, 2]);
next = array1d(1..11 ,[11, 1, 9, 6, 4, 10, 5, 2, 8, 3, 7]);
makespan = 1227;
----------
assign = array1d(1..11 ,[2, 2, 2, 1, 1, 1, 1, 2, 2, 1, 2]);
next = array1d(1..11 ,[11, 1, 9, 6, 4, 10, 5, 2, 8, 3, 7]);
makespan = 1226;
----------
assign = array1d(1..11 ,[2, 2, 2, 1, 1, 1, 1, 2, 2, 1, 2]);
next = array1d(1..11 ,[11, 1, 9, 6, 4, 10, 5, 2, 8, 3, 7]);
makespan = 1225;
----------
assign = array1d(1..11 ,[2, 2, 2, 1, 1, 1, 1, 2, 2, 1, 2]);
next = array1d(1..11 ,[11, 1, 9, 6, 4, 10, 5, 2, 8, 3, 7]);
makespan = 1224;
----------
assign = array1d(1..11 ,[2, 2, 2, 1, 1, 1, 1, 2, 2, 1, 2]);
next = array1d(1..11 ,[11, 1, 9, 6, 4, 10, 5, 2, 8, 3, 7]);
makespan = 1223;
----------
assign = array1d(1..11 ,[2, 2, 2, 1, 1, 1, 1, 2, 2, 1, 2]);
next = array1d(1..11 ,[11, 1, 9, 6, 4, 10, 5, 2, 8, 3, 7]);
makespan = 1222;
----------
assign = array1d(1..11 ,[2, 2, 2, 1, 1, 1, 1, 2, 2, 1, 2]);
next = array1d(1..11 ,[11, 1, 9, 6, 4, 10, 5, 2, 8, 3, 7]);
makespan = 1221;
----------
assign = array1d(1..11 ,[2, 2, 2, 1, 1, 1, 1, 2, 2, 1, 2]);
next = array1d(1..11 ,[11, 1, 9, 6, 4, 10, 5, 2, 8, 3, 7]);
makespan = 1220;
----------
assign = array1d(1..11 ,[2, 2, 2, 1, 1, 1, 1, 2, 2, 1, 2]);
next = array1d(1..11 ,[11, 1, 9, 6, 4, 10, 5, 2, 8, 3, 7]);
makespan = 1217;
----------
assign = array1d(1..11 ,[2, 2, 2, 1, 1, 1, 1, 2, 2, 1, 2]);
next = array1d(1..11 ,[11, 1, 9, 6, 4, 10, 5, 2, 8, 3, 7]);
makespan = 1216;
----------
assign = array1d(1..11 ,[2, 2, 2, 1, 1, 1, 1, 2, 2, 1, 2]);
next = array1d(1..11 ,[11, 1, 9, 6, 4, 10, 5, 2, 8, 3, 7]);
makespan = 1214;
----------
assign = array1d(1..11 ,[2, 2, 2, 1, 1, 1, 1, 2, 2, 1, 2]);
next = array1d(1..11 ,[11, 1, 9, 6, 4, 10, 5, 2, 8, 3, 7]);
makespan = 1213;
----------
assign = array1d(1..11 ,[2, 2, 2, 1, 1, 1, 1, 2, 2, 1, 2]);
next = array1d(1..11 ,[11, 1, 9, 6, 4, 10, 5, 2, 8, 3, 7]);
makespan = 1212;
----------
assign = array1d(1..11 ,[2, 2, 2, 1, 1, 1, 1, 2, 2, 1, 2]);
next = array1d(1..11 ,[11, 1, 9, 6, 4, 10, 5, 2, 8, 3, 7]);
makespan = 1208;
----------
assign = array1d(1..11 ,[2, 2, 2, 1, 1, 1, 1, 2, 2, 1, 2]);
next = array1d(1..11 ,[11, 1, 9, 6, 4, 10, 5, 2, 8, 3, 7]);
makespan = 1205;
----------
assign = array1d(1..11 ,[2, 2, 2, 1, 1, 1, 1, 2, 2, 1, 2]);
next = array1d(1..11 ,[11, 1, 9, 6, 4, 10, 5, 2, 8, 3, 7]);
makespan = 1202;
----------
assign = array1d(1..11 ,[2, 2, 2, 1, 1, 1, 1, 2, 2, 1, 2]);
next = array1d(1..11 ,[11, 1, 9, 6, 4, 10, 5, 2, 8, 3, 7]);
makespan = 1197;
----------
assign = array1d(1..11 ,[2, 2, 2, 1, 1, 1, 1, 2, 2, 1, 2]);
next = array1d(1..11 ,[11, 1, 9, 6, 4, 10, 5, 2, 8, 3, 7]);
makespan = 1194;
----------
assign = array1d(1..11 ,[2, 2, 2, 1, 1, 1, 1, 2, 2, 1, 2]);
next = array1d(1..11 ,[11, 1, 9, 6, 4, 10, 5, 2, 8, 3, 7]);
makespan = 1190;
----------
assign = array1d(1..11 ,[2, 2, 2, 1, 1, 1, 1, 2, 2, 1, 2]);
next = array1d(1..11 ,[11, 1, 9, 6, 4, 10, 5, 2, 8, 3, 7]);
makespan = 1179;
----------
assign = array1d(1..11 ,[2, 2, 2, 1, 1, 1, 1, 2, 2, 1, 2]);
next = array1d(1..11 ,[11, 1, 9, 6, 4, 10, 5, 2, 8, 3, 7]);
makespan = 1178;
----------
assign = array1d(1..11 ,[2, 2, 2, 1, 1, 1, 1, 2, 2, 1, 2]);
next = array1d(1..11 ,[11, 1, 9, 6, 4, 10, 5, 2, 8, 3, 7]);
makespan = 1171;
----------
assign = array1d(1..11 ,[2, 2, 2, 1, 1, 1, 1, 2, 2, 1, 2]);
next = array1d(1..11 ,[11, 1, 9, 6, 4, 10, 5, 2, 8, 3, 7]);
makespan = 1170;
----------
assign = array1d(1..11 ,[2, 2, 2, 1, 1, 1, 1, 2, 2, 1, 2]);
next = array1d(1..11 ,[11, 1, 9, 6, 4, 10, 5, 2, 8, 3, 7]);
makespan = 1168;
----------
assign = array1d(1..11 ,[2, 2, 2, 1, 1, 1, 1, 2, 2, 1, 2]);
next = array1d(1..11 ,[11, 1, 9, 6, 4, 10, 5, 2, 8, 3, 7]);
makespan = 1167;
----------
assign = array1d(1..11 ,[2, 2, 2, 1, 1, 1, 1, 2, 2, 1, 2]);
next = array1d(1..11 ,[11, 1, 9, 6, 4, 10, 5, 2, 8, 3, 7]);
makespan = 1164;
----------
assign = array1d(1..11 ,[2, 2, 2, 1, 1, 1, 1, 2, 2, 1, 2]);
next = array1d(1..11 ,[11, 1, 9, 6, 4, 10, 5, 2, 8, 3, 7]);
makespan = 1162;
----------
assign = array1d(1..11 ,[2, 2, 2, 1, 1, 1, 1, 2, 2, 1, 2]);
next = array1d(1..11 ,[11, 1, 9, 6, 4, 10, 5, 2, 8, 3, 7]);
makespan = 1161;
----------
assign = array1d(1..11 ,[2, 2, 2, 1, 1, 1, 1, 2, 2, 1, 2]);
next = array1d(1..11 ,[11, 1, 9, 6, 4, 10, 5, 2, 8, 3, 7]);
makespan = 1154;
----------
assign = array1d(1..11 ,[2, 2, 2, 1, 1, 1, 1, 2, 2, 1, 2]);
next = array1d(1..11 ,[11, 1, 9, 6, 4, 10, 5, 2, 8, 3, 7]);
makespan = 1153;
----------
assign = array1d(1..11 ,[2, 2, 2, 1, 1, 1, 1, 2, 2, 1, 2]);
next = array1d(1..11 ,[11, 1, 9, 6, 4, 10, 5, 2, 8, 3, 7]);
makespan = 1146;
----------
assign = array1d(1..11 ,[2, 2, 2, 1, 1, 1, 1, 2, 2, 1, 2]);
next = array1d(1..11 ,[11, 1, 9, 6, 4, 10, 5, 2, 8, 3, 7]);
makespan = 1145;
----------
assign = array1d(1..11 ,[2, 2, 2, 1, 1, 1, 1, 2, 2, 1, 2]);
next = array1d(1..11 ,[11, 1, 9, 6, 4, 10, 5, 2, 8, 3, 7]);
makespan = 1144;
----------
assign = array1d(1..11 ,[2, 2, 2, 1, 1, 1, 1, 2, 2, 1, 2]);
next = array1d(1..11 ,[11, 1, 9, 6, 4, 10, 5, 2, 8, 3, 7]);
makespan = 1143;
----------
assign = array1d(1..11 ,[2, 2, 2, 1, 1, 1, 1, 2, 2, 1, 2]);
next = array1d(1..11 ,[11, 1, 9, 6, 4, 10, 5, 2, 8, 3, 7]);
makespan = 1142;
----------
assign = array1d(1..11 ,[2, 2, 2, 1, 1, 1, 1, 2, 2, 1, 2]);
next = array1d(1..11 ,[11, 1, 9, 6, 4, 10, 5, 2, 8, 3, 7]);
makespan = 1138;
----------
assign = array1d(1..11 ,[2, 2, 2, 1, 1, 1, 1, 2, 2, 1, 2]);
next = array1d(1..11 ,[11, 1, 9, 6, 4, 10, 5, 2, 8, 3, 7]);
makespan = 1135;
----------
assign = array1d(1..11 ,[2, 2, 2, 1, 1, 1, 1, 2, 2, 1, 2]);
next = array1d(1..11 ,[11, 1, 9, 6, 4, 10, 5, 2, 8, 3, 7]);
makespan = 1132;
----------
assign = array1d(1..11 ,[2, 2, 2, 1, 1, 1, 1, 2, 2, 1, 2]);
next = array1d(1..11 ,[11, 1, 9, 6, 4, 10, 5, 2, 8, 3, 7]);
makespan = 1131;
----------
assign = array1d(1..11 ,[2, 2, 2, 1, 1, 1, 1, 2, 2, 1, 2]);
next = array1d(1..11 ,[11, 1, 9, 6, 4, 10, 5, 2, 8, 3, 7]);
makespan = 1130;
----------
assign = array1d(1..11 ,[2, 2, 2, 1, 1, 1, 1, 2, 2, 1, 2]);
next = array1d(1..11 ,[11, 1, 9, 6, 4, 10, 5, 2, 8, 3, 7]);
makespan = 1128;
----------
assign = array1d(1..11 ,[2, 2, 2, 1, 1, 1, 1, 2, 2, 1, 2]);
next = array1d(1..11 ,[11, 1, 9, 6, 4, 10, 5, 2, 8, 3, 7]);
makespan = 1127;
----------
assign = array1d(1..11 ,[2, 2, 2, 1, 1, 1, 1, 2, 2, 1, 2]);
next = array1d(1..11 ,[11, 1, 9, 6, 4, 10, 5, 2, 8, 3, 7]);
makespan = 1126;
----------
assign = array1d(1..11 ,[2, 2, 2, 1, 1, 1, 1, 2, 2, 1, 2]);
next = array1d(1..11 ,[11, 1, 9, 6, 4, 10, 5, 2, 8, 3, 7]);
makespan = 1125;
----------
assign = array1d(1..11 ,[2, 2, 2, 1, 1, 1, 1, 2, 2, 1, 2]);
next = array1d(1..11 ,[11, 1, 9, 6, 4, 10, 5, 2, 8, 3, 7]);
makespan = 1123;
----------
assign = array1d(1..11 ,[2, 2, 2, 1, 1, 1, 1, 2, 2, 1, 2]);
next = array1d(1..11 ,[11, 1, 9, 6, 4, 10, 5, 2, 8, 3, 7]);
makespan = 1122;
----------
assign = array1d(1..11 ,[2, 2, 2, 1, 1, 1, 1, 2, 2, 1, 2]);
next = array1d(1..11 ,[11, 1, 9, 6, 4, 10, 5, 2, 8, 3, 7]);
makespan = 1120;
----------
assign = array1d(1..11 ,[2, 2, 2, 1, 1, 1, 1, 2, 2, 1, 2]);
next = array1d(1..11 ,[11, 1, 9, 6, 4, 10, 5, 2, 8, 3, 7]);
makespan = 1119;
----------
assign = array1d(1..11 ,[2, 2, 2, 1, 1, 1, 1, 2, 2, 1, 2]);
next = array1d(1..11 ,[11, 1, 9, 6, 4, 10, 5, 2, 8, 3, 7]);
makespan = 1117;
----------
assign = array1d(1..11 ,[2, 2, 2, 1, 1, 1, 1, 2, 2, 1, 2]);
next = array1d(1..11 ,[11, 1, 9, 6, 4, 10, 5, 2, 8, 3, 7]);
makespan = 1116;
----------
assign = array1d(1..11 ,[2, 2, 2, 1, 1, 1, 1, 2, 2, 1, 2]);
next = array1d(1..11 ,[11, 1, 9, 6, 4, 10, 5, 2, 8, 3, 7]);
makespan = 1114;
----------
assign = array1d(1..11 ,[2, 2, 2, 1, 1, 1, 1, 2, 2, 1, 2]);
next = array1d(1..11 ,[11, 1, 9, 6, 4, 10, 5, 2, 8, 3, 7]);
makespan = 1112;
----------
assign = array1d(1..11 ,[2, 2, 2, 1, 1, 1, 1, 2, 2, 1, 2]);
next = array1d(1..11 ,[11, 1, 9, 6, 4, 10, 5, 2, 8, 3, 7]);
makespan = 1111;
----------
assign = array1d(1..11 ,[2, 2, 2, 1, 1, 1, 1, 2, 2, 1, 2]);
next = array1d(1..11 ,[11, 1, 9, 6, 4, 10, 5, 2, 8, 3, 7]);
makespan = 1109;
----------
assign = array1d(1..11 ,[2, 2, 2, 1, 1, 1, 1, 2, 2, 1, 2]);
next = array1d(1..11 ,[11, 1, 9, 6, 4, 10, 5, 2, 8, 3, 7]);
makespan = 1108;
----------
assign = array1d(1..11 ,[2, 2, 2, 1, 1, 1, 1, 2, 2, 1, 2]);
next = array1d(1..11 ,[11, 1, 9, 6, 4, 10, 5, 2, 8, 3, 7]);
makespan = 1105;
----------
assign = array1d(1..11 ,[2, 2, 2, 1, 1, 1, 1, 2, 2, 1, 2]);
next = array1d(1..11 ,[11, 1, 9, 6, 4, 10, 5, 2, 8, 3, 7]);
makespan = 1104;
----------
assign = array1d(1..11 ,[2, 2, 2, 1, 1, 1, 1, 2, 2, 1, 2]);
next = array1d(1..11 ,[11, 1, 9, 6, 4, 10, 5, 2, 8, 3, 7]);
makespan = 1103;
----------
assign = array1d(1..11 ,[2, 2, 2, 1, 1, 1, 1, 2, 2, 1, 2]);
next = array1d(1..11 ,[11, 1, 9, 6, 4, 10, 5, 2, 8, 3, 7]);
makespan = 1101;
----------
assign = array1d(1..11 ,[2, 2, 2, 1, 1, 1, 1, 2, 2, 1, 2]);
next = array1d(1..11 ,[11, 1, 9, 6, 4, 10, 5, 2, 8, 3, 7]);
makespan = 1100;
----------
assign = array1d(1..11 ,[2, 2, 2, 1, 1, 1, 1, 2, 2, 1, 2]);
next = array1d(1..11 ,[11, 1, 9, 6, 4, 10, 5, 2, 8, 3, 7]);
makespan = 1099;
----------
assign = array1d(1..11 ,[2, 2, 2, 1, 1, 1, 1, 2, 2, 1, 2]);
next = array1d(1..11 ,[11, 1, 9, 6, 4, 10, 5, 2, 8, 3, 7]);
makespan = 1098;
----------
assign = array1d(1..11 ,[2, 2, 2, 1, 1, 1, 1, 2, 2, 1, 2]);
next = array1d(1..11 ,[11, 1, 9, 6, 4, 10, 5, 2, 8, 3, 7]);
makespan = 1097;
----------
assign = array1d(1..11 ,[2, 2, 2, 1, 1, 1, 1, 2, 2, 1, 2]);
next = array1d(1..11 ,[11, 1, 9, 6, 4, 10, 5, 2, 8, 3, 7]);
makespan = 1096;
----------
assign = array1d(1..11 ,[2, 2, 2, 1, 1, 1, 1, 2, 2, 1, 2]);
next = array1d(1..11 ,[11, 1, 9, 6, 4, 10, 5, 2, 8, 3, 7]);
makespan = 1094;
----------
assign = array1d(1..11 ,[2, 2, 2, 1, 1, 1, 1, 2, 2, 1, 2]);
next = array1d(1..11 ,[11, 1, 9, 6, 4, 10, 5, 2, 8, 3, 7]);
makespan = 1093;
----------
assign = array1d(1..11 ,[2, 2, 2, 1, 1, 1, 1, 2, 2, 1, 2]);
next = array1d(1..11 ,[11, 1, 9, 6, 4, 10, 5, 2, 8, 3, 7]);
makespan = 1092;
----------
assign = array1d(1..11 ,[2, 2, 2, 1, 1, 1, 1, 2, 2, 1, 2]);
next = array1d(1..11 ,[11, 1, 9, 6, 4, 10, 5, 2, 8, 3, 7]);
makespan = 1090;
----------
assign = array1d(1..11 ,[2, 2, 2, 1, 1, 1, 1, 2, 2, 1, 2]);
next = array1d(1..11 ,[11, 1, 9, 6, 4, 10, 5, 2, 8, 3, 7]);
makespan = 1089;
----------
assign = array1d(1..11 ,[2, 2, 2, 1, 1, 1, 1, 2, 2, 1, 2]);
next = array1d(1..11 ,[11, 1, 9, 6, 4, 10, 5, 2, 8, 3, 7]);
makespan = 1088;
----------
assign = array1d(1..11 ,[2, 2, 2, 1, 1, 1, 1, 2, 2, 1, 2]);
next = array1d(1..11 ,[11, 1, 9, 6, 4, 10, 5, 2, 8, 3, 7]);
makespan = 1086;
----------
assign = array1d(1..11 ,[2, 2, 2, 1, 1, 1, 1, 2, 2, 1, 2]);
next = array1d(1..11 ,[11, 1, 9, 6, 4, 10, 5, 2, 8, 3, 7]);
makespan = 1085;
----------
assign = array1d(1..11 ,[2, 2, 2, 1, 1, 1, 1, 2, 2, 1, 2]);
next = array1d(1..11 ,[11, 1, 9, 6, 4, 10, 5, 2, 8, 3, 7]);
makespan = 1084;
----------
assign = array1d(1..11 ,[2, 2, 2, 1, 1, 1, 1, 2, 2, 1, 2]);
next = array1d(1..11 ,[11, 1, 9, 6, 4, 10, 5, 2, 8, 3, 7]);
makespan = 1083;
----------
assign = array1d(1..11 ,[2, 2, 2, 1, 1, 1, 1, 2, 2, 1, 2]);
next = array1d(1..11 ,[11, 1, 9, 6, 4, 10, 5, 2, 8, 3, 7]);
makespan = 1081;
----------
assign = array1d(1..11 ,[2, 2, 2, 1, 1, 1, 1, 2, 2, 1, 2]);
next = array1d(1..11 ,[3, 1, 9, 6, 4, 10, 5, 11, 8, 2, 7]);
makespan = 1080;
----------
assign = array1d(1..11 ,[2, 2, 2, 1, 1, 1, 1, 2, 2, 1, 2]);
next = array1d(1..11 ,[3, 1, 9, 6, 4, 10, 5, 11, 8, 2, 7]);
makespan = 1079;
----------
assign = array1d(1..11 ,[1, 2, 2, 1, 1, 2, 1, 2, 2, 1, 2]);
next = array1d(1..11 ,[5, 11, 9, 1, 7, 3, 10, 2, 8, 6, 4]);
makespan = 1078;
----------
assign = array1d(1..11 ,[2, 2, 2, 1, 1, 1, 1, 2, 2, 1, 2]);
next = array1d(1..11 ,[11, 1, 2, 6, 4, 10, 5, 3, 8, 9, 7]);
makespan = 1077;
----------
assign = array1d(1..11 ,[2, 2, 2, 1, 1, 1, 1, 2, 2, 1, 2]);
next = array1d(1..11 ,[11, 1, 2, 6, 4, 10, 5, 3, 8, 9, 7]);
makespan = 1074;
----------
assign = array1d(1..11 ,[2, 2, 2, 1, 1, 1, 1, 2, 2, 1, 2]);
next = array1d(1..11 ,[11, 1, 2, 6, 4, 10, 5, 3, 8, 9, 7]);
makespan = 1073;
----------
assign = array1d(1..11 ,[2, 2, 2, 1, 1, 1, 1, 2, 2, 1, 2]);
next = array1d(1..11 ,[11, 1, 2, 6, 4, 10, 5, 3, 8, 9, 7]);
makespan = 1071;
----------
assign = array1d(1..11 ,[2, 2, 2, 1, 1, 1, 1, 2, 2, 1, 2]);
next = array1d(1..11 ,[11, 1, 2, 6, 4, 10, 5, 3, 8, 9, 7]);
makespan = 1069;
----------
assign = array1d(1..11 ,[2, 2, 2, 1, 1, 1, 1, 2, 2, 1, 2]);
next = array1d(1..11 ,[11, 1, 2, 6, 4, 10, 5, 3, 8, 9, 7]);
makespan = 1066;
----------
assign = array1d(1..11 ,[2, 2, 2, 1, 1, 1, 1, 2, 2, 1, 2]);
next = array1d(1..11 ,[11, 1, 2, 6, 4, 10, 5, 3, 8, 9, 7]);
makespan = 1063;
----------
assign = array1d(1..11 ,[2, 2, 2, 1, 1, 1, 1, 2, 2, 1, 2]);
next = array1d(1..11 ,[11, 1, 2, 6, 4, 10, 5, 3, 8, 9, 7]);
makespan = 1062;
----------
assign = array1d(1..11 ,[2, 2, 2, 1, 1, 1, 1, 2, 2, 1, 2]);
next = array1d(1..11 ,[11, 1, 2, 6, 4, 10, 5, 3, 8, 9, 7]);
makespan = 1060;
----------
assign = array1d(1..11 ,[2, 2, 2, 1, 1, 1, 1, 2, 2, 1, 2]);
next = array1d(1..11 ,[11, 1, 2, 6, 4, 10, 5, 3, 8, 9, 7]);
makespan = 1059;
----------
assign = array1d(1..11 ,[2, 2, 2, 1, 1, 1, 1, 2, 2, 1, 2]);
next = array1d(1..11 ,[11, 1, 2, 6, 4, 10, 5, 3, 8, 9, 7]);
makespan = 1058;
----------
assign = array1d(1..11 ,[2, 2, 2, 1, 1, 1, 1, 2, 2, 1, 2]);
next = array1d(1..11 ,[11, 1, 2, 6, 4, 10, 5, 3, 8, 9, 7]);
makespan = 1054;
----------
assign = array1d(1..11 ,[2, 2, 2, 1, 1, 1, 1, 2, 2, 1, 2]);
next = array1d(1..11 ,[11, 1, 2, 6, 4, 10, 5, 3, 8, 9, 7]);
makespan = 1051;
----------
assign = array1d(1..11 ,[2, 2, 2, 1, 1, 1, 1, 2, 2, 1, 2]);
next = array1d(1..11 ,[11, 1, 2, 6, 4, 10, 5, 3, 8, 9, 7]);
makespan = 1050;
----------
assign = array1d(1..11 ,[2, 2, 1, 1, 1, 1, 1, 2, 2, 1, 2]);
next = array1d(1..11 ,[11, 1, 4, 10, 6, 3, 5, 2, 8, 9, 7]);
makespan = 1031;
----------
assign = array1d(1..11 ,[2, 2, 1, 1, 1, 1, 1, 2, 2, 1, 2]);
next = array1d(1..11 ,[11, 1, 4, 10, 6, 3, 5, 2, 8, 9, 7]);
makespan = 1027;
----------
assign = array1d(1..11 ,[2, 2, 1, 1, 1, 1, 1, 2, 2, 1, 2]);
next = array1d(1..11 ,[11, 1, 4, 10, 6, 3, 5, 2, 8, 9, 7]);
makespan = 1026;
----------
assign = array1d(1..11 ,[2, 2, 1, 1, 1, 1, 1, 2, 2, 1, 2]);
next = array1d(1..11 ,[11, 1, 4, 10, 6, 3, 5, 2, 8, 9, 7]);
makespan = 1025;
----------
assign = array1d(1..11 ,[2, 2, 1, 1, 1, 1, 1, 2, 2, 1, 2]);
next = array1d(1..11 ,[11, 1, 4, 10, 6, 3, 5, 2, 8, 9, 7]);
makespan = 1019;
----------
assign = array1d(1..11 ,[2, 2, 1, 1, 1, 1, 1, 2, 2, 1, 2]);
next = array1d(1..11 ,[11, 1, 4, 5, 10, 3, 6, 2, 8, 9, 7]);
makespan = 1016;
----------
assign = array1d(1..11 ,[2, 2, 1, 1, 1, 1, 1, 2, 2, 1, 2]);
next = array1d(1..11 ,[11, 1, 4, 5, 10, 3, 6, 2, 8, 9, 7]);
makespan = 1014;
----------
assign = array1d(1..11 ,[2, 2, 1, 1, 1, 1, 1, 2, 2, 1, 2]);
next = array1d(1..11 ,[11, 1, 4, 5, 10, 3, 6, 2, 8, 9, 7]);
makespan = 1013;
----------
assign = array1d(1..11 ,[2, 2, 1, 1, 1, 1, 1, 2, 2, 1, 2]);
next = array1d(1..11 ,[11, 1, 4, 5, 10, 3, 6, 2, 8, 9, 7]);
makespan = 1008;
----------
assign = array1d(1..11 ,[2, 2, 1, 1, 1, 1, 1, 2, 2, 1, 2]);
next = array1d(1..11 ,[11, 1, 4, 5, 10, 3, 6, 2, 8, 9, 7]);
makespan = 1007;
----------
assign = array1d(1..11 ,[2, 2, 1, 1, 1, 1, 1, 2, 2, 1, 2]);
next = array1d(1..11 ,[11, 1, 4, 5, 10, 3, 6, 2, 8, 9, 7]);
makespan = 1006;
----------
assign = array1d(1..11 ,[2, 2, 1, 1, 1, 1, 1, 2, 2, 1, 2]);
next = array1d(1..11 ,[11, 1, 4, 5, 10, 3, 6, 2, 8, 9, 7]);
makespan = 1003;
----------
assign = array1d(1..11 ,[2, 2, 1, 1, 1, 1, 1, 2, 2, 1, 2]);
next = array1d(1..11 ,[11, 1, 4, 5, 10, 3, 6, 2, 8, 9, 7]);
makespan = 1000;
----------
assign = array1d(1..11 ,[2, 2, 1, 1, 1, 1, 1, 2, 2, 1, 2]);
next = array1d(1..11 ,[11, 1, 4, 5, 7, 10, 6, 2, 8, 9, 3]);
makespan = 999;
----------
assign = array1d(1..11 ,[1, 2, 2, 1, 2, 1, 1, 2, 2, 1, 2]);
next = array1d(1..11 ,[6, 8, 5, 10, 11, 7, 4, 3, 2, 9, 1]);
makespan = 998;
----------
assign = array1d(1..11 ,[2, 2, 1, 1, 2, 1, 2, 2, 1, 1, 2]);
next = array1d(1..11 ,[5, 11, 9, 10, 7, 3, 2, 1, 4, 8, 6]);
makespan = 997;
----------
assign = array1d(1..11 ,[2, 2, 1, 1, 2, 1, 2, 2, 1, 1, 2]);
next = array1d(1..11 ,[5, 11, 9, 6, 2, 10, 8, 1, 4, 7, 3]);
makespan = 995;
----------
assign = array1d(1..11 ,[2, 2, 1, 1, 2, 1, 2, 1, 1, 1, 2]);
next = array1d(1..11 ,[11, 7, 4, 10, 1, 9, 5, 6, 3, 2, 8]);
makespan = 992;
----------
assign = array1d(1..11 ,[2, 1, 2, 1, 2, 1, 2, 2, 1, 1, 2]);
next = array1d(1..11 ,[5, 6, 7, 9, 11, 4, 1, 3, 10, 8, 2]);
makespan = 991;
----------
assign = array1d(1..11 ,[2, 2, 2, 1, 1, 1, 2, 2, 1, 1, 2]);
next = array1d(1..11 ,[11, 8, 2, 9, 6, 4, 3, 1, 10, 7, 5]);
makespan = 990;
----------
assign = array1d(1..11 ,[1, 2, 2, 1, 1, 1, 2, 2, 2, 1, 2]);
next = array1d(1..11 ,[4, 8, 11, 6, 1, 10, 3, 7, 2, 9, 5]);
makespan = 989;
----------
assign = array1d(1..11 ,[1, 2, 2, 1, 1, 2, 2, 2, 1, 1, 2]);
next = array1d(1..11 ,[4, 8, 2, 10, 1, 11, 3, 6, 5, 7, 9]);
makespan = 988;
----------
assign = array1d(1..11 ,[1, 2, 2, 1, 1, 2, 2, 2, 1, 1, 2]);
next = array1d(1..11 ,[4, 8, 2, 10, 1, 11, 3, 6, 5, 7, 9]);
makespan = 987;
----------
assign = array1d(1..11 ,[1, 2, 2, 1, 1, 2, 2, 2, 1, 1, 2]);
next = array1d(1..11 ,[4, 8, 2, 10, 1, 11, 3, 6, 5, 7, 9]);
makespan = 985;
----------
assign = array1d(1..11 ,[1, 2, 2, 1, 1, 2, 2, 2, 1, 1, 2]);
next = array1d(1..11 ,[4, 8, 2, 10, 1, 11, 3, 6, 5, 7, 9]);
makespan = 984;
----------
assign = array1d(1..11 ,[1, 2, 2, 1, 1, 2, 2, 2, 1, 1, 2]);
next = array1d(1..11 ,[4, 8, 2, 10, 1, 11, 3, 6, 5, 7, 9]);
makespan = 983;
----------
assign = array1d(1..11 ,[1, 2, 2, 1, 1, 1, 2, 1, 2, 1, 2]);
next = array1d(1..11 ,[4, 7, 9, 5, 10, 1, 3, 6, 11, 2, 8]);
makespan = 982;
----------
assign = array1d(1..11 ,[1, 2, 2, 1, 1, 1, 2, 1, 2, 1, 2]);
next = array1d(1..11 ,[4, 7, 9, 5, 10, 1, 3, 6, 11, 2, 8]);
makespan = 981;
----------
assign = array1d(1..11 ,[1, 2, 2, 1, 1, 2, 2, 1, 2, 1, 2]);
next = array1d(1..11 ,[4, 11, 6, 8, 10, 2, 3, 5, 7, 9, 1]);
makespan = 980;
----------
assign = array1d(1..11 ,[1, 2, 2, 1, 1, 2, 2, 1, 2, 1, 2]);
next = array1d(1..11 ,[4, 9, 2, 8, 10, 11, 3, 5, 6, 7, 1]);
makespan = 979;
----------
assign = array1d(1..11 ,[1, 1, 2, 1, 2, 2, 2, 1, 2, 1, 2]);
next = array1d(1..11 ,[4, 10, 5, 8, 9, 11, 3, 2, 6, 7, 1]);
makespan = 978;
----------
assign = array1d(1..11 ,[1, 2, 2, 1, 1, 1, 2, 1, 2, 1, 2]);
next = array1d(1..11 ,[4, 7, 9, 5, 10, 1, 3, 6, 11, 2, 8]);
makespan = 977;
----------
assign = array1d(1..11 ,[1, 2, 2, 1, 1, 1, 2, 1, 2, 1, 2]);
next = array1d(1..11 ,[4, 7, 9, 5, 10, 1, 3, 6, 11, 2, 8]);
makespan = 976;
----------
assign = array1d(1..11 ,[1, 2, 2, 1, 1, 2, 2, 1, 2, 1, 2]);
next = array1d(1..11 ,[4, 9, 2, 5, 10, 11, 3, 1, 6, 7, 8]);
makespan = 975;
----------
assign = array1d(1..11 ,[1, 2, 2, 1, 1, 1, 2, 2, 2, 1, 2]);
next = array1d(1..11 ,[6, 8, 9, 5, 10, 4, 3, 11, 2, 7, 1]);
makespan = 974;
----------
assign = array1d(1..11 ,[1, 2, 2, 2, 1, 2, 1, 2, 1, 1, 2]);
next = array1d(1..11 ,[7, 8, 11, 6, 9, 2, 5, 3, 10, 4, 1]);
makespan = 973;
----------
assign = array1d(1..11 ,[1, 2, 1, 2, 1, 2, 1, 2, 2, 1, 2]);
next = array1d(1..11 ,[10, 8, 5, 6, 1, 2, 3, 11, 4, 9, 7]);
makespan = 972;
----------
assign = array1d(1..11 ,[1, 2, 1, 2, 1, 2, 1, 2, 2, 1, 2]);
next = array1d(1..11 ,[10, 8, 1, 6, 7, 2, 3, 11, 4, 9, 5]);
makespan = 971;
----------
assign = array1d(1..11 ,[1, 2, 1, 2, 1, 2, 1, 2, 2, 1, 2]);
next = array1d(1..11 ,[10, 8, 1, 6, 7, 2, 3, 11, 4, 9, 5]);
makespan = 970;
----------
assign = array1d(1..11 ,[1, 2, 1, 2, 1, 2, 1, 2, 2, 1, 2]);
next = array1d(1..11 ,[10, 8, 1, 6, 7, 2, 3, 11, 4, 9, 5]);
makespan = 969;
----------
assign = array1d(1..11 ,[1, 2, 1, 2, 1, 2, 1, 2, 2, 1, 2]);
next = array1d(1..11 ,[10, 8, 1, 6, 7, 2, 3, 11, 4, 9, 5]);
makespan = 968;
----------
assign = array1d(1..11 ,[1, 2, 1, 2, 1, 2, 1, 2, 2, 1, 2]);
next = array1d(1..11 ,[10, 8, 1, 6, 7, 2, 3, 11, 4, 9, 5]);
makespan = 967;
----------
assign = array1d(1..11 ,[1, 2, 1, 2, 1, 2, 1, 2, 2, 1, 2]);
next = array1d(1..11 ,[10, 8, 1, 6, 7, 2, 3, 11, 4, 9, 5]);
makespan = 966;
----------
assign = array1d(1..11 ,[1, 2, 1, 2, 1, 2, 1, 2, 2, 1, 2]);
next = array1d(1..11 ,[10, 8, 1, 6, 7, 2, 3, 11, 4, 9, 5]);
makespan = 965;
----------
assign = array1d(1..11 ,[1, 2, 1, 2, 1, 2, 1, 2, 2, 1, 2]);
next = array1d(1..11 ,[10, 8, 1, 6, 7, 2, 3, 11, 4, 9, 5]);
makespan = 964;
----------
assign = array1d(1..11 ,[1, 2, 1, 2, 1, 2, 1, 2, 2, 1, 2]);
next = array1d(1..11 ,[10, 8, 1, 6, 7, 2, 3, 11, 4, 9, 5]);
makespan = 963;
----------
assign = array1d(1..11 ,[1, 2, 1, 2, 1, 2, 1, 2, 2, 1, 2]);
next = array1d(1..11 ,[10, 8, 1, 6, 7, 2, 3, 11, 4, 9, 5]);
makespan = 962;
----------
assign = array1d(1..11 ,[1, 2, 1, 2, 1, 2, 1, 2, 2, 1, 2]);
next = array1d(1..11 ,[10, 8, 1, 6, 7, 2, 3, 11, 4, 9, 5]);
makespan = 961;
----------
assign = array1d(1..11 ,[1, 2, 1, 2, 1, 2, 1, 2, 2, 1, 2]);
next = array1d(1..11 ,[10, 8, 1, 6, 7, 2, 3, 11, 4, 9, 5]);
makespan = 960;
----------
assign = array1d(1..11 ,[1, 2, 1, 2, 1, 2, 1, 2, 2, 1, 2]);
next = array1d(1..11 ,[10, 8, 1, 6, 7, 2, 3, 11, 4, 9, 5]);
makespan = 959;
----------
assign = array1d(1..11 ,[1, 2, 1, 2, 1, 2, 1, 2, 2, 1, 2]);
next = array1d(1..11 ,[10, 8, 1, 6, 7, 2, 3, 11, 4, 9, 5]);
makespan = 958;
----------
assign = array1d(1..11 ,[1, 2, 1, 2, 1, 2, 1, 2, 2, 1, 2]);
next = array1d(1..11 ,[10, 8, 1, 6, 7, 2, 3, 11, 4, 9, 5]);
makespan = 957;
----------
assign = array1d(1..11 ,[1, 2, 1, 1, 1, 2, 2, 2, 2, 1, 2]);
next = array1d(1..11 ,[5, 8, 10, 3, 4, 2, 11, 7, 6, 9, 1]);
makespan = 956;
----------
assign = array1d(1..11 ,[1, 2, 1, 1, 1, 2, 2, 2, 2, 1, 2]);
next = array1d(1..11 ,[5, 8, 4, 1, 10, 2, 11, 7, 6, 9, 3]);
makespan = 955;
----------
assign = array1d(1..11 ,[1, 2, 1, 1, 1, 2, 2, 2, 2, 1, 2]);
next = array1d(1..11 ,[5, 8, 4, 1, 10, 2, 11, 7, 6, 9, 3]);
makespan = 954;
----------
assign = array1d(1..11 ,[1, 2, 1, 1, 1, 2, 2, 2, 2, 1, 2]);
next = array1d(1..11 ,[5, 8, 4, 1, 10, 2, 11, 7, 6, 9, 3]);
makespan = 953;
----------
assign = array1d(1..11 ,[1, 2, 1, 1, 1, 2, 2, 2, 2, 1, 2]);
next = array1d(1..11 ,[5, 8, 4, 1, 10, 2, 11, 7, 6, 9, 3]);
makespan = 952;
----------
assign = array1d(1..11 ,[1, 2, 1, 1, 1, 2, 2, 2, 2, 1, 2]);
next = array1d(1..11 ,[5, 8, 4, 1, 10, 2, 11, 7, 6, 9, 3]);
makespan = 951;
----------
assign = array1d(1..11 ,[1, 2, 1, 1, 1, 2, 2, 2, 2, 1, 2]);
next = array1d(1..11 ,[5, 8, 4, 1, 10, 2, 11, 7, 6, 9, 3]);
makespan = 950;
----------
assign = array1d(1..11 ,[1, 2, 1, 1, 1, 2, 2, 2, 2, 1, 2]);
next = array1d(1..11 ,[5, 8, 4, 1, 10, 2, 11, 7, 6, 9, 3]);
makespan = 949;
----------
assign = array1d(1..11 ,[1, 2, 1, 1, 1, 2, 2, 2, 2, 1, 2]);
next = array1d(1..11 ,[5, 8, 4, 1, 10, 2, 11, 7, 6, 9, 3]);
makespan = 948;
----------
assign = array1d(1..11 ,[1, 2, 1, 1, 1, 2, 2, 2, 2, 1, 2]);
next = array1d(1..11 ,[5, 8, 4, 1, 10, 2, 11, 7, 6, 9, 3]);
makespan = 947;
----------
assign = array1d(1..11 ,[1, 2, 1, 1, 1, 2, 2, 2, 2, 1, 2]);
next = array1d(1..11 ,[5, 8, 4, 1, 10, 2, 11, 7, 6, 9, 3]);
makespan = 946;
----------
assign = array1d(1..11 ,[1, 2, 1, 1, 1, 2, 2, 2, 2, 1, 2]);
next = array1d(1..11 ,[3, 8, 5, 10, 4, 2, 9, 11, 6, 7, 1]);
makespan = 945;
----------
assign = array1d(1..11 ,[1, 2, 1, 1, 1, 2, 2, 2, 2, 1, 2]);
next = array1d(1..11 ,[10, 8, 5, 1, 4, 2, 9, 11, 6, 7, 3]);
makespan = 944;
----------
assign = array1d(1..11 ,[1, 2, 1, 1, 1, 2, 2, 2, 2, 1, 2]);
next = array1d(1..11 ,[10, 8, 4, 5, 1, 2, 9, 11, 6, 7, 3]);
makespan = 943;
----------
assign = array1d(1..11 ,[1, 1, 2, 1, 1, 2, 2, 2, 2, 1, 2]);
next = array1d(1..11 ,[4, 1, 7, 10, 2, 11, 9, 3, 6, 8, 5]);
makespan = 942;
----------
assign = array1d(1..11 ,[1, 2, 1, 1, 1, 2, 2, 2, 2, 1, 2]);
next = array1d(1..11 ,[4, 8, 5, 3, 10, 2, 9, 11, 6, 7, 1]);
makespan = 941;
----------
assign = array1d(1..11 ,[1, 2, 1, 1, 1, 2, 2, 2, 2, 1, 2]);
next = array1d(1..11 ,[4, 8, 5, 3, 10, 2, 9, 11, 6, 7, 1]);
makespan = 940;
----------
assign = array1d(1..11 ,[1, 2, 1, 1, 1, 2, 2, 2, 2, 1, 2]);
next = array1d(1..11 ,[3, 8, 4, 5, 10, 2, 9, 11, 6, 7, 1]);
makespan = 939;
----------
assign = array1d(1..11 ,[1, 2, 1, 1, 1, 2, 2, 2, 2, 1, 2]);
next = array1d(1..11 ,[4, 8, 5, 3, 10, 2, 9, 11, 6, 7, 1]);
makespan = 938;
----------
assign = array1d(1..11 ,[1, 2, 1, 1, 1, 2, 2, 2, 2, 1, 2]);
next = array1d(1..11 ,[4, 8, 5, 3, 10, 2, 9, 11, 6, 7, 1]);
makespan = 937;
----------
==========
	Command being timed: "mzn-chuffed lbbd-datasets/Rabadi-2006/dzn-p-dominant/model.mzn lbbd-datasets/Rabadi-2006/dzn-p-dominant/9on2Rp50Rs50_5Ameer.dzn"
	User time (seconds): 0.29
	System time (seconds): 0.02
	Percent of CPU this job got: 0%
	Elapsed (wall clock) time (h:mm:ss or m:ss): 2:16.77
	Average shared text size (kbytes): 0
	Average unshared data size (kbytes): 0
	Average stack size (kbytes): 0
	Average total size (kbytes): 0
	Maximum resident set size (kbytes): 34608
	Average resident set size (kbytes): 0
	Major (requiring I/O) page faults: 0
	Minor (reclaiming a frame) page faults: 3138
	Voluntary context switches: 427
	Involuntary context switches: 3
	Swaps: 0
	File system inputs: 0
	File system outputs: 320
	Socket messages sent: 0
	Socket messages received: 0
	Signals delivered: 0
	Page size (bytes): 4096
	Exit status: 0
