+ /usr/bin/timeout 600 /usr/bin/time -v mzn-chuffed lbbd-datasets/sscplp/trucks-dzn/model.mzn lbbd-datasets/sscplp/trucks-dzn/p09-l50-c80-correlated.dzn
% No search annotation given. Defaulting to VSIDS!
source = [15, 15, 8, 6, 15, 6, 14, 14, 14, 13, 5, 14, 5, 9, 5, 5, 13, 13, 13, 8, 8, 6, 12, 4, 3, 2, 6, 8, 6, 15]
open = [false, true, true, true, true, true, false, true, true, false, false, true, true, true, true]
trucks_used = [0, 1, 1, 1, 4, 5, 0, 4, 1, 0, 0, 1, 4, 4, 4]
truck_assigned = [3, 2, 4, 5, 1, 2, 2, 1, 4, 4, 4, 3, 4, 1, 3, 3, 1, 3, 4, 3, 2, 4, 1, 1, 1, 1, 2, 4, 3, 4]
obj = 6326
----------
source = [8, 5, 3, 6, 9, 5, 15, 4, 4, 6, 5, 14, 14, 14, 8, 6, 5, 6, 6, 8, 4, 4, 4, 8, 3, 8, 4, 15, 8, 3]
open = [false, false, true, true, true, true, false, true, true, false, false, false, false, true, true]
trucks_used = [0, 0, 3, 6, 4, 5, 0, 6, 1, 0, 0, 0, 0, 3, 2]
truck_assigned = [6, 3, 3, 5, 1, 1, 2, 5, 6, 2, 4, 1, 3, 2, 5, 3, 2, 4, 2, 4, 3, 2, 4, 6, 1, 2, 1, 1, 3, 1]
obj = 6022
----------
source = [3, 8, 12, 15, 6, 8, 15, 4, 4, 8, 3, 6, 14, 14, 4, 8, 4, 6, 8, 3, 4, 9, 6, 3, 6, 4, 8, 15, 14, 12]
open = [false, false, true, true, false, true, false, true, true, false, false, true, false, true, true]
trucks_used = [0, 0, 4, 6, 0, 5, 0, 5, 1, 0, 0, 2, 0, 3, 3]
truck_assigned = [2, 5, 2, 2, 5, 1, 3, 4, 2, 2, 3, 3, 1, 2, 6, 3, 3, 2, 4, 1, 6, 1, 4, 4, 1, 5, 2, 1, 3, 1]
obj = 6018
----------
source = [3, 15, 12, 3, 6, 8, 4, 14, 14, 8, 6, 4, 12, 4, 8, 4, 4, 4, 4, 3, 15, 14, 8, 3, 6, 8, 8, 15, 14, 1]
open = [true, false, true, true, false, true, false, true, false, false, false, true, false, true, true]
trucks_used = [1, 0, 4, 7, 0, 3, 0, 6, 0, 0, 0, 2, 0, 4, 3]
truck_assigned = [1, 2, 2, 3, 1, 4, 6, 3, 1, 4, 2, 4, 2, 4, 3, 7, 5, 3, 6, 2, 3, 3, 6, 4, 3, 5, 5, 3, 4, 1]
obj = 5768
----------
source = [4, 14, 8, 8, 4, 6, 4, 4, 8, 14, 15, 4, 9, 15, 8, 14, 4, 6, 6, 12, 12, 15, 2, 15, 6, 4, 6, 2, 6, 9]
open = [false, true, false, true, false, true, false, true, true, false, false, true, false, true, true]
trucks_used = [0, 1, 0, 7, 0, 6, 0, 4, 1, 0, 0, 2, 0, 3, 4]
truck_assigned = [4, 2, 3, 4, 6, 5, 3, 7, 3, 1, 2, 6, 1, 1, 2, 3, 5, 1, 6, 2, 1, 4, 1, 3, 4, 4, 5, 1, 3, 1]
obj = 5760
----------
source = [4, 14, 8, 6, 8, 6, 4, 12, 14, 4, 15, 4, 9, 15, 9, 6, 4, 6, 6, 12, 2, 15, 12, 15, 14, 6, 4, 8, 4, 8]
open = [false, true, false, true, false, true, false, true, true, false, false, true, false, true, true]
trucks_used = [0, 1, 0, 7, 0, 6, 0, 4, 1, 0, 0, 2, 0, 3, 4]
truck_assigned = [7, 3, 4, 5, 4, 2, 5, 2, 2, 4, 2, 7, 1, 4, 1, 6, 6, 4, 3, 2, 1, 3, 1, 1, 1, 2, 3, 3, 5, 1]
obj = 5736
----------
source = [8, 9, 14, 6, 8, 2, 4, 2, 14, 4, 9, 8, 7, 15, 15, 6, 6, 8, 6, 6, 15, 14, 12, 4, 12, 6, 4, 8, 4, 8]
open = [false, true, false, true, false, true, true, true, true, false, false, true, false, true, true]
trucks_used = [0, 1, 0, 5, 0, 6, 1, 6, 2, 0, 0, 2, 0, 3, 2]
truck_assigned = [5, 2, 3, 6, 5, 1, 4, 1, 1, 5, 2, 3, 1, 1, 2, 3, 4, 1, 5, 1, 1, 2, 2, 3, 1, 2, 4, 4, 2, 6]
obj = 5719
----------
source = [4, 3, 7, 6, 8, 2, 4, 4, 15, 4, 9, 8, 2, 8, 2, 6, 6, 8, 6, 6, 9, 15, 15, 7, 15, 6, 4, 8, 12, 4]
open = [false, true, true, true, false, true, true, true, true, false, false, true, false, false, true]
trucks_used = [0, 2, 1, 6, 0, 6, 1, 5, 1, 0, 0, 1, 0, 0, 4]
truck_assigned = [3, 1, 1, 2, 3, 2, 5, 2, 3, 6, 1, 5, 2, 4, 1, 4, 5, 3, 6, 3, 1, 2, 4, 1, 4, 3, 4, 2, 1, 5]
obj = 5709
----------
source = [4, 3, 12, 15, 6, 6, 4, 4, 15, 7, 8, 6, 2, 15, 2, 4, 6, 8, 4, 8, 12, 2, 15, 8, 9, 6, 4, 8, 6, 4]
open = [false, true, true, true, false, true, true, true, true, false, false, true, false, false, true]
trucks_used = [0, 2, 1, 7, 0, 6, 1, 5, 1, 0, 0, 1, 0, 0, 4]
truck_assigned = [7, 1, 1, 4, 6, 4, 6, 5, 3, 1, 3, 2, 2, 3, 2, 2, 4, 5, 4, 2, 1, 1, 2, 5, 1, 3, 6, 4, 5, 7]
obj = 5706
----------
source = [15, 4, 5, 15, 6, 8, 14, 6, 2, 4, 8, 6, 2, 8, 5, 6, 6, 6, 15, 14, 14, 4, 9, 8, 15, 4, 6, 4, 3, 15]
open = [false, true, true, true, true, true, false, true, true, false, false, false, false, true, true]
trucks_used = [0, 2, 1, 5, 1, 7, 0, 4, 1, 0, 0, 0, 0, 2, 5]
truck_assigned = [4, 4, 1, 5, 7, 3, 2, 5, 2, 5, 4, 3, 2, 2, 1, 4, 2, 6, 3, 1, 1, 3, 1, 3, 3, 4, 5, 2, 1, 2]
obj = 5705
----------
source = [15, 13, 2, 13, 8, 14, 6, 4, 8, 4, 4, 15, 5, 14, 3, 15, 15, 15, 15, 8, 6, 4, 2, 8, 6, 6, 14, 4, 14, 15]
open = [false, true, true, true, true, true, false, true, false, false, false, false, true, true, true]
trucks_used = [0, 2, 1, 5, 1, 4, 0, 4, 0, 0, 0, 0, 1, 4, 7]
truck_assigned = [7, 1, 2, 1, 3, 3, 4, 5, 4, 3, 1, 6, 1, 4, 1, 3, 2, 4, 6, 2, 2, 2, 1, 3, 3, 1, 1, 4, 2, 5]
obj = 5698
----------
source = [15, 13, 2, 3, 8, 14, 13, 14, 15, 4, 4, 14, 5, 14, 8, 15, 15, 15, 4, 15, 8, 4, 4, 6, 6, 15, 14, 5, 2, 8]
open = [false, true, true, true, true, true, false, true, false, false, false, false, true, true, true]
trucks_used = [0, 2, 1, 5, 1, 2, 0, 4, 0, 0, 0, 0, 1, 5, 7]
truck_assigned = [6, 1, 1, 1, 2, 3, 1, 5, 3, 2, 3, 2, 1, 4, 4, 4, 3, 5, 5, 7, 2, 4, 1, 1, 2, 2, 5, 1, 2, 3]
obj = 5696
----------
source = [15, 6, 2, 8, 6, 8, 3, 14, 15, 4, 4, 15, 5, 14, 8, 15, 15, 15, 4, 8, 14, 4, 4, 2, 6, 15, 15, 5, 2, 8]
open = [false, true, true, true, true, true, false, true, false, false, false, false, false, true, true]
trucks_used = [0, 3, 1, 5, 1, 3, 0, 5, 0, 0, 0, 0, 0, 2, 8]
truck_assigned = [7, 1, 2, 5, 2, 4, 1, 1, 8, 2, 3, 1, 1, 2, 3, 5, 8, 6, 5, 2, 1, 1, 4, 3, 3, 4, 3, 1, 1, 1]
obj = 5657
----------
source = [15, 2, 2, 8, 6, 8, 4, 14, 15, 4, 5, 15, 5, 14, 8, 15, 15, 15, 4, 8, 14, 4, 4, 6, 6, 15, 15, 3, 2, 8]
open = [false, true, true, true, true, true, false, true, false, false, false, false, false, true, true]
trucks_used = [0, 3, 1, 5, 2, 3, 0, 5, 0, 0, 0, 0, 0, 2, 8]
truck_assigned = [5, 1, 2, 5, 2, 4, 5, 1, 4, 4, 2, 8, 2, 2, 1, 7, 4, 8, 2, 3, 1, 3, 5, 1, 3, 6, 2, 1, 3, 2]
obj = 5655
----------
source = [15, 4, 2, 8, 6, 8, 3, 15, 5, 4, 5, 4, 5, 14, 8, 15, 15, 15, 14, 8, 8, 2, 4, 15, 6, 15, 15, 6, 2, 4]
open = [false, true, true, true, true, true, false, true, false, false, false, false, false, true, true]
trucks_used = [0, 3, 1, 5, 2, 3, 0, 5, 0, 0, 0, 0, 0, 2, 8]
truck_assigned = [4, 5, 2, 3, 2, 5, 1, 6, 2, 4, 1, 1, 2, 2, 2, 8, 3, 1, 1, 4, 5, 1, 3, 2, 3, 7, 5, 3, 3, 5]
obj = 5653
----------
source = [15, 4, 2, 8, 14, 8, 3, 15, 5, 6, 5, 4, 5, 14, 8, 15, 15, 15, 15, 8, 8, 4, 4, 2, 6, 15, 15, 6, 2, 4]
open = [false, true, true, true, true, true, false, true, false, false, false, false, false, true, true]
trucks_used = [0, 3, 1, 5, 2, 3, 0, 5, 0, 0, 0, 0, 0, 2, 8]
truck_assigned = [5, 3, 2, 3, 2, 5, 1, 6, 2, 3, 1, 5, 2, 1, 2, 8, 3, 4, 7, 4, 5, 4, 2, 3, 2, 2, 1, 3, 1, 5]
obj = 5649
----------
source = [15, 4, 2, 8, 5, 8, 3, 15, 14, 6, 5, 4, 5, 14, 8, 15, 15, 15, 15, 8, 8, 4, 4, 2, 6, 15, 15, 6, 2, 4]
open = [false, true, true, true, true, true, false, true, false, false, false, false, false, true, true]
trucks_used = [0, 3, 1, 5, 2, 3, 0, 5, 0, 0, 0, 0, 0, 2, 8]
truck_assigned = [1, 5, 1, 3, 1, 5, 1, 7, 1, 2, 2, 5, 2, 2, 2, 2, 4, 5, 8, 4, 5, 3, 4, 3, 3, 6, 3, 3, 2, 4]
obj = 5647
----------
source = [2, 15, 2, 8, 3, 8, 6, 15, 5, 4, 5, 15, 6, 14, 8, 15, 5, 2, 15, 8, 14, 4, 4, 8, 14, 15, 15, 5, 4, 4]
open = [false, true, true, true, true, true, false, true, false, false, false, false, false, true, true]
trucks_used = [0, 3, 1, 5, 4, 1, 0, 5, 0, 0, 0, 0, 0, 2, 7]
truck_assigned = [2, 6, 3, 3, 1, 5, 1, 7, 4, 3, 3, 5, 1, 2, 2, 5, 2, 1, 4, 4, 1, 4, 5, 5, 1, 3, 2, 4, 2, 5]
obj = 5642
----------
source = [2, 15, 2, 13, 8, 4, 4, 15, 2, 6, 8, 15, 5, 14, 4, 15, 8, 2, 15, 5, 8, 5, 5, 7, 8, 15, 15, 3, 4, 4]
open = [false, true, true, true, true, true, true, true, false, false, false, false, true, true, true]
trucks_used = [0, 4, 1, 5, 4, 1, 1, 5, 0, 0, 0, 0, 1, 1, 7]
truck_assigned = [3, 7, 4, 1, 5, 5, 4, 2, 1, 1, 4, 6, 4, 1, 4, 5, 3, 2, 6, 3, 5, 4, 2, 1, 4, 3, 4, 1, 2, 5]
obj = 5641
----------
source = [2, 3, 2, 13, 8, 5, 4, 15, 2, 6, 8, 15, 5, 14, 4, 15, 8, 2, 15, 5, 8, 5, 4, 4, 8, 15, 15, 15, 4, 7]
open = [false, true, true, true, true, true, true, true, false, false, false, false, true, true, true]
trucks_used = [0, 4, 1, 5, 4, 1, 1, 5, 0, 0, 0, 0, 1, 1, 7]
truck_assigned = [2, 1, 1, 1, 4, 2, 5, 5, 4, 1, 4, 7, 4, 1, 4, 7, 5, 3, 3, 4, 3, 3, 4, 5, 5, 6, 2, 4, 2, 1]
obj = 5640
----------
source = [2, 3, 2, 13, 8, 5, 4, 15, 2, 6, 8, 15, 5, 14, 7, 15, 8, 2, 15, 5, 8, 5, 4, 4, 8, 15, 15, 15, 4, 4]
open = [false, true, true, true, true, true, true, true, false, false, false, false, true, true, true]
trucks_used = [0, 4, 1, 5, 4, 1, 1, 5, 0, 0, 0, 0, 1, 1, 7]
truck_assigned = [2, 1, 1, 1, 4, 4, 5, 6, 4, 1, 5, 7, 3, 1, 1, 7, 3, 3, 3, 4, 5, 3, 4, 5, 4, 2, 4, 5, 2, 4]
obj = 5633
----------
source = [15, 1, 4, 5, 8, 4, 3, 15, 14, 5, 8, 8, 2, 7, 13, 8, 15, 8, 15, 5, 8, 14, 2, 4, 5, 15, 15, 15, 4, 4]
open = [true, true, true, true, true, false, true, true, false, false, false, false, true, true, true]
trucks_used = [1, 2, 1, 5, 4, 0, 1, 6, 0, 0, 0, 0, 1, 2, 7]
truck_assigned = [1, 1, 4, 3, 5, 5, 1, 5, 1, 4, 6, 1, 2, 1, 1, 4, 4, 5, 6, 4, 6, 2, 2, 5, 3, 2, 3, 7, 2, 3]
obj = 5617
----------
source = [15, 1, 15, 5, 8, 4, 3, 15, 14, 5, 8, 8, 2, 4, 13, 8, 15, 8, 15, 5, 8, 14, 2, 7, 5, 15, 15, 4, 4, 4]
open = [true, true, true, true, true, false, true, true, false, false, false, false, true, true, true]
trucks_used = [1, 2, 1, 5, 4, 0, 1, 6, 0, 0, 0, 0, 1, 2, 7]
truck_assigned = [5, 1, 7, 3, 6, 5, 1, 1, 2, 4, 4, 3, 2, 4, 1, 5, 6, 6, 2, 4, 4, 1, 2, 1, 3, 3, 4, 3, 5, 4]
obj = 5614
----------
source = [14, 1, 15, 3, 5, 13, 7, 15, 1, 8, 13, 14, 5, 3, 8, 15, 15, 15, 8, 1, 14, 1, 13, 7, 8, 15, 15, 3, 14, 8]
open = [true, false, true, false, true, false, true, true, false, false, false, false, true, true, true]
trucks_used = [4, 0, 3, 0, 2, 0, 2, 5, 0, 0, 0, 0, 3, 4, 7]
truck_assigned = [3, 4, 7, 2, 1, 3, 2, 2, 4, 3, 1, 4, 2, 3, 5, 6, 4, 5, 2, 3, 4, 2, 2, 2, 3, 3, 1, 3, 2, 4]
obj = 5566
----------
source = [15, 9, 8, 3, 13, 3, 13, 15, 15, 5, 14, 15, 3, 5, 6, 6, 15, 15, 8, 8, 9, 5, 4, 14, 8, 15, 15, 8, 14, 4]
open = [false, false, true, true, true, true, false, true, true, false, false, false, true, true, true]
trucks_used = [0, 0, 2, 1, 2, 2, 0, 3, 1, 0, 0, 0, 2, 3, 8]
truck_assigned = [3, 1, 3, 2, 2, 2, 1, 5, 7, 1, 2, 6, 1, 2, 2, 1, 7, 6, 3, 2, 1, 1, 1, 1, 2, 4, 8, 1, 3, 1]
obj = 5558
----------
source = [15, 9, 8, 5, 13, 3, 13, 15, 15, 5, 3, 15, 3, 5, 6, 14, 15, 15, 8, 8, 14, 4, 4, 14, 8, 15, 15, 8, 14, 9]
open = [false, false, true, true, true, true, false, true, true, false, false, false, true, true, true]
trucks_used = [0, 0, 2, 2, 2, 1, 0, 3, 1, 0, 0, 0, 2, 3, 8]
truck_assigned = [7, 1, 3, 1, 1, 2, 2, 5, 4, 1, 1, 8, 2, 2, 1, 2, 4, 8, 1, 2, 2, 1, 2, 1, 2, 6, 3, 3, 3, 1]
obj = 5557
----------
source = [15, 9, 8, 9, 13, 3, 4, 15, 15, 14, 3, 15, 3, 5, 6, 5, 15, 15, 8, 8, 5, 4, 4, 14, 8, 15, 15, 8, 14, 13]
open = [false, false, true, true, true, true, false, true, true, false, false, false, true, true, true]
trucks_used = [0, 0, 2, 2, 2, 1, 0, 3, 1, 0, 0, 0, 2, 3, 8]
truck_assigned = [4, 1, 3, 1, 2, 2, 2, 6, 8, 3, 1, 5, 2, 2, 1, 1, 8, 5, 3, 2, 1, 1, 2, 1, 2, 7, 3, 1, 2, 1]
obj = 5543
----------
source = [15, 9, 8, 9, 13, 3, 13, 15, 15, 9, 3, 15, 3, 5, 6, 14, 15, 15, 8, 5, 14, 4, 4, 14, 8, 15, 15, 8, 14, 5]
open = [false, false, true, true, true, true, false, true, true, false, false, false, true, true, true]
trucks_used = [0, 0, 2, 2, 3, 1, 0, 3, 1, 0, 0, 0, 2, 3, 8]
truck_assigned = [4, 1, 3, 1, 2, 2, 1, 6, 7, 1, 1, 7, 2, 3, 1, 1, 2, 5, 3, 2, 1, 1, 2, 2, 1, 8, 3, 2, 3, 2]
obj = 5540
----------
source = [4, 13, 8, 3, 4, 3, 13, 15, 5, 9, 14, 15, 3, 5, 6, 15, 15, 15, 8, 5, 5, 15, 4, 14, 8, 15, 15, 8, 14, 4]
open = [false, false, true, true, true, true, false, true, true, false, false, false, true, true, true]
trucks_used = [0, 0, 2, 2, 3, 1, 0, 3, 1, 0, 0, 0, 2, 3, 8]
truck_assigned = [1, 1, 3, 1, 1, 2, 2, 2, 2, 1, 2, 7, 2, 3, 1, 6, 7, 4, 2, 1, 2, 3, 2, 1, 1, 8, 5, 3, 3, 2]
obj = 5537
----------
source = [8, 4, 8, 3, 4, 3, 13, 15, 5, 9, 14, 15, 3, 5, 6, 15, 15, 15, 8, 5, 5, 15, 4, 14, 8, 15, 15, 8, 14, 13]
open = [false, false, true, true, true, true, false, true, true, false, false, false, true, true, true]
trucks_used = [0, 0, 2, 2, 3, 1, 0, 3, 1, 0, 0, 0, 2, 3, 8]
truck_assigned = [3, 1, 1, 1, 1, 2, 2, 5, 3, 1, 2, 6, 2, 1, 1, 6, 4, 2, 2, 2, 3, 8, 2, 1, 3, 3, 7, 1, 3, 2]
obj = 5535
----------
source = [8, 4, 8, 9, 8, 3, 3, 15, 14, 6, 9, 15, 13, 5, 5, 15, 15, 15, 5, 5, 14, 15, 4, 4, 8, 15, 15, 8, 14, 13]
open = [false, false, true, true, true, true, false, true, true, false, false, false, true, true, true]
trucks_used = [0, 0, 2, 3, 4, 1, 0, 5, 1, 0, 0, 0, 1, 3, 8]
truck_assigned = [5, 2, 4, 1, 1, 2, 2, 5, 2, 1, 1, 6, 1, 4, 3, 6, 2, 3, 3, 2, 2, 8, 3, 2, 5, 4, 7, 4, 3, 1]
obj = 5533
----------
source = [15, 9, 3, 15, 4, 8, 13, 15, 14, 6, 5, 15, 3, 5, 8, 15, 15, 8, 8, 5, 14, 5, 9, 4, 8, 15, 15, 6, 8, 13]
open = [false, false, true, true, true, true, false, true, true, false, false, false, true, true, true]
trucks_used = [0, 0, 2, 1, 4, 1, 0, 6, 1, 0, 0, 0, 2, 1, 8]
truck_assigned = [5, 1, 1, 7, 1, 5, 2, 2, 1, 1, 2, 8, 2, 4, 4, 6, 8, 6, 3, 3, 1, 3, 1, 1, 6, 3, 4, 1, 2, 2]
obj = 5531
----------
source = [15, 9, 13, 15, 4, 8, 13, 15, 14, 9, 6, 15, 5, 5, 3, 15, 15, 8, 8, 5, 14, 3, 5, 8, 8, 15, 15, 6, 8, 4]
open = [false, false, true, true, true, true, false, true, true, false, false, false, true, true, true]
trucks_used = [0, 0, 2, 1, 4, 1, 0, 6, 1, 0, 0, 0, 2, 1, 8]
truck_assigned = [4, 1, 2, 8, 1, 4, 2, 5, 1, 1, 1, 6, 3, 4, 2, 1, 6, 6, 5, 3, 1, 1, 2, 4, 6, 7, 3, 1, 3, 1]
obj = 5530
----------
source = [15, 9, 3, 15, 4, 8, 13, 15, 14, 9, 6, 15, 5, 5, 8, 15, 15, 8, 8, 5, 14, 3, 5, 4, 8, 15, 15, 6, 8, 13]
open = [false, false, true, true, true, true, false, true, true, false, false, false, true, true, true]
trucks_used = [0, 0, 2, 1, 4, 1, 0, 6, 1, 0, 0, 0, 2, 1, 8]
truck_assigned = [4, 1, 1, 8, 1, 5, 2, 5, 1, 1, 1, 6, 2, 4, 1, 3, 6, 4, 6, 3, 1, 2, 1, 1, 5, 7, 1, 1, 3, 2]
obj = 5511
----------
source = [15, 12, 6, 13, 10, 8, 6, 15, 1, 1, 1, 15, 6, 8, 8, 15, 15, 15, 8, 13, 14, 14, 8, 13, 1, 15, 8, 14, 15, 10]
open = [true, false, false, false, false, true, false, true, false, true, false, true, true, true, true]
trucks_used = [2, 0, 0, 0, 0, 2, 0, 6, 0, 1, 0, 1, 2, 2, 8]
truck_assigned = [8, 1, 1, 1, 1, 2, 2, 5, 2, 1, 1, 4, 2, 5, 4, 3, 7, 6, 6, 1, 2, 2, 1, 2, 2, 1, 5, 1, 4, 1]
obj = 5505
----------
source = [15, 12, 6, 1, 10, 13, 6, 15, 1, 1, 13, 15, 6, 8, 8, 15, 15, 15, 8, 13, 14, 14, 8, 15, 1, 15, 8, 14, 8, 10]
open = [true, false, false, false, false, true, false, true, false, true, false, true, true, true, true]
trucks_used = [2, 0, 0, 0, 0, 2, 0, 6, 0, 1, 0, 1, 2, 2, 8]
truck_assigned = [8, 1, 2, 1, 1, 1, 1, 3, 2, 1, 2, 6, 1, 4, 6, 6, 5, 4, 3, 2, 2, 2, 2, 7, 2, 1, 4, 1, 5, 1]
obj = 5490
----------
source = [15, 12, 6, 10, 10, 6, 1, 15, 1, 1, 13, 15, 6, 13, 8, 15, 15, 15, 8, 10, 14, 14, 8, 15, 8, 15, 8, 14, 8, 10]
open = [true, false, false, false, false, true, false, true, false, true, false, true, true, true, true]
trucks_used = [2, 0, 0, 0, 0, 2, 0, 6, 0, 2, 0, 1, 2, 2, 8]
truck_assigned = [5, 1, 1, 1, 2, 2, 2, 6, 2, 2, 2, 8, 2, 1, 2, 7, 1, 4, 4, 1, 2, 2, 3, 8, 5, 3, 5, 1, 6, 2]
obj = 5474
----------
source = [15, 12, 6, 10, 10, 8, 1, 15, 1, 1, 13, 15, 13, 8, 1, 15, 15, 15, 8, 10, 14, 14, 8, 15, 8, 15, 8, 14, 6, 10]
open = [true, false, false, false, false, true, false, true, false, true, false, true, true, true, true]
trucks_used = [2, 0, 0, 0, 0, 2, 0, 6, 0, 2, 0, 1, 2, 2, 8]
truck_assigned = [6, 1, 2, 1, 2, 6, 1, 7, 2, 2, 2, 8, 1, 4, 2, 4, 2, 8, 5, 1, 2, 2, 3, 5, 6, 3, 4, 1, 1, 2]
obj = 5467
----------
source = [15, 13, 6, 8, 12, 8, 1, 15, 8, 6, 14, 15, 13, 1, 1, 15, 15, 15, 8, 10, 1, 6, 10, 15, 8, 15, 8, 14, 6, 12]
open = [true, false, false, false, false, true, false, true, false, true, false, true, true, true, true]
trucks_used = [2, 0, 0, 0, 0, 4, 0, 6, 0, 1, 0, 1, 2, 2, 8]
truck_assigned = [7, 2, 4, 3, 1, 2, 1, 8, 4, 3, 2, 3, 2, 1, 2, 5, 3, 1, 5, 1, 2, 1, 1, 6, 6, 4, 6, 1, 3, 1]
obj = 5465
----------
source = [15, 1, 6, 8, 12, 8, 13, 15, 1, 6, 14, 15, 1, 15, 13, 15, 15, 15, 8, 10, 1, 10, 8, 6, 8, 15, 8, 14, 6, 12]
open = [true, false, false, false, false, true, false, true, false, true, false, true, true, true, true]
trucks_used = [2, 0, 0, 0, 0, 4, 0, 6, 0, 1, 0, 1, 2, 2, 8]
truck_assigned = [3, 2, 4, 5, 1, 4, 2, 4, 2, 3, 2, 8, 1, 6, 2, 6, 5, 8, 6, 1, 1, 1, 3, 2, 4, 7, 2, 1, 3, 1]
obj = 5459
----------
source = [15, 1, 6, 8, 12, 10, 13, 15, 1, 13, 14, 15, 6, 15, 1, 15, 15, 15, 8, 6, 1, 10, 8, 8, 8, 15, 8, 14, 6, 12]
open = [true, false, false, false, false, true, false, true, false, true, false, true, true, true, true]
trucks_used = [2, 0, 0, 0, 0, 4, 0, 6, 0, 1, 0, 1, 2, 2, 8]
truck_assigned = [7, 2, 3, 6, 1, 1, 2, 6, 2, 2, 2, 4, 4, 5, 1, 5, 4, 1, 4, 2, 2, 1, 3, 2, 5, 8, 5, 1, 4, 1]
obj = 5458
----------
source = [15, 1, 6, 8, 12, 6, 13, 15, 1, 14, 13, 15, 6, 15, 1, 15, 15, 15, 8, 10, 1, 10, 8, 8, 8, 15, 8, 14, 6, 12]
open = [true, false, false, false, false, true, false, true, false, true, false, true, true, true, true]
trucks_used = [2, 0, 0, 0, 0, 4, 0, 6, 0, 1, 0, 1, 2, 2, 8]
truck_assigned = [8, 2, 3, 3, 1, 2, 2, 7, 2, 2, 2, 5, 4, 6, 1, 6, 5, 4, 5, 1, 1, 1, 6, 4, 1, 3, 4, 1, 4, 1]
obj = 5454
----------
source = [15, 6, 12, 8, 12, 8, 1, 15, 2, 14, 13, 15, 1, 6, 13, 15, 15, 15, 8, 14, 1, 6, 8, 8, 6, 15, 8, 14, 15, 2]
open = [true, true, false, false, false, true, false, true, false, false, false, true, true, true, true]
trucks_used = [2, 1, 0, 0, 0, 4, 0, 6, 0, 0, 0, 1, 2, 3, 8]
truck_assigned = [7, 2, 1, 3, 1, 2, 1, 4, 1, 2, 2, 8, 2, 3, 2, 3, 6, 1, 5, 1, 2, 1, 6, 4, 4, 5, 4, 3, 8, 1]
obj = 5444
----------
source = [13, 6, 12, 12, 8, 14, 13, 13, 15, 15, 15, 8, 14, 6, 7, 8, 8, 8, 13, 6, 14, 8, 7, 1, 6, 8, 8, 2, 15, 2]
open = [true, true, false, false, false, true, true, true, false, false, false, true, true, true, true]
trucks_used = [1, 1, 0, 0, 0, 4, 1, 8, 0, 0, 0, 1, 4, 3, 4]
truck_assigned = [2, 1, 1, 1, 5, 3, 3, 4, 4, 3, 2, 6, 2, 2, 1, 8, 1, 1, 3, 3, 2, 4, 1, 1, 4, 7, 7, 1, 4, 1]
obj = 5442
----------
source = [8, 15, 5, 3, 12, 8, 5, 13, 14, 9, 14, 8, 3, 15, 9, 13, 13, 13, 8, 8, 9, 13, 12, 14, 15, 8, 8, 15, 8, 5]
open = [false, false, true, false, true, false, false, true, true, false, false, true, true, true, true]
trucks_used = [0, 0, 2, 0, 2, 0, 0, 8, 2, 0, 0, 2, 5, 3, 4]
truck_assigned = [5, 3, 1, 2, 1, 4, 2, 5, 2, 2, 2, 3, 1, 2, 1, 4, 3, 1, 6, 8, 2, 2, 2, 3, 4, 4, 8, 4, 7, 1]
obj = 5402
----------
source = [8, 3, 5, 3, 12, 8, 5, 13, 9, 9, 14, 8, 5, 15, 9, 13, 13, 13, 8, 8, 14, 13, 14, 15, 15, 8, 8, 15, 8, 12]
open = [false, false, true, false, true, false, false, true, true, false, false, true, true, true, true]
trucks_used = [0, 0, 2, 0, 3, 0, 0, 8, 2, 0, 0, 2, 5, 3, 4]
truck_assigned = [6, 1, 2, 2, 2, 8, 3, 3, 1, 2, 3, 5, 2, 3, 2, 1, 5, 2, 7, 4, 3, 4, 2, 4, 2, 8, 6, 3, 3, 2]
obj = 5395
----------
source = [8, 15, 12, 5, 9, 8, 3, 8, 9, 5, 3, 8, 14, 15, 9, 8, 8, 13, 8, 9, 14, 13, 14, 15, 13, 8, 13, 15, 8, 12]
open = [false, false, true, false, true, false, false, true, true, false, false, true, true, true, true]
trucks_used = [0, 0, 2, 0, 1, 0, 0, 9, 4, 0, 0, 1, 4, 3, 4]
truck_assigned = [7, 2, 1, 1, 3, 9, 2, 5, 4, 1, 2, 4, 2, 3, 4, 3, 7, 4, 8, 2, 3, 1, 3, 4, 3, 9, 2, 3, 6, 1]
obj = 5388
----------
source = [13, 14, 12, 9, 12, 8, 7, 8, 14, 9, 3, 8, 5, 15, 9, 8, 8, 13, 8, 9, 15, 13, 14, 15, 13, 8, 8, 15, 8, 3]
open = [false, false, true, false, true, false, true, true, true, false, false, true, true, true, true]
trucks_used = [0, 0, 2, 0, 1, 0, 1, 9, 4, 0, 0, 1, 4, 3, 4]
truck_assigned = [4, 2, 1, 4, 1, 7, 1, 6, 3, 1, 2, 1, 1, 4, 4, 8, 6, 2, 9, 3, 3, 1, 1, 3, 3, 7, 4, 2, 5, 2]
obj = 5386
----------
source = [9, 7, 5, 9, 15, 13, 3, 8, 14, 15, 5, 8, 5, 13, 14, 8, 8, 8, 8, 9, 9, 15, 15, 8, 13, 8, 8, 14, 9, 3]
open = [false, false, true, false, true, false, true, true, true, false, false, false, true, true, true]
trucks_used = [0, 0, 2, 0, 2, 0, 1, 9, 5, 0, 0, 0, 2, 3, 4]
truck_assigned = [4, 1, 2, 5, 3, 2, 2, 8, 3, 1, 1, 9, 2, 1, 2, 3, 8, 6, 4, 5, 4, 2, 4, 7, 2, 7, 6, 1, 3, 2]
obj = 5378
----------
source = [15, 9, 12, 9, 15, 14, 13, 8, 5, 3, 9, 8, 5, 13, 5, 8, 8, 8, 8, 3, 3, 15, 15, 8, 14, 8, 8, 12, 15, 14]
open = [false, false, true, false, true, false, false, true, true, false, false, true, true, true, true]
trucks_used = [0, 0, 3, 0, 3, 0, 0, 9, 1, 0, 0, 1, 2, 3, 5]
truck_assigned = [3, 1, 1, 1, 4, 2, 2, 5, 3, 3, 1, 9, 3, 2, 2, 2, 3, 7, 6, 1, 2, 2, 5, 8, 1, 7, 8, 1, 1, 3]
obj = 5350
----------
source = [15, 2, 5, 9, 15, 2, 13, 8, 14, 3, 9, 8, 5, 5, 13, 8, 8, 8, 8, 3, 9, 15, 15, 8, 14, 8, 8, 3, 15, 14]
open = [false, true, true, false, true, false, false, true, true, false, false, false, true, true, true]
trucks_used = [0, 1, 3, 0, 3, 0, 0, 9, 2, 0, 0, 0, 2, 3, 5]
truck_assigned = [5, 1, 3, 2, 1, 1, 2, 2, 3, 2, 1, 4, 3, 2, 2, 6, 9, 8, 7, 3, 2, 3, 2, 8, 3, 3, 9, 3, 4, 2]
obj = 5346
----------
source = [15, 9, 13, 9, 5, 15, 8, 15, 1, 1, 14, 8, 5, 7, 9, 8, 5, 15, 8, 15, 1, 15, 14, 8, 7, 8, 8, 5, 14, 13]
open = [true, false, false, false, true, false, true, true, true, false, false, false, true, true, true]
trucks_used = [1, 0, 0, 0, 3, 0, 2, 7, 3, 0, 0, 0, 2, 3, 6]
truck_assigned = [6, 1, 2, 3, 3, 3, 4, 2, 1, 1, 3, 6, 2, 2, 3, 7, 2, 1, 3, 5, 1, 4, 3, 5, 1, 1, 5, 1, 2, 1]
obj = 5345
----------
source = [15, 9, 13, 9, 5, 15, 8, 15, 1, 1, 14, 8, 5, 7, 9, 8, 5, 15, 8, 15, 1, 15, 14, 8, 13, 8, 8, 5, 14, 7]
open = [true, false, false, false, true, false, true, true, true, false, false, false, true, true, true]
trucks_used = [1, 0, 0, 0, 4, 0, 1, 7, 3, 0, 0, 0, 2, 3, 6]
truck_assigned = [4, 2, 2, 3, 4, 6, 5, 3, 1, 1, 2, 3, 2, 1, 3, 4, 3, 5, 6, 1, 1, 2, 2, 7, 1, 2, 7, 3, 3, 1]
obj = 5344
----------
source = [15, 9, 9, 9, 5, 15, 8, 15, 6, 13, 14, 8, 5, 14, 7, 8, 8, 15, 8, 15, 5, 15, 14, 7, 13, 8, 8, 6, 8, 6]
open = [false, false, false, false, true, true, true, true, true, false, false, false, true, true, true]
trucks_used = [0, 0, 0, 0, 3, 2, 2, 8, 2, 0, 0, 0, 1, 2, 6]
truck_assigned = [5, 1, 2, 1, 3, 6, 7, 4, 2, 1, 1, 2, 2, 2, 2, 6, 4, 2, 5, 3, 2, 1, 1, 2, 1, 8, 8, 1, 3, 1]
obj = 5322
----------
source = [8, 9, 7, 9, 5, 15, 8, 15, 14, 6, 14, 8, 5, 9, 5, 8, 8, 15, 8, 13, 15, 15, 14, 7, 13, 8, 15, 13, 8, 6]
open = [false, false, false, false, true, true, true, true, true, false, false, false, true, true, true]
trucks_used = [0, 0, 0, 0, 3, 1, 2, 8, 2, 0, 0, 0, 2, 2, 6]
truck_assigned = [2, 1, 2, 1, 2, 2, 1, 4, 1, 1, 2, 4, 3, 2, 3, 7, 5, 3, 6, 2, 6, 5, 2, 2, 2, 5, 6, 1, 8, 1]
obj = 5286
----------
source = [8, 13, 12, 13, 9, 2, 8, 15, 12, 6, 14, 15, 2, 9, 9, 15, 8, 15, 15, 9, 14, 15, 8, 14, 2, 8, 15, 6, 8, 6]
open = [false, true, false, false, false, true, false, true, true, false, false, true, true, true, true]
trucks_used = [0, 2, 0, 0, 0, 2, 0, 6, 3, 0, 0, 2, 2, 2, 7]
truck_assigned = [6, 2, 2, 2, 2, 1, 2, 2, 2, 2, 2, 6, 2, 3, 1, 6, 6, 3, 4, 1, 2, 5, 5, 1, 2, 3, 7, 2, 4, 1]
obj = 5254
----------
source = [8, 13, 12, 13, 9, 6, 8, 15, 2, 6, 14, 15, 9, 9, 12, 15, 8, 15, 15, 8, 14, 15, 8, 8, 2, 12, 15, 6, 6, 2]
open = [false, true, false, false, false, true, false, true, true, false, false, true, true, true, true]
trucks_used = [0, 2, 0, 0, 0, 2, 0, 6, 3, 0, 0, 2, 2, 2, 7]
truck_assigned = [3, 2, 2, 2, 1, 2, 4, 3, 2, 2, 2, 7, 3, 2, 1, 6, 5, 5, 7, 2, 2, 4, 6, 5, 2, 2, 2, 2, 1, 1]
obj = 5239
----------
source = [8, 2, 5, 13, 9, 15, 8, 12, 2, 6, 13, 15, 9, 9, 12, 15, 15, 8, 15, 8, 5, 15, 12, 8, 8, 12, 15, 6, 9, 6]
open = [false, true, false, false, true, true, false, true, true, false, false, true, true, false, true]
trucks_used = [0, 1, 0, 0, 1, 2, 0, 6, 4, 0, 0, 4, 1, 0, 7]
truck_assigned = [5, 1, 1, 1, 2, 5, 6, 4, 1, 2, 1, 7, 4, 3, 3, 7, 2, 3, 3, 4, 1, 4, 2, 4, 5, 4, 6, 2, 1, 1]
obj = 5238
----------
source = [8, 15, 5, 9, 7, 15, 8, 12, 9, 6, 9, 8, 5, 8, 12, 8, 15, 15, 15, 8, 5, 12, 6, 7, 13, 8, 15, 6, 9, 13]
open = [false, false, false, false, true, true, true, true, true, false, false, true, true, false, true]
trucks_used = [0, 0, 0, 0, 1, 2, 1, 7, 4, 0, 0, 2, 2, 0, 6]
truck_assigned = [6, 5, 1, 3, 1, 4, 7, 1, 3, 2, 4, 5, 1, 3, 1, 4, 2, 1, 3, 2, 1, 2, 1, 1, 2, 6, 6, 2, 4, 2]
obj = 5224
----------
source = [8, 15, 5, 9, 2, 15, 13, 8, 9, 5, 9, 8, 2, 8, 12, 8, 15, 15, 8, 8, 5, 12, 12, 7, 9, 8, 15, 13, 15, 7]
open = [false, true, false, false, true, false, true, true, true, false, false, true, true, false, true]
trucks_used = [0, 1, 0, 0, 1, 0, 1, 8, 4, 0, 0, 3, 2, 0, 6]
truck_assigned = [2, 6, 1, 2, 1, 5, 2, 4, 3, 1, 3, 8, 1, 6, 2, 7, 2, 3, 3, 5, 1, 3, 1, 1, 4, 5, 4, 2, 1, 1]
obj = 5215
----------
source = [8, 3, 12, 3, 15, 13, 9, 8, 2, 15, 9, 8, 2, 8, 7, 8, 15, 8, 8, 13, 15, 12, 2, 7, 9, 8, 8, 13, 12, 3]
open = [false, true, true, false, false, false, true, true, true, false, false, true, true, false, true]
trucks_used = [0, 2, 2, 0, 0, 0, 2, 9, 2, 0, 0, 3, 2, 0, 3]
truck_assigned = [7, 2, 1, 1, 1, 2, 2, 6, 1, 3, 2, 9, 2, 8, 2, 5, 2, 2, 4, 2, 2, 3, 2, 2, 1, 7, 8, 1, 2, 1]
obj = 5210
----------
source = [8, 15, 5, 12, 15, 2, 7, 8, 5, 15, 9, 8, 2, 6, 6, 8, 2, 8, 12, 7, 9, 9, 2, 8, 9, 8, 8, 6, 8, 12]
open = [false, true, false, false, true, true, true, true, true, false, false, true, false, false, true]
trucks_used = [0, 3, 0, 0, 1, 2, 1, 9, 3, 0, 0, 3, 0, 0, 3]
truck_assigned = [6, 3, 1, 2, 2, 3, 1, 8, 1, 1, 3, 7, 2, 1, 2, 5, 2, 3, 3, 1, 2, 3, 3, 8, 1, 4, 6, 1, 9, 3]
obj = 5201
----------
source = [8, 9, 5, 12, 15, 15, 3, 8, 12, 15, 5, 8, 2, 7, 7, 8, 8, 12, 8, 9, 9, 15, 2, 8, 9, 8, 8, 3, 3, 2]
open = [false, true, true, false, true, false, true, true, true, false, false, true, false, false, true]
trucks_used = [0, 1, 2, 0, 1, 0, 1, 9, 4, 0, 0, 3, 0, 0, 4]
truck_assigned = [7, 4, 1, 3, 3, 1, 2, 9, 3, 4, 1, 8, 1, 1, 1, 6, 4, 2, 5, 2, 4, 2, 1, 4, 3, 9, 7, 2, 1, 1]
obj = 5196
----------
source = [8, 9, 5, 12, 15, 15, 7, 8, 12, 15, 3, 8, 2, 3, 5, 8, 8, 12, 8, 9, 9, 15, 2, 8, 9, 8, 8, 3, 7, 2]
open = [false, true, true, false, true, false, true, true, true, false, false, true, false, false, true]
trucks_used = [0, 1, 2, 0, 1, 0, 1, 9, 4, 0, 0, 3, 0, 0, 4]
truck_assigned = [8, 4, 1, 2, 3, 1, 1, 5, 1, 4, 2, 4, 1, 1, 1, 7, 9, 3, 6, 2, 4, 2, 1, 8, 3, 5, 9, 2, 1, 1]
obj = 5188
----------
source = [7, 2, 5, 12, 15, 15, 3, 8, 9, 15, 9, 8, 2, 7, 5, 8, 8, 8, 8, 9, 9, 15, 12, 12, 8, 8, 8, 3, 7, 3]
open = [false, true, true, false, true, false, true, true, true, false, false, true, false, false, true]
trucks_used = [0, 1, 2, 0, 1, 0, 2, 9, 4, 0, 0, 3, 0, 0, 4]
truck_assigned = [2, 1, 1, 3, 3, 1, 1, 8, 4, 4, 1, 7, 1, 2, 1, 6, 3, 9, 2, 3, 3, 2, 3, 2, 1, 8, 9, 2, 1, 1]
obj = 5168
----------
source = [7, 9, 5, 12, 15, 15, 7, 8, 9, 15, 3, 8, 2, 3, 5, 8, 8, 8, 8, 9, 5, 15, 12, 12, 8, 8, 8, 3, 9, 2]
open = [false, true, true, false, true, false, true, true, true, false, false, true, false, false, true]
trucks_used = [0, 1, 2, 0, 1, 0, 2, 9, 4, 0, 0, 3, 0, 0, 4]
truck_assigned = [2, 3, 1, 3, 1, 4, 2, 5, 4, 3, 1, 3, 1, 2, 1, 7, 9, 8, 6, 4, 1, 2, 3, 2, 9, 4, 8, 1, 3, 1]
obj = 5161
----------
source = [9, 15, 5, 9, 2, 15, 5, 8, 12, 5, 3, 8, 2, 12, 7, 8, 8, 8, 8, 9, 9, 15, 12, 8, 15, 8, 8, 3, 9, 7]
open = [false, true, true, false, true, false, true, true, true, false, false, true, false, false, true]
trucks_used = [0, 1, 2, 0, 2, 0, 1, 9, 5, 0, 0, 3, 0, 0, 4]
truck_assigned = [4, 2, 2, 4, 1, 1, 1, 6, 3, 2, 2, 4, 1, 2, 1, 8, 9, 9, 7, 3, 3, 3, 3, 5, 4, 6, 5, 2, 5, 1]
obj = 5155
----------
source = [9, 3, 5, 9, 2, 15, 15, 8, 9, 5, 3, 8, 2, 15, 7, 8, 8, 8, 8, 9, 5, 15, 12, 8, 12, 8, 8, 12, 9, 7]
open = [false, true, true, false, true, false, true, true, true, false, false, true, false, false, true]
trucks_used = [0, 1, 2, 0, 2, 0, 1, 9, 5, 0, 0, 3, 0, 0, 4]
truck_assigned = [3, 1, 2, 5, 1, 1, 4, 9, 5, 2, 2, 5, 1, 4, 1, 6, 9, 8, 7, 3, 1, 3, 2, 8, 3, 4, 3, 1, 4, 1]
obj = 5148
----------
source = [12, 3, 15, 5, 9, 12, 5, 8, 15, 9, 3, 8, 14, 15, 7, 8, 8, 8, 8, 5, 14, 3, 15, 8, 12, 8, 8, 9, 12, 7]
open = [false, false, true, false, true, false, true, true, true, false, false, true, false, true, true]
trucks_used = [0, 0, 3, 0, 2, 0, 1, 9, 2, 0, 0, 4, 0, 1, 3]
truck_assigned = [3, 3, 3, 2, 1, 3, 1, 6, 1, 2, 2, 4, 1, 2, 1, 7, 9, 5, 8, 2, 1, 2, 2, 6, 4, 9, 5, 2, 2, 1]
obj = 5126
----------
source = [12, 15, 5, 3, 14, 12, 5, 8, 15, 9, 3, 8, 3, 15, 7, 8, 8, 8, 8, 5, 14, 12, 8, 15, 9, 8, 8, 9, 12, 7]
open = [false, false, true, false, true, false, true, true, true, false, false, true, false, true, true]
trucks_used = [0, 0, 3, 0, 2, 0, 1, 9, 2, 0, 0, 4, 0, 1, 3]
truck_assigned = [3, 3, 1, 3, 1, 1, 2, 7, 2, 1, 3, 5, 2, 2, 1, 9, 4, 6, 8, 1, 1, 4, 2, 1, 2, 7, 6, 1, 2, 1]
obj = 5125
----------
source = [8, 15, 5, 9, 1, 15, 5, 8, 1, 9, 9, 8, 3, 15, 1, 8, 8, 8, 8, 12, 1, 15, 8, 3, 12, 12, 8, 3, 12, 5]
open = [true, false, true, false, true, false, false, true, true, false, false, true, false, false, true]
trucks_used = [2, 0, 2, 0, 2, 0, 0, 9, 1, 0, 0, 4, 0, 0, 4]
truck_assigned = [6, 4, 1, 1, 2, 2, 2, 2, 1, 1, 1, 8, 2, 1, 1, 9, 5, 5, 7, 2, 2, 3, 4, 1, 1, 3, 6, 2, 4, 1]
obj = 5109
----------
source = [8, 11, 9, 5, 11, 6, 1, 8, 1, 6, 9, 8, 11, 1, 7, 8, 8, 8, 8, 12, 1, 9, 8, 7, 12, 12, 8, 6, 12, 5]
open = [true, false, false, false, true, true, true, true, true, false, true, true, false, false, false]
trucks_used = [3, 0, 0, 0, 1, 1, 2, 9, 2, 0, 3, 4, 0, 0, 0]
truck_assigned = [7, 2, 2, 1, 3, 1, 2, 6, 3, 1, 1, 9, 1, 3, 2, 4, 6, 3, 8, 2, 3, 1, 5, 2, 3, 1, 7, 1, 4, 1]
obj = 5096
----------
source = [8, 11, 1, 9, 11, 6, 1, 8, 1, 6, 9, 8, 5, 1, 11, 8, 8, 8, 8, 12, 5, 9, 8, 7, 12, 12, 8, 6, 12, 7]
open = [true, false, false, false, true, true, true, true, true, false, true, true, false, false, false]
trucks_used = [3, 0, 0, 0, 1, 1, 2, 9, 2, 0, 3, 4, 0, 0, 0]
truck_assigned = [3, 3, 2, 2, 2, 1, 3, 7, 1, 1, 2, 4, 1, 3, 3, 9, 7, 6, 5, 3, 1, 2, 8, 2, 1, 4, 6, 1, 2, 2]
obj = 5094
----------
source = [7, 11, 1, 9, 11, 6, 1, 8, 11, 6, 9, 8, 5, 1, 11, 8, 8, 8, 8, 12, 5, 9, 8, 7, 12, 8, 8, 6, 1, 12]
open = [true, false, false, false, true, true, true, true, true, false, true, true, false, false, false]
trucks_used = [3, 0, 0, 0, 1, 1, 2, 9, 2, 0, 3, 3, 0, 0, 0]
truck_assigned = [2, 3, 1, 2, 2, 1, 2, 5, 1, 1, 2, 8, 1, 2, 3, 7, 3, 4, 6, 1, 1, 2, 9, 2, 2, 4, 5, 1, 3, 3]
obj = 5082
----------
source = [8, 11, 1, 9, 11, 6, 1, 8, 11, 6, 9, 8, 5, 1, 11, 8, 8, 8, 8, 12, 5, 9, 7, 7, 8, 11, 8, 6, 1, 12]
open = [true, false, false, false, true, true, true, true, true, false, true, true, false, false, false]
trucks_used = [3, 0, 0, 0, 1, 1, 2, 9, 2, 0, 5, 2, 0, 0, 0]
truck_assigned = [6, 5, 3, 2, 3, 1, 2, 9, 4, 1, 2, 7, 1, 2, 5, 8, 6, 5, 4, 1, 1, 2, 2, 1, 1, 2, 9, 1, 1, 2]
obj = 5065
----------
source = [8, 9, 1, 7, 11, 5, 1, 8, 11, 9, 9, 8, 5, 1, 11, 8, 8, 8, 8, 11, 5, 5, 12, 7, 8, 11, 8, 6, 1, 12]
open = [true, false, false, false, true, true, true, true, true, false, true, true, false, false, false]
trucks_used = [3, 0, 0, 0, 2, 1, 2, 9, 2, 0, 5, 1, 0, 0, 0]
truck_assigned = [8, 2, 1, 2, 1, 2, 2, 6, 4, 2, 2, 9, 1, 2, 3, 5, 7, 7, 4, 5, 2, 1, 1, 1, 8, 2, 3, 1, 3, 1]
obj = 5064
----------
source = [8, 9, 1, 12, 11, 14, 1, 8, 11, 9, 14, 8, 5, 1, 11, 8, 8, 8, 8, 11, 5, 7, 14, 7, 8, 11, 8, 12, 1, 9]
open = [true, false, false, false, true, false, true, true, true, false, true, true, false, true, false]
trucks_used = [3, 0, 0, 0, 1, 0, 2, 9, 2, 0, 5, 1, 0, 2, 0]
truck_assigned = [9, 2, 3, 1, 3, 1, 1, 8, 4, 1, 2, 6, 1, 1, 1, 5, 8, 7, 3, 5, 1, 1, 2, 2, 9, 2, 7, 1, 2, 2]
obj = 5051
----------
source = [8, 9, 1, 12, 11, 14, 1, 8, 8, 9, 14, 8, 5, 1, 11, 8, 8, 1, 7, 11, 5, 9, 14, 7, 11, 8, 8, 12, 8, 11]
open = [true, false, false, false, true, false, true, true, true, false, true, true, false, true, false]
trucks_used = [3, 0, 0, 0, 1, 0, 2, 9, 2, 0, 5, 1, 0, 2, 0]
truck_assigned = [9, 2, 2, 1, 2, 2, 3, 5, 8, 2, 1, 4, 1, 3, 1, 7, 8, 1, 2, 4, 1, 2, 1, 1, 5, 9, 5, 1, 6, 3]
obj = 5049
----------
source = [8, 9, 1, 1, 11, 14, 7, 8, 8, 9, 14, 8, 2, 1, 11, 8, 8, 14, 14, 11, 9, 2, 2, 7, 11, 8, 8, 1, 8, 11]
open = [true, true, false, false, false, false, true, true, true, false, true, false, false, true, false]
trucks_used = [4, 1, 0, 0, 0, 0, 1, 9, 2, 0, 5, 0, 0, 4, 0]
truck_assigned = [6, 2, 2, 3, 3, 4, 1, 5, 9, 1, 3, 7, 1, 3, 2, 4, 9, 2, 3, 4, 2, 1, 1, 1, 1, 3, 6, 4, 8, 5]
obj = 5029
----------
source = [8, 7, 1, 1, 11, 14, 1, 8, 8, 9, 14, 8, 2, 1, 11, 8, 8, 14, 14, 11, 9, 2, 2, 7, 11, 8, 8, 9, 8, 11]
open = [true, true, false, false, false, false, true, true, true, false, true, false, false, true, false]
trucks_used = [4, 1, 0, 0, 0, 0, 1, 9, 2, 0, 5, 0, 0, 4, 0]
truck_assigned = [6, 1, 4, 3, 4, 4, 2, 9, 5, 2, 3, 8, 1, 3, 2, 7, 5, 1, 3, 5, 1, 1, 1, 1, 1, 3, 9, 2, 1, 3]
obj = 5018
----------
source = [8, 9, 2, 1, 11, 14, 1, 8, 14, 9, 8, 8, 2, 1, 11, 8, 8, 8, 14, 11, 1, 9, 2, 7, 11, 8, 8, 11, 14, 7]
open = [true, true, false, false, false, false, true, true, true, false, true, false, false, true, false]
trucks_used = [4, 2, 0, 0, 0, 0, 1, 9, 2, 0, 5, 0, 0, 4, 0]
truck_assigned = [8, 2, 2, 4, 3, 3, 4, 6, 4, 2, 9, 7, 1, 3, 4, 4, 8, 2, 2, 2, 3, 2, 1, 1, 1, 9, 6, 5, 1, 1]
obj = 5012
----------
source = [14, 8, 8, 1, 11, 14, 13, 14, 1, 10, 8, 11, 13, 1, 11, 7, 11, 14, 14, 11, 1, 10, 10, 7, 11, 7, 11, 8, 10, 10]
open = [true, false, false, false, false, false, true, true, false, true, true, false, true, true, false]
trucks_used = [4, 0, 0, 0, 0, 0, 2, 3, 0, 3, 7, 0, 1, 5, 0]
truck_assigned = [4, 2, 3, 4, 5, 3, 1, 1, 3, 1, 3, 1, 1, 1, 7, 1, 3, 5, 2, 6, 4, 1, 2, 1, 4, 2, 7, 1, 3, 2]
obj = 4988
----------
source = [14, 8, 8, 1, 11, 14, 7, 14, 1, 10, 13, 11, 13, 1, 11, 14, 14, 14, 8, 11, 1, 10, 10, 7, 11, 11, 11, 8, 10, 10]
open = [true, false, false, false, false, false, true, true, false, true, true, false, true, true, false]
trucks_used = [4, 0, 0, 0, 0, 0, 1, 3, 0, 3, 7, 0, 1, 5, 0]
truck_assigned = [1, 1, 3, 4, 4, 4, 1, 2, 2, 3, 1, 6, 1, 3, 3, 2, 3, 5, 3, 2, 4, 1, 3, 1, 7, 5, 5, 2, 2, 1]
obj = 4983
----------
source = [14, 8, 5, 10, 11, 14, 1, 14, 1, 13, 8, 11, 5, 1, 11, 14, 14, 14, 8, 11, 1, 10, 10, 5, 11, 11, 11, 8, 8, 10]
open = [true, false, false, false, true, false, false, true, false, true, true, false, true, true, false]
trucks_used = [2, 0, 0, 0, 2, 0, 0, 5, 0, 2, 7, 0, 1, 6, 0]
truck_assigned = [6, 3, 2, 1, 5, 5, 2, 3, 2, 1, 2, 6, 2, 1, 4, 3, 4, 1, 4, 3, 2, 2, 1, 1, 2, 7, 7, 5, 1, 2]
obj = 4981
----------
source = [14, 8, 5, 10, 13, 14, 1, 14, 1, 11, 5, 11, 5, 1, 11, 14, 14, 14, 8, 8, 1, 10, 11, 10, 11, 11, 11, 8, 8, 10]
open = [true, false, false, false, true, false, false, true, false, true, true, false, true, true, false]
trucks_used = [2, 0, 0, 0, 2, 0, 0, 5, 0, 2, 7, 0, 1, 6, 0]
truck_assigned = [4, 4, 1, 1, 1, 3, 2, 2, 2, 5, 2, 6, 1, 1, 4, 2, 6, 5, 3, 2, 2, 1, 4, 2, 7, 5, 3, 5, 1, 2]
obj = 4966
----------
source = [11, 10, 5, 6, 8, 14, 13, 14, 10, 11, 13, 11, 5, 6, 11, 14, 14, 14, 8, 8, 5, 10, 11, 8, 11, 11, 14, 6, 8, 10]
open = [false, false, false, false, true, true, false, true, false, true, true, false, true, true, false]
trucks_used = [0, 0, 0, 0, 1, 3, 0, 5, 0, 2, 7, 0, 1, 6, 0]
truck_assigned = [3, 2, 1, 3, 2, 4, 1, 5, 1, 7, 1, 6, 1, 2, 5, 5, 6, 3, 4, 3, 1, 2, 5, 3, 4, 7, 2, 2, 5, 1]
obj = 4963
----------
source = [11, 10, 5, 6, 8, 14, 10, 14, 7, 11, 8, 11, 5, 6, 11, 14, 14, 14, 8, 8, 5, 10, 11, 8, 11, 11, 14, 6, 6, 10]
open = [false, false, false, false, true, true, true, true, false, true, true, false, false, true, false]
trucks_used = [0, 0, 0, 0, 1, 3, 1, 5, 0, 2, 7, 0, 0, 6, 0]
truck_assigned = [2, 2, 1, 3, 5, 5, 1, 4, 1, 5, 5, 7, 1, 2, 5, 4, 6, 3, 4, 2, 1, 1, 6, 2, 4, 6, 2, 2, 1, 2]
obj = 4958
----------
source = [11, 2, 12, 8, 2, 14, 10, 14, 12, 6, 5, 11, 5, 6, 11, 14, 14, 11, 5, 5, 8, 10, 10, 8, 11, 14, 14, 11, 11, 10]
open = [false, true, false, false, true, true, false, true, false, true, true, true, false, true, false]
trucks_used = [0, 1, 0, 0, 2, 1, 0, 2, 0, 2, 7, 1, 0, 6, 0]
truck_assigned = [1, 1, 1, 2, 1, 6, 2, 5, 1, 1, 1, 7, 1, 1, 3, 1, 4, 5, 2, 2, 1, 1, 1, 1, 4, 3, 5, 6, 3, 2]
obj = 4952
----------
source = [11, 2, 5, 8, 10, 14, 10, 14, 12, 6, 5, 11, 2, 6, 11, 14, 14, 11, 5, 5, 8, 10, 12, 8, 11, 14, 14, 11, 11, 10]
open = [false, true, false, false, true, true, false, true, false, true, true, true, false, true, false]
trucks_used = [0, 1, 0, 0, 2, 1, 0, 2, 0, 2, 7, 1, 0, 6, 0]
truck_assigned = [2, 1, 1, 2, 1, 4, 2, 3, 1, 1, 1, 4, 1, 1, 6, 2, 5, 7, 2, 2, 1, 2, 1, 1, 5, 6, 2, 3, 6, 1]
obj = 4948
----------
source = [11, 2, 8, 8, 10, 14, 10, 14, 12, 6, 5, 11, 2, 11, 11, 11, 14, 14, 5, 5, 5, 10, 12, 8, 11, 14, 14, 6, 11, 10]
open = [false, true, false, false, true, true, false, true, false, true, true, true, false, true, false]
trucks_used = [0, 1, 0, 0, 2, 1, 0, 2, 0, 2, 7, 2, 0, 6, 0]
truck_assigned = [2, 1, 1, 2, 2, 5, 1, 2, 2, 1, 1, 6, 1, 3, 7, 4, 6, 4, 2, 2, 1, 1, 2, 1, 5, 3, 1, 1, 7, 2]
obj = 4939
----------
source = [11, 2, 8, 11, 2, 14, 10, 14, 12, 6, 5, 11, 5, 12, 11, 11, 14, 14, 5, 5, 8, 10, 12, 10, 11, 14, 14, 6, 11, 10]
open = [false, true, false, false, true, true, false, true, false, true, true, true, false, true, false]
trucks_used = [0, 1, 0, 0, 2, 1, 0, 1, 0, 2, 7, 2, 0, 6, 0]
truck_assigned = [5, 1, 1, 3, 1, 3, 2, 4, 1, 1, 1, 4, 1, 2, 2, 7, 2, 6, 2, 2, 1, 2, 1, 1, 6, 5, 4, 1, 7, 1]
obj = 4921
----------
source = [11, 2, 5, 11, 10, 14, 10, 14, 12, 6, 5, 11, 6, 12, 11, 11, 14, 14, 5, 5, 8, 10, 12, 8, 11, 14, 14, 6, 11, 10]
open = [false, true, false, false, true, true, false, true, false, true, true, true, false, true, false]
trucks_used = [0, 1, 0, 0, 2, 1, 0, 1, 0, 2, 7, 2, 0, 6, 0]
truck_assigned = [3, 1, 1, 7, 2, 5, 1, 2, 1, 1, 1, 6, 1, 2, 5, 4, 4, 6, 2, 2, 1, 1, 1, 1, 2, 3, 2, 1, 5, 2]
obj = 4917
----------
source = [11, 2, 8, 11, 10, 14, 10, 14, 12, 6, 5, 11, 2, 12, 11, 11, 14, 14, 5, 5, 8, 10, 12, 5, 11, 14, 14, 6, 11, 10]
open = [false, true, false, false, true, true, false, true, false, true, true, true, false, true, false]
trucks_used = [0, 1, 0, 0, 2, 1, 0, 1, 0, 2, 7, 2, 0, 6, 0]
truck_assigned = [3, 1, 1, 7, 2, 5, 1, 4, 1, 1, 2, 1, 1, 2, 6, 5, 6, 2, 1, 2, 1, 1, 1, 1, 4, 3, 4, 1, 6, 2]
obj = 4912
----------
source = [11, 2, 5, 11, 10, 14, 10, 14, 12, 6, 5, 11, 2, 12, 11, 11, 14, 14, 5, 5, 8, 10, 12, 8, 11, 14, 14, 6, 11, 10]
open = [false, true, false, false, true, true, false, true, false, true, true, true, false, true, false]
trucks_used = [0, 1, 0, 0, 2, 1, 0, 1, 0, 2, 7, 2, 0, 6, 0]
truck_assigned = [3, 1, 1, 2, 2, 4, 1, 6, 1, 1, 1, 5, 1, 2, 6, 7, 2, 5, 2, 2, 1, 1, 1, 1, 4, 3, 6, 1, 7, 2]
obj = 4898
----------
source = [11, 2, 8, 11, 8, 14, 12, 10, 2, 6, 8, 11, 5, 11, 5, 11, 7, 14, 5, 10, 5, 10, 11, 8, 14, 14, 14, 6, 11, 10]
open = [false, true, false, false, true, true, true, true, false, true, true, true, false, true, false]
trucks_used = [0, 1, 0, 0, 2, 1, 1, 2, 0, 2, 7, 1, 0, 5, 0]
truck_assigned = [5, 1, 2, 6, 1, 5, 1, 1, 1, 1, 1, 3, 1, 4, 2, 7, 1, 3, 2, 1, 2, 2, 5, 2, 4, 2, 4, 1, 7, 2]
obj = 4897
----------
source = [11, 2, 8, 11, 8, 14, 12, 10, 2, 6, 8, 11, 5, 11, 5, 11, 7, 14, 5, 10, 5, 10, 11, 8, 14, 14, 14, 6, 11, 12]
open = [false, true, false, false, true, true, true, true, false, true, true, true, false, true, false]
trucks_used = [0, 1, 0, 0, 2, 1, 1, 2, 0, 2, 7, 1, 0, 5, 0]
truck_assigned = [6, 1, 2, 7, 1, 2, 1, 2, 1, 1, 1, 4, 1, 5, 2, 3, 1, 4, 2, 1, 2, 2, 6, 2, 5, 3, 5, 1, 5, 1]
obj = 4896
----------
source = [11, 2, 5, 11, 10, 14, 10, 10, 2, 6, 8, 11, 6, 11, 5, 11, 7, 14, 5, 5, 12, 10, 11, 8, 14, 14, 14, 6, 11, 12]
open = [false, true, false, false, true, true, true, true, false, true, true, true, false, true, false]
trucks_used = [0, 1, 0, 0, 2, 1, 1, 1, 0, 2, 7, 1, 0, 5, 0]
truck_assigned = [5, 1, 1, 6, 1, 4, 2, 1, 1, 1, 1, 4, 1, 7, 2, 3, 1, 5, 1, 2, 1, 2, 7, 1, 2, 3, 2, 1, 5, 1]
obj = 4888
----------
source = [14, 2, 12, 11, 10, 14, 6, 11, 14, 6, 8, 11, 5, 11, 5, 11, 7, 10, 5, 10, 5, 10, 11, 8, 2, 14, 14, 12, 11, 10]
open = [false, true, false, false, true, true, true, true, false, true, true, true, false, true, false]
trucks_used = [0, 1, 0, 0, 2, 1, 1, 1, 0, 3, 7, 1, 0, 5, 0]
truck_assigned = [5, 1, 1, 6, 2, 2, 1, 5, 3, 1, 1, 4, 1, 7, 2, 5, 1, 3, 2, 1, 2, 3, 3, 1, 1, 4, 3, 1, 7, 2]
obj = 4886
----------
source = [14, 2, 12, 11, 10, 14, 10, 11, 14, 6, 8, 11, 5, 11, 5, 11, 7, 10, 5, 10, 5, 10, 11, 8, 2, 14, 14, 6, 11, 12]
open = [false, true, false, false, true, true, true, true, false, true, true, true, false, true, false]
trucks_used = [0, 1, 0, 0, 2, 1, 1, 1, 0, 3, 7, 1, 0, 5, 0]
truck_assigned = [5, 1, 1, 5, 2, 3, 1, 7, 4, 1, 1, 4, 1, 3, 2, 6, 1, 3, 2, 2, 2, 3, 7, 1, 1, 2, 4, 1, 6, 1]
obj = 4885
----------
source = [14, 10, 12, 11, 10, 14, 6, 12, 2, 11, 8, 11, 5, 11, 5, 11, 7, 11, 5, 5, 14, 10, 10, 8, 2, 14, 14, 6, 11, 12]
open = [false, true, false, false, true, true, true, true, false, true, true, true, false, true, false]
trucks_used = [0, 1, 0, 0, 2, 1, 1, 1, 0, 3, 7, 1, 0, 5, 0]
truck_assigned = [3, 3, 1, 3, 3, 5, 1, 1, 1, 6, 1, 7, 1, 6, 2, 4, 1, 5, 1, 2, 4, 2, 2, 1, 1, 2, 4, 1, 4, 1]
obj = 4884
----------
source = [14, 10, 12, 11, 10, 14, 10, 12, 5, 6, 8, 11, 2, 11, 5, 11, 7, 11, 5, 5, 14, 10, 11, 8, 2, 14, 14, 6, 11, 12]
open = [false, true, false, false, true, true, true, true, false, true, true, true, false, true, false]
trucks_used = [0, 1, 0, 0, 2, 1, 1, 1, 0, 3, 7, 1, 0, 5, 0]
truck_assigned = [5, 3, 1, 6, 3, 3, 2, 1, 1, 1, 1, 3, 1, 7, 2, 5, 1, 4, 1, 2, 5, 2, 5, 1, 1, 4, 2, 1, 7, 1]
obj = 4879
----------
source = [14, 10, 12, 11, 10, 14, 10, 12, 2, 6, 8, 11, 5, 11, 5, 11, 7, 11, 5, 5, 14, 10, 11, 8, 2, 14, 14, 6, 11, 12]
open = [false, true, false, false, true, true, true, true, false, true, true, true, false, true, false]
trucks_used = [0, 1, 0, 0, 2, 1, 1, 1, 0, 3, 7, 1, 0, 5, 0]
truck_assigned = [5, 3, 1, 3, 3, 3, 2, 1, 1, 1, 1, 4, 1, 7, 2, 5, 1, 6, 1, 2, 5, 2, 5, 1, 1, 4, 2, 1, 7, 1]
obj = 4871
----------
source = [14, 10, 12, 11, 10, 14, 10, 12, 5, 6, 8, 11, 2, 11, 5, 11, 7, 11, 5, 5, 14, 2, 11, 8, 2, 14, 14, 6, 11, 12]
open = [false, true, false, false, true, true, true, true, false, true, true, true, false, true, false]
trucks_used = [0, 1, 0, 0, 2, 1, 1, 1, 0, 3, 7, 1, 0, 5, 0]
truck_assigned = [5, 3, 1, 6, 3, 3, 2, 1, 1, 1, 1, 4, 1, 3, 2, 5, 1, 7, 1, 2, 5, 1, 5, 1, 1, 4, 1, 1, 3, 1]
obj = 4870
----------
source = [14, 10, 12, 11, 10, 14, 10, 12, 14, 6, 8, 11, 2, 11, 5, 11, 7, 11, 5, 5, 5, 2, 11, 8, 2, 14, 14, 6, 11, 10]
open = [false, true, false, false, true, true, true, true, false, true, true, true, false, true, false]
trucks_used = [0, 1, 0, 0, 2, 1, 1, 1, 0, 3, 7, 1, 0, 5, 0]
truck_assigned = [3, 3, 1, 4, 3, 5, 2, 1, 4, 1, 1, 5, 1, 3, 2, 6, 1, 7, 1, 2, 1, 1, 3, 1, 1, 2, 4, 1, 6, 2]
obj = 4865
----------
source = [14, 10, 12, 11, 10, 14, 10, 12, 14, 6, 8, 11, 2, 11, 5, 11, 7, 11, 5, 5, 5, 2, 11, 8, 2, 14, 14, 6, 11, 12]
open = [false, true, false, false, true, true, true, true, false, true, true, true, false, true, false]
trucks_used = [0, 1, 0, 0, 2, 1, 1, 1, 0, 3, 7, 1, 0, 5, 0]
truck_assigned = [5, 3, 1, 7, 3, 3, 2, 1, 4, 1, 1, 5, 1, 6, 2, 4, 1, 3, 1, 2, 1, 1, 6, 1, 1, 2, 4, 1, 4, 1]
obj = 4864
----------
source = [11, 10, 12, 11, 12, 14, 10, 14, 14, 6, 8, 11, 2, 11, 5, 11, 7, 10, 5, 5, 5, 2, 2, 11, 8, 14, 14, 6, 11, 10]
open = [false, true, false, false, true, true, true, true, false, true, true, true, false, true, false]
trucks_used = [0, 1, 0, 0, 2, 1, 1, 1, 0, 3, 7, 1, 0, 5, 0]
truck_assigned = [2, 3, 1, 5, 1, 4, 2, 2, 5, 1, 1, 7, 1, 4, 2, 6, 1, 3, 1, 2, 1, 1, 1, 3, 1, 3, 5, 1, 6, 2]
obj = 4858
----------
source = [11, 10, 12, 11, 10, 14, 10, 11, 14, 6, 8, 11, 2, 11, 5, 14, 7, 10, 5, 5, 5, 2, 2, 11, 8, 14, 14, 6, 11, 12]
open = [false, true, false, false, true, true, true, true, false, true, true, true, false, true, false]
trucks_used = [0, 1, 0, 0, 2, 1, 1, 1, 0, 3, 7, 1, 0, 5, 0]
truck_assigned = [5, 3, 1, 3, 1, 3, 2, 2, 5, 1, 1, 4, 1, 6, 2, 5, 1, 3, 1, 2, 1, 1, 1, 7, 1, 4, 2, 1, 6, 1]
obj = 4856
----------
source = [11, 10, 12, 11, 8, 14, 10, 11, 14, 6, 8, 11, 2, 11, 5, 14, 7, 10, 5, 5, 5, 2, 10, 11, 2, 14, 14, 6, 11, 12]
open = [false, true, false, false, true, true, true, true, false, true, true, true, false, true, false]
trucks_used = [0, 1, 0, 0, 2, 1, 1, 1, 0, 3, 7, 1, 0, 5, 0]
truck_assigned = [5, 3, 1, 3, 1, 3, 2, 6, 5, 1, 1, 4, 1, 2, 2, 5, 1, 3, 1, 2, 1, 1, 1, 7, 1, 4, 2, 1, 6, 1]
obj = 4854
----------
source = [11, 10, 12, 11, 8, 14, 10, 11, 14, 6, 8, 11, 2, 12, 5, 14, 7, 10, 5, 5, 5, 2, 11, 11, 2, 14, 14, 6, 11, 10]
open = [false, true, false, false, true, true, true, true, false, true, true, true, false, true, false]
trucks_used = [0, 1, 0, 0, 2, 1, 1, 1, 0, 3, 7, 1, 0, 5, 0]
truck_assigned = [6, 3, 1, 4, 1, 3, 2, 7, 5, 1, 1, 5, 1, 1, 2, 5, 1, 3, 1, 2, 1, 1, 6, 3, 1, 4, 1, 1, 7, 2]
obj = 4852
----------
source = [11, 11, 12, 11, 10, 14, 10, 14, 12, 6, 8, 11, 2, 11, 5, 11, 7, 10, 5, 5, 5, 2, 14, 8, 2, 14, 14, 6, 11, 10]
open = [false, true, false, false, true, true, true, true, false, true, true, true, false, true, false]
trucks_used = [0, 1, 0, 0, 2, 1, 1, 1, 0, 3, 7, 1, 0, 5, 0]
truck_assigned = [6, 6, 1, 4, 3, 3, 2, 5, 1, 1, 1, 5, 1, 3, 2, 7, 1, 2, 1, 2, 1, 1, 2, 1, 1, 4, 5, 1, 7, 3]
obj = 4842
----------
source = [11, 11, 12, 11, 12, 14, 10, 14, 14, 6, 8, 11, 6, 11, 5, 11, 7, 10, 5, 5, 5, 10, 2, 8, 2, 14, 14, 6, 11, 10]
open = [false, true, false, false, true, true, true, true, false, true, true, true, false, true, false]
trucks_used = [0, 1, 0, 0, 2, 1, 1, 1, 0, 3, 7, 1, 0, 5, 0]
truck_assigned = [6, 7, 1, 5, 1, 4, 3, 2, 5, 1, 1, 2, 1, 4, 2, 3, 1, 3, 1, 2, 1, 2, 1, 1, 1, 3, 5, 1, 7, 2]
obj = 4838
----------
source = [11, 11, 12, 11, 10, 14, 10, 14, 14, 6, 8, 11, 6, 11, 5, 11, 7, 10, 5, 5, 5, 10, 2, 8, 2, 14, 14, 6, 11, 12]
open = [false, true, false, false, true, true, true, true, false, true, true, true, false, true, false]
trucks_used = [0, 1, 0, 0, 2, 1, 1, 1, 0, 3, 7, 1, 0, 5, 0]
truck_assigned = [7, 5, 1, 6, 2, 4, 3, 5, 5, 1, 1, 3, 1, 4, 2, 5, 1, 3, 1, 2, 1, 1, 1, 1, 1, 3, 2, 1, 7, 1]
obj = 4837
----------
source = [11, 11, 12, 11, 12, 14, 10, 14, 14, 6, 8, 11, 2, 11, 5, 11, 7, 10, 5, 5, 5, 10, 10, 8, 2, 14, 14, 6, 11, 10]
open = [false, true, false, false, true, true, true, true, false, true, true, true, false, true, false]
trucks_used = [0, 1, 0, 0, 2, 1, 1, 1, 0, 3, 7, 1, 0, 5, 0]
truck_assigned = [7, 7, 1, 6, 1, 4, 3, 5, 5, 1, 1, 3, 1, 4, 2, 5, 1, 3, 1, 2, 1, 2, 1, 1, 1, 3, 2, 1, 5, 2]
obj = 4828
----------
source = [11, 11, 12, 11, 10, 14, 10, 14, 14, 6, 8, 11, 2, 11, 5, 11, 7, 10, 5, 5, 5, 10, 10, 8, 2, 14, 14, 6, 11, 12]
open = [false, true, false, false, true, true, true, true, false, true, true, true, false, true, false]
trucks_used = [0, 1, 0, 0, 2, 1, 1, 1, 0, 3, 7, 1, 0, 5, 0]
truck_assigned = [7, 7, 1, 6, 1, 4, 3, 5, 5, 1, 1, 3, 1, 4, 2, 5, 1, 3, 1, 2, 1, 2, 2, 1, 1, 3, 2, 1, 5, 1]
obj = 4827
----------
source = [11, 11, 12, 11, 12, 14, 10, 14, 14, 6, 8, 11, 2, 11, 5, 11, 7, 10, 5, 5, 5, 2, 10, 8, 2, 14, 14, 6, 11, 10]
open = [false, true, false, false, true, true, true, true, false, true, true, true, false, true, false]
trucks_used = [0, 1, 0, 0, 2, 1, 1, 1, 0, 3, 7, 1, 0, 5, 0]
truck_assigned = [7, 7, 1, 6, 1, 4, 3, 5, 5, 1, 1, 3, 1, 4, 2, 5, 1, 2, 1, 2, 1, 1, 2, 1, 1, 3, 2, 1, 5, 3]
obj = 4819
----------
source = [11, 11, 12, 11, 10, 14, 10, 14, 14, 6, 8, 11, 2, 12, 5, 11, 7, 10, 5, 5, 5, 2, 11, 8, 2, 14, 14, 6, 11, 10]
open = [false, true, false, false, true, true, true, true, false, true, true, true, false, true, false]
trucks_used = [0, 1, 0, 0, 2, 1, 1, 1, 0, 3, 7, 1, 0, 5, 0]
truck_assigned = [7, 7, 1, 6, 2, 4, 3, 5, 5, 1, 1, 4, 1, 1, 2, 5, 1, 1, 1, 2, 1, 1, 3, 1, 1, 3, 1, 1, 5, 3]
obj = 4816
----------
source = [11, 11, 12, 11, 10, 14, 10, 14, 14, 6, 8, 11, 2, 11, 5, 11, 7, 10, 5, 5, 5, 2, 12, 8, 2, 14, 14, 6, 11, 10]
open = [false, true, false, false, true, true, true, true, false, true, true, true, false, true, false]
trucks_used = [0, 1, 0, 0, 2, 1, 1, 1, 0, 3, 7, 1, 0, 5, 0]
truck_assigned = [7, 7, 1, 5, 1, 4, 3, 5, 5, 1, 1, 4, 1, 3, 2, 6, 1, 2, 1, 2, 1, 1, 1, 1, 1, 3, 2, 1, 6, 3]
obj = 4808
----------
source = [11, 11, 12, 11, 10, 14, 10, 11, 14, 6, 8, 11, 2, 11, 5, 14, 7, 10, 5, 5, 5, 2, 12, 8, 2, 14, 14, 6, 11, 10]
open = [false, true, false, false, true, true, true, true, false, true, true, true, false, true, false]
trucks_used = [0, 1, 0, 0, 2, 1, 1, 1, 0, 3, 7, 1, 0, 5, 0]
truck_assigned = [7, 7, 1, 6, 2, 4, 3, 3, 5, 1, 1, 5, 1, 4, 2, 3, 1, 1, 1, 2, 1, 1, 1, 1, 1, 2, 5, 1, 4, 3]
obj = 4807
----------
source = [11, 10, 12, 11, 10, 14, 6, 11, 14, 6, 8, 12, 2, 11, 5, 14, 7, 11, 5, 5, 5, 2, 2, 11, 8, 14, 14, 12, 11, 10]
open = [false, true, false, false, true, true, true, true, false, true, true, true, false, true, false]
trucks_used = [0, 1, 0, 0, 2, 1, 1, 1, 0, 3, 7, 1, 0, 5, 0]
truck_assigned = [7, 2, 1, 4, 3, 4, 1, 6, 5, 1, 1, 1, 1, 5, 2, 3, 1, 2, 1, 2, 1, 1, 1, 3, 1, 2, 5, 1, 7, 3]
obj = 4806
----------
source = [11, 10, 8, 11, 10, 14, 10, 11, 14, 6, 8, 12, 2, 11, 5, 14, 7, 11, 5, 5, 5, 2, 12, 11, 2, 14, 14, 6, 11, 10]
open = [false, true, false, false, true, true, true, true, false, true, true, true, false, true, false]
trucks_used = [0, 1, 0, 0, 2, 1, 1, 1, 0, 3, 7, 1, 0, 5, 0]
truck_assigned = [3, 2, 1, 2, 2, 4, 3, 7, 5, 1, 1, 1, 1, 6, 2, 3, 1, 5, 1, 2, 1, 1, 1, 4, 1, 2, 5, 1, 7, 3]
obj = 4805
----------
source = [11, 10, 12, 11, 8, 14, 10, 11, 14, 6, 8, 12, 2, 11, 5, 14, 7, 11, 5, 5, 5, 2, 10, 11, 2, 14, 14, 6, 11, 10]
open = [false, true, false, false, true, true, true, true, false, true, true, true, false, true, false]
trucks_used = [0, 1, 0, 0, 2, 1, 1, 1, 0, 3, 7, 1, 0, 5, 0]
truck_assigned = [3, 2, 1, 4, 1, 4, 3, 2, 5, 1, 1, 1, 1, 7, 2, 3, 1, 5, 1, 2, 1, 1, 2, 6, 1, 2, 5, 1, 7, 3]
obj = 4804
----------
source = [11, 10, 5, 11, 10, 14, 6, 11, 14, 6, 8, 12, 2, 11, 5, 14, 7, 5, 11, 10, 5, 2, 11, 8, 2, 14, 14, 12, 11, 12]
open = [false, true, false, false, true, true, true, true, false, true, true, true, false, true, false]
trucks_used = [0, 1, 0, 0, 2, 1, 1, 1, 0, 3, 7, 1, 0, 5, 0]
truck_assigned = [7, 3, 1, 4, 2, 3, 1, 3, 5, 1, 1, 1, 1, 5, 1, 5, 1, 2, 6, 3, 2, 1, 7, 1, 1, 4, 2, 1, 6, 1]
obj = 4803
----------
source = [11, 10, 5, 11, 10, 14, 6, 11, 14, 6, 8, 12, 2, 11, 5, 14, 7, 10, 11, 10, 5, 2, 11, 8, 2, 14, 14, 12, 11, 12]
open = [false, true, false, false, true, true, true, true, false, true, true, true, false, true, false]
trucks_used = [0, 1, 0, 0, 2, 1, 1, 1, 0, 3, 7, 1, 0, 5, 0]
truck_assigned = [7, 1, 2, 4, 3, 3, 1, 6, 5, 1, 1, 1, 1, 5, 2, 5, 1, 2, 3, 3, 2, 1, 6, 1, 1, 4, 1, 1, 7, 1]
obj = 4799
----------
source = [11, 10, 8, 11, 10, 14, 6, 11, 14, 6, 8, 12, 2, 11, 5, 14, 7, 10, 11, 5, 5, 2, 11, 5, 2, 14, 14, 12, 11, 10]
open = [false, true, false, false, true, true, true, true, false, true, true, true, false, true, false]
trucks_used = [0, 1, 0, 0, 2, 1, 1, 1, 0, 3, 7, 1, 0, 5, 0]
truck_assigned = [3, 3, 1, 4, 3, 3, 1, 6, 5, 1, 1, 1, 1, 5, 1, 5, 1, 2, 7, 1, 2, 1, 7, 2, 1, 4, 2, 1, 6, 2]
obj = 4795
----------
source = [11, 10, 8, 11, 10, 14, 6, 11, 14, 6, 8, 12, 2, 11, 5, 14, 7, 10, 11, 5, 5, 2, 11, 5, 2, 14, 14, 12, 11, 12]
open = [false, true, false, false, true, true, true, true, false, true, true, true, false, true, false]
trucks_used = [0, 1, 0, 0, 2, 1, 1, 1, 0, 3, 7, 1, 0, 5, 0]
truck_assigned = [5, 3, 1, 4, 3, 3, 1, 3, 5, 1, 1, 1, 1, 6, 1, 5, 1, 2, 7, 1, 2, 1, 6, 2, 1, 4, 2, 1, 7, 1]
obj = 4794
----------
source = [11, 10, 12, 11, 10, 14, 6, 11, 14, 6, 8, 12, 2, 11, 5, 14, 7, 5, 11, 5, 5, 2, 11, 8, 2, 14, 14, 12, 11, 10]
open = [false, true, false, false, true, true, true, true, false, true, true, true, false, true, false]
trucks_used = [0, 1, 0, 0, 2, 1, 1, 1, 0, 3, 7, 1, 0, 5, 0]
truck_assigned = [5, 3, 1, 4, 3, 3, 1, 3, 5, 1, 1, 1, 1, 6, 1, 5, 1, 1, 7, 2, 2, 1, 7, 1, 1, 4, 2, 1, 6, 2]
obj = 4785
----------
source = [11, 10, 12, 11, 10, 14, 6, 11, 14, 6, 8, 12, 2, 11, 5, 14, 7, 10, 11, 5, 5, 2, 11, 8, 2, 14, 14, 12, 11, 10]
open = [false, true, false, false, true, true, true, true, false, true, true, true, false, true, false]
trucks_used = [0, 1, 0, 0, 2, 1, 1, 1, 0, 3, 7, 1, 0, 5, 0]
truck_assigned = [5, 3, 1, 4, 3, 3, 1, 3, 5, 1, 1, 1, 1, 6, 1, 5, 1, 2, 7, 2, 2, 1, 6, 1, 1, 4, 1, 1, 7, 2]
obj = 4781
----------
source = [11, 10, 12, 11, 10, 14, 6, 11, 14, 11, 8, 12, 2, 11, 5, 14, 7, 11, 5, 5, 5, 2, 10, 8, 2, 14, 14, 6, 11, 10]
open = [false, true, false, false, true, true, true, true, false, true, true, true, false, true, false]
trucks_used = [0, 1, 0, 0, 2, 1, 1, 1, 0, 3, 7, 1, 0, 5, 0]
truck_assigned = [5, 3, 1, 4, 3, 3, 1, 6, 5, 6, 1, 1, 1, 7, 1, 5, 1, 3, 1, 2, 2, 1, 2, 1, 1, 4, 1, 1, 7, 2]
obj = 4778
----------
source = [11, 10, 12, 11, 10, 14, 6, 11, 14, 6, 8, 12, 2, 11, 5, 14, 7, 11, 5, 5, 5, 2, 11, 8, 2, 14, 14, 10, 11, 10]
open = [false, true, false, false, true, true, true, true, false, true, true, true, false, true, false]
trucks_used = [0, 1, 0, 0, 2, 1, 1, 1, 0, 3, 7, 1, 0, 5, 0]
truck_assigned = [6, 3, 1, 4, 3, 3, 1, 3, 5, 1, 1, 1, 1, 7, 1, 5, 1, 5, 1, 2, 2, 1, 6, 1, 1, 4, 2, 2, 7, 2]
obj = 4776
----------
source = [11, 10, 12, 11, 10, 14, 6, 11, 14, 6, 8, 12, 2, 11, 5, 14, 7, 11, 5, 5, 5, 10, 11, 8, 2, 14, 14, 12, 11, 10]
open = [false, true, false, false, true, true, true, true, false, true, true, true, false, true, false]
trucks_used = [0, 1, 0, 0, 2, 1, 1, 1, 0, 3, 7, 1, 0, 5, 0]
truck_assigned = [7, 3, 1, 4, 3, 3, 1, 3, 5, 1, 1, 1, 1, 5, 2, 5, 1, 6, 2, 1, 2, 2, 5, 1, 1, 4, 2, 1, 7, 2]
obj = 4774
----------
source = [11, 10, 12, 11, 10, 14, 6, 11, 14, 6, 8, 12, 2, 11, 5, 14, 7, 11, 5, 5, 5, 2, 11, 8, 2, 14, 14, 12, 11, 10]
open = [false, true, false, false, true, true, true, true, false, true, true, true, false, true, false]
trucks_used = [0, 1, 0, 0, 2, 1, 1, 1, 0, 3, 7, 1, 0, 5, 0]
truck_assigned = [5, 3, 1, 4, 3, 3, 1, 6, 5, 1, 1, 1, 1, 3, 2, 5, 1, 7, 2, 1, 2, 1, 6, 1, 1, 4, 2, 1, 5, 2]
obj = 4765
----------
source = [11, 10, 12, 11, 10, 1, 1, 14, 2, 6, 14, 12, 5, 1, 5, 14, 7, 11, 11, 5, 1, 10, 11, 11, 2, 14, 14, 6, 11, 10]
open = [true, true, false, false, true, true, true, false, false, true, true, true, false, true, false]
trucks_used = [2, 1, 0, 0, 2, 1, 1, 0, 0, 3, 7, 1, 0, 5, 0]
truck_assigned = [6, 3, 1, 5, 2, 1, 2, 4, 1, 1, 4, 1, 1, 2, 2, 5, 1, 4, 7, 2, 2, 3, 7, 3, 1, 2, 5, 1, 6, 2]
obj = 4759
----------
source = [11, 10, 12, 11, 10, 1, 1, 14, 5, 6, 14, 12, 2, 1, 5, 14, 7, 11, 11, 5, 1, 2, 11, 11, 2, 14, 14, 6, 11, 10]
open = [true, true, false, false, true, true, true, false, false, true, true, true, false, true, false]
trucks_used = [2, 1, 0, 0, 2, 1, 1, 0, 0, 3, 7, 1, 0, 5, 0]
truck_assigned = [4, 3, 1, 5, 2, 1, 2, 3, 1, 1, 4, 1, 1, 2, 2, 4, 1, 6, 3, 2, 2, 1, 4, 7, 1, 5, 2, 1, 3, 3]
obj = 4758
----------
source = [11, 10, 12, 11, 10, 1, 1, 14, 1, 6, 14, 12, 2, 11, 5, 14, 7, 11, 11, 5, 5, 10, 11, 5, 2, 14, 14, 6, 11, 10]
open = [true, true, false, false, true, true, true, false, false, true, true, true, false, true, false]
trucks_used = [2, 1, 0, 0, 2, 1, 1, 0, 0, 3, 7, 1, 0, 5, 0]
truck_assigned = [5, 3, 1, 3, 1, 2, 1, 3, 1, 1, 4, 1, 1, 4, 2, 4, 1, 7, 6, 1, 1, 2, 5, 2, 1, 5, 2, 1, 6, 3]
obj = 4756
----------
source = [11, 10, 12, 11, 10, 1, 1, 14, 1, 6, 14, 12, 2, 11, 5, 14, 7, 11, 11, 5, 1, 10, 11, 5, 2, 14, 14, 6, 11, 10]
open = [true, true, false, false, true, true, true, false, false, true, true, true, false, true, false]
trucks_used = [2, 1, 0, 0, 2, 1, 1, 0, 0, 3, 7, 1, 0, 5, 0]
truck_assigned = [6, 3, 1, 5, 1, 2, 1, 3, 1, 1, 4, 1, 1, 4, 2, 4, 1, 3, 7, 1, 1, 2, 6, 2, 1, 5, 3, 1, 7, 3]
obj = 4755
----------
source = [11, 10, 12, 11, 10, 1, 1, 14, 1, 6, 14, 12, 5, 11, 5, 14, 7, 11, 11, 5, 1, 2, 11, 10, 2, 14, 14, 6, 11, 10]
open = [true, true, false, false, true, true, true, false, false, true, true, true, false, true, false]
trucks_used = [2, 1, 0, 0, 2, 1, 1, 0, 0, 3, 7, 1, 0, 5, 0]
truck_assigned = [4, 3, 1, 1, 2, 2, 1, 3, 1, 1, 5, 1, 1, 5, 2, 4, 1, 6, 7, 2, 1, 1, 7, 1, 1, 2, 5, 1, 5, 3]
obj = 4753
----------
source = [11, 10, 12, 11, 10, 1, 1, 14, 1, 6, 14, 12, 2, 11, 5, 14, 7, 11, 11, 5, 5, 2, 11, 5, 2, 14, 14, 6, 11, 10]
open = [true, true, false, false, true, true, true, false, false, true, true, true, false, true, false]
trucks_used = [2, 1, 0, 0, 2, 1, 1, 0, 0, 3, 7, 1, 0, 5, 0]
truck_assigned = [4, 3, 1, 3, 2, 2, 1, 4, 1, 1, 5, 1, 1, 5, 2, 4, 1, 6, 7, 1, 1, 1, 5, 2, 1, 2, 5, 1, 7, 3]
obj = 4747
----------
source = [11, 10, 12, 11, 10, 1, 1, 14, 1, 6, 14, 12, 2, 11, 5, 14, 7, 11, 11, 5, 1, 2, 11, 5, 2, 14, 14, 6, 11, 10]
open = [true, true, false, false, true, true, true, false, false, true, true, true, false, true, false]
trucks_used = [2, 1, 0, 0, 2, 1, 1, 0, 0, 3, 7, 1, 0, 5, 0]
truck_assigned = [4, 3, 1, 3, 2, 2, 1, 4, 1, 1, 5, 1, 1, 5, 2, 4, 1, 6, 7, 1, 1, 1, 7, 2, 1, 3, 5, 1, 5, 3]
obj = 4746
----------
source = [11, 11, 12, 11, 10, 1, 1, 14, 12, 6, 14, 14, 5, 1, 5, 14, 7, 11, 5, 5, 1, 2, 11, 10, 2, 14, 11, 6, 11, 10]
open = [true, true, false, false, true, true, true, false, false, true, true, true, false, true, false]
trucks_used = [2, 1, 0, 0, 2, 1, 1, 0, 0, 3, 7, 1, 0, 5, 0]
truck_assigned = [4, 7, 1, 5, 2, 1, 2, 2, 1, 1, 2, 5, 2, 2, 1, 4, 1, 6, 2, 1, 2, 1, 4, 3, 1, 1, 7, 1, 2, 3]
obj = 4739
----------
source = [11, 10, 12, 11, 10, 1, 1, 14, 1, 6, 14, 12, 2, 11, 5, 14, 7, 14, 11, 5, 5, 2, 11, 5, 2, 14, 11, 6, 11, 10]
open = [true, true, false, false, true, true, true, false, false, true, true, true, false, true, false]
trucks_used = [2, 1, 0, 0, 2, 1, 1, 0, 0, 3, 7, 1, 0, 5, 0]
truck_assigned = [4, 2, 1, 5, 3, 1, 2, 2, 2, 1, 5, 1, 1, 6, 1, 5, 1, 4, 7, 2, 2, 1, 3, 1, 1, 3, 7, 1, 6, 3]
obj = 4733
----------
source = [11, 10, 12, 11, 10, 1, 1, 14, 1, 6, 14, 12, 2, 11, 5, 14, 7, 14, 11, 5, 1, 2, 11, 5, 2, 14, 11, 6, 11, 10]
open = [true, true, false, false, true, true, true, false, false, true, true, true, false, true, false]
trucks_used = [2, 1, 0, 0, 2, 1, 1, 0, 0, 3, 7, 1, 0, 5, 0]
truck_assigned = [3, 2, 1, 5, 3, 1, 2, 3, 2, 1, 5, 1, 1, 6, 2, 5, 1, 4, 7, 1, 2, 1, 3, 2, 1, 2, 7, 1, 6, 3]
obj = 4732
----------
