+ /usr/bin/timeout 600 /usr/bin/time -v mzn-chuffed lbbd-datasets/sscplp/dzn/model.mzn lbbd-datasets/sscplp/dzn/p21.dzn
% No search annotation given. Defaulting to VSIDS!
source = [8, 3, 6, 6, 10, 17, 7, 7, 8, 20, 13, 9, 9, 14, 9, 10, 10, 16, 11, 11, 12, 12, 13, 14, 15, 15, 18, 17, 18, 15, 19, 19, 20, 16, 16, 17, 20, 20, 20, 20]
obj = 11992
----------
source = [8, 3, 6, 6, 10, 17, 7, 7, 8, 20, 13, 9, 9, 14, 9, 10, 10, 16, 11, 11, 12, 12, 13, 14, 15, 15, 18, 17, 18, 15, 19, 19, 20, 16, 16, 17, 20, 20, 20, 20]
obj = 11630
----------
source = [8, 3, 6, 6, 10, 17, 7, 7, 8, 20, 13, 9, 9, 14, 9, 10, 10, 16, 11, 11, 12, 12, 13, 14, 15, 15, 18, 17, 18, 15, 19, 19, 20, 16, 16, 17, 20, 20, 20, 20]
obj = 11501
----------
source = [8, 3, 6, 6, 10, 17, 7, 7, 8, 20, 13, 9, 9, 14, 9, 10, 10, 16, 11, 11, 12, 12, 13, 14, 15, 15, 18, 17, 18, 15, 19, 19, 20, 16, 16, 17, 20, 20, 20, 20]
obj = 11139
----------
source = [8, 3, 6, 6, 10, 17, 7, 7, 8, 20, 13, 9, 9, 14, 9, 10, 10, 16, 11, 11, 12, 12, 13, 14, 15, 15, 18, 17, 18, 15, 19, 19, 20, 16, 16, 17, 20, 20, 20, 20]
obj = 11082
----------
source = [8, 3, 6, 6, 10, 17, 7, 7, 8, 20, 13, 9, 9, 14, 9, 10, 10, 16, 11, 11, 12, 12, 13, 14, 15, 15, 18, 17, 18, 15, 19, 19, 20, 16, 16, 17, 20, 20, 20, 20]
obj = 10720
----------
source = [8, 3, 6, 6, 10, 17, 7, 7, 8, 20, 13, 9, 9, 14, 9, 10, 10, 16, 11, 11, 12, 12, 13, 14, 15, 15, 18, 17, 18, 15, 19, 19, 20, 16, 16, 17, 20, 20, 20, 20]
obj = 10454
----------
source = [8, 2, 6, 6, 10, 17, 7, 7, 8, 20, 13, 9, 9, 14, 9, 10, 10, 16, 11, 11, 12, 12, 13, 14, 15, 15, 18, 17, 18, 15, 19, 19, 20, 16, 16, 17, 20, 20, 20, 20]
obj = 10210
----------
source = [12, 3, 9, 16, 10, 14, 20, 20, 11, 20, 13, 7, 19, 16, 9, 18, 12, 3, 15, 11, 12, 17, 13, 8, 3, 17, 7, 10, 15, 14, 10, 10, 20, 9, 16, 8, 10, 18, 7, 15]
obj = 10205
----------
source = [12, 3, 9, 16, 10, 12, 20, 16, 11, 10, 13, 7, 19, 15, 12, 17, 8, 10, 9, 11, 15, 17, 13, 18, 3, 16, 7, 9, 15, 14, 15, 9, 20, 10, 20, 8, 14, 18, 7, 12]
obj = 10203
----------
source = [12, 3, 9, 16, 12, 12, 20, 16, 11, 20, 13, 7, 19, 15, 9, 18, 8, 17, 10, 11, 15, 17, 13, 10, 3, 16, 17, 3, 15, 14, 15, 9, 20, 20, 12, 8, 14, 18, 7, 9]
obj = 10199
----------
source = [12, 3, 9, 16, 15, 20, 20, 16, 11, 20, 13, 7, 19, 12, 9, 18, 8, 17, 10, 11, 15, 17, 13, 10, 3, 16, 17, 3, 15, 14, 20, 20, 20, 9, 8, 12, 14, 18, 7, 15]
obj = 10197
----------
source = [12, 3, 9, 16, 14, 20, 20, 16, 11, 20, 13, 7, 19, 12, 9, 18, 8, 17, 10, 11, 15, 17, 13, 10, 3, 16, 17, 3, 15, 14, 20, 20, 20, 9, 8, 12, 15, 18, 7, 15]
obj = 10193
----------
source = [12, 3, 9, 16, 15, 16, 20, 16, 11, 9, 13, 7, 19, 12, 8, 18, 8, 17, 9, 11, 15, 17, 13, 10, 3, 16, 17, 3, 15, 14, 8, 9, 20, 10, 20, 12, 14, 18, 7, 15]
obj = 10191
----------
source = [12, 3, 9, 16, 14, 16, 20, 16, 11, 12, 13, 7, 19, 12, 8, 18, 8, 17, 9, 11, 15, 17, 13, 10, 3, 16, 17, 9, 15, 14, 8, 9, 20, 10, 20, 12, 15, 18, 7, 15]
obj = 10189
----------
source = [12, 3, 9, 16, 14, 16, 20, 16, 11, 9, 13, 7, 19, 12, 8, 18, 8, 17, 9, 11, 15, 17, 13, 10, 3, 16, 17, 3, 15, 14, 8, 9, 20, 10, 20, 12, 15, 18, 7, 15]
obj = 10187
----------
source = [12, 3, 9, 16, 12, 16, 20, 16, 11, 9, 13, 7, 19, 15, 15, 20, 18, 17, 10, 11, 15, 17, 13, 10, 3, 16, 17, 3, 15, 8, 20, 9, 20, 9, 8, 12, 14, 12, 7, 14]
obj = 10170
----------
source = [12, 3, 9, 16, 12, 20, 20, 16, 11, 20, 20, 7, 19, 14, 15, 17, 18, 3, 10, 11, 15, 17, 13, 10, 3, 16, 7, 9, 15, 8, 20, 9, 20, 9, 8, 12, 15, 13, 7, 14]
obj = 10169
----------
source = [12, 3, 9, 16, 9, 12, 20, 16, 11, 12, 13, 7, 19, 14, 15, 20, 18, 17, 10, 11, 15, 17, 13, 10, 3, 16, 7, 3, 15, 8, 20, 9, 20, 9, 8, 12, 15, 12, 7, 14]
obj = 10160
----------
source = [12, 3, 9, 16, 9, 12, 20, 16, 11, 12, 13, 7, 19, 14, 15, 20, 18, 17, 10, 11, 15, 17, 13, 10, 3, 16, 17, 3, 15, 8, 20, 9, 20, 9, 8, 12, 15, 12, 7, 14]
obj = 10153
----------
source = [12, 3, 9, 16, 9, 12, 20, 16, 11, 9, 13, 7, 19, 14, 15, 20, 18, 17, 10, 11, 15, 17, 13, 10, 3, 16, 17, 3, 15, 8, 20, 9, 20, 9, 8, 12, 15, 12, 7, 14]
obj = 10149
----------
source = [12, 3, 9, 16, 12, 16, 20, 16, 11, 9, 13, 7, 19, 14, 15, 20, 18, 17, 10, 11, 15, 17, 13, 10, 3, 16, 17, 3, 15, 8, 20, 9, 20, 9, 8, 12, 15, 12, 7, 14]
obj = 10142
----------
source = [12, 3, 9, 16, 12, 16, 20, 16, 11, 9, 13, 7, 19, 14, 15, 20, 18, 17, 10, 11, 15, 17, 13, 10, 3, 16, 17, 9, 15, 8, 20, 9, 20, 9, 8, 12, 15, 12, 7, 14]
obj = 10140
----------
source = [12, 3, 9, 16, 12, 16, 20, 16, 11, 9, 13, 7, 19, 14, 15, 20, 18, 17, 10, 11, 15, 17, 13, 10, 3, 16, 17, 3, 15, 8, 20, 9, 20, 9, 8, 12, 15, 15, 7, 14]
obj = 10127
----------
source = [12, 3, 9, 16, 12, 16, 20, 16, 11, 9, 13, 7, 19, 14, 15, 20, 18, 17, 10, 11, 15, 17, 13, 10, 3, 16, 17, 9, 15, 8, 20, 9, 20, 9, 8, 12, 15, 15, 7, 14]
obj = 10125
----------
source = [12, 3, 9, 16, 17, 12, 20, 16, 11, 9, 13, 7, 19, 14, 15, 20, 14, 3, 10, 11, 15, 17, 13, 10, 3, 16, 12, 9, 15, 8, 20, 9, 20, 9, 8, 12, 17, 15, 7, 18]
obj = 10122
----------
source = [20, 3, 9, 16, 17, 16, 20, 16, 11, 9, 13, 7, 19, 14, 15, 18, 14, 3, 10, 11, 15, 17, 13, 10, 3, 16, 12, 9, 15, 8, 20, 9, 20, 9, 8, 12, 15, 15, 7, 12]
obj = 10119
----------
source = [12, 3, 9, 16, 12, 16, 20, 16, 11, 12, 13, 7, 19, 14, 15, 20, 14, 17, 10, 11, 15, 17, 13, 10, 3, 16, 12, 9, 15, 8, 20, 9, 20, 9, 8, 12, 15, 15, 7, 18]
obj = 10110
----------
source = [12, 3, 9, 16, 12, 16, 20, 16, 11, 9, 13, 7, 19, 14, 15, 20, 14, 17, 10, 11, 15, 17, 13, 10, 3, 16, 12, 3, 15, 8, 20, 9, 20, 9, 8, 12, 15, 15, 7, 18]
obj = 10108
----------
source = [12, 3, 9, 16, 12, 16, 20, 16, 11, 9, 13, 7, 19, 14, 15, 20, 14, 17, 10, 11, 15, 17, 13, 10, 3, 16, 12, 9, 15, 8, 20, 9, 20, 9, 8, 12, 15, 15, 7, 18]
obj = 10106
----------
source = [12, 3, 9, 16, 12, 20, 20, 16, 11, 9, 13, 7, 19, 14, 18, 17, 14, 3, 10, 11, 15, 17, 13, 10, 3, 16, 12, 9, 15, 8, 15, 9, 20, 9, 8, 12, 20, 15, 7, 20]
obj = 10101
----------
source = [12, 3, 9, 16, 12, 20, 20, 16, 11, 20, 13, 7, 19, 15, 9, 18, 14, 17, 10, 11, 15, 17, 13, 10, 3, 16, 12, 3, 15, 8, 15, 14, 20, 9, 8, 12, 20, 18, 7, 20]
obj = 10098
----------
source = [12, 3, 9, 16, 17, 12, 20, 16, 11, 12, 13, 7, 19, 14, 15, 20, 18, 3, 10, 11, 15, 17, 13, 10, 3, 16, 12, 9, 15, 8, 20, 17, 20, 9, 8, 12, 15, 15, 7, 14]
obj = 10094
----------
source = [12, 3, 9, 16, 12, 3, 20, 16, 11, 9, 13, 7, 19, 14, 15, 20, 18, 17, 10, 11, 15, 17, 13, 10, 3, 16, 12, 3, 15, 8, 20, 9, 20, 9, 8, 12, 15, 15, 7, 14]
obj = 10085
----------
source = [12, 3, 9, 16, 12, 16, 20, 16, 11, 9, 13, 7, 19, 14, 15, 20, 18, 17, 10, 11, 15, 17, 13, 10, 3, 16, 13, 3, 15, 8, 20, 9, 20, 9, 8, 12, 15, 15, 7, 14]
obj = 10081
----------
source = [12, 3, 9, 16, 17, 12, 20, 16, 11, 9, 13, 7, 19, 14, 15, 20, 18, 3, 10, 11, 15, 17, 13, 10, 3, 16, 12, 9, 15, 8, 20, 9, 20, 9, 8, 12, 15, 15, 7, 14]
obj = 10071
----------
source = [12, 3, 9, 16, 12, 16, 20, 16, 11, 9, 13, 7, 19, 14, 15, 20, 18, 17, 10, 11, 15, 17, 13, 10, 3, 16, 12, 3, 15, 8, 20, 9, 20, 9, 8, 12, 15, 15, 7, 14]
obj = 10067
----------
source = [12, 3, 9, 16, 12, 16, 20, 16, 11, 9, 13, 7, 19, 14, 15, 20, 18, 17, 10, 11, 15, 17, 13, 10, 3, 16, 12, 9, 15, 8, 20, 9, 20, 9, 8, 12, 15, 15, 7, 14]
obj = 10065
----------
source = [9, 3, 9, 16, 10, 12, 20, 16, 11, 9, 13, 7, 19, 14, 8, 18, 14, 17, 10, 11, 15, 12, 13, 8, 3, 16, 10, 3, 15, 8, 15, 10, 20, 9, 20, 17, 15, 18, 7, 12]
obj = 10062
----------
source = [7, 3, 9, 16, 10, 20, 20, 16, 11, 10, 13, 20, 19, 14, 9, 18, 14, 17, 10, 11, 15, 12, 13, 7, 3, 16, 12, 3, 15, 8, 15, 10, 20, 9, 8, 17, 15, 18, 7, 12]
obj = 10060
----------
source = [7, 3, 9, 16, 17, 12, 20, 16, 11, 9, 13, 14, 19, 17, 15, 20, 18, 10, 8, 11, 15, 12, 13, 7, 3, 16, 10, 3, 15, 8, 20, 9, 20, 10, 9, 17, 15, 15, 7, 12]
obj = 10058
----------
source = [7, 3, 9, 16, 10, 12, 20, 16, 11, 10, 13, 14, 19, 10, 15, 20, 18, 17, 10, 11, 15, 12, 13, 7, 3, 16, 10, 9, 15, 8, 20, 9, 20, 9, 8, 17, 15, 15, 7, 12]
obj = 10054
----------
source = [7, 3, 9, 16, 10, 12, 20, 16, 11, 9, 13, 14, 19, 10, 15, 20, 18, 17, 10, 11, 15, 12, 13, 7, 3, 16, 10, 9, 15, 8, 20, 9, 20, 9, 8, 17, 15, 15, 7, 12]
obj = 10052
----------
source = [7, 3, 9, 16, 17, 10, 20, 16, 11, 9, 13, 14, 19, 17, 15, 20, 18, 10, 10, 11, 15, 12, 13, 7, 3, 16, 12, 9, 15, 8, 20, 9, 20, 9, 8, 17, 15, 15, 7, 12]
obj = 10050
----------
source = [7, 3, 9, 16, 17, 12, 20, 16, 11, 10, 13, 14, 19, 17, 15, 20, 18, 10, 10, 11, 15, 12, 13, 7, 3, 16, 10, 9, 15, 8, 20, 9, 20, 9, 8, 17, 15, 15, 7, 12]
obj = 10048
----------
source = [7, 3, 9, 16, 17, 12, 20, 16, 11, 9, 13, 14, 19, 17, 15, 20, 18, 10, 10, 11, 15, 12, 13, 7, 3, 16, 10, 9, 15, 8, 20, 9, 20, 9, 8, 17, 15, 15, 7, 12]
obj = 10046
----------
source = [7, 3, 9, 16, 15, 12, 20, 16, 11, 10, 13, 14, 19, 10, 15, 20, 18, 17, 9, 11, 15, 12, 13, 7, 3, 16, 10, 9, 15, 8, 20, 9, 20, 10, 8, 17, 10, 15, 7, 12]
obj = 10040
----------
source = [7, 3, 9, 16, 10, 16, 20, 16, 11, 12, 13, 14, 19, 10, 15, 20, 18, 17, 9, 11, 15, 12, 13, 7, 3, 16, 12, 9, 15, 8, 20, 9, 20, 10, 8, 17, 15, 15, 7, 12]
obj = 10031
----------
source = [7, 3, 9, 16, 10, 16, 20, 16, 11, 9, 13, 14, 19, 10, 15, 20, 18, 17, 9, 11, 15, 12, 13, 7, 3, 16, 12, 3, 15, 8, 20, 9, 20, 10, 8, 17, 15, 15, 7, 12]
obj = 10029
----------
source = [7, 3, 9, 16, 10, 12, 20, 16, 11, 10, 13, 14, 19, 10, 15, 20, 18, 17, 9, 11, 15, 12, 13, 7, 3, 16, 10, 9, 15, 8, 20, 9, 20, 10, 8, 17, 15, 15, 7, 12]
obj = 10021
----------
source = [7, 3, 9, 16, 17, 10, 20, 16, 11, 10, 13, 14, 19, 17, 15, 20, 18, 10, 9, 11, 15, 12, 13, 7, 3, 16, 12, 9, 15, 8, 20, 9, 20, 10, 8, 17, 15, 15, 7, 12]
obj = 10019
----------
source = [7, 3, 9, 16, 17, 12, 20, 16, 11, 10, 13, 14, 19, 17, 15, 20, 18, 10, 9, 11, 15, 12, 13, 7, 3, 16, 10, 9, 15, 8, 20, 9, 20, 10, 8, 17, 15, 15, 7, 12]
obj = 10015
----------
source = [12, 3, 9, 16, 7, 16, 20, 16, 11, 10, 13, 14, 19, 12, 15, 20, 18, 17, 9, 11, 15, 12, 13, 10, 3, 16, 12, 9, 15, 8, 20, 9, 20, 10, 8, 17, 15, 15, 7, 7]
obj = 10006
----------
source = [12, 3, 9, 16, 15, 12, 20, 16, 11, 9, 13, 7, 19, 14, 15, 20, 18, 17, 9, 11, 15, 12, 13, 10, 3, 16, 13, 3, 15, 8, 20, 9, 20, 10, 8, 17, 12, 15, 7, 14]
obj = 9988
----------
source = [12, 3, 9, 16, 17, 12, 20, 16, 11, 10, 13, 7, 19, 14, 15, 20, 18, 3, 9, 11, 15, 12, 13, 10, 3, 16, 12, 9, 15, 8, 20, 9, 20, 10, 8, 17, 15, 15, 7, 14]
obj = 9987
----------
source = [12, 3, 9, 16, 12, 12, 20, 16, 11, 10, 13, 7, 19, 14, 15, 20, 18, 17, 9, 11, 15, 12, 13, 10, 3, 16, 13, 9, 15, 8, 20, 9, 20, 10, 8, 17, 15, 15, 7, 14]
obj = 9982
----------
source = [12, 3, 9, 16, 12, 16, 20, 16, 11, 10, 13, 7, 19, 14, 15, 20, 18, 17, 9, 11, 15, 12, 13, 10, 3, 16, 12, 9, 15, 8, 20, 9, 20, 10, 8, 17, 15, 15, 7, 14]
obj = 9981
----------
source = [12, 3, 9, 16, 13, 16, 20, 16, 11, 9, 12, 7, 19, 14, 10, 20, 18, 17, 9, 11, 15, 12, 13, 15, 3, 16, 12, 3, 15, 8, 20, 9, 20, 10, 8, 17, 15, 15, 7, 14]
obj = 9979
----------
source = [12, 3, 9, 16, 13, 16, 20, 16, 11, 10, 7, 14, 19, 12, 15, 20, 18, 17, 9, 11, 15, 12, 13, 10, 3, 16, 12, 3, 15, 8, 20, 9, 20, 10, 8, 17, 15, 15, 7, 7]
obj = 9978
----------
source = [12, 3, 9, 16, 13, 16, 20, 16, 11, 9, 7, 14, 19, 12, 15, 20, 18, 17, 9, 11, 15, 12, 13, 10, 3, 16, 12, 3, 15, 8, 20, 9, 20, 10, 8, 17, 15, 15, 7, 7]
obj = 9976
----------
source = [12, 3, 9, 16, 13, 16, 20, 16, 11, 10, 12, 7, 19, 14, 15, 20, 18, 17, 9, 11, 15, 12, 13, 10, 3, 16, 15, 9, 15, 8, 20, 9, 20, 10, 8, 17, 15, 13, 7, 14]
obj = 9974
----------
source = [12, 3, 9, 16, 17, 15, 20, 16, 11, 10, 12, 7, 19, 14, 15, 20, 18, 13, 9, 11, 15, 12, 13, 10, 3, 16, 12, 9, 15, 8, 20, 9, 20, 10, 8, 17, 17, 15, 7, 14]
obj = 9970
----------
source = [12, 3, 9, 16, 17, 16, 20, 16, 11, 10, 12, 7, 19, 14, 15, 20, 18, 3, 9, 11, 15, 12, 13, 10, 3, 16, 12, 9, 15, 8, 20, 9, 20, 10, 8, 17, 17, 15, 7, 14]
obj = 9964
----------
source = [12, 3, 9, 16, 17, 16, 20, 16, 11, 10, 12, 7, 19, 14, 15, 20, 18, 13, 9, 11, 15, 12, 13, 10, 3, 16, 12, 9, 15, 8, 20, 9, 20, 10, 8, 17, 15, 15, 7, 14]
obj = 9960
----------
source = [12, 3, 9, 16, 17, 16, 20, 16, 11, 10, 12, 7, 19, 14, 15, 20, 18, 3, 9, 11, 15, 12, 13, 10, 3, 16, 12, 9, 15, 8, 20, 9, 20, 10, 8, 17, 15, 15, 7, 14]
obj = 9954
----------
source = [12, 3, 9, 16, 13, 16, 20, 16, 11, 10, 12, 7, 19, 14, 15, 20, 18, 17, 9, 11, 15, 12, 13, 10, 3, 16, 12, 9, 15, 8, 20, 9, 20, 10, 8, 17, 15, 15, 7, 14]
obj = 9950
----------
source = [12, 3, 9, 16, 12, 16, 20, 16, 11, 10, 3, 7, 19, 14, 15, 20, 18, 17, 9, 11, 15, 12, 13, 10, 3, 16, 12, 9, 15, 8, 20, 9, 20, 10, 8, 17, 15, 15, 7, 14]
obj = 9949
----------
source = [12, 3, 9, 16, 15, 16, 20, 16, 11, 10, 12, 7, 19, 14, 15, 20, 18, 17, 9, 11, 15, 12, 13, 10, 3, 16, 12, 9, 15, 8, 20, 9, 20, 10, 8, 17, 13, 15, 7, 14]
obj = 9940
----------
source = [9, 3, 9, 16, 15, 16, 20, 16, 11, 10, 14, 7, 19, 14, 15, 20, 18, 17, 9, 11, 15, 12, 13, 10, 3, 16, 12, 3, 15, 8, 20, 14, 20, 10, 8, 17, 13, 13, 7, 12]
obj = 9933
----------
source = [9, 3, 9, 16, 15, 16, 20, 16, 11, 10, 14, 7, 19, 14, 15, 20, 18, 17, 9, 11, 15, 12, 13, 10, 3, 16, 12, 3, 15, 8, 20, 14, 20, 10, 8, 17, 13, 15, 7, 12]
obj = 9923
----------
source = [9, 3, 9, 16, 15, 16, 20, 16, 11, 9, 14, 7, 19, 14, 15, 20, 18, 17, 9, 11, 15, 12, 13, 10, 3, 16, 12, 3, 15, 8, 20, 14, 20, 10, 8, 17, 13, 15, 7, 12]
obj = 9921
----------
source = [3, 3, 9, 16, 17, 20, 20, 16, 11, 9, 14, 20, 19, 17, 10, 18, 14, 10, 7, 11, 15, 3, 13, 10, 12, 16, 12, 9, 15, 8, 15, 9, 20, 9, 8, 17, 13, 18, 7, 12]
obj = 9917
----------
source = [3, 3, 9, 16, 17, 20, 20, 16, 11, 9, 14, 20, 19, 17, 10, 18, 14, 10, 7, 11, 15, 3, 13, 10, 12, 16, 12, 9, 15, 8, 15, 9, 20, 9, 8, 17, 13, 15, 7, 12]
obj = 9909
----------
source = [3, 3, 9, 16, 17, 20, 20, 16, 11, 9, 14, 20, 19, 15, 10, 18, 14, 10, 7, 11, 15, 3, 13, 10, 12, 16, 10, 9, 15, 8, 15, 9, 20, 9, 8, 17, 13, 18, 7, 12]
obj = 9908
----------
source = [3, 3, 9, 16, 17, 20, 20, 16, 11, 9, 14, 20, 19, 15, 10, 18, 14, 10, 7, 11, 15, 3, 13, 10, 12, 16, 12, 9, 15, 8, 15, 9, 20, 9, 8, 17, 13, 18, 7, 12]
obj = 9903
----------
source = [3, 3, 9, 16, 13, 20, 20, 16, 11, 9, 14, 20, 19, 15, 8, 18, 14, 17, 7, 11, 15, 3, 13, 10, 8, 16, 12, 9, 15, 9, 15, 9, 20, 10, 12, 17, 13, 18, 7, 12]
obj = 9902
----------
source = [3, 3, 9, 16, 17, 16, 20, 16, 11, 10, 14, 7, 19, 15, 8, 18, 14, 10, 9, 11, 15, 17, 13, 8, 10, 16, 12, 9, 15, 8, 15, 9, 20, 3, 20, 12, 13, 18, 7, 12]
obj = 9901
----------
source = [3, 3, 9, 16, 17, 16, 20, 16, 11, 10, 14, 7, 19, 15, 15, 20, 14, 10, 9, 11, 15, 17, 13, 18, 12, 16, 12, 9, 15, 8, 20, 9, 20, 3, 8, 10, 13, 18, 7, 12]
obj = 9900
----------
source = [3, 3, 9, 16, 17, 16, 20, 16, 11, 10, 14, 7, 19, 15, 15, 20, 14, 10, 9, 11, 15, 17, 13, 18, 10, 16, 12, 9, 15, 8, 20, 9, 20, 3, 8, 12, 13, 18, 7, 12]
obj = 9899
----------
source = [3, 3, 9, 16, 10, 10, 20, 16, 11, 10, 14, 7, 19, 15, 18, 20, 14, 17, 9, 11, 15, 17, 13, 15, 10, 16, 12, 9, 15, 8, 20, 9, 20, 3, 8, 12, 13, 13, 7, 12]
obj = 9898
----------
source = [3, 3, 9, 16, 17, 16, 20, 16, 11, 9, 14, 7, 19, 15, 15, 20, 18, 10, 9, 11, 15, 17, 13, 14, 10, 16, 12, 9, 15, 8, 20, 17, 20, 3, 8, 12, 13, 13, 7, 12]
obj = 9892
----------
source = [3, 3, 9, 16, 13, 20, 20, 16, 11, 20, 14, 7, 19, 20, 15, 17, 18, 10, 9, 11, 15, 17, 13, 14, 10, 16, 12, 9, 15, 8, 20, 9, 20, 3, 8, 12, 13, 15, 7, 12]
obj = 9890
----------
source = [3, 3, 9, 16, 17, 15, 20, 16, 11, 10, 14, 7, 19, 17, 15, 20, 18, 10, 9, 11, 15, 17, 13, 14, 10, 16, 12, 9, 15, 8, 20, 9, 20, 3, 8, 12, 13, 13, 7, 12]
obj = 9889
----------
source = [3, 3, 9, 16, 17, 15, 20, 16, 11, 12, 14, 7, 19, 17, 15, 20, 18, 10, 9, 11, 15, 17, 13, 14, 10, 16, 12, 9, 15, 8, 20, 9, 20, 3, 8, 12, 13, 15, 7, 12]
obj = 9881
----------
source = [3, 3, 9, 16, 17, 16, 20, 16, 11, 10, 14, 7, 19, 17, 15, 20, 18, 10, 9, 11, 15, 17, 13, 14, 10, 16, 12, 9, 15, 8, 20, 9, 20, 3, 8, 12, 13, 15, 7, 12]
obj = 9879
----------
source = [3, 3, 9, 16, 17, 16, 20, 16, 11, 12, 14, 7, 19, 15, 15, 20, 18, 10, 9, 11, 15, 17, 13, 14, 10, 16, 12, 9, 15, 8, 20, 9, 20, 3, 8, 12, 13, 13, 7, 12]
obj = 9877
----------
source = [3, 3, 9, 16, 17, 16, 20, 16, 11, 10, 14, 7, 19, 15, 15, 20, 18, 10, 9, 11, 15, 17, 13, 14, 10, 16, 12, 9, 15, 8, 20, 9, 20, 3, 8, 12, 13, 13, 7, 12]
obj = 9875
----------
source = [3, 3, 9, 16, 17, 16, 20, 16, 11, 10, 14, 7, 19, 14, 15, 20, 18, 17, 17, 11, 15, 3, 13, 10, 12, 16, 12, 9, 15, 8, 20, 14, 20, 10, 8, 9, 13, 15, 7, 12]
obj = 9873
----------
source = [3, 3, 9, 16, 12, 12, 20, 16, 11, 9, 12, 7, 19, 14, 18, 20, 14, 17, 10, 11, 15, 3, 13, 10, 12, 16, 12, 9, 15, 8, 20, 9, 20, 9, 8, 17, 13, 15, 7, 15]
obj = 9871
----------
source = [12, 3, 9, 16, 15, 16, 20, 16, 11, 9, 14, 7, 19, 12, 18, 20, 14, 17, 8, 11, 15, 3, 13, 10, 9, 16, 12, 3, 15, 8, 20, 9, 20, 10, 12, 17, 13, 8, 7, 15]
obj = 9870
----------
source = [12, 3, 9, 16, 15, 16, 20, 16, 11, 12, 14, 7, 19, 12, 18, 20, 14, 17, 8, 11, 15, 3, 13, 10, 9, 16, 12, 3, 15, 8, 20, 9, 20, 10, 12, 17, 13, 13, 7, 15]
obj = 9869
----------
source = [12, 3, 9, 16, 15, 16, 20, 16, 11, 9, 14, 7, 19, 12, 18, 20, 14, 17, 8, 11, 15, 3, 13, 10, 9, 16, 12, 3, 15, 8, 20, 9, 20, 10, 12, 17, 13, 13, 7, 15]
obj = 9865
----------
source = [3, 3, 9, 16, 13, 12, 20, 16, 11, 9, 14, 7, 19, 14, 15, 20, 18, 17, 8, 11, 15, 3, 13, 10, 9, 16, 15, 14, 15, 8, 20, 9, 20, 10, 12, 17, 13, 15, 7, 12]
obj = 9864
----------
source = [3, 3, 9, 16, 15, 12, 20, 16, 11, 9, 14, 7, 19, 14, 15, 20, 18, 17, 8, 11, 15, 3, 13, 10, 9, 16, 13, 14, 15, 8, 20, 9, 20, 10, 12, 17, 13, 15, 7, 12]
obj = 9858
----------
source = [3, 3, 9, 16, 15, 16, 20, 16, 11, 9, 14, 7, 19, 14, 15, 20, 18, 17, 8, 11, 15, 3, 13, 10, 9, 16, 12, 14, 15, 8, 20, 9, 20, 10, 12, 17, 13, 15, 7, 12]
obj = 9857
----------
source = [3, 3, 9, 16, 15, 16, 20, 16, 11, 10, 14, 7, 19, 14, 15, 20, 18, 17, 8, 11, 15, 3, 13, 10, 9, 16, 12, 9, 15, 8, 20, 14, 20, 10, 12, 17, 13, 15, 7, 12]
obj = 9849
----------
source = [3, 3, 9, 16, 15, 16, 20, 16, 11, 9, 14, 7, 19, 14, 15, 20, 18, 17, 8, 11, 15, 3, 13, 10, 9, 16, 12, 9, 15, 8, 20, 14, 20, 10, 12, 17, 13, 15, 7, 12]
obj = 9847
----------
source = [3, 3, 9, 16, 15, 12, 20, 16, 11, 9, 14, 7, 19, 14, 15, 20, 18, 17, 12, 11, 15, 3, 13, 10, 9, 16, 12, 9, 15, 8, 20, 14, 20, 10, 8, 17, 13, 15, 7, 12]
obj = 9833
----------
source = [3, 3, 9, 16, 15, 16, 20, 16, 11, 12, 14, 7, 19, 14, 15, 20, 18, 17, 9, 11, 15, 3, 13, 10, 12, 16, 12, 14, 15, 8, 20, 9, 20, 10, 8, 17, 13, 15, 7, 12]
obj = 9832
----------
source = [9, 3, 9, 16, 15, 16, 20, 16, 11, 10, 14, 7, 19, 14, 15, 20, 18, 17, 9, 11, 15, 3, 13, 10, 12, 16, 12, 3, 15, 8, 20, 14, 20, 10, 8, 17, 13, 15, 7, 12]
obj = 9830
----------
source = [9, 3, 9, 16, 15, 16, 20, 16, 11, 9, 14, 7, 19, 14, 15, 20, 18, 17, 9, 11, 15, 3, 13, 10, 12, 16, 12, 3, 15, 8, 20, 14, 20, 10, 8, 17, 13, 15, 7, 12]
obj = 9828
----------
source = [3, 3, 9, 16, 15, 16, 20, 16, 11, 10, 14, 7, 19, 14, 15, 20, 18, 17, 9, 11, 15, 3, 13, 10, 12, 16, 12, 9, 15, 8, 20, 9, 20, 10, 8, 17, 13, 15, 7, 12]
obj = 9826
----------
source = [3, 3, 9, 16, 14, 16, 20, 16, 11, 12, 14, 7, 19, 14, 15, 20, 18, 17, 9, 11, 15, 3, 13, 10, 12, 16, 12, 9, 15, 8, 20, 9, 20, 10, 8, 17, 13, 15, 7, 12]
obj = 9825
----------
source = [3, 3, 9, 16, 14, 16, 20, 16, 11, 10, 14, 7, 19, 14, 15, 20, 18, 17, 9, 11, 15, 3, 13, 10, 12, 16, 12, 9, 15, 8, 20, 9, 20, 10, 8, 17, 13, 15, 7, 12]
obj = 9823
----------
source = [3, 3, 9, 16, 15, 16, 20, 16, 11, 10, 14, 7, 19, 14, 15, 20, 18, 17, 9, 11, 15, 3, 13, 10, 12, 16, 12, 9, 15, 8, 20, 14, 20, 10, 8, 17, 13, 15, 7, 12]
obj = 9820
----------
source = [3, 3, 9, 16, 15, 16, 20, 16, 11, 9, 14, 7, 19, 14, 15, 20, 18, 17, 9, 11, 15, 3, 13, 10, 12, 16, 12, 9, 15, 8, 20, 14, 20, 10, 8, 17, 13, 15, 7, 12]
obj = 9818
----------
source = [3, 3, 9, 16, 15, 20, 20, 16, 11, 10, 14, 7, 19, 20, 15, 18, 14, 17, 9, 11, 15, 3, 13, 10, 12, 16, 12, 9, 15, 8, 20, 9, 20, 10, 8, 17, 13, 15, 7, 12]
obj = 9816
----------
source = [3, 3, 9, 16, 15, 20, 20, 16, 11, 20, 14, 7, 19, 20, 15, 18, 14, 17, 9, 11, 15, 3, 13, 10, 12, 16, 12, 9, 15, 8, 20, 9, 20, 10, 8, 17, 13, 15, 7, 12]
obj = 9814
----------
source = [12, 3, 9, 16, 15, 20, 20, 16, 11, 20, 7, 14, 19, 12, 15, 20, 18, 17, 8, 11, 15, 3, 13, 10, 9, 16, 12, 3, 15, 8, 20, 9, 13, 10, 12, 17, 13, 15, 7, 7]
obj = 9809
----------
source = [3, 3, 9, 16, 14, 20, 20, 16, 11, 20, 14, 7, 19, 15, 15, 20, 18, 17, 10, 11, 15, 3, 13, 10, 12, 16, 12, 14, 15, 8, 20, 9, 13, 9, 8, 17, 14, 13, 7, 12]
obj = 9807
----------
source = [3, 3, 9, 16, 17, 10, 20, 16, 11, 20, 14, 7, 19, 17, 15, 14, 18, 10, 9, 11, 15, 3, 13, 20, 12, 16, 12, 9, 15, 8, 20, 9, 13, 10, 8, 17, 13, 15, 7, 12]
obj = 9803
----------
source = [3, 3, 9, 16, 14, 20, 20, 16, 11, 9, 14, 7, 19, 15, 15, 20, 18, 17, 12, 11, 15, 3, 13, 10, 9, 16, 12, 14, 15, 8, 20, 9, 13, 10, 8, 17, 14, 13, 7, 12]
obj = 9802
----------
source = [3, 3, 9, 16, 14, 20, 20, 16, 11, 10, 14, 7, 19, 15, 15, 20, 18, 17, 12, 11, 15, 3, 13, 10, 9, 16, 12, 14, 15, 8, 20, 9, 13, 10, 8, 17, 12, 13, 7, 12]
obj = 9800
----------
source = [3, 3, 9, 16, 14, 20, 20, 16, 11, 9, 14, 7, 19, 15, 15, 20, 18, 17, 12, 11, 15, 3, 13, 10, 9, 16, 12, 14, 15, 8, 20, 9, 13, 10, 8, 17, 12, 13, 7, 12]
obj = 9798
----------
source = [3, 3, 9, 16, 12, 20, 20, 16, 11, 9, 14, 7, 19, 15, 15, 20, 18, 17, 12, 11, 15, 3, 13, 10, 9, 16, 12, 14, 15, 8, 20, 9, 13, 10, 8, 17, 14, 13, 7, 12]
obj = 9796
----------
source = [3, 3, 9, 16, 12, 20, 20, 16, 11, 20, 18, 7, 19, 15, 15, 20, 14, 17, 12, 11, 15, 3, 13, 10, 9, 16, 12, 14, 15, 8, 20, 9, 13, 10, 8, 17, 13, 18, 7, 12]
obj = 9786
----------
source = [15, 3, 9, 16, 12, 20, 20, 16, 11, 20, 14, 7, 19, 15, 18, 20, 14, 17, 12, 11, 15, 3, 13, 10, 9, 16, 12, 3, 15, 8, 20, 9, 13, 10, 8, 17, 13, 15, 7, 12]
obj = 9773
----------
source = [3, 3, 9, 16, 12, 20, 20, 16, 11, 20, 14, 7, 19, 15, 15, 18, 14, 17, 12, 11, 15, 3, 13, 10, 9, 16, 12, 9, 15, 8, 20, 20, 13, 10, 8, 17, 13, 18, 7, 12]
obj = 9769
----------
source = [3, 3, 9, 16, 10, 12, 20, 16, 11, 20, 14, 7, 19, 15, 15, 18, 14, 17, 12, 11, 15, 3, 13, 20, 9, 16, 12, 9, 15, 8, 20, 10, 13, 10, 8, 17, 13, 18, 7, 12]
obj = 9758
----------
source = [3, 3, 9, 16, 17, 12, 20, 16, 11, 20, 14, 7, 19, 15, 15, 18, 20, 10, 12, 11, 15, 3, 13, 14, 10, 16, 12, 9, 15, 8, 20, 9, 13, 9, 8, 17, 13, 18, 7, 12]
obj = 9757
----------
source = [3, 3, 9, 16, 17, 20, 20, 16, 11, 20, 14, 7, 19, 17, 15, 20, 18, 10, 9, 11, 15, 10, 13, 14, 12, 16, 12, 9, 15, 8, 20, 9, 13, 3, 8, 17, 13, 15, 7, 12]
obj = 9747
----------
source = [3, 3, 9, 16, 17, 20, 20, 16, 11, 20, 14, 7, 19, 17, 15, 20, 18, 10, 9, 11, 15, 12, 13, 14, 10, 16, 12, 9, 15, 8, 20, 9, 13, 3, 8, 17, 15, 13, 7, 12]
obj = 9745
----------
source = [3, 3, 9, 16, 17, 20, 20, 16, 11, 20, 14, 7, 19, 15, 15, 20, 18, 10, 9, 11, 15, 12, 13, 14, 10, 16, 12, 9, 15, 8, 20, 9, 13, 3, 8, 17, 17, 13, 7, 12]
obj = 9741
----------
source = [3, 3, 9, 16, 17, 20, 20, 16, 11, 20, 14, 7, 19, 17, 15, 20, 18, 10, 9, 11, 15, 12, 13, 14, 10, 16, 12, 9, 15, 8, 20, 9, 13, 3, 8, 17, 15, 15, 7, 12]
obj = 9735
----------
source = [3, 3, 9, 16, 17, 20, 20, 16, 11, 20, 14, 7, 19, 17, 15, 20, 18, 10, 9, 11, 15, 12, 13, 14, 10, 16, 12, 9, 15, 8, 20, 9, 13, 3, 8, 17, 13, 15, 7, 12]
obj = 9731
----------
source = [3, 3, 9, 16, 17, 10, 20, 16, 11, 20, 14, 7, 19, 17, 15, 18, 14, 10, 9, 11, 15, 3, 13, 20, 12, 16, 12, 9, 15, 8, 20, 9, 13, 10, 8, 17, 13, 15, 7, 12]
obj = 9728
----------
source = [3, 3, 9, 16, 17, 16, 20, 16, 11, 20, 14, 7, 19, 15, 15, 18, 14, 10, 9, 11, 15, 3, 13, 20, 12, 16, 12, 9, 15, 8, 20, 9, 13, 10, 8, 17, 13, 18, 7, 12]
obj = 9726
----------
source = [3, 3, 9, 16, 17, 10, 20, 16, 11, 20, 14, 7, 19, 15, 15, 18, 14, 10, 9, 11, 15, 3, 13, 20, 12, 16, 12, 9, 15, 8, 20, 9, 13, 10, 8, 17, 13, 18, 7, 12]
obj = 9722
----------
source = [3, 3, 9, 16, 10, 16, 20, 16, 11, 20, 14, 7, 19, 15, 15, 18, 14, 17, 9, 11, 15, 12, 13, 20, 10, 16, 12, 9, 15, 8, 20, 9, 13, 3, 8, 17, 13, 18, 7, 12]
obj = 9721
----------
source = [3, 3, 9, 16, 10, 10, 20, 16, 11, 20, 14, 7, 19, 15, 15, 18, 14, 17, 9, 11, 15, 12, 13, 20, 10, 16, 12, 9, 15, 8, 20, 9, 13, 3, 8, 17, 13, 18, 7, 12]
obj = 9717
----------
source = [3, 3, 9, 16, 17, 16, 20, 16, 11, 20, 14, 7, 19, 15, 15, 18, 14, 10, 9, 11, 15, 12, 13, 20, 10, 16, 12, 9, 15, 8, 20, 9, 13, 3, 8, 17, 13, 18, 7, 12]
obj = 9714
----------
source = [3, 3, 9, 16, 10, 12, 20, 16, 11, 20, 14, 7, 19, 15, 15, 18, 14, 17, 9, 11, 15, 12, 13, 20, 10, 16, 10, 9, 15, 8, 20, 9, 13, 3, 8, 17, 13, 18, 7, 12]
obj = 9713
----------
source = [3, 3, 9, 16, 6, 20, 20, 16, 11, 20, 14, 8, 19, 15, 15, 18, 14, 17, 9, 11, 15, 3, 13, 10, 12, 16, 12, 9, 15, 8, 6, 9, 13, 10, 20, 17, 13, 18, 6, 12]
obj = 9711
----------
source = [3, 3, 9, 16, 6, 20, 20, 16, 11, 20, 14, 8, 19, 15, 6, 18, 14, 17, 9, 11, 15, 3, 13, 10, 12, 16, 12, 9, 15, 8, 15, 9, 13, 10, 20, 17, 13, 18, 6, 12]
obj = 9702
----------
source = [3, 3, 9, 16, 17, 12, 20, 16, 11, 20, 6, 14, 19, 17, 18, 6, 12, 10, 9, 11, 15, 3, 13, 20, 10, 16, 15, 9, 15, 8, 20, 9, 13, 8, 12, 17, 13, 15, 6, 15]
obj = 9700
----------
source = [3, 3, 9, 16, 17, 16, 20, 16, 11, 20, 6, 14, 19, 17, 18, 6, 12, 10, 9, 11, 15, 3, 13, 20, 10, 16, 12, 9, 15, 8, 20, 9, 13, 8, 12, 17, 13, 15, 6, 15]
obj = 9699
----------
source = [12, 3, 9, 16, 15, 16, 20, 16, 11, 9, 6, 14, 19, 12, 15, 6, 18, 17, 10, 11, 15, 3, 13, 10, 9, 16, 12, 3, 15, 8, 20, 9, 13, 8, 12, 17, 13, 15, 6, 20]
obj = 9698
----------
source = [3, 3, 9, 16, 12, 16, 20, 16, 11, 10, 10, 14, 19, 15, 15, 18, 12, 17, 9, 11, 15, 3, 13, 6, 10, 16, 10, 9, 15, 8, 20, 9, 13, 8, 12, 17, 13, 18, 6, 20]
obj = 9696
----------
source = [3, 3, 9, 16, 12, 16, 20, 16, 11, 20, 10, 14, 19, 15, 15, 18, 12, 17, 9, 11, 15, 3, 13, 20, 10, 16, 10, 9, 15, 8, 20, 9, 13, 8, 12, 17, 13, 18, 6, 6]
obj = 9691
----------
source = [3, 3, 9, 16, 6, 12, 20, 16, 11, 20, 10, 14, 19, 15, 15, 6, 18, 17, 9, 11, 15, 3, 13, 20, 10, 16, 10, 9, 15, 8, 20, 9, 13, 8, 12, 17, 13, 8, 6, 12]
obj = 9685
----------
source = [3, 3, 9, 16, 10, 12, 20, 16, 11, 20, 6, 14, 19, 15, 15, 6, 18, 17, 9, 11, 15, 3, 13, 20, 10, 16, 10, 9, 15, 8, 20, 9, 13, 8, 12, 17, 13, 10, 6, 12]
obj = 9684
----------
source = [3, 3, 9, 16, 10, 16, 20, 16, 11, 20, 6, 14, 19, 15, 15, 6, 18, 17, 9, 11, 15, 3, 13, 20, 10, 16, 12, 9, 15, 8, 20, 9, 13, 8, 12, 17, 13, 8, 6, 12]
obj = 9673
----------
source = [3, 3, 9, 16, 10, 10, 20, 16, 11, 20, 6, 14, 19, 15, 15, 6, 18, 17, 9, 11, 15, 3, 13, 20, 10, 16, 12, 9, 15, 8, 20, 9, 13, 8, 12, 17, 13, 8, 6, 12]
obj = 9669
----------
source = [3, 3, 9, 16, 10, 12, 20, 16, 11, 20, 6, 14, 19, 15, 15, 6, 18, 17, 9, 11, 15, 3, 13, 20, 10, 16, 10, 9, 15, 8, 20, 9, 13, 8, 12, 17, 13, 8, 6, 12]
obj = 9665
----------
source = [3, 3, 9, 16, 17, 20, 20, 16, 11, 16, 14, 17, 19, 15, 15, 17, 18, 10, 9, 11, 15, 3, 13, 14, 12, 16, 12, 9, 15, 8, 6, 9, 13, 8, 20, 10, 13, 8, 6, 12]
obj = 9663
----------
source = [3, 3, 9, 16, 17, 20, 20, 16, 11, 19, 14, 17, 19, 15, 15, 17, 18, 10, 9, 11, 15, 3, 13, 14, 12, 16, 12, 9, 15, 8, 6, 9, 13, 8, 20, 10, 13, 8, 6, 12]
obj = 9662
----------
source = [3, 3, 9, 16, 6, 20, 20, 16, 11, 16, 14, 17, 19, 15, 15, 18, 14, 10, 9, 11, 15, 3, 13, 6, 12, 16, 12, 9, 15, 8, 17, 9, 13, 8, 20, 10, 13, 18, 6, 12]
obj = 9659
----------
source = [3, 3, 9, 16, 15, 20, 20, 16, 11, 19, 6, 17, 19, 14, 15, 6, 18, 10, 9, 11, 15, 3, 13, 14, 12, 16, 12, 9, 15, 8, 17, 9, 13, 8, 20, 10, 13, 15, 6, 12]
obj = 9651
----------
source = [12, 3, 9, 16, 12, 16, 20, 16, 11, 19, 6, 14, 19, 15, 15, 6, 18, 17, 10, 11, 15, 3, 13, 10, 9, 16, 12, 3, 15, 8, 20, 9, 13, 8, 12, 17, 13, 8, 6, 20]
obj = 9645
----------
source = [12, 3, 9, 16, 15, 16, 20, 16, 11, 19, 6, 14, 19, 12, 15, 6, 18, 17, 10, 11, 15, 3, 13, 10, 9, 16, 12, 3, 15, 8, 20, 9, 13, 8, 12, 17, 13, 15, 6, 20]
obj = 9635
----------
source = [3, 3, 9, 16, 17, 12, 20, 16, 11, 16, 6, 14, 19, 17, 15, 6, 18, 10, 9, 11, 15, 3, 13, 20, 10, 16, 16, 9, 15, 8, 20, 9, 13, 8, 12, 17, 13, 15, 6, 12]
obj = 9634
----------
source = [3, 3, 9, 16, 17, 12, 20, 16, 11, 19, 6, 14, 19, 17, 15, 6, 18, 10, 9, 11, 15, 3, 13, 20, 10, 16, 16, 9, 15, 8, 20, 9, 13, 8, 12, 17, 13, 15, 6, 12]
obj = 9633
----------
source = [3, 3, 9, 16, 17, 16, 20, 16, 11, 19, 6, 14, 19, 17, 15, 6, 18, 10, 9, 11, 15, 3, 13, 20, 10, 16, 13, 9, 15, 8, 20, 9, 13, 8, 12, 17, 15, 15, 6, 12]
obj = 9620
----------
source = [3, 3, 9, 16, 17, 12, 20, 16, 11, 19, 6, 14, 19, 17, 15, 6, 18, 10, 9, 11, 15, 3, 13, 20, 10, 16, 15, 9, 15, 8, 20, 9, 13, 8, 12, 17, 15, 13, 6, 12]
obj = 9617
----------
source = [3, 3, 9, 16, 17, 16, 20, 16, 11, 19, 6, 14, 19, 17, 15, 6, 18, 10, 9, 11, 15, 3, 13, 20, 10, 16, 15, 9, 15, 8, 20, 9, 13, 8, 12, 17, 13, 15, 6, 12]
obj = 9616
----------
source = [3, 3, 9, 16, 17, 16, 20, 16, 11, 19, 6, 14, 19, 17, 15, 6, 18, 10, 9, 11, 15, 3, 13, 20, 10, 16, 12, 9, 15, 8, 20, 9, 13, 8, 12, 17, 15, 15, 6, 12]
obj = 9606
----------
source = [3, 3, 9, 16, 17, 16, 20, 16, 11, 19, 6, 14, 19, 17, 15, 6, 18, 10, 9, 11, 15, 3, 13, 20, 10, 16, 12, 9, 15, 8, 20, 9, 13, 8, 12, 17, 13, 15, 6, 12]
obj = 9602
----------
source = [12, 3, 9, 7, 17, 20, 20, 4, 20, 19, 6, 16, 19, 12, 10, 6, 18, 10, 8, 17, 16, 11, 8, 10, 3, 11, 10, 3, 9, 9, 17, 11, 9, 7, 13, 12, 7, 13, 6, 16]
obj = 9601
----------
source = [12, 3, 9, 7, 7, 20, 20, 4, 20, 19, 6, 16, 19, 12, 10, 6, 18, 10, 8, 17, 16, 11, 8, 10, 3, 11, 10, 3, 9, 9, 17, 11, 9, 7, 13, 12, 7, 13, 6, 16]
obj = 9600
----------
source = [9, 3, 9, 4, 16, 4, 20, 7, 7, 19, 18, 6, 19, 12, 16, 20, 10, 10, 16, 11, 12, 8, 12, 10, 3, 17, 13, 3, 9, 8, 20, 9, 9, 6, 17, 13, 20, 18, 11, 16]
obj = 9584
----------
source = [9, 3, 9, 4, 12, 6, 20, 7, 7, 19, 12, 12, 19, 12, 16, 18, 10, 10, 16, 11, 16, 8, 6, 10, 3, 17, 13, 3, 9, 8, 20, 9, 9, 6, 17, 13, 12, 18, 11, 20]
obj = 9581
----------
source = [9, 3, 9, 4, 12, 4, 20, 7, 7, 19, 12, 12, 19, 12, 16, 18, 10, 10, 16, 11, 16, 8, 6, 10, 3, 17, 13, 3, 9, 8, 20, 9, 9, 6, 17, 13, 12, 18, 11, 20]
obj = 9571
----------
source = [9, 3, 9, 10, 7, 4, 20, 12, 7, 19, 4, 20, 19, 20, 16, 18, 10, 3, 16, 11, 7, 8, 6, 4, 3, 17, 10, 16, 9, 8, 16, 9, 9, 6, 17, 13, 12, 18, 11, 12]
obj = 9565
----------
source = [9, 3, 9, 7, 7, 6, 20, 10, 7, 19, 16, 16, 19, 12, 16, 18, 12, 10, 4, 11, 12, 8, 6, 20, 3, 17, 10, 3, 9, 8, 16, 9, 9, 6, 17, 13, 12, 18, 11, 20]
obj = 9564
----------
source = [12, 3, 9, 7, 7, 10, 20, 10, 7, 19, 3, 20, 19, 12, 16, 18, 9, 10, 4, 11, 6, 8, 12, 16, 3, 17, 13, 9, 9, 8, 16, 20, 12, 6, 17, 13, 12, 18, 11, 16]
obj = 9563
----------
source = [12, 3, 9, 7, 7, 10, 20, 10, 7, 19, 3, 20, 19, 12, 16, 18, 9, 10, 4, 11, 12, 8, 6, 16, 3, 17, 13, 9, 9, 8, 16, 20, 12, 6, 17, 13, 12, 18, 11, 16]
obj = 9562
----------
source = [12, 3, 9, 7, 7, 6, 20, 10, 7, 19, 3, 20, 19, 12, 16, 18, 9, 10, 4, 11, 6, 8, 12, 16, 3, 17, 10, 9, 9, 8, 16, 20, 12, 6, 17, 13, 12, 18, 11, 16]
obj = 9558
----------
source = [12, 3, 9, 7, 7, 6, 20, 10, 7, 19, 3, 20, 19, 12, 16, 18, 9, 10, 4, 11, 12, 8, 6, 16, 3, 17, 10, 9, 9, 8, 16, 20, 12, 6, 17, 13, 12, 18, 11, 16]
obj = 9557
----------
source = [12, 3, 9, 13, 7, 6, 20, 10, 7, 16, 12, 16, 19, 16, 16, 18, 9, 10, 4, 11, 7, 8, 6, 20, 3, 17, 10, 3, 9, 8, 16, 9, 13, 6, 17, 12, 13, 18, 11, 20]
obj = 9554
----------
source = [12, 3, 9, 13, 7, 6, 20, 10, 7, 19, 12, 16, 19, 16, 16, 18, 9, 10, 4, 11, 7, 8, 6, 20, 3, 17, 10, 3, 9, 8, 16, 9, 13, 6, 17, 12, 13, 18, 11, 20]
obj = 9553
----------
source = [12, 3, 9, 13, 16, 6, 20, 10, 7, 16, 12, 7, 19, 16, 16, 18, 9, 10, 4, 11, 16, 8, 6, 16, 3, 17, 10, 3, 9, 8, 20, 9, 13, 6, 17, 12, 13, 18, 11, 20]
obj = 9543
----------
source = [12, 3, 9, 13, 16, 6, 20, 10, 7, 19, 12, 7, 19, 16, 16, 18, 9, 10, 4, 11, 16, 8, 6, 16, 3, 17, 10, 3, 9, 8, 20, 9, 13, 6, 17, 12, 13, 18, 11, 20]
obj = 9542
----------
source = [12, 3, 9, 7, 16, 10, 20, 10, 7, 3, 12, 12, 19, 16, 16, 18, 9, 10, 4, 11, 16, 8, 6, 16, 3, 17, 13, 3, 9, 8, 20, 9, 12, 6, 17, 13, 7, 18, 11, 20]
obj = 9539
----------
source = [12, 3, 9, 7, 16, 10, 20, 10, 7, 19, 12, 12, 19, 16, 16, 18, 9, 10, 4, 11, 16, 8, 6, 16, 3, 17, 13, 3, 9, 8, 20, 9, 12, 6, 17, 13, 7, 18, 11, 20]
obj = 9535
----------
source = [12, 3, 9, 7, 16, 6, 20, 10, 7, 19, 12, 12, 19, 16, 16, 18, 9, 10, 4, 11, 16, 8, 6, 16, 3, 17, 10, 3, 9, 8, 20, 9, 12, 6, 17, 13, 7, 18, 11, 20]
obj = 9530
----------
source = [12, 3, 9, 7, 7, 10, 20, 10, 7, 19, 16, 16, 19, 12, 16, 18, 9, 10, 4, 11, 6, 8, 12, 16, 3, 17, 13, 3, 9, 8, 20, 9, 12, 6, 17, 13, 12, 18, 11, 20]
obj = 9523
----------
source = [12, 3, 9, 7, 7, 6, 20, 10, 7, 19, 16, 16, 19, 12, 16, 18, 9, 10, 4, 11, 6, 8, 12, 16, 3, 17, 10, 3, 9, 8, 20, 9, 12, 6, 17, 13, 12, 18, 11, 20]
obj = 9518
----------
source = [12, 3, 9, 7, 7, 6, 20, 10, 7, 19, 16, 16, 19, 12, 16, 18, 9, 10, 4, 11, 12, 8, 6, 16, 3, 17, 10, 3, 9, 8, 20, 9, 12, 6, 17, 13, 12, 18, 11, 20]
obj = 9517
----------
source = [12, 3, 9, 10, 7, 6, 20, 12, 7, 19, 10, 16, 19, 16, 16, 18, 9, 10, 4, 11, 7, 8, 6, 16, 3, 17, 10, 3, 9, 8, 20, 9, 12, 6, 17, 13, 12, 18, 11, 20]
obj = 9514
----------
source = [12, 3, 9, 10, 16, 6, 20, 12, 7, 19, 10, 7, 19, 16, 16, 18, 9, 10, 4, 11, 16, 8, 6, 16, 3, 17, 10, 3, 9, 8, 20, 9, 12, 6, 17, 13, 12, 18, 11, 20]
obj = 9512
----------
source = [12, 3, 9, 10, 7, 6, 20, 12, 7, 19, 10, 16, 19, 16, 16, 18, 9, 10, 4, 11, 7, 8, 6, 16, 3, 17, 12, 3, 9, 8, 20, 9, 12, 6, 17, 13, 12, 18, 11, 20]
obj = 9509
----------
source = [12, 3, 9, 10, 16, 6, 20, 12, 7, 19, 10, 7, 19, 16, 16, 18, 9, 10, 4, 11, 16, 8, 6, 16, 3, 17, 12, 3, 9, 8, 20, 9, 12, 6, 17, 13, 12, 18, 11, 20]
obj = 9507
----------
source = [12, 3, 9, 7, 10, 6, 20, 12, 7, 19, 11, 16, 19, 16, 16, 17, 18, 3, 4, 10, 6, 8, 9, 10, 3, 11, 12, 9, 20, 8, 16, 9, 9, 6, 17, 13, 12, 12, 11, 20]
obj = 9505
----------
source = [12, 3, 9, 7, 10, 12, 20, 12, 7, 19, 11, 16, 19, 16, 16, 17, 18, 3, 4, 10, 6, 8, 9, 10, 3, 11, 12, 9, 20, 8, 16, 9, 9, 6, 17, 13, 7, 12, 11, 20]
obj = 9494
----------
source = [12, 3, 9, 4, 17, 6, 20, 12, 7, 16, 11, 7, 19, 16, 16, 18, 10, 3, 16, 10, 6, 8, 9, 16, 3, 11, 12, 4, 9, 8, 20, 17, 12, 6, 17, 13, 12, 18, 11, 20]
obj = 9493
----------
source = [12, 3, 9, 4, 17, 6, 20, 12, 7, 19, 11, 7, 19, 16, 16, 18, 10, 3, 16, 10, 6, 8, 9, 16, 3, 11, 11, 4, 9, 8, 20, 17, 12, 6, 17, 13, 12, 18, 11, 20]
obj = 9490
----------
source = [12, 3, 9, 7, 17, 6, 20, 12, 7, 19, 11, 16, 19, 16, 16, 18, 10, 3, 4, 10, 6, 8, 9, 16, 3, 11, 11, 12, 9, 8, 20, 17, 12, 6, 17, 13, 7, 18, 11, 20]
obj = 9487
----------
source = [12, 3, 9, 7, 17, 6, 20, 12, 7, 19, 11, 9, 19, 16, 16, 18, 10, 3, 4, 10, 16, 8, 6, 20, 3, 11, 11, 12, 9, 8, 16, 17, 12, 6, 17, 13, 7, 18, 11, 20]
obj = 9486
----------
source = [12, 3, 9, 10, 7, 6, 20, 12, 7, 19, 16, 9, 19, 16, 16, 20, 18, 17, 4, 20, 7, 8, 6, 10, 3, 11, 12, 3, 9, 8, 16, 11, 12, 6, 17, 13, 10, 12, 11, 16]
obj = 9482
----------
source = [12, 3, 9, 10, 7, 6, 20, 12, 7, 19, 16, 9, 19, 16, 16, 20, 18, 17, 4, 20, 7, 8, 6, 10, 3, 11, 11, 3, 9, 8, 16, 11, 12, 6, 17, 13, 10, 12, 11, 16]
obj = 9480
----------
source = [12, 3, 9, 10, 10, 6, 20, 12, 7, 19, 16, 9, 19, 16, 16, 20, 18, 17, 4, 20, 7, 8, 6, 10, 3, 11, 11, 3, 9, 8, 16, 11, 12, 6, 17, 13, 7, 12, 11, 16]
obj = 9478
----------
source = [9, 3, 9, 7, 17, 6, 20, 12, 7, 19, 11, 20, 19, 17, 16, 18, 10, 3, 4, 10, 12, 8, 6, 16, 3, 11, 11, 9, 9, 8, 16, 20, 9, 6, 17, 13, 7, 18, 11, 16]
obj = 9477
----------
source = [9, 3, 9, 7, 7, 20, 20, 12, 7, 3, 11, 20, 19, 10, 16, 17, 18, 10, 4, 10, 12, 8, 6, 16, 3, 11, 12, 3, 9, 8, 16, 9, 9, 6, 17, 13, 20, 10, 11, 16]
obj = 9475
----------
source = [9, 3, 9, 7, 7, 20, 20, 12, 7, 16, 11, 20, 19, 10, 16, 17, 18, 10, 4, 10, 12, 8, 6, 16, 3, 11, 12, 3, 9, 8, 16, 9, 9, 6, 17, 13, 20, 10, 11, 16]
obj = 9472
----------
source = [9, 3, 9, 7, 7, 20, 20, 12, 7, 19, 11, 20, 19, 10, 16, 17, 18, 10, 4, 10, 12, 8, 6, 16, 3, 11, 12, 3, 9, 8, 16, 9, 9, 6, 17, 13, 20, 10, 11, 16]
obj = 9471
----------
source = [9, 3, 9, 7, 7, 20, 20, 12, 7, 19, 11, 20, 19, 10, 16, 17, 18, 10, 4, 10, 12, 8, 6, 16, 3, 11, 11, 3, 9, 8, 16, 9, 9, 6, 17, 13, 20, 10, 11, 16]
obj = 9469
----------
source = [9, 3, 9, 7, 7, 6, 20, 12, 7, 19, 11, 20, 19, 20, 16, 18, 10, 3, 4, 10, 12, 8, 6, 16, 3, 17, 10, 11, 9, 8, 16, 9, 9, 6, 17, 13, 11, 18, 11, 16]
obj = 9465
----------
source = [9, 3, 9, 7, 17, 6, 20, 12, 7, 19, 16, 16, 19, 17, 16, 18, 10, 3, 4, 10, 12, 8, 6, 20, 3, 11, 11, 11, 9, 8, 16, 9, 9, 6, 17, 13, 7, 18, 11, 20]
obj = 9464
----------
source = [9, 3, 9, 7, 7, 6, 20, 12, 7, 19, 11, 20, 19, 20, 16, 18, 10, 3, 4, 10, 12, 8, 6, 16, 3, 17, 12, 11, 9, 8, 16, 9, 9, 6, 17, 13, 11, 18, 11, 16]
obj = 9460
----------
source = [9, 3, 9, 7, 7, 6, 20, 12, 7, 19, 11, 20, 19, 20, 16, 18, 10, 3, 4, 10, 12, 8, 6, 16, 3, 17, 11, 11, 9, 8, 16, 9, 9, 6, 17, 13, 11, 18, 11, 16]
obj = 9458
----------
source = [9, 3, 9, 7, 7, 6, 20, 12, 7, 19, 16, 16, 19, 20, 16, 18, 10, 10, 4, 20, 12, 8, 6, 10, 3, 17, 11, 3, 9, 8, 16, 9, 9, 6, 17, 13, 20, 18, 11, 11]
obj = 9457
----------
source = [9, 3, 9, 10, 10, 6, 20, 12, 7, 16, 11, 16, 19, 16, 16, 20, 18, 17, 4, 20, 7, 8, 6, 10, 3, 11, 11, 3, 9, 8, 16, 9, 9, 6, 17, 13, 7, 12, 11, 12]
obj = 9452
----------
source = [9, 3, 9, 10, 10, 6, 20, 12, 7, 19, 11, 16, 19, 16, 16, 20, 18, 17, 4, 20, 7, 8, 6, 10, 3, 11, 11, 3, 9, 8, 16, 9, 9, 6, 17, 13, 7, 12, 11, 12]
obj = 9451
----------
source = [9, 3, 9, 7, 17, 6, 20, 12, 7, 19, 11, 16, 19, 16, 16, 18, 10, 10, 4, 9, 6, 8, 12, 10, 3, 11, 12, 3, 20, 8, 16, 17, 9, 6, 17, 13, 7, 18, 11, 20]
obj = 9449
----------
source = [9, 3, 9, 7, 17, 6, 20, 12, 7, 19, 11, 16, 19, 16, 16, 18, 10, 10, 4, 9, 12, 8, 6, 10, 3, 11, 12, 3, 20, 8, 16, 17, 9, 6, 17, 13, 7, 18, 11, 20]
obj = 9448
----------
source = [9, 3, 9, 7, 17, 6, 20, 12, 7, 19, 11, 16, 19, 16, 16, 18, 10, 10, 4, 9, 6, 8, 12, 10, 3, 11, 11, 3, 20, 8, 16, 17, 9, 6, 17, 13, 7, 18, 11, 20]
obj = 9447
----------
source = [9, 3, 9, 7, 17, 6, 20, 12, 7, 19, 11, 16, 19, 16, 16, 18, 10, 10, 4, 9, 12, 8, 6, 10, 3, 11, 11, 3, 20, 8, 16, 17, 9, 6, 17, 13, 7, 18, 11, 20]
obj = 9446
----------
source = [9, 3, 9, 7, 7, 6, 20, 12, 7, 19, 11, 16, 19, 16, 16, 18, 10, 10, 4, 9, 12, 8, 6, 10, 3, 17, 12, 3, 20, 8, 16, 11, 9, 6, 17, 13, 11, 18, 11, 20]
obj = 9443
----------
source = [9, 3, 9, 7, 7, 6, 20, 12, 7, 19, 11, 16, 19, 16, 16, 18, 10, 3, 4, 10, 6, 8, 12, 20, 3, 17, 11, 11, 9, 8, 16, 9, 9, 6, 17, 13, 11, 18, 11, 20]
obj = 9441
----------
source = [9, 3, 9, 7, 7, 6, 20, 12, 7, 19, 11, 16, 19, 16, 16, 18, 10, 3, 4, 10, 12, 8, 6, 20, 3, 17, 11, 11, 9, 8, 16, 9, 9, 6, 17, 13, 11, 18, 11, 20]
obj = 9440
----------
source = [12, 3, 9, 4, 7, 4, 20, 7, 11, 19, 16, 7, 19, 20, 16, 18, 9, 10, 16, 20, 11, 8, 6, 16, 3, 17, 13, 3, 9, 8, 12, 9, 12, 6, 17, 10, 20, 18, 13, 12]
obj = 9432
----------
source = [12, 3, 9, 4, 16, 4, 20, 7, 11, 19, 7, 6, 19, 12, 16, 18, 9, 10, 16, 7, 11, 8, 12, 20, 3, 17, 13, 3, 9, 8, 20, 9, 12, 6, 17, 10, 12, 18, 13, 16]
obj = 9431
----------
source = [12, 3, 9, 4, 16, 4, 20, 7, 11, 19, 12, 7, 19, 12, 16, 18, 9, 10, 16, 6, 11, 8, 12, 20, 3, 17, 12, 3, 9, 8, 20, 9, 6, 6, 17, 10, 7, 18, 13, 16]
obj = 9423
----------
source = [12, 3, 9, 4, 16, 12, 20, 12, 11, 16, 3, 7, 19, 20, 16, 18, 9, 10, 16, 20, 11, 8, 6, 7, 3, 17, 12, 4, 9, 8, 16, 9, 12, 6, 17, 10, 20, 18, 13, 7]
obj = 9422
----------
source = [12, 3, 9, 4, 16, 20, 20, 12, 11, 16, 3, 7, 19, 20, 16, 18, 9, 10, 16, 20, 11, 8, 6, 7, 3, 17, 12, 4, 9, 8, 16, 9, 12, 6, 17, 10, 12, 18, 13, 7]
obj = 9419
----------
source = [12, 3, 9, 4, 16, 20, 20, 12, 11, 19, 3, 7, 19, 20, 16, 18, 9, 10, 16, 20, 11, 8, 6, 7, 3, 17, 12, 4, 9, 8, 16, 9, 12, 6, 17, 10, 12, 18, 13, 7]
obj = 9418
----------
source = [12, 3, 9, 13, 7, 12, 20, 7, 11, 19, 16, 7, 19, 4, 16, 18, 9, 10, 16, 4, 11, 8, 6, 16, 3, 17, 12, 3, 9, 8, 20, 9, 13, 6, 17, 10, 13, 18, 12, 20]
obj = 9411
----------
source = [12, 3, 9, 10, 7, 4, 20, 7, 11, 19, 4, 7, 19, 16, 16, 18, 9, 10, 16, 9, 11, 8, 6, 16, 3, 17, 10, 3, 4, 8, 20, 10, 18, 6, 17, 13, 12, 12, 12, 20]
obj = 9410
----------
source = [12, 3, 9, 10, 16, 6, 20, 7, 11, 19, 16, 7, 19, 16, 16, 4, 18, 10, 16, 9, 11, 8, 6, 4, 3, 17, 13, 3, 9, 8, 20, 10, 12, 6, 17, 13, 7, 12, 12, 20]
obj = 9407
----------
source = [12, 3, 9, 10, 16, 6, 20, 7, 11, 16, 16, 7, 19, 16, 16, 4, 18, 10, 16, 9, 11, 8, 6, 4, 3, 17, 10, 3, 9, 8, 20, 10, 12, 6, 17, 13, 7, 12, 12, 20]
obj = 9399
----------
source = [12, 3, 9, 10, 16, 6, 20, 7, 11, 19, 16, 7, 19, 16, 16, 4, 18, 10, 16, 9, 11, 8, 6, 4, 3, 17, 10, 3, 9, 8, 20, 10, 12, 6, 17, 13, 7, 12, 12, 20]
obj = 9398
----------
source = [12, 3, 9, 7, 10, 6, 20, 7, 11, 19, 7, 16, 19, 16, 16, 18, 9, 10, 4, 10, 11, 8, 6, 20, 3, 17, 13, 3, 9, 8, 16, 9, 12, 6, 17, 13, 10, 18, 12, 20]
obj = 9396
----------
source = [12, 3, 9, 7, 10, 6, 20, 7, 11, 19, 7, 16, 19, 16, 16, 18, 9, 10, 4, 10, 11, 8, 6, 20, 3, 17, 12, 3, 9, 8, 16, 9, 12, 6, 17, 13, 10, 18, 12, 20]
obj = 9382
----------
source = [12, 3, 9, 7, 10, 6, 20, 7, 11, 19, 7, 16, 19, 16, 16, 18, 9, 10, 4, 10, 11, 8, 6, 16, 3, 17, 12, 3, 9, 8, 20, 9, 12, 6, 17, 13, 10, 18, 12, 20]
obj = 9373
----------
source = [12, 3, 9, 4, 7, 6, 20, 7, 11, 19, 16, 7, 19, 16, 3, 18, 9, 10, 13, 3, 11, 8, 6, 16, 10, 17, 12, 4, 9, 8, 16, 9, 13, 6, 17, 20, 12, 18, 12, 16]
obj = 9357
----------
source = [13, 3, 9, 4, 7, 20, 20, 7, 11, 19, 10, 20, 19, 16, 13, 18, 9, 3, 16, 7, 11, 8, 6, 16, 10, 17, 12, 4, 9, 8, 16, 9, 13, 6, 17, 3, 20, 18, 12, 12]
obj = 9354
----------
source = [13, 3, 9, 4, 7, 20, 20, 7, 11, 3, 3, 20, 19, 16, 13, 18, 9, 10, 16, 7, 11, 8, 6, 16, 10, 17, 12, 4, 9, 8, 16, 9, 13, 6, 17, 3, 20, 18, 12, 12]
obj = 9340
----------
source = [13, 3, 9, 4, 7, 20, 20, 7, 11, 19, 3, 20, 19, 16, 13, 18, 9, 10, 16, 7, 11, 8, 6, 16, 10, 17, 12, 4, 9, 8, 16, 9, 13, 6, 17, 3, 20, 18, 12, 12]
obj = 9336
----------
source = [13, 3, 9, 4, 7, 20, 20, 7, 11, 19, 6, 20, 19, 16, 13, 18, 3, 10, 16, 7, 11, 8, 3, 16, 12, 17, 12, 4, 6, 8, 16, 9, 13, 6, 17, 9, 20, 18, 10, 12]
obj = 9331
----------
source = [3, 3, 9, 7, 16, 4, 20, 7, 11, 19, 4, 6, 19, 7, 18, 20, 13, 10, 16, 20, 11, 8, 3, 16, 12, 17, 12, 3, 4, 8, 16, 9, 13, 6, 17, 9, 13, 13, 10, 12]
obj = 9327
----------
source = [12, 3, 9, 7, 7, 20, 20, 7, 11, 19, 6, 20, 19, 9, 6, 18, 3, 10, 4, 9, 11, 8, 3, 16, 12, 17, 12, 12, 16, 8, 16, 9, 9, 6, 17, 13, 20, 18, 10, 16]
obj = 9324
----------
source = [12, 3, 9, 7, 12, 20, 20, 7, 11, 19, 7, 20, 19, 9, 13, 18, 13, 10, 4, 9, 11, 8, 6, 16, 12, 17, 3, 3, 16, 8, 16, 9, 9, 6, 17, 3, 20, 12, 10, 16]
obj = 9322
----------
source = [12, 3, 9, 7, 7, 6, 20, 12, 11, 19, 3, 3, 19, 9, 13, 18, 13, 10, 4, 9, 11, 8, 6, 16, 20, 17, 12, 3, 16, 8, 16, 9, 9, 6, 17, 7, 12, 12, 10, 16]
obj = 9320
----------
source = [12, 3, 9, 7, 12, 12, 20, 12, 11, 3, 3, 3, 19, 9, 13, 18, 13, 10, 4, 9, 11, 8, 6, 16, 20, 17, 12, 3, 16, 8, 16, 9, 9, 6, 17, 7, 7, 18, 10, 16]
obj = 9315
----------
source = [12, 3, 9, 7, 12, 6, 20, 12, 11, 19, 16, 16, 19, 9, 13, 18, 3, 10, 4, 9, 11, 8, 6, 16, 20, 17, 12, 3, 13, 8, 16, 9, 9, 6, 17, 7, 7, 18, 10, 3]
obj = 9312
----------
source = [3, 3, 9, 7, 12, 6, 20, 12, 11, 19, 16, 16, 19, 9, 13, 18, 13, 10, 4, 9, 11, 8, 6, 16, 20, 17, 12, 3, 12, 8, 16, 9, 9, 6, 17, 7, 7, 18, 10, 3]
obj = 9311
----------
source = [3, 3, 9, 7, 9, 12, 20, 12, 11, 19, 16, 16, 19, 9, 13, 18, 13, 10, 4, 3, 11, 8, 6, 16, 20, 17, 12, 3, 9, 8, 16, 9, 9, 6, 17, 7, 7, 18, 10, 12]
obj = 9310
----------
source = [12, 3, 9, 7, 9, 6, 20, 12, 11, 19, 16, 16, 19, 9, 13, 18, 13, 10, 4, 3, 11, 8, 6, 16, 20, 17, 12, 12, 9, 8, 16, 9, 9, 6, 17, 7, 7, 18, 10, 3]
obj = 9302
----------
source = [12, 3, 9, 7, 9, 6, 20, 12, 11, 16, 12, 16, 19, 9, 13, 18, 13, 10, 4, 3, 11, 8, 6, 16, 20, 17, 12, 16, 9, 8, 16, 9, 9, 6, 17, 7, 7, 18, 10, 3]
obj = 9296
----------
source = [12, 3, 9, 7, 9, 6, 20, 12, 11, 19, 12, 16, 19, 9, 13, 18, 13, 10, 4, 3, 11, 8, 6, 16, 20, 17, 12, 16, 9, 8, 16, 9, 9, 6, 17, 7, 7, 18, 10, 3]
obj = 9295
----------
source = [12, 3, 9, 7, 12, 6, 20, 12, 11, 3, 16, 16, 19, 9, 13, 18, 13, 10, 4, 3, 11, 8, 6, 16, 20, 17, 12, 9, 9, 8, 16, 9, 12, 6, 17, 7, 7, 18, 10, 3]
obj = 9278
----------
source = [12, 3, 9, 7, 12, 6, 20, 12, 11, 19, 16, 16, 19, 9, 13, 18, 13, 10, 4, 3, 11, 8, 6, 16, 20, 17, 12, 9, 9, 8, 16, 9, 12, 6, 17, 7, 7, 18, 10, 3]
obj = 9274
----------
source = [12, 3, 9, 7, 7, 6, 20, 12, 11, 16, 16, 16, 19, 9, 13, 18, 13, 10, 4, 3, 11, 8, 6, 16, 20, 17, 12, 9, 9, 8, 16, 9, 12, 6, 17, 7, 12, 18, 10, 3]
obj = 9264
----------
source = [12, 3, 9, 7, 7, 6, 20, 12, 11, 19, 16, 16, 19, 9, 13, 18, 13, 10, 4, 3, 11, 8, 6, 16, 20, 17, 12, 9, 9, 8, 16, 9, 12, 6, 17, 7, 12, 18, 10, 3]
obj = 9263
----------
source = [12, 3, 9, 3, 12, 4, 20, 12, 11, 16, 4, 7, 19, 9, 13, 18, 13, 10, 16, 9, 11, 8, 6, 16, 20, 17, 12, 16, 4, 8, 16, 9, 9, 6, 17, 7, 12, 18, 10, 3]
obj = 9255
----------
source = [12, 3, 9, 3, 12, 4, 20, 12, 11, 19, 4, 7, 19, 9, 13, 18, 13, 10, 16, 9, 11, 8, 6, 16, 20, 17, 12, 16, 4, 8, 16, 9, 9, 6, 17, 7, 12, 18, 10, 3]
obj = 9254
----------
source = [12, 3, 9, 3, 7, 6, 20, 7, 11, 16, 16, 7, 19, 9, 8, 20, 18, 10, 4, 20, 11, 8, 6, 16, 12, 17, 12, 16, 9, 16, 16, 9, 9, 6, 17, 13, 12, 8, 10, 3]
obj = 9250
----------
source = [12, 3, 9, 3, 7, 6, 20, 7, 11, 19, 16, 7, 19, 9, 8, 20, 18, 10, 4, 20, 11, 8, 6, 16, 12, 17, 12, 16, 9, 16, 16, 9, 9, 6, 17, 13, 12, 8, 10, 3]
obj = 9249
----------
source = [12, 3, 9, 3, 7, 4, 20, 7, 11, 16, 4, 7, 19, 9, 8, 20, 18, 10, 16, 20, 11, 8, 6, 16, 12, 17, 12, 16, 4, 9, 16, 9, 9, 6, 17, 13, 12, 8, 10, 3]
obj = 9244
----------
source = [12, 3, 9, 3, 7, 4, 20, 7, 11, 19, 4, 7, 19, 9, 8, 20, 18, 10, 16, 20, 11, 8, 6, 16, 12, 17, 12, 16, 4, 9, 16, 9, 9, 6, 17, 13, 12, 8, 10, 3]
obj = 9243
----------
source = [12, 3, 9, 7, 7, 6, 20, 12, 11, 19, 4, 7, 19, 16, 18, 20, 3, 10, 16, 20, 11, 8, 6, 16, 9, 17, 12, 3, 4, 8, 16, 9, 12, 6, 17, 13, 7, 12, 10, 3]
obj = 9222
----------
source = [12, 3, 9, 7, 7, 4, 20, 12, 11, 19, 4, 7, 19, 16, 6, 20, 18, 10, 16, 20, 11, 8, 3, 16, 9, 17, 12, 12, 4, 8, 16, 9, 6, 6, 17, 13, 7, 12, 10, 3]
obj = 9220
----------
source = [12, 3, 9, 7, 7, 4, 20, 12, 11, 19, 4, 7, 19, 16, 18, 20, 3, 10, 16, 20, 11, 8, 6, 16, 9, 17, 12, 3, 4, 8, 16, 9, 12, 6, 17, 13, 7, 12, 10, 3]
obj = 9212
----------
source = [13, 3, 9, 7, 7, 20, 20, 3, 11, 3, 4, 20, 19, 16, 18, 17, 13, 10, 16, 9, 11, 8, 6, 16, 12, 3, 12, 9, 4, 8, 16, 9, 9, 6, 17, 7, 20, 13, 10, 12]
obj = 9210
----------
source = [13, 3, 9, 7, 7, 20, 20, 3, 11, 19, 4, 20, 19, 16, 18, 17, 13, 10, 16, 9, 11, 8, 6, 16, 12, 3, 12, 9, 4, 8, 16, 9, 9, 6, 17, 7, 20, 13, 10, 12]
obj = 9206
----------
source = [3, 3, 9, 7, 7, 4, 20, 3, 11, 19, 4, 20, 19, 16, 13, 18, 13, 10, 16, 9, 11, 8, 6, 16, 12, 17, 12, 9, 4, 8, 16, 9, 9, 6, 17, 7, 20, 18, 10, 12]
obj = 9201
----------
source = [3, 3, 9, 7, 7, 20, 20, 3, 11, 19, 4, 20, 19, 16, 13, 18, 13, 10, 16, 9, 11, 8, 6, 16, 12, 17, 12, 9, 4, 8, 16, 9, 9, 6, 17, 7, 20, 18, 10, 12]
obj = 9198
----------
source = [12, 3, 9, 3, 7, 4, 20, 7, 11, 19, 4, 7, 19, 16, 13, 18, 13, 10, 16, 9, 11, 8, 6, 16, 20, 17, 12, 9, 4, 8, 16, 9, 9, 6, 17, 12, 12, 18, 10, 3]
obj = 9196
----------
source = [12, 3, 9, 3, 7, 4, 20, 7, 11, 19, 4, 7, 19, 16, 13, 18, 13, 10, 16, 9, 11, 8, 6, 16, 12, 17, 12, 9, 4, 8, 16, 9, 9, 6, 17, 20, 12, 18, 10, 3]
obj = 9188
----------
source = [12, 3, 9, 3, 12, 4, 20, 12, 11, 19, 4, 7, 19, 16, 13, 18, 13, 10, 16, 9, 11, 8, 6, 16, 20, 17, 12, 9, 4, 8, 16, 9, 9, 6, 17, 7, 12, 18, 10, 3]
obj = 9183
----------
source = [12, 3, 9, 7, 7, 6, 20, 12, 11, 19, 16, 20, 19, 16, 8, 18, 9, 10, 4, 3, 11, 8, 6, 16, 10, 17, 12, 9, 9, 16, 16, 20, 12, 6, 17, 7, 12, 18, 13, 3]
obj = 9181
----------
source = [12, 3, 9, 3, 7, 4, 20, 7, 11, 19, 4, 7, 19, 16, 8, 20, 18, 10, 9, 20, 11, 8, 6, 16, 12, 17, 12, 16, 4, 16, 16, 9, 9, 6, 17, 13, 12, 8, 10, 3]
obj = 9177
----------
source = [12, 3, 9, 3, 7, 4, 20, 7, 11, 3, 4, 7, 19, 16, 8, 20, 18, 10, 16, 20, 11, 8, 6, 16, 12, 17, 12, 9, 4, 9, 16, 9, 9, 6, 17, 13, 12, 8, 10, 3]
obj = 9176
----------
source = [12, 3, 9, 3, 7, 4, 20, 7, 11, 19, 4, 7, 19, 16, 8, 20, 18, 10, 16, 20, 11, 8, 6, 16, 12, 17, 12, 9, 4, 9, 16, 9, 9, 6, 17, 13, 12, 8, 10, 3]
obj = 9172
----------
source = [12, 3, 9, 3, 7, 20, 20, 7, 11, 19, 16, 7, 19, 16, 8, 4, 18, 10, 16, 20, 11, 8, 6, 4, 12, 17, 12, 16, 9, 9, 16, 20, 9, 6, 17, 13, 12, 8, 10, 3]
obj = 9170
----------
source = [12, 3, 9, 7, 7, 12, 20, 12, 11, 19, 16, 20, 19, 16, 8, 4, 18, 10, 16, 3, 11, 8, 6, 4, 10, 17, 12, 16, 9, 9, 16, 20, 9, 6, 17, 7, 12, 8, 13, 3]
obj = 9169
----------
source = [12, 3, 7, 4, 12, 4, 20, 12, 11, 16, 16, 6, 19, 16, 13, 18, 13, 10, 16, 9, 11, 8, 3, 16, 9, 17, 12, 16, 20, 8, 20, 9, 9, 6, 17, 7, 12, 18, 10, 3]
obj = 9166
----------
source = [12, 3, 7, 4, 12, 4, 20, 12, 11, 19, 16, 6, 19, 16, 13, 18, 13, 10, 16, 9, 11, 8, 3, 16, 9, 17, 12, 16, 20, 8, 20, 9, 9, 6, 17, 7, 12, 18, 10, 3]
obj = 9165
----------
source = [12, 3, 7, 4, 12, 4, 20, 12, 11, 19, 18, 6, 19, 16, 13, 20, 13, 10, 16, 20, 11, 8, 3, 16, 9, 17, 12, 9, 9, 8, 16, 9, 9, 6, 17, 7, 12, 18, 10, 3]
obj = 9162
----------
source = [12, 3, 6, 4, 7, 4, 20, 7, 11, 3, 18, 7, 19, 16, 13, 20, 13, 10, 16, 20, 11, 8, 3, 16, 12, 17, 12, 9, 9, 8, 16, 9, 9, 6, 17, 9, 12, 18, 10, 3]
obj = 9155
----------
source = [12, 3, 6, 4, 7, 4, 20, 7, 11, 19, 18, 7, 19, 16, 13, 20, 13, 10, 16, 20, 11, 8, 3, 16, 12, 17, 12, 9, 9, 8, 16, 9, 9, 6, 17, 9, 12, 18, 10, 3]
obj = 9151
----------
source = [12, 3, 20, 3, 7, 20, 20, 7, 11, 19, 4, 7, 19, 16, 13, 18, 13, 10, 16, 9, 11, 8, 6, 16, 12, 17, 12, 9, 4, 8, 16, 9, 12, 6, 17, 9, 20, 18, 10, 3]
obj = 9148
----------
source = [12, 3, 12, 3, 7, 12, 20, 7, 11, 19, 16, 7, 19, 16, 8, 20, 18, 10, 4, 20, 11, 8, 6, 16, 10, 17, 12, 9, 9, 16, 16, 9, 9, 6, 17, 9, 12, 12, 13, 3]
obj = 9147
----------
source = [12, 3, 16, 3, 16, 4, 20, 12, 11, 19, 4, 7, 19, 16, 13, 18, 13, 10, 16, 9, 11, 8, 6, 20, 9, 17, 12, 9, 4, 8, 20, 9, 12, 6, 17, 7, 12, 18, 10, 3]
obj = 9144
----------
source = [12, 3, 16, 7, 7, 12, 20, 12, 11, 19, 18, 6, 19, 16, 13, 20, 13, 10, 4, 20, 11, 8, 3, 16, 9, 17, 12, 9, 9, 8, 16, 9, 9, 6, 17, 7, 12, 18, 10, 3]
obj = 9142
----------
source = [12, 3, 16, 3, 7, 4, 20, 7, 11, 19, 4, 7, 19, 16, 8, 20, 18, 10, 9, 20, 11, 8, 6, 16, 12, 17, 12, 9, 4, 9, 16, 9, 9, 6, 17, 13, 12, 8, 10, 3]
obj = 9140
----------
source = [12, 3, 16, 7, 7, 20, 20, 12, 11, 16, 12, 20, 19, 16, 13, 18, 13, 10, 4, 3, 11, 8, 6, 16, 9, 17, 12, 9, 9, 8, 16, 9, 9, 6, 17, 7, 20, 18, 10, 3]
obj = 9134
----------
source = [12, 3, 16, 7, 7, 20, 20, 12, 11, 19, 12, 20, 19, 16, 13, 18, 13, 10, 4, 3, 11, 8, 6, 16, 9, 17, 12, 9, 9, 8, 16, 9, 9, 6, 17, 7, 20, 18, 10, 3]
obj = 9133
----------
source = [12, 3, 6, 7, 7, 20, 20, 12, 11, 19, 4, 20, 19, 16, 13, 18, 13, 10, 16, 9, 11, 8, 3, 16, 9, 17, 12, 9, 4, 8, 16, 9, 12, 6, 17, 7, 20, 18, 10, 3]
obj = 9132
----------
source = [12, 3, 6, 7, 7, 20, 20, 12, 11, 19, 4, 20, 19, 16, 13, 18, 13, 10, 16, 9, 11, 8, 3, 16, 9, 17, 12, 9, 4, 8, 16, 9, 12, 6, 17, 7, 12, 18, 10, 3]
obj = 9129
----------
source = [12, 3, 6, 7, 7, 12, 20, 12, 11, 3, 18, 16, 19, 16, 13, 20, 13, 10, 4, 20, 11, 8, 3, 16, 9, 17, 12, 9, 9, 8, 16, 9, 9, 6, 17, 7, 12, 18, 10, 3]
obj = 9128
----------
source = [12, 3, 6, 7, 7, 12, 20, 12, 11, 16, 18, 16, 19, 16, 13, 20, 13, 10, 4, 20, 11, 8, 3, 16, 9, 17, 12, 9, 9, 8, 16, 9, 9, 6, 17, 7, 12, 18, 10, 3]
obj = 9125
----------
source = [12, 3, 6, 7, 7, 12, 20, 12, 11, 19, 18, 16, 19, 16, 13, 20, 13, 10, 4, 20, 11, 8, 3, 16, 9, 17, 12, 9, 9, 8, 16, 9, 9, 6, 17, 7, 12, 18, 10, 3]
obj = 9124
----------
source = [12, 3, 6, 7, 7, 20, 20, 7, 11, 19, 16, 20, 19, 16, 8, 4, 18, 10, 16, 9, 11, 8, 3, 4, 12, 17, 12, 16, 9, 9, 16, 9, 12, 6, 17, 13, 20, 8, 10, 3]
obj = 9123
----------
