+ /usr/bin/timeout 600 /usr/bin/time -v mzn-chuffed lbbd-datasets/Rabadi-2006/dzn-balanced/model.mzn lbbd-datasets/Rabadi-2006/dzn-balanced/6on2Rp50Rs50_1Ameer.dzn
% No search annotation given. Defaulting to VSIDS!
assign = array1d(1..8 ,[2, 2, 2, 2, 2, 2, 1, 2]);
next = array1d(1..8 ,[2, 3, 4, 5, 6, 8, 1, 7]);
makespan = 773;
----------
assign = array1d(1..8 ,[2, 2, 2, 2, 2, 2, 1, 2]);
next = array1d(1..8 ,[4, 3, 5, 2, 6, 8, 1, 7]);
makespan = 728;
----------
assign = array1d(1..8 ,[1, 1, 1, 1, 2, 2, 1, 2]);
next = array1d(1..8 ,[7, 4, 1, 3, 6, 8, 5, 2]);
makespan = 571;
----------
assign = array1d(1..8 ,[1, 1, 2, 2, 1, 2, 1, 2]);
next = array1d(1..8 ,[7, 5, 8, 3, 1, 4, 6, 2]);
makespan = 567;
----------
assign = array1d(1..8 ,[2, 1, 2, 2, 1, 2, 1, 2]);
next = array1d(1..8 ,[8, 5, 1, 3, 7, 4, 6, 2]);
makespan = 546;
----------
assign = array1d(1..8 ,[1, 1, 2, 2, 1, 2, 1, 2]);
next = array1d(1..8 ,[7, 5, 8, 3, 1, 4, 6, 2]);
makespan = 521;
----------
assign = array1d(1..8 ,[1, 1, 2, 2, 1, 2, 1, 2]);
next = array1d(1..8 ,[7, 5, 8, 3, 1, 4, 6, 2]);
makespan = 499;
----------
assign = array1d(1..8 ,[1, 1, 2, 2, 1, 2, 1, 2]);
next = array1d(1..8 ,[7, 5, 8, 3, 1, 4, 6, 2]);
makespan = 478;
----------
assign = array1d(1..8 ,[1, 1, 2, 2, 1, 2, 1, 2]);
next = array1d(1..8 ,[7, 5, 8, 3, 1, 4, 6, 2]);
makespan = 410;
----------
assign = array1d(1..8 ,[1, 1, 2, 2, 1, 2, 1, 2]);
next = array1d(1..8 ,[7, 5, 8, 3, 1, 4, 6, 2]);
makespan = 390;
----------
assign = array1d(1..8 ,[1, 1, 2, 2, 1, 2, 1, 2]);
next = array1d(1..8 ,[5, 1, 6, 3, 7, 8, 4, 2]);
makespan = 382;
----------
assign = array1d(1..8 ,[1, 2, 1, 1, 2, 2, 1, 2]);
next = array1d(1..8 ,[7, 6, 1, 3, 2, 8, 5, 4]);
makespan = 368;
----------
assign = array1d(1..8 ,[1, 2, 1, 1, 2, 2, 1, 2]);
next = array1d(1..8 ,[4, 6, 7, 3, 2, 8, 5, 1]);
makespan = 364;
----------
assign = array1d(1..8 ,[1, 1, 2, 2, 2, 1, 1, 2]);
next = array1d(1..8 ,[6, 1, 5, 3, 8, 7, 4, 2]);
makespan = 359;
----------
assign = array1d(1..8 ,[1, 2, 1, 2, 1, 2, 1, 2]);
next = array1d(1..8 ,[7, 4, 5, 6, 1, 8, 2, 3]);
makespan = 358;
----------
assign = array1d(1..8 ,[2, 2, 1, 1, 2, 1, 1, 2]);
next = array1d(1..8 ,[5, 8, 6, 3, 2, 7, 1, 4]);
makespan = 354;
----------
assign = array1d(1..8 ,[2, 2, 1, 1, 1, 2, 1, 2]);
next = array1d(1..8 ,[8, 6, 5, 3, 7, 1, 2, 4]);
makespan = 353;
----------
assign = array1d(1..8 ,[1, 1, 2, 1, 2, 2, 1, 2]);
next = array1d(1..8 ,[7, 4, 5, 1, 6, 8, 3, 2]);
makespan = 352;
----------
assign = array1d(1..8 ,[2, 2, 1, 1, 1, 2, 1, 2]);
next = array1d(1..8 ,[2, 6, 7, 3, 4, 8, 1, 5]);
makespan = 349;
----------
assign = array1d(1..8 ,[1, 2, 1, 1, 2, 2, 1, 2]);
next = array1d(1..8 ,[4, 6, 7, 3, 2, 8, 5, 1]);
makespan = 345;
----------
assign = array1d(1..8 ,[1, 2, 1, 1, 2, 2, 1, 2]);
next = array1d(1..8 ,[4, 6, 7, 3, 2, 8, 5, 1]);
makespan = 344;
----------
assign = array1d(1..8 ,[1, 2, 1, 1, 2, 2, 1, 2]);
next = array1d(1..8 ,[4, 6, 7, 3, 2, 8, 5, 1]);
makespan = 342;
----------
assign = array1d(1..8 ,[1, 2, 1, 1, 2, 2, 1, 2]);
next = array1d(1..8 ,[4, 6, 7, 3, 2, 8, 5, 1]);
makespan = 338;
----------
assign = array1d(1..8 ,[2, 2, 1, 1, 1, 2, 1, 2]);
next = array1d(1..8 ,[2, 6, 5, 7, 4, 8, 1, 3]);
makespan = 337;
----------
assign = array1d(1..8 ,[1, 2, 1, 2, 1, 2, 1, 2]);
next = array1d(1..8 ,[7, 6, 5, 2, 1, 8, 4, 3]);
makespan = 336;
----------
assign = array1d(1..8 ,[1, 1, 2, 1, 2, 2, 1, 2]);
next = array1d(1..8 ,[4, 1, 5, 7, 6, 8, 3, 2]);
makespan = 335;
----------
assign = array1d(1..8 ,[2, 2, 2, 1, 1, 1, 1, 2]);
next = array1d(1..8 ,[2, 3, 8, 6, 4, 7, 1, 5]);
makespan = 334;
----------
assign = array1d(1..8 ,[2, 2, 2, 1, 1, 1, 1, 2]);
next = array1d(1..8 ,[2, 3, 8, 6, 4, 7, 1, 5]);
makespan = 333;
----------
assign = array1d(1..8 ,[2, 2, 2, 1, 1, 1, 1, 2]);
next = array1d(1..8 ,[2, 3, 8, 6, 4, 7, 1, 5]);
makespan = 331;
----------
assign = array1d(1..8 ,[2, 2, 1, 1, 1, 2, 1, 2]);
next = array1d(1..8 ,[2, 6, 5, 7, 4, 8, 1, 3]);
makespan = 330;
----------
assign = array1d(1..8 ,[1, 2, 2, 1, 1, 2, 1, 2]);
next = array1d(1..8 ,[4, 3, 6, 7, 1, 8, 2, 5]);
makespan = 329;
----------
assign = array1d(1..8 ,[2, 2, 1, 1, 1, 2, 1, 2]);
next = array1d(1..8 ,[2, 6, 5, 7, 4, 8, 1, 3]);
makespan = 327;
----------
assign = array1d(1..8 ,[1, 2, 2, 1, 2, 1, 1, 2]);
next = array1d(1..8 ,[4, 3, 5, 6, 8, 7, 2, 1]);
makespan = 325;
----------
assign = array1d(1..8 ,[2, 2, 1, 1, 1, 2, 1, 2]);
next = array1d(1..8 ,[2, 6, 5, 7, 4, 8, 1, 3]);
makespan = 324;
----------
assign = array1d(1..8 ,[2, 2, 1, 1, 1, 2, 1, 2]);
next = array1d(1..8 ,[2, 6, 5, 7, 4, 8, 1, 3]);
makespan = 323;
----------
assign = array1d(1..8 ,[2, 2, 1, 1, 1, 2, 1, 2]);
next = array1d(1..8 ,[2, 6, 5, 7, 4, 8, 1, 3]);
makespan = 322;
----------
assign = array1d(1..8 ,[2, 2, 1, 1, 1, 2, 1, 2]);
next = array1d(1..8 ,[2, 6, 5, 7, 4, 8, 1, 3]);
makespan = 319;
----------
assign = array1d(1..8 ,[1, 2, 2, 1, 2, 1, 1, 2]);
next = array1d(1..8 ,[4, 3, 5, 6, 8, 7, 2, 1]);
makespan = 318;
----------
assign = array1d(1..8 ,[1, 2, 2, 1, 2, 1, 1, 2]);
next = array1d(1..8 ,[6, 3, 5, 1, 8, 7, 2, 4]);
makespan = 317;
----------
==========
	Command being timed: "mzn-chuffed lbbd-datasets/Rabadi-2006/dzn-balanced/model.mzn lbbd-datasets/Rabadi-2006/dzn-balanced/6on2Rp50Rs50_1Ameer.dzn"
	User time (seconds): 0.20
	System time (seconds): 0.01
	Percent of CPU this job got: 86%
	Elapsed (wall clock) time (h:mm:ss or m:ss): 0:00.24
	Average shared text size (kbytes): 0
	Average unshared data size (kbytes): 0
	Average stack size (kbytes): 0
	Average total size (kbytes): 0
	Maximum resident set size (kbytes): 29552
	Average resident set size (kbytes): 0
	Major (requiring I/O) page faults: 0
	Minor (reclaiming a frame) page faults: 2546
	Voluntary context switches: 40
	Involuntary context switches: 2
	Swaps: 0
	File system inputs: 0
	File system outputs: 104
	Socket messages sent: 0
	Socket messages received: 0
	Signals delivered: 0
	Page size (bytes): 4096
	Exit status: 0
