+ /usr/bin/timeout 600 /usr/bin/time -v mzn-chuffed lbbd-datasets/Rabadi-2006/dzn-s-dominant/model.mzn lbbd-datasets/Rabadi-2006/dzn-s-dominant/7on4Rp50Rs50_6Ameer.dzn
% No search annotation given. Defaulting to VSIDS!
assign = array1d(1..11 ,[4, 4, 4, 4, 4, 4, 4, 1, 2, 3, 4]);
next = array1d(1..11 ,[2, 3, 4, 5, 6, 7, 11, 9, 10, 1, 8]);
makespan = 1374;
----------
assign = array1d(1..11 ,[4, 4, 4, 4, 4, 4, 4, 1, 2, 3, 4]);
next = array1d(1..11 ,[3, 4, 5, 6, 2, 7, 11, 9, 10, 1, 8]);
makespan = 1342;
----------
assign = array1d(1..11 ,[4, 4, 2, 4, 4, 4, 4, 1, 2, 3, 4]);
next = array1d(1..11 ,[4, 1, 9, 6, 7, 5, 11, 3, 10, 2, 8]);
makespan = 1319;
----------
assign = array1d(1..11 ,[4, 4, 2, 4, 4, 4, 4, 1, 2, 3, 4]);
next = array1d(1..11 ,[4, 1, 9, 6, 7, 5, 11, 3, 10, 2, 8]);
makespan = 1317;
----------
assign = array1d(1..11 ,[4, 4, 3, 4, 4, 4, 4, 1, 2, 3, 4]);
next = array1d(1..11 ,[4, 1, 10, 6, 7, 5, 11, 9, 3, 2, 8]);
makespan = 1316;
----------
assign = array1d(1..11 ,[4, 4, 2, 4, 4, 4, 4, 1, 2, 3, 4]);
next = array1d(1..11 ,[4, 1, 9, 6, 7, 5, 11, 3, 10, 2, 8]);
makespan = 1313;
----------
assign = array1d(1..11 ,[4, 4, 3, 4, 4, 4, 4, 1, 2, 3, 4]);
next = array1d(1..11 ,[4, 1, 10, 6, 7, 5, 11, 9, 3, 2, 8]);
makespan = 1307;
----------
assign = array1d(1..11 ,[4, 4, 2, 4, 4, 4, 4, 1, 2, 3, 4]);
next = array1d(1..11 ,[4, 1, 9, 6, 7, 5, 11, 3, 10, 2, 8]);
makespan = 1292;
----------
assign = array1d(1..11 ,[4, 4, 2, 4, 4, 4, 4, 1, 2, 3, 4]);
next = array1d(1..11 ,[4, 1, 9, 6, 7, 5, 11, 3, 10, 2, 8]);
makespan = 1283;
----------
assign = array1d(1..11 ,[4, 4, 2, 4, 4, 4, 4, 1, 2, 3, 4]);
next = array1d(1..11 ,[4, 1, 9, 6, 7, 5, 11, 3, 10, 2, 8]);
makespan = 1262;
----------
assign = array1d(1..11 ,[4, 4, 2, 4, 4, 4, 4, 1, 2, 3, 4]);
next = array1d(1..11 ,[4, 1, 9, 6, 7, 5, 11, 3, 10, 2, 8]);
makespan = 1261;
----------
assign = array1d(1..11 ,[4, 4, 2, 4, 4, 4, 4, 1, 2, 3, 4]);
next = array1d(1..11 ,[4, 1, 9, 6, 7, 5, 11, 3, 10, 2, 8]);
makespan = 1259;
----------
assign = array1d(1..11 ,[4, 4, 2, 4, 4, 4, 4, 1, 2, 3, 4]);
next = array1d(1..11 ,[4, 1, 9, 6, 7, 5, 11, 3, 10, 2, 8]);
makespan = 1258;
----------
assign = array1d(1..11 ,[4, 4, 2, 4, 4, 4, 4, 1, 2, 3, 4]);
next = array1d(1..11 ,[4, 1, 9, 6, 7, 5, 11, 3, 10, 2, 8]);
makespan = 1256;
----------
assign = array1d(1..11 ,[4, 4, 2, 4, 4, 4, 4, 1, 2, 3, 4]);
next = array1d(1..11 ,[4, 1, 9, 6, 7, 5, 11, 3, 10, 2, 8]);
makespan = 1255;
----------
assign = array1d(1..11 ,[4, 4, 2, 4, 4, 4, 4, 1, 2, 3, 4]);
next = array1d(1..11 ,[4, 1, 9, 6, 7, 5, 11, 3, 10, 2, 8]);
makespan = 1252;
----------
assign = array1d(1..11 ,[4, 4, 2, 4, 4, 4, 4, 1, 2, 3, 4]);
next = array1d(1..11 ,[4, 1, 9, 6, 7, 5, 11, 3, 10, 2, 8]);
makespan = 1250;
----------
assign = array1d(1..11 ,[4, 4, 2, 4, 4, 4, 4, 1, 2, 3, 4]);
next = array1d(1..11 ,[4, 1, 9, 6, 7, 5, 11, 3, 10, 2, 8]);
makespan = 1249;
----------
assign = array1d(1..11 ,[4, 4, 3, 4, 4, 4, 4, 1, 2, 3, 4]);
next = array1d(1..11 ,[4, 1, 10, 6, 7, 5, 11, 9, 3, 2, 8]);
makespan = 1246;
----------
assign = array1d(1..11 ,[4, 4, 2, 4, 4, 4, 4, 1, 2, 3, 4]);
next = array1d(1..11 ,[4, 1, 9, 6, 7, 5, 11, 3, 10, 2, 8]);
makespan = 1237;
----------
assign = array1d(1..11 ,[4, 4, 3, 4, 4, 4, 4, 1, 2, 3, 4]);
next = array1d(1..11 ,[4, 1, 10, 6, 7, 5, 11, 9, 3, 2, 8]);
makespan = 1235;
----------
assign = array1d(1..11 ,[4, 4, 2, 4, 4, 4, 4, 1, 2, 3, 4]);
next = array1d(1..11 ,[4, 1, 9, 6, 7, 5, 11, 3, 10, 2, 8]);
makespan = 1234;
----------
assign = array1d(1..11 ,[4, 4, 3, 4, 4, 4, 4, 1, 2, 3, 4]);
next = array1d(1..11 ,[4, 1, 10, 6, 7, 5, 11, 9, 3, 2, 8]);
makespan = 1231;
----------
assign = array1d(1..11 ,[4, 4, 2, 4, 4, 4, 4, 1, 2, 3, 4]);
next = array1d(1..11 ,[4, 1, 9, 6, 7, 5, 11, 3, 10, 2, 8]);
makespan = 1228;
----------
assign = array1d(1..11 ,[4, 4, 3, 4, 4, 4, 4, 1, 2, 3, 4]);
next = array1d(1..11 ,[4, 1, 10, 6, 7, 5, 11, 9, 3, 2, 8]);
makespan = 1226;
----------
assign = array1d(1..11 ,[4, 4, 2, 4, 4, 4, 4, 1, 2, 3, 4]);
next = array1d(1..11 ,[4, 1, 9, 6, 7, 5, 11, 3, 10, 2, 8]);
makespan = 1225;
----------
assign = array1d(1..11 ,[4, 4, 3, 4, 4, 4, 4, 1, 2, 3, 4]);
next = array1d(1..11 ,[4, 1, 10, 6, 7, 5, 11, 9, 3, 2, 8]);
makespan = 1222;
----------
assign = array1d(1..11 ,[4, 4, 2, 4, 4, 4, 4, 1, 2, 3, 4]);
next = array1d(1..11 ,[4, 1, 9, 6, 7, 5, 11, 3, 10, 2, 8]);
makespan = 1216;
----------
assign = array1d(1..11 ,[4, 4, 3, 4, 4, 4, 4, 1, 2, 3, 4]);
next = array1d(1..11 ,[4, 1, 10, 6, 7, 5, 11, 9, 3, 2, 8]);
makespan = 1210;
----------
assign = array1d(1..11 ,[4, 4, 2, 4, 4, 4, 4, 1, 2, 3, 4]);
next = array1d(1..11 ,[4, 1, 9, 6, 7, 5, 11, 3, 10, 2, 8]);
makespan = 1204;
----------
assign = array1d(1..11 ,[4, 4, 3, 4, 4, 4, 4, 1, 2, 3, 4]);
next = array1d(1..11 ,[4, 1, 10, 6, 7, 5, 11, 9, 3, 2, 8]);
makespan = 1201;
----------
assign = array1d(1..11 ,[4, 4, 2, 4, 4, 4, 4, 1, 2, 3, 4]);
next = array1d(1..11 ,[4, 1, 9, 6, 7, 5, 11, 3, 10, 2, 8]);
makespan = 1200;
----------
assign = array1d(1..11 ,[4, 4, 3, 4, 4, 4, 4, 1, 2, 3, 4]);
next = array1d(1..11 ,[4, 1, 10, 6, 7, 5, 11, 9, 3, 2, 8]);
makespan = 1198;
----------
assign = array1d(1..11 ,[4, 4, 2, 4, 4, 4, 4, 1, 2, 3, 4]);
next = array1d(1..11 ,[4, 1, 9, 6, 7, 5, 11, 3, 10, 2, 8]);
makespan = 1195;
----------
assign = array1d(1..11 ,[4, 4, 3, 4, 4, 4, 4, 1, 2, 3, 4]);
next = array1d(1..11 ,[4, 1, 10, 6, 7, 5, 11, 9, 3, 2, 8]);
makespan = 1194;
----------
assign = array1d(1..11 ,[4, 4, 2, 4, 4, 4, 4, 1, 2, 3, 4]);
next = array1d(1..11 ,[4, 1, 9, 6, 7, 5, 11, 3, 10, 2, 8]);
makespan = 1192;
----------
assign = array1d(1..11 ,[4, 4, 3, 4, 4, 4, 4, 1, 2, 3, 4]);
next = array1d(1..11 ,[4, 1, 10, 6, 7, 5, 11, 9, 3, 2, 8]);
makespan = 1191;
----------
assign = array1d(1..11 ,[4, 4, 2, 4, 4, 4, 4, 1, 2, 3, 4]);
next = array1d(1..11 ,[4, 1, 9, 6, 7, 5, 11, 3, 10, 2, 8]);
makespan = 1189;
----------
assign = array1d(1..11 ,[4, 4, 3, 4, 4, 4, 4, 1, 2, 3, 4]);
next = array1d(1..11 ,[4, 1, 10, 6, 7, 5, 11, 9, 3, 2, 8]);
makespan = 1188;
----------
assign = array1d(1..11 ,[4, 4, 2, 4, 4, 4, 4, 1, 2, 3, 4]);
next = array1d(1..11 ,[4, 1, 9, 6, 7, 5, 11, 3, 10, 2, 8]);
makespan = 1180;
----------
assign = array1d(1..11 ,[4, 4, 3, 4, 4, 4, 4, 1, 2, 3, 4]);
next = array1d(1..11 ,[4, 1, 10, 6, 7, 5, 11, 9, 3, 2, 8]);
makespan = 1179;
----------
assign = array1d(1..11 ,[4, 4, 2, 4, 4, 4, 4, 1, 2, 3, 4]);
next = array1d(1..11 ,[4, 1, 9, 6, 7, 5, 11, 3, 10, 2, 8]);
makespan = 1177;
----------
assign = array1d(1..11 ,[4, 4, 3, 4, 4, 4, 4, 1, 2, 3, 4]);
next = array1d(1..11 ,[4, 1, 10, 6, 7, 5, 11, 9, 3, 2, 8]);
makespan = 1176;
----------
assign = array1d(1..11 ,[4, 4, 2, 4, 4, 4, 4, 1, 2, 3, 4]);
next = array1d(1..11 ,[4, 1, 9, 6, 7, 5, 11, 3, 10, 2, 8]);
makespan = 1174;
----------
assign = array1d(1..11 ,[4, 4, 3, 4, 4, 4, 4, 1, 2, 3, 4]);
next = array1d(1..11 ,[4, 1, 10, 6, 7, 5, 11, 9, 3, 2, 8]);
makespan = 1173;
----------
assign = array1d(1..11 ,[4, 4, 2, 4, 4, 4, 4, 1, 2, 3, 4]);
next = array1d(1..11 ,[4, 1, 9, 6, 7, 5, 11, 3, 10, 2, 8]);
makespan = 1171;
----------
assign = array1d(1..11 ,[4, 4, 3, 4, 4, 4, 4, 1, 2, 3, 4]);
next = array1d(1..11 ,[4, 1, 10, 6, 7, 5, 11, 9, 3, 2, 8]);
makespan = 1170;
----------
assign = array1d(1..11 ,[4, 4, 2, 4, 4, 4, 4, 1, 2, 3, 4]);
next = array1d(1..11 ,[4, 1, 9, 6, 7, 5, 11, 3, 10, 2, 8]);
makespan = 1168;
----------
assign = array1d(1..11 ,[4, 4, 3, 4, 4, 4, 4, 1, 2, 3, 4]);
next = array1d(1..11 ,[4, 1, 10, 6, 7, 5, 11, 9, 3, 2, 8]);
makespan = 1167;
----------
assign = array1d(1..11 ,[4, 4, 2, 4, 4, 4, 4, 1, 2, 3, 4]);
next = array1d(1..11 ,[4, 1, 9, 6, 7, 5, 11, 3, 10, 2, 8]);
makespan = 1165;
----------
assign = array1d(1..11 ,[4, 4, 3, 4, 4, 4, 4, 1, 2, 3, 4]);
next = array1d(1..11 ,[4, 1, 10, 6, 7, 5, 11, 9, 3, 2, 8]);
makespan = 1164;
----------
assign = array1d(1..11 ,[4, 4, 2, 4, 4, 4, 4, 1, 2, 3, 4]);
next = array1d(1..11 ,[4, 1, 9, 6, 7, 5, 11, 3, 10, 2, 8]);
makespan = 1161;
----------
assign = array1d(1..11 ,[4, 4, 3, 4, 4, 4, 4, 1, 2, 3, 4]);
next = array1d(1..11 ,[4, 1, 10, 6, 7, 5, 11, 9, 3, 2, 8]);
makespan = 1159;
----------
assign = array1d(1..11 ,[4, 4, 2, 4, 4, 4, 4, 1, 2, 3, 4]);
next = array1d(1..11 ,[4, 1, 9, 6, 7, 5, 11, 3, 10, 2, 8]);
makespan = 1158;
----------
assign = array1d(1..11 ,[4, 4, 3, 4, 4, 4, 4, 1, 2, 3, 4]);
next = array1d(1..11 ,[4, 1, 10, 6, 7, 5, 11, 9, 3, 2, 8]);
makespan = 1155;
----------
assign = array1d(1..11 ,[4, 4, 2, 4, 4, 4, 4, 1, 2, 3, 4]);
next = array1d(1..11 ,[4, 1, 9, 6, 7, 5, 11, 3, 10, 2, 8]);
makespan = 1146;
----------
assign = array1d(1..11 ,[4, 4, 3, 4, 4, 4, 4, 1, 2, 3, 4]);
next = array1d(1..11 ,[4, 1, 10, 6, 7, 5, 11, 9, 3, 2, 8]);
makespan = 1144;
----------
assign = array1d(1..11 ,[4, 4, 2, 4, 4, 4, 4, 1, 2, 3, 4]);
next = array1d(1..11 ,[4, 1, 9, 6, 7, 5, 11, 3, 10, 2, 8]);
makespan = 1143;
----------
assign = array1d(1..11 ,[4, 4, 3, 4, 4, 4, 4, 1, 2, 3, 4]);
next = array1d(1..11 ,[4, 1, 10, 6, 7, 5, 11, 9, 3, 2, 8]);
makespan = 1140;
----------
assign = array1d(1..11 ,[4, 4, 3, 4, 4, 4, 4, 1, 2, 3, 4]);
next = array1d(1..11 ,[4, 1, 10, 6, 7, 5, 11, 9, 3, 2, 8]);
makespan = 1137;
----------
assign = array1d(1..11 ,[4, 4, 2, 4, 4, 4, 4, 1, 2, 3, 4]);
next = array1d(1..11 ,[4, 1, 9, 6, 7, 5, 11, 3, 10, 2, 8]);
makespan = 1134;
----------
assign = array1d(1..11 ,[4, 4, 3, 4, 4, 4, 4, 1, 2, 3, 4]);
next = array1d(1..11 ,[4, 1, 10, 6, 7, 5, 11, 9, 3, 2, 8]);
makespan = 1133;
----------
assign = array1d(1..11 ,[4, 4, 2, 4, 4, 4, 4, 1, 2, 3, 4]);
next = array1d(1..11 ,[4, 1, 9, 6, 7, 5, 11, 3, 10, 2, 8]);
makespan = 1131;
----------
assign = array1d(1..11 ,[4, 4, 3, 4, 4, 4, 4, 1, 2, 3, 4]);
next = array1d(1..11 ,[4, 1, 10, 6, 7, 5, 11, 9, 3, 2, 8]);
makespan = 1122;
----------
assign = array1d(1..11 ,[4, 4, 2, 4, 4, 4, 4, 1, 2, 3, 4]);
next = array1d(1..11 ,[4, 1, 9, 6, 7, 5, 11, 3, 10, 2, 8]);
makespan = 1119;
----------
assign = array1d(1..11 ,[4, 4, 3, 4, 4, 4, 4, 1, 2, 3, 4]);
next = array1d(1..11 ,[11, 1, 10, 6, 7, 5, 2, 9, 3, 4, 8]);
makespan = 1118;
----------
assign = array1d(1..11 ,[4, 4, 3, 4, 4, 4, 4, 1, 2, 3, 4]);
next = array1d(1..11 ,[11, 1, 10, 6, 7, 5, 2, 9, 3, 4, 8]);
makespan = 1116;
----------
assign = array1d(1..11 ,[4, 4, 3, 4, 4, 4, 4, 1, 2, 3, 4]);
next = array1d(1..11 ,[11, 1, 10, 6, 7, 5, 2, 9, 3, 4, 8]);
makespan = 1113;
----------
assign = array1d(1..11 ,[4, 4, 3, 4, 4, 4, 4, 1, 2, 3, 4]);
next = array1d(1..11 ,[11, 1, 10, 6, 7, 5, 2, 9, 3, 4, 8]);
makespan = 1112;
----------
assign = array1d(1..11 ,[4, 4, 3, 4, 4, 4, 4, 1, 2, 3, 4]);
next = array1d(1..11 ,[11, 1, 10, 6, 7, 5, 2, 9, 3, 4, 8]);
makespan = 1110;
----------
assign = array1d(1..11 ,[4, 4, 3, 4, 4, 4, 4, 1, 2, 3, 4]);
next = array1d(1..11 ,[11, 1, 10, 6, 7, 5, 2, 9, 3, 4, 8]);
makespan = 1109;
----------
assign = array1d(1..11 ,[4, 4, 3, 4, 4, 4, 4, 1, 2, 3, 4]);
next = array1d(1..11 ,[11, 1, 10, 6, 7, 5, 2, 9, 3, 4, 8]);
makespan = 1107;
----------
assign = array1d(1..11 ,[4, 4, 3, 4, 4, 4, 4, 1, 2, 3, 4]);
next = array1d(1..11 ,[11, 1, 10, 6, 7, 5, 2, 9, 3, 4, 8]);
makespan = 1106;
----------
assign = array1d(1..11 ,[4, 4, 3, 4, 4, 4, 4, 1, 2, 3, 4]);
next = array1d(1..11 ,[11, 1, 10, 6, 7, 5, 2, 9, 3, 4, 8]);
makespan = 1104;
----------
assign = array1d(1..11 ,[4, 4, 3, 4, 4, 4, 4, 1, 2, 3, 4]);
next = array1d(1..11 ,[11, 1, 10, 6, 7, 5, 2, 9, 3, 4, 8]);
makespan = 1103;
----------
assign = array1d(1..11 ,[4, 4, 3, 4, 4, 4, 4, 1, 2, 3, 4]);
next = array1d(1..11 ,[11, 1, 10, 6, 7, 5, 2, 9, 3, 4, 8]);
makespan = 1101;
----------
assign = array1d(1..11 ,[4, 4, 3, 4, 4, 4, 4, 1, 2, 3, 4]);
next = array1d(1..11 ,[11, 1, 10, 6, 7, 5, 2, 9, 3, 4, 8]);
makespan = 1100;
----------
assign = array1d(1..11 ,[4, 4, 3, 4, 4, 4, 4, 1, 2, 3, 4]);
next = array1d(1..11 ,[11, 1, 10, 6, 7, 5, 2, 9, 3, 4, 8]);
makespan = 1098;
----------
assign = array1d(1..11 ,[4, 4, 3, 4, 4, 4, 4, 1, 2, 3, 4]);
next = array1d(1..11 ,[11, 1, 10, 6, 7, 5, 2, 9, 3, 4, 8]);
makespan = 1097;
----------
assign = array1d(1..11 ,[4, 4, 3, 4, 4, 4, 4, 1, 2, 3, 4]);
next = array1d(1..11 ,[11, 1, 10, 6, 7, 5, 2, 9, 3, 4, 8]);
makespan = 1095;
----------
assign = array1d(1..11 ,[2, 1, 4, 4, 4, 4, 4, 1, 2, 3, 4]);
next = array1d(1..11 ,[9, 8, 4, 6, 7, 5, 11, 1, 10, 3, 2]);
makespan = 1089;
----------
assign = array1d(1..11 ,[2, 1, 4, 4, 4, 4, 4, 1, 2, 3, 4]);
next = array1d(1..11 ,[9, 8, 4, 6, 7, 5, 11, 1, 10, 3, 2]);
makespan = 1088;
----------
assign = array1d(1..11 ,[2, 1, 4, 4, 4, 4, 4, 1, 2, 3, 4]);
next = array1d(1..11 ,[9, 8, 4, 6, 7, 5, 11, 1, 10, 3, 2]);
makespan = 1086;
----------
assign = array1d(1..11 ,[2, 1, 4, 4, 4, 4, 4, 1, 2, 3, 4]);
next = array1d(1..11 ,[9, 8, 4, 6, 7, 5, 11, 1, 10, 3, 2]);
makespan = 1085;
----------
assign = array1d(1..11 ,[2, 1, 4, 4, 4, 4, 4, 1, 2, 3, 4]);
next = array1d(1..11 ,[9, 8, 4, 6, 7, 5, 11, 1, 10, 3, 2]);
makespan = 1083;
----------
assign = array1d(1..11 ,[2, 1, 4, 4, 4, 4, 4, 1, 2, 3, 4]);
next = array1d(1..11 ,[9, 8, 4, 6, 7, 5, 11, 1, 10, 3, 2]);
makespan = 1082;
----------
assign = array1d(1..11 ,[2, 1, 4, 4, 4, 4, 4, 1, 2, 3, 4]);
next = array1d(1..11 ,[9, 8, 4, 6, 7, 5, 11, 1, 10, 3, 2]);
makespan = 1079;
----------
assign = array1d(1..11 ,[2, 1, 4, 4, 4, 4, 4, 1, 2, 3, 4]);
next = array1d(1..11 ,[9, 8, 4, 6, 7, 5, 11, 1, 10, 3, 2]);
makespan = 1077;
----------
assign = array1d(1..11 ,[2, 1, 4, 4, 4, 4, 4, 1, 2, 3, 4]);
next = array1d(1..11 ,[9, 8, 4, 6, 7, 5, 11, 1, 10, 3, 2]);
makespan = 1076;
----------
assign = array1d(1..11 ,[2, 1, 4, 4, 4, 4, 4, 1, 2, 3, 4]);
next = array1d(1..11 ,[9, 8, 4, 6, 7, 5, 11, 1, 10, 3, 2]);
makespan = 1073;
----------
assign = array1d(1..11 ,[2, 1, 4, 4, 4, 4, 4, 1, 2, 3, 4]);
next = array1d(1..11 ,[9, 8, 4, 6, 7, 5, 11, 1, 10, 3, 2]);
makespan = 1061;
----------
assign = array1d(1..11 ,[2, 1, 4, 4, 4, 4, 4, 1, 2, 3, 4]);
next = array1d(1..11 ,[9, 8, 4, 6, 7, 5, 11, 1, 10, 3, 2]);
makespan = 1055;
----------
assign = array1d(1..11 ,[2, 1, 4, 4, 4, 4, 4, 1, 2, 3, 4]);
next = array1d(1..11 ,[9, 8, 4, 6, 7, 5, 11, 1, 10, 3, 2]);
makespan = 1052;
----------
assign = array1d(1..11 ,[2, 1, 4, 4, 4, 4, 4, 1, 2, 3, 4]);
next = array1d(1..11 ,[9, 8, 4, 6, 7, 5, 11, 1, 10, 3, 2]);
makespan = 1051;
----------
assign = array1d(1..11 ,[2, 1, 4, 4, 4, 4, 4, 1, 2, 3, 4]);
next = array1d(1..11 ,[9, 8, 4, 6, 7, 5, 11, 1, 10, 3, 2]);
makespan = 1049;
----------
assign = array1d(1..11 ,[2, 1, 4, 4, 4, 4, 4, 1, 2, 3, 4]);
next = array1d(1..11 ,[9, 8, 4, 6, 7, 5, 11, 1, 10, 3, 2]);
makespan = 1046;
----------
assign = array1d(1..11 ,[2, 1, 4, 4, 4, 4, 4, 1, 2, 3, 4]);
next = array1d(1..11 ,[9, 8, 4, 6, 7, 5, 11, 1, 10, 3, 2]);
makespan = 1043;
----------
assign = array1d(1..11 ,[2, 1, 4, 4, 4, 4, 4, 1, 2, 3, 4]);
next = array1d(1..11 ,[9, 8, 4, 6, 7, 5, 11, 1, 10, 3, 2]);
makespan = 1042;
----------
assign = array1d(1..11 ,[2, 1, 4, 4, 4, 4, 4, 1, 2, 3, 4]);
next = array1d(1..11 ,[9, 8, 4, 6, 7, 5, 11, 1, 10, 3, 2]);
makespan = 1040;
----------
assign = array1d(1..11 ,[2, 1, 4, 4, 4, 4, 4, 1, 2, 3, 4]);
next = array1d(1..11 ,[9, 8, 4, 6, 7, 5, 11, 1, 10, 3, 2]);
makespan = 1031;
----------
assign = array1d(1..11 ,[2, 1, 4, 4, 4, 4, 4, 1, 2, 3, 4]);
next = array1d(1..11 ,[9, 8, 4, 6, 7, 5, 11, 1, 10, 3, 2]);
makespan = 1028;
----------
assign = array1d(1..11 ,[2, 1, 4, 4, 4, 4, 4, 1, 2, 3, 4]);
next = array1d(1..11 ,[9, 8, 4, 6, 7, 5, 11, 1, 10, 3, 2]);
makespan = 1027;
----------
assign = array1d(1..11 ,[2, 1, 4, 4, 4, 4, 4, 1, 2, 3, 4]);
next = array1d(1..11 ,[9, 8, 4, 6, 7, 5, 11, 1, 10, 3, 2]);
makespan = 1025;
----------
assign = array1d(1..11 ,[2, 1, 4, 4, 4, 4, 4, 1, 2, 3, 4]);
next = array1d(1..11 ,[9, 8, 4, 6, 7, 5, 11, 1, 10, 3, 2]);
makespan = 1022;
----------
assign = array1d(1..11 ,[2, 1, 4, 4, 4, 4, 4, 1, 2, 3, 4]);
next = array1d(1..11 ,[9, 8, 4, 6, 7, 5, 11, 1, 10, 3, 2]);
makespan = 1021;
----------
assign = array1d(1..11 ,[2, 1, 4, 4, 4, 4, 4, 1, 2, 3, 4]);
next = array1d(1..11 ,[9, 8, 4, 6, 7, 5, 11, 1, 10, 3, 2]);
makespan = 1019;
----------
assign = array1d(1..11 ,[2, 1, 4, 4, 4, 4, 4, 1, 2, 3, 4]);
next = array1d(1..11 ,[9, 8, 4, 6, 7, 5, 11, 1, 10, 3, 2]);
makespan = 1018;
----------
assign = array1d(1..11 ,[2, 1, 4, 4, 4, 4, 4, 1, 2, 3, 4]);
next = array1d(1..11 ,[9, 8, 4, 6, 7, 5, 11, 1, 10, 3, 2]);
makespan = 1015;
----------
assign = array1d(1..11 ,[2, 1, 4, 4, 4, 4, 4, 1, 2, 3, 4]);
next = array1d(1..11 ,[9, 8, 4, 6, 7, 5, 11, 1, 10, 3, 2]);
makespan = 990;
----------
assign = array1d(1..11 ,[2, 1, 4, 4, 4, 4, 4, 1, 2, 3, 4]);
next = array1d(1..11 ,[9, 8, 4, 6, 7, 5, 11, 1, 10, 3, 2]);
makespan = 989;
----------
assign = array1d(1..11 ,[2, 1, 4, 4, 4, 4, 4, 1, 2, 3, 4]);
next = array1d(1..11 ,[9, 8, 4, 6, 7, 5, 11, 1, 10, 3, 2]);
makespan = 983;
----------
assign = array1d(1..11 ,[2, 1, 4, 4, 4, 4, 4, 1, 2, 3, 4]);
next = array1d(1..11 ,[9, 8, 4, 6, 7, 5, 11, 1, 10, 3, 2]);
makespan = 967;
----------
assign = array1d(1..11 ,[2, 1, 4, 4, 4, 4, 4, 1, 2, 3, 4]);
next = array1d(1..11 ,[9, 8, 4, 6, 7, 5, 11, 1, 10, 3, 2]);
makespan = 959;
----------
assign = array1d(1..11 ,[2, 1, 4, 4, 4, 4, 4, 1, 2, 3, 4]);
next = array1d(1..11 ,[9, 8, 4, 6, 7, 5, 11, 1, 10, 3, 2]);
makespan = 958;
----------
assign = array1d(1..11 ,[2, 1, 4, 4, 4, 4, 4, 1, 2, 3, 4]);
next = array1d(1..11 ,[9, 8, 4, 6, 7, 5, 11, 1, 10, 3, 2]);
makespan = 932;
----------
assign = array1d(1..11 ,[4, 1, 1, 4, 4, 4, 4, 1, 2, 3, 4]);
next = array1d(1..11 ,[4, 3, 8, 6, 7, 5, 11, 9, 10, 1, 2]);
makespan = 907;
----------
assign = array1d(1..11 ,[4, 1, 1, 4, 4, 4, 4, 1, 2, 3, 4]);
next = array1d(1..11 ,[11, 3, 8, 6, 7, 5, 1, 9, 10, 4, 2]);
makespan = 903;
----------
assign = array1d(1..11 ,[4, 1, 1, 4, 4, 4, 4, 1, 2, 3, 4]);
next = array1d(1..11 ,[11, 3, 8, 6, 7, 5, 1, 9, 10, 4, 2]);
makespan = 902;
----------
assign = array1d(1..11 ,[1, 2, 1, 4, 4, 4, 4, 1, 2, 3, 4]);
next = array1d(1..11 ,[8, 9, 1, 6, 7, 5, 11, 2, 10, 4, 3]);
makespan = 838;
----------
assign = array1d(1..11 ,[1, 3, 1, 4, 4, 4, 4, 1, 2, 3, 4]);
next = array1d(1..11 ,[8, 10, 1, 6, 7, 5, 11, 9, 2, 4, 3]);
makespan = 837;
----------
assign = array1d(1..11 ,[1, 2, 1, 4, 4, 4, 4, 1, 2, 3, 4]);
next = array1d(1..11 ,[8, 9, 1, 6, 7, 5, 11, 2, 10, 4, 3]);
makespan = 810;
----------
assign = array1d(1..11 ,[1, 3, 1, 4, 4, 4, 4, 1, 2, 3, 4]);
next = array1d(1..11 ,[8, 10, 1, 6, 7, 5, 11, 9, 2, 4, 3]);
makespan = 806;
----------
assign = array1d(1..11 ,[1, 2, 1, 4, 4, 4, 4, 1, 2, 3, 4]);
next = array1d(1..11 ,[8, 9, 1, 6, 7, 5, 11, 2, 10, 4, 3]);
makespan = 805;
----------
assign = array1d(1..11 ,[1, 3, 1, 4, 4, 4, 4, 1, 2, 3, 4]);
next = array1d(1..11 ,[8, 10, 1, 6, 7, 5, 11, 9, 2, 4, 3]);
makespan = 804;
----------
assign = array1d(1..11 ,[1, 2, 1, 4, 4, 4, 4, 1, 2, 3, 4]);
next = array1d(1..11 ,[8, 9, 1, 6, 7, 5, 11, 2, 10, 4, 3]);
makespan = 800;
----------
assign = array1d(1..11 ,[1, 3, 1, 4, 4, 4, 4, 1, 2, 3, 4]);
next = array1d(1..11 ,[8, 10, 1, 6, 7, 5, 11, 9, 2, 4, 3]);
makespan = 780;
----------
assign = array1d(1..11 ,[1, 2, 1, 4, 4, 4, 4, 1, 2, 3, 4]);
next = array1d(1..11 ,[8, 9, 1, 6, 7, 5, 11, 2, 10, 4, 3]);
makespan = 747;
----------
assign = array1d(1..11 ,[1, 3, 1, 4, 4, 4, 4, 1, 2, 3, 4]);
next = array1d(1..11 ,[8, 10, 1, 6, 7, 5, 11, 9, 2, 4, 3]);
makespan = 746;
----------
assign = array1d(1..11 ,[1, 2, 1, 4, 4, 4, 4, 1, 2, 3, 4]);
next = array1d(1..11 ,[8, 9, 1, 6, 7, 5, 11, 2, 10, 4, 3]);
makespan = 689;
----------
assign = array1d(1..11 ,[1, 3, 1, 3, 4, 4, 4, 1, 2, 3, 4]);
next = array1d(1..11 ,[8, 4, 1, 10, 7, 5, 11, 9, 2, 6, 3]);
makespan = 644;
----------
assign = array1d(1..11 ,[1, 2, 1, 2, 4, 4, 4, 1, 2, 3, 4]);
next = array1d(1..11 ,[8, 4, 1, 9, 7, 5, 11, 2, 10, 6, 3]);
makespan = 597;
----------
assign = array1d(1..11 ,[1, 3, 1, 3, 4, 4, 4, 1, 2, 3, 4]);
next = array1d(1..11 ,[8, 4, 1, 10, 7, 5, 11, 9, 2, 6, 3]);
makespan = 573;
----------
assign = array1d(1..11 ,[1, 2, 1, 2, 4, 4, 4, 1, 2, 3, 4]);
next = array1d(1..11 ,[8, 4, 1, 9, 7, 5, 11, 2, 10, 6, 3]);
makespan = 564;
----------
assign = array1d(1..11 ,[1, 3, 1, 3, 4, 4, 4, 1, 2, 3, 4]);
next = array1d(1..11 ,[8, 4, 1, 10, 7, 5, 11, 9, 2, 6, 3]);
makespan = 540;
----------
assign = array1d(1..11 ,[1, 2, 1, 2, 4, 4, 4, 1, 2, 3, 4]);
next = array1d(1..11 ,[8, 4, 1, 9, 7, 5, 11, 2, 10, 6, 3]);
makespan = 539;
----------
assign = array1d(1..11 ,[1, 3, 1, 3, 4, 4, 4, 1, 2, 3, 4]);
next = array1d(1..11 ,[8, 4, 1, 10, 7, 5, 11, 9, 2, 6, 3]);
makespan = 482;
----------
assign = array1d(1..11 ,[1, 1, 1, 2, 4, 2, 4, 1, 2, 3, 4]);
next = array1d(1..11 ,[3, 8, 2, 9, 7, 4, 11, 6, 10, 5, 1]);
makespan = 472;
----------
assign = array1d(1..11 ,[2, 3, 3, 1, 4, 1, 4, 1, 2, 3, 4]);
next = array1d(1..11 ,[9, 10, 2, 8, 7, 4, 11, 1, 3, 5, 6]);
makespan = 471;
----------
assign = array1d(1..11 ,[2, 3, 3, 1, 4, 1, 4, 1, 2, 3, 4]);
next = array1d(1..11 ,[9, 10, 2, 6, 7, 8, 11, 1, 3, 5, 4]);
makespan = 414;
----------
assign = array1d(1..11 ,[2, 3, 3, 1, 4, 1, 4, 1, 2, 3, 4]);
next = array1d(1..11 ,[9, 10, 2, 6, 7, 8, 11, 1, 3, 5, 4]);
makespan = 381;
----------
assign = array1d(1..11 ,[2, 1, 1, 3, 4, 3, 4, 1, 2, 3, 4]);
next = array1d(1..11 ,[9, 8, 2, 6, 7, 10, 11, 1, 4, 5, 3]);
makespan = 373;
----------
assign = array1d(1..11 ,[3, 1, 1, 3, 4, 2, 4, 1, 2, 3, 4]);
next = array1d(1..11 ,[4, 8, 2, 10, 7, 9, 11, 6, 1, 5, 3]);
makespan = 364;
----------
assign = array1d(1..11 ,[1, 2, 2, 3, 4, 3, 4, 1, 2, 3, 4]);
next = array1d(1..11 ,[8, 9, 2, 6, 7, 10, 11, 3, 4, 5, 1]);
makespan = 358;
----------
assign = array1d(1..11 ,[1, 2, 2, 3, 4, 3, 4, 1, 2, 3, 4]);
next = array1d(1..11 ,[8, 9, 2, 6, 7, 10, 11, 3, 4, 5, 1]);
makespan = 356;
----------
assign = array1d(1..11 ,[1, 2, 2, 3, 4, 3, 4, 1, 2, 3, 4]);
next = array1d(1..11 ,[8, 9, 2, 6, 7, 10, 11, 3, 4, 5, 1]);
makespan = 349;
----------
assign = array1d(1..11 ,[1, 2, 2, 3, 4, 3, 4, 1, 2, 3, 4]);
next = array1d(1..11 ,[8, 9, 2, 6, 7, 10, 11, 3, 4, 5, 1]);
makespan = 339;
----------
assign = array1d(1..11 ,[1, 2, 2, 3, 4, 3, 4, 1, 2, 3, 4]);
next = array1d(1..11 ,[8, 9, 2, 6, 7, 10, 11, 3, 4, 5, 1]);
makespan = 326;
----------
assign = array1d(1..11 ,[1, 2, 2, 3, 4, 3, 4, 1, 2, 3, 4]);
next = array1d(1..11 ,[8, 9, 2, 6, 7, 10, 11, 3, 4, 5, 1]);
makespan = 316;
----------
assign = array1d(1..11 ,[1, 2, 2, 3, 4, 3, 4, 1, 2, 3, 4]);
next = array1d(1..11 ,[8, 9, 2, 6, 7, 10, 11, 3, 4, 5, 1]);
makespan = 314;
----------
assign = array1d(1..11 ,[2, 1, 1, 3, 4, 3, 4, 1, 2, 3, 4]);
next = array1d(1..11 ,[9, 8, 2, 6, 7, 10, 11, 1, 4, 5, 3]);
makespan = 311;
----------
assign = array1d(1..11 ,[1, 3, 3, 2, 4, 2, 4, 1, 2, 3, 4]);
next = array1d(1..11 ,[8, 10, 2, 6, 7, 9, 11, 4, 3, 5, 1]);
makespan = 309;
----------
assign = array1d(1..11 ,[1, 3, 3, 2, 4, 2, 4, 1, 2, 3, 4]);
next = array1d(1..11 ,[8, 10, 2, 6, 7, 9, 11, 4, 3, 5, 1]);
makespan = 298;
----------
assign = array1d(1..11 ,[2, 1, 1, 3, 4, 3, 4, 1, 2, 3, 4]);
next = array1d(1..11 ,[9, 8, 2, 6, 7, 10, 11, 1, 4, 5, 3]);
makespan = 295;
----------
assign = array1d(1..11 ,[2, 1, 1, 3, 4, 3, 4, 1, 2, 3, 4]);
next = array1d(1..11 ,[9, 8, 2, 6, 7, 10, 11, 1, 4, 5, 3]);
makespan = 294;
----------
assign = array1d(1..11 ,[2, 1, 1, 3, 4, 3, 4, 1, 2, 3, 4]);
next = array1d(1..11 ,[9, 8, 2, 10, 7, 4, 11, 1, 6, 5, 3]);
makespan = 293;
----------
assign = array1d(1..11 ,[3, 1, 1, 2, 4, 3, 4, 1, 2, 3, 4]);
next = array1d(1..11 ,[6, 8, 2, 9, 7, 10, 11, 4, 1, 5, 3]);
makespan = 282;
----------
assign = array1d(1..11 ,[3, 1, 1, 4, 3, 4, 2, 1, 2, 3, 4]);
next = array1d(1..11 ,[5, 8, 2, 6, 10, 11, 9, 7, 1, 4, 3]);
makespan = 274;
----------
assign = array1d(1..11 ,[3, 1, 1, 2, 4, 2, 4, 1, 2, 3, 4]);
next = array1d(1..11 ,[10, 8, 2, 6, 11, 9, 5, 4, 1, 7, 3]);
makespan = 269;
----------
assign = array1d(1..11 ,[4, 1, 1, 2, 3, 2, 4, 1, 2, 3, 4]);
next = array1d(1..11 ,[7, 8, 2, 6, 10, 9, 11, 4, 5, 1, 3]);
makespan = 267;
----------
assign = array1d(1..11 ,[2, 1, 1, 4, 3, 3, 2, 1, 2, 3, 4]);
next = array1d(1..11 ,[9, 8, 2, 11, 10, 5, 1, 7, 6, 4, 3]);
makespan = 266;
----------
assign = array1d(1..11 ,[3, 1, 1, 2, 4, 4, 2, 1, 2, 3, 4]);
next = array1d(1..11 ,[10, 8, 2, 9, 11, 5, 4, 7, 1, 6, 3]);
makespan = 265;
----------
assign = array1d(1..11 ,[4, 2, 1, 1, 3, 3, 4, 1, 2, 3, 4]);
next = array1d(1..11 ,[7, 9, 8, 3, 6, 10, 11, 2, 5, 1, 4]);
makespan = 264;
----------
assign = array1d(1..11 ,[4, 4, 3, 2, 3, 1, 2, 1, 2, 3, 4]);
next = array1d(1..11 ,[2, 11, 5, 9, 10, 8, 4, 7, 3, 1, 6]);
makespan = 263;
----------
assign = array1d(1..11 ,[4, 4, 1, 2, 3, 3, 2, 1, 2, 3, 4]);
next = array1d(1..11 ,[2, 11, 8, 9, 6, 10, 4, 7, 5, 1, 3]);
makespan = 262;
----------
assign = array1d(1..11 ,[2, 1, 3, 2, 4, 4, 1, 1, 2, 3, 4]);
next = array1d(1..11 ,[4, 8, 10, 9, 11, 5, 2, 1, 3, 6, 7]);
makespan = 261;
----------
assign = array1d(1..11 ,[4, 4, 1, 2, 1, 3, 2, 1, 2, 3, 4]);
next = array1d(1..11 ,[2, 11, 5, 9, 8, 10, 4, 7, 6, 1, 3]);
makespan = 259;
----------
assign = array1d(1..11 ,[4, 4, 1, 2, 1, 3, 2, 1, 2, 3, 4]);
next = array1d(1..11 ,[2, 11, 5, 9, 8, 10, 4, 7, 6, 1, 3]);
makespan = 256;
----------
assign = array1d(1..11 ,[4, 4, 1, 2, 1, 3, 2, 1, 2, 3, 4]);
next = array1d(1..11 ,[2, 11, 5, 9, 8, 10, 4, 7, 6, 1, 3]);
makespan = 254;
----------
==========
	Command being timed: "mzn-chuffed lbbd-datasets/Rabadi-2006/dzn-s-dominant/model.mzn lbbd-datasets/Rabadi-2006/dzn-s-dominant/7on4Rp50Rs50_6Ameer.dzn"
	User time (seconds): 0.40
	System time (seconds): 0.01
	Percent of CPU this job got: 26%
	Elapsed (wall clock) time (h:mm:ss or m:ss): 0:01.61
	Average shared text size (kbytes): 0
	Average unshared data size (kbytes): 0
	Average stack size (kbytes): 0
	Average total size (kbytes): 0
	Maximum resident set size (kbytes): 33920
	Average resident set size (kbytes): 0
	Major (requiring I/O) page faults: 0
	Minor (reclaiming a frame) page faults: 3077
	Voluntary context switches: 174
	Involuntary context switches: 3
	Swaps: 0
	File system inputs: 0
	File system outputs: 264
	Socket messages sent: 0
	Socket messages received: 0
	Signals delivered: 0
	Page size (bytes): 4096
	Exit status: 0
