+ /usr/bin/timeout 600 /usr/bin/time -v mzn-chuffed lbbd-datasets/Rabadi-2006/dzn-s-dominant/model.mzn lbbd-datasets/Rabadi-2006/dzn-s-dominant/6on4Rp50Rs50_7Ameer.dzn
% No search annotation given. Defaulting to VSIDS!
assign = array1d(1..10 ,[4, 4, 4, 4, 4, 4, 1, 2, 3, 4]);
next = array1d(1..10 ,[2, 3, 4, 5, 6, 10, 8, 9, 1, 7]);
makespan = 1161;
----------
assign = array1d(1..10 ,[4, 4, 4, 4, 4, 4, 1, 2, 3, 4]);
next = array1d(1..10 ,[4, 5, 2, 3, 6, 10, 8, 9, 1, 7]);
makespan = 1129;
----------
assign = array1d(1..10 ,[4, 4, 4, 4, 4, 1, 1, 2, 3, 4]);
next = array1d(1..10 ,[10, 3, 1, 2, 4, 7, 8, 9, 5, 6]);
makespan = 1107;
----------
assign = array1d(1..10 ,[4, 4, 4, 4, 4, 1, 1, 2, 3, 4]);
next = array1d(1..10 ,[10, 3, 1, 2, 4, 7, 8, 9, 5, 6]);
makespan = 1102;
----------
assign = array1d(1..10 ,[4, 4, 4, 4, 4, 1, 1, 2, 3, 4]);
next = array1d(1..10 ,[10, 3, 1, 2, 4, 7, 8, 9, 5, 6]);
makespan = 1097;
----------
assign = array1d(1..10 ,[4, 4, 4, 4, 4, 1, 1, 2, 3, 4]);
next = array1d(1..10 ,[10, 3, 1, 2, 4, 7, 8, 9, 5, 6]);
makespan = 1085;
----------
assign = array1d(1..10 ,[4, 4, 4, 4, 4, 1, 1, 2, 3, 4]);
next = array1d(1..10 ,[10, 3, 1, 2, 4, 7, 8, 9, 5, 6]);
makespan = 1081;
----------
assign = array1d(1..10 ,[4, 4, 4, 4, 4, 1, 1, 2, 3, 4]);
next = array1d(1..10 ,[10, 3, 1, 2, 4, 7, 8, 9, 5, 6]);
makespan = 1074;
----------
assign = array1d(1..10 ,[4, 4, 4, 4, 4, 1, 1, 2, 3, 4]);
next = array1d(1..10 ,[10, 3, 1, 2, 4, 7, 8, 9, 5, 6]);
makespan = 1048;
----------
assign = array1d(1..10 ,[4, 4, 4, 4, 4, 1, 1, 2, 3, 4]);
next = array1d(1..10 ,[10, 3, 1, 2, 4, 7, 8, 9, 5, 6]);
makespan = 1043;
----------
assign = array1d(1..10 ,[4, 4, 4, 4, 4, 1, 1, 2, 3, 4]);
next = array1d(1..10 ,[10, 3, 1, 2, 4, 7, 8, 9, 5, 6]);
makespan = 1038;
----------
assign = array1d(1..10 ,[4, 4, 4, 4, 4, 1, 1, 2, 3, 4]);
next = array1d(1..10 ,[10, 3, 1, 2, 4, 7, 8, 9, 5, 6]);
makespan = 1031;
----------
assign = array1d(1..10 ,[4, 4, 4, 4, 4, 1, 1, 2, 3, 4]);
next = array1d(1..10 ,[10, 3, 1, 2, 4, 7, 8, 9, 5, 6]);
makespan = 1027;
----------
assign = array1d(1..10 ,[4, 4, 4, 4, 4, 1, 1, 2, 3, 4]);
next = array1d(1..10 ,[10, 3, 1, 2, 4, 7, 8, 9, 5, 6]);
makespan = 1026;
----------
assign = array1d(1..10 ,[4, 4, 4, 4, 4, 1, 1, 2, 3, 4]);
next = array1d(1..10 ,[10, 3, 1, 2, 4, 7, 8, 9, 5, 6]);
makespan = 1022;
----------
assign = array1d(1..10 ,[4, 4, 4, 4, 4, 1, 1, 2, 3, 4]);
next = array1d(1..10 ,[10, 3, 1, 2, 4, 7, 8, 9, 5, 6]);
makespan = 1021;
----------
assign = array1d(1..10 ,[4, 4, 4, 4, 4, 1, 1, 2, 3, 4]);
next = array1d(1..10 ,[10, 3, 1, 2, 4, 7, 8, 9, 5, 6]);
makespan = 1020;
----------
assign = array1d(1..10 ,[4, 4, 4, 4, 4, 1, 1, 2, 3, 4]);
next = array1d(1..10 ,[10, 3, 1, 2, 4, 7, 8, 9, 5, 6]);
makespan = 1017;
----------
assign = array1d(1..10 ,[4, 4, 4, 4, 4, 1, 1, 2, 3, 4]);
next = array1d(1..10 ,[10, 3, 1, 2, 4, 7, 8, 9, 5, 6]);
makespan = 1015;
----------
assign = array1d(1..10 ,[4, 4, 4, 4, 4, 1, 1, 2, 3, 4]);
next = array1d(1..10 ,[10, 3, 1, 2, 4, 7, 8, 9, 5, 6]);
makespan = 1010;
----------
assign = array1d(1..10 ,[4, 4, 4, 4, 4, 1, 1, 2, 3, 4]);
next = array1d(1..10 ,[10, 3, 1, 2, 4, 7, 8, 9, 5, 6]);
makespan = 1005;
----------
assign = array1d(1..10 ,[4, 4, 4, 4, 4, 1, 1, 2, 3, 4]);
next = array1d(1..10 ,[10, 3, 1, 2, 4, 7, 8, 9, 5, 6]);
makespan = 998;
----------
assign = array1d(1..10 ,[4, 4, 4, 4, 4, 1, 1, 2, 3, 4]);
next = array1d(1..10 ,[10, 3, 1, 2, 4, 7, 8, 9, 5, 6]);
makespan = 994;
----------
assign = array1d(1..10 ,[4, 4, 4, 4, 4, 1, 1, 2, 3, 4]);
next = array1d(1..10 ,[10, 3, 1, 2, 4, 7, 8, 9, 5, 6]);
makespan = 988;
----------
assign = array1d(1..10 ,[4, 4, 4, 4, 1, 1, 1, 2, 3, 4]);
next = array1d(1..10 ,[10, 3, 1, 2, 6, 7, 8, 9, 4, 5]);
makespan = 984;
----------
assign = array1d(1..10 ,[4, 4, 4, 4, 1, 1, 1, 2, 3, 4]);
next = array1d(1..10 ,[10, 3, 1, 2, 6, 7, 8, 9, 4, 5]);
makespan = 972;
----------
assign = array1d(1..10 ,[4, 4, 4, 4, 1, 1, 1, 2, 3, 4]);
next = array1d(1..10 ,[10, 3, 1, 2, 6, 7, 8, 9, 4, 5]);
makespan = 968;
----------
assign = array1d(1..10 ,[4, 4, 4, 4, 1, 1, 1, 2, 3, 4]);
next = array1d(1..10 ,[10, 3, 1, 2, 6, 7, 8, 9, 4, 5]);
makespan = 967;
----------
assign = array1d(1..10 ,[4, 4, 4, 4, 1, 1, 1, 2, 3, 4]);
next = array1d(1..10 ,[10, 3, 1, 2, 6, 7, 8, 9, 4, 5]);
makespan = 963;
----------
assign = array1d(1..10 ,[4, 4, 4, 4, 1, 1, 1, 2, 3, 4]);
next = array1d(1..10 ,[10, 3, 1, 2, 6, 7, 8, 9, 4, 5]);
makespan = 962;
----------
assign = array1d(1..10 ,[4, 4, 4, 4, 1, 1, 1, 2, 3, 4]);
next = array1d(1..10 ,[10, 3, 1, 2, 6, 7, 8, 9, 4, 5]);
makespan = 961;
----------
assign = array1d(1..10 ,[4, 4, 4, 4, 1, 1, 1, 2, 3, 4]);
next = array1d(1..10 ,[10, 3, 1, 2, 6, 7, 8, 9, 4, 5]);
makespan = 958;
----------
assign = array1d(1..10 ,[4, 4, 4, 4, 1, 1, 1, 2, 3, 4]);
next = array1d(1..10 ,[10, 3, 1, 2, 6, 7, 8, 9, 4, 5]);
makespan = 956;
----------
assign = array1d(1..10 ,[4, 4, 4, 4, 1, 1, 1, 2, 3, 4]);
next = array1d(1..10 ,[10, 3, 1, 2, 6, 7, 8, 9, 4, 5]);
makespan = 951;
----------
assign = array1d(1..10 ,[4, 4, 4, 4, 1, 1, 1, 2, 3, 4]);
next = array1d(1..10 ,[10, 3, 1, 2, 6, 7, 8, 9, 4, 5]);
makespan = 946;
----------
assign = array1d(1..10 ,[4, 4, 4, 4, 1, 1, 1, 2, 3, 4]);
next = array1d(1..10 ,[10, 3, 1, 2, 6, 7, 8, 9, 4, 5]);
makespan = 944;
----------
assign = array1d(1..10 ,[4, 4, 4, 4, 1, 1, 1, 2, 3, 4]);
next = array1d(1..10 ,[10, 3, 1, 2, 6, 7, 8, 9, 4, 5]);
makespan = 941;
----------
assign = array1d(1..10 ,[4, 4, 4, 4, 1, 1, 1, 2, 3, 4]);
next = array1d(1..10 ,[10, 3, 1, 2, 6, 7, 8, 9, 4, 5]);
makespan = 940;
----------
assign = array1d(1..10 ,[4, 4, 4, 4, 1, 1, 1, 2, 3, 4]);
next = array1d(1..10 ,[10, 3, 1, 2, 6, 7, 8, 9, 4, 5]);
makespan = 939;
----------
assign = array1d(1..10 ,[4, 4, 4, 4, 1, 1, 1, 2, 3, 4]);
next = array1d(1..10 ,[10, 3, 1, 2, 6, 7, 8, 9, 4, 5]);
makespan = 935;
----------
assign = array1d(1..10 ,[4, 4, 4, 4, 1, 1, 1, 2, 3, 4]);
next = array1d(1..10 ,[10, 3, 1, 2, 6, 7, 8, 9, 4, 5]);
makespan = 934;
----------
assign = array1d(1..10 ,[4, 4, 4, 4, 1, 1, 1, 2, 3, 4]);
next = array1d(1..10 ,[10, 3, 1, 2, 6, 7, 8, 9, 4, 5]);
makespan = 930;
----------
assign = array1d(1..10 ,[4, 4, 4, 4, 1, 1, 1, 2, 3, 4]);
next = array1d(1..10 ,[10, 3, 1, 2, 6, 7, 8, 9, 4, 5]);
makespan = 918;
----------
assign = array1d(1..10 ,[4, 4, 4, 4, 1, 1, 1, 2, 3, 4]);
next = array1d(1..10 ,[10, 3, 1, 2, 6, 7, 8, 9, 4, 5]);
makespan = 912;
----------
assign = array1d(1..10 ,[4, 4, 4, 4, 1, 1, 1, 2, 3, 4]);
next = array1d(1..10 ,[10, 3, 1, 2, 6, 7, 8, 9, 4, 5]);
makespan = 908;
----------
assign = array1d(1..10 ,[4, 4, 4, 4, 1, 1, 1, 2, 3, 4]);
next = array1d(1..10 ,[10, 3, 1, 2, 6, 7, 8, 9, 4, 5]);
makespan = 904;
----------
assign = array1d(1..10 ,[4, 4, 4, 4, 1, 1, 1, 2, 3, 4]);
next = array1d(1..10 ,[10, 3, 1, 2, 6, 7, 8, 9, 4, 5]);
makespan = 897;
----------
assign = array1d(1..10 ,[4, 4, 4, 4, 1, 1, 1, 2, 3, 4]);
next = array1d(1..10 ,[10, 3, 1, 2, 6, 7, 8, 9, 4, 5]);
makespan = 892;
----------
assign = array1d(1..10 ,[4, 4, 4, 4, 1, 1, 1, 2, 3, 4]);
next = array1d(1..10 ,[10, 3, 1, 2, 6, 7, 8, 9, 4, 5]);
makespan = 887;
----------
assign = array1d(1..10 ,[4, 4, 4, 4, 1, 1, 1, 2, 3, 4]);
next = array1d(1..10 ,[10, 3, 1, 2, 6, 7, 8, 9, 4, 5]);
makespan = 885;
----------
assign = array1d(1..10 ,[4, 4, 4, 4, 1, 1, 1, 2, 3, 4]);
next = array1d(1..10 ,[10, 3, 1, 2, 6, 7, 8, 9, 4, 5]);
makespan = 882;
----------
assign = array1d(1..10 ,[4, 4, 4, 4, 1, 1, 1, 2, 3, 4]);
next = array1d(1..10 ,[10, 3, 1, 2, 6, 7, 8, 9, 4, 5]);
makespan = 881;
----------
assign = array1d(1..10 ,[4, 4, 4, 4, 1, 1, 1, 2, 3, 4]);
next = array1d(1..10 ,[10, 3, 1, 2, 6, 7, 8, 9, 4, 5]);
makespan = 880;
----------
assign = array1d(1..10 ,[4, 4, 4, 4, 1, 1, 1, 2, 3, 4]);
next = array1d(1..10 ,[10, 3, 1, 2, 6, 7, 8, 9, 4, 5]);
makespan = 876;
----------
assign = array1d(1..10 ,[4, 4, 4, 4, 1, 1, 1, 2, 3, 4]);
next = array1d(1..10 ,[10, 3, 1, 2, 6, 7, 8, 9, 4, 5]);
makespan = 875;
----------
assign = array1d(1..10 ,[4, 4, 4, 4, 1, 1, 1, 2, 3, 4]);
next = array1d(1..10 ,[10, 3, 1, 2, 6, 7, 8, 9, 4, 5]);
makespan = 871;
----------
assign = array1d(1..10 ,[4, 4, 4, 4, 1, 1, 1, 2, 3, 4]);
next = array1d(1..10 ,[10, 3, 1, 2, 6, 7, 8, 9, 4, 5]);
makespan = 864;
----------
assign = array1d(1..10 ,[4, 4, 4, 4, 1, 1, 1, 2, 3, 4]);
next = array1d(1..10 ,[10, 3, 1, 2, 6, 7, 8, 9, 4, 5]);
makespan = 859;
----------
assign = array1d(1..10 ,[4, 4, 4, 4, 1, 1, 1, 2, 3, 4]);
next = array1d(1..10 ,[10, 3, 1, 2, 6, 7, 8, 9, 4, 5]);
makespan = 854;
----------
assign = array1d(1..10 ,[4, 4, 4, 4, 1, 1, 1, 2, 3, 4]);
next = array1d(1..10 ,[10, 3, 1, 2, 6, 7, 8, 9, 4, 5]);
makespan = 852;
----------
assign = array1d(1..10 ,[4, 4, 4, 4, 1, 1, 1, 2, 3, 4]);
next = array1d(1..10 ,[10, 3, 1, 2, 6, 7, 8, 9, 4, 5]);
makespan = 847;
----------
assign = array1d(1..10 ,[4, 4, 4, 4, 1, 1, 1, 2, 3, 4]);
next = array1d(1..10 ,[10, 3, 1, 2, 6, 7, 8, 9, 4, 5]);
makespan = 788;
----------
assign = array1d(1..10 ,[4, 4, 4, 1, 4, 1, 1, 2, 3, 4]);
next = array1d(1..10 ,[10, 3, 1, 6, 2, 7, 8, 9, 5, 4]);
makespan = 764;
----------
assign = array1d(1..10 ,[4, 4, 4, 1, 1, 1, 1, 2, 3, 4]);
next = array1d(1..10 ,[10, 3, 1, 5, 6, 7, 8, 9, 2, 4]);
makespan = 762;
----------
assign = array1d(1..10 ,[4, 4, 4, 1, 1, 1, 1, 2, 3, 4]);
next = array1d(1..10 ,[10, 3, 1, 5, 6, 7, 8, 9, 2, 4]);
makespan = 741;
----------
assign = array1d(1..10 ,[4, 4, 4, 1, 1, 1, 1, 2, 3, 4]);
next = array1d(1..10 ,[10, 3, 1, 5, 6, 7, 8, 9, 2, 4]);
makespan = 714;
----------
assign = array1d(1..10 ,[4, 4, 4, 1, 1, 1, 1, 2, 3, 4]);
next = array1d(1..10 ,[10, 3, 1, 5, 6, 7, 8, 9, 2, 4]);
makespan = 691;
----------
assign = array1d(1..10 ,[4, 4, 4, 1, 1, 1, 1, 2, 3, 4]);
next = array1d(1..10 ,[10, 3, 1, 5, 6, 7, 8, 9, 2, 4]);
makespan = 685;
----------
assign = array1d(1..10 ,[4, 4, 4, 1, 1, 1, 1, 2, 3, 4]);
next = array1d(1..10 ,[10, 3, 1, 5, 6, 7, 8, 9, 2, 4]);
makespan = 680;
----------
assign = array1d(1..10 ,[4, 4, 4, 1, 1, 1, 1, 2, 3, 4]);
next = array1d(1..10 ,[10, 3, 1, 5, 6, 7, 8, 9, 2, 4]);
makespan = 675;
----------
assign = array1d(1..10 ,[4, 4, 4, 1, 1, 1, 1, 2, 3, 4]);
next = array1d(1..10 ,[10, 3, 1, 5, 6, 7, 8, 9, 2, 4]);
makespan = 639;
----------
assign = array1d(1..10 ,[4, 4, 4, 1, 1, 1, 1, 2, 3, 4]);
next = array1d(1..10 ,[10, 3, 1, 5, 6, 7, 8, 9, 2, 4]);
makespan = 626;
----------
assign = array1d(1..10 ,[4, 4, 4, 1, 1, 1, 1, 2, 3, 4]);
next = array1d(1..10 ,[10, 3, 1, 5, 6, 7, 8, 9, 2, 4]);
makespan = 621;
----------
assign = array1d(1..10 ,[4, 4, 4, 1, 1, 1, 1, 2, 3, 4]);
next = array1d(1..10 ,[10, 3, 1, 5, 6, 7, 8, 9, 2, 4]);
makespan = 562;
----------
assign = array1d(1..10 ,[4, 1, 4, 1, 3, 4, 1, 2, 3, 4]);
next = array1d(1..10 ,[6, 7, 1, 2, 9, 10, 8, 5, 3, 4]);
makespan = 557;
----------
assign = array1d(1..10 ,[4, 1, 4, 1, 3, 4, 1, 2, 3, 4]);
next = array1d(1..10 ,[6, 7, 1, 2, 9, 10, 8, 5, 3, 4]);
makespan = 554;
----------
assign = array1d(1..10 ,[4, 1, 4, 4, 3, 3, 1, 2, 3, 4]);
next = array1d(1..10 ,[10, 7, 1, 3, 6, 9, 8, 5, 4, 2]);
makespan = 525;
----------
assign = array1d(1..10 ,[4, 2, 4, 1, 3, 1, 1, 2, 3, 4]);
next = array1d(1..10 ,[10, 8, 1, 6, 9, 7, 2, 5, 3, 4]);
makespan = 467;
----------
assign = array1d(1..10 ,[4, 2, 4, 1, 3, 1, 1, 2, 3, 4]);
next = array1d(1..10 ,[10, 8, 1, 6, 9, 7, 2, 5, 3, 4]);
makespan = 460;
----------
assign = array1d(1..10 ,[4, 2, 4, 1, 3, 1, 1, 2, 3, 4]);
next = array1d(1..10 ,[10, 8, 1, 6, 9, 7, 2, 5, 3, 4]);
makespan = 450;
----------
assign = array1d(1..10 ,[4, 2, 4, 1, 3, 1, 1, 2, 3, 4]);
next = array1d(1..10 ,[10, 8, 1, 6, 9, 7, 2, 5, 3, 4]);
makespan = 420;
----------
assign = array1d(1..10 ,[4, 2, 4, 1, 3, 1, 1, 2, 3, 4]);
next = array1d(1..10 ,[10, 8, 1, 6, 9, 7, 2, 5, 3, 4]);
makespan = 413;
----------
assign = array1d(1..10 ,[4, 2, 4, 1, 3, 1, 1, 2, 3, 4]);
next = array1d(1..10 ,[10, 8, 1, 6, 9, 7, 2, 5, 3, 4]);
makespan = 401;
----------
assign = array1d(1..10 ,[4, 2, 4, 1, 3, 1, 1, 2, 3, 4]);
next = array1d(1..10 ,[10, 8, 1, 6, 9, 7, 2, 5, 3, 4]);
makespan = 340;
----------
assign = array1d(1..10 ,[4, 2, 4, 1, 3, 1, 1, 2, 3, 4]);
next = array1d(1..10 ,[10, 8, 1, 6, 9, 7, 2, 5, 3, 4]);
makespan = 337;
----------
assign = array1d(1..10 ,[4, 2, 4, 1, 3, 1, 1, 2, 3, 4]);
next = array1d(1..10 ,[3, 8, 10, 6, 9, 7, 2, 5, 1, 4]);
makespan = 336;
----------
assign = array1d(1..10 ,[1, 2, 4, 4, 3, 3, 1, 2, 3, 4]);
next = array1d(1..10 ,[7, 8, 4, 10, 9, 5, 2, 6, 3, 1]);
makespan = 325;
----------
assign = array1d(1..10 ,[2, 3, 4, 4, 1, 1, 1, 2, 3, 4]);
next = array1d(1..10 ,[8, 9, 4, 10, 7, 5, 1, 2, 3, 6]);
makespan = 320;
----------
assign = array1d(1..10 ,[2, 1, 4, 4, 3, 3, 1, 2, 3, 4]);
next = array1d(1..10 ,[8, 7, 4, 10, 9, 5, 1, 6, 3, 2]);
makespan = 315;
----------
assign = array1d(1..10 ,[3, 2, 4, 4, 1, 1, 1, 2, 3, 4]);
next = array1d(1..10 ,[9, 8, 4, 10, 7, 5, 2, 1, 3, 6]);
makespan = 291;
----------
assign = array1d(1..10 ,[2, 1, 4, 4, 3, 3, 1, 2, 3, 4]);
next = array1d(1..10 ,[8, 7, 4, 10, 9, 5, 1, 6, 3, 2]);
makespan = 283;
----------
assign = array1d(1..10 ,[2, 1, 4, 4, 3, 3, 1, 2, 3, 4]);
next = array1d(1..10 ,[8, 7, 4, 10, 9, 5, 1, 6, 3, 2]);
makespan = 277;
----------
assign = array1d(1..10 ,[2, 1, 4, 4, 3, 3, 1, 2, 3, 4]);
next = array1d(1..10 ,[8, 7, 10, 3, 9, 5, 1, 6, 4, 2]);
makespan = 275;
----------
assign = array1d(1..10 ,[1, 2, 4, 2, 3, 3, 1, 2, 3, 4]);
next = array1d(1..10 ,[7, 4, 10, 8, 9, 5, 2, 6, 3, 1]);
makespan = 272;
----------
assign = array1d(1..10 ,[3, 2, 4, 3, 1, 2, 1, 2, 3, 4]);
next = array1d(1..10 ,[4, 8, 10, 9, 7, 2, 6, 1, 3, 5]);
makespan = 269;
----------
assign = array1d(1..10 ,[3, 2, 4, 1, 3, 1, 1, 2, 3, 4]);
next = array1d(1..10 ,[9, 8, 10, 7, 1, 4, 2, 5, 3, 6]);
makespan = 267;
----------
assign = array1d(1..10 ,[4, 3, 1, 1, 2, 3, 1, 2, 3, 4]);
next = array1d(1..10 ,[10, 6, 4, 7, 8, 9, 5, 2, 1, 3]);
makespan = 266;
----------
assign = array1d(1..10 ,[4, 3, 1, 1, 2, 3, 1, 2, 3, 4]);
next = array1d(1..10 ,[10, 6, 4, 7, 8, 9, 5, 2, 1, 3]);
makespan = 264;
----------
assign = array1d(1..10 ,[3, 2, 1, 1, 4, 4, 1, 2, 3, 4]);
next = array1d(1..10 ,[9, 8, 4, 7, 6, 10, 2, 1, 5, 3]);
makespan = 261;
----------
assign = array1d(1..10 ,[2, 3, 1, 1, 4, 4, 1, 2, 3, 4]);
next = array1d(1..10 ,[8, 9, 4, 7, 6, 10, 1, 2, 5, 3]);
makespan = 260;
----------
assign = array1d(1..10 ,[3, 4, 1, 1, 2, 3, 1, 2, 3, 4]);
next = array1d(1..10 ,[9, 10, 4, 7, 8, 1, 5, 6, 2, 3]);
makespan = 256;
----------
assign = array1d(1..10 ,[2, 3, 1, 4, 4, 1, 1, 2, 3, 4]);
next = array1d(1..10 ,[8, 9, 6, 10, 4, 7, 1, 2, 5, 3]);
makespan = 254;
----------
==========
	Command being timed: "mzn-chuffed lbbd-datasets/Rabadi-2006/dzn-s-dominant/model.mzn lbbd-datasets/Rabadi-2006/dzn-s-dominant/6on4Rp50Rs50_7Ameer.dzn"
	User time (seconds): 0.67
	System time (seconds): 0.01
	Percent of CPU this job got: 75%
	Elapsed (wall clock) time (h:mm:ss or m:ss): 0:00.91
	Average shared text size (kbytes): 0
	Average unshared data size (kbytes): 0
	Average stack size (kbytes): 0
	Average total size (kbytes): 0
	Maximum resident set size (kbytes): 32272
	Average resident set size (kbytes): 0
	Major (requiring I/O) page faults: 0
	Minor (reclaiming a frame) page faults: 2859
	Voluntary context switches: 108
	Involuntary context switches: 4
	Swaps: 0
	File system inputs: 0
	File system outputs: 192
	Socket messages sent: 0
	Socket messages received: 0
	Signals delivered: 0
	Page size (bytes): 4096
	Exit status: 0
