+ /usr/bin/timeout 600 /usr/bin/time -v mzn-chuffed lbbd-datasets/Rabadi-2006/dzn-balanced/model.mzn lbbd-datasets/Rabadi-2006/dzn-balanced/9on4Rp50Rs50_11Ameer.dzn
% No search annotation given. Defaulting to VSIDS!
assign = array1d(1..13 ,[4, 4, 4, 4, 4, 4, 4, 4, 4, 1, 2, 3, 4]);
next = array1d(1..13 ,[2, 3, 4, 5, 6, 7, 8, 9, 13, 11, 12, 1, 10]);
makespan = 1277;
----------
assign = array1d(1..13 ,[4, 4, 4, 4, 4, 4, 4, 4, 4, 1, 2, 3, 4]);
next = array1d(1..13 ,[2, 4, 5, 3, 6, 7, 8, 9, 13, 11, 12, 1, 10]);
makespan = 1270;
----------
assign = array1d(1..13 ,[4, 4, 4, 4, 4, 4, 4, 4, 3, 1, 2, 3, 4]);
next = array1d(1..13 ,[4, 3, 7, 13, 8, 2, 5, 1, 12, 11, 9, 6, 10]);
makespan = 1206;
----------
assign = array1d(1..13 ,[4, 4, 4, 4, 4, 4, 4, 3, 4, 1, 2, 3, 4]);
next = array1d(1..13 ,[4, 3, 1, 13, 7, 9, 6, 12, 2, 11, 8, 5, 10]);
makespan = 1203;
----------
assign = array1d(1..13 ,[4, 4, 4, 1, 4, 4, 4, 4, 4, 1, 2, 3, 4]);
next = array1d(1..13 ,[7, 9, 2, 10, 8, 1, 3, 13, 5, 11, 12, 6, 4]);
makespan = 1198;
----------
assign = array1d(1..13 ,[4, 4, 4, 3, 4, 4, 4, 4, 4, 1, 2, 3, 4]);
next = array1d(1..13 ,[2, 3, 7, 12, 1, 9, 8, 13, 5, 11, 4, 6, 10]);
makespan = 1196;
----------
assign = array1d(1..13 ,[4, 4, 4, 1, 4, 4, 4, 4, 4, 1, 2, 3, 4]);
next = array1d(1..13 ,[8, 9, 1, 10, 7, 2, 3, 13, 5, 11, 12, 6, 4]);
makespan = 1193;
----------
assign = array1d(1..13 ,[4, 3, 4, 4, 4, 4, 4, 4, 4, 1, 2, 3, 4]);
next = array1d(1..13 ,[4, 12, 1, 8, 7, 13, 3, 9, 6, 11, 2, 5, 10]);
makespan = 1187;
----------
assign = array1d(1..13 ,[4, 3, 4, 4, 4, 4, 4, 4, 4, 1, 2, 3, 4]);
next = array1d(1..13 ,[7, 12, 13, 9, 6, 8, 3, 1, 5, 11, 2, 4, 10]);
makespan = 1183;
----------
assign = array1d(1..13 ,[4, 2, 4, 4, 4, 4, 4, 4, 4, 1, 2, 3, 4]);
next = array1d(1..13 ,[4, 11, 9, 6, 8, 13, 1, 3, 7, 2, 12, 5, 10]);
makespan = 1182;
----------
assign = array1d(1..13 ,[4, 1, 4, 4, 4, 4, 4, 4, 4, 1, 2, 3, 4]);
next = array1d(1..13 ,[6, 10, 1, 3, 8, 9, 13, 7, 5, 11, 12, 4, 2]);
makespan = 1181;
----------
assign = array1d(1..13 ,[4, 1, 4, 4, 4, 4, 4, 4, 4, 1, 2, 3, 4]);
next = array1d(1..13 ,[4, 10, 6, 3, 8, 9, 5, 13, 7, 11, 12, 1, 2]);
makespan = 1180;
----------
assign = array1d(1..13 ,[4, 4, 4, 4, 4, 4, 4, 3, 4, 1, 2, 3, 4]);
next = array1d(1..13 ,[2, 4, 5, 3, 13, 9, 1, 12, 7, 11, 8, 6, 10]);
makespan = 1163;
----------
assign = array1d(1..13 ,[4, 4, 1, 4, 4, 4, 4, 4, 4, 1, 2, 3, 4]);
next = array1d(1..13 ,[7, 8, 10, 5, 2, 4, 13, 9, 1, 11, 12, 6, 3]);
makespan = 1160;
----------
assign = array1d(1..13 ,[4, 4, 4, 4, 3, 4, 4, 4, 4, 1, 2, 3, 4]);
next = array1d(1..13 ,[8, 9, 4, 13, 12, 7, 2, 3, 1, 11, 5, 6, 10]);
makespan = 1158;
----------
assign = array1d(1..13 ,[4, 4, 4, 4, 2, 4, 4, 4, 4, 1, 2, 3, 4]);
next = array1d(1..13 ,[8, 9, 4, 13, 11, 7, 2, 3, 1, 5, 12, 6, 10]);
makespan = 1150;
----------
assign = array1d(1..13 ,[4, 4, 4, 4, 1, 4, 4, 4, 4, 1, 2, 3, 4]);
next = array1d(1..13 ,[8, 9, 4, 13, 10, 7, 2, 3, 1, 11, 12, 6, 5]);
makespan = 1148;
----------
assign = array1d(1..13 ,[4, 4, 4, 4, 2, 4, 4, 4, 4, 1, 2, 3, 4]);
next = array1d(1..13 ,[8, 9, 4, 13, 11, 7, 2, 3, 1, 5, 12, 6, 10]);
makespan = 1145;
----------
assign = array1d(1..13 ,[4, 4, 4, 4, 1, 4, 4, 4, 4, 1, 2, 3, 4]);
next = array1d(1..13 ,[8, 9, 4, 13, 10, 7, 2, 3, 1, 11, 12, 6, 5]);
makespan = 1143;
----------
assign = array1d(1..13 ,[4, 4, 4, 4, 2, 4, 4, 4, 4, 1, 2, 3, 4]);
next = array1d(1..13 ,[8, 9, 4, 13, 11, 7, 2, 3, 1, 5, 12, 6, 10]);
makespan = 1142;
----------
assign = array1d(1..13 ,[4, 4, 4, 4, 1, 4, 4, 4, 4, 1, 2, 3, 4]);
next = array1d(1..13 ,[8, 9, 4, 13, 10, 7, 2, 3, 1, 11, 12, 6, 5]);
makespan = 1140;
----------
assign = array1d(1..13 ,[4, 4, 4, 4, 2, 4, 4, 4, 4, 1, 2, 3, 4]);
next = array1d(1..13 ,[8, 9, 4, 13, 11, 7, 2, 3, 1, 5, 12, 6, 10]);
makespan = 1137;
----------
assign = array1d(1..13 ,[4, 4, 4, 4, 1, 4, 4, 4, 4, 1, 2, 3, 4]);
next = array1d(1..13 ,[8, 9, 4, 13, 10, 7, 2, 3, 1, 11, 12, 6, 5]);
makespan = 1135;
----------
assign = array1d(1..13 ,[4, 4, 4, 4, 2, 4, 4, 4, 4, 1, 2, 3, 4]);
next = array1d(1..13 ,[8, 9, 4, 13, 11, 7, 2, 3, 1, 5, 12, 6, 10]);
makespan = 1132;
----------
assign = array1d(1..13 ,[4, 4, 4, 4, 1, 4, 4, 4, 4, 1, 2, 3, 4]);
next = array1d(1..13 ,[8, 9, 4, 13, 10, 7, 2, 3, 1, 11, 12, 6, 5]);
makespan = 1131;
----------
assign = array1d(1..13 ,[4, 4, 4, 4, 3, 4, 4, 4, 4, 1, 2, 3, 4]);
next = array1d(1..13 ,[8, 9, 4, 13, 12, 7, 2, 3, 1, 11, 5, 6, 10]);
makespan = 1130;
----------
assign = array1d(1..13 ,[4, 4, 4, 4, 1, 4, 4, 4, 4, 1, 2, 3, 4]);
next = array1d(1..13 ,[8, 9, 4, 13, 10, 7, 2, 3, 1, 11, 12, 6, 5]);
makespan = 1129;
----------
assign = array1d(1..13 ,[4, 4, 4, 4, 3, 4, 4, 4, 4, 1, 2, 3, 4]);
next = array1d(1..13 ,[8, 9, 4, 13, 12, 7, 2, 3, 1, 11, 5, 6, 10]);
makespan = 1127;
----------
assign = array1d(1..13 ,[4, 4, 4, 4, 1, 4, 4, 4, 4, 1, 2, 3, 4]);
next = array1d(1..13 ,[8, 9, 4, 13, 10, 7, 2, 3, 1, 11, 12, 6, 5]);
makespan = 1126;
----------
assign = array1d(1..13 ,[4, 4, 4, 4, 1, 4, 4, 4, 4, 1, 2, 3, 4]);
next = array1d(1..13 ,[8, 9, 4, 13, 10, 7, 2, 3, 1, 11, 12, 6, 5]);
makespan = 1124;
----------
assign = array1d(1..13 ,[4, 4, 4, 4, 1, 4, 4, 4, 4, 1, 2, 3, 4]);
next = array1d(1..13 ,[8, 9, 4, 13, 10, 7, 2, 3, 1, 11, 12, 6, 5]);
makespan = 1122;
----------
assign = array1d(1..13 ,[4, 4, 4, 4, 1, 4, 4, 4, 4, 1, 2, 3, 4]);
next = array1d(1..13 ,[8, 9, 4, 13, 10, 7, 2, 3, 1, 11, 12, 6, 5]);
makespan = 1119;
----------
assign = array1d(1..13 ,[4, 4, 4, 4, 1, 4, 4, 4, 4, 1, 2, 3, 4]);
next = array1d(1..13 ,[8, 9, 4, 13, 10, 7, 2, 3, 1, 11, 12, 6, 5]);
makespan = 1116;
----------
assign = array1d(1..13 ,[4, 4, 4, 4, 1, 4, 4, 4, 4, 1, 2, 3, 4]);
next = array1d(1..13 ,[8, 9, 4, 13, 10, 7, 2, 3, 1, 11, 12, 6, 5]);
makespan = 1111;
----------
assign = array1d(1..13 ,[4, 4, 4, 4, 1, 4, 4, 4, 4, 1, 2, 3, 4]);
next = array1d(1..13 ,[8, 9, 4, 13, 10, 7, 2, 3, 1, 11, 12, 6, 5]);
makespan = 1109;
----------
assign = array1d(1..13 ,[4, 4, 4, 4, 1, 4, 4, 4, 4, 1, 2, 3, 4]);
next = array1d(1..13 ,[8, 9, 4, 13, 10, 7, 2, 3, 1, 11, 12, 6, 5]);
makespan = 1108;
----------
assign = array1d(1..13 ,[4, 4, 4, 1, 4, 4, 4, 4, 4, 1, 2, 3, 4]);
next = array1d(1..13 ,[8, 9, 13, 10, 6, 7, 2, 3, 1, 11, 12, 5, 4]);
makespan = 1104;
----------
assign = array1d(1..13 ,[4, 4, 4, 2, 4, 4, 4, 4, 4, 1, 2, 3, 4]);
next = array1d(1..13 ,[8, 9, 13, 11, 6, 7, 2, 3, 1, 4, 12, 5, 10]);
makespan = 1102;
----------
assign = array1d(1..13 ,[4, 4, 4, 1, 4, 4, 4, 4, 4, 1, 2, 3, 4]);
next = array1d(1..13 ,[8, 9, 13, 10, 6, 7, 2, 3, 1, 11, 12, 5, 4]);
makespan = 1101;
----------
assign = array1d(1..13 ,[4, 4, 4, 3, 4, 4, 4, 4, 4, 1, 2, 3, 4]);
next = array1d(1..13 ,[8, 9, 13, 12, 6, 7, 2, 3, 1, 11, 4, 5, 10]);
makespan = 1097;
----------
assign = array1d(1..13 ,[4, 4, 4, 1, 4, 4, 4, 4, 4, 1, 2, 3, 4]);
next = array1d(1..13 ,[8, 9, 13, 10, 6, 7, 2, 3, 1, 11, 12, 5, 4]);
makespan = 1092;
----------
assign = array1d(1..13 ,[4, 4, 4, 3, 4, 4, 4, 4, 4, 1, 2, 3, 4]);
next = array1d(1..13 ,[8, 9, 13, 12, 6, 7, 2, 3, 1, 11, 4, 5, 10]);
makespan = 1090;
----------
assign = array1d(1..13 ,[4, 4, 4, 1, 4, 4, 4, 4, 4, 1, 2, 3, 4]);
next = array1d(1..13 ,[8, 9, 13, 10, 6, 7, 2, 3, 1, 11, 12, 5, 4]);
makespan = 1089;
----------
assign = array1d(1..13 ,[4, 4, 4, 2, 4, 4, 4, 4, 4, 1, 2, 3, 4]);
next = array1d(1..13 ,[8, 9, 13, 11, 6, 7, 2, 3, 1, 4, 12, 5, 10]);
makespan = 1087;
----------
assign = array1d(1..13 ,[4, 4, 4, 1, 4, 4, 4, 4, 4, 1, 2, 3, 4]);
next = array1d(1..13 ,[8, 9, 13, 10, 6, 7, 2, 3, 1, 11, 12, 5, 4]);
makespan = 1084;
----------
assign = array1d(1..13 ,[4, 4, 4, 2, 4, 4, 4, 4, 4, 1, 2, 3, 4]);
next = array1d(1..13 ,[8, 9, 13, 11, 6, 7, 2, 3, 1, 4, 12, 5, 10]);
makespan = 1083;
----------
assign = array1d(1..13 ,[4, 4, 4, 1, 4, 4, 4, 4, 4, 1, 2, 3, 4]);
next = array1d(1..13 ,[8, 9, 13, 10, 6, 7, 2, 3, 1, 11, 12, 5, 4]);
makespan = 1082;
----------
assign = array1d(1..13 ,[4, 4, 4, 3, 4, 4, 4, 4, 4, 1, 2, 3, 4]);
next = array1d(1..13 ,[8, 9, 13, 12, 6, 7, 2, 3, 1, 11, 4, 5, 10]);
makespan = 1081;
----------
assign = array1d(1..13 ,[4, 4, 4, 1, 4, 4, 4, 4, 4, 1, 2, 3, 4]);
next = array1d(1..13 ,[8, 9, 13, 10, 6, 7, 2, 3, 1, 11, 12, 5, 4]);
makespan = 1079;
----------
assign = array1d(1..13 ,[4, 4, 4, 3, 4, 4, 4, 4, 4, 1, 2, 3, 4]);
next = array1d(1..13 ,[8, 9, 13, 12, 6, 7, 2, 3, 1, 11, 4, 5, 10]);
makespan = 1076;
----------
assign = array1d(1..13 ,[4, 4, 4, 1, 4, 4, 4, 4, 4, 1, 2, 3, 4]);
next = array1d(1..13 ,[8, 9, 5, 10, 13, 7, 2, 3, 1, 11, 12, 6, 4]);
makespan = 1074;
----------
assign = array1d(1..13 ,[4, 4, 4, 1, 4, 4, 4, 4, 4, 1, 2, 3, 4]);
next = array1d(1..13 ,[8, 9, 5, 10, 13, 7, 2, 3, 1, 11, 12, 6, 4]);
makespan = 1073;
----------
assign = array1d(1..13 ,[4, 4, 4, 1, 4, 4, 4, 4, 4, 1, 2, 3, 4]);
next = array1d(1..13 ,[8, 9, 5, 10, 13, 7, 2, 3, 1, 11, 12, 6, 4]);
makespan = 1072;
----------
assign = array1d(1..13 ,[4, 4, 4, 1, 4, 4, 4, 4, 4, 1, 2, 3, 4]);
next = array1d(1..13 ,[8, 9, 5, 10, 13, 7, 2, 3, 1, 11, 12, 6, 4]);
makespan = 1071;
----------
assign = array1d(1..13 ,[4, 4, 4, 1, 4, 4, 4, 4, 4, 1, 2, 3, 4]);
next = array1d(1..13 ,[8, 9, 5, 10, 13, 7, 2, 3, 1, 11, 12, 6, 4]);
makespan = 1070;
----------
assign = array1d(1..13 ,[4, 4, 4, 1, 4, 4, 4, 4, 4, 1, 2, 3, 4]);
next = array1d(1..13 ,[8, 9, 5, 10, 13, 7, 2, 3, 1, 11, 12, 6, 4]);
makespan = 1069;
----------
assign = array1d(1..13 ,[4, 4, 4, 1, 4, 4, 4, 4, 4, 1, 2, 3, 4]);
next = array1d(1..13 ,[8, 9, 5, 10, 13, 7, 2, 3, 1, 11, 12, 6, 4]);
makespan = 1068;
----------
assign = array1d(1..13 ,[4, 4, 4, 1, 4, 4, 4, 4, 4, 1, 2, 3, 4]);
next = array1d(1..13 ,[8, 9, 5, 10, 13, 7, 2, 3, 1, 11, 12, 6, 4]);
makespan = 1066;
----------
assign = array1d(1..13 ,[4, 4, 4, 1, 4, 4, 4, 4, 4, 1, 2, 3, 4]);
next = array1d(1..13 ,[8, 9, 5, 10, 13, 7, 2, 3, 1, 11, 12, 6, 4]);
makespan = 1064;
----------
assign = array1d(1..13 ,[4, 4, 4, 1, 4, 4, 4, 4, 4, 1, 2, 3, 4]);
next = array1d(1..13 ,[8, 9, 5, 10, 13, 7, 2, 3, 1, 11, 12, 6, 4]);
makespan = 1063;
----------
assign = array1d(1..13 ,[4, 4, 4, 3, 1, 4, 4, 4, 4, 1, 2, 3, 4]);
next = array1d(1..13 ,[8, 9, 13, 12, 10, 7, 2, 3, 1, 11, 4, 6, 5]);
makespan = 1061;
----------
assign = array1d(1..13 ,[4, 4, 4, 2, 1, 4, 4, 4, 4, 1, 2, 3, 4]);
next = array1d(1..13 ,[8, 9, 13, 11, 10, 7, 2, 3, 1, 4, 12, 6, 5]);
makespan = 1060;
----------
assign = array1d(1..13 ,[4, 4, 4, 3, 1, 4, 4, 4, 4, 1, 2, 3, 4]);
next = array1d(1..13 ,[8, 9, 13, 12, 10, 7, 2, 3, 1, 11, 4, 6, 5]);
makespan = 1058;
----------
assign = array1d(1..13 ,[4, 4, 4, 2, 1, 4, 4, 4, 4, 1, 2, 3, 4]);
next = array1d(1..13 ,[8, 9, 13, 11, 10, 7, 2, 3, 1, 4, 12, 6, 5]);
makespan = 1055;
----------
assign = array1d(1..13 ,[4, 4, 4, 3, 1, 4, 4, 4, 4, 1, 2, 3, 4]);
next = array1d(1..13 ,[8, 9, 13, 12, 10, 7, 2, 3, 1, 11, 4, 6, 5]);
makespan = 1053;
----------
assign = array1d(1..13 ,[4, 4, 4, 2, 1, 4, 4, 4, 4, 1, 2, 3, 4]);
next = array1d(1..13 ,[8, 9, 13, 11, 10, 7, 2, 3, 1, 4, 12, 6, 5]);
makespan = 1052;
----------
assign = array1d(1..13 ,[4, 4, 4, 3, 1, 4, 4, 4, 4, 1, 2, 3, 4]);
next = array1d(1..13 ,[8, 9, 13, 12, 10, 7, 2, 3, 1, 11, 4, 6, 5]);
makespan = 1051;
----------
assign = array1d(1..13 ,[4, 4, 4, 2, 1, 4, 4, 4, 4, 1, 2, 3, 4]);
next = array1d(1..13 ,[8, 9, 13, 11, 10, 7, 2, 3, 1, 4, 12, 6, 5]);
makespan = 1050;
----------
assign = array1d(1..13 ,[4, 4, 4, 3, 1, 4, 4, 4, 4, 1, 2, 3, 4]);
next = array1d(1..13 ,[8, 9, 13, 12, 10, 7, 2, 3, 1, 11, 4, 6, 5]);
makespan = 1048;
----------
assign = array1d(1..13 ,[4, 4, 4, 2, 1, 4, 4, 4, 4, 1, 2, 3, 4]);
next = array1d(1..13 ,[8, 9, 13, 11, 10, 7, 2, 3, 1, 4, 12, 6, 5]);
makespan = 1047;
----------
assign = array1d(1..13 ,[4, 4, 4, 3, 1, 4, 4, 4, 4, 1, 2, 3, 4]);
next = array1d(1..13 ,[8, 9, 13, 12, 10, 7, 2, 3, 1, 11, 4, 6, 5]);
makespan = 1046;
----------
assign = array1d(1..13 ,[4, 4, 4, 2, 1, 4, 4, 4, 4, 1, 2, 3, 4]);
next = array1d(1..13 ,[8, 9, 13, 11, 10, 7, 2, 3, 1, 4, 12, 6, 5]);
makespan = 1045;
----------
assign = array1d(1..13 ,[4, 4, 4, 3, 1, 4, 4, 4, 4, 1, 2, 3, 4]);
next = array1d(1..13 ,[8, 9, 13, 12, 10, 7, 2, 3, 1, 11, 4, 6, 5]);
makespan = 1043;
----------
assign = array1d(1..13 ,[4, 4, 4, 2, 1, 4, 4, 4, 4, 1, 2, 3, 4]);
next = array1d(1..13 ,[8, 9, 13, 11, 10, 7, 2, 3, 1, 4, 12, 6, 5]);
makespan = 1040;
----------
assign = array1d(1..13 ,[4, 4, 4, 3, 1, 4, 4, 4, 4, 1, 2, 3, 4]);
next = array1d(1..13 ,[8, 9, 13, 12, 10, 7, 2, 3, 1, 11, 4, 6, 5]);
makespan = 1039;
----------
assign = array1d(1..13 ,[4, 4, 4, 2, 1, 4, 4, 4, 4, 1, 2, 3, 4]);
next = array1d(1..13 ,[8, 9, 13, 11, 10, 7, 2, 3, 1, 4, 12, 6, 5]);
makespan = 1037;
----------
assign = array1d(1..13 ,[4, 4, 4, 3, 1, 4, 4, 4, 4, 1, 2, 3, 4]);
next = array1d(1..13 ,[8, 9, 13, 12, 10, 7, 2, 3, 1, 11, 4, 6, 5]);
makespan = 1034;
----------
assign = array1d(1..13 ,[4, 4, 4, 2, 1, 4, 4, 4, 4, 1, 2, 3, 4]);
next = array1d(1..13 ,[8, 9, 13, 11, 10, 7, 2, 3, 1, 4, 12, 6, 5]);
makespan = 1033;
----------
assign = array1d(1..13 ,[4, 4, 4, 3, 1, 4, 4, 4, 4, 1, 2, 3, 4]);
next = array1d(1..13 ,[8, 9, 13, 12, 10, 7, 2, 3, 1, 11, 4, 6, 5]);
makespan = 1032;
----------
assign = array1d(1..13 ,[4, 4, 4, 2, 1, 4, 4, 4, 4, 1, 2, 3, 4]);
next = array1d(1..13 ,[8, 9, 13, 11, 10, 7, 2, 3, 1, 4, 12, 6, 5]);
makespan = 1031;
----------
assign = array1d(1..13 ,[4, 4, 4, 3, 1, 4, 4, 4, 4, 1, 2, 3, 4]);
next = array1d(1..13 ,[8, 9, 13, 12, 10, 7, 2, 3, 1, 11, 4, 6, 5]);
makespan = 1030;
----------
assign = array1d(1..13 ,[4, 4, 4, 2, 1, 4, 4, 4, 4, 1, 2, 3, 4]);
next = array1d(1..13 ,[8, 9, 13, 11, 10, 7, 2, 3, 1, 4, 12, 6, 5]);
makespan = 1029;
----------
assign = array1d(1..13 ,[4, 4, 4, 3, 1, 4, 4, 4, 4, 1, 2, 3, 4]);
next = array1d(1..13 ,[8, 9, 13, 12, 10, 7, 2, 3, 1, 11, 4, 6, 5]);
makespan = 1027;
----------
assign = array1d(1..13 ,[4, 4, 4, 2, 1, 4, 4, 4, 4, 1, 2, 3, 4]);
next = array1d(1..13 ,[8, 9, 13, 11, 10, 7, 2, 3, 1, 4, 12, 6, 5]);
makespan = 1026;
----------
assign = array1d(1..13 ,[4, 4, 4, 1, 3, 4, 4, 4, 4, 1, 2, 3, 4]);
next = array1d(1..13 ,[8, 9, 13, 10, 12, 7, 2, 3, 1, 11, 5, 6, 4]);
makespan = 1025;
----------
assign = array1d(1..13 ,[4, 4, 4, 2, 1, 4, 4, 4, 4, 1, 2, 3, 4]);
next = array1d(1..13 ,[8, 9, 13, 11, 10, 7, 2, 3, 1, 4, 12, 6, 5]);
makespan = 1023;
----------
assign = array1d(1..13 ,[4, 4, 4, 1, 3, 4, 4, 4, 4, 1, 2, 3, 4]);
next = array1d(1..13 ,[8, 9, 13, 10, 12, 7, 2, 3, 1, 11, 5, 6, 4]);
makespan = 1022;
----------
assign = array1d(1..13 ,[4, 4, 4, 2, 1, 4, 4, 4, 4, 1, 2, 3, 4]);
next = array1d(1..13 ,[8, 9, 13, 11, 10, 7, 2, 3, 1, 4, 12, 6, 5]);
makespan = 1019;
----------
assign = array1d(1..13 ,[4, 4, 4, 1, 3, 4, 4, 4, 4, 1, 2, 3, 4]);
next = array1d(1..13 ,[8, 9, 13, 10, 12, 7, 2, 3, 1, 11, 5, 6, 4]);
makespan = 1018;
----------
assign = array1d(1..13 ,[4, 4, 4, 2, 1, 4, 4, 4, 4, 1, 2, 3, 4]);
next = array1d(1..13 ,[8, 9, 13, 11, 10, 7, 2, 3, 1, 4, 12, 6, 5]);
makespan = 1016;
----------
assign = array1d(1..13 ,[4, 4, 4, 1, 3, 4, 4, 4, 4, 1, 2, 3, 4]);
next = array1d(1..13 ,[8, 9, 13, 10, 12, 7, 2, 3, 1, 11, 5, 6, 4]);
makespan = 1014;
----------
assign = array1d(1..13 ,[4, 4, 4, 2, 1, 4, 4, 4, 4, 1, 2, 3, 4]);
next = array1d(1..13 ,[8, 9, 13, 11, 10, 7, 2, 3, 1, 4, 12, 6, 5]);
makespan = 1013;
----------
assign = array1d(1..13 ,[4, 4, 4, 1, 3, 4, 4, 4, 4, 1, 2, 3, 4]);
next = array1d(1..13 ,[8, 9, 13, 10, 12, 7, 2, 3, 1, 11, 5, 6, 4]);
makespan = 1012;
----------
assign = array1d(1..13 ,[4, 4, 4, 2, 1, 4, 4, 4, 4, 1, 2, 3, 4]);
next = array1d(1..13 ,[8, 9, 13, 11, 10, 7, 2, 3, 1, 4, 12, 6, 5]);
makespan = 1011;
----------
assign = array1d(1..13 ,[4, 4, 4, 1, 3, 4, 4, 4, 4, 1, 2, 3, 4]);
next = array1d(1..13 ,[8, 9, 13, 10, 12, 7, 2, 3, 1, 11, 5, 6, 4]);
makespan = 1010;
----------
assign = array1d(1..13 ,[4, 4, 4, 3, 1, 4, 4, 4, 4, 1, 2, 3, 4]);
next = array1d(1..13 ,[8, 9, 13, 12, 10, 7, 2, 3, 1, 11, 4, 6, 5]);
makespan = 1008;
----------
assign = array1d(1..13 ,[4, 4, 4, 2, 3, 4, 4, 4, 4, 1, 2, 3, 4]);
next = array1d(1..13 ,[8, 9, 13, 11, 12, 7, 2, 3, 1, 4, 5, 6, 10]);
makespan = 1007;
----------
assign = array1d(1..13 ,[4, 4, 4, 2, 1, 4, 4, 4, 4, 1, 2, 3, 4]);
next = array1d(1..13 ,[8, 9, 13, 11, 10, 7, 2, 3, 1, 4, 12, 6, 5]);
makespan = 1005;
----------
assign = array1d(1..13 ,[4, 4, 4, 1, 3, 4, 4, 4, 4, 1, 2, 3, 4]);
next = array1d(1..13 ,[8, 9, 13, 10, 12, 7, 2, 3, 1, 11, 5, 6, 4]);
makespan = 1004;
----------
assign = array1d(1..13 ,[4, 4, 4, 3, 1, 4, 4, 4, 4, 1, 2, 3, 4]);
next = array1d(1..13 ,[8, 9, 13, 12, 10, 7, 2, 3, 1, 11, 4, 6, 5]);
makespan = 1003;
----------
assign = array1d(1..13 ,[4, 4, 4, 1, 3, 4, 4, 4, 4, 1, 2, 3, 4]);
next = array1d(1..13 ,[8, 9, 13, 10, 12, 7, 2, 3, 1, 11, 5, 6, 4]);
makespan = 1002;
----------
assign = array1d(1..13 ,[4, 4, 4, 3, 1, 4, 4, 4, 4, 1, 2, 3, 4]);
next = array1d(1..13 ,[8, 9, 13, 12, 10, 7, 2, 3, 1, 11, 4, 6, 5]);
makespan = 999;
----------
assign = array1d(1..13 ,[4, 4, 4, 1, 3, 4, 4, 4, 4, 1, 2, 3, 4]);
next = array1d(1..13 ,[8, 9, 13, 10, 12, 7, 2, 3, 1, 11, 5, 6, 4]);
makespan = 997;
----------
assign = array1d(1..13 ,[4, 4, 4, 3, 1, 4, 4, 4, 4, 1, 2, 3, 4]);
next = array1d(1..13 ,[8, 9, 13, 12, 10, 7, 2, 3, 1, 11, 4, 6, 5]);
makespan = 996;
----------
assign = array1d(1..13 ,[4, 4, 4, 2, 3, 4, 4, 4, 4, 1, 2, 3, 4]);
next = array1d(1..13 ,[8, 9, 13, 11, 12, 7, 2, 3, 1, 4, 5, 6, 10]);
makespan = 995;
----------
assign = array1d(1..13 ,[4, 4, 4, 3, 1, 4, 4, 4, 4, 1, 2, 3, 4]);
next = array1d(1..13 ,[8, 9, 13, 12, 10, 7, 2, 3, 1, 11, 4, 6, 5]);
makespan = 994;
----------
assign = array1d(1..13 ,[4, 4, 4, 2, 3, 4, 4, 4, 4, 1, 2, 3, 4]);
next = array1d(1..13 ,[8, 9, 13, 11, 12, 7, 2, 3, 1, 4, 5, 6, 10]);
makespan = 993;
----------
assign = array1d(1..13 ,[4, 4, 4, 3, 1, 4, 4, 4, 4, 1, 2, 3, 4]);
next = array1d(1..13 ,[8, 9, 13, 12, 10, 7, 2, 3, 1, 11, 4, 6, 5]);
makespan = 992;
----------
assign = array1d(1..13 ,[4, 4, 4, 2, 3, 4, 4, 4, 4, 1, 2, 3, 4]);
next = array1d(1..13 ,[8, 9, 13, 11, 12, 7, 2, 3, 1, 4, 5, 6, 10]);
makespan = 991;
----------
assign = array1d(1..13 ,[4, 4, 4, 3, 1, 4, 4, 4, 4, 1, 2, 3, 4]);
next = array1d(1..13 ,[8, 9, 13, 12, 10, 7, 2, 3, 1, 11, 4, 6, 5]);
makespan = 990;
----------
assign = array1d(1..13 ,[4, 4, 4, 2, 3, 4, 4, 4, 4, 1, 2, 3, 4]);
next = array1d(1..13 ,[8, 9, 13, 11, 12, 7, 2, 3, 1, 4, 5, 6, 10]);
makespan = 989;
----------
assign = array1d(1..13 ,[4, 4, 4, 3, 1, 4, 4, 4, 4, 1, 2, 3, 4]);
next = array1d(1..13 ,[8, 9, 13, 12, 10, 7, 2, 3, 1, 11, 4, 6, 5]);
makespan = 987;
----------
assign = array1d(1..13 ,[4, 4, 4, 1, 3, 4, 4, 4, 4, 1, 2, 3, 4]);
next = array1d(1..13 ,[8, 9, 13, 10, 12, 7, 2, 3, 1, 11, 5, 6, 4]);
makespan = 985;
----------
assign = array1d(1..13 ,[4, 4, 4, 3, 1, 4, 4, 4, 4, 1, 2, 3, 4]);
next = array1d(1..13 ,[8, 9, 13, 12, 10, 7, 2, 3, 1, 11, 4, 6, 5]);
makespan = 984;
----------
assign = array1d(1..13 ,[4, 4, 4, 2, 3, 4, 4, 4, 4, 1, 2, 3, 4]);
next = array1d(1..13 ,[8, 9, 13, 11, 12, 7, 2, 3, 1, 4, 5, 6, 10]);
makespan = 982;
----------
assign = array1d(1..13 ,[4, 4, 4, 3, 1, 4, 4, 4, 4, 1, 2, 3, 4]);
next = array1d(1..13 ,[8, 9, 13, 12, 10, 7, 2, 3, 1, 11, 4, 6, 5]);
makespan = 981;
----------
assign = array1d(1..13 ,[4, 4, 4, 2, 3, 4, 4, 4, 4, 1, 2, 3, 4]);
next = array1d(1..13 ,[8, 9, 13, 11, 12, 7, 2, 3, 1, 4, 5, 6, 10]);
makespan = 979;
----------
assign = array1d(1..13 ,[4, 4, 4, 2, 1, 4, 4, 4, 4, 1, 2, 3, 4]);
next = array1d(1..13 ,[8, 9, 13, 11, 10, 7, 2, 3, 1, 4, 12, 6, 5]);
makespan = 977;
----------
assign = array1d(1..13 ,[4, 4, 4, 1, 3, 4, 4, 4, 4, 1, 2, 3, 4]);
next = array1d(1..13 ,[8, 9, 13, 10, 12, 7, 2, 3, 1, 11, 5, 6, 4]);
makespan = 976;
----------
assign = array1d(1..13 ,[4, 4, 4, 3, 1, 4, 4, 4, 4, 1, 2, 3, 4]);
next = array1d(1..13 ,[8, 9, 13, 12, 10, 7, 2, 3, 1, 11, 4, 6, 5]);
makespan = 975;
----------
assign = array1d(1..13 ,[4, 4, 4, 2, 3, 4, 4, 4, 4, 1, 2, 3, 4]);
next = array1d(1..13 ,[8, 9, 13, 11, 12, 7, 2, 3, 1, 4, 5, 6, 10]);
makespan = 974;
----------
assign = array1d(1..13 ,[4, 4, 4, 2, 1, 4, 4, 4, 4, 1, 2, 3, 4]);
next = array1d(1..13 ,[8, 9, 13, 11, 10, 7, 2, 3, 1, 4, 12, 6, 5]);
makespan = 973;
----------
assign = array1d(1..13 ,[4, 4, 4, 1, 3, 4, 4, 4, 4, 1, 2, 3, 4]);
next = array1d(1..13 ,[8, 9, 13, 10, 12, 7, 2, 3, 1, 11, 5, 6, 4]);
makespan = 972;
----------
assign = array1d(1..13 ,[4, 4, 4, 3, 1, 4, 4, 4, 4, 1, 2, 3, 4]);
next = array1d(1..13 ,[8, 9, 13, 12, 10, 7, 2, 3, 1, 11, 4, 6, 5]);
makespan = 971;
----------
assign = array1d(1..13 ,[4, 4, 4, 2, 3, 4, 4, 4, 4, 1, 2, 3, 4]);
next = array1d(1..13 ,[8, 9, 13, 11, 12, 7, 2, 3, 1, 4, 5, 6, 10]);
makespan = 969;
----------
assign = array1d(1..13 ,[4, 4, 4, 2, 1, 4, 4, 4, 4, 1, 2, 3, 4]);
next = array1d(1..13 ,[8, 9, 13, 11, 10, 7, 2, 3, 1, 4, 12, 6, 5]);
makespan = 967;
----------
assign = array1d(1..13 ,[4, 4, 4, 1, 3, 4, 4, 4, 4, 1, 2, 3, 4]);
next = array1d(1..13 ,[8, 9, 13, 10, 12, 7, 2, 3, 1, 11, 5, 6, 4]);
makespan = 966;
----------
assign = array1d(1..13 ,[4, 4, 4, 3, 1, 4, 4, 4, 4, 1, 2, 3, 4]);
next = array1d(1..13 ,[8, 9, 13, 12, 10, 7, 2, 3, 1, 11, 4, 6, 5]);
makespan = 964;
----------
assign = array1d(1..13 ,[4, 4, 4, 1, 3, 4, 4, 4, 4, 1, 2, 3, 4]);
next = array1d(1..13 ,[8, 9, 13, 10, 12, 7, 2, 3, 1, 11, 5, 6, 4]);
makespan = 963;
----------
assign = array1d(1..13 ,[4, 4, 4, 3, 1, 4, 4, 4, 4, 1, 2, 3, 4]);
next = array1d(1..13 ,[8, 9, 13, 12, 10, 7, 2, 3, 1, 11, 4, 6, 5]);
makespan = 961;
----------
assign = array1d(1..13 ,[4, 4, 4, 2, 3, 4, 4, 4, 4, 1, 2, 3, 4]);
next = array1d(1..13 ,[8, 9, 13, 11, 12, 7, 2, 3, 1, 4, 5, 6, 10]);
makespan = 958;
----------
assign = array1d(1..13 ,[4, 4, 4, 2, 1, 4, 4, 4, 4, 1, 2, 3, 4]);
next = array1d(1..13 ,[8, 9, 13, 11, 10, 7, 2, 3, 1, 4, 12, 6, 5]);
makespan = 956;
----------
assign = array1d(1..13 ,[4, 4, 4, 1, 3, 4, 4, 4, 4, 1, 2, 3, 4]);
next = array1d(1..13 ,[8, 9, 13, 10, 12, 7, 2, 3, 1, 11, 5, 6, 4]);
makespan = 955;
----------
assign = array1d(1..13 ,[4, 4, 4, 3, 1, 4, 4, 4, 4, 1, 2, 3, 4]);
next = array1d(1..13 ,[8, 9, 13, 12, 10, 7, 2, 3, 1, 11, 4, 6, 5]);
makespan = 954;
----------
assign = array1d(1..13 ,[4, 4, 4, 1, 3, 4, 4, 4, 4, 1, 2, 3, 4]);
next = array1d(1..13 ,[8, 9, 13, 10, 12, 7, 2, 3, 1, 11, 5, 6, 4]);
makespan = 953;
----------
assign = array1d(1..13 ,[4, 4, 4, 3, 1, 4, 4, 4, 4, 1, 2, 3, 4]);
next = array1d(1..13 ,[8, 9, 13, 12, 10, 7, 2, 3, 1, 11, 4, 6, 5]);
makespan = 952;
----------
assign = array1d(1..13 ,[4, 4, 4, 2, 3, 4, 4, 4, 4, 1, 2, 3, 4]);
next = array1d(1..13 ,[8, 9, 13, 11, 12, 7, 2, 3, 1, 4, 5, 6, 10]);
makespan = 951;
----------
assign = array1d(1..13 ,[4, 4, 4, 2, 1, 4, 4, 4, 4, 1, 2, 3, 4]);
next = array1d(1..13 ,[8, 9, 13, 11, 10, 7, 2, 3, 1, 4, 12, 6, 5]);
makespan = 950;
----------
assign = array1d(1..13 ,[4, 4, 4, 1, 3, 4, 4, 4, 4, 1, 2, 3, 4]);
next = array1d(1..13 ,[8, 9, 13, 10, 12, 7, 2, 3, 1, 11, 5, 6, 4]);
makespan = 949;
----------
assign = array1d(1..13 ,[4, 4, 1, 1, 1, 4, 4, 4, 4, 1, 2, 3, 4]);
next = array1d(1..13 ,[8, 9, 4, 5, 10, 7, 2, 13, 1, 11, 12, 6, 3]);
makespan = 948;
----------
assign = array1d(1..13 ,[4, 4, 3, 3, 3, 4, 4, 4, 4, 1, 2, 3, 4]);
next = array1d(1..13 ,[8, 9, 4, 5, 12, 7, 2, 13, 1, 11, 3, 6, 10]);
makespan = 947;
----------
assign = array1d(1..13 ,[4, 4, 1, 1, 1, 4, 4, 4, 4, 1, 2, 3, 4]);
next = array1d(1..13 ,[8, 9, 4, 5, 10, 7, 2, 13, 1, 11, 12, 6, 3]);
makespan = 946;
----------
assign = array1d(1..13 ,[4, 4, 3, 3, 3, 4, 4, 4, 4, 1, 2, 3, 4]);
next = array1d(1..13 ,[8, 9, 4, 5, 12, 7, 2, 13, 1, 11, 3, 6, 10]);
makespan = 943;
----------
assign = array1d(1..13 ,[4, 4, 1, 1, 1, 4, 4, 4, 4, 1, 2, 3, 4]);
next = array1d(1..13 ,[8, 9, 4, 5, 10, 7, 2, 13, 1, 11, 12, 6, 3]);
makespan = 941;
----------
assign = array1d(1..13 ,[4, 4, 3, 3, 3, 4, 4, 4, 4, 1, 2, 3, 4]);
next = array1d(1..13 ,[8, 9, 4, 5, 12, 7, 2, 13, 1, 11, 3, 6, 10]);
makespan = 940;
----------
assign = array1d(1..13 ,[4, 4, 1, 1, 1, 4, 4, 4, 4, 1, 2, 3, 4]);
next = array1d(1..13 ,[8, 9, 4, 5, 10, 7, 2, 13, 1, 11, 12, 6, 3]);
makespan = 937;
----------
assign = array1d(1..13 ,[4, 4, 3, 3, 3, 4, 4, 4, 4, 1, 2, 3, 4]);
next = array1d(1..13 ,[8, 9, 4, 5, 12, 7, 2, 13, 1, 11, 3, 6, 10]);
makespan = 936;
----------
assign = array1d(1..13 ,[4, 4, 1, 1, 1, 4, 4, 4, 4, 1, 2, 3, 4]);
next = array1d(1..13 ,[8, 9, 4, 5, 10, 7, 2, 13, 1, 11, 12, 6, 3]);
makespan = 935;
----------
assign = array1d(1..13 ,[4, 4, 3, 3, 3, 4, 4, 4, 4, 1, 2, 3, 4]);
next = array1d(1..13 ,[8, 9, 4, 5, 12, 7, 2, 13, 1, 11, 3, 6, 10]);
makespan = 934;
----------
assign = array1d(1..13 ,[4, 4, 1, 1, 1, 4, 4, 4, 4, 1, 2, 3, 4]);
next = array1d(1..13 ,[8, 9, 4, 5, 10, 7, 2, 13, 1, 11, 12, 6, 3]);
makespan = 933;
----------
assign = array1d(1..13 ,[4, 4, 3, 3, 3, 4, 4, 4, 4, 1, 2, 3, 4]);
next = array1d(1..13 ,[8, 9, 4, 5, 12, 7, 2, 13, 1, 11, 3, 6, 10]);
makespan = 932;
----------
assign = array1d(1..13 ,[4, 4, 1, 1, 1, 4, 4, 4, 4, 1, 2, 3, 4]);
next = array1d(1..13 ,[8, 9, 4, 5, 10, 7, 2, 13, 1, 11, 12, 6, 3]);
makespan = 929;
----------
assign = array1d(1..13 ,[4, 4, 3, 3, 3, 4, 4, 4, 4, 1, 2, 3, 4]);
next = array1d(1..13 ,[8, 9, 4, 5, 12, 7, 2, 13, 1, 11, 3, 6, 10]);
makespan = 928;
----------
assign = array1d(1..13 ,[4, 4, 1, 1, 1, 4, 4, 4, 4, 1, 2, 3, 4]);
next = array1d(1..13 ,[8, 9, 4, 5, 10, 7, 2, 13, 1, 11, 12, 6, 3]);
makespan = 927;
----------
assign = array1d(1..13 ,[4, 4, 3, 3, 3, 4, 4, 4, 4, 1, 2, 3, 4]);
next = array1d(1..13 ,[8, 9, 4, 5, 12, 7, 2, 13, 1, 11, 3, 6, 10]);
makespan = 926;
----------
assign = array1d(1..13 ,[4, 4, 1, 1, 1, 4, 4, 4, 4, 1, 2, 3, 4]);
next = array1d(1..13 ,[8, 9, 4, 5, 10, 7, 2, 13, 1, 11, 12, 6, 3]);
makespan = 925;
----------
assign = array1d(1..13 ,[4, 4, 3, 3, 3, 4, 4, 4, 4, 1, 2, 3, 4]);
next = array1d(1..13 ,[8, 9, 4, 5, 12, 7, 2, 13, 1, 11, 3, 6, 10]);
makespan = 923;
----------
assign = array1d(1..13 ,[4, 4, 1, 1, 1, 4, 4, 4, 4, 1, 2, 3, 4]);
next = array1d(1..13 ,[8, 9, 4, 5, 10, 7, 2, 13, 1, 11, 12, 6, 3]);
makespan = 922;
----------
assign = array1d(1..13 ,[4, 4, 3, 3, 3, 4, 4, 4, 4, 1, 2, 3, 4]);
next = array1d(1..13 ,[8, 9, 4, 5, 12, 7, 2, 13, 1, 11, 3, 6, 10]);
makespan = 921;
----------
assign = array1d(1..13 ,[4, 4, 1, 1, 1, 4, 4, 4, 4, 1, 2, 3, 4]);
next = array1d(1..13 ,[8, 9, 4, 5, 10, 7, 2, 13, 1, 11, 12, 6, 3]);
makespan = 920;
----------
assign = array1d(1..13 ,[4, 4, 3, 3, 3, 4, 4, 4, 4, 1, 2, 3, 4]);
next = array1d(1..13 ,[8, 9, 4, 5, 12, 7, 2, 13, 1, 11, 3, 6, 10]);
makespan = 919;
----------
assign = array1d(1..13 ,[4, 4, 1, 1, 1, 4, 4, 4, 4, 1, 2, 3, 4]);
next = array1d(1..13 ,[8, 9, 4, 5, 10, 7, 2, 13, 1, 11, 12, 6, 3]);
makespan = 918;
----------
assign = array1d(1..13 ,[4, 4, 3, 3, 3, 4, 4, 4, 4, 1, 2, 3, 4]);
next = array1d(1..13 ,[8, 9, 4, 5, 12, 7, 2, 13, 1, 11, 3, 6, 10]);
makespan = 917;
----------
assign = array1d(1..13 ,[4, 4, 1, 1, 1, 4, 4, 4, 4, 1, 2, 3, 4]);
next = array1d(1..13 ,[8, 9, 4, 5, 10, 7, 2, 13, 1, 11, 12, 6, 3]);
makespan = 916;
----------
assign = array1d(1..13 ,[4, 4, 3, 3, 3, 4, 4, 4, 4, 1, 2, 3, 4]);
next = array1d(1..13 ,[8, 9, 4, 5, 12, 7, 2, 13, 1, 11, 3, 6, 10]);
makespan = 915;
----------
assign = array1d(1..13 ,[4, 4, 1, 1, 1, 4, 4, 4, 4, 1, 2, 3, 4]);
next = array1d(1..13 ,[8, 9, 4, 5, 10, 7, 2, 13, 1, 11, 12, 6, 3]);
makespan = 914;
----------
assign = array1d(1..13 ,[4, 4, 3, 3, 3, 4, 4, 4, 4, 1, 2, 3, 4]);
next = array1d(1..13 ,[8, 9, 4, 5, 12, 7, 2, 13, 1, 11, 3, 6, 10]);
makespan = 913;
----------
assign = array1d(1..13 ,[4, 4, 1, 1, 1, 4, 4, 4, 4, 1, 2, 3, 4]);
next = array1d(1..13 ,[8, 9, 4, 5, 10, 7, 2, 13, 1, 11, 12, 6, 3]);
makespan = 911;
----------
assign = array1d(1..13 ,[4, 4, 3, 3, 3, 4, 4, 4, 4, 1, 2, 3, 4]);
next = array1d(1..13 ,[8, 9, 4, 5, 12, 7, 2, 13, 1, 11, 3, 6, 10]);
makespan = 908;
----------
assign = array1d(1..13 ,[4, 4, 1, 1, 1, 4, 4, 4, 4, 1, 2, 3, 4]);
next = array1d(1..13 ,[8, 9, 4, 5, 10, 7, 2, 13, 1, 11, 12, 6, 3]);
makespan = 906;
----------
assign = array1d(1..13 ,[4, 4, 3, 3, 3, 4, 4, 4, 4, 1, 2, 3, 4]);
next = array1d(1..13 ,[8, 9, 4, 5, 12, 7, 2, 13, 1, 11, 3, 6, 10]);
makespan = 905;
----------
assign = array1d(1..13 ,[4, 4, 1, 1, 1, 4, 4, 4, 4, 1, 2, 3, 4]);
next = array1d(1..13 ,[8, 9, 4, 5, 10, 7, 2, 13, 1, 11, 12, 6, 3]);
makespan = 903;
----------
assign = array1d(1..13 ,[4, 4, 3, 3, 3, 4, 4, 4, 4, 1, 2, 3, 4]);
next = array1d(1..13 ,[8, 9, 4, 5, 12, 7, 2, 13, 1, 11, 3, 6, 10]);
makespan = 902;
----------
assign = array1d(1..13 ,[4, 4, 1, 1, 1, 4, 4, 4, 4, 1, 2, 3, 4]);
next = array1d(1..13 ,[8, 9, 4, 5, 10, 7, 2, 13, 1, 11, 12, 6, 3]);
makespan = 900;
----------
assign = array1d(1..13 ,[4, 4, 3, 3, 3, 4, 4, 4, 4, 1, 2, 3, 4]);
next = array1d(1..13 ,[8, 9, 4, 5, 12, 7, 2, 13, 1, 11, 3, 6, 10]);
makespan = 898;
----------
assign = array1d(1..13 ,[4, 4, 3, 3, 3, 4, 4, 4, 4, 1, 2, 3, 4]);
next = array1d(1..13 ,[8, 9, 4, 5, 12, 7, 2, 13, 1, 11, 3, 6, 10]);
makespan = 897;
----------
assign = array1d(1..13 ,[4, 4, 3, 3, 3, 4, 4, 4, 4, 1, 2, 3, 4]);
next = array1d(1..13 ,[8, 9, 4, 5, 12, 7, 2, 13, 1, 11, 3, 6, 10]);
makespan = 896;
----------
assign = array1d(1..13 ,[4, 4, 3, 3, 3, 4, 4, 4, 4, 1, 2, 3, 4]);
next = array1d(1..13 ,[8, 9, 4, 5, 12, 7, 2, 13, 1, 11, 3, 6, 10]);
makespan = 895;
----------
assign = array1d(1..13 ,[4, 4, 3, 3, 3, 4, 4, 4, 4, 1, 2, 3, 4]);
next = array1d(1..13 ,[8, 9, 4, 5, 12, 7, 2, 13, 1, 11, 3, 6, 10]);
makespan = 894;
----------
assign = array1d(1..13 ,[4, 4, 3, 3, 3, 4, 4, 4, 4, 1, 2, 3, 4]);
next = array1d(1..13 ,[8, 9, 4, 5, 12, 7, 2, 13, 1, 11, 3, 6, 10]);
makespan = 893;
----------
assign = array1d(1..13 ,[4, 4, 1, 1, 1, 4, 4, 4, 4, 1, 2, 3, 4]);
next = array1d(1..13 ,[8, 9, 4, 5, 10, 7, 2, 13, 1, 11, 12, 6, 3]);
makespan = 892;
----------
assign = array1d(1..13 ,[4, 4, 1, 1, 1, 4, 4, 4, 4, 1, 2, 3, 4]);
next = array1d(1..13 ,[8, 9, 4, 5, 10, 7, 2, 13, 1, 11, 12, 6, 3]);
makespan = 890;
----------
assign = array1d(1..13 ,[4, 4, 3, 3, 3, 4, 4, 4, 4, 1, 2, 3, 4]);
next = array1d(1..13 ,[8, 9, 4, 5, 12, 7, 2, 13, 1, 11, 3, 6, 10]);
makespan = 888;
----------
assign = array1d(1..13 ,[4, 4, 1, 1, 1, 4, 4, 4, 4, 1, 2, 3, 4]);
next = array1d(1..13 ,[8, 9, 4, 5, 10, 7, 2, 13, 1, 11, 12, 6, 3]);
makespan = 887;
----------
assign = array1d(1..13 ,[4, 4, 1, 1, 1, 4, 4, 4, 4, 1, 2, 3, 4]);
next = array1d(1..13 ,[8, 9, 4, 5, 10, 7, 2, 13, 1, 11, 12, 6, 3]);
makespan = 885;
----------
assign = array1d(1..13 ,[4, 4, 3, 3, 3, 4, 4, 4, 4, 1, 2, 3, 4]);
next = array1d(1..13 ,[8, 9, 4, 5, 12, 7, 2, 13, 1, 11, 3, 6, 10]);
makespan = 884;
----------
assign = array1d(1..13 ,[4, 4, 3, 3, 3, 4, 4, 4, 4, 1, 2, 3, 4]);
next = array1d(1..13 ,[8, 9, 4, 5, 12, 7, 2, 13, 1, 11, 3, 6, 10]);
makespan = 882;
----------
assign = array1d(1..13 ,[4, 4, 1, 1, 1, 4, 4, 4, 4, 1, 2, 3, 4]);
next = array1d(1..13 ,[8, 9, 4, 5, 10, 7, 2, 13, 1, 11, 12, 6, 3]);
makespan = 880;
----------
assign = array1d(1..13 ,[4, 4, 1, 1, 1, 4, 4, 4, 4, 1, 2, 3, 4]);
next = array1d(1..13 ,[8, 9, 4, 5, 10, 7, 2, 13, 1, 11, 12, 6, 3]);
makespan = 879;
----------
assign = array1d(1..13 ,[4, 4, 3, 3, 3, 4, 4, 4, 4, 1, 2, 3, 4]);
next = array1d(1..13 ,[8, 9, 4, 5, 12, 7, 2, 13, 1, 11, 3, 6, 10]);
makespan = 878;
----------
assign = array1d(1..13 ,[4, 4, 3, 3, 3, 4, 4, 4, 4, 1, 2, 3, 4]);
next = array1d(1..13 ,[8, 9, 4, 5, 12, 7, 2, 13, 1, 11, 3, 6, 10]);
makespan = 877;
----------
assign = array1d(1..13 ,[4, 4, 1, 1, 1, 4, 4, 4, 4, 1, 2, 3, 4]);
next = array1d(1..13 ,[8, 9, 4, 5, 10, 7, 2, 13, 1, 11, 12, 6, 3]);
makespan = 876;
----------
assign = array1d(1..13 ,[4, 4, 3, 3, 3, 4, 4, 4, 4, 1, 2, 3, 4]);
next = array1d(1..13 ,[8, 9, 4, 5, 12, 7, 2, 13, 1, 11, 3, 6, 10]);
makespan = 875;
----------
assign = array1d(1..13 ,[4, 4, 1, 1, 1, 4, 4, 4, 4, 1, 2, 3, 4]);
next = array1d(1..13 ,[8, 9, 4, 5, 10, 7, 2, 13, 1, 11, 12, 6, 3]);
makespan = 874;
----------
assign = array1d(1..13 ,[4, 4, 3, 3, 3, 4, 4, 4, 4, 1, 2, 3, 4]);
next = array1d(1..13 ,[8, 9, 4, 5, 12, 7, 2, 13, 1, 11, 3, 6, 10]);
makespan = 872;
----------
assign = array1d(1..13 ,[4, 4, 1, 1, 1, 4, 4, 4, 4, 1, 2, 3, 4]);
next = array1d(1..13 ,[8, 9, 4, 5, 10, 7, 2, 13, 1, 11, 12, 6, 3]);
makespan = 870;
----------
assign = array1d(1..13 ,[4, 4, 3, 3, 3, 4, 4, 4, 4, 1, 2, 3, 4]);
next = array1d(1..13 ,[8, 9, 4, 5, 12, 7, 2, 13, 1, 11, 3, 6, 10]);
makespan = 869;
----------
assign = array1d(1..13 ,[4, 4, 3, 3, 3, 4, 4, 4, 4, 1, 2, 3, 4]);
next = array1d(1..13 ,[8, 9, 4, 5, 12, 7, 2, 13, 1, 11, 3, 6, 10]);
makespan = 867;
----------
assign = array1d(1..13 ,[4, 4, 1, 1, 1, 4, 4, 4, 4, 1, 2, 3, 4]);
next = array1d(1..13 ,[8, 9, 4, 5, 10, 7, 2, 13, 1, 11, 12, 6, 3]);
makespan = 866;
----------
assign = array1d(1..13 ,[4, 4, 1, 1, 1, 4, 4, 4, 4, 1, 2, 3, 4]);
next = array1d(1..13 ,[8, 9, 4, 5, 10, 7, 2, 13, 1, 11, 12, 6, 3]);
makespan = 865;
----------
assign = array1d(1..13 ,[4, 4, 1, 1, 1, 4, 4, 4, 4, 1, 2, 3, 4]);
next = array1d(1..13 ,[8, 9, 4, 5, 10, 7, 2, 13, 1, 11, 12, 6, 3]);
makespan = 864;
----------
assign = array1d(1..13 ,[4, 4, 1, 1, 1, 4, 4, 4, 4, 1, 2, 3, 4]);
next = array1d(1..13 ,[8, 9, 4, 5, 10, 7, 2, 13, 1, 11, 12, 6, 3]);
makespan = 862;
----------
assign = array1d(1..13 ,[4, 4, 1, 1, 1, 4, 4, 4, 4, 1, 2, 3, 4]);
next = array1d(1..13 ,[8, 9, 4, 5, 10, 7, 2, 13, 1, 11, 12, 6, 3]);
makespan = 861;
----------
assign = array1d(1..13 ,[4, 4, 1, 1, 1, 4, 4, 4, 4, 1, 2, 3, 4]);
next = array1d(1..13 ,[8, 9, 4, 5, 10, 7, 2, 13, 1, 11, 12, 6, 3]);
makespan = 859;
----------
assign = array1d(1..13 ,[4, 4, 3, 3, 3, 4, 4, 4, 4, 1, 2, 3, 4]);
next = array1d(1..13 ,[8, 9, 4, 5, 12, 7, 2, 13, 1, 11, 3, 6, 10]);
makespan = 858;
----------
assign = array1d(1..13 ,[4, 4, 1, 1, 1, 4, 4, 4, 4, 1, 2, 3, 4]);
next = array1d(1..13 ,[8, 9, 4, 5, 10, 7, 2, 13, 1, 11, 12, 6, 3]);
makespan = 857;
----------
assign = array1d(1..13 ,[4, 4, 3, 3, 3, 4, 4, 4, 4, 1, 2, 3, 4]);
next = array1d(1..13 ,[8, 9, 4, 5, 12, 7, 2, 13, 1, 11, 3, 6, 10]);
makespan = 856;
----------
assign = array1d(1..13 ,[4, 4, 3, 3, 3, 4, 4, 4, 4, 1, 2, 3, 4]);
next = array1d(1..13 ,[8, 9, 4, 5, 12, 7, 2, 13, 1, 11, 3, 6, 10]);
makespan = 855;
----------
assign = array1d(1..13 ,[4, 4, 3, 3, 3, 4, 4, 4, 4, 1, 2, 3, 4]);
next = array1d(1..13 ,[8, 9, 4, 5, 12, 7, 2, 13, 1, 11, 3, 6, 10]);
makespan = 853;
----------
assign = array1d(1..13 ,[4, 4, 3, 3, 3, 4, 4, 4, 4, 1, 2, 3, 4]);
next = array1d(1..13 ,[8, 9, 4, 5, 12, 7, 2, 13, 1, 11, 3, 6, 10]);
makespan = 850;
----------
assign = array1d(1..13 ,[4, 4, 1, 1, 1, 4, 4, 4, 4, 1, 2, 3, 4]);
next = array1d(1..13 ,[8, 9, 4, 5, 10, 7, 2, 13, 1, 11, 12, 6, 3]);
makespan = 847;
----------
assign = array1d(1..13 ,[4, 4, 1, 1, 1, 4, 4, 4, 4, 1, 2, 3, 4]);
next = array1d(1..13 ,[8, 9, 4, 5, 10, 7, 2, 13, 1, 11, 12, 6, 3]);
makespan = 846;
----------
assign = array1d(1..13 ,[4, 4, 1, 1, 1, 4, 4, 4, 4, 1, 2, 3, 4]);
next = array1d(1..13 ,[8, 9, 4, 5, 10, 7, 2, 13, 1, 11, 12, 6, 3]);
makespan = 844;
----------
assign = array1d(1..13 ,[4, 4, 1, 1, 1, 4, 4, 4, 4, 1, 2, 3, 4]);
next = array1d(1..13 ,[8, 9, 4, 5, 10, 7, 2, 13, 1, 11, 12, 6, 3]);
makespan = 843;
----------
assign = array1d(1..13 ,[4, 4, 1, 1, 1, 4, 4, 4, 4, 1, 2, 3, 4]);
next = array1d(1..13 ,[8, 9, 4, 5, 10, 7, 2, 13, 1, 11, 12, 6, 3]);
makespan = 842;
----------
assign = array1d(1..13 ,[4, 4, 3, 3, 3, 4, 4, 4, 4, 1, 2, 3, 4]);
next = array1d(1..13 ,[8, 9, 4, 5, 12, 7, 2, 13, 1, 11, 3, 6, 10]);
makespan = 840;
----------
assign = array1d(1..13 ,[4, 4, 3, 3, 3, 4, 4, 4, 4, 1, 2, 3, 4]);
next = array1d(1..13 ,[8, 9, 4, 5, 12, 7, 2, 13, 1, 11, 3, 6, 10]);
makespan = 839;
----------
assign = array1d(1..13 ,[4, 4, 3, 3, 3, 4, 4, 4, 4, 1, 2, 3, 4]);
next = array1d(1..13 ,[8, 9, 4, 5, 12, 7, 2, 13, 1, 11, 3, 6, 10]);
makespan = 838;
----------
assign = array1d(1..13 ,[4, 4, 3, 3, 3, 4, 4, 4, 4, 1, 2, 3, 4]);
next = array1d(1..13 ,[8, 9, 4, 5, 12, 7, 2, 13, 1, 11, 3, 6, 10]);
makespan = 837;
----------
assign = array1d(1..13 ,[4, 4, 3, 3, 3, 4, 4, 4, 4, 1, 2, 3, 4]);
next = array1d(1..13 ,[8, 9, 4, 5, 12, 7, 2, 13, 1, 11, 3, 6, 10]);
makespan = 836;
----------
assign = array1d(1..13 ,[4, 4, 3, 3, 3, 4, 4, 4, 4, 1, 2, 3, 4]);
next = array1d(1..13 ,[8, 9, 4, 5, 12, 7, 2, 13, 1, 11, 3, 6, 10]);
makespan = 835;
----------
assign = array1d(1..13 ,[4, 4, 3, 3, 3, 4, 4, 4, 4, 1, 2, 3, 4]);
next = array1d(1..13 ,[8, 9, 4, 5, 12, 7, 2, 13, 1, 11, 3, 6, 10]);
makespan = 832;
----------
assign = array1d(1..13 ,[4, 4, 2, 3, 3, 4, 4, 4, 4, 1, 2, 3, 4]);
next = array1d(1..13 ,[8, 9, 11, 5, 12, 7, 13, 6, 1, 3, 4, 2, 10]);
makespan = 829;
----------
assign = array1d(1..13 ,[4, 4, 3, 2, 2, 4, 4, 4, 4, 1, 2, 3, 4]);
next = array1d(1..13 ,[8, 9, 12, 5, 11, 7, 13, 6, 1, 4, 3, 2, 10]);
makespan = 826;
----------
assign = array1d(1..13 ,[4, 4, 2, 1, 1, 4, 4, 4, 4, 1, 2, 3, 4]);
next = array1d(1..13 ,[8, 9, 11, 5, 10, 7, 13, 6, 1, 3, 12, 2, 4]);
makespan = 824;
----------
assign = array1d(1..13 ,[4, 4, 1, 2, 2, 4, 4, 4, 4, 1, 2, 3, 4]);
next = array1d(1..13 ,[8, 9, 10, 5, 11, 7, 13, 6, 1, 4, 12, 2, 3]);
makespan = 823;
----------
assign = array1d(1..13 ,[4, 4, 2, 1, 1, 4, 4, 4, 4, 1, 2, 3, 4]);
next = array1d(1..13 ,[8, 9, 11, 5, 10, 7, 13, 6, 1, 3, 12, 2, 4]);
makespan = 822;
----------
assign = array1d(1..13 ,[4, 4, 1, 2, 2, 4, 4, 4, 4, 1, 2, 3, 4]);
next = array1d(1..13 ,[8, 13, 10, 5, 11, 7, 2, 6, 1, 4, 12, 9, 3]);
makespan = 821;
----------
assign = array1d(1..13 ,[4, 4, 3, 1, 1, 4, 4, 4, 4, 1, 2, 3, 4]);
next = array1d(1..13 ,[8, 13, 12, 5, 10, 7, 2, 6, 1, 11, 3, 9, 4]);
makespan = 820;
----------
assign = array1d(1..13 ,[4, 4, 3, 2, 2, 4, 4, 4, 4, 1, 2, 3, 4]);
next = array1d(1..13 ,[8, 13, 12, 5, 11, 7, 2, 6, 1, 4, 3, 9, 10]);
makespan = 819;
----------
assign = array1d(1..13 ,[4, 4, 2, 1, 1, 4, 4, 4, 4, 1, 2, 3, 4]);
next = array1d(1..13 ,[8, 13, 11, 5, 10, 7, 2, 6, 1, 3, 12, 9, 4]);
makespan = 818;
----------
assign = array1d(1..13 ,[4, 4, 3, 2, 2, 4, 4, 4, 4, 1, 2, 3, 4]);
next = array1d(1..13 ,[8, 13, 12, 5, 11, 7, 2, 6, 1, 4, 3, 9, 10]);
makespan = 817;
----------
assign = array1d(1..13 ,[4, 4, 2, 1, 1, 4, 4, 4, 4, 1, 2, 3, 4]);
next = array1d(1..13 ,[8, 13, 11, 5, 10, 7, 2, 6, 1, 3, 12, 9, 4]);
makespan = 816;
----------
assign = array1d(1..13 ,[4, 4, 3, 2, 2, 4, 4, 4, 4, 1, 2, 3, 4]);
next = array1d(1..13 ,[8, 13, 12, 5, 11, 7, 2, 6, 1, 4, 3, 9, 10]);
makespan = 814;
----------
assign = array1d(1..13 ,[4, 4, 2, 1, 1, 4, 4, 4, 4, 1, 2, 3, 4]);
next = array1d(1..13 ,[8, 13, 11, 5, 10, 7, 2, 6, 1, 3, 12, 9, 4]);
makespan = 811;
----------
assign = array1d(1..13 ,[4, 4, 3, 2, 2, 4, 4, 4, 4, 1, 2, 3, 4]);
next = array1d(1..13 ,[8, 13, 12, 5, 11, 7, 2, 6, 1, 4, 3, 9, 10]);
makespan = 809;
----------
assign = array1d(1..13 ,[4, 4, 2, 1, 1, 4, 4, 4, 4, 1, 2, 3, 4]);
next = array1d(1..13 ,[8, 13, 11, 5, 10, 7, 2, 6, 1, 3, 12, 9, 4]);
makespan = 808;
----------
assign = array1d(1..13 ,[4, 4, 3, 2, 2, 4, 4, 4, 4, 1, 2, 3, 4]);
next = array1d(1..13 ,[8, 6, 12, 5, 11, 7, 13, 2, 1, 4, 3, 9, 10]);
makespan = 806;
----------
assign = array1d(1..13 ,[4, 4, 2, 1, 1, 4, 4, 4, 4, 1, 2, 3, 4]);
next = array1d(1..13 ,[8, 6, 11, 5, 10, 7, 13, 2, 1, 3, 12, 9, 4]);
makespan = 805;
----------
assign = array1d(1..13 ,[4, 4, 3, 2, 2, 4, 4, 4, 4, 1, 2, 3, 4]);
next = array1d(1..13 ,[8, 6, 12, 5, 11, 7, 13, 2, 1, 4, 3, 9, 10]);
makespan = 804;
----------
assign = array1d(1..13 ,[4, 4, 2, 1, 1, 4, 4, 4, 4, 1, 2, 3, 4]);
next = array1d(1..13 ,[8, 6, 11, 5, 10, 7, 13, 2, 1, 3, 12, 9, 4]);
makespan = 803;
----------
assign = array1d(1..13 ,[4, 4, 3, 2, 2, 4, 4, 4, 4, 1, 2, 3, 4]);
next = array1d(1..13 ,[8, 13, 12, 5, 11, 7, 9, 2, 1, 4, 3, 6, 10]);
makespan = 801;
----------
assign = array1d(1..13 ,[4, 4, 2, 1, 1, 4, 4, 4, 4, 1, 2, 3, 4]);
next = array1d(1..13 ,[8, 13, 11, 5, 10, 7, 9, 2, 1, 3, 12, 6, 4]);
makespan = 800;
----------
assign = array1d(1..13 ,[4, 4, 3, 2, 2, 4, 4, 4, 4, 1, 2, 3, 4]);
next = array1d(1..13 ,[8, 13, 12, 5, 11, 7, 9, 2, 1, 4, 3, 6, 10]);
makespan = 799;
----------
assign = array1d(1..13 ,[4, 4, 2, 1, 1, 4, 4, 4, 4, 1, 2, 3, 4]);
next = array1d(1..13 ,[8, 13, 11, 5, 10, 7, 9, 2, 1, 3, 12, 6, 4]);
makespan = 798;
----------
assign = array1d(1..13 ,[4, 4, 3, 2, 2, 4, 4, 4, 4, 1, 2, 3, 4]);
next = array1d(1..13 ,[8, 13, 12, 5, 11, 7, 9, 2, 1, 4, 3, 6, 10]);
makespan = 797;
----------
assign = array1d(1..13 ,[4, 4, 2, 1, 1, 4, 4, 4, 4, 1, 2, 3, 4]);
next = array1d(1..13 ,[8, 13, 11, 5, 10, 7, 9, 2, 1, 3, 12, 6, 4]);
makespan = 796;
----------
assign = array1d(1..13 ,[4, 4, 3, 2, 2, 4, 4, 4, 4, 1, 2, 3, 4]);
next = array1d(1..13 ,[8, 13, 12, 5, 11, 7, 9, 2, 1, 4, 3, 6, 10]);
makespan = 795;
----------
assign = array1d(1..13 ,[4, 4, 2, 1, 1, 4, 4, 4, 4, 1, 2, 3, 4]);
next = array1d(1..13 ,[8, 13, 11, 5, 10, 7, 9, 2, 1, 3, 12, 6, 4]);
makespan = 794;
----------
assign = array1d(1..13 ,[4, 4, 3, 2, 2, 4, 4, 4, 4, 1, 2, 3, 4]);
next = array1d(1..13 ,[8, 6, 12, 5, 11, 7, 9, 13, 1, 4, 3, 2, 10]);
makespan = 791;
----------
assign = array1d(1..13 ,[4, 1, 1, 1, 1, 4, 4, 4, 4, 1, 2, 3, 4]);
next = array1d(1..13 ,[8, 5, 10, 3, 4, 7, 9, 13, 1, 11, 12, 6, 2]);
makespan = 790;
----------
assign = array1d(1..13 ,[4, 1, 3, 1, 1, 4, 4, 4, 4, 1, 2, 3, 4]);
next = array1d(1..13 ,[8, 5, 12, 10, 4, 7, 9, 13, 1, 11, 3, 6, 2]);
makespan = 788;
----------
assign = array1d(1..13 ,[4, 1, 2, 1, 1, 4, 4, 4, 4, 1, 2, 3, 4]);
next = array1d(1..13 ,[8, 5, 11, 10, 4, 7, 9, 13, 1, 3, 12, 6, 2]);
makespan = 787;
----------
assign = array1d(1..13 ,[4, 1, 3, 1, 1, 4, 4, 4, 4, 1, 2, 3, 4]);
next = array1d(1..13 ,[8, 5, 12, 10, 4, 7, 9, 13, 1, 11, 3, 6, 2]);
makespan = 786;
----------
assign = array1d(1..13 ,[4, 1, 3, 1, 1, 4, 4, 4, 4, 1, 2, 3, 4]);
next = array1d(1..13 ,[8, 5, 12, 10, 4, 7, 9, 13, 1, 11, 3, 6, 2]);
makespan = 785;
----------
assign = array1d(1..13 ,[4, 1, 3, 1, 1, 4, 4, 4, 4, 1, 2, 3, 4]);
next = array1d(1..13 ,[8, 5, 12, 10, 4, 7, 9, 13, 1, 11, 3, 6, 2]);
makespan = 782;
----------
assign = array1d(1..13 ,[4, 1, 3, 1, 1, 4, 4, 4, 4, 1, 2, 3, 4]);
next = array1d(1..13 ,[8, 5, 12, 10, 4, 7, 9, 13, 1, 11, 3, 6, 2]);
makespan = 780;
----------
assign = array1d(1..13 ,[4, 1, 2, 1, 1, 4, 4, 4, 4, 1, 2, 3, 4]);
next = array1d(1..13 ,[8, 5, 11, 10, 4, 7, 9, 13, 1, 3, 12, 6, 2]);
makespan = 779;
----------
assign = array1d(1..13 ,[4, 1, 3, 1, 1, 4, 4, 4, 4, 1, 2, 3, 4]);
next = array1d(1..13 ,[8, 5, 12, 10, 4, 7, 9, 13, 1, 11, 3, 6, 2]);
makespan = 777;
----------
assign = array1d(1..13 ,[4, 1, 2, 1, 1, 4, 4, 4, 4, 1, 2, 3, 4]);
next = array1d(1..13 ,[8, 5, 11, 10, 4, 7, 9, 13, 1, 3, 12, 6, 2]);
makespan = 769;
----------
assign = array1d(1..13 ,[4, 1, 3, 1, 1, 4, 4, 4, 4, 1, 2, 3, 4]);
next = array1d(1..13 ,[8, 5, 12, 10, 4, 7, 9, 13, 1, 11, 3, 6, 2]);
makespan = 768;
----------
assign = array1d(1..13 ,[4, 1, 3, 1, 1, 4, 4, 4, 4, 1, 2, 3, 4]);
next = array1d(1..13 ,[8, 5, 12, 10, 4, 7, 9, 13, 1, 11, 3, 6, 2]);
makespan = 767;
----------
assign = array1d(1..13 ,[4, 1, 3, 1, 1, 4, 4, 4, 4, 1, 2, 3, 4]);
next = array1d(1..13 ,[8, 5, 12, 10, 4, 7, 9, 13, 1, 11, 3, 6, 2]);
makespan = 765;
----------
assign = array1d(1..13 ,[4, 1, 3, 1, 1, 4, 4, 4, 4, 1, 2, 3, 4]);
next = array1d(1..13 ,[8, 5, 12, 10, 4, 7, 9, 13, 1, 11, 3, 6, 2]);
makespan = 762;
----------
assign = array1d(1..13 ,[4, 1, 2, 1, 1, 4, 4, 4, 4, 1, 2, 3, 4]);
next = array1d(1..13 ,[8, 5, 11, 10, 4, 7, 9, 13, 1, 3, 12, 6, 2]);
makespan = 761;
----------
assign = array1d(1..13 ,[4, 1, 3, 1, 1, 4, 4, 4, 4, 1, 2, 3, 4]);
next = array1d(1..13 ,[8, 5, 12, 10, 4, 7, 9, 13, 1, 11, 3, 6, 2]);
makespan = 760;
----------
assign = array1d(1..13 ,[4, 1, 2, 1, 1, 4, 4, 4, 4, 1, 2, 3, 4]);
next = array1d(1..13 ,[8, 5, 11, 10, 4, 7, 9, 13, 1, 3, 12, 6, 2]);
makespan = 758;
----------
assign = array1d(1..13 ,[4, 1, 3, 1, 1, 4, 4, 4, 4, 1, 2, 3, 4]);
next = array1d(1..13 ,[8, 5, 12, 10, 4, 7, 9, 13, 1, 11, 3, 6, 2]);
makespan = 756;
----------
assign = array1d(1..13 ,[4, 1, 2, 1, 1, 4, 4, 4, 4, 1, 2, 3, 4]);
next = array1d(1..13 ,[8, 5, 11, 10, 4, 7, 9, 13, 1, 3, 12, 6, 2]);
makespan = 753;
----------
assign = array1d(1..13 ,[4, 1, 2, 1, 1, 4, 4, 4, 4, 1, 2, 3, 4]);
next = array1d(1..13 ,[8, 5, 11, 10, 4, 7, 9, 13, 1, 3, 12, 6, 2]);
makespan = 750;
----------
assign = array1d(1..13 ,[4, 1, 3, 1, 1, 4, 4, 4, 4, 1, 2, 3, 4]);
next = array1d(1..13 ,[8, 5, 12, 10, 4, 7, 9, 13, 1, 11, 3, 6, 2]);
makespan = 748;
----------
assign = array1d(1..13 ,[4, 1, 3, 1, 1, 4, 4, 4, 4, 1, 2, 3, 4]);
next = array1d(1..13 ,[8, 5, 12, 10, 4, 7, 9, 13, 1, 11, 3, 6, 2]);
makespan = 747;
----------
assign = array1d(1..13 ,[4, 1, 2, 1, 1, 4, 4, 4, 4, 1, 2, 3, 4]);
next = array1d(1..13 ,[8, 5, 11, 10, 4, 7, 9, 13, 1, 3, 12, 6, 2]);
makespan = 745;
----------
assign = array1d(1..13 ,[4, 1, 3, 1, 1, 4, 4, 4, 4, 1, 2, 3, 4]);
next = array1d(1..13 ,[8, 5, 12, 10, 4, 7, 9, 13, 1, 11, 3, 6, 2]);
makespan = 743;
----------
assign = array1d(1..13 ,[4, 1, 2, 1, 1, 4, 4, 4, 4, 1, 2, 3, 4]);
next = array1d(1..13 ,[8, 5, 11, 10, 4, 7, 9, 13, 1, 3, 12, 6, 2]);
makespan = 742;
----------
assign = array1d(1..13 ,[4, 1, 2, 1, 1, 4, 4, 4, 4, 1, 2, 3, 4]);
next = array1d(1..13 ,[8, 5, 11, 10, 4, 7, 9, 13, 1, 3, 12, 6, 2]);
makespan = 740;
----------
assign = array1d(1..13 ,[4, 1, 2, 1, 1, 4, 4, 4, 4, 1, 2, 3, 4]);
next = array1d(1..13 ,[8, 5, 11, 10, 4, 7, 9, 13, 1, 3, 12, 6, 2]);
makespan = 739;
----------
assign = array1d(1..13 ,[4, 1, 2, 1, 1, 4, 4, 4, 4, 1, 2, 3, 4]);
next = array1d(1..13 ,[8, 5, 11, 10, 4, 7, 9, 13, 1, 3, 12, 6, 2]);
makespan = 738;
----------
assign = array1d(1..13 ,[4, 1, 3, 1, 1, 4, 4, 4, 4, 1, 2, 3, 4]);
next = array1d(1..13 ,[8, 5, 12, 10, 4, 7, 9, 13, 1, 11, 3, 6, 2]);
makespan = 736;
----------
assign = array1d(1..13 ,[4, 1, 2, 1, 1, 4, 4, 4, 4, 1, 2, 3, 4]);
next = array1d(1..13 ,[8, 5, 11, 10, 4, 7, 9, 13, 1, 3, 12, 6, 2]);
makespan = 734;
----------
assign = array1d(1..13 ,[4, 1, 3, 1, 1, 4, 4, 4, 4, 1, 2, 3, 4]);
next = array1d(1..13 ,[8, 5, 12, 10, 4, 7, 9, 13, 1, 11, 3, 6, 2]);
makespan = 732;
----------
assign = array1d(1..13 ,[4, 1, 2, 1, 1, 4, 4, 4, 4, 1, 2, 3, 4]);
next = array1d(1..13 ,[8, 5, 11, 10, 4, 7, 9, 13, 1, 3, 12, 6, 2]);
makespan = 729;
----------
assign = array1d(1..13 ,[4, 1, 3, 1, 1, 4, 4, 4, 4, 1, 2, 3, 4]);
next = array1d(1..13 ,[8, 5, 12, 10, 4, 7, 9, 13, 1, 11, 3, 6, 2]);
makespan = 727;
----------
assign = array1d(1..13 ,[4, 1, 2, 1, 1, 4, 4, 4, 4, 1, 2, 3, 4]);
next = array1d(1..13 ,[8, 5, 11, 10, 4, 7, 9, 13, 1, 3, 12, 6, 2]);
makespan = 726;
----------
assign = array1d(1..13 ,[4, 1, 2, 1, 1, 4, 4, 4, 4, 1, 2, 3, 4]);
next = array1d(1..13 ,[8, 5, 11, 10, 4, 7, 9, 13, 1, 3, 12, 6, 2]);
makespan = 724;
----------
assign = array1d(1..13 ,[4, 1, 2, 1, 1, 4, 4, 4, 4, 1, 2, 3, 4]);
next = array1d(1..13 ,[8, 5, 11, 10, 4, 7, 9, 13, 1, 3, 12, 6, 2]);
makespan = 721;
----------
assign = array1d(1..13 ,[4, 1, 3, 1, 1, 4, 4, 4, 4, 1, 2, 3, 4]);
next = array1d(1..13 ,[8, 5, 12, 10, 4, 7, 9, 13, 1, 11, 3, 6, 2]);
makespan = 719;
----------
assign = array1d(1..13 ,[4, 1, 2, 1, 1, 4, 4, 4, 4, 1, 2, 3, 4]);
next = array1d(1..13 ,[8, 5, 11, 10, 4, 7, 9, 13, 1, 3, 12, 6, 2]);
makespan = 711;
----------
assign = array1d(1..13 ,[4, 1, 3, 1, 1, 4, 4, 4, 4, 1, 2, 3, 4]);
next = array1d(1..13 ,[8, 5, 12, 10, 4, 7, 9, 13, 1, 11, 3, 6, 2]);
makespan = 709;
----------
assign = array1d(1..13 ,[4, 1, 2, 1, 1, 4, 4, 4, 4, 1, 2, 3, 4]);
next = array1d(1..13 ,[8, 5, 11, 10, 4, 7, 9, 13, 1, 3, 12, 6, 2]);
makespan = 708;
----------
assign = array1d(1..13 ,[4, 1, 3, 1, 1, 4, 4, 4, 4, 1, 2, 3, 4]);
next = array1d(1..13 ,[8, 5, 12, 10, 4, 7, 9, 13, 1, 11, 3, 6, 2]);
makespan = 706;
----------
assign = array1d(1..13 ,[4, 1, 2, 1, 1, 4, 4, 4, 4, 1, 2, 3, 4]);
next = array1d(1..13 ,[8, 5, 11, 10, 4, 7, 9, 13, 1, 3, 12, 6, 2]);
makespan = 685;
----------
assign = array1d(1..13 ,[4, 1, 3, 1, 1, 4, 4, 4, 4, 1, 2, 3, 4]);
next = array1d(1..13 ,[8, 5, 12, 10, 4, 7, 9, 13, 1, 11, 3, 6, 2]);
makespan = 678;
----------
assign = array1d(1..13 ,[4, 1, 2, 1, 1, 4, 4, 4, 4, 1, 2, 3, 4]);
next = array1d(1..13 ,[8, 5, 11, 10, 4, 7, 9, 13, 1, 3, 12, 6, 2]);
makespan = 672;
----------
assign = array1d(1..13 ,[4, 1, 3, 1, 1, 4, 4, 4, 4, 1, 2, 3, 4]);
next = array1d(1..13 ,[8, 5, 12, 10, 4, 7, 9, 13, 1, 11, 3, 6, 2]);
makespan = 668;
----------
assign = array1d(1..13 ,[4, 1, 2, 1, 1, 4, 4, 4, 4, 1, 2, 3, 4]);
next = array1d(1..13 ,[8, 5, 11, 10, 4, 7, 9, 13, 1, 3, 12, 6, 2]);
makespan = 663;
----------
assign = array1d(1..13 ,[4, 1, 3, 1, 1, 4, 4, 4, 4, 1, 2, 3, 4]);
next = array1d(1..13 ,[8, 5, 12, 10, 4, 7, 9, 13, 1, 11, 3, 6, 2]);
makespan = 654;
----------
assign = array1d(1..13 ,[4, 1, 2, 1, 1, 4, 4, 4, 4, 1, 2, 3, 4]);
next = array1d(1..13 ,[8, 5, 11, 10, 4, 7, 9, 13, 1, 3, 12, 6, 2]);
makespan = 633;
----------
assign = array1d(1..13 ,[4, 1, 1, 1, 4, 4, 4, 4, 1, 1, 2, 3, 4]);
next = array1d(1..13 ,[8, 4, 10, 9, 6, 7, 13, 5, 3, 11, 12, 1, 2]);
makespan = 619;
----------
assign = array1d(1..13 ,[4, 1, 1, 1, 4, 4, 4, 4, 1, 1, 2, 3, 4]);
next = array1d(1..13 ,[8, 4, 10, 9, 6, 7, 13, 5, 3, 11, 12, 1, 2]);
makespan = 613;
----------
assign = array1d(1..13 ,[4, 1, 3, 3, 1, 4, 4, 4, 3, 1, 2, 3, 4]);
next = array1d(1..13 ,[8, 5, 12, 9, 10, 7, 13, 6, 3, 11, 4, 1, 2]);
makespan = 612;
----------
assign = array1d(1..13 ,[4, 1, 3, 1, 1, 4, 4, 4, 1, 1, 2, 3, 4]);
next = array1d(1..13 ,[8, 9, 12, 10, 4, 7, 13, 6, 5, 11, 3, 1, 2]);
makespan = 609;
----------
assign = array1d(1..13 ,[4, 1, 1, 3, 3, 4, 4, 4, 1, 1, 2, 3, 4]);
next = array1d(1..13 ,[8, 9, 10, 5, 12, 7, 13, 6, 3, 11, 4, 1, 2]);
makespan = 596;
----------
assign = array1d(1..13 ,[4, 1, 3, 2, 2, 4, 4, 4, 1, 1, 2, 3, 4]);
next = array1d(1..13 ,[8, 9, 12, 5, 11, 7, 13, 6, 10, 4, 3, 1, 2]);
makespan = 592;
----------
assign = array1d(1..13 ,[4, 1, 2, 3, 3, 4, 4, 4, 1, 1, 2, 3, 4]);
next = array1d(1..13 ,[8, 9, 11, 5, 12, 7, 13, 6, 10, 3, 4, 1, 2]);
makespan = 583;
----------
assign = array1d(1..13 ,[4, 1, 2, 3, 3, 4, 4, 4, 1, 1, 2, 3, 4]);
next = array1d(1..13 ,[8, 9, 11, 5, 12, 7, 13, 6, 10, 3, 4, 1, 2]);
makespan = 581;
----------
assign = array1d(1..13 ,[4, 1, 3, 2, 2, 4, 4, 4, 1, 1, 2, 3, 4]);
next = array1d(1..13 ,[8, 9, 12, 5, 11, 7, 13, 6, 10, 4, 3, 1, 2]);
makespan = 580;
----------
assign = array1d(1..13 ,[4, 1, 3, 2, 2, 4, 4, 4, 1, 1, 2, 3, 4]);
next = array1d(1..13 ,[8, 9, 12, 5, 11, 7, 13, 6, 10, 4, 3, 1, 2]);
makespan = 579;
----------
assign = array1d(1..13 ,[4, 1, 3, 2, 2, 4, 4, 4, 1, 1, 2, 3, 4]);
next = array1d(1..13 ,[8, 9, 12, 5, 11, 7, 13, 6, 10, 4, 3, 1, 2]);
makespan = 578;
----------
assign = array1d(1..13 ,[4, 1, 2, 3, 3, 4, 4, 4, 1, 1, 2, 3, 4]);
next = array1d(1..13 ,[8, 9, 11, 5, 12, 7, 13, 6, 10, 3, 4, 1, 2]);
makespan = 565;
----------
assign = array1d(1..13 ,[4, 1, 3, 2, 2, 4, 4, 4, 1, 1, 2, 3, 4]);
next = array1d(1..13 ,[8, 9, 12, 5, 11, 7, 13, 6, 10, 4, 3, 1, 2]);
makespan = 557;
----------
assign = array1d(1..13 ,[4, 1, 3, 2, 2, 4, 4, 4, 1, 1, 2, 3, 4]);
next = array1d(1..13 ,[8, 9, 12, 5, 11, 7, 13, 6, 10, 4, 3, 1, 2]);
makespan = 552;
----------
assign = array1d(1..13 ,[4, 1, 2, 3, 3, 4, 4, 4, 1, 1, 2, 3, 4]);
next = array1d(1..13 ,[8, 9, 11, 5, 12, 7, 13, 6, 10, 3, 4, 1, 2]);
makespan = 551;
----------
assign = array1d(1..13 ,[4, 1, 3, 2, 2, 4, 4, 4, 1, 1, 2, 3, 4]);
next = array1d(1..13 ,[8, 9, 12, 5, 11, 7, 13, 6, 10, 4, 3, 1, 2]);
makespan = 542;
----------
assign = array1d(1..13 ,[4, 1, 2, 3, 3, 4, 4, 4, 1, 1, 2, 3, 4]);
next = array1d(1..13 ,[8, 9, 11, 5, 12, 7, 13, 6, 10, 3, 4, 1, 2]);
makespan = 541;
----------
assign = array1d(1..13 ,[4, 1, 3, 2, 2, 4, 4, 4, 1, 1, 2, 3, 4]);
next = array1d(1..13 ,[8, 9, 12, 5, 11, 7, 13, 6, 10, 4, 3, 1, 2]);
makespan = 531;
----------
assign = array1d(1..13 ,[4, 1, 2, 3, 3, 4, 4, 4, 1, 1, 2, 3, 4]);
next = array1d(1..13 ,[8, 9, 11, 5, 12, 7, 13, 6, 10, 3, 4, 1, 2]);
makespan = 522;
----------
assign = array1d(1..13 ,[4, 1, 3, 2, 2, 4, 4, 4, 1, 1, 2, 3, 4]);
next = array1d(1..13 ,[8, 9, 12, 5, 11, 7, 13, 6, 10, 4, 3, 1, 2]);
makespan = 520;
----------
assign = array1d(1..13 ,[4, 1, 2, 3, 3, 4, 4, 4, 1, 1, 2, 3, 4]);
next = array1d(1..13 ,[8, 9, 11, 5, 12, 7, 13, 6, 10, 3, 4, 1, 2]);
makespan = 512;
----------
assign = array1d(1..13 ,[4, 1, 3, 2, 2, 4, 4, 4, 1, 1, 2, 3, 4]);
next = array1d(1..13 ,[8, 9, 12, 5, 11, 7, 13, 6, 10, 4, 3, 1, 2]);
makespan = 504;
----------
assign = array1d(1..13 ,[4, 1, 2, 3, 3, 4, 4, 4, 1, 1, 2, 3, 4]);
next = array1d(1..13 ,[8, 9, 11, 5, 12, 7, 13, 6, 10, 3, 4, 1, 2]);
makespan = 497;
----------
assign = array1d(1..13 ,[4, 1, 3, 2, 2, 4, 4, 4, 1, 1, 2, 3, 4]);
next = array1d(1..13 ,[8, 9, 12, 5, 11, 7, 13, 6, 10, 4, 3, 1, 2]);
makespan = 496;
----------
assign = array1d(1..13 ,[4, 1, 2, 3, 3, 4, 4, 4, 1, 1, 2, 3, 4]);
next = array1d(1..13 ,[8, 9, 11, 5, 12, 7, 13, 6, 10, 3, 4, 1, 2]);
makespan = 492;
----------
assign = array1d(1..13 ,[4, 1, 3, 2, 2, 4, 4, 4, 1, 1, 2, 3, 4]);
next = array1d(1..13 ,[8, 9, 12, 5, 11, 7, 13, 6, 10, 4, 3, 1, 2]);
makespan = 485;
----------
assign = array1d(1..13 ,[4, 3, 4, 1, 3, 4, 1, 4, 3, 1, 2, 3, 4]);
next = array1d(1..13 ,[8, 5, 13, 10, 9, 3, 4, 6, 12, 11, 2, 1, 7]);
makespan = 482;
----------
assign = array1d(1..13 ,[4, 2, 4, 3, 2, 4, 1, 4, 2, 1, 2, 3, 4]);
next = array1d(1..13 ,[8, 5, 13, 12, 9, 3, 10, 6, 11, 2, 4, 1, 7]);
makespan = 481;
----------
assign = array1d(1..13 ,[4, 3, 1, 3, 1, 4, 1, 4, 3, 1, 2, 3, 4]);
next = array1d(1..13 ,[8, 4, 5, 12, 10, 1, 3, 13, 2, 11, 9, 6, 7]);
makespan = 480;
----------
assign = array1d(1..13 ,[4, 2, 2, 2, 3, 4, 1, 4, 3, 1, 2, 3, 4]);
next = array1d(1..13 ,[8, 11, 2, 3, 9, 1, 10, 13, 12, 4, 5, 6, 7]);
makespan = 473;
----------
assign = array1d(1..13 ,[4, 3, 3, 3, 2, 4, 1, 4, 2, 1, 2, 3, 4]);
next = array1d(1..13 ,[8, 12, 2, 3, 9, 1, 10, 13, 11, 5, 4, 6, 7]);
makespan = 465;
----------
assign = array1d(1..13 ,[4, 3, 3, 2, 3, 4, 1, 4, 3, 1, 2, 3, 4]);
next = array1d(1..13 ,[8, 5, 2, 11, 12, 1, 10, 13, 3, 4, 9, 6, 7]);
makespan = 461;
----------
assign = array1d(1..13 ,[4, 1, 1, 1, 1, 4, 3, 4, 3, 1, 2, 3, 4]);
next = array1d(1..13 ,[8, 5, 2, 3, 10, 1, 9, 13, 12, 11, 7, 6, 4]);
makespan = 460;
----------
assign = array1d(1..13 ,[1, 4, 4, 3, 4, 2, 1, 2, 2, 1, 2, 3, 4]);
next = array1d(1..13 ,[7, 5, 2, 12, 13, 8, 10, 11, 6, 9, 4, 3, 1]);
makespan = 456;
----------
assign = array1d(1..13 ,[1, 4, 4, 4, 1, 3, 1, 3, 3, 1, 2, 3, 4]);
next = array1d(1..13 ,[5, 13, 2, 3, 7, 8, 10, 12, 6, 11, 9, 4, 1]);
makespan = 454;
----------
assign = array1d(1..13 ,[2, 4, 1, 4, 4, 3, 1, 3, 3, 1, 2, 3, 4]);
next = array1d(1..13 ,[11, 5, 10, 2, 13, 8, 3, 12, 6, 1, 9, 4, 7]);
makespan = 450;
----------
assign = array1d(1..13 ,[2, 1, 4, 4, 2, 1, 4, 1, 2, 1, 2, 3, 4]);
next = array1d(1..13 ,[11, 6, 7, 3, 9, 8, 13, 10, 1, 5, 12, 4, 2]);
makespan = 449;
----------
assign = array1d(1..13 ,[2, 1, 4, 4, 2, 1, 4, 1, 2, 1, 2, 3, 4]);
next = array1d(1..13 ,[11, 6, 7, 3, 9, 8, 13, 10, 1, 5, 12, 4, 2]);
makespan = 445;
----------
assign = array1d(1..13 ,[2, 1, 4, 4, 2, 1, 4, 1, 2, 1, 2, 3, 4]);
next = array1d(1..13 ,[11, 6, 7, 3, 9, 8, 13, 10, 1, 5, 12, 4, 2]);
makespan = 444;
----------
assign = array1d(1..13 ,[2, 1, 4, 4, 2, 1, 4, 1, 2, 1, 2, 3, 4]);
next = array1d(1..13 ,[11, 6, 7, 3, 9, 8, 13, 10, 1, 5, 12, 4, 2]);
makespan = 442;
----------
assign = array1d(1..13 ,[2, 1, 4, 4, 2, 1, 4, 1, 2, 1, 2, 3, 4]);
next = array1d(1..13 ,[11, 6, 7, 3, 9, 8, 13, 10, 1, 5, 12, 4, 2]);
makespan = 440;
----------
assign = array1d(1..13 ,[2, 1, 4, 4, 2, 1, 4, 1, 2, 1, 2, 3, 4]);
next = array1d(1..13 ,[11, 6, 7, 3, 9, 8, 13, 10, 1, 5, 12, 4, 2]);
makespan = 438;
----------
assign = array1d(1..13 ,[2, 1, 4, 4, 2, 1, 4, 1, 2, 1, 2, 3, 4]);
next = array1d(1..13 ,[11, 6, 7, 3, 9, 8, 13, 10, 1, 5, 12, 4, 2]);
makespan = 437;
----------
assign = array1d(1..13 ,[2, 1, 4, 4, 2, 1, 4, 1, 2, 1, 2, 3, 4]);
next = array1d(1..13 ,[11, 6, 7, 3, 9, 8, 13, 10, 1, 5, 12, 4, 2]);
makespan = 435;
----------
assign = array1d(1..13 ,[2, 1, 4, 4, 2, 1, 4, 1, 2, 1, 2, 3, 4]);
next = array1d(1..13 ,[11, 6, 7, 3, 9, 8, 13, 10, 1, 5, 12, 4, 2]);
makespan = 433;
----------
assign = array1d(1..13 ,[2, 1, 4, 4, 2, 1, 4, 1, 2, 1, 2, 3, 4]);
next = array1d(1..13 ,[11, 6, 7, 3, 9, 8, 13, 10, 1, 5, 12, 4, 2]);
makespan = 430;
----------
assign = array1d(1..13 ,[2, 1, 4, 4, 2, 1, 4, 1, 2, 1, 2, 3, 4]);
next = array1d(1..13 ,[11, 6, 7, 3, 9, 8, 13, 10, 1, 5, 12, 4, 2]);
makespan = 429;
----------
assign = array1d(1..13 ,[2, 1, 4, 4, 2, 1, 4, 1, 2, 1, 2, 3, 4]);
next = array1d(1..13 ,[11, 6, 7, 3, 9, 8, 13, 10, 1, 5, 12, 4, 2]);
makespan = 427;
----------
assign = array1d(1..13 ,[2, 1, 4, 4, 2, 1, 4, 1, 2, 1, 2, 3, 4]);
next = array1d(1..13 ,[11, 6, 7, 3, 9, 8, 13, 10, 1, 5, 12, 4, 2]);
makespan = 425;
----------
assign = array1d(1..13 ,[2, 1, 4, 4, 2, 1, 4, 1, 2, 1, 2, 3, 4]);
next = array1d(1..13 ,[11, 6, 7, 3, 9, 8, 13, 10, 1, 5, 12, 4, 2]);
makespan = 424;
----------
assign = array1d(1..13 ,[2, 1, 4, 4, 2, 1, 4, 1, 2, 1, 2, 3, 4]);
next = array1d(1..13 ,[11, 6, 7, 3, 9, 8, 13, 10, 1, 5, 12, 4, 2]);
makespan = 419;
----------
assign = array1d(1..13 ,[2, 1, 4, 4, 2, 1, 4, 1, 2, 1, 2, 3, 4]);
next = array1d(1..13 ,[11, 6, 7, 3, 9, 8, 13, 10, 1, 5, 12, 4, 2]);
makespan = 416;
----------
assign = array1d(1..13 ,[2, 1, 4, 4, 2, 1, 4, 1, 2, 1, 2, 3, 4]);
next = array1d(1..13 ,[11, 6, 7, 3, 9, 8, 13, 10, 1, 5, 12, 4, 2]);
makespan = 409;
----------
assign = array1d(1..13 ,[2, 1, 4, 4, 2, 1, 4, 1, 2, 1, 2, 3, 4]);
next = array1d(1..13 ,[11, 6, 7, 3, 9, 8, 13, 10, 1, 5, 12, 4, 2]);
makespan = 402;
----------
assign = array1d(1..13 ,[3, 1, 4, 4, 3, 1, 4, 1, 3, 1, 2, 3, 4]);
next = array1d(1..13 ,[12, 6, 7, 3, 9, 8, 13, 10, 1, 11, 5, 4, 2]);
makespan = 401;
----------
assign = array1d(1..13 ,[2, 1, 4, 4, 2, 1, 4, 1, 2, 1, 2, 3, 4]);
next = array1d(1..13 ,[11, 6, 7, 3, 9, 8, 13, 10, 1, 5, 12, 4, 2]);
makespan = 396;
----------
assign = array1d(1..13 ,[2, 1, 4, 4, 2, 1, 4, 1, 2, 1, 2, 3, 4]);
next = array1d(1..13 ,[11, 6, 7, 3, 9, 8, 13, 10, 1, 5, 12, 4, 2]);
makespan = 394;
----------
assign = array1d(1..13 ,[2, 2, 4, 4, 3, 2, 4, 3, 3, 1, 2, 3, 4]);
next = array1d(1..13 ,[11, 6, 7, 13, 12, 1, 4, 9, 5, 2, 8, 3, 10]);
makespan = 392;
----------
assign = array1d(1..13 ,[4, 4, 1, 1, 3, 4, 1, 3, 3, 1, 2, 3, 4]);
next = array1d(1..13 ,[13, 6, 7, 3, 12, 1, 10, 9, 5, 11, 8, 2, 4]);
makespan = 390;
----------
assign = array1d(1..13 ,[2, 2, 4, 1, 3, 2, 4, 4, 3, 1, 2, 3, 4]);
next = array1d(1..13 ,[11, 6, 7, 10, 12, 1, 13, 3, 5, 2, 9, 8, 4]);
makespan = 389;
----------
assign = array1d(1..13 ,[4, 4, 1, 1, 3, 4, 1, 3, 3, 1, 2, 3, 4]);
next = array1d(1..13 ,[13, 6, 7, 3, 8, 1, 10, 12, 5, 11, 9, 2, 4]);
makespan = 388;
----------
assign = array1d(1..13 ,[4, 4, 1, 1, 3, 4, 1, 3, 3, 1, 2, 3, 4]);
next = array1d(1..13 ,[13, 6, 7, 3, 8, 1, 10, 12, 5, 11, 9, 2, 4]);
makespan = 381;
----------
assign = array1d(1..13 ,[4, 4, 1, 1, 3, 4, 1, 3, 3, 1, 2, 3, 4]);
next = array1d(1..13 ,[13, 6, 7, 3, 8, 1, 10, 12, 5, 11, 9, 2, 4]);
makespan = 380;
----------
assign = array1d(1..13 ,[4, 4, 1, 1, 3, 4, 1, 3, 3, 1, 2, 3, 4]);
next = array1d(1..13 ,[13, 6, 7, 3, 8, 1, 10, 12, 5, 11, 9, 2, 4]);
makespan = 379;
----------
assign = array1d(1..13 ,[4, 4, 1, 1, 3, 4, 1, 3, 3, 1, 2, 3, 4]);
next = array1d(1..13 ,[13, 6, 7, 3, 8, 1, 10, 12, 5, 11, 9, 2, 4]);
makespan = 377;
----------
assign = array1d(1..13 ,[4, 4, 1, 1, 3, 4, 1, 3, 3, 1, 2, 3, 4]);
next = array1d(1..13 ,[13, 6, 7, 3, 8, 1, 10, 12, 5, 11, 9, 2, 4]);
makespan = 375;
----------
assign = array1d(1..13 ,[4, 4, 1, 1, 3, 4, 1, 3, 3, 1, 2, 3, 4]);
next = array1d(1..13 ,[13, 6, 7, 3, 8, 1, 10, 12, 5, 11, 9, 2, 4]);
makespan = 374;
----------
assign = array1d(1..13 ,[4, 4, 1, 1, 3, 4, 1, 3, 3, 1, 2, 3, 4]);
next = array1d(1..13 ,[13, 6, 7, 3, 8, 1, 10, 12, 5, 11, 9, 2, 4]);
makespan = 372;
----------
assign = array1d(1..13 ,[4, 4, 1, 1, 3, 4, 1, 3, 3, 1, 2, 3, 4]);
next = array1d(1..13 ,[13, 6, 7, 3, 8, 1, 10, 12, 5, 11, 9, 2, 4]);
makespan = 370;
----------
assign = array1d(1..13 ,[4, 4, 1, 1, 3, 4, 1, 3, 3, 1, 2, 3, 4]);
next = array1d(1..13 ,[2, 6, 7, 3, 8, 13, 10, 12, 5, 11, 9, 1, 4]);
makespan = 369;
----------
assign = array1d(1..13 ,[4, 4, 1, 1, 3, 4, 1, 3, 3, 1, 2, 3, 4]);
next = array1d(1..13 ,[2, 6, 7, 3, 8, 13, 10, 12, 5, 11, 9, 1, 4]);
makespan = 368;
----------
assign = array1d(1..13 ,[4, 4, 1, 1, 3, 4, 1, 3, 3, 1, 2, 3, 4]);
next = array1d(1..13 ,[2, 6, 7, 3, 8, 13, 10, 12, 5, 11, 9, 1, 4]);
makespan = 366;
----------
assign = array1d(1..13 ,[4, 4, 1, 1, 3, 4, 1, 3, 3, 1, 2, 3, 4]);
next = array1d(1..13 ,[2, 6, 7, 3, 8, 13, 10, 12, 5, 11, 9, 1, 4]);
makespan = 365;
----------
assign = array1d(1..13 ,[4, 4, 1, 1, 3, 4, 1, 3, 3, 1, 2, 3, 4]);
next = array1d(1..13 ,[2, 6, 7, 3, 8, 13, 10, 12, 5, 11, 9, 1, 4]);
makespan = 364;
----------
assign = array1d(1..13 ,[4, 4, 1, 1, 3, 4, 1, 3, 3, 1, 2, 3, 4]);
next = array1d(1..13 ,[2, 6, 7, 3, 8, 13, 10, 12, 5, 11, 9, 1, 4]);
makespan = 362;
----------
assign = array1d(1..13 ,[4, 4, 1, 1, 3, 4, 1, 3, 3, 1, 2, 3, 4]);
next = array1d(1..13 ,[2, 6, 7, 3, 8, 13, 10, 12, 5, 11, 9, 1, 4]);
makespan = 360;
----------
assign = array1d(1..13 ,[4, 4, 1, 1, 3, 4, 1, 3, 3, 1, 2, 3, 4]);
next = array1d(1..13 ,[2, 6, 7, 3, 8, 13, 10, 12, 5, 11, 9, 1, 4]);
makespan = 359;
----------
assign = array1d(1..13 ,[4, 3, 4, 1, 2, 3, 1, 4, 2, 1, 2, 3, 4]);
next = array1d(1..13 ,[8, 6, 13, 7, 11, 12, 10, 3, 5, 9, 2, 1, 4]);
makespan = 356;
----------
assign = array1d(1..13 ,[4, 3, 4, 2, 4, 3, 2, 1, 1, 1, 2, 3, 4]);
next = array1d(1..13 ,[13, 6, 1, 7, 3, 12, 11, 10, 8, 4, 2, 5, 9]);
makespan = 353;
----------
assign = array1d(1..13 ,[4, 1, 1, 3, 1, 4, 3, 4, 3, 1, 2, 3, 4]);
next = array1d(1..13 ,[13, 10, 5, 7, 2, 1, 12, 6, 4, 11, 9, 8, 3]);
makespan = 351;
----------
assign = array1d(1..13 ,[4, 1, 4, 3, 4, 3, 1, 2, 2, 1, 2, 3, 4]);
next = array1d(1..13 ,[13, 10, 5, 6, 1, 12, 2, 11, 8, 9, 4, 3, 7]);
makespan = 349;
----------
assign = array1d(1..13 ,[1, 4, 4, 3, 2, 4, 1, 3, 3, 1, 2, 3, 4]);
next = array1d(1..13 ,[7, 6, 13, 9, 11, 3, 10, 4, 12, 5, 8, 2, 1]);
makespan = 348;
----------
assign = array1d(1..13 ,[1, 4, 1, 3, 1, 4, 2, 3, 3, 1, 2, 3, 4]);
next = array1d(1..13 ,[3, 6, 5, 9, 10, 13, 11, 4, 12, 7, 8, 2, 1]);
makespan = 347;
----------
assign = array1d(1..13 ,[1, 4, 1, 2, 1, 4, 2, 2, 3, 1, 2, 3, 4]);
next = array1d(1..13 ,[3, 6, 5, 7, 10, 13, 11, 4, 12, 8, 9, 2, 1]);
makespan = 342;
----------
assign = array1d(1..13 ,[1, 4, 3, 2, 3, 4, 2, 2, 3, 1, 2, 3, 4]);
next = array1d(1..13 ,[10, 6, 5, 7, 12, 13, 11, 4, 3, 8, 9, 2, 1]);
makespan = 341;
----------
assign = array1d(1..13 ,[1, 4, 2, 3, 2, 4, 3, 3, 1, 1, 2, 3, 4]);
next = array1d(1..13 ,[10, 6, 5, 7, 11, 13, 12, 4, 1, 3, 8, 2, 9]);
makespan = 338;
----------
assign = array1d(1..13 ,[2, 4, 1, 3, 1, 4, 3, 3, 2, 1, 2, 3, 4]);
next = array1d(1..13 ,[9, 6, 5, 7, 10, 13, 12, 4, 11, 1, 8, 2, 3]);
makespan = 337;
----------
assign = array1d(1..13 ,[2, 1, 4, 3, 4, 1, 3, 3, 4, 1, 2, 3, 4]);
next = array1d(1..13 ,[11, 6, 5, 7, 13, 10, 12, 4, 3, 1, 8, 9, 2]);
makespan = 331;
----------
assign = array1d(1..13 ,[2, 1, 4, 3, 4, 1, 3, 3, 4, 1, 2, 3, 4]);
next = array1d(1..13 ,[11, 6, 5, 7, 13, 10, 12, 4, 3, 1, 8, 9, 2]);
makespan = 330;
----------
assign = array1d(1..13 ,[2, 1, 4, 3, 4, 1, 3, 3, 4, 1, 2, 3, 4]);
next = array1d(1..13 ,[11, 6, 5, 7, 13, 10, 12, 4, 3, 1, 8, 9, 2]);
makespan = 329;
----------
assign = array1d(1..13 ,[2, 1, 4, 3, 4, 1, 3, 3, 4, 1, 2, 3, 4]);
next = array1d(1..13 ,[11, 6, 5, 7, 13, 10, 12, 4, 3, 1, 8, 9, 2]);
makespan = 326;
----------
assign = array1d(1..13 ,[2, 1, 4, 3, 4, 1, 3, 3, 4, 1, 2, 3, 4]);
next = array1d(1..13 ,[11, 6, 5, 7, 13, 10, 12, 4, 3, 1, 8, 9, 2]);
makespan = 325;
----------
assign = array1d(1..13 ,[2, 1, 4, 3, 4, 1, 3, 3, 4, 1, 2, 3, 4]);
next = array1d(1..13 ,[11, 6, 5, 7, 13, 10, 12, 4, 3, 1, 8, 9, 2]);
makespan = 323;
----------
assign = array1d(1..13 ,[2, 1, 4, 3, 4, 1, 3, 3, 4, 1, 2, 3, 4]);
next = array1d(1..13 ,[11, 6, 5, 7, 13, 10, 12, 4, 3, 1, 8, 9, 2]);
makespan = 321;
----------
assign = array1d(1..13 ,[2, 1, 4, 3, 4, 1, 3, 3, 4, 1, 2, 3, 4]);
next = array1d(1..13 ,[11, 6, 5, 7, 13, 10, 12, 4, 3, 1, 8, 9, 2]);
makespan = 320;
----------
assign = array1d(1..13 ,[2, 2, 1, 3, 1, 4, 3, 3, 4, 1, 2, 3, 4]);
next = array1d(1..13 ,[2, 11, 5, 7, 10, 9, 12, 4, 13, 1, 8, 6, 3]);
makespan = 318;
----------
assign = array1d(1..13 ,[2, 2, 1, 3, 1, 4, 3, 3, 4, 1, 2, 3, 4]);
next = array1d(1..13 ,[2, 11, 5, 7, 10, 9, 12, 4, 13, 1, 8, 6, 3]);
makespan = 316;
----------
assign = array1d(1..13 ,[2, 2, 3, 4, 3, 1, 3, 4, 1, 1, 2, 3, 4]);
next = array1d(1..13 ,[11, 1, 5, 13, 12, 9, 3, 4, 10, 2, 7, 8, 6]);
makespan = 311;
----------
assign = array1d(1..13 ,[2, 4, 3, 4, 3, 1, 3, 1, 2, 1, 2, 3, 4]);
next = array1d(1..13 ,[9, 4, 5, 13, 12, 10, 3, 6, 11, 1, 7, 2, 8]);
makespan = 309;
----------
assign = array1d(1..13 ,[3, 2, 1, 1, 1, 2, 4, 4, 3, 1, 2, 3, 4]);
next = array1d(1..13 ,[9, 11, 10, 5, 3, 2, 13, 7, 12, 6, 1, 8, 4]);
makespan = 308;
----------
assign = array1d(1..13 ,[4, 1, 3, 3, 4, 2, 2, 3, 1, 1, 2, 3, 4]);
next = array1d(1..13 ,[5, 10, 8, 3, 13, 11, 6, 12, 2, 7, 4, 1, 9]);
makespan = 307;
----------
assign = array1d(1..13 ,[4, 2, 3, 3, 4, 1, 2, 3, 1, 1, 2, 3, 4]);
next = array1d(1..13 ,[5, 7, 8, 3, 13, 9, 11, 12, 10, 2, 4, 1, 6]);
makespan = 306;
----------
assign = array1d(1..13 ,[2, 4, 3, 1, 2, 1, 4, 3, 3, 1, 2, 3, 4]);
next = array1d(1..13 ,[5, 7, 8, 10, 11, 4, 13, 12, 3, 1, 9, 2, 6]);
makespan = 305;
----------
assign = array1d(1..13 ,[1, 3, 4, 2, 4, 4, 1, 3, 2, 1, 2, 3, 4]);
next = array1d(1..13 ,[7, 12, 6, 11, 3, 13, 10, 2, 4, 9, 8, 5, 1]);
makespan = 304;
----------
assign = array1d(1..13 ,[1, 2, 4, 3, 4, 3, 4, 2, 1, 1, 2, 3, 4]);
next = array1d(1..13 ,[10, 11, 13, 12, 3, 4, 5, 2, 1, 8, 6, 7, 9]);
makespan = 303;
----------
assign = array1d(1..13 ,[1, 2, 4, 3, 4, 3, 4, 1, 2, 1, 2, 3, 4]);
next = array1d(1..13 ,[10, 11, 13, 12, 3, 4, 5, 1, 2, 9, 6, 7, 8]);
makespan = 302;
----------
assign = array1d(1..13 ,[1, 2, 4, 3, 4, 3, 4, 1, 2, 1, 2, 3, 4]);
next = array1d(1..13 ,[10, 11, 13, 12, 3, 4, 5, 1, 2, 9, 6, 7, 8]);
makespan = 301;
----------
assign = array1d(1..13 ,[1, 2, 4, 3, 4, 3, 4, 1, 2, 1, 2, 3, 4]);
next = array1d(1..13 ,[10, 11, 13, 12, 3, 4, 5, 1, 2, 9, 6, 7, 8]);
makespan = 300;
----------
assign = array1d(1..13 ,[1, 2, 4, 3, 4, 3, 4, 1, 2, 1, 2, 3, 4]);
next = array1d(1..13 ,[10, 11, 13, 12, 3, 4, 5, 1, 2, 9, 6, 7, 8]);
makespan = 299;
----------
assign = array1d(1..13 ,[1, 2, 4, 3, 4, 3, 4, 1, 2, 1, 2, 3, 4]);
next = array1d(1..13 ,[10, 11, 13, 12, 3, 4, 5, 1, 2, 9, 6, 7, 8]);
makespan = 298;
----------
assign = array1d(1..13 ,[1, 2, 4, 3, 4, 3, 4, 1, 2, 1, 2, 3, 4]);
next = array1d(1..13 ,[10, 11, 13, 12, 3, 4, 5, 1, 2, 9, 6, 7, 8]);
makespan = 297;
----------
assign = array1d(1..13 ,[1, 2, 4, 3, 4, 3, 4, 1, 2, 1, 2, 3, 4]);
next = array1d(1..13 ,[10, 11, 13, 12, 3, 4, 5, 1, 2, 9, 6, 7, 8]);
makespan = 296;
----------
assign = array1d(1..13 ,[1, 2, 4, 3, 4, 3, 4, 1, 2, 1, 2, 3, 4]);
next = array1d(1..13 ,[10, 11, 13, 12, 3, 4, 5, 1, 2, 9, 6, 7, 8]);
makespan = 295;
----------
assign = array1d(1..13 ,[1, 2, 4, 3, 4, 3, 4, 1, 2, 1, 2, 3, 4]);
next = array1d(1..13 ,[10, 11, 13, 12, 3, 4, 5, 1, 2, 9, 6, 7, 8]);
makespan = 294;
----------
assign = array1d(1..13 ,[1, 1, 3, 4, 2, 4, 2, 3, 3, 1, 2, 3, 4]);
next = array1d(1..13 ,[10, 1, 8, 13, 11, 4, 5, 12, 3, 7, 9, 6, 2]);
makespan = 293;
----------
assign = array1d(1..13 ,[3, 2, 1, 3, 2, 4, 1, 1, 4, 1, 2, 3, 4]);
next = array1d(1..13 ,[12, 5, 7, 1, 11, 13, 8, 10, 6, 2, 4, 9, 3]);
makespan = 292;
----------
assign = array1d(1..13 ,[4, 2, 3, 4, 2, 1, 1, 3, 3, 1, 2, 3, 4]);
next = array1d(1..13 ,[4, 11, 8, 13, 2, 7, 10, 12, 3, 5, 9, 1, 6]);
makespan = 291;
----------
assign = array1d(1..13 ,[1, 2, 3, 1, 2, 4, 4, 3, 3, 1, 2, 3, 4]);
next = array1d(1..13 ,[10, 5, 8, 1, 11, 13, 6, 12, 3, 2, 9, 7, 4]);
makespan = 290;
----------
assign = array1d(1..13 ,[4, 4, 3, 1, 1, 2, 3, 3, 2, 1, 2, 3, 4]);
next = array1d(1..13 ,[2, 13, 12, 10, 4, 11, 3, 7, 6, 9, 8, 1, 5]);
makespan = 289;
----------
assign = array1d(1..13 ,[4, 4, 3, 1, 1, 2, 3, 3, 2, 1, 2, 3, 4]);
next = array1d(1..13 ,[2, 13, 12, 10, 4, 11, 3, 7, 6, 9, 8, 1, 5]);
makespan = 288;
----------
assign = array1d(1..13 ,[4, 4, 3, 1, 1, 2, 3, 3, 2, 1, 2, 3, 4]);
next = array1d(1..13 ,[2, 13, 12, 10, 4, 11, 3, 7, 6, 9, 8, 1, 5]);
makespan = 287;
----------
assign = array1d(1..13 ,[4, 4, 3, 1, 1, 2, 3, 3, 2, 1, 2, 3, 4]);
next = array1d(1..13 ,[2, 13, 12, 10, 4, 11, 3, 7, 6, 9, 8, 1, 5]);
makespan = 286;
----------
assign = array1d(1..13 ,[4, 4, 3, 1, 1, 2, 3, 3, 2, 1, 2, 3, 4]);
next = array1d(1..13 ,[2, 13, 12, 10, 4, 11, 3, 7, 6, 9, 8, 1, 5]);
makespan = 285;
----------
assign = array1d(1..13 ,[4, 4, 3, 1, 1, 2, 3, 3, 2, 1, 2, 3, 4]);
next = array1d(1..13 ,[2, 13, 12, 10, 4, 11, 3, 7, 6, 9, 8, 1, 5]);
makespan = 284;
----------
assign = array1d(1..13 ,[4, 4, 3, 1, 1, 2, 3, 3, 2, 1, 2, 3, 4]);
next = array1d(1..13 ,[2, 13, 12, 10, 4, 11, 3, 7, 6, 9, 8, 1, 5]);
makespan = 283;
----------
assign = array1d(1..13 ,[4, 4, 3, 1, 1, 2, 3, 3, 2, 1, 2, 3, 4]);
next = array1d(1..13 ,[2, 13, 12, 10, 4, 11, 3, 7, 6, 9, 8, 1, 5]);
makespan = 282;
----------
assign = array1d(1..13 ,[4, 4, 3, 1, 1, 2, 3, 3, 2, 1, 2, 3, 4]);
next = array1d(1..13 ,[2, 13, 12, 10, 4, 11, 3, 7, 6, 9, 8, 1, 5]);
makespan = 281;
----------
assign = array1d(1..13 ,[4, 4, 3, 1, 1, 2, 3, 3, 2, 1, 2, 3, 4]);
next = array1d(1..13 ,[2, 13, 12, 10, 4, 11, 3, 7, 6, 9, 8, 1, 5]);
makespan = 280;
----------
assign = array1d(1..13 ,[4, 4, 3, 1, 1, 2, 3, 3, 2, 1, 2, 3, 4]);
next = array1d(1..13 ,[2, 13, 12, 10, 4, 11, 3, 7, 6, 9, 8, 1, 5]);
makespan = 279;
----------
==========
	Command being timed: "mzn-chuffed lbbd-datasets/Rabadi-2006/dzn-balanced/model.mzn lbbd-datasets/Rabadi-2006/dzn-balanced/9on4Rp50Rs50_11Ameer.dzn"
	User time (seconds): 0.43
	System time (seconds): 0.02
	Percent of CPU this job got: 0%
	Elapsed (wall clock) time (h:mm:ss or m:ss): 1:22.64
	Average shared text size (kbytes): 0
	Average unshared data size (kbytes): 0
	Average stack size (kbytes): 0
	Average total size (kbytes): 0
	Maximum resident set size (kbytes): 42576
	Average resident set size (kbytes): 0
	Major (requiring I/O) page faults: 0
	Minor (reclaiming a frame) page faults: 3871
	Voluntary context switches: 433
	Involuntary context switches: 4
	Swaps: 0
	File system inputs: 0
	File system outputs: 472
	Socket messages sent: 0
	Socket messages received: 0
	Signals delivered: 0
	Page size (bytes): 4096
	Exit status: 0
