+ /usr/bin/timeout 600 /usr/bin/time -v mzn-chuffed lbbd-datasets/Rabadi-2006/dzn-s-dominant/model.mzn lbbd-datasets/Rabadi-2006/dzn-s-dominant/8on4Rp50Rs50_4Ameer.dzn
% No search annotation given. Defaulting to VSIDS!
assign = array1d(1..12 ,[4, 4, 4, 4, 4, 4, 4, 4, 1, 2, 3, 4]);
next = array1d(1..12 ,[2, 3, 4, 5, 6, 7, 8, 12, 10, 11, 1, 9]);
makespan = 1569;
----------
assign = array1d(1..12 ,[4, 4, 4, 4, 4, 4, 4, 4, 1, 2, 3, 4]);
next = array1d(1..12 ,[3, 4, 2, 5, 6, 7, 8, 12, 10, 11, 1, 9]);
makespan = 1564;
----------
assign = array1d(1..12 ,[4, 1, 4, 4, 4, 4, 4, 4, 1, 2, 3, 4]);
next = array1d(1..12 ,[5, 9, 12, 3, 6, 7, 4, 1, 10, 11, 8, 2]);
makespan = 1519;
----------
assign = array1d(1..12 ,[4, 1, 4, 4, 4, 4, 4, 4, 1, 2, 3, 4]);
next = array1d(1..12 ,[5, 9, 12, 3, 6, 7, 4, 1, 10, 11, 8, 2]);
makespan = 1514;
----------
assign = array1d(1..12 ,[4, 1, 4, 4, 4, 4, 4, 4, 1, 2, 3, 4]);
next = array1d(1..12 ,[5, 9, 12, 3, 6, 7, 4, 1, 10, 11, 8, 2]);
makespan = 1513;
----------
assign = array1d(1..12 ,[4, 1, 4, 4, 4, 4, 4, 4, 1, 2, 3, 4]);
next = array1d(1..12 ,[5, 9, 12, 3, 6, 7, 4, 1, 10, 11, 8, 2]);
makespan = 1507;
----------
assign = array1d(1..12 ,[4, 1, 4, 4, 4, 4, 4, 4, 1, 2, 3, 4]);
next = array1d(1..12 ,[5, 9, 12, 3, 6, 7, 4, 1, 10, 11, 8, 2]);
makespan = 1503;
----------
assign = array1d(1..12 ,[4, 1, 4, 4, 4, 4, 4, 4, 1, 2, 3, 4]);
next = array1d(1..12 ,[5, 9, 12, 3, 6, 7, 4, 1, 10, 11, 8, 2]);
makespan = 1488;
----------
assign = array1d(1..12 ,[4, 1, 4, 4, 4, 4, 4, 4, 1, 2, 3, 4]);
next = array1d(1..12 ,[5, 9, 12, 3, 6, 7, 4, 1, 10, 11, 8, 2]);
makespan = 1482;
----------
assign = array1d(1..12 ,[4, 1, 4, 4, 4, 4, 4, 4, 1, 2, 3, 4]);
next = array1d(1..12 ,[5, 9, 12, 3, 6, 7, 4, 1, 10, 11, 8, 2]);
makespan = 1471;
----------
assign = array1d(1..12 ,[4, 1, 4, 4, 4, 4, 4, 4, 1, 2, 3, 4]);
next = array1d(1..12 ,[5, 9, 12, 3, 6, 7, 4, 1, 10, 11, 8, 2]);
makespan = 1464;
----------
assign = array1d(1..12 ,[4, 1, 4, 4, 4, 4, 4, 4, 1, 2, 3, 4]);
next = array1d(1..12 ,[5, 9, 12, 3, 6, 7, 4, 1, 10, 11, 8, 2]);
makespan = 1463;
----------
assign = array1d(1..12 ,[4, 1, 4, 4, 4, 4, 4, 4, 1, 2, 3, 4]);
next = array1d(1..12 ,[5, 9, 12, 3, 6, 7, 4, 1, 10, 11, 8, 2]);
makespan = 1458;
----------
assign = array1d(1..12 ,[4, 1, 4, 4, 4, 4, 4, 4, 1, 2, 3, 4]);
next = array1d(1..12 ,[5, 9, 12, 3, 6, 7, 4, 1, 10, 11, 8, 2]);
makespan = 1457;
----------
assign = array1d(1..12 ,[4, 1, 4, 4, 4, 4, 4, 4, 1, 2, 3, 4]);
next = array1d(1..12 ,[5, 9, 12, 3, 6, 7, 4, 1, 10, 11, 8, 2]);
makespan = 1453;
----------
assign = array1d(1..12 ,[4, 1, 4, 4, 4, 4, 4, 4, 1, 2, 3, 4]);
next = array1d(1..12 ,[5, 9, 12, 3, 6, 7, 4, 1, 10, 11, 8, 2]);
makespan = 1452;
----------
assign = array1d(1..12 ,[4, 1, 4, 4, 4, 4, 4, 4, 1, 2, 3, 4]);
next = array1d(1..12 ,[5, 9, 12, 3, 6, 7, 4, 1, 10, 11, 8, 2]);
makespan = 1451;
----------
assign = array1d(1..12 ,[4, 1, 4, 4, 4, 4, 4, 4, 1, 2, 3, 4]);
next = array1d(1..12 ,[5, 9, 12, 3, 6, 7, 4, 1, 10, 11, 8, 2]);
makespan = 1448;
----------
assign = array1d(1..12 ,[4, 1, 4, 4, 4, 4, 4, 4, 1, 2, 3, 4]);
next = array1d(1..12 ,[5, 9, 12, 3, 6, 7, 4, 1, 10, 11, 8, 2]);
makespan = 1447;
----------
assign = array1d(1..12 ,[4, 1, 4, 4, 4, 4, 4, 4, 1, 2, 3, 4]);
next = array1d(1..12 ,[5, 9, 12, 3, 6, 7, 4, 1, 10, 11, 8, 2]);
makespan = 1441;
----------
assign = array1d(1..12 ,[4, 1, 4, 4, 4, 4, 4, 4, 1, 2, 3, 4]);
next = array1d(1..12 ,[5, 9, 12, 3, 6, 7, 4, 1, 10, 11, 8, 2]);
makespan = 1438;
----------
assign = array1d(1..12 ,[4, 1, 4, 4, 4, 4, 4, 4, 1, 2, 3, 4]);
next = array1d(1..12 ,[5, 9, 12, 3, 6, 7, 4, 1, 10, 11, 8, 2]);
makespan = 1433;
----------
assign = array1d(1..12 ,[4, 1, 4, 4, 4, 4, 4, 4, 1, 2, 3, 4]);
next = array1d(1..12 ,[5, 9, 12, 3, 6, 7, 4, 1, 10, 11, 8, 2]);
makespan = 1432;
----------
assign = array1d(1..12 ,[4, 1, 4, 4, 4, 4, 4, 4, 1, 2, 3, 4]);
next = array1d(1..12 ,[5, 9, 12, 3, 6, 7, 4, 1, 10, 11, 8, 2]);
makespan = 1427;
----------
assign = array1d(1..12 ,[4, 1, 4, 4, 4, 4, 4, 4, 1, 2, 3, 4]);
next = array1d(1..12 ,[5, 9, 12, 3, 6, 7, 4, 1, 10, 11, 8, 2]);
makespan = 1426;
----------
assign = array1d(1..12 ,[4, 1, 4, 4, 4, 4, 4, 4, 1, 2, 3, 4]);
next = array1d(1..12 ,[5, 9, 12, 3, 6, 7, 4, 1, 10, 11, 8, 2]);
makespan = 1425;
----------
assign = array1d(1..12 ,[4, 4, 1, 4, 4, 4, 4, 4, 1, 2, 3, 4]);
next = array1d(1..12 ,[5, 12, 9, 2, 6, 7, 4, 1, 10, 11, 8, 3]);
makespan = 1422;
----------
assign = array1d(1..12 ,[4, 4, 1, 4, 4, 4, 4, 4, 1, 2, 3, 4]);
next = array1d(1..12 ,[5, 12, 9, 2, 6, 7, 4, 1, 10, 11, 8, 3]);
makespan = 1421;
----------
assign = array1d(1..12 ,[4, 4, 1, 4, 4, 4, 4, 4, 1, 2, 3, 4]);
next = array1d(1..12 ,[5, 12, 9, 2, 6, 7, 4, 1, 10, 11, 8, 3]);
makespan = 1420;
----------
assign = array1d(1..12 ,[4, 4, 1, 4, 4, 4, 4, 4, 1, 2, 3, 4]);
next = array1d(1..12 ,[5, 12, 9, 2, 6, 7, 4, 1, 10, 11, 8, 3]);
makespan = 1416;
----------
assign = array1d(1..12 ,[4, 4, 1, 4, 4, 4, 4, 4, 1, 2, 3, 4]);
next = array1d(1..12 ,[5, 12, 9, 2, 6, 7, 4, 1, 10, 11, 8, 3]);
makespan = 1415;
----------
assign = array1d(1..12 ,[4, 4, 1, 4, 4, 4, 4, 4, 1, 2, 3, 4]);
next = array1d(1..12 ,[5, 12, 9, 2, 6, 7, 4, 1, 10, 11, 8, 3]);
makespan = 1409;
----------
assign = array1d(1..12 ,[4, 4, 1, 4, 4, 4, 4, 4, 1, 2, 3, 4]);
next = array1d(1..12 ,[5, 12, 9, 2, 6, 7, 4, 1, 10, 11, 8, 3]);
makespan = 1408;
----------
assign = array1d(1..12 ,[4, 4, 1, 4, 4, 4, 4, 4, 1, 2, 3, 4]);
next = array1d(1..12 ,[5, 12, 9, 2, 6, 7, 4, 1, 10, 11, 8, 3]);
makespan = 1405;
----------
assign = array1d(1..12 ,[4, 4, 1, 4, 4, 4, 4, 4, 1, 2, 3, 4]);
next = array1d(1..12 ,[5, 12, 9, 2, 6, 7, 4, 1, 10, 11, 8, 3]);
makespan = 1402;
----------
assign = array1d(1..12 ,[4, 4, 1, 4, 4, 4, 4, 4, 1, 2, 3, 4]);
next = array1d(1..12 ,[5, 12, 9, 2, 6, 7, 4, 1, 10, 11, 8, 3]);
makespan = 1401;
----------
assign = array1d(1..12 ,[4, 4, 1, 4, 4, 4, 4, 4, 1, 2, 3, 4]);
next = array1d(1..12 ,[5, 12, 9, 2, 6, 7, 4, 1, 10, 11, 8, 3]);
makespan = 1398;
----------
assign = array1d(1..12 ,[4, 4, 1, 4, 4, 4, 4, 4, 1, 2, 3, 4]);
next = array1d(1..12 ,[5, 12, 9, 2, 6, 7, 4, 1, 10, 11, 8, 3]);
makespan = 1397;
----------
assign = array1d(1..12 ,[4, 4, 1, 4, 4, 4, 4, 4, 1, 2, 3, 4]);
next = array1d(1..12 ,[5, 12, 9, 2, 6, 7, 4, 1, 10, 11, 8, 3]);
makespan = 1396;
----------
assign = array1d(1..12 ,[4, 4, 1, 4, 4, 4, 4, 4, 1, 2, 3, 4]);
next = array1d(1..12 ,[5, 12, 9, 2, 6, 7, 4, 1, 10, 11, 8, 3]);
makespan = 1392;
----------
assign = array1d(1..12 ,[4, 4, 1, 4, 4, 4, 4, 4, 1, 2, 3, 4]);
next = array1d(1..12 ,[5, 12, 9, 2, 6, 7, 4, 1, 10, 11, 8, 3]);
makespan = 1391;
----------
assign = array1d(1..12 ,[4, 4, 1, 4, 4, 4, 4, 4, 1, 2, 3, 4]);
next = array1d(1..12 ,[5, 12, 9, 2, 6, 7, 4, 1, 10, 11, 8, 3]);
makespan = 1390;
----------
assign = array1d(1..12 ,[4, 4, 1, 4, 4, 4, 4, 4, 1, 2, 3, 4]);
next = array1d(1..12 ,[5, 12, 9, 2, 6, 7, 4, 1, 10, 11, 8, 3]);
makespan = 1386;
----------
assign = array1d(1..12 ,[4, 4, 1, 4, 4, 4, 4, 4, 1, 2, 3, 4]);
next = array1d(1..12 ,[5, 12, 9, 2, 6, 7, 4, 1, 10, 11, 8, 3]);
makespan = 1385;
----------
assign = array1d(1..12 ,[4, 4, 1, 4, 4, 4, 4, 4, 1, 2, 3, 4]);
next = array1d(1..12 ,[5, 12, 9, 2, 6, 7, 4, 1, 10, 11, 8, 3]);
makespan = 1384;
----------
assign = array1d(1..12 ,[4, 4, 1, 4, 4, 4, 4, 4, 1, 2, 3, 4]);
next = array1d(1..12 ,[5, 12, 9, 2, 6, 7, 4, 1, 10, 11, 8, 3]);
makespan = 1383;
----------
assign = array1d(1..12 ,[4, 4, 1, 4, 4, 4, 4, 4, 1, 2, 3, 4]);
next = array1d(1..12 ,[5, 12, 9, 2, 6, 7, 4, 1, 10, 11, 8, 3]);
makespan = 1382;
----------
assign = array1d(1..12 ,[4, 4, 1, 4, 4, 4, 4, 4, 1, 2, 3, 4]);
next = array1d(1..12 ,[5, 12, 9, 2, 6, 7, 4, 1, 10, 11, 8, 3]);
makespan = 1380;
----------
assign = array1d(1..12 ,[4, 1, 1, 4, 4, 4, 4, 4, 1, 2, 3, 4]);
next = array1d(1..12 ,[5, 9, 2, 12, 6, 7, 4, 1, 10, 11, 8, 3]);
makespan = 1377;
----------
assign = array1d(1..12 ,[4, 1, 1, 4, 4, 4, 4, 4, 1, 2, 3, 4]);
next = array1d(1..12 ,[5, 9, 2, 12, 6, 7, 4, 1, 10, 11, 8, 3]);
makespan = 1376;
----------
assign = array1d(1..12 ,[4, 1, 1, 4, 4, 4, 4, 4, 1, 2, 3, 4]);
next = array1d(1..12 ,[5, 9, 2, 12, 6, 7, 4, 1, 10, 11, 8, 3]);
makespan = 1372;
----------
assign = array1d(1..12 ,[4, 1, 1, 4, 4, 4, 4, 4, 1, 2, 3, 4]);
next = array1d(1..12 ,[5, 9, 2, 12, 6, 7, 4, 1, 10, 11, 8, 3]);
makespan = 1371;
----------
assign = array1d(1..12 ,[4, 1, 1, 4, 4, 4, 4, 4, 1, 2, 3, 4]);
next = array1d(1..12 ,[5, 9, 2, 12, 6, 7, 4, 1, 10, 11, 8, 3]);
makespan = 1370;
----------
assign = array1d(1..12 ,[4, 1, 1, 4, 4, 4, 4, 4, 1, 2, 3, 4]);
next = array1d(1..12 ,[5, 9, 2, 12, 6, 7, 4, 1, 10, 11, 8, 3]);
makespan = 1367;
----------
assign = array1d(1..12 ,[4, 1, 1, 4, 4, 4, 4, 4, 1, 2, 3, 4]);
next = array1d(1..12 ,[5, 9, 2, 12, 6, 7, 4, 1, 10, 11, 8, 3]);
makespan = 1366;
----------
assign = array1d(1..12 ,[4, 1, 1, 4, 4, 4, 4, 4, 1, 2, 3, 4]);
next = array1d(1..12 ,[5, 9, 2, 12, 6, 7, 4, 1, 10, 11, 8, 3]);
makespan = 1365;
----------
assign = array1d(1..12 ,[4, 1, 1, 4, 4, 4, 4, 4, 1, 2, 3, 4]);
next = array1d(1..12 ,[5, 9, 2, 12, 6, 7, 4, 1, 10, 11, 8, 3]);
makespan = 1364;
----------
assign = array1d(1..12 ,[4, 1, 1, 4, 4, 4, 4, 4, 1, 2, 3, 4]);
next = array1d(1..12 ,[5, 9, 2, 12, 6, 7, 4, 1, 10, 11, 8, 3]);
makespan = 1361;
----------
assign = array1d(1..12 ,[4, 1, 1, 4, 4, 4, 4, 4, 1, 2, 3, 4]);
next = array1d(1..12 ,[5, 9, 2, 12, 6, 7, 4, 1, 10, 11, 8, 3]);
makespan = 1360;
----------
assign = array1d(1..12 ,[4, 1, 1, 4, 4, 4, 4, 4, 1, 2, 3, 4]);
next = array1d(1..12 ,[5, 9, 2, 12, 6, 7, 4, 1, 10, 11, 8, 3]);
makespan = 1359;
----------
assign = array1d(1..12 ,[4, 1, 1, 4, 4, 4, 4, 4, 1, 2, 3, 4]);
next = array1d(1..12 ,[5, 9, 2, 12, 6, 7, 4, 1, 10, 11, 8, 3]);
makespan = 1355;
----------
assign = array1d(1..12 ,[4, 1, 1, 4, 4, 4, 4, 4, 1, 2, 3, 4]);
next = array1d(1..12 ,[5, 9, 2, 12, 6, 7, 4, 1, 10, 11, 8, 3]);
makespan = 1354;
----------
assign = array1d(1..12 ,[4, 1, 1, 4, 4, 4, 4, 4, 1, 2, 3, 4]);
next = array1d(1..12 ,[5, 9, 2, 12, 6, 7, 4, 1, 10, 11, 8, 3]);
makespan = 1353;
----------
assign = array1d(1..12 ,[4, 1, 1, 4, 4, 4, 4, 4, 1, 2, 3, 4]);
next = array1d(1..12 ,[5, 9, 2, 12, 6, 7, 4, 1, 10, 11, 8, 3]);
makespan = 1351;
----------
assign = array1d(1..12 ,[4, 1, 1, 4, 4, 4, 4, 4, 1, 2, 3, 4]);
next = array1d(1..12 ,[5, 9, 2, 12, 6, 7, 4, 1, 10, 11, 8, 3]);
makespan = 1350;
----------
assign = array1d(1..12 ,[4, 1, 1, 4, 4, 4, 4, 4, 1, 2, 3, 4]);
next = array1d(1..12 ,[5, 9, 2, 12, 6, 7, 4, 1, 10, 11, 8, 3]);
makespan = 1349;
----------
assign = array1d(1..12 ,[4, 1, 1, 4, 4, 4, 4, 4, 1, 2, 3, 4]);
next = array1d(1..12 ,[5, 9, 2, 12, 6, 7, 4, 1, 10, 11, 8, 3]);
makespan = 1346;
----------
assign = array1d(1..12 ,[4, 1, 1, 4, 4, 4, 4, 4, 1, 2, 3, 4]);
next = array1d(1..12 ,[5, 9, 2, 12, 6, 7, 4, 1, 10, 11, 8, 3]);
makespan = 1345;
----------
assign = array1d(1..12 ,[4, 1, 1, 4, 4, 4, 4, 4, 1, 2, 3, 4]);
next = array1d(1..12 ,[5, 9, 2, 12, 6, 7, 4, 1, 10, 11, 8, 3]);
makespan = 1343;
----------
assign = array1d(1..12 ,[4, 1, 1, 4, 4, 4, 4, 4, 1, 2, 3, 4]);
next = array1d(1..12 ,[5, 9, 2, 12, 6, 7, 4, 1, 10, 11, 8, 3]);
makespan = 1342;
----------
assign = array1d(1..12 ,[4, 1, 1, 4, 4, 4, 4, 4, 1, 2, 3, 4]);
next = array1d(1..12 ,[5, 9, 2, 12, 6, 7, 4, 1, 10, 11, 8, 3]);
makespan = 1340;
----------
assign = array1d(1..12 ,[4, 1, 1, 4, 4, 4, 4, 4, 1, 2, 3, 4]);
next = array1d(1..12 ,[5, 9, 2, 12, 6, 7, 4, 1, 10, 11, 8, 3]);
makespan = 1339;
----------
assign = array1d(1..12 ,[4, 1, 1, 4, 4, 4, 4, 4, 1, 2, 3, 4]);
next = array1d(1..12 ,[5, 9, 2, 12, 6, 7, 4, 1, 10, 11, 8, 3]);
makespan = 1336;
----------
assign = array1d(1..12 ,[4, 1, 1, 4, 4, 4, 4, 4, 1, 2, 3, 4]);
next = array1d(1..12 ,[5, 9, 2, 12, 6, 7, 4, 1, 10, 11, 8, 3]);
makespan = 1335;
----------
assign = array1d(1..12 ,[4, 1, 1, 4, 4, 4, 4, 4, 1, 2, 3, 4]);
next = array1d(1..12 ,[5, 9, 2, 12, 6, 7, 4, 1, 10, 11, 8, 3]);
makespan = 1334;
----------
assign = array1d(1..12 ,[4, 1, 1, 4, 4, 4, 4, 4, 1, 2, 3, 4]);
next = array1d(1..12 ,[5, 9, 2, 12, 6, 7, 4, 1, 10, 11, 8, 3]);
makespan = 1330;
----------
assign = array1d(1..12 ,[4, 1, 1, 4, 4, 4, 4, 4, 1, 2, 3, 4]);
next = array1d(1..12 ,[5, 9, 2, 12, 6, 7, 4, 1, 10, 11, 8, 3]);
makespan = 1329;
----------
assign = array1d(1..12 ,[4, 1, 1, 4, 4, 4, 4, 4, 1, 2, 3, 4]);
next = array1d(1..12 ,[5, 9, 2, 12, 6, 7, 4, 1, 10, 11, 8, 3]);
makespan = 1328;
----------
assign = array1d(1..12 ,[4, 1, 1, 4, 4, 4, 4, 4, 1, 2, 3, 4]);
next = array1d(1..12 ,[5, 9, 2, 12, 6, 7, 4, 1, 10, 11, 8, 3]);
makespan = 1327;
----------
assign = array1d(1..12 ,[4, 1, 1, 4, 4, 4, 4, 4, 1, 2, 3, 4]);
next = array1d(1..12 ,[5, 9, 2, 12, 6, 7, 4, 1, 10, 11, 8, 3]);
makespan = 1324;
----------
assign = array1d(1..12 ,[4, 1, 1, 4, 4, 4, 4, 4, 1, 2, 3, 4]);
next = array1d(1..12 ,[5, 9, 2, 12, 6, 7, 4, 1, 10, 11, 8, 3]);
makespan = 1322;
----------
assign = array1d(1..12 ,[4, 1, 1, 4, 4, 4, 4, 4, 1, 2, 3, 4]);
next = array1d(1..12 ,[5, 9, 2, 12, 6, 7, 4, 1, 10, 11, 8, 3]);
makespan = 1321;
----------
assign = array1d(1..12 ,[4, 1, 1, 4, 4, 4, 4, 4, 1, 2, 3, 4]);
next = array1d(1..12 ,[5, 9, 2, 12, 6, 7, 4, 1, 10, 11, 8, 3]);
makespan = 1320;
----------
assign = array1d(1..12 ,[4, 1, 1, 4, 4, 4, 4, 4, 1, 2, 3, 4]);
next = array1d(1..12 ,[5, 9, 2, 12, 6, 7, 4, 1, 10, 11, 8, 3]);
makespan = 1318;
----------
assign = array1d(1..12 ,[4, 1, 1, 4, 4, 4, 4, 4, 1, 2, 3, 4]);
next = array1d(1..12 ,[5, 9, 2, 12, 6, 7, 4, 1, 10, 11, 8, 3]);
makespan = 1317;
----------
assign = array1d(1..12 ,[4, 1, 1, 4, 4, 4, 4, 4, 1, 2, 3, 4]);
next = array1d(1..12 ,[5, 9, 2, 12, 6, 7, 4, 1, 10, 11, 8, 3]);
makespan = 1316;
----------
assign = array1d(1..12 ,[4, 1, 1, 4, 4, 4, 4, 4, 1, 2, 3, 4]);
next = array1d(1..12 ,[5, 9, 2, 12, 6, 7, 4, 1, 10, 11, 8, 3]);
makespan = 1315;
----------
assign = array1d(1..12 ,[4, 1, 1, 4, 4, 4, 4, 4, 1, 2, 3, 4]);
next = array1d(1..12 ,[5, 9, 2, 12, 6, 7, 4, 1, 10, 11, 8, 3]);
makespan = 1314;
----------
assign = array1d(1..12 ,[4, 1, 1, 4, 4, 4, 4, 4, 1, 2, 3, 4]);
next = array1d(1..12 ,[5, 9, 2, 12, 6, 7, 4, 1, 10, 11, 8, 3]);
makespan = 1311;
----------
assign = array1d(1..12 ,[4, 1, 1, 4, 4, 4, 4, 4, 1, 2, 3, 4]);
next = array1d(1..12 ,[5, 9, 2, 12, 6, 7, 4, 1, 10, 11, 8, 3]);
makespan = 1310;
----------
assign = array1d(1..12 ,[4, 1, 1, 4, 4, 4, 4, 4, 1, 2, 3, 4]);
next = array1d(1..12 ,[5, 9, 2, 12, 6, 7, 4, 1, 10, 11, 8, 3]);
makespan = 1309;
----------
assign = array1d(1..12 ,[4, 1, 1, 4, 4, 4, 4, 4, 1, 2, 3, 4]);
next = array1d(1..12 ,[5, 9, 2, 12, 6, 7, 4, 1, 10, 11, 8, 3]);
makespan = 1305;
----------
assign = array1d(1..12 ,[4, 1, 1, 4, 4, 4, 4, 4, 1, 2, 3, 4]);
next = array1d(1..12 ,[5, 9, 2, 12, 6, 7, 4, 1, 10, 11, 8, 3]);
makespan = 1304;
----------
assign = array1d(1..12 ,[4, 1, 1, 4, 4, 4, 4, 4, 1, 2, 3, 4]);
next = array1d(1..12 ,[5, 9, 2, 12, 6, 7, 4, 1, 10, 11, 8, 3]);
makespan = 1303;
----------
assign = array1d(1..12 ,[4, 1, 1, 4, 4, 4, 4, 4, 1, 2, 3, 4]);
next = array1d(1..12 ,[5, 9, 2, 12, 6, 7, 4, 1, 10, 11, 8, 3]);
makespan = 1300;
----------
assign = array1d(1..12 ,[4, 1, 1, 4, 4, 4, 4, 4, 1, 2, 3, 4]);
next = array1d(1..12 ,[5, 9, 2, 12, 6, 7, 4, 1, 10, 11, 8, 3]);
makespan = 1299;
----------
assign = array1d(1..12 ,[4, 1, 1, 4, 4, 4, 4, 4, 1, 2, 3, 4]);
next = array1d(1..12 ,[5, 9, 2, 12, 6, 7, 4, 1, 10, 11, 8, 3]);
makespan = 1298;
----------
assign = array1d(1..12 ,[4, 1, 1, 4, 4, 4, 4, 4, 1, 2, 3, 4]);
next = array1d(1..12 ,[5, 9, 2, 12, 6, 7, 4, 1, 10, 11, 8, 3]);
makespan = 1296;
----------
assign = array1d(1..12 ,[4, 1, 1, 4, 4, 4, 4, 4, 1, 2, 3, 4]);
next = array1d(1..12 ,[5, 9, 2, 12, 6, 7, 4, 1, 10, 11, 8, 3]);
makespan = 1295;
----------
assign = array1d(1..12 ,[4, 1, 1, 4, 4, 4, 4, 4, 1, 2, 3, 4]);
next = array1d(1..12 ,[5, 9, 2, 12, 6, 7, 4, 1, 10, 11, 8, 3]);
makespan = 1294;
----------
assign = array1d(1..12 ,[4, 1, 1, 4, 4, 4, 4, 4, 1, 2, 3, 4]);
next = array1d(1..12 ,[5, 9, 2, 12, 6, 7, 4, 1, 10, 11, 8, 3]);
makespan = 1293;
----------
assign = array1d(1..12 ,[4, 1, 1, 4, 4, 4, 4, 4, 1, 2, 3, 4]);
next = array1d(1..12 ,[5, 9, 2, 12, 6, 7, 4, 1, 10, 11, 8, 3]);
makespan = 1290;
----------
assign = array1d(1..12 ,[4, 1, 1, 4, 4, 4, 4, 4, 1, 2, 3, 4]);
next = array1d(1..12 ,[5, 9, 2, 12, 6, 7, 4, 1, 10, 11, 8, 3]);
makespan = 1289;
----------
assign = array1d(1..12 ,[4, 1, 1, 4, 4, 4, 4, 4, 1, 2, 3, 4]);
next = array1d(1..12 ,[5, 9, 2, 12, 6, 7, 4, 1, 10, 11, 8, 3]);
makespan = 1288;
----------
assign = array1d(1..12 ,[4, 1, 1, 4, 4, 4, 4, 4, 1, 2, 3, 4]);
next = array1d(1..12 ,[5, 9, 2, 12, 6, 7, 4, 1, 10, 11, 8, 3]);
makespan = 1287;
----------
assign = array1d(1..12 ,[4, 1, 1, 4, 4, 4, 4, 4, 1, 2, 3, 4]);
next = array1d(1..12 ,[5, 9, 2, 12, 6, 7, 4, 1, 10, 11, 8, 3]);
makespan = 1285;
----------
assign = array1d(1..12 ,[4, 1, 1, 4, 4, 4, 4, 4, 1, 2, 3, 4]);
next = array1d(1..12 ,[5, 9, 2, 12, 6, 7, 4, 1, 10, 11, 8, 3]);
makespan = 1284;
----------
assign = array1d(1..12 ,[4, 1, 1, 4, 4, 4, 4, 4, 1, 2, 3, 4]);
next = array1d(1..12 ,[5, 9, 2, 12, 6, 7, 4, 1, 10, 11, 8, 3]);
makespan = 1283;
----------
assign = array1d(1..12 ,[4, 1, 1, 4, 4, 4, 4, 4, 1, 2, 3, 4]);
next = array1d(1..12 ,[5, 9, 2, 12, 6, 7, 4, 1, 10, 11, 8, 3]);
makespan = 1280;
----------
assign = array1d(1..12 ,[4, 1, 1, 4, 4, 4, 4, 4, 1, 2, 3, 4]);
next = array1d(1..12 ,[5, 9, 2, 12, 6, 7, 4, 1, 10, 11, 8, 3]);
makespan = 1279;
----------
assign = array1d(1..12 ,[4, 1, 1, 4, 4, 4, 4, 4, 1, 2, 3, 4]);
next = array1d(1..12 ,[5, 9, 2, 12, 6, 7, 4, 1, 10, 11, 8, 3]);
makespan = 1278;
----------
assign = array1d(1..12 ,[4, 1, 1, 4, 4, 4, 4, 4, 1, 2, 3, 4]);
next = array1d(1..12 ,[5, 9, 2, 12, 6, 7, 4, 1, 10, 11, 8, 3]);
makespan = 1274;
----------
assign = array1d(1..12 ,[4, 1, 1, 4, 4, 4, 4, 4, 1, 2, 3, 4]);
next = array1d(1..12 ,[5, 9, 2, 12, 6, 7, 4, 1, 10, 11, 8, 3]);
makespan = 1273;
----------
assign = array1d(1..12 ,[4, 1, 1, 4, 4, 4, 4, 4, 1, 2, 3, 4]);
next = array1d(1..12 ,[5, 9, 2, 12, 6, 7, 4, 1, 10, 11, 8, 3]);
makespan = 1272;
----------
assign = array1d(1..12 ,[4, 1, 1, 4, 4, 4, 4, 4, 1, 2, 3, 4]);
next = array1d(1..12 ,[5, 9, 2, 12, 6, 7, 4, 1, 10, 11, 8, 3]);
makespan = 1271;
----------
assign = array1d(1..12 ,[4, 1, 1, 4, 4, 4, 4, 4, 1, 2, 3, 4]);
next = array1d(1..12 ,[5, 9, 2, 12, 6, 7, 4, 1, 10, 11, 8, 3]);
makespan = 1269;
----------
assign = array1d(1..12 ,[4, 1, 1, 4, 4, 4, 4, 4, 1, 2, 3, 4]);
next = array1d(1..12 ,[5, 9, 2, 12, 6, 7, 4, 1, 10, 11, 8, 3]);
makespan = 1268;
----------
assign = array1d(1..12 ,[4, 1, 1, 4, 4, 4, 4, 4, 1, 2, 3, 4]);
next = array1d(1..12 ,[5, 9, 2, 12, 6, 7, 4, 1, 10, 11, 8, 3]);
makespan = 1267;
----------
assign = array1d(1..12 ,[4, 1, 1, 4, 4, 4, 4, 4, 1, 2, 3, 4]);
next = array1d(1..12 ,[5, 9, 2, 12, 6, 7, 4, 1, 10, 11, 8, 3]);
makespan = 1266;
----------
assign = array1d(1..12 ,[4, 1, 1, 4, 4, 4, 4, 4, 1, 2, 3, 4]);
next = array1d(1..12 ,[5, 9, 2, 12, 6, 7, 4, 1, 10, 11, 8, 3]);
makespan = 1265;
----------
assign = array1d(1..12 ,[4, 1, 1, 4, 4, 4, 4, 4, 1, 2, 3, 4]);
next = array1d(1..12 ,[5, 9, 2, 12, 6, 7, 4, 1, 10, 11, 8, 3]);
makespan = 1263;
----------
assign = array1d(1..12 ,[4, 1, 1, 4, 4, 4, 4, 4, 1, 2, 3, 4]);
next = array1d(1..12 ,[5, 9, 2, 12, 6, 7, 4, 1, 10, 11, 8, 3]);
makespan = 1262;
----------
assign = array1d(1..12 ,[4, 1, 1, 4, 4, 4, 4, 4, 1, 2, 3, 4]);
next = array1d(1..12 ,[5, 9, 2, 12, 6, 7, 4, 1, 10, 11, 8, 3]);
makespan = 1261;
----------
assign = array1d(1..12 ,[4, 1, 1, 4, 4, 4, 4, 4, 1, 2, 3, 4]);
next = array1d(1..12 ,[5, 9, 2, 12, 6, 7, 4, 1, 10, 11, 8, 3]);
makespan = 1259;
----------
assign = array1d(1..12 ,[4, 1, 1, 4, 4, 4, 4, 4, 1, 2, 3, 4]);
next = array1d(1..12 ,[5, 9, 2, 12, 6, 7, 4, 1, 10, 11, 8, 3]);
makespan = 1256;
----------
assign = array1d(1..12 ,[4, 1, 1, 4, 4, 4, 4, 4, 1, 2, 3, 4]);
next = array1d(1..12 ,[5, 9, 2, 12, 6, 7, 4, 1, 10, 11, 8, 3]);
makespan = 1255;
----------
assign = array1d(1..12 ,[4, 1, 1, 4, 4, 4, 4, 4, 1, 2, 3, 4]);
next = array1d(1..12 ,[5, 9, 2, 12, 6, 7, 4, 1, 10, 11, 8, 3]);
makespan = 1254;
----------
assign = array1d(1..12 ,[4, 1, 1, 4, 4, 4, 4, 4, 1, 2, 3, 4]);
next = array1d(1..12 ,[5, 9, 2, 12, 6, 7, 4, 1, 10, 11, 8, 3]);
makespan = 1253;
----------
assign = array1d(1..12 ,[4, 1, 1, 4, 4, 4, 4, 4, 1, 2, 3, 4]);
next = array1d(1..12 ,[5, 9, 2, 12, 6, 7, 4, 1, 10, 11, 8, 3]);
makespan = 1249;
----------
assign = array1d(1..12 ,[4, 1, 1, 4, 4, 4, 4, 4, 1, 2, 3, 4]);
next = array1d(1..12 ,[5, 9, 2, 12, 6, 7, 4, 1, 10, 11, 8, 3]);
makespan = 1248;
----------
assign = array1d(1..12 ,[4, 1, 1, 4, 4, 4, 4, 4, 1, 2, 3, 4]);
next = array1d(1..12 ,[5, 9, 2, 12, 6, 7, 4, 1, 10, 11, 8, 3]);
makespan = 1247;
----------
assign = array1d(1..12 ,[4, 1, 1, 4, 4, 4, 4, 4, 1, 2, 3, 4]);
next = array1d(1..12 ,[5, 9, 2, 12, 6, 7, 4, 1, 10, 11, 8, 3]);
makespan = 1246;
----------
assign = array1d(1..12 ,[4, 1, 1, 4, 4, 4, 4, 4, 1, 2, 3, 4]);
next = array1d(1..12 ,[5, 9, 2, 12, 6, 7, 4, 1, 10, 11, 8, 3]);
makespan = 1244;
----------
assign = array1d(1..12 ,[4, 1, 1, 4, 4, 4, 4, 4, 1, 2, 3, 4]);
next = array1d(1..12 ,[5, 9, 2, 12, 6, 7, 4, 1, 10, 11, 8, 3]);
makespan = 1243;
----------
assign = array1d(1..12 ,[4, 1, 1, 4, 4, 4, 4, 4, 1, 2, 3, 4]);
next = array1d(1..12 ,[5, 9, 2, 12, 6, 7, 4, 1, 10, 11, 8, 3]);
makespan = 1241;
----------
assign = array1d(1..12 ,[4, 1, 1, 4, 4, 4, 4, 4, 1, 2, 3, 4]);
next = array1d(1..12 ,[5, 9, 2, 12, 6, 7, 4, 1, 10, 11, 8, 3]);
makespan = 1240;
----------
assign = array1d(1..12 ,[4, 1, 1, 4, 4, 4, 4, 4, 1, 2, 3, 4]);
next = array1d(1..12 ,[5, 9, 2, 12, 6, 7, 4, 1, 10, 11, 8, 3]);
makespan = 1238;
----------
assign = array1d(1..12 ,[4, 1, 1, 4, 4, 4, 4, 4, 1, 2, 3, 4]);
next = array1d(1..12 ,[5, 9, 2, 12, 6, 7, 4, 1, 10, 11, 8, 3]);
makespan = 1237;
----------
assign = array1d(1..12 ,[4, 1, 1, 4, 4, 4, 4, 4, 1, 2, 3, 4]);
next = array1d(1..12 ,[5, 9, 2, 12, 6, 7, 4, 1, 10, 11, 8, 3]);
makespan = 1234;
----------
assign = array1d(1..12 ,[4, 1, 1, 4, 4, 4, 4, 4, 1, 2, 3, 4]);
next = array1d(1..12 ,[5, 9, 2, 12, 6, 7, 4, 1, 10, 11, 8, 3]);
makespan = 1233;
----------
assign = array1d(1..12 ,[4, 1, 1, 4, 4, 4, 4, 4, 1, 2, 3, 4]);
next = array1d(1..12 ,[5, 9, 2, 12, 6, 7, 4, 1, 10, 11, 8, 3]);
makespan = 1232;
----------
assign = array1d(1..12 ,[4, 1, 1, 4, 4, 4, 4, 4, 1, 2, 3, 4]);
next = array1d(1..12 ,[5, 9, 2, 12, 6, 7, 4, 1, 10, 11, 8, 3]);
makespan = 1230;
----------
assign = array1d(1..12 ,[4, 1, 1, 4, 4, 4, 4, 4, 1, 2, 3, 4]);
next = array1d(1..12 ,[5, 9, 2, 12, 6, 7, 4, 1, 10, 11, 8, 3]);
makespan = 1229;
----------
assign = array1d(1..12 ,[4, 1, 1, 4, 4, 4, 4, 4, 1, 2, 3, 4]);
next = array1d(1..12 ,[5, 9, 2, 12, 6, 7, 4, 1, 10, 11, 8, 3]);
makespan = 1228;
----------
assign = array1d(1..12 ,[4, 1, 1, 4, 4, 4, 4, 4, 1, 2, 3, 4]);
next = array1d(1..12 ,[5, 9, 2, 12, 6, 7, 4, 1, 10, 11, 8, 3]);
makespan = 1224;
----------
assign = array1d(1..12 ,[4, 1, 1, 4, 4, 4, 4, 4, 1, 2, 3, 4]);
next = array1d(1..12 ,[5, 9, 2, 12, 6, 7, 4, 1, 10, 11, 8, 3]);
makespan = 1223;
----------
assign = array1d(1..12 ,[4, 1, 1, 4, 4, 4, 4, 4, 1, 2, 3, 4]);
next = array1d(1..12 ,[5, 9, 2, 12, 6, 7, 4, 1, 10, 11, 8, 3]);
makespan = 1222;
----------
assign = array1d(1..12 ,[4, 1, 1, 4, 4, 4, 4, 4, 1, 2, 3, 4]);
next = array1d(1..12 ,[5, 9, 2, 12, 6, 7, 4, 1, 10, 11, 8, 3]);
makespan = 1219;
----------
assign = array1d(1..12 ,[4, 1, 1, 4, 4, 4, 4, 4, 1, 2, 3, 4]);
next = array1d(1..12 ,[5, 9, 2, 12, 6, 7, 4, 1, 10, 11, 8, 3]);
makespan = 1218;
----------
assign = array1d(1..12 ,[4, 1, 1, 4, 4, 4, 4, 4, 1, 2, 3, 4]);
next = array1d(1..12 ,[5, 9, 2, 12, 6, 7, 4, 1, 10, 11, 8, 3]);
makespan = 1217;
----------
assign = array1d(1..12 ,[4, 1, 1, 4, 4, 4, 4, 4, 1, 2, 3, 4]);
next = array1d(1..12 ,[5, 9, 2, 12, 6, 7, 4, 1, 10, 11, 8, 3]);
makespan = 1216;
----------
assign = array1d(1..12 ,[4, 1, 1, 4, 4, 4, 4, 4, 1, 2, 3, 4]);
next = array1d(1..12 ,[5, 9, 2, 12, 6, 7, 4, 1, 10, 11, 8, 3]);
makespan = 1213;
----------
assign = array1d(1..12 ,[4, 1, 1, 4, 4, 4, 4, 4, 1, 2, 3, 4]);
next = array1d(1..12 ,[5, 9, 2, 12, 6, 7, 4, 1, 10, 11, 8, 3]);
makespan = 1212;
----------
assign = array1d(1..12 ,[4, 1, 1, 4, 4, 4, 4, 4, 1, 2, 3, 4]);
next = array1d(1..12 ,[5, 9, 2, 12, 6, 7, 4, 1, 10, 11, 8, 3]);
makespan = 1211;
----------
assign = array1d(1..12 ,[4, 1, 1, 4, 4, 4, 4, 4, 1, 2, 3, 4]);
next = array1d(1..12 ,[5, 9, 2, 12, 6, 7, 4, 1, 10, 11, 8, 3]);
makespan = 1207;
----------
assign = array1d(1..12 ,[4, 1, 1, 4, 4, 4, 4, 4, 1, 2, 3, 4]);
next = array1d(1..12 ,[5, 9, 2, 12, 6, 7, 4, 1, 10, 11, 8, 3]);
makespan = 1206;
----------
assign = array1d(1..12 ,[4, 1, 1, 4, 4, 4, 4, 4, 1, 2, 3, 4]);
next = array1d(1..12 ,[5, 9, 2, 12, 6, 7, 4, 1, 10, 11, 8, 3]);
makespan = 1201;
----------
assign = array1d(1..12 ,[4, 1, 1, 4, 4, 4, 4, 4, 1, 2, 3, 4]);
next = array1d(1..12 ,[5, 9, 2, 12, 6, 7, 4, 1, 10, 11, 8, 3]);
makespan = 1200;
----------
assign = array1d(1..12 ,[4, 1, 1, 4, 4, 4, 4, 4, 1, 2, 3, 4]);
next = array1d(1..12 ,[5, 9, 2, 12, 6, 7, 4, 1, 10, 11, 8, 3]);
makespan = 1199;
----------
assign = array1d(1..12 ,[4, 1, 1, 4, 4, 4, 4, 4, 1, 2, 3, 4]);
next = array1d(1..12 ,[5, 9, 2, 12, 6, 7, 4, 1, 10, 11, 8, 3]);
makespan = 1198;
----------
assign = array1d(1..12 ,[4, 1, 1, 4, 4, 4, 4, 4, 1, 2, 3, 4]);
next = array1d(1..12 ,[5, 9, 2, 12, 6, 7, 4, 1, 10, 11, 8, 3]);
makespan = 1197;
----------
assign = array1d(1..12 ,[4, 1, 1, 4, 4, 4, 4, 4, 1, 2, 3, 4]);
next = array1d(1..12 ,[5, 9, 2, 12, 6, 7, 4, 1, 10, 11, 8, 3]);
makespan = 1193;
----------
assign = array1d(1..12 ,[4, 1, 1, 4, 4, 4, 4, 4, 1, 2, 3, 4]);
next = array1d(1..12 ,[5, 9, 2, 12, 6, 7, 4, 1, 10, 11, 8, 3]);
makespan = 1192;
----------
assign = array1d(1..12 ,[4, 1, 1, 4, 4, 4, 4, 4, 1, 2, 3, 4]);
next = array1d(1..12 ,[5, 9, 2, 12, 6, 7, 4, 1, 10, 11, 8, 3]);
makespan = 1191;
----------
assign = array1d(1..12 ,[4, 1, 1, 4, 4, 4, 4, 4, 1, 2, 3, 4]);
next = array1d(1..12 ,[5, 9, 2, 12, 6, 7, 4, 1, 10, 11, 8, 3]);
makespan = 1190;
----------
assign = array1d(1..12 ,[4, 4, 3, 4, 4, 4, 4, 3, 1, 2, 3, 4]);
next = array1d(1..12 ,[5, 12, 8, 2, 6, 7, 4, 11, 10, 3, 1, 9]);
makespan = 1187;
----------
assign = array1d(1..12 ,[4, 1, 1, 4, 4, 1, 4, 4, 1, 2, 3, 4]);
next = array1d(1..12 ,[5, 9, 6, 8, 12, 2, 4, 1, 10, 11, 7, 3]);
makespan = 1186;
----------
assign = array1d(1..12 ,[4, 1, 1, 4, 4, 1, 4, 4, 1, 2, 3, 4]);
next = array1d(1..12 ,[5, 9, 6, 8, 12, 2, 4, 1, 10, 11, 7, 3]);
makespan = 1185;
----------
assign = array1d(1..12 ,[4, 1, 1, 4, 4, 1, 4, 4, 1, 2, 3, 4]);
next = array1d(1..12 ,[5, 9, 6, 8, 12, 2, 4, 1, 10, 11, 7, 3]);
makespan = 1182;
----------
assign = array1d(1..12 ,[4, 1, 1, 4, 4, 1, 4, 4, 1, 2, 3, 4]);
next = array1d(1..12 ,[5, 9, 6, 8, 12, 2, 4, 1, 10, 11, 7, 3]);
makespan = 1181;
----------
assign = array1d(1..12 ,[4, 1, 1, 4, 4, 1, 4, 4, 1, 2, 3, 4]);
next = array1d(1..12 ,[5, 9, 6, 8, 12, 2, 4, 1, 10, 11, 7, 3]);
makespan = 1178;
----------
assign = array1d(1..12 ,[4, 1, 1, 4, 4, 1, 4, 4, 1, 2, 3, 4]);
next = array1d(1..12 ,[5, 9, 6, 8, 12, 2, 4, 1, 10, 11, 7, 3]);
makespan = 1175;
----------
assign = array1d(1..12 ,[4, 1, 1, 4, 4, 1, 4, 4, 1, 2, 3, 4]);
next = array1d(1..12 ,[5, 9, 6, 8, 12, 2, 4, 1, 10, 11, 7, 3]);
makespan = 1174;
----------
assign = array1d(1..12 ,[4, 1, 1, 4, 4, 1, 4, 4, 1, 2, 3, 4]);
next = array1d(1..12 ,[5, 9, 6, 8, 12, 2, 4, 1, 10, 11, 7, 3]);
makespan = 1168;
----------
assign = array1d(1..12 ,[4, 1, 1, 4, 4, 1, 4, 4, 1, 2, 3, 4]);
next = array1d(1..12 ,[5, 9, 6, 8, 12, 2, 4, 1, 10, 11, 7, 3]);
makespan = 1167;
----------
assign = array1d(1..12 ,[4, 1, 1, 4, 4, 1, 4, 4, 1, 2, 3, 4]);
next = array1d(1..12 ,[5, 9, 6, 8, 12, 2, 4, 1, 10, 11, 7, 3]);
makespan = 1163;
----------
assign = array1d(1..12 ,[4, 1, 1, 4, 4, 1, 4, 4, 1, 2, 3, 4]);
next = array1d(1..12 ,[5, 9, 6, 8, 12, 2, 4, 1, 10, 11, 7, 3]);
makespan = 1162;
----------
assign = array1d(1..12 ,[4, 1, 1, 4, 4, 1, 4, 4, 1, 2, 3, 4]);
next = array1d(1..12 ,[5, 9, 6, 8, 12, 2, 4, 1, 10, 11, 7, 3]);
makespan = 1161;
----------
assign = array1d(1..12 ,[4, 1, 1, 4, 4, 1, 4, 4, 1, 2, 3, 4]);
next = array1d(1..12 ,[5, 9, 6, 8, 12, 2, 4, 1, 10, 11, 7, 3]);
makespan = 1157;
----------
assign = array1d(1..12 ,[4, 1, 1, 4, 4, 1, 4, 4, 1, 2, 3, 4]);
next = array1d(1..12 ,[5, 9, 6, 8, 12, 2, 4, 1, 10, 11, 7, 3]);
makespan = 1156;
----------
assign = array1d(1..12 ,[4, 1, 1, 4, 4, 1, 4, 4, 1, 2, 3, 4]);
next = array1d(1..12 ,[5, 9, 6, 8, 12, 2, 4, 1, 10, 11, 7, 3]);
makespan = 1151;
----------
assign = array1d(1..12 ,[4, 1, 1, 4, 4, 1, 4, 4, 1, 2, 3, 4]);
next = array1d(1..12 ,[5, 9, 6, 8, 12, 2, 4, 1, 10, 11, 7, 3]);
makespan = 1150;
----------
assign = array1d(1..12 ,[4, 1, 1, 4, 4, 1, 4, 4, 1, 2, 3, 4]);
next = array1d(1..12 ,[5, 9, 6, 8, 12, 2, 4, 1, 10, 11, 7, 3]);
makespan = 1145;
----------
assign = array1d(1..12 ,[4, 1, 1, 4, 4, 1, 4, 4, 1, 2, 3, 4]);
next = array1d(1..12 ,[5, 9, 6, 8, 12, 2, 4, 1, 10, 11, 7, 3]);
makespan = 1142;
----------
assign = array1d(1..12 ,[4, 1, 1, 4, 4, 1, 4, 4, 1, 2, 3, 4]);
next = array1d(1..12 ,[5, 9, 6, 8, 12, 2, 4, 1, 10, 11, 7, 3]);
makespan = 1136;
----------
assign = array1d(1..12 ,[4, 1, 1, 4, 4, 1, 4, 4, 1, 2, 3, 4]);
next = array1d(1..12 ,[5, 9, 6, 8, 12, 2, 4, 1, 10, 11, 7, 3]);
makespan = 1135;
----------
assign = array1d(1..12 ,[4, 1, 1, 4, 4, 1, 4, 4, 1, 2, 3, 4]);
next = array1d(1..12 ,[5, 9, 6, 8, 12, 2, 4, 1, 10, 11, 7, 3]);
makespan = 1134;
----------
assign = array1d(1..12 ,[4, 1, 1, 4, 4, 1, 4, 4, 1, 2, 3, 4]);
next = array1d(1..12 ,[5, 9, 6, 8, 12, 2, 4, 1, 10, 11, 7, 3]);
makespan = 1132;
----------
assign = array1d(1..12 ,[4, 1, 1, 4, 4, 1, 4, 4, 1, 2, 3, 4]);
next = array1d(1..12 ,[5, 9, 6, 8, 12, 2, 4, 1, 10, 11, 7, 3]);
makespan = 1131;
----------
assign = array1d(1..12 ,[4, 1, 1, 4, 4, 1, 4, 4, 1, 2, 3, 4]);
next = array1d(1..12 ,[5, 9, 6, 8, 12, 2, 4, 1, 10, 11, 7, 3]);
makespan = 1130;
----------
assign = array1d(1..12 ,[4, 1, 1, 4, 4, 1, 4, 4, 1, 2, 3, 4]);
next = array1d(1..12 ,[5, 9, 6, 8, 12, 2, 4, 1, 10, 11, 7, 3]);
makespan = 1126;
----------
assign = array1d(1..12 ,[4, 1, 1, 4, 4, 1, 4, 4, 1, 2, 3, 4]);
next = array1d(1..12 ,[5, 9, 6, 8, 12, 2, 4, 1, 10, 11, 7, 3]);
makespan = 1125;
----------
assign = array1d(1..12 ,[4, 1, 1, 4, 4, 1, 4, 4, 1, 2, 3, 4]);
next = array1d(1..12 ,[5, 9, 6, 8, 12, 2, 4, 1, 10, 11, 7, 3]);
makespan = 1120;
----------
assign = array1d(1..12 ,[4, 1, 1, 4, 4, 1, 4, 4, 1, 2, 3, 4]);
next = array1d(1..12 ,[5, 9, 6, 8, 12, 2, 4, 1, 10, 11, 7, 3]);
makespan = 1119;
----------
assign = array1d(1..12 ,[4, 1, 1, 4, 4, 1, 4, 4, 1, 2, 3, 4]);
next = array1d(1..12 ,[5, 9, 6, 8, 12, 2, 4, 1, 10, 11, 7, 3]);
makespan = 1112;
----------
assign = array1d(1..12 ,[4, 1, 1, 4, 4, 1, 4, 4, 1, 2, 3, 4]);
next = array1d(1..12 ,[5, 9, 6, 8, 12, 2, 4, 1, 10, 11, 7, 3]);
makespan = 1109;
----------
assign = array1d(1..12 ,[4, 1, 1, 4, 4, 1, 4, 4, 1, 2, 3, 4]);
next = array1d(1..12 ,[5, 9, 6, 8, 12, 2, 4, 1, 10, 11, 7, 3]);
makespan = 1087;
----------
assign = array1d(1..12 ,[4, 1, 1, 4, 4, 1, 4, 4, 1, 2, 3, 4]);
next = array1d(1..12 ,[5, 9, 6, 8, 12, 2, 4, 1, 10, 11, 7, 3]);
makespan = 1079;
----------
assign = array1d(1..12 ,[4, 1, 1, 4, 4, 1, 4, 4, 1, 2, 3, 4]);
next = array1d(1..12 ,[5, 9, 6, 8, 12, 2, 4, 1, 10, 11, 7, 3]);
makespan = 1070;
----------
assign = array1d(1..12 ,[4, 1, 1, 4, 4, 1, 4, 4, 1, 2, 3, 4]);
next = array1d(1..12 ,[5, 9, 6, 8, 12, 2, 4, 1, 10, 11, 7, 3]);
makespan = 1053;
----------
assign = array1d(1..12 ,[4, 1, 1, 4, 4, 1, 4, 4, 1, 2, 3, 4]);
next = array1d(1..12 ,[5, 9, 6, 8, 12, 2, 4, 1, 10, 11, 7, 3]);
makespan = 1049;
----------
assign = array1d(1..12 ,[4, 1, 1, 4, 4, 1, 4, 4, 1, 2, 3, 4]);
next = array1d(1..12 ,[5, 9, 6, 8, 12, 2, 4, 1, 10, 11, 7, 3]);
makespan = 1040;
----------
assign = array1d(1..12 ,[4, 1, 1, 4, 4, 1, 4, 4, 1, 2, 3, 4]);
next = array1d(1..12 ,[5, 9, 6, 8, 12, 2, 4, 1, 10, 11, 7, 3]);
makespan = 1031;
----------
assign = array1d(1..12 ,[4, 1, 1, 4, 4, 1, 4, 4, 1, 2, 3, 4]);
next = array1d(1..12 ,[5, 9, 6, 8, 12, 2, 4, 1, 10, 11, 7, 3]);
makespan = 1018;
----------
assign = array1d(1..12 ,[4, 1, 1, 4, 4, 1, 4, 4, 1, 2, 3, 4]);
next = array1d(1..12 ,[5, 9, 6, 8, 12, 2, 4, 1, 10, 11, 7, 3]);
makespan = 1014;
----------
assign = array1d(1..12 ,[4, 1, 1, 4, 4, 1, 4, 4, 1, 2, 3, 4]);
next = array1d(1..12 ,[5, 9, 6, 8, 12, 2, 4, 1, 10, 11, 7, 3]);
makespan = 998;
----------
assign = array1d(1..12 ,[4, 1, 1, 4, 4, 1, 4, 4, 1, 2, 3, 4]);
next = array1d(1..12 ,[5, 9, 6, 12, 7, 2, 4, 1, 10, 11, 8, 3]);
makespan = 993;
----------
assign = array1d(1..12 ,[4, 1, 1, 4, 4, 1, 4, 4, 1, 2, 3, 4]);
next = array1d(1..12 ,[5, 9, 6, 12, 7, 2, 4, 1, 10, 11, 8, 3]);
makespan = 971;
----------
assign = array1d(1..12 ,[4, 1, 1, 4, 4, 1, 4, 4, 1, 2, 3, 4]);
next = array1d(1..12 ,[7, 9, 6, 5, 12, 2, 4, 1, 10, 11, 8, 3]);
makespan = 969;
----------
assign = array1d(1..12 ,[4, 3, 3, 4, 3, 4, 4, 4, 1, 2, 3, 4]);
next = array1d(1..12 ,[7, 5, 11, 6, 3, 12, 4, 1, 10, 2, 8, 9]);
makespan = 964;
----------
assign = array1d(1..12 ,[4, 1, 1, 4, 1, 4, 4, 4, 1, 2, 3, 4]);
next = array1d(1..12 ,[7, 5, 9, 12, 3, 8, 4, 1, 10, 11, 6, 2]);
makespan = 946;
----------
assign = array1d(1..12 ,[4, 1, 1, 4, 1, 1, 4, 4, 1, 2, 3, 4]);
next = array1d(1..12 ,[7, 5, 9, 12, 6, 3, 4, 1, 10, 11, 8, 2]);
makespan = 942;
----------
assign = array1d(1..12 ,[4, 1, 1, 4, 1, 1, 4, 4, 1, 2, 3, 4]);
next = array1d(1..12 ,[7, 5, 9, 12, 6, 3, 4, 1, 10, 11, 8, 2]);
makespan = 931;
----------
assign = array1d(1..12 ,[4, 1, 1, 4, 1, 1, 4, 4, 1, 2, 3, 4]);
next = array1d(1..12 ,[7, 5, 9, 12, 6, 3, 4, 1, 10, 11, 8, 2]);
makespan = 916;
----------
assign = array1d(1..12 ,[4, 1, 1, 4, 1, 1, 4, 4, 1, 2, 3, 4]);
next = array1d(1..12 ,[7, 5, 9, 12, 6, 3, 4, 1, 10, 11, 8, 2]);
makespan = 899;
----------
assign = array1d(1..12 ,[4, 1, 1, 4, 1, 1, 4, 4, 1, 2, 3, 4]);
next = array1d(1..12 ,[7, 5, 9, 12, 6, 3, 4, 1, 10, 11, 8, 2]);
makespan = 891;
----------
assign = array1d(1..12 ,[4, 1, 1, 4, 1, 1, 4, 4, 1, 2, 3, 4]);
next = array1d(1..12 ,[7, 5, 9, 12, 6, 3, 4, 1, 10, 11, 8, 2]);
makespan = 890;
----------
assign = array1d(1..12 ,[4, 1, 1, 4, 1, 1, 4, 4, 1, 2, 3, 4]);
next = array1d(1..12 ,[7, 5, 9, 12, 6, 3, 4, 1, 10, 11, 8, 2]);
makespan = 881;
----------
assign = array1d(1..12 ,[4, 1, 1, 4, 1, 1, 4, 4, 1, 2, 3, 4]);
next = array1d(1..12 ,[7, 5, 9, 12, 6, 3, 4, 1, 10, 11, 8, 2]);
makespan = 877;
----------
assign = array1d(1..12 ,[4, 1, 1, 4, 1, 1, 4, 4, 1, 2, 3, 4]);
next = array1d(1..12 ,[7, 5, 9, 12, 6, 3, 4, 1, 10, 11, 8, 2]);
makespan = 868;
----------
assign = array1d(1..12 ,[4, 1, 1, 4, 1, 1, 4, 4, 1, 2, 3, 4]);
next = array1d(1..12 ,[7, 5, 9, 12, 6, 3, 4, 1, 10, 11, 8, 2]);
makespan = 859;
----------
assign = array1d(1..12 ,[4, 1, 1, 4, 1, 1, 4, 4, 1, 2, 3, 4]);
next = array1d(1..12 ,[7, 5, 9, 12, 6, 3, 4, 1, 10, 11, 8, 2]);
makespan = 856;
----------
assign = array1d(1..12 ,[4, 1, 1, 4, 1, 1, 4, 4, 1, 2, 3, 4]);
next = array1d(1..12 ,[7, 5, 9, 12, 6, 3, 4, 1, 10, 11, 8, 2]);
makespan = 852;
----------
assign = array1d(1..12 ,[4, 1, 1, 4, 1, 1, 4, 4, 1, 2, 3, 4]);
next = array1d(1..12 ,[7, 5, 9, 12, 6, 3, 4, 1, 10, 11, 8, 2]);
makespan = 843;
----------
assign = array1d(1..12 ,[4, 1, 1, 4, 1, 1, 4, 4, 1, 2, 3, 4]);
next = array1d(1..12 ,[7, 5, 9, 12, 6, 3, 4, 1, 10, 11, 8, 2]);
makespan = 835;
----------
assign = array1d(1..12 ,[4, 1, 1, 4, 1, 1, 4, 4, 1, 2, 3, 4]);
next = array1d(1..12 ,[7, 5, 9, 12, 6, 3, 4, 1, 10, 11, 8, 2]);
makespan = 833;
----------
assign = array1d(1..12 ,[4, 1, 1, 4, 1, 1, 4, 4, 1, 2, 3, 4]);
next = array1d(1..12 ,[7, 5, 9, 12, 6, 3, 4, 1, 10, 11, 8, 2]);
makespan = 821;
----------
assign = array1d(1..12 ,[4, 1, 1, 4, 1, 1, 4, 4, 1, 2, 3, 4]);
next = array1d(1..12 ,[7, 5, 9, 12, 6, 3, 4, 1, 10, 11, 8, 2]);
makespan = 817;
----------
assign = array1d(1..12 ,[4, 1, 1, 4, 1, 1, 4, 4, 1, 2, 3, 4]);
next = array1d(1..12 ,[7, 5, 9, 12, 6, 3, 4, 1, 10, 11, 8, 2]);
makespan = 801;
----------
assign = array1d(1..12 ,[4, 1, 1, 4, 1, 1, 4, 4, 1, 2, 3, 4]);
next = array1d(1..12 ,[7, 5, 9, 12, 6, 3, 4, 1, 10, 11, 8, 2]);
makespan = 796;
----------
assign = array1d(1..12 ,[4, 1, 1, 4, 1, 1, 4, 4, 1, 2, 3, 4]);
next = array1d(1..12 ,[7, 5, 9, 12, 6, 3, 4, 1, 10, 11, 8, 2]);
makespan = 792;
----------
assign = array1d(1..12 ,[4, 1, 1, 4, 1, 1, 4, 4, 1, 2, 3, 4]);
next = array1d(1..12 ,[7, 5, 9, 12, 6, 3, 4, 1, 10, 11, 8, 2]);
makespan = 790;
----------
assign = array1d(1..12 ,[4, 2, 2, 4, 2, 2, 4, 4, 1, 2, 3, 4]);
next = array1d(1..12 ,[7, 5, 10, 12, 6, 3, 4, 1, 2, 11, 8, 9]);
makespan = 783;
----------
assign = array1d(1..12 ,[4, 2, 2, 4, 2, 2, 4, 4, 1, 2, 3, 4]);
next = array1d(1..12 ,[7, 5, 10, 12, 6, 3, 4, 1, 2, 11, 8, 9]);
makespan = 781;
----------
assign = array1d(1..12 ,[4, 2, 2, 4, 2, 2, 4, 4, 1, 2, 3, 4]);
next = array1d(1..12 ,[7, 5, 10, 12, 6, 3, 4, 1, 2, 11, 8, 9]);
makespan = 772;
----------
assign = array1d(1..12 ,[4, 2, 2, 4, 2, 2, 4, 4, 1, 2, 3, 4]);
next = array1d(1..12 ,[7, 5, 10, 12, 6, 3, 4, 1, 2, 11, 8, 9]);
makespan = 770;
----------
assign = array1d(1..12 ,[4, 2, 2, 4, 2, 2, 4, 4, 1, 2, 3, 4]);
next = array1d(1..12 ,[7, 5, 10, 12, 6, 3, 4, 1, 2, 11, 8, 9]);
makespan = 766;
----------
assign = array1d(1..12 ,[4, 2, 2, 4, 2, 2, 4, 4, 1, 2, 3, 4]);
next = array1d(1..12 ,[7, 5, 10, 12, 6, 3, 4, 1, 2, 11, 8, 9]);
makespan = 762;
----------
assign = array1d(1..12 ,[4, 2, 2, 4, 2, 2, 4, 4, 1, 2, 3, 4]);
next = array1d(1..12 ,[7, 5, 10, 8, 6, 3, 12, 1, 2, 11, 4, 9]);
makespan = 753;
----------
assign = array1d(1..12 ,[4, 2, 2, 4, 2, 2, 4, 4, 1, 2, 3, 4]);
next = array1d(1..12 ,[12, 10, 5, 1, 6, 2, 4, 7, 3, 11, 8, 9]);
makespan = 744;
----------
assign = array1d(1..12 ,[4, 2, 2, 4, 2, 2, 4, 4, 1, 2, 3, 4]);
next = array1d(1..12 ,[12, 10, 5, 1, 6, 2, 4, 7, 3, 11, 8, 9]);
makespan = 742;
----------
assign = array1d(1..12 ,[1, 3, 1, 4, 3, 3, 4, 4, 1, 2, 3, 4]);
next = array1d(1..12 ,[3, 11, 9, 8, 6, 2, 4, 12, 10, 5, 7, 1]);
makespan = 741;
----------
assign = array1d(1..12 ,[2, 1, 2, 4, 1, 1, 4, 4, 1, 2, 3, 4]);
next = array1d(1..12 ,[3, 9, 10, 8, 6, 2, 4, 12, 1, 11, 7, 5]);
makespan = 740;
----------
assign = array1d(1..12 ,[1, 3, 1, 4, 3, 3, 4, 4, 1, 2, 3, 4]);
next = array1d(1..12 ,[3, 11, 9, 8, 6, 2, 4, 12, 10, 5, 7, 1]);
makespan = 731;
----------
assign = array1d(1..12 ,[2, 1, 2, 4, 1, 1, 4, 4, 1, 2, 3, 4]);
next = array1d(1..12 ,[3, 9, 10, 8, 6, 2, 4, 12, 1, 11, 7, 5]);
makespan = 710;
----------
assign = array1d(1..12 ,[1, 3, 1, 4, 3, 3, 4, 4, 1, 2, 3, 4]);
next = array1d(1..12 ,[3, 11, 9, 8, 6, 2, 4, 12, 10, 5, 7, 1]);
makespan = 709;
----------
assign = array1d(1..12 ,[2, 1, 2, 4, 1, 1, 4, 4, 1, 2, 3, 4]);
next = array1d(1..12 ,[3, 9, 10, 8, 6, 2, 4, 12, 1, 11, 7, 5]);
makespan = 693;
----------
assign = array1d(1..12 ,[1, 3, 1, 4, 3, 3, 4, 4, 1, 2, 3, 4]);
next = array1d(1..12 ,[3, 11, 9, 8, 6, 2, 4, 12, 10, 5, 7, 1]);
makespan = 685;
----------
assign = array1d(1..12 ,[2, 1, 2, 4, 1, 1, 4, 4, 1, 2, 3, 4]);
next = array1d(1..12 ,[3, 9, 10, 8, 6, 2, 4, 12, 1, 11, 7, 5]);
makespan = 683;
----------
assign = array1d(1..12 ,[1, 3, 1, 4, 3, 3, 4, 4, 1, 2, 3, 4]);
next = array1d(1..12 ,[3, 11, 9, 8, 6, 2, 4, 12, 10, 5, 7, 1]);
makespan = 679;
----------
assign = array1d(1..12 ,[2, 1, 2, 4, 1, 1, 4, 4, 1, 2, 3, 4]);
next = array1d(1..12 ,[3, 9, 10, 8, 6, 2, 4, 12, 1, 11, 7, 5]);
makespan = 675;
----------
assign = array1d(1..12 ,[1, 3, 1, 4, 3, 3, 4, 4, 1, 2, 3, 4]);
next = array1d(1..12 ,[3, 11, 9, 8, 6, 2, 4, 12, 10, 5, 7, 1]);
makespan = 674;
----------
assign = array1d(1..12 ,[2, 1, 2, 4, 1, 1, 4, 4, 1, 2, 3, 4]);
next = array1d(1..12 ,[3, 9, 10, 8, 6, 2, 4, 12, 1, 11, 7, 5]);
makespan = 663;
----------
assign = array1d(1..12 ,[1, 3, 1, 4, 3, 3, 4, 4, 1, 2, 3, 4]);
next = array1d(1..12 ,[3, 11, 9, 8, 6, 2, 4, 12, 10, 5, 7, 1]);
makespan = 661;
----------
assign = array1d(1..12 ,[2, 1, 2, 4, 1, 1, 4, 4, 1, 2, 3, 4]);
next = array1d(1..12 ,[3, 9, 10, 8, 6, 2, 4, 12, 1, 11, 7, 5]);
makespan = 642;
----------
assign = array1d(1..12 ,[1, 3, 1, 4, 3, 3, 4, 4, 1, 2, 3, 4]);
next = array1d(1..12 ,[3, 11, 9, 8, 6, 2, 4, 12, 10, 5, 7, 1]);
makespan = 640;
----------
assign = array1d(1..12 ,[1, 3, 1, 4, 3, 3, 4, 4, 1, 2, 3, 4]);
next = array1d(1..12 ,[3, 11, 9, 8, 6, 2, 4, 12, 10, 5, 7, 1]);
makespan = 637;
----------
assign = array1d(1..12 ,[1, 3, 1, 4, 3, 3, 4, 4, 1, 2, 3, 4]);
next = array1d(1..12 ,[3, 11, 9, 8, 6, 2, 4, 12, 10, 5, 7, 1]);
makespan = 633;
----------
assign = array1d(1..12 ,[1, 3, 1, 4, 3, 3, 4, 4, 1, 2, 3, 4]);
next = array1d(1..12 ,[3, 11, 9, 8, 6, 2, 4, 12, 10, 5, 7, 1]);
makespan = 632;
----------
assign = array1d(1..12 ,[2, 1, 2, 4, 1, 1, 4, 4, 1, 2, 3, 4]);
next = array1d(1..12 ,[3, 9, 10, 8, 6, 2, 4, 12, 1, 11, 7, 5]);
makespan = 631;
----------
assign = array1d(1..12 ,[1, 3, 1, 4, 3, 3, 4, 4, 1, 2, 3, 4]);
next = array1d(1..12 ,[3, 11, 9, 8, 6, 2, 4, 12, 10, 5, 7, 1]);
makespan = 629;
----------
assign = array1d(1..12 ,[2, 1, 2, 4, 1, 1, 4, 4, 1, 2, 3, 4]);
next = array1d(1..12 ,[3, 9, 10, 8, 6, 2, 4, 12, 1, 11, 7, 5]);
makespan = 622;
----------
assign = array1d(1..12 ,[1, 3, 1, 4, 3, 3, 4, 4, 1, 2, 3, 4]);
next = array1d(1..12 ,[3, 11, 9, 8, 6, 2, 4, 12, 10, 5, 7, 1]);
makespan = 619;
----------
assign = array1d(1..12 ,[1, 3, 1, 4, 3, 3, 4, 4, 1, 2, 3, 4]);
next = array1d(1..12 ,[3, 11, 9, 8, 6, 2, 4, 12, 10, 5, 7, 1]);
makespan = 613;
----------
assign = array1d(1..12 ,[2, 1, 2, 4, 1, 1, 4, 4, 1, 2, 3, 4]);
next = array1d(1..12 ,[3, 9, 10, 8, 6, 2, 4, 12, 1, 11, 7, 5]);
makespan = 611;
----------
assign = array1d(1..12 ,[2, 1, 2, 4, 1, 1, 4, 4, 1, 2, 3, 4]);
next = array1d(1..12 ,[3, 9, 10, 8, 6, 2, 4, 12, 1, 11, 7, 5]);
makespan = 607;
----------
assign = array1d(1..12 ,[1, 3, 1, 4, 3, 3, 4, 4, 1, 2, 3, 4]);
next = array1d(1..12 ,[3, 11, 9, 8, 6, 2, 4, 12, 10, 5, 7, 1]);
makespan = 601;
----------
assign = array1d(1..12 ,[2, 1, 2, 4, 1, 1, 4, 4, 1, 2, 3, 4]);
next = array1d(1..12 ,[3, 9, 10, 8, 6, 2, 4, 12, 1, 11, 7, 5]);
makespan = 590;
----------
assign = array1d(1..12 ,[1, 3, 1, 4, 3, 3, 4, 4, 1, 2, 3, 4]);
next = array1d(1..12 ,[3, 11, 9, 8, 6, 2, 4, 12, 10, 5, 7, 1]);
makespan = 587;
----------
assign = array1d(1..12 ,[2, 1, 2, 4, 1, 1, 4, 4, 1, 2, 3, 4]);
next = array1d(1..12 ,[3, 9, 10, 8, 6, 2, 4, 12, 1, 11, 7, 5]);
makespan = 583;
----------
assign = array1d(1..12 ,[1, 3, 1, 4, 3, 3, 4, 4, 1, 2, 3, 4]);
next = array1d(1..12 ,[3, 11, 9, 8, 6, 2, 4, 12, 10, 5, 7, 1]);
makespan = 582;
----------
assign = array1d(1..12 ,[2, 3, 2, 4, 3, 3, 4, 4, 1, 2, 3, 4]);
next = array1d(1..12 ,[3, 11, 10, 12, 6, 2, 4, 7, 1, 5, 8, 9]);
makespan = 574;
----------
assign = array1d(1..12 ,[2, 3, 2, 4, 3, 3, 4, 4, 1, 2, 3, 4]);
next = array1d(1..12 ,[3, 11, 10, 12, 6, 2, 4, 7, 1, 5, 8, 9]);
makespan = 570;
----------
assign = array1d(1..12 ,[2, 3, 2, 4, 3, 3, 4, 4, 1, 2, 3, 4]);
next = array1d(1..12 ,[3, 11, 10, 12, 6, 2, 4, 7, 1, 5, 8, 9]);
makespan = 560;
----------
assign = array1d(1..12 ,[2, 3, 2, 4, 3, 3, 4, 4, 1, 2, 3, 4]);
next = array1d(1..12 ,[3, 11, 10, 12, 6, 2, 4, 7, 1, 5, 8, 9]);
makespan = 557;
----------
assign = array1d(1..12 ,[2, 3, 4, 4, 2, 2, 4, 3, 1, 2, 3, 4]);
next = array1d(1..12 ,[5, 8, 7, 12, 6, 10, 4, 11, 1, 2, 3, 9]);
makespan = 555;
----------
assign = array1d(1..12 ,[3, 2, 4, 4, 3, 3, 4, 2, 1, 2, 3, 4]);
next = array1d(1..12 ,[5, 8, 7, 12, 6, 11, 4, 10, 2, 1, 3, 9]);
makespan = 552;
----------
assign = array1d(1..12 ,[2, 3, 4, 4, 2, 2, 4, 3, 1, 2, 3, 4]);
next = array1d(1..12 ,[5, 8, 7, 12, 6, 10, 4, 11, 1, 2, 3, 9]);
makespan = 542;
----------
assign = array1d(1..12 ,[2, 3, 4, 4, 2, 2, 4, 3, 1, 2, 3, 4]);
next = array1d(1..12 ,[5, 8, 7, 12, 6, 10, 4, 11, 1, 2, 3, 9]);
makespan = 535;
----------
assign = array1d(1..12 ,[2, 3, 4, 4, 2, 2, 4, 3, 1, 2, 3, 4]);
next = array1d(1..12 ,[5, 8, 7, 12, 6, 10, 4, 11, 1, 2, 3, 9]);
makespan = 533;
----------
assign = array1d(1..12 ,[2, 3, 4, 4, 2, 2, 4, 3, 1, 2, 3, 4]);
next = array1d(1..12 ,[5, 8, 7, 12, 6, 10, 4, 11, 1, 2, 3, 9]);
makespan = 531;
----------
assign = array1d(1..12 ,[2, 3, 1, 4, 2, 2, 4, 3, 1, 2, 3, 4]);
next = array1d(1..12 ,[5, 8, 9, 12, 6, 10, 4, 11, 1, 2, 7, 3]);
makespan = 525;
----------
assign = array1d(1..12 ,[4, 3, 2, 4, 3, 3, 4, 2, 1, 2, 3, 4]);
next = array1d(1..12 ,[7, 11, 8, 12, 6, 2, 4, 10, 3, 5, 1, 9]);
makespan = 524;
----------
assign = array1d(1..12 ,[4, 2, 3, 4, 2, 2, 4, 3, 1, 2, 3, 4]);
next = array1d(1..12 ,[7, 10, 8, 12, 6, 2, 4, 11, 5, 3, 1, 9]);
makespan = 515;
----------
assign = array1d(1..12 ,[4, 2, 3, 4, 2, 2, 4, 3, 1, 2, 3, 4]);
next = array1d(1..12 ,[7, 10, 8, 12, 6, 2, 4, 11, 5, 3, 1, 9]);
makespan = 514;
----------
assign = array1d(1..12 ,[4, 2, 3, 4, 2, 2, 4, 3, 1, 2, 3, 4]);
next = array1d(1..12 ,[12, 10, 8, 1, 6, 2, 4, 11, 5, 3, 7, 9]);
makespan = 507;
----------
assign = array1d(1..12 ,[4, 2, 1, 4, 3, 3, 4, 2, 1, 2, 3, 4]);
next = array1d(1..12 ,[12, 8, 9, 1, 6, 11, 4, 10, 2, 5, 7, 3]);
makespan = 505;
----------
assign = array1d(1..12 ,[2, 3, 1, 4, 2, 2, 4, 3, 1, 2, 3, 4]);
next = array1d(1..12 ,[5, 8, 9, 12, 6, 10, 4, 11, 1, 2, 7, 3]);
makespan = 490;
----------
assign = array1d(1..12 ,[3, 1, 2, 4, 3, 2, 4, 1, 1, 2, 3, 4]);
next = array1d(1..12 ,[5, 8, 10, 12, 11, 3, 4, 9, 6, 1, 7, 2]);
makespan = 483;
----------
assign = array1d(1..12 ,[2, 1, 3, 4, 1, 3, 4, 2, 1, 2, 3, 4]);
next = array1d(1..12 ,[8, 9, 11, 12, 2, 3, 4, 10, 1, 6, 7, 5]);
makespan = 480;
----------
assign = array1d(1..12 ,[1, 2, 3, 4, 1, 3, 4, 2, 1, 2, 3, 4]);
next = array1d(1..12 ,[5, 8, 11, 12, 9, 3, 4, 10, 2, 6, 7, 1]);
makespan = 475;
----------
assign = array1d(1..12 ,[1, 2, 4, 2, 1, 3, 3, 4, 1, 2, 3, 4]);
next = array1d(1..12 ,[5, 4, 8, 10, 9, 7, 11, 12, 2, 6, 3, 1]);
makespan = 469;
----------
assign = array1d(1..12 ,[4, 4, 1, 2, 4, 3, 3, 1, 1, 2, 3, 4]);
next = array1d(1..12 ,[5, 12, 8, 10, 2, 7, 11, 9, 4, 6, 1, 3]);
makespan = 464;
----------
assign = array1d(1..12 ,[3, 4, 4, 2, 3, 2, 4, 1, 1, 2, 3, 4]);
next = array1d(1..12 ,[5, 3, 7, 6, 11, 10, 12, 9, 4, 1, 2, 8]);
makespan = 462;
----------
assign = array1d(1..12 ,[3, 2, 4, 1, 3, 4, 2, 1, 1, 2, 3, 4]);
next = array1d(1..12 ,[5, 10, 12, 9, 11, 3, 2, 4, 7, 1, 6, 8]);
makespan = 457;
----------
assign = array1d(1..12 ,[1, 3, 4, 2, 1, 4, 2, 3, 1, 2, 3, 4]);
next = array1d(1..12 ,[5, 8, 6, 10, 9, 12, 4, 11, 7, 2, 3, 1]);
makespan = 452;
----------
assign = array1d(1..12 ,[4, 2, 1, 3, 3, 1, 2, 4, 1, 2, 3, 4]);
next = array1d(1..12 ,[8, 10, 9, 11, 4, 3, 2, 12, 7, 5, 1, 6]);
makespan = 449;
----------
assign = array1d(1..12 ,[4, 3, 1, 4, 2, 1, 3, 2, 1, 2, 3, 4]);
next = array1d(1..12 ,[12, 11, 9, 1, 8, 3, 2, 10, 5, 7, 4, 6]);
makespan = 447;
----------
assign = array1d(1..12 ,[4, 2, 3, 1, 1, 3, 2, 4, 1, 2, 3, 4]);
next = array1d(1..12 ,[8, 10, 11, 5, 9, 3, 2, 12, 7, 6, 1, 4]);
makespan = 442;
----------
assign = array1d(1..12 ,[4, 2, 3, 1, 1, 3, 2, 4, 1, 2, 3, 4]);
next = array1d(1..12 ,[8, 10, 11, 5, 9, 3, 2, 12, 7, 6, 1, 4]);
makespan = 441;
----------
assign = array1d(1..12 ,[1, 3, 4, 2, 3, 2, 1, 4, 1, 2, 3, 4]);
next = array1d(1..12 ,[7, 5, 8, 10, 11, 4, 9, 12, 6, 2, 3, 1]);
makespan = 437;
----------
assign = array1d(1..12 ,[1, 3, 4, 2, 3, 2, 1, 4, 1, 2, 3, 4]);
next = array1d(1..12 ,[7, 5, 8, 10, 11, 4, 9, 12, 6, 2, 3, 1]);
makespan = 435;
----------
assign = array1d(1..12 ,[1, 2, 4, 1, 3, 3, 2, 4, 1, 2, 3, 4]);
next = array1d(1..12 ,[9, 10, 8, 1, 6, 11, 2, 12, 7, 5, 3, 4]);
makespan = 434;
----------
assign = array1d(1..12 ,[4, 3, 2, 2, 3, 1, 4, 1, 1, 2, 3, 4]);
next = array1d(1..12 ,[7, 5, 10, 3, 11, 8, 12, 9, 4, 2, 1, 6]);
makespan = 432;
----------
assign = array1d(1..12 ,[4, 1, 2, 2, 3, 3, 4, 1, 1, 2, 3, 4]);
next = array1d(1..12 ,[7, 8, 10, 3, 11, 5, 12, 9, 4, 6, 1, 2]);
makespan = 424;
----------
assign = array1d(1..12 ,[4, 2, 1, 1, 2, 3, 4, 3, 1, 2, 3, 4]);
next = array1d(1..12 ,[7, 10, 9, 3, 2, 8, 12, 11, 5, 6, 1, 4]);
makespan = 419;
----------
assign = array1d(1..12 ,[4, 1, 2, 2, 1, 3, 4, 3, 1, 2, 3, 4]);
next = array1d(1..12 ,[7, 9, 10, 3, 2, 8, 12, 11, 4, 6, 1, 5]);
makespan = 418;
----------
assign = array1d(1..12 ,[4, 3, 2, 2, 3, 1, 4, 1, 1, 2, 3, 4]);
next = array1d(1..12 ,[7, 11, 4, 10, 2, 8, 12, 9, 3, 5, 1, 6]);
makespan = 417;
----------
assign = array1d(1..12 ,[4, 2, 1, 1, 2, 3, 4, 3, 1, 2, 3, 4]);
next = array1d(1..12 ,[7, 10, 4, 9, 2, 8, 12, 11, 5, 6, 1, 3]);
makespan = 415;
----------
assign = array1d(1..12 ,[2, 4, 1, 2, 4, 3, 3, 1, 1, 2, 3, 4]);
next = array1d(1..12 ,[10, 12, 8, 1, 2, 7, 11, 9, 4, 6, 5, 3]);
makespan = 411;
----------
assign = array1d(1..12 ,[4, 4, 2, 1, 3, 3, 1, 2, 1, 2, 3, 4]);
next = array1d(1..12 ,[12, 1, 8, 9, 11, 5, 4, 10, 3, 6, 2, 7]);
makespan = 410;
----------
assign = array1d(1..12 ,[4, 4, 2, 1, 3, 3, 1, 2, 1, 2, 3, 4]);
next = array1d(1..12 ,[2, 12, 8, 9, 6, 11, 4, 10, 3, 5, 1, 7]);
makespan = 409;
----------
assign = array1d(1..12 ,[4, 4, 2, 1, 2, 3, 3, 1, 1, 2, 3, 4]);
next = array1d(1..12 ,[12, 1, 5, 8, 10, 11, 6, 9, 3, 7, 2, 4]);
makespan = 407;
----------
assign = array1d(1..12 ,[4, 4, 2, 1, 2, 3, 3, 1, 1, 2, 3, 4]);
next = array1d(1..12 ,[12, 1, 5, 8, 10, 11, 6, 9, 3, 7, 2, 4]);
makespan = 405;
----------
assign = array1d(1..12 ,[4, 1, 1, 3, 3, 4, 2, 2, 1, 2, 3, 4]);
next = array1d(1..12 ,[6, 3, 9, 11, 4, 12, 8, 10, 7, 5, 1, 2]);
makespan = 404;
----------
assign = array1d(1..12 ,[3, 4, 3, 1, 4, 1, 2, 2, 1, 2, 3, 4]);
next = array1d(1..12 ,[3, 5, 11, 9, 12, 4, 8, 10, 7, 1, 2, 6]);
makespan = 403;
----------
assign = array1d(1..12 ,[3, 4, 3, 1, 4, 1, 2, 2, 1, 2, 3, 4]);
next = array1d(1..12 ,[3, 5, 11, 9, 12, 4, 8, 10, 7, 1, 2, 6]);
makespan = 402;
----------
assign = array1d(1..12 ,[3, 4, 3, 1, 4, 1, 2, 2, 1, 2, 3, 4]);
next = array1d(1..12 ,[3, 5, 11, 9, 12, 4, 8, 10, 7, 1, 2, 6]);
makespan = 401;
----------
assign = array1d(1..12 ,[3, 4, 3, 1, 4, 1, 2, 2, 1, 2, 3, 4]);
next = array1d(1..12 ,[3, 5, 11, 9, 12, 4, 8, 10, 7, 1, 2, 6]);
makespan = 399;
----------
assign = array1d(1..12 ,[3, 4, 3, 1, 4, 1, 2, 2, 1, 2, 3, 4]);
next = array1d(1..12 ,[3, 5, 11, 9, 12, 4, 8, 10, 7, 1, 2, 6]);
makespan = 397;
----------
assign = array1d(1..12 ,[3, 4, 3, 1, 4, 1, 2, 2, 1, 2, 3, 4]);
next = array1d(1..12 ,[3, 5, 11, 9, 12, 4, 8, 10, 7, 1, 2, 6]);
makespan = 396;
----------
assign = array1d(1..12 ,[3, 4, 3, 1, 4, 1, 2, 2, 1, 2, 3, 4]);
next = array1d(1..12 ,[3, 5, 11, 9, 12, 4, 8, 10, 7, 1, 2, 6]);
makespan = 395;
----------
assign = array1d(1..12 ,[3, 4, 3, 1, 4, 1, 2, 2, 1, 2, 3, 4]);
next = array1d(1..12 ,[3, 5, 11, 9, 12, 4, 8, 10, 7, 1, 2, 6]);
makespan = 394;
----------
assign = array1d(1..12 ,[3, 4, 3, 1, 4, 1, 2, 2, 1, 2, 3, 4]);
next = array1d(1..12 ,[3, 5, 11, 9, 12, 4, 8, 10, 7, 1, 2, 6]);
makespan = 392;
----------
assign = array1d(1..12 ,[3, 4, 3, 1, 4, 1, 2, 2, 1, 2, 3, 4]);
next = array1d(1..12 ,[3, 5, 11, 9, 12, 4, 8, 10, 7, 1, 2, 6]);
makespan = 391;
----------
assign = array1d(1..12 ,[3, 4, 3, 1, 4, 1, 2, 2, 1, 2, 3, 4]);
next = array1d(1..12 ,[3, 5, 11, 9, 12, 4, 8, 10, 7, 1, 2, 6]);
makespan = 390;
----------
assign = array1d(1..12 ,[3, 4, 3, 1, 4, 1, 2, 2, 1, 2, 3, 4]);
next = array1d(1..12 ,[3, 5, 11, 9, 12, 4, 8, 10, 7, 1, 2, 6]);
makespan = 389;
----------
assign = array1d(1..12 ,[3, 4, 3, 1, 4, 1, 2, 2, 1, 2, 3, 4]);
next = array1d(1..12 ,[3, 5, 11, 9, 12, 4, 8, 10, 7, 1, 2, 6]);
makespan = 388;
----------
assign = array1d(1..12 ,[3, 4, 3, 1, 4, 1, 2, 2, 1, 2, 3, 4]);
next = array1d(1..12 ,[3, 5, 11, 9, 12, 4, 8, 10, 7, 1, 2, 6]);
makespan = 387;
----------
assign = array1d(1..12 ,[3, 4, 3, 1, 4, 1, 2, 2, 1, 2, 3, 4]);
next = array1d(1..12 ,[3, 5, 11, 9, 12, 4, 8, 10, 7, 1, 2, 6]);
makespan = 386;
----------
assign = array1d(1..12 ,[3, 4, 3, 1, 4, 1, 2, 2, 1, 2, 3, 4]);
next = array1d(1..12 ,[3, 5, 11, 9, 12, 4, 8, 10, 7, 1, 2, 6]);
makespan = 385;
----------
assign = array1d(1..12 ,[3, 4, 3, 1, 4, 1, 2, 2, 1, 2, 3, 4]);
next = array1d(1..12 ,[3, 5, 11, 9, 12, 4, 8, 10, 7, 1, 2, 6]);
makespan = 384;
----------
assign = array1d(1..12 ,[3, 4, 3, 1, 4, 1, 2, 2, 1, 2, 3, 4]);
next = array1d(1..12 ,[3, 5, 11, 9, 12, 4, 8, 10, 7, 1, 2, 6]);
makespan = 383;
----------
assign = array1d(1..12 ,[3, 4, 3, 1, 4, 1, 2, 2, 1, 2, 3, 4]);
next = array1d(1..12 ,[3, 5, 11, 9, 12, 4, 8, 10, 7, 1, 2, 6]);
makespan = 382;
----------
assign = array1d(1..12 ,[3, 4, 3, 1, 4, 1, 2, 2, 1, 2, 3, 4]);
next = array1d(1..12 ,[3, 5, 11, 9, 12, 4, 8, 10, 7, 1, 2, 6]);
makespan = 379;
----------
assign = array1d(1..12 ,[3, 4, 3, 1, 4, 1, 2, 2, 1, 2, 3, 4]);
next = array1d(1..12 ,[3, 5, 11, 9, 12, 4, 8, 10, 7, 1, 2, 6]);
makespan = 378;
----------
assign = array1d(1..12 ,[3, 4, 3, 1, 4, 1, 2, 2, 1, 2, 3, 4]);
next = array1d(1..12 ,[3, 5, 11, 9, 12, 4, 8, 10, 7, 1, 2, 6]);
makespan = 377;
----------
assign = array1d(1..12 ,[3, 4, 3, 1, 4, 1, 2, 2, 1, 2, 3, 4]);
next = array1d(1..12 ,[3, 5, 11, 9, 12, 4, 8, 10, 7, 1, 2, 6]);
makespan = 376;
----------
assign = array1d(1..12 ,[3, 4, 3, 1, 4, 1, 2, 2, 1, 2, 3, 4]);
next = array1d(1..12 ,[3, 5, 11, 9, 12, 4, 8, 10, 7, 1, 2, 6]);
makespan = 372;
----------
assign = array1d(1..12 ,[3, 4, 3, 1, 4, 1, 2, 2, 1, 2, 3, 4]);
next = array1d(1..12 ,[3, 5, 11, 9, 12, 4, 8, 10, 7, 1, 2, 6]);
makespan = 371;
----------
assign = array1d(1..12 ,[3, 4, 3, 1, 4, 1, 2, 2, 1, 2, 3, 4]);
next = array1d(1..12 ,[3, 5, 11, 9, 12, 4, 8, 10, 7, 1, 2, 6]);
makespan = 369;
----------
assign = array1d(1..12 ,[3, 4, 3, 1, 4, 1, 2, 2, 1, 2, 3, 4]);
next = array1d(1..12 ,[3, 5, 11, 9, 12, 4, 8, 10, 7, 1, 2, 6]);
makespan = 368;
----------
assign = array1d(1..12 ,[3, 4, 3, 1, 4, 1, 2, 2, 1, 2, 3, 4]);
next = array1d(1..12 ,[3, 5, 11, 9, 12, 4, 8, 10, 7, 1, 2, 6]);
makespan = 367;
----------
assign = array1d(1..12 ,[3, 4, 3, 1, 4, 1, 2, 2, 1, 2, 3, 4]);
next = array1d(1..12 ,[3, 5, 11, 9, 12, 4, 8, 10, 7, 1, 2, 6]);
makespan = 366;
----------
assign = array1d(1..12 ,[3, 4, 3, 1, 4, 1, 2, 2, 1, 2, 3, 4]);
next = array1d(1..12 ,[3, 5, 11, 9, 12, 4, 8, 10, 7, 1, 2, 6]);
makespan = 365;
----------
assign = array1d(1..12 ,[3, 4, 3, 1, 4, 1, 2, 2, 1, 2, 3, 4]);
next = array1d(1..12 ,[3, 5, 11, 9, 12, 4, 8, 10, 7, 1, 2, 6]);
makespan = 364;
----------
assign = array1d(1..12 ,[3, 4, 3, 1, 4, 1, 2, 2, 1, 2, 3, 4]);
next = array1d(1..12 ,[3, 5, 11, 9, 12, 4, 8, 10, 7, 1, 2, 6]);
makespan = 363;
----------
assign = array1d(1..12 ,[3, 4, 3, 1, 4, 1, 2, 2, 1, 2, 3, 4]);
next = array1d(1..12 ,[3, 5, 11, 9, 12, 4, 8, 10, 7, 1, 2, 6]);
makespan = 361;
----------
assign = array1d(1..12 ,[3, 4, 3, 1, 4, 1, 2, 2, 1, 2, 3, 4]);
next = array1d(1..12 ,[3, 5, 11, 9, 12, 4, 8, 10, 7, 1, 2, 6]);
makespan = 360;
----------
assign = array1d(1..12 ,[3, 4, 3, 1, 4, 1, 2, 2, 1, 2, 3, 4]);
next = array1d(1..12 ,[3, 5, 11, 9, 12, 4, 8, 10, 7, 1, 2, 6]);
makespan = 358;
----------
assign = array1d(1..12 ,[3, 4, 3, 1, 4, 1, 2, 2, 1, 2, 3, 4]);
next = array1d(1..12 ,[3, 5, 11, 9, 12, 4, 8, 10, 7, 1, 2, 6]);
makespan = 356;
----------
assign = array1d(1..12 ,[3, 4, 3, 1, 4, 1, 2, 2, 1, 2, 3, 4]);
next = array1d(1..12 ,[3, 5, 11, 9, 12, 4, 8, 10, 7, 1, 2, 6]);
makespan = 355;
----------
assign = array1d(1..12 ,[3, 4, 3, 1, 4, 1, 2, 2, 1, 2, 3, 4]);
next = array1d(1..12 ,[3, 5, 11, 9, 12, 4, 8, 10, 7, 1, 2, 6]);
makespan = 354;
----------
assign = array1d(1..12 ,[3, 4, 3, 1, 4, 1, 2, 2, 1, 2, 3, 4]);
next = array1d(1..12 ,[3, 5, 11, 9, 12, 4, 8, 10, 7, 1, 2, 6]);
makespan = 351;
----------
assign = array1d(1..12 ,[3, 4, 3, 1, 4, 1, 2, 2, 1, 2, 3, 4]);
next = array1d(1..12 ,[3, 5, 11, 9, 12, 4, 8, 10, 7, 1, 2, 6]);
makespan = 350;
----------
assign = array1d(1..12 ,[3, 4, 3, 1, 4, 1, 2, 2, 1, 2, 3, 4]);
next = array1d(1..12 ,[3, 5, 11, 9, 12, 4, 8, 10, 7, 1, 2, 6]);
makespan = 349;
----------
assign = array1d(1..12 ,[3, 4, 3, 1, 4, 1, 2, 2, 1, 2, 3, 4]);
next = array1d(1..12 ,[3, 5, 11, 9, 12, 4, 8, 10, 7, 1, 2, 6]);
makespan = 347;
----------
assign = array1d(1..12 ,[3, 4, 3, 1, 4, 1, 2, 2, 1, 2, 3, 4]);
next = array1d(1..12 ,[3, 5, 11, 9, 12, 4, 8, 10, 7, 1, 2, 6]);
makespan = 346;
----------
assign = array1d(1..12 ,[3, 4, 3, 1, 4, 1, 2, 2, 1, 2, 3, 4]);
next = array1d(1..12 ,[3, 5, 11, 9, 12, 4, 8, 10, 7, 1, 2, 6]);
makespan = 343;
----------
assign = array1d(1..12 ,[3, 4, 3, 1, 4, 1, 2, 2, 1, 2, 3, 4]);
next = array1d(1..12 ,[3, 5, 11, 9, 12, 4, 8, 10, 7, 1, 2, 6]);
makespan = 342;
----------
assign = array1d(1..12 ,[3, 4, 3, 1, 4, 1, 2, 2, 1, 2, 3, 4]);
next = array1d(1..12 ,[3, 5, 11, 9, 12, 4, 8, 10, 7, 1, 2, 6]);
makespan = 340;
----------
assign = array1d(1..12 ,[3, 4, 3, 1, 4, 1, 2, 2, 1, 2, 3, 4]);
next = array1d(1..12 ,[3, 5, 11, 9, 12, 4, 8, 10, 7, 1, 2, 6]);
makespan = 339;
----------
assign = array1d(1..12 ,[3, 4, 3, 1, 4, 1, 2, 2, 1, 2, 3, 4]);
next = array1d(1..12 ,[3, 5, 11, 9, 12, 4, 8, 10, 7, 1, 2, 6]);
makespan = 337;
----------
assign = array1d(1..12 ,[3, 4, 3, 1, 4, 1, 2, 2, 1, 2, 3, 4]);
next = array1d(1..12 ,[3, 5, 11, 9, 12, 4, 8, 10, 7, 1, 2, 6]);
makespan = 336;
----------
assign = array1d(1..12 ,[3, 4, 3, 1, 4, 1, 2, 2, 1, 2, 3, 4]);
next = array1d(1..12 ,[3, 5, 11, 9, 12, 4, 8, 10, 7, 1, 2, 6]);
makespan = 335;
----------
assign = array1d(1..12 ,[3, 4, 3, 1, 4, 1, 2, 2, 1, 2, 3, 4]);
next = array1d(1..12 ,[3, 5, 11, 9, 12, 4, 8, 10, 7, 1, 2, 6]);
makespan = 334;
----------
assign = array1d(1..12 ,[3, 4, 3, 1, 4, 1, 2, 2, 1, 2, 3, 4]);
next = array1d(1..12 ,[3, 5, 11, 9, 12, 4, 8, 10, 7, 1, 2, 6]);
makespan = 333;
----------
assign = array1d(1..12 ,[3, 4, 3, 1, 4, 1, 2, 2, 1, 2, 3, 4]);
next = array1d(1..12 ,[3, 5, 11, 9, 12, 4, 8, 10, 7, 1, 2, 6]);
makespan = 332;
----------
assign = array1d(1..12 ,[3, 4, 3, 1, 4, 1, 2, 2, 1, 2, 3, 4]);
next = array1d(1..12 ,[3, 5, 11, 9, 12, 4, 8, 10, 7, 1, 2, 6]);
makespan = 331;
----------
assign = array1d(1..12 ,[3, 4, 3, 1, 4, 1, 2, 2, 1, 2, 3, 4]);
next = array1d(1..12 ,[3, 5, 11, 9, 12, 4, 8, 10, 7, 1, 2, 6]);
makespan = 330;
----------
assign = array1d(1..12 ,[3, 4, 3, 1, 4, 1, 2, 2, 1, 2, 3, 4]);
next = array1d(1..12 ,[3, 5, 11, 9, 12, 4, 8, 10, 7, 1, 2, 6]);
makespan = 329;
----------
assign = array1d(1..12 ,[3, 4, 3, 1, 4, 1, 2, 2, 1, 2, 3, 4]);
next = array1d(1..12 ,[3, 5, 11, 9, 12, 4, 8, 10, 7, 1, 2, 6]);
makespan = 328;
----------
assign = array1d(1..12 ,[3, 4, 3, 1, 4, 1, 2, 2, 1, 2, 3, 4]);
next = array1d(1..12 ,[3, 5, 11, 9, 12, 4, 8, 10, 7, 1, 2, 6]);
makespan = 327;
----------
assign = array1d(1..12 ,[3, 4, 3, 1, 4, 1, 2, 2, 1, 2, 3, 4]);
next = array1d(1..12 ,[3, 5, 11, 9, 12, 4, 8, 10, 7, 1, 2, 6]);
makespan = 326;
----------
assign = array1d(1..12 ,[3, 4, 3, 1, 4, 1, 2, 2, 1, 2, 3, 4]);
next = array1d(1..12 ,[3, 5, 11, 9, 12, 4, 8, 10, 7, 1, 2, 6]);
makespan = 325;
----------
assign = array1d(1..12 ,[3, 4, 3, 1, 4, 1, 2, 2, 1, 2, 3, 4]);
next = array1d(1..12 ,[3, 5, 11, 9, 12, 4, 8, 10, 7, 1, 2, 6]);
makespan = 324;
----------
assign = array1d(1..12 ,[3, 4, 3, 1, 4, 1, 2, 2, 1, 2, 3, 4]);
next = array1d(1..12 ,[3, 5, 11, 9, 12, 4, 8, 10, 7, 1, 2, 6]);
makespan = 323;
----------
assign = array1d(1..12 ,[3, 4, 3, 1, 4, 1, 2, 2, 1, 2, 3, 4]);
next = array1d(1..12 ,[3, 5, 11, 9, 12, 4, 8, 10, 7, 1, 2, 6]);
makespan = 322;
----------
assign = array1d(1..12 ,[3, 4, 3, 1, 4, 1, 2, 2, 1, 2, 3, 4]);
next = array1d(1..12 ,[3, 5, 11, 9, 12, 4, 8, 10, 7, 1, 2, 6]);
makespan = 321;
----------
assign = array1d(1..12 ,[3, 4, 3, 1, 4, 1, 2, 2, 1, 2, 3, 4]);
next = array1d(1..12 ,[3, 5, 11, 9, 12, 4, 8, 10, 7, 1, 2, 6]);
makespan = 320;
----------
assign = array1d(1..12 ,[1, 4, 1, 3, 4, 3, 2, 2, 1, 2, 3, 4]);
next = array1d(1..12 ,[3, 5, 9, 11, 12, 4, 8, 10, 7, 6, 2, 1]);
makespan = 319;
----------
assign = array1d(1..12 ,[1, 4, 1, 3, 4, 3, 2, 2, 1, 2, 3, 4]);
next = array1d(1..12 ,[3, 5, 9, 11, 12, 4, 8, 10, 7, 6, 2, 1]);
makespan = 318;
----------
assign = array1d(1..12 ,[1, 4, 1, 3, 4, 3, 2, 2, 1, 2, 3, 4]);
next = array1d(1..12 ,[3, 5, 9, 11, 12, 4, 8, 10, 7, 6, 2, 1]);
makespan = 316;
----------
assign = array1d(1..12 ,[1, 4, 1, 3, 4, 3, 2, 2, 1, 2, 3, 4]);
next = array1d(1..12 ,[3, 5, 9, 11, 12, 4, 8, 10, 7, 6, 2, 1]);
makespan = 315;
----------
assign = array1d(1..12 ,[1, 4, 1, 3, 4, 3, 2, 2, 1, 2, 3, 4]);
next = array1d(1..12 ,[3, 5, 9, 11, 12, 4, 8, 10, 7, 6, 2, 1]);
makespan = 314;
----------
assign = array1d(1..12 ,[1, 4, 1, 3, 4, 3, 2, 2, 1, 2, 3, 4]);
next = array1d(1..12 ,[3, 5, 9, 11, 12, 4, 8, 10, 7, 6, 2, 1]);
makespan = 312;
----------
assign = array1d(1..12 ,[3, 4, 3, 2, 4, 2, 1, 1, 1, 2, 3, 4]);
next = array1d(1..12 ,[3, 5, 11, 10, 12, 4, 8, 9, 6, 1, 2, 7]);
makespan = 311;
----------
assign = array1d(1..12 ,[3, 4, 3, 2, 4, 2, 1, 1, 1, 2, 3, 4]);
next = array1d(1..12 ,[3, 5, 11, 10, 12, 4, 8, 9, 6, 1, 2, 7]);
makespan = 310;
----------
assign = array1d(1..12 ,[3, 4, 3, 2, 4, 2, 1, 1, 1, 2, 3, 4]);
next = array1d(1..12 ,[3, 5, 11, 10, 12, 4, 8, 9, 6, 1, 2, 7]);
makespan = 308;
----------
assign = array1d(1..12 ,[3, 4, 3, 2, 4, 2, 1, 1, 1, 2, 3, 4]);
next = array1d(1..12 ,[3, 5, 11, 10, 12, 4, 8, 9, 6, 1, 2, 7]);
makespan = 304;
----------
assign = array1d(1..12 ,[3, 4, 3, 2, 4, 2, 1, 1, 1, 2, 3, 4]);
next = array1d(1..12 ,[3, 5, 11, 10, 12, 4, 8, 9, 6, 1, 2, 7]);
makespan = 301;
----------
assign = array1d(1..12 ,[1, 2, 1, 3, 2, 3, 4, 4, 1, 2, 3, 4]);
next = array1d(1..12 ,[3, 5, 9, 11, 10, 4, 8, 12, 2, 6, 7, 1]);
makespan = 300;
----------
assign = array1d(1..12 ,[4, 2, 1, 3, 2, 1, 4, 3, 1, 2, 3, 4]);
next = array1d(1..12 ,[7, 5, 6, 8, 10, 9, 12, 11, 2, 4, 1, 3]);
makespan = 299;
----------
assign = array1d(1..12 ,[1, 2, 1, 4, 2, 4, 3, 3, 1, 2, 3, 4]);
next = array1d(1..12 ,[3, 5, 9, 12, 10, 4, 11, 7, 2, 8, 6, 1]);
makespan = 298;
----------
assign = array1d(1..12 ,[1, 2, 1, 4, 2, 4, 3, 3, 1, 2, 3, 4]);
next = array1d(1..12 ,[3, 5, 9, 12, 10, 4, 11, 7, 2, 8, 6, 1]);
makespan = 297;
----------
assign = array1d(1..12 ,[1, 1, 3, 4, 2, 4, 2, 3, 1, 2, 3, 4]);
next = array1d(1..12 ,[9, 1, 8, 12, 10, 4, 5, 11, 7, 3, 6, 2]);
makespan = 296;
----------
assign = array1d(1..12 ,[1, 4, 1, 3, 4, 2, 3, 2, 1, 2, 3, 4]);
next = array1d(1..12 ,[3, 5, 9, 11, 12, 10, 4, 6, 8, 7, 2, 1]);
makespan = 295;
----------
assign = array1d(1..12 ,[1, 2, 1, 3, 2, 4, 4, 3, 1, 2, 3, 4]);
next = array1d(1..12 ,[3, 5, 9, 8, 10, 12, 6, 11, 2, 4, 7, 1]);
makespan = 294;
----------
assign = array1d(1..12 ,[4, 2, 4, 3, 2, 1, 1, 3, 1, 2, 3, 4]);
next = array1d(1..12 ,[3, 5, 12, 8, 10, 9, 6, 11, 2, 4, 1, 7]);
makespan = 292;
----------
assign = array1d(1..12 ,[4, 2, 4, 3, 2, 1, 1, 3, 1, 2, 3, 4]);
next = array1d(1..12 ,[3, 5, 12, 8, 10, 9, 6, 11, 2, 4, 1, 7]);
makespan = 290;
----------
assign = array1d(1..12 ,[1, 2, 1, 3, 2, 4, 4, 3, 1, 2, 3, 4]);
next = array1d(1..12 ,[3, 5, 9, 8, 10, 12, 6, 11, 2, 4, 7, 1]);
makespan = 288;
----------
assign = array1d(1..12 ,[1, 2, 1, 3, 2, 4, 4, 3, 1, 2, 3, 4]);
next = array1d(1..12 ,[3, 5, 9, 8, 10, 12, 6, 11, 2, 4, 7, 1]);
makespan = 287;
----------
assign = array1d(1..12 ,[1, 2, 1, 3, 2, 4, 4, 3, 1, 2, 3, 4]);
next = array1d(1..12 ,[3, 5, 9, 8, 10, 12, 6, 11, 2, 4, 7, 1]);
makespan = 286;
----------
assign = array1d(1..12 ,[1, 2, 1, 3, 2, 4, 4, 3, 1, 2, 3, 4]);
next = array1d(1..12 ,[3, 5, 9, 8, 10, 12, 6, 11, 2, 4, 7, 1]);
makespan = 285;
----------
assign = array1d(1..12 ,[1, 2, 1, 3, 2, 4, 4, 3, 1, 2, 3, 4]);
next = array1d(1..12 ,[3, 5, 9, 8, 10, 12, 6, 11, 2, 4, 7, 1]);
makespan = 284;
----------
assign = array1d(1..12 ,[4, 2, 4, 3, 2, 1, 1, 3, 1, 2, 3, 4]);
next = array1d(1..12 ,[12, 10, 1, 8, 2, 9, 6, 11, 5, 4, 3, 7]);
makespan = 281;
----------
assign = array1d(1..12 ,[1, 4, 2, 3, 2, 4, 3, 1, 1, 2, 3, 4]);
next = array1d(1..12 ,[8, 12, 10, 11, 3, 2, 4, 9, 5, 7, 6, 1]);
makespan = 279;
----------
assign = array1d(1..12 ,[2, 4, 4, 3, 2, 1, 1, 3, 1, 2, 3, 4]);
next = array1d(1..12 ,[5, 3, 12, 8, 10, 9, 6, 11, 1, 4, 2, 7]);
makespan = 278;
----------
assign = array1d(1..12 ,[1, 4, 4, 3, 2, 2, 3, 1, 1, 2, 3, 4]);
next = array1d(1..12 ,[8, 3, 12, 7, 6, 10, 11, 9, 5, 4, 2, 1]);
makespan = 276;
----------
assign = array1d(1..12 ,[1, 4, 4, 3, 2, 2, 3, 1, 1, 2, 3, 4]);
next = array1d(1..12 ,[8, 12, 2, 7, 6, 10, 11, 9, 5, 4, 3, 1]);
makespan = 275;
----------
assign = array1d(1..12 ,[1, 4, 4, 3, 2, 2, 3, 1, 1, 2, 3, 4]);
next = array1d(1..12 ,[8, 3, 12, 7, 6, 10, 11, 9, 5, 4, 2, 1]);
makespan = 274;
----------
assign = array1d(1..12 ,[1, 4, 4, 3, 2, 2, 1, 3, 1, 2, 3, 4]);
next = array1d(1..12 ,[9, 3, 12, 8, 6, 10, 1, 11, 5, 4, 2, 7]);
makespan = 273;
----------
assign = array1d(1..12 ,[1, 4, 4, 3, 2, 2, 3, 1, 1, 2, 3, 4]);
next = array1d(1..12 ,[8, 3, 12, 7, 6, 10, 11, 9, 5, 4, 2, 1]);
makespan = 272;
----------
assign = array1d(1..12 ,[1, 4, 4, 3, 2, 2, 1, 3, 1, 2, 3, 4]);
next = array1d(1..12 ,[9, 3, 12, 8, 6, 10, 1, 11, 5, 4, 2, 7]);
makespan = 271;
----------
assign = array1d(1..12 ,[1, 4, 4, 3, 2, 2, 1, 3, 1, 2, 3, 4]);
next = array1d(1..12 ,[9, 3, 12, 11, 6, 10, 1, 4, 5, 8, 2, 7]);
makespan = 270;
----------
assign = array1d(1..12 ,[1, 4, 4, 3, 2, 2, 1, 3, 1, 2, 3, 4]);
next = array1d(1..12 ,[9, 3, 12, 8, 6, 10, 1, 11, 5, 4, 2, 7]);
makespan = 269;
----------
assign = array1d(1..12 ,[1, 4, 4, 3, 2, 2, 1, 3, 1, 2, 3, 4]);
next = array1d(1..12 ,[9, 3, 12, 11, 6, 10, 1, 4, 5, 8, 2, 7]);
makespan = 268;
----------
assign = array1d(1..12 ,[1, 4, 4, 3, 2, 2, 1, 3, 1, 2, 3, 4]);
next = array1d(1..12 ,[9, 3, 12, 11, 6, 10, 1, 4, 5, 8, 2, 7]);
makespan = 267;
----------
assign = array1d(1..12 ,[1, 4, 4, 3, 2, 2, 1, 3, 1, 2, 3, 4]);
next = array1d(1..12 ,[9, 3, 12, 8, 6, 10, 1, 11, 5, 4, 2, 7]);
makespan = 266;
----------
==========
	Command being timed: "mzn-chuffed lbbd-datasets/Rabadi-2006/dzn-s-dominant/model.mzn lbbd-datasets/Rabadi-2006/dzn-s-dominant/8on4Rp50Rs50_4Ameer.dzn"
	User time (seconds): 0.58
	System time (seconds): 0.03
	Percent of CPU this job got: 3%
	Elapsed (wall clock) time (h:mm:ss or m:ss): 0:16.93
	Average shared text size (kbytes): 0
	Average unshared data size (kbytes): 0
	Average stack size (kbytes): 0
	Average total size (kbytes): 0
	Maximum resident set size (kbytes): 41264
	Average resident set size (kbytes): 0
	Major (requiring I/O) page faults: 0
	Minor (reclaiming a frame) page faults: 3689
	Voluntary context switches: 426
	Involuntary context switches: 3
	Swaps: 0
	File system inputs: 0
	File system outputs: 392
	Socket messages sent: 0
	Socket messages received: 0
	Signals delivered: 0
	Page size (bytes): 4096
	Exit status: 0
