+ /usr/bin/timeout 600 /usr/bin/time -v mzn-chuffed lbbd-datasets/Rabadi-2006/dzn-balanced/model.mzn lbbd-datasets/Rabadi-2006/dzn-balanced/10on4Rp50Rs50_2Ameer.dzn
% No search annotation given. Defaulting to VSIDS!
assign = array1d(1..14 ,[4, 4, 4, 4, 4, 4, 4, 4, 4, 4, 1, 2, 3, 4]);
next = array1d(1..14 ,[2, 3, 4, 5, 6, 7, 8, 9, 10, 14, 12, 13, 1, 11]);
makespan = 1372;
----------
assign = array1d(1..14 ,[4, 4, 4, 4, 4, 4, 4, 4, 4, 4, 1, 2, 3, 4]);
next = array1d(1..14 ,[3, 4, 2, 5, 6, 7, 8, 9, 10, 14, 12, 13, 1, 11]);
makespan = 1342;
----------
assign = array1d(1..14 ,[4, 4, 4, 3, 4, 4, 4, 4, 4, 4, 1, 2, 3, 4]);
next = array1d(1..14 ,[14, 5, 8, 13, 6, 7, 3, 9, 10, 1, 12, 4, 2, 11]);
makespan = 1297;
----------
assign = array1d(1..14 ,[4, 4, 4, 3, 4, 4, 4, 4, 4, 4, 1, 2, 3, 4]);
next = array1d(1..14 ,[14, 5, 8, 13, 6, 1, 2, 9, 10, 7, 12, 4, 3, 11]);
makespan = 1296;
----------
assign = array1d(1..14 ,[4, 4, 4, 1, 4, 4, 4, 4, 4, 4, 1, 2, 3, 4]);
next = array1d(1..14 ,[3, 5, 8, 11, 14, 1, 2, 7, 10, 6, 12, 13, 9, 4]);
makespan = 1295;
----------
assign = array1d(1..14 ,[4, 4, 4, 1, 4, 4, 4, 4, 4, 4, 1, 2, 3, 4]);
next = array1d(1..14 ,[3, 5, 8, 11, 9, 1, 2, 7, 10, 14, 12, 13, 6, 4]);
makespan = 1289;
----------
assign = array1d(1..14 ,[4, 4, 4, 1, 4, 4, 4, 4, 4, 4, 1, 2, 3, 4]);
next = array1d(1..14 ,[3, 5, 8, 11, 6, 1, 2, 14, 10, 7, 12, 13, 9, 4]);
makespan = 1282;
----------
assign = array1d(1..14 ,[4, 4, 4, 1, 4, 4, 4, 4, 4, 4, 1, 2, 3, 4]);
next = array1d(1..14 ,[3, 5, 8, 11, 9, 1, 2, 14, 10, 6, 12, 13, 7, 4]);
makespan = 1278;
----------
assign = array1d(1..14 ,[4, 4, 4, 1, 4, 4, 4, 4, 4, 4, 1, 2, 3, 4]);
next = array1d(1..14 ,[3, 5, 8, 11, 9, 1, 2, 14, 10, 6, 12, 13, 7, 4]);
makespan = 1264;
----------
assign = array1d(1..14 ,[4, 4, 4, 4, 4, 4, 4, 1, 4, 4, 1, 2, 3, 4]);
next = array1d(1..14 ,[3, 5, 14, 9, 6, 1, 2, 11, 10, 7, 12, 13, 4, 8]);
makespan = 1247;
----------
assign = array1d(1..14 ,[4, 4, 4, 4, 4, 4, 4, 1, 4, 4, 1, 2, 3, 4]);
next = array1d(1..14 ,[3, 5, 14, 9, 6, 1, 2, 11, 10, 7, 12, 13, 4, 8]);
makespan = 1236;
----------
assign = array1d(1..14 ,[4, 4, 4, 1, 4, 4, 4, 1, 4, 4, 1, 2, 3, 4]);
next = array1d(1..14 ,[3, 5, 14, 8, 6, 1, 2, 11, 10, 7, 12, 13, 9, 4]);
makespan = 1234;
----------
assign = array1d(1..14 ,[4, 4, 4, 3, 4, 4, 4, 1, 4, 4, 1, 2, 3, 4]);
next = array1d(1..14 ,[3, 5, 14, 13, 6, 1, 2, 11, 10, 7, 12, 4, 9, 8]);
makespan = 1233;
----------
assign = array1d(1..14 ,[4, 4, 4, 4, 4, 1, 4, 1, 4, 4, 1, 2, 3, 4]);
next = array1d(1..14 ,[3, 5, 4, 14, 1, 11, 2, 6, 10, 7, 12, 13, 9, 8]);
makespan = 1230;
----------
assign = array1d(1..14 ,[4, 4, 4, 4, 4, 3, 4, 4, 1, 4, 1, 2, 3, 4]);
next = array1d(1..14 ,[3, 5, 4, 14, 1, 13, 2, 7, 11, 8, 12, 6, 10, 9]);
makespan = 1228;
----------
assign = array1d(1..14 ,[4, 4, 4, 4, 4, 2, 4, 4, 1, 4, 1, 2, 3, 4]);
next = array1d(1..14 ,[3, 5, 4, 14, 1, 12, 2, 7, 11, 8, 6, 13, 10, 9]);
makespan = 1220;
----------
assign = array1d(1..14 ,[4, 4, 4, 4, 4, 3, 4, 4, 1, 4, 1, 2, 3, 4]);
next = array1d(1..14 ,[3, 5, 4, 14, 1, 13, 2, 7, 11, 8, 12, 6, 10, 9]);
makespan = 1214;
----------
assign = array1d(1..14 ,[4, 4, 4, 4, 4, 2, 4, 4, 1, 4, 1, 2, 3, 4]);
next = array1d(1..14 ,[3, 5, 4, 10, 1, 12, 2, 14, 11, 8, 6, 13, 7, 9]);
makespan = 1212;
----------
assign = array1d(1..14 ,[4, 4, 4, 4, 4, 3, 4, 4, 1, 4, 1, 2, 3, 4]);
next = array1d(1..14 ,[3, 5, 4, 10, 1, 13, 2, 14, 11, 8, 12, 6, 7, 9]);
makespan = 1208;
----------
assign = array1d(1..14 ,[4, 4, 4, 4, 4, 2, 4, 4, 1, 4, 1, 2, 3, 4]);
next = array1d(1..14 ,[3, 5, 4, 10, 1, 12, 2, 14, 11, 8, 6, 13, 7, 9]);
makespan = 1203;
----------
assign = array1d(1..14 ,[4, 4, 4, 4, 4, 4, 4, 4, 1, 1, 1, 2, 3, 4]);
next = array1d(1..14 ,[3, 5, 4, 6, 1, 14, 2, 7, 10, 11, 12, 13, 8, 9]);
makespan = 1200;
----------
assign = array1d(1..14 ,[4, 4, 4, 4, 4, 3, 4, 4, 1, 4, 1, 2, 3, 4]);
next = array1d(1..14 ,[3, 5, 4, 10, 1, 13, 14, 7, 11, 8, 12, 6, 2, 9]);
makespan = 1196;
----------
assign = array1d(1..14 ,[4, 4, 4, 4, 4, 2, 4, 4, 1, 4, 1, 2, 3, 4]);
next = array1d(1..14 ,[3, 5, 4, 14, 7, 12, 1, 2, 11, 8, 6, 13, 10, 9]);
makespan = 1195;
----------
assign = array1d(1..14 ,[4, 4, 4, 4, 4, 3, 4, 4, 1, 4, 1, 2, 3, 4]);
next = array1d(1..14 ,[3, 5, 4, 14, 7, 13, 1, 2, 11, 8, 12, 6, 10, 9]);
makespan = 1190;
----------
assign = array1d(1..14 ,[4, 4, 4, 4, 4, 2, 4, 4, 1, 4, 1, 2, 3, 4]);
next = array1d(1..14 ,[3, 5, 4, 14, 7, 12, 1, 2, 11, 8, 6, 13, 10, 9]);
makespan = 1189;
----------
assign = array1d(1..14 ,[4, 4, 4, 4, 4, 3, 4, 4, 1, 4, 1, 2, 3, 4]);
next = array1d(1..14 ,[3, 5, 4, 10, 1, 13, 14, 7, 11, 8, 12, 6, 2, 9]);
makespan = 1188;
----------
assign = array1d(1..14 ,[4, 4, 4, 4, 4, 1, 1, 4, 4, 4, 1, 2, 3, 4]);
next = array1d(1..14 ,[3, 5, 4, 14, 1, 11, 6, 2, 10, 8, 12, 13, 9, 7]);
makespan = 1187;
----------
assign = array1d(1..14 ,[4, 4, 4, 4, 4, 4, 4, 1, 1, 4, 1, 2, 3, 4]);
next = array1d(1..14 ,[3, 5, 4, 10, 1, 7, 2, 9, 11, 14, 12, 13, 6, 8]);
makespan = 1183;
----------
assign = array1d(1..14 ,[4, 4, 4, 4, 4, 4, 4, 1, 1, 4, 1, 2, 3, 4]);
next = array1d(1..14 ,[3, 5, 4, 10, 1, 7, 2, 9, 11, 14, 12, 13, 6, 8]);
makespan = 1181;
----------
assign = array1d(1..14 ,[4, 4, 4, 4, 4, 4, 4, 1, 1, 4, 1, 2, 3, 4]);
next = array1d(1..14 ,[3, 5, 4, 10, 1, 7, 2, 9, 11, 14, 12, 13, 6, 8]);
makespan = 1177;
----------
assign = array1d(1..14 ,[4, 4, 4, 4, 4, 4, 4, 1, 1, 4, 1, 2, 3, 4]);
next = array1d(1..14 ,[3, 5, 4, 14, 1, 7, 2, 9, 11, 6, 12, 13, 10, 8]);
makespan = 1174;
----------
assign = array1d(1..14 ,[4, 4, 4, 4, 3, 4, 4, 4, 4, 1, 1, 2, 3, 4]);
next = array1d(1..14 ,[2, 6, 7, 14, 13, 8, 1, 4, 3, 11, 12, 5, 9, 10]);
makespan = 1173;
----------
assign = array1d(1..14 ,[4, 4, 4, 4, 4, 4, 4, 4, 1, 1, 1, 2, 3, 4]);
next = array1d(1..14 ,[7, 5, 4, 2, 14, 8, 3, 1, 11, 9, 12, 13, 6, 10]);
makespan = 1172;
----------
assign = array1d(1..14 ,[4, 4, 4, 4, 4, 4, 4, 4, 3, 3, 1, 2, 3, 4]);
next = array1d(1..14 ,[2, 3, 14, 7, 1, 4, 5, 6, 10, 13, 12, 9, 8, 11]);
makespan = 1171;
----------
assign = array1d(1..14 ,[4, 4, 4, 4, 4, 4, 4, 4, 3, 3, 1, 2, 3, 4]);
next = array1d(1..14 ,[2, 3, 14, 7, 1, 4, 5, 6, 10, 13, 12, 9, 8, 11]);
makespan = 1169;
----------
assign = array1d(1..14 ,[4, 4, 4, 4, 4, 4, 4, 4, 3, 3, 1, 2, 3, 4]);
next = array1d(1..14 ,[2, 3, 14, 7, 1, 4, 5, 6, 10, 13, 12, 9, 8, 11]);
makespan = 1168;
----------
assign = array1d(1..14 ,[4, 4, 4, 4, 4, 4, 4, 4, 3, 3, 1, 2, 3, 4]);
next = array1d(1..14 ,[2, 3, 14, 7, 1, 4, 5, 6, 10, 13, 12, 9, 8, 11]);
makespan = 1167;
----------
assign = array1d(1..14 ,[4, 4, 4, 4, 4, 4, 4, 4, 3, 3, 1, 2, 3, 4]);
next = array1d(1..14 ,[2, 3, 14, 7, 1, 4, 5, 6, 10, 13, 12, 9, 8, 11]);
makespan = 1165;
----------
assign = array1d(1..14 ,[4, 4, 4, 4, 4, 4, 4, 4, 3, 3, 1, 2, 3, 4]);
next = array1d(1..14 ,[2, 3, 14, 7, 1, 4, 5, 6, 10, 13, 12, 9, 8, 11]);
makespan = 1161;
----------
assign = array1d(1..14 ,[4, 3, 4, 4, 4, 4, 4, 4, 4, 3, 1, 2, 3, 4]);
next = array1d(1..14 ,[14, 13, 8, 7, 1, 4, 5, 6, 3, 2, 12, 10, 9, 11]);
makespan = 1160;
----------
assign = array1d(1..14 ,[4, 1, 4, 4, 1, 4, 4, 4, 4, 4, 1, 2, 3, 4]);
next = array1d(1..14 ,[8, 5, 1, 7, 11, 4, 14, 6, 10, 3, 12, 13, 9, 2]);
makespan = 1159;
----------
assign = array1d(1..14 ,[4, 1, 4, 4, 1, 4, 4, 4, 4, 4, 1, 2, 3, 4]);
next = array1d(1..14 ,[8, 5, 1, 7, 11, 4, 14, 6, 10, 3, 12, 13, 9, 2]);
makespan = 1158;
----------
assign = array1d(1..14 ,[4, 1, 4, 4, 1, 4, 4, 4, 4, 4, 1, 2, 3, 4]);
next = array1d(1..14 ,[8, 5, 1, 7, 11, 4, 14, 6, 10, 3, 12, 13, 9, 2]);
makespan = 1155;
----------
assign = array1d(1..14 ,[4, 3, 4, 4, 3, 4, 4, 4, 3, 4, 1, 2, 3, 4]);
next = array1d(1..14 ,[8, 5, 1, 7, 9, 4, 14, 6, 13, 3, 12, 2, 10, 11]);
makespan = 1154;
----------
assign = array1d(1..14 ,[4, 1, 4, 4, 3, 4, 4, 4, 3, 4, 1, 2, 3, 4]);
next = array1d(1..14 ,[8, 11, 1, 7, 9, 4, 14, 6, 13, 3, 12, 5, 10, 2]);
makespan = 1153;
----------
assign = array1d(1..14 ,[4, 1, 4, 4, 1, 4, 4, 4, 1, 4, 1, 2, 3, 4]);
next = array1d(1..14 ,[8, 11, 14, 7, 9, 4, 10, 6, 2, 3, 12, 13, 1, 5]);
makespan = 1152;
----------
assign = array1d(1..14 ,[4, 1, 4, 4, 1, 4, 4, 4, 1, 4, 1, 2, 3, 4]);
next = array1d(1..14 ,[8, 11, 1, 7, 9, 4, 14, 6, 2, 3, 12, 13, 10, 5]);
makespan = 1151;
----------
assign = array1d(1..14 ,[4, 1, 4, 4, 1, 4, 4, 4, 1, 4, 1, 2, 3, 4]);
next = array1d(1..14 ,[8, 11, 1, 7, 9, 4, 14, 6, 2, 3, 12, 13, 10, 5]);
makespan = 1146;
----------
assign = array1d(1..14 ,[4, 1, 4, 4, 1, 4, 4, 4, 1, 4, 1, 2, 3, 4]);
next = array1d(1..14 ,[8, 11, 1, 7, 9, 4, 14, 6, 2, 3, 12, 13, 10, 5]);
makespan = 1144;
----------
assign = array1d(1..14 ,[4, 1, 4, 4, 1, 4, 4, 4, 1, 4, 1, 2, 3, 4]);
next = array1d(1..14 ,[8, 11, 1, 7, 9, 4, 14, 6, 2, 3, 12, 13, 10, 5]);
makespan = 1143;
----------
assign = array1d(1..14 ,[4, 1, 4, 4, 1, 4, 4, 4, 1, 4, 1, 2, 3, 4]);
next = array1d(1..14 ,[8, 11, 1, 7, 9, 4, 14, 6, 2, 3, 12, 13, 10, 5]);
makespan = 1142;
----------
assign = array1d(1..14 ,[4, 1, 4, 4, 1, 4, 4, 4, 1, 4, 1, 2, 3, 4]);
next = array1d(1..14 ,[8, 11, 1, 7, 9, 4, 14, 6, 2, 3, 12, 13, 10, 5]);
makespan = 1140;
----------
assign = array1d(1..14 ,[4, 1, 4, 4, 1, 4, 4, 4, 1, 4, 1, 2, 3, 4]);
next = array1d(1..14 ,[8, 11, 1, 7, 9, 4, 14, 6, 2, 3, 12, 13, 10, 5]);
makespan = 1137;
----------
assign = array1d(1..14 ,[4, 1, 4, 4, 1, 4, 4, 4, 1, 4, 1, 2, 3, 4]);
next = array1d(1..14 ,[8, 11, 1, 7, 9, 4, 14, 6, 2, 3, 12, 13, 10, 5]);
makespan = 1134;
----------
assign = array1d(1..14 ,[4, 1, 4, 4, 1, 4, 4, 4, 1, 4, 1, 2, 3, 4]);
next = array1d(1..14 ,[8, 11, 1, 7, 9, 4, 14, 6, 2, 3, 12, 13, 10, 5]);
makespan = 1133;
----------
assign = array1d(1..14 ,[4, 1, 4, 4, 1, 4, 4, 4, 1, 4, 1, 2, 3, 4]);
next = array1d(1..14 ,[8, 11, 1, 7, 9, 4, 14, 6, 2, 3, 12, 13, 10, 5]);
makespan = 1132;
----------
assign = array1d(1..14 ,[4, 1, 4, 4, 1, 4, 4, 4, 1, 4, 1, 2, 3, 4]);
next = array1d(1..14 ,[8, 11, 1, 7, 9, 4, 14, 6, 2, 3, 12, 13, 10, 5]);
makespan = 1130;
----------
assign = array1d(1..14 ,[4, 1, 4, 4, 1, 4, 4, 4, 1, 4, 1, 2, 3, 4]);
next = array1d(1..14 ,[8, 11, 1, 7, 9, 4, 14, 6, 2, 3, 12, 13, 10, 5]);
makespan = 1127;
----------
assign = array1d(1..14 ,[4, 1, 4, 4, 1, 4, 4, 4, 1, 4, 1, 2, 3, 4]);
next = array1d(1..14 ,[8, 11, 1, 7, 9, 4, 14, 6, 2, 3, 12, 13, 10, 5]);
makespan = 1126;
----------
assign = array1d(1..14 ,[4, 1, 4, 4, 1, 4, 4, 4, 1, 4, 1, 2, 3, 4]);
next = array1d(1..14 ,[8, 11, 1, 7, 9, 4, 14, 6, 2, 3, 12, 13, 10, 5]);
makespan = 1123;
----------
assign = array1d(1..14 ,[4, 1, 4, 4, 1, 4, 4, 4, 1, 4, 1, 2, 3, 4]);
next = array1d(1..14 ,[8, 11, 1, 7, 9, 4, 14, 6, 2, 3, 12, 13, 10, 5]);
makespan = 1118;
----------
assign = array1d(1..14 ,[4, 1, 4, 4, 1, 4, 4, 4, 1, 4, 1, 2, 3, 4]);
next = array1d(1..14 ,[8, 11, 1, 7, 9, 4, 14, 6, 2, 3, 12, 13, 10, 5]);
makespan = 1115;
----------
assign = array1d(1..14 ,[4, 1, 4, 4, 1, 4, 4, 4, 1, 4, 1, 2, 3, 4]);
next = array1d(1..14 ,[8, 11, 1, 7, 9, 4, 14, 6, 2, 3, 12, 13, 10, 5]);
makespan = 1114;
----------
assign = array1d(1..14 ,[4, 1, 4, 4, 1, 4, 4, 4, 1, 4, 1, 2, 3, 4]);
next = array1d(1..14 ,[8, 11, 1, 7, 9, 4, 14, 6, 2, 3, 12, 13, 10, 5]);
makespan = 1110;
----------
assign = array1d(1..14 ,[4, 1, 4, 4, 1, 4, 4, 4, 1, 4, 1, 2, 3, 4]);
next = array1d(1..14 ,[8, 11, 1, 7, 9, 4, 14, 6, 2, 3, 12, 13, 10, 5]);
makespan = 1109;
----------
assign = array1d(1..14 ,[4, 1, 4, 4, 1, 4, 4, 4, 1, 4, 1, 2, 3, 4]);
next = array1d(1..14 ,[8, 11, 1, 7, 9, 4, 14, 6, 2, 3, 12, 13, 10, 5]);
makespan = 1107;
----------
assign = array1d(1..14 ,[4, 1, 4, 4, 1, 4, 4, 4, 1, 4, 1, 2, 3, 4]);
next = array1d(1..14 ,[8, 11, 1, 7, 9, 4, 14, 6, 2, 3, 12, 13, 10, 5]);
makespan = 1106;
----------
assign = array1d(1..14 ,[4, 1, 4, 4, 1, 4, 4, 4, 1, 4, 1, 2, 3, 4]);
next = array1d(1..14 ,[8, 11, 1, 7, 9, 4, 14, 6, 2, 3, 12, 13, 10, 5]);
makespan = 1103;
----------
assign = array1d(1..14 ,[4, 1, 4, 4, 1, 4, 4, 4, 1, 4, 1, 2, 3, 4]);
next = array1d(1..14 ,[8, 11, 1, 7, 9, 4, 14, 6, 2, 3, 12, 13, 10, 5]);
makespan = 1100;
----------
assign = array1d(1..14 ,[4, 1, 4, 4, 1, 4, 4, 4, 1, 4, 1, 2, 3, 4]);
next = array1d(1..14 ,[8, 11, 1, 7, 9, 4, 14, 6, 2, 3, 12, 13, 10, 5]);
makespan = 1098;
----------
assign = array1d(1..14 ,[4, 1, 4, 4, 1, 4, 4, 4, 1, 4, 1, 2, 3, 4]);
next = array1d(1..14 ,[8, 11, 1, 7, 9, 4, 14, 6, 2, 3, 12, 13, 10, 5]);
makespan = 1096;
----------
assign = array1d(1..14 ,[4, 1, 4, 4, 1, 4, 4, 4, 1, 4, 1, 2, 3, 4]);
next = array1d(1..14 ,[8, 11, 1, 7, 9, 4, 14, 6, 2, 3, 12, 13, 10, 5]);
makespan = 1092;
----------
assign = array1d(1..14 ,[4, 1, 4, 4, 1, 4, 4, 4, 1, 4, 1, 2, 3, 4]);
next = array1d(1..14 ,[8, 11, 1, 7, 9, 4, 14, 6, 2, 3, 12, 13, 10, 5]);
makespan = 1091;
----------
assign = array1d(1..14 ,[4, 1, 4, 4, 1, 4, 4, 4, 1, 4, 1, 2, 3, 4]);
next = array1d(1..14 ,[8, 11, 1, 7, 9, 4, 14, 6, 2, 3, 12, 13, 10, 5]);
makespan = 1090;
----------
assign = array1d(1..14 ,[4, 1, 4, 4, 1, 4, 4, 4, 1, 4, 1, 2, 3, 4]);
next = array1d(1..14 ,[8, 11, 1, 7, 9, 4, 14, 6, 2, 3, 12, 13, 10, 5]);
makespan = 1089;
----------
assign = array1d(1..14 ,[4, 1, 4, 4, 1, 4, 4, 4, 1, 4, 1, 2, 3, 4]);
next = array1d(1..14 ,[8, 11, 1, 7, 9, 4, 14, 6, 2, 3, 12, 13, 10, 5]);
makespan = 1086;
----------
assign = array1d(1..14 ,[4, 1, 4, 4, 1, 4, 4, 4, 1, 4, 1, 2, 3, 4]);
next = array1d(1..14 ,[8, 11, 1, 7, 9, 4, 14, 6, 2, 3, 12, 13, 10, 5]);
makespan = 1085;
----------
assign = array1d(1..14 ,[4, 1, 4, 4, 1, 4, 4, 4, 1, 4, 1, 2, 3, 4]);
next = array1d(1..14 ,[8, 11, 1, 7, 9, 4, 14, 6, 2, 3, 12, 13, 10, 5]);
makespan = 1084;
----------
assign = array1d(1..14 ,[4, 1, 4, 4, 1, 4, 4, 4, 1, 4, 1, 2, 3, 4]);
next = array1d(1..14 ,[8, 11, 1, 7, 9, 4, 14, 6, 2, 3, 12, 13, 10, 5]);
makespan = 1083;
----------
assign = array1d(1..14 ,[4, 1, 4, 4, 1, 4, 4, 4, 1, 4, 1, 2, 3, 4]);
next = array1d(1..14 ,[8, 11, 1, 7, 9, 4, 14, 6, 2, 3, 12, 13, 10, 5]);
makespan = 1081;
----------
assign = array1d(1..14 ,[4, 1, 4, 4, 1, 4, 4, 4, 1, 4, 1, 2, 3, 4]);
next = array1d(1..14 ,[8, 11, 1, 7, 9, 4, 14, 6, 2, 3, 12, 13, 10, 5]);
makespan = 1080;
----------
assign = array1d(1..14 ,[4, 1, 4, 4, 1, 4, 4, 4, 1, 4, 1, 2, 3, 4]);
next = array1d(1..14 ,[8, 11, 1, 7, 9, 4, 14, 6, 2, 3, 12, 13, 10, 5]);
makespan = 1077;
----------
assign = array1d(1..14 ,[4, 1, 4, 4, 1, 4, 4, 4, 1, 4, 1, 2, 3, 4]);
next = array1d(1..14 ,[8, 11, 1, 7, 9, 4, 14, 6, 2, 3, 12, 13, 10, 5]);
makespan = 1076;
----------
assign = array1d(1..14 ,[4, 1, 4, 4, 1, 4, 4, 4, 1, 4, 1, 2, 3, 4]);
next = array1d(1..14 ,[8, 11, 1, 7, 9, 4, 14, 6, 2, 3, 12, 13, 10, 5]);
makespan = 1073;
----------
assign = array1d(1..14 ,[4, 1, 4, 4, 1, 4, 4, 4, 1, 4, 1, 2, 3, 4]);
next = array1d(1..14 ,[8, 11, 1, 7, 9, 4, 14, 6, 2, 3, 12, 13, 10, 5]);
makespan = 1071;
----------
assign = array1d(1..14 ,[4, 1, 4, 4, 1, 4, 4, 4, 1, 4, 1, 2, 3, 4]);
next = array1d(1..14 ,[8, 11, 1, 7, 9, 4, 14, 6, 2, 3, 12, 13, 10, 5]);
makespan = 1070;
----------
assign = array1d(1..14 ,[4, 1, 4, 4, 1, 4, 4, 4, 1, 4, 1, 2, 3, 4]);
next = array1d(1..14 ,[8, 11, 1, 7, 9, 4, 14, 6, 2, 3, 12, 13, 10, 5]);
makespan = 1069;
----------
assign = array1d(1..14 ,[4, 1, 4, 4, 1, 4, 4, 4, 1, 4, 1, 2, 3, 4]);
next = array1d(1..14 ,[8, 11, 1, 7, 9, 4, 14, 6, 2, 3, 12, 13, 10, 5]);
makespan = 1066;
----------
assign = array1d(1..14 ,[4, 1, 4, 4, 1, 4, 4, 4, 1, 4, 1, 2, 3, 4]);
next = array1d(1..14 ,[8, 11, 1, 7, 9, 4, 14, 6, 2, 3, 12, 13, 10, 5]);
makespan = 1063;
----------
assign = array1d(1..14 ,[4, 1, 4, 4, 1, 4, 4, 4, 1, 4, 1, 2, 3, 4]);
next = array1d(1..14 ,[8, 11, 1, 7, 9, 4, 14, 6, 2, 3, 12, 13, 10, 5]);
makespan = 1062;
----------
assign = array1d(1..14 ,[4, 1, 4, 4, 1, 4, 4, 4, 1, 4, 1, 2, 3, 4]);
next = array1d(1..14 ,[8, 11, 1, 7, 9, 4, 14, 6, 2, 3, 12, 13, 10, 5]);
makespan = 1061;
----------
assign = array1d(1..14 ,[4, 1, 4, 4, 1, 4, 4, 4, 1, 4, 1, 2, 3, 4]);
next = array1d(1..14 ,[8, 11, 1, 7, 9, 4, 14, 6, 2, 3, 12, 13, 10, 5]);
makespan = 1055;
----------
assign = array1d(1..14 ,[4, 1, 4, 4, 1, 4, 4, 4, 1, 4, 1, 2, 3, 4]);
next = array1d(1..14 ,[8, 11, 1, 7, 9, 4, 14, 6, 2, 3, 12, 13, 10, 5]);
makespan = 1054;
----------
assign = array1d(1..14 ,[4, 1, 4, 4, 1, 4, 4, 4, 1, 4, 1, 2, 3, 4]);
next = array1d(1..14 ,[8, 11, 1, 7, 9, 4, 14, 6, 2, 3, 12, 13, 10, 5]);
makespan = 1053;
----------
assign = array1d(1..14 ,[4, 1, 4, 4, 1, 4, 4, 4, 1, 4, 1, 2, 3, 4]);
next = array1d(1..14 ,[8, 11, 1, 7, 9, 4, 14, 6, 2, 3, 12, 13, 10, 5]);
makespan = 1051;
----------
assign = array1d(1..14 ,[4, 1, 4, 4, 1, 4, 4, 4, 1, 4, 1, 2, 3, 4]);
next = array1d(1..14 ,[8, 11, 1, 7, 9, 4, 14, 6, 2, 3, 12, 13, 10, 5]);
makespan = 1047;
----------
assign = array1d(1..14 ,[4, 1, 4, 4, 1, 4, 4, 4, 1, 4, 1, 2, 3, 4]);
next = array1d(1..14 ,[8, 11, 1, 7, 9, 4, 14, 6, 2, 3, 12, 13, 10, 5]);
makespan = 1046;
----------
assign = array1d(1..14 ,[4, 1, 4, 4, 1, 4, 4, 4, 1, 4, 1, 2, 3, 4]);
next = array1d(1..14 ,[8, 11, 1, 7, 9, 4, 14, 6, 2, 3, 12, 13, 10, 5]);
makespan = 1045;
----------
assign = array1d(1..14 ,[4, 1, 4, 4, 1, 4, 4, 4, 1, 4, 1, 2, 3, 4]);
next = array1d(1..14 ,[8, 11, 1, 7, 9, 4, 14, 6, 2, 3, 12, 13, 10, 5]);
makespan = 1039;
----------
assign = array1d(1..14 ,[4, 1, 4, 4, 1, 4, 4, 4, 1, 4, 1, 2, 3, 4]);
next = array1d(1..14 ,[8, 11, 1, 7, 9, 4, 14, 6, 2, 3, 12, 13, 10, 5]);
makespan = 1038;
----------
assign = array1d(1..14 ,[4, 1, 4, 4, 1, 4, 4, 4, 1, 4, 1, 2, 3, 4]);
next = array1d(1..14 ,[8, 11, 1, 7, 9, 4, 14, 6, 2, 3, 12, 13, 10, 5]);
makespan = 1037;
----------
assign = array1d(1..14 ,[4, 1, 4, 4, 1, 4, 4, 4, 1, 4, 1, 2, 3, 4]);
next = array1d(1..14 ,[8, 11, 1, 7, 9, 4, 14, 6, 2, 3, 12, 13, 10, 5]);
makespan = 1031;
----------
assign = array1d(1..14 ,[4, 3, 4, 4, 3, 4, 4, 4, 3, 4, 1, 2, 3, 4]);
next = array1d(1..14 ,[8, 13, 1, 7, 9, 4, 10, 14, 2, 3, 12, 5, 6, 11]);
makespan = 1029;
----------
assign = array1d(1..14 ,[4, 1, 4, 4, 1, 4, 4, 4, 1, 4, 1, 2, 3, 4]);
next = array1d(1..14 ,[8, 11, 6, 7, 9, 4, 14, 10, 2, 3, 12, 13, 1, 5]);
makespan = 1027;
----------
assign = array1d(1..14 ,[4, 3, 4, 4, 3, 4, 4, 4, 3, 4, 1, 2, 3, 4]);
next = array1d(1..14 ,[8, 13, 6, 7, 9, 4, 1, 14, 2, 3, 12, 5, 10, 11]);
makespan = 1026;
----------
assign = array1d(1..14 ,[4, 3, 4, 4, 3, 4, 4, 4, 3, 4, 1, 2, 3, 4]);
next = array1d(1..14 ,[8, 13, 6, 7, 9, 4, 1, 14, 2, 3, 12, 5, 10, 11]);
makespan = 1025;
----------
assign = array1d(1..14 ,[2, 2, 4, 4, 4, 4, 4, 1, 4, 4, 1, 2, 3, 4]);
next = array1d(1..14 ,[12, 1, 5, 7, 6, 4, 14, 11, 10, 3, 2, 13, 9, 8]);
makespan = 1023;
----------
assign = array1d(1..14 ,[1, 4, 4, 4, 1, 4, 4, 1, 4, 4, 1, 2, 3, 4]);
next = array1d(1..14 ,[5, 9, 6, 7, 11, 4, 14, 1, 10, 3, 12, 13, 2, 8]);
makespan = 1022;
----------
assign = array1d(1..14 ,[1, 1, 4, 4, 4, 4, 4, 1, 4, 4, 1, 2, 3, 4]);
next = array1d(1..14 ,[8, 1, 14, 7, 6, 4, 9, 11, 10, 3, 12, 13, 5, 2]);
makespan = 1019;
----------
assign = array1d(1..14 ,[1, 1, 4, 4, 1, 4, 4, 4, 4, 4, 1, 2, 3, 4]);
next = array1d(1..14 ,[5, 1, 8, 7, 11, 4, 14, 6, 10, 3, 12, 13, 9, 2]);
makespan = 1017;
----------
assign = array1d(1..14 ,[1, 1, 4, 4, 1, 4, 4, 4, 4, 4, 1, 2, 3, 4]);
next = array1d(1..14 ,[5, 1, 8, 7, 11, 4, 14, 6, 10, 3, 12, 13, 9, 2]);
makespan = 1015;
----------
assign = array1d(1..14 ,[1, 1, 4, 4, 1, 4, 4, 4, 4, 4, 1, 2, 3, 4]);
next = array1d(1..14 ,[5, 1, 8, 7, 11, 4, 14, 6, 10, 3, 12, 13, 9, 2]);
makespan = 1013;
----------
assign = array1d(1..14 ,[1, 1, 4, 4, 1, 4, 4, 4, 4, 4, 1, 2, 3, 4]);
next = array1d(1..14 ,[5, 1, 8, 7, 11, 4, 14, 6, 10, 3, 12, 13, 9, 2]);
makespan = 1011;
----------
assign = array1d(1..14 ,[1, 1, 4, 4, 1, 4, 4, 4, 4, 4, 1, 2, 3, 4]);
next = array1d(1..14 ,[5, 1, 8, 7, 11, 4, 14, 6, 10, 3, 12, 13, 9, 2]);
makespan = 1008;
----------
assign = array1d(1..14 ,[1, 1, 4, 4, 1, 4, 4, 4, 4, 4, 1, 2, 3, 4]);
next = array1d(1..14 ,[5, 1, 8, 7, 11, 4, 14, 6, 10, 3, 12, 13, 9, 2]);
makespan = 1007;
----------
assign = array1d(1..14 ,[1, 1, 4, 4, 1, 4, 4, 4, 4, 4, 1, 2, 3, 4]);
next = array1d(1..14 ,[5, 1, 8, 7, 11, 4, 14, 6, 10, 3, 12, 13, 9, 2]);
makespan = 1006;
----------
assign = array1d(1..14 ,[1, 1, 4, 4, 1, 4, 4, 4, 4, 4, 1, 2, 3, 4]);
next = array1d(1..14 ,[5, 1, 8, 7, 11, 4, 14, 6, 10, 3, 12, 13, 9, 2]);
makespan = 1001;
----------
assign = array1d(1..14 ,[1, 1, 4, 4, 1, 4, 4, 4, 4, 4, 1, 2, 3, 4]);
next = array1d(1..14 ,[5, 1, 8, 7, 11, 4, 14, 6, 10, 3, 12, 13, 9, 2]);
makespan = 999;
----------
assign = array1d(1..14 ,[1, 1, 4, 4, 1, 4, 4, 4, 4, 4, 1, 2, 3, 4]);
next = array1d(1..14 ,[5, 1, 8, 7, 11, 4, 14, 6, 10, 3, 12, 13, 9, 2]);
makespan = 996;
----------
assign = array1d(1..14 ,[1, 1, 4, 4, 1, 4, 4, 4, 4, 4, 1, 2, 3, 4]);
next = array1d(1..14 ,[5, 1, 8, 7, 11, 4, 14, 6, 10, 3, 12, 13, 9, 2]);
makespan = 994;
----------
assign = array1d(1..14 ,[1, 1, 4, 4, 1, 4, 4, 4, 4, 4, 1, 2, 3, 4]);
next = array1d(1..14 ,[5, 1, 8, 7, 11, 4, 14, 6, 10, 3, 12, 13, 9, 2]);
makespan = 993;
----------
assign = array1d(1..14 ,[1, 1, 4, 4, 1, 4, 4, 4, 4, 4, 1, 2, 3, 4]);
next = array1d(1..14 ,[5, 1, 8, 7, 11, 4, 14, 6, 10, 3, 12, 13, 9, 2]);
makespan = 992;
----------
assign = array1d(1..14 ,[1, 1, 4, 4, 1, 4, 4, 4, 4, 4, 1, 2, 3, 4]);
next = array1d(1..14 ,[5, 1, 8, 7, 11, 4, 14, 6, 10, 3, 12, 13, 9, 2]);
makespan = 991;
----------
assign = array1d(1..14 ,[1, 1, 4, 4, 1, 4, 4, 4, 4, 4, 1, 2, 3, 4]);
next = array1d(1..14 ,[5, 1, 8, 7, 11, 4, 14, 6, 10, 3, 12, 13, 9, 2]);
makespan = 990;
----------
assign = array1d(1..14 ,[1, 1, 4, 4, 1, 4, 4, 4, 4, 4, 1, 2, 3, 4]);
next = array1d(1..14 ,[5, 1, 8, 7, 11, 4, 14, 6, 10, 3, 12, 13, 9, 2]);
makespan = 988;
----------
assign = array1d(1..14 ,[1, 1, 4, 4, 1, 4, 4, 4, 4, 4, 1, 2, 3, 4]);
next = array1d(1..14 ,[5, 1, 8, 7, 11, 4, 14, 6, 10, 3, 12, 13, 9, 2]);
makespan = 984;
----------
assign = array1d(1..14 ,[1, 1, 4, 4, 1, 4, 4, 4, 4, 4, 1, 2, 3, 4]);
next = array1d(1..14 ,[5, 1, 8, 7, 11, 4, 14, 6, 10, 3, 12, 13, 9, 2]);
makespan = 980;
----------
assign = array1d(1..14 ,[2, 4, 4, 4, 2, 4, 4, 1, 4, 4, 1, 2, 3, 4]);
next = array1d(1..14 ,[5, 9, 6, 7, 12, 4, 14, 11, 10, 3, 1, 13, 2, 8]);
makespan = 977;
----------
assign = array1d(1..14 ,[4, 2, 4, 4, 1, 4, 4, 2, 4, 4, 1, 2, 3, 4]);
next = array1d(1..14 ,[9, 8, 6, 7, 11, 4, 14, 12, 10, 3, 2, 13, 1, 5]);
makespan = 976;
----------
assign = array1d(1..14 ,[4, 3, 4, 4, 1, 4, 4, 3, 4, 4, 1, 2, 3, 4]);
next = array1d(1..14 ,[9, 8, 6, 7, 11, 4, 14, 13, 10, 3, 12, 2, 1, 5]);
makespan = 973;
----------
assign = array1d(1..14 ,[1, 3, 4, 4, 1, 4, 4, 4, 4, 4, 1, 2, 3, 4]);
next = array1d(1..14 ,[5, 13, 14, 7, 11, 4, 8, 9, 10, 3, 12, 2, 6, 1]);
makespan = 969;
----------
assign = array1d(1..14 ,[1, 3, 4, 4, 1, 4, 4, 4, 4, 4, 1, 2, 3, 4]);
next = array1d(1..14 ,[5, 13, 14, 7, 11, 4, 8, 9, 10, 3, 12, 2, 6, 1]);
makespan = 968;
----------
assign = array1d(1..14 ,[1, 3, 4, 4, 1, 4, 4, 4, 4, 4, 1, 2, 3, 4]);
next = array1d(1..14 ,[5, 13, 14, 7, 11, 4, 8, 9, 10, 3, 12, 2, 6, 1]);
makespan = 966;
----------
assign = array1d(1..14 ,[1, 3, 4, 4, 1, 4, 4, 4, 4, 4, 1, 2, 3, 4]);
next = array1d(1..14 ,[5, 13, 14, 7, 11, 4, 8, 9, 10, 3, 12, 2, 6, 1]);
makespan = 960;
----------
assign = array1d(1..14 ,[1, 3, 4, 4, 1, 4, 4, 4, 4, 4, 1, 2, 3, 4]);
next = array1d(1..14 ,[5, 13, 14, 7, 11, 4, 8, 9, 10, 3, 12, 2, 6, 1]);
makespan = 959;
----------
assign = array1d(1..14 ,[4, 3, 4, 4, 1, 4, 4, 3, 4, 4, 1, 2, 3, 4]);
next = array1d(1..14 ,[9, 8, 6, 7, 11, 4, 14, 13, 10, 3, 12, 2, 1, 5]);
makespan = 958;
----------
assign = array1d(1..14 ,[4, 2, 4, 4, 1, 4, 4, 2, 4, 4, 1, 2, 3, 4]);
next = array1d(1..14 ,[9, 8, 6, 7, 11, 4, 14, 12, 10, 3, 2, 13, 1, 5]);
makespan = 955;
----------
assign = array1d(1..14 ,[4, 3, 4, 4, 1, 4, 4, 3, 4, 4, 1, 2, 3, 4]);
next = array1d(1..14 ,[9, 8, 6, 7, 11, 4, 14, 13, 10, 3, 12, 2, 1, 5]);
makespan = 949;
----------
assign = array1d(1..14 ,[1, 3, 4, 4, 4, 4, 4, 1, 4, 4, 1, 2, 3, 4]);
next = array1d(1..14 ,[8, 13, 5, 7, 14, 4, 9, 11, 10, 3, 12, 2, 6, 1]);
makespan = 948;
----------
assign = array1d(1..14 ,[1, 3, 4, 4, 4, 4, 4, 1, 4, 4, 1, 2, 3, 4]);
next = array1d(1..14 ,[8, 13, 5, 7, 14, 4, 9, 11, 10, 3, 12, 2, 6, 1]);
makespan = 947;
----------
assign = array1d(1..14 ,[1, 3, 4, 4, 4, 4, 4, 1, 4, 4, 1, 2, 3, 4]);
next = array1d(1..14 ,[8, 13, 14, 7, 9, 4, 5, 11, 10, 3, 12, 2, 6, 1]);
makespan = 945;
----------
assign = array1d(1..14 ,[1, 2, 4, 4, 4, 4, 4, 2, 4, 4, 1, 2, 3, 4]);
next = array1d(1..14 ,[11, 8, 5, 7, 9, 4, 10, 12, 14, 3, 2, 13, 6, 1]);
makespan = 944;
----------
assign = array1d(1..14 ,[1, 1, 4, 4, 1, 4, 4, 1, 4, 4, 1, 2, 3, 4]);
next = array1d(1..14 ,[5, 1, 9, 7, 8, 4, 10, 11, 14, 3, 12, 13, 6, 2]);
makespan = 943;
----------
assign = array1d(1..14 ,[4, 1, 4, 4, 1, 4, 4, 1, 1, 4, 1, 2, 3, 4]);
next = array1d(1..14 ,[14, 5, 6, 7, 8, 4, 1, 11, 2, 3, 12, 13, 10, 9]);
makespan = 942;
----------
assign = array1d(1..14 ,[1, 1, 4, 4, 1, 4, 4, 4, 4, 4, 1, 2, 3, 4]);
next = array1d(1..14 ,[11, 5, 6, 7, 1, 4, 8, 14, 10, 3, 12, 13, 9, 2]);
makespan = 941;
----------
assign = array1d(1..14 ,[1, 1, 4, 4, 1, 4, 4, 4, 4, 4, 1, 2, 3, 4]);
next = array1d(1..14 ,[11, 5, 6, 7, 1, 4, 8, 14, 10, 3, 12, 13, 9, 2]);
makespan = 940;
----------
assign = array1d(1..14 ,[1, 1, 4, 4, 1, 4, 4, 4, 4, 4, 1, 2, 3, 4]);
next = array1d(1..14 ,[5, 11, 6, 7, 2, 4, 8, 14, 10, 3, 12, 13, 9, 1]);
makespan = 939;
----------
assign = array1d(1..14 ,[1, 1, 4, 4, 4, 4, 4, 1, 1, 4, 1, 2, 3, 4]);
next = array1d(1..14 ,[2, 8, 6, 7, 10, 4, 14, 9, 11, 3, 12, 13, 5, 1]);
makespan = 937;
----------
assign = array1d(1..14 ,[1, 1, 4, 4, 4, 4, 4, 1, 1, 4, 1, 2, 3, 4]);
next = array1d(1..14 ,[2, 8, 6, 7, 10, 4, 14, 9, 11, 3, 12, 13, 5, 1]);
makespan = 936;
----------
assign = array1d(1..14 ,[1, 1, 4, 4, 4, 4, 4, 1, 1, 4, 1, 2, 3, 4]);
next = array1d(1..14 ,[2, 8, 6, 7, 10, 4, 14, 9, 11, 3, 12, 13, 5, 1]);
makespan = 933;
----------
assign = array1d(1..14 ,[1, 1, 4, 4, 4, 4, 4, 1, 1, 4, 1, 2, 3, 4]);
next = array1d(1..14 ,[2, 8, 6, 7, 10, 4, 14, 9, 11, 3, 12, 13, 5, 1]);
makespan = 931;
----------
assign = array1d(1..14 ,[1, 1, 4, 4, 4, 4, 4, 1, 1, 4, 1, 2, 3, 4]);
next = array1d(1..14 ,[2, 8, 6, 7, 10, 4, 14, 9, 11, 3, 12, 13, 5, 1]);
makespan = 922;
----------
assign = array1d(1..14 ,[1, 1, 4, 4, 4, 4, 4, 1, 1, 4, 1, 2, 3, 4]);
next = array1d(1..14 ,[2, 8, 6, 7, 10, 4, 14, 9, 11, 3, 12, 13, 5, 1]);
makespan = 921;
----------
assign = array1d(1..14 ,[1, 1, 4, 4, 4, 4, 4, 1, 1, 4, 1, 2, 3, 4]);
next = array1d(1..14 ,[2, 8, 6, 7, 10, 4, 14, 9, 11, 3, 12, 13, 5, 1]);
makespan = 919;
----------
assign = array1d(1..14 ,[1, 1, 4, 4, 4, 4, 4, 1, 1, 4, 1, 2, 3, 4]);
next = array1d(1..14 ,[2, 8, 6, 7, 10, 4, 14, 9, 11, 3, 12, 13, 5, 1]);
makespan = 915;
----------
assign = array1d(1..14 ,[1, 1, 4, 4, 4, 4, 4, 1, 1, 4, 1, 2, 3, 4]);
next = array1d(1..14 ,[2, 8, 6, 7, 10, 4, 14, 9, 11, 3, 12, 13, 5, 1]);
makespan = 913;
----------
assign = array1d(1..14 ,[1, 1, 4, 4, 4, 4, 4, 1, 1, 4, 1, 2, 3, 4]);
next = array1d(1..14 ,[2, 8, 6, 7, 10, 4, 14, 9, 11, 3, 12, 13, 5, 1]);
makespan = 912;
----------
assign = array1d(1..14 ,[1, 1, 4, 4, 4, 4, 4, 1, 1, 4, 1, 2, 3, 4]);
next = array1d(1..14 ,[2, 8, 6, 7, 10, 4, 14, 9, 11, 3, 12, 13, 5, 1]);
makespan = 906;
----------
assign = array1d(1..14 ,[1, 1, 4, 4, 4, 4, 4, 1, 1, 4, 1, 2, 3, 4]);
next = array1d(1..14 ,[2, 8, 6, 7, 10, 4, 14, 9, 11, 3, 12, 13, 5, 1]);
makespan = 904;
----------
assign = array1d(1..14 ,[1, 1, 4, 4, 4, 4, 4, 1, 1, 4, 1, 2, 3, 4]);
next = array1d(1..14 ,[2, 8, 6, 7, 10, 4, 14, 9, 11, 3, 12, 13, 5, 1]);
makespan = 903;
----------
assign = array1d(1..14 ,[1, 1, 4, 4, 4, 4, 4, 1, 1, 4, 1, 2, 3, 4]);
next = array1d(1..14 ,[2, 8, 6, 7, 10, 4, 14, 9, 11, 3, 12, 13, 5, 1]);
makespan = 902;
----------
assign = array1d(1..14 ,[1, 1, 4, 4, 4, 4, 4, 1, 1, 4, 1, 2, 3, 4]);
next = array1d(1..14 ,[2, 8, 6, 7, 10, 4, 14, 9, 11, 3, 12, 13, 5, 1]);
makespan = 899;
----------
assign = array1d(1..14 ,[1, 1, 4, 4, 4, 4, 4, 1, 1, 4, 1, 2, 3, 4]);
next = array1d(1..14 ,[2, 8, 6, 7, 10, 4, 14, 9, 11, 3, 12, 13, 5, 1]);
makespan = 896;
----------
assign = array1d(1..14 ,[1, 1, 4, 4, 4, 4, 4, 1, 1, 4, 1, 2, 3, 4]);
next = array1d(1..14 ,[2, 8, 6, 7, 10, 4, 14, 9, 11, 3, 12, 13, 5, 1]);
makespan = 895;
----------
assign = array1d(1..14 ,[1, 1, 4, 4, 4, 4, 4, 1, 1, 4, 1, 2, 3, 4]);
next = array1d(1..14 ,[2, 8, 6, 7, 10, 4, 14, 9, 11, 3, 12, 13, 5, 1]);
makespan = 892;
----------
assign = array1d(1..14 ,[1, 1, 4, 4, 4, 4, 4, 1, 1, 4, 1, 2, 3, 4]);
next = array1d(1..14 ,[2, 8, 6, 7, 10, 4, 14, 9, 11, 3, 12, 13, 5, 1]);
makespan = 890;
----------
assign = array1d(1..14 ,[1, 1, 4, 4, 4, 4, 4, 1, 1, 4, 1, 2, 3, 4]);
next = array1d(1..14 ,[2, 8, 6, 7, 10, 4, 14, 9, 11, 3, 12, 13, 5, 1]);
makespan = 889;
----------
assign = array1d(1..14 ,[1, 1, 4, 4, 4, 4, 4, 1, 1, 4, 1, 2, 3, 4]);
next = array1d(1..14 ,[2, 8, 6, 7, 10, 4, 14, 9, 11, 3, 12, 13, 5, 1]);
makespan = 888;
----------
assign = array1d(1..14 ,[1, 1, 4, 4, 4, 4, 4, 1, 1, 4, 1, 2, 3, 4]);
next = array1d(1..14 ,[2, 8, 6, 7, 10, 4, 14, 9, 11, 3, 12, 13, 5, 1]);
makespan = 886;
----------
assign = array1d(1..14 ,[1, 1, 4, 4, 4, 4, 4, 1, 1, 4, 1, 2, 3, 4]);
next = array1d(1..14 ,[2, 8, 6, 7, 10, 4, 14, 9, 11, 3, 12, 13, 5, 1]);
makespan = 881;
----------
assign = array1d(1..14 ,[1, 1, 4, 4, 4, 4, 4, 1, 1, 4, 1, 2, 3, 4]);
next = array1d(1..14 ,[2, 8, 6, 7, 10, 4, 14, 9, 11, 3, 12, 13, 5, 1]);
makespan = 880;
----------
assign = array1d(1..14 ,[1, 1, 4, 4, 4, 4, 4, 1, 1, 4, 1, 2, 3, 4]);
next = array1d(1..14 ,[2, 8, 6, 7, 10, 4, 14, 9, 11, 3, 12, 13, 5, 1]);
makespan = 878;
----------
assign = array1d(1..14 ,[1, 1, 4, 4, 4, 4, 4, 1, 1, 4, 1, 2, 3, 4]);
next = array1d(1..14 ,[2, 8, 6, 7, 10, 4, 14, 9, 11, 3, 12, 13, 5, 1]);
makespan = 870;
----------
assign = array1d(1..14 ,[1, 1, 4, 4, 4, 4, 4, 1, 1, 4, 1, 2, 3, 4]);
next = array1d(1..14 ,[2, 8, 6, 7, 10, 4, 14, 9, 11, 3, 12, 13, 5, 1]);
makespan = 865;
----------
assign = array1d(1..14 ,[1, 1, 4, 4, 4, 4, 4, 1, 1, 4, 1, 2, 3, 4]);
next = array1d(1..14 ,[2, 8, 6, 7, 10, 4, 14, 9, 11, 3, 12, 13, 5, 1]);
makespan = 864;
----------
assign = array1d(1..14 ,[1, 1, 4, 4, 4, 4, 4, 1, 1, 4, 1, 2, 3, 4]);
next = array1d(1..14 ,[2, 8, 6, 7, 10, 4, 14, 9, 11, 3, 12, 13, 5, 1]);
makespan = 863;
----------
assign = array1d(1..14 ,[1, 1, 4, 4, 4, 4, 4, 1, 1, 4, 1, 2, 3, 4]);
next = array1d(1..14 ,[2, 8, 6, 7, 10, 4, 14, 9, 11, 3, 12, 13, 5, 1]);
makespan = 858;
----------
assign = array1d(1..14 ,[1, 1, 4, 4, 4, 4, 4, 1, 1, 4, 1, 2, 3, 4]);
next = array1d(1..14 ,[2, 8, 6, 7, 10, 4, 14, 9, 11, 3, 12, 13, 5, 1]);
makespan = 857;
----------
assign = array1d(1..14 ,[1, 1, 4, 4, 4, 4, 4, 1, 1, 4, 1, 2, 3, 4]);
next = array1d(1..14 ,[2, 8, 6, 7, 10, 4, 14, 9, 11, 3, 12, 13, 5, 1]);
makespan = 853;
----------
assign = array1d(1..14 ,[1, 1, 4, 4, 4, 4, 4, 1, 1, 4, 1, 2, 3, 4]);
next = array1d(1..14 ,[2, 8, 6, 7, 10, 4, 14, 9, 11, 3, 12, 13, 5, 1]);
makespan = 852;
----------
assign = array1d(1..14 ,[1, 1, 4, 4, 4, 4, 4, 1, 1, 4, 1, 2, 3, 4]);
next = array1d(1..14 ,[2, 8, 6, 7, 10, 4, 14, 9, 11, 3, 12, 13, 5, 1]);
makespan = 847;
----------
assign = array1d(1..14 ,[1, 1, 4, 4, 4, 4, 4, 1, 1, 4, 1, 2, 3, 4]);
next = array1d(1..14 ,[2, 8, 6, 7, 10, 4, 14, 9, 11, 3, 12, 13, 5, 1]);
makespan = 845;
----------
assign = array1d(1..14 ,[1, 1, 4, 4, 4, 4, 4, 1, 1, 4, 1, 2, 3, 4]);
next = array1d(1..14 ,[2, 8, 6, 7, 10, 4, 14, 9, 11, 3, 12, 13, 5, 1]);
makespan = 841;
----------
assign = array1d(1..14 ,[1, 1, 4, 4, 4, 4, 4, 1, 1, 4, 1, 2, 3, 4]);
next = array1d(1..14 ,[2, 8, 6, 7, 10, 4, 14, 9, 11, 3, 12, 13, 5, 1]);
makespan = 840;
----------
assign = array1d(1..14 ,[1, 1, 4, 4, 4, 4, 4, 1, 1, 4, 1, 2, 3, 4]);
next = array1d(1..14 ,[2, 8, 6, 7, 10, 4, 14, 9, 11, 3, 12, 13, 5, 1]);
makespan = 833;
----------
assign = array1d(1..14 ,[1, 1, 4, 4, 4, 4, 4, 1, 1, 4, 1, 2, 3, 4]);
next = array1d(1..14 ,[2, 8, 6, 7, 10, 4, 14, 9, 11, 3, 12, 13, 5, 1]);
makespan = 832;
----------
assign = array1d(1..14 ,[1, 1, 4, 4, 4, 4, 4, 1, 1, 4, 1, 2, 3, 4]);
next = array1d(1..14 ,[2, 8, 6, 7, 10, 4, 14, 9, 11, 3, 12, 13, 5, 1]);
makespan = 830;
----------
assign = array1d(1..14 ,[1, 1, 4, 4, 1, 4, 4, 4, 1, 4, 1, 2, 3, 4]);
next = array1d(1..14 ,[9, 11, 6, 7, 1, 4, 8, 14, 2, 3, 12, 13, 10, 5]);
makespan = 826;
----------
assign = array1d(1..14 ,[1, 1, 4, 4, 1, 4, 4, 4, 1, 4, 1, 2, 3, 4]);
next = array1d(1..14 ,[9, 11, 6, 7, 1, 4, 8, 14, 2, 3, 12, 13, 10, 5]);
makespan = 825;
----------
assign = array1d(1..14 ,[1, 1, 4, 4, 1, 4, 4, 4, 1, 4, 1, 2, 3, 4]);
next = array1d(1..14 ,[9, 11, 6, 7, 1, 4, 8, 14, 2, 3, 12, 13, 10, 5]);
makespan = 823;
----------
assign = array1d(1..14 ,[1, 1, 4, 4, 1, 4, 4, 4, 1, 4, 1, 2, 3, 4]);
next = array1d(1..14 ,[9, 11, 6, 7, 1, 4, 8, 14, 2, 3, 12, 13, 10, 5]);
makespan = 821;
----------
assign = array1d(1..14 ,[1, 1, 4, 4, 1, 4, 4, 4, 1, 4, 1, 2, 3, 4]);
next = array1d(1..14 ,[9, 11, 6, 7, 1, 4, 8, 14, 2, 3, 12, 13, 10, 5]);
makespan = 818;
----------
assign = array1d(1..14 ,[1, 1, 4, 4, 1, 4, 4, 4, 1, 4, 1, 2, 3, 4]);
next = array1d(1..14 ,[9, 11, 6, 7, 1, 4, 8, 14, 2, 3, 12, 13, 10, 5]);
makespan = 815;
----------
assign = array1d(1..14 ,[1, 1, 4, 4, 1, 4, 4, 1, 1, 4, 1, 2, 3, 4]);
next = array1d(1..14 ,[2, 8, 6, 7, 1, 4, 14, 9, 11, 3, 12, 13, 10, 5]);
makespan = 814;
----------
assign = array1d(1..14 ,[1, 1, 4, 4, 1, 4, 4, 1, 4, 4, 1, 2, 3, 4]);
next = array1d(1..14 ,[2, 8, 6, 7, 1, 4, 14, 11, 10, 3, 12, 13, 9, 5]);
makespan = 810;
----------
assign = array1d(1..14 ,[1, 1, 4, 4, 1, 4, 4, 1, 4, 4, 1, 2, 3, 4]);
next = array1d(1..14 ,[2, 8, 6, 7, 1, 4, 14, 11, 10, 3, 12, 13, 9, 5]);
makespan = 806;
----------
assign = array1d(1..14 ,[1, 1, 4, 4, 1, 4, 4, 1, 1, 4, 1, 2, 3, 4]);
next = array1d(1..14 ,[9, 11, 6, 7, 1, 4, 14, 2, 8, 3, 12, 13, 10, 5]);
makespan = 800;
----------
assign = array1d(1..14 ,[1, 1, 4, 4, 1, 4, 4, 1, 1, 4, 1, 2, 3, 4]);
next = array1d(1..14 ,[9, 11, 6, 7, 1, 4, 14, 2, 8, 3, 12, 13, 10, 5]);
makespan = 798;
----------
assign = array1d(1..14 ,[1, 1, 4, 4, 1, 4, 4, 1, 1, 4, 1, 2, 3, 4]);
next = array1d(1..14 ,[9, 11, 6, 7, 1, 4, 14, 2, 8, 3, 12, 13, 10, 5]);
makespan = 793;
----------
assign = array1d(1..14 ,[1, 1, 4, 4, 1, 4, 4, 1, 1, 4, 1, 2, 3, 4]);
next = array1d(1..14 ,[9, 11, 6, 7, 1, 4, 14, 2, 8, 3, 12, 13, 10, 5]);
makespan = 788;
----------
assign = array1d(1..14 ,[1, 1, 4, 4, 1, 4, 4, 1, 1, 4, 1, 2, 3, 4]);
next = array1d(1..14 ,[9, 11, 6, 7, 1, 4, 14, 2, 8, 3, 12, 13, 10, 5]);
makespan = 785;
----------
assign = array1d(1..14 ,[1, 1, 4, 4, 1, 4, 4, 1, 1, 4, 1, 2, 3, 4]);
next = array1d(1..14 ,[9, 11, 6, 7, 1, 4, 14, 2, 8, 3, 12, 13, 10, 5]);
makespan = 778;
----------
assign = array1d(1..14 ,[1, 1, 4, 4, 1, 4, 4, 1, 1, 4, 1, 2, 3, 4]);
next = array1d(1..14 ,[9, 11, 6, 7, 1, 4, 14, 2, 8, 3, 12, 13, 10, 5]);
makespan = 776;
----------
assign = array1d(1..14 ,[1, 1, 4, 4, 1, 4, 4, 1, 1, 4, 1, 2, 3, 4]);
next = array1d(1..14 ,[9, 11, 6, 7, 1, 4, 14, 2, 8, 3, 12, 13, 10, 5]);
makespan = 773;
----------
assign = array1d(1..14 ,[1, 1, 4, 4, 1, 4, 4, 1, 1, 4, 1, 2, 3, 4]);
next = array1d(1..14 ,[9, 11, 6, 7, 1, 4, 14, 2, 8, 3, 12, 13, 10, 5]);
makespan = 768;
----------
assign = array1d(1..14 ,[1, 1, 4, 4, 1, 4, 4, 1, 1, 4, 1, 2, 3, 4]);
next = array1d(1..14 ,[9, 11, 6, 7, 1, 4, 14, 2, 8, 3, 12, 13, 10, 5]);
makespan = 766;
----------
assign = array1d(1..14 ,[1, 1, 4, 4, 1, 4, 4, 1, 1, 4, 1, 2, 3, 4]);
next = array1d(1..14 ,[9, 11, 6, 7, 1, 4, 14, 2, 8, 3, 12, 13, 10, 5]);
makespan = 764;
----------
assign = array1d(1..14 ,[1, 1, 4, 4, 1, 4, 4, 1, 1, 4, 1, 2, 3, 4]);
next = array1d(1..14 ,[9, 11, 6, 7, 1, 4, 14, 2, 8, 3, 12, 13, 10, 5]);
makespan = 763;
----------
assign = array1d(1..14 ,[1, 1, 4, 4, 1, 4, 4, 1, 1, 4, 1, 2, 3, 4]);
next = array1d(1..14 ,[9, 11, 6, 7, 1, 4, 14, 2, 8, 3, 12, 13, 10, 5]);
makespan = 762;
----------
assign = array1d(1..14 ,[1, 1, 4, 4, 1, 4, 4, 1, 1, 4, 1, 2, 3, 4]);
next = array1d(1..14 ,[9, 11, 6, 7, 1, 4, 14, 2, 8, 3, 12, 13, 10, 5]);
makespan = 760;
----------
assign = array1d(1..14 ,[1, 1, 4, 4, 1, 4, 4, 1, 1, 4, 1, 2, 3, 4]);
next = array1d(1..14 ,[9, 11, 6, 7, 1, 4, 14, 2, 8, 3, 12, 13, 10, 5]);
makespan = 757;
----------
assign = array1d(1..14 ,[1, 1, 4, 4, 1, 4, 4, 1, 1, 4, 1, 2, 3, 4]);
next = array1d(1..14 ,[9, 11, 6, 7, 1, 4, 14, 2, 8, 3, 12, 13, 10, 5]);
makespan = 756;
----------
assign = array1d(1..14 ,[1, 1, 4, 4, 1, 4, 4, 1, 1, 4, 1, 2, 3, 4]);
next = array1d(1..14 ,[9, 11, 6, 7, 1, 4, 14, 2, 8, 3, 12, 13, 10, 5]);
makespan = 754;
----------
assign = array1d(1..14 ,[1, 1, 4, 4, 1, 4, 4, 1, 1, 4, 1, 2, 3, 4]);
next = array1d(1..14 ,[9, 11, 6, 7, 1, 4, 14, 2, 8, 3, 12, 13, 10, 5]);
makespan = 753;
----------
assign = array1d(1..14 ,[1, 1, 4, 4, 1, 4, 4, 1, 1, 4, 1, 2, 3, 4]);
next = array1d(1..14 ,[9, 11, 6, 7, 1, 4, 14, 2, 8, 3, 12, 13, 10, 5]);
makespan = 745;
----------
assign = array1d(1..14 ,[1, 1, 4, 4, 1, 4, 4, 1, 1, 4, 1, 2, 3, 4]);
next = array1d(1..14 ,[9, 11, 6, 7, 1, 4, 14, 2, 8, 3, 12, 13, 10, 5]);
makespan = 744;
----------
assign = array1d(1..14 ,[1, 1, 4, 4, 1, 4, 4, 1, 1, 4, 1, 2, 3, 4]);
next = array1d(1..14 ,[9, 11, 6, 7, 1, 4, 14, 2, 8, 3, 12, 13, 10, 5]);
makespan = 743;
----------
assign = array1d(1..14 ,[1, 1, 4, 4, 1, 4, 4, 1, 1, 4, 1, 2, 3, 4]);
next = array1d(1..14 ,[9, 11, 6, 7, 1, 4, 14, 2, 8, 3, 12, 13, 10, 5]);
makespan = 741;
----------
assign = array1d(1..14 ,[1, 1, 4, 4, 1, 4, 4, 1, 1, 4, 1, 2, 3, 4]);
next = array1d(1..14 ,[9, 11, 6, 7, 1, 4, 14, 2, 8, 3, 12, 13, 10, 5]);
makespan = 738;
----------
assign = array1d(1..14 ,[1, 1, 4, 4, 1, 4, 4, 1, 1, 4, 1, 2, 3, 4]);
next = array1d(1..14 ,[9, 11, 6, 7, 1, 4, 14, 2, 8, 3, 12, 13, 10, 5]);
makespan = 737;
----------
assign = array1d(1..14 ,[1, 1, 4, 4, 1, 4, 4, 1, 1, 4, 1, 2, 3, 4]);
next = array1d(1..14 ,[9, 11, 6, 7, 1, 4, 14, 2, 8, 3, 12, 13, 10, 5]);
makespan = 736;
----------
assign = array1d(1..14 ,[1, 1, 4, 4, 1, 4, 4, 1, 1, 4, 1, 2, 3, 4]);
next = array1d(1..14 ,[9, 11, 6, 7, 1, 4, 14, 2, 8, 3, 12, 13, 10, 5]);
makespan = 730;
----------
assign = array1d(1..14 ,[1, 1, 4, 4, 1, 4, 4, 1, 1, 4, 1, 2, 3, 4]);
next = array1d(1..14 ,[9, 11, 6, 7, 1, 4, 14, 2, 8, 3, 12, 13, 10, 5]);
makespan = 729;
----------
assign = array1d(1..14 ,[1, 1, 4, 4, 1, 4, 4, 1, 1, 4, 1, 2, 3, 4]);
next = array1d(1..14 ,[9, 11, 6, 7, 1, 4, 14, 2, 8, 3, 12, 13, 10, 5]);
makespan = 715;
----------
assign = array1d(1..14 ,[1, 1, 4, 4, 1, 4, 4, 1, 1, 4, 1, 2, 3, 4]);
next = array1d(1..14 ,[9, 11, 6, 7, 1, 4, 14, 2, 8, 3, 12, 13, 10, 5]);
makespan = 713;
----------
assign = array1d(1..14 ,[1, 1, 4, 4, 1, 4, 4, 1, 1, 4, 1, 2, 3, 4]);
next = array1d(1..14 ,[9, 11, 6, 7, 1, 4, 14, 2, 8, 3, 12, 13, 10, 5]);
makespan = 697;
----------
assign = array1d(1..14 ,[1, 1, 4, 4, 1, 4, 4, 1, 1, 4, 1, 2, 3, 4]);
next = array1d(1..14 ,[9, 11, 6, 7, 1, 4, 14, 2, 8, 3, 12, 13, 10, 5]);
makespan = 696;
----------
assign = array1d(1..14 ,[1, 1, 4, 4, 1, 4, 4, 1, 1, 4, 1, 2, 3, 4]);
next = array1d(1..14 ,[9, 11, 6, 7, 1, 4, 14, 2, 8, 3, 12, 13, 10, 5]);
makespan = 692;
----------
assign = array1d(1..14 ,[1, 1, 4, 4, 1, 4, 4, 1, 1, 4, 1, 2, 3, 4]);
next = array1d(1..14 ,[9, 11, 6, 7, 1, 4, 14, 2, 8, 3, 12, 13, 10, 5]);
makespan = 682;
----------
assign = array1d(1..14 ,[2, 2, 4, 4, 2, 4, 4, 2, 2, 4, 1, 2, 3, 4]);
next = array1d(1..14 ,[9, 12, 6, 7, 8, 4, 10, 2, 5, 14, 1, 13, 3, 11]);
makespan = 680;
----------
assign = array1d(1..14 ,[2, 2, 4, 4, 4, 4, 4, 2, 2, 2, 1, 2, 3, 4]);
next = array1d(1..14 ,[10, 1, 6, 7, 3, 4, 14, 2, 12, 9, 8, 13, 5, 11]);
makespan = 675;
----------
assign = array1d(1..14 ,[3, 4, 4, 4, 3, 4, 4, 3, 3, 3, 1, 2, 3, 4]);
next = array1d(1..14 ,[9, 3, 6, 7, 8, 4, 14, 1, 13, 5, 12, 10, 2, 11]);
makespan = 674;
----------
assign = array1d(1..14 ,[2, 2, 4, 4, 4, 4, 4, 2, 2, 3, 1, 2, 3, 4]);
next = array1d(1..14 ,[9, 1, 6, 7, 3, 4, 14, 2, 12, 13, 8, 10, 5, 11]);
makespan = 673;
----------
assign = array1d(1..14 ,[3, 4, 4, 4, 3, 4, 4, 3, 3, 3, 1, 2, 3, 4]);
next = array1d(1..14 ,[9, 3, 6, 7, 1, 4, 14, 13, 8, 5, 12, 10, 2, 11]);
makespan = 672;
----------
assign = array1d(1..14 ,[3, 4, 4, 4, 3, 4, 4, 3, 3, 3, 1, 2, 3, 4]);
next = array1d(1..14 ,[9, 3, 6, 7, 1, 4, 14, 13, 8, 5, 12, 10, 2, 11]);
makespan = 671;
----------
assign = array1d(1..14 ,[3, 4, 4, 4, 3, 4, 4, 3, 3, 3, 1, 2, 3, 4]);
next = array1d(1..14 ,[9, 3, 6, 7, 1, 4, 14, 13, 8, 5, 12, 10, 2, 11]);
makespan = 670;
----------
assign = array1d(1..14 ,[3, 4, 4, 4, 3, 4, 4, 3, 3, 3, 1, 2, 3, 4]);
next = array1d(1..14 ,[9, 3, 6, 7, 1, 4, 14, 13, 8, 5, 12, 10, 2, 11]);
makespan = 665;
----------
assign = array1d(1..14 ,[3, 4, 4, 4, 3, 4, 4, 3, 3, 3, 1, 2, 3, 4]);
next = array1d(1..14 ,[9, 3, 6, 7, 1, 4, 14, 13, 8, 5, 12, 10, 2, 11]);
makespan = 662;
----------
assign = array1d(1..14 ,[4, 1, 4, 4, 1, 4, 4, 1, 3, 3, 1, 2, 3, 4]);
next = array1d(1..14 ,[3, 5, 6, 7, 11, 4, 14, 2, 13, 9, 12, 10, 1, 8]);
makespan = 659;
----------
assign = array1d(1..14 ,[4, 1, 4, 4, 1, 4, 4, 1, 3, 3, 1, 2, 3, 4]);
next = array1d(1..14 ,[3, 5, 6, 7, 11, 4, 14, 2, 13, 9, 12, 10, 1, 8]);
makespan = 658;
----------
assign = array1d(1..14 ,[4, 1, 4, 4, 1, 4, 4, 1, 3, 3, 1, 2, 3, 4]);
next = array1d(1..14 ,[3, 5, 6, 7, 11, 4, 14, 2, 13, 9, 12, 10, 1, 8]);
makespan = 657;
----------
assign = array1d(1..14 ,[4, 2, 4, 4, 2, 4, 4, 2, 3, 3, 1, 2, 3, 4]);
next = array1d(1..14 ,[3, 5, 6, 7, 12, 4, 14, 2, 13, 9, 8, 10, 1, 11]);
makespan = 656;
----------
assign = array1d(1..14 ,[4, 2, 4, 4, 2, 4, 4, 2, 3, 3, 1, 2, 3, 4]);
next = array1d(1..14 ,[3, 5, 6, 7, 12, 4, 14, 2, 13, 9, 8, 10, 1, 11]);
makespan = 654;
----------
assign = array1d(1..14 ,[2, 2, 4, 4, 2, 4, 4, 4, 2, 2, 1, 2, 3, 4]);
next = array1d(1..14 ,[10, 1, 6, 7, 12, 4, 14, 3, 2, 5, 9, 13, 8, 11]);
makespan = 653;
----------
assign = array1d(1..14 ,[4, 4, 1, 4, 1, 4, 4, 1, 1, 1, 1, 2, 3, 4]);
next = array1d(1..14 ,[4, 1, 11, 7, 8, 2, 14, 9, 3, 5, 12, 13, 6, 10]);
makespan = 652;
----------
assign = array1d(1..14 ,[3, 4, 4, 4, 3, 4, 4, 3, 3, 3, 1, 2, 3, 4]);
next = array1d(1..14 ,[13, 4, 2, 7, 8, 14, 6, 9, 10, 1, 12, 5, 3, 11]);
makespan = 650;
----------
assign = array1d(1..14 ,[4, 4, 3, 4, 1, 4, 4, 3, 3, 3, 1, 2, 3, 4]);
next = array1d(1..14 ,[2, 4, 13, 7, 11, 1, 14, 9, 10, 3, 12, 8, 6, 5]);
makespan = 648;
----------
assign = array1d(1..14 ,[1, 3, 3, 4, 3, 3, 4, 4, 2, 4, 1, 2, 3, 4]);
next = array1d(1..14 ,[11, 5, 2, 7, 13, 3, 14, 10, 12, 4, 9, 6, 8, 1]);
makespan = 645;
----------
assign = array1d(1..14 ,[1, 3, 3, 4, 3, 3, 4, 4, 2, 4, 1, 2, 3, 4]);
next = array1d(1..14 ,[11, 5, 2, 7, 13, 3, 14, 10, 12, 4, 9, 6, 8, 1]);
makespan = 644;
----------
assign = array1d(1..14 ,[1, 3, 3, 4, 3, 3, 4, 4, 2, 4, 1, 2, 3, 4]);
next = array1d(1..14 ,[11, 5, 2, 7, 13, 3, 14, 10, 12, 4, 9, 6, 8, 1]);
makespan = 642;
----------
assign = array1d(1..14 ,[1, 3, 3, 4, 3, 3, 4, 4, 2, 4, 1, 2, 3, 4]);
next = array1d(1..14 ,[11, 5, 2, 7, 13, 3, 14, 10, 12, 4, 9, 6, 8, 1]);
makespan = 641;
----------
assign = array1d(1..14 ,[1, 3, 3, 4, 3, 3, 4, 4, 2, 4, 1, 2, 3, 4]);
next = array1d(1..14 ,[11, 5, 2, 7, 13, 3, 14, 10, 12, 4, 9, 6, 8, 1]);
makespan = 639;
----------
assign = array1d(1..14 ,[1, 3, 3, 4, 3, 3, 4, 4, 2, 4, 1, 2, 3, 4]);
next = array1d(1..14 ,[11, 5, 2, 7, 13, 3, 14, 10, 12, 4, 9, 6, 8, 1]);
makespan = 636;
----------
assign = array1d(1..14 ,[1, 3, 3, 4, 3, 3, 4, 4, 2, 4, 1, 2, 3, 4]);
next = array1d(1..14 ,[11, 5, 2, 7, 13, 3, 14, 10, 12, 4, 9, 6, 8, 1]);
makespan = 635;
----------
assign = array1d(1..14 ,[1, 3, 3, 4, 3, 3, 4, 4, 2, 4, 1, 2, 3, 4]);
next = array1d(1..14 ,[11, 5, 2, 7, 13, 3, 14, 10, 12, 4, 9, 6, 8, 1]);
makespan = 634;
----------
assign = array1d(1..14 ,[1, 3, 3, 4, 3, 3, 4, 4, 2, 4, 1, 2, 3, 4]);
next = array1d(1..14 ,[11, 5, 2, 7, 13, 3, 14, 10, 12, 4, 9, 6, 8, 1]);
makespan = 632;
----------
assign = array1d(1..14 ,[1, 3, 3, 4, 3, 3, 4, 4, 2, 4, 1, 2, 3, 4]);
next = array1d(1..14 ,[11, 5, 2, 7, 13, 3, 14, 10, 12, 4, 9, 6, 8, 1]);
makespan = 630;
----------
assign = array1d(1..14 ,[1, 3, 3, 4, 3, 3, 4, 4, 2, 4, 1, 2, 3, 4]);
next = array1d(1..14 ,[11, 5, 2, 7, 13, 3, 14, 10, 12, 4, 9, 6, 8, 1]);
makespan = 629;
----------
assign = array1d(1..14 ,[1, 3, 3, 4, 3, 3, 4, 4, 2, 4, 1, 2, 3, 4]);
next = array1d(1..14 ,[11, 5, 2, 7, 13, 3, 14, 10, 12, 4, 9, 6, 8, 1]);
makespan = 627;
----------
assign = array1d(1..14 ,[1, 3, 3, 4, 3, 3, 4, 4, 2, 4, 1, 2, 3, 4]);
next = array1d(1..14 ,[11, 5, 2, 7, 13, 3, 14, 10, 12, 4, 9, 6, 8, 1]);
makespan = 625;
----------
assign = array1d(1..14 ,[1, 3, 3, 4, 3, 3, 4, 4, 2, 4, 1, 2, 3, 4]);
next = array1d(1..14 ,[11, 5, 2, 7, 13, 3, 14, 10, 12, 4, 9, 6, 8, 1]);
makespan = 622;
----------
assign = array1d(1..14 ,[1, 3, 3, 4, 3, 3, 4, 4, 2, 4, 1, 2, 3, 4]);
next = array1d(1..14 ,[11, 5, 2, 7, 13, 3, 14, 10, 12, 4, 9, 6, 8, 1]);
makespan = 621;
----------
assign = array1d(1..14 ,[1, 3, 3, 4, 3, 3, 4, 4, 2, 4, 1, 2, 3, 4]);
next = array1d(1..14 ,[11, 5, 2, 7, 13, 3, 14, 10, 12, 4, 9, 6, 8, 1]);
makespan = 619;
----------
assign = array1d(1..14 ,[1, 3, 3, 4, 3, 3, 4, 4, 2, 4, 1, 2, 3, 4]);
next = array1d(1..14 ,[11, 5, 2, 7, 13, 3, 14, 10, 12, 4, 9, 6, 8, 1]);
makespan = 614;
----------
assign = array1d(1..14 ,[1, 3, 3, 4, 3, 3, 4, 4, 2, 4, 1, 2, 3, 4]);
next = array1d(1..14 ,[11, 5, 2, 7, 13, 3, 14, 10, 12, 4, 9, 6, 8, 1]);
makespan = 613;
----------
assign = array1d(1..14 ,[1, 3, 3, 4, 3, 3, 4, 4, 2, 4, 1, 2, 3, 4]);
next = array1d(1..14 ,[11, 5, 2, 7, 13, 3, 14, 10, 12, 4, 9, 6, 8, 1]);
makespan = 612;
----------
assign = array1d(1..14 ,[1, 3, 3, 4, 3, 3, 4, 4, 2, 4, 1, 2, 3, 4]);
next = array1d(1..14 ,[11, 5, 2, 7, 13, 3, 14, 10, 12, 4, 9, 6, 8, 1]);
makespan = 610;
----------
assign = array1d(1..14 ,[1, 3, 3, 4, 3, 3, 4, 4, 2, 4, 1, 2, 3, 4]);
next = array1d(1..14 ,[11, 5, 2, 7, 13, 3, 14, 10, 12, 4, 9, 6, 8, 1]);
makespan = 605;
----------
assign = array1d(1..14 ,[1, 3, 3, 4, 3, 3, 4, 4, 2, 4, 1, 2, 3, 4]);
next = array1d(1..14 ,[11, 5, 2, 7, 13, 3, 14, 10, 12, 4, 9, 6, 8, 1]);
makespan = 604;
----------
assign = array1d(1..14 ,[1, 3, 3, 4, 3, 3, 4, 4, 2, 4, 1, 2, 3, 4]);
next = array1d(1..14 ,[11, 5, 2, 7, 13, 3, 14, 10, 12, 4, 9, 6, 8, 1]);
makespan = 603;
----------
assign = array1d(1..14 ,[1, 3, 3, 4, 3, 3, 4, 4, 2, 4, 1, 2, 3, 4]);
next = array1d(1..14 ,[11, 5, 2, 7, 13, 3, 14, 10, 12, 4, 9, 6, 8, 1]);
makespan = 602;
----------
assign = array1d(1..14 ,[1, 3, 3, 4, 3, 3, 4, 4, 2, 4, 1, 2, 3, 4]);
next = array1d(1..14 ,[11, 5, 2, 7, 13, 3, 14, 10, 12, 4, 9, 6, 8, 1]);
makespan = 595;
----------
assign = array1d(1..14 ,[1, 3, 3, 4, 3, 3, 4, 4, 2, 4, 1, 2, 3, 4]);
next = array1d(1..14 ,[11, 5, 2, 7, 13, 3, 14, 10, 12, 4, 9, 6, 8, 1]);
makespan = 594;
----------
assign = array1d(1..14 ,[1, 3, 3, 4, 3, 3, 4, 4, 2, 4, 1, 2, 3, 4]);
next = array1d(1..14 ,[11, 5, 2, 7, 13, 3, 14, 10, 12, 4, 9, 6, 8, 1]);
makespan = 593;
----------
assign = array1d(1..14 ,[1, 3, 3, 4, 3, 3, 4, 4, 2, 4, 1, 2, 3, 4]);
next = array1d(1..14 ,[11, 5, 2, 7, 13, 3, 14, 10, 12, 4, 9, 6, 8, 1]);
makespan = 589;
----------
assign = array1d(1..14 ,[1, 3, 3, 4, 3, 3, 4, 4, 2, 4, 1, 2, 3, 4]);
next = array1d(1..14 ,[11, 5, 2, 7, 13, 3, 14, 10, 12, 4, 9, 6, 8, 1]);
makespan = 587;
----------
assign = array1d(1..14 ,[1, 3, 3, 4, 3, 3, 4, 4, 2, 4, 1, 2, 3, 4]);
next = array1d(1..14 ,[11, 5, 2, 7, 13, 3, 14, 10, 12, 4, 9, 6, 8, 1]);
makespan = 586;
----------
assign = array1d(1..14 ,[1, 3, 3, 4, 3, 3, 4, 4, 2, 4, 1, 2, 3, 4]);
next = array1d(1..14 ,[11, 5, 2, 7, 13, 3, 14, 10, 12, 4, 9, 6, 8, 1]);
makespan = 585;
----------
assign = array1d(1..14 ,[1, 3, 3, 4, 3, 3, 4, 4, 2, 4, 1, 2, 3, 4]);
next = array1d(1..14 ,[11, 5, 2, 7, 13, 3, 14, 10, 12, 4, 9, 6, 8, 1]);
makespan = 583;
----------
assign = array1d(1..14 ,[1, 3, 3, 4, 3, 3, 4, 4, 2, 4, 1, 2, 3, 4]);
next = array1d(1..14 ,[11, 5, 2, 7, 13, 3, 14, 10, 12, 4, 9, 6, 8, 1]);
makespan = 582;
----------
assign = array1d(1..14 ,[1, 3, 3, 4, 3, 3, 4, 4, 2, 4, 1, 2, 3, 4]);
next = array1d(1..14 ,[11, 5, 2, 7, 13, 3, 14, 10, 12, 4, 9, 6, 8, 1]);
makespan = 580;
----------
assign = array1d(1..14 ,[1, 3, 3, 4, 3, 3, 4, 4, 2, 4, 1, 2, 3, 4]);
next = array1d(1..14 ,[11, 5, 2, 7, 13, 3, 14, 10, 12, 4, 9, 6, 8, 1]);
makespan = 579;
----------
assign = array1d(1..14 ,[1, 3, 3, 4, 3, 3, 4, 4, 2, 4, 1, 2, 3, 4]);
next = array1d(1..14 ,[11, 5, 2, 7, 13, 3, 14, 10, 12, 4, 9, 6, 8, 1]);
makespan = 578;
----------
assign = array1d(1..14 ,[1, 3, 3, 4, 3, 3, 4, 4, 2, 4, 1, 2, 3, 4]);
next = array1d(1..14 ,[11, 5, 2, 7, 13, 3, 14, 10, 12, 4, 9, 6, 8, 1]);
makespan = 576;
----------
assign = array1d(1..14 ,[1, 3, 3, 4, 3, 3, 4, 4, 2, 4, 1, 2, 3, 4]);
next = array1d(1..14 ,[11, 5, 2, 7, 13, 3, 14, 10, 12, 4, 9, 6, 8, 1]);
makespan = 575;
----------
assign = array1d(1..14 ,[1, 3, 3, 4, 3, 3, 4, 4, 2, 4, 1, 2, 3, 4]);
next = array1d(1..14 ,[11, 5, 2, 7, 13, 3, 14, 10, 12, 4, 9, 6, 8, 1]);
makespan = 571;
----------
assign = array1d(1..14 ,[1, 3, 3, 4, 3, 3, 4, 4, 2, 4, 1, 2, 3, 4]);
next = array1d(1..14 ,[11, 5, 2, 7, 13, 3, 14, 10, 12, 4, 9, 6, 8, 1]);
makespan = 569;
----------
assign = array1d(1..14 ,[1, 3, 3, 4, 3, 3, 4, 4, 2, 4, 1, 2, 3, 4]);
next = array1d(1..14 ,[11, 5, 2, 7, 13, 3, 14, 10, 12, 4, 9, 6, 8, 1]);
makespan = 567;
----------
assign = array1d(1..14 ,[1, 2, 2, 4, 2, 2, 4, 4, 3, 4, 1, 2, 3, 4]);
next = array1d(1..14 ,[11, 5, 2, 7, 12, 3, 14, 10, 13, 4, 6, 9, 8, 1]);
makespan = 565;
----------
assign = array1d(1..14 ,[1, 2, 2, 4, 2, 2, 4, 4, 3, 4, 1, 2, 3, 4]);
next = array1d(1..14 ,[11, 5, 2, 7, 12, 3, 14, 10, 13, 4, 6, 9, 8, 1]);
makespan = 564;
----------
assign = array1d(1..14 ,[1, 2, 2, 4, 2, 2, 4, 4, 3, 4, 1, 2, 3, 4]);
next = array1d(1..14 ,[11, 5, 2, 7, 12, 3, 14, 10, 13, 4, 6, 9, 8, 1]);
makespan = 561;
----------
assign = array1d(1..14 ,[1, 2, 2, 4, 2, 2, 4, 4, 3, 4, 1, 2, 3, 4]);
next = array1d(1..14 ,[11, 5, 2, 7, 12, 3, 14, 10, 13, 4, 6, 9, 8, 1]);
makespan = 559;
----------
assign = array1d(1..14 ,[1, 2, 2, 4, 2, 2, 4, 4, 3, 4, 1, 2, 3, 4]);
next = array1d(1..14 ,[11, 5, 2, 7, 12, 3, 14, 10, 13, 4, 6, 9, 8, 1]);
makespan = 555;
----------
assign = array1d(1..14 ,[1, 2, 2, 4, 2, 2, 4, 4, 3, 4, 1, 2, 3, 4]);
next = array1d(1..14 ,[11, 5, 2, 7, 12, 3, 10, 14, 13, 8, 6, 9, 4, 1]);
makespan = 549;
----------
assign = array1d(1..14 ,[1, 2, 2, 4, 2, 2, 4, 4, 3, 4, 1, 2, 3, 4]);
next = array1d(1..14 ,[11, 5, 2, 7, 12, 3, 10, 14, 13, 8, 6, 9, 4, 1]);
makespan = 541;
----------
assign = array1d(1..14 ,[1, 2, 2, 4, 2, 2, 4, 4, 3, 4, 1, 2, 3, 4]);
next = array1d(1..14 ,[11, 5, 2, 7, 12, 3, 14, 4, 13, 8, 6, 9, 10, 1]);
makespan = 540;
----------
assign = array1d(1..14 ,[1, 2, 2, 4, 2, 2, 4, 4, 4, 1, 1, 2, 3, 4]);
next = array1d(1..14 ,[11, 5, 2, 7, 12, 3, 9, 14, 8, 1, 6, 13, 4, 10]);
makespan = 538;
----------
assign = array1d(1..14 ,[4, 3, 3, 4, 2, 3, 4, 3, 4, 2, 1, 2, 3, 4]);
next = array1d(1..14 ,[4, 13, 2, 7, 10, 3, 9, 6, 14, 12, 5, 8, 1, 11]);
makespan = 532;
----------
assign = array1d(1..14 ,[2, 3, 3, 4, 2, 3, 4, 3, 4, 4, 1, 2, 3, 4]);
next = array1d(1..14 ,[12, 13, 2, 7, 1, 3, 10, 6, 4, 14, 5, 8, 9, 11]);
makespan = 530;
----------
assign = array1d(1..14 ,[2, 3, 3, 4, 1, 3, 4, 3, 4, 4, 1, 2, 3, 4]);
next = array1d(1..14 ,[12, 13, 2, 7, 11, 3, 14, 6, 10, 4, 1, 8, 9, 5]);
makespan = 528;
----------
assign = array1d(1..14 ,[1, 4, 4, 2, 2, 4, 2, 4, 1, 1, 1, 2, 3, 4]);
next = array1d(1..14 ,[10, 8, 2, 7, 4, 3, 12, 14, 1, 11, 5, 13, 6, 9]);
makespan = 527;
----------
assign = array1d(1..14 ,[2, 2, 4, 3, 4, 4, 3, 4, 2, 2, 1, 2, 3, 4]);
next = array1d(1..14 ,[10, 1, 5, 13, 14, 3, 4, 6, 2, 12, 9, 7, 8, 11]);
makespan = 525;
----------
assign = array1d(1..14 ,[4, 4, 1, 2, 2, 1, 1, 1, 4, 4, 1, 2, 3, 4]);
next = array1d(1..14 ,[10, 1, 11, 12, 4, 3, 8, 6, 2, 14, 5, 13, 9, 7]);
makespan = 524;
----------
assign = array1d(1..14 ,[4, 4, 4, 3, 3, 4, 3, 3, 1, 1, 1, 2, 3, 4]);
next = array1d(1..14 ,[14, 1, 2, 13, 4, 3, 8, 5, 10, 11, 12, 7, 6, 9]);
makespan = 523;
----------
assign = array1d(1..14 ,[4, 4, 4, 3, 3, 4, 3, 3, 1, 1, 1, 2, 3, 4]);
next = array1d(1..14 ,[14, 1, 2, 13, 4, 3, 8, 5, 10, 11, 12, 7, 6, 9]);
makespan = 514;
----------
assign = array1d(1..14 ,[4, 4, 4, 3, 3, 4, 3, 3, 1, 1, 1, 2, 3, 4]);
next = array1d(1..14 ,[14, 1, 2, 13, 4, 3, 8, 5, 10, 11, 12, 7, 6, 9]);
makespan = 513;
----------
assign = array1d(1..14 ,[4, 4, 4, 3, 3, 4, 3, 3, 1, 1, 1, 2, 3, 4]);
next = array1d(1..14 ,[14, 1, 2, 13, 4, 3, 8, 5, 10, 11, 12, 7, 6, 9]);
makespan = 512;
----------
assign = array1d(1..14 ,[4, 4, 4, 1, 1, 4, 1, 1, 2, 2, 1, 2, 3, 4]);
next = array1d(1..14 ,[14, 1, 2, 11, 4, 3, 8, 5, 10, 12, 9, 13, 6, 7]);
makespan = 511;
----------
assign = array1d(1..14 ,[2, 4, 4, 3, 3, 2, 4, 4, 2, 2, 1, 2, 3, 4]);
next = array1d(1..14 ,[10, 14, 2, 13, 4, 1, 8, 3, 6, 12, 9, 5, 7, 11]);
makespan = 510;
----------
assign = array1d(1..14 ,[4, 4, 4, 1, 1, 3, 3, 4, 3, 3, 1, 2, 3, 4]);
next = array1d(1..14 ,[14, 1, 2, 11, 4, 7, 13, 3, 6, 9, 12, 10, 8, 5]);
makespan = 508;
----------
assign = array1d(1..14 ,[1, 4, 4, 1, 1, 3, 3, 3, 4, 4, 1, 2, 3, 4]);
next = array1d(1..14 ,[5, 9, 2, 11, 4, 7, 8, 13, 10, 14, 12, 6, 3, 1]);
makespan = 506;
----------
assign = array1d(1..14 ,[2, 4, 4, 4, 2, 3, 3, 3, 3, 4, 1, 2, 3, 4]);
next = array1d(1..14 ,[5, 10, 2, 3, 12, 7, 8, 13, 6, 14, 1, 9, 4, 11]);
makespan = 505;
----------
assign = array1d(1..14 ,[4, 4, 4, 3, 4, 3, 2, 3, 3, 2, 1, 2, 3, 4]);
next = array1d(1..14 ,[14, 1, 2, 13, 3, 4, 10, 9, 6, 12, 7, 8, 5, 11]);
makespan = 504;
----------
assign = array1d(1..14 ,[1, 4, 4, 2, 3, 4, 3, 1, 4, 3, 1, 2, 3, 4]);
next = array1d(1..14 ,[11, 9, 2, 12, 13, 14, 10, 1, 6, 5, 4, 7, 3, 8]);
makespan = 503;
----------
assign = array1d(1..14 ,[3, 4, 4, 2, 1, 2, 3, 3, 2, 3, 1, 2, 3, 4]);
next = array1d(1..14 ,[7, 14, 2, 12, 11, 4, 10, 1, 6, 13, 9, 8, 3, 5]);
makespan = 502;
----------
assign = array1d(1..14 ,[2, 4, 4, 3, 1, 3, 2, 4, 3, 2, 1, 2, 3, 4]);
next = array1d(1..14 ,[7, 14, 2, 13, 11, 4, 10, 3, 6, 12, 1, 9, 8, 5]);
makespan = 501;
----------
assign = array1d(1..14 ,[3, 4, 4, 2, 1, 2, 3, 3, 2, 3, 1, 2, 3, 4]);
next = array1d(1..14 ,[7, 14, 2, 12, 11, 4, 10, 1, 6, 13, 9, 8, 3, 5]);
makespan = 500;
----------
assign = array1d(1..14 ,[1, 4, 4, 3, 2, 3, 2, 1, 3, 2, 1, 2, 3, 4]);
next = array1d(1..14 ,[11, 14, 2, 13, 7, 4, 10, 1, 6, 12, 5, 9, 3, 8]);
makespan = 499;
----------
assign = array1d(1..14 ,[3, 4, 4, 1, 2, 1, 3, 3, 1, 3, 1, 2, 3, 4]);
next = array1d(1..14 ,[7, 14, 2, 11, 12, 4, 10, 1, 6, 13, 5, 8, 3, 9]);
makespan = 498;
----------
assign = array1d(1..14 ,[3, 4, 4, 1, 2, 1, 3, 3, 1, 3, 1, 2, 3, 4]);
next = array1d(1..14 ,[7, 14, 2, 11, 12, 4, 10, 1, 6, 13, 5, 8, 3, 9]);
makespan = 497;
----------
assign = array1d(1..14 ,[3, 4, 4, 1, 2, 1, 3, 3, 1, 3, 1, 2, 3, 4]);
next = array1d(1..14 ,[7, 14, 2, 11, 12, 4, 10, 1, 6, 13, 5, 8, 3, 9]);
makespan = 496;
----------
assign = array1d(1..14 ,[3, 4, 4, 1, 2, 1, 3, 3, 1, 3, 1, 2, 3, 4]);
next = array1d(1..14 ,[7, 14, 2, 11, 12, 4, 10, 1, 6, 13, 5, 8, 3, 9]);
makespan = 495;
----------
assign = array1d(1..14 ,[3, 4, 4, 1, 2, 1, 3, 3, 1, 3, 1, 2, 3, 4]);
next = array1d(1..14 ,[7, 14, 2, 11, 12, 4, 10, 1, 6, 13, 5, 8, 3, 9]);
makespan = 494;
----------
assign = array1d(1..14 ,[3, 4, 4, 1, 2, 1, 3, 3, 1, 3, 1, 2, 3, 4]);
next = array1d(1..14 ,[7, 14, 2, 11, 12, 4, 10, 1, 6, 13, 5, 8, 3, 9]);
makespan = 493;
----------
assign = array1d(1..14 ,[3, 4, 4, 1, 2, 1, 3, 3, 1, 3, 1, 2, 3, 4]);
next = array1d(1..14 ,[7, 14, 2, 11, 12, 4, 10, 1, 6, 13, 5, 8, 3, 9]);
makespan = 492;
----------
assign = array1d(1..14 ,[3, 4, 4, 1, 2, 1, 3, 3, 1, 3, 1, 2, 3, 4]);
next = array1d(1..14 ,[7, 14, 2, 11, 12, 4, 10, 1, 6, 13, 5, 8, 3, 9]);
makespan = 491;
----------
assign = array1d(1..14 ,[4, 4, 4, 1, 3, 1, 3, 4, 1, 3, 1, 2, 3, 4]);
next = array1d(1..14 ,[14, 8, 2, 11, 7, 4, 10, 1, 6, 13, 12, 5, 3, 9]);
makespan = 490;
----------
assign = array1d(1..14 ,[2, 1, 4, 3, 2, 3, 4, 2, 3, 4, 1, 2, 3, 4]);
next = array1d(1..14 ,[12, 11, 7, 13, 8, 4, 10, 1, 6, 14, 5, 9, 3, 2]);
makespan = 488;
----------
assign = array1d(1..14 ,[3, 1, 4, 2, 3, 2, 4, 3, 2, 4, 1, 2, 3, 4]);
next = array1d(1..14 ,[13, 11, 7, 12, 8, 4, 10, 1, 6, 14, 9, 5, 3, 2]);
makespan = 487;
----------
assign = array1d(1..14 ,[1, 4, 4, 3, 1, 3, 1, 1, 3, 4, 1, 2, 3, 4]);
next = array1d(1..14 ,[7, 3, 14, 13, 11, 4, 5, 1, 6, 2, 12, 9, 10, 8]);
makespan = 486;
----------
assign = array1d(1..14 ,[3, 4, 4, 1, 4, 1, 3, 3, 1, 2, 1, 2, 3, 4]);
next = array1d(1..14 ,[7, 3, 5, 11, 14, 4, 13, 1, 6, 12, 10, 8, 2, 9]);
makespan = 485;
----------
assign = array1d(1..14 ,[2, 4, 4, 2, 3, 4, 2, 3, 4, 3, 1, 2, 3, 4]);
next = array1d(1..14 ,[7, 3, 6, 12, 8, 14, 4, 10, 2, 13, 1, 5, 9, 11]);
makespan = 484;
----------
assign = array1d(1..14 ,[2, 4, 4, 4, 3, 2, 2, 3, 2, 3, 1, 2, 3, 4]);
next = array1d(1..14 ,[9, 3, 14, 2, 8, 12, 1, 10, 6, 13, 7, 5, 4, 11]);
makespan = 483;
----------
assign = array1d(1..14 ,[3, 4, 4, 3, 4, 2, 2, 3, 4, 3, 1, 2, 3, 4]);
next = array1d(1..14 ,[13, 3, 5, 1, 9, 7, 12, 10, 14, 4, 6, 8, 2, 11]);
makespan = 482;
----------
assign = array1d(1..14 ,[3, 4, 4, 2, 2, 4, 4, 3, 3, 2, 1, 2, 3, 4]);
next = array1d(1..14 ,[9, 3, 6, 5, 12, 7, 14, 1, 13, 4, 10, 8, 2, 11]);
makespan = 481;
----------
assign = array1d(1..14 ,[2, 4, 4, 4, 4, 2, 3, 2, 2, 3, 1, 2, 3, 4]);
next = array1d(1..14 ,[9, 3, 5, 14, 4, 12, 10, 1, 6, 13, 8, 7, 2, 11]);
makespan = 478;
----------
assign = array1d(1..14 ,[4, 4, 4, 2, 1, 3, 3, 3, 2, 2, 1, 2, 3, 4]);
next = array1d(1..14 ,[2, 3, 14, 10, 11, 13, 8, 6, 12, 9, 4, 7, 1, 5]);
makespan = 477;
----------
assign = array1d(1..14 ,[3, 4, 4, 2, 2, 3, 4, 2, 3, 1, 1, 2, 3, 4]);
next = array1d(1..14 ,[9, 3, 14, 12, 4, 1, 2, 5, 13, 11, 8, 6, 7, 10]);
makespan = 476;
----------
assign = array1d(1..14 ,[4, 2, 2, 4, 3, 4, 2, 3, 4, 3, 1, 2, 3, 4]);
next = array1d(1..14 ,[9, 12, 2, 6, 10, 1, 3, 5, 14, 13, 7, 8, 4, 11]);
makespan = 475;
----------
assign = array1d(1..14 ,[3, 3, 2, 3, 2, 4, 3, 4, 4, 2, 1, 2, 3, 4]);
next = array1d(1..14 ,[13, 4, 5, 7, 12, 14, 1, 6, 8, 3, 10, 2, 9, 11]);
makespan = 474;
----------
assign = array1d(1..14 ,[3, 4, 4, 4, 4, 1, 3, 1, 1, 3, 1, 2, 3, 4]);
next = array1d(1..14 ,[10, 14, 2, 3, 4, 11, 1, 6, 8, 13, 12, 7, 5, 9]);
makespan = 473;
----------
assign = array1d(1..14 ,[4, 1, 4, 3, 3, 2, 3, 2, 2, 4, 1, 2, 3, 4]);
next = array1d(1..14 ,[10, 11, 14, 7, 4, 12, 13, 6, 8, 3, 9, 5, 1, 2]);
makespan = 472;
----------
assign = array1d(1..14 ,[3, 1, 1, 4, 4, 2, 4, 4, 1, 3, 1, 2, 3, 4]);
next = array1d(1..14 ,[10, 11, 2, 7, 4, 12, 8, 14, 3, 13, 6, 1, 5, 9]);
makespan = 471;
----------
assign = array1d(1..14 ,[1, 1, 4, 4, 4, 3, 4, 3, 3, 1, 1, 2, 3, 4]);
next = array1d(1..14 ,[2, 11, 14, 7, 4, 13, 3, 6, 8, 1, 12, 9, 5, 10]);
makespan = 470;
----------
assign = array1d(1..14 ,[4, 4, 2, 2, 1, 1, 4, 3, 2, 1, 1, 2, 3, 4]);
next = array1d(1..14 ,[7, 14, 12, 3, 6, 11, 2, 13, 4, 5, 9, 8, 1, 10]);
makespan = 469;
----------
assign = array1d(1..14 ,[4, 4, 1, 2, 2, 3, 4, 2, 3, 1, 1, 2, 3, 4]);
next = array1d(1..14 ,[7, 1, 11, 12, 4, 9, 14, 5, 13, 3, 8, 6, 2, 10]);
makespan = 468;
----------
assign = array1d(1..14 ,[4, 4, 2, 1, 1, 3, 4, 3, 1, 2, 1, 2, 3, 4]);
next = array1d(1..14 ,[14, 1, 10, 5, 9, 13, 2, 6, 11, 12, 3, 8, 7, 4]);
makespan = 467;
----------
assign = array1d(1..14 ,[1, 2, 4, 2, 3, 4, 3, 3, 2, 4, 1, 2, 3, 4]);
next = array1d(1..14 ,[11, 4, 10, 12, 7, 3, 8, 13, 2, 14, 9, 5, 6, 1]);
makespan = 466;
----------
assign = array1d(1..14 ,[2, 4, 3, 4, 4, 3, 2, 3, 4, 2, 1, 2, 3, 4]);
next = array1d(1..14 ,[12, 4, 13, 14, 9, 3, 1, 6, 2, 7, 10, 8, 5, 11]);
makespan = 465;
----------
assign = array1d(1..14 ,[4, 2, 3, 4, 2, 3, 4, 4, 2, 3, 1, 2, 3, 4]);
next = array1d(1..14 ,[4, 5, 10, 14, 12, 3, 8, 1, 2, 13, 9, 6, 7, 11]);
makespan = 463;
----------
assign = array1d(1..14 ,[2, 4, 4, 2, 4, 3, 3, 3, 4, 2, 1, 2, 3, 4]);
next = array1d(1..14 ,[12, 14, 5, 10, 9, 7, 13, 6, 2, 1, 4, 8, 3, 11]);
makespan = 462;
----------
assign = array1d(1..14 ,[4, 3, 3, 2, 2, 3, 1, 2, 4, 4, 1, 2, 3, 4]);
next = array1d(1..14 ,[10, 6, 13, 8, 4, 3, 11, 12, 14, 9, 5, 2, 1, 7]);
makespan = 461;
----------
assign = array1d(1..14 ,[2, 4, 3, 3, 1, 4, 4, 3, 2, 2, 1, 2, 3, 4]);
next = array1d(1..14 ,[10, 6, 4, 8, 11, 7, 14, 13, 12, 9, 1, 3, 2, 5]);
makespan = 460;
----------
assign = array1d(1..14 ,[3, 1, 4, 4, 2, 4, 3, 3, 2, 2, 1, 2, 3, 4]);
next = array1d(1..14 ,[13, 11, 4, 14, 12, 3, 8, 1, 10, 5, 9, 7, 6, 2]);
makespan = 459;
----------
assign = array1d(1..14 ,[3, 3, 4, 4, 3, 4, 2, 3, 2, 2, 1, 2, 3, 4]);
next = array1d(1..14 ,[5, 8, 4, 14, 13, 3, 9, 1, 10, 12, 7, 2, 6, 11]);
makespan = 458;
----------
assign = array1d(1..14 ,[2, 4, 3, 2, 1, 4, 3, 1, 3, 4, 1, 2, 3, 4]);
next = array1d(1..14 ,[4, 6, 7, 12, 11, 14, 9, 5, 13, 2, 1, 3, 10, 8]);
makespan = 457;
----------
assign = array1d(1..14 ,[2, 1, 3, 3, 3, 1, 4, 2, 4, 4, 1, 2, 3, 4]);
next = array1d(1..14 ,[12, 6, 5, 3, 13, 11, 9, 1, 10, 14, 8, 4, 7, 2]);
makespan = 456;
----------
assign = array1d(1..14 ,[3, 3, 4, 4, 4, 3, 3, 4, 1, 1, 1, 2, 3, 4]);
next = array1d(1..14 ,[7, 13, 5, 3, 8, 2, 6, 14, 10, 11, 12, 1, 4, 9]);
makespan = 455;
----------
assign = array1d(1..14 ,[3, 2, 4, 4, 4, 2, 3, 4, 1, 1, 1, 2, 3, 4]);
next = array1d(1..14 ,[7, 12, 5, 3, 8, 2, 13, 14, 10, 11, 6, 1, 4, 9]);
makespan = 454;
----------
assign = array1d(1..14 ,[4, 2, 3, 3, 3, 2, 4, 4, 1, 1, 1, 2, 3, 4]);
next = array1d(1..14 ,[7, 12, 5, 3, 13, 2, 8, 14, 10, 11, 6, 4, 1, 9]);
makespan = 453;
----------
assign = array1d(1..14 ,[4, 1, 3, 3, 2, 1, 4, 4, 2, 2, 1, 2, 3, 4]);
next = array1d(1..14 ,[7, 6, 13, 3, 12, 11, 14, 1, 10, 5, 9, 4, 8, 2]);
makespan = 452;
----------
assign = array1d(1..14 ,[4, 3, 3, 3, 4, 2, 4, 1, 2, 2, 1, 2, 3, 4]);
next = array1d(1..14 ,[7, 13, 2, 3, 1, 9, 14, 11, 10, 12, 6, 4, 5, 8]);
makespan = 451;
----------
assign = array1d(1..14 ,[1, 3, 3, 3, 2, 4, 1, 2, 4, 4, 1, 2, 3, 4]);
next = array1d(1..14 ,[7, 13, 2, 3, 12, 9, 11, 5, 14, 6, 8, 4, 10, 1]);
makespan = 450;
----------
assign = array1d(1..14 ,[1, 3, 3, 4, 2, 2, 1, 3, 4, 4, 1, 2, 3, 4]);
next = array1d(1..14 ,[7, 13, 2, 14, 6, 12, 11, 3, 10, 4, 5, 8, 9, 1]);
makespan = 449;
----------
assign = array1d(1..14 ,[2, 3, 3, 3, 4, 4, 2, 4, 1, 2, 1, 2, 3, 4]);
next = array1d(1..14 ,[7, 13, 2, 3, 6, 8, 12, 14, 11, 1, 10, 4, 5, 9]);
makespan = 448;
----------
assign = array1d(1..14 ,[3, 2, 2, 4, 4, 4, 3, 2, 3, 1, 1, 2, 3, 4]);
next = array1d(1..14 ,[7, 12, 2, 5, 6, 14, 9, 3, 13, 11, 8, 1, 4, 10]);
makespan = 447;
----------
assign = array1d(1..14 ,[3, 4, 4, 1, 2, 2, 3, 4, 3, 2, 1, 2, 3, 4]);
next = array1d(1..14 ,[7, 14, 2, 11, 12, 10, 9, 3, 13, 5, 6, 1, 8, 4]);
makespan = 446;
----------
assign = array1d(1..14 ,[3, 2, 2, 4, 1, 2, 3, 4, 4, 3, 1, 2, 3, 4]);
next = array1d(1..14 ,[7, 6, 12, 14, 11, 3, 10, 4, 8, 13, 2, 1, 9, 5]);
makespan = 445;
----------
assign = array1d(1..14 ,[3, 4, 4, 1, 1, 4, 3, 2, 2, 3, 1, 2, 3, 4]);
next = array1d(1..14 ,[7, 6, 14, 11, 4, 3, 10, 9, 12, 13, 8, 1, 2, 5]);
makespan = 444;
----------
assign = array1d(1..14 ,[3, 4, 4, 1, 1, 4, 3, 2, 2, 3, 1, 2, 3, 4]);
next = array1d(1..14 ,[7, 6, 14, 11, 4, 3, 10, 9, 12, 13, 8, 1, 2, 5]);
makespan = 443;
----------
assign = array1d(1..14 ,[3, 4, 4, 1, 1, 4, 3, 2, 2, 3, 1, 2, 3, 4]);
next = array1d(1..14 ,[7, 6, 14, 11, 4, 3, 10, 9, 12, 13, 8, 1, 2, 5]);
makespan = 442;
----------
assign = array1d(1..14 ,[3, 4, 4, 1, 1, 4, 3, 2, 2, 3, 1, 2, 3, 4]);
next = array1d(1..14 ,[7, 6, 14, 11, 4, 3, 10, 9, 12, 13, 8, 1, 2, 5]);
makespan = 441;
----------
assign = array1d(1..14 ,[3, 4, 4, 1, 1, 4, 3, 2, 2, 3, 1, 2, 3, 4]);
next = array1d(1..14 ,[7, 6, 14, 11, 4, 3, 10, 9, 12, 13, 8, 1, 2, 5]);
makespan = 440;
----------
assign = array1d(1..14 ,[3, 4, 4, 1, 1, 4, 3, 2, 2, 3, 1, 2, 3, 4]);
next = array1d(1..14 ,[7, 6, 14, 11, 4, 3, 10, 9, 12, 13, 8, 1, 2, 5]);
makespan = 439;
----------
assign = array1d(1..14 ,[3, 4, 4, 1, 1, 4, 3, 2, 2, 3, 1, 2, 3, 4]);
next = array1d(1..14 ,[7, 6, 14, 11, 4, 3, 10, 9, 12, 13, 8, 1, 2, 5]);
makespan = 438;
----------
assign = array1d(1..14 ,[3, 4, 4, 1, 1, 4, 3, 2, 2, 3, 1, 2, 3, 4]);
next = array1d(1..14 ,[7, 6, 14, 11, 4, 3, 10, 9, 12, 13, 8, 1, 2, 5]);
makespan = 437;
----------
assign = array1d(1..14 ,[3, 4, 4, 1, 1, 4, 3, 2, 2, 3, 1, 2, 3, 4]);
next = array1d(1..14 ,[7, 6, 14, 11, 4, 3, 10, 9, 12, 13, 8, 1, 2, 5]);
makespan = 436;
----------
assign = array1d(1..14 ,[3, 4, 4, 1, 1, 4, 3, 2, 2, 3, 1, 2, 3, 4]);
next = array1d(1..14 ,[7, 6, 14, 11, 4, 3, 10, 9, 12, 13, 8, 1, 2, 5]);
makespan = 435;
----------
assign = array1d(1..14 ,[3, 4, 4, 1, 1, 4, 3, 2, 2, 3, 1, 2, 3, 4]);
next = array1d(1..14 ,[7, 6, 14, 11, 4, 3, 10, 9, 12, 13, 8, 1, 2, 5]);
makespan = 434;
----------
assign = array1d(1..14 ,[3, 4, 4, 1, 1, 4, 3, 2, 2, 3, 1, 2, 3, 4]);
next = array1d(1..14 ,[7, 6, 14, 11, 4, 3, 10, 9, 12, 13, 8, 1, 2, 5]);
makespan = 433;
----------
assign = array1d(1..14 ,[3, 4, 4, 1, 1, 4, 3, 2, 2, 3, 1, 2, 3, 4]);
next = array1d(1..14 ,[7, 6, 14, 11, 4, 3, 10, 9, 12, 13, 8, 1, 2, 5]);
makespan = 432;
----------
assign = array1d(1..14 ,[3, 4, 4, 1, 1, 4, 3, 2, 2, 3, 1, 2, 3, 4]);
next = array1d(1..14 ,[7, 6, 14, 11, 4, 3, 10, 9, 12, 13, 8, 1, 2, 5]);
makespan = 431;
----------
assign = array1d(1..14 ,[3, 4, 4, 1, 1, 4, 3, 2, 2, 3, 1, 2, 3, 4]);
next = array1d(1..14 ,[7, 6, 14, 11, 4, 3, 10, 9, 12, 13, 8, 1, 2, 5]);
makespan = 430;
----------
assign = array1d(1..14 ,[3, 4, 4, 1, 1, 4, 3, 2, 2, 3, 1, 2, 3, 4]);
next = array1d(1..14 ,[7, 6, 14, 11, 4, 3, 10, 9, 12, 13, 8, 1, 2, 5]);
makespan = 429;
----------
assign = array1d(1..14 ,[3, 4, 4, 1, 1, 4, 3, 2, 2, 3, 1, 2, 3, 4]);
next = array1d(1..14 ,[7, 6, 14, 11, 4, 3, 10, 9, 12, 13, 8, 1, 2, 5]);
makespan = 428;
----------
assign = array1d(1..14 ,[3, 4, 4, 1, 1, 4, 3, 2, 2, 3, 1, 2, 3, 4]);
next = array1d(1..14 ,[7, 6, 14, 11, 4, 3, 10, 9, 12, 13, 8, 1, 2, 5]);
makespan = 427;
----------
assign = array1d(1..14 ,[3, 4, 4, 1, 1, 4, 3, 2, 2, 3, 1, 2, 3, 4]);
next = array1d(1..14 ,[7, 6, 14, 11, 4, 3, 10, 9, 12, 13, 8, 1, 2, 5]);
makespan = 426;
----------
assign = array1d(1..14 ,[3, 4, 4, 1, 1, 4, 3, 2, 2, 3, 1, 2, 3, 4]);
next = array1d(1..14 ,[7, 6, 14, 11, 4, 3, 10, 9, 12, 13, 8, 1, 2, 5]);
makespan = 425;
----------
assign = array1d(1..14 ,[3, 4, 4, 1, 1, 4, 3, 2, 2, 3, 1, 2, 3, 4]);
next = array1d(1..14 ,[7, 6, 14, 11, 4, 3, 10, 9, 12, 13, 8, 1, 2, 5]);
makespan = 424;
----------
assign = array1d(1..14 ,[3, 4, 4, 1, 1, 4, 3, 2, 2, 3, 1, 2, 3, 4]);
next = array1d(1..14 ,[7, 6, 14, 11, 4, 3, 10, 9, 12, 13, 8, 1, 2, 5]);
makespan = 423;
----------
assign = array1d(1..14 ,[3, 4, 4, 1, 1, 4, 3, 2, 2, 3, 1, 2, 3, 4]);
next = array1d(1..14 ,[7, 6, 14, 11, 4, 3, 10, 9, 12, 13, 8, 1, 2, 5]);
makespan = 422;
----------
assign = array1d(1..14 ,[3, 4, 4, 1, 1, 4, 3, 2, 2, 3, 1, 2, 3, 4]);
next = array1d(1..14 ,[7, 6, 14, 11, 4, 3, 10, 9, 12, 13, 8, 1, 2, 5]);
makespan = 421;
----------
assign = array1d(1..14 ,[3, 4, 4, 1, 1, 4, 3, 2, 2, 3, 1, 2, 3, 4]);
next = array1d(1..14 ,[7, 6, 14, 11, 4, 3, 10, 9, 12, 13, 8, 1, 2, 5]);
makespan = 420;
----------
assign = array1d(1..14 ,[3, 4, 4, 1, 1, 4, 3, 2, 2, 3, 1, 2, 3, 4]);
next = array1d(1..14 ,[7, 6, 14, 11, 4, 3, 10, 9, 12, 13, 8, 1, 2, 5]);
makespan = 419;
----------
assign = array1d(1..14 ,[3, 4, 4, 1, 1, 4, 3, 2, 2, 3, 1, 2, 3, 4]);
next = array1d(1..14 ,[7, 6, 14, 11, 4, 3, 10, 9, 12, 13, 8, 1, 2, 5]);
makespan = 418;
----------
assign = array1d(1..14 ,[3, 4, 4, 1, 1, 4, 3, 2, 2, 3, 1, 2, 3, 4]);
next = array1d(1..14 ,[7, 6, 14, 11, 4, 3, 10, 9, 12, 13, 8, 1, 2, 5]);
makespan = 417;
----------
assign = array1d(1..14 ,[3, 4, 4, 1, 1, 4, 3, 2, 2, 3, 1, 2, 3, 4]);
next = array1d(1..14 ,[7, 6, 14, 11, 4, 3, 10, 9, 12, 13, 8, 1, 2, 5]);
makespan = 416;
----------
assign = array1d(1..14 ,[3, 4, 4, 1, 1, 4, 3, 2, 2, 3, 1, 2, 3, 4]);
next = array1d(1..14 ,[7, 6, 14, 11, 4, 3, 10, 9, 12, 13, 8, 1, 2, 5]);
makespan = 415;
----------
assign = array1d(1..14 ,[3, 4, 4, 1, 1, 4, 3, 2, 2, 3, 1, 2, 3, 4]);
next = array1d(1..14 ,[7, 6, 14, 11, 4, 3, 10, 9, 12, 13, 8, 1, 2, 5]);
makespan = 414;
----------
assign = array1d(1..14 ,[3, 4, 4, 1, 1, 4, 3, 2, 2, 3, 1, 2, 3, 4]);
next = array1d(1..14 ,[7, 6, 14, 11, 4, 3, 10, 9, 12, 13, 8, 1, 2, 5]);
makespan = 413;
----------
assign = array1d(1..14 ,[3, 4, 4, 1, 1, 4, 3, 2, 2, 3, 1, 2, 3, 4]);
next = array1d(1..14 ,[7, 6, 14, 11, 4, 3, 10, 9, 12, 13, 8, 1, 2, 5]);
makespan = 412;
----------
assign = array1d(1..14 ,[3, 4, 4, 1, 1, 4, 3, 2, 2, 3, 1, 2, 3, 4]);
next = array1d(1..14 ,[7, 6, 14, 11, 4, 3, 10, 9, 12, 13, 8, 1, 2, 5]);
makespan = 411;
----------
assign = array1d(1..14 ,[3, 4, 4, 1, 1, 4, 3, 2, 2, 3, 1, 2, 3, 4]);
next = array1d(1..14 ,[7, 6, 14, 11, 4, 3, 10, 9, 12, 13, 8, 1, 2, 5]);
makespan = 410;
----------
assign = array1d(1..14 ,[3, 4, 4, 1, 1, 4, 3, 2, 2, 3, 1, 2, 3, 4]);
next = array1d(1..14 ,[7, 6, 14, 11, 4, 3, 10, 9, 12, 13, 8, 1, 2, 5]);
makespan = 409;
----------
assign = array1d(1..14 ,[3, 4, 4, 1, 1, 4, 3, 2, 2, 3, 1, 2, 3, 4]);
next = array1d(1..14 ,[7, 6, 14, 11, 4, 3, 10, 9, 12, 13, 8, 1, 2, 5]);
makespan = 408;
----------
assign = array1d(1..14 ,[3, 4, 4, 1, 1, 4, 3, 2, 2, 3, 1, 2, 3, 4]);
next = array1d(1..14 ,[7, 6, 14, 11, 4, 3, 10, 9, 12, 13, 8, 1, 2, 5]);
makespan = 407;
----------
assign = array1d(1..14 ,[3, 4, 4, 1, 1, 4, 3, 2, 2, 3, 1, 2, 3, 4]);
next = array1d(1..14 ,[7, 6, 14, 11, 4, 3, 10, 9, 12, 13, 8, 1, 2, 5]);
makespan = 405;
----------
assign = array1d(1..14 ,[3, 4, 4, 1, 1, 4, 3, 2, 2, 3, 1, 2, 3, 4]);
next = array1d(1..14 ,[7, 6, 14, 11, 4, 3, 10, 9, 12, 13, 8, 1, 2, 5]);
makespan = 404;
----------
assign = array1d(1..14 ,[3, 4, 4, 1, 1, 4, 3, 2, 2, 3, 1, 2, 3, 4]);
next = array1d(1..14 ,[7, 6, 14, 11, 4, 3, 10, 9, 12, 13, 8, 1, 2, 5]);
makespan = 403;
----------
assign = array1d(1..14 ,[3, 4, 4, 1, 1, 4, 3, 2, 2, 3, 1, 2, 3, 4]);
next = array1d(1..14 ,[7, 6, 14, 11, 4, 3, 10, 9, 12, 13, 8, 1, 2, 5]);
makespan = 402;
----------
assign = array1d(1..14 ,[3, 4, 4, 1, 1, 4, 3, 2, 2, 3, 1, 2, 3, 4]);
next = array1d(1..14 ,[7, 6, 14, 11, 4, 3, 10, 9, 12, 13, 8, 1, 2, 5]);
makespan = 401;
----------
assign = array1d(1..14 ,[3, 4, 4, 1, 1, 4, 3, 2, 2, 3, 1, 2, 3, 4]);
next = array1d(1..14 ,[7, 6, 14, 11, 4, 3, 10, 9, 12, 13, 8, 1, 2, 5]);
makespan = 400;
----------
assign = array1d(1..14 ,[3, 4, 4, 1, 1, 4, 3, 2, 2, 3, 1, 2, 3, 4]);
next = array1d(1..14 ,[7, 6, 14, 11, 4, 3, 10, 9, 12, 13, 8, 1, 2, 5]);
makespan = 399;
----------
assign = array1d(1..14 ,[3, 4, 4, 1, 1, 4, 3, 2, 2, 3, 1, 2, 3, 4]);
next = array1d(1..14 ,[7, 6, 14, 11, 4, 3, 10, 9, 12, 13, 8, 1, 2, 5]);
makespan = 398;
----------
assign = array1d(1..14 ,[3, 4, 4, 1, 1, 4, 3, 2, 2, 3, 1, 2, 3, 4]);
next = array1d(1..14 ,[7, 6, 14, 11, 4, 3, 10, 9, 12, 13, 8, 1, 2, 5]);
makespan = 396;
----------
assign = array1d(1..14 ,[3, 4, 4, 1, 1, 4, 3, 2, 2, 3, 1, 2, 3, 4]);
next = array1d(1..14 ,[7, 6, 14, 11, 4, 3, 10, 9, 12, 13, 8, 1, 2, 5]);
makespan = 395;
----------
assign = array1d(1..14 ,[3, 4, 4, 1, 1, 4, 3, 2, 2, 3, 1, 2, 3, 4]);
next = array1d(1..14 ,[7, 6, 14, 11, 4, 3, 10, 9, 12, 13, 8, 1, 2, 5]);
makespan = 394;
----------
assign = array1d(1..14 ,[3, 4, 4, 1, 1, 4, 3, 2, 2, 3, 1, 2, 3, 4]);
next = array1d(1..14 ,[7, 6, 14, 11, 4, 3, 10, 9, 12, 13, 8, 1, 2, 5]);
makespan = 393;
----------
assign = array1d(1..14 ,[3, 4, 4, 1, 1, 4, 3, 2, 2, 3, 1, 2, 3, 4]);
next = array1d(1..14 ,[7, 6, 14, 11, 4, 3, 10, 9, 12, 13, 8, 1, 2, 5]);
makespan = 392;
----------
assign = array1d(1..14 ,[3, 4, 4, 1, 1, 4, 3, 2, 2, 3, 1, 2, 3, 4]);
next = array1d(1..14 ,[7, 6, 14, 11, 4, 3, 10, 9, 12, 13, 8, 1, 2, 5]);
makespan = 391;
----------
assign = array1d(1..14 ,[3, 4, 4, 1, 1, 4, 3, 2, 2, 3, 1, 2, 3, 4]);
next = array1d(1..14 ,[7, 6, 14, 11, 4, 3, 10, 9, 12, 13, 8, 1, 2, 5]);
makespan = 390;
----------
assign = array1d(1..14 ,[3, 4, 4, 1, 1, 4, 3, 2, 2, 3, 1, 2, 3, 4]);
next = array1d(1..14 ,[7, 6, 14, 11, 4, 3, 10, 9, 12, 13, 8, 1, 2, 5]);
makespan = 389;
----------
assign = array1d(1..14 ,[3, 4, 4, 1, 1, 4, 3, 2, 2, 3, 1, 2, 3, 4]);
next = array1d(1..14 ,[7, 6, 14, 11, 4, 3, 10, 9, 12, 13, 8, 1, 2, 5]);
makespan = 388;
----------
assign = array1d(1..14 ,[3, 4, 4, 1, 1, 4, 3, 2, 2, 3, 1, 2, 3, 4]);
next = array1d(1..14 ,[7, 6, 14, 11, 4, 3, 10, 9, 12, 13, 8, 1, 2, 5]);
makespan = 387;
----------
assign = array1d(1..14 ,[3, 4, 4, 1, 1, 4, 3, 2, 2, 3, 1, 2, 3, 4]);
next = array1d(1..14 ,[7, 6, 14, 11, 4, 3, 10, 9, 12, 13, 8, 1, 2, 5]);
makespan = 386;
----------
assign = array1d(1..14 ,[3, 4, 4, 1, 1, 4, 3, 2, 2, 3, 1, 2, 3, 4]);
next = array1d(1..14 ,[7, 6, 14, 11, 4, 3, 10, 9, 12, 13, 8, 1, 2, 5]);
makespan = 385;
----------
assign = array1d(1..14 ,[3, 4, 4, 1, 1, 4, 3, 2, 2, 3, 1, 2, 3, 4]);
next = array1d(1..14 ,[7, 6, 14, 11, 4, 3, 10, 9, 12, 13, 8, 1, 2, 5]);
makespan = 384;
----------
assign = array1d(1..14 ,[3, 4, 4, 1, 1, 4, 3, 2, 2, 3, 1, 2, 3, 4]);
next = array1d(1..14 ,[7, 6, 14, 11, 4, 3, 10, 9, 12, 13, 8, 1, 2, 5]);
makespan = 383;
----------
assign = array1d(1..14 ,[3, 4, 4, 1, 1, 4, 3, 2, 2, 3, 1, 2, 3, 4]);
next = array1d(1..14 ,[7, 6, 14, 11, 4, 3, 10, 9, 12, 13, 8, 1, 2, 5]);
makespan = 382;
----------
assign = array1d(1..14 ,[3, 4, 4, 1, 1, 4, 3, 2, 2, 3, 1, 2, 3, 4]);
next = array1d(1..14 ,[7, 6, 14, 11, 4, 3, 10, 9, 12, 13, 8, 1, 2, 5]);
makespan = 381;
----------
assign = array1d(1..14 ,[3, 4, 4, 1, 1, 4, 3, 2, 2, 3, 1, 2, 3, 4]);
next = array1d(1..14 ,[7, 6, 14, 11, 4, 3, 10, 9, 12, 13, 8, 1, 2, 5]);
makespan = 380;
----------
assign = array1d(1..14 ,[3, 4, 4, 1, 1, 4, 3, 2, 2, 3, 1, 2, 3, 4]);
next = array1d(1..14 ,[7, 6, 14, 11, 4, 3, 10, 9, 12, 13, 8, 1, 2, 5]);
makespan = 379;
----------
assign = array1d(1..14 ,[3, 4, 4, 1, 1, 4, 3, 2, 2, 3, 1, 2, 3, 4]);
next = array1d(1..14 ,[7, 6, 14, 11, 4, 3, 10, 9, 12, 13, 8, 1, 2, 5]);
makespan = 378;
----------
assign = array1d(1..14 ,[3, 4, 4, 1, 1, 4, 3, 2, 2, 3, 1, 2, 3, 4]);
next = array1d(1..14 ,[7, 6, 14, 11, 4, 3, 10, 9, 12, 13, 8, 1, 2, 5]);
makespan = 377;
----------
assign = array1d(1..14 ,[3, 4, 4, 1, 1, 4, 3, 2, 2, 3, 1, 2, 3, 4]);
next = array1d(1..14 ,[7, 6, 14, 11, 4, 3, 10, 9, 12, 13, 8, 1, 2, 5]);
makespan = 376;
----------
assign = array1d(1..14 ,[4, 3, 3, 1, 1, 3, 1, 4, 4, 2, 1, 2, 3, 4]);
next = array1d(1..14 ,[9, 6, 13, 7, 4, 3, 11, 14, 8, 12, 10, 2, 1, 5]);
makespan = 375;
----------
assign = array1d(1..14 ,[4, 3, 3, 2, 2, 3, 4, 1, 1, 2, 1, 2, 3, 4]);
next = array1d(1..14 ,[7, 6, 13, 12, 4, 3, 14, 9, 11, 5, 10, 2, 1, 8]);
makespan = 374;
----------
assign = array1d(1..14 ,[4, 3, 3, 2, 2, 3, 4, 1, 1, 2, 1, 2, 3, 4]);
next = array1d(1..14 ,[7, 6, 13, 12, 4, 3, 14, 9, 11, 5, 10, 2, 1, 8]);
makespan = 373;
----------
assign = array1d(1..14 ,[4, 3, 3, 4, 4, 3, 1, 2, 2, 1, 1, 2, 3, 4]);
next = array1d(1..14 ,[5, 6, 13, 14, 4, 3, 10, 9, 12, 11, 8, 2, 1, 7]);
makespan = 372;
----------
assign = array1d(1..14 ,[4, 3, 3, 2, 2, 3, 4, 1, 1, 2, 1, 2, 3, 4]);
next = array1d(1..14 ,[7, 6, 13, 12, 4, 3, 14, 9, 11, 5, 10, 2, 1, 8]);
makespan = 371;
----------
assign = array1d(1..14 ,[4, 4, 4, 3, 1, 3, 3, 2, 2, 1, 1, 2, 3, 4]);
next = array1d(1..14 ,[2, 14, 1, 7, 11, 13, 6, 9, 12, 5, 8, 4, 3, 10]);
makespan = 370;
----------
assign = array1d(1..14 ,[4, 1, 4, 2, 2, 4, 1, 3, 3, 3, 1, 2, 3, 4]);
next = array1d(1..14 ,[14, 7, 1, 12, 4, 3, 11, 9, 10, 13, 5, 8, 6, 2]);
makespan = 369;
----------
assign = array1d(1..14 ,[2, 4, 2, 3, 3, 3, 4, 1, 2, 1, 1, 2, 3, 4]);
next = array1d(1..14 ,[9, 7, 1, 13, 4, 5, 14, 10, 12, 11, 3, 6, 2, 8]);
makespan = 368;
----------
assign = array1d(1..14 ,[2, 3, 1, 4, 4, 3, 3, 2, 4, 2, 1, 2, 3, 4]);
next = array1d(1..14 ,[8, 7, 11, 9, 4, 2, 13, 10, 14, 12, 1, 6, 5, 3]);
makespan = 367;
----------
assign = array1d(1..14 ,[2, 2, 3, 3, 3, 4, 4, 1, 2, 1, 1, 2, 3, 4]);
next = array1d(1..14 ,[9, 12, 5, 13, 4, 14, 6, 10, 2, 11, 1, 3, 7, 8]);
makespan = 366;
----------
assign = array1d(1..14 ,[3, 2, 4, 4, 4, 3, 3, 1, 2, 1, 1, 2, 3, 4]);
next = array1d(1..14 ,[13, 12, 14, 3, 4, 1, 6, 10, 2, 11, 9, 7, 5, 8]);
makespan = 365;
----------
assign = array1d(1..14 ,[2, 3, 1, 1, 1, 4, 4, 3, 2, 2, 1, 2, 3, 4]);
next = array1d(1..14 ,[9, 8, 11, 3, 4, 14, 6, 13, 12, 1, 10, 2, 7, 5]);
makespan = 364;
----------
assign = array1d(1..14 ,[4, 2, 1, 1, 1, 4, 3, 2, 4, 3, 1, 2, 3, 4]);
next = array1d(1..14 ,[9, 8, 11, 3, 4, 1, 10, 12, 14, 13, 2, 7, 6, 5]);
makespan = 363;
----------
assign = array1d(1..14 ,[4, 3, 1, 2, 2, 3, 3, 4, 4, 2, 1, 2, 3, 4]);
next = array1d(1..14 ,[9, 13, 11, 12, 4, 2, 6, 1, 14, 5, 10, 7, 8, 3]);
makespan = 362;
----------
assign = array1d(1..14 ,[3, 4, 1, 1, 2, 3, 3, 1, 2, 4, 1, 2, 3, 4]);
next = array1d(1..14 ,[13, 10, 11, 3, 12, 1, 6, 4, 5, 14, 9, 7, 2, 8]);
makespan = 361;
----------
assign = array1d(1..14 ,[3, 4, 3, 1, 2, 2, 3, 1, 1, 4, 1, 2, 3, 4]);
next = array1d(1..14 ,[3, 10, 13, 11, 12, 5, 1, 4, 8, 14, 6, 7, 2, 9]);
makespan = 360;
----------
assign = array1d(1..14 ,[4, 3, 2, 3, 2, 3, 4, 2, 4, 1, 1, 2, 3, 4]);
next = array1d(1..14 ,[9, 13, 5, 6, 8, 2, 14, 12, 7, 11, 3, 4, 1, 10]);
makespan = 359;
----------
assign = array1d(1..14 ,[4, 2, 4, 1, 2, 1, 3, 2, 4, 3, 1, 2, 3, 4]);
next = array1d(1..14 ,[9, 12, 1, 6, 8, 11, 10, 2, 14, 13, 5, 7, 3, 4]);
makespan = 358;
----------
assign = array1d(1..14 ,[1, 3, 4, 3, 4, 3, 1, 4, 2, 2, 1, 2, 3, 4]);
next = array1d(1..14 ,[7, 13, 5, 6, 8, 2, 11, 14, 10, 12, 9, 4, 3, 1]);
makespan = 357;
----------
assign = array1d(1..14 ,[1, 4, 4, 3, 2, 3, 2, 3, 4, 1, 1, 2, 3, 4]);
next = array1d(1..14 ,[10, 3, 14, 6, 7, 8, 12, 13, 2, 11, 5, 4, 9, 1]);
makespan = 356;
----------
assign = array1d(1..14 ,[3, 2, 2, 4, 3, 4, 3, 1, 2, 4, 1, 2, 3, 4]);
next = array1d(1..14 ,[5, 3, 9, 6, 7, 10, 13, 11, 12, 14, 2, 1, 4, 8]);
makespan = 355;
----------
assign = array1d(1..14 ,[3, 2, 2, 4, 3, 4, 3, 1, 2, 4, 1, 2, 3, 4]);
next = array1d(1..14 ,[5, 3, 9, 6, 7, 10, 13, 11, 12, 14, 2, 1, 4, 8]);
makespan = 354;
----------
assign = array1d(1..14 ,[3, 2, 2, 1, 4, 4, 4, 3, 2, 3, 1, 2, 3, 4]);
next = array1d(1..14 ,[13, 3, 9, 11, 7, 5, 14, 1, 12, 8, 2, 10, 6, 4]);
makespan = 353;
----------
assign = array1d(1..14 ,[3, 4, 4, 2, 3, 1, 3, 2, 4, 1, 1, 2, 3, 4]);
next = array1d(1..14 ,[5, 3, 14, 12, 7, 10, 13, 4, 2, 11, 8, 1, 9, 6]);
makespan = 352;
----------
assign = array1d(1..14 ,[1, 4, 4, 3, 3, 2, 3, 2, 4, 1, 1, 2, 3, 4]);
next = array1d(1..14 ,[10, 3, 14, 13, 7, 8, 4, 12, 2, 11, 6, 5, 9, 1]);
makespan = 351;
----------
assign = array1d(1..14 ,[1, 4, 4, 3, 3, 2, 3, 2, 4, 1, 1, 2, 3, 4]);
next = array1d(1..14 ,[10, 3, 14, 13, 7, 8, 4, 12, 2, 11, 6, 5, 9, 1]);
makespan = 350;
----------
assign = array1d(1..14 ,[1, 4, 4, 3, 3, 2, 3, 2, 4, 1, 1, 2, 3, 4]);
next = array1d(1..14 ,[10, 3, 14, 13, 7, 8, 4, 12, 2, 11, 6, 5, 9, 1]);
makespan = 349;
----------
assign = array1d(1..14 ,[1, 4, 4, 3, 3, 2, 3, 2, 4, 1, 1, 2, 3, 4]);
next = array1d(1..14 ,[10, 3, 14, 13, 7, 8, 4, 12, 2, 11, 6, 5, 9, 1]);
makespan = 348;
----------
assign = array1d(1..14 ,[1, 4, 4, 3, 3, 2, 3, 2, 4, 1, 1, 2, 3, 4]);
next = array1d(1..14 ,[10, 3, 14, 13, 7, 8, 4, 12, 2, 11, 6, 5, 9, 1]);
makespan = 347;
----------
assign = array1d(1..14 ,[1, 4, 4, 3, 3, 2, 3, 2, 4, 1, 1, 2, 3, 4]);
next = array1d(1..14 ,[10, 3, 14, 13, 7, 8, 4, 12, 2, 11, 6, 5, 9, 1]);
makespan = 346;
----------
assign = array1d(1..14 ,[1, 4, 4, 3, 3, 2, 3, 2, 4, 1, 1, 2, 3, 4]);
next = array1d(1..14 ,[10, 3, 14, 13, 7, 8, 4, 12, 2, 11, 6, 5, 9, 1]);
makespan = 345;
----------
assign = array1d(1..14 ,[3, 4, 4, 1, 1, 2, 1, 2, 4, 3, 1, 2, 3, 4]);
next = array1d(1..14 ,[10, 3, 14, 11, 7, 12, 4, 6, 2, 13, 8, 1, 9, 5]);
makespan = 344;
----------
assign = array1d(1..14 ,[4, 2, 4, 1, 1, 4, 1, 2, 2, 3, 1, 2, 3, 4]);
next = array1d(1..14 ,[14, 9, 6, 11, 7, 1, 4, 12, 8, 13, 2, 10, 3, 5]);
makespan = 343;
----------
assign = array1d(1..14 ,[3, 2, 4, 1, 1, 4, 1, 2, 4, 3, 1, 2, 3, 4]);
next = array1d(1..14 ,[10, 8, 6, 11, 7, 9, 4, 12, 14, 13, 2, 1, 3, 5]);
makespan = 342;
----------
assign = array1d(1..14 ,[4, 2, 2, 1, 1, 3, 1, 2, 3, 4, 1, 2, 3, 4]);
next = array1d(1..14 ,[10, 3, 12, 11, 7, 13, 4, 2, 6, 14, 8, 9, 1, 5]);
makespan = 341;
----------
assign = array1d(1..14 ,[2, 3, 4, 4, 1, 3, 2, 2, 4, 1, 1, 2, 3, 4]);
next = array1d(1..14 ,[12, 13, 9, 3, 11, 2, 8, 1, 14, 5, 7, 6, 4, 10]);
makespan = 340;
----------
assign = array1d(1..14 ,[2, 3, 2, 4, 4, 3, 3, 4, 1, 2, 1, 2, 3, 4]);
next = array1d(1..14 ,[3, 6, 10, 8, 14, 7, 13, 5, 11, 12, 1, 2, 4, 9]);
makespan = 339;
----------
assign = array1d(1..14 ,[3, 3, 4, 4, 1, 3, 1, 1, 2, 4, 1, 2, 3, 4]);
next = array1d(1..14 ,[2, 6, 10, 3, 7, 13, 8, 11, 12, 14, 9, 1, 4, 5]);
makespan = 338;
----------
assign = array1d(1..14 ,[1, 2, 4, 3, 1, 3, 1, 3, 2, 4, 1, 2, 3, 4]);
next = array1d(1..14 ,[5, 12, 14, 13, 7, 8, 11, 4, 2, 3, 9, 6, 10, 1]);
makespan = 337;
----------
assign = array1d(1..14 ,[3, 4, 1, 1, 3, 4, 3, 1, 2, 2, 1, 2, 3, 4]);
next = array1d(1..14 ,[5, 6, 11, 3, 13, 14, 1, 4, 12, 9, 10, 7, 2, 8]);
makespan = 336;
----------
assign = array1d(1..14 ,[1, 3, 4, 4, 1, 3, 1, 4, 2, 3, 1, 2, 3, 4]);
next = array1d(1..14 ,[5, 6, 14, 3, 7, 13, 11, 4, 12, 2, 9, 10, 8, 1]);
makespan = 335;
----------
assign = array1d(1..14 ,[3, 4, 1, 1, 2, 3, 2, 1, 3, 4, 1, 2, 3, 4]);
next = array1d(1..14 ,[6, 10, 11, 3, 7, 9, 12, 4, 13, 14, 5, 1, 2, 8]);
makespan = 334;
----------
assign = array1d(1..14 ,[1, 2, 2, 3, 4, 3, 3, 1, 2, 4, 1, 2, 3, 4]);
next = array1d(1..14 ,[8, 3, 12, 13, 14, 4, 6, 11, 2, 5, 9, 7, 10, 1]);
makespan = 333;
----------
assign = array1d(1..14 ,[1, 4, 3, 4, 1, 3, 1, 2, 4, 2, 1, 2, 3, 4]);
next = array1d(1..14 ,[5, 14, 6, 9, 11, 13, 1, 12, 2, 8, 10, 3, 4, 7]);
makespan = 332;
----------
assign = array1d(1..14 ,[2, 2, 4, 1, 2, 3, 4, 4, 1, 3, 1, 2, 3, 4]);
next = array1d(1..14 ,[2, 5, 14, 11, 12, 10, 8, 3, 4, 13, 1, 6, 7, 9]);
makespan = 331;
----------
assign = array1d(1..14 ,[3, 4, 1, 3, 3, 4, 2, 2, 2, 1, 1, 2, 3, 4]);
next = array1d(1..14 ,[4, 6, 11, 13, 1, 14, 9, 7, 12, 3, 8, 5, 2, 10]);
makespan = 330;
----------
assign = array1d(1..14 ,[1, 2, 2, 2, 1, 1, 4, 3, 4, 3, 1, 2, 3, 4]);
next = array1d(1..14 ,[5, 3, 4, 12, 6, 11, 9, 10, 14, 13, 2, 8, 7, 1]);
makespan = 329;
----------
assign = array1d(1..14 ,[3, 2, 4, 4, 2, 3, 1, 3, 4, 1, 1, 2, 3, 4]);
next = array1d(1..14 ,[6, 12, 4, 9, 2, 8, 11, 13, 14, 7, 5, 1, 3, 10]);
makespan = 328;
----------
assign = array1d(1..14 ,[1, 1, 4, 4, 1, 2, 3, 2, 4, 3, 1, 2, 3, 4]);
next = array1d(1..14 ,[5, 1, 4, 9, 11, 8, 13, 12, 14, 7, 6, 10, 3, 2]);
makespan = 327;
----------
assign = array1d(1..14 ,[2, 2, 4, 4, 4, 3, 1, 3, 1, 2, 1, 2, 3, 4]);
next = array1d(1..14 ,[2, 10, 14, 3, 4, 8, 11, 13, 7, 12, 1, 6, 5, 9]);
makespan = 326;
----------
assign = array1d(1..14 ,[4, 3, 4, 4, 1, 3, 2, 3, 1, 2, 1, 2, 3, 4]);
next = array1d(1..14 ,[4, 13, 14, 3, 11, 2, 10, 6, 5, 12, 7, 8, 1, 9]);
makespan = 325;
----------
assign = array1d(1..14 ,[3, 2, 4, 4, 4, 3, 2, 3, 1, 1, 1, 2, 3, 4]);
next = array1d(1..14 ,[13, 7, 14, 3, 4, 1, 12, 6, 11, 9, 2, 8, 5, 10]);
makespan = 324;
----------
assign = array1d(1..14 ,[3, 2, 4, 4, 4, 3, 2, 3, 1, 1, 1, 2, 3, 4]);
next = array1d(1..14 ,[13, 7, 14, 3, 4, 1, 12, 6, 11, 9, 2, 8, 5, 10]);
makespan = 323;
----------
assign = array1d(1..14 ,[3, 2, 4, 4, 4, 3, 2, 3, 1, 1, 1, 2, 3, 4]);
next = array1d(1..14 ,[13, 7, 14, 3, 4, 1, 12, 6, 11, 9, 2, 8, 5, 10]);
makespan = 322;
----------
assign = array1d(1..14 ,[3, 2, 4, 4, 4, 3, 2, 3, 1, 1, 1, 2, 3, 4]);
next = array1d(1..14 ,[13, 7, 14, 3, 4, 1, 12, 6, 11, 9, 2, 8, 5, 10]);
makespan = 321;
----------
assign = array1d(1..14 ,[3, 2, 4, 4, 4, 3, 2, 3, 1, 1, 1, 2, 3, 4]);
next = array1d(1..14 ,[13, 7, 14, 3, 4, 1, 12, 6, 11, 9, 2, 8, 5, 10]);
makespan = 320;
----------
assign = array1d(1..14 ,[3, 2, 4, 4, 4, 3, 2, 3, 1, 1, 1, 2, 3, 4]);
next = array1d(1..14 ,[13, 7, 14, 3, 4, 1, 12, 6, 11, 9, 2, 8, 5, 10]);
makespan = 319;
----------
assign = array1d(1..14 ,[3, 2, 4, 4, 4, 3, 2, 3, 1, 1, 1, 2, 3, 4]);
next = array1d(1..14 ,[13, 7, 14, 3, 4, 1, 12, 6, 11, 9, 2, 8, 5, 10]);
makespan = 318;
----------
assign = array1d(1..14 ,[3, 2, 4, 4, 4, 3, 2, 3, 1, 1, 1, 2, 3, 4]);
next = array1d(1..14 ,[13, 7, 14, 3, 4, 1, 12, 6, 11, 9, 2, 8, 5, 10]);
makespan = 317;
----------
assign = array1d(1..14 ,[3, 2, 4, 4, 4, 3, 2, 3, 1, 1, 1, 2, 3, 4]);
next = array1d(1..14 ,[13, 7, 14, 3, 4, 1, 12, 6, 11, 9, 2, 8, 5, 10]);
makespan = 316;
----------
assign = array1d(1..14 ,[3, 2, 4, 4, 4, 3, 2, 3, 1, 1, 1, 2, 3, 4]);
next = array1d(1..14 ,[13, 7, 14, 3, 4, 1, 12, 6, 11, 9, 2, 8, 5, 10]);
makespan = 315;
----------
assign = array1d(1..14 ,[3, 2, 4, 4, 4, 3, 2, 3, 1, 1, 1, 2, 3, 4]);
next = array1d(1..14 ,[13, 7, 14, 3, 4, 1, 12, 6, 11, 9, 2, 8, 5, 10]);
makespan = 314;
----------
assign = array1d(1..14 ,[3, 2, 4, 4, 4, 3, 2, 3, 1, 1, 1, 2, 3, 4]);
next = array1d(1..14 ,[13, 7, 14, 3, 4, 1, 12, 6, 11, 9, 2, 8, 5, 10]);
makespan = 313;
----------
assign = array1d(1..14 ,[3, 2, 4, 4, 4, 3, 2, 3, 1, 1, 1, 2, 3, 4]);
next = array1d(1..14 ,[13, 7, 14, 3, 4, 1, 12, 6, 11, 9, 2, 8, 5, 10]);
makespan = 312;
----------
assign = array1d(1..14 ,[3, 2, 4, 4, 4, 3, 2, 3, 1, 1, 1, 2, 3, 4]);
next = array1d(1..14 ,[13, 7, 14, 3, 4, 1, 12, 6, 11, 9, 2, 8, 5, 10]);
makespan = 311;
----------
assign = array1d(1..14 ,[3, 2, 4, 4, 4, 3, 2, 3, 1, 1, 1, 2, 3, 4]);
next = array1d(1..14 ,[13, 7, 14, 3, 4, 1, 12, 6, 11, 9, 2, 8, 5, 10]);
makespan = 310;
----------
assign = array1d(1..14 ,[3, 2, 4, 4, 4, 3, 2, 3, 1, 1, 1, 2, 3, 4]);
next = array1d(1..14 ,[13, 7, 14, 3, 4, 1, 12, 6, 11, 9, 2, 8, 5, 10]);
makespan = 309;
----------
assign = array1d(1..14 ,[3, 2, 4, 4, 4, 3, 2, 3, 1, 1, 1, 2, 3, 4]);
next = array1d(1..14 ,[13, 7, 14, 3, 4, 1, 12, 6, 11, 9, 2, 8, 5, 10]);
makespan = 308;
----------
assign = array1d(1..14 ,[3, 2, 4, 4, 4, 3, 2, 3, 1, 1, 1, 2, 3, 4]);
next = array1d(1..14 ,[13, 7, 14, 3, 4, 1, 12, 6, 11, 9, 2, 8, 5, 10]);
makespan = 307;
----------
assign = array1d(1..14 ,[3, 2, 4, 4, 4, 3, 2, 3, 1, 1, 1, 2, 3, 4]);
next = array1d(1..14 ,[13, 7, 14, 3, 4, 1, 12, 6, 11, 9, 2, 8, 5, 10]);
makespan = 306;
----------
assign = array1d(1..14 ,[3, 2, 4, 4, 4, 3, 2, 3, 1, 1, 1, 2, 3, 4]);
next = array1d(1..14 ,[13, 7, 14, 3, 4, 1, 12, 6, 11, 9, 2, 8, 5, 10]);
makespan = 305;
----------
assign = array1d(1..14 ,[3, 2, 4, 4, 4, 3, 2, 3, 1, 1, 1, 2, 3, 4]);
next = array1d(1..14 ,[13, 7, 14, 3, 4, 1, 12, 6, 11, 9, 2, 8, 5, 10]);
makespan = 304;
----------
assign = array1d(1..14 ,[3, 2, 4, 4, 4, 3, 2, 3, 1, 1, 1, 2, 3, 4]);
next = array1d(1..14 ,[13, 7, 14, 3, 4, 1, 12, 6, 11, 9, 2, 8, 5, 10]);
makespan = 303;
----------
assign = array1d(1..14 ,[3, 2, 4, 4, 4, 3, 2, 3, 1, 1, 1, 2, 3, 4]);
next = array1d(1..14 ,[13, 7, 14, 3, 4, 1, 12, 6, 11, 9, 2, 8, 5, 10]);
makespan = 302;
----------
assign = array1d(1..14 ,[3, 2, 4, 4, 4, 3, 2, 3, 1, 1, 1, 2, 3, 4]);
next = array1d(1..14 ,[13, 7, 14, 3, 4, 1, 12, 6, 11, 9, 2, 8, 5, 10]);
makespan = 301;
----------
assign = array1d(1..14 ,[3, 2, 4, 4, 4, 3, 2, 3, 1, 1, 1, 2, 3, 4]);
next = array1d(1..14 ,[13, 7, 14, 3, 4, 1, 12, 6, 11, 9, 2, 8, 5, 10]);
makespan = 300;
----------
assign = array1d(1..14 ,[3, 2, 4, 4, 4, 3, 2, 3, 1, 1, 1, 2, 3, 4]);
next = array1d(1..14 ,[8, 7, 14, 3, 4, 13, 12, 6, 11, 9, 2, 1, 5, 10]);
makespan = 299;
----------
assign = array1d(1..14 ,[3, 2, 4, 4, 4, 3, 2, 3, 1, 1, 1, 2, 3, 4]);
next = array1d(1..14 ,[8, 7, 14, 3, 4, 13, 12, 6, 11, 9, 2, 1, 5, 10]);
makespan = 298;
----------
assign = array1d(1..14 ,[3, 2, 4, 4, 4, 3, 2, 3, 1, 1, 1, 2, 3, 4]);
next = array1d(1..14 ,[8, 7, 14, 3, 4, 13, 12, 6, 11, 9, 2, 1, 5, 10]);
makespan = 297;
----------
assign = array1d(1..14 ,[3, 2, 4, 4, 4, 3, 2, 3, 1, 1, 1, 2, 3, 4]);
next = array1d(1..14 ,[8, 7, 14, 3, 4, 13, 12, 6, 11, 9, 2, 1, 5, 10]);
makespan = 296;
----------
assign = array1d(1..14 ,[3, 2, 4, 4, 4, 3, 2, 3, 1, 1, 1, 2, 3, 4]);
next = array1d(1..14 ,[8, 7, 14, 3, 4, 13, 12, 6, 11, 9, 2, 1, 5, 10]);
makespan = 295;
----------
assign = array1d(1..14 ,[3, 2, 4, 4, 4, 3, 2, 3, 1, 1, 1, 2, 3, 4]);
next = array1d(1..14 ,[8, 7, 5, 14, 4, 13, 12, 6, 10, 11, 2, 1, 3, 9]);
makespan = 294;
----------
assign = array1d(1..14 ,[1, 4, 1, 3, 1, 3, 3, 2, 2, 4, 1, 2, 3, 4]);
next = array1d(1..14 ,[5, 10, 11, 13, 3, 7, 4, 9, 12, 14, 8, 6, 2, 1]);
makespan = 293;
----------
assign = array1d(1..14 ,[3, 2, 1, 3, 1, 4, 1, 3, 2, 4, 1, 2, 3, 4]);
next = array1d(1..14 ,[8, 9, 11, 1, 3, 10, 5, 13, 12, 14, 2, 4, 6, 7]);
makespan = 292;
----------
assign = array1d(1..14 ,[3, 2, 1, 3, 1, 4, 1, 3, 2, 4, 1, 2, 3, 4]);
next = array1d(1..14 ,[8, 9, 11, 1, 3, 10, 5, 13, 12, 14, 2, 4, 6, 7]);
makespan = 291;
----------
assign = array1d(1..14 ,[3, 4, 1, 3, 1, 2, 1, 3, 2, 4, 1, 2, 3, 4]);
next = array1d(1..14 ,[8, 10, 11, 1, 3, 9, 5, 13, 12, 14, 6, 4, 2, 7]);
makespan = 290;
----------
==========
	Command being timed: "mzn-chuffed lbbd-datasets/Rabadi-2006/dzn-balanced/model.mzn lbbd-datasets/Rabadi-2006/dzn-balanced/10on4Rp50Rs50_2Ameer.dzn"
	User time (seconds): 0.73
	System time (seconds): 0.04
	Percent of CPU this job got: 1%
	Elapsed (wall clock) time (h:mm:ss or m:ss): 0:43.79
	Average shared text size (kbytes): 0
	Average unshared data size (kbytes): 0
	Average stack size (kbytes): 0
	Average total size (kbytes): 0
	Maximum resident set size (kbytes): 45200
	Average resident set size (kbytes): 0
	Major (requiring I/O) page faults: 0
	Minor (reclaiming a frame) page faults: 4137
	Voluntary context switches: 524
	Involuntary context switches: 4
	Swaps: 0
	File system inputs: 0
	File system outputs: 576
	Socket messages sent: 0
	Socket messages received: 0
	Signals delivered: 0
	Page size (bytes): 4096
	Exit status: 0
