+ /usr/bin/timeout 600 /usr/bin/time -v mzn-chuffed lbbd-datasets/Rabadi-2006/dzn-s-dominant/model.mzn lbbd-datasets/Rabadi-2006/dzn-s-dominant/10on8Rp50Rs50_14Ameer.dzn
% No search annotation given. Defaulting to VSIDS!
assign = array1d(1..18 ,[8, 8, 8, 8, 8, 8, 8, 8, 8, 8, 1, 2, 3, 4, 5, 6, 7, 8]);
next = array1d(1..18 ,[2, 3, 4, 5, 6, 7, 8, 9, 10, 18, 12, 13, 14, 15, 16, 17, 1, 11]);
makespan = 2158;
----------
assign = array1d(1..18 ,[8, 8, 8, 8, 8, 8, 8, 8, 8, 8, 1, 2, 3, 4, 5, 6, 7, 8]);
next = array1d(1..18 ,[3, 5, 4, 2, 6, 7, 8, 9, 10, 18, 12, 13, 14, 15, 16, 17, 1, 11]);
makespan = 2121;
----------
