+ /usr/bin/timeout 600 /usr/bin/time -v mzn-chuffed lbbd-datasets/sscplp/trucks-dzn/model.mzn lbbd-datasets/sscplp/trucks-dzn/p11-l40-c50-uncorrelated.dzn
% No search annotation given. Defaulting to VSIDS!
source = [15, 15, 15, 13, 1, 3, 4, 3, 15, 14, 4, 3, 8, 3, 3, 4, 8, 3, 14, 4, 1, 8, 14, 4, 1, 14, 8, 8, 8, 1]
open = [true, false, true, true, false, false, false, true, false, false, false, false, true, true, true]
trucks_used = [4, 0, 6, 5, 0, 0, 0, 6, 0, 0, 0, 0, 1, 4, 4]
truck_assigned = [4, 3, 1, 1, 3, 3, 3, 6, 4, 2, 5, 4, 6, 3, 6, 3, 5, 5, 4, 1, 4, 4, 3, 4, 1, 4, 5, 1, 3, 2]
obj = 5404
----------
