+ /usr/bin/timeout 600 /usr/bin/time -v mzn-chuffed lbbd-datasets/Rabadi-2006/dzn-balanced/model.mzn lbbd-datasets/Rabadi-2006/dzn-balanced/7on4Rp50Rs50_2Ameer.dzn
% No search annotation given. Defaulting to VSIDS!
assign = array1d(1..11 ,[4, 4, 4, 4, 4, 4, 4, 1, 2, 3, 4]);
next = array1d(1..11 ,[2, 3, 4, 5, 6, 7, 11, 9, 10, 1, 8]);
makespan = 946;
----------
assign = array1d(1..11 ,[4, 4, 4, 4, 4, 4, 4, 1, 2, 3, 4]);
next = array1d(1..11 ,[2, 4, 5, 3, 6, 7, 11, 9, 10, 1, 8]);
makespan = 935;
----------
assign = array1d(1..11 ,[4, 4, 4, 1, 4, 4, 4, 1, 2, 3, 4]);
next = array1d(1..11 ,[3, 7, 6, 8, 2, 11, 1, 9, 10, 5, 4]);
makespan = 895;
----------
assign = array1d(1..11 ,[4, 4, 4, 4, 4, 4, 3, 1, 2, 3, 4]);
next = array1d(1..11 ,[5, 11, 6, 1, 3, 2, 10, 9, 7, 4, 8]);
makespan = 891;
----------
assign = array1d(1..11 ,[4, 1, 4, 4, 4, 4, 4, 1, 2, 3, 4]);
next = array1d(1..11 ,[3, 8, 5, 6, 11, 7, 1, 9, 10, 4, 2]);
makespan = 885;
----------
assign = array1d(1..11 ,[1, 4, 4, 4, 4, 4, 4, 1, 2, 3, 4]);
next = array1d(1..11 ,[8, 4, 2, 7, 3, 5, 11, 9, 10, 6, 1]);
makespan = 882;
----------
assign = array1d(1..11 ,[1, 4, 4, 4, 4, 4, 4, 1, 2, 3, 4]);
next = array1d(1..11 ,[8, 4, 2, 7, 3, 5, 11, 9, 10, 6, 1]);
makespan = 881;
----------
assign = array1d(1..11 ,[1, 4, 4, 4, 4, 4, 4, 1, 2, 3, 4]);
next = array1d(1..11 ,[8, 4, 2, 7, 3, 5, 11, 9, 10, 6, 1]);
makespan = 874;
----------
assign = array1d(1..11 ,[1, 4, 4, 4, 4, 4, 4, 1, 2, 3, 4]);
next = array1d(1..11 ,[8, 4, 2, 7, 3, 5, 11, 9, 10, 6, 1]);
makespan = 871;
----------
assign = array1d(1..11 ,[1, 4, 4, 4, 4, 4, 4, 1, 2, 3, 4]);
next = array1d(1..11 ,[8, 4, 2, 7, 3, 5, 11, 9, 10, 6, 1]);
makespan = 866;
----------
assign = array1d(1..11 ,[1, 4, 4, 4, 4, 4, 4, 1, 2, 3, 4]);
next = array1d(1..11 ,[8, 4, 2, 7, 3, 5, 11, 9, 10, 6, 1]);
makespan = 861;
----------
assign = array1d(1..11 ,[4, 4, 4, 4, 4, 4, 2, 1, 2, 3, 4]);
next = array1d(1..11 ,[11, 4, 2, 1, 3, 5, 9, 7, 10, 6, 8]);
makespan = 853;
----------
assign = array1d(1..11 ,[4, 4, 4, 4, 4, 4, 3, 1, 2, 3, 4]);
next = array1d(1..11 ,[5, 3, 6, 2, 4, 11, 10, 9, 7, 1, 8]);
makespan = 852;
----------
assign = array1d(1..11 ,[4, 4, 4, 4, 4, 1, 4, 1, 2, 3, 4]);
next = array1d(1..11 ,[5, 11, 7, 2, 3, 8, 4, 9, 10, 1, 6]);
makespan = 850;
----------
assign = array1d(1..11 ,[4, 1, 4, 4, 4, 4, 4, 1, 2, 3, 4]);
next = array1d(1..11 ,[7, 8, 5, 6, 1, 11, 4, 9, 10, 3, 2]);
makespan = 830;
----------
assign = array1d(1..11 ,[4, 1, 4, 4, 4, 4, 4, 1, 2, 3, 4]);
next = array1d(1..11 ,[7, 8, 5, 6, 1, 11, 4, 9, 10, 3, 2]);
makespan = 827;
----------
assign = array1d(1..11 ,[4, 1, 4, 4, 4, 4, 4, 1, 2, 3, 4]);
next = array1d(1..11 ,[7, 8, 5, 6, 1, 11, 4, 9, 10, 3, 2]);
makespan = 826;
----------
assign = array1d(1..11 ,[4, 3, 4, 4, 4, 4, 4, 1, 2, 3, 4]);
next = array1d(1..11 ,[7, 10, 5, 6, 1, 11, 4, 9, 2, 3, 8]);
makespan = 822;
----------
assign = array1d(1..11 ,[4, 1, 4, 4, 4, 4, 4, 1, 2, 3, 4]);
next = array1d(1..11 ,[7, 8, 5, 6, 1, 11, 4, 9, 10, 3, 2]);
makespan = 821;
----------
assign = array1d(1..11 ,[4, 3, 4, 4, 4, 4, 4, 1, 2, 3, 4]);
next = array1d(1..11 ,[7, 10, 5, 6, 1, 11, 4, 9, 2, 3, 8]);
makespan = 820;
----------
assign = array1d(1..11 ,[4, 1, 4, 4, 4, 4, 4, 1, 2, 3, 4]);
next = array1d(1..11 ,[7, 8, 5, 6, 1, 11, 4, 9, 10, 3, 2]);
makespan = 817;
----------
assign = array1d(1..11 ,[4, 3, 4, 4, 4, 4, 4, 1, 2, 3, 4]);
next = array1d(1..11 ,[7, 10, 5, 6, 1, 11, 4, 9, 2, 3, 8]);
makespan = 816;
----------
assign = array1d(1..11 ,[4, 1, 4, 4, 4, 4, 4, 1, 2, 3, 4]);
next = array1d(1..11 ,[7, 8, 5, 6, 1, 11, 4, 9, 10, 3, 2]);
makespan = 810;
----------
assign = array1d(1..11 ,[4, 3, 4, 4, 4, 4, 4, 1, 2, 3, 4]);
next = array1d(1..11 ,[7, 10, 5, 6, 1, 11, 4, 9, 2, 3, 8]);
makespan = 807;
----------
assign = array1d(1..11 ,[4, 2, 4, 4, 4, 4, 4, 1, 2, 3, 4]);
next = array1d(1..11 ,[7, 9, 5, 6, 1, 11, 4, 2, 10, 3, 8]);
makespan = 806;
----------
assign = array1d(1..11 ,[4, 3, 4, 4, 4, 4, 4, 1, 2, 3, 4]);
next = array1d(1..11 ,[7, 10, 5, 6, 1, 11, 4, 9, 2, 3, 8]);
makespan = 803;
----------
assign = array1d(1..11 ,[4, 1, 4, 4, 4, 4, 4, 1, 2, 3, 4]);
next = array1d(1..11 ,[11, 8, 5, 6, 1, 3, 4, 9, 10, 7, 2]);
makespan = 800;
----------
assign = array1d(1..11 ,[3, 1, 4, 4, 4, 4, 4, 1, 2, 3, 4]);
next = array1d(1..11 ,[10, 8, 5, 6, 7, 11, 4, 9, 1, 3, 2]);
makespan = 797;
----------
assign = array1d(1..11 ,[3, 1, 4, 4, 4, 4, 4, 1, 2, 3, 4]);
next = array1d(1..11 ,[10, 8, 5, 6, 7, 11, 4, 9, 1, 3, 2]);
makespan = 795;
----------
assign = array1d(1..11 ,[3, 2, 4, 4, 4, 4, 4, 1, 2, 3, 4]);
next = array1d(1..11 ,[10, 9, 5, 6, 7, 11, 4, 2, 1, 3, 8]);
makespan = 791;
----------
assign = array1d(1..11 ,[2, 3, 4, 4, 4, 4, 4, 1, 2, 3, 4]);
next = array1d(1..11 ,[9, 10, 5, 6, 7, 11, 4, 1, 2, 3, 8]);
makespan = 789;
----------
assign = array1d(1..11 ,[3, 1, 4, 4, 4, 4, 4, 1, 2, 3, 4]);
next = array1d(1..11 ,[10, 8, 5, 6, 7, 11, 4, 9, 1, 3, 2]);
makespan = 788;
----------
assign = array1d(1..11 ,[1, 3, 4, 4, 4, 4, 4, 1, 2, 3, 4]);
next = array1d(1..11 ,[8, 10, 5, 6, 7, 11, 4, 9, 2, 3, 1]);
makespan = 787;
----------
assign = array1d(1..11 ,[3, 1, 4, 4, 4, 4, 4, 1, 2, 3, 4]);
next = array1d(1..11 ,[10, 8, 5, 6, 7, 11, 4, 9, 1, 3, 2]);
makespan = 786;
----------
assign = array1d(1..11 ,[1, 3, 4, 4, 4, 4, 4, 1, 2, 3, 4]);
next = array1d(1..11 ,[8, 10, 5, 6, 7, 11, 4, 9, 2, 3, 1]);
makespan = 785;
----------
assign = array1d(1..11 ,[3, 1, 4, 4, 4, 4, 4, 1, 2, 3, 4]);
next = array1d(1..11 ,[10, 8, 5, 6, 7, 11, 4, 9, 1, 3, 2]);
makespan = 783;
----------
assign = array1d(1..11 ,[1, 3, 4, 4, 4, 4, 4, 1, 2, 3, 4]);
next = array1d(1..11 ,[8, 10, 5, 6, 7, 11, 4, 9, 2, 3, 1]);
makespan = 777;
----------
assign = array1d(1..11 ,[2, 3, 4, 4, 4, 4, 4, 1, 2, 3, 4]);
next = array1d(1..11 ,[9, 10, 5, 6, 7, 11, 4, 1, 2, 3, 8]);
makespan = 775;
----------
assign = array1d(1..11 ,[3, 2, 4, 4, 4, 4, 4, 1, 2, 3, 4]);
next = array1d(1..11 ,[10, 9, 5, 6, 7, 11, 4, 2, 1, 3, 8]);
makespan = 772;
----------
assign = array1d(1..11 ,[1, 2, 4, 4, 4, 4, 4, 1, 2, 3, 4]);
next = array1d(1..11 ,[8, 9, 5, 6, 7, 11, 4, 2, 10, 3, 1]);
makespan = 766;
----------
assign = array1d(1..11 ,[3, 2, 4, 4, 4, 4, 4, 1, 2, 3, 4]);
next = array1d(1..11 ,[10, 9, 5, 6, 7, 11, 4, 2, 1, 3, 8]);
makespan = 765;
----------
assign = array1d(1..11 ,[2, 3, 4, 4, 4, 4, 4, 1, 2, 3, 4]);
next = array1d(1..11 ,[9, 10, 5, 6, 7, 11, 4, 1, 2, 3, 8]);
makespan = 762;
----------
assign = array1d(1..11 ,[3, 1, 4, 4, 4, 4, 4, 1, 2, 3, 4]);
next = array1d(1..11 ,[10, 8, 5, 6, 7, 11, 4, 9, 1, 3, 2]);
makespan = 756;
----------
assign = array1d(1..11 ,[1, 3, 4, 4, 4, 4, 4, 1, 2, 3, 4]);
next = array1d(1..11 ,[8, 10, 5, 6, 7, 11, 4, 9, 2, 3, 1]);
makespan = 755;
----------
assign = array1d(1..11 ,[2, 3, 4, 4, 4, 4, 4, 1, 2, 3, 4]);
next = array1d(1..11 ,[9, 10, 5, 6, 7, 11, 4, 1, 2, 3, 8]);
makespan = 752;
----------
assign = array1d(1..11 ,[1, 3, 4, 4, 4, 4, 4, 1, 2, 3, 4]);
next = array1d(1..11 ,[8, 10, 5, 6, 7, 11, 4, 9, 2, 3, 1]);
makespan = 751;
----------
assign = array1d(1..11 ,[3, 2, 4, 4, 4, 4, 4, 1, 2, 3, 4]);
next = array1d(1..11 ,[10, 9, 5, 6, 7, 11, 4, 2, 1, 3, 8]);
makespan = 746;
----------
assign = array1d(1..11 ,[2, 1, 4, 4, 4, 4, 4, 1, 2, 3, 4]);
next = array1d(1..11 ,[9, 8, 5, 6, 7, 11, 4, 1, 10, 3, 2]);
makespan = 745;
----------
assign = array1d(1..11 ,[2, 3, 4, 4, 4, 4, 4, 1, 2, 3, 4]);
next = array1d(1..11 ,[9, 10, 5, 6, 7, 11, 4, 1, 2, 3, 8]);
makespan = 742;
----------
assign = array1d(1..11 ,[3, 1, 4, 4, 4, 4, 4, 1, 2, 3, 4]);
next = array1d(1..11 ,[10, 8, 5, 6, 7, 11, 4, 9, 1, 3, 2]);
makespan = 736;
----------
assign = array1d(1..11 ,[2, 1, 4, 4, 4, 4, 4, 1, 2, 3, 4]);
next = array1d(1..11 ,[9, 8, 5, 6, 7, 11, 4, 1, 10, 3, 2]);
makespan = 734;
----------
assign = array1d(1..11 ,[3, 1, 4, 4, 4, 4, 4, 1, 2, 3, 4]);
next = array1d(1..11 ,[10, 8, 5, 6, 7, 11, 4, 9, 1, 3, 2]);
makespan = 733;
----------
assign = array1d(1..11 ,[2, 1, 4, 4, 4, 4, 4, 1, 2, 3, 4]);
next = array1d(1..11 ,[9, 8, 5, 6, 7, 11, 4, 1, 10, 3, 2]);
makespan = 732;
----------
assign = array1d(1..11 ,[3, 2, 4, 4, 4, 4, 4, 1, 2, 3, 4]);
next = array1d(1..11 ,[10, 9, 5, 6, 7, 11, 4, 2, 1, 3, 8]);
makespan = 731;
----------
assign = array1d(1..11 ,[2, 1, 4, 4, 4, 4, 4, 1, 2, 3, 4]);
next = array1d(1..11 ,[9, 8, 5, 6, 7, 11, 4, 1, 10, 3, 2]);
makespan = 730;
----------
assign = array1d(1..11 ,[3, 2, 4, 4, 4, 4, 4, 1, 2, 3, 4]);
next = array1d(1..11 ,[10, 9, 5, 6, 7, 11, 4, 2, 1, 3, 8]);
makespan = 727;
----------
assign = array1d(1..11 ,[2, 1, 4, 4, 4, 4, 4, 1, 2, 3, 4]);
next = array1d(1..11 ,[9, 8, 5, 6, 7, 11, 4, 1, 10, 3, 2]);
makespan = 726;
----------
assign = array1d(1..11 ,[3, 2, 4, 4, 4, 4, 4, 1, 2, 3, 4]);
next = array1d(1..11 ,[10, 9, 5, 6, 7, 11, 4, 2, 1, 3, 8]);
makespan = 725;
----------
assign = array1d(1..11 ,[2, 1, 4, 4, 4, 4, 4, 1, 2, 3, 4]);
next = array1d(1..11 ,[9, 8, 5, 6, 7, 11, 4, 1, 10, 3, 2]);
makespan = 724;
----------
assign = array1d(1..11 ,[3, 2, 4, 4, 4, 4, 4, 1, 2, 3, 4]);
next = array1d(1..11 ,[10, 9, 5, 6, 7, 11, 4, 2, 1, 3, 8]);
makespan = 723;
----------
assign = array1d(1..11 ,[3, 1, 4, 4, 4, 4, 4, 1, 2, 3, 4]);
next = array1d(1..11 ,[10, 8, 5, 6, 7, 11, 4, 9, 1, 3, 2]);
makespan = 722;
----------
assign = array1d(1..11 ,[3, 2, 4, 4, 4, 4, 4, 1, 2, 3, 4]);
next = array1d(1..11 ,[10, 9, 5, 6, 7, 11, 4, 2, 1, 3, 8]);
makespan = 721;
----------
assign = array1d(1..11 ,[3, 1, 4, 4, 4, 4, 4, 1, 2, 3, 4]);
next = array1d(1..11 ,[10, 8, 5, 6, 7, 11, 4, 9, 1, 3, 2]);
makespan = 720;
----------
assign = array1d(1..11 ,[3, 2, 4, 4, 4, 4, 4, 1, 2, 3, 4]);
next = array1d(1..11 ,[10, 9, 5, 6, 7, 11, 4, 2, 1, 3, 8]);
makespan = 716;
----------
assign = array1d(1..11 ,[3, 1, 4, 4, 4, 4, 4, 1, 2, 3, 4]);
next = array1d(1..11 ,[10, 8, 5, 6, 7, 11, 4, 9, 1, 3, 2]);
makespan = 714;
----------
assign = array1d(1..11 ,[3, 2, 4, 4, 4, 4, 4, 1, 2, 3, 4]);
next = array1d(1..11 ,[10, 9, 5, 6, 7, 11, 4, 2, 1, 3, 8]);
makespan = 713;
----------
assign = array1d(1..11 ,[3, 1, 4, 4, 4, 4, 4, 1, 2, 3, 4]);
next = array1d(1..11 ,[10, 8, 5, 6, 7, 11, 4, 9, 1, 3, 2]);
makespan = 712;
----------
assign = array1d(1..11 ,[3, 2, 4, 4, 4, 4, 4, 1, 2, 3, 4]);
next = array1d(1..11 ,[10, 9, 5, 6, 7, 11, 4, 2, 1, 3, 8]);
makespan = 711;
----------
assign = array1d(1..11 ,[3, 1, 4, 4, 4, 4, 4, 1, 2, 3, 4]);
next = array1d(1..11 ,[10, 8, 5, 6, 7, 11, 4, 9, 1, 3, 2]);
makespan = 710;
----------
assign = array1d(1..11 ,[3, 2, 4, 4, 4, 4, 4, 1, 2, 3, 4]);
next = array1d(1..11 ,[10, 9, 5, 6, 7, 11, 4, 2, 1, 3, 8]);
makespan = 701;
----------
assign = array1d(1..11 ,[3, 1, 4, 4, 4, 4, 4, 1, 2, 3, 4]);
next = array1d(1..11 ,[10, 8, 5, 6, 7, 11, 4, 9, 1, 3, 2]);
makespan = 695;
----------
assign = array1d(1..11 ,[1, 2, 4, 4, 4, 4, 4, 1, 2, 3, 4]);
next = array1d(1..11 ,[8, 9, 5, 6, 7, 11, 4, 2, 10, 3, 1]);
makespan = 692;
----------
assign = array1d(1..11 ,[3, 1, 4, 4, 4, 4, 4, 1, 2, 3, 4]);
next = array1d(1..11 ,[10, 8, 5, 6, 7, 11, 4, 9, 1, 3, 2]);
makespan = 691;
----------
assign = array1d(1..11 ,[3, 2, 4, 4, 4, 4, 4, 1, 2, 3, 4]);
next = array1d(1..11 ,[10, 9, 5, 6, 7, 11, 4, 2, 1, 3, 8]);
makespan = 690;
----------
assign = array1d(1..11 ,[3, 1, 4, 4, 4, 4, 4, 1, 2, 3, 4]);
next = array1d(1..11 ,[10, 8, 5, 6, 7, 11, 4, 9, 1, 3, 2]);
makespan = 688;
----------
assign = array1d(1..11 ,[3, 2, 4, 4, 4, 4, 4, 1, 2, 3, 4]);
next = array1d(1..11 ,[10, 9, 5, 6, 7, 11, 4, 2, 1, 3, 8]);
makespan = 687;
----------
assign = array1d(1..11 ,[3, 1, 4, 4, 4, 4, 4, 1, 2, 3, 4]);
next = array1d(1..11 ,[10, 8, 5, 6, 7, 11, 4, 9, 1, 3, 2]);
makespan = 681;
----------
assign = array1d(1..11 ,[1, 2, 4, 4, 4, 4, 4, 1, 2, 3, 4]);
next = array1d(1..11 ,[8, 9, 5, 6, 7, 11, 4, 2, 10, 3, 1]);
makespan = 672;
----------
assign = array1d(1..11 ,[3, 1, 4, 4, 4, 4, 4, 1, 2, 3, 4]);
next = array1d(1..11 ,[10, 8, 5, 6, 7, 11, 4, 9, 1, 3, 2]);
makespan = 671;
----------
assign = array1d(1..11 ,[1, 2, 4, 4, 4, 4, 4, 1, 2, 3, 4]);
next = array1d(1..11 ,[8, 9, 5, 6, 7, 11, 4, 2, 10, 3, 1]);
makespan = 670;
----------
assign = array1d(1..11 ,[3, 1, 4, 4, 4, 4, 4, 1, 2, 3, 4]);
next = array1d(1..11 ,[10, 8, 5, 6, 7, 11, 4, 9, 1, 3, 2]);
makespan = 669;
----------
assign = array1d(1..11 ,[1, 2, 4, 4, 4, 4, 4, 1, 2, 3, 4]);
next = array1d(1..11 ,[8, 9, 5, 6, 7, 11, 4, 2, 10, 3, 1]);
makespan = 668;
----------
assign = array1d(1..11 ,[3, 1, 4, 4, 4, 4, 4, 1, 2, 3, 4]);
next = array1d(1..11 ,[10, 8, 5, 6, 7, 11, 4, 9, 1, 3, 2]);
makespan = 666;
----------
assign = array1d(1..11 ,[1, 2, 4, 4, 4, 4, 4, 1, 2, 3, 4]);
next = array1d(1..11 ,[8, 9, 5, 6, 7, 11, 4, 2, 10, 3, 1]);
makespan = 662;
----------
assign = array1d(1..11 ,[3, 1, 4, 4, 4, 4, 4, 1, 2, 3, 4]);
next = array1d(1..11 ,[10, 8, 5, 6, 7, 11, 4, 9, 1, 3, 2]);
makespan = 661;
----------
assign = array1d(1..11 ,[1, 2, 4, 4, 4, 4, 4, 1, 2, 3, 4]);
next = array1d(1..11 ,[8, 9, 5, 6, 7, 11, 4, 2, 10, 3, 1]);
makespan = 660;
----------
assign = array1d(1..11 ,[3, 1, 4, 4, 4, 4, 4, 1, 2, 3, 4]);
next = array1d(1..11 ,[10, 8, 5, 6, 7, 11, 4, 9, 1, 3, 2]);
makespan = 659;
----------
assign = array1d(1..11 ,[1, 2, 4, 4, 4, 4, 4, 1, 2, 3, 4]);
next = array1d(1..11 ,[8, 9, 5, 6, 7, 11, 4, 2, 10, 3, 1]);
makespan = 658;
----------
assign = array1d(1..11 ,[2, 1, 4, 4, 4, 4, 4, 1, 2, 3, 4]);
next = array1d(1..11 ,[9, 8, 5, 6, 7, 11, 4, 1, 10, 3, 2]);
makespan = 657;
----------
assign = array1d(1..11 ,[1, 2, 4, 4, 4, 4, 4, 1, 2, 3, 4]);
next = array1d(1..11 ,[8, 9, 5, 6, 7, 11, 4, 2, 10, 3, 1]);
makespan = 656;
----------
assign = array1d(1..11 ,[2, 1, 4, 4, 4, 4, 4, 1, 2, 3, 4]);
next = array1d(1..11 ,[9, 8, 5, 6, 7, 11, 4, 1, 10, 3, 2]);
makespan = 655;
----------
assign = array1d(1..11 ,[1, 3, 4, 4, 4, 4, 4, 1, 2, 3, 4]);
next = array1d(1..11 ,[8, 10, 5, 6, 7, 11, 4, 9, 2, 3, 1]);
makespan = 652;
----------
assign = array1d(1..11 ,[3, 1, 4, 4, 4, 4, 4, 1, 2, 3, 4]);
next = array1d(1..11 ,[10, 8, 5, 6, 7, 11, 4, 9, 1, 3, 2]);
makespan = 651;
----------
assign = array1d(1..11 ,[1, 3, 4, 4, 4, 4, 4, 1, 2, 3, 4]);
next = array1d(1..11 ,[8, 10, 5, 6, 7, 11, 4, 9, 2, 3, 1]);
makespan = 650;
----------
assign = array1d(1..11 ,[3, 1, 4, 4, 4, 4, 4, 1, 2, 3, 4]);
next = array1d(1..11 ,[10, 8, 5, 6, 7, 11, 4, 9, 1, 3, 2]);
makespan = 649;
----------
assign = array1d(1..11 ,[1, 3, 4, 4, 4, 4, 4, 1, 2, 3, 4]);
next = array1d(1..11 ,[8, 10, 5, 6, 7, 11, 4, 9, 2, 3, 1]);
makespan = 648;
----------
assign = array1d(1..11 ,[3, 1, 4, 4, 4, 4, 4, 1, 2, 3, 4]);
next = array1d(1..11 ,[10, 8, 5, 6, 7, 11, 4, 9, 1, 3, 2]);
makespan = 646;
----------
assign = array1d(1..11 ,[1, 3, 4, 4, 4, 4, 4, 1, 2, 3, 4]);
next = array1d(1..11 ,[8, 10, 5, 6, 7, 11, 4, 9, 2, 3, 1]);
makespan = 642;
----------
assign = array1d(1..11 ,[3, 1, 4, 4, 4, 4, 1, 1, 2, 3, 4]);
next = array1d(1..11 ,[10, 7, 5, 6, 4, 11, 8, 9, 1, 3, 2]);
makespan = 640;
----------
assign = array1d(1..11 ,[3, 1, 4, 4, 4, 4, 1, 1, 2, 3, 4]);
next = array1d(1..11 ,[10, 7, 5, 6, 4, 11, 8, 9, 1, 3, 2]);
makespan = 637;
----------
assign = array1d(1..11 ,[1, 3, 4, 4, 4, 4, 3, 1, 2, 3, 4]);
next = array1d(1..11 ,[8, 7, 5, 6, 4, 11, 10, 9, 2, 3, 1]);
makespan = 636;
----------
assign = array1d(1..11 ,[3, 1, 4, 4, 4, 4, 1, 1, 2, 3, 4]);
next = array1d(1..11 ,[10, 7, 5, 6, 4, 11, 8, 9, 1, 3, 2]);
makespan = 631;
----------
assign = array1d(1..11 ,[1, 3, 4, 4, 4, 4, 3, 1, 2, 3, 4]);
next = array1d(1..11 ,[8, 7, 5, 6, 4, 11, 10, 9, 2, 3, 1]);
makespan = 630;
----------
assign = array1d(1..11 ,[3, 1, 4, 4, 4, 4, 1, 1, 2, 3, 4]);
next = array1d(1..11 ,[10, 7, 5, 6, 4, 11, 8, 9, 1, 3, 2]);
makespan = 627;
----------
assign = array1d(1..11 ,[1, 3, 4, 4, 4, 4, 3, 1, 2, 3, 4]);
next = array1d(1..11 ,[8, 7, 5, 6, 4, 11, 10, 9, 2, 3, 1]);
makespan = 626;
----------
assign = array1d(1..11 ,[3, 1, 4, 4, 4, 4, 1, 1, 2, 3, 4]);
next = array1d(1..11 ,[10, 7, 5, 6, 4, 11, 8, 9, 1, 3, 2]);
makespan = 624;
----------
assign = array1d(1..11 ,[2, 3, 4, 4, 4, 4, 3, 1, 2, 3, 4]);
next = array1d(1..11 ,[9, 7, 5, 6, 4, 11, 10, 1, 2, 3, 8]);
makespan = 620;
----------
assign = array1d(1..11 ,[2, 1, 4, 4, 4, 4, 1, 1, 2, 3, 4]);
next = array1d(1..11 ,[9, 7, 5, 6, 4, 11, 8, 1, 10, 3, 2]);
makespan = 617;
----------
assign = array1d(1..11 ,[2, 3, 4, 4, 4, 4, 3, 1, 2, 3, 4]);
next = array1d(1..11 ,[9, 7, 5, 6, 4, 11, 10, 1, 2, 3, 8]);
makespan = 616;
----------
assign = array1d(1..11 ,[2, 1, 4, 4, 4, 4, 1, 1, 2, 3, 4]);
next = array1d(1..11 ,[9, 7, 5, 6, 4, 11, 8, 1, 10, 3, 2]);
makespan = 607;
----------
assign = array1d(1..11 ,[2, 3, 4, 4, 4, 4, 3, 1, 2, 3, 4]);
next = array1d(1..11 ,[9, 7, 5, 6, 4, 11, 10, 1, 2, 3, 8]);
makespan = 605;
----------
assign = array1d(1..11 ,[2, 1, 4, 4, 4, 4, 1, 1, 2, 3, 4]);
next = array1d(1..11 ,[9, 7, 5, 6, 4, 11, 8, 1, 10, 3, 2]);
makespan = 598;
----------
assign = array1d(1..11 ,[2, 3, 4, 4, 4, 4, 3, 1, 2, 3, 4]);
next = array1d(1..11 ,[9, 7, 5, 6, 4, 11, 10, 1, 2, 3, 8]);
makespan = 597;
----------
assign = array1d(1..11 ,[2, 1, 4, 4, 4, 4, 1, 1, 2, 3, 4]);
next = array1d(1..11 ,[9, 7, 5, 6, 4, 11, 8, 1, 10, 3, 2]);
makespan = 596;
----------
assign = array1d(1..11 ,[1, 3, 4, 4, 4, 4, 3, 1, 2, 3, 4]);
next = array1d(1..11 ,[8, 7, 5, 6, 4, 11, 10, 9, 2, 3, 1]);
makespan = 595;
----------
assign = array1d(1..11 ,[3, 1, 4, 4, 4, 4, 1, 1, 2, 3, 4]);
next = array1d(1..11 ,[10, 7, 5, 6, 4, 11, 8, 9, 1, 3, 2]);
makespan = 594;
----------
assign = array1d(1..11 ,[1, 3, 4, 4, 4, 4, 3, 1, 2, 3, 4]);
next = array1d(1..11 ,[8, 7, 5, 6, 4, 11, 10, 9, 2, 3, 1]);
makespan = 593;
----------
assign = array1d(1..11 ,[3, 1, 4, 4, 4, 4, 1, 1, 2, 3, 4]);
next = array1d(1..11 ,[10, 7, 5, 6, 4, 11, 8, 9, 1, 3, 2]);
makespan = 591;
----------
assign = array1d(1..11 ,[1, 3, 4, 4, 4, 4, 3, 1, 2, 3, 4]);
next = array1d(1..11 ,[8, 7, 5, 6, 4, 11, 10, 9, 2, 3, 1]);
makespan = 587;
----------
assign = array1d(1..11 ,[3, 1, 4, 4, 4, 4, 1, 1, 2, 3, 4]);
next = array1d(1..11 ,[10, 7, 5, 6, 4, 11, 8, 9, 1, 3, 2]);
makespan = 586;
----------
assign = array1d(1..11 ,[1, 3, 4, 4, 4, 4, 3, 1, 2, 3, 4]);
next = array1d(1..11 ,[8, 7, 5, 6, 4, 11, 10, 9, 2, 3, 1]);
makespan = 585;
----------
assign = array1d(1..11 ,[3, 1, 4, 4, 4, 4, 1, 1, 2, 3, 4]);
next = array1d(1..11 ,[10, 7, 5, 6, 4, 11, 8, 9, 1, 3, 2]);
makespan = 579;
----------
assign = array1d(1..11 ,[1, 3, 4, 4, 4, 4, 3, 1, 2, 3, 4]);
next = array1d(1..11 ,[8, 7, 5, 6, 4, 11, 10, 9, 2, 3, 1]);
makespan = 576;
----------
assign = array1d(1..11 ,[3, 1, 4, 4, 4, 4, 1, 1, 2, 3, 4]);
next = array1d(1..11 ,[10, 7, 5, 6, 4, 11, 8, 9, 1, 3, 2]);
makespan = 575;
----------
assign = array1d(1..11 ,[1, 3, 4, 4, 4, 4, 3, 1, 2, 3, 4]);
next = array1d(1..11 ,[8, 7, 5, 6, 4, 11, 10, 9, 2, 3, 1]);
makespan = 572;
----------
assign = array1d(1..11 ,[3, 1, 4, 4, 4, 4, 1, 1, 2, 3, 4]);
next = array1d(1..11 ,[10, 7, 5, 6, 4, 11, 8, 9, 1, 3, 2]);
makespan = 565;
----------
assign = array1d(1..11 ,[1, 3, 4, 4, 4, 4, 3, 1, 2, 3, 4]);
next = array1d(1..11 ,[8, 7, 5, 6, 4, 11, 10, 9, 2, 3, 1]);
makespan = 562;
----------
assign = array1d(1..11 ,[2, 1, 4, 4, 4, 4, 1, 1, 2, 3, 4]);
next = array1d(1..11 ,[9, 7, 5, 6, 4, 11, 8, 1, 10, 3, 2]);
makespan = 561;
----------
assign = array1d(1..11 ,[1, 3, 4, 4, 4, 4, 3, 1, 2, 3, 4]);
next = array1d(1..11 ,[8, 7, 5, 6, 4, 11, 10, 9, 2, 3, 1]);
makespan = 556;
----------
assign = array1d(1..11 ,[3, 1, 4, 4, 4, 4, 1, 1, 2, 3, 4]);
next = array1d(1..11 ,[10, 7, 5, 6, 4, 11, 8, 9, 1, 3, 2]);
makespan = 555;
----------
assign = array1d(1..11 ,[1, 3, 4, 4, 4, 4, 3, 1, 2, 3, 4]);
next = array1d(1..11 ,[8, 7, 5, 6, 4, 11, 10, 9, 2, 3, 1]);
makespan = 552;
----------
assign = array1d(1..11 ,[3, 1, 4, 4, 4, 4, 1, 1, 2, 3, 4]);
next = array1d(1..11 ,[10, 7, 5, 6, 4, 11, 8, 9, 1, 3, 2]);
makespan = 525;
----------
assign = array1d(1..11 ,[1, 3, 4, 4, 4, 4, 3, 1, 2, 3, 4]);
next = array1d(1..11 ,[8, 7, 5, 6, 4, 11, 10, 9, 2, 3, 1]);
makespan = 511;
----------
assign = array1d(1..11 ,[3, 1, 4, 4, 4, 4, 1, 1, 2, 3, 4]);
next = array1d(1..11 ,[10, 7, 5, 6, 4, 11, 8, 9, 1, 3, 2]);
makespan = 510;
----------
assign = array1d(1..11 ,[1, 3, 4, 4, 4, 4, 3, 1, 2, 3, 4]);
next = array1d(1..11 ,[8, 7, 5, 6, 4, 11, 10, 9, 2, 3, 1]);
makespan = 509;
----------
assign = array1d(1..11 ,[3, 1, 4, 4, 4, 4, 1, 1, 2, 3, 4]);
next = array1d(1..11 ,[10, 7, 5, 6, 4, 11, 8, 9, 1, 3, 2]);
makespan = 501;
----------
assign = array1d(1..11 ,[2, 3, 4, 4, 3, 4, 3, 1, 2, 3, 4]);
next = array1d(1..11 ,[9, 7, 11, 6, 2, 3, 10, 1, 5, 4, 8]);
makespan = 490;
----------
assign = array1d(1..11 ,[4, 2, 3, 4, 2, 4, 2, 1, 2, 3, 4]);
next = array1d(1..11 ,[4, 7, 10, 6, 2, 11, 9, 5, 3, 1, 8]);
makespan = 476;
----------
assign = array1d(1..11 ,[3, 4, 3, 4, 3, 4, 2, 1, 2, 3, 4]);
next = array1d(1..11 ,[10, 4, 5, 6, 1, 11, 9, 7, 3, 2, 8]);
makespan = 460;
----------
assign = array1d(1..11 ,[4, 2, 2, 4, 2, 4, 3, 1, 2, 3, 4]);
next = array1d(1..11 ,[11, 9, 5, 6, 2, 1, 10, 3, 7, 4, 8]);
makespan = 459;
----------
assign = array1d(1..11 ,[4, 3, 3, 4, 3, 4, 1, 1, 2, 3, 4]);
next = array1d(1..11 ,[11, 10, 5, 6, 2, 1, 8, 9, 3, 4, 7]);
makespan = 457;
----------
assign = array1d(1..11 ,[2, 3, 3, 4, 3, 4, 4, 1, 2, 3, 4]);
next = array1d(1..11 ,[9, 10, 5, 6, 2, 7, 11, 1, 3, 4, 8]);
makespan = 447;
----------
assign = array1d(1..11 ,[3, 4, 4, 3, 4, 3, 1, 1, 2, 3, 4]);
next = array1d(1..11 ,[6, 11, 5, 1, 2, 10, 8, 9, 4, 3, 7]);
makespan = 445;
----------
assign = array1d(1..11 ,[3, 4, 4, 3, 4, 3, 1, 1, 2, 3, 4]);
next = array1d(1..11 ,[6, 11, 5, 1, 2, 10, 8, 9, 4, 3, 7]);
makespan = 443;
----------
assign = array1d(1..11 ,[3, 4, 4, 3, 4, 3, 1, 1, 2, 3, 4]);
next = array1d(1..11 ,[6, 11, 5, 1, 2, 10, 8, 9, 4, 3, 7]);
makespan = 441;
----------
assign = array1d(1..11 ,[3, 4, 4, 3, 4, 3, 1, 1, 2, 3, 4]);
next = array1d(1..11 ,[6, 11, 5, 1, 2, 10, 8, 9, 4, 3, 7]);
makespan = 440;
----------
assign = array1d(1..11 ,[3, 4, 4, 3, 4, 3, 1, 1, 2, 3, 4]);
next = array1d(1..11 ,[6, 11, 5, 1, 2, 10, 8, 9, 4, 3, 7]);
makespan = 439;
----------
assign = array1d(1..11 ,[3, 4, 4, 3, 4, 3, 1, 1, 2, 3, 4]);
next = array1d(1..11 ,[6, 11, 5, 1, 2, 10, 8, 9, 4, 3, 7]);
makespan = 438;
----------
assign = array1d(1..11 ,[3, 4, 4, 3, 4, 3, 1, 1, 2, 3, 4]);
next = array1d(1..11 ,[6, 11, 5, 1, 2, 10, 8, 9, 4, 3, 7]);
makespan = 436;
----------
assign = array1d(1..11 ,[3, 4, 4, 3, 4, 3, 1, 1, 2, 3, 4]);
next = array1d(1..11 ,[6, 11, 5, 1, 2, 10, 8, 9, 4, 3, 7]);
makespan = 433;
----------
assign = array1d(1..11 ,[3, 4, 4, 3, 4, 3, 1, 1, 2, 3, 4]);
next = array1d(1..11 ,[6, 11, 5, 1, 2, 10, 8, 9, 4, 3, 7]);
makespan = 431;
----------
assign = array1d(1..11 ,[3, 4, 4, 3, 4, 3, 1, 1, 2, 3, 4]);
next = array1d(1..11 ,[6, 11, 5, 1, 2, 10, 8, 9, 4, 3, 7]);
makespan = 426;
----------
assign = array1d(1..11 ,[3, 4, 4, 3, 4, 3, 1, 1, 2, 3, 4]);
next = array1d(1..11 ,[6, 11, 5, 1, 2, 10, 8, 9, 4, 3, 7]);
makespan = 416;
----------
assign = array1d(1..11 ,[3, 4, 4, 3, 4, 3, 1, 1, 2, 3, 4]);
next = array1d(1..11 ,[6, 11, 5, 1, 2, 10, 8, 9, 4, 3, 7]);
makespan = 415;
----------
assign = array1d(1..11 ,[3, 4, 4, 3, 4, 3, 1, 1, 2, 3, 4]);
next = array1d(1..11 ,[6, 11, 5, 1, 2, 10, 8, 9, 4, 3, 7]);
makespan = 412;
----------
assign = array1d(1..11 ,[3, 4, 4, 3, 4, 3, 1, 1, 2, 3, 4]);
next = array1d(1..11 ,[6, 11, 5, 1, 2, 10, 8, 9, 4, 3, 7]);
makespan = 405;
----------
assign = array1d(1..11 ,[3, 4, 4, 3, 4, 3, 1, 1, 2, 3, 4]);
next = array1d(1..11 ,[6, 11, 5, 1, 2, 10, 8, 9, 4, 3, 7]);
makespan = 403;
----------
assign = array1d(1..11 ,[3, 4, 4, 3, 4, 3, 1, 1, 2, 3, 4]);
next = array1d(1..11 ,[6, 11, 5, 1, 2, 10, 8, 9, 4, 3, 7]);
makespan = 401;
----------
assign = array1d(1..11 ,[3, 4, 4, 3, 4, 3, 1, 1, 2, 3, 4]);
next = array1d(1..11 ,[6, 11, 5, 1, 2, 10, 8, 9, 4, 3, 7]);
makespan = 399;
----------
assign = array1d(1..11 ,[2, 4, 4, 2, 4, 3, 3, 1, 2, 3, 4]);
next = array1d(1..11 ,[9, 11, 5, 1, 2, 10, 6, 4, 7, 3, 8]);
makespan = 395;
----------
assign = array1d(1..11 ,[3, 4, 4, 3, 4, 2, 3, 1, 2, 3, 4]);
next = array1d(1..11 ,[7, 11, 5, 10, 2, 9, 4, 6, 1, 3, 8]);
makespan = 394;
----------
assign = array1d(1..11 ,[4, 3, 3, 4, 3, 2, 4, 1, 2, 3, 4]);
next = array1d(1..11 ,[7, 10, 5, 11, 2, 9, 4, 6, 3, 1, 8]);
makespan = 385;
----------
assign = array1d(1..11 ,[4, 1, 3, 4, 3, 1, 4, 1, 2, 3, 4]);
next = array1d(1..11 ,[11, 6, 5, 1, 10, 8, 4, 9, 3, 7, 2]);
makespan = 383;
----------
assign = array1d(1..11 ,[4, 3, 3, 4, 3, 1, 4, 1, 2, 3, 4]);
next = array1d(1..11 ,[11, 10, 5, 1, 2, 8, 4, 9, 3, 7, 6]);
makespan = 381;
----------
assign = array1d(1..11 ,[4, 3, 3, 4, 3, 4, 2, 1, 2, 3, 4]);
next = array1d(1..11 ,[6, 10, 5, 1, 2, 11, 9, 7, 3, 4, 8]);
makespan = 380;
----------
assign = array1d(1..11 ,[2, 4, 4, 3, 4, 3, 2, 1, 2, 3, 4]);
next = array1d(1..11 ,[7, 11, 5, 6, 2, 10, 9, 1, 4, 3, 8]);
makespan = 377;
----------
assign = array1d(1..11 ,[2, 4, 4, 3, 4, 3, 2, 1, 2, 3, 4]);
next = array1d(1..11 ,[7, 11, 5, 6, 2, 10, 9, 1, 4, 3, 8]);
makespan = 375;
----------
assign = array1d(1..11 ,[2, 4, 4, 3, 4, 3, 2, 1, 2, 3, 4]);
next = array1d(1..11 ,[7, 11, 5, 6, 2, 10, 9, 1, 4, 3, 8]);
makespan = 373;
----------
assign = array1d(1..11 ,[2, 4, 4, 3, 4, 3, 2, 1, 2, 3, 4]);
next = array1d(1..11 ,[7, 11, 5, 6, 2, 10, 9, 1, 4, 3, 8]);
makespan = 371;
----------
assign = array1d(1..11 ,[2, 3, 3, 4, 3, 4, 2, 1, 2, 3, 4]);
next = array1d(1..11 ,[7, 10, 5, 6, 2, 11, 9, 1, 3, 4, 8]);
makespan = 370;
----------
assign = array1d(1..11 ,[4, 3, 3, 1, 3, 1, 4, 1, 2, 3, 4]);
next = array1d(1..11 ,[7, 10, 5, 6, 2, 8, 11, 9, 3, 1, 4]);
makespan = 363;
----------
assign = array1d(1..11 ,[2, 4, 3, 4, 3, 4, 2, 1, 2, 3, 4]);
next = array1d(1..11 ,[7, 6, 5, 11, 10, 4, 9, 1, 3, 2, 8]);
makespan = 360;
----------
assign = array1d(1..11 ,[2, 4, 3, 4, 3, 4, 2, 1, 2, 3, 4]);
next = array1d(1..11 ,[7, 6, 5, 2, 10, 11, 9, 1, 3, 4, 8]);
makespan = 355;
----------
assign = array1d(1..11 ,[4, 3, 3, 1, 3, 1, 4, 1, 2, 3, 4]);
next = array1d(1..11 ,[7, 10, 5, 6, 2, 8, 11, 9, 3, 1, 4]);
makespan = 351;
----------
assign = array1d(1..11 ,[4, 3, 3, 1, 3, 1, 4, 1, 2, 3, 4]);
next = array1d(1..11 ,[7, 10, 5, 6, 2, 8, 11, 9, 3, 1, 4]);
makespan = 347;
----------
assign = array1d(1..11 ,[4, 3, 3, 1, 3, 1, 4, 1, 2, 3, 4]);
next = array1d(1..11 ,[7, 10, 5, 6, 2, 8, 11, 9, 3, 1, 4]);
makespan = 344;
----------
assign = array1d(1..11 ,[4, 3, 3, 1, 3, 1, 4, 1, 2, 3, 4]);
next = array1d(1..11 ,[7, 10, 5, 6, 2, 8, 11, 9, 3, 1, 4]);
makespan = 341;
----------
assign = array1d(1..11 ,[4, 3, 3, 1, 3, 1, 4, 1, 2, 3, 4]);
next = array1d(1..11 ,[7, 10, 5, 6, 2, 8, 11, 9, 3, 1, 4]);
makespan = 340;
----------
assign = array1d(1..11 ,[4, 3, 3, 1, 3, 1, 4, 1, 2, 3, 4]);
next = array1d(1..11 ,[7, 10, 5, 6, 2, 8, 11, 9, 3, 1, 4]);
makespan = 337;
----------
assign = array1d(1..11 ,[4, 3, 3, 1, 3, 1, 4, 1, 2, 3, 4]);
next = array1d(1..11 ,[7, 10, 5, 6, 2, 8, 11, 9, 3, 1, 4]);
makespan = 335;
----------
assign = array1d(1..11 ,[4, 2, 3, 1, 3, 2, 4, 1, 2, 3, 4]);
next = array1d(1..11 ,[7, 6, 5, 8, 10, 9, 11, 2, 3, 1, 4]);
makespan = 334;
----------
assign = array1d(1..11 ,[1, 4, 3, 2, 3, 2, 4, 1, 2, 3, 4]);
next = array1d(1..11 ,[8, 11, 5, 9, 10, 4, 2, 6, 3, 7, 1]);
makespan = 332;
----------
assign = array1d(1..11 ,[3, 2, 3, 4, 4, 4, 2, 1, 2, 3, 4]);
next = array1d(1..11 ,[10, 7, 1, 5, 6, 11, 9, 2, 3, 4, 8]);
makespan = 331;
----------
assign = array1d(1..11 ,[2, 2, 3, 4, 4, 4, 3, 1, 2, 3, 4]);
next = array1d(1..11 ,[2, 9, 7, 5, 6, 11, 10, 1, 3, 4, 8]);
makespan = 312;
----------
assign = array1d(1..11 ,[1, 2, 3, 2, 4, 4, 3, 1, 2, 3, 4]);
next = array1d(1..11 ,[8, 9, 10, 2, 6, 11, 3, 4, 7, 5, 1]);
makespan = 307;
----------
assign = array1d(1..11 ,[2, 2, 4, 3, 4, 3, 1, 1, 2, 3, 4]);
next = array1d(1..11 ,[2, 9, 5, 10, 11, 4, 8, 1, 6, 3, 7]);
makespan = 305;
----------
assign = array1d(1..11 ,[2, 4, 1, 3, 1, 3, 4, 1, 2, 3, 4]);
next = array1d(1..11 ,[9, 7, 5, 10, 8, 4, 11, 1, 6, 2, 3]);
makespan = 304;
----------
assign = array1d(1..11 ,[1, 4, 2, 3, 2, 3, 4, 1, 2, 3, 4]);
next = array1d(1..11 ,[8, 7, 5, 10, 9, 4, 11, 3, 6, 2, 1]);
makespan = 300;
----------
assign = array1d(1..11 ,[1, 4, 2, 3, 2, 3, 4, 1, 2, 3, 4]);
next = array1d(1..11 ,[8, 7, 5, 10, 9, 4, 11, 3, 6, 2, 1]);
makespan = 299;
----------
assign = array1d(1..11 ,[1, 4, 2, 3, 2, 3, 4, 1, 2, 3, 4]);
next = array1d(1..11 ,[8, 7, 5, 10, 9, 4, 11, 3, 6, 2, 1]);
makespan = 298;
----------
assign = array1d(1..11 ,[1, 4, 2, 3, 2, 3, 4, 1, 2, 3, 4]);
next = array1d(1..11 ,[8, 7, 5, 10, 9, 4, 11, 3, 6, 2, 1]);
makespan = 295;
----------
assign = array1d(1..11 ,[1, 4, 2, 3, 2, 3, 4, 1, 2, 3, 4]);
next = array1d(1..11 ,[8, 7, 5, 10, 9, 4, 11, 3, 6, 2, 1]);
makespan = 294;
----------
assign = array1d(1..11 ,[1, 4, 2, 3, 2, 3, 4, 1, 2, 3, 4]);
next = array1d(1..11 ,[8, 7, 5, 10, 9, 4, 11, 3, 6, 2, 1]);
makespan = 293;
----------
assign = array1d(1..11 ,[1, 4, 2, 3, 2, 3, 4, 1, 2, 3, 4]);
next = array1d(1..11 ,[8, 7, 5, 10, 9, 4, 11, 3, 6, 2, 1]);
makespan = 290;
----------
assign = array1d(1..11 ,[1, 4, 2, 3, 2, 3, 4, 1, 2, 3, 4]);
next = array1d(1..11 ,[8, 7, 5, 10, 9, 4, 11, 3, 6, 2, 1]);
makespan = 289;
----------
assign = array1d(1..11 ,[1, 4, 2, 3, 2, 3, 4, 1, 2, 3, 4]);
next = array1d(1..11 ,[8, 7, 5, 10, 9, 4, 11, 3, 6, 2, 1]);
makespan = 286;
----------
assign = array1d(1..11 ,[1, 4, 2, 3, 2, 3, 4, 1, 2, 3, 4]);
next = array1d(1..11 ,[8, 7, 5, 10, 9, 4, 11, 3, 6, 2, 1]);
makespan = 280;
----------
assign = array1d(1..11 ,[1, 4, 2, 3, 2, 3, 4, 1, 2, 3, 4]);
next = array1d(1..11 ,[8, 7, 5, 10, 9, 4, 11, 3, 6, 2, 1]);
makespan = 279;
----------
assign = array1d(1..11 ,[1, 4, 2, 3, 2, 3, 4, 1, 2, 3, 4]);
next = array1d(1..11 ,[8, 7, 5, 10, 9, 4, 11, 3, 6, 2, 1]);
makespan = 278;
----------
assign = array1d(1..11 ,[1, 4, 2, 3, 2, 3, 4, 1, 2, 3, 4]);
next = array1d(1..11 ,[8, 7, 5, 10, 9, 4, 11, 3, 6, 2, 1]);
makespan = 276;
----------
assign = array1d(1..11 ,[1, 4, 2, 3, 2, 3, 4, 1, 2, 3, 4]);
next = array1d(1..11 ,[8, 7, 5, 10, 9, 4, 11, 3, 6, 2, 1]);
makespan = 274;
----------
assign = array1d(1..11 ,[1, 4, 2, 3, 2, 3, 4, 1, 2, 3, 4]);
next = array1d(1..11 ,[8, 7, 5, 10, 9, 4, 11, 3, 6, 2, 1]);
makespan = 272;
----------
assign = array1d(1..11 ,[1, 4, 2, 3, 2, 3, 4, 1, 2, 3, 4]);
next = array1d(1..11 ,[8, 7, 5, 10, 9, 4, 11, 3, 6, 2, 1]);
makespan = 265;
----------
assign = array1d(1..11 ,[1, 4, 2, 3, 2, 3, 4, 1, 2, 3, 4]);
next = array1d(1..11 ,[8, 7, 5, 10, 9, 4, 11, 3, 6, 2, 1]);
makespan = 264;
----------
assign = array1d(1..11 ,[1, 4, 2, 3, 2, 3, 4, 1, 2, 3, 4]);
next = array1d(1..11 ,[8, 7, 5, 10, 9, 4, 11, 3, 6, 2, 1]);
makespan = 263;
----------
assign = array1d(1..11 ,[1, 4, 2, 3, 2, 3, 4, 1, 2, 3, 4]);
next = array1d(1..11 ,[8, 7, 5, 10, 9, 4, 11, 3, 6, 2, 1]);
makespan = 254;
----------
assign = array1d(1..11 ,[1, 4, 2, 3, 2, 3, 4, 1, 2, 3, 4]);
next = array1d(1..11 ,[8, 7, 5, 10, 9, 4, 11, 3, 6, 2, 1]);
makespan = 253;
----------
assign = array1d(1..11 ,[1, 4, 2, 3, 2, 3, 4, 1, 2, 3, 4]);
next = array1d(1..11 ,[8, 7, 5, 10, 9, 4, 11, 3, 6, 2, 1]);
makespan = 247;
----------
assign = array1d(1..11 ,[1, 4, 2, 3, 2, 3, 4, 1, 2, 3, 4]);
next = array1d(1..11 ,[8, 11, 5, 10, 9, 4, 2, 3, 6, 7, 1]);
makespan = 245;
----------
assign = array1d(1..11 ,[1, 4, 2, 3, 2, 3, 4, 1, 2, 3, 4]);
next = array1d(1..11 ,[8, 11, 5, 10, 9, 4, 2, 3, 6, 7, 1]);
makespan = 244;
----------
assign = array1d(1..11 ,[1, 4, 2, 3, 2, 3, 4, 1, 2, 3, 4]);
next = array1d(1..11 ,[8, 11, 5, 10, 9, 4, 2, 3, 6, 7, 1]);
makespan = 243;
----------
assign = array1d(1..11 ,[1, 4, 2, 3, 2, 3, 4, 1, 2, 3, 4]);
next = array1d(1..11 ,[8, 11, 5, 10, 9, 4, 2, 3, 6, 7, 1]);
makespan = 239;
----------
assign = array1d(1..11 ,[1, 4, 2, 3, 2, 3, 4, 1, 2, 3, 4]);
next = array1d(1..11 ,[8, 11, 5, 10, 9, 4, 2, 3, 6, 7, 1]);
makespan = 235;
----------
assign = array1d(1..11 ,[1, 4, 3, 2, 3, 2, 4, 1, 2, 3, 4]);
next = array1d(1..11 ,[8, 11, 5, 9, 10, 4, 2, 6, 3, 7, 1]);
makespan = 227;
----------
assign = array1d(1..11 ,[1, 4, 3, 2, 3, 2, 4, 1, 2, 3, 4]);
next = array1d(1..11 ,[8, 11, 5, 9, 10, 4, 2, 6, 3, 7, 1]);
makespan = 223;
----------
assign = array1d(1..11 ,[2, 4, 3, 1, 3, 1, 2, 1, 2, 3, 4]);
next = array1d(1..11 ,[9, 11, 5, 8, 10, 4, 1, 7, 3, 2, 6]);
makespan = 222;
----------
assign = array1d(1..11 ,[2, 4, 2, 3, 4, 3, 1, 1, 2, 3, 4]);
next = array1d(1..11 ,[9, 5, 1, 10, 11, 4, 8, 3, 6, 2, 7]);
makespan = 221;
----------
assign = array1d(1..11 ,[2, 4, 2, 1, 3, 1, 3, 1, 2, 3, 4]);
next = array1d(1..11 ,[9, 11, 1, 8, 7, 4, 10, 3, 5, 2, 6]);
makespan = 213;
----------
assign = array1d(1..11 ,[2, 4, 2, 1, 3, 1, 3, 1, 2, 3, 4]);
next = array1d(1..11 ,[9, 11, 1, 8, 7, 4, 10, 3, 5, 2, 6]);
makespan = 211;
----------
assign = array1d(1..11 ,[2, 3, 2, 1, 3, 1, 4, 1, 2, 3, 4]);
next = array1d(1..11 ,[9, 10, 1, 8, 2, 4, 11, 3, 5, 7, 6]);
makespan = 208;
----------
assign = array1d(1..11 ,[2, 3, 2, 4, 1, 3, 4, 1, 2, 3, 4]);
next = array1d(1..11 ,[9, 6, 1, 11, 8, 10, 4, 3, 2, 7, 5]);
makespan = 204;
----------
assign = array1d(1..11 ,[2, 3, 2, 4, 1, 3, 4, 1, 2, 3, 4]);
next = array1d(1..11 ,[9, 6, 1, 11, 8, 10, 4, 3, 2, 7, 5]);
makespan = 202;
----------
assign = array1d(1..11 ,[2, 3, 2, 4, 1, 3, 4, 1, 2, 3, 4]);
next = array1d(1..11 ,[9, 6, 1, 11, 8, 10, 4, 3, 2, 7, 5]);
makespan = 201;
----------
assign = array1d(1..11 ,[2, 4, 2, 3, 3, 4, 1, 1, 2, 3, 4]);
next = array1d(1..11 ,[9, 6, 1, 5, 10, 11, 8, 3, 4, 2, 7]);
makespan = 199;
----------
assign = array1d(1..11 ,[2, 4, 2, 3, 3, 4, 1, 1, 2, 3, 4]);
next = array1d(1..11 ,[9, 6, 1, 5, 10, 11, 8, 3, 4, 2, 7]);
makespan = 198;
----------
==========
	Command being timed: "mzn-chuffed lbbd-datasets/Rabadi-2006/dzn-balanced/model.mzn lbbd-datasets/Rabadi-2006/dzn-balanced/7on4Rp50Rs50_2Ameer.dzn"
	User time (seconds): 0.41
	System time (seconds): 0.01
	Percent of CPU this job got: 37%
	Elapsed (wall clock) time (h:mm:ss or m:ss): 0:01.13
	Average shared text size (kbytes): 0
	Average unshared data size (kbytes): 0
	Average stack size (kbytes): 0
	Average total size (kbytes): 0
	Maximum resident set size (kbytes): 34272
	Average resident set size (kbytes): 0
	Major (requiring I/O) page faults: 0
	Minor (reclaiming a frame) page faults: 3129
	Voluntary context switches: 231
	Involuntary context switches: 2
	Swaps: 0
	File system inputs: 0
	File system outputs: 280
	Socket messages sent: 0
	Socket messages received: 0
	Signals delivered: 0
	Page size (bytes): 4096
	Exit status: 0
