+ /usr/bin/timeout 600 /usr/bin/time -v mzn-chuffed lbbd-datasets/Rabadi-2006/dzn-s-dominant/model.mzn lbbd-datasets/Rabadi-2006/dzn-s-dominant/10on6Rp50Rs50_3Ameer.dzn
% No search annotation given. Defaulting to VSIDS!
assign = array1d(1..16 ,[6, 6, 6, 6, 6, 6, 6, 6, 6, 6, 1, 2, 3, 4, 5, 6]);
next = array1d(1..16 ,[2, 3, 4, 5, 6, 7, 8, 9, 10, 16, 12, 13, 14, 15, 1, 11]);
makespan = 2003;
----------
assign = array1d(1..16 ,[6, 6, 6, 6, 6, 6, 6, 6, 6, 6, 1, 2, 3, 4, 5, 6]);
next = array1d(1..16 ,[2, 3, 5, 6, 4, 7, 8, 9, 10, 16, 12, 13, 14, 15, 1, 11]);
makespan = 1973;
----------
assign = array1d(1..16 ,[6, 6, 5, 6, 6, 6, 6, 6, 6, 6, 1, 2, 3, 4, 5, 6]);
next = array1d(1..16 ,[16, 7, 15, 2, 6, 4, 10, 5, 8, 1, 12, 13, 14, 3, 9, 11]);
makespan = 1947;
----------
assign = array1d(1..16 ,[6, 6, 6, 6, 2, 6, 6, 6, 6, 6, 1, 2, 3, 4, 5, 6]);
next = array1d(1..16 ,[7, 6, 1, 2, 12, 10, 16, 4, 8, 3, 5, 13, 14, 15, 9, 11]);
makespan = 1946;
----------
assign = array1d(1..16 ,[6, 6, 6, 6, 2, 6, 6, 6, 6, 6, 1, 2, 3, 4, 5, 6]);
next = array1d(1..16 ,[4, 1, 7, 9, 12, 2, 6, 16, 8, 3, 5, 13, 14, 15, 10, 11]);
makespan = 1945;
----------
assign = array1d(1..16 ,[6, 6, 6, 6, 6, 6, 6, 1, 6, 6, 1, 2, 3, 4, 5, 6]);
next = array1d(1..16 ,[16, 4, 7, 1, 3, 10, 6, 11, 5, 2, 12, 13, 14, 15, 9, 8]);
makespan = 1942;
----------
assign = array1d(1..16 ,[6, 6, 6, 6, 6, 6, 6, 6, 4, 6, 1, 2, 3, 4, 5, 6]);
next = array1d(1..16 ,[16, 6, 7, 2, 10, 3, 1, 5, 14, 4, 12, 13, 9, 15, 8, 11]);
makespan = 1931;
----------
assign = array1d(1..16 ,[6, 6, 6, 6, 6, 6, 6, 2, 6, 6, 1, 2, 3, 4, 5, 6]);
next = array1d(1..16 ,[7, 1, 2, 16, 4, 10, 9, 12, 5, 3, 8, 13, 14, 15, 6, 11]);
makespan = 1930;
----------
assign = array1d(1..16 ,[1, 6, 6, 6, 6, 6, 6, 6, 6, 6, 1, 2, 3, 4, 5, 6]);
next = array1d(1..16 ,[11, 7, 6, 2, 4, 16, 10, 5, 8, 3, 12, 13, 14, 15, 9, 1]);
makespan = 1929;
----------
assign = array1d(1..16 ,[6, 6, 6, 6, 6, 5, 6, 6, 6, 6, 1, 2, 3, 4, 5, 6]);
next = array1d(1..16 ,[16, 1, 9, 2, 3, 15, 10, 7, 8, 4, 12, 13, 14, 6, 5, 11]);
makespan = 1928;
----------
assign = array1d(1..16 ,[6, 6, 6, 6, 1, 6, 6, 6, 6, 6, 1, 2, 3, 4, 5, 6]);
next = array1d(1..16 ,[3, 1, 16, 8, 11, 10, 9, 6, 4, 2, 12, 13, 14, 15, 7, 5]);
makespan = 1925;
----------
assign = array1d(1..16 ,[6, 6, 6, 6, 6, 6, 1, 6, 6, 6, 1, 2, 3, 4, 5, 6]);
next = array1d(1..16 ,[16, 6, 9, 2, 10, 3, 11, 1, 8, 4, 12, 13, 14, 15, 5, 7]);
makespan = 1922;
----------
assign = array1d(1..16 ,[6, 6, 6, 6, 2, 6, 6, 6, 6, 6, 1, 2, 3, 4, 5, 6]);
next = array1d(1..16 ,[16, 1, 7, 10, 12, 9, 6, 4, 8, 2, 5, 13, 14, 15, 3, 11]);
makespan = 1921;
----------
assign = array1d(1..16 ,[6, 6, 6, 6, 6, 6, 1, 6, 6, 6, 1, 2, 3, 4, 5, 6]);
next = array1d(1..16 ,[16, 4, 9, 1, 3, 10, 11, 6, 8, 2, 12, 13, 14, 15, 5, 7]);
makespan = 1913;
----------
assign = array1d(1..16 ,[6, 6, 6, 6, 6, 6, 1, 6, 6, 6, 1, 2, 3, 4, 5, 6]);
next = array1d(1..16 ,[4, 5, 2, 16, 1, 10, 11, 6, 8, 3, 12, 13, 14, 15, 9, 7]);
makespan = 1912;
----------
assign = array1d(1..16 ,[6, 6, 6, 6, 6, 1, 6, 6, 6, 6, 1, 2, 3, 4, 5, 6]);
next = array1d(1..16 ,[16, 1, 7, 9, 3, 11, 10, 5, 8, 2, 12, 13, 14, 15, 4, 6]);
makespan = 1907;
----------
assign = array1d(1..16 ,[6, 6, 6, 6, 6, 1, 6, 6, 6, 6, 1, 2, 3, 4, 5, 6]);
next = array1d(1..16 ,[4, 1, 7, 5, 16, 11, 10, 9, 3, 2, 12, 13, 14, 15, 8, 6]);
makespan = 1906;
----------
