+ /usr/bin/timeout 600 /usr/bin/time -v mzn-chuffed lbbd-datasets/planningandscheduling/cost-insts/model.mzn lbbd-datasets/planningandscheduling/cost-insts/df24j3m1.dzn
% No search annotation given. Defaulting to VSIDS!
obj = 1071
----------
obj = 1061
----------
obj = 1045
----------
obj = 1036
----------
obj = 984
----------
obj = 980
----------
obj = 976
----------
obj = 973
----------
obj = 955
----------
obj = 942
----------
obj = 934
----------
obj = 933
----------
obj = 924
----------
obj = 919
----------
obj = 910
----------
obj = 908
----------
obj = 907
----------
obj = 902
----------
obj = 887
----------
obj = 883
----------
obj = 870
----------
obj = 857
----------
obj = 852
----------
obj = 843
----------
obj = 841
----------
obj = 836
----------
obj = 825
----------
obj = 820
----------
obj = 817
----------
obj = 813
----------
obj = 812
----------
obj = 810
----------
obj = 805
----------
obj = 803
----------
obj = 798
----------
obj = 795
----------
obj = 793
----------
obj = 788
----------
obj = 786
----------
obj = 781
----------
obj = 777
----------
obj = 775
----------
obj = 770
----------
obj = 768
----------
obj = 763
----------
obj = 759
----------
obj = 757
----------
obj = 752
----------
obj = 750
----------
obj = 747
----------
obj = 744
----------
obj = 742
----------
obj = 737
----------
obj = 733
----------
obj = 727
----------
obj = 722
----------
obj = 712
----------
obj = 694
----------
obj = 693
----------
obj = 689
----------
obj = 687
----------
obj = 682
----------
obj = 680
----------
obj = 676
----------
obj = 671
----------
obj = 667
----------
obj = 666
----------
obj = 661
----------
obj = 658
----------
obj = 653
----------
==========
	Command being timed: "mzn-chuffed lbbd-datasets/planningandscheduling/cost-insts/model.mzn lbbd-datasets/planningandscheduling/cost-insts/df24j3m1.dzn"
	User time (seconds): 0.25
	System time (seconds): 0.00
	Percent of CPU this job got: 32%
	Elapsed (wall clock) time (h:mm:ss or m:ss): 0:00.80
	Average shared text size (kbytes): 0
	Average unshared data size (kbytes): 0
	Average stack size (kbytes): 0
	Average total size (kbytes): 0
	Maximum resident set size (kbytes): 29536
	Average resident set size (kbytes): 0
	Major (requiring I/O) page faults: 0
	Minor (reclaiming a frame) page faults: 2550
	Voluntary context switches: 76
	Involuntary context switches: 3
	Swaps: 0
	File system inputs: 0
	File system outputs: 112
	Socket messages sent: 0
	Socket messages received: 0
	Signals delivered: 0
	Page size (bytes): 4096
	Exit status: 0
