+ /usr/bin/timeout 600 /usr/bin/time -v mzn-chuffed lbbd-datasets/Rabadi-2006/dzn-p-dominant/model.mzn lbbd-datasets/Rabadi-2006/dzn-p-dominant/10on2Rp50Rs50_6Ameer.dzn
% No search annotation given. Defaulting to VSIDS!
assign = array1d(1..12 ,[2, 2, 2, 2, 2, 2, 2, 2, 2, 2, 1, 2]);
next = array1d(1..12 ,[2, 3, 4, 5, 6, 7, 8, 9, 10, 12, 1, 11]);
makespan = 2139;
----------
assign = array1d(1..12 ,[2, 2, 2, 2, 2, 2, 2, 2, 2, 2, 1, 2]);
next = array1d(1..12 ,[3, 4, 2, 5, 6, 7, 8, 9, 10, 12, 1, 11]);
makespan = 2133;
----------
assign = array1d(1..12 ,[1, 2, 2, 2, 2, 2, 2, 2, 2, 2, 1, 2]);
next = array1d(1..12 ,[11, 6, 9, 8, 2, 4, 3, 12, 5, 7, 10, 1]);
makespan = 2008;
----------
assign = array1d(1..12 ,[2, 2, 2, 1, 2, 2, 2, 2, 2, 2, 1, 2]);
next = array1d(1..12 ,[12, 8, 9, 11, 6, 7, 3, 10, 1, 5, 2, 4]);
makespan = 2005;
----------
assign = array1d(1..12 ,[2, 2, 2, 2, 2, 2, 1, 2, 2, 2, 1, 2]);
next = array1d(1..12 ,[8, 10, 1, 6, 2, 12, 11, 5, 4, 9, 3, 7]);
makespan = 2004;
----------
assign = array1d(1..12 ,[2, 2, 2, 2, 2, 2, 2, 1, 2, 2, 1, 2]);
next = array1d(1..12 ,[12, 6, 4, 1, 2, 7, 3, 11, 5, 9, 10, 8]);
makespan = 2001;
----------
assign = array1d(1..12 ,[2, 2, 2, 2, 2, 2, 2, 2, 2, 1, 1, 2]);
next = array1d(1..12 ,[12, 4, 6, 3, 2, 9, 5, 1, 8, 11, 7, 10]);
makespan = 1999;
----------
assign = array1d(1..12 ,[2, 2, 2, 1, 2, 2, 2, 2, 2, 2, 1, 2]);
next = array1d(1..12 ,[12, 9, 6, 11, 7, 1, 3, 5, 10, 8, 2, 4]);
makespan = 1998;
----------
assign = array1d(1..12 ,[2, 2, 2, 2, 2, 2, 2, 1, 2, 2, 1, 2]);
next = array1d(1..12 ,[4, 1, 12, 9, 10, 2, 3, 11, 5, 7, 6, 8]);
makespan = 1996;
----------
assign = array1d(1..12 ,[2, 2, 2, 1, 2, 2, 2, 2, 2, 2, 1, 2]);
next = array1d(1..12 ,[12, 6, 7, 11, 3, 1, 2, 5, 8, 9, 10, 4]);
makespan = 1995;
----------
assign = array1d(1..12 ,[2, 2, 1, 2, 2, 2, 2, 2, 2, 2, 1, 2]);
next = array1d(1..12 ,[4, 6, 11, 7, 2, 1, 12, 10, 8, 5, 9, 3]);
makespan = 1994;
----------
assign = array1d(1..12 ,[2, 2, 1, 2, 2, 2, 2, 2, 2, 2, 1, 2]);
next = array1d(1..12 ,[4, 8, 11, 6, 10, 2, 1, 5, 12, 9, 7, 3]);
makespan = 1992;
----------
assign = array1d(1..12 ,[2, 2, 2, 2, 1, 2, 2, 2, 2, 2, 1, 2]);
next = array1d(1..12 ,[4, 8, 7, 3, 11, 1, 10, 12, 2, 9, 6, 5]);
makespan = 1991;
----------
assign = array1d(1..12 ,[2, 2, 2, 2, 1, 2, 2, 2, 2, 2, 1, 2]);
next = array1d(1..12 ,[10, 6, 1, 3, 11, 7, 4, 12, 8, 9, 2, 5]);
makespan = 1989;
----------
assign = array1d(1..12 ,[2, 2, 2, 2, 2, 2, 1, 2, 2, 2, 1, 2]);
next = array1d(1..12 ,[4, 5, 1, 8, 6, 12, 11, 10, 2, 9, 3, 7]);
makespan = 1987;
----------
assign = array1d(1..12 ,[2, 2, 2, 2, 2, 2, 1, 2, 2, 2, 1, 2]);
next = array1d(1..12 ,[10, 6, 9, 1, 2, 12, 11, 5, 4, 8, 3, 7]);
makespan = 1980;
----------
assign = array1d(1..12 ,[2, 2, 2, 2, 2, 2, 1, 2, 2, 2, 1, 2]);
next = array1d(1..12 ,[4, 1, 6, 8, 2, 12, 11, 3, 5, 9, 10, 7]);
makespan = 1975;
----------
assign = array1d(1..12 ,[2, 2, 2, 2, 2, 2, 1, 2, 2, 2, 1, 2]);
next = array1d(1..12 ,[10, 5, 2, 3, 6, 12, 11, 1, 4, 9, 8, 7]);
makespan = 1973;
----------
