+ /usr/bin/timeout 600 /usr/bin/time -v mzn-chuffed lbbd-datasets/sscplp/trucks-dzn/model.mzn lbbd-datasets/sscplp/trucks-dzn/p22-l50-c80-uncorrelated.dzn
% No search annotation given. Defaulting to VSIDS!
source = [20, 20, 17, 3, 7, 7, 17, 12, 2, 20, 20, 20, 20, 20, 6, 6, 20, 20, 6, 6, 15, 17, 12, 6, 12, 12, 20, 12, 12, 12, 17, 20, 20, 20, 20, 20, 6, 20, 17, 20]
open = [false, true, true, false, false, true, true, false, false, false, false, true, false, false, true, false, true, false, false, true]
trucks_used = [0, 1, 1, 0, 0, 6, 2, 0, 0, 0, 0, 7, 0, 0, 1, 0, 5, 0, 0, 17]
truck_assigned = [15, 14, 3, 1, 1, 2, 1, 3, 1, 12, 7, 8, 9, 6, 4, 5, 4, 11, 4, 3, 1, 2, 6, 6, 5, 4, 15, 2, 7, 6, 4, 10, 9, 17, 13, 8, 5, 16, 5, 17]
obj = 9834
----------
source = [20, 20, 17, 17, 20, 20, 19, 19, 19, 20, 20, 20, 20, 20, 17, 20, 17, 20, 17, 19, 19, 17, 19, 17, 19, 20, 20, 20, 20, 19, 17, 20, 20, 17, 20, 20, 20, 20, 17, 17]
open = [false, false, false, false, false, false, false, false, false, false, false, false, false, false, false, false, true, false, true, true]
trucks_used = [0, 0, 0, 0, 0, 0, 0, 0, 0, 0, 0, 0, 0, 0, 0, 0, 11, 0, 8, 21]
truck_assigned = [11, 19, 3, 10, 3, 8, 6, 7, 1, 17, 14, 21, 13, 18, 2, 5, 4, 16, 9, 4, 8, 11, 5, 5, 3, 10, 19, 8, 12, 6, 9, 15, 13, 8, 20, 21, 18, 9, 7, 6]
obj = 8803
----------
source = [20, 20, 17, 19, 20, 17, 19, 19, 19, 19, 20, 17, 17, 20, 17, 17, 17, 17, 17, 19, 19, 19, 19, 17, 19, 17, 17, 20, 20, 19, 20, 19, 20, 17, 20, 2, 17, 20, 20, 20]
open = [false, true, false, false, false, false, false, false, false, false, false, false, false, false, false, false, true, false, true, true]
trucks_used = [0, 1, 0, 0, 0, 0, 0, 0, 0, 0, 0, 0, 0, 0, 0, 0, 11, 0, 10, 13]
truck_assigned = [7, 9, 9, 2, 10, 3, 7, 8, 6, 4, 13, 10, 5, 10, 10, 7, 8, 2, 11, 2, 10, 5, 6, 6, 9, 1, 9, 8, 6, 7, 2, 9, 8, 4, 11, 1, 11, 1, 12, 12]
obj = 8792
----------
source = [20, 20, 15, 19, 20, 20, 19, 19, 19, 19, 20, 2, 20, 20, 19, 20, 19, 20, 2, 19, 19, 19, 19, 19, 19, 20, 20, 20, 20, 19, 20, 19, 20, 19, 20, 6, 20, 20, 20, 20]
open = [false, true, false, false, false, true, false, false, false, false, false, false, false, false, true, false, false, false, true, true]
trucks_used = [0, 2, 0, 0, 0, 1, 0, 0, 0, 0, 0, 0, 0, 0, 1, 0, 0, 0, 16, 20]
truck_assigned = [17, 19, 1, 9, 19, 7, 8, 16, 14, 13, 18, 1, 9, 20, 15, 8, 3, 4, 2, 9, 12, 11, 14, 7, 10, 10, 16, 12, 16, 8, 12, 10, 13, 6, 14, 1, 13, 11, 20, 15]
obj = 8780
----------
source = [19, 20, 20, 19, 19, 20, 19, 20, 19, 19, 20, 16, 20, 19, 20, 20, 19, 20, 10, 19, 19, 19, 20, 19, 19, 20, 19, 20, 19, 19, 20, 19, 20, 19, 20, 11, 20, 20, 15, 19]
open = [false, false, false, false, false, false, false, false, false, true, true, false, false, false, true, true, false, false, true, true]
trucks_used = [0, 0, 0, 0, 0, 0, 0, 0, 0, 1, 1, 0, 0, 0, 1, 1, 0, 0, 19, 17]
truck_assigned = [16, 9, 10, 16, 4, 17, 14, 10, 14, 18, 7, 1, 14, 18, 8, 16, 11, 6, 1, 12, 15, 19, 4, 10, 17, 11, 2, 13, 15, 10, 13, 17, 14, 13, 15, 1, 17, 12, 1, 12]
obj = 8758
----------
source = [20, 20, 20, 19, 19, 20, 19, 19, 19, 20, 20, 20, 11, 20, 20, 20, 19, 20, 7, 19, 19, 19, 20, 19, 19, 19, 20, 19, 16, 20, 20, 20, 19, 19, 20, 19, 20, 20, 16, 7]
open = [false, false, false, false, false, false, true, false, false, false, true, false, false, false, false, true, false, false, true, true]
trucks_used = [0, 0, 0, 0, 0, 0, 2, 0, 0, 0, 1, 0, 0, 0, 0, 2, 0, 0, 16, 19]
truck_assigned = [4, 10, 16, 13, 12, 19, 14, 4, 14, 12, 7, 5, 1, 13, 9, 14, 8, 18, 1, 9, 16, 10, 15, 12, 7, 11, 16, 13, 2, 6, 19, 11, 11, 15, 17, 13, 13, 8, 1, 2]
obj = 8756
----------
source = [20, 20, 20, 19, 19, 20, 19, 7, 19, 20, 20, 20, 19, 20, 20, 20, 19, 16, 7, 19, 19, 19, 20, 19, 20, 19, 20, 16, 16, 20, 19, 20, 19, 20, 19, 19, 20, 20, 16, 19]
open = [false, false, false, false, false, false, true, false, false, false, false, false, false, false, false, true, false, false, true, true]
trucks_used = [0, 0, 0, 0, 0, 0, 2, 0, 0, 0, 0, 0, 0, 0, 0, 4, 0, 0, 16, 18]
truck_assigned = [11, 15, 8, 16, 14, 12, 11, 2, 15, 7, 9, 12, 6, 13, 10, 16, 4, 2, 2, 12, 13, 9, 18, 16, 13, 15, 18, 1, 3, 6, 11, 17, 10, 15, 12, 14, 1, 14, 4, 15]
obj = 8568
----------
source = [20, 20, 20, 19, 19, 19, 19, 18, 19, 19, 16, 18, 19, 19, 19, 20, 19, 20, 20, 19, 19, 20, 20, 19, 20, 19, 19, 16, 16, 20, 19, 20, 19, 16, 19, 19, 19, 19, 20, 19]
open = [false, false, false, false, false, false, false, false, false, false, false, false, false, false, false, true, false, true, true, true]
trucks_used = [0, 0, 0, 0, 0, 0, 0, 0, 0, 0, 0, 0, 0, 0, 0, 4, 0, 2, 22, 12]
truck_assigned = [8, 5, 10, 19, 21, 11, 16, 1, 22, 17, 3, 2, 21, 18, 15, 12, 14, 7, 8, 13, 18, 4, 6, 19, 11, 20, 8, 4, 2, 11, 20, 9, 12, 1, 22, 22, 16, 6, 10, 20]
obj = 8489
----------
source = [20, 20, 20, 16, 19, 19, 19, 6, 16, 20, 19, 19, 19, 19, 19, 20, 19, 20, 20, 19, 19, 20, 20, 19, 20, 19, 20, 19, 19, 20, 19, 19, 19, 19, 6, 19, 20, 19, 20, 19]
open = [false, false, false, false, false, true, false, false, false, false, false, false, false, false, false, true, false, false, true, true]
trucks_used = [0, 0, 0, 0, 0, 1, 0, 0, 0, 0, 0, 0, 0, 0, 0, 2, 0, 0, 22, 14]
truck_assigned = [10, 7, 12, 1, 18, 21, 16, 1, 2, 6, 22, 19, 18, 17, 14, 14, 13, 8, 11, 12, 11, 10, 11, 16, 13, 15, 6, 21, 15, 13, 20, 15, 17, 6, 1, 20, 9, 4, 12, 20]
obj = 8437
----------
