+ /usr/bin/timeout 600 /usr/bin/time -v mzn-chuffed lbbd-datasets/planningandscheduling/cost-insts/model.mzn lbbd-datasets/planningandscheduling/cost-insts/df22j3m4.dzn
% No search annotation given. Defaulting to VSIDS!
obj = 1003
----------
obj = 939
----------
obj = 931
----------
obj = 927
----------
obj = 914
----------
obj = 911
----------
obj = 910
----------
obj = 909
----------
obj = 907
----------
obj = 898
----------
obj = 894
----------
obj = 890
----------
obj = 889
----------
obj = 880
----------
obj = 876
----------
obj = 875
----------
obj = 871
----------
obj = 867
----------
obj = 866
----------
obj = 862
----------
obj = 856
----------
obj = 852
----------
obj = 843
----------
obj = 839
----------
obj = 835
----------
obj = 825
----------
obj = 816
----------
obj = 812
----------
obj = 811
----------
obj = 806
----------
obj = 802
----------
obj = 788
----------
obj = 784
----------
obj = 778
----------
obj = 774
----------
obj = 771
----------
obj = 765
----------
obj = 761
----------
obj = 756
----------
obj = 752
----------
obj = 751
----------
obj = 750
----------
obj = 749
----------
obj = 748
----------
obj = 740
----------
obj = 730
----------
obj = 721
----------
obj = 720
----------
obj = 718
----------
obj = 708
----------
obj = 707
----------
obj = 700
----------
obj = 699
----------
obj = 694
----------
obj = 686
----------
obj = 683
----------
obj = 680
----------
obj = 678
----------
obj = 661
----------
obj = 651
----------
obj = 648
----------
obj = 638
----------
obj = 630
----------
obj = 627
----------
obj = 617
----------
obj = 615
----------
obj = 605
----------
obj = 602
----------
obj = 592
----------
obj = 588
----------
obj = 585
----------
obj = 575
----------
obj = 573
----------
obj = 569
----------
obj = 559
----------
obj = 556
----------
obj = 546
----------
obj = 545
----------
obj = 542
----------
obj = 532
----------
obj = 530
----------
obj = 527
----------
obj = 526
----------
obj = 521
----------
obj = 517
----------
obj = 511
----------
obj = 510
----------
==========
	Command being timed: "mzn-chuffed lbbd-datasets/planningandscheduling/cost-insts/model.mzn lbbd-datasets/planningandscheduling/cost-insts/df22j3m4.dzn"
	User time (seconds): 0.22
	System time (seconds): 0.00
	Percent of CPU this job got: 41%
	Elapsed (wall clock) time (h:mm:ss or m:ss): 0:00.55
	Average shared text size (kbytes): 0
	Average unshared data size (kbytes): 0
	Average stack size (kbytes): 0
	Average total size (kbytes): 0
	Maximum resident set size (kbytes): 29312
	Average resident set size (kbytes): 0
	Major (requiring I/O) page faults: 0
	Minor (reclaiming a frame) page faults: 2523
	Voluntary context switches: 93
	Involuntary context switches: 4
	Swaps: 0
	File system inputs: 0
	File system outputs: 104
	Socket messages sent: 0
	Socket messages received: 0
	Signals delivered: 0
	Page size (bytes): 4096
	Exit status: 0
