+ /usr/bin/timeout 600 /usr/bin/time -v mzn-chuffed lbbd-datasets/planningandscheduling/cost-insts/model.mzn lbbd-datasets/planningandscheduling/cost-insts/c24j2m2.dzn
% No search annotation given. Defaulting to VSIDS!
obj = 719
----------
obj = 698
----------
obj = 697
----------
obj = 679
----------
obj = 669
----------
obj = 660
----------
obj = 652
----------
obj = 637
----------
obj = 623
----------
obj = 606
----------
obj = 584
----------
obj = 570
----------
obj = 563
----------
obj = 549
----------
obj = 537
----------
obj = 523
----------
obj = 520
----------
obj = 516
----------
obj = 505
----------
obj = 492
----------
obj = 488
----------
obj = 487
----------
obj = 476
----------
obj = 475
----------
obj = 474
----------
obj = 472
----------
==========
	Command being timed: "mzn-chuffed lbbd-datasets/planningandscheduling/cost-insts/model.mzn lbbd-datasets/planningandscheduling/cost-insts/c24j2m2.dzn"
	User time (seconds): 0.22
	System time (seconds): 0.00
	Percent of CPU this job got: 0%
	Elapsed (wall clock) time (h:mm:ss or m:ss): 4:14.66
	Average shared text size (kbytes): 0
	Average unshared data size (kbytes): 0
	Average stack size (kbytes): 0
	Average total size (kbytes): 0
	Maximum resident set size (kbytes): 28880
	Average resident set size (kbytes): 0
	Major (requiring I/O) page faults: 0
	Minor (reclaiming a frame) page faults: 2462
	Voluntary context switches: 32
	Involuntary context switches: 3
	Swaps: 0
	File system inputs: 0
	File system outputs: 128
	Socket messages sent: 0
	Socket messages received: 0
	Signals delivered: 0
	Page size (bytes): 4096
	Exit status: 0
