+ /usr/bin/timeout 600 /usr/bin/time -v mzn-chuffed lbbd-datasets/Rabadi-2006/dzn-p-dominant/model.mzn lbbd-datasets/Rabadi-2006/dzn-p-dominant/9on2Rp50Rs50_12Ameer.dzn
% No search annotation given. Defaulting to VSIDS!
assign = array1d(1..11 ,[2, 2, 2, 2, 2, 2, 2, 2, 2, 1, 2]);
next = array1d(1..11 ,[2, 3, 4, 5, 6, 7, 8, 9, 11, 1, 10]);
makespan = 1954;
----------
assign = array1d(1..11 ,[2, 2, 2, 2, 2, 2, 2, 2, 2, 1, 2]);
next = array1d(1..11 ,[4, 3, 6, 2, 7, 5, 8, 9, 11, 1, 10]);
makespan = 1942;
----------
assign = array1d(1..11 ,[2, 2, 2, 2, 2, 1, 2, 2, 2, 1, 2]);
next = array1d(1..11 ,[9, 4, 5, 8, 1, 10, 2, 3, 11, 7, 6]);
makespan = 1820;
----------
assign = array1d(1..11 ,[2, 2, 2, 2, 2, 1, 2, 2, 2, 1, 2]);
next = array1d(1..11 ,[9, 4, 11, 1, 2, 10, 5, 3, 8, 7, 6]);
makespan = 1819;
----------
assign = array1d(1..11 ,[2, 2, 2, 1, 2, 2, 2, 2, 2, 1, 2]);
next = array1d(1..11 ,[8, 9, 5, 10, 2, 7, 1, 3, 11, 6, 4]);
makespan = 1817;
----------
assign = array1d(1..11 ,[2, 2, 2, 2, 2, 1, 2, 2, 2, 1, 2]);
next = array1d(1..11 ,[8, 7, 2, 1, 9, 10, 5, 3, 11, 4, 6]);
makespan = 1808;
----------
assign = array1d(1..11 ,[2, 2, 1, 2, 2, 2, 2, 2, 2, 1, 2]);
next = array1d(1..11 ,[5, 8, 10, 9, 11, 1, 6, 7, 2, 4, 3]);
makespan = 1807;
----------
assign = array1d(1..11 ,[2, 2, 1, 2, 2, 2, 2, 2, 2, 1, 2]);
next = array1d(1..11 ,[5, 8, 10, 9, 11, 1, 6, 7, 2, 4, 3]);
makespan = 1803;
----------
assign = array1d(1..11 ,[2, 2, 1, 2, 2, 2, 2, 2, 2, 1, 2]);
next = array1d(1..11 ,[5, 8, 10, 9, 11, 1, 6, 7, 2, 4, 3]);
makespan = 1800;
----------
assign = array1d(1..11 ,[2, 2, 1, 2, 2, 2, 2, 2, 2, 1, 2]);
next = array1d(1..11 ,[5, 8, 10, 9, 4, 1, 6, 7, 11, 2, 3]);
makespan = 1799;
----------
assign = array1d(1..11 ,[2, 2, 1, 2, 2, 2, 2, 2, 2, 1, 2]);
next = array1d(1..11 ,[5, 4, 10, 9, 2, 1, 11, 7, 8, 6, 3]);
makespan = 1794;
----------
assign = array1d(1..11 ,[2, 2, 1, 2, 2, 2, 2, 2, 2, 1, 2]);
next = array1d(1..11 ,[5, 4, 10, 9, 2, 1, 11, 7, 8, 6, 3]);
makespan = 1792;
----------
assign = array1d(1..11 ,[2, 2, 1, 2, 2, 2, 2, 2, 2, 1, 2]);
next = array1d(1..11 ,[5, 4, 10, 9, 2, 1, 11, 7, 8, 6, 3]);
makespan = 1790;
----------
assign = array1d(1..11 ,[2, 2, 1, 2, 2, 2, 2, 2, 2, 1, 2]);
next = array1d(1..11 ,[5, 4, 10, 9, 2, 1, 11, 7, 8, 6, 3]);
makespan = 1789;
----------
assign = array1d(1..11 ,[2, 2, 1, 2, 2, 2, 2, 2, 2, 1, 2]);
next = array1d(1..11 ,[5, 4, 10, 9, 2, 1, 11, 7, 8, 6, 3]);
makespan = 1787;
----------
assign = array1d(1..11 ,[2, 2, 1, 2, 2, 2, 2, 2, 2, 1, 2]);
next = array1d(1..11 ,[5, 8, 10, 9, 2, 1, 4, 7, 11, 6, 3]);
makespan = 1785;
----------
assign = array1d(1..11 ,[2, 2, 1, 2, 2, 2, 2, 2, 2, 1, 2]);
next = array1d(1..11 ,[5, 11, 10, 9, 2, 1, 4, 7, 6, 8, 3]);
makespan = 1782;
----------
assign = array1d(1..11 ,[2, 2, 1, 2, 2, 2, 2, 2, 2, 1, 2]);
next = array1d(1..11 ,[5, 11, 10, 9, 2, 1, 4, 7, 6, 8, 3]);
makespan = 1781;
----------
assign = array1d(1..11 ,[2, 2, 1, 2, 2, 2, 2, 2, 2, 1, 2]);
next = array1d(1..11 ,[5, 11, 10, 9, 2, 1, 4, 7, 6, 8, 3]);
makespan = 1780;
----------
assign = array1d(1..11 ,[2, 2, 1, 2, 2, 2, 2, 2, 2, 1, 2]);
next = array1d(1..11 ,[5, 11, 10, 9, 2, 1, 4, 7, 6, 8, 3]);
makespan = 1779;
----------
assign = array1d(1..11 ,[2, 2, 1, 2, 2, 2, 2, 2, 2, 1, 2]);
next = array1d(1..11 ,[5, 11, 10, 9, 2, 1, 4, 7, 6, 8, 3]);
makespan = 1776;
----------
assign = array1d(1..11 ,[2, 2, 1, 2, 2, 2, 2, 2, 2, 1, 2]);
next = array1d(1..11 ,[5, 11, 10, 9, 2, 1, 4, 7, 6, 8, 3]);
makespan = 1772;
----------
assign = array1d(1..11 ,[2, 2, 1, 2, 2, 2, 2, 1, 2, 1, 2]);
next = array1d(1..11 ,[5, 4, 10, 9, 2, 1, 6, 3, 11, 7, 8]);
makespan = 1762;
----------
assign = array1d(1..11 ,[2, 2, 2, 2, 2, 1, 2, 2, 2, 1, 2]);
next = array1d(1..11 ,[5, 11, 1, 9, 2, 10, 4, 7, 3, 8, 6]);
makespan = 1761;
----------
assign = array1d(1..11 ,[2, 2, 1, 2, 2, 1, 2, 2, 2, 1, 2]);
next = array1d(1..11 ,[5, 4, 10, 9, 2, 3, 11, 7, 8, 1, 6]);
makespan = 1742;
----------
assign = array1d(1..11 ,[2, 2, 1, 2, 2, 1, 2, 2, 2, 1, 2]);
next = array1d(1..11 ,[5, 4, 10, 9, 2, 3, 11, 7, 8, 1, 6]);
makespan = 1730;
----------
assign = array1d(1..11 ,[2, 2, 1, 2, 2, 1, 2, 2, 2, 1, 2]);
next = array1d(1..11 ,[5, 4, 10, 9, 2, 3, 11, 7, 8, 1, 6]);
makespan = 1726;
----------
assign = array1d(1..11 ,[2, 2, 1, 2, 2, 1, 2, 2, 2, 1, 2]);
next = array1d(1..11 ,[5, 4, 10, 9, 2, 3, 11, 7, 8, 1, 6]);
makespan = 1722;
----------
assign = array1d(1..11 ,[2, 2, 1, 2, 2, 1, 2, 2, 2, 1, 2]);
next = array1d(1..11 ,[5, 4, 10, 9, 2, 3, 11, 7, 8, 1, 6]);
makespan = 1721;
----------
assign = array1d(1..11 ,[2, 2, 1, 2, 2, 1, 2, 2, 2, 1, 2]);
next = array1d(1..11 ,[5, 4, 10, 9, 2, 3, 11, 7, 8, 1, 6]);
makespan = 1720;
----------
assign = array1d(1..11 ,[2, 2, 1, 2, 2, 1, 2, 2, 2, 1, 2]);
next = array1d(1..11 ,[5, 4, 10, 9, 2, 3, 11, 7, 8, 1, 6]);
makespan = 1715;
----------
assign = array1d(1..11 ,[2, 2, 1, 2, 2, 1, 2, 2, 2, 1, 2]);
next = array1d(1..11 ,[5, 4, 10, 9, 2, 3, 11, 7, 8, 1, 6]);
makespan = 1714;
----------
assign = array1d(1..11 ,[2, 2, 1, 2, 2, 1, 2, 2, 2, 1, 2]);
next = array1d(1..11 ,[5, 4, 10, 9, 2, 3, 11, 7, 8, 1, 6]);
makespan = 1712;
----------
assign = array1d(1..11 ,[2, 2, 1, 2, 2, 1, 2, 2, 2, 1, 2]);
next = array1d(1..11 ,[5, 4, 10, 9, 2, 3, 11, 7, 8, 1, 6]);
makespan = 1711;
----------
assign = array1d(1..11 ,[2, 2, 1, 2, 2, 1, 2, 2, 2, 1, 2]);
next = array1d(1..11 ,[5, 4, 10, 9, 2, 3, 11, 7, 8, 1, 6]);
makespan = 1709;
----------
assign = array1d(1..11 ,[2, 2, 1, 2, 2, 1, 2, 2, 2, 1, 2]);
next = array1d(1..11 ,[5, 4, 10, 9, 2, 3, 11, 7, 8, 1, 6]);
makespan = 1705;
----------
assign = array1d(1..11 ,[2, 2, 1, 2, 2, 1, 2, 2, 2, 1, 2]);
next = array1d(1..11 ,[5, 4, 10, 9, 2, 3, 11, 7, 8, 1, 6]);
makespan = 1669;
----------
assign = array1d(1..11 ,[2, 2, 1, 2, 2, 1, 2, 2, 2, 1, 2]);
next = array1d(1..11 ,[5, 4, 10, 9, 2, 3, 11, 7, 8, 1, 6]);
makespan = 1657;
----------
assign = array1d(1..11 ,[2, 2, 1, 2, 2, 1, 2, 2, 2, 1, 2]);
next = array1d(1..11 ,[5, 4, 10, 9, 2, 3, 11, 7, 8, 1, 6]);
makespan = 1653;
----------
assign = array1d(1..11 ,[2, 2, 1, 2, 2, 1, 2, 2, 2, 1, 2]);
next = array1d(1..11 ,[5, 4, 10, 9, 2, 3, 11, 7, 8, 1, 6]);
makespan = 1650;
----------
assign = array1d(1..11 ,[2, 2, 1, 2, 2, 1, 2, 2, 2, 1, 2]);
next = array1d(1..11 ,[5, 4, 10, 9, 2, 3, 11, 7, 8, 1, 6]);
makespan = 1647;
----------
assign = array1d(1..11 ,[2, 2, 1, 2, 2, 1, 2, 2, 2, 1, 2]);
next = array1d(1..11 ,[5, 4, 10, 9, 2, 3, 11, 7, 8, 1, 6]);
makespan = 1642;
----------
assign = array1d(1..11 ,[2, 2, 1, 2, 2, 1, 2, 2, 2, 1, 2]);
next = array1d(1..11 ,[5, 4, 10, 9, 2, 3, 11, 7, 8, 1, 6]);
makespan = 1641;
----------
assign = array1d(1..11 ,[2, 2, 1, 2, 2, 1, 2, 2, 2, 1, 2]);
next = array1d(1..11 ,[5, 4, 10, 9, 2, 3, 11, 7, 8, 1, 6]);
makespan = 1639;
----------
assign = array1d(1..11 ,[2, 2, 1, 2, 2, 1, 2, 2, 2, 1, 2]);
next = array1d(1..11 ,[5, 4, 10, 9, 2, 3, 11, 7, 8, 1, 6]);
makespan = 1638;
----------
assign = array1d(1..11 ,[2, 2, 1, 2, 2, 1, 2, 2, 2, 1, 2]);
next = array1d(1..11 ,[5, 4, 10, 9, 2, 3, 11, 7, 8, 1, 6]);
makespan = 1636;
----------
assign = array1d(1..11 ,[2, 2, 1, 2, 2, 1, 2, 2, 2, 1, 2]);
next = array1d(1..11 ,[5, 4, 10, 9, 2, 3, 11, 7, 8, 1, 6]);
makespan = 1630;
----------
assign = array1d(1..11 ,[2, 2, 1, 2, 2, 1, 2, 2, 2, 1, 2]);
next = array1d(1..11 ,[5, 4, 10, 9, 2, 3, 11, 7, 8, 1, 6]);
makespan = 1629;
----------
assign = array1d(1..11 ,[2, 2, 1, 2, 2, 1, 2, 2, 2, 1, 2]);
next = array1d(1..11 ,[5, 4, 10, 9, 2, 3, 11, 7, 8, 1, 6]);
makespan = 1626;
----------
assign = array1d(1..11 ,[2, 2, 1, 2, 2, 1, 2, 2, 2, 1, 2]);
next = array1d(1..11 ,[5, 4, 10, 9, 2, 3, 11, 7, 8, 1, 6]);
makespan = 1614;
----------
assign = array1d(1..11 ,[2, 2, 1, 2, 2, 1, 2, 2, 2, 1, 2]);
next = array1d(1..11 ,[5, 4, 10, 9, 2, 3, 11, 7, 8, 1, 6]);
makespan = 1607;
----------
assign = array1d(1..11 ,[2, 2, 1, 2, 2, 1, 2, 2, 2, 1, 2]);
next = array1d(1..11 ,[5, 4, 10, 9, 2, 3, 11, 7, 8, 1, 6]);
makespan = 1571;
----------
assign = array1d(1..11 ,[2, 2, 1, 2, 2, 1, 2, 2, 2, 1, 2]);
next = array1d(1..11 ,[5, 4, 10, 9, 2, 3, 11, 7, 8, 1, 6]);
makespan = 1562;
----------
assign = array1d(1..11 ,[2, 2, 1, 2, 2, 1, 2, 2, 2, 1, 2]);
next = array1d(1..11 ,[5, 4, 10, 9, 2, 3, 11, 7, 8, 1, 6]);
makespan = 1561;
----------
assign = array1d(1..11 ,[2, 2, 1, 2, 2, 1, 2, 2, 2, 1, 2]);
next = array1d(1..11 ,[5, 4, 10, 9, 2, 3, 11, 7, 8, 1, 6]);
makespan = 1547;
----------
assign = array1d(1..11 ,[2, 2, 1, 2, 2, 1, 2, 2, 2, 1, 2]);
next = array1d(1..11 ,[5, 11, 10, 9, 2, 3, 1, 7, 8, 4, 6]);
makespan = 1526;
----------
assign = array1d(1..11 ,[1, 2, 1, 2, 2, 1, 2, 2, 2, 1, 2]);
next = array1d(1..11 ,[3, 4, 6, 9, 2, 10, 11, 7, 8, 5, 1]);
makespan = 1506;
----------
assign = array1d(1..11 ,[1, 2, 1, 2, 2, 1, 2, 2, 2, 1, 2]);
next = array1d(1..11 ,[6, 4, 10, 9, 2, 3, 11, 7, 8, 5, 1]);
makespan = 1504;
----------
assign = array1d(1..11 ,[1, 2, 1, 2, 2, 1, 2, 2, 2, 1, 2]);
next = array1d(1..11 ,[6, 4, 10, 9, 2, 3, 11, 7, 8, 5, 1]);
makespan = 1502;
----------
assign = array1d(1..11 ,[1, 2, 1, 2, 2, 1, 2, 2, 2, 1, 2]);
next = array1d(1..11 ,[6, 4, 10, 9, 2, 3, 11, 7, 8, 5, 1]);
makespan = 1501;
----------
assign = array1d(1..11 ,[1, 2, 1, 2, 2, 1, 2, 2, 2, 1, 2]);
next = array1d(1..11 ,[6, 4, 10, 9, 2, 3, 11, 7, 8, 5, 1]);
makespan = 1498;
----------
assign = array1d(1..11 ,[1, 2, 1, 2, 2, 1, 2, 2, 2, 1, 2]);
next = array1d(1..11 ,[6, 4, 10, 9, 2, 3, 11, 7, 8, 5, 1]);
makespan = 1496;
----------
assign = array1d(1..11 ,[1, 2, 1, 2, 2, 1, 2, 2, 2, 1, 2]);
next = array1d(1..11 ,[6, 4, 10, 9, 2, 3, 11, 7, 8, 5, 1]);
makespan = 1495;
----------
assign = array1d(1..11 ,[1, 2, 1, 2, 2, 1, 2, 2, 2, 1, 2]);
next = array1d(1..11 ,[6, 4, 10, 9, 2, 3, 11, 7, 8, 5, 1]);
makespan = 1490;
----------
assign = array1d(1..11 ,[1, 2, 1, 2, 2, 1, 2, 2, 2, 1, 2]);
next = array1d(1..11 ,[6, 4, 10, 9, 2, 3, 11, 7, 8, 5, 1]);
makespan = 1485;
----------
assign = array1d(1..11 ,[1, 2, 1, 2, 2, 1, 2, 2, 2, 1, 2]);
next = array1d(1..11 ,[6, 4, 10, 9, 2, 3, 11, 7, 8, 5, 1]);
makespan = 1484;
----------
assign = array1d(1..11 ,[1, 2, 1, 2, 2, 1, 2, 2, 2, 1, 2]);
next = array1d(1..11 ,[6, 4, 10, 9, 2, 3, 11, 7, 8, 5, 1]);
makespan = 1480;
----------
assign = array1d(1..11 ,[1, 2, 1, 2, 2, 1, 2, 2, 2, 1, 2]);
next = array1d(1..11 ,[6, 4, 10, 9, 2, 3, 11, 7, 8, 5, 1]);
makespan = 1477;
----------
assign = array1d(1..11 ,[1, 2, 1, 2, 2, 1, 2, 2, 2, 1, 2]);
next = array1d(1..11 ,[6, 4, 10, 9, 2, 3, 11, 7, 8, 5, 1]);
makespan = 1476;
----------
assign = array1d(1..11 ,[1, 2, 1, 2, 2, 1, 2, 2, 2, 1, 2]);
next = array1d(1..11 ,[6, 4, 10, 9, 2, 3, 11, 7, 8, 5, 1]);
makespan = 1474;
----------
assign = array1d(1..11 ,[1, 2, 1, 2, 2, 1, 2, 2, 2, 1, 2]);
next = array1d(1..11 ,[6, 4, 10, 9, 2, 3, 11, 7, 8, 5, 1]);
makespan = 1463;
----------
assign = array1d(1..11 ,[1, 2, 1, 2, 2, 1, 2, 2, 2, 1, 2]);
next = array1d(1..11 ,[6, 4, 10, 9, 2, 3, 11, 7, 8, 5, 1]);
makespan = 1462;
----------
assign = array1d(1..11 ,[1, 2, 1, 2, 2, 1, 2, 2, 2, 1, 2]);
next = array1d(1..11 ,[6, 4, 10, 9, 2, 3, 11, 7, 8, 5, 1]);
makespan = 1460;
----------
assign = array1d(1..11 ,[1, 2, 1, 2, 2, 1, 2, 2, 2, 1, 2]);
next = array1d(1..11 ,[6, 4, 10, 9, 2, 3, 11, 7, 8, 5, 1]);
makespan = 1456;
----------
assign = array1d(1..11 ,[1, 2, 1, 2, 2, 1, 2, 2, 2, 1, 2]);
next = array1d(1..11 ,[6, 4, 10, 9, 2, 3, 11, 7, 8, 5, 1]);
makespan = 1455;
----------
assign = array1d(1..11 ,[1, 2, 1, 2, 2, 1, 2, 2, 2, 1, 2]);
next = array1d(1..11 ,[6, 4, 10, 9, 2, 3, 11, 7, 8, 5, 1]);
makespan = 1453;
----------
assign = array1d(1..11 ,[1, 2, 1, 2, 2, 1, 2, 2, 2, 1, 2]);
next = array1d(1..11 ,[6, 4, 10, 9, 2, 3, 11, 7, 8, 5, 1]);
makespan = 1440;
----------
assign = array1d(1..11 ,[1, 2, 1, 2, 2, 1, 2, 2, 2, 1, 2]);
next = array1d(1..11 ,[6, 4, 10, 9, 2, 3, 11, 7, 8, 5, 1]);
makespan = 1403;
----------
assign = array1d(1..11 ,[1, 2, 1, 2, 2, 1, 2, 2, 2, 1, 2]);
next = array1d(1..11 ,[6, 4, 10, 9, 2, 3, 11, 7, 8, 5, 1]);
makespan = 1402;
----------
assign = array1d(1..11 ,[1, 2, 1, 2, 2, 1, 2, 2, 2, 1, 2]);
next = array1d(1..11 ,[6, 4, 10, 9, 2, 3, 11, 7, 8, 5, 1]);
makespan = 1367;
----------
assign = array1d(1..11 ,[1, 2, 1, 2, 2, 1, 2, 2, 2, 1, 2]);
next = array1d(1..11 ,[6, 4, 10, 9, 2, 3, 11, 7, 8, 5, 1]);
makespan = 1350;
----------
assign = array1d(1..11 ,[1, 2, 1, 2, 2, 1, 2, 2, 2, 1, 2]);
next = array1d(1..11 ,[6, 4, 10, 9, 2, 3, 11, 7, 8, 5, 1]);
makespan = 1341;
----------
assign = array1d(1..11 ,[1, 2, 1, 2, 2, 1, 2, 2, 2, 1, 2]);
next = array1d(1..11 ,[6, 4, 10, 9, 2, 3, 11, 7, 8, 5, 1]);
makespan = 1329;
----------
assign = array1d(1..11 ,[1, 2, 1, 2, 2, 1, 2, 2, 2, 1, 2]);
next = array1d(1..11 ,[6, 4, 10, 9, 2, 3, 11, 7, 8, 5, 1]);
makespan = 1322;
----------
assign = array1d(1..11 ,[1, 2, 1, 2, 2, 1, 2, 2, 2, 1, 2]);
next = array1d(1..11 ,[6, 4, 10, 9, 2, 3, 11, 7, 8, 5, 1]);
makespan = 1311;
----------
assign = array1d(1..11 ,[1, 2, 1, 2, 2, 1, 2, 2, 2, 1, 2]);
next = array1d(1..11 ,[6, 4, 10, 9, 2, 3, 11, 7, 8, 5, 1]);
makespan = 1310;
----------
assign = array1d(1..11 ,[1, 2, 1, 2, 2, 1, 2, 2, 2, 1, 2]);
next = array1d(1..11 ,[6, 4, 10, 9, 2, 3, 11, 7, 8, 5, 1]);
makespan = 1306;
----------
assign = array1d(1..11 ,[1, 2, 1, 2, 2, 1, 2, 2, 2, 1, 2]);
next = array1d(1..11 ,[6, 4, 10, 9, 2, 3, 11, 7, 8, 5, 1]);
makespan = 1289;
----------
assign = array1d(1..11 ,[1, 2, 1, 2, 2, 1, 2, 2, 2, 1, 2]);
next = array1d(1..11 ,[6, 4, 10, 9, 2, 3, 11, 7, 8, 5, 1]);
makespan = 1286;
----------
assign = array1d(1..11 ,[1, 2, 1, 2, 2, 1, 2, 2, 2, 1, 2]);
next = array1d(1..11 ,[6, 8, 10, 9, 2, 3, 4, 7, 11, 5, 1]);
makespan = 1284;
----------
assign = array1d(1..11 ,[1, 2, 1, 2, 2, 1, 2, 2, 2, 1, 2]);
next = array1d(1..11 ,[6, 11, 10, 9, 2, 3, 4, 7, 5, 8, 1]);
makespan = 1279;
----------
assign = array1d(1..11 ,[1, 2, 1, 1, 2, 1, 2, 2, 2, 1, 2]);
next = array1d(1..11 ,[6, 11, 4, 1, 2, 10, 5, 7, 8, 9, 3]);
makespan = 1277;
----------
assign = array1d(1..11 ,[1, 2, 1, 1, 2, 1, 2, 2, 2, 1, 2]);
next = array1d(1..11 ,[6, 11, 4, 1, 2, 10, 5, 7, 8, 9, 3]);
makespan = 1238;
----------
assign = array1d(1..11 ,[1, 2, 1, 1, 2, 1, 2, 2, 2, 1, 2]);
next = array1d(1..11 ,[6, 11, 4, 1, 2, 10, 5, 7, 8, 9, 3]);
makespan = 1234;
----------
assign = array1d(1..11 ,[1, 2, 1, 1, 2, 1, 2, 2, 2, 1, 2]);
next = array1d(1..11 ,[6, 11, 4, 1, 2, 10, 5, 7, 8, 9, 3]);
makespan = 1233;
----------
assign = array1d(1..11 ,[1, 2, 1, 1, 2, 1, 2, 2, 2, 1, 2]);
next = array1d(1..11 ,[6, 11, 4, 1, 2, 10, 5, 7, 8, 9, 3]);
makespan = 1231;
----------
assign = array1d(1..11 ,[1, 2, 1, 1, 2, 1, 2, 2, 2, 1, 2]);
next = array1d(1..11 ,[6, 11, 4, 1, 2, 10, 5, 7, 8, 9, 3]);
makespan = 1214;
----------
assign = array1d(1..11 ,[1, 2, 1, 1, 2, 1, 2, 2, 2, 1, 2]);
next = array1d(1..11 ,[6, 11, 4, 1, 2, 10, 5, 7, 8, 9, 3]);
makespan = 1210;
----------
assign = array1d(1..11 ,[1, 2, 1, 1, 2, 1, 2, 2, 2, 1, 2]);
next = array1d(1..11 ,[6, 11, 4, 1, 2, 10, 5, 7, 8, 9, 3]);
makespan = 1204;
----------
assign = array1d(1..11 ,[1, 2, 1, 1, 2, 1, 2, 2, 2, 1, 2]);
next = array1d(1..11 ,[6, 11, 4, 1, 2, 10, 5, 7, 8, 9, 3]);
makespan = 1195;
----------
assign = array1d(1..11 ,[1, 2, 1, 1, 2, 1, 2, 2, 2, 1, 2]);
next = array1d(1..11 ,[6, 11, 4, 1, 2, 10, 5, 7, 8, 9, 3]);
makespan = 1193;
----------
assign = array1d(1..11 ,[1, 2, 1, 1, 2, 1, 2, 2, 2, 1, 2]);
next = array1d(1..11 ,[6, 11, 4, 1, 2, 10, 5, 7, 8, 9, 3]);
makespan = 1187;
----------
assign = array1d(1..11 ,[1, 2, 1, 1, 2, 1, 2, 2, 2, 1, 2]);
next = array1d(1..11 ,[6, 11, 4, 1, 2, 10, 5, 7, 8, 9, 3]);
makespan = 1181;
----------
assign = array1d(1..11 ,[1, 2, 1, 1, 2, 1, 2, 2, 2, 1, 2]);
next = array1d(1..11 ,[6, 11, 4, 1, 2, 10, 5, 7, 8, 9, 3]);
makespan = 1179;
----------
assign = array1d(1..11 ,[1, 2, 1, 1, 2, 1, 2, 2, 2, 1, 2]);
next = array1d(1..11 ,[6, 11, 4, 1, 2, 10, 5, 7, 8, 9, 3]);
makespan = 1176;
----------
assign = array1d(1..11 ,[1, 2, 1, 1, 2, 1, 2, 2, 2, 1, 2]);
next = array1d(1..11 ,[6, 11, 4, 1, 2, 10, 5, 7, 8, 9, 3]);
makespan = 1175;
----------
assign = array1d(1..11 ,[1, 2, 1, 1, 2, 1, 2, 2, 2, 1, 2]);
next = array1d(1..11 ,[6, 11, 4, 1, 2, 10, 5, 7, 8, 9, 3]);
makespan = 1174;
----------
assign = array1d(1..11 ,[1, 2, 1, 1, 2, 1, 2, 2, 2, 1, 2]);
next = array1d(1..11 ,[6, 11, 4, 1, 2, 10, 5, 7, 8, 9, 3]);
makespan = 1149;
----------
assign = array1d(1..11 ,[1, 2, 1, 1, 2, 1, 2, 2, 2, 1, 2]);
next = array1d(1..11 ,[6, 11, 4, 1, 2, 10, 5, 7, 8, 9, 3]);
makespan = 1144;
----------
assign = array1d(1..11 ,[1, 2, 1, 1, 2, 1, 2, 2, 2, 1, 2]);
next = array1d(1..11 ,[6, 11, 4, 1, 2, 10, 5, 7, 8, 9, 3]);
makespan = 1141;
----------
assign = array1d(1..11 ,[1, 2, 1, 1, 2, 1, 2, 2, 2, 1, 2]);
next = array1d(1..11 ,[6, 11, 4, 1, 2, 10, 5, 7, 8, 9, 3]);
makespan = 1135;
----------
assign = array1d(1..11 ,[1, 2, 1, 1, 2, 1, 2, 2, 2, 1, 2]);
next = array1d(1..11 ,[6, 11, 4, 1, 2, 10, 5, 7, 8, 9, 3]);
makespan = 1120;
----------
assign = array1d(1..11 ,[1, 2, 1, 1, 2, 1, 2, 2, 2, 1, 2]);
next = array1d(1..11 ,[6, 11, 4, 1, 2, 10, 5, 7, 8, 9, 3]);
makespan = 1080;
----------
assign = array1d(1..11 ,[1, 2, 1, 1, 2, 1, 2, 2, 2, 1, 2]);
next = array1d(1..11 ,[6, 11, 4, 1, 2, 10, 5, 7, 8, 9, 3]);
makespan = 1064;
----------
assign = array1d(1..11 ,[1, 2, 1, 1, 2, 1, 2, 2, 2, 1, 2]);
next = array1d(1..11 ,[6, 9, 4, 1, 2, 10, 11, 7, 8, 5, 3]);
makespan = 1047;
----------
assign = array1d(1..11 ,[1, 2, 1, 1, 2, 1, 2, 2, 2, 1, 2]);
next = array1d(1..11 ,[6, 9, 4, 1, 2, 10, 11, 7, 8, 5, 3]);
makespan = 1041;
----------
assign = array1d(1..11 ,[1, 2, 1, 1, 2, 2, 2, 2, 1, 1, 2]);
next = array1d(1..11 ,[10, 11, 4, 9, 2, 8, 5, 7, 1, 6, 3]);
makespan = 1038;
----------
assign = array1d(1..11 ,[1, 2, 1, 2, 2, 1, 2, 2, 1, 1, 2]);
next = array1d(1..11 ,[6, 11, 9, 8, 2, 10, 5, 7, 1, 4, 3]);
makespan = 1037;
----------
assign = array1d(1..11 ,[1, 2, 2, 1, 2, 1, 2, 2, 1, 1, 2]);
next = array1d(1..11 ,[6, 3, 8, 9, 2, 10, 11, 7, 1, 5, 4]);
makespan = 1026;
----------
assign = array1d(1..11 ,[1, 2, 2, 1, 2, 1, 2, 2, 1, 1, 2]);
next = array1d(1..11 ,[6, 3, 8, 9, 2, 10, 11, 7, 1, 5, 4]);
makespan = 1009;
----------
assign = array1d(1..11 ,[1, 2, 1, 1, 2, 1, 2, 2, 1, 1, 2]);
next = array1d(1..11 ,[10, 11, 1, 9, 2, 3, 5, 7, 6, 8, 4]);
makespan = 1002;
----------
assign = array1d(1..11 ,[1, 1, 1, 2, 2, 1, 2, 1, 2, 1, 2]);
next = array1d(1..11 ,[6, 8, 10, 11, 9, 3, 5, 1, 4, 7, 2]);
makespan = 993;
----------
assign = array1d(1..11 ,[2, 2, 1, 1, 2, 1, 2, 1, 1, 1, 2]);
next = array1d(1..11 ,[7, 1, 10, 8, 2, 3, 11, 6, 4, 5, 9]);
makespan = 992;
----------
assign = array1d(1..11 ,[2, 2, 1, 1, 2, 1, 2, 1, 1, 1, 2]);
next = array1d(1..11 ,[5, 1, 10, 8, 7, 3, 11, 6, 4, 2, 9]);
makespan = 990;
----------
assign = array1d(1..11 ,[2, 2, 1, 1, 2, 1, 2, 1, 1, 1, 2]);
next = array1d(1..11 ,[2, 5, 10, 8, 7, 3, 11, 6, 4, 1, 9]);
makespan = 989;
----------
assign = array1d(1..11 ,[2, 1, 2, 1, 1, 2, 2, 1, 1, 1, 2]);
next = array1d(1..11 ,[3, 5, 6, 8, 4, 7, 11, 10, 2, 1, 9]);
makespan = 988;
----------
assign = array1d(1..11 ,[1, 2, 2, 1, 2, 1, 2, 1, 1, 1, 2]);
next = array1d(1..11 ,[9, 5, 2, 8, 7, 4, 11, 10, 6, 3, 1]);
makespan = 987;
----------
assign = array1d(1..11 ,[2, 1, 2, 1, 2, 1, 2, 1, 1, 1, 2]);
next = array1d(1..11 ,[3, 10, 11, 8, 7, 2, 1, 9, 6, 5, 4]);
makespan = 986;
----------
assign = array1d(1..11 ,[1, 2, 2, 1, 2, 1, 2, 1, 1, 1, 2]);
next = array1d(1..11 ,[9, 5, 2, 8, 7, 4, 11, 10, 6, 3, 1]);
makespan = 985;
----------
assign = array1d(1..11 ,[2, 1, 2, 1, 1, 2, 1, 1, 2, 1, 2]);
next = array1d(1..11 ,[9, 5, 6, 8, 7, 11, 10, 2, 3, 1, 4]);
makespan = 984;
----------
assign = array1d(1..11 ,[2, 2, 2, 1, 1, 1, 1, 1, 2, 1, 2]);
next = array1d(1..11 ,[9, 11, 2, 8, 7, 4, 10, 5, 3, 1, 6]);
makespan = 982;
----------
assign = array1d(1..11 ,[2, 2, 2, 1, 1, 1, 1, 1, 2, 1, 2]);
next = array1d(1..11 ,[9, 11, 2, 8, 7, 4, 10, 5, 3, 1, 6]);
makespan = 981;
----------
assign = array1d(1..11 ,[2, 1, 1, 1, 2, 1, 2, 2, 1, 1, 2]);
next = array1d(1..11 ,[5, 3, 10, 2, 7, 4, 8, 11, 6, 1, 9]);
makespan = 980;
----------
assign = array1d(1..11 ,[2, 1, 2, 1, 2, 1, 1, 1, 2, 1, 2]);
next = array1d(1..11 ,[11, 7, 5, 6, 1, 8, 10, 2, 3, 9, 4]);
makespan = 979;
----------
assign = array1d(1..11 ,[2, 1, 1, 2, 2, 2, 2, 1, 1, 1, 2]);
next = array1d(1..11 ,[11, 9, 10, 7, 6, 4, 1, 2, 3, 5, 8]);
makespan = 978;
----------
assign = array1d(1..11 ,[1, 2, 1, 2, 2, 1, 2, 2, 1, 1, 2]);
next = array1d(1..11 ,[10, 5, 6, 8, 11, 1, 4, 2, 3, 7, 9]);
makespan = 977;
----------
assign = array1d(1..11 ,[1, 1, 2, 2, 2, 1, 1, 1, 2, 1, 2]);
next = array1d(1..11 ,[7, 8, 5, 11, 4, 10, 2, 6, 3, 9, 1]);
makespan = 976;
----------
assign = array1d(1..11 ,[1, 2, 1, 2, 2, 1, 2, 2, 1, 1, 2]);
next = array1d(1..11 ,[10, 4, 6, 5, 7, 1, 11, 2, 3, 8, 9]);
makespan = 975;
----------
assign = array1d(1..11 ,[1, 2, 1, 2, 2, 1, 1, 2, 1, 1, 2]);
next = array1d(1..11 ,[7, 4, 1, 8, 2, 3, 10, 11, 6, 5, 9]);
makespan = 974;
----------
assign = array1d(1..11 ,[2, 2, 1, 1, 1, 1, 2, 1, 2, 1, 2]);
next = array1d(1..11 ,[7, 11, 10, 8, 4, 3, 2, 6, 1, 9, 5]);
makespan = 973;
----------
assign = array1d(1..11 ,[2, 1, 2, 1, 1, 2, 1, 1, 2, 1, 2]);
next = array1d(1..11 ,[11, 4, 9, 10, 7, 3, 2, 5, 1, 6, 8]);
makespan = 972;
----------
assign = array1d(1..11 ,[2, 1, 2, 1, 2, 1, 1, 1, 2, 1, 2]);
next = array1d(1..11 ,[3, 4, 9, 10, 1, 2, 8, 6, 11, 5, 7]);
makespan = 971;
----------
assign = array1d(1..11 ,[2, 1, 1, 1, 2, 1, 2, 1, 2, 1, 2]);
next = array1d(1..11 ,[7, 3, 8, 6, 11, 10, 9, 4, 5, 1, 2]);
makespan = 970;
----------
assign = array1d(1..11 ,[2, 1, 1, 1, 2, 1, 2, 1, 2, 1, 2]);
next = array1d(1..11 ,[7, 3, 8, 6, 1, 10, 9, 4, 11, 5, 2]);
makespan = 969;
----------
assign = array1d(1..11 ,[2, 1, 2, 1, 2, 1, 1, 1, 2, 1, 2]);
next = array1d(1..11 ,[9, 8, 11, 6, 3, 7, 2, 10, 5, 1, 4]);
makespan = 968;
----------
assign = array1d(1..11 ,[2, 1, 2, 1, 1, 2, 1, 1, 2, 1, 2]);
next = array1d(1..11 ,[9, 8, 6, 5, 7, 1, 2, 10, 11, 3, 4]);
makespan = 967;
----------
assign = array1d(1..11 ,[2, 1, 2, 1, 1, 2, 1, 1, 2, 1, 2]);
next = array1d(1..11 ,[9, 8, 6, 5, 7, 1, 2, 10, 11, 3, 4]);
makespan = 966;
----------
assign = array1d(1..11 ,[2, 1, 2, 1, 1, 2, 1, 1, 2, 1, 2]);
next = array1d(1..11 ,[9, 8, 6, 5, 7, 1, 2, 10, 11, 3, 4]);
makespan = 965;
----------
assign = array1d(1..11 ,[2, 1, 2, 1, 1, 2, 1, 1, 2, 1, 2]);
next = array1d(1..11 ,[9, 8, 6, 5, 7, 1, 2, 10, 11, 3, 4]);
makespan = 964;
----------
assign = array1d(1..11 ,[2, 1, 2, 1, 1, 2, 1, 1, 2, 1, 2]);
next = array1d(1..11 ,[9, 8, 6, 5, 7, 1, 2, 10, 11, 3, 4]);
makespan = 963;
----------
assign = array1d(1..11 ,[2, 1, 2, 1, 1, 2, 1, 1, 2, 1, 2]);
next = array1d(1..11 ,[9, 8, 6, 5, 7, 1, 2, 10, 11, 3, 4]);
makespan = 962;
----------
assign = array1d(1..11 ,[2, 1, 2, 1, 1, 2, 1, 1, 2, 1, 2]);
next = array1d(1..11 ,[9, 8, 6, 5, 7, 1, 2, 10, 11, 3, 4]);
makespan = 961;
----------
assign = array1d(1..11 ,[2, 1, 2, 1, 1, 2, 1, 1, 2, 1, 2]);
next = array1d(1..11 ,[9, 8, 6, 5, 7, 1, 2, 10, 11, 3, 4]);
makespan = 960;
----------
assign = array1d(1..11 ,[2, 1, 2, 1, 1, 2, 1, 1, 2, 1, 2]);
next = array1d(1..11 ,[9, 8, 6, 5, 7, 1, 2, 10, 11, 3, 4]);
makespan = 959;
----------
assign = array1d(1..11 ,[2, 1, 2, 1, 1, 2, 1, 1, 2, 1, 2]);
next = array1d(1..11 ,[9, 8, 6, 5, 7, 1, 2, 10, 11, 3, 4]);
makespan = 958;
----------
assign = array1d(1..11 ,[2, 1, 2, 1, 1, 2, 1, 1, 2, 1, 2]);
next = array1d(1..11 ,[9, 8, 6, 5, 7, 1, 2, 10, 11, 3, 4]);
makespan = 957;
----------
assign = array1d(1..11 ,[2, 1, 2, 1, 1, 2, 1, 1, 2, 1, 2]);
next = array1d(1..11 ,[9, 8, 6, 5, 7, 1, 2, 10, 11, 3, 4]);
makespan = 956;
----------
assign = array1d(1..11 ,[2, 1, 2, 1, 1, 2, 1, 1, 2, 1, 2]);
next = array1d(1..11 ,[9, 8, 6, 5, 7, 1, 2, 10, 11, 3, 4]);
makespan = 955;
----------
assign = array1d(1..11 ,[2, 1, 2, 1, 1, 2, 1, 1, 2, 1, 2]);
next = array1d(1..11 ,[9, 8, 6, 5, 7, 1, 2, 10, 11, 3, 4]);
makespan = 954;
----------
assign = array1d(1..11 ,[2, 1, 2, 1, 1, 2, 1, 1, 2, 1, 2]);
next = array1d(1..11 ,[9, 8, 6, 5, 7, 1, 2, 10, 11, 3, 4]);
makespan = 953;
----------
assign = array1d(1..11 ,[2, 1, 2, 1, 1, 2, 1, 1, 2, 1, 2]);
next = array1d(1..11 ,[9, 8, 6, 5, 7, 1, 2, 10, 11, 3, 4]);
makespan = 952;
----------
assign = array1d(1..11 ,[2, 1, 2, 1, 1, 2, 1, 1, 2, 1, 2]);
next = array1d(1..11 ,[9, 8, 6, 5, 7, 1, 2, 10, 11, 3, 4]);
makespan = 951;
----------
assign = array1d(1..11 ,[2, 1, 2, 1, 1, 2, 1, 1, 2, 1, 2]);
next = array1d(1..11 ,[9, 8, 6, 5, 7, 1, 2, 10, 11, 3, 4]);
makespan = 950;
----------
assign = array1d(1..11 ,[2, 1, 2, 1, 1, 2, 1, 1, 2, 1, 2]);
next = array1d(1..11 ,[9, 8, 6, 5, 7, 1, 2, 10, 11, 3, 4]);
makespan = 949;
----------
assign = array1d(1..11 ,[2, 1, 2, 1, 1, 2, 1, 1, 2, 1, 2]);
next = array1d(1..11 ,[9, 8, 6, 5, 7, 1, 2, 10, 11, 3, 4]);
makespan = 948;
----------
assign = array1d(1..11 ,[2, 1, 2, 1, 1, 2, 1, 1, 2, 1, 2]);
next = array1d(1..11 ,[9, 8, 6, 5, 7, 1, 2, 10, 11, 3, 4]);
makespan = 947;
----------
assign = array1d(1..11 ,[2, 1, 2, 1, 1, 2, 1, 1, 2, 1, 2]);
next = array1d(1..11 ,[9, 8, 6, 5, 7, 1, 2, 10, 11, 3, 4]);
makespan = 946;
----------
assign = array1d(1..11 ,[2, 1, 2, 1, 1, 2, 1, 1, 2, 1, 2]);
next = array1d(1..11 ,[9, 8, 6, 10, 7, 1, 2, 4, 11, 3, 5]);
makespan = 945;
----------
assign = array1d(1..11 ,[2, 1, 2, 1, 1, 2, 1, 1, 2, 1, 2]);
next = array1d(1..11 ,[9, 8, 6, 10, 7, 1, 2, 4, 11, 3, 5]);
makespan = 944;
----------
assign = array1d(1..11 ,[2, 1, 2, 1, 1, 2, 1, 1, 2, 1, 2]);
next = array1d(1..11 ,[9, 8, 6, 10, 7, 1, 2, 4, 11, 3, 5]);
makespan = 943;
----------
assign = array1d(1..11 ,[2, 1, 2, 1, 1, 2, 1, 1, 2, 1, 2]);
next = array1d(1..11 ,[9, 8, 6, 10, 7, 1, 2, 4, 11, 3, 5]);
makespan = 942;
----------
assign = array1d(1..11 ,[2, 1, 2, 1, 1, 2, 1, 1, 2, 1, 2]);
next = array1d(1..11 ,[9, 8, 6, 10, 7, 1, 2, 4, 11, 3, 5]);
makespan = 941;
----------
assign = array1d(1..11 ,[2, 1, 2, 1, 1, 2, 1, 1, 2, 1, 2]);
next = array1d(1..11 ,[9, 8, 6, 10, 7, 1, 2, 4, 11, 3, 5]);
makespan = 940;
----------
assign = array1d(1..11 ,[2, 1, 2, 1, 1, 2, 1, 1, 2, 1, 2]);
next = array1d(1..11 ,[9, 8, 6, 10, 7, 1, 2, 4, 11, 3, 5]);
makespan = 939;
----------
assign = array1d(1..11 ,[2, 1, 2, 1, 1, 2, 1, 1, 2, 1, 2]);
next = array1d(1..11 ,[9, 8, 6, 10, 7, 1, 2, 4, 11, 3, 5]);
makespan = 938;
----------
assign = array1d(1..11 ,[2, 1, 2, 1, 1, 2, 1, 1, 2, 1, 2]);
next = array1d(1..11 ,[9, 8, 6, 10, 7, 1, 2, 4, 11, 3, 5]);
makespan = 937;
----------
assign = array1d(1..11 ,[2, 1, 2, 1, 1, 2, 1, 1, 2, 1, 2]);
next = array1d(1..11 ,[9, 8, 6, 10, 7, 1, 2, 4, 11, 3, 5]);
makespan = 936;
----------
assign = array1d(1..11 ,[2, 1, 2, 1, 1, 2, 1, 1, 2, 1, 2]);
next = array1d(1..11 ,[9, 8, 6, 10, 7, 1, 2, 4, 11, 3, 5]);
makespan = 935;
----------
assign = array1d(1..11 ,[2, 1, 2, 1, 1, 2, 1, 1, 2, 1, 2]);
next = array1d(1..11 ,[9, 8, 6, 10, 7, 1, 2, 4, 11, 3, 5]);
makespan = 934;
----------
assign = array1d(1..11 ,[2, 1, 2, 2, 1, 1, 1, 1, 2, 1, 2]);
next = array1d(1..11 ,[9, 8, 4, 1, 7, 10, 2, 6, 11, 3, 5]);
makespan = 933;
----------
assign = array1d(1..11 ,[2, 1, 2, 2, 1, 1, 1, 1, 2, 1, 2]);
next = array1d(1..11 ,[9, 8, 11, 1, 7, 10, 2, 6, 3, 4, 5]);
makespan = 932;
----------
assign = array1d(1..11 ,[1, 1, 1, 2, 2, 1, 2, 1, 2, 1, 2]);
next = array1d(1..11 ,[10, 8, 1, 7, 11, 3, 9, 6, 5, 4, 2]);
makespan = 931;
----------
assign = array1d(1..11 ,[2, 1, 2, 1, 2, 1, 1, 1, 2, 1, 2]);
next = array1d(1..11 ,[3, 8, 5, 10, 11, 4, 2, 6, 1, 9, 7]);
makespan = 930;
----------
assign = array1d(1..11 ,[2, 1, 2, 1, 2, 1, 1, 1, 2, 1, 2]);
next = array1d(1..11 ,[9, 8, 1, 10, 11, 4, 2, 6, 5, 3, 7]);
makespan = 929;
----------
assign = array1d(1..11 ,[1, 1, 1, 2, 2, 1, 2, 1, 2, 1, 2]);
next = array1d(1..11 ,[10, 8, 1, 5, 11, 3, 4, 6, 7, 9, 2]);
makespan = 928;
----------
assign = array1d(1..11 ,[1, 1, 1, 2, 2, 1, 2, 1, 2, 1, 2]);
next = array1d(1..11 ,[10, 8, 1, 5, 7, 3, 11, 6, 4, 9, 2]);
makespan = 927;
----------
assign = array1d(1..11 ,[2, 1, 1, 2, 2, 1, 1, 1, 2, 1, 2]);
next = array1d(1..11 ,[9, 3, 8, 5, 1, 10, 2, 6, 11, 4, 7]);
makespan = 926;
----------
assign = array1d(1..11 ,[2, 1, 2, 1, 2, 1, 1, 1, 2, 1, 2]);
next = array1d(1..11 ,[5, 8, 11, 10, 9, 4, 2, 6, 3, 1, 7]);
makespan = 925;
----------
assign = array1d(1..11 ,[2, 1, 2, 1, 2, 1, 1, 1, 2, 1, 2]);
next = array1d(1..11 ,[9, 8, 11, 10, 3, 4, 2, 6, 5, 1, 7]);
makespan = 924;
----------
assign = array1d(1..11 ,[2, 1, 1, 2, 2, 1, 1, 1, 2, 1, 2]);
next = array1d(1..11 ,[4, 3, 8, 5, 9, 10, 2, 6, 11, 1, 7]);
makespan = 923;
----------
assign = array1d(1..11 ,[2, 1, 1, 2, 2, 1, 1, 1, 2, 1, 2]);
next = array1d(1..11 ,[9, 3, 8, 5, 1, 10, 2, 6, 11, 4, 7]);
makespan = 922;
----------
assign = array1d(1..11 ,[2, 1, 1, 2, 2, 1, 1, 1, 2, 1, 2]);
next = array1d(1..11 ,[5, 8, 10, 9, 4, 3, 2, 6, 11, 1, 7]);
makespan = 921;
----------
==========
	Command being timed: "mzn-chuffed lbbd-datasets/Rabadi-2006/dzn-p-dominant/model.mzn lbbd-datasets/Rabadi-2006/dzn-p-dominant/9on2Rp50Rs50_12Ameer.dzn"
	User time (seconds): 0.33
	System time (seconds): 0.01
	Percent of CPU this job got: 8%
	Elapsed (wall clock) time (h:mm:ss or m:ss): 0:04.35
	Average shared text size (kbytes): 0
	Average unshared data size (kbytes): 0
	Average stack size (kbytes): 0
	Average total size (kbytes): 0
	Maximum resident set size (kbytes): 32992
	Average resident set size (kbytes): 0
	Major (requiring I/O) page faults: 0
	Minor (reclaiming a frame) page faults: 2954
	Voluntary context switches: 198
	Involuntary context switches: 5
	Swaps: 0
	File system inputs: 0
	File system outputs: 240
	Socket messages sent: 0
	Socket messages received: 0
	Signals delivered: 0
	Page size (bytes): 4096
	Exit status: 0
