+ /usr/bin/timeout 600 /usr/bin/time -v mzn-chuffed lbbd-datasets/sscplp/trucks-dzn/model.mzn lbbd-datasets/sscplp/trucks-dzn/p03-l100-c300-correlated.dzn
% No search annotation given. Defaulting to VSIDS!
source = [10, 10, 1, 3, 10, 10, 8, 8, 8, 8, 7, 3, 5, 1, 5, 5, 5, 5, 2, 10]
open = [true, true, true, false, true, false, true, true, false, true]
trucks_used = [2, 1, 2, 0, 5, 0, 1, 4, 0, 5]
truck_assigned = [5, 5, 2, 2, 5, 5, 4, 4, 4, 4, 1, 2, 5, 2, 5, 5, 4, 5, 1, 4]
obj = 11590
----------
source = [5, 9, 8, 5, 1, 10, 5, 10, 3, 10, 2, 7, 5, 1, 8, 5, 10, 1, 8, 5]
open = [true, true, true, false, true, false, true, true, true, true]
trucks_used = [3, 1, 1, 0, 6, 0, 1, 1, 1, 2]
truck_assigned = [6, 1, 1, 5, 3, 1, 5, 2, 1, 2, 1, 1, 6, 2, 1, 6, 2, 3, 1, 4]
obj = 11509
----------
source = [10, 9, 9, 9, 5, 10, 5, 10, 5, 7, 8, 1, 5, 1, 8, 5, 9, 10, 10, 5]
open = [true, false, false, false, true, false, true, true, true, true]
trucks_used = [1, 0, 0, 0, 6, 0, 1, 2, 4, 5]
truck_assigned = [2, 1, 3, 4, 5, 5, 6, 4, 4, 1, 2, 1, 6, 1, 2, 6, 1, 4, 5, 4]
obj = 11408
----------
source = [1, 10, 9, 9, 5, 10, 5, 10, 1, 8, 6, 5, 5, 8, 6, 5, 10, 9, 7, 5]
open = [true, false, false, false, true, true, true, true, true, true]
trucks_used = [1, 0, 0, 0, 6, 1, 1, 1, 1, 4]
truck_assigned = [1, 2, 1, 1, 2, 4, 6, 4, 1, 1, 1, 6, 6, 1, 1, 6, 4, 1, 1, 1]
obj = 11239
----------
source = [1, 9, 7, 3, 5, 10, 5, 9, 5, 3, 3, 1, 5, 9, 9, 5, 10, 10, 10, 5]
open = [true, false, true, false, true, false, true, false, true, true]
trucks_used = [2, 0, 3, 0, 6, 0, 1, 0, 4, 4]
truck_assigned = [2, 4, 1, 3, 1, 4, 6, 4, 5, 2, 2, 1, 6, 1, 1, 6, 4, 4, 3, 3]
obj = 11237
----------
source = [5, 9, 2, 5, 9, 1, 5, 3, 7, 10, 10, 10, 5, 10, 9, 5, 1, 9, 9, 5]
open = [true, true, true, false, true, false, true, false, true, true]
trucks_used = [1, 1, 1, 0, 6, 0, 1, 0, 5, 4]
truck_assigned = [5, 5, 1, 6, 5, 1, 6, 1, 1, 3, 4, 4, 6, 4, 5, 6, 1, 5, 4, 3]
obj = 11218
----------
source = [5, 9, 8, 8, 5, 1, 5, 8, 5, 10, 3, 9, 5, 10, 7, 5, 9, 10, 9, 10]
open = [true, false, true, false, true, false, true, true, true, true]
trucks_used = [1, 0, 1, 0, 6, 0, 1, 1, 2, 4]
truck_assigned = [4, 1, 1, 1, 5, 1, 6, 1, 5, 4, 1, 2, 6, 4, 1, 6, 2, 3, 1, 3]
obj = 11178
----------
source = [5, 9, 8, 8, 9, 7, 5, 8, 8, 3, 9, 5, 5, 10, 1, 5, 9, 10, 9, 5]
open = [true, false, true, false, true, false, true, true, true, true]
trucks_used = [1, 0, 1, 0, 6, 0, 1, 1, 5, 1]
truck_assigned = [5, 5, 1, 1, 5, 1, 6, 1, 1, 1, 4, 6, 6, 1, 1, 6, 4, 1, 5, 5]
obj = 11052
----------
source = [5, 8, 8, 10, 5, 9, 5, 9, 8, 10, 3, 5, 5, 5, 1, 10, 7, 9, 9, 9]
open = [true, false, true, false, true, false, true, true, true, true]
trucks_used = [1, 0, 1, 0, 6, 0, 1, 1, 5, 1]
truck_assigned = [6, 1, 1, 1, 5, 4, 6, 5, 1, 1, 1, 4, 6, 5, 1, 1, 1, 5, 5, 3]
obj = 11033
----------
source = [5, 8, 8, 10, 5, 9, 5, 9, 9, 10, 7, 5, 9, 5, 8, 9, 1, 10, 10, 5]
open = [true, false, false, false, true, false, true, true, true, true]
trucks_used = [1, 0, 0, 0, 6, 0, 1, 2, 5, 2]
truck_assigned = [6, 1, 2, 2, 5, 5, 4, 5, 3, 2, 1, 6, 5, 6, 2, 4, 1, 1, 2, 5]
obj = 10965
----------
source = [5, 9, 9, 10, 5, 8, 5, 9, 8, 10, 8, 5, 4, 5, 9, 4, 8, 10, 10, 5]
open = [false, false, false, true, true, false, false, true, true, true]
trucks_used = [0, 0, 0, 1, 6, 0, 0, 1, 2, 4]
truck_assigned = [4, 2, 1, 4, 5, 1, 6, 2, 1, 4, 1, 6, 1, 6, 2, 1, 1, 4, 3, 5]
obj = 10749
----------
source = [10, 9, 3, 10, 9, 8, 9, 5, 10, 10, 8, 5, 5, 9, 5, 3, 8, 9, 2, 9]
open = [false, true, true, false, true, false, false, true, true, true]
trucks_used = [0, 1, 1, 0, 1, 0, 0, 3, 6, 4]
truck_assigned = [4, 6, 1, 4, 5, 2, 5, 1, 4, 4, 3, 1, 1, 5, 1, 1, 3, 6, 1, 6]
obj = 10664
----------
source = [3, 9, 7, 10, 9, 8, 9, 5, 5, 10, 8, 5, 8, 9, 8, 5, 10, 9, 10, 9]
open = [false, false, true, false, true, false, true, true, true, true]
trucks_used = [0, 0, 1, 0, 1, 0, 1, 3, 6, 4]
truck_assigned = [1, 6, 1, 4, 5, 3, 4, 1, 1, 4, 2, 1, 1, 5, 3, 1, 3, 6, 4, 6]
obj = 10606
----------
source = [8, 9, 8, 10, 5, 8, 5, 9, 5, 10, 8, 9, 5, 9, 8, 5, 10, 10, 7, 5]
open = [false, false, false, false, true, false, true, true, true, true]
trucks_used = [0, 0, 0, 0, 6, 0, 1, 5, 3, 2]
truck_assigned = [2, 3, 5, 2, 6, 5, 5, 3, 2, 2, 4, 2, 5, 2, 5, 5, 1, 2, 1, 6]
obj = 10457
----------
source = [5, 5, 3, 8, 5, 10, 5, 9, 8, 8, 10, 9, 5, 9, 3, 5, 8, 10, 10, 9]
open = [false, false, true, false, true, false, false, true, true, true]
trucks_used = [0, 0, 1, 0, 6, 0, 0, 1, 3, 4]
truck_assigned = [5, 5, 1, 1, 6, 3, 5, 3, 1, 1, 3, 3, 6, 1, 1, 6, 1, 4, 4, 1]
obj = 10318
----------
source = [5, 9, 8, 8, 5, 10, 5, 9, 5, 7, 8, 9, 5, 8, 9, 5, 10, 10, 10, 10]
open = [false, false, false, false, true, false, true, true, true, true]
trucks_used = [0, 0, 0, 0, 6, 0, 1, 1, 4, 5]
truck_assigned = [5, 3, 1, 1, 6, 4, 5, 4, 5, 1, 1, 4, 6, 1, 3, 6, 4, 5, 5, 4]
obj = 10275
----------
source = [5, 9, 7, 10, 5, 3, 5, 9, 5, 3, 3, 9, 5, 10, 10, 5, 3, 9, 10, 10]
open = [false, false, true, false, true, false, true, false, true, true]
trucks_used = [0, 0, 2, 0, 6, 0, 1, 0, 4, 5]
truck_assigned = [5, 3, 1, 4, 6, 2, 5, 4, 5, 1, 2, 4, 6, 5, 4, 6, 2, 3, 5, 4]
obj = 10227
----------
source = [5, 9, 3, 9, 5, 10, 5, 9, 5, 3, 3, 7, 5, 10, 10, 5, 3, 9, 10, 10]
open = [false, false, true, false, true, false, true, false, true, true]
trucks_used = [0, 0, 1, 0, 6, 0, 1, 0, 4, 5]
truck_assigned = [5, 4, 1, 2, 6, 4, 5, 4, 5, 1, 1, 1, 6, 5, 4, 6, 1, 4, 5, 4]
obj = 9941
----------
source = [5, 9, 3, 10, 5, 9, 5, 9, 5, 3, 3, 7, 5, 10, 10, 5, 3, 9, 10, 10]
open = [false, false, true, false, true, false, true, false, true, true]
trucks_used = [0, 0, 1, 0, 6, 0, 1, 0, 4, 5]
truck_assigned = [5, 4, 1, 4, 6, 2, 5, 4, 5, 1, 1, 1, 6, 5, 4, 6, 1, 4, 5, 4]
obj = 9879
----------
source = [5, 9, 3, 10, 5, 9, 5, 9, 5, 3, 3, 7, 5, 10, 9, 5, 10, 3, 10, 10]
open = [false, false, true, false, true, false, true, false, true, true]
trucks_used = [0, 0, 1, 0, 6, 0, 1, 0, 4, 5]
truck_assigned = [5, 4, 1, 4, 6, 4, 5, 4, 5, 1, 1, 1, 6, 5, 3, 6, 4, 1, 5, 4]
obj = 9814
----------
source = [5, 9, 7, 10, 5, 9, 5, 9, 5, 3, 3, 3, 5, 10, 9, 5, 3, 10, 10, 10]
open = [false, false, true, false, true, false, true, false, true, true]
trucks_used = [0, 0, 1, 0, 6, 0, 1, 0, 4, 5]
truck_assigned = [5, 4, 1, 4, 6, 4, 5, 4, 5, 1, 1, 1, 6, 5, 2, 6, 1, 4, 5, 4]
obj = 9809
----------
source = [5, 9, 3, 10, 5, 9, 5, 9, 5, 3, 3, 3, 5, 10, 9, 5, 7, 10, 10, 10]
open = [false, false, true, false, true, false, true, false, true, true]
trucks_used = [0, 0, 1, 0, 6, 0, 1, 0, 4, 5]
truck_assigned = [5, 4, 1, 4, 6, 4, 5, 4, 5, 1, 1, 1, 6, 5, 2, 6, 1, 4, 5, 4]
obj = 9806
----------
source = [5, 9, 3, 7, 5, 9, 5, 9, 5, 3, 3, 3, 5, 10, 9, 5, 10, 10, 10, 10]
open = [false, false, true, false, true, false, true, false, true, true]
trucks_used = [0, 0, 1, 0, 6, 0, 1, 0, 4, 5]
truck_assigned = [5, 4, 1, 1, 6, 4, 5, 4, 5, 1, 1, 1, 6, 5, 3, 6, 4, 4, 5, 4]
obj = 9785
----------
source = [5, 9, 7, 10, 5, 9, 10, 9, 3, 3, 9, 5, 5, 10, 10, 5, 10, 3, 3, 5]
open = [false, false, true, false, true, false, true, false, true, true]
trucks_used = [0, 0, 1, 0, 6, 0, 1, 0, 4, 5]
truck_assigned = [5, 4, 1, 5, 5, 4, 4, 4, 1, 1, 3, 6, 6, 5, 4, 5, 5, 1, 1, 6]
obj = 9784
----------
source = [5, 9, 3, 10, 5, 9, 5, 9, 3, 3, 3, 5, 9, 10, 10, 10, 10, 5, 7, 5]
open = [false, false, true, false, true, false, true, false, true, true]
trucks_used = [0, 0, 1, 0, 6, 0, 1, 0, 4, 5]
truck_assigned = [5, 4, 1, 5, 5, 4, 5, 4, 1, 1, 1, 6, 3, 5, 4, 4, 5, 6, 1, 6]
obj = 9744
----------
source = [5, 9, 10, 10, 5, 9, 5, 9, 3, 7, 3, 5, 10, 10, 9, 5, 3, 5, 3, 10]
open = [false, false, true, false, true, false, true, false, true, true]
trucks_used = [0, 0, 1, 0, 6, 0, 1, 0, 4, 5]
truck_assigned = [6, 4, 4, 5, 5, 4, 6, 4, 1, 1, 1, 6, 4, 5, 3, 5, 1, 6, 1, 5]
obj = 9635
----------
source = [10, 9, 3, 3, 10, 9, 5, 9, 10, 10, 3, 9, 5, 10, 5, 5, 3, 5, 3, 5]
open = [false, false, true, false, true, false, false, false, true, true]
trucks_used = [0, 0, 2, 0, 6, 0, 0, 0, 4, 5]
truck_assigned = [5, 4, 1, 2, 5, 4, 6, 3, 4, 4, 2, 4, 6, 5, 5, 6, 2, 6, 1, 5]
obj = 9395
----------
source = [10, 9, 3, 3, 10, 9, 5, 9, 10, 9, 3, 10, 5, 10, 5, 5, 3, 5, 3, 5]
open = [false, false, true, false, true, false, false, false, true, true]
trucks_used = [0, 0, 2, 0, 6, 0, 0, 0, 4, 5]
truck_assigned = [4, 3, 1, 2, 5, 4, 6, 4, 5, 4, 2, 4, 5, 5, 6, 6, 2, 6, 1, 5]
obj = 9363
----------
source = [10, 9, 3, 9, 10, 9, 5, 3, 10, 9, 3, 10, 5, 10, 5, 5, 3, 5, 3, 5]
open = [false, false, true, false, true, false, false, false, true, true]
trucks_used = [0, 0, 2, 0, 6, 0, 0, 0, 4, 5]
truck_assigned = [4, 4, 2, 3, 5, 4, 6, 1, 5, 4, 2, 1, 5, 5, 6, 6, 2, 6, 2, 5]
obj = 9342
----------
source = [3, 9, 3, 10, 10, 10, 5, 9, 3, 9, 9, 3, 5, 10, 5, 5, 10, 5, 3, 5]
open = [false, false, true, false, true, false, false, false, true, true]
trucks_used = [0, 0, 2, 0, 6, 0, 0, 0, 4, 5]
truck_assigned = [2, 4, 2, 4, 5, 4, 6, 3, 2, 4, 4, 1, 5, 5, 6, 6, 5, 6, 2, 5]
obj = 9322
----------
source = [10, 9, 3, 10, 3, 10, 5, 9, 3, 9, 9, 3, 5, 10, 5, 5, 10, 5, 3, 5]
open = [false, false, true, false, true, false, false, false, true, true]
trucks_used = [0, 0, 2, 0, 6, 0, 0, 0, 4, 5]
truck_assigned = [5, 4, 2, 5, 2, 4, 6, 3, 2, 4, 4, 1, 5, 5, 6, 6, 5, 6, 2, 5]
obj = 9305
----------
source = [10, 9, 3, 9, 3, 9, 5, 9, 3, 3, 10, 10, 5, 10, 5, 5, 10, 5, 3, 5]
open = [false, false, true, false, true, false, false, false, true, true]
trucks_used = [0, 0, 2, 0, 6, 0, 0, 0, 4, 5]
truck_assigned = [5, 4, 2, 3, 1, 4, 6, 4, 2, 2, 4, 5, 5, 5, 6, 6, 5, 6, 2, 5]
obj = 9299
----------
source = [10, 9, 3, 9, 3, 9, 5, 9, 3, 3, 3, 10, 5, 10, 5, 5, 10, 5, 10, 5]
open = [false, false, true, false, true, false, false, false, true, true]
trucks_used = [0, 0, 2, 0, 6, 0, 0, 0, 4, 5]
truck_assigned = [5, 4, 2, 3, 1, 4, 5, 4, 2, 2, 2, 5, 6, 5, 6, 6, 5, 6, 4, 5]
obj = 9294
----------
source = [3, 9, 3, 10, 10, 10, 5, 9, 9, 3, 9, 3, 5, 10, 5, 5, 10, 5, 3, 5]
open = [false, false, true, false, true, false, false, false, true, true]
trucks_used = [0, 0, 2, 0, 6, 0, 0, 0, 4, 5]
truck_assigned = [1, 4, 2, 5, 4, 4, 6, 4, 2, 2, 4, 2, 5, 5, 6, 6, 5, 6, 2, 5]
obj = 9291
----------
source = [10, 9, 3, 10, 3, 10, 5, 9, 9, 3, 9, 3, 5, 10, 5, 5, 10, 5, 3, 5]
open = [false, false, true, false, true, false, false, false, true, true]
trucks_used = [0, 0, 2, 0, 6, 0, 0, 0, 4, 5]
truck_assigned = [5, 4, 2, 5, 2, 4, 6, 4, 3, 2, 4, 1, 5, 5, 6, 6, 5, 6, 2, 5]
obj = 9274
----------
source = [3, 9, 3, 5, 5, 9, 5, 10, 9, 3, 3, 3, 10, 10, 9, 5, 10, 5, 10, 5]
open = [false, false, true, false, true, false, false, false, true, true]
trucks_used = [0, 0, 2, 0, 6, 0, 0, 0, 4, 5]
truck_assigned = [1, 4, 2, 6, 6, 4, 6, 5, 4, 2, 2, 2, 1, 5, 3, 5, 5, 6, 4, 5]
obj = 9260
----------
source = [3, 9, 3, 5, 5, 9, 5, 10, 9, 3, 9, 3, 10, 10, 10, 5, 10, 5, 3, 5]
open = [false, false, true, false, true, false, false, false, true, true]
trucks_used = [0, 0, 2, 0, 6, 0, 0, 0, 4, 5]
truck_assigned = [2, 4, 2, 6, 6, 4, 6, 4, 4, 2, 3, 2, 5, 5, 4, 5, 5, 6, 1, 5]
obj = 9246
----------
source = [3, 9, 3, 10, 5, 9, 5, 5, 3, 9, 10, 3, 5, 10, 9, 5, 10, 5, 3, 10]
open = [false, false, true, false, true, false, false, false, true, true]
trucks_used = [0, 0, 2, 0, 6, 0, 0, 0, 4, 5]
truck_assigned = [2, 4, 2, 5, 6, 4, 6, 3, 1, 4, 5, 2, 5, 4, 3, 5, 5, 6, 2, 5]
obj = 9210
----------
source = [3, 9, 3, 10, 5, 9, 5, 5, 9, 3, 10, 3, 5, 10, 9, 5, 10, 5, 3, 10]
open = [false, false, true, false, true, false, false, false, true, true]
trucks_used = [0, 0, 2, 0, 6, 0, 0, 0, 4, 5]
truck_assigned = [2, 4, 2, 5, 6, 4, 5, 5, 3, 2, 4, 2, 6, 5, 4, 5, 5, 6, 1, 4]
obj = 9179
----------
source = [3, 9, 3, 10, 5, 9, 5, 5, 9, 3, 3, 3, 5, 10, 9, 5, 10, 5, 10, 10]
open = [false, false, true, false, true, false, false, false, true, true]
trucks_used = [0, 0, 2, 0, 6, 0, 0, 0, 4, 5]
truck_assigned = [2, 4, 2, 5, 6, 4, 5, 2, 2, 2, 1, 2, 6, 5, 4, 5, 5, 6, 4, 4]
obj = 9174
----------
source = [10, 9, 3, 10, 4, 9, 5, 5, 4, 3, 4, 3, 10, 10, 9, 5, 10, 5, 3, 9]
open = [false, false, true, true, true, false, false, false, true, true]
trucks_used = [0, 0, 1, 1, 1, 0, 0, 0, 4, 5]
truck_assigned = [5, 4, 1, 5, 1, 4, 1, 1, 1, 1, 1, 1, 4, 5, 4, 1, 5, 1, 1, 4]
obj = 9172
----------
source = [10, 9, 3, 10, 5, 9, 5, 9, 10, 3, 7, 5, 10, 10, 9, 5, 3, 5, 3, 7]
open = [false, false, true, false, true, false, true, false, true, true]
trucks_used = [0, 0, 3, 0, 2, 0, 1, 0, 4, 5]
truck_assigned = [3, 4, 3, 5, 2, 4, 2, 3, 2, 3, 1, 2, 5, 5, 4, 1, 3, 2, 3, 1]
obj = 9032
----------
source = [10, 9, 3, 10, 5, 9, 5, 9, 10, 3, 7, 5, 10, 10, 9, 5, 3, 5, 3, 7]
open = [false, false, true, false, true, false, true, false, true, true]
trucks_used = [0, 0, 2, 0, 2, 0, 1, 0, 4, 5]
truck_assigned = [4, 4, 2, 5, 1, 4, 2, 3, 2, 2, 1, 2, 5, 5, 4, 2, 2, 2, 2, 1]
obj = 8732
----------
source = [10, 9, 3, 10, 5, 9, 5, 9, 10, 3, 7, 5, 7, 10, 9, 5, 3, 5, 3, 10]
open = [false, false, true, false, true, false, true, false, true, true]
trucks_used = [0, 0, 2, 0, 2, 0, 1, 0, 4, 5]
truck_assigned = [5, 4, 2, 5, 2, 4, 2, 3, 5, 2, 1, 1, 1, 5, 4, 2, 2, 1, 2, 1]
obj = 8717
----------
source = [10, 9, 3, 10, 5, 9, 5, 9, 3, 3, 7, 5, 7, 10, 9, 5, 10, 5, 3, 10]
open = [false, false, true, false, true, false, true, false, true, true]
trucks_used = [0, 0, 2, 0, 2, 0, 1, 0, 4, 5]
truck_assigned = [4, 4, 2, 5, 2, 4, 2, 3, 2, 2, 1, 2, 1, 5, 4, 1, 4, 1, 2, 5]
obj = 8697
----------
source = [10, 9, 3, 10, 5, 9, 5, 9, 10, 3, 3, 5, 7, 10, 9, 5, 7, 5, 3, 10]
open = [false, false, true, false, true, false, true, false, true, true]
trucks_used = [0, 0, 2, 0, 2, 0, 1, 0, 4, 5]
truck_assigned = [4, 4, 2, 5, 2, 4, 2, 3, 4, 2, 2, 2, 1, 5, 4, 1, 1, 2, 2, 5]
obj = 8596
----------
source = [10, 9, 3, 10, 5, 9, 5, 5, 10, 3, 9, 3, 10, 10, 9, 5, 7, 5, 3, 7]
open = [false, false, true, false, true, false, true, false, true, true]
trucks_used = [0, 0, 2, 0, 2, 0, 1, 0, 4, 5]
truck_assigned = [5, 4, 2, 5, 2, 4, 2, 2, 5, 2, 4, 2, 4, 5, 4, 2, 1, 1, 2, 1]
obj = 8550
----------
source = [10, 9, 3, 10, 5, 9, 7, 5, 10, 3, 9, 3, 3, 10, 5, 5, 9, 5, 7, 10]
open = [false, false, true, false, true, false, true, false, true, true]
trucks_used = [0, 0, 2, 0, 2, 0, 1, 0, 4, 5]
truck_assigned = [5, 4, 2, 5, 2, 4, 1, 1, 5, 2, 4, 2, 1, 5, 2, 2, 1, 1, 1, 4]
obj = 8547
----------
source = [10, 9, 3, 10, 5, 9, 7, 5, 10, 3, 9, 3, 5, 10, 9, 5, 7, 5, 3, 10]
open = [false, false, true, false, true, false, true, false, true, true]
trucks_used = [0, 0, 2, 0, 2, 0, 1, 0, 4, 5]
truck_assigned = [5, 4, 2, 5, 2, 4, 1, 2, 5, 2, 4, 2, 1, 5, 4, 2, 1, 2, 2, 4]
obj = 8539
----------
source = [10, 9, 3, 5, 5, 9, 7, 5, 10, 3, 9, 3, 10, 10, 9, 5, 7, 5, 3, 10]
open = [false, false, true, false, true, false, true, false, true, true]
trucks_used = [0, 0, 2, 0, 2, 0, 1, 0, 4, 5]
truck_assigned = [4, 4, 2, 1, 2, 4, 1, 2, 5, 2, 4, 2, 5, 5, 4, 2, 1, 2, 2, 1]
obj = 8520
----------
source = [10, 5, 3, 10, 5, 9, 7, 5, 10, 3, 9, 3, 10, 10, 9, 5, 7, 9, 3, 9]
open = [false, false, true, false, true, false, true, false, true, true]
trucks_used = [0, 0, 2, 0, 2, 0, 1, 0, 4, 5]
truck_assigned = [3, 2, 2, 4, 2, 4, 1, 1, 5, 2, 4, 2, 5, 5, 4, 2, 1, 4, 2, 3]
obj = 8507
----------
source = [10, 9, 3, 10, 5, 9, 7, 5, 7, 3, 9, 3, 10, 10, 9, 5, 5, 5, 3, 10]
open = [false, false, true, false, true, false, true, false, true, true]
trucks_used = [0, 0, 2, 0, 2, 0, 1, 0, 4, 5]
truck_assigned = [4, 4, 2, 5, 2, 4, 1, 2, 1, 2, 4, 2, 5, 5, 4, 2, 1, 2, 2, 4]
obj = 8506
----------
source = [10, 5, 3, 10, 5, 9, 7, 5, 7, 3, 9, 3, 10, 10, 9, 5, 10, 9, 3, 9]
open = [false, false, true, false, true, false, true, false, true, true]
trucks_used = [0, 0, 2, 0, 2, 0, 1, 0, 4, 5]
truck_assigned = [4, 1, 2, 5, 2, 4, 1, 2, 1, 2, 3, 2, 5, 5, 4, 2, 4, 4, 2, 4]
obj = 8502
----------
source = [10, 9, 3, 5, 5, 9, 7, 5, 10, 3, 9, 3, 3, 10, 9, 5, 10, 5, 7, 10]
open = [false, false, true, false, true, false, true, false, true, true]
trucks_used = [0, 0, 2, 0, 2, 0, 1, 0, 4, 5]
truck_assigned = [4, 4, 2, 1, 2, 4, 1, 2, 5, 2, 4, 2, 1, 5, 4, 2, 4, 2, 1, 5]
obj = 8499
----------
source = [10, 5, 3, 10, 5, 9, 7, 5, 3, 3, 9, 3, 10, 10, 9, 5, 10, 9, 7, 9]
open = [false, false, true, false, true, false, true, false, true, true]
trucks_used = [0, 0, 2, 0, 2, 0, 1, 0, 4, 5]
truck_assigned = [4, 1, 2, 5, 2, 4, 1, 2, 1, 2, 4, 2, 5, 5, 4, 2, 4, 2, 1, 4]
obj = 8496
----------
source = [10, 9, 3, 10, 5, 9, 7, 5, 10, 3, 9, 3, 3, 10, 9, 5, 5, 5, 7, 10]
open = [false, false, true, false, true, false, true, false, true, true]
trucks_used = [0, 0, 2, 0, 2, 0, 1, 0, 4, 5]
truck_assigned = [4, 4, 2, 4, 2, 4, 1, 2, 5, 2, 4, 2, 1, 5, 4, 2, 1, 2, 1, 5]
obj = 8490
----------
source = [10, 9, 3, 10, 5, 9, 7, 5, 10, 3, 3, 3, 10, 10, 9, 5, 5, 5, 7, 9]
open = [false, false, true, false, true, false, true, false, true, true]
trucks_used = [0, 0, 2, 0, 2, 0, 1, 0, 4, 5]
truck_assigned = [5, 4, 2, 5, 2, 4, 1, 2, 5, 2, 2, 2, 2, 5, 4, 2, 1, 2, 1, 4]
obj = 8480
----------
source = [10, 9, 5, 10, 5, 9, 9, 3, 10, 3, 5, 3, 3, 10, 9, 5, 9, 5, 3, 10]
open = [false, false, true, false, true, false, false, false, true, true]
trucks_used = [0, 0, 2, 0, 3, 0, 0, 0, 4, 5]
truck_assigned = [4, 4, 2, 4, 3, 4, 3, 2, 5, 2, 2, 1, 2, 5, 4, 3, 4, 3, 1, 5]
obj = 8362
----------
source = [10, 9, 3, 10, 5, 9, 9, 5, 10, 3, 5, 3, 3, 10, 9, 5, 9, 3, 5, 10]
open = [false, false, true, false, true, false, false, false, true, true]
trucks_used = [0, 0, 3, 0, 2, 0, 0, 0, 4, 5]
truck_assigned = [4, 4, 2, 4, 2, 4, 3, 2, 5, 3, 1, 3, 3, 5, 4, 2, 2, 3, 1, 5]
obj = 8323
----------
source = [10, 9, 3, 10, 5, 9, 9, 5, 10, 3, 5, 3, 3, 10, 9, 5, 3, 9, 5, 10]
open = [false, false, true, false, true, false, false, false, true, true]
trucks_used = [0, 0, 3, 0, 2, 0, 0, 0, 4, 5]
truck_assigned = [4, 4, 2, 4, 2, 4, 2, 2, 5, 3, 1, 3, 3, 5, 4, 2, 3, 4, 1, 5]
obj = 8308
----------
source = [10, 9, 9, 5, 5, 9, 9, 5, 10, 3, 5, 3, 9, 10, 3, 5, 3, 3, 10, 10]
open = [false, false, true, false, true, false, false, false, true, true]
trucks_used = [0, 0, 2, 0, 2, 0, 0, 0, 4, 5]
truck_assigned = [4, 4, 3, 1, 2, 4, 4, 2, 5, 2, 1, 2, 3, 5, 2, 2, 1, 1, 4, 5]
obj = 8246
----------
source = [4, 9, 3, 6, 5, 9, 6, 5, 6, 3, 5, 3, 3, 4, 9, 3, 9, 4, 4, 6]
open = [false, false, true, true, true, true, false, false, true, false]
trucks_used = [0, 0, 3, 1, 1, 1, 0, 0, 1, 0]
truck_assigned = [1, 1, 2, 1, 1, 1, 1, 1, 1, 3, 1, 3, 3, 1, 1, 2, 1, 1, 1, 1]
obj = 8231
----------
source = [5, 9, 3, 7, 4, 9, 4, 5, 9, 3, 4, 3, 3, 4, 4, 9, 3, 4, 5, 7]
open = [false, false, true, true, true, false, true, false, true, false]
trucks_used = [0, 0, 3, 2, 1, 0, 1, 0, 2, 0]
truck_assigned = [1, 2, 2, 1, 1, 2, 2, 1, 1, 3, 2, 3, 3, 2, 1, 2, 3, 1, 1, 1]
obj = 8210
----------
source = [5, 9, 3, 7, 4, 9, 5, 4, 9, 3, 4, 3, 3, 4, 4, 9, 3, 4, 5, 7]
open = [false, false, true, true, true, false, true, false, true, false]
trucks_used = [0, 0, 3, 2, 1, 0, 1, 0, 2, 0]
truck_assigned = [1, 2, 2, 1, 2, 2, 1, 1, 2, 3, 2, 3, 3, 2, 1, 1, 3, 1, 1, 1]
obj = 8183
----------
source = [5, 9, 3, 9, 4, 9, 4, 5, 4, 3, 4, 3, 3, 4, 5, 9, 3, 4, 5, 5]
open = [false, false, true, true, true, false, false, false, true, false]
trucks_used = [0, 0, 3, 3, 2, 0, 0, 0, 2, 0]
truck_assigned = [2, 2, 2, 2, 3, 1, 2, 2, 2, 3, 3, 3, 3, 3, 1, 2, 3, 2, 2, 1]
obj = 8173
----------
source = [5, 9, 3, 9, 4, 9, 5, 5, 5, 3, 4, 3, 3, 4, 4, 9, 3, 4, 4, 5]
open = [false, false, true, true, true, false, false, false, true, false]
trucks_used = [0, 0, 3, 3, 2, 0, 0, 0, 2, 0]
truck_assigned = [2, 2, 2, 1, 3, 2, 2, 2, 1, 3, 3, 3, 3, 3, 2, 2, 3, 2, 1, 1]
obj = 8137
----------
source = [5, 9, 3, 5, 4, 9, 5, 5, 4, 3, 4, 3, 3, 4, 9, 3, 9, 4, 4, 5]
open = [false, false, true, true, true, false, false, false, true, false]
trucks_used = [0, 0, 3, 3, 3, 0, 0, 0, 1, 0]
truck_assigned = [3, 1, 2, 3, 3, 1, 3, 3, 2, 3, 3, 3, 3, 3, 1, 1, 1, 2, 2, 2]
obj = 8044
----------
source = [5, 9, 3, 9, 4, 9, 5, 5, 4, 3, 4, 3, 3, 4, 9, 5, 3, 4, 4, 5]
open = [false, false, true, true, true, false, false, false, true, false]
trucks_used = [0, 0, 3, 3, 2, 0, 0, 0, 2, 0]
truck_assigned = [2, 2, 2, 2, 3, 2, 2, 2, 2, 3, 3, 3, 3, 3, 1, 2, 3, 2, 2, 1]
obj = 8016
----------
source = [5, 5, 3, 9, 4, 9, 5, 5, 4, 3, 4, 3, 3, 4, 9, 9, 3, 4, 4, 5]
open = [false, false, true, true, true, false, false, false, true, false]
trucks_used = [0, 0, 3, 3, 2, 0, 0, 0, 1, 0]
truck_assigned = [2, 1, 2, 1, 3, 1, 2, 2, 1, 3, 3, 3, 3, 3, 1, 1, 3, 2, 1, 1]
obj = 7755
----------
source = [5, 5, 3, 10, 4, 10, 5, 5, 4, 3, 4, 3, 3, 4, 10, 10, 3, 4, 4, 5]
open = [false, false, true, true, true, false, false, false, false, true]
trucks_used = [0, 0, 3, 2, 3, 0, 0, 0, 0, 2]
truck_assigned = [3, 2, 2, 2, 2, 1, 3, 3, 1, 3, 2, 3, 3, 2, 2, 2, 3, 1, 1, 2]
obj = 7731
----------
source = [5, 5, 3, 10, 4, 10, 5, 5, 4, 3, 4, 3, 3, 4, 10, 3, 10, 4, 4, 5]
open = [false, false, true, true, true, false, false, false, false, true]
trucks_used = [0, 0, 3, 3, 2, 0, 0, 0, 0, 2]
truck_assigned = [2, 1, 2, 2, 3, 2, 2, 2, 2, 3, 3, 3, 3, 3, 2, 2, 1, 2, 2, 1]
obj = 7729
----------
source = [5, 5, 3, 7, 4, 1, 5, 5, 4, 3, 4, 3, 3, 1, 4, 7, 3, 4, 4, 5]
open = [true, false, true, true, true, false, true, false, false, false]
trucks_used = [1, 0, 3, 3, 2, 0, 1, 0, 0, 0]
truck_assigned = [2, 1, 2, 1, 3, 1, 2, 2, 3, 3, 3, 3, 3, 1, 2, 1, 3, 2, 2, 1]
obj = 7667
----------
source = [5, 5, 3, 10, 4, 3, 4, 5, 10, 3, 4, 3, 4, 4, 10, 5, 10, 4, 4, 5]
open = [false, false, true, true, true, false, false, false, false, true]
trucks_used = [0, 0, 3, 3, 2, 0, 0, 0, 0, 1]
truck_assigned = [2, 2, 2, 1, 3, 3, 2, 1, 1, 3, 3, 3, 1, 3, 1, 2, 1, 2, 1, 1]
obj = 7560
----------
source = [5, 5, 4, 10, 4, 3, 5, 5, 10, 3, 4, 3, 3, 4, 10, 3, 10, 4, 4, 5]
open = [false, false, true, true, true, false, false, false, false, true]
trucks_used = [0, 0, 3, 3, 2, 0, 0, 0, 0, 1]
truck_assigned = [2, 2, 2, 1, 3, 3, 1, 2, 1, 3, 2, 3, 2, 3, 1, 1, 1, 3, 2, 1]
obj = 7506
----------
source = [5, 5, 3, 10, 4, 3, 5, 5, 10, 4, 4, 3, 3, 4, 10, 3, 10, 4, 4, 5]
open = [false, false, true, true, true, false, false, false, false, true]
trucks_used = [0, 0, 3, 3, 2, 0, 0, 0, 0, 1]
truck_assigned = [2, 2, 2, 1, 3, 3, 1, 2, 1, 2, 2, 3, 3, 3, 1, 2, 1, 3, 2, 1]
obj = 7504
----------
source = [5, 5, 3, 10, 4, 3, 4, 5, 10, 3, 4, 3, 5, 4, 4, 10, 10, 4, 4, 5]
open = [false, false, true, true, true, false, false, false, false, true]
trucks_used = [0, 0, 3, 3, 2, 0, 0, 0, 0, 1]
truck_assigned = [2, 2, 3, 1, 3, 3, 2, 2, 1, 2, 1, 3, 1, 3, 2, 1, 1, 3, 2, 1]
obj = 7503
----------
source = [5, 5, 4, 10, 4, 3, 5, 5, 10, 3, 4, 3, 3, 3, 4, 10, 10, 4, 4, 5]
open = [false, false, true, true, true, false, false, false, false, true]
trucks_used = [0, 0, 3, 3, 2, 0, 0, 0, 0, 1]
truck_assigned = [2, 2, 1, 1, 3, 3, 1, 2, 1, 3, 2, 3, 2, 1, 3, 1, 1, 3, 2, 1]
obj = 7464
----------
source = [5, 5, 3, 10, 4, 3, 5, 5, 10, 4, 4, 3, 3, 3, 4, 10, 10, 4, 4, 5]
open = [false, false, true, true, true, false, false, false, false, true]
trucks_used = [0, 0, 3, 3, 2, 0, 0, 0, 0, 1]
truck_assigned = [2, 2, 3, 1, 3, 3, 1, 2, 1, 1, 2, 3, 2, 2, 3, 1, 1, 3, 2, 1]
obj = 7462
----------
source = [5, 5, 3, 10, 4, 3, 5, 10, 10, 3, 4, 4, 3, 3, 4, 5, 10, 4, 4, 5]
open = [false, false, true, true, true, false, false, false, false, true]
trucks_used = [0, 0, 3, 3, 2, 0, 0, 0, 0, 1]
truck_assigned = [2, 1, 3, 1, 3, 3, 2, 1, 1, 2, 2, 2, 3, 1, 3, 2, 1, 3, 2, 1]
obj = 7456
----------
source = [5, 5, 3, 10, 4, 3, 5, 5, 10, 4, 4, 3, 3, 4, 4, 10, 10, 4, 3, 5]
open = [false, false, true, true, true, false, false, false, false, true]
trucks_used = [0, 0, 3, 3, 2, 0, 0, 0, 0, 1]
truck_assigned = [2, 2, 3, 1, 3, 3, 2, 1, 1, 2, 2, 3, 2, 3, 2, 1, 1, 3, 1, 1]
obj = 7414
----------
source = [5, 5, 10, 8, 4, 5, 8, 10, 8, 10, 4, 4, 5, 4, 4, 8, 10, 4, 8, 5]
open = [false, false, false, true, true, false, false, true, false, true]
trucks_used = [0, 0, 0, 2, 2, 0, 0, 1, 0, 2]
truck_assigned = [2, 2, 2, 1, 1, 1, 1, 1, 1, 2, 2, 2, 2, 1, 1, 1, 2, 2, 1, 1]
obj = 7372
----------
source = [3, 1, 3, 3, 4, 3, 1, 10, 3, 10, 4, 4, 10, 4, 4, 7, 10, 4, 7, 10]
open = [true, false, true, true, false, false, true, false, false, true]
trucks_used = [1, 0, 2, 3, 0, 0, 1, 0, 0, 2]
truck_assigned = [2, 1, 2, 1, 2, 2, 1, 1, 1, 2, 3, 3, 2, 3, 1, 1, 1, 2, 1, 2]
obj = 7323
----------
source = [10, 4, 7, 3, 4, 1, 7, 10, 3, 10, 4, 3, 3, 4, 4, 1, 10, 4, 3, 10]
open = [true, false, true, true, false, false, true, false, false, true]
trucks_used = [1, 0, 2, 3, 0, 0, 1, 0, 0, 2]
truck_assigned = [1, 3, 1, 2, 2, 1, 1, 1, 2, 1, 3, 1, 2, 3, 3, 1, 2, 2, 1, 1]
obj = 7293
----------
source = [10, 4, 3, 1, 4, 1, 7, 10, 3, 10, 4, 3, 7, 4, 4, 7, 10, 4, 3, 10]
open = [true, false, true, true, false, false, true, false, false, true]
trucks_used = [1, 0, 2, 3, 0, 0, 1, 0, 0, 2]
truck_assigned = [2, 3, 1, 1, 1, 1, 1, 2, 2, 2, 3, 2, 1, 3, 3, 1, 2, 2, 2, 1]
obj = 7291
----------
source = [10, 4, 3, 10, 4, 1, 7, 1, 3, 10, 4, 3, 7, 4, 4, 7, 10, 4, 3, 10]
open = [true, false, true, true, false, false, true, false, false, true]
trucks_used = [1, 0, 2, 3, 0, 0, 1, 0, 0, 2]
truck_assigned = [2, 3, 1, 2, 2, 1, 1, 1, 2, 1, 3, 2, 1, 3, 3, 1, 1, 2, 2, 2]
obj = 7269
----------
source = [10, 4, 3, 10, 4, 1, 7, 10, 3, 10, 4, 3, 7, 4, 4, 7, 3, 4, 1, 10]
open = [true, false, true, true, false, false, true, false, false, true]
trucks_used = [1, 0, 2, 3, 0, 0, 1, 0, 0, 2]
truck_assigned = [2, 3, 2, 2, 1, 1, 1, 2, 2, 2, 3, 2, 1, 3, 3, 1, 1, 2, 1, 1]
obj = 7264
----------
source = [10, 1, 3, 7, 4, 3, 7, 10, 3, 10, 4, 4, 3, 4, 4, 1, 10, 4, 3, 10]
open = [true, false, true, true, false, false, true, false, false, true]
trucks_used = [1, 0, 2, 3, 0, 0, 1, 0, 0, 2]
truck_assigned = [2, 1, 2, 1, 1, 1, 1, 2, 2, 2, 3, 2, 2, 3, 3, 1, 2, 2, 2, 1]
obj = 7256
----------
source = [10, 1, 4, 10, 4, 3, 7, 10, 3, 3, 4, 4, 7, 1, 4, 7, 10, 4, 3, 10]
open = [true, false, true, true, false, false, true, false, false, true]
trucks_used = [1, 0, 2, 3, 0, 0, 1, 0, 0, 2]
truck_assigned = [2, 1, 2, 1, 1, 2, 1, 2, 2, 1, 3, 3, 1, 1, 3, 1, 2, 2, 2, 2]
obj = 7237
----------
source = [10, 1, 4, 10, 4, 4, 7, 10, 3, 3, 4, 3, 7, 1, 4, 7, 10, 4, 3, 10]
open = [true, false, true, true, false, false, true, false, false, true]
trucks_used = [1, 0, 2, 3, 0, 0, 1, 0, 0, 2]
truck_assigned = [2, 1, 3, 1, 1, 2, 1, 2, 2, 2, 3, 2, 1, 1, 3, 1, 2, 2, 2, 2]
obj = 7235
----------
source = [10, 1, 3, 10, 4, 4, 7, 10, 3, 3, 4, 4, 7, 1, 4, 7, 10, 4, 3, 10]
open = [true, false, true, true, false, false, true, false, false, true]
trucks_used = [1, 0, 2, 3, 0, 0, 1, 0, 0, 2]
truck_assigned = [2, 1, 2, 1, 1, 2, 1, 2, 2, 2, 3, 3, 1, 1, 3, 1, 2, 2, 2, 2]
obj = 7213
----------
source = [10, 4, 3, 10, 4, 1, 7, 10, 3, 3, 4, 3, 7, 4, 4, 7, 10, 4, 1, 10]
open = [true, false, true, true, false, false, true, false, false, true]
trucks_used = [1, 0, 2, 3, 0, 0, 1, 0, 0, 2]
truck_assigned = [2, 2, 2, 1, 1, 1, 1, 2, 2, 1, 3, 2, 1, 2, 3, 1, 2, 3, 1, 2]
obj = 7206
----------
source = [10, 1, 3, 4, 4, 10, 7, 10, 3, 3, 4, 4, 7, 1, 4, 7, 10, 4, 3, 10]
open = [true, false, true, true, false, false, true, false, false, true]
trucks_used = [1, 0, 2, 3, 0, 0, 1, 0, 0, 2]
truck_assigned = [2, 1, 2, 2, 1, 1, 1, 2, 2, 2, 3, 2, 1, 1, 3, 1, 2, 3, 2, 2]
obj = 7195
----------
source = [10, 1, 7, 4, 4, 10, 7, 10, 3, 3, 3, 4, 3, 1, 4, 4, 10, 4, 3, 10]
open = [true, false, true, true, false, false, true, false, false, true]
trucks_used = [1, 0, 2, 3, 0, 0, 1, 0, 0, 2]
truck_assigned = [2, 1, 1, 2, 2, 1, 1, 2, 2, 2, 1, 3, 2, 1, 3, 1, 2, 3, 2, 2]
obj = 7193
----------
source = [10, 1, 4, 4, 4, 10, 7, 10, 3, 3, 3, 3, 7, 1, 4, 7, 10, 4, 4, 10]
open = [true, false, true, true, false, false, true, false, false, true]
trucks_used = [1, 0, 2, 3, 0, 0, 1, 0, 0, 2]
truck_assigned = [2, 1, 2, 3, 2, 1, 1, 2, 2, 2, 2, 2, 1, 1, 3, 1, 2, 3, 1, 2]
obj = 7181
----------
source = [10, 4, 1, 4, 4, 10, 7, 10, 3, 3, 3, 3, 7, 4, 4, 7, 10, 4, 1, 10]
open = [true, false, true, true, false, false, true, false, false, true]
trucks_used = [1, 0, 2, 3, 0, 0, 1, 0, 0, 2]
truck_assigned = [2, 2, 1, 3, 2, 1, 1, 2, 2, 2, 2, 2, 1, 2, 3, 1, 2, 3, 1, 2]
obj = 7178
----------
source = [10, 1, 4, 7, 4, 10, 7, 10, 3, 4, 3, 3, 3, 4, 4, 1, 10, 4, 3, 10]
open = [true, false, true, true, false, false, true, false, false, true]
trucks_used = [1, 0, 2, 3, 0, 0, 1, 0, 0, 2]
truck_assigned = [2, 1, 2, 1, 3, 1, 1, 2, 2, 2, 2, 1, 2, 2, 3, 1, 2, 3, 2, 2]
obj = 7165
----------
source = [10, 1, 4, 7, 4, 10, 7, 10, 3, 3, 3, 4, 3, 4, 4, 1, 10, 4, 3, 10]
open = [true, false, true, true, false, false, true, false, false, true]
trucks_used = [1, 0, 2, 3, 0, 0, 1, 0, 0, 2]
truck_assigned = [2, 1, 2, 1, 3, 1, 1, 2, 2, 1, 2, 2, 2, 2, 3, 1, 2, 3, 2, 2]
obj = 7145
----------
source = [10, 1, 3, 7, 4, 10, 7, 10, 3, 4, 3, 4, 3, 4, 4, 1, 10, 4, 3, 10]
open = [true, false, true, true, false, false, true, false, false, true]
trucks_used = [1, 0, 2, 3, 0, 0, 1, 0, 0, 2]
truck_assigned = [2, 1, 1, 1, 3, 1, 1, 2, 2, 2, 2, 2, 2, 2, 3, 1, 2, 3, 2, 2]
obj = 7143
----------
source = [10, 1, 7, 4, 4, 10, 7, 10, 3, 3, 3, 4, 3, 4, 4, 1, 10, 4, 3, 10]
open = [true, false, true, true, false, false, true, false, false, true]
trucks_used = [1, 0, 2, 3, 0, 0, 1, 0, 0, 2]
truck_assigned = [2, 1, 1, 3, 2, 1, 1, 2, 2, 1, 2, 2, 2, 2, 3, 1, 2, 3, 2, 2]
obj = 7141
----------
source = [10, 1, 3, 4, 4, 10, 7, 10, 4, 3, 3, 3, 7, 1, 4, 7, 10, 4, 4, 10]
open = [true, false, true, true, false, false, true, false, false, true]
trucks_used = [1, 0, 2, 3, 0, 0, 1, 0, 0, 2]
truck_assigned = [2, 1, 2, 3, 2, 1, 1, 2, 2, 2, 2, 2, 1, 1, 3, 1, 2, 3, 2, 2]
obj = 7138
----------
source = [10, 1, 3, 10, 4, 10, 7, 10, 4, 3, 3, 4, 3, 4, 4, 1, 7, 4, 3, 10]
open = [true, false, true, true, false, false, true, false, false, true]
trucks_used = [1, 0, 2, 3, 0, 0, 1, 0, 0, 2]
truck_assigned = [2, 1, 2, 1, 2, 2, 1, 2, 3, 1, 2, 3, 2, 2, 3, 1, 1, 3, 2, 2]
obj = 7123
----------
source = [10, 1, 3, 7, 4, 10, 7, 10, 4, 3, 3, 4, 3, 4, 4, 1, 10, 4, 3, 10]
open = [true, false, true, true, false, false, true, false, false, true]
trucks_used = [1, 0, 2, 3, 0, 0, 1, 0, 0, 2]
truck_assigned = [2, 1, 2, 1, 2, 2, 1, 2, 3, 1, 2, 3, 2, 2, 3, 1, 1, 3, 2, 2]
obj = 7102
----------
source = [10, 1, 7, 10, 4, 10, 7, 4, 4, 3, 3, 3, 3, 4, 4, 1, 10, 4, 3, 10]
open = [true, false, true, true, false, false, true, false, false, true]
trucks_used = [1, 0, 2, 3, 0, 0, 1, 0, 0, 2]
truck_assigned = [1, 1, 1, 2, 2, 2, 1, 1, 3, 2, 2, 1, 2, 3, 3, 1, 2, 3, 2, 2]
obj = 7090
----------
source = [10, 1, 3, 7, 4, 10, 7, 4, 4, 3, 3, 10, 3, 4, 4, 1, 10, 4, 3, 10]
open = [true, false, true, true, false, false, true, false, false, true]
trucks_used = [1, 0, 2, 3, 0, 0, 1, 0, 0, 2]
truck_assigned = [2, 1, 1, 1, 2, 2, 1, 1, 3, 2, 2, 1, 2, 3, 3, 1, 2, 3, 2, 2]
obj = 7086
----------
source = [3, 1, 7, 10, 4, 10, 7, 4, 4, 3, 3, 3, 10, 4, 4, 1, 10, 4, 3, 10]
open = [true, false, true, true, false, false, true, false, false, true]
trucks_used = [1, 0, 2, 3, 0, 0, 1, 0, 0, 2]
truck_assigned = [1, 1, 1, 2, 2, 2, 1, 2, 3, 2, 2, 2, 1, 3, 3, 1, 2, 3, 2, 2]
obj = 7084
----------
source = [3, 1, 3, 7, 4, 10, 7, 4, 4, 3, 3, 10, 10, 4, 4, 1, 10, 4, 3, 10]
open = [true, false, true, true, false, false, true, false, false, true]
trucks_used = [1, 0, 2, 3, 0, 0, 1, 0, 0, 2]
truck_assigned = [2, 1, 1, 1, 2, 2, 1, 1, 3, 2, 2, 2, 1, 3, 3, 1, 2, 3, 2, 2]
obj = 7080
----------
source = [3, 1, 3, 10, 4, 10, 7, 4, 4, 3, 3, 3, 10, 4, 4, 1, 10, 7, 4, 10]
open = [true, false, true, true, false, false, true, false, false, true]
trucks_used = [1, 0, 2, 3, 0, 0, 1, 0, 0, 2]
truck_assigned = [2, 1, 2, 2, 2, 2, 1, 3, 3, 2, 2, 1, 1, 3, 3, 1, 2, 1, 2, 2]
obj = 7074
----------
source = [3, 1, 3, 10, 4, 10, 7, 4, 4, 3, 3, 3, 10, 4, 4, 7, 10, 1, 4, 10]
open = [true, false, true, true, false, false, true, false, false, true]
trucks_used = [1, 0, 2, 3, 0, 0, 1, 0, 0, 2]
truck_assigned = [2, 1, 2, 2, 2, 2, 1, 3, 3, 2, 2, 1, 1, 3, 3, 1, 2, 1, 2, 2]
obj = 7045
----------
source = [10, 1, 7, 3, 4, 3, 7, 3, 4, 10, 3, 10, 1, 4, 4, 10, 4, 3, 4, 10]
open = [true, false, true, true, false, false, true, false, false, true]
trucks_used = [1, 0, 2, 2, 0, 0, 1, 0, 0, 2]
truck_assigned = [1, 1, 1, 2, 1, 1, 1, 1, 1, 1, 2, 2, 1, 1, 2, 2, 2, 2, 2, 2]
obj = 7031
----------
source = [3, 10, 7, 1, 4, 3, 7, 3, 4, 10, 3, 10, 3, 4, 4, 1, 4, 3, 4, 10]
open = [true, false, true, true, false, false, true, false, false, true]
trucks_used = [1, 0, 2, 2, 0, 0, 1, 0, 0, 2]
truck_assigned = [2, 2, 1, 1, 2, 1, 1, 2, 2, 2, 2, 2, 1, 1, 1, 1, 1, 2, 2, 2]
obj = 7002
----------
source = [10, 10, 7, 3, 4, 3, 7, 3, 10, 4, 3, 4, 10, 4, 4, 1, 4, 3, 1, 10]
open = [true, false, true, true, false, false, true, false, false, true]
trucks_used = [1, 0, 2, 2, 0, 0, 1, 0, 0, 2]
truck_assigned = [2, 1, 1, 1, 2, 1, 1, 2, 2, 1, 2, 1, 2, 1, 2, 1, 2, 2, 1, 2]
obj = 6993
----------
source = [10, 10, 7, 3, 4, 3, 7, 3, 10, 4, 3, 4, 3, 4, 4, 10, 4, 1, 1, 10]
open = [true, false, true, true, false, false, true, false, false, true]
trucks_used = [1, 0, 2, 2, 0, 0, 1, 0, 0, 2]
truck_assigned = [2, 1, 1, 2, 2, 1, 1, 2, 2, 1, 1, 1, 1, 1, 2, 2, 2, 1, 1, 2]
obj = 6980
----------
source = [10, 10, 7, 3, 4, 3, 7, 3, 10, 4, 3, 4, 10, 4, 4, 1, 4, 1, 3, 10]
open = [true, false, true, true, false, false, true, false, false, true]
trucks_used = [1, 0, 2, 2, 0, 0, 1, 0, 0, 2]
truck_assigned = [2, 1, 1, 2, 2, 1, 1, 2, 2, 1, 1, 1, 2, 1, 2, 1, 2, 1, 2, 2]
obj = 6967
----------
source = [3, 10, 7, 1, 4, 3, 7, 3, 4, 3, 3, 10, 10, 4, 4, 10, 4, 1, 4, 10]
open = [true, false, true, true, false, false, true, false, false, true]
trucks_used = [1, 0, 2, 2, 0, 0, 1, 0, 0, 2]
truck_assigned = [2, 2, 1, 1, 2, 1, 1, 2, 1, 2, 2, 2, 2, 1, 2, 1, 2, 1, 1, 2]
obj = 6959
----------
source = [3, 10, 7, 4, 4, 3, 7, 3, 1, 4, 3, 10, 10, 4, 4, 10, 4, 1, 3, 10]
open = [true, false, true, true, false, false, true, false, false, true]
trucks_used = [1, 0, 2, 2, 0, 0, 1, 0, 0, 2]
truck_assigned = [2, 2, 1, 1, 2, 1, 1, 2, 1, 1, 2, 2, 2, 1, 2, 1, 2, 1, 2, 2]
obj = 6955
----------
source = [3, 10, 7, 10, 4, 3, 7, 3, 10, 4, 3, 4, 3, 4, 4, 3, 4, 1, 1, 10]
open = [true, false, true, true, false, false, true, false, false, true]
trucks_used = [1, 0, 2, 2, 0, 0, 1, 0, 0, 2]
truck_assigned = [2, 2, 1, 2, 2, 1, 1, 2, 2, 1, 2, 1, 2, 1, 2, 1, 2, 1, 1, 2]
obj = 6948
----------
source = [10, 10, 7, 10, 4, 3, 7, 3, 3, 4, 3, 4, 3, 4, 4, 10, 4, 1, 1, 10]
open = [true, false, true, true, false, false, true, false, false, true]
trucks_used = [1, 0, 2, 2, 0, 0, 1, 0, 0, 2]
truck_assigned = [2, 2, 1, 1, 2, 1, 1, 2, 1, 1, 2, 1, 2, 1, 2, 2, 2, 1, 1, 2]
obj = 6934
----------
source = [3, 10, 7, 10, 4, 3, 7, 3, 10, 4, 3, 4, 1, 4, 4, 1, 4, 1, 3, 10]
open = [true, false, true, true, false, false, true, false, false, true]
trucks_used = [1, 0, 2, 2, 0, 0, 1, 0, 0, 2]
truck_assigned = [2, 2, 1, 2, 2, 1, 1, 2, 2, 1, 2, 1, 1, 1, 2, 1, 2, 1, 2, 2]
obj = 6930
----------
source = [3, 10, 3, 4, 4, 3, 7, 3, 4, 10, 3, 10, 7, 4, 4, 7, 4, 1, 1, 10]
open = [true, false, true, true, false, false, true, false, false, true]
trucks_used = [1, 0, 2, 2, 0, 0, 1, 0, 0, 2]
truck_assigned = [2, 2, 1, 1, 2, 1, 1, 2, 1, 2, 2, 2, 1, 1, 2, 1, 2, 1, 1, 2]
obj = 6915
----------
source = [3, 10, 3, 10, 4, 3, 7, 3, 10, 4, 3, 4, 7, 4, 4, 7, 4, 1, 1, 10]
open = [true, false, true, true, false, false, true, false, false, true]
trucks_used = [1, 0, 2, 2, 0, 0, 1, 0, 0, 2]
truck_assigned = [2, 2, 1, 2, 2, 1, 1, 2, 2, 1, 2, 1, 1, 1, 2, 1, 2, 1, 1, 2]
obj = 6904
----------
source = [3, 10, 7, 4, 4, 3, 7, 3, 4, 3, 3, 10, 10, 4, 4, 10, 4, 1, 1, 10]
open = [true, false, true, true, false, false, true, false, false, true]
trucks_used = [1, 0, 2, 2, 0, 0, 1, 0, 0, 2]
truck_assigned = [2, 2, 1, 1, 2, 1, 1, 2, 1, 2, 2, 2, 1, 1, 2, 2, 2, 1, 1, 2]
obj = 6901
----------
source = [10, 10, 7, 10, 4, 3, 7, 3, 4, 3, 3, 4, 3, 4, 4, 4, 10, 1, 1, 10]
open = [true, false, true, true, false, false, true, false, false, true]
trucks_used = [1, 0, 2, 2, 0, 0, 1, 0, 0, 2]
truck_assigned = [2, 2, 1, 2, 2, 1, 1, 2, 2, 1, 2, 1, 2, 1, 2, 1, 2, 1, 1, 2]
obj = 6894
----------
source = [10, 10, 3, 10, 4, 3, 7, 3, 4, 4, 3, 4, 7, 3, 4, 7, 10, 1, 1, 10]
open = [true, false, true, true, false, false, true, false, false, true]
trucks_used = [1, 0, 2, 2, 0, 0, 1, 0, 0, 2]
truck_assigned = [2, 2, 2, 2, 2, 1, 1, 2, 2, 1, 2, 1, 1, 1, 2, 1, 1, 1, 1, 2]
obj = 6882
----------
source = [10, 10, 3, 10, 4, 3, 7, 3, 4, 4, 3, 4, 7, 1, 4, 7, 10, 3, 1, 10]
open = [true, false, true, true, false, false, true, false, false, true]
trucks_used = [1, 0, 2, 2, 0, 0, 1, 0, 0, 2]
truck_assigned = [2, 2, 2, 2, 2, 1, 1, 2, 2, 1, 2, 1, 1, 1, 2, 1, 1, 1, 1, 2]
obj = 6881
----------
source = [10, 4, 3, 10, 4, 3, 7, 3, 4, 4, 3, 10, 7, 3, 4, 7, 10, 1, 1, 10]
open = [true, false, true, true, false, false, true, false, false, true]
trucks_used = [1, 0, 2, 2, 0, 0, 1, 0, 0, 2]
truck_assigned = [2, 1, 2, 2, 2, 1, 1, 2, 2, 1, 2, 2, 1, 1, 2, 1, 2, 1, 1, 2]
obj = 6863
----------
source = [10, 4, 3, 10, 4, 3, 7, 3, 4, 4, 3, 10, 7, 1, 4, 7, 10, 3, 1, 10]
open = [true, false, true, true, false, false, true, false, false, true]
trucks_used = [1, 0, 2, 2, 0, 0, 1, 0, 0, 2]
truck_assigned = [2, 1, 2, 2, 2, 1, 1, 2, 2, 1, 2, 2, 1, 1, 2, 1, 2, 1, 1, 2]
obj = 6862
----------
