+ /usr/bin/timeout 600 /usr/bin/time -v mzn-chuffed lbbd-datasets/Rabadi-2006/dzn-balanced/model.mzn lbbd-datasets/Rabadi-2006/dzn-balanced/9on6Rp50Rs50_7Ameer.dzn
% No search annotation given. Defaulting to VSIDS!
assign = array1d(1..15 ,[6, 6, 6, 6, 6, 6, 6, 6, 6, 1, 2, 3, 4, 5, 6]);
next = array1d(1..15 ,[2, 3, 4, 5, 6, 7, 8, 9, 15, 11, 12, 13, 14, 1, 10]);
makespan = 1409;
----------
assign = array1d(1..15 ,[6, 6, 6, 6, 6, 6, 6, 6, 6, 1, 2, 3, 4, 5, 6]);
next = array1d(1..15 ,[3, 4, 2, 5, 6, 7, 8, 9, 15, 11, 12, 13, 14, 1, 10]);
makespan = 1387;
----------
assign = array1d(1..15 ,[6, 6, 6, 6, 6, 6, 6, 6, 6, 1, 2, 3, 4, 5, 6]);
next = array1d(1..15 ,[2, 8, 4, 5, 6, 7, 1, 9, 15, 11, 12, 13, 14, 3, 10]);
makespan = 1382;
----------
assign = array1d(1..15 ,[6, 6, 6, 6, 6, 6, 6, 6, 5, 1, 2, 3, 4, 5, 6]);
next = array1d(1..15 ,[2, 3, 4, 5, 6, 7, 8, 15, 14, 11, 12, 13, 9, 1, 10]);
makespan = 1271;
----------
assign = array1d(1..15 ,[6, 6, 4, 6, 6, 6, 6, 6, 6, 1, 2, 3, 4, 5, 6]);
next = array1d(1..15 ,[2, 15, 13, 5, 1, 7, 8, 9, 4, 11, 12, 3, 14, 6, 10]);
makespan = 1250;
----------
assign = array1d(1..15 ,[6, 6, 5, 6, 6, 6, 6, 6, 6, 1, 2, 3, 4, 5, 6]);
next = array1d(1..15 ,[2, 8, 14, 5, 15, 7, 1, 9, 4, 11, 12, 13, 3, 6, 10]);
makespan = 1235;
----------
assign = array1d(1..15 ,[6, 6, 2, 6, 6, 6, 6, 6, 6, 1, 2, 3, 4, 5, 6]);
next = array1d(1..15 ,[2, 15, 11, 5, 6, 7, 1, 9, 4, 3, 12, 13, 14, 8, 10]);
makespan = 1222;
----------
assign = array1d(1..15 ,[6, 6, 5, 6, 6, 6, 6, 6, 6, 1, 2, 3, 4, 5, 6]);
next = array1d(1..15 ,[2, 8, 14, 5, 15, 7, 1, 9, 4, 11, 12, 13, 3, 6, 10]);
makespan = 1206;
----------
assign = array1d(1..15 ,[6, 6, 2, 6, 6, 6, 6, 6, 6, 1, 2, 3, 4, 5, 6]);
next = array1d(1..15 ,[2, 15, 11, 5, 6, 7, 1, 9, 4, 3, 12, 13, 14, 8, 10]);
makespan = 1179;
----------
assign = array1d(1..15 ,[6, 6, 5, 6, 6, 6, 6, 6, 6, 1, 2, 3, 4, 5, 6]);
next = array1d(1..15 ,[2, 15, 14, 5, 6, 7, 1, 9, 4, 11, 12, 13, 3, 8, 10]);
makespan = 1177;
----------
assign = array1d(1..15 ,[6, 1, 6, 6, 6, 6, 6, 1, 6, 1, 2, 3, 4, 5, 6]);
next = array1d(1..15 ,[9, 8, 15, 5, 1, 4, 6, 10, 3, 11, 12, 13, 14, 7, 2]);
makespan = 1174;
----------
assign = array1d(1..15 ,[6, 6, 6, 6, 6, 5, 5, 6, 6, 1, 2, 3, 4, 5, 6]);
next = array1d(1..15 ,[9, 3, 15, 5, 1, 7, 14, 2, 8, 11, 12, 13, 6, 4, 10]);
makespan = 1172;
----------
assign = array1d(1..15 ,[6, 6, 6, 6, 6, 2, 2, 6, 6, 1, 2, 3, 4, 5, 6]);
next = array1d(1..15 ,[9, 3, 15, 5, 1, 7, 11, 2, 8, 6, 12, 13, 14, 4, 10]);
makespan = 1164;
----------
assign = array1d(1..15 ,[6, 6, 6, 6, 6, 4, 4, 6, 6, 1, 2, 3, 4, 5, 6]);
next = array1d(1..15 ,[9, 3, 15, 5, 1, 7, 13, 2, 8, 11, 12, 6, 14, 4, 10]);
makespan = 1159;
----------
assign = array1d(1..15 ,[6, 6, 6, 6, 6, 1, 1, 6, 6, 1, 2, 3, 4, 5, 6]);
next = array1d(1..15 ,[15, 3, 4, 5, 1, 7, 10, 2, 8, 11, 12, 13, 14, 9, 6]);
makespan = 1158;
----------
assign = array1d(1..15 ,[6, 6, 6, 6, 6, 5, 5, 6, 6, 1, 2, 3, 4, 5, 6]);
next = array1d(1..15 ,[15, 3, 4, 5, 1, 7, 14, 2, 8, 11, 12, 13, 6, 9, 10]);
makespan = 1157;
----------
assign = array1d(1..15 ,[6, 6, 6, 6, 6, 1, 1, 6, 6, 1, 2, 3, 4, 5, 6]);
next = array1d(1..15 ,[2, 3, 15, 5, 1, 7, 10, 4, 8, 11, 12, 13, 14, 9, 6]);
makespan = 1156;
----------
assign = array1d(1..15 ,[6, 6, 6, 6, 6, 4, 4, 6, 6, 1, 2, 3, 4, 5, 6]);
next = array1d(1..15 ,[2, 3, 15, 5, 1, 7, 13, 4, 8, 11, 12, 6, 14, 9, 10]);
makespan = 1153;
----------
assign = array1d(1..15 ,[6, 6, 4, 5, 6, 6, 6, 6, 6, 1, 2, 3, 4, 5, 6]);
next = array1d(1..15 ,[8, 15, 13, 14, 9, 5, 2, 6, 7, 11, 12, 3, 4, 1, 10]);
makespan = 1146;
----------
assign = array1d(1..15 ,[6, 6, 5, 5, 6, 6, 6, 6, 6, 1, 2, 3, 4, 5, 6]);
next = array1d(1..15 ,[7, 9, 14, 3, 15, 1, 5, 6, 8, 11, 12, 13, 4, 2, 10]);
makespan = 1144;
----------
assign = array1d(1..15 ,[2, 6, 6, 6, 6, 6, 2, 6, 6, 1, 2, 3, 4, 5, 6]);
next = array1d(1..15 ,[11, 3, 8, 5, 15, 4, 1, 6, 2, 7, 12, 13, 14, 9, 10]);
makespan = 1140;
----------
assign = array1d(1..15 ,[6, 6, 6, 6, 6, 6, 1, 5, 6, 1, 2, 3, 4, 5, 6]);
next = array1d(1..15 ,[15, 3, 4, 5, 9, 2, 10, 14, 1, 11, 12, 13, 8, 6, 7]);
makespan = 1139;
----------
assign = array1d(1..15 ,[6, 6, 6, 1, 6, 6, 6, 5, 6, 1, 2, 3, 4, 5, 6]);
next = array1d(1..15 ,[9, 3, 1, 10, 15, 7, 2, 14, 5, 11, 12, 13, 8, 6, 4]);
makespan = 1127;
----------
assign = array1d(1..15 ,[1, 6, 6, 6, 1, 6, 6, 6, 6, 1, 2, 3, 4, 5, 6]);
next = array1d(1..15 ,[10, 8, 4, 2, 1, 7, 15, 6, 3, 11, 12, 13, 14, 9, 5]);
makespan = 1125;
----------
assign = array1d(1..15 ,[6, 6, 6, 6, 6, 6, 5, 5, 6, 1, 2, 3, 4, 5, 6]);
next = array1d(1..15 ,[9, 1, 2, 5, 15, 4, 14, 7, 6, 11, 12, 13, 8, 3, 10]);
makespan = 1122;
----------
assign = array1d(1..15 ,[6, 6, 6, 6, 6, 6, 4, 4, 6, 1, 2, 3, 4, 5, 6]);
next = array1d(1..15 ,[15, 3, 4, 6, 2, 9, 13, 7, 1, 11, 12, 8, 14, 5, 10]);
makespan = 1121;
----------
assign = array1d(1..15 ,[6, 6, 6, 6, 1, 6, 1, 6, 6, 1, 2, 3, 4, 5, 6]);
next = array1d(1..15 ,[9, 4, 1, 15, 7, 2, 10, 6, 8, 11, 12, 13, 14, 3, 5]);
makespan = 1115;
----------
assign = array1d(1..15 ,[6, 6, 6, 1, 5, 6, 6, 6, 6, 1, 2, 3, 4, 5, 6]);
next = array1d(1..15 ,[7, 1, 2, 10, 14, 15, 6, 3, 8, 11, 12, 13, 5, 9, 4]);
makespan = 1112;
----------
assign = array1d(1..15 ,[6, 6, 6, 6, 1, 6, 5, 6, 6, 1, 2, 3, 4, 5, 6]);
next = array1d(1..15 ,[2, 4, 6, 15, 10, 1, 14, 3, 8, 11, 12, 13, 7, 9, 5]);
makespan = 1111;
----------
assign = array1d(1..15 ,[6, 6, 6, 6, 1, 6, 6, 6, 5, 1, 2, 3, 4, 5, 6]);
next = array1d(1..15 ,[6, 3, 15, 1, 10, 7, 2, 4, 14, 11, 12, 13, 9, 8, 5]);
makespan = 1109;
----------
assign = array1d(1..15 ,[6, 6, 6, 6, 6, 6, 5, 6, 1, 1, 2, 3, 4, 5, 6]);
next = array1d(1..15 ,[8, 6, 15, 5, 1, 4, 14, 3, 10, 11, 12, 13, 7, 2, 9]);
makespan = 1108;
----------
assign = array1d(1..15 ,[6, 6, 5, 6, 6, 6, 6, 5, 6, 1, 2, 3, 4, 5, 6]);
next = array1d(1..15 ,[9, 4, 8, 5, 15, 2, 1, 14, 6, 11, 12, 13, 3, 7, 10]);
makespan = 1107;
----------
assign = array1d(1..15 ,[6, 6, 6, 4, 4, 6, 6, 6, 6, 1, 2, 3, 4, 5, 6]);
next = array1d(1..15 ,[7, 1, 2, 13, 4, 15, 6, 3, 8, 11, 12, 5, 14, 9, 10]);
makespan = 1105;
----------
assign = array1d(1..15 ,[6, 6, 6, 5, 2, 6, 6, 6, 6, 1, 2, 3, 4, 5, 6]);
next = array1d(1..15 ,[7, 3, 1, 14, 11, 9, 8, 6, 15, 5, 12, 13, 4, 2, 10]);
makespan = 1104;
----------
assign = array1d(1..15 ,[6, 6, 6, 6, 2, 6, 6, 2, 6, 1, 2, 3, 4, 5, 6]);
next = array1d(1..15 ,[9, 15, 2, 6, 11, 1, 4, 5, 3, 8, 12, 13, 14, 7, 10]);
makespan = 1103;
----------
assign = array1d(1..15 ,[6, 5, 6, 6, 2, 6, 6, 6, 6, 1, 2, 3, 4, 5, 6]);
next = array1d(1..15 ,[8, 14, 4, 7, 11, 15, 9, 3, 6, 5, 12, 13, 2, 1, 10]);
makespan = 1102;
----------
assign = array1d(1..15 ,[6, 6, 6, 6, 6, 6, 5, 5, 6, 1, 2, 3, 4, 5, 6]);
next = array1d(1..15 ,[9, 4, 15, 6, 3, 1, 8, 14, 5, 11, 12, 13, 7, 2, 10]);
makespan = 1101;
----------
assign = array1d(1..15 ,[6, 1, 6, 6, 5, 6, 6, 6, 6, 1, 2, 3, 4, 5, 6]);
next = array1d(1..15 ,[4, 10, 15, 3, 14, 7, 1, 6, 8, 11, 12, 13, 5, 9, 2]);
makespan = 1099;
----------
assign = array1d(1..15 ,[6, 6, 2, 6, 6, 6, 5, 6, 6, 1, 2, 3, 4, 5, 6]);
next = array1d(1..15 ,[9, 8, 11, 15, 4, 1, 14, 6, 5, 3, 12, 13, 7, 2, 10]);
makespan = 1098;
----------
assign = array1d(1..15 ,[6, 6, 2, 6, 6, 6, 2, 6, 6, 1, 2, 3, 4, 5, 6]);
next = array1d(1..15 ,[15, 4, 11, 5, 1, 8, 3, 2, 6, 7, 12, 13, 14, 9, 10]);
makespan = 1097;
----------
assign = array1d(1..15 ,[6, 6, 5, 6, 6, 6, 5, 6, 6, 1, 2, 3, 4, 5, 6]);
next = array1d(1..15 ,[4, 9, 7, 5, 2, 15, 14, 6, 8, 11, 12, 13, 3, 1, 10]);
makespan = 1096;
----------
assign = array1d(1..15 ,[6, 6, 5, 5, 6, 6, 6, 6, 6, 1, 2, 3, 4, 5, 6]);
next = array1d(1..15 ,[7, 6, 14, 3, 1, 5, 9, 15, 8, 11, 12, 13, 4, 2, 10]);
makespan = 1095;
----------
assign = array1d(1..15 ,[6, 6, 6, 6, 5, 6, 1, 6, 6, 1, 2, 3, 4, 5, 6]);
next = array1d(1..15 ,[9, 1, 4, 6, 14, 15, 10, 3, 8, 11, 12, 13, 5, 2, 7]);
makespan = 1094;
----------
assign = array1d(1..15 ,[6, 6, 5, 6, 6, 6, 1, 6, 6, 1, 2, 3, 4, 5, 6]);
next = array1d(1..15 ,[6, 8, 14, 5, 1, 9, 10, 4, 15, 11, 12, 13, 3, 2, 7]);
makespan = 1093;
----------
assign = array1d(1..15 ,[6, 6, 2, 1, 6, 6, 6, 6, 6, 1, 2, 3, 4, 5, 6]);
next = array1d(1..15 ,[7, 5, 11, 10, 9, 15, 2, 6, 8, 3, 12, 13, 14, 1, 4]);
makespan = 1092;
----------
assign = array1d(1..15 ,[6, 6, 3, 6, 6, 6, 5, 6, 6, 1, 2, 3, 4, 5, 6]);
next = array1d(1..15 ,[2, 4, 12, 6, 15, 9, 14, 5, 8, 11, 3, 13, 7, 1, 10]);
makespan = 1090;
----------
assign = array1d(1..15 ,[6, 6, 5, 6, 6, 6, 5, 6, 6, 1, 2, 3, 4, 5, 6]);
next = array1d(1..15 ,[15, 1, 14, 5, 2, 4, 3, 6, 8, 11, 12, 13, 7, 9, 10]);
makespan = 1089;
----------
assign = array1d(1..15 ,[6, 4, 4, 6, 6, 6, 6, 6, 6, 1, 2, 3, 4, 5, 6]);
next = array1d(1..15 ,[4, 13, 2, 15, 8, 7, 9, 6, 1, 11, 12, 3, 14, 5, 10]);
makespan = 1088;
----------
assign = array1d(1..15 ,[6, 1, 1, 6, 6, 6, 6, 6, 6, 1, 2, 3, 4, 5, 6]);
next = array1d(1..15 ,[5, 3, 10, 15, 9, 1, 4, 6, 7, 11, 12, 13, 14, 8, 2]);
makespan = 1087;
----------
assign = array1d(1..15 ,[6, 6, 5, 6, 1, 6, 6, 6, 6, 1, 2, 3, 4, 5, 6]);
next = array1d(1..15 ,[9, 4, 14, 15, 10, 2, 6, 7, 8, 11, 12, 13, 3, 1, 5]);
makespan = 1086;
----------
assign = array1d(1..15 ,[6, 6, 5, 6, 5, 6, 6, 6, 6, 1, 2, 3, 4, 5, 6]);
next = array1d(1..15 ,[9, 4, 14, 8, 3, 15, 6, 1, 7, 11, 12, 13, 5, 2, 10]);
makespan = 1085;
----------
assign = array1d(1..15 ,[6, 6, 5, 6, 6, 6, 3, 6, 6, 1, 2, 3, 4, 5, 6]);
next = array1d(1..15 ,[15, 4, 14, 5, 6, 1, 12, 2, 8, 11, 7, 13, 3, 9, 10]);
makespan = 1084;
----------
assign = array1d(1..15 ,[6, 5, 5, 6, 6, 6, 6, 6, 6, 1, 2, 3, 4, 5, 6]);
next = array1d(1..15 ,[7, 14, 2, 15, 9, 5, 4, 1, 8, 11, 12, 13, 3, 6, 10]);
makespan = 1083;
----------
assign = array1d(1..15 ,[6, 6, 5, 6, 6, 6, 3, 6, 6, 1, 2, 3, 4, 5, 6]);
next = array1d(1..15 ,[2, 4, 14, 15, 1, 9, 12, 5, 8, 11, 7, 13, 3, 6, 10]);
makespan = 1082;
----------
assign = array1d(1..15 ,[6, 5, 5, 6, 6, 6, 6, 6, 6, 1, 2, 3, 4, 5, 6]);
next = array1d(1..15 ,[9, 3, 14, 15, 4, 5, 1, 6, 8, 11, 12, 13, 2, 7, 10]);
makespan = 1081;
----------
assign = array1d(1..15 ,[6, 5, 5, 6, 6, 6, 6, 6, 6, 1, 2, 3, 4, 5, 6]);
next = array1d(1..15 ,[5, 3, 14, 15, 9, 1, 6, 4, 8, 11, 12, 13, 2, 7, 10]);
makespan = 1080;
----------
assign = array1d(1..15 ,[6, 5, 5, 6, 6, 6, 6, 6, 6, 1, 2, 3, 4, 5, 6]);
next = array1d(1..15 ,[9, 3, 14, 1, 15, 4, 5, 6, 7, 11, 12, 13, 2, 8, 10]);
makespan = 1079;
----------
assign = array1d(1..15 ,[2, 6, 6, 6, 6, 6, 6, 5, 6, 1, 2, 3, 4, 5, 6]);
next = array1d(1..15 ,[11, 9, 15, 3, 6, 4, 2, 14, 5, 1, 12, 13, 8, 7, 10]);
makespan = 1077;
----------
assign = array1d(1..15 ,[4, 6, 6, 6, 6, 6, 6, 3, 6, 1, 2, 3, 4, 5, 6]);
next = array1d(1..15 ,[13, 6, 15, 3, 7, 4, 2, 12, 5, 11, 8, 1, 14, 9, 10]);
makespan = 1076;
----------
assign = array1d(1..15 ,[6, 6, 6, 6, 6, 6, 6, 3, 3, 1, 2, 3, 4, 5, 6]);
next = array1d(1..15 ,[15, 5, 1, 3, 6, 4, 2, 12, 8, 11, 9, 13, 14, 7, 10]);
makespan = 1073;
----------
assign = array1d(1..15 ,[6, 6, 6, 6, 6, 6, 6, 5, 5, 1, 2, 3, 4, 5, 6]);
next = array1d(1..15 ,[15, 5, 1, 3, 6, 4, 2, 14, 8, 11, 12, 13, 9, 7, 10]);
makespan = 1070;
----------
assign = array1d(1..15 ,[6, 6, 6, 6, 6, 6, 6, 4, 4, 1, 2, 3, 4, 5, 6]);
next = array1d(1..15 ,[15, 5, 1, 3, 6, 4, 2, 13, 8, 11, 12, 9, 14, 7, 10]);
makespan = 1068;
----------
assign = array1d(1..15 ,[6, 6, 6, 6, 6, 6, 6, 5, 5, 1, 2, 3, 4, 5, 6]);
next = array1d(1..15 ,[15, 5, 1, 3, 6, 4, 2, 14, 8, 11, 12, 13, 9, 7, 10]);
makespan = 1067;
----------
assign = array1d(1..15 ,[6, 6, 6, 6, 6, 6, 6, 2, 2, 1, 2, 3, 4, 5, 6]);
next = array1d(1..15 ,[15, 5, 1, 3, 6, 4, 2, 11, 8, 9, 12, 13, 14, 7, 10]);
makespan = 1060;
----------
assign = array1d(1..15 ,[6, 6, 6, 6, 6, 6, 6, 5, 5, 1, 2, 3, 4, 5, 6]);
next = array1d(1..15 ,[15, 5, 1, 3, 6, 4, 2, 14, 8, 11, 12, 13, 9, 7, 10]);
makespan = 1059;
----------
assign = array1d(1..15 ,[6, 6, 4, 6, 6, 6, 6, 4, 6, 1, 2, 3, 4, 5, 6]);
next = array1d(1..15 ,[15, 9, 13, 1, 6, 4, 2, 3, 5, 11, 12, 8, 14, 7, 10]);
makespan = 1055;
----------
assign = array1d(1..15 ,[6, 6, 5, 6, 6, 6, 6, 5, 6, 1, 2, 3, 4, 5, 6]);
next = array1d(1..15 ,[15, 9, 14, 1, 6, 4, 2, 3, 5, 11, 12, 13, 8, 7, 10]);
makespan = 1054;
----------
assign = array1d(1..15 ,[6, 6, 4, 6, 6, 6, 6, 4, 6, 1, 2, 3, 4, 5, 6]);
next = array1d(1..15 ,[15, 9, 13, 1, 6, 4, 2, 3, 5, 11, 12, 8, 14, 7, 10]);
makespan = 1051;
----------
assign = array1d(1..15 ,[6, 6, 3, 6, 6, 6, 6, 3, 6, 1, 2, 3, 4, 5, 6]);
next = array1d(1..15 ,[15, 9, 12, 1, 6, 4, 2, 3, 5, 11, 8, 13, 14, 7, 10]);
makespan = 1049;
----------
assign = array1d(1..15 ,[6, 6, 4, 6, 6, 6, 6, 4, 6, 1, 2, 3, 4, 5, 6]);
next = array1d(1..15 ,[15, 9, 13, 1, 6, 4, 2, 3, 5, 11, 12, 8, 14, 7, 10]);
makespan = 1047;
----------
assign = array1d(1..15 ,[6, 6, 3, 6, 6, 6, 6, 3, 6, 1, 2, 3, 4, 5, 6]);
next = array1d(1..15 ,[15, 9, 12, 1, 6, 4, 2, 3, 5, 11, 8, 13, 14, 7, 10]);
makespan = 1046;
----------
assign = array1d(1..15 ,[6, 6, 5, 6, 6, 6, 6, 5, 6, 1, 2, 3, 4, 5, 6]);
next = array1d(1..15 ,[15, 9, 14, 1, 6, 4, 2, 3, 5, 11, 12, 13, 8, 7, 10]);
makespan = 1045;
----------
assign = array1d(1..15 ,[6, 6, 4, 6, 6, 6, 6, 4, 6, 1, 2, 3, 4, 5, 6]);
next = array1d(1..15 ,[15, 9, 13, 1, 6, 4, 2, 3, 5, 11, 12, 8, 14, 7, 10]);
makespan = 1042;
----------
assign = array1d(1..15 ,[6, 6, 3, 6, 6, 6, 6, 3, 6, 1, 2, 3, 4, 5, 6]);
next = array1d(1..15 ,[15, 9, 12, 1, 6, 4, 2, 3, 5, 11, 8, 13, 14, 7, 10]);
makespan = 1041;
----------
assign = array1d(1..15 ,[2, 6, 2, 6, 6, 6, 6, 2, 6, 1, 2, 3, 4, 5, 6]);
next = array1d(1..15 ,[11, 9, 1, 15, 6, 4, 2, 3, 5, 8, 12, 13, 14, 7, 10]);
makespan = 1040;
----------
assign = array1d(1..15 ,[1, 6, 1, 6, 6, 6, 6, 1, 6, 1, 2, 3, 4, 5, 6]);
next = array1d(1..15 ,[10, 9, 1, 15, 6, 4, 2, 3, 5, 11, 12, 13, 14, 7, 8]);
makespan = 1039;
----------
assign = array1d(1..15 ,[2, 6, 2, 6, 6, 6, 6, 2, 6, 1, 2, 3, 4, 5, 6]);
next = array1d(1..15 ,[11, 9, 1, 15, 6, 4, 2, 3, 5, 8, 12, 13, 14, 7, 10]);
makespan = 1038;
----------
assign = array1d(1..15 ,[1, 6, 1, 6, 6, 6, 6, 1, 6, 1, 2, 3, 4, 5, 6]);
next = array1d(1..15 ,[10, 9, 1, 15, 6, 4, 2, 3, 5, 11, 12, 13, 14, 7, 8]);
makespan = 1037;
----------
assign = array1d(1..15 ,[3, 6, 3, 6, 6, 6, 6, 3, 6, 1, 2, 3, 4, 5, 6]);
next = array1d(1..15 ,[12, 9, 1, 15, 6, 4, 2, 3, 5, 11, 8, 13, 14, 7, 10]);
makespan = 1036;
----------
assign = array1d(1..15 ,[1, 6, 1, 6, 6, 6, 6, 1, 6, 1, 2, 3, 4, 5, 6]);
next = array1d(1..15 ,[10, 9, 1, 15, 6, 4, 2, 3, 5, 11, 12, 13, 14, 7, 8]);
makespan = 1035;
----------
assign = array1d(1..15 ,[3, 6, 3, 6, 6, 6, 6, 3, 6, 1, 2, 3, 4, 5, 6]);
next = array1d(1..15 ,[12, 9, 1, 15, 6, 4, 2, 3, 5, 11, 8, 13, 14, 7, 10]);
makespan = 1033;
----------
assign = array1d(1..15 ,[1, 6, 1, 6, 6, 6, 6, 1, 6, 1, 2, 3, 4, 5, 6]);
next = array1d(1..15 ,[10, 9, 1, 15, 6, 4, 2, 3, 5, 11, 12, 13, 14, 7, 8]);
makespan = 1032;
----------
assign = array1d(1..15 ,[3, 6, 3, 6, 6, 6, 6, 3, 6, 1, 2, 3, 4, 5, 6]);
next = array1d(1..15 ,[12, 9, 1, 15, 6, 4, 2, 3, 5, 11, 8, 13, 14, 7, 10]);
makespan = 1031;
----------
assign = array1d(1..15 ,[1, 6, 1, 6, 6, 6, 6, 1, 6, 1, 2, 3, 4, 5, 6]);
next = array1d(1..15 ,[10, 9, 1, 15, 6, 4, 2, 3, 5, 11, 12, 13, 14, 7, 8]);
makespan = 1030;
----------
assign = array1d(1..15 ,[3, 6, 3, 6, 6, 6, 6, 3, 6, 1, 2, 3, 4, 5, 6]);
next = array1d(1..15 ,[12, 9, 1, 15, 6, 4, 2, 3, 5, 11, 8, 13, 14, 7, 10]);
makespan = 1029;
----------
assign = array1d(1..15 ,[1, 6, 1, 6, 6, 6, 6, 1, 6, 1, 2, 3, 4, 5, 6]);
next = array1d(1..15 ,[10, 9, 1, 15, 6, 4, 2, 3, 5, 11, 12, 13, 14, 7, 8]);
makespan = 1028;
----------
assign = array1d(1..15 ,[1, 6, 1, 6, 6, 6, 6, 1, 6, 1, 2, 3, 4, 5, 6]);
next = array1d(1..15 ,[10, 9, 1, 15, 6, 4, 2, 3, 5, 11, 12, 13, 14, 7, 8]);
makespan = 1027;
----------
assign = array1d(1..15 ,[2, 6, 2, 6, 6, 6, 6, 2, 6, 1, 2, 3, 4, 5, 6]);
next = array1d(1..15 ,[11, 9, 1, 15, 6, 4, 2, 3, 5, 8, 12, 13, 14, 7, 10]);
makespan = 1026;
----------
assign = array1d(1..15 ,[3, 6, 3, 6, 6, 6, 6, 3, 6, 1, 2, 3, 4, 5, 6]);
next = array1d(1..15 ,[12, 9, 1, 15, 6, 4, 2, 3, 5, 11, 8, 13, 14, 7, 10]);
makespan = 1025;
----------
assign = array1d(1..15 ,[1, 6, 1, 6, 6, 6, 6, 1, 6, 1, 2, 3, 4, 5, 6]);
next = array1d(1..15 ,[10, 9, 1, 15, 6, 4, 2, 3, 5, 11, 12, 13, 14, 7, 8]);
makespan = 1023;
----------
assign = array1d(1..15 ,[3, 6, 3, 6, 6, 6, 6, 3, 6, 1, 2, 3, 4, 5, 6]);
next = array1d(1..15 ,[12, 9, 1, 15, 6, 4, 2, 3, 5, 11, 8, 13, 14, 7, 10]);
makespan = 1022;
----------
assign = array1d(1..15 ,[1, 6, 1, 6, 6, 6, 6, 1, 6, 1, 2, 3, 4, 5, 6]);
next = array1d(1..15 ,[10, 9, 1, 15, 6, 4, 2, 3, 5, 11, 12, 13, 14, 7, 8]);
makespan = 1020;
----------
assign = array1d(1..15 ,[3, 6, 3, 6, 6, 6, 6, 3, 6, 1, 2, 3, 4, 5, 6]);
next = array1d(1..15 ,[12, 9, 1, 15, 6, 4, 2, 3, 5, 11, 8, 13, 14, 7, 10]);
makespan = 1018;
----------
assign = array1d(1..15 ,[1, 6, 1, 6, 6, 6, 6, 1, 6, 1, 2, 3, 4, 5, 6]);
next = array1d(1..15 ,[10, 9, 1, 15, 6, 4, 2, 3, 5, 11, 12, 13, 14, 7, 8]);
makespan = 1017;
----------
assign = array1d(1..15 ,[3, 6, 3, 6, 6, 6, 6, 3, 6, 1, 2, 3, 4, 5, 6]);
next = array1d(1..15 ,[12, 9, 1, 15, 6, 4, 2, 3, 5, 11, 8, 13, 14, 7, 10]);
makespan = 1016;
----------
assign = array1d(1..15 ,[1, 6, 1, 6, 6, 6, 6, 1, 6, 1, 2, 3, 4, 5, 6]);
next = array1d(1..15 ,[10, 9, 1, 15, 6, 4, 2, 3, 5, 11, 12, 13, 14, 7, 8]);
makespan = 1013;
----------
assign = array1d(1..15 ,[3, 6, 3, 6, 6, 6, 6, 3, 6, 1, 2, 3, 4, 5, 6]);
next = array1d(1..15 ,[12, 9, 1, 15, 6, 4, 2, 3, 5, 11, 8, 13, 14, 7, 10]);
makespan = 1012;
----------
assign = array1d(1..15 ,[1, 6, 1, 6, 6, 6, 6, 1, 6, 1, 2, 3, 4, 5, 6]);
next = array1d(1..15 ,[10, 9, 1, 15, 6, 4, 2, 3, 5, 11, 12, 13, 14, 7, 8]);
makespan = 1009;
----------
assign = array1d(1..15 ,[3, 6, 3, 6, 6, 6, 6, 3, 6, 1, 2, 3, 4, 5, 6]);
next = array1d(1..15 ,[12, 9, 1, 15, 6, 4, 2, 3, 5, 11, 8, 13, 14, 7, 10]);
makespan = 1008;
----------
assign = array1d(1..15 ,[1, 6, 1, 6, 6, 6, 6, 1, 6, 1, 2, 3, 4, 5, 6]);
next = array1d(1..15 ,[10, 9, 1, 15, 6, 4, 2, 3, 5, 11, 12, 13, 14, 7, 8]);
makespan = 1007;
----------
assign = array1d(1..15 ,[3, 6, 3, 6, 6, 6, 6, 3, 6, 1, 2, 3, 4, 5, 6]);
next = array1d(1..15 ,[12, 9, 1, 15, 6, 4, 2, 3, 5, 11, 8, 13, 14, 7, 10]);
makespan = 1006;
----------
assign = array1d(1..15 ,[1, 6, 1, 6, 6, 6, 6, 1, 6, 1, 2, 3, 4, 5, 6]);
next = array1d(1..15 ,[10, 9, 1, 15, 6, 4, 2, 3, 5, 11, 12, 13, 14, 7, 8]);
makespan = 1004;
----------
assign = array1d(1..15 ,[3, 6, 3, 6, 6, 6, 6, 3, 6, 1, 2, 3, 4, 5, 6]);
next = array1d(1..15 ,[12, 9, 1, 15, 6, 4, 2, 3, 5, 11, 8, 13, 14, 7, 10]);
makespan = 1003;
----------
assign = array1d(1..15 ,[1, 6, 1, 6, 6, 6, 6, 1, 6, 1, 2, 3, 4, 5, 6]);
next = array1d(1..15 ,[10, 9, 1, 15, 6, 4, 2, 3, 5, 11, 12, 13, 14, 7, 8]);
makespan = 1001;
----------
assign = array1d(1..15 ,[3, 6, 3, 6, 6, 6, 6, 3, 6, 1, 2, 3, 4, 5, 6]);
next = array1d(1..15 ,[12, 9, 1, 15, 6, 4, 2, 3, 5, 11, 8, 13, 14, 7, 10]);
makespan = 1000;
----------
assign = array1d(1..15 ,[1, 6, 1, 6, 6, 6, 6, 1, 6, 1, 2, 3, 4, 5, 6]);
next = array1d(1..15 ,[10, 9, 1, 15, 6, 4, 2, 3, 5, 11, 12, 13, 14, 7, 8]);
makespan = 999;
----------
assign = array1d(1..15 ,[3, 6, 3, 6, 6, 6, 6, 3, 6, 1, 2, 3, 4, 5, 6]);
next = array1d(1..15 ,[12, 9, 1, 15, 6, 4, 2, 3, 5, 11, 8, 13, 14, 7, 10]);
makespan = 998;
----------
assign = array1d(1..15 ,[1, 6, 1, 6, 6, 6, 6, 1, 6, 1, 2, 3, 4, 5, 6]);
next = array1d(1..15 ,[10, 9, 1, 15, 6, 4, 2, 3, 5, 11, 12, 13, 14, 7, 8]);
makespan = 997;
----------
assign = array1d(1..15 ,[3, 6, 3, 6, 6, 6, 6, 3, 6, 1, 2, 3, 4, 5, 6]);
next = array1d(1..15 ,[12, 9, 1, 15, 6, 4, 2, 3, 5, 11, 8, 13, 14, 7, 10]);
makespan = 996;
----------
assign = array1d(1..15 ,[1, 6, 1, 6, 6, 6, 6, 1, 6, 1, 2, 3, 4, 5, 6]);
next = array1d(1..15 ,[10, 9, 1, 15, 6, 4, 2, 3, 5, 11, 12, 13, 14, 7, 8]);
makespan = 995;
----------
assign = array1d(1..15 ,[3, 6, 3, 6, 6, 6, 6, 3, 6, 1, 2, 3, 4, 5, 6]);
next = array1d(1..15 ,[12, 9, 1, 15, 6, 4, 2, 3, 5, 11, 8, 13, 14, 7, 10]);
makespan = 994;
----------
assign = array1d(1..15 ,[1, 6, 1, 6, 6, 6, 6, 1, 6, 1, 2, 3, 4, 5, 6]);
next = array1d(1..15 ,[10, 9, 1, 15, 6, 4, 2, 3, 5, 11, 12, 13, 14, 7, 8]);
makespan = 993;
----------
assign = array1d(1..15 ,[3, 6, 3, 6, 6, 6, 6, 3, 6, 1, 2, 3, 4, 5, 6]);
next = array1d(1..15 ,[12, 9, 1, 15, 6, 4, 2, 3, 5, 11, 8, 13, 14, 7, 10]);
makespan = 991;
----------
assign = array1d(1..15 ,[1, 6, 1, 6, 6, 6, 6, 1, 6, 1, 2, 3, 4, 5, 6]);
next = array1d(1..15 ,[10, 9, 1, 15, 6, 4, 2, 3, 5, 11, 12, 13, 14, 7, 8]);
makespan = 990;
----------
assign = array1d(1..15 ,[3, 6, 3, 6, 6, 6, 6, 3, 6, 1, 2, 3, 4, 5, 6]);
next = array1d(1..15 ,[12, 9, 1, 15, 6, 4, 2, 3, 5, 11, 8, 13, 14, 7, 10]);
makespan = 989;
----------
assign = array1d(1..15 ,[1, 6, 1, 6, 6, 6, 6, 1, 6, 1, 2, 3, 4, 5, 6]);
next = array1d(1..15 ,[10, 9, 1, 15, 6, 4, 2, 3, 5, 11, 12, 13, 14, 7, 8]);
makespan = 986;
----------
assign = array1d(1..15 ,[3, 6, 3, 6, 6, 6, 6, 3, 6, 1, 2, 3, 4, 5, 6]);
next = array1d(1..15 ,[12, 9, 1, 15, 6, 4, 2, 3, 5, 11, 8, 13, 14, 7, 10]);
makespan = 984;
----------
assign = array1d(1..15 ,[1, 6, 1, 6, 6, 6, 6, 1, 6, 1, 2, 3, 4, 5, 6]);
next = array1d(1..15 ,[10, 9, 1, 15, 6, 4, 2, 3, 5, 11, 12, 13, 14, 7, 8]);
makespan = 983;
----------
assign = array1d(1..15 ,[3, 6, 3, 6, 6, 6, 6, 3, 6, 1, 2, 3, 4, 5, 6]);
next = array1d(1..15 ,[12, 9, 1, 15, 6, 4, 2, 3, 5, 11, 8, 13, 14, 7, 10]);
makespan = 979;
----------
assign = array1d(1..15 ,[1, 6, 1, 6, 6, 6, 6, 1, 6, 1, 2, 3, 4, 5, 6]);
next = array1d(1..15 ,[10, 9, 1, 15, 6, 4, 2, 3, 5, 11, 12, 13, 14, 7, 8]);
makespan = 975;
----------
assign = array1d(1..15 ,[3, 6, 3, 6, 6, 6, 6, 3, 6, 1, 2, 3, 4, 5, 6]);
next = array1d(1..15 ,[12, 9, 1, 15, 6, 4, 2, 3, 5, 11, 8, 13, 14, 7, 10]);
makespan = 973;
----------
assign = array1d(1..15 ,[1, 6, 1, 6, 6, 6, 6, 1, 6, 1, 2, 3, 4, 5, 6]);
next = array1d(1..15 ,[10, 9, 1, 15, 6, 4, 2, 3, 5, 11, 12, 13, 14, 7, 8]);
makespan = 970;
----------
assign = array1d(1..15 ,[3, 6, 3, 6, 6, 6, 6, 3, 6, 1, 2, 3, 4, 5, 6]);
next = array1d(1..15 ,[12, 9, 1, 15, 6, 4, 2, 3, 5, 11, 8, 13, 14, 7, 10]);
makespan = 969;
----------
assign = array1d(1..15 ,[3, 6, 3, 6, 6, 6, 6, 3, 6, 1, 2, 3, 4, 5, 6]);
next = array1d(1..15 ,[12, 9, 1, 15, 6, 4, 2, 3, 5, 11, 8, 13, 14, 7, 10]);
makespan = 966;
----------
assign = array1d(1..15 ,[3, 6, 3, 6, 6, 6, 6, 3, 6, 1, 2, 3, 4, 5, 6]);
next = array1d(1..15 ,[12, 9, 1, 15, 6, 4, 2, 3, 5, 11, 8, 13, 14, 7, 10]);
makespan = 964;
----------
assign = array1d(1..15 ,[3, 6, 3, 6, 6, 6, 6, 3, 6, 1, 2, 3, 4, 5, 6]);
next = array1d(1..15 ,[12, 9, 1, 15, 6, 4, 2, 3, 5, 11, 8, 13, 14, 7, 10]);
makespan = 962;
----------
assign = array1d(1..15 ,[3, 6, 3, 6, 6, 6, 6, 3, 6, 1, 2, 3, 4, 5, 6]);
next = array1d(1..15 ,[12, 9, 1, 15, 6, 4, 2, 3, 5, 11, 8, 13, 14, 7, 10]);
makespan = 961;
----------
assign = array1d(1..15 ,[3, 6, 3, 6, 6, 6, 6, 3, 6, 1, 2, 3, 4, 5, 6]);
next = array1d(1..15 ,[12, 9, 1, 15, 6, 4, 2, 3, 5, 11, 8, 13, 14, 7, 10]);
makespan = 960;
----------
assign = array1d(1..15 ,[3, 6, 3, 6, 6, 6, 6, 3, 6, 1, 2, 3, 4, 5, 6]);
next = array1d(1..15 ,[12, 9, 1, 15, 6, 4, 2, 3, 5, 11, 8, 13, 14, 7, 10]);
makespan = 957;
----------
assign = array1d(1..15 ,[3, 6, 3, 6, 6, 6, 6, 3, 6, 1, 2, 3, 4, 5, 6]);
next = array1d(1..15 ,[12, 9, 1, 15, 6, 4, 2, 3, 5, 11, 8, 13, 14, 7, 10]);
makespan = 956;
----------
assign = array1d(1..15 ,[3, 6, 3, 6, 6, 6, 6, 3, 6, 1, 2, 3, 4, 5, 6]);
next = array1d(1..15 ,[12, 9, 1, 15, 6, 4, 2, 3, 5, 11, 8, 13, 14, 7, 10]);
makespan = 953;
----------
assign = array1d(1..15 ,[3, 6, 3, 6, 6, 6, 6, 3, 6, 1, 2, 3, 4, 5, 6]);
next = array1d(1..15 ,[12, 9, 1, 15, 6, 4, 2, 3, 5, 11, 8, 13, 14, 7, 10]);
makespan = 952;
----------
assign = array1d(1..15 ,[3, 6, 3, 6, 6, 6, 6, 3, 6, 1, 2, 3, 4, 5, 6]);
next = array1d(1..15 ,[12, 9, 1, 15, 6, 4, 2, 3, 5, 11, 8, 13, 14, 7, 10]);
makespan = 951;
----------
assign = array1d(1..15 ,[3, 6, 3, 6, 6, 6, 6, 3, 6, 1, 2, 3, 4, 5, 6]);
next = array1d(1..15 ,[12, 9, 1, 15, 6, 4, 2, 3, 5, 11, 8, 13, 14, 7, 10]);
makespan = 950;
----------
assign = array1d(1..15 ,[3, 6, 3, 6, 6, 6, 6, 3, 6, 1, 2, 3, 4, 5, 6]);
next = array1d(1..15 ,[12, 9, 1, 15, 6, 4, 2, 3, 5, 11, 8, 13, 14, 7, 10]);
makespan = 948;
----------
assign = array1d(1..15 ,[3, 6, 3, 6, 6, 6, 6, 3, 6, 1, 2, 3, 4, 5, 6]);
next = array1d(1..15 ,[12, 9, 1, 15, 6, 4, 2, 3, 5, 11, 8, 13, 14, 7, 10]);
makespan = 947;
----------
assign = array1d(1..15 ,[3, 6, 3, 6, 6, 6, 6, 3, 6, 1, 2, 3, 4, 5, 6]);
next = array1d(1..15 ,[12, 9, 1, 15, 6, 4, 2, 3, 5, 11, 8, 13, 14, 7, 10]);
makespan = 946;
----------
assign = array1d(1..15 ,[3, 6, 3, 6, 6, 6, 6, 3, 6, 1, 2, 3, 4, 5, 6]);
next = array1d(1..15 ,[12, 9, 1, 15, 6, 4, 2, 3, 5, 11, 8, 13, 14, 7, 10]);
makespan = 944;
----------
assign = array1d(1..15 ,[3, 6, 3, 6, 6, 6, 6, 3, 6, 1, 2, 3, 4, 5, 6]);
next = array1d(1..15 ,[12, 9, 1, 15, 6, 4, 2, 3, 5, 11, 8, 13, 14, 7, 10]);
makespan = 943;
----------
assign = array1d(1..15 ,[3, 6, 3, 6, 6, 6, 6, 3, 6, 1, 2, 3, 4, 5, 6]);
next = array1d(1..15 ,[12, 9, 1, 15, 6, 4, 2, 3, 5, 11, 8, 13, 14, 7, 10]);
makespan = 942;
----------
assign = array1d(1..15 ,[3, 6, 3, 6, 6, 6, 6, 3, 6, 1, 2, 3, 4, 5, 6]);
next = array1d(1..15 ,[12, 9, 1, 15, 6, 4, 2, 3, 5, 11, 8, 13, 14, 7, 10]);
makespan = 941;
----------
assign = array1d(1..15 ,[3, 6, 3, 6, 6, 6, 6, 3, 6, 1, 2, 3, 4, 5, 6]);
next = array1d(1..15 ,[12, 9, 1, 15, 6, 4, 2, 3, 5, 11, 8, 13, 14, 7, 10]);
makespan = 940;
----------
assign = array1d(1..15 ,[3, 6, 3, 6, 6, 6, 6, 3, 6, 1, 2, 3, 4, 5, 6]);
next = array1d(1..15 ,[12, 9, 1, 15, 6, 4, 2, 3, 5, 11, 8, 13, 14, 7, 10]);
makespan = 939;
----------
assign = array1d(1..15 ,[3, 6, 3, 6, 6, 6, 6, 3, 6, 1, 2, 3, 4, 5, 6]);
next = array1d(1..15 ,[12, 9, 1, 15, 6, 4, 2, 3, 5, 11, 8, 13, 14, 7, 10]);
makespan = 938;
----------
assign = array1d(1..15 ,[3, 6, 3, 6, 6, 6, 6, 3, 6, 1, 2, 3, 4, 5, 6]);
next = array1d(1..15 ,[12, 9, 1, 15, 6, 4, 2, 3, 5, 11, 8, 13, 14, 7, 10]);
makespan = 937;
----------
assign = array1d(1..15 ,[2, 6, 2, 6, 6, 6, 6, 2, 6, 1, 2, 3, 4, 5, 6]);
next = array1d(1..15 ,[11, 9, 1, 15, 6, 4, 2, 3, 5, 8, 12, 13, 14, 7, 10]);
makespan = 936;
----------
assign = array1d(1..15 ,[1, 6, 1, 6, 6, 6, 6, 1, 6, 1, 2, 3, 4, 5, 6]);
next = array1d(1..15 ,[10, 9, 1, 15, 6, 4, 2, 3, 5, 11, 12, 13, 14, 7, 8]);
makespan = 934;
----------
assign = array1d(1..15 ,[2, 6, 2, 6, 6, 6, 6, 2, 6, 1, 2, 3, 4, 5, 6]);
next = array1d(1..15 ,[11, 9, 1, 15, 6, 4, 2, 3, 5, 8, 12, 13, 14, 7, 10]);
makespan = 933;
----------
assign = array1d(1..15 ,[1, 6, 1, 6, 6, 6, 6, 1, 6, 1, 2, 3, 4, 5, 6]);
next = array1d(1..15 ,[10, 9, 1, 15, 6, 4, 2, 3, 5, 11, 12, 13, 14, 7, 8]);
makespan = 932;
----------
assign = array1d(1..15 ,[2, 6, 2, 6, 6, 6, 6, 2, 6, 1, 2, 3, 4, 5, 6]);
next = array1d(1..15 ,[11, 9, 1, 15, 6, 4, 2, 3, 5, 8, 12, 13, 14, 7, 10]);
makespan = 931;
----------
assign = array1d(1..15 ,[1, 6, 1, 6, 6, 6, 6, 1, 6, 1, 2, 3, 4, 5, 6]);
next = array1d(1..15 ,[10, 9, 1, 15, 6, 4, 2, 3, 5, 11, 12, 13, 14, 7, 8]);
makespan = 930;
----------
assign = array1d(1..15 ,[2, 6, 2, 6, 6, 6, 6, 2, 6, 1, 2, 3, 4, 5, 6]);
next = array1d(1..15 ,[11, 9, 1, 15, 6, 4, 2, 3, 5, 8, 12, 13, 14, 7, 10]);
makespan = 929;
----------
assign = array1d(1..15 ,[1, 6, 1, 6, 6, 6, 6, 1, 6, 1, 2, 3, 4, 5, 6]);
next = array1d(1..15 ,[10, 9, 1, 15, 6, 4, 2, 3, 5, 11, 12, 13, 14, 7, 8]);
makespan = 928;
----------
assign = array1d(1..15 ,[2, 6, 2, 6, 6, 6, 6, 2, 6, 1, 2, 3, 4, 5, 6]);
next = array1d(1..15 ,[11, 9, 1, 15, 6, 4, 2, 3, 5, 8, 12, 13, 14, 7, 10]);
makespan = 927;
----------
assign = array1d(1..15 ,[2, 6, 2, 6, 6, 6, 6, 2, 6, 1, 2, 3, 4, 5, 6]);
next = array1d(1..15 ,[11, 9, 1, 15, 6, 4, 2, 3, 5, 8, 12, 13, 14, 7, 10]);
makespan = 924;
----------
assign = array1d(1..15 ,[2, 6, 2, 6, 6, 6, 6, 2, 6, 1, 2, 3, 4, 5, 6]);
next = array1d(1..15 ,[11, 9, 1, 15, 6, 4, 2, 3, 5, 8, 12, 13, 14, 7, 10]);
makespan = 923;
----------
assign = array1d(1..15 ,[1, 6, 1, 6, 6, 6, 6, 1, 6, 1, 2, 3, 4, 5, 6]);
next = array1d(1..15 ,[10, 9, 1, 15, 6, 4, 2, 3, 5, 11, 12, 13, 14, 7, 8]);
makespan = 922;
----------
assign = array1d(1..15 ,[2, 6, 2, 6, 6, 6, 6, 2, 6, 1, 2, 3, 4, 5, 6]);
next = array1d(1..15 ,[11, 9, 1, 15, 6, 4, 2, 3, 5, 8, 12, 13, 14, 7, 10]);
makespan = 921;
----------
assign = array1d(1..15 ,[1, 6, 1, 6, 6, 6, 6, 1, 6, 1, 2, 3, 4, 5, 6]);
next = array1d(1..15 ,[10, 9, 1, 15, 6, 4, 2, 3, 5, 11, 12, 13, 14, 7, 8]);
makespan = 920;
----------
assign = array1d(1..15 ,[2, 6, 2, 6, 6, 6, 6, 2, 6, 1, 2, 3, 4, 5, 6]);
next = array1d(1..15 ,[11, 9, 1, 15, 6, 4, 2, 3, 5, 8, 12, 13, 14, 7, 10]);
makespan = 919;
----------
assign = array1d(1..15 ,[1, 6, 1, 6, 6, 6, 6, 1, 6, 1, 2, 3, 4, 5, 6]);
next = array1d(1..15 ,[10, 9, 1, 15, 6, 4, 2, 3, 5, 11, 12, 13, 14, 7, 8]);
makespan = 918;
----------
assign = array1d(1..15 ,[2, 6, 2, 6, 6, 6, 6, 2, 6, 1, 2, 3, 4, 5, 6]);
next = array1d(1..15 ,[11, 9, 1, 15, 6, 4, 2, 3, 5, 8, 12, 13, 14, 7, 10]);
makespan = 917;
----------
assign = array1d(1..15 ,[1, 6, 1, 6, 6, 6, 6, 1, 6, 1, 2, 3, 4, 5, 6]);
next = array1d(1..15 ,[10, 9, 1, 15, 6, 4, 2, 3, 5, 11, 12, 13, 14, 7, 8]);
makespan = 914;
----------
assign = array1d(1..15 ,[2, 6, 2, 6, 6, 6, 6, 2, 6, 1, 2, 3, 4, 5, 6]);
next = array1d(1..15 ,[11, 9, 1, 15, 6, 4, 2, 3, 5, 8, 12, 13, 14, 7, 10]);
makespan = 913;
----------
assign = array1d(1..15 ,[1, 6, 1, 6, 6, 6, 6, 1, 6, 1, 2, 3, 4, 5, 6]);
next = array1d(1..15 ,[10, 9, 1, 15, 6, 4, 2, 3, 5, 11, 12, 13, 14, 7, 8]);
makespan = 911;
----------
assign = array1d(1..15 ,[2, 6, 2, 6, 6, 6, 6, 2, 6, 1, 2, 3, 4, 5, 6]);
next = array1d(1..15 ,[11, 9, 1, 15, 6, 4, 2, 3, 5, 8, 12, 13, 14, 7, 10]);
makespan = 910;
----------
assign = array1d(1..15 ,[1, 6, 1, 6, 6, 6, 6, 1, 6, 1, 2, 3, 4, 5, 6]);
next = array1d(1..15 ,[10, 9, 1, 15, 6, 4, 2, 3, 5, 11, 12, 13, 14, 7, 8]);
makespan = 909;
----------
assign = array1d(1..15 ,[2, 6, 2, 6, 6, 6, 6, 2, 6, 1, 2, 3, 4, 5, 6]);
next = array1d(1..15 ,[11, 9, 1, 15, 6, 4, 2, 3, 5, 8, 12, 13, 14, 7, 10]);
makespan = 908;
----------
assign = array1d(1..15 ,[1, 6, 1, 6, 6, 6, 6, 1, 6, 1, 2, 3, 4, 5, 6]);
next = array1d(1..15 ,[10, 9, 1, 15, 6, 4, 2, 3, 5, 11, 12, 13, 14, 7, 8]);
makespan = 906;
----------
assign = array1d(1..15 ,[2, 6, 2, 6, 6, 6, 6, 2, 6, 1, 2, 3, 4, 5, 6]);
next = array1d(1..15 ,[11, 9, 1, 15, 6, 4, 2, 3, 5, 8, 12, 13, 14, 7, 10]);
makespan = 905;
----------
assign = array1d(1..15 ,[1, 6, 1, 6, 6, 6, 6, 1, 6, 1, 2, 3, 4, 5, 6]);
next = array1d(1..15 ,[10, 9, 1, 15, 6, 4, 2, 3, 5, 11, 12, 13, 14, 7, 8]);
makespan = 904;
----------
assign = array1d(1..15 ,[2, 6, 2, 6, 6, 6, 6, 2, 6, 1, 2, 3, 4, 5, 6]);
next = array1d(1..15 ,[11, 9, 1, 15, 6, 4, 2, 3, 5, 8, 12, 13, 14, 7, 10]);
makespan = 902;
----------
assign = array1d(1..15 ,[1, 6, 1, 6, 6, 6, 6, 1, 6, 1, 2, 3, 4, 5, 6]);
next = array1d(1..15 ,[10, 9, 1, 15, 6, 4, 2, 3, 5, 11, 12, 13, 14, 7, 8]);
makespan = 901;
----------
assign = array1d(1..15 ,[2, 6, 2, 6, 6, 6, 6, 2, 6, 1, 2, 3, 4, 5, 6]);
next = array1d(1..15 ,[11, 9, 1, 15, 6, 4, 2, 3, 5, 8, 12, 13, 14, 7, 10]);
makespan = 900;
----------
assign = array1d(1..15 ,[1, 6, 1, 6, 6, 6, 6, 1, 6, 1, 2, 3, 4, 5, 6]);
next = array1d(1..15 ,[10, 9, 1, 15, 6, 4, 2, 3, 5, 11, 12, 13, 14, 7, 8]);
makespan = 899;
----------
assign = array1d(1..15 ,[2, 6, 2, 6, 6, 6, 6, 2, 6, 1, 2, 3, 4, 5, 6]);
next = array1d(1..15 ,[11, 15, 1, 7, 6, 4, 2, 3, 5, 8, 12, 13, 14, 9, 10]);
makespan = 897;
----------
assign = array1d(1..15 ,[2, 6, 2, 6, 6, 6, 6, 2, 6, 1, 2, 3, 4, 5, 6]);
next = array1d(1..15 ,[11, 15, 1, 7, 6, 4, 2, 3, 5, 8, 12, 13, 14, 9, 10]);
makespan = 895;
----------
assign = array1d(1..15 ,[2, 6, 2, 6, 6, 6, 6, 2, 6, 1, 2, 3, 4, 5, 6]);
next = array1d(1..15 ,[11, 15, 1, 7, 6, 4, 2, 3, 5, 8, 12, 13, 14, 9, 10]);
makespan = 894;
----------
assign = array1d(1..15 ,[1, 6, 1, 6, 6, 6, 6, 1, 6, 1, 2, 3, 4, 5, 6]);
next = array1d(1..15 ,[10, 15, 1, 7, 6, 4, 2, 3, 5, 11, 12, 13, 14, 9, 8]);
makespan = 893;
----------
assign = array1d(1..15 ,[2, 6, 2, 6, 6, 6, 6, 2, 6, 1, 2, 3, 4, 5, 6]);
next = array1d(1..15 ,[11, 15, 1, 7, 6, 4, 2, 3, 5, 8, 12, 13, 14, 9, 10]);
makespan = 891;
----------
assign = array1d(1..15 ,[1, 6, 1, 6, 6, 6, 6, 1, 6, 1, 2, 3, 4, 5, 6]);
next = array1d(1..15 ,[10, 15, 1, 7, 6, 4, 2, 3, 5, 11, 12, 13, 14, 9, 8]);
makespan = 890;
----------
assign = array1d(1..15 ,[2, 6, 2, 6, 6, 6, 6, 2, 6, 1, 2, 3, 4, 5, 6]);
next = array1d(1..15 ,[11, 15, 1, 7, 6, 4, 2, 3, 5, 8, 12, 13, 14, 9, 10]);
makespan = 888;
----------
assign = array1d(1..15 ,[1, 6, 1, 6, 6, 6, 6, 1, 6, 1, 2, 3, 4, 5, 6]);
next = array1d(1..15 ,[10, 15, 1, 7, 6, 4, 2, 3, 5, 11, 12, 13, 14, 9, 8]);
makespan = 887;
----------
assign = array1d(1..15 ,[1, 6, 1, 6, 6, 6, 6, 1, 6, 1, 2, 3, 4, 5, 6]);
next = array1d(1..15 ,[8, 9, 10, 7, 6, 4, 2, 3, 15, 11, 12, 13, 14, 5, 1]);
makespan = 886;
----------
assign = array1d(1..15 ,[1, 6, 1, 6, 6, 6, 6, 1, 6, 1, 2, 3, 4, 5, 6]);
next = array1d(1..15 ,[8, 9, 10, 7, 6, 4, 2, 3, 15, 11, 12, 13, 14, 5, 1]);
makespan = 885;
----------
assign = array1d(1..15 ,[1, 6, 1, 6, 6, 6, 6, 1, 6, 1, 2, 3, 4, 5, 6]);
next = array1d(1..15 ,[8, 9, 10, 7, 6, 4, 2, 3, 15, 11, 12, 13, 14, 5, 1]);
makespan = 884;
----------
assign = array1d(1..15 ,[1, 6, 1, 6, 6, 6, 6, 1, 6, 1, 2, 3, 4, 5, 6]);
next = array1d(1..15 ,[8, 9, 10, 7, 6, 4, 2, 3, 15, 11, 12, 13, 14, 5, 1]);
makespan = 883;
----------
assign = array1d(1..15 ,[1, 6, 1, 6, 6, 6, 6, 1, 6, 1, 2, 3, 4, 5, 6]);
next = array1d(1..15 ,[10, 5, 1, 9, 6, 4, 2, 3, 15, 11, 12, 13, 14, 7, 8]);
makespan = 881;
----------
assign = array1d(1..15 ,[6, 6, 5, 6, 6, 6, 6, 5, 5, 1, 2, 3, 4, 5, 6]);
next = array1d(1..15 ,[15, 5, 8, 1, 6, 4, 2, 14, 3, 11, 12, 13, 9, 7, 10]);
makespan = 880;
----------
assign = array1d(1..15 ,[6, 6, 3, 6, 6, 6, 6, 3, 3, 1, 2, 3, 4, 5, 6]);
next = array1d(1..15 ,[15, 5, 8, 1, 6, 4, 2, 12, 3, 11, 9, 13, 14, 7, 10]);
makespan = 877;
----------
assign = array1d(1..15 ,[6, 6, 1, 6, 6, 6, 6, 1, 1, 1, 2, 3, 4, 5, 6]);
next = array1d(1..15 ,[15, 5, 8, 1, 6, 4, 2, 10, 3, 11, 12, 13, 14, 7, 9]);
makespan = 876;
----------
assign = array1d(1..15 ,[6, 6, 2, 6, 6, 6, 6, 2, 2, 1, 2, 3, 4, 5, 6]);
next = array1d(1..15 ,[15, 5, 8, 1, 6, 4, 2, 11, 3, 9, 12, 13, 14, 7, 10]);
makespan = 875;
----------
assign = array1d(1..15 ,[6, 6, 1, 6, 6, 6, 6, 1, 1, 1, 2, 3, 4, 5, 6]);
next = array1d(1..15 ,[15, 5, 8, 1, 6, 4, 2, 10, 3, 11, 12, 13, 14, 7, 9]);
makespan = 874;
----------
assign = array1d(1..15 ,[6, 6, 2, 6, 6, 6, 6, 2, 2, 1, 2, 3, 4, 5, 6]);
next = array1d(1..15 ,[15, 5, 8, 1, 6, 4, 2, 11, 3, 9, 12, 13, 14, 7, 10]);
makespan = 872;
----------
assign = array1d(1..15 ,[6, 6, 3, 6, 6, 6, 6, 3, 3, 1, 2, 3, 4, 5, 6]);
next = array1d(1..15 ,[15, 5, 8, 1, 6, 4, 2, 12, 3, 11, 9, 13, 14, 7, 10]);
makespan = 871;
----------
assign = array1d(1..15 ,[6, 6, 4, 6, 6, 6, 6, 4, 4, 1, 2, 3, 4, 5, 6]);
next = array1d(1..15 ,[15, 1, 8, 7, 6, 4, 2, 13, 3, 11, 12, 9, 14, 5, 10]);
makespan = 868;
----------
assign = array1d(1..15 ,[6, 6, 3, 6, 6, 6, 6, 3, 3, 1, 2, 3, 4, 5, 6]);
next = array1d(1..15 ,[15, 1, 8, 7, 6, 4, 2, 12, 3, 11, 9, 13, 14, 5, 10]);
makespan = 867;
----------
assign = array1d(1..15 ,[6, 6, 1, 6, 6, 6, 6, 1, 1, 1, 2, 3, 4, 5, 6]);
next = array1d(1..15 ,[15, 1, 8, 7, 6, 4, 2, 10, 3, 11, 12, 13, 14, 5, 9]);
makespan = 866;
----------
assign = array1d(1..15 ,[2, 6, 2, 6, 6, 6, 6, 2, 2, 1, 2, 3, 4, 5, 6]);
next = array1d(1..15 ,[8, 5, 11, 15, 6, 4, 2, 3, 1, 9, 12, 13, 14, 7, 10]);
makespan = 865;
----------
assign = array1d(1..15 ,[5, 6, 4, 6, 6, 6, 6, 4, 5, 1, 2, 3, 4, 5, 6]);
next = array1d(1..15 ,[14, 5, 13, 15, 6, 4, 2, 3, 1, 11, 12, 8, 9, 7, 10]);
makespan = 864;
----------
assign = array1d(1..15 ,[4, 6, 5, 6, 6, 6, 6, 5, 4, 1, 2, 3, 4, 5, 6]);
next = array1d(1..15 ,[13, 5, 14, 15, 6, 4, 2, 3, 1, 11, 12, 9, 8, 7, 10]);
makespan = 863;
----------
assign = array1d(1..15 ,[5, 6, 5, 6, 6, 6, 6, 2, 5, 1, 2, 3, 4, 5, 6]);
next = array1d(1..15 ,[3, 5, 14, 15, 6, 4, 2, 11, 1, 8, 12, 13, 9, 7, 10]);
makespan = 862;
----------
assign = array1d(1..15 ,[2, 6, 3, 6, 6, 6, 6, 5, 2, 1, 2, 3, 4, 5, 6]);
next = array1d(1..15 ,[9, 5, 12, 15, 6, 4, 2, 14, 11, 1, 3, 13, 8, 7, 10]);
makespan = 861;
----------
assign = array1d(1..15 ,[5, 6, 2, 6, 6, 6, 6, 5, 5, 1, 2, 3, 4, 5, 6]);
next = array1d(1..15 ,[9, 5, 11, 15, 6, 4, 2, 14, 8, 3, 12, 13, 1, 7, 10]);
makespan = 858;
----------
assign = array1d(1..15 ,[4, 6, 2, 6, 6, 6, 6, 5, 4, 1, 2, 3, 4, 5, 6]);
next = array1d(1..15 ,[9, 5, 11, 15, 6, 4, 2, 14, 13, 3, 12, 1, 8, 7, 10]);
makespan = 857;
----------
assign = array1d(1..15 ,[5, 6, 2, 6, 6, 6, 6, 5, 5, 1, 2, 3, 4, 5, 6]);
next = array1d(1..15 ,[9, 5, 11, 15, 6, 4, 2, 14, 8, 3, 12, 13, 1, 7, 10]);
makespan = 855;
----------
assign = array1d(1..15 ,[4, 6, 2, 6, 6, 6, 6, 5, 4, 1, 2, 3, 4, 5, 6]);
next = array1d(1..15 ,[9, 5, 11, 15, 6, 4, 2, 14, 13, 3, 12, 1, 8, 7, 10]);
makespan = 854;
----------
assign = array1d(1..15 ,[5, 6, 2, 6, 6, 6, 6, 5, 5, 1, 2, 3, 4, 5, 6]);
next = array1d(1..15 ,[9, 5, 11, 15, 6, 4, 2, 14, 8, 3, 12, 13, 1, 7, 10]);
makespan = 853;
----------
assign = array1d(1..15 ,[4, 6, 2, 6, 6, 6, 6, 5, 4, 1, 2, 3, 4, 5, 6]);
next = array1d(1..15 ,[9, 5, 11, 15, 6, 4, 2, 14, 13, 3, 12, 1, 8, 7, 10]);
makespan = 852;
----------
assign = array1d(1..15 ,[5, 6, 2, 6, 6, 6, 6, 5, 5, 1, 2, 3, 4, 5, 6]);
next = array1d(1..15 ,[9, 5, 11, 15, 6, 4, 2, 14, 8, 3, 12, 13, 1, 7, 10]);
makespan = 851;
----------
assign = array1d(1..15 ,[4, 6, 2, 6, 6, 6, 6, 5, 4, 1, 2, 3, 4, 5, 6]);
next = array1d(1..15 ,[9, 5, 11, 15, 6, 4, 2, 14, 13, 3, 12, 1, 8, 7, 10]);
makespan = 849;
----------
assign = array1d(1..15 ,[5, 6, 2, 6, 6, 6, 6, 5, 5, 1, 2, 3, 4, 5, 6]);
next = array1d(1..15 ,[9, 5, 11, 15, 6, 4, 2, 14, 8, 3, 12, 13, 1, 7, 10]);
makespan = 848;
----------
assign = array1d(1..15 ,[4, 6, 2, 6, 6, 6, 6, 5, 4, 1, 2, 3, 4, 5, 6]);
next = array1d(1..15 ,[9, 5, 11, 15, 6, 4, 2, 14, 13, 3, 12, 1, 8, 7, 10]);
makespan = 847;
----------
assign = array1d(1..15 ,[5, 6, 2, 6, 6, 6, 6, 5, 5, 1, 2, 3, 4, 5, 6]);
next = array1d(1..15 ,[9, 5, 11, 15, 6, 4, 2, 14, 8, 3, 12, 13, 1, 7, 10]);
makespan = 846;
----------
assign = array1d(1..15 ,[4, 6, 2, 6, 6, 6, 6, 5, 4, 1, 2, 3, 4, 5, 6]);
next = array1d(1..15 ,[9, 5, 11, 15, 6, 4, 2, 14, 13, 3, 12, 1, 8, 7, 10]);
makespan = 845;
----------
assign = array1d(1..15 ,[5, 6, 2, 6, 6, 6, 6, 5, 5, 1, 2, 3, 4, 5, 6]);
next = array1d(1..15 ,[9, 5, 11, 15, 6, 4, 2, 14, 8, 3, 12, 13, 1, 7, 10]);
makespan = 844;
----------
assign = array1d(1..15 ,[4, 6, 2, 6, 6, 6, 6, 5, 4, 1, 2, 3, 4, 5, 6]);
next = array1d(1..15 ,[9, 5, 11, 15, 6, 4, 2, 14, 13, 3, 12, 1, 8, 7, 10]);
makespan = 843;
----------
assign = array1d(1..15 ,[5, 6, 2, 6, 6, 6, 6, 5, 5, 1, 2, 3, 4, 5, 6]);
next = array1d(1..15 ,[9, 5, 11, 15, 6, 4, 2, 14, 8, 3, 12, 13, 1, 7, 10]);
makespan = 842;
----------
assign = array1d(1..15 ,[4, 6, 2, 6, 6, 6, 6, 5, 4, 1, 2, 3, 4, 5, 6]);
next = array1d(1..15 ,[9, 5, 11, 15, 6, 4, 2, 14, 13, 3, 12, 1, 8, 7, 10]);
makespan = 841;
----------
assign = array1d(1..15 ,[5, 6, 2, 6, 6, 6, 6, 5, 5, 1, 2, 3, 4, 5, 6]);
next = array1d(1..15 ,[9, 5, 11, 15, 6, 4, 2, 14, 8, 3, 12, 13, 1, 7, 10]);
makespan = 840;
----------
assign = array1d(1..15 ,[4, 6, 2, 6, 6, 6, 6, 5, 4, 1, 2, 3, 4, 5, 6]);
next = array1d(1..15 ,[9, 5, 11, 15, 6, 4, 2, 14, 13, 3, 12, 1, 8, 7, 10]);
makespan = 839;
----------
assign = array1d(1..15 ,[5, 6, 2, 6, 6, 6, 6, 5, 5, 1, 2, 3, 4, 5, 6]);
next = array1d(1..15 ,[9, 5, 11, 15, 6, 4, 2, 14, 8, 3, 12, 13, 1, 7, 10]);
makespan = 838;
----------
assign = array1d(1..15 ,[4, 6, 2, 6, 6, 6, 6, 5, 4, 1, 2, 3, 4, 5, 6]);
next = array1d(1..15 ,[9, 5, 11, 15, 6, 4, 2, 14, 13, 3, 12, 1, 8, 7, 10]);
makespan = 837;
----------
assign = array1d(1..15 ,[5, 6, 2, 6, 6, 6, 6, 5, 5, 1, 2, 3, 4, 5, 6]);
next = array1d(1..15 ,[9, 5, 11, 15, 6, 4, 2, 14, 8, 3, 12, 13, 1, 7, 10]);
makespan = 835;
----------
assign = array1d(1..15 ,[4, 6, 2, 6, 6, 6, 6, 5, 4, 1, 2, 3, 4, 5, 6]);
next = array1d(1..15 ,[9, 5, 11, 15, 6, 4, 2, 14, 13, 3, 12, 1, 8, 7, 10]);
makespan = 834;
----------
assign = array1d(1..15 ,[5, 6, 2, 6, 6, 6, 6, 5, 5, 1, 2, 3, 4, 5, 6]);
next = array1d(1..15 ,[9, 5, 11, 15, 6, 4, 2, 14, 8, 3, 12, 13, 1, 7, 10]);
makespan = 833;
----------
assign = array1d(1..15 ,[4, 6, 2, 6, 6, 6, 6, 5, 4, 1, 2, 3, 4, 5, 6]);
next = array1d(1..15 ,[9, 5, 11, 15, 6, 4, 2, 14, 13, 3, 12, 1, 8, 7, 10]);
makespan = 832;
----------
assign = array1d(1..15 ,[5, 6, 2, 6, 6, 6, 6, 5, 5, 1, 2, 3, 4, 5, 6]);
next = array1d(1..15 ,[9, 5, 11, 15, 6, 4, 2, 14, 8, 3, 12, 13, 1, 7, 10]);
makespan = 831;
----------
assign = array1d(1..15 ,[4, 6, 2, 6, 6, 6, 6, 5, 4, 1, 2, 3, 4, 5, 6]);
next = array1d(1..15 ,[9, 5, 11, 15, 6, 4, 2, 14, 13, 3, 12, 1, 8, 7, 10]);
makespan = 829;
----------
assign = array1d(1..15 ,[5, 6, 2, 6, 6, 6, 6, 5, 5, 1, 2, 3, 4, 5, 6]);
next = array1d(1..15 ,[9, 5, 11, 15, 6, 4, 2, 14, 8, 3, 12, 13, 1, 7, 10]);
makespan = 828;
----------
assign = array1d(1..15 ,[4, 6, 2, 6, 6, 6, 6, 5, 4, 1, 2, 3, 4, 5, 6]);
next = array1d(1..15 ,[9, 5, 11, 15, 6, 4, 2, 14, 13, 3, 12, 1, 8, 7, 10]);
makespan = 825;
----------
assign = array1d(1..15 ,[5, 6, 2, 6, 6, 6, 6, 5, 5, 1, 2, 3, 4, 5, 6]);
next = array1d(1..15 ,[9, 5, 11, 15, 6, 4, 2, 14, 8, 3, 12, 13, 1, 7, 10]);
makespan = 824;
----------
assign = array1d(1..15 ,[4, 6, 2, 6, 6, 6, 6, 5, 4, 1, 2, 3, 4, 5, 6]);
next = array1d(1..15 ,[9, 5, 11, 15, 6, 4, 2, 14, 13, 3, 12, 1, 8, 7, 10]);
makespan = 823;
----------
assign = array1d(1..15 ,[5, 6, 2, 6, 6, 6, 6, 5, 5, 1, 2, 3, 4, 5, 6]);
next = array1d(1..15 ,[9, 5, 11, 15, 6, 4, 2, 14, 8, 3, 12, 13, 1, 7, 10]);
makespan = 821;
----------
assign = array1d(1..15 ,[4, 6, 2, 6, 6, 6, 6, 5, 4, 1, 2, 3, 4, 5, 6]);
next = array1d(1..15 ,[9, 5, 11, 15, 6, 4, 2, 14, 13, 3, 12, 1, 8, 7, 10]);
makespan = 819;
----------
assign = array1d(1..15 ,[5, 6, 2, 6, 6, 6, 6, 5, 5, 1, 2, 3, 4, 5, 6]);
next = array1d(1..15 ,[9, 5, 11, 15, 6, 4, 2, 14, 8, 3, 12, 13, 1, 7, 10]);
makespan = 816;
----------
assign = array1d(1..15 ,[4, 6, 2, 6, 6, 6, 6, 5, 4, 1, 2, 3, 4, 5, 6]);
next = array1d(1..15 ,[9, 5, 11, 15, 6, 4, 2, 14, 13, 3, 12, 1, 8, 7, 10]);
makespan = 815;
----------
assign = array1d(1..15 ,[5, 6, 2, 6, 6, 6, 6, 5, 5, 1, 2, 3, 4, 5, 6]);
next = array1d(1..15 ,[9, 5, 11, 15, 6, 4, 2, 14, 8, 3, 12, 13, 1, 7, 10]);
makespan = 812;
----------
assign = array1d(1..15 ,[4, 6, 2, 6, 6, 6, 6, 5, 4, 1, 2, 3, 4, 5, 6]);
next = array1d(1..15 ,[9, 5, 11, 15, 6, 4, 2, 14, 13, 3, 12, 1, 8, 7, 10]);
makespan = 810;
----------
assign = array1d(1..15 ,[5, 6, 2, 6, 6, 6, 6, 5, 5, 1, 2, 3, 4, 5, 6]);
next = array1d(1..15 ,[9, 5, 11, 15, 6, 4, 2, 14, 8, 3, 12, 13, 1, 7, 10]);
makespan = 806;
----------
assign = array1d(1..15 ,[4, 6, 2, 6, 6, 6, 6, 5, 4, 1, 2, 3, 4, 5, 6]);
next = array1d(1..15 ,[9, 5, 11, 15, 6, 4, 2, 14, 13, 3, 12, 1, 8, 7, 10]);
makespan = 805;
----------
assign = array1d(1..15 ,[5, 6, 2, 6, 6, 6, 6, 5, 5, 1, 2, 3, 4, 5, 6]);
next = array1d(1..15 ,[9, 5, 11, 15, 6, 4, 2, 14, 8, 3, 12, 13, 1, 7, 10]);
makespan = 802;
----------
assign = array1d(1..15 ,[4, 6, 2, 6, 6, 6, 6, 5, 4, 1, 2, 3, 4, 5, 6]);
next = array1d(1..15 ,[9, 5, 11, 15, 6, 4, 2, 14, 13, 3, 12, 1, 8, 7, 10]);
makespan = 801;
----------
assign = array1d(1..15 ,[5, 6, 2, 6, 6, 6, 6, 5, 5, 1, 2, 3, 4, 5, 6]);
next = array1d(1..15 ,[9, 5, 11, 15, 6, 4, 2, 14, 8, 3, 12, 13, 1, 7, 10]);
makespan = 799;
----------
assign = array1d(1..15 ,[4, 6, 2, 6, 6, 6, 6, 5, 4, 1, 2, 3, 4, 5, 6]);
next = array1d(1..15 ,[9, 5, 11, 15, 6, 4, 2, 14, 13, 3, 12, 1, 8, 7, 10]);
makespan = 796;
----------
assign = array1d(1..15 ,[5, 6, 2, 6, 6, 6, 6, 5, 5, 1, 2, 3, 4, 5, 6]);
next = array1d(1..15 ,[9, 5, 11, 15, 6, 4, 2, 14, 8, 3, 12, 13, 1, 7, 10]);
makespan = 795;
----------
assign = array1d(1..15 ,[4, 6, 2, 6, 6, 6, 6, 5, 4, 1, 2, 3, 4, 5, 6]);
next = array1d(1..15 ,[9, 5, 11, 15, 6, 4, 2, 14, 13, 3, 12, 1, 8, 7, 10]);
makespan = 792;
----------
assign = array1d(1..15 ,[5, 6, 2, 6, 6, 6, 6, 5, 5, 1, 2, 3, 4, 5, 6]);
next = array1d(1..15 ,[9, 5, 11, 15, 6, 4, 2, 14, 8, 3, 12, 13, 1, 7, 10]);
makespan = 791;
----------
assign = array1d(1..15 ,[4, 6, 2, 6, 6, 6, 6, 5, 4, 1, 2, 3, 4, 5, 6]);
next = array1d(1..15 ,[9, 5, 11, 15, 6, 4, 2, 14, 13, 3, 12, 1, 8, 7, 10]);
makespan = 790;
----------
assign = array1d(1..15 ,[5, 6, 2, 6, 6, 6, 6, 5, 5, 1, 2, 3, 4, 5, 6]);
next = array1d(1..15 ,[9, 5, 11, 15, 6, 4, 2, 14, 8, 3, 12, 13, 1, 7, 10]);
makespan = 789;
----------
assign = array1d(1..15 ,[4, 6, 2, 6, 6, 6, 6, 5, 4, 1, 2, 3, 4, 5, 6]);
next = array1d(1..15 ,[9, 5, 11, 15, 6, 4, 2, 14, 13, 3, 12, 1, 8, 7, 10]);
makespan = 788;
----------
assign = array1d(1..15 ,[5, 6, 2, 6, 6, 6, 6, 5, 5, 1, 2, 3, 4, 5, 6]);
next = array1d(1..15 ,[9, 5, 11, 15, 6, 4, 2, 14, 8, 3, 12, 13, 1, 7, 10]);
makespan = 787;
----------
assign = array1d(1..15 ,[4, 6, 2, 6, 6, 6, 6, 5, 4, 1, 2, 3, 4, 5, 6]);
next = array1d(1..15 ,[9, 5, 11, 15, 6, 4, 2, 14, 13, 3, 12, 1, 8, 7, 10]);
makespan = 786;
----------
assign = array1d(1..15 ,[5, 6, 2, 6, 6, 6, 6, 5, 5, 1, 2, 3, 4, 5, 6]);
next = array1d(1..15 ,[9, 5, 11, 15, 6, 4, 2, 14, 8, 3, 12, 13, 1, 7, 10]);
makespan = 785;
----------
assign = array1d(1..15 ,[4, 6, 2, 6, 6, 6, 6, 5, 4, 1, 2, 3, 4, 5, 6]);
next = array1d(1..15 ,[9, 5, 11, 15, 6, 4, 2, 14, 13, 3, 12, 1, 8, 7, 10]);
makespan = 782;
----------
assign = array1d(1..15 ,[5, 6, 2, 6, 6, 6, 6, 5, 5, 1, 2, 3, 4, 5, 6]);
next = array1d(1..15 ,[9, 5, 11, 15, 6, 4, 2, 14, 8, 3, 12, 13, 1, 7, 10]);
makespan = 781;
----------
assign = array1d(1..15 ,[4, 6, 2, 6, 6, 6, 6, 5, 4, 1, 2, 3, 4, 5, 6]);
next = array1d(1..15 ,[9, 5, 11, 15, 6, 4, 2, 14, 13, 3, 12, 1, 8, 7, 10]);
makespan = 779;
----------
assign = array1d(1..15 ,[5, 6, 2, 6, 6, 6, 6, 5, 5, 1, 2, 3, 4, 5, 6]);
next = array1d(1..15 ,[9, 5, 11, 15, 6, 4, 2, 14, 8, 3, 12, 13, 1, 7, 10]);
makespan = 778;
----------
assign = array1d(1..15 ,[4, 6, 2, 6, 6, 6, 6, 5, 4, 1, 2, 3, 4, 5, 6]);
next = array1d(1..15 ,[9, 5, 11, 15, 6, 4, 2, 14, 13, 3, 12, 1, 8, 7, 10]);
makespan = 777;
----------
assign = array1d(1..15 ,[5, 6, 2, 6, 6, 6, 6, 5, 5, 1, 2, 3, 4, 5, 6]);
next = array1d(1..15 ,[9, 5, 11, 15, 6, 4, 2, 14, 8, 3, 12, 13, 1, 7, 10]);
makespan = 776;
----------
assign = array1d(1..15 ,[4, 6, 2, 6, 6, 6, 6, 5, 4, 1, 2, 3, 4, 5, 6]);
next = array1d(1..15 ,[9, 5, 11, 15, 6, 4, 2, 14, 13, 3, 12, 1, 8, 7, 10]);
makespan = 773;
----------
assign = array1d(1..15 ,[5, 6, 2, 6, 6, 6, 6, 5, 5, 1, 2, 3, 4, 5, 6]);
next = array1d(1..15 ,[9, 5, 11, 15, 6, 4, 2, 14, 8, 3, 12, 13, 1, 7, 10]);
makespan = 772;
----------
assign = array1d(1..15 ,[4, 6, 2, 6, 6, 6, 6, 5, 4, 1, 2, 3, 4, 5, 6]);
next = array1d(1..15 ,[9, 5, 11, 15, 6, 4, 2, 14, 13, 3, 12, 1, 8, 7, 10]);
makespan = 769;
----------
assign = array1d(1..15 ,[5, 6, 2, 6, 6, 6, 6, 5, 5, 1, 2, 3, 4, 5, 6]);
next = array1d(1..15 ,[9, 5, 11, 15, 6, 4, 2, 14, 8, 3, 12, 13, 1, 7, 10]);
makespan = 768;
----------
assign = array1d(1..15 ,[4, 6, 2, 6, 6, 6, 6, 5, 4, 1, 2, 3, 4, 5, 6]);
next = array1d(1..15 ,[9, 5, 11, 15, 6, 4, 2, 14, 13, 3, 12, 1, 8, 7, 10]);
makespan = 767;
----------
assign = array1d(1..15 ,[5, 6, 2, 6, 6, 6, 6, 5, 5, 1, 2, 3, 4, 5, 6]);
next = array1d(1..15 ,[9, 5, 11, 15, 6, 4, 2, 14, 8, 3, 12, 13, 1, 7, 10]);
makespan = 765;
----------
assign = array1d(1..15 ,[4, 6, 2, 6, 6, 6, 6, 5, 4, 1, 2, 3, 4, 5, 6]);
next = array1d(1..15 ,[9, 5, 11, 15, 6, 4, 2, 14, 13, 3, 12, 1, 8, 7, 10]);
makespan = 763;
----------
assign = array1d(1..15 ,[5, 6, 2, 6, 6, 6, 6, 5, 5, 1, 2, 3, 4, 5, 6]);
next = array1d(1..15 ,[9, 5, 11, 15, 6, 4, 2, 14, 8, 3, 12, 13, 1, 7, 10]);
makespan = 762;
----------
assign = array1d(1..15 ,[4, 6, 2, 6, 6, 6, 6, 5, 4, 1, 2, 3, 4, 5, 6]);
next = array1d(1..15 ,[9, 5, 11, 15, 6, 4, 2, 14, 13, 3, 12, 1, 8, 7, 10]);
makespan = 760;
----------
assign = array1d(1..15 ,[5, 6, 2, 6, 6, 6, 6, 5, 5, 1, 2, 3, 4, 5, 6]);
next = array1d(1..15 ,[9, 5, 11, 15, 6, 4, 2, 14, 8, 3, 12, 13, 1, 7, 10]);
makespan = 759;
----------
assign = array1d(1..15 ,[4, 6, 2, 6, 6, 6, 6, 5, 4, 1, 2, 3, 4, 5, 6]);
next = array1d(1..15 ,[9, 5, 11, 15, 6, 4, 2, 14, 13, 3, 12, 1, 8, 7, 10]);
makespan = 758;
----------
assign = array1d(1..15 ,[5, 6, 2, 6, 6, 6, 6, 5, 5, 1, 2, 3, 4, 5, 6]);
next = array1d(1..15 ,[9, 5, 11, 15, 6, 4, 2, 14, 8, 3, 12, 13, 1, 7, 10]);
makespan = 757;
----------
assign = array1d(1..15 ,[4, 6, 2, 6, 6, 6, 6, 5, 4, 1, 2, 3, 4, 5, 6]);
next = array1d(1..15 ,[9, 5, 11, 15, 6, 4, 2, 14, 13, 3, 12, 1, 8, 7, 10]);
makespan = 756;
----------
assign = array1d(1..15 ,[5, 6, 2, 6, 6, 6, 6, 5, 5, 1, 2, 3, 4, 5, 6]);
next = array1d(1..15 ,[9, 5, 11, 15, 6, 4, 2, 14, 8, 3, 12, 13, 1, 7, 10]);
makespan = 755;
----------
assign = array1d(1..15 ,[4, 6, 2, 6, 6, 6, 6, 5, 4, 1, 2, 3, 4, 5, 6]);
next = array1d(1..15 ,[9, 5, 11, 15, 6, 4, 2, 14, 13, 3, 12, 1, 8, 7, 10]);
makespan = 754;
----------
assign = array1d(1..15 ,[5, 6, 2, 6, 6, 6, 6, 5, 5, 1, 2, 3, 4, 5, 6]);
next = array1d(1..15 ,[9, 5, 11, 15, 6, 4, 2, 14, 8, 3, 12, 13, 1, 7, 10]);
makespan = 753;
----------
assign = array1d(1..15 ,[4, 6, 2, 6, 6, 6, 6, 5, 4, 1, 2, 3, 4, 5, 6]);
next = array1d(1..15 ,[9, 5, 11, 15, 6, 4, 2, 14, 13, 3, 12, 1, 8, 7, 10]);
makespan = 752;
----------
assign = array1d(1..15 ,[5, 6, 2, 6, 6, 6, 6, 5, 5, 1, 2, 3, 4, 5, 6]);
next = array1d(1..15 ,[9, 5, 11, 15, 6, 4, 2, 14, 8, 3, 12, 13, 1, 7, 10]);
makespan = 750;
----------
assign = array1d(1..15 ,[4, 6, 2, 6, 6, 6, 6, 5, 4, 1, 2, 3, 4, 5, 6]);
next = array1d(1..15 ,[9, 5, 11, 15, 6, 4, 2, 14, 13, 3, 12, 1, 8, 7, 10]);
makespan = 749;
----------
assign = array1d(1..15 ,[5, 6, 2, 6, 6, 6, 6, 5, 5, 1, 2, 3, 4, 5, 6]);
next = array1d(1..15 ,[9, 5, 11, 15, 6, 4, 2, 14, 8, 3, 12, 13, 1, 7, 10]);
makespan = 748;
----------
assign = array1d(1..15 ,[4, 6, 2, 6, 6, 6, 6, 5, 4, 1, 2, 3, 4, 5, 6]);
next = array1d(1..15 ,[9, 5, 11, 15, 6, 4, 2, 14, 13, 3, 12, 1, 8, 7, 10]);
makespan = 747;
----------
assign = array1d(1..15 ,[5, 6, 2, 6, 6, 6, 6, 5, 5, 1, 2, 3, 4, 5, 6]);
next = array1d(1..15 ,[9, 5, 11, 15, 6, 4, 2, 14, 8, 3, 12, 13, 1, 7, 10]);
makespan = 746;
----------
assign = array1d(1..15 ,[4, 6, 2, 6, 6, 6, 6, 5, 4, 1, 2, 3, 4, 5, 6]);
next = array1d(1..15 ,[9, 5, 11, 15, 6, 4, 2, 14, 13, 3, 12, 1, 8, 7, 10]);
makespan = 745;
----------
assign = array1d(1..15 ,[5, 6, 2, 6, 6, 6, 6, 5, 5, 1, 2, 3, 4, 5, 6]);
next = array1d(1..15 ,[9, 5, 11, 15, 6, 4, 2, 14, 8, 3, 12, 13, 1, 7, 10]);
makespan = 743;
----------
assign = array1d(1..15 ,[4, 6, 2, 6, 6, 6, 6, 5, 4, 1, 2, 3, 4, 5, 6]);
next = array1d(1..15 ,[9, 5, 11, 15, 6, 4, 2, 14, 13, 3, 12, 1, 8, 7, 10]);
makespan = 742;
----------
assign = array1d(1..15 ,[5, 6, 2, 6, 6, 6, 6, 5, 5, 1, 2, 3, 4, 5, 6]);
next = array1d(1..15 ,[9, 5, 11, 15, 6, 4, 2, 14, 8, 3, 12, 13, 1, 7, 10]);
makespan = 740;
----------
assign = array1d(1..15 ,[4, 6, 2, 6, 6, 6, 6, 5, 4, 1, 2, 3, 4, 5, 6]);
next = array1d(1..15 ,[9, 5, 11, 15, 6, 4, 2, 14, 13, 3, 12, 1, 8, 7, 10]);
makespan = 739;
----------
assign = array1d(1..15 ,[5, 6, 2, 6, 6, 6, 6, 5, 5, 1, 2, 3, 4, 5, 6]);
next = array1d(1..15 ,[9, 5, 11, 15, 6, 4, 2, 14, 8, 3, 12, 13, 1, 7, 10]);
makespan = 736;
----------
assign = array1d(1..15 ,[4, 6, 2, 6, 6, 6, 6, 5, 4, 1, 2, 3, 4, 5, 6]);
next = array1d(1..15 ,[9, 5, 11, 15, 6, 4, 2, 14, 13, 3, 12, 1, 8, 7, 10]);
makespan = 734;
----------
assign = array1d(1..15 ,[5, 6, 2, 6, 6, 6, 6, 5, 5, 1, 2, 3, 4, 5, 6]);
next = array1d(1..15 ,[9, 5, 11, 15, 6, 4, 2, 14, 8, 3, 12, 13, 1, 7, 10]);
makespan = 730;
----------
assign = array1d(1..15 ,[4, 6, 2, 6, 6, 6, 6, 5, 4, 1, 2, 3, 4, 5, 6]);
next = array1d(1..15 ,[9, 5, 11, 15, 6, 4, 2, 14, 13, 3, 12, 1, 8, 7, 10]);
makespan = 729;
----------
assign = array1d(1..15 ,[6, 6, 1, 6, 1, 6, 6, 5, 1, 1, 2, 3, 4, 5, 6]);
next = array1d(1..15 ,[15, 6, 10, 1, 3, 4, 2, 14, 5, 11, 12, 13, 8, 7, 9]);
makespan = 728;
----------
assign = array1d(1..15 ,[6, 6, 2, 6, 2, 6, 6, 2, 2, 1, 2, 3, 4, 5, 6]);
next = array1d(1..15 ,[15, 1, 9, 7, 11, 4, 2, 3, 5, 8, 12, 13, 14, 6, 10]);
makespan = 726;
----------
assign = array1d(1..15 ,[6, 6, 2, 6, 2, 6, 6, 2, 2, 1, 2, 3, 4, 5, 6]);
next = array1d(1..15 ,[15, 1, 9, 7, 11, 4, 2, 3, 5, 8, 12, 13, 14, 6, 10]);
makespan = 722;
----------
assign = array1d(1..15 ,[6, 6, 2, 6, 2, 6, 6, 2, 2, 1, 2, 3, 4, 5, 6]);
next = array1d(1..15 ,[15, 1, 9, 7, 11, 4, 2, 3, 5, 8, 12, 13, 14, 6, 10]);
makespan = 717;
----------
assign = array1d(1..15 ,[4, 6, 4, 6, 4, 6, 6, 4, 4, 1, 2, 3, 4, 5, 6]);
next = array1d(1..15 ,[13, 15, 9, 7, 1, 4, 2, 3, 5, 11, 12, 8, 14, 6, 10]);
makespan = 713;
----------
assign = array1d(1..15 ,[3, 6, 3, 6, 3, 6, 6, 3, 3, 1, 2, 3, 4, 5, 6]);
next = array1d(1..15 ,[12, 15, 9, 7, 1, 4, 2, 3, 5, 11, 8, 13, 14, 6, 10]);
makespan = 712;
----------
assign = array1d(1..15 ,[3, 6, 3, 6, 3, 6, 6, 3, 3, 1, 2, 3, 4, 5, 6]);
next = array1d(1..15 ,[12, 15, 9, 7, 1, 4, 2, 3, 5, 11, 8, 13, 14, 6, 10]);
makespan = 706;
----------
assign = array1d(1..15 ,[3, 6, 3, 6, 3, 6, 6, 3, 3, 1, 2, 3, 4, 5, 6]);
next = array1d(1..15 ,[12, 15, 9, 7, 1, 4, 2, 3, 5, 11, 8, 13, 14, 6, 10]);
makespan = 705;
----------
assign = array1d(1..15 ,[4, 6, 4, 6, 4, 6, 6, 4, 4, 1, 2, 3, 4, 5, 6]);
next = array1d(1..15 ,[13, 15, 9, 7, 1, 4, 2, 3, 5, 11, 12, 8, 14, 6, 10]);
makespan = 703;
----------
assign = array1d(1..15 ,[4, 6, 4, 6, 4, 6, 6, 4, 4, 1, 2, 3, 4, 5, 6]);
next = array1d(1..15 ,[13, 15, 9, 7, 1, 4, 2, 3, 5, 11, 12, 8, 14, 6, 10]);
makespan = 702;
----------
assign = array1d(1..15 ,[3, 6, 3, 6, 3, 6, 6, 3, 3, 1, 2, 3, 4, 5, 6]);
next = array1d(1..15 ,[12, 15, 9, 7, 1, 4, 2, 3, 5, 11, 8, 13, 14, 6, 10]);
makespan = 701;
----------
assign = array1d(1..15 ,[4, 6, 4, 6, 4, 6, 6, 4, 4, 1, 2, 3, 4, 5, 6]);
next = array1d(1..15 ,[13, 15, 9, 7, 1, 4, 2, 3, 5, 11, 12, 8, 14, 6, 10]);
makespan = 700;
----------
assign = array1d(1..15 ,[4, 6, 4, 6, 4, 6, 6, 4, 4, 1, 2, 3, 4, 5, 6]);
next = array1d(1..15 ,[13, 15, 9, 7, 1, 4, 2, 3, 5, 11, 12, 8, 14, 6, 10]);
makespan = 699;
----------
assign = array1d(1..15 ,[3, 6, 3, 6, 3, 6, 6, 3, 3, 1, 2, 3, 4, 5, 6]);
next = array1d(1..15 ,[12, 15, 9, 7, 1, 4, 2, 3, 5, 11, 8, 13, 14, 6, 10]);
makespan = 698;
----------
assign = array1d(1..15 ,[3, 6, 3, 6, 3, 6, 6, 3, 3, 1, 2, 3, 4, 5, 6]);
next = array1d(1..15 ,[12, 15, 9, 7, 1, 4, 2, 3, 5, 11, 8, 13, 14, 6, 10]);
makespan = 697;
----------
assign = array1d(1..15 ,[3, 6, 3, 6, 3, 6, 6, 3, 3, 1, 2, 3, 4, 5, 6]);
next = array1d(1..15 ,[12, 15, 9, 7, 1, 4, 2, 3, 5, 11, 8, 13, 14, 6, 10]);
makespan = 696;
----------
assign = array1d(1..15 ,[4, 6, 4, 6, 4, 6, 6, 4, 4, 1, 2, 3, 4, 5, 6]);
next = array1d(1..15 ,[13, 15, 9, 7, 1, 4, 2, 3, 5, 11, 12, 8, 14, 6, 10]);
makespan = 693;
----------
assign = array1d(1..15 ,[3, 6, 3, 6, 3, 6, 6, 3, 3, 1, 2, 3, 4, 5, 6]);
next = array1d(1..15 ,[12, 15, 9, 7, 1, 4, 2, 3, 5, 11, 8, 13, 14, 6, 10]);
makespan = 692;
----------
assign = array1d(1..15 ,[3, 6, 3, 6, 3, 6, 6, 3, 3, 1, 2, 3, 4, 5, 6]);
next = array1d(1..15 ,[12, 15, 9, 7, 1, 4, 2, 3, 5, 11, 8, 13, 14, 6, 10]);
makespan = 691;
----------
assign = array1d(1..15 ,[4, 6, 4, 6, 4, 6, 6, 4, 4, 1, 2, 3, 4, 5, 6]);
next = array1d(1..15 ,[13, 15, 9, 7, 1, 4, 2, 3, 5, 11, 12, 8, 14, 6, 10]);
makespan = 689;
----------
assign = array1d(1..15 ,[3, 6, 3, 6, 3, 6, 6, 3, 3, 1, 2, 3, 4, 5, 6]);
next = array1d(1..15 ,[12, 15, 9, 7, 1, 4, 2, 3, 5, 11, 8, 13, 14, 6, 10]);
makespan = 687;
----------
assign = array1d(1..15 ,[3, 6, 3, 6, 3, 6, 6, 3, 3, 1, 2, 3, 4, 5, 6]);
next = array1d(1..15 ,[12, 15, 9, 7, 1, 4, 2, 3, 5, 11, 8, 13, 14, 6, 10]);
makespan = 684;
----------
assign = array1d(1..15 ,[4, 6, 4, 6, 4, 6, 6, 4, 4, 1, 2, 3, 4, 5, 6]);
next = array1d(1..15 ,[13, 15, 9, 7, 1, 4, 2, 3, 5, 11, 12, 8, 14, 6, 10]);
makespan = 683;
----------
assign = array1d(1..15 ,[4, 6, 4, 6, 4, 6, 6, 4, 4, 1, 2, 3, 4, 5, 6]);
next = array1d(1..15 ,[13, 15, 9, 7, 1, 4, 2, 3, 5, 11, 12, 8, 14, 6, 10]);
makespan = 682;
----------
assign = array1d(1..15 ,[4, 6, 4, 6, 4, 6, 6, 4, 4, 1, 2, 3, 4, 5, 6]);
next = array1d(1..15 ,[13, 15, 9, 7, 1, 4, 2, 3, 5, 11, 12, 8, 14, 6, 10]);
makespan = 680;
----------
assign = array1d(1..15 ,[3, 6, 3, 6, 3, 6, 6, 3, 3, 1, 2, 3, 4, 5, 6]);
next = array1d(1..15 ,[12, 15, 9, 7, 1, 4, 2, 3, 5, 11, 8, 13, 14, 6, 10]);
makespan = 679;
----------
assign = array1d(1..15 ,[4, 6, 4, 6, 4, 6, 6, 4, 4, 1, 2, 3, 4, 5, 6]);
next = array1d(1..15 ,[13, 15, 9, 7, 1, 4, 2, 3, 5, 11, 12, 8, 14, 6, 10]);
makespan = 678;
----------
assign = array1d(1..15 ,[4, 6, 4, 6, 4, 6, 6, 4, 4, 1, 2, 3, 4, 5, 6]);
next = array1d(1..15 ,[13, 15, 9, 7, 1, 4, 2, 3, 5, 11, 12, 8, 14, 6, 10]);
makespan = 674;
----------
assign = array1d(1..15 ,[3, 6, 3, 6, 3, 6, 6, 3, 3, 1, 2, 3, 4, 5, 6]);
next = array1d(1..15 ,[12, 15, 9, 7, 1, 4, 2, 3, 5, 11, 8, 13, 14, 6, 10]);
makespan = 673;
----------
assign = array1d(1..15 ,[4, 6, 4, 6, 4, 6, 6, 4, 4, 1, 2, 3, 4, 5, 6]);
next = array1d(1..15 ,[13, 15, 9, 7, 1, 4, 2, 3, 5, 11, 12, 8, 14, 6, 10]);
makespan = 672;
----------
assign = array1d(1..15 ,[4, 6, 4, 6, 4, 6, 6, 4, 4, 1, 2, 3, 4, 5, 6]);
next = array1d(1..15 ,[13, 15, 9, 7, 1, 4, 2, 3, 5, 11, 12, 8, 14, 6, 10]);
makespan = 670;
----------
assign = array1d(1..15 ,[3, 6, 3, 6, 3, 6, 6, 3, 3, 1, 2, 3, 4, 5, 6]);
next = array1d(1..15 ,[12, 15, 9, 7, 1, 4, 2, 3, 5, 11, 8, 13, 14, 6, 10]);
makespan = 664;
----------
assign = array1d(1..15 ,[3, 6, 3, 6, 3, 6, 6, 3, 3, 1, 2, 3, 4, 5, 6]);
next = array1d(1..15 ,[12, 15, 9, 7, 1, 4, 2, 3, 5, 11, 8, 13, 14, 6, 10]);
makespan = 663;
----------
assign = array1d(1..15 ,[3, 6, 3, 6, 3, 6, 6, 3, 3, 1, 2, 3, 4, 5, 6]);
next = array1d(1..15 ,[12, 15, 9, 7, 1, 4, 2, 3, 5, 11, 8, 13, 14, 6, 10]);
makespan = 661;
----------
assign = array1d(1..15 ,[3, 6, 3, 6, 3, 6, 6, 3, 3, 1, 2, 3, 4, 5, 6]);
next = array1d(1..15 ,[12, 15, 9, 7, 1, 4, 2, 3, 5, 11, 8, 13, 14, 6, 10]);
makespan = 660;
----------
assign = array1d(1..15 ,[3, 6, 3, 6, 3, 6, 6, 3, 3, 1, 2, 3, 4, 5, 6]);
next = array1d(1..15 ,[12, 15, 9, 7, 1, 4, 2, 3, 5, 11, 8, 13, 14, 6, 10]);
makespan = 658;
----------
assign = array1d(1..15 ,[3, 6, 3, 6, 3, 6, 6, 3, 3, 1, 2, 3, 4, 5, 6]);
next = array1d(1..15 ,[12, 15, 9, 7, 1, 4, 2, 3, 5, 11, 8, 13, 14, 6, 10]);
makespan = 654;
----------
assign = array1d(1..15 ,[3, 6, 3, 6, 3, 6, 6, 3, 3, 1, 2, 3, 4, 5, 6]);
next = array1d(1..15 ,[12, 15, 9, 7, 1, 4, 2, 3, 5, 11, 8, 13, 14, 6, 10]);
makespan = 652;
----------
assign = array1d(1..15 ,[5, 6, 5, 6, 5, 6, 6, 2, 5, 1, 2, 3, 4, 5, 6]);
next = array1d(1..15 ,[14, 15, 9, 7, 1, 4, 2, 11, 5, 8, 12, 13, 3, 6, 10]);
makespan = 651;
----------
assign = array1d(1..15 ,[5, 6, 5, 6, 5, 6, 6, 2, 5, 1, 2, 3, 4, 5, 6]);
next = array1d(1..15 ,[14, 15, 9, 7, 1, 4, 2, 11, 5, 8, 12, 13, 3, 6, 10]);
makespan = 650;
----------
assign = array1d(1..15 ,[5, 6, 5, 6, 5, 6, 6, 2, 5, 1, 2, 3, 4, 5, 6]);
next = array1d(1..15 ,[14, 15, 9, 7, 1, 4, 2, 11, 5, 8, 12, 13, 3, 6, 10]);
makespan = 647;
----------
assign = array1d(1..15 ,[5, 6, 5, 6, 5, 6, 6, 2, 5, 1, 2, 3, 4, 5, 6]);
next = array1d(1..15 ,[14, 15, 9, 7, 1, 4, 2, 11, 5, 8, 12, 13, 3, 6, 10]);
makespan = 641;
----------
assign = array1d(1..15 ,[5, 6, 5, 6, 5, 6, 6, 2, 5, 1, 2, 3, 4, 5, 6]);
next = array1d(1..15 ,[14, 15, 9, 7, 1, 4, 2, 11, 5, 8, 12, 13, 3, 6, 10]);
makespan = 623;
----------
assign = array1d(1..15 ,[5, 6, 5, 6, 5, 6, 6, 2, 5, 1, 2, 3, 4, 5, 6]);
next = array1d(1..15 ,[14, 15, 9, 7, 1, 4, 2, 11, 5, 8, 12, 13, 3, 6, 10]);
makespan = 615;
----------
assign = array1d(1..15 ,[5, 6, 5, 6, 5, 6, 6, 2, 5, 1, 2, 3, 4, 5, 6]);
next = array1d(1..15 ,[14, 15, 9, 7, 1, 4, 2, 11, 5, 8, 12, 13, 3, 6, 10]);
makespan = 607;
----------
assign = array1d(1..15 ,[5, 6, 5, 6, 5, 6, 6, 2, 5, 1, 2, 3, 4, 5, 6]);
next = array1d(1..15 ,[14, 15, 9, 7, 1, 4, 2, 11, 5, 8, 12, 13, 3, 6, 10]);
makespan = 606;
----------
assign = array1d(1..15 ,[5, 6, 5, 6, 5, 6, 6, 2, 5, 1, 2, 3, 4, 5, 6]);
next = array1d(1..15 ,[14, 15, 9, 7, 1, 4, 2, 11, 5, 8, 12, 13, 3, 6, 10]);
makespan = 593;
----------
assign = array1d(1..15 ,[5, 6, 5, 6, 5, 6, 6, 2, 5, 1, 2, 3, 4, 5, 6]);
next = array1d(1..15 ,[14, 15, 9, 7, 1, 4, 2, 11, 5, 8, 12, 13, 3, 6, 10]);
makespan = 591;
----------
assign = array1d(1..15 ,[5, 6, 5, 6, 5, 6, 6, 2, 5, 1, 2, 3, 4, 5, 6]);
next = array1d(1..15 ,[14, 15, 9, 7, 1, 4, 2, 11, 5, 8, 12, 13, 3, 6, 10]);
makespan = 588;
----------
assign = array1d(1..15 ,[5, 6, 5, 6, 5, 6, 6, 2, 5, 1, 2, 3, 4, 5, 6]);
next = array1d(1..15 ,[14, 6, 9, 15, 1, 4, 2, 11, 5, 8, 12, 13, 3, 7, 10]);
makespan = 586;
----------
assign = array1d(1..15 ,[6, 3, 4, 6, 4, 6, 6, 4, 4, 1, 2, 3, 4, 5, 6]);
next = array1d(1..15 ,[15, 12, 9, 1, 13, 4, 6, 3, 5, 11, 2, 8, 14, 7, 10]);
makespan = 585;
----------
assign = array1d(1..15 ,[6, 3, 4, 6, 4, 6, 6, 4, 4, 1, 2, 3, 4, 5, 6]);
next = array1d(1..15 ,[15, 12, 9, 1, 13, 4, 6, 3, 5, 11, 2, 8, 14, 7, 10]);
makespan = 581;
----------
assign = array1d(1..15 ,[6, 3, 4, 6, 4, 6, 6, 4, 4, 1, 2, 3, 4, 5, 6]);
next = array1d(1..15 ,[15, 12, 9, 1, 13, 4, 6, 3, 5, 11, 2, 8, 14, 7, 10]);
makespan = 570;
----------
assign = array1d(1..15 ,[6, 3, 4, 6, 4, 6, 6, 4, 4, 1, 2, 3, 4, 5, 6]);
next = array1d(1..15 ,[6, 12, 9, 15, 13, 4, 1, 3, 5, 11, 2, 8, 14, 7, 10]);
makespan = 562;
----------
assign = array1d(1..15 ,[6, 3, 4, 6, 4, 6, 6, 4, 4, 1, 2, 3, 4, 5, 6]);
next = array1d(1..15 ,[6, 12, 9, 15, 13, 4, 1, 3, 5, 11, 2, 8, 14, 7, 10]);
makespan = 551;
----------
assign = array1d(1..15 ,[6, 3, 4, 6, 4, 6, 6, 4, 4, 1, 2, 3, 4, 5, 6]);
next = array1d(1..15 ,[15, 12, 9, 7, 13, 4, 1, 3, 5, 11, 2, 8, 14, 6, 10]);
makespan = 535;
----------
assign = array1d(1..15 ,[6, 3, 4, 6, 4, 6, 6, 4, 4, 1, 2, 3, 4, 5, 6]);
next = array1d(1..15 ,[15, 12, 9, 7, 13, 4, 1, 3, 5, 11, 2, 8, 14, 6, 10]);
makespan = 533;
----------
assign = array1d(1..15 ,[4, 5, 3, 6, 3, 6, 6, 3, 3, 1, 2, 3, 4, 5, 6]);
next = array1d(1..15 ,[13, 14, 9, 15, 12, 4, 6, 3, 5, 11, 8, 1, 2, 7, 10]);
makespan = 530;
----------
assign = array1d(1..15 ,[6, 4, 5, 6, 4, 6, 1, 5, 5, 1, 2, 3, 4, 5, 6]);
next = array1d(1..15 ,[6, 13, 9, 15, 2, 4, 10, 3, 14, 11, 12, 5, 8, 1, 7]);
makespan = 523;
----------
assign = array1d(1..15 ,[4, 5, 6, 4, 5, 4, 1, 6, 6, 1, 2, 3, 4, 5, 6]);
next = array1d(1..15 ,[13, 14, 9, 6, 2, 1, 10, 3, 15, 11, 12, 4, 5, 8, 7]);
makespan = 522;
----------
assign = array1d(1..15 ,[6, 6, 4, 5, 4, 5, 4, 6, 4, 1, 2, 3, 4, 5, 6]);
next = array1d(1..15 ,[15, 8, 9, 6, 7, 14, 13, 1, 5, 11, 12, 3, 4, 2, 10]);
makespan = 520;
----------
assign = array1d(1..15 ,[6, 4, 5, 4, 6, 4, 6, 5, 5, 1, 2, 3, 4, 5, 6]);
next = array1d(1..15 ,[5, 13, 9, 6, 7, 2, 15, 3, 14, 11, 12, 4, 8, 1, 10]);
makespan = 519;
----------
assign = array1d(1..15 ,[5, 4, 6, 4, 6, 4, 5, 4, 6, 1, 2, 3, 4, 5, 6]);
next = array1d(1..15 ,[14, 8, 9, 6, 15, 2, 1, 13, 5, 11, 12, 4, 7, 3, 10]);
makespan = 514;
----------
assign = array1d(1..15 ,[5, 6, 5, 5, 3, 6, 5, 6, 2, 1, 2, 3, 4, 5, 6]);
next = array1d(1..15 ,[3, 8, 14, 1, 12, 2, 4, 15, 11, 9, 5, 13, 7, 6, 10]);
makespan = 511;
----------
assign = array1d(1..15 ,[6, 4, 2, 4, 6, 4, 5, 4, 5, 1, 2, 3, 4, 5, 6]);
next = array1d(1..15 ,[5, 8, 11, 6, 15, 2, 14, 13, 7, 3, 12, 4, 9, 1, 10]);
makespan = 509;
----------
assign = array1d(1..15 ,[6, 4, 2, 4, 6, 4, 2, 4, 2, 1, 2, 3, 4, 5, 6]);
next = array1d(1..15 ,[5, 8, 11, 6, 15, 2, 3, 13, 7, 9, 12, 4, 14, 1, 10]);
makespan = 508;
----------
assign = array1d(1..15 ,[6, 1, 2, 1, 2, 1, 6, 1, 6, 1, 2, 3, 4, 5, 6]);
next = array1d(1..15 ,[9, 8, 11, 6, 3, 2, 15, 10, 7, 5, 12, 13, 14, 1, 4]);
makespan = 506;
----------
assign = array1d(1..15 ,[6, 1, 2, 1, 6, 1, 2, 1, 6, 1, 2, 3, 4, 5, 6]);
next = array1d(1..15 ,[9, 8, 7, 6, 1, 2, 11, 10, 15, 3, 12, 13, 14, 5, 4]);
makespan = 504;
----------
assign = array1d(1..15 ,[6, 1, 6, 1, 2, 1, 2, 1, 6, 1, 2, 3, 4, 5, 6]);
next = array1d(1..15 ,[3, 8, 9, 6, 7, 2, 11, 10, 15, 5, 12, 13, 14, 1, 4]);
makespan = 503;
----------
assign = array1d(1..15 ,[6, 6, 5, 4, 4, 2, 5, 5, 6, 1, 2, 3, 4, 5, 6]);
next = array1d(1..15 ,[9, 15, 8, 5, 13, 11, 3, 14, 2, 6, 12, 4, 7, 1, 10]);
makespan = 501;
----------
assign = array1d(1..15 ,[6, 6, 1, 1, 3, 3, 3, 5, 6, 1, 2, 3, 4, 5, 6]);
next = array1d(1..15 ,[2, 9, 4, 10, 6, 12, 5, 14, 15, 11, 7, 13, 8, 1, 3]);
makespan = 500;
----------
assign = array1d(1..15 ,[6, 6, 4, 5, 4, 4, 4, 5, 6, 1, 2, 3, 4, 5, 6]);
next = array1d(1..15 ,[2, 9, 13, 8, 6, 3, 5, 14, 15, 11, 12, 7, 4, 1, 10]);
makespan = 499;
----------
assign = array1d(1..15 ,[2, 5, 4, 6, 4, 4, 4, 6, 3, 1, 2, 3, 4, 5, 6]);
next = array1d(1..15 ,[11, 14, 13, 8, 6, 3, 5, 15, 12, 1, 9, 7, 2, 4, 10]);
makespan = 498;
----------
assign = array1d(1..15 ,[2, 5, 4, 6, 4, 4, 4, 6, 3, 1, 2, 3, 4, 5, 6]);
next = array1d(1..15 ,[11, 14, 13, 8, 6, 3, 5, 15, 12, 1, 9, 7, 2, 4, 10]);
makespan = 497;
----------
assign = array1d(1..15 ,[2, 5, 4, 6, 4, 4, 4, 6, 3, 1, 2, 3, 4, 5, 6]);
next = array1d(1..15 ,[11, 14, 13, 8, 6, 3, 5, 15, 12, 1, 9, 7, 2, 4, 10]);
makespan = 496;
----------
assign = array1d(1..15 ,[2, 5, 4, 6, 4, 4, 4, 6, 3, 1, 2, 3, 4, 5, 6]);
next = array1d(1..15 ,[11, 14, 13, 8, 6, 3, 5, 15, 12, 1, 9, 7, 2, 4, 10]);
makespan = 495;
----------
assign = array1d(1..15 ,[2, 5, 4, 6, 4, 4, 4, 6, 3, 1, 2, 3, 4, 5, 6]);
next = array1d(1..15 ,[11, 14, 13, 8, 6, 3, 5, 15, 12, 1, 9, 7, 2, 4, 10]);
makespan = 494;
----------
assign = array1d(1..15 ,[2, 5, 4, 6, 4, 4, 4, 6, 3, 1, 2, 3, 4, 5, 6]);
next = array1d(1..15 ,[11, 14, 13, 8, 6, 3, 5, 15, 12, 1, 9, 7, 2, 4, 10]);
makespan = 493;
----------
assign = array1d(1..15 ,[2, 5, 4, 6, 4, 4, 4, 6, 3, 1, 2, 3, 4, 5, 6]);
next = array1d(1..15 ,[11, 14, 13, 8, 6, 3, 5, 15, 12, 1, 9, 7, 2, 4, 10]);
makespan = 491;
----------
assign = array1d(1..15 ,[2, 5, 4, 6, 4, 4, 4, 6, 3, 1, 2, 3, 4, 5, 6]);
next = array1d(1..15 ,[11, 14, 13, 8, 6, 3, 5, 15, 12, 1, 9, 7, 2, 4, 10]);
makespan = 490;
----------
assign = array1d(1..15 ,[2, 5, 4, 6, 4, 4, 4, 6, 3, 1, 2, 3, 4, 5, 6]);
next = array1d(1..15 ,[11, 14, 13, 8, 6, 3, 5, 15, 12, 1, 9, 7, 2, 4, 10]);
makespan = 489;
----------
assign = array1d(1..15 ,[2, 5, 4, 6, 4, 4, 4, 6, 3, 1, 2, 3, 4, 5, 6]);
next = array1d(1..15 ,[11, 14, 13, 8, 6, 3, 5, 15, 12, 1, 9, 7, 2, 4, 10]);
makespan = 488;
----------
assign = array1d(1..15 ,[2, 5, 4, 6, 4, 4, 4, 6, 3, 1, 2, 3, 4, 5, 6]);
next = array1d(1..15 ,[11, 14, 13, 8, 6, 3, 5, 15, 12, 1, 9, 7, 2, 4, 10]);
makespan = 487;
----------
assign = array1d(1..15 ,[2, 5, 4, 6, 4, 4, 4, 6, 3, 1, 2, 3, 4, 5, 6]);
next = array1d(1..15 ,[11, 14, 13, 8, 6, 3, 5, 15, 12, 1, 9, 7, 2, 4, 10]);
makespan = 484;
----------
assign = array1d(1..15 ,[2, 5, 4, 6, 4, 4, 4, 6, 3, 1, 2, 3, 4, 5, 6]);
next = array1d(1..15 ,[11, 14, 13, 8, 6, 3, 5, 15, 12, 1, 9, 7, 2, 4, 10]);
makespan = 481;
----------
assign = array1d(1..15 ,[2, 5, 4, 6, 4, 4, 4, 6, 3, 1, 2, 3, 4, 5, 6]);
next = array1d(1..15 ,[11, 14, 13, 8, 6, 3, 5, 15, 12, 1, 9, 7, 2, 4, 10]);
makespan = 478;
----------
assign = array1d(1..15 ,[2, 5, 4, 6, 4, 4, 4, 6, 3, 1, 2, 3, 4, 5, 6]);
next = array1d(1..15 ,[11, 14, 13, 8, 6, 3, 5, 15, 12, 1, 9, 7, 2, 4, 10]);
makespan = 475;
----------
assign = array1d(1..15 ,[2, 5, 4, 6, 4, 4, 4, 6, 3, 1, 2, 3, 4, 5, 6]);
next = array1d(1..15 ,[11, 14, 13, 8, 6, 3, 5, 15, 12, 1, 9, 7, 2, 4, 10]);
makespan = 474;
----------
assign = array1d(1..15 ,[2, 5, 4, 6, 4, 4, 4, 6, 3, 1, 2, 3, 4, 5, 6]);
next = array1d(1..15 ,[11, 14, 13, 8, 6, 3, 5, 15, 12, 1, 9, 7, 2, 4, 10]);
makespan = 469;
----------
assign = array1d(1..15 ,[2, 5, 4, 6, 4, 4, 4, 6, 3, 1, 2, 3, 4, 5, 6]);
next = array1d(1..15 ,[11, 14, 13, 8, 6, 3, 5, 15, 12, 1, 9, 7, 2, 4, 10]);
makespan = 468;
----------
assign = array1d(1..15 ,[2, 5, 4, 6, 4, 4, 4, 6, 3, 1, 2, 3, 4, 5, 6]);
next = array1d(1..15 ,[11, 14, 13, 8, 6, 3, 5, 15, 12, 1, 9, 7, 2, 4, 10]);
makespan = 464;
----------
assign = array1d(1..15 ,[2, 5, 4, 6, 4, 4, 4, 6, 3, 1, 2, 3, 4, 5, 6]);
next = array1d(1..15 ,[11, 14, 13, 8, 6, 3, 5, 15, 12, 1, 9, 7, 2, 4, 10]);
makespan = 461;
----------
assign = array1d(1..15 ,[2, 5, 4, 6, 4, 4, 4, 6, 3, 1, 2, 3, 4, 5, 6]);
next = array1d(1..15 ,[11, 14, 13, 8, 6, 3, 5, 15, 12, 1, 9, 7, 2, 4, 10]);
makespan = 460;
----------
assign = array1d(1..15 ,[2, 5, 4, 6, 4, 4, 4, 6, 3, 1, 2, 3, 4, 5, 6]);
next = array1d(1..15 ,[11, 14, 13, 8, 6, 3, 5, 15, 12, 1, 9, 7, 2, 4, 10]);
makespan = 459;
----------
assign = array1d(1..15 ,[2, 5, 4, 6, 4, 4, 4, 6, 3, 1, 2, 3, 4, 5, 6]);
next = array1d(1..15 ,[11, 14, 13, 8, 6, 3, 5, 15, 12, 1, 9, 7, 2, 4, 10]);
makespan = 458;
----------
assign = array1d(1..15 ,[2, 4, 5, 4, 6, 6, 6, 4, 3, 1, 2, 3, 4, 5, 6]);
next = array1d(1..15 ,[11, 4, 14, 8, 6, 15, 5, 13, 12, 1, 9, 2, 3, 7, 10]);
makespan = 457;
----------
assign = array1d(1..15 ,[4, 5, 4, 5, 6, 6, 6, 5, 3, 1, 2, 3, 4, 5, 6]);
next = array1d(1..15 ,[3, 4, 13, 8, 6, 15, 5, 14, 12, 11, 9, 1, 2, 7, 10]);
makespan = 452;
----------
assign = array1d(1..15 ,[5, 4, 5, 4, 6, 6, 6, 4, 3, 1, 2, 3, 4, 5, 6]);
next = array1d(1..15 ,[3, 4, 14, 8, 6, 15, 5, 13, 12, 11, 9, 2, 1, 7, 10]);
makespan = 444;
----------
assign = array1d(1..15 ,[4, 5, 4, 5, 6, 6, 6, 5, 3, 1, 2, 3, 4, 5, 6]);
next = array1d(1..15 ,[3, 4, 13, 8, 6, 15, 5, 14, 12, 11, 9, 1, 2, 7, 10]);
makespan = 442;
----------
assign = array1d(1..15 ,[4, 5, 4, 5, 6, 6, 6, 5, 3, 1, 2, 3, 4, 5, 6]);
next = array1d(1..15 ,[3, 4, 13, 8, 6, 15, 5, 14, 12, 11, 9, 1, 2, 7, 10]);
makespan = 439;
----------
assign = array1d(1..15 ,[4, 5, 4, 5, 6, 6, 6, 5, 3, 1, 2, 3, 4, 5, 6]);
next = array1d(1..15 ,[3, 4, 13, 8, 6, 15, 5, 14, 12, 11, 9, 1, 2, 7, 10]);
makespan = 438;
----------
assign = array1d(1..15 ,[4, 5, 4, 5, 6, 6, 6, 5, 3, 1, 2, 3, 4, 5, 6]);
next = array1d(1..15 ,[3, 4, 13, 8, 6, 15, 5, 14, 12, 11, 9, 1, 2, 7, 10]);
makespan = 437;
----------
assign = array1d(1..15 ,[4, 5, 4, 5, 6, 6, 6, 5, 3, 1, 2, 3, 4, 5, 6]);
next = array1d(1..15 ,[3, 4, 13, 8, 6, 15, 5, 14, 12, 11, 9, 1, 2, 7, 10]);
makespan = 435;
----------
assign = array1d(1..15 ,[4, 5, 4, 5, 6, 6, 6, 5, 3, 1, 2, 3, 4, 5, 6]);
next = array1d(1..15 ,[3, 4, 13, 8, 6, 15, 5, 14, 12, 11, 9, 1, 2, 7, 10]);
makespan = 434;
----------
assign = array1d(1..15 ,[4, 5, 4, 5, 6, 6, 6, 5, 3, 1, 2, 3, 4, 5, 6]);
next = array1d(1..15 ,[3, 4, 13, 8, 6, 15, 5, 14, 12, 11, 9, 1, 2, 7, 10]);
makespan = 431;
----------
assign = array1d(1..15 ,[4, 5, 4, 5, 6, 6, 6, 5, 3, 1, 2, 3, 4, 5, 6]);
next = array1d(1..15 ,[3, 4, 13, 8, 6, 15, 5, 14, 12, 11, 9, 1, 2, 7, 10]);
makespan = 428;
----------
assign = array1d(1..15 ,[4, 5, 4, 5, 6, 6, 6, 5, 3, 1, 2, 3, 4, 5, 6]);
next = array1d(1..15 ,[3, 4, 13, 8, 6, 15, 5, 14, 12, 11, 9, 1, 2, 7, 10]);
makespan = 423;
----------
assign = array1d(1..15 ,[4, 5, 4, 5, 6, 6, 6, 5, 3, 1, 2, 3, 4, 5, 6]);
next = array1d(1..15 ,[3, 4, 13, 8, 6, 15, 5, 14, 12, 11, 9, 1, 2, 7, 10]);
makespan = 419;
----------
assign = array1d(1..15 ,[4, 5, 4, 5, 6, 6, 6, 5, 3, 1, 2, 3, 4, 5, 6]);
next = array1d(1..15 ,[3, 4, 13, 8, 6, 15, 5, 14, 12, 11, 9, 1, 2, 7, 10]);
makespan = 418;
----------
assign = array1d(1..15 ,[4, 5, 4, 5, 6, 6, 6, 5, 3, 1, 2, 3, 4, 5, 6]);
next = array1d(1..15 ,[3, 4, 13, 8, 6, 15, 5, 14, 12, 11, 9, 1, 2, 7, 10]);
makespan = 417;
----------
assign = array1d(1..15 ,[4, 5, 4, 5, 6, 6, 6, 5, 3, 1, 2, 3, 4, 5, 6]);
next = array1d(1..15 ,[3, 4, 13, 8, 6, 15, 5, 14, 12, 11, 9, 1, 2, 7, 10]);
makespan = 416;
----------
assign = array1d(1..15 ,[4, 5, 4, 5, 6, 6, 6, 5, 3, 1, 2, 3, 4, 5, 6]);
next = array1d(1..15 ,[3, 4, 13, 8, 6, 15, 5, 14, 12, 11, 9, 1, 2, 7, 10]);
makespan = 415;
----------
assign = array1d(1..15 ,[4, 5, 4, 5, 6, 6, 6, 5, 3, 1, 2, 3, 4, 5, 6]);
next = array1d(1..15 ,[3, 4, 13, 8, 6, 15, 5, 14, 12, 11, 9, 1, 2, 7, 10]);
makespan = 414;
----------
assign = array1d(1..15 ,[4, 5, 4, 5, 6, 6, 6, 5, 3, 1, 2, 3, 4, 5, 6]);
next = array1d(1..15 ,[3, 4, 13, 8, 6, 15, 5, 14, 12, 11, 9, 1, 2, 7, 10]);
makespan = 413;
----------
assign = array1d(1..15 ,[4, 5, 4, 5, 6, 6, 6, 5, 3, 1, 2, 3, 4, 5, 6]);
next = array1d(1..15 ,[3, 4, 13, 8, 6, 15, 5, 14, 12, 11, 9, 1, 2, 7, 10]);
makespan = 412;
----------
assign = array1d(1..15 ,[4, 5, 4, 5, 6, 6, 6, 5, 3, 1, 2, 3, 4, 5, 6]);
next = array1d(1..15 ,[3, 4, 13, 8, 6, 15, 5, 14, 12, 11, 9, 1, 2, 7, 10]);
makespan = 410;
----------
assign = array1d(1..15 ,[4, 5, 4, 5, 6, 6, 6, 5, 3, 1, 2, 3, 4, 5, 6]);
next = array1d(1..15 ,[3, 4, 13, 8, 6, 15, 5, 14, 12, 11, 9, 1, 2, 7, 10]);
makespan = 407;
----------
assign = array1d(1..15 ,[4, 5, 4, 5, 6, 6, 6, 5, 3, 1, 2, 3, 4, 5, 6]);
next = array1d(1..15 ,[3, 4, 13, 8, 6, 15, 5, 14, 12, 11, 9, 1, 2, 7, 10]);
makespan = 406;
----------
assign = array1d(1..15 ,[4, 5, 4, 5, 6, 6, 6, 5, 3, 1, 2, 3, 4, 5, 6]);
next = array1d(1..15 ,[3, 4, 13, 8, 6, 15, 5, 14, 12, 11, 9, 1, 2, 7, 10]);
makespan = 405;
----------
assign = array1d(1..15 ,[4, 5, 4, 5, 6, 6, 6, 5, 3, 1, 2, 3, 4, 5, 6]);
next = array1d(1..15 ,[3, 4, 13, 8, 6, 15, 5, 14, 12, 11, 9, 1, 2, 7, 10]);
makespan = 404;
----------
assign = array1d(1..15 ,[4, 5, 4, 5, 6, 6, 6, 5, 3, 1, 2, 3, 4, 5, 6]);
next = array1d(1..15 ,[3, 4, 13, 8, 6, 15, 5, 14, 12, 11, 9, 1, 2, 7, 10]);
makespan = 402;
----------
assign = array1d(1..15 ,[4, 5, 4, 5, 6, 6, 6, 5, 3, 1, 2, 3, 4, 5, 6]);
next = array1d(1..15 ,[3, 4, 13, 8, 6, 15, 5, 14, 12, 11, 9, 1, 2, 7, 10]);
makespan = 400;
----------
assign = array1d(1..15 ,[4, 5, 4, 5, 6, 6, 6, 5, 3, 1, 2, 3, 4, 5, 6]);
next = array1d(1..15 ,[3, 4, 13, 8, 6, 15, 5, 14, 12, 11, 9, 1, 2, 7, 10]);
makespan = 398;
----------
assign = array1d(1..15 ,[4, 5, 4, 5, 6, 6, 6, 5, 3, 1, 2, 3, 4, 5, 6]);
next = array1d(1..15 ,[3, 4, 13, 8, 6, 15, 5, 14, 12, 11, 9, 1, 2, 7, 10]);
makespan = 397;
----------
assign = array1d(1..15 ,[4, 5, 4, 5, 6, 6, 6, 5, 3, 1, 2, 3, 4, 5, 6]);
next = array1d(1..15 ,[3, 4, 13, 8, 6, 15, 5, 14, 12, 11, 9, 1, 2, 7, 10]);
makespan = 394;
----------
assign = array1d(1..15 ,[4, 5, 4, 5, 6, 6, 6, 5, 3, 1, 2, 3, 4, 5, 6]);
next = array1d(1..15 ,[3, 4, 13, 8, 6, 15, 5, 14, 12, 11, 9, 1, 2, 7, 10]);
makespan = 393;
----------
assign = array1d(1..15 ,[4, 5, 4, 5, 6, 6, 6, 5, 3, 1, 2, 3, 4, 5, 6]);
next = array1d(1..15 ,[3, 4, 13, 8, 6, 15, 5, 14, 12, 11, 9, 1, 2, 7, 10]);
makespan = 392;
----------
assign = array1d(1..15 ,[4, 5, 4, 5, 6, 6, 6, 5, 3, 1, 2, 3, 4, 5, 6]);
next = array1d(1..15 ,[3, 4, 13, 8, 6, 15, 5, 14, 12, 11, 9, 1, 2, 7, 10]);
makespan = 387;
----------
assign = array1d(1..15 ,[4, 5, 4, 5, 6, 6, 6, 5, 3, 1, 2, 3, 4, 5, 6]);
next = array1d(1..15 ,[3, 4, 13, 8, 6, 15, 5, 14, 12, 11, 9, 1, 2, 7, 10]);
makespan = 382;
----------
assign = array1d(1..15 ,[4, 5, 4, 5, 6, 6, 6, 5, 3, 1, 2, 3, 4, 5, 6]);
next = array1d(1..15 ,[3, 4, 13, 8, 6, 15, 5, 14, 12, 11, 9, 1, 2, 7, 10]);
makespan = 366;
----------
assign = array1d(1..15 ,[5, 6, 1, 6, 4, 4, 4, 5, 1, 1, 2, 3, 4, 5, 6]);
next = array1d(1..15 ,[8, 4, 10, 15, 6, 13, 5, 14, 3, 11, 12, 7, 1, 2, 9]);
makespan = 360;
----------
assign = array1d(1..15 ,[6, 6, 2, 1, 4, 4, 4, 1, 2, 1, 2, 3, 4, 5, 6]);
next = array1d(1..15 ,[2, 15, 11, 8, 6, 13, 5, 10, 3, 9, 12, 7, 14, 1, 4]);
makespan = 349;
----------
assign = array1d(1..15 ,[4, 4, 3, 3, 1, 6, 1, 3, 6, 1, 2, 3, 4, 5, 6]);
next = array1d(1..15 ,[2, 13, 4, 8, 10, 9, 5, 12, 15, 11, 3, 1, 14, 6, 7]);
makespan = 348;
----------
assign = array1d(1..15 ,[1, 2, 3, 3, 5, 5, 6, 3, 6, 1, 2, 3, 4, 5, 6]);
next = array1d(1..15 ,[10, 11, 4, 8, 6, 14, 9, 12, 15, 2, 3, 13, 5, 7, 1]);
makespan = 346;
----------
assign = array1d(1..15 ,[5, 1, 3, 3, 6, 6, 1, 5, 3, 1, 2, 3, 4, 5, 6]);
next = array1d(1..15 ,[8, 10, 4, 12, 6, 15, 2, 14, 3, 11, 9, 13, 1, 5, 7]);
makespan = 344;
----------
assign = array1d(1..15 ,[6, 6, 5, 3, 4, 4, 1, 3, 5, 1, 2, 3, 4, 5, 6]);
next = array1d(1..15 ,[2, 15, 14, 8, 6, 13, 10, 12, 3, 11, 4, 5, 9, 1, 7]);
makespan = 343;
----------
assign = array1d(1..15 ,[6, 6, 3, 1, 4, 1, 4, 1, 4, 1, 2, 3, 4, 5, 6]);
next = array1d(1..15 ,[2, 15, 12, 8, 9, 4, 5, 10, 13, 11, 3, 7, 14, 1, 6]);
makespan = 341;
----------
assign = array1d(1..15 ,[6, 6, 3, 1, 4, 1, 4, 1, 4, 1, 2, 3, 4, 5, 6]);
next = array1d(1..15 ,[2, 15, 12, 8, 9, 4, 5, 10, 13, 11, 3, 7, 14, 1, 6]);
makespan = 340;
----------
assign = array1d(1..15 ,[6, 6, 3, 1, 4, 1, 4, 1, 4, 1, 2, 3, 4, 5, 6]);
next = array1d(1..15 ,[2, 15, 12, 8, 9, 4, 5, 10, 13, 11, 3, 7, 14, 1, 6]);
makespan = 339;
----------
assign = array1d(1..15 ,[6, 6, 3, 1, 4, 1, 4, 1, 4, 1, 2, 3, 4, 5, 6]);
next = array1d(1..15 ,[2, 15, 12, 8, 9, 4, 5, 10, 13, 11, 3, 7, 14, 1, 6]);
makespan = 338;
----------
assign = array1d(1..15 ,[6, 6, 3, 1, 4, 1, 4, 1, 4, 1, 2, 3, 4, 5, 6]);
next = array1d(1..15 ,[2, 15, 12, 8, 9, 4, 5, 10, 13, 11, 3, 7, 14, 1, 6]);
makespan = 337;
----------
assign = array1d(1..15 ,[6, 6, 3, 1, 4, 1, 4, 1, 4, 1, 2, 3, 4, 5, 6]);
next = array1d(1..15 ,[2, 15, 12, 8, 9, 4, 5, 10, 13, 11, 3, 7, 14, 1, 6]);
makespan = 332;
----------
assign = array1d(1..15 ,[6, 6, 3, 5, 4, 4, 4, 5, 1, 1, 2, 3, 4, 5, 6]);
next = array1d(1..15 ,[2, 15, 12, 8, 6, 13, 5, 14, 10, 11, 3, 7, 4, 1, 9]);
makespan = 330;
----------
assign = array1d(1..15 ,[6, 6, 3, 5, 4, 4, 4, 5, 1, 1, 2, 3, 4, 5, 6]);
next = array1d(1..15 ,[2, 15, 12, 8, 6, 13, 5, 14, 10, 11, 3, 7, 4, 1, 9]);
makespan = 329;
----------
assign = array1d(1..15 ,[6, 6, 3, 5, 4, 4, 4, 5, 1, 1, 2, 3, 4, 5, 6]);
next = array1d(1..15 ,[2, 15, 12, 8, 6, 13, 5, 14, 10, 11, 3, 7, 4, 1, 9]);
makespan = 327;
----------
assign = array1d(1..15 ,[6, 6, 1, 5, 4, 4, 4, 5, 1, 1, 2, 3, 4, 5, 6]);
next = array1d(1..15 ,[2, 15, 10, 8, 6, 7, 13, 14, 3, 11, 12, 5, 4, 1, 9]);
makespan = 322;
----------
assign = array1d(1..15 ,[6, 6, 3, 4, 5, 5, 3, 4, 1, 1, 2, 3, 4, 5, 6]);
next = array1d(1..15 ,[2, 15, 7, 8, 6, 14, 12, 13, 10, 11, 3, 4, 5, 1, 9]);
makespan = 321;
----------
assign = array1d(1..15 ,[4, 6, 5, 5, 6, 5, 4, 3, 3, 1, 2, 3, 4, 5, 6]);
next = array1d(1..15 ,[7, 15, 6, 14, 2, 4, 13, 9, 12, 11, 8, 1, 3, 5, 10]);
makespan = 320;
----------
assign = array1d(1..15 ,[2, 2, 1, 5, 4, 4, 5, 6, 6, 1, 2, 3, 4, 5, 6]);
next = array1d(1..15 ,[11, 1, 10, 14, 6, 13, 4, 9, 15, 2, 12, 5, 7, 8, 3]);
makespan = 318;
----------
assign = array1d(1..15 ,[5, 6, 3, 4, 4, 6, 5, 3, 5, 1, 2, 3, 4, 5, 6]);
next = array1d(1..15 ,[9, 15, 8, 13, 4, 2, 14, 12, 7, 11, 3, 5, 1, 6, 10]);
makespan = 317;
----------
assign = array1d(1..15 ,[3, 4, 5, 6, 6, 4, 3, 5, 3, 1, 2, 3, 4, 5, 6]);
next = array1d(1..15 ,[9, 13, 8, 15, 4, 2, 1, 14, 12, 11, 7, 6, 3, 5, 10]);
makespan = 316;
----------
assign = array1d(1..15 ,[6, 3, 5, 5, 2, 4, 4, 3, 6, 1, 2, 3, 4, 5, 6]);
next = array1d(1..15 ,[9, 8, 14, 3, 11, 13, 6, 12, 15, 5, 2, 7, 4, 1, 10]);
makespan = 315;
----------
assign = array1d(1..15 ,[2, 6, 4, 2, 3, 5, 6, 4, 5, 1, 2, 3, 4, 5, 6]);
next = array1d(1..15 ,[4, 7, 8, 11, 12, 9, 15, 13, 14, 1, 5, 3, 6, 2, 10]);
makespan = 313;
----------
assign = array1d(1..15 ,[1, 4, 5, 1, 6, 2, 2, 5, 6, 1, 2, 3, 4, 5, 6]);
next = array1d(1..15 ,[4, 13, 8, 10, 15, 11, 6, 14, 5, 7, 12, 2, 3, 9, 1]);
makespan = 312;
----------
assign = array1d(1..15 ,[1, 6, 5, 1, 5, 3, 3, 6, 3, 1, 2, 3, 4, 5, 6]);
next = array1d(1..15 ,[4, 15, 14, 10, 3, 9, 6, 2, 12, 11, 7, 13, 5, 8, 1]);
makespan = 309;
----------
assign = array1d(1..15 ,[2, 6, 3, 6, 3, 4, 4, 5, 5, 1, 2, 3, 4, 5, 6]);
next = array1d(1..15 ,[11, 4, 12, 15, 3, 13, 6, 14, 8, 1, 5, 7, 9, 2, 10]);
makespan = 308;
----------
assign = array1d(1..15 ,[5, 2, 5, 2, 6, 3, 3, 6, 3, 1, 2, 3, 4, 5, 6]);
next = array1d(1..15 ,[14, 4, 1, 11, 15, 9, 6, 5, 12, 2, 7, 13, 3, 8, 10]);
makespan = 307;
----------
assign = array1d(1..15 ,[5, 2, 5, 2, 6, 3, 3, 6, 3, 1, 2, 3, 4, 5, 6]);
next = array1d(1..15 ,[14, 4, 1, 11, 15, 9, 6, 5, 12, 2, 7, 13, 3, 8, 10]);
makespan = 306;
----------
assign = array1d(1..15 ,[5, 2, 5, 2, 6, 3, 3, 6, 3, 1, 2, 3, 4, 5, 6]);
next = array1d(1..15 ,[14, 4, 1, 11, 15, 9, 6, 5, 12, 2, 7, 13, 3, 8, 10]);
makespan = 304;
----------
assign = array1d(1..15 ,[5, 2, 5, 2, 6, 3, 3, 6, 3, 1, 2, 3, 4, 5, 6]);
next = array1d(1..15 ,[14, 4, 1, 11, 15, 9, 6, 5, 12, 2, 7, 13, 3, 8, 10]);
makespan = 303;
----------
assign = array1d(1..15 ,[5, 2, 5, 2, 6, 3, 3, 6, 3, 1, 2, 3, 4, 5, 6]);
next = array1d(1..15 ,[14, 4, 1, 11, 15, 9, 6, 5, 12, 2, 7, 13, 3, 8, 10]);
makespan = 302;
----------
assign = array1d(1..15 ,[2, 1, 4, 1, 4, 6, 6, 5, 5, 1, 2, 3, 4, 5, 6]);
next = array1d(1..15 ,[11, 4, 13, 10, 3, 15, 6, 14, 8, 1, 12, 5, 9, 7, 2]);
makespan = 301;
----------
assign = array1d(1..15 ,[2, 1, 2, 6, 4, 5, 5, 4, 6, 1, 2, 3, 4, 5, 6]);
next = array1d(1..15 ,[11, 10, 1, 15, 13, 14, 6, 5, 4, 3, 12, 8, 7, 9, 2]);
makespan = 300;
----------
assign = array1d(1..15 ,[4, 1, 4, 6, 3, 6, 5, 5, 3, 1, 2, 3, 4, 5, 6]);
next = array1d(1..15 ,[13, 10, 1, 15, 9, 4, 8, 14, 12, 11, 5, 3, 7, 6, 2]);
makespan = 299;
----------
assign = array1d(1..15 ,[6, 1, 6, 3, 5, 3, 1, 4, 5, 1, 2, 3, 4, 5, 6]);
next = array1d(1..15 ,[15, 7, 1, 12, 9, 4, 10, 13, 14, 11, 6, 8, 5, 3, 2]);
makespan = 298;
----------
assign = array1d(1..15 ,[6, 3, 6, 4, 5, 4, 3, 2, 5, 1, 2, 3, 4, 5, 6]);
next = array1d(1..15 ,[15, 7, 1, 13, 9, 4, 12, 11, 14, 8, 2, 6, 5, 3, 10]);
makespan = 296;
----------
assign = array1d(1..15 ,[6, 4, 6, 5, 3, 5, 4, 1, 3, 1, 2, 3, 4, 5, 6]);
next = array1d(1..15 ,[15, 7, 1, 14, 9, 4, 13, 10, 12, 11, 5, 2, 6, 3, 8]);
makespan = 295;
----------
assign = array1d(1..15 ,[4, 2, 4, 1, 6, 5, 5, 3, 6, 1, 2, 3, 4, 5, 6]);
next = array1d(1..15 ,[13, 11, 1, 10, 9, 14, 6, 12, 15, 2, 8, 3, 7, 5, 4]);
makespan = 294;
----------
assign = array1d(1..15 ,[5, 6, 5, 1, 2, 1, 2, 4, 4, 1, 2, 3, 4, 5, 6]);
next = array1d(1..15 ,[14, 15, 1, 10, 7, 4, 11, 13, 8, 5, 12, 9, 3, 2, 6]);
makespan = 293;
----------
assign = array1d(1..15 ,[5, 6, 5, 1, 2, 1, 2, 4, 4, 1, 2, 3, 4, 5, 6]);
next = array1d(1..15 ,[14, 15, 1, 10, 7, 4, 11, 13, 8, 5, 12, 9, 3, 2, 6]);
makespan = 291;
----------
assign = array1d(1..15 ,[5, 6, 5, 1, 2, 1, 2, 4, 4, 1, 2, 3, 4, 5, 6]);
next = array1d(1..15 ,[14, 15, 1, 10, 7, 4, 11, 13, 8, 5, 12, 9, 3, 2, 6]);
makespan = 290;
----------
assign = array1d(1..15 ,[5, 6, 5, 1, 2, 1, 2, 4, 4, 1, 2, 3, 4, 5, 6]);
next = array1d(1..15 ,[14, 15, 1, 10, 7, 4, 11, 13, 8, 5, 12, 9, 3, 2, 6]);
makespan = 289;
----------
assign = array1d(1..15 ,[5, 6, 5, 1, 2, 1, 2, 4, 4, 1, 2, 3, 4, 5, 6]);
next = array1d(1..15 ,[14, 15, 1, 10, 7, 4, 11, 13, 8, 5, 12, 9, 3, 2, 6]);
makespan = 288;
----------
assign = array1d(1..15 ,[5, 6, 5, 1, 2, 1, 2, 4, 4, 1, 2, 3, 4, 5, 6]);
next = array1d(1..15 ,[14, 15, 1, 10, 7, 4, 11, 13, 8, 5, 12, 9, 3, 2, 6]);
makespan = 287;
----------
assign = array1d(1..15 ,[5, 6, 5, 1, 2, 1, 2, 4, 4, 1, 2, 3, 4, 5, 6]);
next = array1d(1..15 ,[14, 15, 1, 10, 7, 4, 11, 13, 8, 5, 12, 9, 3, 2, 6]);
makespan = 286;
----------
assign = array1d(1..15 ,[5, 6, 5, 1, 2, 1, 2, 4, 4, 1, 2, 3, 4, 5, 6]);
next = array1d(1..15 ,[14, 15, 1, 10, 7, 4, 11, 13, 8, 5, 12, 9, 3, 2, 6]);
makespan = 285;
----------
assign = array1d(1..15 ,[5, 6, 5, 1, 2, 1, 2, 4, 4, 1, 2, 3, 4, 5, 6]);
next = array1d(1..15 ,[14, 15, 1, 10, 7, 4, 11, 13, 8, 5, 12, 9, 3, 2, 6]);
makespan = 284;
----------
assign = array1d(1..15 ,[5, 6, 5, 1, 2, 1, 2, 4, 4, 1, 2, 3, 4, 5, 6]);
next = array1d(1..15 ,[14, 15, 1, 10, 7, 4, 11, 13, 8, 5, 12, 9, 3, 2, 6]);
makespan = 283;
----------
assign = array1d(1..15 ,[5, 6, 5, 1, 2, 1, 2, 4, 4, 1, 2, 3, 4, 5, 6]);
next = array1d(1..15 ,[14, 15, 1, 10, 7, 4, 11, 13, 8, 5, 12, 9, 3, 2, 6]);
makespan = 280;
----------
assign = array1d(1..15 ,[5, 6, 5, 1, 2, 1, 2, 4, 4, 1, 2, 3, 4, 5, 6]);
next = array1d(1..15 ,[14, 15, 1, 10, 7, 4, 11, 13, 8, 5, 12, 9, 3, 2, 6]);
makespan = 279;
----------
assign = array1d(1..15 ,[5, 6, 5, 1, 2, 1, 2, 4, 4, 1, 2, 3, 4, 5, 6]);
next = array1d(1..15 ,[14, 15, 1, 10, 7, 4, 11, 13, 8, 5, 12, 9, 3, 2, 6]);
makespan = 278;
----------
assign = array1d(1..15 ,[5, 6, 5, 1, 2, 1, 2, 4, 4, 1, 2, 3, 4, 5, 6]);
next = array1d(1..15 ,[14, 15, 1, 10, 7, 4, 11, 13, 8, 5, 12, 9, 3, 2, 6]);
makespan = 277;
----------
assign = array1d(1..15 ,[5, 6, 5, 1, 2, 1, 2, 4, 4, 1, 2, 3, 4, 5, 6]);
next = array1d(1..15 ,[14, 15, 1, 10, 7, 4, 11, 13, 8, 5, 12, 9, 3, 2, 6]);
makespan = 276;
----------
assign = array1d(1..15 ,[5, 6, 5, 1, 2, 1, 2, 4, 4, 1, 2, 3, 4, 5, 6]);
next = array1d(1..15 ,[14, 15, 1, 10, 7, 4, 11, 13, 8, 5, 12, 9, 3, 2, 6]);
makespan = 273;
----------
assign = array1d(1..15 ,[5, 6, 5, 1, 2, 1, 2, 4, 4, 1, 2, 3, 4, 5, 6]);
next = array1d(1..15 ,[14, 15, 1, 10, 7, 4, 11, 13, 8, 5, 12, 9, 3, 2, 6]);
makespan = 272;
----------
assign = array1d(1..15 ,[5, 6, 5, 1, 2, 1, 2, 4, 4, 1, 2, 3, 4, 5, 6]);
next = array1d(1..15 ,[14, 15, 1, 10, 7, 4, 11, 13, 8, 5, 12, 9, 3, 2, 6]);
makespan = 271;
----------
assign = array1d(1..15 ,[5, 6, 5, 1, 2, 1, 2, 4, 4, 1, 2, 3, 4, 5, 6]);
next = array1d(1..15 ,[14, 15, 1, 10, 7, 4, 11, 13, 8, 5, 12, 9, 3, 2, 6]);
makespan = 269;
----------
assign = array1d(1..15 ,[5, 6, 5, 1, 2, 1, 2, 4, 4, 1, 2, 3, 4, 5, 6]);
next = array1d(1..15 ,[14, 15, 1, 10, 7, 4, 11, 13, 8, 5, 12, 9, 3, 2, 6]);
makespan = 267;
----------
assign = array1d(1..15 ,[5, 6, 5, 1, 2, 1, 2, 4, 4, 1, 2, 3, 4, 5, 6]);
next = array1d(1..15 ,[14, 15, 1, 10, 7, 4, 11, 13, 8, 5, 12, 9, 3, 2, 6]);
makespan = 266;
----------
assign = array1d(1..15 ,[5, 6, 5, 1, 2, 1, 2, 4, 4, 1, 2, 3, 4, 5, 6]);
next = array1d(1..15 ,[14, 15, 1, 10, 7, 4, 11, 13, 8, 5, 12, 9, 3, 2, 6]);
makespan = 265;
----------
assign = array1d(1..15 ,[5, 6, 5, 1, 2, 1, 2, 4, 4, 1, 2, 3, 4, 5, 6]);
next = array1d(1..15 ,[14, 15, 1, 10, 7, 4, 11, 13, 8, 5, 12, 9, 3, 2, 6]);
makespan = 264;
----------
assign = array1d(1..15 ,[5, 6, 5, 1, 2, 1, 2, 4, 4, 1, 2, 3, 4, 5, 6]);
next = array1d(1..15 ,[14, 15, 1, 10, 7, 4, 11, 13, 8, 5, 12, 9, 3, 2, 6]);
makespan = 263;
----------
assign = array1d(1..15 ,[5, 6, 5, 1, 2, 1, 2, 4, 4, 1, 2, 3, 4, 5, 6]);
next = array1d(1..15 ,[14, 15, 1, 10, 7, 4, 11, 13, 8, 5, 12, 9, 3, 2, 6]);
makespan = 262;
----------
assign = array1d(1..15 ,[5, 6, 5, 1, 2, 1, 2, 4, 4, 1, 2, 3, 4, 5, 6]);
next = array1d(1..15 ,[14, 15, 1, 10, 7, 4, 11, 13, 8, 5, 12, 9, 3, 2, 6]);
makespan = 261;
----------
assign = array1d(1..15 ,[5, 6, 5, 1, 2, 1, 2, 4, 4, 1, 2, 3, 4, 5, 6]);
next = array1d(1..15 ,[14, 15, 1, 10, 7, 4, 11, 13, 8, 5, 12, 9, 3, 2, 6]);
makespan = 260;
----------
assign = array1d(1..15 ,[5, 6, 5, 1, 2, 1, 2, 4, 4, 1, 2, 3, 4, 5, 6]);
next = array1d(1..15 ,[14, 15, 1, 10, 7, 4, 11, 13, 8, 5, 12, 9, 3, 2, 6]);
makespan = 259;
----------
assign = array1d(1..15 ,[5, 6, 5, 1, 2, 1, 2, 4, 4, 1, 2, 3, 4, 5, 6]);
next = array1d(1..15 ,[14, 15, 1, 10, 7, 4, 11, 13, 8, 5, 12, 9, 3, 2, 6]);
makespan = 258;
----------
assign = array1d(1..15 ,[5, 6, 5, 1, 2, 1, 2, 3, 3, 1, 2, 3, 4, 5, 6]);
next = array1d(1..15 ,[14, 15, 1, 10, 7, 4, 11, 12, 8, 5, 9, 13, 3, 2, 6]);
makespan = 257;
----------
assign = array1d(1..15 ,[5, 6, 5, 4, 2, 4, 2, 3, 3, 1, 2, 3, 4, 5, 6]);
next = array1d(1..15 ,[14, 15, 1, 13, 7, 4, 11, 12, 8, 5, 9, 6, 3, 2, 10]);
makespan = 256;
----------
assign = array1d(1..15 ,[5, 6, 5, 4, 2, 4, 2, 3, 3, 1, 2, 3, 4, 5, 6]);
next = array1d(1..15 ,[14, 15, 1, 13, 7, 4, 11, 12, 8, 5, 9, 6, 3, 2, 10]);
makespan = 254;
----------
assign = array1d(1..15 ,[5, 6, 5, 4, 2, 4, 2, 3, 3, 1, 2, 3, 4, 5, 6]);
next = array1d(1..15 ,[14, 15, 1, 13, 7, 4, 11, 12, 8, 5, 9, 6, 3, 2, 10]);
makespan = 253;
----------
assign = array1d(1..15 ,[5, 6, 5, 4, 2, 4, 2, 3, 3, 1, 2, 3, 4, 5, 6]);
next = array1d(1..15 ,[14, 15, 1, 13, 7, 4, 11, 12, 8, 5, 9, 6, 3, 2, 10]);
makespan = 252;
----------
assign = array1d(1..15 ,[5, 6, 5, 4, 2, 4, 2, 3, 3, 1, 2, 3, 4, 5, 6]);
next = array1d(1..15 ,[14, 15, 1, 13, 7, 4, 11, 12, 8, 5, 9, 6, 3, 2, 10]);
makespan = 251;
----------
assign = array1d(1..15 ,[5, 6, 5, 4, 2, 4, 2, 3, 3, 1, 2, 3, 4, 5, 6]);
next = array1d(1..15 ,[14, 15, 1, 13, 7, 4, 11, 12, 8, 5, 9, 6, 3, 2, 10]);
makespan = 250;
----------
assign = array1d(1..15 ,[5, 6, 5, 4, 2, 4, 2, 3, 3, 1, 2, 3, 4, 5, 6]);
next = array1d(1..15 ,[14, 15, 1, 13, 7, 4, 11, 12, 8, 5, 9, 6, 3, 2, 10]);
makespan = 249;
----------
assign = array1d(1..15 ,[5, 6, 5, 4, 2, 4, 2, 3, 3, 1, 2, 3, 4, 5, 6]);
next = array1d(1..15 ,[14, 15, 1, 13, 7, 4, 11, 12, 8, 5, 9, 6, 3, 2, 10]);
makespan = 247;
----------
assign = array1d(1..15 ,[5, 6, 5, 4, 2, 4, 2, 3, 3, 1, 2, 3, 4, 5, 6]);
next = array1d(1..15 ,[14, 15, 1, 13, 7, 4, 11, 12, 8, 5, 9, 6, 3, 2, 10]);
makespan = 245;
----------
assign = array1d(1..15 ,[5, 6, 5, 4, 2, 4, 2, 3, 3, 1, 2, 3, 4, 5, 6]);
next = array1d(1..15 ,[14, 15, 1, 13, 7, 4, 11, 12, 8, 5, 9, 6, 3, 2, 10]);
makespan = 244;
----------
assign = array1d(1..15 ,[5, 6, 5, 4, 2, 4, 2, 3, 3, 1, 2, 3, 4, 5, 6]);
next = array1d(1..15 ,[14, 15, 1, 13, 7, 4, 11, 12, 8, 5, 9, 6, 3, 2, 10]);
makespan = 243;
----------
assign = array1d(1..15 ,[5, 6, 5, 4, 2, 4, 2, 3, 3, 1, 2, 3, 4, 5, 6]);
next = array1d(1..15 ,[14, 15, 1, 13, 7, 4, 11, 12, 8, 5, 9, 6, 3, 2, 10]);
makespan = 242;
----------
assign = array1d(1..15 ,[5, 6, 5, 4, 2, 4, 2, 3, 3, 1, 2, 3, 4, 5, 6]);
next = array1d(1..15 ,[14, 15, 1, 13, 7, 4, 11, 12, 8, 5, 9, 6, 3, 2, 10]);
makespan = 241;
----------
assign = array1d(1..15 ,[5, 6, 5, 4, 2, 4, 2, 3, 3, 1, 2, 3, 4, 5, 6]);
next = array1d(1..15 ,[14, 15, 1, 13, 7, 4, 11, 12, 8, 5, 9, 6, 3, 2, 10]);
makespan = 240;
----------
assign = array1d(1..15 ,[5, 6, 5, 1, 2, 1, 2, 3, 3, 1, 2, 3, 4, 5, 6]);
next = array1d(1..15 ,[14, 15, 1, 10, 7, 4, 11, 12, 8, 5, 9, 13, 3, 2, 6]);
makespan = 239;
----------
assign = array1d(1..15 ,[5, 6, 5, 1, 2, 1, 2, 3, 3, 1, 2, 3, 4, 5, 6]);
next = array1d(1..15 ,[14, 15, 1, 10, 7, 4, 11, 12, 8, 5, 9, 13, 3, 2, 6]);
makespan = 236;
----------
assign = array1d(1..15 ,[5, 6, 5, 1, 2, 1, 2, 3, 3, 1, 2, 3, 4, 5, 6]);
next = array1d(1..15 ,[14, 15, 1, 10, 7, 4, 11, 12, 8, 5, 9, 13, 3, 2, 6]);
makespan = 234;
----------
assign = array1d(1..15 ,[5, 6, 5, 1, 2, 1, 2, 3, 3, 1, 2, 3, 4, 5, 6]);
next = array1d(1..15 ,[14, 15, 1, 10, 7, 4, 11, 12, 8, 5, 9, 13, 3, 2, 6]);
makespan = 233;
----------
assign = array1d(1..15 ,[5, 6, 5, 1, 2, 1, 2, 3, 3, 1, 2, 3, 4, 5, 6]);
next = array1d(1..15 ,[14, 15, 1, 10, 7, 4, 11, 12, 8, 5, 9, 13, 3, 2, 6]);
makespan = 232;
----------
assign = array1d(1..15 ,[5, 6, 5, 1, 2, 1, 2, 3, 3, 1, 2, 3, 4, 5, 6]);
next = array1d(1..15 ,[14, 15, 1, 10, 7, 4, 11, 12, 8, 5, 9, 13, 3, 2, 6]);
makespan = 231;
----------
assign = array1d(1..15 ,[5, 6, 5, 1, 2, 1, 2, 3, 3, 1, 2, 3, 4, 5, 6]);
next = array1d(1..15 ,[14, 15, 1, 10, 7, 4, 11, 12, 8, 5, 9, 13, 3, 2, 6]);
makespan = 230;
----------
assign = array1d(1..15 ,[5, 6, 5, 1, 2, 1, 2, 3, 3, 1, 2, 3, 4, 5, 6]);
next = array1d(1..15 ,[14, 15, 1, 10, 7, 4, 11, 12, 8, 5, 9, 13, 3, 2, 6]);
makespan = 228;
----------
assign = array1d(1..15 ,[5, 6, 5, 1, 2, 1, 2, 3, 3, 1, 2, 3, 4, 5, 6]);
next = array1d(1..15 ,[14, 15, 1, 10, 7, 4, 11, 12, 8, 5, 9, 13, 3, 2, 6]);
makespan = 226;
----------
assign = array1d(1..15 ,[5, 6, 5, 1, 2, 1, 2, 3, 3, 1, 2, 3, 4, 5, 6]);
next = array1d(1..15 ,[14, 15, 1, 10, 7, 4, 11, 12, 8, 5, 9, 13, 3, 2, 6]);
makespan = 223;
----------
assign = array1d(1..15 ,[4, 6, 4, 5, 2, 5, 2, 3, 3, 1, 2, 3, 4, 5, 6]);
next = array1d(1..15 ,[13, 15, 1, 14, 7, 4, 11, 12, 8, 5, 9, 3, 6, 2, 10]);
makespan = 217;
----------
assign = array1d(1..15 ,[3, 6, 3, 5, 2, 5, 2, 1, 1, 1, 2, 3, 4, 5, 6]);
next = array1d(1..15 ,[12, 15, 1, 14, 7, 4, 11, 10, 8, 5, 3, 13, 6, 2, 9]);
makespan = 216;
----------
assign = array1d(1..15 ,[3, 6, 3, 5, 2, 5, 2, 1, 1, 1, 2, 3, 4, 5, 6]);
next = array1d(1..15 ,[12, 15, 1, 14, 7, 4, 11, 10, 8, 5, 3, 13, 6, 2, 9]);
makespan = 212;
----------
assign = array1d(1..15 ,[3, 6, 3, 5, 2, 5, 4, 1, 1, 1, 2, 3, 4, 5, 6]);
next = array1d(1..15 ,[12, 15, 1, 14, 11, 4, 13, 10, 8, 5, 3, 7, 6, 2, 9]);
makespan = 210;
----------
assign = array1d(1..15 ,[3, 6, 3, 5, 4, 5, 4, 1, 1, 1, 2, 3, 4, 5, 6]);
next = array1d(1..15 ,[12, 15, 1, 14, 7, 4, 13, 10, 8, 11, 3, 5, 6, 2, 9]);
makespan = 209;
----------
assign = array1d(1..15 ,[3, 6, 3, 5, 4, 5, 4, 1, 1, 1, 2, 3, 4, 5, 6]);
next = array1d(1..15 ,[12, 15, 1, 14, 7, 4, 13, 10, 8, 11, 3, 5, 6, 2, 9]);
makespan = 205;
----------
assign = array1d(1..15 ,[3, 6, 3, 5, 4, 5, 4, 1, 1, 1, 2, 3, 4, 5, 6]);
next = array1d(1..15 ,[12, 15, 1, 14, 7, 4, 13, 10, 8, 11, 3, 5, 6, 2, 9]);
makespan = 204;
----------
assign = array1d(1..15 ,[3, 6, 3, 5, 4, 5, 4, 1, 1, 1, 2, 3, 4, 5, 6]);
next = array1d(1..15 ,[12, 15, 1, 14, 7, 4, 13, 10, 8, 11, 3, 5, 6, 2, 9]);
makespan = 203;
----------
assign = array1d(1..15 ,[3, 6, 3, 5, 4, 5, 4, 1, 1, 1, 2, 3, 4, 5, 6]);
next = array1d(1..15 ,[12, 15, 1, 14, 7, 4, 13, 10, 8, 11, 3, 5, 6, 2, 9]);
makespan = 201;
----------
assign = array1d(1..15 ,[2, 2, 6, 5, 4, 5, 4, 1, 1, 1, 2, 3, 4, 5, 6]);
next = array1d(1..15 ,[11, 1, 15, 14, 7, 4, 13, 9, 10, 2, 12, 5, 6, 3, 8]);
makespan = 200;
----------
assign = array1d(1..15 ,[4, 2, 6, 4, 5, 3, 3, 1, 1, 1, 2, 3, 4, 5, 6]);
next = array1d(1..15 ,[4, 11, 15, 13, 14, 12, 6, 10, 8, 2, 7, 1, 5, 3, 9]);
makespan = 199;
----------
assign = array1d(1..15 ,[3, 6, 2, 1, 4, 4, 3, 1, 5, 1, 2, 3, 4, 5, 6]);
next = array1d(1..15 ,[12, 15, 11, 8, 6, 13, 1, 10, 14, 3, 7, 5, 9, 2, 4]);
makespan = 198;
----------
assign = array1d(1..15 ,[6, 2, 5, 1, 4, 5, 3, 1, 4, 1, 2, 3, 4, 5, 6]);
next = array1d(1..15 ,[15, 11, 14, 8, 9, 3, 12, 10, 13, 2, 7, 5, 6, 1, 4]);
makespan = 197;
----------
assign = array1d(1..15 ,[2, 2, 5, 3, 6, 5, 1, 3, 4, 1, 2, 3, 4, 5, 6]);
next = array1d(1..15 ,[11, 1, 6, 12, 15, 14, 10, 4, 13, 2, 8, 9, 3, 5, 7]);
makespan = 195;
----------
assign = array1d(1..15 ,[3, 6, 3, 1, 4, 2, 4, 1, 5, 1, 2, 3, 4, 5, 6]);
next = array1d(1..15 ,[3, 15, 12, 8, 7, 11, 13, 10, 14, 6, 1, 5, 9, 2, 4]);
makespan = 194;
----------
assign = array1d(1..15 ,[4, 1, 6, 3, 5, 1, 4, 3, 2, 1, 2, 3, 4, 5, 6]);
next = array1d(1..15 ,[7, 10, 15, 12, 14, 2, 13, 4, 11, 9, 8, 1, 5, 3, 6]);
makespan = 193;
----------
assign = array1d(1..15 ,[3, 2, 5, 4, 4, 5, 6, 1, 3, 1, 2, 3, 4, 5, 6]);
next = array1d(1..15 ,[9, 11, 6, 13, 4, 14, 15, 10, 12, 2, 1, 5, 3, 7, 8]);
makespan = 192;
----------
assign = array1d(1..15 ,[1, 5, 5, 4, 4, 6, 3, 2, 3, 1, 2, 3, 4, 5, 6]);
next = array1d(1..15 ,[10, 14, 2, 13, 4, 15, 9, 11, 12, 8, 7, 5, 3, 6, 1]);
makespan = 191;
----------
assign = array1d(1..15 ,[3, 6, 2, 4, 4, 5, 5, 1, 3, 1, 2, 3, 4, 5, 6]);
next = array1d(1..15 ,[9, 15, 11, 13, 4, 7, 14, 10, 12, 3, 1, 5, 6, 2, 8]);
makespan = 190;
----------
assign = array1d(1..15 ,[3, 2, 4, 1, 4, 5, 5, 6, 3, 1, 2, 3, 4, 5, 6]);
next = array1d(1..15 ,[9, 11, 5, 10, 13, 7, 14, 15, 12, 2, 1, 3, 6, 8, 4]);
makespan = 189;
----------
assign = array1d(1..15 ,[1, 6, 4, 3, 4, 5, 5, 2, 3, 1, 2, 3, 4, 5, 6]);
next = array1d(1..15 ,[10, 15, 5, 12, 13, 7, 14, 11, 4, 8, 9, 3, 6, 2, 1]);
makespan = 188;
----------
assign = array1d(1..15 ,[3, 1, 6, 4, 4, 1, 3, 2, 5, 1, 2, 3, 4, 5, 6]);
next = array1d(1..15 ,[7, 10, 15, 13, 4, 2, 12, 11, 14, 8, 1, 5, 9, 3, 6]);
makespan = 187;
----------
assign = array1d(1..15 ,[3, 1, 6, 5, 4, 1, 4, 2, 3, 1, 2, 3, 4, 5, 6]);
next = array1d(1..15 ,[9, 10, 15, 14, 7, 2, 13, 11, 12, 8, 1, 5, 4, 3, 6]);
makespan = 186;
----------
assign = array1d(1..15 ,[3, 5, 3, 1, 4, 2, 4, 6, 1, 1, 2, 3, 4, 5, 6]);
next = array1d(1..15 ,[3, 14, 12, 10, 13, 11, 5, 15, 4, 6, 1, 7, 2, 8, 9]);
makespan = 185;
----------
assign = array1d(1..15 ,[3, 1, 4, 1, 4, 5, 6, 2, 3, 1, 2, 3, 4, 5, 6]);
next = array1d(1..15 ,[9, 10, 5, 2, 13, 14, 15, 11, 12, 8, 1, 3, 6, 7, 4]);
makespan = 184;
----------
assign = array1d(1..15 ,[3, 6, 4, 1, 4, 5, 3, 2, 1, 1, 2, 3, 4, 5, 6]);
next = array1d(1..15 ,[7, 15, 5, 10, 13, 14, 12, 11, 4, 8, 1, 3, 6, 2, 9]);
makespan = 183;
----------
assign = array1d(1..15 ,[3, 6, 4, 1, 4, 5, 3, 2, 1, 1, 2, 3, 4, 5, 6]);
next = array1d(1..15 ,[7, 15, 5, 10, 13, 14, 12, 11, 4, 8, 1, 3, 6, 2, 9]);
makespan = 182;
----------
assign = array1d(1..15 ,[3, 1, 6, 1, 4, 5, 4, 2, 3, 1, 2, 3, 4, 5, 6]);
next = array1d(1..15 ,[9, 10, 15, 2, 7, 14, 13, 11, 12, 8, 1, 5, 6, 3, 4]);
makespan = 181;
----------
assign = array1d(1..15 ,[3, 1, 3, 1, 4, 2, 4, 5, 6, 1, 2, 3, 4, 5, 6]);
next = array1d(1..15 ,[3, 10, 12, 2, 7, 11, 13, 14, 15, 6, 1, 5, 8, 9, 4]);
makespan = 180;
----------
assign = array1d(1..15 ,[3, 6, 3, 1, 4, 5, 4, 2, 1, 1, 2, 3, 4, 5, 6]);
next = array1d(1..15 ,[3, 15, 12, 10, 13, 14, 5, 11, 4, 8, 1, 7, 6, 2, 9]);
makespan = 179;
----------
assign = array1d(1..15 ,[3, 1, 5, 1, 4, 6, 4, 2, 3, 1, 2, 3, 4, 5, 6]);
next = array1d(1..15 ,[9, 10, 14, 2, 7, 15, 13, 11, 12, 8, 1, 5, 3, 6, 4]);
makespan = 178;
----------
assign = array1d(1..15 ,[3, 1, 5, 1, 4, 6, 4, 2, 3, 1, 2, 3, 4, 5, 6]);
next = array1d(1..15 ,[9, 10, 14, 2, 7, 15, 13, 11, 12, 8, 1, 5, 3, 6, 4]);
makespan = 177;
----------
==========
	Command being timed: "mzn-chuffed lbbd-datasets/Rabadi-2006/dzn-balanced/model.mzn lbbd-datasets/Rabadi-2006/dzn-balanced/9on6Rp50Rs50_7Ameer.dzn"
	User time (seconds): 0.85
	System time (seconds): 0.05
	Percent of CPU this job got: 2%
	Elapsed (wall clock) time (h:mm:ss or m:ss): 0:38.68
	Average shared text size (kbytes): 0
	Average unshared data size (kbytes): 0
	Average stack size (kbytes): 0
	Average total size (kbytes): 0
	Maximum resident set size (kbytes): 48192
	Average resident set size (kbytes): 0
	Major (requiring I/O) page faults: 0
	Minor (reclaiming a frame) page faults: 4716
	Voluntary context switches: 551
	Involuntary context switches: 5
	Swaps: 0
	File system inputs: 0
	File system outputs: 672
	Socket messages sent: 0
	Socket messages received: 0
	Signals delivered: 0
	Page size (bytes): 4096
	Exit status: 0
