+ /usr/bin/timeout 600 /usr/bin/time -v mzn-chuffed lbbd-datasets/Rabadi-2006/dzn-s-dominant/model.mzn lbbd-datasets/Rabadi-2006/dzn-s-dominant/11on6Rp50Rs50_9Ameer.dzn
% No search annotation given. Defaulting to VSIDS!
assign = array1d(1..17 ,[6, 6, 6, 6, 6, 6, 6, 6, 6, 6, 6, 1, 2, 3, 4, 5, 6]);
next = array1d(1..17 ,[2, 3, 4, 5, 6, 7, 8, 9, 10, 11, 17, 13, 14, 15, 16, 1, 12]);
makespan = 2354;
----------
assign = array1d(1..17 ,[6, 6, 6, 6, 6, 6, 6, 6, 6, 6, 6, 1, 2, 3, 4, 5, 6]);
next = array1d(1..17 ,[3, 4, 2, 5, 6, 7, 8, 9, 10, 11, 17, 13, 14, 15, 16, 1, 12]);
makespan = 2340;
----------
assign = array1d(1..17 ,[6, 6, 6, 6, 6, 6, 6, 6, 6, 6, 1, 1, 2, 3, 4, 5, 6]);
next = array1d(1..17 ,[5, 1, 4, 8, 9, 3, 6, 2, 17, 7, 12, 13, 14, 15, 16, 10, 11]);
makespan = 2294;
----------
