+ /usr/bin/timeout 600 /usr/bin/time -v mzn-chuffed lbbd-datasets/Rabadi-2006/dzn-balanced/model.mzn lbbd-datasets/Rabadi-2006/dzn-balanced/10on2Rp50Rs50_13Ameer.dzn
% No search annotation given. Defaulting to VSIDS!
assign = array1d(1..12 ,[2, 2, 2, 2, 2, 2, 2, 2, 2, 2, 1, 2]);
next = array1d(1..12 ,[2, 3, 4, 5, 6, 7, 8, 9, 10, 12, 1, 11]);
makespan = 1404;
----------
assign = array1d(1..12 ,[2, 2, 2, 2, 2, 2, 2, 2, 2, 2, 1, 2]);
next = array1d(1..12 ,[3, 4, 2, 5, 6, 7, 8, 9, 10, 12, 1, 11]);
makespan = 1393;
----------
assign = array1d(1..12 ,[2, 2, 2, 2, 2, 2, 2, 2, 2, 2, 1, 2]);
next = array1d(1..12 ,[2, 12, 4, 5, 6, 7, 8, 9, 10, 1, 3, 11]);
makespan = 1368;
----------
assign = array1d(1..12 ,[2, 2, 2, 2, 2, 2, 2, 1, 2, 2, 1, 2]);
next = array1d(1..12 ,[9, 1, 5, 3, 10, 12, 6, 11, 7, 2, 4, 8]);
makespan = 1350;
----------
assign = array1d(1..12 ,[2, 2, 2, 2, 2, 1, 2, 2, 2, 2, 1, 2]);
next = array1d(1..12 ,[9, 7, 1, 3, 10, 11, 5, 4, 2, 12, 8, 6]);
makespan = 1348;
----------
assign = array1d(1..12 ,[2, 2, 2, 2, 1, 2, 2, 2, 2, 2, 1, 2]);
next = array1d(1..12 ,[9, 7, 12, 1, 11, 10, 3, 6, 8, 2, 4, 5]);
makespan = 1346;
----------
assign = array1d(1..12 ,[2, 2, 2, 1, 2, 2, 2, 2, 2, 2, 1, 2]);
next = array1d(1..12 ,[12, 8, 2, 11, 10, 3, 6, 9, 1, 7, 5, 4]);
makespan = 1342;
----------
assign = array1d(1..12 ,[1, 2, 2, 2, 2, 2, 2, 2, 2, 2, 1, 2]);
next = array1d(1..12 ,[11, 12, 5, 10, 2, 8, 3, 4, 7, 9, 6, 1]);
makespan = 1331;
----------
assign = array1d(1..12 ,[2, 2, 2, 1, 2, 2, 2, 2, 2, 2, 1, 2]);
next = array1d(1..12 ,[10, 12, 9, 11, 3, 8, 6, 2, 7, 5, 1, 4]);
makespan = 1330;
----------
assign = array1d(1..12 ,[2, 2, 2, 1, 2, 2, 2, 2, 2, 2, 1, 2]);
next = array1d(1..12 ,[7, 6, 1, 11, 2, 3, 9, 10, 8, 12, 5, 4]);
makespan = 1329;
----------
assign = array1d(1..12 ,[2, 2, 2, 1, 2, 2, 2, 2, 2, 2, 1, 2]);
next = array1d(1..12 ,[3, 12, 2, 11, 1, 8, 5, 10, 7, 9, 6, 4]);
makespan = 1328;
----------
assign = array1d(1..12 ,[2, 2, 2, 2, 2, 1, 2, 2, 2, 2, 1, 2]);
next = array1d(1..12 ,[10, 7, 5, 3, 12, 11, 9, 2, 1, 4, 8, 6]);
makespan = 1327;
----------
assign = array1d(1..12 ,[2, 2, 2, 1, 2, 2, 2, 2, 2, 2, 1, 2]);
next = array1d(1..12 ,[10, 7, 6, 11, 2, 12, 9, 3, 8, 5, 1, 4]);
makespan = 1326;
----------
assign = array1d(1..12 ,[2, 2, 2, 1, 2, 2, 2, 2, 2, 2, 1, 2]);
next = array1d(1..12 ,[10, 7, 8, 11, 12, 3, 6, 9, 5, 2, 1, 4]);
makespan = 1325;
----------
assign = array1d(1..12 ,[2, 2, 2, 1, 2, 2, 2, 2, 2, 2, 1, 2]);
next = array1d(1..12 ,[10, 12, 9, 11, 3, 8, 6, 2, 7, 5, 1, 4]);
makespan = 1323;
----------
assign = array1d(1..12 ,[2, 2, 2, 1, 2, 2, 2, 2, 2, 2, 1, 2]);
next = array1d(1..12 ,[9, 10, 1, 11, 2, 8, 5, 3, 7, 12, 6, 4]);
makespan = 1317;
----------
assign = array1d(1..12 ,[2, 2, 2, 1, 2, 2, 2, 2, 2, 2, 1, 2]);
next = array1d(1..12 ,[12, 8, 6, 11, 2, 1, 3, 10, 7, 9, 5, 4]);
makespan = 1316;
----------
assign = array1d(1..12 ,[2, 2, 2, 1, 2, 2, 2, 2, 2, 2, 1, 2]);
next = array1d(1..12 ,[7, 5, 12, 11, 10, 3, 6, 2, 1, 9, 8, 4]);
makespan = 1310;
----------
assign = array1d(1..12 ,[2, 2, 2, 1, 2, 2, 2, 2, 2, 2, 1, 2]);
next = array1d(1..12 ,[10, 1, 5, 11, 2, 8, 12, 3, 7, 9, 6, 4]);
makespan = 1309;
----------
assign = array1d(1..12 ,[2, 2, 2, 1, 2, 2, 2, 2, 2, 2, 1, 2]);
next = array1d(1..12 ,[10, 8, 5, 11, 2, 3, 1, 9, 7, 12, 6, 4]);
makespan = 1308;
----------
assign = array1d(1..12 ,[2, 2, 2, 2, 1, 2, 2, 2, 2, 2, 1, 2]);
next = array1d(1..12 ,[2, 8, 1, 10, 11, 3, 6, 4, 12, 9, 7, 5]);
makespan = 1297;
----------
assign = array1d(1..12 ,[2, 2, 2, 2, 2, 2, 1, 2, 2, 2, 1, 2]);
next = array1d(1..12 ,[2, 5, 1, 10, 8, 12, 11, 4, 6, 9, 3, 7]);
makespan = 1293;
----------
assign = array1d(1..12 ,[2, 2, 2, 2, 2, 2, 1, 2, 2, 2, 1, 2]);
next = array1d(1..12 ,[2, 5, 1, 10, 8, 12, 11, 4, 6, 9, 3, 7]);
makespan = 1292;
----------
assign = array1d(1..12 ,[2, 2, 2, 2, 2, 2, 1, 2, 2, 2, 1, 2]);
next = array1d(1..12 ,[2, 5, 1, 10, 8, 12, 11, 4, 6, 9, 3, 7]);
makespan = 1289;
----------
assign = array1d(1..12 ,[2, 2, 2, 2, 2, 2, 1, 2, 2, 2, 1, 2]);
next = array1d(1..12 ,[2, 5, 1, 10, 8, 12, 11, 4, 6, 9, 3, 7]);
makespan = 1288;
----------
assign = array1d(1..12 ,[2, 2, 2, 2, 2, 2, 1, 2, 2, 2, 1, 2]);
next = array1d(1..12 ,[2, 5, 1, 10, 8, 12, 11, 4, 6, 9, 3, 7]);
makespan = 1284;
----------
assign = array1d(1..12 ,[2, 2, 2, 2, 2, 2, 1, 2, 2, 2, 1, 2]);
next = array1d(1..12 ,[2, 5, 1, 10, 8, 12, 11, 4, 6, 9, 3, 7]);
makespan = 1278;
----------
assign = array1d(1..12 ,[2, 2, 2, 2, 2, 2, 1, 2, 2, 2, 1, 2]);
next = array1d(1..12 ,[2, 5, 1, 10, 8, 12, 11, 4, 6, 9, 3, 7]);
makespan = 1277;
----------
assign = array1d(1..12 ,[2, 2, 2, 2, 2, 2, 1, 2, 2, 2, 1, 2]);
next = array1d(1..12 ,[2, 5, 1, 10, 8, 12, 11, 4, 6, 9, 3, 7]);
makespan = 1276;
----------
assign = array1d(1..12 ,[2, 2, 2, 2, 2, 2, 1, 2, 2, 2, 1, 2]);
next = array1d(1..12 ,[2, 5, 1, 10, 8, 12, 11, 4, 6, 9, 3, 7]);
makespan = 1275;
----------
assign = array1d(1..12 ,[2, 2, 2, 2, 2, 2, 1, 2, 2, 2, 1, 2]);
next = array1d(1..12 ,[2, 5, 1, 10, 8, 12, 11, 4, 6, 9, 3, 7]);
makespan = 1274;
----------
assign = array1d(1..12 ,[2, 2, 2, 2, 2, 2, 1, 2, 2, 2, 1, 2]);
next = array1d(1..12 ,[2, 5, 1, 10, 8, 12, 11, 4, 6, 9, 3, 7]);
makespan = 1273;
----------
assign = array1d(1..12 ,[2, 2, 2, 2, 2, 2, 1, 2, 2, 2, 1, 2]);
next = array1d(1..12 ,[2, 5, 1, 10, 8, 12, 11, 4, 6, 9, 3, 7]);
makespan = 1272;
----------
assign = array1d(1..12 ,[2, 2, 2, 2, 2, 2, 1, 2, 2, 2, 1, 2]);
next = array1d(1..12 ,[2, 5, 1, 10, 8, 12, 11, 4, 6, 9, 3, 7]);
makespan = 1271;
----------
assign = array1d(1..12 ,[2, 2, 2, 2, 2, 2, 1, 2, 2, 2, 1, 2]);
next = array1d(1..12 ,[2, 5, 1, 10, 8, 12, 11, 4, 6, 9, 3, 7]);
makespan = 1270;
----------
assign = array1d(1..12 ,[2, 2, 2, 2, 2, 2, 1, 2, 2, 2, 1, 2]);
next = array1d(1..12 ,[2, 5, 1, 10, 8, 12, 11, 4, 6, 9, 3, 7]);
makespan = 1269;
----------
assign = array1d(1..12 ,[2, 2, 2, 2, 2, 2, 1, 2, 2, 2, 1, 2]);
next = array1d(1..12 ,[2, 5, 1, 10, 8, 12, 11, 4, 6, 9, 3, 7]);
makespan = 1268;
----------
assign = array1d(1..12 ,[2, 2, 2, 2, 2, 2, 1, 2, 2, 2, 1, 2]);
next = array1d(1..12 ,[2, 5, 1, 10, 8, 12, 11, 4, 6, 9, 3, 7]);
makespan = 1267;
----------
assign = array1d(1..12 ,[2, 2, 2, 2, 2, 2, 1, 2, 2, 2, 1, 2]);
next = array1d(1..12 ,[2, 5, 1, 10, 8, 12, 11, 4, 6, 9, 3, 7]);
makespan = 1266;
----------
assign = array1d(1..12 ,[2, 2, 2, 2, 2, 2, 1, 2, 2, 2, 1, 2]);
next = array1d(1..12 ,[2, 5, 1, 10, 8, 12, 11, 4, 6, 9, 3, 7]);
makespan = 1265;
----------
assign = array1d(1..12 ,[2, 2, 2, 2, 2, 2, 1, 2, 2, 2, 1, 2]);
next = array1d(1..12 ,[2, 5, 1, 10, 8, 12, 11, 4, 6, 9, 3, 7]);
makespan = 1263;
----------
assign = array1d(1..12 ,[2, 2, 2, 2, 2, 2, 1, 2, 2, 2, 1, 2]);
next = array1d(1..12 ,[2, 5, 1, 10, 8, 12, 11, 4, 6, 9, 3, 7]);
makespan = 1261;
----------
assign = array1d(1..12 ,[2, 2, 2, 2, 2, 2, 1, 2, 2, 2, 1, 2]);
next = array1d(1..12 ,[2, 5, 1, 10, 8, 12, 11, 4, 6, 9, 3, 7]);
makespan = 1257;
----------
assign = array1d(1..12 ,[2, 2, 2, 2, 2, 2, 1, 2, 2, 2, 1, 2]);
next = array1d(1..12 ,[2, 5, 1, 10, 8, 12, 11, 4, 6, 9, 3, 7]);
makespan = 1255;
----------
assign = array1d(1..12 ,[2, 2, 2, 2, 2, 2, 1, 2, 2, 2, 1, 2]);
next = array1d(1..12 ,[2, 5, 1, 10, 8, 12, 11, 4, 6, 9, 3, 7]);
makespan = 1254;
----------
assign = array1d(1..12 ,[2, 2, 2, 2, 2, 2, 1, 2, 2, 2, 1, 2]);
next = array1d(1..12 ,[2, 5, 1, 10, 8, 12, 11, 4, 6, 9, 3, 7]);
makespan = 1252;
----------
assign = array1d(1..12 ,[2, 2, 2, 2, 2, 2, 1, 2, 2, 2, 1, 2]);
next = array1d(1..12 ,[2, 5, 1, 10, 8, 12, 11, 4, 6, 9, 3, 7]);
makespan = 1251;
----------
assign = array1d(1..12 ,[2, 2, 2, 2, 2, 2, 1, 2, 2, 2, 1, 2]);
next = array1d(1..12 ,[2, 5, 1, 10, 8, 12, 11, 4, 6, 9, 3, 7]);
makespan = 1250;
----------
assign = array1d(1..12 ,[2, 2, 2, 2, 2, 2, 1, 2, 2, 2, 1, 2]);
next = array1d(1..12 ,[2, 5, 1, 10, 8, 12, 11, 4, 6, 9, 3, 7]);
makespan = 1249;
----------
assign = array1d(1..12 ,[2, 2, 2, 2, 2, 2, 1, 2, 2, 2, 1, 2]);
next = array1d(1..12 ,[2, 5, 1, 10, 8, 12, 11, 4, 6, 9, 3, 7]);
makespan = 1247;
----------
assign = array1d(1..12 ,[2, 2, 2, 2, 2, 2, 1, 2, 2, 2, 1, 2]);
next = array1d(1..12 ,[2, 5, 1, 10, 8, 12, 11, 4, 6, 9, 3, 7]);
makespan = 1246;
----------
assign = array1d(1..12 ,[2, 2, 2, 2, 2, 2, 1, 2, 2, 2, 1, 2]);
next = array1d(1..12 ,[2, 5, 1, 10, 8, 12, 11, 4, 6, 9, 3, 7]);
makespan = 1244;
----------
assign = array1d(1..12 ,[2, 2, 2, 2, 2, 2, 1, 2, 2, 2, 1, 2]);
next = array1d(1..12 ,[2, 5, 1, 10, 8, 12, 11, 4, 6, 9, 3, 7]);
makespan = 1241;
----------
assign = array1d(1..12 ,[2, 2, 2, 2, 2, 2, 1, 2, 2, 2, 1, 2]);
next = array1d(1..12 ,[2, 5, 1, 10, 8, 12, 11, 4, 6, 9, 3, 7]);
makespan = 1239;
----------
assign = array1d(1..12 ,[2, 2, 2, 2, 2, 2, 1, 2, 2, 2, 1, 2]);
next = array1d(1..12 ,[2, 5, 1, 10, 8, 12, 11, 4, 6, 9, 3, 7]);
makespan = 1235;
----------
assign = array1d(1..12 ,[2, 2, 2, 2, 2, 2, 1, 2, 2, 2, 1, 2]);
next = array1d(1..12 ,[2, 5, 1, 10, 8, 12, 11, 4, 6, 9, 3, 7]);
makespan = 1234;
----------
assign = array1d(1..12 ,[2, 2, 2, 2, 2, 2, 1, 2, 2, 2, 1, 2]);
next = array1d(1..12 ,[2, 5, 1, 10, 8, 12, 11, 4, 6, 9, 3, 7]);
makespan = 1232;
----------
assign = array1d(1..12 ,[2, 2, 2, 2, 2, 2, 1, 2, 2, 2, 1, 2]);
next = array1d(1..12 ,[2, 5, 1, 10, 8, 12, 11, 4, 6, 9, 3, 7]);
makespan = 1231;
----------
assign = array1d(1..12 ,[2, 2, 2, 2, 2, 2, 1, 2, 2, 2, 1, 2]);
next = array1d(1..12 ,[2, 5, 1, 10, 8, 12, 11, 4, 6, 9, 3, 7]);
makespan = 1230;
----------
assign = array1d(1..12 ,[2, 2, 2, 2, 2, 2, 1, 2, 2, 2, 1, 2]);
next = array1d(1..12 ,[2, 5, 1, 10, 8, 12, 11, 4, 6, 9, 3, 7]);
makespan = 1229;
----------
assign = array1d(1..12 ,[2, 2, 2, 2, 2, 2, 1, 2, 2, 2, 1, 2]);
next = array1d(1..12 ,[2, 5, 1, 10, 8, 12, 11, 4, 6, 9, 3, 7]);
makespan = 1227;
----------
assign = array1d(1..12 ,[2, 2, 2, 2, 2, 2, 1, 2, 2, 2, 1, 2]);
next = array1d(1..12 ,[2, 5, 1, 10, 8, 12, 11, 4, 6, 9, 3, 7]);
makespan = 1224;
----------
assign = array1d(1..12 ,[2, 2, 2, 2, 2, 2, 1, 2, 2, 2, 1, 2]);
next = array1d(1..12 ,[2, 5, 1, 10, 8, 12, 11, 4, 6, 9, 3, 7]);
makespan = 1223;
----------
assign = array1d(1..12 ,[2, 2, 2, 2, 2, 2, 1, 2, 2, 2, 1, 2]);
next = array1d(1..12 ,[2, 5, 1, 10, 8, 12, 11, 4, 6, 9, 3, 7]);
makespan = 1221;
----------
assign = array1d(1..12 ,[2, 2, 2, 2, 2, 2, 1, 2, 2, 2, 1, 2]);
next = array1d(1..12 ,[2, 5, 1, 10, 8, 12, 11, 4, 6, 9, 3, 7]);
makespan = 1220;
----------
assign = array1d(1..12 ,[2, 2, 2, 2, 2, 2, 1, 2, 2, 2, 1, 2]);
next = array1d(1..12 ,[2, 5, 1, 10, 8, 12, 11, 4, 6, 9, 3, 7]);
makespan = 1219;
----------
assign = array1d(1..12 ,[2, 2, 2, 2, 2, 2, 1, 2, 2, 2, 1, 2]);
next = array1d(1..12 ,[2, 5, 1, 10, 8, 12, 11, 4, 6, 9, 3, 7]);
makespan = 1218;
----------
assign = array1d(1..12 ,[2, 2, 2, 2, 2, 2, 1, 2, 2, 2, 1, 2]);
next = array1d(1..12 ,[2, 5, 1, 10, 8, 12, 11, 4, 6, 9, 3, 7]);
makespan = 1217;
----------
assign = array1d(1..12 ,[2, 2, 2, 2, 2, 2, 1, 2, 2, 2, 1, 2]);
next = array1d(1..12 ,[2, 5, 1, 10, 8, 12, 11, 4, 6, 9, 3, 7]);
makespan = 1216;
----------
assign = array1d(1..12 ,[2, 2, 2, 2, 2, 2, 1, 2, 2, 2, 1, 2]);
next = array1d(1..12 ,[2, 5, 1, 10, 8, 12, 11, 4, 6, 9, 3, 7]);
makespan = 1215;
----------
assign = array1d(1..12 ,[2, 2, 2, 2, 2, 2, 1, 2, 2, 2, 1, 2]);
next = array1d(1..12 ,[2, 5, 1, 10, 8, 12, 11, 4, 6, 9, 3, 7]);
makespan = 1214;
----------
assign = array1d(1..12 ,[2, 2, 2, 2, 2, 2, 1, 2, 2, 2, 1, 2]);
next = array1d(1..12 ,[2, 5, 1, 10, 8, 12, 11, 4, 6, 9, 3, 7]);
makespan = 1213;
----------
assign = array1d(1..12 ,[2, 2, 2, 2, 2, 2, 1, 2, 2, 2, 1, 2]);
next = array1d(1..12 ,[2, 5, 1, 10, 8, 12, 11, 4, 6, 9, 3, 7]);
makespan = 1212;
----------
assign = array1d(1..12 ,[2, 2, 2, 2, 2, 2, 1, 2, 2, 2, 1, 2]);
next = array1d(1..12 ,[2, 5, 1, 10, 8, 12, 11, 4, 6, 9, 3, 7]);
makespan = 1211;
----------
assign = array1d(1..12 ,[2, 2, 2, 2, 2, 2, 1, 2, 2, 2, 1, 2]);
next = array1d(1..12 ,[2, 5, 1, 10, 8, 12, 11, 4, 6, 9, 3, 7]);
makespan = 1210;
----------
assign = array1d(1..12 ,[2, 2, 2, 2, 2, 2, 1, 2, 2, 2, 1, 2]);
next = array1d(1..12 ,[2, 5, 1, 10, 8, 12, 11, 4, 6, 9, 3, 7]);
makespan = 1209;
----------
assign = array1d(1..12 ,[2, 2, 2, 2, 2, 2, 1, 2, 2, 2, 1, 2]);
next = array1d(1..12 ,[2, 5, 1, 10, 8, 12, 11, 4, 6, 9, 3, 7]);
makespan = 1208;
----------
assign = array1d(1..12 ,[2, 2, 2, 2, 2, 2, 1, 2, 2, 2, 1, 2]);
next = array1d(1..12 ,[2, 5, 1, 10, 8, 12, 11, 4, 6, 9, 3, 7]);
makespan = 1207;
----------
assign = array1d(1..12 ,[2, 2, 2, 2, 2, 2, 1, 2, 2, 2, 1, 2]);
next = array1d(1..12 ,[2, 5, 1, 10, 8, 12, 11, 4, 6, 9, 3, 7]);
makespan = 1205;
----------
assign = array1d(1..12 ,[2, 2, 2, 2, 2, 2, 1, 2, 2, 2, 1, 2]);
next = array1d(1..12 ,[2, 5, 1, 10, 8, 12, 11, 4, 6, 9, 3, 7]);
makespan = 1204;
----------
assign = array1d(1..12 ,[2, 2, 2, 2, 2, 1, 1, 2, 2, 2, 1, 2]);
next = array1d(1..12 ,[2, 5, 1, 10, 8, 11, 6, 4, 12, 9, 3, 7]);
makespan = 1203;
----------
assign = array1d(1..12 ,[2, 2, 2, 2, 2, 1, 1, 2, 2, 2, 1, 2]);
next = array1d(1..12 ,[2, 5, 1, 10, 8, 11, 6, 4, 12, 9, 3, 7]);
makespan = 1202;
----------
assign = array1d(1..12 ,[2, 2, 2, 2, 2, 1, 1, 2, 2, 2, 1, 2]);
next = array1d(1..12 ,[2, 5, 1, 10, 8, 11, 6, 4, 12, 9, 3, 7]);
makespan = 1201;
----------
assign = array1d(1..12 ,[2, 2, 2, 2, 2, 1, 1, 2, 2, 2, 1, 2]);
next = array1d(1..12 ,[2, 5, 1, 10, 8, 11, 6, 4, 12, 9, 3, 7]);
makespan = 1200;
----------
assign = array1d(1..12 ,[2, 2, 2, 2, 2, 1, 1, 2, 2, 2, 1, 2]);
next = array1d(1..12 ,[2, 5, 1, 10, 8, 11, 6, 4, 12, 9, 3, 7]);
makespan = 1199;
----------
assign = array1d(1..12 ,[2, 2, 2, 2, 2, 1, 1, 2, 2, 2, 1, 2]);
next = array1d(1..12 ,[2, 5, 1, 10, 8, 11, 6, 4, 12, 9, 3, 7]);
makespan = 1198;
----------
assign = array1d(1..12 ,[2, 2, 2, 2, 2, 1, 1, 2, 2, 2, 1, 2]);
next = array1d(1..12 ,[2, 5, 1, 10, 8, 11, 6, 4, 12, 9, 3, 7]);
makespan = 1197;
----------
assign = array1d(1..12 ,[2, 2, 2, 2, 2, 1, 1, 2, 2, 2, 1, 2]);
next = array1d(1..12 ,[2, 5, 1, 10, 8, 11, 6, 4, 12, 9, 3, 7]);
makespan = 1196;
----------
assign = array1d(1..12 ,[2, 2, 2, 2, 2, 1, 1, 2, 2, 2, 1, 2]);
next = array1d(1..12 ,[2, 5, 1, 10, 8, 11, 6, 4, 12, 9, 3, 7]);
makespan = 1195;
----------
assign = array1d(1..12 ,[2, 2, 2, 2, 2, 1, 1, 2, 2, 2, 1, 2]);
next = array1d(1..12 ,[2, 5, 1, 10, 8, 11, 6, 4, 12, 9, 3, 7]);
makespan = 1194;
----------
assign = array1d(1..12 ,[2, 2, 2, 2, 2, 1, 1, 2, 2, 2, 1, 2]);
next = array1d(1..12 ,[2, 5, 1, 10, 8, 11, 6, 4, 12, 9, 3, 7]);
makespan = 1193;
----------
assign = array1d(1..12 ,[2, 2, 2, 2, 2, 1, 1, 2, 2, 2, 1, 2]);
next = array1d(1..12 ,[2, 5, 1, 10, 8, 11, 6, 4, 12, 9, 3, 7]);
makespan = 1192;
----------
assign = array1d(1..12 ,[2, 2, 2, 2, 2, 1, 1, 2, 2, 2, 1, 2]);
next = array1d(1..12 ,[2, 5, 1, 10, 8, 11, 6, 4, 12, 9, 3, 7]);
makespan = 1191;
----------
assign = array1d(1..12 ,[2, 2, 2, 2, 2, 1, 1, 2, 2, 2, 1, 2]);
next = array1d(1..12 ,[2, 5, 1, 10, 8, 11, 6, 4, 12, 9, 3, 7]);
makespan = 1190;
----------
assign = array1d(1..12 ,[2, 2, 2, 2, 2, 1, 1, 2, 2, 2, 1, 2]);
next = array1d(1..12 ,[2, 5, 1, 10, 8, 11, 6, 4, 12, 9, 3, 7]);
makespan = 1189;
----------
assign = array1d(1..12 ,[2, 2, 2, 2, 2, 1, 1, 2, 2, 2, 1, 2]);
next = array1d(1..12 ,[2, 5, 1, 10, 8, 11, 6, 4, 12, 9, 3, 7]);
makespan = 1188;
----------
assign = array1d(1..12 ,[2, 2, 2, 2, 2, 1, 1, 2, 2, 2, 1, 2]);
next = array1d(1..12 ,[2, 5, 1, 10, 8, 11, 6, 4, 12, 9, 3, 7]);
makespan = 1187;
----------
assign = array1d(1..12 ,[2, 2, 2, 2, 2, 1, 1, 2, 2, 2, 1, 2]);
next = array1d(1..12 ,[2, 5, 1, 10, 8, 11, 6, 4, 12, 9, 3, 7]);
makespan = 1186;
----------
assign = array1d(1..12 ,[2, 2, 2, 2, 2, 1, 1, 2, 2, 2, 1, 2]);
next = array1d(1..12 ,[2, 5, 1, 10, 8, 11, 6, 4, 12, 9, 3, 7]);
makespan = 1185;
----------
assign = array1d(1..12 ,[2, 2, 2, 2, 2, 1, 1, 2, 2, 2, 1, 2]);
next = array1d(1..12 ,[2, 5, 1, 10, 8, 11, 6, 4, 12, 9, 3, 7]);
makespan = 1182;
----------
assign = array1d(1..12 ,[2, 2, 2, 2, 2, 1, 1, 2, 2, 2, 1, 2]);
next = array1d(1..12 ,[2, 5, 1, 10, 8, 11, 6, 4, 12, 9, 3, 7]);
makespan = 1181;
----------
assign = array1d(1..12 ,[2, 2, 2, 2, 2, 1, 1, 2, 2, 2, 1, 2]);
next = array1d(1..12 ,[2, 5, 1, 10, 8, 11, 6, 4, 12, 9, 3, 7]);
makespan = 1180;
----------
assign = array1d(1..12 ,[2, 2, 2, 2, 2, 1, 1, 2, 2, 2, 1, 2]);
next = array1d(1..12 ,[2, 5, 1, 10, 8, 11, 6, 4, 12, 9, 3, 7]);
makespan = 1179;
----------
assign = array1d(1..12 ,[2, 2, 2, 2, 2, 1, 1, 2, 2, 2, 1, 2]);
next = array1d(1..12 ,[2, 5, 1, 10, 8, 11, 6, 4, 12, 9, 3, 7]);
makespan = 1178;
----------
assign = array1d(1..12 ,[2, 2, 2, 2, 2, 1, 1, 2, 2, 2, 1, 2]);
next = array1d(1..12 ,[2, 5, 1, 10, 8, 11, 6, 4, 12, 9, 3, 7]);
makespan = 1177;
----------
assign = array1d(1..12 ,[2, 2, 2, 2, 2, 1, 1, 2, 2, 2, 1, 2]);
next = array1d(1..12 ,[2, 5, 1, 10, 8, 11, 6, 4, 12, 9, 3, 7]);
makespan = 1176;
----------
assign = array1d(1..12 ,[2, 2, 2, 2, 2, 1, 1, 2, 2, 2, 1, 2]);
next = array1d(1..12 ,[2, 5, 1, 10, 8, 11, 6, 4, 12, 9, 3, 7]);
makespan = 1175;
----------
assign = array1d(1..12 ,[2, 2, 2, 2, 2, 1, 1, 2, 2, 2, 1, 2]);
next = array1d(1..12 ,[2, 5, 1, 10, 8, 11, 6, 4, 12, 9, 3, 7]);
makespan = 1174;
----------
assign = array1d(1..12 ,[2, 2, 2, 2, 2, 1, 1, 2, 2, 2, 1, 2]);
next = array1d(1..12 ,[2, 5, 1, 10, 8, 11, 6, 4, 12, 9, 3, 7]);
makespan = 1173;
----------
assign = array1d(1..12 ,[2, 2, 2, 2, 2, 1, 1, 2, 2, 2, 1, 2]);
next = array1d(1..12 ,[2, 5, 1, 10, 8, 11, 6, 4, 12, 9, 3, 7]);
makespan = 1172;
----------
assign = array1d(1..12 ,[2, 2, 2, 2, 2, 1, 1, 2, 2, 2, 1, 2]);
next = array1d(1..12 ,[2, 5, 1, 10, 8, 11, 6, 4, 12, 9, 3, 7]);
makespan = 1171;
----------
assign = array1d(1..12 ,[2, 2, 2, 2, 2, 1, 1, 2, 2, 2, 1, 2]);
next = array1d(1..12 ,[2, 5, 1, 10, 8, 11, 6, 4, 12, 9, 3, 7]);
makespan = 1170;
----------
assign = array1d(1..12 ,[2, 2, 2, 2, 2, 1, 1, 2, 2, 2, 1, 2]);
next = array1d(1..12 ,[2, 5, 1, 10, 8, 11, 6, 4, 12, 9, 3, 7]);
makespan = 1169;
----------
assign = array1d(1..12 ,[2, 2, 2, 2, 2, 1, 1, 2, 2, 2, 1, 2]);
next = array1d(1..12 ,[2, 5, 1, 10, 8, 11, 6, 4, 12, 9, 3, 7]);
makespan = 1168;
----------
assign = array1d(1..12 ,[2, 2, 2, 2, 2, 1, 1, 2, 2, 2, 1, 2]);
next = array1d(1..12 ,[2, 5, 1, 10, 8, 11, 6, 4, 12, 9, 3, 7]);
makespan = 1167;
----------
assign = array1d(1..12 ,[2, 2, 2, 2, 2, 1, 1, 2, 2, 2, 1, 2]);
next = array1d(1..12 ,[2, 5, 1, 10, 8, 11, 6, 4, 12, 9, 3, 7]);
makespan = 1166;
----------
assign = array1d(1..12 ,[2, 2, 2, 2, 2, 1, 1, 2, 2, 2, 1, 2]);
next = array1d(1..12 ,[2, 5, 1, 10, 8, 11, 6, 4, 12, 9, 3, 7]);
makespan = 1165;
----------
assign = array1d(1..12 ,[2, 2, 2, 2, 2, 1, 1, 2, 2, 2, 1, 2]);
next = array1d(1..12 ,[2, 5, 1, 10, 8, 11, 6, 4, 12, 9, 3, 7]);
makespan = 1163;
----------
assign = array1d(1..12 ,[2, 2, 2, 2, 2, 1, 1, 2, 2, 2, 1, 2]);
next = array1d(1..12 ,[2, 5, 1, 10, 8, 11, 6, 4, 12, 9, 3, 7]);
makespan = 1162;
----------
assign = array1d(1..12 ,[2, 2, 2, 2, 2, 1, 1, 2, 2, 2, 1, 2]);
next = array1d(1..12 ,[2, 5, 1, 10, 8, 11, 6, 4, 12, 9, 3, 7]);
makespan = 1161;
----------
assign = array1d(1..12 ,[2, 2, 2, 2, 2, 1, 1, 2, 2, 2, 1, 2]);
next = array1d(1..12 ,[2, 5, 1, 10, 8, 11, 6, 4, 12, 9, 3, 7]);
makespan = 1160;
----------
assign = array1d(1..12 ,[2, 2, 2, 2, 2, 1, 1, 2, 2, 2, 1, 2]);
next = array1d(1..12 ,[2, 5, 1, 10, 8, 11, 6, 4, 12, 9, 3, 7]);
makespan = 1159;
----------
assign = array1d(1..12 ,[2, 2, 2, 2, 2, 1, 1, 2, 2, 2, 1, 2]);
next = array1d(1..12 ,[2, 5, 1, 10, 8, 11, 6, 4, 12, 9, 3, 7]);
makespan = 1158;
----------
assign = array1d(1..12 ,[2, 2, 2, 2, 2, 1, 1, 2, 2, 2, 1, 2]);
next = array1d(1..12 ,[2, 5, 1, 10, 8, 11, 6, 4, 12, 9, 3, 7]);
makespan = 1157;
----------
assign = array1d(1..12 ,[2, 2, 2, 2, 2, 1, 1, 2, 2, 2, 1, 2]);
next = array1d(1..12 ,[2, 5, 1, 10, 8, 11, 6, 4, 12, 9, 3, 7]);
makespan = 1156;
----------
assign = array1d(1..12 ,[2, 2, 2, 2, 2, 1, 1, 2, 2, 2, 1, 2]);
next = array1d(1..12 ,[2, 5, 1, 10, 8, 11, 6, 4, 12, 9, 3, 7]);
makespan = 1155;
----------
assign = array1d(1..12 ,[2, 2, 2, 2, 2, 1, 1, 2, 2, 2, 1, 2]);
next = array1d(1..12 ,[2, 5, 1, 10, 8, 11, 6, 4, 12, 9, 3, 7]);
makespan = 1154;
----------
assign = array1d(1..12 ,[2, 2, 2, 2, 2, 1, 1, 2, 2, 2, 1, 2]);
next = array1d(1..12 ,[2, 5, 1, 10, 8, 11, 6, 4, 12, 9, 3, 7]);
makespan = 1153;
----------
assign = array1d(1..12 ,[2, 2, 2, 2, 2, 1, 1, 2, 2, 2, 1, 2]);
next = array1d(1..12 ,[2, 5, 1, 10, 8, 11, 6, 4, 12, 9, 3, 7]);
makespan = 1152;
----------
assign = array1d(1..12 ,[2, 2, 2, 2, 2, 1, 1, 2, 2, 2, 1, 2]);
next = array1d(1..12 ,[2, 5, 1, 10, 8, 11, 6, 4, 12, 9, 3, 7]);
makespan = 1151;
----------
assign = array1d(1..12 ,[2, 2, 2, 2, 2, 1, 1, 2, 2, 2, 1, 2]);
next = array1d(1..12 ,[2, 5, 1, 10, 8, 11, 6, 4, 12, 9, 3, 7]);
makespan = 1150;
----------
assign = array1d(1..12 ,[2, 2, 2, 2, 2, 1, 1, 2, 2, 2, 1, 2]);
next = array1d(1..12 ,[2, 5, 1, 10, 8, 11, 6, 4, 12, 9, 3, 7]);
makespan = 1149;
----------
assign = array1d(1..12 ,[2, 2, 2, 2, 2, 1, 1, 2, 2, 2, 1, 2]);
next = array1d(1..12 ,[2, 5, 1, 10, 8, 11, 6, 4, 12, 9, 3, 7]);
makespan = 1148;
----------
assign = array1d(1..12 ,[2, 2, 2, 2, 2, 1, 1, 2, 2, 2, 1, 2]);
next = array1d(1..12 ,[2, 5, 1, 10, 8, 11, 6, 4, 12, 9, 3, 7]);
makespan = 1147;
----------
assign = array1d(1..12 ,[2, 2, 2, 2, 2, 1, 1, 2, 2, 2, 1, 2]);
next = array1d(1..12 ,[2, 5, 1, 10, 8, 11, 6, 4, 12, 9, 3, 7]);
makespan = 1146;
----------
assign = array1d(1..12 ,[2, 2, 2, 2, 2, 1, 1, 2, 2, 2, 1, 2]);
next = array1d(1..12 ,[2, 5, 1, 10, 8, 11, 6, 4, 12, 9, 3, 7]);
makespan = 1145;
----------
assign = array1d(1..12 ,[2, 2, 2, 2, 2, 1, 1, 2, 2, 2, 1, 2]);
next = array1d(1..12 ,[2, 5, 1, 10, 8, 11, 6, 4, 12, 9, 3, 7]);
makespan = 1144;
----------
assign = array1d(1..12 ,[2, 2, 2, 2, 2, 1, 1, 2, 2, 2, 1, 2]);
next = array1d(1..12 ,[2, 5, 1, 10, 8, 11, 6, 4, 12, 9, 3, 7]);
makespan = 1143;
----------
assign = array1d(1..12 ,[2, 2, 2, 2, 2, 1, 1, 2, 2, 2, 1, 2]);
next = array1d(1..12 ,[2, 5, 1, 10, 8, 11, 6, 4, 12, 9, 3, 7]);
makespan = 1142;
----------
assign = array1d(1..12 ,[2, 2, 2, 2, 2, 1, 1, 2, 2, 2, 1, 2]);
next = array1d(1..12 ,[2, 5, 1, 10, 8, 11, 6, 4, 12, 9, 3, 7]);
makespan = 1141;
----------
assign = array1d(1..12 ,[2, 2, 2, 2, 2, 1, 1, 2, 2, 2, 1, 2]);
next = array1d(1..12 ,[2, 5, 1, 10, 8, 11, 6, 4, 12, 9, 3, 7]);
makespan = 1140;
----------
assign = array1d(1..12 ,[2, 2, 2, 2, 2, 1, 1, 2, 2, 2, 1, 2]);
next = array1d(1..12 ,[2, 5, 1, 10, 8, 11, 6, 4, 12, 9, 3, 7]);
makespan = 1139;
----------
assign = array1d(1..12 ,[2, 2, 2, 2, 2, 1, 1, 2, 2, 2, 1, 2]);
next = array1d(1..12 ,[2, 5, 1, 10, 8, 11, 6, 4, 12, 9, 3, 7]);
makespan = 1138;
----------
assign = array1d(1..12 ,[2, 2, 2, 2, 2, 1, 1, 2, 2, 2, 1, 2]);
next = array1d(1..12 ,[2, 5, 1, 10, 8, 11, 6, 4, 12, 9, 3, 7]);
makespan = 1137;
----------
assign = array1d(1..12 ,[2, 2, 2, 2, 2, 1, 1, 2, 2, 2, 1, 2]);
next = array1d(1..12 ,[2, 5, 1, 10, 8, 11, 6, 4, 12, 9, 3, 7]);
makespan = 1136;
----------
assign = array1d(1..12 ,[2, 2, 2, 2, 2, 1, 1, 2, 2, 2, 1, 2]);
next = array1d(1..12 ,[2, 5, 1, 10, 8, 11, 6, 4, 12, 9, 3, 7]);
makespan = 1135;
----------
assign = array1d(1..12 ,[2, 2, 2, 2, 2, 1, 1, 2, 2, 2, 1, 2]);
next = array1d(1..12 ,[2, 5, 1, 10, 8, 11, 6, 4, 12, 9, 3, 7]);
makespan = 1134;
----------
assign = array1d(1..12 ,[2, 2, 2, 2, 2, 1, 1, 2, 2, 2, 1, 2]);
next = array1d(1..12 ,[2, 5, 1, 10, 8, 11, 6, 4, 12, 9, 3, 7]);
makespan = 1133;
----------
assign = array1d(1..12 ,[2, 2, 2, 2, 2, 1, 1, 2, 2, 2, 1, 2]);
next = array1d(1..12 ,[2, 5, 1, 10, 8, 11, 6, 4, 12, 9, 3, 7]);
makespan = 1132;
----------
assign = array1d(1..12 ,[2, 2, 2, 2, 2, 1, 1, 2, 2, 2, 1, 2]);
next = array1d(1..12 ,[2, 5, 1, 10, 8, 11, 6, 4, 12, 9, 3, 7]);
makespan = 1131;
----------
assign = array1d(1..12 ,[2, 2, 2, 2, 2, 1, 1, 2, 2, 2, 1, 2]);
next = array1d(1..12 ,[2, 5, 1, 10, 8, 11, 6, 4, 12, 9, 3, 7]);
makespan = 1129;
----------
assign = array1d(1..12 ,[2, 2, 2, 2, 2, 1, 1, 2, 2, 2, 1, 2]);
next = array1d(1..12 ,[2, 5, 1, 10, 8, 11, 6, 4, 12, 9, 3, 7]);
makespan = 1128;
----------
assign = array1d(1..12 ,[2, 2, 2, 2, 2, 1, 1, 2, 2, 2, 1, 2]);
next = array1d(1..12 ,[2, 5, 1, 10, 8, 11, 6, 4, 12, 9, 3, 7]);
makespan = 1127;
----------
assign = array1d(1..12 ,[2, 2, 2, 2, 2, 1, 1, 2, 2, 2, 1, 2]);
next = array1d(1..12 ,[2, 5, 1, 10, 8, 11, 6, 4, 12, 9, 3, 7]);
makespan = 1125;
----------
assign = array1d(1..12 ,[2, 2, 2, 2, 2, 1, 1, 2, 2, 2, 1, 2]);
next = array1d(1..12 ,[2, 5, 1, 10, 8, 11, 6, 4, 12, 9, 3, 7]);
makespan = 1124;
----------
assign = array1d(1..12 ,[2, 2, 2, 2, 2, 1, 1, 2, 2, 2, 1, 2]);
next = array1d(1..12 ,[2, 5, 1, 10, 8, 11, 6, 4, 12, 9, 3, 7]);
makespan = 1123;
----------
assign = array1d(1..12 ,[2, 2, 2, 2, 2, 1, 1, 2, 2, 2, 1, 2]);
next = array1d(1..12 ,[2, 5, 1, 10, 8, 11, 6, 4, 12, 9, 3, 7]);
makespan = 1122;
----------
assign = array1d(1..12 ,[2, 2, 2, 2, 2, 1, 1, 2, 2, 2, 1, 2]);
next = array1d(1..12 ,[2, 5, 1, 10, 8, 11, 6, 4, 12, 9, 3, 7]);
makespan = 1121;
----------
assign = array1d(1..12 ,[2, 2, 2, 2, 2, 1, 1, 2, 2, 2, 1, 2]);
next = array1d(1..12 ,[2, 5, 1, 10, 8, 11, 6, 4, 12, 9, 3, 7]);
makespan = 1120;
----------
assign = array1d(1..12 ,[2, 2, 2, 2, 2, 1, 1, 2, 2, 2, 1, 2]);
next = array1d(1..12 ,[2, 5, 1, 10, 8, 11, 6, 4, 12, 9, 3, 7]);
makespan = 1119;
----------
assign = array1d(1..12 ,[2, 2, 2, 2, 2, 1, 1, 2, 2, 2, 1, 2]);
next = array1d(1..12 ,[2, 5, 1, 10, 8, 11, 6, 4, 12, 9, 3, 7]);
makespan = 1118;
----------
assign = array1d(1..12 ,[2, 2, 2, 2, 2, 1, 1, 2, 2, 2, 1, 2]);
next = array1d(1..12 ,[2, 5, 1, 10, 8, 11, 6, 4, 12, 9, 3, 7]);
makespan = 1117;
----------
assign = array1d(1..12 ,[2, 2, 2, 2, 2, 1, 1, 2, 2, 2, 1, 2]);
next = array1d(1..12 ,[2, 5, 1, 10, 8, 11, 6, 4, 12, 9, 3, 7]);
makespan = 1116;
----------
assign = array1d(1..12 ,[2, 2, 2, 2, 2, 1, 1, 2, 2, 2, 1, 2]);
next = array1d(1..12 ,[2, 5, 1, 10, 8, 11, 6, 4, 12, 9, 3, 7]);
makespan = 1115;
----------
assign = array1d(1..12 ,[2, 2, 2, 2, 2, 1, 1, 2, 2, 2, 1, 2]);
next = array1d(1..12 ,[2, 5, 1, 10, 8, 11, 6, 4, 12, 9, 3, 7]);
makespan = 1114;
----------
assign = array1d(1..12 ,[2, 2, 2, 2, 2, 1, 1, 2, 2, 2, 1, 2]);
next = array1d(1..12 ,[2, 5, 1, 10, 8, 11, 6, 4, 12, 9, 3, 7]);
makespan = 1113;
----------
assign = array1d(1..12 ,[2, 2, 2, 2, 2, 1, 1, 2, 2, 2, 1, 2]);
next = array1d(1..12 ,[2, 5, 1, 10, 8, 11, 6, 4, 12, 9, 3, 7]);
makespan = 1112;
----------
assign = array1d(1..12 ,[2, 2, 2, 2, 2, 1, 1, 2, 2, 2, 1, 2]);
next = array1d(1..12 ,[2, 5, 1, 10, 8, 11, 6, 4, 12, 9, 3, 7]);
makespan = 1111;
----------
assign = array1d(1..12 ,[2, 2, 2, 2, 2, 1, 1, 2, 2, 2, 1, 2]);
next = array1d(1..12 ,[2, 5, 1, 10, 8, 11, 6, 4, 12, 9, 3, 7]);
makespan = 1110;
----------
assign = array1d(1..12 ,[2, 2, 2, 2, 2, 1, 1, 2, 2, 2, 1, 2]);
next = array1d(1..12 ,[2, 5, 1, 10, 8, 11, 6, 4, 12, 9, 3, 7]);
makespan = 1109;
----------
assign = array1d(1..12 ,[2, 2, 2, 2, 2, 1, 1, 2, 2, 2, 1, 2]);
next = array1d(1..12 ,[2, 5, 1, 10, 8, 11, 6, 4, 12, 9, 3, 7]);
makespan = 1108;
----------
assign = array1d(1..12 ,[2, 2, 2, 2, 2, 1, 1, 2, 2, 2, 1, 2]);
next = array1d(1..12 ,[2, 5, 1, 10, 8, 11, 6, 4, 12, 9, 3, 7]);
makespan = 1107;
----------
assign = array1d(1..12 ,[2, 2, 2, 2, 2, 1, 1, 2, 2, 2, 1, 2]);
next = array1d(1..12 ,[2, 5, 1, 10, 8, 11, 6, 4, 12, 9, 3, 7]);
makespan = 1106;
----------
assign = array1d(1..12 ,[2, 2, 2, 2, 2, 1, 1, 2, 2, 2, 1, 2]);
next = array1d(1..12 ,[2, 5, 1, 10, 8, 11, 6, 4, 12, 9, 3, 7]);
makespan = 1105;
----------
assign = array1d(1..12 ,[2, 2, 2, 2, 2, 1, 1, 2, 2, 2, 1, 2]);
next = array1d(1..12 ,[2, 5, 1, 10, 8, 11, 6, 4, 12, 9, 3, 7]);
makespan = 1104;
----------
assign = array1d(1..12 ,[2, 2, 2, 2, 2, 1, 1, 2, 2, 2, 1, 2]);
next = array1d(1..12 ,[2, 5, 1, 10, 8, 11, 6, 4, 12, 9, 3, 7]);
makespan = 1103;
----------
assign = array1d(1..12 ,[2, 2, 2, 2, 2, 1, 1, 2, 2, 2, 1, 2]);
next = array1d(1..12 ,[2, 5, 1, 10, 8, 11, 6, 4, 12, 9, 3, 7]);
makespan = 1102;
----------
assign = array1d(1..12 ,[2, 2, 2, 2, 2, 1, 1, 2, 2, 2, 1, 2]);
next = array1d(1..12 ,[2, 5, 1, 10, 8, 11, 6, 4, 12, 9, 3, 7]);
makespan = 1101;
----------
assign = array1d(1..12 ,[2, 2, 2, 2, 2, 1, 1, 2, 2, 2, 1, 2]);
next = array1d(1..12 ,[2, 5, 1, 10, 8, 11, 6, 4, 12, 9, 3, 7]);
makespan = 1100;
----------
assign = array1d(1..12 ,[2, 2, 2, 2, 2, 1, 1, 2, 2, 2, 1, 2]);
next = array1d(1..12 ,[2, 5, 1, 10, 8, 11, 6, 4, 12, 9, 3, 7]);
makespan = 1099;
----------
assign = array1d(1..12 ,[2, 2, 2, 2, 2, 1, 1, 2, 2, 2, 1, 2]);
next = array1d(1..12 ,[2, 5, 1, 10, 8, 11, 6, 4, 12, 9, 3, 7]);
makespan = 1098;
----------
assign = array1d(1..12 ,[2, 2, 2, 2, 2, 1, 1, 2, 2, 2, 1, 2]);
next = array1d(1..12 ,[2, 5, 1, 10, 8, 11, 6, 4, 12, 9, 3, 7]);
makespan = 1097;
----------
assign = array1d(1..12 ,[2, 2, 2, 2, 2, 1, 1, 2, 2, 2, 1, 2]);
next = array1d(1..12 ,[2, 5, 1, 10, 8, 11, 6, 4, 12, 9, 3, 7]);
makespan = 1096;
----------
assign = array1d(1..12 ,[2, 2, 2, 2, 2, 1, 1, 2, 2, 2, 1, 2]);
next = array1d(1..12 ,[2, 5, 1, 10, 8, 11, 6, 4, 12, 9, 3, 7]);
makespan = 1095;
----------
assign = array1d(1..12 ,[2, 2, 2, 2, 2, 1, 1, 2, 2, 2, 1, 2]);
next = array1d(1..12 ,[2, 5, 1, 10, 8, 11, 6, 4, 12, 9, 3, 7]);
makespan = 1094;
----------
assign = array1d(1..12 ,[2, 2, 2, 2, 2, 1, 1, 2, 2, 2, 1, 2]);
next = array1d(1..12 ,[2, 5, 1, 10, 8, 11, 6, 4, 12, 9, 3, 7]);
makespan = 1093;
----------
assign = array1d(1..12 ,[2, 2, 2, 2, 2, 1, 1, 2, 2, 2, 1, 2]);
next = array1d(1..12 ,[2, 5, 1, 10, 8, 11, 6, 4, 12, 9, 3, 7]);
makespan = 1092;
----------
assign = array1d(1..12 ,[2, 2, 2, 2, 2, 1, 1, 2, 2, 2, 1, 2]);
next = array1d(1..12 ,[2, 5, 1, 10, 8, 11, 6, 4, 12, 9, 3, 7]);
makespan = 1091;
----------
assign = array1d(1..12 ,[2, 2, 2, 2, 2, 1, 1, 2, 2, 2, 1, 2]);
next = array1d(1..12 ,[2, 5, 1, 10, 8, 11, 6, 4, 12, 9, 3, 7]);
makespan = 1090;
----------
assign = array1d(1..12 ,[2, 2, 2, 2, 2, 1, 1, 2, 2, 2, 1, 2]);
next = array1d(1..12 ,[2, 5, 1, 10, 8, 11, 6, 4, 12, 9, 3, 7]);
makespan = 1089;
----------
assign = array1d(1..12 ,[2, 2, 2, 2, 2, 1, 1, 2, 2, 2, 1, 2]);
next = array1d(1..12 ,[2, 5, 1, 10, 8, 11, 6, 4, 12, 9, 3, 7]);
makespan = 1087;
----------
assign = array1d(1..12 ,[2, 2, 2, 2, 2, 1, 1, 2, 2, 2, 1, 2]);
next = array1d(1..12 ,[2, 5, 1, 10, 8, 11, 6, 4, 12, 9, 3, 7]);
makespan = 1086;
----------
assign = array1d(1..12 ,[2, 2, 2, 2, 2, 1, 1, 2, 2, 2, 1, 2]);
next = array1d(1..12 ,[2, 5, 1, 10, 8, 11, 6, 4, 12, 9, 3, 7]);
makespan = 1085;
----------
assign = array1d(1..12 ,[2, 2, 2, 2, 2, 1, 1, 2, 2, 2, 1, 2]);
next = array1d(1..12 ,[2, 5, 1, 10, 8, 11, 6, 4, 12, 9, 3, 7]);
makespan = 1084;
----------
assign = array1d(1..12 ,[2, 2, 2, 2, 2, 1, 1, 2, 2, 2, 1, 2]);
next = array1d(1..12 ,[2, 5, 1, 10, 8, 11, 6, 4, 12, 9, 3, 7]);
makespan = 1082;
----------
assign = array1d(1..12 ,[2, 2, 2, 2, 2, 1, 1, 2, 2, 2, 1, 2]);
next = array1d(1..12 ,[2, 5, 1, 10, 8, 11, 6, 4, 12, 9, 3, 7]);
makespan = 1081;
----------
assign = array1d(1..12 ,[2, 2, 2, 2, 2, 1, 1, 2, 2, 2, 1, 2]);
next = array1d(1..12 ,[2, 5, 1, 10, 8, 11, 6, 4, 12, 9, 3, 7]);
makespan = 1080;
----------
assign = array1d(1..12 ,[2, 2, 2, 2, 2, 1, 1, 2, 2, 2, 1, 2]);
next = array1d(1..12 ,[2, 5, 1, 10, 8, 11, 6, 4, 12, 9, 3, 7]);
makespan = 1079;
----------
assign = array1d(1..12 ,[2, 2, 2, 2, 2, 1, 1, 2, 2, 2, 1, 2]);
next = array1d(1..12 ,[2, 5, 1, 10, 8, 11, 6, 4, 12, 9, 3, 7]);
makespan = 1078;
----------
assign = array1d(1..12 ,[2, 2, 2, 2, 2, 1, 1, 2, 2, 2, 1, 2]);
next = array1d(1..12 ,[2, 5, 1, 10, 8, 11, 6, 4, 12, 9, 3, 7]);
makespan = 1077;
----------
assign = array1d(1..12 ,[2, 2, 2, 2, 2, 1, 1, 2, 2, 2, 1, 2]);
next = array1d(1..12 ,[2, 5, 1, 10, 8, 11, 6, 4, 12, 9, 3, 7]);
makespan = 1076;
----------
assign = array1d(1..12 ,[2, 2, 2, 2, 2, 1, 1, 2, 2, 2, 1, 2]);
next = array1d(1..12 ,[2, 5, 1, 10, 8, 11, 6, 4, 12, 9, 3, 7]);
makespan = 1075;
----------
assign = array1d(1..12 ,[2, 2, 2, 2, 2, 1, 1, 2, 2, 2, 1, 2]);
next = array1d(1..12 ,[2, 5, 1, 10, 8, 11, 6, 4, 12, 9, 3, 7]);
makespan = 1074;
----------
assign = array1d(1..12 ,[2, 2, 2, 2, 2, 1, 1, 2, 2, 2, 1, 2]);
next = array1d(1..12 ,[2, 5, 1, 10, 8, 11, 6, 4, 12, 9, 3, 7]);
makespan = 1073;
----------
assign = array1d(1..12 ,[2, 2, 2, 2, 2, 1, 1, 2, 2, 2, 1, 2]);
next = array1d(1..12 ,[2, 5, 1, 10, 8, 11, 6, 4, 12, 9, 3, 7]);
makespan = 1072;
----------
assign = array1d(1..12 ,[2, 2, 2, 2, 2, 1, 1, 2, 2, 2, 1, 2]);
next = array1d(1..12 ,[2, 5, 1, 10, 8, 11, 6, 4, 12, 9, 3, 7]);
makespan = 1071;
----------
assign = array1d(1..12 ,[2, 2, 2, 2, 2, 1, 1, 2, 2, 2, 1, 2]);
next = array1d(1..12 ,[2, 5, 1, 10, 8, 11, 6, 4, 12, 9, 3, 7]);
makespan = 1070;
----------
assign = array1d(1..12 ,[2, 2, 2, 2, 2, 1, 1, 2, 2, 2, 1, 2]);
next = array1d(1..12 ,[2, 5, 1, 10, 8, 11, 6, 4, 12, 9, 3, 7]);
makespan = 1069;
----------
assign = array1d(1..12 ,[2, 2, 2, 2, 2, 1, 1, 2, 2, 2, 1, 2]);
next = array1d(1..12 ,[2, 5, 1, 10, 8, 11, 6, 4, 12, 9, 3, 7]);
makespan = 1068;
----------
assign = array1d(1..12 ,[2, 2, 2, 2, 2, 1, 1, 2, 2, 2, 1, 2]);
next = array1d(1..12 ,[2, 5, 1, 10, 8, 11, 6, 4, 12, 9, 3, 7]);
makespan = 1067;
----------
assign = array1d(1..12 ,[2, 2, 2, 2, 2, 1, 1, 2, 2, 2, 1, 2]);
next = array1d(1..12 ,[2, 5, 1, 10, 8, 11, 6, 4, 12, 9, 3, 7]);
makespan = 1066;
----------
assign = array1d(1..12 ,[2, 2, 2, 2, 2, 1, 1, 2, 2, 2, 1, 2]);
next = array1d(1..12 ,[2, 5, 1, 10, 8, 11, 6, 4, 12, 9, 3, 7]);
makespan = 1065;
----------
assign = array1d(1..12 ,[2, 2, 2, 2, 2, 1, 1, 2, 2, 2, 1, 2]);
next = array1d(1..12 ,[2, 5, 1, 10, 8, 11, 6, 4, 12, 9, 3, 7]);
makespan = 1064;
----------
assign = array1d(1..12 ,[2, 2, 2, 2, 2, 1, 1, 2, 2, 2, 1, 2]);
next = array1d(1..12 ,[2, 5, 1, 10, 8, 11, 6, 4, 12, 9, 3, 7]);
makespan = 1063;
----------
assign = array1d(1..12 ,[2, 2, 2, 2, 2, 1, 1, 2, 2, 2, 1, 2]);
next = array1d(1..12 ,[2, 5, 1, 10, 8, 11, 6, 4, 12, 9, 3, 7]);
makespan = 1062;
----------
assign = array1d(1..12 ,[2, 2, 2, 2, 2, 1, 1, 2, 2, 2, 1, 2]);
next = array1d(1..12 ,[2, 5, 1, 10, 8, 11, 6, 4, 12, 9, 3, 7]);
makespan = 1061;
----------
assign = array1d(1..12 ,[2, 2, 2, 2, 2, 1, 1, 2, 2, 2, 1, 2]);
next = array1d(1..12 ,[2, 5, 1, 10, 8, 11, 6, 4, 12, 9, 3, 7]);
makespan = 1060;
----------
assign = array1d(1..12 ,[2, 2, 2, 2, 2, 1, 1, 2, 2, 2, 1, 2]);
next = array1d(1..12 ,[2, 5, 1, 10, 8, 11, 6, 4, 12, 9, 3, 7]);
makespan = 1059;
----------
assign = array1d(1..12 ,[2, 2, 2, 2, 2, 1, 1, 2, 2, 2, 1, 2]);
next = array1d(1..12 ,[2, 5, 1, 10, 8, 11, 6, 4, 12, 9, 3, 7]);
makespan = 1058;
----------
assign = array1d(1..12 ,[2, 2, 2, 2, 2, 1, 1, 2, 2, 2, 1, 2]);
next = array1d(1..12 ,[2, 5, 1, 10, 8, 11, 6, 4, 12, 9, 3, 7]);
makespan = 1057;
----------
assign = array1d(1..12 ,[2, 2, 2, 2, 2, 1, 1, 2, 2, 2, 1, 2]);
next = array1d(1..12 ,[2, 5, 1, 10, 8, 11, 6, 4, 12, 9, 3, 7]);
makespan = 1056;
----------
assign = array1d(1..12 ,[2, 2, 2, 2, 2, 1, 1, 2, 2, 2, 1, 2]);
next = array1d(1..12 ,[2, 5, 1, 10, 8, 11, 6, 4, 12, 9, 3, 7]);
makespan = 1055;
----------
assign = array1d(1..12 ,[2, 2, 2, 2, 2, 1, 1, 2, 2, 2, 1, 2]);
next = array1d(1..12 ,[2, 5, 1, 10, 8, 11, 6, 4, 12, 9, 3, 7]);
makespan = 1054;
----------
assign = array1d(1..12 ,[2, 2, 1, 2, 2, 1, 2, 2, 2, 2, 1, 2]);
next = array1d(1..12 ,[2, 5, 11, 10, 8, 3, 1, 4, 12, 9, 7, 6]);
makespan = 1053;
----------
assign = array1d(1..12 ,[2, 2, 1, 2, 2, 1, 2, 2, 2, 2, 1, 2]);
next = array1d(1..12 ,[2, 5, 11, 10, 8, 3, 1, 4, 12, 9, 7, 6]);
makespan = 1052;
----------
assign = array1d(1..12 ,[2, 2, 1, 2, 2, 1, 2, 2, 2, 2, 1, 2]);
next = array1d(1..12 ,[2, 5, 11, 10, 8, 3, 1, 4, 12, 9, 7, 6]);
makespan = 1050;
----------
assign = array1d(1..12 ,[2, 2, 1, 2, 2, 1, 2, 2, 2, 2, 1, 2]);
next = array1d(1..12 ,[2, 5, 11, 10, 8, 3, 1, 4, 12, 9, 7, 6]);
makespan = 1049;
----------
assign = array1d(1..12 ,[2, 2, 1, 2, 2, 1, 2, 2, 2, 2, 1, 2]);
next = array1d(1..12 ,[2, 5, 11, 10, 8, 3, 1, 4, 12, 9, 7, 6]);
makespan = 1048;
----------
assign = array1d(1..12 ,[2, 2, 1, 2, 2, 1, 2, 2, 2, 2, 1, 2]);
next = array1d(1..12 ,[2, 5, 11, 10, 8, 3, 1, 4, 12, 9, 7, 6]);
makespan = 1047;
----------
assign = array1d(1..12 ,[2, 2, 1, 2, 2, 1, 2, 2, 2, 2, 1, 2]);
next = array1d(1..12 ,[2, 5, 11, 10, 8, 3, 1, 4, 12, 9, 7, 6]);
makespan = 1046;
----------
assign = array1d(1..12 ,[2, 2, 1, 2, 2, 1, 2, 2, 2, 2, 1, 2]);
next = array1d(1..12 ,[2, 5, 11, 10, 8, 3, 1, 4, 12, 9, 7, 6]);
makespan = 1045;
----------
assign = array1d(1..12 ,[2, 2, 1, 2, 2, 1, 2, 2, 2, 2, 1, 2]);
next = array1d(1..12 ,[2, 5, 11, 10, 8, 3, 1, 4, 12, 9, 7, 6]);
makespan = 1044;
----------
assign = array1d(1..12 ,[2, 2, 1, 2, 2, 1, 2, 2, 2, 2, 1, 2]);
next = array1d(1..12 ,[2, 5, 11, 10, 8, 3, 1, 4, 12, 9, 7, 6]);
makespan = 1043;
----------
assign = array1d(1..12 ,[2, 2, 1, 2, 2, 1, 2, 2, 2, 2, 1, 2]);
next = array1d(1..12 ,[2, 5, 11, 10, 8, 3, 1, 4, 12, 9, 7, 6]);
makespan = 1042;
----------
assign = array1d(1..12 ,[2, 2, 1, 2, 2, 1, 2, 2, 2, 2, 1, 2]);
next = array1d(1..12 ,[2, 5, 11, 10, 8, 3, 1, 4, 12, 9, 7, 6]);
makespan = 1041;
----------
assign = array1d(1..12 ,[2, 2, 1, 2, 2, 1, 2, 2, 2, 2, 1, 2]);
next = array1d(1..12 ,[2, 5, 11, 10, 8, 3, 1, 4, 12, 9, 7, 6]);
makespan = 1040;
----------
assign = array1d(1..12 ,[2, 2, 1, 2, 2, 1, 2, 2, 2, 2, 1, 2]);
next = array1d(1..12 ,[2, 5, 11, 10, 8, 3, 1, 4, 12, 9, 7, 6]);
makespan = 1039;
----------
assign = array1d(1..12 ,[2, 2, 1, 2, 2, 1, 2, 2, 2, 2, 1, 2]);
next = array1d(1..12 ,[2, 5, 11, 10, 8, 3, 1, 4, 12, 9, 7, 6]);
makespan = 1038;
----------
assign = array1d(1..12 ,[2, 2, 1, 2, 2, 1, 2, 2, 2, 2, 1, 2]);
next = array1d(1..12 ,[2, 5, 11, 10, 8, 3, 1, 4, 12, 9, 7, 6]);
makespan = 1037;
----------
assign = array1d(1..12 ,[2, 2, 1, 2, 2, 1, 2, 2, 2, 2, 1, 2]);
next = array1d(1..12 ,[2, 5, 11, 10, 8, 3, 1, 4, 12, 9, 7, 6]);
makespan = 1036;
----------
assign = array1d(1..12 ,[2, 2, 1, 2, 2, 1, 2, 2, 2, 2, 1, 2]);
next = array1d(1..12 ,[2, 5, 11, 10, 8, 3, 1, 4, 12, 9, 7, 6]);
makespan = 1035;
----------
assign = array1d(1..12 ,[2, 2, 1, 2, 2, 1, 2, 2, 2, 2, 1, 2]);
next = array1d(1..12 ,[2, 5, 11, 10, 8, 3, 1, 4, 12, 9, 7, 6]);
makespan = 1034;
----------
assign = array1d(1..12 ,[2, 2, 1, 2, 2, 1, 2, 2, 2, 2, 1, 2]);
next = array1d(1..12 ,[2, 5, 11, 10, 8, 3, 1, 4, 12, 9, 7, 6]);
makespan = 1033;
----------
assign = array1d(1..12 ,[2, 2, 1, 2, 2, 1, 2, 2, 2, 2, 1, 2]);
next = array1d(1..12 ,[2, 5, 11, 10, 8, 3, 1, 4, 12, 9, 7, 6]);
makespan = 1032;
----------
assign = array1d(1..12 ,[2, 2, 1, 2, 2, 1, 2, 2, 2, 2, 1, 2]);
next = array1d(1..12 ,[2, 5, 11, 10, 8, 3, 1, 4, 12, 9, 7, 6]);
makespan = 1031;
----------
assign = array1d(1..12 ,[2, 2, 1, 2, 2, 1, 2, 2, 2, 2, 1, 2]);
next = array1d(1..12 ,[2, 5, 11, 10, 8, 3, 1, 4, 12, 9, 7, 6]);
makespan = 1028;
----------
assign = array1d(1..12 ,[2, 2, 1, 2, 2, 1, 2, 2, 2, 2, 1, 2]);
next = array1d(1..12 ,[2, 5, 11, 10, 8, 3, 1, 4, 12, 9, 7, 6]);
makespan = 1027;
----------
assign = array1d(1..12 ,[2, 2, 1, 2, 2, 1, 2, 2, 2, 2, 1, 2]);
next = array1d(1..12 ,[2, 5, 11, 10, 8, 3, 1, 4, 12, 9, 7, 6]);
makespan = 1025;
----------
assign = array1d(1..12 ,[2, 2, 1, 2, 2, 1, 2, 2, 2, 2, 1, 2]);
next = array1d(1..12 ,[2, 5, 11, 10, 8, 3, 1, 4, 12, 9, 7, 6]);
makespan = 1024;
----------
assign = array1d(1..12 ,[2, 2, 1, 2, 2, 1, 2, 2, 2, 2, 1, 2]);
next = array1d(1..12 ,[2, 5, 11, 10, 8, 3, 1, 4, 12, 9, 7, 6]);
makespan = 1023;
----------
assign = array1d(1..12 ,[2, 2, 1, 2, 2, 1, 2, 2, 2, 2, 1, 2]);
next = array1d(1..12 ,[2, 5, 11, 10, 8, 3, 1, 4, 12, 9, 7, 6]);
makespan = 1022;
----------
assign = array1d(1..12 ,[2, 2, 1, 2, 2, 1, 1, 2, 2, 2, 1, 2]);
next = array1d(1..12 ,[2, 5, 11, 10, 8, 3, 6, 4, 12, 9, 1, 7]);
makespan = 1021;
----------
assign = array1d(1..12 ,[2, 2, 1, 2, 2, 1, 1, 2, 2, 2, 1, 2]);
next = array1d(1..12 ,[2, 5, 11, 10, 8, 3, 6, 4, 12, 9, 1, 7]);
makespan = 1020;
----------
assign = array1d(1..12 ,[2, 2, 1, 2, 2, 1, 1, 2, 2, 2, 1, 2]);
next = array1d(1..12 ,[2, 5, 11, 10, 8, 3, 6, 4, 12, 9, 1, 7]);
makespan = 1019;
----------
assign = array1d(1..12 ,[2, 2, 1, 2, 2, 1, 1, 2, 2, 2, 1, 2]);
next = array1d(1..12 ,[2, 5, 11, 10, 8, 3, 6, 4, 12, 9, 1, 7]);
makespan = 1018;
----------
assign = array1d(1..12 ,[2, 2, 1, 2, 2, 1, 1, 2, 2, 2, 1, 2]);
next = array1d(1..12 ,[2, 5, 11, 10, 8, 3, 6, 4, 12, 9, 1, 7]);
makespan = 1016;
----------
assign = array1d(1..12 ,[2, 2, 1, 2, 2, 1, 1, 2, 2, 2, 1, 2]);
next = array1d(1..12 ,[2, 5, 11, 10, 8, 3, 6, 4, 12, 9, 1, 7]);
makespan = 1015;
----------
assign = array1d(1..12 ,[2, 2, 1, 2, 2, 1, 1, 2, 2, 2, 1, 2]);
next = array1d(1..12 ,[2, 5, 11, 10, 8, 3, 6, 4, 12, 9, 1, 7]);
makespan = 1014;
----------
assign = array1d(1..12 ,[2, 2, 1, 2, 2, 1, 1, 2, 2, 2, 1, 2]);
next = array1d(1..12 ,[2, 5, 11, 10, 8, 3, 6, 4, 12, 9, 1, 7]);
makespan = 1013;
----------
assign = array1d(1..12 ,[2, 2, 1, 2, 2, 1, 1, 2, 2, 2, 1, 2]);
next = array1d(1..12 ,[2, 5, 11, 10, 8, 3, 6, 4, 12, 9, 1, 7]);
makespan = 1012;
----------
assign = array1d(1..12 ,[2, 2, 1, 2, 2, 1, 1, 2, 2, 2, 1, 2]);
next = array1d(1..12 ,[2, 5, 11, 10, 8, 3, 6, 4, 12, 9, 1, 7]);
makespan = 1011;
----------
assign = array1d(1..12 ,[2, 2, 1, 2, 2, 1, 1, 2, 2, 2, 1, 2]);
next = array1d(1..12 ,[2, 5, 11, 10, 8, 3, 6, 4, 12, 9, 1, 7]);
makespan = 1010;
----------
assign = array1d(1..12 ,[2, 2, 1, 2, 2, 1, 1, 2, 2, 2, 1, 2]);
next = array1d(1..12 ,[2, 5, 11, 10, 8, 3, 6, 4, 12, 9, 1, 7]);
makespan = 1009;
----------
assign = array1d(1..12 ,[2, 2, 1, 2, 2, 1, 1, 2, 2, 2, 1, 2]);
next = array1d(1..12 ,[2, 5, 11, 10, 8, 3, 6, 4, 12, 9, 1, 7]);
makespan = 1008;
----------
assign = array1d(1..12 ,[2, 2, 1, 2, 2, 1, 1, 2, 2, 2, 1, 2]);
next = array1d(1..12 ,[2, 5, 11, 10, 8, 3, 6, 4, 12, 9, 1, 7]);
makespan = 1006;
----------
assign = array1d(1..12 ,[2, 2, 1, 2, 2, 1, 1, 2, 2, 2, 1, 2]);
next = array1d(1..12 ,[2, 5, 11, 10, 8, 3, 6, 4, 12, 9, 1, 7]);
makespan = 1005;
----------
assign = array1d(1..12 ,[2, 2, 1, 2, 2, 1, 1, 2, 2, 2, 1, 2]);
next = array1d(1..12 ,[2, 5, 11, 10, 8, 3, 6, 4, 12, 9, 1, 7]);
makespan = 1004;
----------
assign = array1d(1..12 ,[2, 2, 1, 2, 2, 1, 1, 2, 2, 2, 1, 2]);
next = array1d(1..12 ,[2, 5, 11, 10, 8, 3, 6, 4, 12, 9, 1, 7]);
makespan = 1003;
----------
assign = array1d(1..12 ,[2, 2, 1, 2, 2, 1, 1, 2, 2, 2, 1, 2]);
next = array1d(1..12 ,[2, 5, 11, 10, 8, 3, 6, 4, 12, 9, 1, 7]);
makespan = 1002;
----------
assign = array1d(1..12 ,[2, 2, 1, 2, 2, 1, 1, 2, 2, 2, 1, 2]);
next = array1d(1..12 ,[2, 5, 11, 10, 8, 3, 6, 4, 12, 9, 1, 7]);
makespan = 1001;
----------
assign = array1d(1..12 ,[2, 2, 1, 2, 2, 1, 1, 2, 2, 2, 1, 2]);
next = array1d(1..12 ,[2, 5, 11, 10, 8, 3, 6, 4, 12, 9, 1, 7]);
makespan = 1000;
----------
assign = array1d(1..12 ,[2, 2, 1, 2, 2, 1, 1, 2, 2, 2, 1, 2]);
next = array1d(1..12 ,[2, 5, 11, 10, 8, 3, 6, 4, 12, 9, 1, 7]);
makespan = 999;
----------
assign = array1d(1..12 ,[2, 2, 1, 2, 2, 1, 1, 2, 2, 2, 1, 2]);
next = array1d(1..12 ,[2, 5, 11, 10, 8, 3, 6, 4, 12, 9, 1, 7]);
makespan = 995;
----------
assign = array1d(1..12 ,[2, 2, 1, 2, 2, 1, 1, 2, 2, 2, 1, 2]);
next = array1d(1..12 ,[2, 5, 11, 10, 8, 3, 6, 4, 12, 9, 1, 7]);
makespan = 994;
----------
assign = array1d(1..12 ,[2, 2, 1, 2, 2, 1, 1, 2, 2, 2, 1, 2]);
next = array1d(1..12 ,[2, 5, 11, 10, 8, 3, 6, 4, 12, 9, 1, 7]);
makespan = 993;
----------
assign = array1d(1..12 ,[2, 2, 1, 2, 2, 1, 1, 2, 2, 2, 1, 2]);
next = array1d(1..12 ,[2, 5, 11, 10, 8, 3, 6, 4, 12, 9, 1, 7]);
makespan = 991;
----------
assign = array1d(1..12 ,[2, 2, 1, 2, 2, 1, 1, 2, 2, 2, 1, 2]);
next = array1d(1..12 ,[2, 5, 11, 10, 8, 3, 6, 4, 12, 9, 1, 7]);
makespan = 990;
----------
assign = array1d(1..12 ,[2, 2, 1, 2, 2, 1, 1, 2, 2, 2, 1, 2]);
next = array1d(1..12 ,[2, 5, 11, 10, 8, 3, 6, 4, 12, 9, 1, 7]);
makespan = 989;
----------
assign = array1d(1..12 ,[2, 2, 1, 2, 2, 1, 1, 2, 2, 2, 1, 2]);
next = array1d(1..12 ,[2, 5, 11, 10, 8, 3, 6, 4, 12, 9, 1, 7]);
makespan = 988;
----------
assign = array1d(1..12 ,[2, 2, 1, 2, 2, 1, 1, 2, 2, 2, 1, 2]);
next = array1d(1..12 ,[2, 5, 11, 10, 8, 3, 6, 4, 12, 9, 1, 7]);
makespan = 987;
----------
assign = array1d(1..12 ,[2, 2, 1, 2, 2, 1, 1, 2, 2, 2, 1, 2]);
next = array1d(1..12 ,[2, 5, 11, 10, 8, 3, 6, 4, 12, 9, 1, 7]);
makespan = 986;
----------
assign = array1d(1..12 ,[2, 2, 1, 2, 2, 1, 1, 2, 2, 2, 1, 2]);
next = array1d(1..12 ,[2, 5, 11, 10, 8, 3, 6, 4, 12, 9, 1, 7]);
makespan = 985;
----------
assign = array1d(1..12 ,[2, 2, 1, 2, 2, 1, 1, 2, 2, 2, 1, 2]);
next = array1d(1..12 ,[2, 5, 11, 10, 8, 3, 6, 4, 12, 9, 1, 7]);
makespan = 984;
----------
assign = array1d(1..12 ,[2, 2, 1, 2, 2, 1, 1, 2, 2, 2, 1, 2]);
next = array1d(1..12 ,[2, 5, 11, 10, 8, 3, 6, 4, 12, 9, 1, 7]);
makespan = 983;
----------
assign = array1d(1..12 ,[2, 2, 1, 2, 2, 1, 1, 2, 2, 2, 1, 2]);
next = array1d(1..12 ,[2, 5, 11, 10, 8, 3, 6, 4, 12, 9, 1, 7]);
makespan = 982;
----------
assign = array1d(1..12 ,[2, 2, 1, 2, 2, 1, 1, 2, 2, 2, 1, 2]);
next = array1d(1..12 ,[2, 5, 11, 10, 8, 3, 6, 4, 12, 9, 1, 7]);
makespan = 981;
----------
assign = array1d(1..12 ,[2, 2, 1, 2, 2, 1, 1, 2, 2, 2, 1, 2]);
next = array1d(1..12 ,[2, 5, 11, 10, 8, 3, 6, 4, 12, 9, 1, 7]);
makespan = 980;
----------
assign = array1d(1..12 ,[2, 2, 1, 2, 2, 1, 1, 2, 2, 2, 1, 2]);
next = array1d(1..12 ,[2, 5, 11, 10, 8, 3, 6, 4, 12, 9, 1, 7]);
makespan = 979;
----------
assign = array1d(1..12 ,[2, 2, 1, 2, 2, 1, 1, 2, 2, 2, 1, 2]);
next = array1d(1..12 ,[2, 5, 11, 10, 8, 3, 6, 4, 12, 9, 1, 7]);
makespan = 977;
----------
assign = array1d(1..12 ,[2, 2, 1, 2, 2, 1, 1, 2, 2, 2, 1, 2]);
next = array1d(1..12 ,[2, 5, 11, 10, 8, 3, 6, 4, 12, 9, 1, 7]);
makespan = 974;
----------
assign = array1d(1..12 ,[2, 2, 1, 2, 2, 1, 1, 2, 2, 2, 1, 2]);
next = array1d(1..12 ,[2, 5, 11, 10, 8, 3, 6, 4, 12, 9, 1, 7]);
makespan = 970;
----------
assign = array1d(1..12 ,[2, 2, 1, 2, 2, 1, 1, 2, 2, 2, 1, 2]);
next = array1d(1..12 ,[2, 5, 11, 10, 8, 3, 6, 4, 12, 9, 1, 7]);
makespan = 968;
----------
assign = array1d(1..12 ,[2, 2, 1, 2, 2, 1, 1, 2, 2, 2, 1, 2]);
next = array1d(1..12 ,[2, 5, 11, 10, 8, 3, 6, 4, 12, 9, 1, 7]);
makespan = 967;
----------
assign = array1d(1..12 ,[2, 2, 1, 2, 2, 1, 1, 2, 2, 2, 1, 2]);
next = array1d(1..12 ,[2, 5, 11, 10, 8, 3, 6, 4, 12, 9, 1, 7]);
makespan = 966;
----------
assign = array1d(1..12 ,[2, 2, 1, 2, 2, 1, 1, 2, 2, 2, 1, 2]);
next = array1d(1..12 ,[2, 5, 11, 10, 8, 3, 6, 4, 12, 9, 1, 7]);
makespan = 965;
----------
assign = array1d(1..12 ,[2, 2, 1, 2, 2, 1, 1, 2, 2, 2, 1, 2]);
next = array1d(1..12 ,[2, 5, 11, 10, 8, 3, 6, 4, 12, 9, 1, 7]);
makespan = 964;
----------
assign = array1d(1..12 ,[2, 2, 1, 2, 2, 1, 1, 2, 2, 2, 1, 2]);
next = array1d(1..12 ,[2, 5, 11, 10, 8, 3, 6, 4, 12, 9, 1, 7]);
makespan = 963;
----------
assign = array1d(1..12 ,[2, 2, 1, 2, 2, 1, 1, 2, 2, 2, 1, 2]);
next = array1d(1..12 ,[2, 5, 11, 10, 8, 3, 6, 4, 12, 9, 1, 7]);
makespan = 961;
----------
assign = array1d(1..12 ,[2, 2, 1, 2, 2, 1, 1, 2, 2, 2, 1, 2]);
next = array1d(1..12 ,[2, 5, 11, 10, 8, 3, 6, 4, 12, 9, 1, 7]);
makespan = 960;
----------
assign = array1d(1..12 ,[2, 2, 1, 2, 2, 1, 1, 2, 2, 2, 1, 2]);
next = array1d(1..12 ,[2, 5, 11, 10, 8, 3, 6, 4, 12, 9, 1, 7]);
makespan = 956;
----------
assign = array1d(1..12 ,[2, 2, 1, 2, 2, 1, 1, 2, 2, 2, 1, 2]);
next = array1d(1..12 ,[2, 5, 11, 10, 8, 3, 6, 4, 12, 9, 1, 7]);
makespan = 952;
----------
assign = array1d(1..12 ,[2, 2, 1, 2, 2, 1, 1, 2, 2, 2, 1, 2]);
next = array1d(1..12 ,[2, 5, 11, 10, 8, 3, 6, 4, 12, 9, 1, 7]);
makespan = 947;
----------
assign = array1d(1..12 ,[2, 2, 1, 2, 2, 1, 1, 2, 2, 2, 1, 2]);
next = array1d(1..12 ,[2, 5, 11, 10, 8, 3, 6, 4, 12, 9, 1, 7]);
makespan = 946;
----------
assign = array1d(1..12 ,[2, 2, 1, 2, 2, 1, 1, 2, 2, 2, 1, 2]);
next = array1d(1..12 ,[2, 5, 11, 10, 8, 3, 6, 4, 12, 9, 1, 7]);
makespan = 945;
----------
assign = array1d(1..12 ,[2, 2, 1, 2, 2, 1, 1, 2, 2, 2, 1, 2]);
next = array1d(1..12 ,[2, 5, 11, 10, 8, 3, 6, 4, 12, 9, 1, 7]);
makespan = 943;
----------
assign = array1d(1..12 ,[2, 2, 1, 2, 2, 1, 1, 2, 2, 2, 1, 2]);
next = array1d(1..12 ,[2, 5, 11, 10, 8, 3, 6, 4, 12, 9, 1, 7]);
makespan = 937;
----------
assign = array1d(1..12 ,[2, 2, 1, 2, 2, 1, 1, 2, 2, 2, 1, 2]);
next = array1d(1..12 ,[2, 5, 11, 10, 8, 3, 6, 4, 12, 9, 1, 7]);
makespan = 935;
----------
assign = array1d(1..12 ,[2, 2, 1, 2, 2, 1, 1, 2, 2, 2, 1, 2]);
next = array1d(1..12 ,[2, 5, 11, 10, 8, 3, 6, 4, 12, 9, 1, 7]);
makespan = 934;
----------
assign = array1d(1..12 ,[2, 2, 1, 2, 2, 1, 1, 2, 2, 2, 1, 2]);
next = array1d(1..12 ,[2, 5, 11, 10, 8, 3, 6, 4, 12, 9, 1, 7]);
makespan = 932;
----------
assign = array1d(1..12 ,[2, 2, 1, 2, 2, 1, 1, 2, 2, 2, 1, 2]);
next = array1d(1..12 ,[2, 5, 11, 10, 8, 3, 6, 4, 12, 9, 1, 7]);
makespan = 930;
----------
assign = array1d(1..12 ,[2, 2, 1, 2, 2, 1, 1, 2, 2, 2, 1, 2]);
next = array1d(1..12 ,[2, 5, 11, 10, 8, 3, 6, 4, 12, 9, 1, 7]);
makespan = 929;
----------
assign = array1d(1..12 ,[2, 2, 1, 2, 2, 1, 1, 2, 2, 2, 1, 2]);
next = array1d(1..12 ,[2, 5, 11, 10, 8, 3, 6, 4, 12, 9, 1, 7]);
makespan = 926;
----------
assign = array1d(1..12 ,[2, 2, 1, 2, 2, 1, 1, 2, 2, 2, 1, 2]);
next = array1d(1..12 ,[2, 5, 11, 10, 8, 3, 6, 4, 12, 9, 1, 7]);
makespan = 915;
----------
assign = array1d(1..12 ,[2, 2, 1, 2, 2, 1, 1, 2, 2, 2, 1, 2]);
next = array1d(1..12 ,[2, 5, 11, 10, 8, 3, 6, 4, 12, 9, 1, 7]);
makespan = 914;
----------
assign = array1d(1..12 ,[2, 2, 1, 2, 2, 1, 1, 2, 2, 2, 1, 2]);
next = array1d(1..12 ,[2, 5, 11, 10, 8, 3, 6, 4, 12, 9, 1, 7]);
makespan = 913;
----------
assign = array1d(1..12 ,[2, 2, 1, 2, 2, 1, 1, 2, 2, 2, 1, 2]);
next = array1d(1..12 ,[2, 5, 11, 10, 8, 3, 6, 4, 12, 9, 1, 7]);
makespan = 912;
----------
assign = array1d(1..12 ,[2, 2, 1, 2, 2, 1, 1, 2, 2, 2, 1, 2]);
next = array1d(1..12 ,[2, 5, 11, 10, 8, 3, 6, 4, 12, 9, 1, 7]);
makespan = 910;
----------
assign = array1d(1..12 ,[2, 2, 1, 2, 2, 1, 1, 2, 2, 2, 1, 2]);
next = array1d(1..12 ,[2, 5, 11, 10, 8, 3, 6, 4, 12, 9, 1, 7]);
makespan = 909;
----------
assign = array1d(1..12 ,[2, 2, 1, 2, 2, 1, 1, 2, 2, 2, 1, 2]);
next = array1d(1..12 ,[2, 5, 11, 10, 8, 3, 6, 4, 12, 9, 1, 7]);
makespan = 906;
----------
assign = array1d(1..12 ,[2, 2, 1, 2, 1, 1, 1, 2, 2, 2, 1, 2]);
next = array1d(1..12 ,[2, 8, 11, 10, 6, 7, 3, 4, 12, 9, 1, 5]);
makespan = 900;
----------
assign = array1d(1..12 ,[2, 2, 1, 2, 1, 1, 1, 2, 2, 2, 1, 2]);
next = array1d(1..12 ,[2, 8, 11, 10, 6, 7, 3, 4, 12, 9, 1, 5]);
makespan = 898;
----------
assign = array1d(1..12 ,[2, 2, 1, 2, 1, 1, 1, 2, 2, 2, 1, 2]);
next = array1d(1..12 ,[2, 8, 11, 10, 6, 7, 3, 4, 12, 9, 1, 5]);
makespan = 890;
----------
assign = array1d(1..12 ,[2, 2, 1, 2, 1, 1, 1, 2, 2, 2, 1, 2]);
next = array1d(1..12 ,[2, 8, 11, 10, 6, 7, 3, 4, 12, 9, 1, 5]);
makespan = 887;
----------
assign = array1d(1..12 ,[2, 2, 1, 2, 1, 1, 1, 2, 2, 2, 1, 2]);
next = array1d(1..12 ,[2, 8, 11, 10, 6, 7, 3, 4, 12, 9, 1, 5]);
makespan = 886;
----------
assign = array1d(1..12 ,[2, 2, 1, 2, 1, 1, 1, 2, 2, 2, 1, 2]);
next = array1d(1..12 ,[2, 8, 11, 10, 6, 7, 3, 4, 12, 9, 1, 5]);
makespan = 881;
----------
assign = array1d(1..12 ,[2, 2, 1, 2, 1, 1, 1, 2, 2, 2, 1, 2]);
next = array1d(1..12 ,[2, 8, 11, 10, 6, 7, 3, 4, 12, 9, 1, 5]);
makespan = 876;
----------
assign = array1d(1..12 ,[2, 2, 1, 2, 1, 1, 1, 2, 2, 2, 1, 2]);
next = array1d(1..12 ,[2, 8, 11, 10, 6, 7, 3, 4, 12, 9, 1, 5]);
makespan = 875;
----------
assign = array1d(1..12 ,[2, 2, 1, 2, 1, 1, 1, 2, 2, 2, 1, 2]);
next = array1d(1..12 ,[2, 8, 11, 10, 6, 7, 3, 4, 12, 9, 1, 5]);
makespan = 874;
----------
assign = array1d(1..12 ,[2, 2, 1, 2, 1, 1, 1, 2, 2, 2, 1, 2]);
next = array1d(1..12 ,[2, 8, 11, 10, 6, 7, 3, 4, 12, 9, 1, 5]);
makespan = 872;
----------
assign = array1d(1..12 ,[2, 2, 1, 2, 1, 1, 1, 2, 2, 2, 1, 2]);
next = array1d(1..12 ,[2, 8, 11, 10, 6, 7, 3, 4, 12, 9, 1, 5]);
makespan = 869;
----------
assign = array1d(1..12 ,[2, 2, 1, 2, 1, 1, 1, 2, 2, 2, 1, 2]);
next = array1d(1..12 ,[2, 8, 11, 10, 6, 7, 3, 4, 12, 9, 1, 5]);
makespan = 867;
----------
assign = array1d(1..12 ,[2, 2, 1, 2, 1, 1, 1, 2, 2, 2, 1, 2]);
next = array1d(1..12 ,[2, 8, 11, 10, 6, 7, 3, 4, 12, 9, 1, 5]);
makespan = 858;
----------
assign = array1d(1..12 ,[2, 2, 1, 2, 1, 1, 1, 2, 2, 2, 1, 2]);
next = array1d(1..12 ,[2, 8, 11, 10, 6, 7, 3, 4, 12, 9, 1, 5]);
makespan = 856;
----------
assign = array1d(1..12 ,[2, 2, 1, 2, 1, 1, 1, 2, 2, 2, 1, 2]);
next = array1d(1..12 ,[2, 8, 11, 10, 6, 7, 3, 4, 12, 9, 1, 5]);
makespan = 855;
----------
assign = array1d(1..12 ,[2, 2, 1, 2, 1, 1, 1, 2, 2, 2, 1, 2]);
next = array1d(1..12 ,[2, 8, 11, 10, 6, 7, 3, 4, 12, 9, 1, 5]);
makespan = 854;
----------
assign = array1d(1..12 ,[2, 2, 1, 2, 1, 1, 1, 2, 2, 2, 1, 2]);
next = array1d(1..12 ,[2, 8, 11, 10, 6, 7, 3, 4, 12, 9, 1, 5]);
makespan = 853;
----------
assign = array1d(1..12 ,[2, 2, 1, 2, 1, 1, 1, 2, 2, 2, 1, 2]);
next = array1d(1..12 ,[2, 8, 11, 10, 6, 7, 3, 4, 12, 9, 1, 5]);
makespan = 852;
----------
assign = array1d(1..12 ,[2, 2, 1, 2, 1, 1, 1, 2, 2, 2, 1, 2]);
next = array1d(1..12 ,[2, 8, 11, 10, 6, 7, 3, 4, 12, 9, 1, 5]);
makespan = 851;
----------
assign = array1d(1..12 ,[2, 2, 1, 2, 1, 1, 1, 2, 2, 2, 1, 2]);
next = array1d(1..12 ,[2, 8, 11, 10, 6, 7, 3, 4, 12, 9, 1, 5]);
makespan = 850;
----------
assign = array1d(1..12 ,[2, 2, 1, 2, 1, 1, 1, 2, 2, 2, 1, 2]);
next = array1d(1..12 ,[2, 8, 11, 10, 6, 7, 3, 4, 12, 9, 1, 5]);
makespan = 849;
----------
assign = array1d(1..12 ,[2, 2, 1, 2, 1, 1, 1, 2, 2, 2, 1, 2]);
next = array1d(1..12 ,[2, 8, 11, 10, 6, 7, 3, 4, 12, 9, 1, 5]);
makespan = 848;
----------
assign = array1d(1..12 ,[2, 2, 1, 2, 1, 1, 1, 2, 2, 2, 1, 2]);
next = array1d(1..12 ,[2, 8, 11, 10, 6, 7, 3, 4, 12, 9, 1, 5]);
makespan = 847;
----------
assign = array1d(1..12 ,[2, 2, 1, 2, 1, 1, 1, 2, 2, 2, 1, 2]);
next = array1d(1..12 ,[2, 8, 11, 10, 6, 7, 3, 4, 12, 9, 1, 5]);
makespan = 845;
----------
assign = array1d(1..12 ,[2, 2, 1, 2, 1, 1, 1, 2, 2, 2, 1, 2]);
next = array1d(1..12 ,[2, 8, 11, 10, 6, 7, 3, 4, 12, 9, 1, 5]);
makespan = 842;
----------
assign = array1d(1..12 ,[2, 2, 1, 2, 1, 1, 1, 2, 2, 2, 1, 2]);
next = array1d(1..12 ,[2, 8, 11, 10, 6, 7, 3, 4, 12, 9, 1, 5]);
makespan = 837;
----------
assign = array1d(1..12 ,[2, 2, 1, 2, 1, 1, 1, 2, 2, 2, 1, 2]);
next = array1d(1..12 ,[2, 8, 11, 10, 6, 7, 3, 4, 12, 9, 1, 5]);
makespan = 833;
----------
assign = array1d(1..12 ,[2, 2, 1, 2, 1, 1, 1, 2, 2, 2, 1, 2]);
next = array1d(1..12 ,[2, 8, 11, 10, 6, 7, 3, 4, 12, 9, 1, 5]);
makespan = 832;
----------
assign = array1d(1..12 ,[2, 2, 1, 2, 1, 1, 1, 2, 2, 2, 1, 2]);
next = array1d(1..12 ,[2, 8, 11, 10, 6, 7, 3, 4, 12, 9, 1, 5]);
makespan = 827;
----------
assign = array1d(1..12 ,[2, 2, 1, 2, 1, 1, 1, 2, 2, 2, 1, 2]);
next = array1d(1..12 ,[2, 8, 11, 10, 6, 7, 3, 4, 12, 9, 1, 5]);
makespan = 825;
----------
assign = array1d(1..12 ,[2, 2, 1, 2, 1, 1, 1, 2, 2, 2, 1, 2]);
next = array1d(1..12 ,[2, 8, 11, 10, 6, 7, 3, 4, 12, 9, 1, 5]);
makespan = 824;
----------
assign = array1d(1..12 ,[2, 2, 1, 2, 1, 1, 1, 2, 2, 2, 1, 2]);
next = array1d(1..12 ,[2, 8, 11, 10, 6, 7, 3, 4, 12, 9, 1, 5]);
makespan = 813;
----------
assign = array1d(1..12 ,[2, 2, 1, 2, 1, 1, 1, 2, 2, 2, 1, 2]);
next = array1d(1..12 ,[2, 8, 11, 10, 6, 7, 3, 4, 12, 9, 1, 5]);
makespan = 803;
----------
assign = array1d(1..12 ,[2, 2, 1, 2, 1, 1, 1, 2, 2, 2, 1, 2]);
next = array1d(1..12 ,[2, 12, 11, 10, 6, 7, 3, 4, 8, 1, 9, 5]);
makespan = 802;
----------
assign = array1d(1..12 ,[2, 2, 1, 2, 1, 1, 1, 2, 2, 2, 1, 2]);
next = array1d(1..12 ,[2, 12, 11, 10, 6, 7, 3, 4, 8, 1, 9, 5]);
makespan = 800;
----------
assign = array1d(1..12 ,[2, 2, 1, 2, 1, 1, 1, 2, 2, 2, 1, 2]);
next = array1d(1..12 ,[2, 12, 11, 10, 6, 7, 3, 4, 8, 1, 9, 5]);
makespan = 796;
----------
assign = array1d(1..12 ,[2, 2, 1, 2, 1, 1, 1, 2, 2, 2, 1, 2]);
next = array1d(1..12 ,[2, 12, 11, 10, 6, 7, 3, 4, 8, 1, 9, 5]);
makespan = 795;
----------
assign = array1d(1..12 ,[2, 2, 1, 2, 1, 1, 1, 2, 2, 2, 1, 2]);
next = array1d(1..12 ,[2, 12, 11, 10, 6, 7, 3, 4, 8, 1, 9, 5]);
makespan = 793;
----------
assign = array1d(1..12 ,[2, 2, 1, 2, 1, 1, 1, 2, 2, 2, 1, 2]);
next = array1d(1..12 ,[2, 12, 11, 10, 6, 7, 3, 4, 8, 1, 9, 5]);
makespan = 791;
----------
assign = array1d(1..12 ,[2, 2, 1, 2, 1, 1, 1, 2, 2, 2, 1, 2]);
next = array1d(1..12 ,[2, 12, 11, 10, 6, 7, 3, 4, 8, 1, 9, 5]);
makespan = 788;
----------
assign = array1d(1..12 ,[2, 2, 1, 2, 1, 1, 1, 2, 2, 2, 1, 2]);
next = array1d(1..12 ,[2, 12, 11, 10, 6, 7, 3, 4, 8, 1, 9, 5]);
makespan = 785;
----------
assign = array1d(1..12 ,[2, 2, 1, 2, 1, 1, 1, 2, 2, 2, 1, 2]);
next = array1d(1..12 ,[2, 12, 11, 10, 6, 7, 3, 4, 8, 1, 9, 5]);
makespan = 782;
----------
assign = array1d(1..12 ,[2, 2, 1, 2, 1, 1, 1, 2, 2, 2, 1, 2]);
next = array1d(1..12 ,[2, 9, 11, 10, 6, 7, 3, 4, 12, 1, 8, 5]);
makespan = 780;
----------
assign = array1d(1..12 ,[2, 2, 1, 2, 1, 1, 1, 2, 2, 2, 1, 2]);
next = array1d(1..12 ,[2, 9, 11, 10, 6, 7, 3, 4, 12, 1, 8, 5]);
makespan = 775;
----------
assign = array1d(1..12 ,[2, 2, 1, 2, 1, 1, 1, 2, 2, 2, 1, 2]);
next = array1d(1..12 ,[2, 9, 6, 10, 3, 7, 11, 4, 12, 1, 8, 5]);
makespan = 738;
----------
assign = array1d(1..12 ,[2, 2, 1, 2, 1, 1, 1, 2, 1, 2, 1, 2]);
next = array1d(1..12 ,[2, 8, 7, 10, 3, 5, 9, 4, 11, 12, 1, 6]);
makespan = 721;
----------
assign = array1d(1..12 ,[2, 2, 1, 2, 1, 1, 1, 2, 1, 2, 1, 2]);
next = array1d(1..12 ,[2, 8, 7, 10, 3, 5, 9, 4, 11, 12, 1, 6]);
makespan = 714;
----------
assign = array1d(1..12 ,[2, 2, 1, 2, 1, 1, 1, 2, 1, 2, 1, 2]);
next = array1d(1..12 ,[2, 8, 7, 10, 3, 5, 9, 4, 11, 12, 1, 6]);
makespan = 713;
----------
assign = array1d(1..12 ,[2, 2, 1, 2, 1, 1, 1, 2, 1, 2, 1, 2]);
next = array1d(1..12 ,[2, 8, 7, 10, 3, 5, 9, 4, 11, 12, 1, 6]);
makespan = 706;
----------
assign = array1d(1..12 ,[2, 2, 1, 2, 1, 1, 1, 2, 1, 2, 1, 2]);
next = array1d(1..12 ,[2, 8, 7, 10, 3, 5, 9, 4, 11, 12, 1, 6]);
makespan = 702;
----------
assign = array1d(1..12 ,[2, 2, 1, 2, 1, 1, 1, 2, 1, 2, 1, 2]);
next = array1d(1..12 ,[2, 8, 7, 10, 3, 5, 9, 4, 11, 12, 1, 6]);
makespan = 699;
----------
assign = array1d(1..12 ,[2, 2, 1, 2, 1, 1, 1, 2, 1, 2, 1, 2]);
next = array1d(1..12 ,[2, 8, 7, 10, 3, 5, 9, 4, 11, 12, 1, 6]);
makespan = 698;
----------
assign = array1d(1..12 ,[2, 2, 1, 2, 1, 1, 1, 2, 1, 2, 1, 2]);
next = array1d(1..12 ,[2, 8, 7, 10, 3, 5, 9, 4, 11, 12, 1, 6]);
makespan = 689;
----------
assign = array1d(1..12 ,[2, 2, 1, 2, 1, 1, 1, 2, 1, 2, 1, 2]);
next = array1d(1..12 ,[2, 8, 7, 10, 3, 11, 9, 4, 6, 12, 1, 5]);
makespan = 686;
----------
assign = array1d(1..12 ,[2, 2, 1, 2, 1, 1, 1, 2, 1, 2, 1, 2]);
next = array1d(1..12 ,[2, 8, 7, 10, 6, 11, 9, 4, 5, 12, 1, 3]);
makespan = 685;
----------
assign = array1d(1..12 ,[1, 2, 2, 2, 1, 1, 2, 2, 1, 1, 1, 2]);
next = array1d(1..12 ,[9, 8, 12, 7, 1, 11, 3, 4, 10, 6, 2, 5]);
makespan = 684;
----------
assign = array1d(1..12 ,[1, 2, 2, 2, 1, 1, 2, 2, 1, 1, 1, 2]);
next = array1d(1..12 ,[10, 8, 2, 7, 1, 5, 12, 4, 6, 11, 3, 9]);
makespan = 682;
----------
assign = array1d(1..12 ,[1, 2, 2, 1, 1, 1, 1, 2, 2, 2, 1, 2]);
next = array1d(1..12 ,[7, 8, 2, 1, 11, 5, 6, 12, 10, 3, 9, 4]);
makespan = 680;
----------
assign = array1d(1..12 ,[1, 2, 2, 1, 2, 2, 1, 2, 1, 1, 1, 2]);
next = array1d(1..12 ,[9, 8, 2, 1, 3, 5, 11, 12, 10, 7, 6, 4]);
makespan = 679;
----------
assign = array1d(1..12 ,[1, 2, 2, 1, 2, 2, 1, 2, 1, 1, 1, 2]);
next = array1d(1..12 ,[9, 8, 2, 1, 3, 5, 11, 12, 10, 7, 6, 4]);
makespan = 678;
----------
assign = array1d(1..12 ,[1, 2, 2, 1, 2, 2, 1, 2, 1, 1, 1, 2]);
next = array1d(1..12 ,[9, 8, 2, 1, 3, 5, 11, 12, 10, 7, 6, 4]);
makespan = 677;
----------
assign = array1d(1..12 ,[1, 2, 2, 1, 2, 2, 1, 2, 1, 1, 1, 2]);
next = array1d(1..12 ,[9, 8, 2, 1, 3, 5, 11, 12, 10, 7, 6, 4]);
makespan = 676;
----------
assign = array1d(1..12 ,[1, 2, 2, 1, 2, 2, 1, 2, 1, 1, 1, 2]);
next = array1d(1..12 ,[9, 8, 2, 1, 3, 5, 11, 12, 10, 7, 6, 4]);
makespan = 675;
----------
assign = array1d(1..12 ,[1, 2, 2, 1, 2, 2, 1, 2, 1, 1, 1, 2]);
next = array1d(1..12 ,[9, 8, 2, 1, 3, 5, 11, 12, 10, 7, 6, 4]);
makespan = 674;
----------
assign = array1d(1..12 ,[1, 2, 2, 1, 2, 2, 1, 2, 1, 1, 1, 2]);
next = array1d(1..12 ,[9, 8, 2, 1, 3, 5, 11, 12, 7, 4, 6, 10]);
makespan = 673;
----------
assign = array1d(1..12 ,[1, 2, 1, 1, 2, 2, 1, 2, 1, 2, 1, 2]);
next = array1d(1..12 ,[9, 8, 4, 1, 12, 5, 3, 10, 11, 6, 2, 7]);
makespan = 672;
----------
assign = array1d(1..12 ,[1, 2, 2, 1, 2, 2, 1, 1, 2, 1, 1, 2]);
next = array1d(1..12 ,[10, 3, 6, 1, 9, 12, 4, 7, 2, 11, 5, 8]);
makespan = 671;
----------
assign = array1d(1..12 ,[1, 2, 2, 1, 2, 1, 1, 1, 2, 2, 1, 2]);
next = array1d(1..12 ,[11, 3, 12, 1, 9, 4, 6, 7, 10, 2, 5, 8]);
makespan = 670;
----------
assign = array1d(1..12 ,[1, 2, 2, 1, 2, 1, 1, 1, 2, 2, 1, 2]);
next = array1d(1..12 ,[11, 3, 12, 1, 9, 4, 6, 7, 10, 2, 5, 8]);
makespan = 669;
----------
assign = array1d(1..12 ,[1, 2, 2, 1, 2, 1, 1, 1, 2, 2, 1, 2]);
next = array1d(1..12 ,[11, 3, 12, 1, 9, 4, 6, 7, 10, 2, 5, 8]);
makespan = 668;
----------
assign = array1d(1..12 ,[1, 2, 2, 1, 2, 1, 1, 1, 2, 2, 1, 2]);
next = array1d(1..12 ,[11, 3, 12, 1, 9, 4, 6, 7, 10, 2, 5, 8]);
makespan = 667;
----------
assign = array1d(1..12 ,[1, 2, 2, 1, 2, 1, 1, 1, 2, 2, 1, 2]);
next = array1d(1..12 ,[11, 3, 12, 1, 9, 4, 6, 7, 10, 2, 5, 8]);
makespan = 666;
----------
assign = array1d(1..12 ,[1, 2, 2, 1, 2, 1, 1, 1, 2, 2, 1, 2]);
next = array1d(1..12 ,[11, 3, 12, 1, 9, 4, 6, 7, 10, 2, 5, 8]);
makespan = 665;
----------
assign = array1d(1..12 ,[1, 2, 2, 1, 2, 1, 1, 1, 2, 2, 1, 2]);
next = array1d(1..12 ,[11, 3, 12, 1, 9, 4, 6, 7, 10, 2, 5, 8]);
makespan = 664;
----------
assign = array1d(1..12 ,[1, 2, 2, 1, 2, 1, 1, 1, 2, 2, 1, 2]);
next = array1d(1..12 ,[11, 3, 12, 1, 9, 4, 6, 7, 10, 2, 5, 8]);
makespan = 663;
----------
assign = array1d(1..12 ,[1, 2, 2, 2, 1, 1, 2, 1, 1, 2, 1, 2]);
next = array1d(1..12 ,[9, 3, 7, 10, 1, 8, 12, 5, 11, 2, 4, 6]);
makespan = 662;
----------
assign = array1d(1..12 ,[1, 2, 1, 2, 2, 2, 1, 2, 1, 1, 1, 2]);
next = array1d(1..12 ,[9, 12, 7, 2, 6, 4, 11, 5, 3, 1, 8, 10]);
makespan = 661;
----------
assign = array1d(1..12 ,[1, 1, 1, 2, 2, 1, 2, 2, 1, 2, 1, 2]);
next = array1d(1..12 ,[3, 11, 9, 7, 12, 1, 8, 10, 2, 5, 4, 6]);
makespan = 660;
----------
assign = array1d(1..12 ,[1, 2, 2, 1, 2, 1, 1, 2, 1, 2, 1, 2]);
next = array1d(1..12 ,[11, 5, 8, 1, 10, 9, 4, 12, 7, 3, 2, 6]);
makespan = 659;
----------
assign = array1d(1..12 ,[1, 2, 2, 1, 2, 1, 1, 2, 1, 2, 1, 2]);
next = array1d(1..12 ,[7, 5, 8, 9, 10, 4, 6, 12, 11, 3, 2, 1]);
makespan = 658;
----------
assign = array1d(1..12 ,[2, 1, 1, 2, 1, 1, 2, 2, 1, 2, 1, 2]);
next = array1d(1..12 ,[8, 6, 9, 7, 3, 11, 12, 10, 2, 4, 1, 5]);
makespan = 657;
----------
assign = array1d(1..12 ,[1, 2, 2, 1, 2, 2, 1, 2, 1, 1, 1, 2]);
next = array1d(1..12 ,[7, 3, 12, 1, 8, 2, 9, 6, 11, 4, 5, 10]);
makespan = 656;
----------
assign = array1d(1..12 ,[1, 2, 2, 1, 2, 1, 1, 2, 1, 2, 1, 2]);
next = array1d(1..12 ,[9, 3, 10, 1, 8, 11, 4, 12, 6, 5, 2, 7]);
makespan = 655;
----------
assign = array1d(1..12 ,[1, 2, 2, 1, 2, 1, 1, 2, 1, 2, 1, 2]);
next = array1d(1..12 ,[7, 3, 10, 1, 8, 11, 6, 12, 4, 5, 2, 9]);
makespan = 654;
----------
assign = array1d(1..12 ,[1, 2, 2, 1, 2, 1, 1, 2, 2, 1, 1, 2]);
next = array1d(1..12 ,[10, 3, 12, 11, 9, 4, 6, 5, 2, 7, 8, 1]);
makespan = 653;
----------
assign = array1d(1..12 ,[1, 2, 2, 1, 2, 2, 1, 2, 1, 1, 1, 2]);
next = array1d(1..12 ,[10, 3, 12, 1, 6, 2, 9, 5, 11, 7, 8, 4]);
makespan = 652;
----------
assign = array1d(1..12 ,[1, 2, 2, 1, 2, 2, 1, 2, 1, 1, 1, 2]);
next = array1d(1..12 ,[9, 3, 8, 1, 6, 12, 4, 5, 11, 7, 2, 10]);
makespan = 651;
----------
assign = array1d(1..12 ,[1, 2, 1, 2, 1, 2, 2, 2, 1, 1, 1, 2]);
next = array1d(1..12 ,[10, 8, 9, 6, 1, 2, 4, 12, 5, 11, 7, 3]);
makespan = 650;
----------
assign = array1d(1..12 ,[1, 1, 1, 1, 2, 2, 1, 2, 2, 2, 1, 2]);
next = array1d(1..12 ,[11, 4, 7, 1, 12, 5, 2, 6, 10, 8, 9, 3]);
makespan = 649;
----------
assign = array1d(1..12 ,[1, 1, 1, 1, 2, 2, 2, 2, 1, 2, 1, 2]);
next = array1d(1..12 ,[11, 4, 9, 1, 7, 5, 10, 6, 2, 12, 8, 3]);
makespan = 648;
----------
assign = array1d(1..12 ,[1, 1, 1, 1, 2, 2, 2, 2, 1, 2, 1, 2]);
next = array1d(1..12 ,[11, 4, 9, 1, 8, 5, 10, 7, 2, 12, 6, 3]);
makespan = 647;
----------
assign = array1d(1..12 ,[1, 2, 2, 2, 2, 1, 1, 2, 1, 1, 1, 2]);
next = array1d(1..12 ,[9, 4, 12, 5, 8, 11, 6, 3, 7, 1, 2, 10]);
makespan = 646;
----------
assign = array1d(1..12 ,[1, 2, 2, 2, 2, 1, 1, 2, 1, 1, 1, 2]);
next = array1d(1..12 ,[9, 4, 12, 8, 3, 11, 6, 5, 7, 1, 2, 10]);
makespan = 645;
----------
assign = array1d(1..12 ,[1, 2, 2, 1, 2, 1, 1, 2, 1, 2, 1, 2]);
next = array1d(1..12 ,[7, 12, 2, 1, 3, 11, 6, 5, 4, 8, 10, 9]);
makespan = 644;
----------
assign = array1d(1..12 ,[1, 2, 2, 1, 2, 1, 1, 2, 1, 2, 1, 2]);
next = array1d(1..12 ,[7, 12, 2, 1, 3, 9, 6, 5, 11, 8, 10, 4]);
makespan = 643;
----------
assign = array1d(1..12 ,[1, 1, 2, 2, 2, 1, 1, 2, 1, 2, 1, 2]);
next = array1d(1..12 ,[7, 6, 10, 12, 4, 9, 2, 5, 11, 8, 3, 1]);
makespan = 642;
----------
assign = array1d(1..12 ,[1, 1, 2, 1, 2, 1, 1, 2, 2, 2, 1, 2]);
next = array1d(1..12 ,[7, 4, 10, 1, 9, 11, 6, 12, 8, 5, 3, 2]);
makespan = 641;
----------
assign = array1d(1..12 ,[1, 1, 2, 1, 2, 1, 1, 2, 2, 2, 1, 2]);
next = array1d(1..12 ,[7, 4, 10, 1, 3, 11, 6, 5, 8, 12, 9, 2]);
makespan = 640;
----------
assign = array1d(1..12 ,[1, 1, 2, 1, 2, 1, 1, 2, 2, 2, 1, 2]);
next = array1d(1..12 ,[7, 4, 10, 1, 9, 11, 6, 12, 8, 5, 3, 2]);
makespan = 639;
----------
assign = array1d(1..12 ,[1, 1, 2, 1, 2, 2, 1, 2, 1, 2, 1, 2]);
next = array1d(1..12 ,[11, 4, 10, 1, 6, 12, 2, 5, 7, 8, 3, 9]);
makespan = 638;
----------
assign = array1d(1..12 ,[1, 1, 2, 1, 2, 2, 1, 2, 1, 2, 1, 2]);
next = array1d(1..12 ,[11, 4, 10, 1, 8, 5, 2, 3, 7, 12, 6, 9]);
makespan = 637;
----------
assign = array1d(1..12 ,[1, 2, 1, 1, 2, 2, 1, 2, 1, 2, 1, 2]);
next = array1d(1..12 ,[7, 6, 9, 1, 8, 5, 3, 10, 11, 12, 2, 4]);
makespan = 636;
----------
assign = array1d(1..12 ,[1, 2, 2, 1, 2, 1, 1, 2, 1, 2, 1, 2]);
next = array1d(1..12 ,[7, 8, 10, 1, 3, 9, 6, 5, 11, 12, 2, 4]);
makespan = 635;
----------
assign = array1d(1..12 ,[1, 1, 2, 1, 2, 1, 1, 2, 2, 2, 1, 2]);
next = array1d(1..12 ,[7, 4, 8, 1, 9, 11, 6, 5, 10, 12, 3, 2]);
makespan = 634;
----------
assign = array1d(1..12 ,[1, 1, 2, 2, 1, 1, 2, 2, 1, 2, 1, 2]);
next = array1d(1..12 ,[9, 6, 10, 8, 1, 11, 4, 12, 2, 7, 3, 5]);
makespan = 633;
----------
assign = array1d(1..12 ,[1, 1, 2, 2, 1, 1, 2, 2, 1, 2, 1, 2]);
next = array1d(1..12 ,[9, 6, 10, 8, 1, 11, 4, 12, 2, 7, 3, 5]);
makespan = 632;
----------
assign = array1d(1..12 ,[1, 1, 2, 2, 1, 1, 2, 2, 1, 2, 1, 2]);
next = array1d(1..12 ,[9, 6, 10, 12, 1, 11, 4, 7, 2, 8, 3, 5]);
makespan = 631;
----------
assign = array1d(1..12 ,[1, 1, 2, 2, 1, 1, 2, 2, 1, 2, 1, 2]);
next = array1d(1..12 ,[9, 6, 10, 8, 1, 11, 4, 12, 2, 7, 3, 5]);
makespan = 630;
----------
assign = array1d(1..12 ,[1, 1, 2, 2, 1, 1, 2, 2, 1, 2, 1, 2]);
next = array1d(1..12 ,[9, 6, 10, 7, 1, 11, 8, 12, 2, 4, 3, 5]);
makespan = 629;
----------
assign = array1d(1..12 ,[1, 2, 2, 1, 2, 1, 1, 2, 1, 2, 1, 2]);
next = array1d(1..12 ,[9, 10, 2, 1, 8, 4, 6, 12, 11, 5, 3, 7]);
makespan = 628;
----------
assign = array1d(1..12 ,[1, 2, 2, 1, 2, 1, 1, 2, 1, 2, 1, 2]);
next = array1d(1..12 ,[9, 3, 10, 1, 12, 4, 6, 5, 11, 8, 2, 7]);
makespan = 627;
----------
assign = array1d(1..12 ,[1, 2, 1, 2, 2, 1, 1, 2, 1, 2, 1, 2]);
next = array1d(1..12 ,[9, 4, 7, 10, 12, 11, 6, 5, 3, 8, 2, 1]);
makespan = 626;
----------
assign = array1d(1..12 ,[1, 2, 2, 1, 2, 1, 1, 2, 1, 2, 1, 2]);
next = array1d(1..12 ,[7, 5, 10, 1, 12, 9, 6, 2, 11, 8, 3, 4]);
makespan = 625;
----------
assign = array1d(1..12 ,[1, 1, 2, 1, 2, 2, 1, 2, 1, 2, 1, 2]);
next = array1d(1..12 ,[9, 4, 10, 1, 8, 5, 2, 12, 11, 6, 3, 7]);
makespan = 624;
----------
assign = array1d(1..12 ,[1, 2, 1, 2, 2, 1, 1, 2, 1, 2, 1, 2]);
next = array1d(1..12 ,[9, 4, 7, 10, 12, 11, 6, 5, 3, 8, 2, 1]);
makespan = 623;
----------
assign = array1d(1..12 ,[1, 1, 2, 1, 2, 2, 1, 2, 1, 2, 1, 2]);
next = array1d(1..12 ,[7, 4, 10, 1, 8, 12, 11, 6, 2, 5, 3, 9]);
makespan = 622;
----------
assign = array1d(1..12 ,[1, 1, 2, 1, 2, 2, 1, 2, 1, 2, 1, 2]);
next = array1d(1..12 ,[7, 4, 10, 1, 8, 5, 11, 12, 2, 6, 3, 9]);
makespan = 621;
----------
assign = array1d(1..12 ,[1, 1, 2, 1, 2, 2, 1, 2, 1, 2, 1, 2]);
next = array1d(1..12 ,[7, 4, 10, 1, 8, 5, 11, 12, 2, 6, 3, 9]);
makespan = 620;
----------
assign = array1d(1..12 ,[1, 1, 2, 1, 2, 2, 1, 2, 1, 2, 1, 2]);
next = array1d(1..12 ,[7, 4, 10, 1, 8, 12, 11, 6, 2, 5, 3, 9]);
makespan = 619;
----------
assign = array1d(1..12 ,[1, 1, 2, 1, 2, 2, 1, 2, 1, 2, 1, 2]);
next = array1d(1..12 ,[7, 4, 10, 1, 8, 12, 11, 6, 2, 5, 3, 9]);
makespan = 618;
----------
assign = array1d(1..12 ,[1, 1, 2, 1, 2, 2, 1, 2, 1, 2, 1, 2]);
next = array1d(1..12 ,[7, 4, 10, 1, 8, 12, 11, 6, 2, 5, 3, 9]);
makespan = 617;
----------
==========
	Command being timed: "mzn-chuffed lbbd-datasets/Rabadi-2006/dzn-balanced/model.mzn lbbd-datasets/Rabadi-2006/dzn-balanced/10on2Rp50Rs50_13Ameer.dzn"
	User time (seconds): 0.53
	System time (seconds): 0.02
	Percent of CPU this job got: 0%
	Elapsed (wall clock) time (h:mm:ss or m:ss): 3:35.26
	Average shared text size (kbytes): 0
	Average unshared data size (kbytes): 0
	Average stack size (kbytes): 0
	Average total size (kbytes): 0
	Maximum resident set size (kbytes): 39872
	Average resident set size (kbytes): 0
	Major (requiring I/O) page faults: 0
	Minor (reclaiming a frame) page faults: 3543
	Voluntary context switches: 447
	Involuntary context switches: 8
	Swaps: 0
	File system inputs: 0
	File system outputs: 424
	Socket messages sent: 0
	Socket messages received: 0
	Signals delivered: 0
	Page size (bytes): 4096
	Exit status: 0
