+ /usr/bin/timeout 600 /usr/bin/time -v mzn-chuffed lbbd-datasets/planningandscheduling/cost-insts/model.mzn lbbd-datasets/planningandscheduling/cost-insts/de26j3m4.dzn
% No search annotation given. Defaulting to VSIDS!
obj = 997
----------
obj = 992
----------
obj = 952
----------
obj = 945
----------
obj = 934
----------
obj = 926
----------
obj = 925
----------
obj = 919
----------
obj = 918
----------
obj = 915
----------
obj = 912
----------
obj = 903
----------
obj = 900
----------
obj = 895
----------
obj = 892
----------
obj = 888
----------
obj = 885
----------
obj = 884
----------
obj = 881
----------
obj = 878
----------
obj = 877
----------
obj = 874
----------
obj = 871
----------
obj = 868
----------
obj = 865
----------
obj = 863
----------
obj = 854
----------
obj = 851
----------
obj = 844
----------
obj = 832
----------
obj = 829
----------
obj = 820
----------
obj = 819
----------
obj = 817
----------
obj = 811
----------
obj = 810
----------
obj = 808
----------
obj = 807
----------
obj = 804
----------
obj = 796
----------
obj = 792
----------
obj = 789
----------
obj = 787
----------
obj = 776
----------
obj = 762
----------
obj = 761
----------
obj = 755
----------
obj = 753
----------
obj = 750
----------
obj = 746
----------
obj = 745
----------
obj = 744
----------
obj = 742
----------
obj = 725
----------
obj = 723
----------
obj = 709
----------
obj = 702
----------
obj = 694
----------
obj = 682
----------
obj = 680
----------
obj = 677
----------
obj = 674
----------
obj = 669
----------
obj = 666
----------
obj = 660
----------
obj = 656
----------
obj = 650
----------
obj = 644
----------
obj = 643
----------
obj = 641
----------
obj = 639
----------
obj = 636
----------
obj = 633
----------
obj = 629
----------
obj = 628
----------
obj = 626
----------
obj = 625
----------
obj = 624
----------
obj = 622
----------
obj = 621
----------
obj = 620
----------
obj = 619
----------
obj = 618
----------
obj = 616
----------
obj = 614
----------
obj = 613
----------
obj = 612
----------
obj = 609
----------
obj = 607
----------
obj = 606
----------
obj = 605
----------
obj = 604
----------
obj = 602
----------
obj = 601
----------
obj = 600
----------
==========
	Command being timed: "mzn-chuffed lbbd-datasets/planningandscheduling/cost-insts/model.mzn lbbd-datasets/planningandscheduling/cost-insts/de26j3m4.dzn"
	User time (seconds): 0.28
	System time (seconds): 0.01
	Percent of CPU this job got: 15%
	Elapsed (wall clock) time (h:mm:ss or m:ss): 0:01.88
	Average shared text size (kbytes): 0
	Average unshared data size (kbytes): 0
	Average stack size (kbytes): 0
	Average total size (kbytes): 0
	Maximum resident set size (kbytes): 29664
	Average resident set size (kbytes): 0
	Major (requiring I/O) page faults: 0
	Minor (reclaiming a frame) page faults: 2567
	Voluntary context switches: 101
	Involuntary context switches: 2
	Swaps: 0
	File system inputs: 0
	File system outputs: 120
	Socket messages sent: 0
	Socket messages received: 0
	Signals delivered: 0
	Page size (bytes): 4096
	Exit status: 0
