+ /usr/bin/timeout 600 /usr/bin/time -v mzn-chuffed lbbd-datasets/Rabadi-2006/dzn-s-dominant/model.mzn lbbd-datasets/Rabadi-2006/dzn-s-dominant/7on2Rp50Rs50_12Ameer.dzn
% No search annotation given. Defaulting to VSIDS!
assign = array1d(1..9 ,[2, 2, 2, 2, 2, 2, 2, 1, 2]);
next = array1d(1..9 ,[2, 3, 4, 5, 6, 7, 9, 1, 8]);
makespan = 1472;
----------
assign = array1d(1..9 ,[2, 2, 2, 2, 2, 2, 2, 1, 2]);
next = array1d(1..9 ,[3, 4, 2, 5, 6, 7, 9, 1, 8]);
makespan = 1465;
----------
assign = array1d(1..9 ,[2, 2, 2, 2, 1, 2, 2, 1, 2]);
next = array1d(1..9 ,[2, 6, 4, 1, 8, 7, 9, 3, 5]);
makespan = 1396;
----------
assign = array1d(1..9 ,[2, 2, 2, 2, 2, 2, 1, 1, 2]);
next = array1d(1..9 ,[3, 6, 4, 9, 2, 1, 8, 5, 7]);
makespan = 1378;
----------
assign = array1d(1..9 ,[2, 2, 2, 2, 2, 2, 1, 1, 2]);
next = array1d(1..9 ,[3, 6, 4, 9, 2, 1, 8, 5, 7]);
makespan = 1377;
----------
assign = array1d(1..9 ,[2, 2, 2, 2, 2, 2, 1, 1, 2]);
next = array1d(1..9 ,[3, 6, 4, 9, 2, 1, 8, 5, 7]);
makespan = 1375;
----------
assign = array1d(1..9 ,[2, 2, 2, 2, 2, 2, 1, 1, 2]);
next = array1d(1..9 ,[3, 6, 4, 9, 2, 1, 8, 5, 7]);
makespan = 1367;
----------
assign = array1d(1..9 ,[2, 2, 2, 2, 2, 2, 1, 1, 2]);
next = array1d(1..9 ,[3, 6, 4, 9, 2, 1, 8, 5, 7]);
makespan = 1352;
----------
assign = array1d(1..9 ,[2, 2, 2, 2, 2, 2, 1, 1, 2]);
next = array1d(1..9 ,[3, 6, 4, 9, 2, 1, 8, 5, 7]);
makespan = 1346;
----------
assign = array1d(1..9 ,[2, 2, 2, 2, 2, 2, 1, 1, 2]);
next = array1d(1..9 ,[3, 6, 4, 9, 2, 1, 8, 5, 7]);
makespan = 1333;
----------
assign = array1d(1..9 ,[2, 2, 2, 2, 2, 2, 1, 1, 2]);
next = array1d(1..9 ,[3, 6, 4, 9, 2, 1, 8, 5, 7]);
makespan = 1328;
----------
assign = array1d(1..9 ,[2, 2, 2, 2, 2, 2, 1, 1, 2]);
next = array1d(1..9 ,[3, 6, 4, 9, 2, 1, 8, 5, 7]);
makespan = 1327;
----------
assign = array1d(1..9 ,[2, 2, 2, 2, 2, 2, 1, 1, 2]);
next = array1d(1..9 ,[3, 6, 4, 9, 2, 1, 8, 5, 7]);
makespan = 1325;
----------
assign = array1d(1..9 ,[2, 2, 2, 2, 2, 2, 1, 1, 2]);
next = array1d(1..9 ,[3, 6, 4, 9, 2, 1, 8, 5, 7]);
makespan = 1317;
----------
assign = array1d(1..9 ,[2, 2, 2, 2, 2, 2, 1, 1, 2]);
next = array1d(1..9 ,[3, 6, 4, 9, 2, 1, 8, 5, 7]);
makespan = 1315;
----------
assign = array1d(1..9 ,[2, 2, 2, 2, 2, 2, 1, 1, 2]);
next = array1d(1..9 ,[3, 6, 4, 9, 2, 1, 8, 5, 7]);
makespan = 1314;
----------
assign = array1d(1..9 ,[2, 2, 2, 2, 2, 2, 1, 1, 2]);
next = array1d(1..9 ,[3, 6, 4, 9, 2, 1, 8, 5, 7]);
makespan = 1312;
----------
assign = array1d(1..9 ,[2, 2, 2, 2, 2, 2, 1, 1, 2]);
next = array1d(1..9 ,[3, 6, 4, 9, 2, 1, 8, 5, 7]);
makespan = 1309;
----------
assign = array1d(1..9 ,[2, 2, 2, 2, 2, 2, 1, 1, 2]);
next = array1d(1..9 ,[3, 6, 4, 9, 2, 1, 8, 5, 7]);
makespan = 1308;
----------
assign = array1d(1..9 ,[2, 2, 2, 2, 2, 2, 1, 1, 2]);
next = array1d(1..9 ,[3, 6, 4, 9, 2, 1, 8, 5, 7]);
makespan = 1306;
----------
assign = array1d(1..9 ,[2, 2, 2, 2, 2, 2, 1, 1, 2]);
next = array1d(1..9 ,[3, 6, 4, 9, 2, 1, 8, 5, 7]);
makespan = 1304;
----------
assign = array1d(1..9 ,[2, 2, 2, 2, 2, 2, 1, 1, 2]);
next = array1d(1..9 ,[3, 6, 4, 9, 2, 1, 8, 5, 7]);
makespan = 1298;
----------
assign = array1d(1..9 ,[2, 2, 2, 2, 2, 2, 1, 1, 2]);
next = array1d(1..9 ,[3, 6, 4, 9, 2, 1, 8, 5, 7]);
makespan = 1290;
----------
assign = array1d(1..9 ,[2, 2, 2, 2, 2, 2, 1, 1, 2]);
next = array1d(1..9 ,[3, 6, 4, 9, 2, 1, 8, 5, 7]);
makespan = 1288;
----------
assign = array1d(1..9 ,[2, 2, 2, 2, 2, 2, 1, 1, 2]);
next = array1d(1..9 ,[3, 6, 4, 9, 2, 1, 8, 5, 7]);
makespan = 1287;
----------
assign = array1d(1..9 ,[2, 2, 2, 2, 2, 2, 1, 1, 2]);
next = array1d(1..9 ,[3, 6, 4, 9, 2, 1, 8, 5, 7]);
makespan = 1283;
----------
assign = array1d(1..9 ,[2, 2, 2, 2, 2, 2, 1, 1, 2]);
next = array1d(1..9 ,[3, 6, 4, 9, 2, 1, 8, 5, 7]);
makespan = 1280;
----------
assign = array1d(1..9 ,[2, 2, 2, 2, 2, 2, 1, 1, 2]);
next = array1d(1..9 ,[3, 6, 4, 9, 2, 1, 8, 5, 7]);
makespan = 1279;
----------
assign = array1d(1..9 ,[2, 2, 2, 2, 2, 2, 1, 1, 2]);
next = array1d(1..9 ,[3, 6, 4, 9, 2, 1, 8, 5, 7]);
makespan = 1277;
----------
assign = array1d(1..9 ,[2, 2, 2, 2, 2, 2, 1, 1, 2]);
next = array1d(1..9 ,[3, 6, 4, 9, 2, 1, 8, 5, 7]);
makespan = 1272;
----------
assign = array1d(1..9 ,[2, 2, 2, 2, 2, 2, 1, 1, 2]);
next = array1d(1..9 ,[3, 6, 4, 9, 2, 1, 8, 5, 7]);
makespan = 1271;
----------
assign = array1d(1..9 ,[2, 2, 2, 1, 2, 2, 2, 1, 2]);
next = array1d(1..9 ,[3, 7, 9, 8, 2, 1, 6, 5, 4]);
makespan = 1265;
----------
assign = array1d(1..9 ,[2, 2, 2, 1, 2, 2, 2, 1, 2]);
next = array1d(1..9 ,[3, 7, 9, 8, 2, 1, 6, 5, 4]);
makespan = 1264;
----------
assign = array1d(1..9 ,[2, 2, 2, 1, 2, 2, 2, 1, 2]);
next = array1d(1..9 ,[3, 7, 9, 8, 2, 1, 6, 5, 4]);
makespan = 1262;
----------
assign = array1d(1..9 ,[2, 2, 2, 1, 2, 2, 2, 1, 2]);
next = array1d(1..9 ,[3, 7, 9, 8, 2, 1, 6, 5, 4]);
makespan = 1259;
----------
assign = array1d(1..9 ,[2, 2, 2, 1, 2, 2, 2, 1, 2]);
next = array1d(1..9 ,[3, 7, 9, 8, 2, 1, 6, 5, 4]);
makespan = 1258;
----------
assign = array1d(1..9 ,[2, 2, 2, 2, 2, 2, 1, 1, 2]);
next = array1d(1..9 ,[3, 4, 5, 9, 2, 1, 8, 6, 7]);
makespan = 1256;
----------
assign = array1d(1..9 ,[2, 2, 2, 2, 2, 2, 1, 1, 2]);
next = array1d(1..9 ,[3, 4, 5, 9, 2, 1, 8, 6, 7]);
makespan = 1254;
----------
assign = array1d(1..9 ,[2, 2, 2, 2, 2, 2, 1, 1, 2]);
next = array1d(1..9 ,[3, 4, 5, 9, 2, 1, 8, 6, 7]);
makespan = 1248;
----------
assign = array1d(1..9 ,[2, 2, 2, 2, 2, 2, 1, 1, 2]);
next = array1d(1..9 ,[3, 4, 5, 9, 2, 1, 8, 6, 7]);
makespan = 1246;
----------
assign = array1d(1..9 ,[2, 2, 2, 2, 2, 2, 1, 1, 2]);
next = array1d(1..9 ,[3, 4, 5, 9, 2, 1, 8, 6, 7]);
makespan = 1245;
----------
assign = array1d(1..9 ,[2, 2, 2, 2, 2, 2, 1, 1, 2]);
next = array1d(1..9 ,[3, 4, 5, 9, 2, 1, 8, 6, 7]);
makespan = 1243;
----------
assign = array1d(1..9 ,[2, 2, 2, 1, 2, 2, 1, 1, 2]);
next = array1d(1..9 ,[3, 9, 5, 7, 2, 1, 8, 6, 4]);
makespan = 1240;
----------
assign = array1d(1..9 ,[2, 2, 2, 1, 2, 2, 1, 1, 2]);
next = array1d(1..9 ,[3, 9, 5, 7, 2, 1, 8, 6, 4]);
makespan = 1238;
----------
assign = array1d(1..9 ,[2, 2, 2, 1, 2, 2, 1, 1, 2]);
next = array1d(1..9 ,[3, 9, 5, 7, 2, 1, 8, 6, 4]);
makespan = 1237;
----------
assign = array1d(1..9 ,[2, 2, 2, 1, 2, 2, 1, 1, 2]);
next = array1d(1..9 ,[3, 9, 5, 7, 2, 1, 8, 6, 4]);
makespan = 1235;
----------
assign = array1d(1..9 ,[2, 2, 2, 1, 2, 2, 1, 1, 2]);
next = array1d(1..9 ,[3, 9, 5, 7, 2, 1, 8, 6, 4]);
makespan = 1230;
----------
assign = array1d(1..9 ,[2, 2, 2, 1, 2, 2, 1, 1, 2]);
next = array1d(1..9 ,[3, 9, 5, 7, 2, 1, 8, 6, 4]);
makespan = 1229;
----------
assign = array1d(1..9 ,[2, 2, 2, 1, 2, 2, 1, 1, 2]);
next = array1d(1..9 ,[3, 9, 5, 7, 2, 1, 8, 6, 4]);
makespan = 1227;
----------
assign = array1d(1..9 ,[2, 2, 2, 1, 2, 2, 1, 1, 2]);
next = array1d(1..9 ,[3, 9, 5, 7, 2, 1, 8, 6, 4]);
makespan = 1225;
----------
assign = array1d(1..9 ,[2, 2, 2, 1, 2, 2, 1, 1, 2]);
next = array1d(1..9 ,[3, 9, 5, 7, 2, 1, 8, 6, 4]);
makespan = 1224;
----------
assign = array1d(1..9 ,[2, 2, 2, 1, 2, 2, 1, 1, 2]);
next = array1d(1..9 ,[3, 9, 5, 7, 2, 1, 8, 6, 4]);
makespan = 1221;
----------
assign = array1d(1..9 ,[2, 2, 2, 1, 2, 2, 1, 1, 2]);
next = array1d(1..9 ,[3, 9, 5, 7, 2, 1, 8, 6, 4]);
makespan = 1219;
----------
assign = array1d(1..9 ,[2, 2, 2, 1, 2, 2, 1, 1, 2]);
next = array1d(1..9 ,[3, 9, 5, 7, 2, 1, 8, 6, 4]);
makespan = 1218;
----------
assign = array1d(1..9 ,[2, 2, 2, 1, 2, 2, 1, 1, 2]);
next = array1d(1..9 ,[3, 9, 5, 7, 2, 1, 8, 6, 4]);
makespan = 1217;
----------
assign = array1d(1..9 ,[2, 2, 2, 1, 2, 2, 1, 1, 2]);
next = array1d(1..9 ,[3, 9, 5, 7, 2, 1, 8, 6, 4]);
makespan = 1216;
----------
assign = array1d(1..9 ,[2, 2, 2, 1, 2, 2, 1, 1, 2]);
next = array1d(1..9 ,[3, 9, 5, 7, 2, 1, 8, 6, 4]);
makespan = 1214;
----------
assign = array1d(1..9 ,[2, 2, 2, 1, 2, 2, 1, 1, 2]);
next = array1d(1..9 ,[3, 9, 5, 7, 2, 1, 8, 6, 4]);
makespan = 1211;
----------
assign = array1d(1..9 ,[2, 2, 2, 1, 2, 2, 1, 1, 2]);
next = array1d(1..9 ,[3, 9, 5, 7, 2, 1, 8, 6, 4]);
makespan = 1210;
----------
assign = array1d(1..9 ,[2, 2, 2, 1, 2, 2, 1, 1, 2]);
next = array1d(1..9 ,[3, 9, 5, 7, 2, 1, 8, 6, 4]);
makespan = 1208;
----------
assign = array1d(1..9 ,[2, 2, 2, 1, 2, 2, 1, 1, 2]);
next = array1d(1..9 ,[3, 9, 5, 7, 2, 1, 8, 6, 4]);
makespan = 1200;
----------
assign = array1d(1..9 ,[2, 2, 2, 1, 2, 2, 1, 1, 2]);
next = array1d(1..9 ,[3, 9, 5, 7, 2, 1, 8, 6, 4]);
makespan = 1196;
----------
assign = array1d(1..9 ,[2, 2, 2, 1, 2, 2, 1, 1, 2]);
next = array1d(1..9 ,[3, 9, 5, 7, 2, 1, 8, 6, 4]);
makespan = 1195;
----------
assign = array1d(1..9 ,[2, 2, 2, 1, 2, 2, 1, 1, 2]);
next = array1d(1..9 ,[3, 9, 5, 7, 2, 1, 8, 6, 4]);
makespan = 1193;
----------
assign = array1d(1..9 ,[2, 2, 2, 1, 2, 2, 1, 1, 2]);
next = array1d(1..9 ,[3, 9, 5, 7, 2, 1, 8, 6, 4]);
makespan = 1192;
----------
assign = array1d(1..9 ,[2, 2, 2, 1, 2, 2, 1, 1, 2]);
next = array1d(1..9 ,[3, 9, 5, 7, 2, 1, 8, 6, 4]);
makespan = 1190;
----------
assign = array1d(1..9 ,[2, 2, 2, 1, 2, 2, 1, 1, 2]);
next = array1d(1..9 ,[3, 9, 5, 7, 2, 1, 8, 6, 4]);
makespan = 1189;
----------
assign = array1d(1..9 ,[2, 2, 2, 1, 2, 2, 1, 1, 2]);
next = array1d(1..9 ,[3, 9, 5, 7, 2, 1, 8, 6, 4]);
makespan = 1185;
----------
assign = array1d(1..9 ,[2, 2, 2, 1, 2, 2, 1, 1, 2]);
next = array1d(1..9 ,[3, 9, 5, 7, 2, 1, 8, 6, 4]);
makespan = 1182;
----------
assign = array1d(1..9 ,[2, 2, 2, 1, 2, 2, 1, 1, 2]);
next = array1d(1..9 ,[3, 9, 5, 7, 2, 1, 8, 6, 4]);
makespan = 1178;
----------
assign = array1d(1..9 ,[2, 2, 2, 1, 2, 2, 1, 1, 2]);
next = array1d(1..9 ,[3, 9, 5, 7, 2, 1, 8, 6, 4]);
makespan = 1177;
----------
assign = array1d(1..9 ,[2, 2, 2, 1, 2, 2, 1, 1, 2]);
next = array1d(1..9 ,[3, 9, 5, 7, 2, 1, 8, 6, 4]);
makespan = 1175;
----------
assign = array1d(1..9 ,[2, 2, 2, 1, 2, 2, 1, 1, 2]);
next = array1d(1..9 ,[3, 9, 5, 7, 2, 1, 8, 6, 4]);
makespan = 1174;
----------
assign = array1d(1..9 ,[2, 2, 2, 1, 2, 2, 1, 1, 2]);
next = array1d(1..9 ,[3, 9, 5, 7, 2, 1, 8, 6, 4]);
makespan = 1172;
----------
assign = array1d(1..9 ,[2, 2, 2, 1, 2, 2, 1, 1, 2]);
next = array1d(1..9 ,[3, 9, 5, 7, 2, 1, 8, 6, 4]);
makespan = 1171;
----------
assign = array1d(1..9 ,[2, 2, 2, 1, 2, 2, 1, 1, 2]);
next = array1d(1..9 ,[3, 9, 5, 7, 2, 1, 8, 6, 4]);
makespan = 1169;
----------
assign = array1d(1..9 ,[2, 2, 2, 1, 2, 2, 1, 1, 2]);
next = array1d(1..9 ,[3, 9, 5, 7, 2, 1, 8, 6, 4]);
makespan = 1167;
----------
assign = array1d(1..9 ,[2, 2, 2, 1, 2, 2, 1, 1, 2]);
next = array1d(1..9 ,[3, 9, 5, 7, 2, 1, 8, 6, 4]);
makespan = 1166;
----------
assign = array1d(1..9 ,[2, 2, 2, 1, 2, 2, 1, 1, 2]);
next = array1d(1..9 ,[3, 9, 5, 7, 2, 1, 8, 6, 4]);
makespan = 1164;
----------
assign = array1d(1..9 ,[2, 2, 2, 1, 2, 2, 1, 1, 2]);
next = array1d(1..9 ,[3, 9, 5, 7, 2, 1, 8, 6, 4]);
makespan = 1161;
----------
assign = array1d(1..9 ,[2, 2, 2, 1, 2, 2, 1, 1, 2]);
next = array1d(1..9 ,[3, 9, 5, 7, 2, 1, 8, 6, 4]);
makespan = 1160;
----------
assign = array1d(1..9 ,[2, 2, 2, 1, 2, 2, 1, 1, 2]);
next = array1d(1..9 ,[3, 9, 5, 7, 2, 1, 8, 6, 4]);
makespan = 1158;
----------
assign = array1d(1..9 ,[2, 2, 2, 1, 2, 2, 1, 1, 2]);
next = array1d(1..9 ,[3, 9, 5, 7, 2, 1, 8, 6, 4]);
makespan = 1156;
----------
assign = array1d(1..9 ,[2, 2, 2, 1, 2, 2, 1, 1, 2]);
next = array1d(1..9 ,[3, 9, 5, 7, 2, 1, 8, 6, 4]);
makespan = 1155;
----------
assign = array1d(1..9 ,[2, 2, 2, 1, 2, 2, 1, 1, 2]);
next = array1d(1..9 ,[3, 9, 5, 7, 2, 1, 8, 6, 4]);
makespan = 1152;
----------
assign = array1d(1..9 ,[2, 2, 2, 1, 2, 2, 1, 1, 2]);
next = array1d(1..9 ,[3, 9, 5, 7, 2, 1, 8, 6, 4]);
makespan = 1150;
----------
assign = array1d(1..9 ,[2, 2, 2, 1, 2, 2, 1, 1, 2]);
next = array1d(1..9 ,[3, 9, 5, 7, 2, 1, 8, 6, 4]);
makespan = 1148;
----------
assign = array1d(1..9 ,[2, 2, 2, 1, 2, 2, 1, 1, 2]);
next = array1d(1..9 ,[3, 9, 5, 7, 2, 1, 8, 6, 4]);
makespan = 1147;
----------
assign = array1d(1..9 ,[2, 2, 2, 1, 2, 2, 1, 1, 2]);
next = array1d(1..9 ,[3, 9, 5, 7, 2, 1, 8, 6, 4]);
makespan = 1145;
----------
assign = array1d(1..9 ,[2, 2, 2, 1, 2, 2, 1, 1, 2]);
next = array1d(1..9 ,[3, 9, 5, 7, 2, 1, 8, 6, 4]);
makespan = 1142;
----------
assign = array1d(1..9 ,[2, 2, 2, 1, 2, 2, 1, 1, 2]);
next = array1d(1..9 ,[3, 9, 5, 7, 2, 1, 8, 6, 4]);
makespan = 1140;
----------
assign = array1d(1..9 ,[2, 2, 2, 1, 2, 2, 1, 1, 2]);
next = array1d(1..9 ,[3, 9, 5, 7, 2, 1, 8, 6, 4]);
makespan = 1139;
----------
assign = array1d(1..9 ,[2, 2, 2, 1, 2, 2, 1, 1, 2]);
next = array1d(1..9 ,[3, 9, 5, 7, 2, 1, 8, 6, 4]);
makespan = 1137;
----------
assign = array1d(1..9 ,[2, 2, 2, 1, 2, 2, 1, 1, 2]);
next = array1d(1..9 ,[3, 9, 5, 7, 2, 1, 8, 6, 4]);
makespan = 1131;
----------
assign = array1d(1..9 ,[2, 2, 2, 1, 2, 2, 1, 1, 2]);
next = array1d(1..9 ,[3, 9, 5, 7, 2, 1, 8, 6, 4]);
makespan = 1129;
----------
assign = array1d(1..9 ,[2, 2, 2, 1, 2, 2, 1, 1, 2]);
next = array1d(1..9 ,[3, 9, 5, 7, 2, 1, 8, 6, 4]);
makespan = 1127;
----------
assign = array1d(1..9 ,[2, 2, 2, 1, 2, 2, 1, 1, 2]);
next = array1d(1..9 ,[3, 9, 5, 7, 2, 1, 8, 6, 4]);
makespan = 1126;
----------
assign = array1d(1..9 ,[2, 2, 2, 1, 2, 2, 1, 1, 2]);
next = array1d(1..9 ,[3, 9, 5, 7, 2, 1, 8, 6, 4]);
makespan = 1123;
----------
assign = array1d(1..9 ,[2, 2, 2, 1, 2, 2, 1, 1, 2]);
next = array1d(1..9 ,[3, 9, 5, 7, 2, 1, 8, 6, 4]);
makespan = 1121;
----------
assign = array1d(1..9 ,[2, 2, 2, 1, 2, 2, 1, 1, 2]);
next = array1d(1..9 ,[3, 9, 5, 7, 2, 1, 8, 6, 4]);
makespan = 1120;
----------
assign = array1d(1..9 ,[2, 2, 2, 1, 2, 2, 1, 1, 2]);
next = array1d(1..9 ,[3, 9, 5, 7, 2, 1, 8, 6, 4]);
makespan = 1115;
----------
assign = array1d(1..9 ,[2, 2, 2, 1, 2, 2, 1, 1, 2]);
next = array1d(1..9 ,[3, 9, 5, 7, 2, 1, 8, 6, 4]);
makespan = 1113;
----------
assign = array1d(1..9 ,[2, 2, 2, 1, 2, 2, 1, 1, 2]);
next = array1d(1..9 ,[3, 9, 5, 7, 2, 1, 8, 6, 4]);
makespan = 1112;
----------
assign = array1d(1..9 ,[2, 2, 2, 1, 2, 2, 1, 1, 2]);
next = array1d(1..9 ,[3, 9, 5, 7, 2, 1, 8, 6, 4]);
makespan = 1111;
----------
assign = array1d(1..9 ,[2, 2, 2, 1, 2, 2, 1, 1, 2]);
next = array1d(1..9 ,[3, 9, 5, 7, 2, 1, 8, 6, 4]);
makespan = 1108;
----------
assign = array1d(1..9 ,[2, 2, 2, 1, 2, 2, 1, 1, 2]);
next = array1d(1..9 ,[3, 9, 5, 7, 2, 1, 8, 6, 4]);
makespan = 1106;
----------
assign = array1d(1..9 ,[2, 2, 2, 1, 2, 2, 1, 1, 2]);
next = array1d(1..9 ,[3, 9, 5, 7, 2, 1, 8, 6, 4]);
makespan = 1105;
----------
assign = array1d(1..9 ,[2, 2, 2, 1, 2, 2, 1, 1, 2]);
next = array1d(1..9 ,[3, 9, 5, 7, 2, 1, 8, 6, 4]);
makespan = 1102;
----------
assign = array1d(1..9 ,[2, 2, 2, 1, 2, 2, 1, 1, 2]);
next = array1d(1..9 ,[3, 9, 5, 7, 2, 1, 8, 6, 4]);
makespan = 1098;
----------
assign = array1d(1..9 ,[2, 2, 2, 1, 2, 2, 1, 1, 2]);
next = array1d(1..9 ,[3, 9, 5, 7, 2, 1, 8, 6, 4]);
makespan = 1097;
----------
assign = array1d(1..9 ,[2, 2, 2, 1, 2, 2, 1, 1, 2]);
next = array1d(1..9 ,[3, 9, 5, 7, 2, 1, 8, 6, 4]);
makespan = 1095;
----------
assign = array1d(1..9 ,[2, 2, 2, 1, 2, 2, 1, 1, 2]);
next = array1d(1..9 ,[3, 9, 5, 7, 2, 1, 8, 6, 4]);
makespan = 1087;
----------
assign = array1d(1..9 ,[2, 2, 2, 1, 2, 2, 1, 1, 2]);
next = array1d(1..9 ,[3, 9, 5, 7, 2, 1, 8, 6, 4]);
makespan = 1079;
----------
assign = array1d(1..9 ,[2, 2, 2, 1, 2, 2, 1, 1, 2]);
next = array1d(1..9 ,[3, 9, 5, 7, 2, 1, 8, 6, 4]);
makespan = 1077;
----------
assign = array1d(1..9 ,[2, 2, 2, 1, 2, 2, 1, 1, 2]);
next = array1d(1..9 ,[3, 9, 5, 7, 2, 1, 8, 6, 4]);
makespan = 1076;
----------
assign = array1d(1..9 ,[2, 2, 2, 1, 2, 2, 1, 1, 2]);
next = array1d(1..9 ,[3, 9, 5, 7, 2, 1, 8, 6, 4]);
makespan = 1073;
----------
assign = array1d(1..9 ,[2, 2, 2, 1, 2, 2, 1, 1, 2]);
next = array1d(1..9 ,[3, 9, 5, 7, 2, 1, 8, 6, 4]);
makespan = 1071;
----------
assign = array1d(1..9 ,[2, 2, 2, 1, 2, 2, 1, 1, 2]);
next = array1d(1..9 ,[3, 9, 5, 7, 2, 1, 8, 6, 4]);
makespan = 1070;
----------
assign = array1d(1..9 ,[2, 2, 2, 1, 2, 2, 1, 1, 2]);
next = array1d(1..9 ,[3, 9, 5, 7, 2, 1, 8, 6, 4]);
makespan = 1068;
----------
assign = array1d(1..9 ,[2, 2, 2, 1, 2, 2, 1, 1, 2]);
next = array1d(1..9 ,[3, 9, 5, 7, 2, 1, 8, 6, 4]);
makespan = 1065;
----------
assign = array1d(1..9 ,[2, 2, 2, 1, 2, 2, 1, 1, 2]);
next = array1d(1..9 ,[3, 6, 9, 7, 2, 1, 8, 5, 4]);
makespan = 1061;
----------
assign = array1d(1..9 ,[2, 2, 2, 1, 2, 2, 1, 1, 2]);
next = array1d(1..9 ,[9, 6, 5, 7, 2, 1, 8, 3, 4]);
makespan = 1060;
----------
assign = array1d(1..9 ,[2, 2, 2, 1, 2, 2, 1, 1, 2]);
next = array1d(1..9 ,[5, 3, 9, 7, 2, 1, 8, 6, 4]);
makespan = 1058;
----------
assign = array1d(1..9 ,[2, 2, 1, 1, 2, 2, 1, 1, 2]);
next = array1d(1..9 ,[5, 9, 7, 8, 2, 1, 4, 6, 3]);
makespan = 1057;
----------
assign = array1d(1..9 ,[2, 2, 1, 1, 2, 2, 1, 1, 2]);
next = array1d(1..9 ,[5, 9, 7, 8, 2, 1, 4, 6, 3]);
makespan = 1052;
----------
assign = array1d(1..9 ,[2, 2, 1, 1, 2, 2, 1, 1, 2]);
next = array1d(1..9 ,[5, 9, 7, 8, 2, 1, 4, 6, 3]);
makespan = 1041;
----------
assign = array1d(1..9 ,[2, 2, 1, 1, 2, 2, 1, 1, 2]);
next = array1d(1..9 ,[5, 9, 7, 8, 2, 1, 4, 6, 3]);
makespan = 1039;
----------
assign = array1d(1..9 ,[2, 2, 1, 1, 2, 2, 1, 1, 2]);
next = array1d(1..9 ,[5, 9, 7, 8, 2, 1, 4, 6, 3]);
makespan = 1033;
----------
assign = array1d(1..9 ,[2, 2, 1, 1, 2, 2, 1, 1, 2]);
next = array1d(1..9 ,[5, 9, 7, 8, 2, 1, 4, 6, 3]);
makespan = 1022;
----------
assign = array1d(1..9 ,[2, 2, 1, 1, 2, 2, 1, 1, 2]);
next = array1d(1..9 ,[5, 9, 7, 8, 2, 1, 4, 6, 3]);
makespan = 1015;
----------
assign = array1d(1..9 ,[2, 2, 1, 1, 2, 2, 1, 1, 2]);
next = array1d(1..9 ,[5, 9, 7, 8, 2, 1, 4, 6, 3]);
makespan = 1014;
----------
assign = array1d(1..9 ,[2, 2, 1, 1, 2, 2, 1, 1, 2]);
next = array1d(1..9 ,[5, 9, 7, 8, 2, 1, 4, 6, 3]);
makespan = 1011;
----------
assign = array1d(1..9 ,[2, 2, 1, 1, 2, 2, 1, 1, 2]);
next = array1d(1..9 ,[5, 9, 7, 8, 2, 1, 4, 6, 3]);
makespan = 993;
----------
assign = array1d(1..9 ,[2, 2, 1, 1, 2, 2, 1, 1, 2]);
next = array1d(1..9 ,[5, 9, 7, 8, 2, 1, 4, 6, 3]);
makespan = 979;
----------
assign = array1d(1..9 ,[2, 2, 1, 1, 2, 2, 1, 1, 2]);
next = array1d(1..9 ,[5, 9, 7, 8, 2, 1, 4, 6, 3]);
makespan = 965;
----------
assign = array1d(1..9 ,[2, 2, 1, 1, 2, 2, 1, 1, 2]);
next = array1d(1..9 ,[5, 9, 7, 8, 2, 1, 4, 6, 3]);
makespan = 964;
----------
assign = array1d(1..9 ,[2, 2, 1, 1, 2, 2, 1, 1, 2]);
next = array1d(1..9 ,[5, 9, 7, 8, 2, 1, 4, 6, 3]);
makespan = 953;
----------
assign = array1d(1..9 ,[2, 2, 1, 1, 2, 2, 1, 1, 2]);
next = array1d(1..9 ,[5, 9, 7, 8, 2, 1, 4, 6, 3]);
makespan = 952;
----------
assign = array1d(1..9 ,[2, 2, 1, 1, 2, 2, 1, 1, 2]);
next = array1d(1..9 ,[5, 9, 7, 8, 2, 1, 4, 6, 3]);
makespan = 951;
----------
assign = array1d(1..9 ,[2, 2, 1, 1, 2, 2, 1, 1, 2]);
next = array1d(1..9 ,[5, 9, 7, 8, 2, 1, 4, 6, 3]);
makespan = 920;
----------
assign = array1d(1..9 ,[2, 2, 1, 1, 2, 2, 1, 1, 2]);
next = array1d(1..9 ,[5, 9, 7, 8, 2, 1, 4, 6, 3]);
makespan = 916;
----------
assign = array1d(1..9 ,[2, 2, 1, 1, 2, 2, 1, 1, 2]);
next = array1d(1..9 ,[5, 9, 7, 8, 2, 1, 4, 6, 3]);
makespan = 902;
----------
assign = array1d(1..9 ,[2, 2, 1, 1, 2, 2, 1, 1, 2]);
next = array1d(1..9 ,[5, 9, 7, 8, 2, 1, 4, 6, 3]);
makespan = 901;
----------
assign = array1d(1..9 ,[2, 2, 1, 1, 2, 2, 1, 1, 2]);
next = array1d(1..9 ,[5, 9, 7, 8, 2, 1, 4, 6, 3]);
makespan = 871;
----------
assign = array1d(1..9 ,[2, 2, 1, 1, 2, 2, 1, 1, 2]);
next = array1d(1..9 ,[5, 9, 7, 8, 2, 1, 4, 6, 3]);
makespan = 865;
----------
assign = array1d(1..9 ,[2, 2, 1, 1, 2, 2, 1, 1, 2]);
next = array1d(1..9 ,[5, 9, 7, 8, 2, 1, 4, 6, 3]);
makespan = 851;
----------
assign = array1d(1..9 ,[2, 2, 1, 1, 2, 2, 1, 1, 2]);
next = array1d(1..9 ,[5, 9, 7, 8, 2, 1, 4, 6, 3]);
makespan = 793;
----------
assign = array1d(1..9 ,[2, 2, 1, 1, 2, 2, 1, 1, 2]);
next = array1d(1..9 ,[5, 9, 7, 8, 2, 1, 4, 6, 3]);
makespan = 788;
----------
assign = array1d(1..9 ,[2, 2, 1, 1, 2, 2, 1, 1, 2]);
next = array1d(1..9 ,[5, 9, 7, 8, 2, 1, 4, 6, 3]);
makespan = 767;
----------
assign = array1d(1..9 ,[2, 2, 1, 1, 1, 2, 1, 1, 2]);
next = array1d(1..9 ,[9, 6, 8, 7, 3, 1, 5, 2, 4]);
makespan = 764;
----------
assign = array1d(1..9 ,[2, 2, 1, 2, 1, 1, 2, 1, 2]);
next = array1d(1..9 ,[4, 7, 5, 9, 8, 3, 1, 2, 6]);
makespan = 738;
----------
assign = array1d(1..9 ,[1, 2, 1, 2, 2, 1, 2, 1, 2]);
next = array1d(1..9 ,[6, 7, 1, 9, 2, 8, 4, 5, 3]);
makespan = 719;
----------
assign = array1d(1..9 ,[1, 2, 1, 2, 2, 1, 2, 1, 2]);
next = array1d(1..9 ,[6, 7, 1, 9, 2, 8, 4, 5, 3]);
makespan = 711;
----------
assign = array1d(1..9 ,[1, 2, 1, 1, 1, 2, 2, 1, 2]);
next = array1d(1..9 ,[5, 7, 4, 8, 3, 9, 6, 2, 1]);
makespan = 696;
----------
assign = array1d(1..9 ,[2, 1, 1, 2, 2, 1, 2, 1, 2]);
next = array1d(1..9 ,[4, 8, 2, 9, 7, 3, 1, 5, 6]);
makespan = 695;
----------
assign = array1d(1..9 ,[2, 1, 1, 2, 2, 1, 2, 1, 2]);
next = array1d(1..9 ,[4, 6, 2, 9, 7, 8, 1, 5, 3]);
makespan = 693;
----------
assign = array1d(1..9 ,[2, 1, 1, 2, 2, 1, 2, 1, 2]);
next = array1d(1..9 ,[4, 6, 2, 9, 7, 8, 1, 5, 3]);
makespan = 691;
----------
assign = array1d(1..9 ,[2, 1, 1, 2, 2, 1, 2, 1, 2]);
next = array1d(1..9 ,[4, 6, 2, 9, 7, 8, 1, 5, 3]);
makespan = 681;
----------
assign = array1d(1..9 ,[2, 1, 1, 2, 1, 2, 2, 1, 2]);
next = array1d(1..9 ,[4, 8, 5, 6, 2, 9, 1, 7, 3]);
makespan = 680;
----------
assign = array1d(1..9 ,[2, 1, 1, 2, 1, 2, 2, 1, 2]);
next = array1d(1..9 ,[4, 8, 5, 6, 2, 9, 1, 7, 3]);
makespan = 679;
----------
assign = array1d(1..9 ,[2, 1, 1, 2, 1, 2, 2, 1, 2]);
next = array1d(1..9 ,[4, 5, 8, 6, 3, 9, 1, 7, 2]);
makespan = 678;
----------
assign = array1d(1..9 ,[2, 1, 1, 2, 1, 2, 2, 1, 2]);
next = array1d(1..9 ,[4, 5, 8, 6, 3, 9, 1, 7, 2]);
makespan = 677;
----------
assign = array1d(1..9 ,[1, 2, 1, 2, 1, 2, 1, 1, 2]);
next = array1d(1..9 ,[5, 9, 7, 6, 3, 2, 8, 4, 1]);
makespan = 676;
----------
assign = array1d(1..9 ,[1, 2, 1, 2, 1, 2, 1, 1, 2]);
next = array1d(1..9 ,[5, 6, 7, 2, 3, 9, 8, 4, 1]);
makespan = 675;
----------
assign = array1d(1..9 ,[1, 2, 1, 2, 1, 2, 1, 1, 2]);
next = array1d(1..9 ,[5, 6, 7, 9, 3, 4, 8, 2, 1]);
makespan = 674;
----------
assign = array1d(1..9 ,[2, 1, 1, 2, 2, 1, 2, 1, 2]);
next = array1d(1..9 ,[5, 6, 2, 7, 9, 8, 1, 4, 3]);
makespan = 673;
----------
assign = array1d(1..9 ,[2, 1, 1, 2, 2, 1, 2, 1, 2]);
next = array1d(1..9 ,[5, 6, 2, 7, 9, 8, 1, 4, 3]);
makespan = 671;
----------
assign = array1d(1..9 ,[1, 2, 1, 2, 1, 1, 2, 1, 2]);
next = array1d(1..9 ,[5, 4, 6, 9, 3, 8, 2, 7, 1]);
makespan = 670;
----------
assign = array1d(1..9 ,[1, 2, 1, 2, 1, 1, 2, 1, 2]);
next = array1d(1..9 ,[5, 4, 6, 9, 3, 8, 2, 7, 1]);
makespan = 669;
----------
assign = array1d(1..9 ,[1, 2, 1, 2, 1, 1, 2, 1, 2]);
next = array1d(1..9 ,[5, 7, 6, 2, 3, 8, 9, 4, 1]);
makespan = 668;
----------
assign = array1d(1..9 ,[1, 2, 1, 2, 1, 1, 2, 1, 2]);
next = array1d(1..9 ,[5, 9, 6, 2, 3, 8, 4, 7, 1]);
makespan = 667;
----------
assign = array1d(1..9 ,[1, 2, 1, 2, 1, 1, 2, 1, 2]);
next = array1d(1..9 ,[5, 9, 6, 2, 3, 8, 4, 7, 1]);
makespan = 666;
----------
assign = array1d(1..9 ,[1, 2, 1, 2, 1, 1, 2, 1, 2]);
next = array1d(1..9 ,[5, 9, 6, 2, 3, 8, 4, 7, 1]);
makespan = 665;
----------
assign = array1d(1..9 ,[1, 2, 1, 2, 1, 1, 2, 1, 2]);
next = array1d(1..9 ,[5, 9, 6, 2, 3, 8, 4, 7, 1]);
makespan = 664;
----------
assign = array1d(1..9 ,[1, 2, 1, 2, 1, 1, 2, 1, 2]);
next = array1d(1..9 ,[5, 9, 6, 7, 3, 8, 2, 4, 1]);
makespan = 663;
----------
assign = array1d(1..9 ,[1, 2, 1, 2, 1, 1, 2, 1, 2]);
next = array1d(1..9 ,[5, 9, 6, 7, 3, 8, 2, 4, 1]);
makespan = 662;
----------
assign = array1d(1..9 ,[1, 2, 1, 2, 1, 1, 2, 1, 2]);
next = array1d(1..9 ,[5, 9, 6, 7, 3, 8, 2, 4, 1]);
makespan = 661;
----------
assign = array1d(1..9 ,[1, 2, 1, 2, 1, 1, 2, 1, 2]);
next = array1d(1..9 ,[5, 9, 6, 7, 3, 8, 2, 4, 1]);
makespan = 660;
----------
assign = array1d(1..9 ,[1, 2, 1, 2, 1, 1, 2, 1, 2]);
next = array1d(1..9 ,[5, 9, 6, 7, 3, 8, 2, 4, 1]);
makespan = 659;
----------
assign = array1d(1..9 ,[1, 2, 1, 2, 1, 1, 2, 1, 2]);
next = array1d(1..9 ,[5, 9, 6, 7, 3, 8, 2, 4, 1]);
makespan = 658;
----------
assign = array1d(1..9 ,[1, 2, 1, 2, 1, 1, 2, 1, 2]);
next = array1d(1..9 ,[5, 9, 6, 7, 3, 8, 2, 4, 1]);
makespan = 657;
----------
assign = array1d(1..9 ,[1, 2, 1, 2, 1, 1, 2, 1, 2]);
next = array1d(1..9 ,[5, 9, 6, 7, 3, 8, 2, 4, 1]);
makespan = 656;
----------
assign = array1d(1..9 ,[1, 2, 1, 2, 1, 1, 2, 1, 2]);
next = array1d(1..9 ,[5, 9, 6, 7, 3, 8, 2, 4, 1]);
makespan = 655;
----------
==========
	Command being timed: "mzn-chuffed lbbd-datasets/Rabadi-2006/dzn-s-dominant/model.mzn lbbd-datasets/Rabadi-2006/dzn-s-dominant/7on2Rp50Rs50_12Ameer.dzn"
	User time (seconds): 0.28
	System time (seconds): 0.01
	Percent of CPU this job got: 18%
	Elapsed (wall clock) time (h:mm:ss or m:ss): 0:01.58
	Average shared text size (kbytes): 0
	Average unshared data size (kbytes): 0
	Average stack size (kbytes): 0
	Average total size (kbytes): 0
	Maximum resident set size (kbytes): 31280
	Average resident set size (kbytes): 0
	Major (requiring I/O) page faults: 0
	Minor (reclaiming a frame) page faults: 2744
	Voluntary context switches: 188
	Involuntary context switches: 2
	Swaps: 0
	File system inputs: 0
	File system outputs: 168
	Socket messages sent: 0
	Socket messages received: 0
	Signals delivered: 0
	Page size (bytes): 4096
	Exit status: 0
