+ /usr/bin/timeout 600 /usr/bin/time -v mzn-chuffed lbbd-datasets/planningandscheduling/makespan-insts/model.mzn lbbd-datasets/planningandscheduling/makespan-insts/df22j3m2.dzn
% No search annotation given. Defaulting to VSIDS!
obj = 114
----------
obj = 113
----------
obj = 112
----------
obj = 111
----------
obj = 110
----------
obj = 109
----------
obj = 108
----------
obj = 107
----------
obj = 106
----------
obj = 105
----------
obj = 104
----------
obj = 103
----------
obj = 102
----------
obj = 101
----------
obj = 100
----------
obj = 99
----------
obj = 98
----------
obj = 97
----------
obj = 96
----------
obj = 95
----------
obj = 94
----------
obj = 93
----------
obj = 92
----------
obj = 91
----------
obj = 90
----------
obj = 89
----------
obj = 88
----------
obj = 87
----------
obj = 86
----------
obj = 85
----------
obj = 84
----------
obj = 83
----------
obj = 82
----------
obj = 81
----------
obj = 80
----------
obj = 79
----------
obj = 78
----------
==========
	Command being timed: "mzn-chuffed lbbd-datasets/planningandscheduling/makespan-insts/model.mzn lbbd-datasets/planningandscheduling/makespan-insts/df22j3m2.dzn"
	User time (seconds): 0.22
	System time (seconds): 0.00
	Percent of CPU this job got: 46%
	Elapsed (wall clock) time (h:mm:ss or m:ss): 0:00.50
	Average shared text size (kbytes): 0
	Average unshared data size (kbytes): 0
	Average stack size (kbytes): 0
	Average total size (kbytes): 0
	Maximum resident set size (kbytes): 28848
	Average resident set size (kbytes): 0
	Major (requiring I/O) page faults: 0
	Minor (reclaiming a frame) page faults: 2473
	Voluntary context switches: 43
	Involuntary context switches: 3
	Swaps: 0
	File system inputs: 0
	File system outputs: 96
	Socket messages sent: 0
	Socket messages received: 0
	Signals delivered: 0
	Page size (bytes): 4096
	Exit status: 0
