+ /usr/bin/timeout 600 /usr/bin/time -v mzn-chuffed lbbd-datasets/planningandscheduling/cost-insts/model.mzn lbbd-datasets/planningandscheduling/cost-insts/c14j4m1.dzn
% No search annotation given. Defaulting to VSIDS!
obj = 767
----------
obj = 762
----------
obj = 747
----------
obj = 714
----------
obj = 712
----------
obj = 699
----------
obj = 683
----------
obj = 674
----------
obj = 644
----------
obj = 630
----------
obj = 610
----------
obj = 589
----------
obj = 587
----------
obj = 581
----------
obj = 579
----------
obj = 573
----------
obj = 570
----------
obj = 556
----------
obj = 537
----------
obj = 534
----------
obj = 523
----------
obj = 503
----------
obj = 498
----------
obj = 486
----------
obj = 445
----------
obj = 442
----------
obj = 441
----------
obj = 435
----------
obj = 434
----------
obj = 427
----------
obj = 424
----------
obj = 423
----------
obj = 417
----------
==========
	Command being timed: "mzn-chuffed lbbd-datasets/planningandscheduling/cost-insts/model.mzn lbbd-datasets/planningandscheduling/cost-insts/c14j4m1.dzn"
	User time (seconds): 0.20
	System time (seconds): 0.00
	Percent of CPU this job got: 61%
	Elapsed (wall clock) time (h:mm:ss or m:ss): 0:00.34
	Average shared text size (kbytes): 0
	Average unshared data size (kbytes): 0
	Average stack size (kbytes): 0
	Average total size (kbytes): 0
	Maximum resident set size (kbytes): 28688
	Average resident set size (kbytes): 0
	Major (requiring I/O) page faults: 0
	Minor (reclaiming a frame) page faults: 2442
	Voluntary context switches: 39
	Involuntary context switches: 3
	Swaps: 0
	File system inputs: 0
	File system outputs: 88
	Socket messages sent: 0
	Socket messages received: 0
	Signals delivered: 0
	Page size (bytes): 4096
	Exit status: 0
