+ /usr/bin/timeout 600 /usr/bin/time -v mzn-chuffed lbbd-datasets/Rabadi-2006/dzn-p-dominant/model.mzn lbbd-datasets/Rabadi-2006/dzn-p-dominant/7on2Rp50Rs50_14Ameer.dzn
% No search annotation given. Defaulting to VSIDS!
assign = array1d(1..9 ,[2, 2, 2, 2, 2, 2, 2, 1, 2]);
next = array1d(1..9 ,[2, 3, 4, 5, 6, 7, 9, 1, 8]);
makespan = 1486;
----------
assign = array1d(1..9 ,[2, 2, 2, 2, 2, 2, 2, 1, 2]);
next = array1d(1..9 ,[3, 4, 2, 5, 6, 7, 9, 1, 8]);
makespan = 1438;
----------
assign = array1d(1..9 ,[2, 2, 2, 2, 1, 2, 2, 1, 2]);
next = array1d(1..9 ,[2, 9, 4, 6, 8, 7, 1, 3, 5]);
makespan = 1331;
----------
assign = array1d(1..9 ,[2, 2, 2, 1, 2, 2, 2, 1, 2]);
next = array1d(1..9 ,[5, 3, 6, 8, 9, 7, 1, 2, 4]);
makespan = 1312;
----------
assign = array1d(1..9 ,[2, 2, 2, 1, 2, 2, 2, 1, 2]);
next = array1d(1..9 ,[5, 6, 9, 8, 3, 7, 1, 2, 4]);
makespan = 1311;
----------
assign = array1d(1..9 ,[2, 2, 2, 1, 2, 2, 2, 1, 2]);
next = array1d(1..9 ,[5, 3, 6, 8, 9, 7, 1, 2, 4]);
makespan = 1295;
----------
assign = array1d(1..9 ,[2, 2, 2, 1, 2, 2, 2, 1, 2]);
next = array1d(1..9 ,[5, 1, 6, 8, 3, 7, 9, 2, 4]);
makespan = 1283;
----------
assign = array1d(1..9 ,[2, 2, 2, 1, 2, 2, 2, 1, 2]);
next = array1d(1..9 ,[2, 6, 7, 8, 3, 9, 1, 5, 4]);
makespan = 1281;
----------
assign = array1d(1..9 ,[2, 2, 2, 1, 2, 2, 2, 1, 2]);
next = array1d(1..9 ,[2, 5, 6, 8, 3, 7, 9, 1, 4]);
makespan = 1278;
----------
assign = array1d(1..9 ,[2, 2, 2, 1, 2, 2, 2, 1, 2]);
next = array1d(1..9 ,[5, 3, 6, 8, 9, 7, 1, 2, 4]);
makespan = 1276;
----------
assign = array1d(1..9 ,[2, 2, 2, 1, 2, 2, 2, 1, 2]);
next = array1d(1..9 ,[5, 1, 7, 8, 3, 9, 6, 2, 4]);
makespan = 1274;
----------
assign = array1d(1..9 ,[2, 2, 2, 1, 2, 2, 2, 1, 2]);
next = array1d(1..9 ,[5, 1, 7, 8, 3, 9, 6, 2, 4]);
makespan = 1273;
----------
assign = array1d(1..9 ,[2, 1, 2, 2, 2, 2, 2, 1, 2]);
next = array1d(1..9 ,[9, 8, 6, 5, 3, 7, 1, 4, 2]);
makespan = 1271;
----------
assign = array1d(1..9 ,[2, 2, 2, 2, 2, 1, 2, 1, 2]);
next = array1d(1..9 ,[9, 4, 1, 3, 2, 8, 5, 7, 6]);
makespan = 1264;
----------
assign = array1d(1..9 ,[2, 2, 2, 2, 2, 1, 2, 1, 2]);
next = array1d(1..9 ,[9, 4, 1, 3, 2, 8, 5, 7, 6]);
makespan = 1259;
----------
assign = array1d(1..9 ,[2, 2, 2, 2, 2, 1, 2, 1, 2]);
next = array1d(1..9 ,[7, 4, 9, 3, 2, 8, 5, 1, 6]);
makespan = 1256;
----------
assign = array1d(1..9 ,[1, 2, 2, 2, 2, 1, 2, 1, 2]);
next = array1d(1..9 ,[6, 4, 9, 3, 2, 8, 5, 7, 1]);
makespan = 1249;
----------
assign = array1d(1..9 ,[1, 2, 2, 2, 2, 1, 2, 1, 2]);
next = array1d(1..9 ,[6, 4, 9, 3, 2, 8, 5, 7, 1]);
makespan = 1238;
----------
assign = array1d(1..9 ,[1, 2, 2, 2, 2, 1, 2, 1, 2]);
next = array1d(1..9 ,[6, 4, 9, 3, 2, 8, 5, 7, 1]);
makespan = 1219;
----------
assign = array1d(1..9 ,[1, 2, 2, 2, 2, 1, 2, 1, 2]);
next = array1d(1..9 ,[6, 4, 9, 3, 2, 8, 5, 7, 1]);
makespan = 1192;
----------
assign = array1d(1..9 ,[1, 2, 2, 2, 2, 1, 2, 1, 2]);
next = array1d(1..9 ,[6, 4, 9, 3, 2, 8, 5, 7, 1]);
makespan = 1186;
----------
assign = array1d(1..9 ,[1, 2, 2, 2, 2, 1, 2, 1, 2]);
next = array1d(1..9 ,[6, 4, 9, 3, 2, 8, 5, 7, 1]);
makespan = 1185;
----------
assign = array1d(1..9 ,[1, 2, 2, 2, 2, 1, 2, 1, 2]);
next = array1d(1..9 ,[6, 4, 9, 3, 2, 8, 5, 7, 1]);
makespan = 1184;
----------
assign = array1d(1..9 ,[1, 2, 2, 2, 2, 1, 2, 1, 2]);
next = array1d(1..9 ,[6, 4, 9, 3, 2, 8, 5, 7, 1]);
makespan = 1169;
----------
assign = array1d(1..9 ,[1, 2, 2, 2, 2, 1, 2, 1, 2]);
next = array1d(1..9 ,[6, 4, 9, 3, 2, 8, 5, 7, 1]);
makespan = 1168;
----------
assign = array1d(1..9 ,[1, 2, 2, 2, 2, 1, 2, 1, 2]);
next = array1d(1..9 ,[6, 4, 9, 3, 2, 8, 5, 7, 1]);
makespan = 1163;
----------
assign = array1d(1..9 ,[1, 2, 2, 2, 2, 1, 2, 1, 2]);
next = array1d(1..9 ,[6, 4, 9, 3, 2, 8, 5, 7, 1]);
makespan = 1145;
----------
assign = array1d(1..9 ,[1, 2, 2, 2, 2, 1, 2, 1, 2]);
next = array1d(1..9 ,[6, 4, 9, 3, 2, 8, 5, 7, 1]);
makespan = 1144;
----------
assign = array1d(1..9 ,[1, 2, 2, 2, 2, 1, 2, 1, 2]);
next = array1d(1..9 ,[6, 4, 9, 3, 2, 8, 5, 7, 1]);
makespan = 1138;
----------
assign = array1d(1..9 ,[1, 2, 2, 2, 2, 1, 2, 1, 2]);
next = array1d(1..9 ,[6, 4, 9, 3, 2, 8, 5, 7, 1]);
makespan = 1137;
----------
assign = array1d(1..9 ,[1, 2, 2, 2, 2, 1, 2, 1, 2]);
next = array1d(1..9 ,[6, 4, 9, 3, 2, 8, 5, 7, 1]);
makespan = 1128;
----------
assign = array1d(1..9 ,[1, 2, 2, 2, 2, 1, 2, 1, 2]);
next = array1d(1..9 ,[6, 4, 9, 3, 2, 8, 5, 7, 1]);
makespan = 1123;
----------
assign = array1d(1..9 ,[1, 2, 2, 2, 2, 1, 2, 1, 2]);
next = array1d(1..9 ,[6, 4, 9, 3, 2, 8, 5, 7, 1]);
makespan = 1121;
----------
assign = array1d(1..9 ,[1, 2, 2, 2, 2, 1, 2, 1, 2]);
next = array1d(1..9 ,[6, 4, 9, 3, 2, 8, 5, 7, 1]);
makespan = 1097;
----------
assign = array1d(1..9 ,[1, 2, 2, 2, 2, 1, 2, 1, 2]);
next = array1d(1..9 ,[6, 4, 9, 3, 2, 8, 5, 7, 1]);
makespan = 1081;
----------
assign = array1d(1..9 ,[1, 2, 2, 2, 2, 1, 2, 1, 2]);
next = array1d(1..9 ,[6, 4, 9, 3, 2, 8, 5, 7, 1]);
makespan = 1065;
----------
assign = array1d(1..9 ,[2, 2, 2, 2, 2, 1, 1, 1, 2]);
next = array1d(1..9 ,[9, 4, 1, 3, 2, 7, 8, 5, 6]);
makespan = 1059;
----------
assign = array1d(1..9 ,[2, 2, 2, 2, 2, 1, 1, 1, 2]);
next = array1d(1..9 ,[9, 4, 1, 3, 2, 7, 8, 5, 6]);
makespan = 1058;
----------
assign = array1d(1..9 ,[2, 2, 2, 2, 2, 1, 1, 1, 2]);
next = array1d(1..9 ,[9, 4, 1, 3, 2, 7, 8, 5, 6]);
makespan = 1043;
----------
assign = array1d(1..9 ,[2, 2, 2, 2, 2, 1, 1, 1, 2]);
next = array1d(1..9 ,[9, 4, 1, 3, 2, 7, 8, 5, 6]);
makespan = 1042;
----------
assign = array1d(1..9 ,[2, 2, 2, 2, 2, 1, 1, 1, 2]);
next = array1d(1..9 ,[9, 4, 1, 3, 2, 7, 8, 5, 6]);
makespan = 1041;
----------
assign = array1d(1..9 ,[1, 2, 2, 2, 2, 1, 1, 1, 2]);
next = array1d(1..9 ,[7, 4, 9, 3, 2, 8, 6, 5, 1]);
makespan = 1027;
----------
assign = array1d(1..9 ,[1, 2, 2, 2, 2, 1, 1, 1, 2]);
next = array1d(1..9 ,[7, 4, 9, 3, 2, 8, 6, 5, 1]);
makespan = 1019;
----------
assign = array1d(1..9 ,[1, 2, 2, 2, 2, 1, 1, 1, 2]);
next = array1d(1..9 ,[7, 4, 9, 3, 2, 8, 6, 5, 1]);
makespan = 1018;
----------
assign = array1d(1..9 ,[1, 2, 2, 2, 2, 1, 1, 1, 2]);
next = array1d(1..9 ,[7, 4, 9, 3, 2, 8, 6, 5, 1]);
makespan = 1017;
----------
assign = array1d(1..9 ,[1, 2, 2, 2, 2, 1, 1, 1, 2]);
next = array1d(1..9 ,[7, 4, 9, 3, 2, 8, 6, 5, 1]);
makespan = 1012;
----------
assign = array1d(1..9 ,[1, 2, 2, 2, 2, 1, 1, 1, 2]);
next = array1d(1..9 ,[7, 4, 9, 3, 2, 8, 6, 5, 1]);
makespan = 1011;
----------
assign = array1d(1..9 ,[1, 2, 2, 2, 2, 1, 1, 1, 2]);
next = array1d(1..9 ,[7, 4, 9, 3, 2, 8, 6, 5, 1]);
makespan = 1010;
----------
assign = array1d(1..9 ,[1, 2, 2, 2, 2, 1, 1, 1, 2]);
next = array1d(1..9 ,[7, 4, 9, 3, 2, 8, 6, 5, 1]);
makespan = 1002;
----------
assign = array1d(1..9 ,[1, 2, 2, 2, 2, 1, 1, 1, 2]);
next = array1d(1..9 ,[7, 4, 9, 3, 2, 8, 6, 5, 1]);
makespan = 1001;
----------
assign = array1d(1..9 ,[1, 2, 2, 2, 2, 1, 1, 1, 2]);
next = array1d(1..9 ,[7, 4, 9, 3, 2, 8, 6, 5, 1]);
makespan = 995;
----------
assign = array1d(1..9 ,[1, 2, 2, 2, 2, 1, 1, 1, 2]);
next = array1d(1..9 ,[7, 4, 9, 3, 2, 8, 6, 5, 1]);
makespan = 994;
----------
assign = array1d(1..9 ,[1, 2, 2, 2, 2, 1, 1, 1, 2]);
next = array1d(1..9 ,[7, 4, 9, 3, 2, 8, 6, 5, 1]);
makespan = 990;
----------
assign = array1d(1..9 ,[1, 2, 2, 2, 2, 1, 1, 1, 2]);
next = array1d(1..9 ,[7, 4, 9, 3, 2, 8, 6, 5, 1]);
makespan = 974;
----------
assign = array1d(1..9 ,[1, 2, 2, 2, 2, 1, 1, 1, 2]);
next = array1d(1..9 ,[7, 4, 9, 3, 2, 8, 6, 5, 1]);
makespan = 971;
----------
assign = array1d(1..9 ,[1, 2, 2, 2, 2, 1, 1, 1, 2]);
next = array1d(1..9 ,[7, 4, 9, 3, 2, 8, 6, 5, 1]);
makespan = 970;
----------
assign = array1d(1..9 ,[1, 2, 2, 2, 2, 1, 1, 1, 2]);
next = array1d(1..9 ,[7, 4, 9, 3, 2, 8, 6, 5, 1]);
makespan = 954;
----------
assign = array1d(1..9 ,[1, 2, 2, 2, 2, 1, 1, 1, 2]);
next = array1d(1..9 ,[7, 4, 9, 3, 2, 8, 6, 5, 1]);
makespan = 932;
----------
assign = array1d(1..9 ,[1, 2, 2, 2, 2, 1, 1, 1, 2]);
next = array1d(1..9 ,[7, 4, 9, 3, 2, 8, 6, 5, 1]);
makespan = 916;
----------
assign = array1d(1..9 ,[1, 2, 2, 2, 2, 1, 1, 1, 2]);
next = array1d(1..9 ,[7, 4, 9, 3, 2, 8, 6, 5, 1]);
makespan = 915;
----------
assign = array1d(1..9 ,[1, 2, 2, 2, 2, 1, 1, 1, 2]);
next = array1d(1..9 ,[7, 4, 9, 3, 2, 8, 6, 5, 1]);
makespan = 892;
----------
assign = array1d(1..9 ,[1, 2, 2, 2, 2, 1, 1, 1, 2]);
next = array1d(1..9 ,[7, 4, 9, 3, 2, 8, 6, 5, 1]);
makespan = 891;
----------
assign = array1d(1..9 ,[1, 2, 2, 2, 2, 1, 1, 1, 2]);
next = array1d(1..9 ,[7, 4, 9, 3, 2, 8, 6, 5, 1]);
makespan = 885;
----------
assign = array1d(1..9 ,[1, 2, 2, 2, 2, 1, 1, 1, 2]);
next = array1d(1..9 ,[7, 4, 9, 3, 2, 8, 6, 5, 1]);
makespan = 884;
----------
assign = array1d(1..9 ,[1, 2, 2, 2, 2, 1, 1, 1, 2]);
next = array1d(1..9 ,[7, 4, 9, 3, 2, 8, 6, 5, 1]);
makespan = 876;
----------
assign = array1d(1..9 ,[1, 2, 2, 2, 2, 1, 1, 1, 2]);
next = array1d(1..9 ,[7, 4, 9, 3, 2, 8, 6, 5, 1]);
makespan = 875;
----------
assign = array1d(1..9 ,[1, 2, 2, 2, 2, 1, 1, 1, 2]);
next = array1d(1..9 ,[7, 4, 9, 3, 2, 8, 6, 5, 1]);
makespan = 874;
----------
assign = array1d(1..9 ,[1, 2, 2, 2, 2, 1, 1, 1, 2]);
next = array1d(1..9 ,[7, 4, 9, 3, 2, 8, 6, 5, 1]);
makespan = 869;
----------
assign = array1d(1..9 ,[1, 2, 2, 2, 2, 1, 1, 1, 2]);
next = array1d(1..9 ,[7, 4, 9, 3, 2, 8, 6, 5, 1]);
makespan = 868;
----------
assign = array1d(1..9 ,[1, 2, 2, 2, 2, 1, 1, 1, 2]);
next = array1d(1..9 ,[7, 4, 9, 3, 2, 8, 6, 5, 1]);
makespan = 867;
----------
assign = array1d(1..9 ,[1, 2, 2, 2, 2, 1, 1, 1, 2]);
next = array1d(1..9 ,[7, 4, 9, 3, 2, 8, 6, 5, 1]);
makespan = 863;
----------
assign = array1d(1..9 ,[1, 2, 2, 2, 2, 1, 1, 1, 2]);
next = array1d(1..9 ,[7, 4, 9, 3, 2, 8, 6, 5, 1]);
makespan = 847;
----------
assign = array1d(1..9 ,[1, 2, 2, 2, 2, 1, 1, 1, 2]);
next = array1d(1..9 ,[7, 9, 5, 3, 2, 8, 6, 4, 1]);
makespan = 845;
----------
assign = array1d(1..9 ,[1, 2, 2, 2, 2, 1, 1, 1, 2]);
next = array1d(1..9 ,[7, 9, 5, 3, 2, 8, 6, 4, 1]);
makespan = 844;
----------
assign = array1d(1..9 ,[1, 2, 2, 2, 2, 1, 1, 1, 2]);
next = array1d(1..9 ,[7, 9, 5, 3, 2, 8, 6, 4, 1]);
makespan = 843;
----------
assign = array1d(1..9 ,[1, 2, 2, 2, 2, 1, 1, 1, 2]);
next = array1d(1..9 ,[7, 9, 5, 3, 2, 8, 6, 4, 1]);
makespan = 828;
----------
assign = array1d(1..9 ,[1, 2, 2, 2, 2, 1, 1, 1, 2]);
next = array1d(1..9 ,[7, 9, 5, 3, 2, 8, 6, 4, 1]);
makespan = 827;
----------
assign = array1d(1..9 ,[1, 2, 2, 2, 2, 1, 1, 1, 2]);
next = array1d(1..9 ,[7, 9, 5, 3, 2, 8, 6, 4, 1]);
makespan = 825;
----------
assign = array1d(1..9 ,[1, 2, 2, 2, 1, 2, 1, 1, 2]);
next = array1d(1..9 ,[7, 4, 9, 3, 8, 2, 5, 6, 1]);
makespan = 823;
----------
assign = array1d(1..9 ,[1, 2, 2, 2, 1, 1, 1, 1, 2]);
next = array1d(1..9 ,[7, 4, 9, 3, 8, 5, 6, 2, 1]);
makespan = 789;
----------
assign = array1d(1..9 ,[1, 2, 2, 2, 1, 1, 1, 1, 2]);
next = array1d(1..9 ,[7, 4, 9, 3, 8, 5, 6, 2, 1]);
makespan = 781;
----------
assign = array1d(1..9 ,[1, 2, 2, 2, 1, 1, 1, 1, 2]);
next = array1d(1..9 ,[7, 4, 9, 3, 8, 5, 6, 2, 1]);
makespan = 773;
----------
assign = array1d(1..9 ,[1, 2, 2, 2, 1, 1, 1, 1, 2]);
next = array1d(1..9 ,[5, 4, 9, 3, 7, 8, 6, 2, 1]);
makespan = 770;
----------
assign = array1d(1..9 ,[2, 2, 2, 1, 2, 1, 1, 1, 2]);
next = array1d(1..9 ,[3, 5, 2, 8, 9, 7, 4, 1, 6]);
makespan = 765;
----------
assign = array1d(1..9 ,[2, 2, 2, 1, 2, 1, 1, 1, 2]);
next = array1d(1..9 ,[3, 9, 5, 8, 2, 7, 4, 1, 6]);
makespan = 764;
----------
assign = array1d(1..9 ,[2, 2, 2, 1, 2, 1, 1, 1, 2]);
next = array1d(1..9 ,[3, 5, 2, 8, 9, 7, 4, 1, 6]);
makespan = 761;
----------
assign = array1d(1..9 ,[2, 2, 2, 1, 2, 1, 1, 1, 2]);
next = array1d(1..9 ,[3, 5, 2, 8, 9, 7, 4, 1, 6]);
makespan = 758;
----------
assign = array1d(1..9 ,[2, 2, 2, 1, 2, 1, 1, 1, 2]);
next = array1d(1..9 ,[3, 5, 2, 8, 9, 7, 4, 1, 6]);
makespan = 757;
----------
assign = array1d(1..9 ,[2, 2, 2, 1, 2, 1, 1, 1, 2]);
next = array1d(1..9 ,[3, 9, 2, 8, 1, 7, 4, 5, 6]);
makespan = 752;
----------
assign = array1d(1..9 ,[2, 2, 2, 1, 2, 1, 1, 1, 2]);
next = array1d(1..9 ,[3, 9, 2, 8, 1, 7, 4, 5, 6]);
makespan = 749;
----------
assign = array1d(1..9 ,[2, 1, 1, 2, 2, 1, 2, 1, 2]);
next = array1d(1..9 ,[4, 3, 8, 7, 1, 2, 9, 5, 6]);
makespan = 748;
----------
assign = array1d(1..9 ,[2, 1, 2, 1, 1, 2, 2, 1, 2]);
next = array1d(1..9 ,[7, 8, 9, 5, 2, 3, 6, 1, 4]);
makespan = 744;
----------
assign = array1d(1..9 ,[2, 1, 1, 1, 2, 2, 2, 1, 2]);
next = array1d(1..9 ,[5, 4, 8, 3, 7, 1, 9, 6, 2]);
makespan = 742;
----------
assign = array1d(1..9 ,[2, 1, 1, 1, 2, 2, 2, 1, 2]);
next = array1d(1..9 ,[5, 4, 8, 3, 7, 1, 9, 6, 2]);
makespan = 741;
----------
assign = array1d(1..9 ,[2, 1, 1, 1, 2, 2, 2, 1, 2]);
next = array1d(1..9 ,[5, 4, 8, 3, 7, 1, 9, 6, 2]);
makespan = 740;
----------
assign = array1d(1..9 ,[2, 1, 1, 1, 2, 2, 2, 1, 2]);
next = array1d(1..9 ,[5, 4, 8, 3, 7, 1, 9, 6, 2]);
makespan = 737;
----------
assign = array1d(1..9 ,[2, 1, 1, 1, 2, 2, 2, 1, 2]);
next = array1d(1..9 ,[5, 4, 8, 3, 7, 1, 9, 6, 2]);
makespan = 736;
----------
assign = array1d(1..9 ,[2, 1, 2, 1, 2, 2, 1, 1, 2]);
next = array1d(1..9 ,[3, 8, 9, 2, 6, 1, 4, 5, 7]);
makespan = 734;
----------
assign = array1d(1..9 ,[2, 1, 1, 1, 2, 2, 2, 1, 2]);
next = array1d(1..9 ,[7, 4, 8, 3, 9, 1, 5, 6, 2]);
makespan = 733;
----------
assign = array1d(1..9 ,[2, 1, 2, 1, 2, 2, 1, 1, 2]);
next = array1d(1..9 ,[3, 7, 9, 8, 6, 1, 4, 5, 2]);
makespan = 730;
----------
assign = array1d(1..9 ,[2, 1, 2, 1, 2, 2, 1, 1, 2]);
next = array1d(1..9 ,[3, 4, 9, 7, 6, 1, 8, 5, 2]);
makespan = 727;
----------
assign = array1d(1..9 ,[2, 1, 2, 1, 2, 2, 1, 1, 2]);
next = array1d(1..9 ,[5, 4, 1, 7, 9, 3, 8, 6, 2]);
makespan = 726;
----------
assign = array1d(1..9 ,[2, 1, 2, 1, 2, 2, 1, 1, 2]);
next = array1d(1..9 ,[5, 4, 1, 7, 9, 3, 8, 6, 2]);
makespan = 724;
----------
assign = array1d(1..9 ,[2, 1, 2, 1, 2, 1, 2, 1, 2]);
next = array1d(1..9 ,[5, 4, 9, 8, 7, 2, 3, 1, 6]);
makespan = 720;
----------
assign = array1d(1..9 ,[1, 1, 2, 2, 1, 2, 2, 1, 2]);
next = array1d(1..9 ,[5, 8, 9, 7, 2, 4, 3, 6, 1]);
makespan = 719;
----------
assign = array1d(1..9 ,[2, 1, 2, 1, 2, 2, 1, 1, 2]);
next = array1d(1..9 ,[3, 4, 5, 7, 9, 1, 8, 6, 2]);
makespan = 718;
----------
assign = array1d(1..9 ,[2, 1, 2, 1, 2, 2, 1, 1, 2]);
next = array1d(1..9 ,[3, 4, 5, 7, 9, 1, 8, 6, 2]);
makespan = 717;
----------
assign = array1d(1..9 ,[2, 1, 2, 1, 2, 2, 1, 1, 2]);
next = array1d(1..9 ,[3, 4, 5, 7, 9, 1, 8, 6, 2]);
makespan = 714;
----------
assign = array1d(1..9 ,[2, 1, 2, 1, 2, 2, 1, 1, 2]);
next = array1d(1..9 ,[3, 4, 5, 7, 9, 1, 8, 6, 2]);
makespan = 713;
----------
assign = array1d(1..9 ,[2, 1, 2, 1, 2, 2, 1, 1, 2]);
next = array1d(1..9 ,[3, 4, 5, 7, 9, 1, 8, 6, 2]);
makespan = 711;
----------
assign = array1d(1..9 ,[2, 1, 2, 1, 2, 2, 1, 1, 2]);
next = array1d(1..9 ,[3, 4, 5, 7, 9, 1, 8, 6, 2]);
makespan = 710;
----------
assign = array1d(1..9 ,[2, 1, 2, 1, 2, 2, 1, 1, 2]);
next = array1d(1..9 ,[3, 4, 5, 7, 9, 1, 8, 6, 2]);
makespan = 709;
----------
assign = array1d(1..9 ,[2, 1, 2, 1, 2, 2, 1, 1, 2]);
next = array1d(1..9 ,[3, 4, 5, 7, 9, 1, 8, 6, 2]);
makespan = 708;
----------
assign = array1d(1..9 ,[2, 1, 2, 1, 2, 2, 1, 1, 2]);
next = array1d(1..9 ,[3, 4, 5, 7, 9, 1, 8, 6, 2]);
makespan = 707;
----------
assign = array1d(1..9 ,[2, 1, 2, 1, 2, 2, 1, 1, 2]);
next = array1d(1..9 ,[3, 4, 5, 7, 9, 1, 8, 6, 2]);
makespan = 706;
----------
assign = array1d(1..9 ,[2, 1, 2, 1, 2, 2, 1, 1, 2]);
next = array1d(1..9 ,[3, 4, 5, 7, 9, 1, 8, 6, 2]);
makespan = 705;
----------
assign = array1d(1..9 ,[2, 1, 2, 1, 2, 2, 1, 1, 2]);
next = array1d(1..9 ,[3, 4, 5, 7, 9, 1, 8, 6, 2]);
makespan = 704;
----------
assign = array1d(1..9 ,[2, 1, 2, 1, 2, 2, 1, 1, 2]);
next = array1d(1..9 ,[3, 4, 5, 7, 9, 1, 8, 6, 2]);
makespan = 703;
----------
assign = array1d(1..9 ,[2, 1, 2, 1, 2, 2, 1, 1, 2]);
next = array1d(1..9 ,[3, 4, 5, 7, 9, 1, 8, 6, 2]);
makespan = 702;
----------
assign = array1d(1..9 ,[2, 1, 2, 1, 2, 2, 1, 1, 2]);
next = array1d(1..9 ,[3, 4, 5, 7, 9, 1, 8, 6, 2]);
makespan = 701;
----------
assign = array1d(1..9 ,[2, 1, 2, 1, 2, 2, 1, 1, 2]);
next = array1d(1..9 ,[3, 4, 5, 7, 9, 1, 8, 6, 2]);
makespan = 700;
----------
assign = array1d(1..9 ,[2, 1, 2, 1, 2, 2, 1, 1, 2]);
next = array1d(1..9 ,[3, 4, 5, 7, 9, 1, 8, 6, 2]);
makespan = 699;
----------
assign = array1d(1..9 ,[2, 1, 2, 1, 2, 2, 1, 1, 2]);
next = array1d(1..9 ,[3, 7, 9, 2, 1, 5, 8, 6, 4]);
makespan = 698;
----------
assign = array1d(1..9 ,[2, 1, 2, 1, 2, 2, 1, 1, 2]);
next = array1d(1..9 ,[3, 7, 9, 2, 1, 5, 8, 6, 4]);
makespan = 697;
----------
assign = array1d(1..9 ,[2, 1, 2, 1, 2, 2, 1, 1, 2]);
next = array1d(1..9 ,[3, 7, 9, 2, 1, 5, 8, 6, 4]);
makespan = 696;
----------
assign = array1d(1..9 ,[2, 1, 2, 1, 2, 2, 1, 1, 2]);
next = array1d(1..9 ,[3, 7, 9, 2, 1, 5, 8, 6, 4]);
makespan = 694;
----------
assign = array1d(1..9 ,[2, 1, 2, 1, 2, 2, 1, 1, 2]);
next = array1d(1..9 ,[3, 7, 9, 2, 1, 5, 8, 6, 4]);
makespan = 693;
----------
assign = array1d(1..9 ,[2, 1, 2, 1, 2, 2, 1, 1, 2]);
next = array1d(1..9 ,[3, 7, 9, 2, 1, 5, 8, 6, 4]);
makespan = 692;
----------
assign = array1d(1..9 ,[2, 1, 2, 1, 2, 2, 1, 1, 2]);
next = array1d(1..9 ,[3, 7, 9, 2, 1, 5, 8, 6, 4]);
makespan = 691;
----------
assign = array1d(1..9 ,[2, 1, 2, 1, 2, 2, 1, 1, 2]);
next = array1d(1..9 ,[3, 7, 9, 2, 1, 5, 8, 6, 4]);
makespan = 690;
----------
assign = array1d(1..9 ,[2, 1, 2, 1, 2, 2, 1, 1, 2]);
next = array1d(1..9 ,[3, 7, 9, 2, 1, 5, 8, 6, 4]);
makespan = 689;
----------
assign = array1d(1..9 ,[2, 1, 2, 1, 2, 2, 1, 1, 2]);
next = array1d(1..9 ,[3, 7, 9, 2, 1, 5, 8, 6, 4]);
makespan = 688;
----------
assign = array1d(1..9 ,[2, 1, 2, 1, 2, 2, 1, 1, 2]);
next = array1d(1..9 ,[3, 7, 9, 2, 1, 5, 8, 6, 4]);
makespan = 687;
----------
assign = array1d(1..9 ,[2, 1, 2, 1, 2, 2, 1, 1, 2]);
next = array1d(1..9 ,[3, 7, 9, 2, 1, 5, 8, 6, 4]);
makespan = 686;
----------
assign = array1d(1..9 ,[2, 1, 2, 1, 2, 2, 1, 1, 2]);
next = array1d(1..9 ,[3, 7, 9, 2, 1, 5, 8, 6, 4]);
makespan = 685;
----------
==========
	Command being timed: "mzn-chuffed lbbd-datasets/Rabadi-2006/dzn-p-dominant/model.mzn lbbd-datasets/Rabadi-2006/dzn-p-dominant/7on2Rp50Rs50_14Ameer.dzn"
	User time (seconds): 0.17
	System time (seconds): 0.00
	Percent of CPU this job got: 33%
	Elapsed (wall clock) time (h:mm:ss or m:ss): 0:00.53
	Average shared text size (kbytes): 0
	Average unshared data size (kbytes): 0
	Average stack size (kbytes): 0
	Average total size (kbytes): 0
	Maximum resident set size (kbytes): 30928
	Average resident set size (kbytes): 0
	Major (requiring I/O) page faults: 0
	Minor (reclaiming a frame) page faults: 2699
	Voluntary context switches: 139
	Involuntary context switches: 2
	Swaps: 0
	File system inputs: 0
	File system outputs: 160
	Socket messages sent: 0
	Socket messages received: 0
	Signals delivered: 0
	Page size (bytes): 4096
	Exit status: 0
