+ /usr/bin/timeout 600 /usr/bin/time -v mzn-chuffed lbbd-datasets/Rabadi-2006/dzn-p-dominant/model.mzn lbbd-datasets/Rabadi-2006/dzn-p-dominant/11on4Rp50Rs50_10Ameer.dzn
% No search annotation given. Defaulting to VSIDS!
assign = array1d(1..15 ,[4, 4, 4, 4, 4, 4, 4, 4, 4, 4, 4, 1, 2, 3, 4]);
next = array1d(1..15 ,[2, 3, 4, 5, 6, 7, 8, 9, 10, 11, 15, 13, 14, 1, 12]);
makespan = 2443;
----------
assign = array1d(1..15 ,[4, 4, 4, 4, 4, 4, 4, 4, 4, 4, 4, 1, 2, 3, 4]);
next = array1d(1..15 ,[5, 4, 6, 3, 2, 7, 8, 9, 10, 11, 15, 13, 14, 1, 12]);
makespan = 2417;
----------
assign = array1d(1..15 ,[4, 4, 4, 4, 4, 1, 4, 4, 4, 4, 4, 1, 2, 3, 4]);
next = array1d(1..15 ,[2, 3, 4, 5, 10, 12, 8, 11, 7, 15, 1, 13, 14, 9, 6]);
makespan = 2312;
----------
assign = array1d(1..15 ,[4, 4, 4, 4, 4, 3, 4, 4, 4, 4, 4, 1, 2, 3, 4]);
next = array1d(1..15 ,[10, 8, 5, 3, 7, 14, 2, 1, 4, 15, 9, 13, 6, 11, 12]);
makespan = 2309;
----------
assign = array1d(1..15 ,[4, 4, 4, 4, 3, 4, 4, 4, 4, 4, 4, 1, 2, 3, 4]);
next = array1d(1..15 ,[15, 1, 8, 9, 14, 7, 11, 4, 2, 6, 3, 13, 5, 10, 12]);
makespan = 2301;
----------
assign = array1d(1..15 ,[4, 4, 4, 4, 4, 3, 4, 4, 4, 4, 4, 1, 2, 3, 4]);
next = array1d(1..15 ,[11, 7, 5, 2, 10, 14, 1, 4, 3, 15, 9, 13, 6, 8, 12]);
makespan = 2298;
----------
assign = array1d(1..15 ,[4, 4, 1, 4, 4, 4, 4, 4, 4, 4, 4, 1, 2, 3, 4]);
next = array1d(1..15 ,[9, 1, 12, 2, 15, 11, 4, 10, 8, 5, 7, 13, 14, 6, 3]);
makespan = 2296;
----------
assign = array1d(1..15 ,[4, 4, 4, 4, 4, 4, 4, 4, 4, 1, 4, 1, 2, 3, 4]);
next = array1d(1..15 ,[4, 7, 15, 5, 8, 1, 6, 9, 11, 12, 3, 13, 14, 2, 10]);
makespan = 2290;
----------
assign = array1d(1..15 ,[4, 4, 4, 4, 4, 4, 4, 4, 4, 4, 1, 1, 2, 3, 4]);
next = array1d(1..15 ,[4, 8, 5, 3, 6, 7, 10, 9, 1, 15, 12, 13, 14, 2, 11]);
makespan = 2289;
----------
assign = array1d(1..15 ,[4, 4, 4, 4, 4, 4, 4, 4, 4, 4, 1, 1, 2, 3, 4]);
next = array1d(1..15 ,[4, 8, 7, 2, 6, 1, 15, 3, 10, 5, 12, 13, 14, 9, 11]);
makespan = 2288;
----------
assign = array1d(1..15 ,[4, 4, 1, 4, 4, 4, 4, 4, 4, 4, 4, 1, 2, 3, 4]);
next = array1d(1..15 ,[11, 7, 12, 2, 6, 8, 10, 4, 15, 1, 9, 13, 14, 5, 3]);
makespan = 2283;
----------
assign = array1d(1..15 ,[4, 4, 4, 4, 1, 4, 4, 4, 4, 4, 4, 1, 2, 3, 4]);
next = array1d(1..15 ,[4, 10, 7, 2, 12, 1, 9, 11, 8, 15, 6, 13, 14, 3, 5]);
makespan = 2281;
----------
assign = array1d(1..15 ,[4, 4, 4, 4, 4, 4, 4, 4, 4, 4, 3, 1, 2, 3, 4]);
next = array1d(1..15 ,[9, 8, 15, 5, 3, 2, 1, 10, 4, 7, 14, 13, 11, 6, 12]);
makespan = 2280;
----------
assign = array1d(1..15 ,[4, 4, 4, 4, 1, 4, 4, 4, 4, 4, 4, 1, 2, 3, 4]);
next = array1d(1..15 ,[4, 1, 2, 15, 12, 3, 11, 9, 7, 6, 10, 13, 14, 8, 5]);
makespan = 2277;
----------
assign = array1d(1..15 ,[4, 4, 4, 4, 4, 4, 4, 4, 4, 4, 1, 1, 2, 3, 4]);
next = array1d(1..15 ,[4, 6, 15, 5, 10, 1, 2, 9, 7, 3, 12, 13, 14, 8, 11]);
makespan = 2273;
----------
assign = array1d(1..15 ,[4, 4, 4, 4, 4, 4, 4, 4, 1, 4, 4, 1, 2, 3, 4]);
next = array1d(1..15 ,[15, 8, 2, 5, 6, 11, 10, 4, 12, 1, 7, 13, 14, 3, 9]);
makespan = 2272;
----------
assign = array1d(1..15 ,[4, 4, 4, 4, 4, 4, 4, 4, 4, 4, 3, 1, 2, 3, 4]);
next = array1d(1..15 ,[4, 8, 1, 15, 6, 9, 2, 10, 7, 3, 14, 13, 11, 5, 12]);
makespan = 2271;
----------
