+ /usr/bin/timeout 600 /usr/bin/time -v mzn-chuffed lbbd-datasets/Rabadi-2006/dzn-p-dominant/model.mzn lbbd-datasets/Rabadi-2006/dzn-p-dominant/10on4Rp50Rs50_1Ameer.dzn
% No search annotation given. Defaulting to VSIDS!
assign = array1d(1..14 ,[4, 4, 4, 4, 4, 4, 4, 4, 4, 4, 1, 2, 3, 4]);
next = array1d(1..14 ,[2, 3, 4, 5, 6, 7, 8, 9, 10, 14, 12, 13, 1, 11]);
makespan = 2169;
----------
assign = array1d(1..14 ,[4, 4, 4, 4, 4, 4, 4, 4, 4, 4, 1, 2, 3, 4]);
next = array1d(1..14 ,[3, 4, 2, 5, 6, 7, 8, 9, 10, 14, 12, 13, 1, 11]);
makespan = 2152;
----------
assign = array1d(1..14 ,[4, 4, 4, 4, 4, 4, 4, 4, 4, 4, 1, 2, 3, 4]);
next = array1d(1..14 ,[2, 10, 4, 8, 6, 7, 14, 9, 1, 5, 12, 13, 3, 11]);
makespan = 2107;
----------
assign = array1d(1..14 ,[4, 4, 4, 4, 4, 4, 4, 4, 4, 4, 1, 2, 3, 4]);
next = array1d(1..14 ,[2, 10, 4, 5, 6, 7, 14, 9, 3, 8, 12, 13, 1, 11]);
makespan = 2102;
----------
assign = array1d(1..14 ,[4, 4, 4, 3, 4, 4, 4, 4, 4, 4, 1, 2, 3, 4]);
next = array1d(1..14 ,[2, 14, 1, 13, 6, 8, 5, 9, 10, 3, 12, 4, 7, 11]);
makespan = 2008;
----------
assign = array1d(1..14 ,[4, 4, 2, 2, 4, 4, 4, 4, 4, 4, 1, 2, 3, 4]);
next = array1d(1..14 ,[2, 14, 4, 12, 6, 7, 8, 9, 10, 1, 3, 13, 5, 11]);
makespan = 2004;
----------
assign = array1d(1..14 ,[4, 4, 1, 1, 4, 4, 4, 4, 4, 4, 1, 2, 3, 4]);
next = array1d(1..14 ,[2, 14, 4, 11, 6, 7, 8, 9, 10, 1, 12, 13, 5, 3]);
makespan = 2001;
----------
assign = array1d(1..14 ,[4, 4, 2, 2, 4, 4, 4, 4, 4, 4, 1, 2, 3, 4]);
next = array1d(1..14 ,[2, 14, 4, 12, 6, 7, 8, 9, 10, 1, 3, 13, 5, 11]);
makespan = 1975;
----------
assign = array1d(1..14 ,[4, 4, 1, 1, 4, 4, 4, 4, 4, 4, 1, 2, 3, 4]);
next = array1d(1..14 ,[2, 14, 4, 11, 6, 7, 8, 9, 10, 1, 12, 13, 5, 3]);
makespan = 1969;
----------
assign = array1d(1..14 ,[4, 4, 2, 2, 4, 4, 4, 4, 4, 4, 1, 2, 3, 4]);
next = array1d(1..14 ,[2, 14, 4, 12, 6, 7, 8, 9, 10, 1, 3, 13, 5, 11]);
makespan = 1959;
----------
assign = array1d(1..14 ,[4, 4, 2, 2, 4, 4, 4, 4, 4, 4, 1, 2, 3, 4]);
next = array1d(1..14 ,[2, 14, 4, 12, 6, 7, 8, 9, 10, 1, 3, 13, 5, 11]);
makespan = 1932;
----------
assign = array1d(1..14 ,[4, 4, 2, 2, 4, 4, 4, 4, 4, 4, 1, 2, 3, 4]);
next = array1d(1..14 ,[2, 14, 4, 12, 6, 7, 8, 9, 10, 1, 3, 13, 5, 11]);
makespan = 1924;
----------
assign = array1d(1..14 ,[4, 4, 2, 2, 4, 4, 4, 4, 4, 4, 1, 2, 3, 4]);
next = array1d(1..14 ,[2, 14, 4, 12, 6, 7, 8, 9, 10, 1, 3, 13, 5, 11]);
makespan = 1912;
----------
assign = array1d(1..14 ,[4, 4, 2, 2, 4, 4, 4, 4, 4, 4, 1, 2, 3, 4]);
next = array1d(1..14 ,[2, 14, 4, 12, 6, 7, 8, 9, 10, 1, 3, 13, 5, 11]);
makespan = 1860;
----------
assign = array1d(1..14 ,[4, 4, 2, 2, 4, 4, 4, 4, 4, 4, 1, 2, 3, 4]);
next = array1d(1..14 ,[2, 14, 4, 12, 6, 7, 8, 9, 10, 1, 3, 13, 5, 11]);
makespan = 1849;
----------
assign = array1d(1..14 ,[4, 4, 2, 2, 4, 4, 4, 4, 4, 4, 1, 2, 3, 4]);
next = array1d(1..14 ,[2, 14, 4, 12, 6, 7, 8, 9, 10, 1, 3, 13, 5, 11]);
makespan = 1825;
----------
assign = array1d(1..14 ,[4, 4, 2, 2, 4, 4, 4, 4, 4, 4, 1, 2, 3, 4]);
next = array1d(1..14 ,[2, 14, 4, 12, 6, 7, 8, 9, 10, 1, 3, 13, 5, 11]);
makespan = 1804;
----------
assign = array1d(1..14 ,[4, 4, 2, 2, 4, 4, 4, 4, 4, 4, 1, 2, 3, 4]);
next = array1d(1..14 ,[2, 14, 4, 12, 6, 7, 8, 9, 10, 1, 3, 13, 5, 11]);
makespan = 1794;
----------
assign = array1d(1..14 ,[4, 4, 2, 2, 4, 4, 4, 4, 4, 4, 1, 2, 3, 4]);
next = array1d(1..14 ,[2, 14, 4, 12, 6, 7, 8, 9, 10, 1, 3, 13, 5, 11]);
makespan = 1748;
----------
assign = array1d(1..14 ,[4, 4, 2, 2, 4, 4, 4, 4, 4, 4, 1, 2, 3, 4]);
next = array1d(1..14 ,[2, 14, 4, 12, 6, 7, 8, 9, 10, 1, 3, 13, 5, 11]);
makespan = 1725;
----------
assign = array1d(1..14 ,[4, 4, 2, 2, 4, 4, 4, 4, 4, 4, 1, 2, 3, 4]);
next = array1d(1..14 ,[2, 5, 4, 12, 6, 7, 8, 9, 10, 14, 3, 13, 1, 11]);
makespan = 1711;
----------
assign = array1d(1..14 ,[4, 4, 2, 2, 4, 4, 4, 4, 4, 4, 1, 2, 3, 4]);
next = array1d(1..14 ,[2, 5, 4, 12, 6, 7, 14, 9, 10, 1, 3, 13, 8, 11]);
makespan = 1706;
----------
assign = array1d(1..14 ,[4, 4, 2, 2, 4, 4, 4, 4, 4, 4, 1, 2, 3, 4]);
next = array1d(1..14 ,[2, 8, 4, 12, 6, 7, 14, 9, 10, 5, 3, 13, 1, 11]);
makespan = 1690;
----------
assign = array1d(1..14 ,[4, 4, 1, 4, 4, 4, 1, 4, 4, 4, 1, 2, 3, 4]);
next = array1d(1..14 ,[2, 4, 11, 5, 6, 8, 3, 9, 10, 14, 12, 13, 1, 7]);
makespan = 1688;
----------
assign = array1d(1..14 ,[4, 4, 1, 4, 4, 4, 1, 4, 4, 4, 1, 2, 3, 4]);
next = array1d(1..14 ,[2, 8, 11, 5, 6, 1, 3, 9, 10, 14, 12, 13, 4, 7]);
makespan = 1686;
----------
assign = array1d(1..14 ,[4, 4, 3, 3, 4, 4, 3, 4, 4, 4, 1, 2, 3, 4]);
next = array1d(1..14 ,[2, 5, 4, 13, 6, 8, 3, 9, 10, 14, 12, 7, 1, 11]);
makespan = 1670;
----------
assign = array1d(1..14 ,[4, 4, 1, 1, 4, 4, 1, 4, 4, 4, 1, 2, 3, 4]);
next = array1d(1..14 ,[2, 5, 4, 11, 6, 8, 3, 9, 10, 14, 12, 13, 1, 7]);
makespan = 1669;
----------
assign = array1d(1..14 ,[4, 4, 3, 3, 4, 4, 3, 4, 4, 4, 1, 2, 3, 4]);
next = array1d(1..14 ,[2, 14, 4, 13, 6, 1, 3, 9, 10, 5, 12, 7, 8, 11]);
makespan = 1664;
----------
assign = array1d(1..14 ,[4, 4, 3, 3, 4, 4, 3, 4, 4, 4, 1, 2, 3, 4]);
next = array1d(1..14 ,[2, 14, 4, 13, 6, 8, 3, 9, 10, 1, 12, 7, 5, 11]);
makespan = 1660;
----------
assign = array1d(1..14 ,[4, 4, 3, 3, 4, 4, 3, 4, 4, 4, 1, 2, 3, 4]);
next = array1d(1..14 ,[2, 5, 4, 13, 6, 8, 3, 9, 10, 14, 12, 7, 1, 11]);
makespan = 1650;
----------
assign = array1d(1..14 ,[4, 4, 1, 1, 4, 4, 1, 4, 4, 4, 1, 2, 3, 4]);
next = array1d(1..14 ,[2, 5, 4, 11, 6, 8, 3, 9, 10, 14, 12, 13, 1, 7]);
makespan = 1649;
----------
assign = array1d(1..14 ,[4, 4, 3, 3, 4, 4, 3, 4, 4, 4, 1, 2, 3, 4]);
next = array1d(1..14 ,[2, 5, 4, 13, 6, 8, 3, 9, 10, 14, 12, 7, 1, 11]);
makespan = 1634;
----------
assign = array1d(1..14 ,[4, 4, 1, 1, 4, 4, 1, 4, 4, 4, 1, 2, 3, 4]);
next = array1d(1..14 ,[2, 5, 4, 11, 6, 8, 3, 9, 10, 14, 12, 13, 1, 7]);
makespan = 1631;
----------
assign = array1d(1..14 ,[4, 4, 3, 3, 4, 4, 3, 4, 4, 4, 1, 2, 3, 4]);
next = array1d(1..14 ,[2, 5, 4, 13, 6, 8, 3, 9, 10, 14, 12, 7, 1, 11]);
makespan = 1626;
----------
assign = array1d(1..14 ,[4, 4, 1, 1, 4, 4, 1, 4, 4, 4, 1, 2, 3, 4]);
next = array1d(1..14 ,[2, 5, 4, 11, 6, 8, 3, 9, 10, 14, 12, 13, 1, 7]);
makespan = 1623;
----------
assign = array1d(1..14 ,[4, 4, 3, 3, 4, 4, 3, 4, 4, 4, 1, 2, 3, 4]);
next = array1d(1..14 ,[2, 5, 4, 13, 6, 8, 3, 9, 10, 14, 12, 7, 1, 11]);
makespan = 1621;
----------
assign = array1d(1..14 ,[4, 4, 1, 1, 4, 4, 1, 4, 4, 4, 1, 2, 3, 4]);
next = array1d(1..14 ,[2, 5, 4, 11, 6, 8, 3, 9, 10, 14, 12, 13, 1, 7]);
makespan = 1614;
----------
assign = array1d(1..14 ,[4, 4, 3, 3, 4, 4, 3, 4, 4, 4, 1, 2, 3, 4]);
next = array1d(1..14 ,[2, 5, 4, 13, 6, 8, 3, 9, 10, 14, 12, 7, 1, 11]);
makespan = 1608;
----------
assign = array1d(1..14 ,[4, 4, 1, 1, 4, 4, 1, 4, 4, 4, 1, 2, 3, 4]);
next = array1d(1..14 ,[2, 5, 4, 11, 6, 8, 3, 9, 10, 14, 12, 13, 1, 7]);
makespan = 1603;
----------
assign = array1d(1..14 ,[4, 4, 3, 3, 4, 4, 3, 4, 4, 4, 1, 2, 3, 4]);
next = array1d(1..14 ,[2, 5, 4, 13, 6, 8, 3, 9, 10, 14, 12, 7, 1, 11]);
makespan = 1580;
----------
assign = array1d(1..14 ,[4, 4, 1, 1, 4, 4, 1, 4, 4, 4, 1, 2, 3, 4]);
next = array1d(1..14 ,[2, 5, 4, 11, 6, 8, 3, 9, 10, 14, 12, 13, 1, 7]);
makespan = 1575;
----------
assign = array1d(1..14 ,[4, 4, 3, 3, 4, 4, 3, 4, 4, 4, 1, 2, 3, 4]);
next = array1d(1..14 ,[2, 5, 4, 13, 6, 8, 3, 9, 10, 14, 12, 7, 1, 11]);
makespan = 1568;
----------
assign = array1d(1..14 ,[4, 4, 1, 1, 4, 4, 1, 4, 4, 4, 1, 2, 3, 4]);
next = array1d(1..14 ,[2, 5, 4, 11, 6, 8, 3, 9, 10, 14, 12, 13, 1, 7]);
makespan = 1553;
----------
assign = array1d(1..14 ,[4, 4, 3, 3, 4, 4, 3, 4, 4, 4, 1, 2, 3, 4]);
next = array1d(1..14 ,[2, 5, 4, 13, 6, 8, 3, 9, 10, 14, 12, 7, 1, 11]);
makespan = 1544;
----------
assign = array1d(1..14 ,[4, 4, 1, 1, 4, 4, 1, 4, 4, 4, 1, 2, 3, 4]);
next = array1d(1..14 ,[2, 5, 4, 11, 6, 8, 3, 9, 10, 14, 12, 13, 1, 7]);
makespan = 1532;
----------
assign = array1d(1..14 ,[4, 4, 3, 3, 4, 4, 3, 4, 4, 4, 1, 2, 3, 4]);
next = array1d(1..14 ,[2, 5, 4, 13, 6, 8, 3, 9, 10, 14, 12, 7, 1, 11]);
makespan = 1527;
----------
assign = array1d(1..14 ,[4, 4, 1, 1, 4, 4, 1, 4, 4, 4, 1, 2, 3, 4]);
next = array1d(1..14 ,[2, 5, 4, 11, 6, 8, 3, 9, 10, 14, 12, 13, 1, 7]);
makespan = 1507;
----------
assign = array1d(1..14 ,[4, 4, 3, 3, 4, 4, 3, 4, 4, 4, 1, 2, 3, 4]);
next = array1d(1..14 ,[2, 5, 4, 13, 6, 8, 3, 9, 10, 14, 12, 7, 1, 11]);
makespan = 1493;
----------
assign = array1d(1..14 ,[4, 4, 2, 2, 4, 4, 2, 4, 4, 4, 1, 2, 3, 4]);
next = array1d(1..14 ,[2, 14, 4, 12, 6, 1, 3, 9, 10, 5, 7, 13, 8, 11]);
makespan = 1484;
----------
assign = array1d(1..14 ,[4, 4, 2, 2, 4, 4, 2, 4, 4, 4, 1, 2, 3, 4]);
next = array1d(1..14 ,[2, 14, 4, 12, 6, 1, 3, 9, 10, 5, 7, 13, 8, 11]);
makespan = 1481;
----------
assign = array1d(1..14 ,[4, 4, 2, 2, 4, 4, 2, 4, 4, 4, 1, 2, 3, 4]);
next = array1d(1..14 ,[2, 14, 4, 12, 6, 1, 3, 9, 10, 5, 7, 13, 8, 11]);
makespan = 1476;
----------
assign = array1d(1..14 ,[4, 4, 2, 2, 4, 4, 2, 4, 4, 4, 1, 2, 3, 4]);
next = array1d(1..14 ,[2, 14, 4, 12, 6, 1, 3, 9, 10, 5, 7, 13, 8, 11]);
makespan = 1468;
----------
assign = array1d(1..14 ,[4, 4, 2, 2, 4, 4, 2, 4, 4, 4, 1, 2, 3, 4]);
next = array1d(1..14 ,[2, 14, 4, 12, 6, 1, 3, 9, 10, 5, 7, 13, 8, 11]);
makespan = 1465;
----------
assign = array1d(1..14 ,[4, 4, 2, 2, 4, 4, 2, 4, 4, 4, 1, 2, 3, 4]);
next = array1d(1..14 ,[2, 8, 4, 12, 6, 1, 3, 9, 10, 14, 7, 13, 5, 11]);
makespan = 1459;
----------
assign = array1d(1..14 ,[4, 4, 1, 4, 4, 4, 1, 4, 4, 1, 1, 2, 3, 4]);
next = array1d(1..14 ,[2, 5, 7, 1, 6, 8, 11, 9, 14, 3, 12, 13, 4, 10]);
makespan = 1455;
----------
assign = array1d(1..14 ,[4, 4, 3, 3, 4, 4, 3, 4, 4, 4, 1, 2, 3, 4]);
next = array1d(1..14 ,[2, 8, 7, 3, 6, 1, 13, 9, 14, 5, 12, 4, 10, 11]);
makespan = 1454;
----------
assign = array1d(1..14 ,[4, 4, 3, 3, 4, 4, 3, 4, 4, 4, 1, 2, 3, 4]);
next = array1d(1..14 ,[2, 10, 7, 3, 6, 14, 13, 9, 1, 5, 12, 4, 8, 11]);
makespan = 1453;
----------
assign = array1d(1..14 ,[4, 4, 3, 3, 4, 4, 3, 4, 4, 4, 1, 2, 3, 4]);
next = array1d(1..14 ,[2, 10, 7, 3, 6, 14, 13, 9, 1, 5, 12, 4, 8, 11]);
makespan = 1450;
----------
assign = array1d(1..14 ,[4, 4, 3, 3, 4, 4, 3, 4, 4, 4, 1, 2, 3, 4]);
next = array1d(1..14 ,[2, 10, 7, 3, 6, 14, 13, 9, 1, 5, 12, 4, 8, 11]);
makespan = 1446;
----------
assign = array1d(1..14 ,[4, 4, 3, 3, 4, 4, 3, 4, 4, 4, 1, 2, 3, 4]);
next = array1d(1..14 ,[2, 10, 7, 3, 6, 14, 13, 9, 1, 5, 12, 4, 8, 11]);
makespan = 1425;
----------
assign = array1d(1..14 ,[4, 4, 3, 3, 4, 4, 3, 4, 4, 3, 1, 2, 3, 4]);
next = array1d(1..14 ,[2, 5, 4, 13, 6, 8, 10, 9, 14, 3, 12, 7, 1, 11]);
makespan = 1416;
----------
assign = array1d(1..14 ,[4, 4, 1, 1, 4, 4, 1, 4, 4, 1, 1, 2, 3, 4]);
next = array1d(1..14 ,[2, 5, 4, 11, 6, 8, 10, 9, 14, 3, 12, 13, 1, 7]);
makespan = 1413;
----------
assign = array1d(1..14 ,[4, 4, 1, 1, 4, 4, 1, 4, 4, 1, 1, 2, 3, 4]);
next = array1d(1..14 ,[2, 5, 4, 11, 6, 8, 10, 9, 14, 3, 12, 13, 1, 7]);
makespan = 1408;
----------
assign = array1d(1..14 ,[4, 4, 1, 1, 4, 4, 1, 4, 4, 1, 1, 2, 3, 4]);
next = array1d(1..14 ,[2, 5, 4, 11, 6, 8, 10, 9, 14, 3, 12, 13, 1, 7]);
makespan = 1399;
----------
assign = array1d(1..14 ,[4, 4, 1, 1, 4, 4, 1, 4, 4, 1, 1, 2, 3, 4]);
next = array1d(1..14 ,[2, 5, 4, 11, 6, 8, 10, 9, 14, 3, 12, 13, 1, 7]);
makespan = 1383;
----------
assign = array1d(1..14 ,[4, 4, 1, 1, 4, 4, 1, 4, 4, 1, 1, 2, 3, 4]);
next = array1d(1..14 ,[2, 5, 4, 11, 6, 8, 10, 9, 14, 3, 12, 13, 1, 7]);
makespan = 1378;
----------
assign = array1d(1..14 ,[4, 4, 1, 1, 4, 4, 1, 4, 4, 1, 1, 2, 3, 4]);
next = array1d(1..14 ,[2, 5, 4, 11, 6, 8, 10, 9, 14, 3, 12, 13, 1, 7]);
makespan = 1337;
----------
assign = array1d(1..14 ,[4, 4, 1, 1, 4, 4, 1, 4, 4, 1, 1, 2, 3, 4]);
next = array1d(1..14 ,[2, 5, 4, 11, 6, 8, 10, 9, 14, 3, 12, 13, 1, 7]);
makespan = 1332;
----------
assign = array1d(1..14 ,[4, 4, 1, 1, 4, 4, 1, 4, 4, 1, 1, 2, 3, 4]);
next = array1d(1..14 ,[2, 5, 4, 11, 6, 8, 10, 9, 14, 3, 12, 13, 1, 7]);
makespan = 1320;
----------
assign = array1d(1..14 ,[4, 4, 1, 1, 4, 4, 1, 4, 4, 1, 1, 2, 3, 4]);
next = array1d(1..14 ,[2, 5, 4, 11, 6, 8, 10, 9, 14, 3, 12, 13, 1, 7]);
makespan = 1317;
----------
assign = array1d(1..14 ,[4, 4, 1, 1, 4, 4, 1, 4, 4, 1, 1, 2, 3, 4]);
next = array1d(1..14 ,[2, 5, 4, 11, 6, 8, 10, 9, 14, 3, 12, 13, 1, 7]);
makespan = 1312;
----------
assign = array1d(1..14 ,[4, 4, 1, 1, 4, 4, 1, 4, 4, 1, 1, 2, 3, 4]);
next = array1d(1..14 ,[2, 5, 4, 11, 6, 8, 10, 9, 14, 3, 12, 13, 1, 7]);
makespan = 1303;
----------
assign = array1d(1..14 ,[4, 4, 1, 1, 4, 4, 1, 4, 4, 1, 1, 2, 3, 4]);
next = array1d(1..14 ,[2, 5, 4, 11, 6, 8, 10, 9, 14, 3, 12, 13, 1, 7]);
makespan = 1245;
----------
assign = array1d(1..14 ,[4, 4, 3, 3, 4, 4, 3, 4, 4, 3, 1, 2, 3, 4]);
next = array1d(1..14 ,[2, 14, 4, 13, 6, 8, 10, 9, 1, 3, 12, 7, 5, 11]);
makespan = 1241;
----------
assign = array1d(1..14 ,[4, 4, 3, 3, 4, 4, 3, 4, 4, 3, 1, 2, 3, 4]);
next = array1d(1..14 ,[2, 14, 4, 13, 6, 8, 10, 9, 1, 3, 12, 7, 5, 11]);
makespan = 1230;
----------
assign = array1d(1..14 ,[4, 4, 3, 3, 4, 4, 3, 4, 4, 3, 1, 2, 3, 4]);
next = array1d(1..14 ,[2, 14, 4, 13, 6, 8, 10, 9, 1, 3, 12, 7, 5, 11]);
makespan = 1227;
----------
assign = array1d(1..14 ,[4, 4, 3, 3, 4, 4, 3, 4, 4, 3, 1, 2, 3, 4]);
next = array1d(1..14 ,[2, 5, 4, 13, 6, 14, 10, 9, 1, 3, 12, 7, 8, 11]);
makespan = 1211;
----------
assign = array1d(1..14 ,[4, 1, 1, 1, 4, 4, 1, 4, 4, 1, 1, 2, 3, 4]);
next = array1d(1..14 ,[5, 10, 4, 7, 6, 8, 11, 9, 14, 3, 12, 13, 1, 2]);
makespan = 1207;
----------
assign = array1d(1..14 ,[4, 1, 1, 4, 4, 4, 1, 4, 4, 1, 1, 2, 3, 4]);
next = array1d(1..14 ,[14, 10, 2, 1, 6, 4, 3, 9, 5, 11, 12, 13, 8, 7]);
makespan = 1206;
----------
assign = array1d(1..14 ,[4, 2, 1, 4, 4, 4, 1, 4, 4, 2, 1, 2, 3, 4]);
next = array1d(1..14 ,[14, 10, 11, 1, 6, 4, 3, 9, 5, 12, 2, 13, 8, 7]);
makespan = 1199;
----------
assign = array1d(1..14 ,[1, 1, 4, 1, 4, 4, 1, 4, 4, 1, 1, 2, 3, 4]);
next = array1d(1..14 ,[4, 7, 14, 2, 6, 3, 11, 9, 5, 1, 12, 13, 8, 10]);
makespan = 1197;
----------
assign = array1d(1..14 ,[2, 2, 2, 2, 4, 4, 2, 4, 4, 4, 1, 2, 3, 4]);
next = array1d(1..14 ,[4, 1, 12, 3, 6, 14, 2, 9, 5, 8, 7, 13, 10, 11]);
makespan = 1194;
----------
assign = array1d(1..14 ,[1, 1, 1, 1, 4, 4, 1, 4, 4, 4, 1, 2, 3, 4]);
next = array1d(1..14 ,[11, 1, 4, 2, 6, 14, 3, 9, 5, 8, 12, 13, 10, 7]);
makespan = 1191;
----------
assign = array1d(1..14 ,[1, 1, 1, 1, 4, 4, 1, 4, 4, 4, 1, 2, 3, 4]);
next = array1d(1..14 ,[11, 1, 4, 2, 6, 14, 3, 9, 5, 8, 12, 13, 10, 7]);
makespan = 1186;
----------
assign = array1d(1..14 ,[1, 1, 1, 1, 4, 4, 1, 4, 4, 4, 1, 2, 3, 4]);
next = array1d(1..14 ,[11, 1, 4, 2, 6, 14, 3, 9, 5, 8, 12, 13, 10, 7]);
makespan = 1185;
----------
assign = array1d(1..14 ,[1, 1, 1, 1, 4, 4, 1, 4, 4, 4, 1, 2, 3, 4]);
next = array1d(1..14 ,[11, 1, 4, 2, 6, 14, 3, 9, 5, 8, 12, 13, 10, 7]);
makespan = 1183;
----------
assign = array1d(1..14 ,[1, 1, 1, 1, 4, 4, 1, 4, 4, 4, 1, 2, 3, 4]);
next = array1d(1..14 ,[11, 1, 4, 2, 6, 14, 3, 9, 5, 8, 12, 13, 10, 7]);
makespan = 1177;
----------
assign = array1d(1..14 ,[1, 1, 1, 1, 4, 4, 1, 4, 4, 4, 1, 2, 3, 4]);
next = array1d(1..14 ,[11, 1, 4, 2, 6, 14, 3, 9, 5, 8, 12, 13, 10, 7]);
makespan = 1174;
----------
assign = array1d(1..14 ,[1, 1, 1, 1, 4, 4, 1, 4, 4, 4, 1, 2, 3, 4]);
next = array1d(1..14 ,[11, 1, 4, 2, 6, 14, 3, 9, 5, 8, 12, 13, 10, 7]);
makespan = 1172;
----------
assign = array1d(1..14 ,[1, 1, 1, 1, 4, 4, 1, 4, 4, 4, 1, 2, 3, 4]);
next = array1d(1..14 ,[11, 1, 4, 2, 6, 14, 3, 9, 5, 8, 12, 13, 10, 7]);
makespan = 1165;
----------
assign = array1d(1..14 ,[1, 1, 1, 1, 4, 4, 1, 4, 4, 4, 1, 2, 3, 4]);
next = array1d(1..14 ,[11, 1, 4, 2, 6, 14, 3, 9, 5, 8, 12, 13, 10, 7]);
makespan = 1160;
----------
assign = array1d(1..14 ,[1, 1, 1, 1, 4, 4, 1, 4, 4, 4, 1, 2, 3, 4]);
next = array1d(1..14 ,[11, 1, 4, 2, 6, 14, 3, 9, 5, 8, 12, 13, 10, 7]);
makespan = 1152;
----------
assign = array1d(1..14 ,[1, 1, 1, 1, 4, 4, 1, 4, 4, 4, 1, 2, 3, 4]);
next = array1d(1..14 ,[11, 1, 4, 2, 6, 14, 3, 9, 5, 8, 12, 13, 10, 7]);
makespan = 1149;
----------
assign = array1d(1..14 ,[1, 1, 1, 1, 4, 4, 1, 4, 4, 4, 1, 2, 3, 4]);
next = array1d(1..14 ,[11, 1, 4, 2, 6, 14, 3, 9, 5, 8, 12, 13, 10, 7]);
makespan = 1145;
----------
assign = array1d(1..14 ,[1, 1, 1, 1, 4, 4, 1, 4, 4, 4, 1, 2, 3, 4]);
next = array1d(1..14 ,[11, 1, 4, 2, 6, 14, 3, 9, 5, 8, 12, 13, 10, 7]);
makespan = 1135;
----------
assign = array1d(1..14 ,[1, 1, 1, 1, 4, 4, 1, 4, 4, 4, 1, 2, 3, 4]);
next = array1d(1..14 ,[11, 1, 4, 2, 6, 14, 3, 9, 5, 8, 12, 13, 10, 7]);
makespan = 1131;
----------
assign = array1d(1..14 ,[1, 1, 1, 1, 4, 4, 1, 4, 4, 4, 1, 2, 3, 4]);
next = array1d(1..14 ,[11, 1, 4, 2, 6, 14, 3, 9, 5, 8, 12, 13, 10, 7]);
makespan = 1130;
----------
assign = array1d(1..14 ,[1, 1, 1, 1, 4, 4, 1, 4, 4, 4, 1, 2, 3, 4]);
next = array1d(1..14 ,[11, 1, 4, 2, 6, 14, 3, 9, 5, 8, 12, 13, 10, 7]);
makespan = 1119;
----------
assign = array1d(1..14 ,[1, 1, 1, 1, 4, 4, 1, 4, 4, 4, 1, 2, 3, 4]);
next = array1d(1..14 ,[11, 1, 4, 2, 6, 14, 3, 9, 5, 8, 12, 13, 10, 7]);
makespan = 1118;
----------
assign = array1d(1..14 ,[1, 1, 1, 1, 4, 4, 1, 4, 4, 4, 1, 2, 3, 4]);
next = array1d(1..14 ,[11, 1, 4, 2, 6, 14, 3, 9, 5, 8, 12, 13, 10, 7]);
makespan = 1113;
----------
assign = array1d(1..14 ,[1, 1, 1, 1, 4, 4, 1, 4, 4, 4, 1, 2, 3, 4]);
next = array1d(1..14 ,[11, 1, 4, 2, 6, 14, 3, 9, 5, 8, 12, 13, 10, 7]);
makespan = 1106;
----------
assign = array1d(1..14 ,[1, 1, 1, 1, 4, 4, 1, 4, 4, 4, 1, 2, 3, 4]);
next = array1d(1..14 ,[11, 1, 4, 2, 6, 14, 3, 9, 5, 8, 12, 13, 10, 7]);
makespan = 1104;
----------
assign = array1d(1..14 ,[1, 1, 1, 1, 4, 4, 1, 4, 4, 4, 1, 2, 3, 4]);
next = array1d(1..14 ,[11, 1, 4, 2, 6, 14, 3, 9, 5, 8, 12, 13, 10, 7]);
makespan = 1098;
----------
assign = array1d(1..14 ,[1, 1, 1, 1, 4, 4, 1, 4, 4, 4, 1, 2, 3, 4]);
next = array1d(1..14 ,[11, 1, 4, 2, 6, 14, 3, 9, 5, 8, 12, 13, 10, 7]);
makespan = 1092;
----------
assign = array1d(1..14 ,[1, 1, 1, 1, 4, 4, 1, 4, 4, 4, 1, 2, 3, 4]);
next = array1d(1..14 ,[11, 1, 4, 2, 6, 14, 3, 9, 5, 8, 12, 13, 10, 7]);
makespan = 1089;
----------
assign = array1d(1..14 ,[1, 1, 1, 1, 4, 4, 1, 4, 4, 4, 1, 2, 3, 4]);
next = array1d(1..14 ,[11, 1, 4, 2, 6, 14, 3, 9, 5, 8, 12, 13, 10, 7]);
makespan = 1075;
----------
assign = array1d(1..14 ,[1, 1, 1, 1, 4, 4, 1, 4, 4, 4, 1, 2, 3, 4]);
next = array1d(1..14 ,[11, 1, 4, 2, 6, 14, 3, 9, 5, 8, 12, 13, 10, 7]);
makespan = 1073;
----------
assign = array1d(1..14 ,[1, 1, 1, 1, 4, 4, 1, 4, 4, 4, 1, 2, 3, 4]);
next = array1d(1..14 ,[11, 1, 4, 2, 6, 14, 3, 9, 5, 8, 12, 13, 10, 7]);
makespan = 1072;
----------
assign = array1d(1..14 ,[1, 1, 1, 1, 4, 4, 1, 4, 4, 4, 1, 2, 3, 4]);
next = array1d(1..14 ,[11, 1, 4, 2, 6, 14, 3, 9, 5, 8, 12, 13, 10, 7]);
makespan = 1069;
----------
assign = array1d(1..14 ,[1, 1, 1, 1, 4, 4, 1, 4, 4, 4, 1, 2, 3, 4]);
next = array1d(1..14 ,[11, 1, 4, 2, 6, 14, 3, 9, 5, 8, 12, 13, 10, 7]);
makespan = 1055;
----------
assign = array1d(1..14 ,[1, 1, 1, 1, 4, 4, 1, 4, 4, 4, 1, 2, 3, 4]);
next = array1d(1..14 ,[11, 1, 4, 2, 6, 14, 3, 9, 5, 8, 12, 13, 10, 7]);
makespan = 1053;
----------
assign = array1d(1..14 ,[1, 1, 1, 1, 4, 4, 1, 4, 4, 4, 1, 2, 3, 4]);
next = array1d(1..14 ,[11, 1, 4, 2, 6, 10, 3, 9, 5, 14, 12, 13, 8, 7]);
makespan = 1042;
----------
assign = array1d(1..14 ,[1, 1, 1, 1, 4, 4, 1, 4, 4, 4, 1, 2, 3, 4]);
next = array1d(1..14 ,[11, 1, 4, 2, 6, 10, 3, 9, 5, 14, 12, 13, 8, 7]);
makespan = 1040;
----------
assign = array1d(1..14 ,[2, 2, 2, 4, 4, 4, 2, 4, 4, 2, 1, 2, 3, 4]);
next = array1d(1..14 ,[10, 12, 7, 8, 6, 14, 2, 9, 5, 3, 1, 13, 4, 11]);
makespan = 1038;
----------
assign = array1d(1..14 ,[3, 3, 3, 4, 4, 4, 3, 4, 4, 3, 1, 2, 3, 4]);
next = array1d(1..14 ,[10, 13, 7, 8, 6, 14, 2, 9, 5, 3, 12, 1, 4, 11]);
makespan = 1032;
----------
assign = array1d(1..14 ,[3, 3, 3, 4, 4, 4, 3, 4, 4, 3, 1, 2, 3, 4]);
next = array1d(1..14 ,[10, 13, 7, 8, 6, 14, 2, 9, 5, 3, 12, 1, 4, 11]);
makespan = 1026;
----------
assign = array1d(1..14 ,[3, 3, 3, 4, 4, 4, 3, 4, 4, 3, 1, 2, 3, 4]);
next = array1d(1..14 ,[10, 13, 7, 8, 6, 14, 2, 9, 5, 3, 12, 1, 4, 11]);
makespan = 1022;
----------
assign = array1d(1..14 ,[3, 3, 3, 4, 4, 4, 3, 4, 4, 3, 1, 2, 3, 4]);
next = array1d(1..14 ,[10, 13, 7, 8, 6, 14, 2, 9, 5, 3, 12, 1, 4, 11]);
makespan = 1018;
----------
assign = array1d(1..14 ,[3, 3, 3, 4, 4, 4, 3, 4, 4, 3, 1, 2, 3, 4]);
next = array1d(1..14 ,[10, 13, 7, 14, 6, 4, 2, 9, 5, 3, 12, 1, 8, 11]);
makespan = 1017;
----------
assign = array1d(1..14 ,[3, 3, 3, 4, 4, 4, 3, 4, 4, 3, 1, 2, 3, 4]);
next = array1d(1..14 ,[10, 13, 7, 14, 6, 4, 2, 9, 5, 3, 12, 1, 8, 11]);
makespan = 1013;
----------
assign = array1d(1..14 ,[3, 3, 3, 4, 4, 4, 3, 4, 4, 3, 1, 2, 3, 4]);
next = array1d(1..14 ,[10, 13, 7, 14, 6, 4, 2, 9, 5, 3, 12, 1, 8, 11]);
makespan = 1012;
----------
assign = array1d(1..14 ,[3, 3, 3, 4, 4, 4, 3, 4, 4, 3, 1, 2, 3, 4]);
next = array1d(1..14 ,[10, 13, 7, 14, 6, 4, 2, 9, 5, 3, 12, 1, 8, 11]);
makespan = 1009;
----------
assign = array1d(1..14 ,[1, 1, 1, 4, 4, 4, 1, 4, 4, 1, 1, 2, 3, 4]);
next = array1d(1..14 ,[10, 11, 7, 14, 6, 4, 2, 9, 5, 3, 12, 13, 8, 1]);
makespan = 993;
----------
assign = array1d(1..14 ,[1, 1, 1, 4, 4, 4, 1, 4, 4, 1, 1, 2, 3, 4]);
next = array1d(1..14 ,[10, 11, 7, 14, 6, 4, 2, 9, 5, 3, 12, 13, 8, 1]);
makespan = 992;
----------
assign = array1d(1..14 ,[1, 1, 1, 4, 4, 4, 1, 4, 4, 1, 1, 2, 3, 4]);
next = array1d(1..14 ,[10, 11, 7, 14, 6, 4, 2, 9, 5, 3, 12, 13, 8, 1]);
makespan = 984;
----------
assign = array1d(1..14 ,[2, 3, 2, 2, 4, 4, 3, 4, 4, 2, 1, 2, 3, 4]);
next = array1d(1..14 ,[10, 13, 4, 12, 6, 14, 2, 9, 5, 3, 1, 7, 8, 11]);
makespan = 975;
----------
assign = array1d(1..14 ,[4, 2, 4, 1, 2, 2, 4, 1, 1, 4, 1, 2, 3, 4]);
next = array1d(1..14 ,[7, 12, 1, 8, 6, 2, 14, 9, 11, 3, 5, 13, 10, 4]);
makespan = 974;
----------
assign = array1d(1..14 ,[4, 4, 4, 2, 3, 3, 4, 2, 2, 3, 1, 2, 3, 4]);
next = array1d(1..14 ,[7, 14, 2, 8, 6, 13, 3, 12, 4, 5, 9, 10, 1, 11]);
makespan = 973;
----------
assign = array1d(1..14 ,[3, 3, 1, 4, 3, 3, 2, 4, 4, 4, 1, 2, 3, 4]);
next = array1d(1..14 ,[5, 1, 11, 8, 6, 13, 12, 10, 4, 14, 7, 2, 9, 3]);
makespan = 962;
----------
assign = array1d(1..14 ,[2, 2, 4, 3, 4, 4, 3, 3, 3, 4, 1, 2, 3, 4]);
next = array1d(1..14 ,[2, 12, 14, 8, 6, 3, 9, 13, 4, 5, 1, 7, 10, 11]);
makespan = 961;
----------
assign = array1d(1..14 ,[4, 4, 2, 3, 2, 2, 4, 3, 4, 3, 1, 2, 3, 4]);
next = array1d(1..14 ,[2, 9, 12, 8, 6, 3, 1, 10, 14, 13, 5, 4, 7, 11]);
makespan = 960;
----------
assign = array1d(1..14 ,[4, 3, 4, 3, 4, 4, 2, 3, 1, 3, 1, 2, 3, 4]);
next = array1d(1..14 ,[5, 13, 14, 8, 6, 3, 12, 10, 11, 2, 7, 4, 1, 9]);
makespan = 959;
----------
assign = array1d(1..14 ,[4, 2, 4, 3, 4, 4, 2, 3, 3, 3, 1, 2, 3, 4]);
next = array1d(1..14 ,[5, 7, 14, 8, 6, 3, 12, 10, 13, 9, 2, 4, 1, 11]);
makespan = 958;
----------
assign = array1d(1..14 ,[2, 4, 4, 3, 4, 4, 2, 3, 3, 3, 1, 2, 3, 4]);
next = array1d(1..14 ,[7, 14, 2, 8, 6, 3, 12, 10, 13, 9, 1, 4, 5, 11]);
makespan = 956;
----------
assign = array1d(1..14 ,[3, 2, 4, 4, 4, 4, 2, 3, 2, 3, 1, 2, 3, 4]);
next = array1d(1..14 ,[13, 7, 4, 14, 6, 3, 12, 10, 2, 1, 9, 8, 5, 11]);
makespan = 954;
----------
assign = array1d(1..14 ,[3, 4, 4, 3, 4, 4, 3, 2, 3, 2, 1, 2, 3, 4]);
next = array1d(1..14 ,[7, 5, 14, 1, 6, 3, 13, 10, 4, 12, 8, 9, 2, 11]);
makespan = 953;
----------
assign = array1d(1..14 ,[2, 3, 4, 4, 2, 2, 3, 4, 3, 4, 1, 2, 3, 4]);
next = array1d(1..14 ,[12, 7, 4, 8, 1, 5, 13, 10, 2, 14, 6, 9, 3, 11]);
makespan = 952;
----------
assign = array1d(1..14 ,[4, 2, 3, 2, 2, 2, 4, 1, 4, 4, 1, 2, 3, 4]);
next = array1d(1..14 ,[7, 4, 13, 12, 6, 2, 10, 11, 14, 9, 5, 3, 1, 8]);
makespan = 951;
----------
assign = array1d(1..14 ,[2, 4, 2, 4, 3, 4, 2, 4, 3, 2, 1, 2, 3, 4]);
next = array1d(1..14 ,[7, 4, 10, 8, 13, 2, 3, 14, 5, 12, 1, 9, 6, 11]);
makespan = 947;
----------
assign = array1d(1..14 ,[4, 1, 4, 1, 3, 3, 4, 1, 3, 4, 1, 2, 3, 4]);
next = array1d(1..14 ,[7, 4, 10, 11, 13, 9, 3, 2, 5, 14, 12, 6, 1, 8]);
makespan = 944;
----------
assign = array1d(1..14 ,[4, 3, 4, 3, 3, 2, 4, 2, 3, 4, 1, 2, 3, 4]);
next = array1d(1..14 ,[7, 4, 10, 9, 13, 8, 3, 12, 5, 14, 6, 2, 1, 11]);
makespan = 938;
----------
assign = array1d(1..14 ,[2, 3, 2, 3, 4, 4, 2, 4, 4, 2, 1, 2, 3, 4]);
next = array1d(1..14 ,[7, 4, 10, 13, 14, 9, 3, 6, 5, 12, 1, 2, 8, 11]);
makespan = 937;
----------
assign = array1d(1..14 ,[4, 3, 4, 3, 3, 1, 4, 1, 3, 4, 1, 2, 3, 4]);
next = array1d(1..14 ,[7, 4, 10, 9, 13, 8, 3, 11, 5, 14, 12, 2, 1, 6]);
makespan = 931;
----------
assign = array1d(1..14 ,[4, 3, 4, 3, 3, 1, 4, 1, 3, 4, 1, 2, 3, 4]);
next = array1d(1..14 ,[7, 4, 10, 9, 13, 8, 3, 11, 5, 14, 12, 2, 1, 6]);
makespan = 930;
----------
assign = array1d(1..14 ,[4, 3, 4, 3, 3, 1, 4, 1, 3, 4, 1, 2, 3, 4]);
next = array1d(1..14 ,[7, 4, 10, 9, 13, 8, 3, 11, 5, 14, 12, 2, 1, 6]);
makespan = 926;
----------
assign = array1d(1..14 ,[4, 3, 4, 3, 3, 1, 4, 1, 3, 4, 1, 2, 3, 4]);
next = array1d(1..14 ,[7, 4, 10, 9, 13, 8, 3, 11, 5, 14, 12, 2, 1, 6]);
makespan = 924;
----------
assign = array1d(1..14 ,[4, 3, 4, 3, 3, 1, 4, 1, 3, 4, 1, 2, 3, 4]);
next = array1d(1..14 ,[7, 4, 10, 9, 13, 8, 3, 11, 5, 14, 12, 2, 1, 6]);
makespan = 923;
----------
assign = array1d(1..14 ,[4, 3, 4, 3, 3, 1, 4, 1, 3, 4, 1, 2, 3, 4]);
next = array1d(1..14 ,[7, 4, 10, 9, 13, 8, 3, 11, 5, 14, 12, 2, 1, 6]);
makespan = 922;
----------
assign = array1d(1..14 ,[4, 3, 4, 3, 3, 1, 4, 1, 3, 4, 1, 2, 3, 4]);
next = array1d(1..14 ,[7, 4, 10, 9, 13, 8, 3, 11, 5, 14, 12, 2, 1, 6]);
makespan = 919;
----------
assign = array1d(1..14 ,[4, 3, 4, 3, 3, 1, 4, 1, 3, 4, 1, 2, 3, 4]);
next = array1d(1..14 ,[7, 4, 10, 9, 13, 8, 3, 11, 5, 14, 12, 2, 1, 6]);
makespan = 917;
----------
assign = array1d(1..14 ,[4, 3, 4, 3, 3, 1, 4, 1, 3, 4, 1, 2, 3, 4]);
next = array1d(1..14 ,[7, 4, 10, 9, 13, 8, 3, 11, 5, 14, 12, 2, 1, 6]);
makespan = 915;
----------
assign = array1d(1..14 ,[4, 3, 4, 3, 3, 1, 4, 1, 3, 4, 1, 2, 3, 4]);
next = array1d(1..14 ,[7, 4, 10, 9, 13, 8, 3, 11, 5, 14, 12, 2, 1, 6]);
makespan = 914;
----------
assign = array1d(1..14 ,[4, 3, 4, 3, 3, 1, 4, 1, 3, 4, 1, 2, 3, 4]);
next = array1d(1..14 ,[7, 4, 10, 9, 13, 8, 3, 11, 5, 14, 12, 2, 1, 6]);
makespan = 913;
----------
assign = array1d(1..14 ,[4, 3, 4, 3, 3, 1, 4, 1, 3, 4, 1, 2, 3, 4]);
next = array1d(1..14 ,[7, 4, 10, 9, 13, 8, 3, 11, 5, 14, 12, 2, 1, 6]);
makespan = 911;
----------
assign = array1d(1..14 ,[4, 3, 4, 3, 3, 1, 4, 1, 3, 4, 1, 2, 3, 4]);
next = array1d(1..14 ,[7, 4, 10, 9, 13, 8, 3, 11, 5, 14, 12, 2, 1, 6]);
makespan = 909;
----------
assign = array1d(1..14 ,[4, 3, 4, 3, 3, 1, 4, 1, 3, 4, 1, 2, 3, 4]);
next = array1d(1..14 ,[7, 4, 10, 9, 13, 8, 3, 11, 5, 14, 12, 2, 1, 6]);
makespan = 907;
----------
assign = array1d(1..14 ,[4, 3, 4, 3, 3, 1, 4, 1, 3, 4, 1, 2, 3, 4]);
next = array1d(1..14 ,[7, 4, 10, 9, 13, 8, 3, 11, 5, 14, 12, 2, 1, 6]);
makespan = 904;
----------
assign = array1d(1..14 ,[4, 3, 4, 3, 3, 1, 4, 1, 3, 4, 1, 2, 3, 4]);
next = array1d(1..14 ,[7, 4, 10, 9, 13, 8, 3, 11, 5, 14, 12, 2, 1, 6]);
makespan = 903;
----------
assign = array1d(1..14 ,[4, 3, 4, 3, 3, 1, 4, 1, 3, 4, 1, 2, 3, 4]);
next = array1d(1..14 ,[7, 4, 10, 9, 13, 8, 3, 11, 5, 14, 12, 2, 1, 6]);
makespan = 897;
----------
assign = array1d(1..14 ,[4, 3, 4, 3, 3, 1, 4, 1, 3, 4, 1, 2, 3, 4]);
next = array1d(1..14 ,[7, 4, 10, 9, 13, 8, 3, 11, 5, 14, 12, 2, 1, 6]);
makespan = 895;
----------
assign = array1d(1..14 ,[4, 3, 4, 3, 3, 1, 4, 1, 3, 4, 1, 2, 3, 4]);
next = array1d(1..14 ,[7, 4, 10, 9, 13, 8, 3, 11, 5, 14, 12, 2, 1, 6]);
makespan = 894;
----------
assign = array1d(1..14 ,[4, 3, 4, 3, 3, 1, 4, 1, 3, 4, 1, 2, 3, 4]);
next = array1d(1..14 ,[7, 4, 10, 9, 13, 8, 3, 11, 5, 14, 12, 2, 1, 6]);
makespan = 891;
----------
assign = array1d(1..14 ,[4, 3, 4, 3, 3, 1, 4, 1, 3, 4, 1, 2, 3, 4]);
next = array1d(1..14 ,[7, 4, 10, 9, 13, 8, 3, 11, 5, 14, 12, 2, 1, 6]);
makespan = 886;
----------
assign = array1d(1..14 ,[4, 3, 4, 3, 3, 1, 4, 1, 3, 4, 1, 2, 3, 4]);
next = array1d(1..14 ,[7, 4, 10, 9, 13, 8, 3, 11, 5, 14, 12, 2, 1, 6]);
makespan = 885;
----------
assign = array1d(1..14 ,[4, 3, 4, 3, 3, 1, 4, 1, 3, 4, 1, 2, 3, 4]);
next = array1d(1..14 ,[7, 4, 10, 9, 13, 8, 3, 11, 5, 14, 12, 2, 1, 6]);
makespan = 883;
----------
assign = array1d(1..14 ,[4, 3, 4, 3, 3, 1, 4, 1, 3, 4, 1, 2, 3, 4]);
next = array1d(1..14 ,[7, 4, 10, 9, 13, 8, 3, 11, 5, 14, 12, 2, 1, 6]);
makespan = 882;
----------
assign = array1d(1..14 ,[4, 3, 4, 3, 3, 1, 4, 1, 3, 4, 1, 2, 3, 4]);
next = array1d(1..14 ,[7, 4, 10, 9, 13, 8, 3, 11, 5, 14, 12, 2, 1, 6]);
makespan = 879;
----------
assign = array1d(1..14 ,[3, 4, 3, 4, 4, 1, 3, 1, 4, 3, 1, 2, 3, 4]);
next = array1d(1..14 ,[7, 4, 10, 9, 14, 8, 3, 11, 5, 13, 12, 1, 2, 6]);
makespan = 874;
----------
assign = array1d(1..14 ,[2, 3, 2, 3, 4, 4, 2, 4, 4, 2, 1, 2, 3, 4]);
next = array1d(1..14 ,[7, 4, 10, 13, 14, 9, 3, 6, 5, 12, 1, 2, 8, 11]);
makespan = 873;
----------
assign = array1d(1..14 ,[2, 3, 2, 3, 4, 4, 2, 4, 4, 2, 1, 2, 3, 4]);
next = array1d(1..14 ,[7, 4, 10, 13, 14, 9, 3, 6, 5, 12, 1, 2, 8, 11]);
makespan = 871;
----------
assign = array1d(1..14 ,[2, 3, 2, 3, 4, 4, 2, 4, 4, 2, 1, 2, 3, 4]);
next = array1d(1..14 ,[7, 4, 10, 13, 14, 9, 3, 6, 5, 12, 1, 2, 8, 11]);
makespan = 869;
----------
assign = array1d(1..14 ,[2, 3, 2, 3, 4, 4, 2, 4, 4, 2, 1, 2, 3, 4]);
next = array1d(1..14 ,[7, 4, 10, 13, 14, 9, 3, 6, 5, 12, 1, 2, 8, 11]);
makespan = 868;
----------
assign = array1d(1..14 ,[2, 3, 2, 3, 4, 4, 2, 4, 4, 2, 1, 2, 3, 4]);
next = array1d(1..14 ,[7, 4, 10, 13, 14, 9, 3, 6, 5, 12, 1, 2, 8, 11]);
makespan = 866;
----------
assign = array1d(1..14 ,[2, 3, 2, 3, 4, 4, 2, 4, 4, 2, 1, 2, 3, 4]);
next = array1d(1..14 ,[7, 4, 10, 13, 14, 9, 3, 6, 5, 12, 1, 2, 8, 11]);
makespan = 865;
----------
assign = array1d(1..14 ,[2, 3, 2, 3, 4, 4, 2, 4, 4, 2, 1, 2, 3, 4]);
next = array1d(1..14 ,[7, 4, 10, 13, 14, 9, 3, 6, 5, 12, 1, 2, 8, 11]);
makespan = 864;
----------
assign = array1d(1..14 ,[2, 3, 2, 3, 4, 4, 2, 4, 4, 2, 1, 2, 3, 4]);
next = array1d(1..14 ,[7, 4, 10, 13, 14, 9, 3, 6, 5, 12, 1, 2, 8, 11]);
makespan = 863;
----------
assign = array1d(1..14 ,[2, 3, 2, 3, 4, 4, 2, 4, 4, 2, 1, 2, 3, 4]);
next = array1d(1..14 ,[7, 4, 10, 13, 14, 9, 3, 6, 5, 12, 1, 2, 8, 11]);
makespan = 861;
----------
assign = array1d(1..14 ,[2, 3, 2, 3, 4, 4, 2, 4, 4, 2, 1, 2, 3, 4]);
next = array1d(1..14 ,[7, 4, 10, 13, 14, 9, 3, 6, 5, 12, 1, 2, 8, 11]);
makespan = 860;
----------
assign = array1d(1..14 ,[2, 3, 2, 3, 4, 4, 2, 4, 4, 2, 1, 2, 3, 4]);
next = array1d(1..14 ,[7, 4, 10, 13, 14, 9, 3, 6, 5, 12, 1, 2, 8, 11]);
makespan = 859;
----------
assign = array1d(1..14 ,[2, 3, 2, 3, 4, 4, 2, 4, 4, 2, 1, 2, 3, 4]);
next = array1d(1..14 ,[7, 4, 10, 13, 14, 9, 3, 6, 5, 12, 1, 2, 8, 11]);
makespan = 858;
----------
assign = array1d(1..14 ,[2, 3, 2, 3, 4, 4, 2, 4, 4, 2, 1, 2, 3, 4]);
next = array1d(1..14 ,[7, 4, 10, 13, 14, 9, 3, 6, 5, 12, 1, 2, 8, 11]);
makespan = 857;
----------
assign = array1d(1..14 ,[2, 3, 2, 3, 4, 4, 2, 4, 4, 2, 1, 2, 3, 4]);
next = array1d(1..14 ,[7, 4, 10, 13, 14, 9, 3, 6, 5, 12, 1, 2, 8, 11]);
makespan = 856;
----------
assign = array1d(1..14 ,[2, 3, 2, 3, 4, 4, 2, 4, 4, 2, 1, 2, 3, 4]);
next = array1d(1..14 ,[7, 4, 10, 13, 14, 9, 3, 6, 5, 12, 1, 2, 8, 11]);
makespan = 855;
----------
assign = array1d(1..14 ,[2, 3, 2, 3, 4, 4, 2, 4, 4, 2, 1, 2, 3, 4]);
next = array1d(1..14 ,[7, 4, 10, 13, 14, 9, 3, 6, 5, 12, 1, 2, 8, 11]);
makespan = 853;
----------
assign = array1d(1..14 ,[2, 3, 2, 3, 4, 4, 2, 4, 4, 2, 1, 2, 3, 4]);
next = array1d(1..14 ,[7, 4, 10, 13, 14, 9, 3, 6, 5, 12, 1, 2, 8, 11]);
makespan = 848;
----------
assign = array1d(1..14 ,[2, 3, 2, 3, 4, 4, 2, 4, 4, 2, 1, 2, 3, 4]);
next = array1d(1..14 ,[7, 4, 10, 13, 14, 9, 3, 6, 5, 12, 1, 2, 8, 11]);
makespan = 847;
----------
assign = array1d(1..14 ,[2, 3, 2, 3, 4, 4, 2, 4, 4, 2, 1, 2, 3, 4]);
next = array1d(1..14 ,[7, 4, 10, 13, 14, 9, 3, 6, 5, 12, 1, 2, 8, 11]);
makespan = 846;
----------
assign = array1d(1..14 ,[2, 3, 2, 3, 4, 4, 2, 4, 4, 2, 1, 2, 3, 4]);
next = array1d(1..14 ,[7, 4, 10, 13, 14, 9, 3, 6, 5, 12, 1, 2, 8, 11]);
makespan = 845;
----------
assign = array1d(1..14 ,[2, 3, 2, 3, 4, 4, 2, 4, 4, 2, 1, 2, 3, 4]);
next = array1d(1..14 ,[7, 4, 10, 13, 14, 9, 3, 6, 5, 12, 1, 2, 8, 11]);
makespan = 844;
----------
assign = array1d(1..14 ,[2, 3, 2, 3, 4, 4, 2, 4, 4, 2, 1, 2, 3, 4]);
next = array1d(1..14 ,[7, 4, 10, 13, 14, 9, 3, 6, 5, 12, 1, 2, 8, 11]);
makespan = 843;
----------
assign = array1d(1..14 ,[2, 3, 2, 3, 4, 4, 2, 4, 4, 2, 1, 2, 3, 4]);
next = array1d(1..14 ,[7, 4, 10, 13, 14, 9, 3, 6, 5, 12, 1, 2, 8, 11]);
makespan = 842;
----------
assign = array1d(1..14 ,[2, 3, 2, 3, 4, 4, 2, 4, 4, 2, 1, 2, 3, 4]);
next = array1d(1..14 ,[7, 4, 10, 13, 14, 9, 3, 6, 5, 12, 1, 2, 8, 11]);
makespan = 838;
----------
assign = array1d(1..14 ,[2, 3, 2, 3, 4, 4, 2, 4, 4, 2, 1, 2, 3, 4]);
next = array1d(1..14 ,[7, 4, 10, 13, 14, 9, 3, 6, 5, 12, 1, 2, 8, 11]);
makespan = 837;
----------
assign = array1d(1..14 ,[2, 3, 2, 3, 4, 4, 2, 4, 4, 2, 1, 2, 3, 4]);
next = array1d(1..14 ,[7, 4, 10, 13, 14, 9, 3, 6, 5, 12, 1, 2, 8, 11]);
makespan = 835;
----------
assign = array1d(1..14 ,[2, 3, 2, 3, 4, 4, 2, 4, 4, 2, 1, 2, 3, 4]);
next = array1d(1..14 ,[7, 4, 10, 13, 14, 9, 3, 6, 5, 12, 1, 2, 8, 11]);
makespan = 832;
----------
assign = array1d(1..14 ,[1, 3, 1, 3, 4, 4, 1, 4, 4, 1, 1, 2, 3, 4]);
next = array1d(1..14 ,[7, 4, 10, 13, 14, 9, 3, 6, 5, 11, 12, 2, 8, 1]);
makespan = 828;
----------
assign = array1d(1..14 ,[1, 3, 1, 3, 4, 4, 1, 4, 4, 1, 1, 2, 3, 4]);
next = array1d(1..14 ,[7, 4, 10, 13, 14, 9, 3, 6, 5, 11, 12, 2, 8, 1]);
makespan = 827;
----------
assign = array1d(1..14 ,[1, 3, 1, 3, 4, 4, 1, 4, 4, 1, 1, 2, 3, 4]);
next = array1d(1..14 ,[7, 4, 10, 13, 6, 14, 3, 9, 5, 11, 12, 2, 8, 1]);
makespan = 825;
----------
assign = array1d(1..14 ,[1, 4, 1, 4, 4, 2, 1, 2, 4, 1, 1, 2, 3, 4]);
next = array1d(1..14 ,[7, 4, 10, 9, 14, 8, 3, 12, 5, 11, 6, 13, 2, 1]);
makespan = 824;
----------
assign = array1d(1..14 ,[1, 4, 1, 4, 4, 2, 1, 2, 4, 1, 1, 2, 3, 4]);
next = array1d(1..14 ,[7, 4, 10, 9, 14, 8, 3, 12, 5, 11, 6, 13, 2, 1]);
makespan = 818;
----------
assign = array1d(1..14 ,[1, 4, 1, 4, 4, 2, 1, 2, 4, 1, 1, 2, 3, 4]);
next = array1d(1..14 ,[7, 4, 10, 9, 14, 8, 3, 12, 5, 11, 6, 13, 2, 1]);
makespan = 814;
----------
assign = array1d(1..14 ,[1, 4, 1, 4, 4, 2, 1, 2, 4, 1, 1, 2, 3, 4]);
next = array1d(1..14 ,[7, 4, 10, 9, 14, 8, 3, 12, 5, 11, 6, 13, 2, 1]);
makespan = 812;
----------
assign = array1d(1..14 ,[1, 4, 1, 4, 4, 2, 1, 2, 4, 1, 1, 2, 3, 4]);
next = array1d(1..14 ,[7, 4, 10, 9, 14, 8, 3, 12, 5, 11, 6, 13, 2, 1]);
makespan = 811;
----------
assign = array1d(1..14 ,[1, 4, 1, 4, 4, 2, 1, 2, 4, 1, 1, 2, 3, 4]);
next = array1d(1..14 ,[7, 4, 10, 9, 14, 8, 3, 12, 5, 11, 6, 13, 2, 1]);
makespan = 810;
----------
assign = array1d(1..14 ,[1, 4, 1, 4, 4, 2, 1, 2, 4, 1, 1, 2, 3, 4]);
next = array1d(1..14 ,[7, 4, 10, 9, 14, 8, 3, 12, 5, 11, 6, 13, 2, 1]);
makespan = 809;
----------
assign = array1d(1..14 ,[1, 4, 1, 4, 4, 2, 1, 2, 4, 1, 1, 2, 3, 4]);
next = array1d(1..14 ,[7, 4, 10, 9, 14, 8, 3, 12, 5, 11, 6, 13, 2, 1]);
makespan = 806;
----------
assign = array1d(1..14 ,[1, 4, 1, 4, 4, 2, 1, 2, 4, 1, 1, 2, 3, 4]);
next = array1d(1..14 ,[7, 4, 10, 9, 14, 8, 3, 12, 5, 11, 6, 13, 2, 1]);
makespan = 801;
----------
assign = array1d(1..14 ,[1, 4, 1, 4, 4, 2, 1, 2, 4, 1, 1, 2, 3, 4]);
next = array1d(1..14 ,[7, 4, 10, 9, 14, 8, 3, 12, 5, 11, 6, 13, 2, 1]);
makespan = 793;
----------
assign = array1d(1..14 ,[1, 4, 1, 4, 4, 2, 1, 2, 4, 1, 1, 2, 3, 4]);
next = array1d(1..14 ,[7, 4, 10, 9, 14, 8, 3, 12, 5, 11, 6, 13, 2, 1]);
makespan = 791;
----------
assign = array1d(1..14 ,[1, 4, 1, 4, 4, 2, 1, 2, 4, 1, 1, 2, 3, 4]);
next = array1d(1..14 ,[7, 4, 10, 9, 14, 8, 3, 12, 5, 11, 6, 13, 2, 1]);
makespan = 789;
----------
assign = array1d(1..14 ,[2, 3, 4, 3, 2, 1, 4, 3, 2, 4, 1, 2, 3, 4]);
next = array1d(1..14 ,[12, 4, 10, 8, 1, 11, 3, 13, 5, 14, 9, 2, 7, 6]);
makespan = 788;
----------
assign = array1d(1..14 ,[4, 4, 2, 4, 3, 4, 2, 3, 3, 2, 1, 2, 3, 4]);
next = array1d(1..14 ,[2, 4, 10, 6, 13, 14, 3, 9, 5, 12, 7, 8, 1, 11]);
makespan = 785;
----------
assign = array1d(1..14 ,[3, 2, 4, 2, 3, 2, 4, 3, 3, 4, 1, 2, 3, 4]);
next = array1d(1..14 ,[13, 4, 10, 6, 8, 12, 3, 1, 5, 14, 2, 9, 7, 11]);
makespan = 784;
----------
assign = array1d(1..14 ,[4, 4, 1, 4, 3, 4, 1, 3, 3, 1, 1, 2, 3, 4]);
next = array1d(1..14 ,[2, 4, 10, 6, 8, 14, 3, 13, 5, 11, 12, 9, 1, 7]);
makespan = 779;
----------
assign = array1d(1..14 ,[3, 2, 4, 2, 3, 2, 4, 3, 3, 4, 1, 2, 3, 4]);
next = array1d(1..14 ,[13, 4, 10, 6, 8, 12, 3, 1, 5, 14, 2, 9, 7, 11]);
makespan = 778;
----------
assign = array1d(1..14 ,[3, 2, 4, 2, 3, 2, 4, 3, 3, 4, 1, 2, 3, 4]);
next = array1d(1..14 ,[13, 4, 10, 6, 8, 12, 3, 1, 5, 14, 2, 9, 7, 11]);
makespan = 776;
----------
assign = array1d(1..14 ,[3, 2, 4, 2, 3, 2, 4, 3, 3, 4, 1, 2, 3, 4]);
next = array1d(1..14 ,[13, 4, 10, 6, 8, 12, 3, 1, 5, 14, 2, 9, 7, 11]);
makespan = 774;
----------
assign = array1d(1..14 ,[3, 2, 4, 2, 3, 2, 4, 3, 3, 4, 1, 2, 3, 4]);
next = array1d(1..14 ,[13, 4, 10, 6, 8, 12, 3, 1, 5, 14, 2, 9, 7, 11]);
makespan = 771;
----------
assign = array1d(1..14 ,[3, 2, 4, 2, 3, 2, 4, 3, 3, 4, 1, 2, 3, 4]);
next = array1d(1..14 ,[13, 4, 10, 6, 8, 12, 3, 1, 5, 14, 2, 9, 7, 11]);
makespan = 769;
----------
assign = array1d(1..14 ,[3, 2, 4, 2, 3, 2, 4, 3, 3, 4, 1, 2, 3, 4]);
next = array1d(1..14 ,[13, 4, 10, 6, 8, 12, 3, 1, 5, 14, 2, 9, 7, 11]);
makespan = 767;
----------
assign = array1d(1..14 ,[4, 4, 1, 4, 3, 4, 1, 3, 3, 1, 1, 2, 3, 4]);
next = array1d(1..14 ,[2, 4, 10, 6, 8, 14, 3, 13, 5, 11, 12, 9, 1, 7]);
makespan = 763;
----------
assign = array1d(1..14 ,[3, 3, 1, 3, 4, 3, 1, 4, 4, 1, 1, 2, 3, 4]);
next = array1d(1..14 ,[6, 4, 10, 13, 8, 2, 3, 14, 5, 11, 12, 1, 9, 7]);
makespan = 759;
----------
assign = array1d(1..14 ,[3, 2, 4, 3, 1, 3, 4, 1, 1, 4, 1, 2, 3, 4]);
next = array1d(1..14 ,[6, 12, 10, 1, 8, 13, 3, 11, 5, 14, 2, 4, 7, 9]);
makespan = 757;
----------
assign = array1d(1..14 ,[3, 3, 2, 1, 4, 3, 2, 4, 4, 2, 1, 2, 3, 4]);
next = array1d(1..14 ,[2, 6, 10, 11, 8, 13, 3, 14, 5, 12, 7, 1, 9, 4]);
makespan = 753;
----------
assign = array1d(1..14 ,[3, 3, 4, 3, 1, 3, 4, 1, 1, 4, 1, 2, 3, 4]);
next = array1d(1..14 ,[6, 4, 10, 13, 8, 2, 3, 11, 5, 14, 12, 1, 7, 9]);
makespan = 751;
----------
assign = array1d(1..14 ,[3, 2, 4, 2, 1, 4, 3, 1, 1, 4, 1, 2, 3, 4]);
next = array1d(1..14 ,[7, 4, 10, 12, 8, 14, 13, 11, 5, 6, 2, 1, 3, 9]);
makespan = 750;
----------
assign = array1d(1..14 ,[3, 2, 4, 2, 1, 4, 3, 1, 1, 4, 1, 2, 3, 4]);
next = array1d(1..14 ,[7, 4, 10, 12, 8, 14, 13, 11, 5, 6, 2, 1, 3, 9]);
makespan = 748;
----------
assign = array1d(1..14 ,[3, 3, 4, 3, 1, 4, 2, 1, 1, 4, 1, 2, 3, 4]);
next = array1d(1..14 ,[2, 4, 10, 13, 8, 14, 12, 11, 5, 6, 7, 1, 3, 9]);
makespan = 747;
----------
assign = array1d(1..14 ,[3, 2, 1, 2, 3, 1, 4, 3, 4, 1, 1, 2, 3, 4]);
next = array1d(1..14 ,[13, 4, 10, 12, 8, 11, 9, 1, 14, 6, 2, 5, 7, 3]);
makespan = 746;
----------
assign = array1d(1..14 ,[3, 2, 4, 2, 1, 2, 4, 1, 1, 4, 1, 2, 3, 4]);
next = array1d(1..14 ,[13, 4, 10, 12, 11, 2, 3, 9, 5, 14, 6, 1, 7, 8]);
makespan = 739;
----------
assign = array1d(1..14 ,[3, 3, 2, 3, 4, 2, 1, 4, 4, 2, 1, 2, 3, 4]);
next = array1d(1..14 ,[2, 4, 10, 13, 14, 12, 11, 9, 5, 6, 3, 1, 8, 7]);
makespan = 737;
----------
assign = array1d(1..14 ,[2, 3, 1, 3, 4, 3, 1, 4, 4, 1, 1, 2, 3, 4]);
next = array1d(1..14 ,[12, 4, 10, 13, 14, 2, 3, 9, 5, 11, 1, 6, 8, 7]);
makespan = 732;
----------
assign = array1d(1..14 ,[3, 3, 4, 3, 1, 4, 2, 1, 1, 4, 1, 2, 3, 4]);
next = array1d(1..14 ,[2, 4, 10, 13, 11, 14, 12, 9, 5, 6, 7, 1, 3, 8]);
makespan = 727;
----------
assign = array1d(1..14 ,[1, 3, 2, 3, 4, 2, 3, 4, 4, 2, 1, 2, 3, 4]);
next = array1d(1..14 ,[11, 4, 10, 13, 8, 12, 2, 9, 14, 6, 3, 7, 5, 1]);
makespan = 716;
----------
assign = array1d(1..14 ,[4, 4, 3, 3, 1, 4, 2, 1, 1, 3, 1, 2, 3, 4]);
next = array1d(1..14 ,[14, 6, 10, 3, 11, 1, 12, 9, 5, 13, 7, 4, 2, 8]);
makespan = 715;
----------
assign = array1d(1..14 ,[4, 3, 3, 4, 2, 4, 1, 2, 2, 3, 1, 2, 3, 4]);
next = array1d(1..14 ,[14, 13, 10, 6, 12, 1, 11, 9, 5, 2, 8, 3, 4, 7]);
makespan = 711;
----------
assign = array1d(1..14 ,[4, 3, 4, 3, 1, 4, 3, 1, 1, 2, 1, 2, 3, 4]);
next = array1d(1..14 ,[3, 4, 14, 13, 11, 1, 2, 9, 5, 12, 10, 7, 6, 8]);
makespan = 710;
----------
assign = array1d(1..14 ,[4, 4, 2, 3, 1, 4, 1, 2, 3, 2, 1, 2, 3, 4]);
next = array1d(1..14 ,[14, 6, 12, 13, 11, 1, 5, 3, 4, 8, 10, 9, 2, 7]);
makespan = 708;
----------
assign = array1d(1..14 ,[1, 2, 4, 3, 3, 2, 3, 4, 4, 2, 1, 2, 3, 4]);
next = array1d(1..14 ,[11, 12, 9, 7, 13, 2, 5, 3, 14, 6, 10, 4, 8, 1]);
makespan = 707;
----------
assign = array1d(1..14 ,[2, 1, 4, 3, 1, 3, 1, 4, 3, 4, 1, 2, 3, 4]);
next = array1d(1..14 ,[12, 11, 14, 6, 2, 13, 5, 3, 4, 8, 1, 9, 10, 7]);
makespan = 706;
----------
assign = array1d(1..14 ,[1, 4, 3, 4, 2, 4, 2, 3, 4, 3, 1, 2, 3, 4]);
next = array1d(1..14 ,[11, 14, 13, 9, 12, 4, 5, 3, 2, 8, 7, 10, 6, 1]);
makespan = 704;
----------
assign = array1d(1..14 ,[1, 3, 2, 4, 2, 3, 2, 4, 4, 3, 1, 2, 3, 4]);
next = array1d(1..14 ,[11, 13, 7, 14, 3, 2, 12, 9, 4, 6, 5, 10, 8, 1]);
makespan = 703;
----------
assign = array1d(1..14 ,[2, 3, 2, 2, 1, 3, 4, 3, 4, 4, 1, 2, 3, 4]);
next = array1d(1..14 ,[4, 6, 1, 12, 11, 13, 14, 2, 10, 7, 3, 8, 9, 5]);
makespan = 701;
----------
assign = array1d(1..14 ,[4, 1, 4, 3, 4, 3, 2, 1, 3, 1, 1, 2, 3, 4]);
next = array1d(1..14 ,[3, 10, 5, 13, 14, 4, 12, 2, 6, 11, 7, 9, 1, 8]);
makespan = 699;
----------
assign = array1d(1..14 ,[1, 3, 4, 1, 1, 4, 4, 3, 2, 3, 1, 2, 3, 4]);
next = array1d(1..14 ,[4, 10, 14, 11, 1, 3, 6, 2, 12, 13, 9, 8, 7, 5]);
makespan = 698;
----------
assign = array1d(1..14 ,[2, 3, 4, 1, 4, 2, 4, 3, 2, 3, 1, 2, 3, 4]);
next = array1d(1..14 ,[12, 10, 7, 11, 3, 1, 14, 2, 6, 13, 9, 8, 5, 4]);
makespan = 697;
----------
assign = array1d(1..14 ,[3, 4, 2, 3, 1, 2, 3, 4, 2, 4, 1, 2, 3, 4]);
next = array1d(1..14 ,[4, 10, 12, 13, 11, 3, 1, 2, 6, 14, 9, 7, 8, 5]);
makespan = 696;
----------
assign = array1d(1..14 ,[4, 2, 3, 1, 4, 3, 4, 2, 3, 2, 1, 2, 3, 4]);
next = array1d(1..14 ,[14, 10, 13, 11, 1, 3, 5, 2, 6, 12, 8, 9, 7, 4]);
makespan = 695;
----------
assign = array1d(1..14 ,[3, 2, 4, 1, 3, 4, 3, 2, 4, 2, 1, 2, 3, 4]);
next = array1d(1..14 ,[13, 10, 14, 11, 1, 3, 5, 2, 6, 12, 8, 7, 9, 4]);
makespan = 694;
----------
assign = array1d(1..14 ,[2, 4, 3, 1, 2, 3, 2, 4, 3, 4, 1, 2, 3, 4]);
next = array1d(1..14 ,[12, 10, 13, 11, 1, 3, 5, 2, 6, 14, 7, 9, 8, 4]);
makespan = 693;
----------
assign = array1d(1..14 ,[2, 4, 3, 1, 2, 3, 2, 4, 3, 4, 1, 2, 3, 4]);
next = array1d(1..14 ,[12, 10, 13, 11, 1, 3, 5, 2, 6, 14, 7, 9, 8, 4]);
makespan = 691;
----------
assign = array1d(1..14 ,[2, 4, 3, 1, 2, 3, 2, 4, 3, 4, 1, 2, 3, 4]);
next = array1d(1..14 ,[12, 10, 13, 11, 1, 3, 5, 2, 6, 14, 7, 9, 8, 4]);
makespan = 689;
----------
assign = array1d(1..14 ,[2, 4, 3, 1, 2, 3, 2, 4, 3, 4, 1, 2, 3, 4]);
next = array1d(1..14 ,[12, 10, 13, 11, 1, 3, 5, 2, 6, 14, 7, 9, 8, 4]);
makespan = 688;
----------
assign = array1d(1..14 ,[2, 4, 3, 1, 2, 3, 2, 4, 3, 4, 1, 2, 3, 4]);
next = array1d(1..14 ,[12, 10, 13, 11, 1, 3, 5, 2, 6, 14, 7, 9, 8, 4]);
makespan = 687;
----------
assign = array1d(1..14 ,[2, 4, 3, 1, 2, 3, 2, 4, 3, 4, 1, 2, 3, 4]);
next = array1d(1..14 ,[12, 10, 13, 11, 1, 3, 5, 2, 6, 14, 7, 9, 8, 4]);
makespan = 686;
----------
assign = array1d(1..14 ,[2, 4, 3, 1, 2, 3, 2, 4, 3, 4, 1, 2, 3, 4]);
next = array1d(1..14 ,[12, 10, 13, 11, 1, 3, 5, 2, 6, 14, 7, 9, 8, 4]);
makespan = 685;
----------
assign = array1d(1..14 ,[2, 4, 3, 1, 2, 3, 2, 4, 3, 4, 1, 2, 3, 4]);
next = array1d(1..14 ,[12, 10, 13, 11, 1, 3, 5, 2, 6, 14, 7, 9, 8, 4]);
makespan = 684;
----------
assign = array1d(1..14 ,[2, 4, 3, 1, 2, 3, 2, 4, 3, 4, 1, 2, 3, 4]);
next = array1d(1..14 ,[12, 10, 13, 11, 1, 3, 5, 2, 6, 14, 7, 9, 8, 4]);
makespan = 682;
----------
assign = array1d(1..14 ,[2, 4, 3, 1, 2, 3, 2, 4, 3, 4, 1, 2, 3, 4]);
next = array1d(1..14 ,[12, 10, 13, 11, 1, 3, 5, 2, 6, 14, 7, 9, 8, 4]);
makespan = 681;
----------
assign = array1d(1..14 ,[2, 4, 3, 1, 2, 3, 2, 4, 3, 4, 1, 2, 3, 4]);
next = array1d(1..14 ,[12, 10, 13, 11, 1, 3, 5, 2, 6, 14, 7, 9, 8, 4]);
makespan = 680;
----------
assign = array1d(1..14 ,[2, 4, 3, 1, 2, 3, 2, 4, 3, 4, 1, 2, 3, 4]);
next = array1d(1..14 ,[12, 10, 13, 11, 1, 3, 5, 2, 6, 14, 7, 9, 8, 4]);
makespan = 679;
----------
assign = array1d(1..14 ,[2, 4, 3, 1, 2, 3, 2, 4, 3, 4, 1, 2, 3, 4]);
next = array1d(1..14 ,[12, 10, 13, 11, 1, 3, 5, 2, 6, 14, 7, 9, 8, 4]);
makespan = 677;
----------
assign = array1d(1..14 ,[2, 4, 3, 1, 2, 3, 2, 4, 3, 4, 1, 2, 3, 4]);
next = array1d(1..14 ,[12, 10, 13, 11, 1, 3, 5, 2, 6, 14, 7, 9, 8, 4]);
makespan = 676;
----------
assign = array1d(1..14 ,[2, 4, 3, 1, 2, 3, 2, 4, 3, 4, 1, 2, 3, 4]);
next = array1d(1..14 ,[12, 10, 13, 11, 1, 3, 5, 2, 6, 14, 7, 9, 8, 4]);
makespan = 675;
----------
assign = array1d(1..14 ,[2, 4, 3, 1, 2, 3, 2, 4, 3, 4, 1, 2, 3, 4]);
next = array1d(1..14 ,[12, 10, 13, 11, 1, 3, 5, 2, 6, 14, 7, 9, 8, 4]);
makespan = 673;
----------
assign = array1d(1..14 ,[2, 4, 3, 1, 2, 3, 2, 4, 3, 4, 1, 2, 3, 4]);
next = array1d(1..14 ,[12, 10, 13, 11, 1, 3, 5, 2, 6, 14, 7, 9, 8, 4]);
makespan = 672;
----------
assign = array1d(1..14 ,[2, 4, 3, 1, 2, 3, 2, 4, 3, 4, 1, 2, 3, 4]);
next = array1d(1..14 ,[12, 10, 13, 11, 1, 3, 5, 2, 6, 14, 7, 9, 8, 4]);
makespan = 671;
----------
assign = array1d(1..14 ,[2, 4, 3, 1, 2, 3, 2, 4, 3, 4, 1, 2, 3, 4]);
next = array1d(1..14 ,[12, 10, 13, 11, 1, 3, 5, 2, 6, 14, 7, 9, 8, 4]);
makespan = 670;
----------
assign = array1d(1..14 ,[2, 4, 3, 1, 2, 3, 2, 4, 3, 4, 1, 2, 3, 4]);
next = array1d(1..14 ,[12, 10, 13, 11, 1, 3, 5, 2, 6, 14, 7, 9, 8, 4]);
makespan = 669;
----------
assign = array1d(1..14 ,[2, 4, 3, 1, 2, 3, 2, 4, 3, 4, 1, 2, 3, 4]);
next = array1d(1..14 ,[12, 10, 13, 11, 1, 3, 5, 2, 6, 14, 7, 9, 8, 4]);
makespan = 668;
----------
assign = array1d(1..14 ,[2, 4, 3, 1, 2, 3, 2, 4, 3, 4, 1, 2, 3, 4]);
next = array1d(1..14 ,[12, 10, 13, 11, 1, 3, 5, 2, 6, 14, 7, 9, 8, 4]);
makespan = 664;
----------
assign = array1d(1..14 ,[2, 4, 3, 1, 2, 3, 2, 4, 3, 4, 1, 2, 3, 4]);
next = array1d(1..14 ,[12, 10, 13, 11, 1, 3, 5, 2, 6, 14, 7, 9, 8, 4]);
makespan = 663;
----------
assign = array1d(1..14 ,[2, 4, 3, 1, 2, 3, 2, 4, 3, 4, 1, 2, 3, 4]);
next = array1d(1..14 ,[12, 10, 13, 11, 1, 3, 5, 2, 6, 14, 7, 9, 8, 4]);
makespan = 662;
----------
assign = array1d(1..14 ,[2, 4, 3, 1, 2, 3, 2, 4, 3, 4, 1, 2, 3, 4]);
next = array1d(1..14 ,[12, 10, 13, 11, 1, 3, 5, 2, 6, 14, 7, 9, 8, 4]);
makespan = 660;
----------
assign = array1d(1..14 ,[2, 4, 3, 1, 2, 3, 2, 4, 3, 4, 1, 2, 3, 4]);
next = array1d(1..14 ,[12, 10, 13, 11, 1, 3, 5, 2, 6, 14, 7, 9, 8, 4]);
makespan = 659;
----------
assign = array1d(1..14 ,[2, 4, 3, 1, 2, 3, 2, 4, 3, 4, 1, 2, 3, 4]);
next = array1d(1..14 ,[12, 10, 13, 11, 1, 3, 5, 2, 6, 14, 7, 9, 8, 4]);
makespan = 658;
----------
assign = array1d(1..14 ,[3, 2, 4, 3, 1, 4, 3, 2, 4, 2, 1, 2, 3, 4]);
next = array1d(1..14 ,[7, 10, 14, 13, 11, 3, 4, 2, 6, 12, 8, 1, 9, 5]);
makespan = 657;
----------
assign = array1d(1..14 ,[3, 1, 2, 3, 4, 2, 3, 1, 2, 1, 1, 2, 3, 4]);
next = array1d(1..14 ,[7, 10, 12, 1, 14, 3, 13, 2, 6, 11, 9, 4, 5, 8]);
makespan = 655;
----------
assign = array1d(1..14 ,[3, 4, 2, 1, 3, 2, 3, 4, 2, 4, 1, 2, 3, 4]);
next = array1d(1..14 ,[5, 10, 12, 11, 7, 3, 13, 2, 6, 14, 9, 1, 8, 4]);
makespan = 654;
----------
assign = array1d(1..14 ,[3, 4, 2, 3, 1, 2, 3, 4, 2, 4, 1, 2, 3, 4]);
next = array1d(1..14 ,[4, 10, 12, 13, 11, 3, 1, 2, 6, 14, 9, 7, 8, 5]);
makespan = 653;
----------
assign = array1d(1..14 ,[4, 1, 3, 4, 4, 3, 2, 1, 3, 1, 1, 2, 3, 4]);
next = array1d(1..14 ,[14, 10, 9, 5, 1, 3, 12, 2, 13, 11, 7, 6, 4, 8]);
makespan = 652;
----------
assign = array1d(1..14 ,[4, 1, 3, 4, 4, 3, 2, 1, 3, 1, 1, 2, 3, 4]);
next = array1d(1..14 ,[14, 10, 6, 5, 1, 13, 12, 2, 3, 11, 7, 9, 4, 8]);
makespan = 651;
----------
assign = array1d(1..14 ,[4, 1, 3, 4, 4, 3, 2, 1, 3, 1, 1, 2, 3, 4]);
next = array1d(1..14 ,[14, 10, 9, 5, 1, 3, 12, 2, 13, 11, 7, 6, 4, 8]);
makespan = 650;
----------
assign = array1d(1..14 ,[4, 1, 3, 4, 4, 3, 2, 1, 3, 1, 1, 2, 3, 4]);
next = array1d(1..14 ,[14, 10, 9, 5, 1, 3, 12, 2, 13, 11, 7, 6, 4, 8]);
makespan = 649;
----------
assign = array1d(1..14 ,[4, 1, 3, 4, 4, 3, 2, 1, 3, 1, 1, 2, 3, 4]);
next = array1d(1..14 ,[14, 10, 9, 5, 1, 3, 12, 2, 13, 11, 7, 6, 4, 8]);
makespan = 648;
----------
assign = array1d(1..14 ,[4, 1, 3, 4, 4, 3, 2, 1, 3, 1, 1, 2, 3, 4]);
next = array1d(1..14 ,[14, 10, 9, 5, 1, 3, 12, 2, 13, 11, 7, 6, 4, 8]);
makespan = 647;
----------
assign = array1d(1..14 ,[4, 1, 3, 4, 4, 3, 2, 1, 3, 1, 1, 2, 3, 4]);
next = array1d(1..14 ,[14, 10, 9, 5, 1, 3, 12, 2, 13, 11, 7, 6, 4, 8]);
makespan = 646;
----------
assign = array1d(1..14 ,[4, 1, 3, 4, 4, 3, 2, 1, 3, 1, 1, 2, 3, 4]);
next = array1d(1..14 ,[14, 10, 9, 5, 1, 3, 12, 2, 13, 11, 7, 6, 4, 8]);
makespan = 644;
----------
assign = array1d(1..14 ,[4, 1, 3, 4, 4, 3, 2, 1, 3, 1, 1, 2, 3, 4]);
next = array1d(1..14 ,[14, 10, 9, 5, 1, 3, 12, 2, 13, 11, 7, 6, 4, 8]);
makespan = 643;
----------
assign = array1d(1..14 ,[4, 1, 3, 4, 4, 3, 2, 1, 3, 1, 1, 2, 3, 4]);
next = array1d(1..14 ,[14, 10, 9, 5, 1, 3, 12, 2, 13, 11, 7, 6, 4, 8]);
makespan = 642;
----------
assign = array1d(1..14 ,[4, 1, 3, 4, 4, 3, 2, 1, 3, 1, 1, 2, 3, 4]);
next = array1d(1..14 ,[14, 10, 9, 5, 1, 3, 12, 2, 13, 11, 7, 6, 4, 8]);
makespan = 641;
----------
assign = array1d(1..14 ,[4, 1, 3, 4, 4, 3, 2, 1, 3, 1, 1, 2, 3, 4]);
next = array1d(1..14 ,[14, 10, 9, 5, 1, 3, 12, 2, 13, 11, 7, 6, 4, 8]);
makespan = 640;
----------
assign = array1d(1..14 ,[4, 1, 3, 4, 4, 3, 2, 1, 3, 1, 1, 2, 3, 4]);
next = array1d(1..14 ,[14, 10, 9, 5, 1, 3, 12, 2, 13, 11, 7, 6, 4, 8]);
makespan = 639;
----------
assign = array1d(1..14 ,[4, 1, 3, 4, 4, 3, 2, 1, 3, 1, 1, 2, 3, 4]);
next = array1d(1..14 ,[14, 10, 9, 5, 1, 3, 12, 2, 13, 11, 7, 6, 4, 8]);
makespan = 638;
----------
assign = array1d(1..14 ,[4, 1, 3, 4, 4, 3, 2, 1, 3, 1, 1, 2, 3, 4]);
next = array1d(1..14 ,[14, 10, 9, 5, 1, 3, 12, 2, 13, 11, 7, 6, 4, 8]);
makespan = 637;
----------
assign = array1d(1..14 ,[4, 1, 3, 4, 4, 3, 2, 1, 3, 1, 1, 2, 3, 4]);
next = array1d(1..14 ,[14, 10, 9, 5, 1, 3, 12, 2, 13, 11, 7, 6, 4, 8]);
makespan = 636;
----------
assign = array1d(1..14 ,[4, 1, 3, 4, 4, 3, 2, 1, 3, 1, 1, 2, 3, 4]);
next = array1d(1..14 ,[14, 10, 9, 5, 1, 3, 12, 2, 13, 11, 7, 6, 4, 8]);
makespan = 635;
----------
assign = array1d(1..14 ,[4, 1, 3, 4, 4, 3, 2, 1, 3, 1, 1, 2, 3, 4]);
next = array1d(1..14 ,[14, 10, 9, 5, 1, 3, 12, 2, 13, 11, 7, 6, 4, 8]);
makespan = 634;
----------
assign = array1d(1..14 ,[4, 1, 3, 4, 4, 3, 2, 1, 3, 1, 1, 2, 3, 4]);
next = array1d(1..14 ,[14, 10, 9, 5, 1, 3, 12, 2, 13, 11, 7, 6, 4, 8]);
makespan = 633;
----------
assign = array1d(1..14 ,[4, 1, 3, 4, 4, 3, 2, 1, 1, 3, 1, 2, 3, 4]);
next = array1d(1..14 ,[14, 9, 13, 5, 1, 3, 12, 2, 11, 6, 7, 10, 4, 8]);
makespan = 631;
----------
assign = array1d(1..14 ,[2, 3, 4, 2, 2, 4, 1, 3, 4, 3, 1, 2, 3, 4]);
next = array1d(1..14 ,[12, 10, 14, 5, 1, 3, 11, 2, 6, 13, 4, 8, 9, 7]);
makespan = 630;
----------
assign = array1d(1..14 ,[2, 3, 4, 2, 2, 4, 1, 3, 4, 3, 1, 2, 3, 4]);
next = array1d(1..14 ,[12, 10, 14, 5, 1, 3, 11, 2, 6, 13, 4, 8, 9, 7]);
makespan = 629;
----------
assign = array1d(1..14 ,[2, 3, 4, 2, 2, 4, 1, 3, 4, 3, 1, 2, 3, 4]);
next = array1d(1..14 ,[12, 10, 14, 5, 1, 3, 11, 2, 6, 13, 4, 8, 9, 7]);
makespan = 628;
----------
assign = array1d(1..14 ,[2, 3, 4, 2, 2, 4, 1, 3, 4, 3, 1, 2, 3, 4]);
next = array1d(1..14 ,[12, 10, 14, 5, 1, 3, 11, 2, 6, 13, 4, 8, 9, 7]);
makespan = 627;
----------
assign = array1d(1..14 ,[2, 3, 4, 2, 2, 4, 1, 3, 4, 3, 1, 2, 3, 4]);
next = array1d(1..14 ,[12, 10, 14, 5, 1, 3, 11, 2, 6, 13, 4, 8, 9, 7]);
makespan = 626;
----------
assign = array1d(1..14 ,[2, 3, 4, 2, 2, 4, 1, 3, 4, 3, 1, 2, 3, 4]);
next = array1d(1..14 ,[12, 10, 14, 5, 1, 3, 11, 2, 6, 13, 4, 8, 9, 7]);
makespan = 625;
----------
assign = array1d(1..14 ,[2, 3, 4, 2, 2, 4, 1, 3, 4, 3, 1, 2, 3, 4]);
next = array1d(1..14 ,[12, 10, 14, 5, 1, 3, 11, 2, 6, 13, 4, 8, 9, 7]);
makespan = 624;
----------
assign = array1d(1..14 ,[2, 3, 4, 2, 2, 4, 1, 3, 4, 3, 1, 2, 3, 4]);
next = array1d(1..14 ,[12, 10, 14, 5, 1, 3, 11, 2, 6, 13, 4, 8, 9, 7]);
makespan = 623;
----------
assign = array1d(1..14 ,[2, 3, 4, 2, 2, 4, 1, 3, 4, 3, 1, 2, 3, 4]);
next = array1d(1..14 ,[12, 10, 14, 5, 1, 3, 11, 2, 6, 13, 4, 8, 9, 7]);
makespan = 622;
----------
assign = array1d(1..14 ,[2, 3, 4, 2, 2, 4, 1, 3, 4, 3, 1, 2, 3, 4]);
next = array1d(1..14 ,[12, 10, 14, 5, 1, 3, 11, 2, 6, 13, 4, 8, 9, 7]);
makespan = 621;
----------
assign = array1d(1..14 ,[2, 3, 4, 2, 2, 4, 1, 3, 4, 3, 1, 2, 3, 4]);
next = array1d(1..14 ,[12, 10, 14, 5, 1, 3, 11, 2, 6, 13, 4, 8, 9, 7]);
makespan = 620;
----------
assign = array1d(1..14 ,[2, 3, 4, 2, 2, 4, 1, 3, 4, 3, 1, 2, 3, 4]);
next = array1d(1..14 ,[12, 10, 14, 5, 1, 3, 11, 2, 6, 13, 4, 8, 9, 7]);
makespan = 619;
----------
assign = array1d(1..14 ,[2, 3, 4, 2, 2, 4, 1, 3, 4, 3, 1, 2, 3, 4]);
next = array1d(1..14 ,[12, 10, 14, 5, 1, 3, 11, 2, 6, 13, 4, 8, 9, 7]);
makespan = 616;
----------
assign = array1d(1..14 ,[2, 3, 4, 2, 2, 4, 1, 3, 4, 3, 1, 2, 3, 4]);
next = array1d(1..14 ,[12, 10, 14, 5, 1, 3, 11, 2, 6, 13, 4, 8, 9, 7]);
makespan = 615;
----------
assign = array1d(1..14 ,[2, 3, 4, 2, 2, 4, 1, 3, 4, 3, 1, 2, 3, 4]);
next = array1d(1..14 ,[12, 10, 14, 5, 1, 3, 11, 2, 6, 13, 4, 8, 9, 7]);
makespan = 613;
----------
assign = array1d(1..14 ,[2, 3, 4, 2, 2, 4, 1, 3, 4, 3, 1, 2, 3, 4]);
next = array1d(1..14 ,[12, 10, 14, 5, 1, 3, 11, 2, 6, 13, 4, 8, 9, 7]);
makespan = 612;
----------
assign = array1d(1..14 ,[2, 3, 4, 2, 2, 4, 1, 3, 4, 3, 1, 2, 3, 4]);
next = array1d(1..14 ,[12, 10, 14, 5, 1, 3, 11, 2, 6, 13, 4, 8, 9, 7]);
makespan = 611;
----------
assign = array1d(1..14 ,[2, 3, 4, 2, 2, 4, 1, 3, 4, 3, 1, 2, 3, 4]);
next = array1d(1..14 ,[12, 10, 14, 5, 1, 3, 11, 2, 6, 13, 4, 8, 9, 7]);
makespan = 610;
----------
assign = array1d(1..14 ,[2, 3, 4, 2, 2, 4, 1, 3, 4, 3, 1, 2, 3, 4]);
next = array1d(1..14 ,[12, 10, 14, 5, 1, 3, 11, 2, 6, 13, 4, 8, 9, 7]);
makespan = 608;
----------
assign = array1d(1..14 ,[2, 3, 4, 2, 2, 4, 1, 3, 4, 3, 1, 2, 3, 4]);
next = array1d(1..14 ,[12, 10, 14, 5, 1, 3, 11, 2, 6, 13, 4, 8, 9, 7]);
makespan = 607;
----------
assign = array1d(1..14 ,[2, 3, 4, 2, 2, 4, 1, 3, 4, 3, 1, 2, 3, 4]);
next = array1d(1..14 ,[12, 10, 14, 5, 1, 3, 11, 2, 6, 13, 4, 8, 9, 7]);
makespan = 606;
----------
assign = array1d(1..14 ,[2, 3, 4, 2, 2, 4, 1, 3, 4, 3, 1, 2, 3, 4]);
next = array1d(1..14 ,[12, 10, 14, 5, 1, 3, 11, 2, 6, 13, 4, 8, 9, 7]);
makespan = 604;
----------
assign = array1d(1..14 ,[2, 3, 4, 2, 2, 4, 1, 3, 4, 3, 1, 2, 3, 4]);
next = array1d(1..14 ,[12, 10, 14, 5, 1, 3, 11, 2, 6, 13, 4, 8, 9, 7]);
makespan = 602;
----------
assign = array1d(1..14 ,[2, 3, 4, 2, 2, 4, 1, 3, 4, 3, 1, 2, 3, 4]);
next = array1d(1..14 ,[12, 10, 14, 5, 1, 3, 11, 2, 6, 13, 4, 8, 9, 7]);
makespan = 601;
----------
assign = array1d(1..14 ,[2, 3, 4, 2, 2, 4, 1, 3, 4, 3, 1, 2, 3, 4]);
next = array1d(1..14 ,[12, 10, 14, 5, 1, 3, 11, 2, 6, 13, 4, 8, 9, 7]);
makespan = 599;
----------
assign = array1d(1..14 ,[1, 3, 4, 1, 1, 4, 2, 3, 4, 3, 1, 2, 3, 4]);
next = array1d(1..14 ,[11, 10, 14, 5, 1, 3, 12, 2, 6, 13, 7, 8, 9, 4]);
makespan = 597;
----------
assign = array1d(1..14 ,[3, 2, 4, 3, 3, 4, 1, 2, 4, 2, 1, 2, 3, 4]);
next = array1d(1..14 ,[13, 10, 14, 5, 1, 3, 11, 2, 6, 12, 8, 4, 9, 7]);
makespan = 596;
----------
assign = array1d(1..14 ,[3, 2, 4, 3, 3, 4, 1, 2, 4, 2, 1, 2, 3, 4]);
next = array1d(1..14 ,[13, 10, 14, 5, 1, 3, 11, 2, 6, 12, 8, 4, 9, 7]);
makespan = 592;
----------
assign = array1d(1..14 ,[3, 2, 4, 3, 3, 4, 1, 2, 4, 2, 1, 2, 3, 4]);
next = array1d(1..14 ,[13, 10, 14, 5, 1, 3, 11, 2, 6, 12, 8, 4, 9, 7]);
makespan = 591;
----------
assign = array1d(1..14 ,[3, 2, 4, 3, 3, 4, 1, 2, 4, 2, 1, 2, 3, 4]);
next = array1d(1..14 ,[13, 10, 14, 5, 1, 3, 11, 2, 6, 12, 8, 4, 9, 7]);
makespan = 590;
----------
assign = array1d(1..14 ,[3, 2, 4, 3, 3, 4, 1, 2, 4, 2, 1, 2, 3, 4]);
next = array1d(1..14 ,[13, 10, 9, 5, 1, 14, 11, 2, 6, 12, 8, 4, 3, 7]);
makespan = 588;
----------
assign = array1d(1..14 ,[3, 2, 4, 3, 3, 4, 1, 2, 4, 2, 1, 2, 3, 4]);
next = array1d(1..14 ,[13, 10, 9, 5, 1, 14, 11, 2, 6, 12, 8, 4, 3, 7]);
makespan = 587;
----------
assign = array1d(1..14 ,[3, 2, 4, 3, 3, 4, 1, 2, 4, 2, 1, 2, 3, 4]);
next = array1d(1..14 ,[13, 10, 9, 5, 1, 14, 11, 2, 6, 12, 8, 4, 3, 7]);
makespan = 586;
----------
assign = array1d(1..14 ,[3, 2, 4, 3, 3, 4, 1, 2, 4, 1, 1, 2, 3, 4]);
next = array1d(1..14 ,[13, 12, 9, 5, 1, 14, 11, 2, 6, 7, 8, 4, 3, 10]);
makespan = 584;
----------
assign = array1d(1..14 ,[3, 4, 3, 4, 3, 1, 2, 2, 1, 4, 1, 2, 3, 4]);
next = array1d(1..14 ,[3, 10, 13, 14, 1, 11, 8, 12, 6, 4, 7, 5, 2, 9]);
makespan = 583;
----------
assign = array1d(1..14 ,[3, 4, 3, 4, 2, 1, 2, 3, 1, 4, 1, 2, 3, 4]);
next = array1d(1..14 ,[8, 10, 13, 14, 7, 11, 12, 3, 6, 4, 5, 1, 2, 9]);
makespan = 581;
----------
assign = array1d(1..14 ,[3, 4, 1, 3, 3, 2, 4, 4, 2, 2, 1, 2, 3, 4]);
next = array1d(1..14 ,[13, 8, 11, 5, 1, 12, 14, 7, 6, 9, 10, 4, 2, 3]);
makespan = 580;
----------
assign = array1d(1..14 ,[4, 4, 2, 1, 1, 4, 3, 1, 3, 2, 1, 2, 3, 4]);
next = array1d(1..14 ,[14, 6, 12, 5, 8, 1, 9, 11, 13, 3, 10, 7, 2, 4]);
makespan = 579;
----------
assign = array1d(1..14 ,[2, 1, 4, 2, 3, 1, 1, 3, 3, 4, 1, 2, 3, 4]);
next = array1d(1..14 ,[4, 7, 14, 12, 8, 2, 11, 9, 13, 3, 1, 5, 10, 6]);
makespan = 577;
----------
assign = array1d(1..14 ,[1, 1, 4, 2, 2, 4, 1, 3, 3, 4, 1, 2, 3, 4]);
next = array1d(1..14 ,[11, 7, 6, 5, 12, 14, 1, 9, 13, 3, 4, 8, 10, 2]);
makespan = 576;
----------
assign = array1d(1..14 ,[1, 1, 4, 2, 2, 4, 1, 3, 4, 3, 1, 2, 3, 4]);
next = array1d(1..14 ,[11, 7, 6, 5, 12, 14, 1, 13, 3, 8, 4, 10, 9, 2]);
makespan = 575;
----------
assign = array1d(1..14 ,[4, 3, 4, 1, 1, 3, 3, 2, 4, 2, 1, 2, 3, 4]);
next = array1d(1..14 ,[9, 7, 14, 5, 11, 2, 13, 12, 3, 8, 10, 6, 1, 4]);
makespan = 574;
----------
assign = array1d(1..14 ,[4, 3, 4, 1, 1, 3, 3, 2, 4, 2, 1, 2, 3, 4]);
next = array1d(1..14 ,[9, 7, 14, 5, 11, 2, 13, 12, 3, 8, 10, 6, 1, 4]);
makespan = 573;
----------
assign = array1d(1..14 ,[4, 3, 4, 1, 1, 2, 3, 2, 4, 2, 1, 2, 3, 4]);
next = array1d(1..14 ,[9, 7, 14, 5, 11, 12, 13, 6, 3, 8, 10, 2, 1, 4]);
makespan = 572;
----------
assign = array1d(1..14 ,[4, 3, 4, 1, 1, 4, 3, 2, 2, 2, 1, 2, 3, 4]);
next = array1d(1..14 ,[6, 7, 14, 5, 11, 3, 13, 9, 12, 8, 10, 2, 1, 4]);
makespan = 571;
----------
assign = array1d(1..14 ,[2, 4, 1, 4, 4, 2, 1, 1, 3, 3, 1, 2, 3, 4]);
next = array1d(1..14 ,[12, 4, 7, 5, 14, 1, 11, 3, 10, 13, 6, 9, 2, 8]);
makespan = 570;
----------
assign = array1d(1..14 ,[1, 2, 2, 2, 4, 4, 4, 1, 3, 3, 1, 2, 3, 4]);
next = array1d(1..14 ,[8, 3, 12, 2, 6, 7, 14, 11, 10, 13, 4, 9, 5, 1]);
makespan = 569;
----------
assign = array1d(1..14 ,[2, 1, 4, 1, 1, 4, 4, 2, 3, 3, 1, 2, 3, 4]);
next = array1d(1..14 ,[8, 5, 6, 11, 4, 7, 14, 12, 10, 13, 1, 9, 3, 2]);
makespan = 568;
----------
assign = array1d(1..14 ,[1, 4, 1, 2, 2, 4, 1, 4, 3, 3, 1, 2, 3, 4]);
next = array1d(1..14 ,[11, 8, 7, 5, 12, 2, 1, 14, 10, 13, 4, 9, 6, 3]);
makespan = 567;
----------
assign = array1d(1..14 ,[2, 1, 4, 3, 4, 4, 1, 2, 3, 1, 1, 2, 3, 4]);
next = array1d(1..14 ,[8, 7, 14, 13, 6, 3, 11, 12, 4, 2, 1, 9, 5, 10]);
makespan = 566;
----------
assign = array1d(1..14 ,[2, 1, 4, 3, 3, 4, 1, 2, 3, 1, 1, 2, 3, 4]);
next = array1d(1..14 ,[8, 7, 6, 13, 4, 14, 11, 12, 5, 2, 1, 9, 3, 10]);
makespan = 565;
----------
assign = array1d(1..14 ,[3, 1, 4, 4, 3, 2, 1, 3, 2, 1, 1, 2, 3, 4]);
next = array1d(1..14 ,[8, 7, 14, 3, 13, 12, 11, 5, 6, 2, 9, 1, 4, 10]);
makespan = 563;
----------
assign = array1d(1..14 ,[4, 4, 1, 2, 1, 3, 2, 1, 3, 4, 1, 2, 3, 4]);
next = array1d(1..14 ,[10, 14, 8, 7, 11, 13, 12, 5, 6, 2, 4, 9, 1, 3]);
makespan = 562;
----------
assign = array1d(1..14 ,[4, 1, 1, 2, 4, 4, 2, 1, 3, 3, 1, 2, 3, 4]);
next = array1d(1..14 ,[14, 11, 8, 7, 6, 1, 12, 2, 10, 13, 4, 9, 5, 3]);
makespan = 561;
----------
assign = array1d(1..14 ,[2, 4, 2, 4, 1, 1, 4, 3, 3, 2, 1, 2, 3, 4]);
next = array1d(1..14 ,[10, 4, 12, 7, 11, 5, 14, 9, 13, 3, 1, 8, 2, 6]);
makespan = 560;
----------
assign = array1d(1..14 ,[4, 2, 3, 1, 3, 4, 1, 1, 2, 4, 1, 2, 3, 4]);
next = array1d(1..14 ,[10, 9, 13, 7, 3, 1, 11, 4, 12, 14, 2, 5, 6, 8]);
makespan = 559;
----------
assign = array1d(1..14 ,[3, 4, 2, 2, 3, 1, 1, 4, 3, 2, 1, 2, 3, 4]);
next = array1d(1..14 ,[13, 14, 4, 12, 9, 7, 11, 2, 1, 3, 10, 5, 8, 6]);
makespan = 558;
----------
assign = array1d(1..14 ,[4, 1, 2, 2, 1, 3, 4, 1, 3, 2, 1, 2, 3, 4]);
next = array1d(1..14 ,[7, 11, 4, 10, 8, 13, 14, 2, 6, 12, 3, 9, 1, 5]);
makespan = 557;
----------
assign = array1d(1..14 ,[1, 4, 3, 2, 3, 2, 1, 1, 4, 2, 1, 2, 3, 4]);
next = array1d(1..14 ,[7, 9, 13, 10, 3, 4, 11, 1, 14, 12, 6, 5, 2, 8]);
makespan = 556;
----------
assign = array1d(1..14 ,[4, 1, 3, 4, 3, 4, 2, 1, 2, 2, 1, 2, 3, 4]);
next = array1d(1..14 ,[14, 11, 13, 6, 3, 1, 12, 2, 7, 9, 10, 5, 4, 8]);
makespan = 555;
----------
assign = array1d(1..14 ,[1, 4, 1, 2, 3, 3, 3, 4, 2, 2, 1, 2, 3, 4]);
next = array1d(1..14 ,[11, 8, 1, 10, 7, 5, 13, 14, 4, 12, 9, 6, 2, 3]);
makespan = 554;
----------
assign = array1d(1..14 ,[3, 1, 2, 2, 4, 1, 1, 4, 3, 2, 1, 2, 3, 4]);
next = array1d(1..14 ,[9, 11, 10, 3, 8, 2, 6, 14, 13, 12, 4, 1, 5, 7]);
makespan = 553;
----------
assign = array1d(1..14 ,[4, 1, 3, 2, 1, 4, 1, 3, 4, 2, 1, 2, 3, 4]);
next = array1d(1..14 ,[9, 5, 13, 10, 7, 1, 11, 3, 14, 12, 4, 8, 6, 2]);
makespan = 552;
----------
assign = array1d(1..14 ,[1, 1, 4, 3, 3, 3, 1, 2, 2, 4, 1, 2, 3, 4]);
next = array1d(1..14 ,[11, 7, 10, 13, 4, 5, 1, 12, 8, 14, 9, 6, 3, 2]);
makespan = 551;
----------
assign = array1d(1..14 ,[2, 3, 1, 2, 1, 2, 1, 4, 4, 3, 1, 2, 3, 4]);
next = array1d(1..14 ,[12, 13, 5, 1, 11, 4, 3, 14, 8, 2, 6, 10, 9, 7]);
makespan = 550;
----------
assign = array1d(1..14 ,[3, 2, 4, 4, 2, 3, 1, 3, 1, 2, 1, 2, 3, 4]);
next = array1d(1..14 ,[6, 10, 14, 3, 2, 8, 11, 13, 7, 12, 5, 1, 4, 9]);
makespan = 549;
----------
assign = array1d(1..14 ,[3, 4, 4, 2, 3, 2, 1, 3, 2, 1, 1, 2, 3, 4]);
next = array1d(1..14 ,[5, 14, 2, 9, 8, 4, 11, 13, 12, 7, 6, 1, 3, 10]);
makespan = 548;
----------
assign = array1d(1..14 ,[2, 1, 1, 4, 2, 4, 3, 1, 4, 3, 1, 2, 3, 4]);
next = array1d(1..14 ,[5, 3, 11, 9, 12, 4, 13, 2, 14, 7, 1, 10, 6, 8]);
makespan = 547;
----------
assign = array1d(1..14 ,[4, 2, 1, 4, 1, 2, 3, 1, 4, 3, 1, 2, 3, 4]);
next = array1d(1..14 ,[14, 6, 5, 9, 8, 12, 13, 11, 1, 7, 2, 10, 4, 3]);
makespan = 546;
----------
assign = array1d(1..14 ,[3, 4, 3, 2, 1, 4, 1, 1, 2, 2, 1, 2, 3, 4]);
next = array1d(1..14 ,[3, 6, 13, 9, 7, 14, 11, 5, 10, 12, 4, 1, 2, 8]);
makespan = 545;
----------
assign = array1d(1..14 ,[3, 4, 4, 2, 3, 1, 1, 3, 2, 2, 1, 2, 3, 4]);
next = array1d(1..14 ,[5, 14, 2, 9, 13, 7, 11, 1, 10, 12, 4, 8, 3, 6]);
makespan = 544;
----------
assign = array1d(1..14 ,[3, 1, 2, 4, 1, 4, 4, 1, 2, 3, 1, 2, 3, 4]);
next = array1d(1..14 ,[13, 5, 9, 6, 8, 7, 14, 11, 12, 1, 3, 10, 4, 2]);
makespan = 543;
----------
assign = array1d(1..14 ,[2, 3, 1, 2, 3, 4, 1, 1, 4, 2, 1, 2, 3, 4]);
next = array1d(1..14 ,[10, 5, 8, 12, 13, 14, 3, 11, 6, 4, 1, 2, 9, 7]);
makespan = 542;
----------
assign = array1d(1..14 ,[2, 1, 3, 4, 3, 1, 1, 4, 2, 2, 1, 2, 3, 4]);
next = array1d(1..14 ,[10, 7, 5, 8, 13, 2, 11, 14, 12, 9, 1, 3, 4, 6]);
makespan = 541;
----------
assign = array1d(1..14 ,[2, 4, 2, 4, 1, 3, 1, 1, 4, 3, 1, 2, 3, 4]);
next = array1d(1..14 ,[12, 14, 1, 9, 7, 13, 11, 5, 2, 6, 3, 10, 4, 8]);
makespan = 540;
----------
assign = array1d(1..14 ,[2, 4, 3, 2, 1, 4, 1, 1, 3, 2, 1, 2, 3, 4]);
next = array1d(1..14 ,[4, 6, 13, 10, 7, 14, 11, 5, 3, 12, 1, 9, 2, 8]);
makespan = 539;
----------
assign = array1d(1..14 ,[3, 1, 2, 4, 1, 4, 4, 1, 2, 3, 1, 2, 3, 4]);
next = array1d(1..14 ,[13, 5, 12, 7, 8, 4, 14, 11, 3, 1, 9, 10, 6, 2]);
makespan = 538;
----------
assign = array1d(1..14 ,[2, 1, 4, 2, 3, 1, 1, 4, 3, 2, 1, 2, 3, 4]);
next = array1d(1..14 ,[4, 11, 8, 10, 9, 2, 6, 14, 13, 12, 1, 5, 3, 7]);
makespan = 537;
----------
assign = array1d(1..14 ,[3, 3, 1, 2, 1, 3, 2, 1, 4, 4, 1, 2, 3, 4]);
next = array1d(1..14 ,[6, 13, 5, 7, 8, 2, 12, 11, 10, 14, 4, 1, 9, 3]);
makespan = 536;
----------
assign = array1d(1..14 ,[3, 3, 1, 2, 1, 3, 2, 1, 4, 4, 1, 2, 3, 4]);
next = array1d(1..14 ,[6, 13, 5, 12, 8, 2, 4, 11, 10, 14, 7, 1, 9, 3]);
makespan = 535;
----------
assign = array1d(1..14 ,[3, 1, 1, 2, 3, 3, 4, 1, 2, 4, 1, 2, 3, 4]);
next = array1d(1..14 ,[6, 8, 2, 9, 13, 5, 10, 11, 12, 14, 4, 1, 7, 3]);
makespan = 534;
----------
assign = array1d(1..14 ,[3, 1, 1, 2, 3, 3, 1, 2, 4, 4, 1, 2, 3, 4]);
next = array1d(1..14 ,[6, 7, 2, 8, 13, 5, 11, 12, 14, 9, 4, 1, 10, 3]);
makespan = 533;
----------
assign = array1d(1..14 ,[4, 1, 2, 3, 3, 3, 1, 1, 4, 2, 1, 2, 3, 4]);
next = array1d(1..14 ,[9, 8, 10, 13, 4, 5, 2, 11, 14, 12, 3, 6, 1, 7]);
makespan = 532;
----------
assign = array1d(1..14 ,[3, 1, 2, 4, 4, 4, 1, 1, 2, 3, 1, 2, 3, 4]);
next = array1d(1..14 ,[10, 8, 12, 14, 6, 4, 2, 11, 3, 13, 9, 1, 5, 7]);
makespan = 531;
----------
assign = array1d(1..14 ,[3, 1, 2, 4, 1, 4, 2, 1, 4, 3, 1, 2, 3, 4]);
next = array1d(1..14 ,[10, 5, 12, 6, 8, 14, 3, 11, 4, 13, 7, 1, 9, 2]);
makespan = 530;
----------
assign = array1d(1..14 ,[3, 3, 1, 2, 1, 3, 4, 4, 2, 2, 1, 2, 3, 4]);
next = array1d(1..14 ,[6, 13, 5, 12, 11, 2, 8, 14, 4, 9, 10, 1, 7, 3]);
makespan = 529;
----------
assign = array1d(1..14 ,[4, 1, 1, 4, 3, 4, 2, 1, 3, 2, 1, 2, 3, 4]);
next = array1d(1..14 ,[14, 8, 2, 1, 13, 4, 12, 11, 5, 7, 10, 9, 6, 3]);
makespan = 528;
----------
assign = array1d(1..14 ,[4, 1, 4, 2, 1, 2, 3, 1, 3, 2, 1, 2, 3, 4]);
next = array1d(1..14 ,[3, 5, 14, 10, 8, 4, 9, 11, 13, 12, 6, 7, 1, 2]);
makespan = 527;
----------
assign = array1d(1..14 ,[3, 2, 1, 2, 3, 3, 4, 4, 1, 2, 1, 2, 3, 4]);
next = array1d(1..14 ,[6, 10, 11, 12, 13, 5, 8, 14, 3, 4, 2, 1, 7, 9]);
makespan = 526;
----------
assign = array1d(1..14 ,[3, 2, 1, 2, 3, 3, 4, 1, 4, 2, 1, 2, 3, 4]);
next = array1d(1..14 ,[6, 10, 11, 12, 13, 5, 9, 3, 14, 4, 2, 1, 7, 8]);
makespan = 525;
----------
assign = array1d(1..14 ,[3, 1, 1, 2, 3, 3, 2, 1, 4, 4, 1, 2, 3, 4]);
next = array1d(1..14 ,[6, 8, 2, 12, 13, 5, 4, 11, 10, 14, 7, 1, 9, 3]);
makespan = 524;
----------
assign = array1d(1..14 ,[4, 2, 1, 4, 1, 4, 3, 3, 2, 2, 1, 2, 3, 4]);
next = array1d(1..14 ,[6, 10, 5, 14, 11, 4, 13, 7, 12, 9, 2, 8, 1, 3]);
makespan = 523;
----------
assign = array1d(1..14 ,[3, 3, 4, 2, 1, 3, 1, 4, 2, 2, 1, 2, 3, 4]);
next = array1d(1..14 ,[6, 13, 14, 10, 7, 2, 11, 3, 12, 9, 4, 1, 8, 5]);
makespan = 522;
----------
assign = array1d(1..14 ,[2, 1, 1, 4, 3, 4, 2, 1, 4, 3, 1, 2, 3, 4]);
next = array1d(1..14 ,[7, 8, 2, 9, 13, 4, 12, 11, 14, 5, 1, 10, 6, 3]);
makespan = 521;
----------
assign = array1d(1..14 ,[3, 2, 1, 2, 4, 4, 1, 1, 3, 2, 1, 2, 3, 4]);
next = array1d(1..14 ,[9, 10, 8, 2, 6, 14, 3, 11, 13, 12, 4, 1, 5, 7]);
makespan = 520;
----------
assign = array1d(1..14 ,[3, 4, 1, 2, 3, 3, 4, 1, 2, 2, 1, 2, 3, 4]);
next = array1d(1..14 ,[6, 14, 11, 10, 13, 5, 2, 3, 12, 9, 4, 1, 7, 8]);
makespan = 519;
----------
assign = array1d(1..14 ,[3, 1, 1, 4, 3, 3, 2, 1, 2, 4, 1, 2, 3, 4]);
next = array1d(1..14 ,[6, 8, 2, 14, 13, 5, 9, 11, 12, 4, 7, 1, 10, 3]);
makespan = 518;
----------
assign = array1d(1..14 ,[3, 4, 1, 2, 3, 3, 4, 1, 2, 2, 1, 2, 3, 4]);
next = array1d(1..14 ,[6, 14, 11, 10, 13, 5, 2, 3, 12, 9, 4, 1, 7, 8]);
makespan = 517;
----------
assign = array1d(1..14 ,[3, 1, 1, 2, 3, 4, 1, 4, 2, 2, 1, 2, 3, 4]);
next = array1d(1..14 ,[5, 11, 2, 10, 13, 14, 3, 6, 12, 9, 4, 1, 8, 7]);
makespan = 516;
----------
assign = array1d(1..14 ,[2, 1, 1, 4, 3, 4, 3, 1, 4, 2, 1, 2, 3, 4]);
next = array1d(1..14 ,[10, 8, 2, 9, 13, 4, 5, 11, 14, 12, 1, 7, 6, 3]);
makespan = 515;
----------
assign = array1d(1..14 ,[2, 1, 1, 4, 3, 4, 3, 1, 4, 2, 1, 2, 3, 4]);
next = array1d(1..14 ,[10, 8, 2, 9, 13, 4, 5, 11, 14, 12, 1, 7, 6, 3]);
makespan = 514;
----------
assign = array1d(1..14 ,[3, 1, 1, 2, 3, 3, 4, 1, 4, 2, 1, 2, 3, 4]);
next = array1d(1..14 ,[6, 8, 2, 12, 13, 5, 9, 11, 14, 4, 10, 1, 7, 3]);
makespan = 513;
----------
assign = array1d(1..14 ,[3, 1, 1, 2, 3, 3, 4, 1, 4, 2, 1, 2, 3, 4]);
next = array1d(1..14 ,[6, 8, 2, 10, 13, 5, 9, 11, 14, 12, 4, 1, 7, 3]);
makespan = 512;
----------
assign = array1d(1..14 ,[3, 1, 1, 2, 3, 3, 1, 4, 4, 2, 1, 2, 3, 4]);
next = array1d(1..14 ,[6, 7, 11, 12, 13, 5, 3, 14, 8, 4, 10, 1, 9, 2]);
makespan = 511;
----------
==========
	Command being timed: "mzn-chuffed lbbd-datasets/Rabadi-2006/dzn-p-dominant/model.mzn lbbd-datasets/Rabadi-2006/dzn-p-dominant/10on4Rp50Rs50_1Ameer.dzn"
	User time (seconds): 0.69
	System time (seconds): 0.03
	Percent of CPU this job got: 2%
	Elapsed (wall clock) time (h:mm:ss or m:ss): 0:26.95
	Average shared text size (kbytes): 0
	Average unshared data size (kbytes): 0
	Average stack size (kbytes): 0
	Average total size (kbytes): 0
	Maximum resident set size (kbytes): 44432
	Average resident set size (kbytes): 0
	Major (requiring I/O) page faults: 0
	Minor (reclaiming a frame) page faults: 4071
	Voluntary context switches: 409
	Involuntary context switches: 5
	Swaps: 0
	File system inputs: 0
	File system outputs: 528
	Socket messages sent: 0
	Socket messages received: 0
	Signals delivered: 0
	Page size (bytes): 4096
	Exit status: 0
