+ /usr/bin/timeout 600 /usr/bin/time -v mzn-chuffed lbbd-datasets/Rabadi-2006/dzn-p-dominant/model.mzn lbbd-datasets/Rabadi-2006/dzn-p-dominant/10on8Rp50Rs50_11Ameer.dzn
% No search annotation given. Defaulting to VSIDS!
assign = array1d(1..18 ,[8, 8, 8, 8, 8, 8, 8, 8, 8, 8, 1, 2, 3, 4, 5, 6, 7, 8]);
next = array1d(1..18 ,[2, 3, 4, 5, 6, 7, 8, 9, 10, 18, 12, 13, 14, 15, 16, 17, 1, 11]);
makespan = 2174;
----------
assign = array1d(1..18 ,[8, 8, 8, 8, 8, 8, 8, 8, 8, 8, 1, 2, 3, 4, 5, 6, 7, 8]);
next = array1d(1..18 ,[3, 4, 2, 5, 6, 7, 8, 9, 10, 18, 12, 13, 14, 15, 16, 17, 1, 11]);
makespan = 2132;
----------
assign = array1d(1..18 ,[8, 8, 8, 5, 8, 8, 8, 8, 8, 8, 1, 2, 3, 4, 5, 6, 7, 8]);
next = array1d(1..18 ,[10, 5, 6, 15, 9, 1, 3, 7, 18, 2, 12, 13, 14, 4, 16, 17, 8, 11]);
makespan = 2032;
----------
assign = array1d(1..18 ,[8, 8, 8, 8, 8, 8, 8, 8, 6, 8, 1, 2, 3, 4, 5, 6, 7, 8]);
next = array1d(1..18 ,[5, 7, 1, 18, 4, 2, 10, 6, 16, 3, 12, 13, 14, 15, 9, 17, 8, 11]);
makespan = 2027;
----------
assign = array1d(1..18 ,[8, 8, 8, 7, 8, 8, 8, 8, 8, 8, 1, 2, 3, 4, 5, 6, 7, 8]);
next = array1d(1..18 ,[7, 10, 1, 17, 8, 9, 6, 2, 18, 3, 12, 13, 14, 15, 16, 4, 5, 11]);
makespan = 2017;
----------
assign = array1d(1..18 ,[8, 8, 8, 8, 8, 8, 8, 8, 6, 8, 1, 2, 3, 4, 5, 6, 7, 8]);
next = array1d(1..18 ,[6, 10, 5, 18, 7, 4, 1, 2, 16, 3, 12, 13, 14, 15, 9, 17, 8, 11]);
makespan = 2016;
----------
assign = array1d(1..18 ,[8, 8, 8, 8, 8, 8, 8, 8, 6, 8, 1, 2, 3, 4, 5, 6, 7, 8]);
next = array1d(1..18 ,[6, 3, 10, 7, 18, 5, 1, 4, 16, 8, 12, 13, 14, 15, 9, 17, 2, 11]);
makespan = 2009;
----------
assign = array1d(1..18 ,[8, 8, 8, 8, 8, 8, 8, 8, 6, 8, 1, 2, 3, 4, 5, 6, 7, 8]);
next = array1d(1..18 ,[2, 10, 5, 18, 4, 3, 6, 1, 16, 7, 12, 13, 14, 15, 9, 17, 8, 11]);
makespan = 2008;
----------
assign = array1d(1..18 ,[8, 8, 8, 8, 8, 8, 8, 5, 5, 8, 1, 2, 3, 4, 5, 6, 7, 8]);
next = array1d(1..18 ,[5, 1, 2, 18, 4, 3, 6, 15, 8, 7, 12, 13, 14, 9, 16, 17, 10, 11]);
makespan = 2005;
----------
assign = array1d(1..18 ,[8, 8, 8, 8, 8, 8, 8, 6, 6, 8, 1, 2, 3, 4, 5, 6, 7, 8]);
next = array1d(1..18 ,[5, 1, 2, 18, 4, 3, 6, 16, 8, 7, 12, 13, 14, 15, 9, 17, 10, 11]);
makespan = 1997;
----------
assign = array1d(1..18 ,[8, 8, 8, 8, 8, 8, 8, 7, 7, 8, 1, 2, 3, 4, 5, 6, 7, 8]);
next = array1d(1..18 ,[5, 1, 2, 18, 4, 3, 6, 17, 8, 7, 12, 13, 14, 15, 16, 9, 10, 11]);
makespan = 1995;
----------
assign = array1d(1..18 ,[8, 8, 8, 8, 8, 8, 8, 5, 5, 8, 1, 2, 3, 4, 5, 6, 7, 8]);
next = array1d(1..18 ,[5, 1, 2, 18, 4, 3, 6, 15, 8, 7, 12, 13, 14, 9, 16, 17, 10, 11]);
makespan = 1993;
----------
assign = array1d(1..18 ,[8, 8, 8, 8, 8, 8, 8, 7, 7, 8, 1, 2, 3, 4, 5, 6, 7, 8]);
next = array1d(1..18 ,[5, 1, 2, 18, 4, 3, 6, 17, 8, 7, 12, 13, 14, 15, 16, 9, 10, 11]);
makespan = 1988;
----------
assign = array1d(1..18 ,[8, 8, 8, 8, 8, 8, 8, 5, 5, 8, 1, 2, 3, 4, 5, 6, 7, 8]);
next = array1d(1..18 ,[5, 1, 2, 18, 4, 3, 6, 15, 8, 7, 12, 13, 14, 9, 16, 17, 10, 11]);
makespan = 1985;
----------
assign = array1d(1..18 ,[8, 8, 8, 8, 8, 8, 8, 6, 6, 8, 1, 2, 3, 4, 5, 6, 7, 8]);
next = array1d(1..18 ,[5, 1, 2, 18, 4, 3, 6, 16, 8, 7, 12, 13, 14, 15, 9, 17, 10, 11]);
makespan = 1984;
----------
assign = array1d(1..18 ,[8, 8, 8, 8, 8, 8, 8, 5, 5, 8, 1, 2, 3, 4, 5, 6, 7, 8]);
next = array1d(1..18 ,[5, 1, 2, 18, 4, 3, 6, 15, 8, 7, 12, 13, 14, 9, 16, 17, 10, 11]);
makespan = 1977;
----------
assign = array1d(1..18 ,[8, 8, 8, 8, 8, 8, 8, 6, 6, 8, 1, 2, 3, 4, 5, 6, 7, 8]);
next = array1d(1..18 ,[5, 1, 2, 18, 4, 3, 6, 16, 8, 7, 12, 13, 14, 15, 9, 17, 10, 11]);
makespan = 1974;
----------
assign = array1d(1..18 ,[8, 8, 8, 8, 8, 8, 8, 5, 5, 8, 1, 2, 3, 4, 5, 6, 7, 8]);
next = array1d(1..18 ,[5, 1, 2, 18, 4, 3, 6, 15, 8, 7, 12, 13, 14, 9, 16, 17, 10, 11]);
makespan = 1961;
----------
assign = array1d(1..18 ,[8, 8, 8, 8, 8, 8, 8, 6, 6, 8, 1, 2, 3, 4, 5, 6, 7, 8]);
next = array1d(1..18 ,[5, 1, 2, 18, 4, 3, 6, 16, 8, 7, 12, 13, 14, 15, 9, 17, 10, 11]);
makespan = 1945;
----------
assign = array1d(1..18 ,[8, 8, 8, 8, 8, 8, 8, 5, 5, 8, 1, 2, 3, 4, 5, 6, 7, 8]);
next = array1d(1..18 ,[5, 1, 2, 18, 4, 3, 6, 15, 8, 7, 12, 13, 14, 9, 16, 17, 10, 11]);
makespan = 1944;
----------
assign = array1d(1..18 ,[8, 8, 8, 8, 8, 8, 8, 6, 6, 8, 1, 2, 3, 4, 5, 6, 7, 8]);
next = array1d(1..18 ,[5, 1, 2, 18, 4, 3, 6, 16, 8, 7, 12, 13, 14, 15, 9, 17, 10, 11]);
makespan = 1943;
----------
assign = array1d(1..18 ,[8, 8, 8, 8, 8, 8, 8, 5, 5, 8, 1, 2, 3, 4, 5, 6, 7, 8]);
next = array1d(1..18 ,[5, 1, 2, 18, 4, 3, 6, 15, 8, 7, 12, 13, 14, 9, 16, 17, 10, 11]);
makespan = 1885;
----------
assign = array1d(1..18 ,[8, 8, 8, 8, 8, 8, 8, 6, 6, 8, 1, 2, 3, 4, 5, 6, 7, 8]);
next = array1d(1..18 ,[5, 1, 2, 18, 4, 3, 6, 16, 8, 7, 12, 13, 14, 15, 9, 17, 10, 11]);
makespan = 1878;
----------
assign = array1d(1..18 ,[8, 8, 8, 8, 8, 8, 8, 5, 5, 8, 1, 2, 3, 4, 5, 6, 7, 8]);
next = array1d(1..18 ,[5, 1, 2, 18, 4, 3, 6, 15, 8, 7, 12, 13, 14, 9, 16, 17, 10, 11]);
makespan = 1865;
----------
assign = array1d(1..18 ,[8, 8, 8, 8, 8, 8, 8, 6, 6, 8, 1, 2, 3, 4, 5, 6, 7, 8]);
next = array1d(1..18 ,[5, 1, 2, 18, 4, 3, 6, 16, 8, 7, 12, 13, 14, 15, 9, 17, 10, 11]);
makespan = 1861;
----------
assign = array1d(1..18 ,[8, 8, 8, 8, 8, 8, 8, 5, 5, 8, 1, 2, 3, 4, 5, 6, 7, 8]);
next = array1d(1..18 ,[5, 1, 2, 18, 4, 3, 6, 15, 8, 7, 12, 13, 14, 9, 16, 17, 10, 11]);
makespan = 1841;
----------
assign = array1d(1..18 ,[8, 8, 8, 8, 8, 8, 8, 7, 7, 8, 1, 2, 3, 4, 5, 6, 7, 8]);
next = array1d(1..18 ,[5, 1, 2, 18, 4, 3, 6, 17, 8, 7, 12, 13, 14, 15, 16, 9, 10, 11]);
makespan = 1833;
----------
assign = array1d(1..18 ,[8, 8, 8, 8, 8, 8, 8, 5, 5, 8, 1, 2, 3, 4, 5, 6, 7, 8]);
next = array1d(1..18 ,[5, 1, 2, 18, 4, 3, 6, 15, 8, 7, 12, 13, 14, 9, 16, 17, 10, 11]);
makespan = 1830;
----------
assign = array1d(1..18 ,[8, 8, 8, 8, 8, 8, 8, 7, 7, 8, 1, 2, 3, 4, 5, 6, 7, 8]);
next = array1d(1..18 ,[5, 1, 2, 18, 4, 3, 6, 17, 8, 7, 12, 13, 14, 15, 16, 9, 10, 11]);
makespan = 1823;
----------
assign = array1d(1..18 ,[8, 8, 8, 8, 8, 8, 8, 5, 5, 8, 1, 2, 3, 4, 5, 6, 7, 8]);
next = array1d(1..18 ,[5, 1, 2, 18, 4, 3, 6, 15, 8, 7, 12, 13, 14, 9, 16, 17, 10, 11]);
makespan = 1820;
----------
assign = array1d(1..18 ,[8, 8, 8, 8, 8, 8, 8, 7, 7, 8, 1, 2, 3, 4, 5, 6, 7, 8]);
next = array1d(1..18 ,[5, 1, 2, 18, 4, 3, 6, 17, 8, 7, 12, 13, 14, 15, 16, 9, 10, 11]);
makespan = 1807;
----------
assign = array1d(1..18 ,[8, 8, 8, 8, 8, 8, 8, 5, 5, 8, 1, 2, 3, 4, 5, 6, 7, 8]);
next = array1d(1..18 ,[5, 1, 2, 18, 4, 3, 6, 15, 8, 7, 12, 13, 14, 9, 16, 17, 10, 11]);
makespan = 1803;
----------
assign = array1d(1..18 ,[8, 8, 8, 8, 8, 8, 8, 7, 7, 8, 1, 2, 3, 4, 5, 6, 7, 8]);
next = array1d(1..18 ,[5, 1, 2, 18, 4, 3, 6, 17, 8, 7, 12, 13, 14, 15, 16, 9, 10, 11]);
makespan = 1798;
----------
assign = array1d(1..18 ,[8, 5, 8, 8, 8, 8, 8, 8, 5, 8, 1, 2, 3, 4, 5, 6, 7, 8]);
next = array1d(1..18 ,[5, 15, 1, 8, 4, 3, 6, 18, 2, 7, 12, 13, 14, 9, 16, 17, 10, 11]);
makespan = 1778;
----------
assign = array1d(1..18 ,[8, 7, 8, 8, 8, 8, 8, 8, 7, 8, 1, 2, 3, 4, 5, 6, 7, 8]);
next = array1d(1..18 ,[5, 17, 1, 18, 4, 3, 6, 10, 2, 7, 12, 13, 14, 15, 16, 9, 8, 11]);
makespan = 1769;
----------
assign = array1d(1..18 ,[8, 5, 8, 8, 8, 8, 8, 5, 5, 8, 1, 2, 3, 4, 5, 6, 7, 8]);
next = array1d(1..18 ,[5, 15, 18, 10, 4, 3, 6, 9, 2, 7, 12, 13, 14, 8, 16, 17, 1, 11]);
makespan = 1753;
----------
assign = array1d(1..18 ,[8, 7, 8, 8, 8, 8, 8, 7, 7, 8, 1, 2, 3, 4, 5, 6, 7, 8]);
next = array1d(1..18 ,[5, 8, 18, 10, 4, 3, 6, 17, 2, 7, 12, 13, 14, 15, 16, 9, 1, 11]);
makespan = 1738;
----------
assign = array1d(1..18 ,[8, 6, 8, 8, 8, 8, 8, 6, 6, 8, 1, 2, 3, 4, 5, 6, 7, 8]);
next = array1d(1..18 ,[5, 8, 18, 10, 4, 3, 6, 9, 16, 7, 12, 13, 14, 15, 2, 17, 1, 11]);
makespan = 1732;
----------
assign = array1d(1..18 ,[8, 6, 8, 8, 8, 8, 8, 7, 6, 8, 1, 2, 3, 4, 5, 6, 7, 8]);
next = array1d(1..18 ,[5, 9, 18, 10, 4, 3, 6, 17, 16, 7, 12, 13, 14, 15, 2, 8, 1, 11]);
makespan = 1727;
----------
assign = array1d(1..18 ,[8, 6, 8, 8, 8, 8, 8, 5, 6, 8, 1, 2, 3, 4, 5, 6, 7, 8]);
next = array1d(1..18 ,[5, 9, 18, 10, 4, 3, 6, 15, 16, 7, 12, 13, 14, 8, 2, 17, 1, 11]);
makespan = 1723;
----------
assign = array1d(1..18 ,[8, 7, 8, 8, 8, 8, 8, 5, 7, 8, 1, 2, 3, 4, 5, 6, 7, 8]);
next = array1d(1..18 ,[5, 9, 18, 10, 4, 3, 6, 15, 17, 7, 12, 13, 14, 8, 16, 2, 1, 11]);
makespan = 1714;
----------
assign = array1d(1..18 ,[8, 5, 8, 8, 8, 8, 8, 7, 5, 8, 1, 2, 3, 4, 5, 6, 7, 8]);
next = array1d(1..18 ,[5, 9, 18, 10, 4, 3, 6, 17, 15, 7, 12, 13, 14, 2, 16, 8, 1, 11]);
makespan = 1707;
----------
assign = array1d(1..18 ,[8, 7, 8, 8, 8, 8, 8, 5, 7, 8, 1, 2, 3, 4, 5, 6, 7, 8]);
next = array1d(1..18 ,[5, 9, 18, 10, 4, 3, 6, 15, 17, 7, 12, 13, 14, 8, 16, 2, 1, 11]);
makespan = 1706;
----------
assign = array1d(1..18 ,[8, 5, 8, 8, 8, 8, 8, 7, 5, 8, 1, 2, 3, 4, 5, 6, 7, 8]);
next = array1d(1..18 ,[5, 9, 18, 10, 4, 3, 6, 17, 15, 7, 12, 13, 14, 2, 16, 8, 1, 11]);
makespan = 1703;
----------
assign = array1d(1..18 ,[8, 7, 8, 8, 8, 8, 8, 5, 7, 8, 1, 2, 3, 4, 5, 6, 7, 8]);
next = array1d(1..18 ,[5, 9, 18, 10, 4, 3, 6, 15, 17, 7, 12, 13, 14, 8, 16, 2, 1, 11]);
makespan = 1690;
----------
assign = array1d(1..18 ,[8, 5, 8, 8, 8, 8, 8, 7, 5, 8, 1, 2, 3, 4, 5, 6, 7, 8]);
next = array1d(1..18 ,[5, 9, 18, 10, 4, 3, 6, 17, 15, 7, 12, 13, 14, 2, 16, 8, 1, 11]);
makespan = 1687;
----------
assign = array1d(1..18 ,[8, 7, 8, 8, 8, 8, 8, 5, 7, 8, 1, 2, 3, 4, 5, 6, 7, 8]);
next = array1d(1..18 ,[5, 9, 18, 10, 4, 3, 6, 15, 17, 7, 12, 13, 14, 8, 16, 2, 1, 11]);
makespan = 1686;
----------
assign = array1d(1..18 ,[8, 5, 8, 8, 8, 8, 8, 7, 5, 8, 1, 2, 3, 4, 5, 6, 7, 8]);
next = array1d(1..18 ,[5, 9, 18, 10, 4, 3, 6, 17, 15, 7, 12, 13, 14, 2, 16, 8, 1, 11]);
makespan = 1684;
----------
assign = array1d(1..18 ,[8, 7, 8, 8, 8, 8, 8, 5, 7, 8, 1, 2, 3, 4, 5, 6, 7, 8]);
next = array1d(1..18 ,[5, 9, 18, 10, 4, 3, 6, 15, 17, 7, 12, 13, 14, 8, 16, 2, 1, 11]);
makespan = 1682;
----------
assign = array1d(1..18 ,[8, 5, 8, 8, 8, 8, 8, 7, 5, 8, 1, 2, 3, 4, 5, 6, 7, 8]);
next = array1d(1..18 ,[5, 9, 18, 10, 4, 3, 6, 17, 15, 7, 12, 13, 14, 2, 16, 8, 1, 11]);
makespan = 1679;
----------
assign = array1d(1..18 ,[8, 7, 8, 8, 8, 8, 8, 5, 7, 8, 1, 2, 3, 4, 5, 6, 7, 8]);
next = array1d(1..18 ,[5, 9, 18, 10, 4, 3, 6, 15, 17, 7, 12, 13, 14, 8, 16, 2, 1, 11]);
makespan = 1675;
----------
assign = array1d(1..18 ,[8, 5, 8, 8, 8, 8, 8, 7, 5, 8, 1, 2, 3, 4, 5, 6, 7, 8]);
next = array1d(1..18 ,[5, 9, 18, 10, 4, 3, 6, 17, 15, 7, 12, 13, 14, 2, 16, 8, 1, 11]);
makespan = 1673;
----------
assign = array1d(1..18 ,[8, 7, 8, 8, 8, 8, 8, 5, 7, 8, 1, 2, 3, 4, 5, 6, 7, 8]);
next = array1d(1..18 ,[5, 9, 18, 10, 4, 3, 6, 15, 17, 7, 12, 13, 14, 8, 16, 2, 1, 11]);
makespan = 1672;
----------
assign = array1d(1..18 ,[8, 5, 8, 8, 8, 8, 8, 7, 5, 8, 1, 2, 3, 4, 5, 6, 7, 8]);
next = array1d(1..18 ,[5, 9, 18, 10, 4, 3, 6, 17, 15, 7, 12, 13, 14, 2, 16, 8, 1, 11]);
makespan = 1668;
----------
assign = array1d(1..18 ,[8, 7, 8, 8, 8, 8, 8, 5, 7, 8, 1, 2, 3, 4, 5, 6, 7, 8]);
next = array1d(1..18 ,[5, 9, 18, 10, 4, 3, 6, 15, 17, 7, 12, 13, 14, 8, 16, 2, 1, 11]);
makespan = 1646;
----------
assign = array1d(1..18 ,[8, 5, 8, 8, 8, 8, 8, 7, 5, 8, 1, 2, 3, 4, 5, 6, 7, 8]);
next = array1d(1..18 ,[5, 9, 18, 10, 4, 3, 6, 17, 15, 7, 12, 13, 14, 2, 16, 8, 1, 11]);
makespan = 1639;
----------
assign = array1d(1..18 ,[8, 5, 8, 8, 8, 8, 8, 7, 5, 8, 1, 2, 3, 4, 5, 6, 7, 8]);
next = array1d(1..18 ,[5, 9, 18, 10, 4, 3, 6, 17, 15, 7, 12, 13, 14, 2, 16, 8, 1, 11]);
makespan = 1636;
----------
assign = array1d(1..18 ,[8, 7, 8, 8, 8, 8, 8, 5, 7, 8, 1, 2, 3, 4, 5, 6, 7, 8]);
next = array1d(1..18 ,[5, 9, 18, 10, 4, 3, 6, 15, 17, 7, 12, 13, 14, 8, 16, 2, 1, 11]);
makespan = 1598;
----------
assign = array1d(1..18 ,[8, 7, 8, 8, 8, 8, 8, 5, 7, 8, 1, 2, 3, 4, 5, 6, 7, 8]);
next = array1d(1..18 ,[5, 9, 18, 10, 4, 3, 6, 15, 17, 7, 12, 13, 14, 8, 16, 2, 1, 11]);
makespan = 1585;
----------
assign = array1d(1..18 ,[8, 7, 8, 8, 8, 8, 8, 5, 7, 8, 1, 2, 3, 4, 5, 6, 7, 8]);
next = array1d(1..18 ,[5, 9, 1, 18, 4, 3, 6, 15, 17, 7, 12, 13, 14, 8, 16, 2, 10, 11]);
makespan = 1565;
----------
assign = array1d(1..18 ,[8, 6, 8, 8, 8, 8, 8, 7, 6, 8, 1, 2, 3, 4, 5, 6, 7, 8]);
next = array1d(1..18 ,[5, 9, 1, 18, 4, 3, 6, 17, 16, 7, 12, 13, 14, 15, 2, 8, 10, 11]);
makespan = 1560;
----------
assign = array1d(1..18 ,[8, 7, 8, 8, 8, 8, 8, 5, 7, 8, 1, 2, 3, 4, 5, 6, 7, 8]);
next = array1d(1..18 ,[5, 9, 1, 18, 4, 3, 6, 15, 17, 7, 12, 13, 14, 8, 16, 2, 10, 11]);
makespan = 1559;
----------
assign = array1d(1..18 ,[8, 5, 8, 8, 8, 8, 8, 7, 5, 8, 1, 2, 3, 4, 5, 6, 7, 8]);
next = array1d(1..18 ,[5, 9, 1, 18, 4, 3, 6, 17, 15, 7, 12, 13, 14, 2, 16, 8, 10, 11]);
makespan = 1556;
----------
assign = array1d(1..18 ,[8, 7, 8, 8, 8, 8, 8, 5, 7, 8, 1, 2, 3, 4, 5, 6, 7, 8]);
next = array1d(1..18 ,[5, 9, 1, 18, 4, 3, 6, 15, 17, 7, 12, 13, 14, 8, 16, 2, 10, 11]);
makespan = 1552;
----------
assign = array1d(1..18 ,[8, 5, 8, 8, 8, 8, 8, 7, 5, 8, 1, 2, 3, 4, 5, 6, 7, 8]);
next = array1d(1..18 ,[5, 9, 1, 18, 4, 3, 6, 17, 15, 7, 12, 13, 14, 2, 16, 8, 10, 11]);
makespan = 1549;
----------
assign = array1d(1..18 ,[8, 5, 8, 8, 8, 8, 8, 7, 5, 8, 1, 2, 3, 4, 5, 6, 7, 8]);
next = array1d(1..18 ,[5, 9, 1, 18, 4, 3, 6, 17, 15, 7, 12, 13, 14, 2, 16, 8, 10, 11]);
makespan = 1548;
----------
assign = array1d(1..18 ,[8, 7, 8, 8, 8, 8, 8, 5, 7, 8, 1, 2, 3, 4, 5, 6, 7, 8]);
next = array1d(1..18 ,[5, 9, 1, 18, 4, 3, 6, 15, 17, 7, 12, 13, 14, 8, 16, 2, 10, 11]);
makespan = 1547;
----------
assign = array1d(1..18 ,[5, 5, 8, 8, 8, 8, 8, 7, 8, 8, 1, 2, 3, 4, 5, 6, 7, 8]);
next = array1d(1..18 ,[15, 1, 9, 18, 4, 3, 6, 17, 5, 7, 12, 13, 14, 2, 16, 8, 10, 11]);
makespan = 1538;
----------
assign = array1d(1..18 ,[5, 5, 8, 8, 8, 8, 8, 7, 8, 8, 1, 2, 3, 4, 5, 6, 7, 8]);
next = array1d(1..18 ,[15, 1, 9, 18, 4, 3, 6, 17, 5, 7, 12, 13, 14, 2, 16, 8, 10, 11]);
makespan = 1536;
----------
assign = array1d(1..18 ,[5, 5, 8, 8, 8, 8, 8, 8, 7, 8, 1, 2, 3, 4, 5, 6, 7, 8]);
next = array1d(1..18 ,[15, 1, 18, 10, 4, 3, 6, 5, 17, 7, 12, 13, 14, 2, 16, 9, 8, 11]);
makespan = 1535;
----------
assign = array1d(1..18 ,[1, 8, 8, 5, 8, 8, 8, 7, 8, 8, 1, 2, 3, 4, 5, 6, 7, 8]);
next = array1d(1..18 ,[11, 10, 9, 15, 2, 3, 6, 17, 18, 7, 12, 13, 14, 4, 16, 8, 5, 1]);
makespan = 1534;
----------
assign = array1d(1..18 ,[5, 8, 8, 5, 5, 8, 8, 1, 8, 8, 1, 2, 3, 4, 5, 6, 7, 8]);
next = array1d(1..18 ,[15, 10, 9, 5, 1, 3, 6, 11, 18, 7, 12, 13, 14, 4, 16, 17, 2, 8]);
makespan = 1529;
----------
assign = array1d(1..18 ,[5, 8, 8, 5, 5, 8, 8, 1, 8, 8, 1, 2, 3, 4, 5, 6, 7, 8]);
next = array1d(1..18 ,[15, 10, 9, 5, 1, 3, 6, 11, 18, 7, 12, 13, 14, 4, 16, 17, 2, 8]);
makespan = 1528;
----------
assign = array1d(1..18 ,[5, 8, 8, 5, 5, 8, 8, 1, 8, 8, 1, 2, 3, 4, 5, 6, 7, 8]);
next = array1d(1..18 ,[15, 10, 9, 5, 1, 3, 6, 11, 18, 7, 12, 13, 14, 4, 16, 17, 2, 8]);
makespan = 1521;
----------
assign = array1d(1..18 ,[5, 8, 8, 5, 5, 8, 8, 1, 8, 8, 1, 2, 3, 4, 5, 6, 7, 8]);
next = array1d(1..18 ,[15, 10, 9, 5, 1, 3, 6, 11, 18, 7, 12, 13, 14, 4, 16, 17, 2, 8]);
makespan = 1520;
----------
assign = array1d(1..18 ,[5, 8, 8, 5, 5, 8, 8, 1, 8, 8, 1, 2, 3, 4, 5, 6, 7, 8]);
next = array1d(1..18 ,[15, 10, 9, 5, 1, 3, 6, 11, 18, 7, 12, 13, 14, 4, 16, 17, 2, 8]);
makespan = 1516;
----------
assign = array1d(1..18 ,[5, 8, 8, 5, 5, 8, 8, 1, 8, 8, 1, 2, 3, 4, 5, 6, 7, 8]);
next = array1d(1..18 ,[15, 10, 9, 5, 1, 3, 6, 11, 18, 7, 12, 13, 14, 4, 16, 17, 2, 8]);
makespan = 1509;
----------
assign = array1d(1..18 ,[5, 8, 8, 5, 5, 8, 8, 1, 8, 8, 1, 2, 3, 4, 5, 6, 7, 8]);
next = array1d(1..18 ,[15, 10, 9, 5, 1, 3, 6, 11, 18, 7, 12, 13, 14, 4, 16, 17, 2, 8]);
makespan = 1502;
----------
assign = array1d(1..18 ,[5, 8, 8, 5, 5, 8, 8, 1, 8, 8, 1, 2, 3, 4, 5, 6, 7, 8]);
next = array1d(1..18 ,[15, 10, 9, 5, 1, 3, 6, 11, 18, 7, 12, 13, 14, 4, 16, 17, 2, 8]);
makespan = 1497;
----------
assign = array1d(1..18 ,[5, 8, 8, 5, 5, 8, 8, 1, 8, 8, 1, 2, 3, 4, 5, 6, 7, 8]);
next = array1d(1..18 ,[15, 10, 9, 5, 1, 3, 6, 11, 18, 7, 12, 13, 14, 4, 16, 17, 2, 8]);
makespan = 1492;
----------
assign = array1d(1..18 ,[5, 8, 8, 5, 5, 8, 8, 1, 8, 8, 1, 2, 3, 4, 5, 6, 7, 8]);
next = array1d(1..18 ,[15, 10, 9, 5, 1, 3, 6, 11, 18, 7, 12, 13, 14, 4, 16, 17, 2, 8]);
makespan = 1491;
----------
assign = array1d(1..18 ,[5, 8, 8, 5, 5, 8, 8, 1, 8, 8, 1, 2, 3, 4, 5, 6, 7, 8]);
next = array1d(1..18 ,[15, 10, 9, 5, 1, 3, 6, 11, 18, 7, 12, 13, 14, 4, 16, 17, 2, 8]);
makespan = 1481;
----------
assign = array1d(1..18 ,[5, 8, 8, 5, 5, 8, 8, 1, 8, 8, 1, 2, 3, 4, 5, 6, 7, 8]);
next = array1d(1..18 ,[15, 10, 9, 5, 1, 3, 6, 11, 18, 7, 12, 13, 14, 4, 16, 17, 2, 8]);
makespan = 1471;
----------
assign = array1d(1..18 ,[5, 8, 8, 5, 5, 8, 8, 1, 8, 8, 1, 2, 3, 4, 5, 6, 7, 8]);
next = array1d(1..18 ,[15, 10, 9, 5, 1, 3, 6, 11, 18, 7, 12, 13, 14, 4, 16, 17, 2, 8]);
makespan = 1464;
----------
assign = array1d(1..18 ,[5, 8, 8, 5, 5, 8, 8, 1, 8, 8, 1, 2, 3, 4, 5, 6, 7, 8]);
next = array1d(1..18 ,[15, 10, 9, 5, 1, 3, 6, 11, 18, 7, 12, 13, 14, 4, 16, 17, 2, 8]);
makespan = 1455;
----------
assign = array1d(1..18 ,[5, 8, 8, 5, 5, 8, 8, 1, 8, 8, 1, 2, 3, 4, 5, 6, 7, 8]);
next = array1d(1..18 ,[15, 10, 9, 5, 1, 3, 6, 11, 18, 7, 12, 13, 14, 4, 16, 17, 2, 8]);
makespan = 1431;
----------
assign = array1d(1..18 ,[5, 8, 8, 5, 5, 8, 8, 1, 8, 8, 1, 2, 3, 4, 5, 6, 7, 8]);
next = array1d(1..18 ,[15, 10, 9, 5, 1, 3, 6, 11, 18, 7, 12, 13, 14, 4, 16, 17, 2, 8]);
makespan = 1407;
----------
assign = array1d(1..18 ,[5, 8, 8, 5, 5, 8, 8, 1, 8, 8, 1, 2, 3, 4, 5, 6, 7, 8]);
next = array1d(1..18 ,[15, 10, 9, 5, 1, 3, 6, 11, 18, 7, 12, 13, 14, 4, 16, 17, 2, 8]);
makespan = 1401;
----------
assign = array1d(1..18 ,[5, 8, 8, 5, 5, 8, 8, 1, 8, 8, 1, 2, 3, 4, 5, 6, 7, 8]);
next = array1d(1..18 ,[15, 10, 9, 5, 1, 3, 6, 11, 18, 7, 12, 13, 14, 4, 16, 17, 2, 8]);
makespan = 1395;
----------
assign = array1d(1..18 ,[5, 8, 8, 5, 5, 8, 8, 1, 8, 8, 1, 2, 3, 4, 5, 6, 7, 8]);
next = array1d(1..18 ,[15, 10, 9, 5, 1, 3, 6, 11, 18, 7, 12, 13, 14, 4, 16, 17, 2, 8]);
makespan = 1394;
----------
assign = array1d(1..18 ,[5, 8, 8, 5, 5, 8, 8, 1, 8, 8, 1, 2, 3, 4, 5, 6, 7, 8]);
next = array1d(1..18 ,[15, 10, 9, 5, 1, 3, 6, 11, 18, 7, 12, 13, 14, 4, 16, 17, 2, 8]);
makespan = 1391;
----------
assign = array1d(1..18 ,[5, 8, 8, 5, 5, 8, 8, 1, 8, 8, 1, 2, 3, 4, 5, 6, 7, 8]);
next = array1d(1..18 ,[15, 10, 9, 5, 1, 3, 6, 11, 18, 7, 12, 13, 14, 4, 16, 17, 2, 8]);
makespan = 1384;
----------
assign = array1d(1..18 ,[5, 8, 8, 5, 5, 8, 8, 1, 8, 8, 1, 2, 3, 4, 5, 6, 7, 8]);
next = array1d(1..18 ,[15, 10, 9, 5, 1, 3, 6, 11, 18, 7, 12, 13, 14, 4, 16, 17, 2, 8]);
makespan = 1381;
----------
assign = array1d(1..18 ,[5, 8, 8, 5, 5, 8, 8, 1, 8, 8, 1, 2, 3, 4, 5, 6, 7, 8]);
next = array1d(1..18 ,[15, 10, 9, 5, 1, 3, 6, 11, 18, 7, 12, 13, 14, 4, 16, 17, 2, 8]);
makespan = 1370;
----------
assign = array1d(1..18 ,[5, 8, 8, 5, 5, 8, 8, 1, 8, 8, 1, 2, 3, 4, 5, 6, 7, 8]);
next = array1d(1..18 ,[15, 10, 9, 5, 1, 3, 6, 11, 18, 7, 12, 13, 14, 4, 16, 17, 2, 8]);
makespan = 1368;
----------
assign = array1d(1..18 ,[5, 8, 8, 5, 5, 8, 8, 1, 8, 8, 1, 2, 3, 4, 5, 6, 7, 8]);
next = array1d(1..18 ,[15, 10, 9, 5, 1, 3, 6, 11, 18, 7, 12, 13, 14, 4, 16, 17, 2, 8]);
makespan = 1367;
----------
assign = array1d(1..18 ,[5, 8, 8, 5, 5, 8, 8, 1, 8, 8, 1, 2, 3, 4, 5, 6, 7, 8]);
next = array1d(1..18 ,[15, 10, 9, 5, 1, 3, 6, 11, 18, 7, 12, 13, 14, 4, 16, 17, 2, 8]);
makespan = 1361;
----------
assign = array1d(1..18 ,[5, 8, 8, 5, 5, 8, 8, 1, 8, 8, 1, 2, 3, 4, 5, 6, 7, 8]);
next = array1d(1..18 ,[15, 10, 9, 5, 1, 3, 6, 11, 18, 7, 12, 13, 14, 4, 16, 17, 2, 8]);
makespan = 1350;
----------
assign = array1d(1..18 ,[5, 8, 8, 5, 5, 8, 8, 1, 8, 8, 1, 2, 3, 4, 5, 6, 7, 8]);
next = array1d(1..18 ,[15, 10, 9, 5, 1, 3, 6, 11, 18, 7, 12, 13, 14, 4, 16, 17, 2, 8]);
makespan = 1349;
----------
assign = array1d(1..18 ,[5, 8, 8, 5, 5, 8, 8, 1, 8, 8, 1, 2, 3, 4, 5, 6, 7, 8]);
next = array1d(1..18 ,[15, 10, 9, 5, 1, 3, 6, 11, 18, 7, 12, 13, 14, 4, 16, 17, 2, 8]);
makespan = 1344;
----------
assign = array1d(1..18 ,[5, 8, 8, 5, 5, 8, 8, 1, 8, 8, 1, 2, 3, 4, 5, 6, 7, 8]);
next = array1d(1..18 ,[15, 18, 9, 5, 1, 3, 6, 11, 2, 7, 12, 13, 14, 4, 16, 17, 10, 8]);
makespan = 1334;
----------
assign = array1d(1..18 ,[5, 1, 8, 5, 5, 8, 8, 8, 8, 8, 1, 2, 3, 4, 5, 6, 7, 8]);
next = array1d(1..18 ,[15, 11, 9, 5, 1, 3, 6, 10, 18, 7, 12, 13, 14, 4, 16, 17, 8, 2]);
makespan = 1331;
----------
assign = array1d(1..18 ,[5, 1, 8, 5, 5, 8, 8, 8, 8, 8, 1, 2, 3, 4, 5, 6, 7, 8]);
next = array1d(1..18 ,[15, 11, 9, 5, 1, 3, 6, 18, 8, 7, 12, 13, 14, 4, 16, 17, 10, 2]);
makespan = 1317;
----------
assign = array1d(1..18 ,[5, 1, 8, 5, 5, 8, 8, 8, 8, 8, 1, 2, 3, 4, 5, 6, 7, 8]);
next = array1d(1..18 ,[15, 11, 9, 5, 1, 3, 6, 18, 8, 7, 12, 13, 14, 4, 16, 17, 10, 2]);
makespan = 1308;
----------
assign = array1d(1..18 ,[5, 1, 8, 5, 5, 8, 8, 5, 8, 8, 1, 2, 3, 4, 5, 6, 7, 8]);
next = array1d(1..18 ,[15, 11, 9, 8, 1, 3, 6, 5, 18, 7, 12, 13, 14, 4, 16, 17, 10, 2]);
makespan = 1263;
----------
assign = array1d(1..18 ,[5, 1, 8, 5, 5, 8, 8, 5, 8, 8, 1, 2, 3, 4, 5, 6, 7, 8]);
next = array1d(1..18 ,[15, 11, 9, 8, 1, 3, 6, 5, 18, 7, 12, 13, 14, 4, 16, 17, 10, 2]);
makespan = 1256;
----------
assign = array1d(1..18 ,[5, 1, 8, 5, 5, 8, 8, 5, 8, 8, 1, 2, 3, 4, 5, 6, 7, 8]);
next = array1d(1..18 ,[15, 11, 9, 8, 1, 3, 6, 5, 18, 7, 12, 13, 14, 4, 16, 17, 10, 2]);
makespan = 1247;
----------
assign = array1d(1..18 ,[5, 1, 8, 5, 5, 8, 8, 5, 8, 8, 1, 2, 3, 4, 5, 6, 7, 8]);
next = array1d(1..18 ,[15, 11, 9, 8, 1, 3, 6, 5, 18, 7, 12, 13, 14, 4, 16, 17, 10, 2]);
makespan = 1243;
----------
assign = array1d(1..18 ,[5, 1, 8, 5, 5, 8, 8, 5, 8, 8, 1, 2, 3, 4, 5, 6, 7, 8]);
next = array1d(1..18 ,[15, 11, 9, 8, 1, 3, 6, 5, 18, 7, 12, 13, 14, 4, 16, 17, 10, 2]);
makespan = 1236;
----------
assign = array1d(1..18 ,[5, 1, 8, 5, 5, 8, 8, 5, 8, 8, 1, 2, 3, 4, 5, 6, 7, 8]);
next = array1d(1..18 ,[15, 11, 9, 8, 1, 3, 6, 5, 18, 7, 12, 13, 14, 4, 16, 17, 10, 2]);
makespan = 1233;
----------
assign = array1d(1..18 ,[5, 1, 8, 5, 5, 8, 8, 5, 8, 8, 1, 2, 3, 4, 5, 6, 7, 8]);
next = array1d(1..18 ,[15, 11, 9, 8, 1, 3, 6, 5, 18, 7, 12, 13, 14, 4, 16, 17, 10, 2]);
makespan = 1226;
----------
assign = array1d(1..18 ,[5, 1, 8, 5, 5, 8, 8, 5, 8, 8, 1, 2, 3, 4, 5, 6, 7, 8]);
next = array1d(1..18 ,[15, 11, 9, 8, 1, 3, 6, 5, 18, 7, 12, 13, 14, 4, 16, 17, 10, 2]);
makespan = 1224;
----------
assign = array1d(1..18 ,[5, 1, 8, 5, 5, 8, 8, 5, 8, 8, 1, 2, 3, 4, 5, 6, 7, 8]);
next = array1d(1..18 ,[15, 11, 9, 8, 1, 3, 6, 5, 18, 7, 12, 13, 14, 4, 16, 17, 10, 2]);
makespan = 1220;
----------
assign = array1d(1..18 ,[5, 1, 8, 5, 5, 8, 8, 5, 8, 8, 1, 2, 3, 4, 5, 6, 7, 8]);
next = array1d(1..18 ,[15, 11, 9, 8, 1, 3, 6, 5, 18, 7, 12, 13, 14, 4, 16, 17, 10, 2]);
makespan = 1215;
----------
assign = array1d(1..18 ,[5, 1, 8, 5, 5, 8, 8, 5, 8, 8, 1, 2, 3, 4, 5, 6, 7, 8]);
next = array1d(1..18 ,[15, 11, 9, 8, 1, 3, 6, 5, 18, 7, 12, 13, 14, 4, 16, 17, 10, 2]);
makespan = 1195;
----------
assign = array1d(1..18 ,[5, 1, 8, 5, 5, 8, 8, 5, 8, 8, 1, 2, 3, 4, 5, 6, 7, 8]);
next = array1d(1..18 ,[15, 11, 9, 8, 1, 3, 6, 5, 18, 7, 12, 13, 14, 4, 16, 17, 10, 2]);
makespan = 1160;
----------
assign = array1d(1..18 ,[5, 1, 8, 5, 5, 8, 8, 5, 8, 8, 1, 2, 3, 4, 5, 6, 7, 8]);
next = array1d(1..18 ,[15, 11, 9, 8, 1, 3, 6, 5, 18, 7, 12, 13, 14, 4, 16, 17, 10, 2]);
makespan = 1143;
----------
assign = array1d(1..18 ,[5, 1, 8, 5, 5, 8, 8, 5, 8, 8, 1, 2, 3, 4, 5, 6, 7, 8]);
next = array1d(1..18 ,[15, 11, 9, 8, 1, 3, 6, 5, 18, 7, 12, 13, 14, 4, 16, 17, 10, 2]);
makespan = 1141;
----------
assign = array1d(1..18 ,[5, 1, 8, 5, 5, 8, 8, 5, 8, 8, 1, 2, 3, 4, 5, 6, 7, 8]);
next = array1d(1..18 ,[15, 11, 9, 8, 1, 3, 6, 5, 18, 7, 12, 13, 14, 4, 16, 17, 10, 2]);
makespan = 1138;
----------
assign = array1d(1..18 ,[5, 1, 8, 5, 5, 8, 8, 5, 8, 8, 1, 2, 3, 4, 5, 6, 7, 8]);
next = array1d(1..18 ,[15, 11, 9, 8, 1, 3, 6, 5, 18, 7, 12, 13, 14, 4, 16, 17, 10, 2]);
makespan = 1109;
----------
assign = array1d(1..18 ,[5, 7, 8, 5, 5, 8, 8, 5, 8, 8, 1, 2, 3, 4, 5, 6, 7, 8]);
next = array1d(1..18 ,[15, 17, 18, 8, 1, 3, 6, 5, 10, 7, 12, 13, 14, 4, 16, 2, 9, 11]);
makespan = 1100;
----------
assign = array1d(1..18 ,[7, 8, 8, 7, 7, 8, 8, 7, 7, 8, 1, 2, 3, 4, 5, 6, 7, 8]);
next = array1d(1..18 ,[17, 18, 2, 8, 1, 3, 6, 9, 5, 7, 12, 13, 14, 15, 16, 4, 10, 11]);
makespan = 1092;
----------
assign = array1d(1..18 ,[7, 2, 8, 6, 7, 8, 8, 8, 7, 8, 1, 2, 3, 4, 5, 6, 7, 8]);
next = array1d(1..18 ,[17, 12, 8, 16, 1, 3, 6, 18, 5, 7, 2, 13, 14, 15, 4, 9, 10, 11]);
makespan = 1087;
----------
assign = array1d(1..18 ,[7, 7, 8, 6, 8, 8, 8, 7, 7, 8, 1, 2, 3, 4, 5, 6, 7, 8]);
next = array1d(1..18 ,[17, 1, 5, 16, 18, 3, 6, 2, 8, 7, 12, 13, 14, 15, 4, 9, 10, 11]);
makespan = 1085;
----------
assign = array1d(1..18 ,[7, 7, 8, 6, 8, 8, 8, 7, 7, 8, 1, 2, 3, 4, 5, 6, 7, 8]);
next = array1d(1..18 ,[17, 1, 5, 16, 18, 3, 6, 2, 8, 7, 12, 13, 14, 15, 4, 9, 10, 11]);
makespan = 1079;
----------
assign = array1d(1..18 ,[7, 7, 8, 6, 8, 8, 8, 7, 7, 8, 1, 2, 3, 4, 5, 6, 7, 8]);
next = array1d(1..18 ,[17, 1, 5, 16, 18, 3, 6, 2, 8, 7, 12, 13, 14, 15, 4, 9, 10, 11]);
makespan = 1078;
----------
assign = array1d(1..18 ,[7, 6, 8, 6, 7, 8, 8, 6, 7, 8, 1, 2, 3, 4, 5, 6, 7, 8]);
next = array1d(1..18 ,[17, 16, 18, 8, 1, 3, 6, 2, 5, 7, 12, 13, 14, 15, 4, 9, 10, 11]);
makespan = 1063;
----------
assign = array1d(1..18 ,[7, 6, 8, 6, 7, 8, 8, 6, 7, 8, 1, 2, 3, 4, 5, 6, 7, 8]);
next = array1d(1..18 ,[17, 16, 18, 8, 1, 3, 6, 2, 5, 7, 12, 13, 14, 15, 4, 9, 10, 11]);
makespan = 1057;
----------
assign = array1d(1..18 ,[7, 6, 8, 6, 7, 8, 8, 6, 7, 8, 1, 2, 3, 4, 5, 6, 7, 8]);
next = array1d(1..18 ,[17, 16, 18, 8, 1, 3, 6, 2, 5, 7, 12, 13, 14, 15, 4, 9, 10, 11]);
makespan = 1052;
----------
assign = array1d(1..18 ,[7, 6, 8, 6, 7, 8, 8, 6, 7, 8, 1, 2, 3, 4, 5, 6, 7, 8]);
next = array1d(1..18 ,[17, 16, 18, 8, 1, 3, 6, 2, 5, 7, 12, 13, 14, 15, 4, 9, 10, 11]);
makespan = 1049;
----------
assign = array1d(1..18 ,[7, 6, 8, 6, 7, 8, 8, 6, 7, 8, 1, 2, 3, 4, 5, 6, 7, 8]);
next = array1d(1..18 ,[17, 16, 18, 8, 1, 3, 6, 2, 5, 7, 12, 13, 14, 15, 4, 9, 10, 11]);
makespan = 1045;
----------
assign = array1d(1..18 ,[7, 6, 8, 6, 7, 8, 8, 6, 7, 8, 1, 2, 3, 4, 5, 6, 7, 8]);
next = array1d(1..18 ,[17, 16, 18, 8, 1, 3, 6, 2, 5, 7, 12, 13, 14, 15, 4, 9, 10, 11]);
makespan = 1032;
----------
assign = array1d(1..18 ,[7, 6, 8, 6, 7, 8, 8, 6, 7, 8, 1, 2, 3, 4, 5, 6, 7, 8]);
next = array1d(1..18 ,[17, 16, 18, 8, 1, 3, 6, 2, 5, 7, 12, 13, 14, 15, 4, 9, 10, 11]);
makespan = 1025;
----------
assign = array1d(1..18 ,[7, 6, 8, 6, 7, 8, 8, 6, 7, 8, 1, 2, 3, 4, 5, 6, 7, 8]);
next = array1d(1..18 ,[17, 16, 18, 8, 1, 3, 6, 2, 5, 7, 12, 13, 14, 15, 4, 9, 10, 11]);
makespan = 1022;
----------
assign = array1d(1..18 ,[7, 6, 8, 6, 7, 8, 8, 6, 7, 8, 1, 2, 3, 4, 5, 6, 7, 8]);
next = array1d(1..18 ,[17, 16, 18, 8, 1, 3, 6, 2, 5, 7, 12, 13, 14, 15, 4, 9, 10, 11]);
makespan = 1015;
----------
assign = array1d(1..18 ,[7, 6, 8, 6, 7, 8, 8, 6, 7, 8, 1, 2, 3, 4, 5, 6, 7, 8]);
next = array1d(1..18 ,[17, 16, 18, 8, 1, 3, 6, 2, 5, 7, 12, 13, 14, 15, 4, 9, 10, 11]);
makespan = 1005;
----------
assign = array1d(1..18 ,[7, 6, 8, 6, 7, 8, 8, 6, 7, 8, 1, 2, 3, 4, 5, 6, 7, 8]);
next = array1d(1..18 ,[17, 16, 18, 8, 1, 3, 6, 2, 5, 7, 12, 13, 14, 15, 4, 9, 10, 11]);
makespan = 951;
----------
assign = array1d(1..18 ,[7, 6, 8, 6, 7, 8, 8, 6, 7, 8, 1, 2, 3, 4, 5, 6, 7, 8]);
next = array1d(1..18 ,[17, 16, 18, 8, 1, 3, 6, 2, 5, 7, 12, 13, 14, 15, 4, 9, 10, 11]);
makespan = 941;
----------
assign = array1d(1..18 ,[7, 6, 8, 6, 7, 8, 8, 6, 7, 8, 1, 2, 3, 4, 5, 6, 7, 8]);
next = array1d(1..18 ,[17, 16, 18, 8, 1, 3, 6, 2, 5, 7, 12, 13, 14, 15, 4, 9, 10, 11]);
makespan = 924;
----------
assign = array1d(1..18 ,[7, 6, 8, 6, 7, 8, 8, 6, 7, 8, 1, 2, 3, 4, 5, 6, 7, 8]);
next = array1d(1..18 ,[17, 16, 18, 8, 1, 3, 6, 2, 5, 7, 12, 13, 14, 15, 4, 9, 10, 11]);
makespan = 914;
----------
assign = array1d(1..18 ,[7, 6, 8, 6, 7, 8, 8, 6, 7, 8, 1, 2, 3, 4, 5, 6, 7, 8]);
next = array1d(1..18 ,[17, 16, 18, 8, 1, 3, 6, 2, 5, 7, 12, 13, 14, 15, 4, 9, 10, 11]);
makespan = 908;
----------
assign = array1d(1..18 ,[7, 6, 8, 6, 7, 8, 8, 6, 7, 8, 1, 2, 3, 4, 5, 6, 7, 8]);
next = array1d(1..18 ,[17, 16, 18, 8, 1, 3, 6, 2, 5, 7, 12, 13, 14, 15, 4, 9, 10, 11]);
makespan = 902;
----------
assign = array1d(1..18 ,[7, 6, 8, 6, 7, 8, 8, 6, 7, 8, 1, 2, 3, 4, 5, 6, 7, 8]);
next = array1d(1..18 ,[17, 16, 18, 8, 1, 3, 6, 2, 5, 7, 12, 13, 14, 15, 4, 9, 10, 11]);
makespan = 878;
----------
assign = array1d(1..18 ,[7, 2, 2, 6, 8, 8, 8, 2, 2, 8, 1, 2, 3, 4, 5, 6, 7, 8]);
next = array1d(1..18 ,[17, 12, 9, 16, 10, 18, 6, 2, 8, 7, 3, 13, 14, 15, 4, 1, 5, 11]);
makespan = 875;
----------
assign = array1d(1..18 ,[6, 6, 7, 6, 7, 8, 8, 6, 8, 8, 1, 2, 3, 4, 5, 6, 7, 8]);
next = array1d(1..18 ,[16, 1, 5, 8, 17, 9, 6, 2, 18, 7, 12, 13, 14, 15, 4, 3, 10, 11]);
makespan = 866;
----------
assign = array1d(1..18 ,[7, 7, 6, 6, 6, 8, 8, 7, 7, 8, 1, 2, 3, 4, 5, 6, 7, 8]);
next = array1d(1..18 ,[17, 1, 5, 3, 16, 18, 6, 2, 8, 7, 12, 13, 14, 15, 4, 9, 10, 11]);
makespan = 857;
----------
assign = array1d(1..18 ,[7, 7, 6, 6, 6, 8, 8, 7, 7, 8, 1, 2, 3, 4, 5, 6, 7, 8]);
next = array1d(1..18 ,[17, 1, 5, 3, 16, 18, 6, 2, 8, 7, 12, 13, 14, 15, 4, 9, 10, 11]);
makespan = 856;
----------
assign = array1d(1..18 ,[6, 6, 7, 7, 7, 8, 8, 6, 6, 8, 1, 2, 3, 4, 5, 6, 7, 8]);
next = array1d(1..18 ,[16, 1, 5, 3, 17, 18, 6, 2, 8, 7, 12, 13, 14, 15, 9, 4, 10, 11]);
makespan = 830;
----------
assign = array1d(1..18 ,[8, 8, 7, 5, 7, 7, 5, 8, 5, 5, 1, 2, 3, 4, 5, 6, 7, 8]);
next = array1d(1..18 ,[18, 1, 5, 9, 17, 3, 15, 2, 10, 7, 12, 13, 14, 4, 16, 6, 8, 11]);
makespan = 824;
----------
assign = array1d(1..18 ,[1, 7, 8, 8, 8, 6, 6, 8, 6, 6, 1, 2, 3, 4, 5, 6, 7, 8]);
next = array1d(1..18 ,[11, 17, 5, 18, 4, 16, 6, 3, 10, 7, 12, 13, 14, 15, 9, 2, 8, 1]);
makespan = 814;
----------
assign = array1d(1..18 ,[4, 4, 8, 8, 8, 6, 6, 8, 6, 6, 1, 2, 3, 4, 5, 6, 7, 8]);
next = array1d(1..18 ,[2, 14, 5, 8, 4, 16, 6, 18, 10, 7, 12, 13, 1, 15, 9, 17, 3, 11]);
makespan = 813;
----------
assign = array1d(1..18 ,[4, 4, 7, 7, 7, 2, 2, 3, 2, 2, 1, 2, 3, 4, 5, 6, 7, 8]);
next = array1d(1..18 ,[2, 14, 5, 17, 4, 12, 6, 13, 10, 7, 9, 8, 1, 15, 16, 3, 18, 11]);
makespan = 810;
----------
assign = array1d(1..18 ,[4, 4, 7, 7, 7, 2, 2, 3, 2, 2, 1, 2, 3, 4, 5, 6, 7, 8]);
next = array1d(1..18 ,[2, 14, 5, 17, 4, 12, 6, 13, 10, 7, 9, 8, 1, 15, 16, 3, 18, 11]);
makespan = 806;
----------
assign = array1d(1..18 ,[4, 4, 7, 7, 7, 2, 2, 3, 2, 2, 1, 2, 3, 4, 5, 6, 7, 8]);
next = array1d(1..18 ,[2, 14, 5, 17, 4, 12, 6, 13, 10, 7, 9, 8, 1, 15, 16, 3, 18, 11]);
makespan = 803;
----------
assign = array1d(1..18 ,[6, 7, 7, 6, 7, 8, 8, 7, 6, 8, 1, 2, 3, 4, 5, 6, 7, 8]);
next = array1d(1..18 ,[16, 3, 5, 9, 17, 18, 6, 2, 1, 7, 12, 13, 14, 15, 4, 8, 10, 11]);
makespan = 800;
----------
assign = array1d(1..18 ,[7, 2, 8, 8, 8, 2, 2, 7, 8, 2, 1, 2, 3, 4, 5, 6, 7, 8]);
next = array1d(1..18 ,[8, 12, 5, 9, 4, 2, 6, 17, 18, 7, 10, 13, 14, 15, 16, 1, 3, 11]);
makespan = 797;
----------
assign = array1d(1..18 ,[7, 2, 8, 8, 8, 2, 2, 7, 8, 2, 1, 2, 3, 4, 5, 6, 7, 8]);
next = array1d(1..18 ,[8, 12, 5, 9, 4, 2, 6, 17, 18, 7, 10, 13, 14, 15, 16, 1, 3, 11]);
makespan = 795;
----------
assign = array1d(1..18 ,[7, 2, 8, 8, 8, 2, 2, 7, 8, 2, 1, 2, 3, 4, 5, 6, 7, 8]);
next = array1d(1..18 ,[8, 12, 5, 9, 4, 2, 6, 17, 18, 7, 10, 13, 14, 15, 16, 1, 3, 11]);
makespan = 794;
----------
assign = array1d(1..18 ,[7, 2, 8, 8, 8, 2, 2, 7, 8, 2, 1, 2, 3, 4, 5, 6, 7, 8]);
next = array1d(1..18 ,[8, 12, 5, 9, 4, 2, 6, 17, 18, 7, 10, 13, 14, 15, 16, 1, 3, 11]);
makespan = 793;
----------
assign = array1d(1..18 ,[8, 2, 4, 4, 4, 2, 2, 8, 4, 2, 1, 2, 3, 4, 5, 6, 7, 8]);
next = array1d(1..18 ,[8, 12, 5, 9, 4, 2, 6, 18, 14, 7, 10, 13, 3, 15, 16, 17, 1, 11]);
makespan = 792;
----------
assign = array1d(1..18 ,[8, 2, 8, 7, 8, 2, 2, 7, 7, 2, 1, 2, 3, 4, 5, 6, 7, 8]);
next = array1d(1..18 ,[18, 12, 5, 9, 1, 2, 6, 4, 17, 7, 10, 13, 14, 15, 16, 8, 3, 11]);
makespan = 791;
----------
assign = array1d(1..18 ,[6, 6, 8, 8, 8, 7, 7, 6, 6, 7, 1, 2, 3, 4, 5, 6, 7, 8]);
next = array1d(1..18 ,[8, 16, 5, 18, 4, 17, 6, 2, 1, 7, 12, 13, 14, 15, 9, 10, 3, 11]);
makespan = 786;
----------
assign = array1d(1..18 ,[8, 2, 7, 7, 7, 2, 2, 8, 8, 2, 1, 2, 3, 4, 5, 6, 7, 8]);
next = array1d(1..18 ,[8, 12, 5, 17, 4, 2, 6, 9, 18, 7, 10, 13, 14, 15, 16, 3, 1, 11]);
makespan = 784;
----------
assign = array1d(1..18 ,[5, 2, 4, 4, 4, 2, 2, 8, 4, 2, 1, 2, 3, 4, 5, 6, 7, 8]);
next = array1d(1..18 ,[15, 12, 5, 9, 4, 2, 6, 18, 14, 7, 10, 13, 3, 1, 16, 17, 8, 11]);
makespan = 783;
----------
assign = array1d(1..18 ,[5, 2, 4, 4, 4, 2, 2, 8, 4, 2, 1, 2, 3, 4, 5, 6, 7, 8]);
next = array1d(1..18 ,[15, 12, 5, 9, 4, 2, 6, 18, 14, 7, 10, 13, 3, 1, 16, 17, 8, 11]);
makespan = 782;
----------
assign = array1d(1..18 ,[5, 2, 4, 4, 4, 2, 2, 8, 4, 2, 1, 2, 3, 4, 5, 6, 7, 8]);
next = array1d(1..18 ,[15, 12, 5, 9, 4, 2, 6, 18, 14, 7, 10, 13, 3, 1, 16, 17, 8, 11]);
makespan = 776;
----------
assign = array1d(1..18 ,[5, 2, 4, 4, 4, 2, 2, 8, 4, 2, 1, 2, 3, 4, 5, 6, 7, 8]);
next = array1d(1..18 ,[15, 12, 5, 9, 4, 2, 6, 18, 14, 7, 10, 13, 3, 1, 16, 17, 8, 11]);
makespan = 775;
----------
assign = array1d(1..18 ,[5, 2, 4, 4, 4, 2, 2, 8, 4, 2, 1, 2, 3, 4, 5, 6, 7, 8]);
next = array1d(1..18 ,[15, 12, 5, 9, 4, 2, 6, 18, 14, 7, 10, 13, 3, 1, 16, 17, 8, 11]);
makespan = 766;
----------
assign = array1d(1..18 ,[5, 2, 4, 4, 4, 2, 2, 8, 4, 2, 1, 2, 3, 4, 5, 6, 7, 8]);
next = array1d(1..18 ,[15, 12, 5, 9, 4, 2, 6, 18, 14, 7, 10, 13, 3, 1, 16, 17, 8, 11]);
makespan = 761;
----------
assign = array1d(1..18 ,[5, 2, 4, 4, 4, 2, 2, 8, 4, 2, 1, 2, 3, 4, 5, 6, 7, 8]);
next = array1d(1..18 ,[15, 12, 5, 9, 4, 2, 6, 18, 14, 7, 10, 13, 3, 1, 16, 17, 8, 11]);
makespan = 760;
----------
assign = array1d(1..18 ,[8, 2, 7, 7, 7, 2, 2, 8, 8, 2, 1, 2, 3, 4, 5, 6, 7, 8]);
next = array1d(1..18 ,[8, 12, 5, 17, 4, 2, 6, 18, 1, 7, 10, 13, 14, 15, 16, 3, 9, 11]);
makespan = 758;
----------
assign = array1d(1..18 ,[7, 2, 8, 8, 8, 2, 2, 7, 3, 2, 1, 2, 3, 4, 5, 6, 7, 8]);
next = array1d(1..18 ,[8, 12, 5, 18, 4, 2, 6, 17, 13, 7, 10, 9, 14, 15, 16, 1, 3, 11]);
makespan = 757;
----------
assign = array1d(1..18 ,[7, 5, 8, 8, 8, 6, 6, 5, 3, 6, 1, 2, 3, 4, 5, 6, 7, 8]);
next = array1d(1..18 ,[17, 15, 5, 18, 4, 16, 6, 2, 13, 7, 12, 9, 14, 8, 10, 1, 3, 11]);
makespan = 753;
----------
assign = array1d(1..18 ,[8, 4, 4, 4, 4, 7, 7, 8, 8, 7, 1, 2, 3, 4, 5, 6, 7, 8]);
next = array1d(1..18 ,[9, 3, 5, 14, 4, 17, 6, 1, 18, 7, 12, 13, 2, 15, 16, 10, 8, 11]);
makespan = 748;
----------
assign = array1d(1..18 ,[8, 1, 1, 1, 1, 7, 7, 8, 8, 7, 1, 2, 3, 4, 5, 6, 7, 8]);
next = array1d(1..18 ,[9, 3, 5, 11, 4, 17, 6, 1, 18, 7, 12, 13, 14, 15, 16, 10, 8, 2]);
makespan = 737;
----------
assign = array1d(1..18 ,[6, 7, 8, 8, 8, 4, 6, 7, 7, 6, 1, 2, 3, 4, 5, 6, 7, 8]);
next = array1d(1..18 ,[10, 8, 5, 18, 4, 14, 16, 9, 17, 7, 12, 13, 6, 15, 1, 2, 3, 11]);
makespan = 729;
----------
assign = array1d(1..18 ,[8, 6, 6, 1, 1, 6, 7, 7, 7, 8, 1, 2, 3, 4, 5, 6, 7, 8]);
next = array1d(1..18 ,[10, 3, 16, 11, 4, 2, 8, 9, 17, 18, 12, 13, 14, 15, 6, 7, 1, 5]);
makespan = 728;
----------
assign = array1d(1..18 ,[5, 5, 6, 7, 5, 8, 7, 8, 8, 4, 1, 2, 3, 4, 5, 6, 7, 8]);
next = array1d(1..18 ,[2, 15, 16, 17, 1, 18, 4, 9, 6, 14, 12, 13, 10, 5, 3, 7, 8, 11]);
makespan = 725;
----------
assign = array1d(1..18 ,[4, 8, 6, 6, 2, 4, 5, 4, 1, 1, 1, 2, 3, 4, 5, 6, 7, 8]);
next = array1d(1..18 ,[14, 18, 4, 16, 12, 8, 15, 1, 10, 11, 5, 13, 6, 7, 3, 17, 2, 9]);
makespan = 715;
----------
assign = array1d(1..18 ,[5, 2, 3, 1, 2, 5, 4, 4, 4, 1, 1, 2, 3, 4, 5, 6, 7, 8]);
next = array1d(1..18 ,[15, 5, 13, 10, 12, 1, 14, 9, 7, 11, 2, 3, 8, 6, 16, 17, 18, 4]);
makespan = 714;
----------
assign = array1d(1..18 ,[2, 1, 2, 1, 8, 3, 7, 4, 2, 8, 1, 2, 3, 4, 5, 6, 7, 8]);
next = array1d(1..18 ,[3, 11, 12, 2, 18, 13, 17, 14, 1, 5, 9, 6, 8, 15, 16, 7, 10, 4]);
makespan = 711;
----------
assign = array1d(1..18 ,[3, 3, 2, 2, 8, 1, 3, 4, 4, 7, 1, 2, 3, 4, 5, 6, 7, 8]);
next = array1d(1..18 ,[7, 1, 12, 3, 18, 11, 13, 14, 8, 17, 4, 2, 9, 15, 16, 10, 5, 6]);
makespan = 707;
----------
assign = array1d(1..18 ,[7, 8, 7, 2, 8, 7, 4, 8, 4, 1, 1, 2, 3, 4, 5, 6, 7, 8]);
next = array1d(1..18 ,[17, 5, 6, 12, 18, 1, 9, 2, 14, 11, 4, 13, 7, 15, 16, 3, 8, 10]);
makespan = 706;
----------
assign = array1d(1..18 ,[8, 7, 8, 2, 7, 8, 4, 7, 4, 1, 1, 2, 3, 4, 5, 6, 7, 8]);
next = array1d(1..18 ,[18, 5, 6, 12, 17, 1, 9, 2, 14, 11, 4, 13, 7, 15, 16, 8, 3, 10]);
makespan = 704;
----------
assign = array1d(1..18 ,[8, 7, 8, 2, 7, 8, 4, 7, 4, 1, 1, 2, 3, 4, 5, 6, 7, 8]);
next = array1d(1..18 ,[18, 5, 6, 12, 17, 1, 9, 2, 14, 11, 4, 13, 7, 15, 16, 8, 3, 10]);
makespan = 701;
----------
assign = array1d(1..18 ,[8, 7, 8, 2, 7, 8, 4, 7, 4, 1, 1, 2, 3, 4, 5, 6, 7, 8]);
next = array1d(1..18 ,[18, 5, 6, 12, 17, 1, 9, 2, 14, 11, 4, 13, 7, 15, 16, 8, 3, 10]);
makespan = 700;
----------
assign = array1d(1..18 ,[8, 7, 8, 2, 7, 8, 4, 7, 4, 1, 1, 2, 3, 4, 5, 6, 7, 8]);
next = array1d(1..18 ,[18, 5, 6, 12, 17, 1, 9, 2, 14, 11, 4, 13, 7, 15, 16, 8, 3, 10]);
makespan = 699;
----------
assign = array1d(1..18 ,[8, 7, 8, 2, 7, 8, 4, 7, 4, 1, 1, 2, 3, 4, 5, 6, 7, 8]);
next = array1d(1..18 ,[18, 5, 6, 12, 17, 1, 9, 2, 14, 11, 4, 13, 7, 15, 16, 8, 3, 10]);
makespan = 698;
----------
assign = array1d(1..18 ,[8, 7, 8, 2, 7, 8, 4, 7, 4, 1, 1, 2, 3, 4, 5, 6, 7, 8]);
next = array1d(1..18 ,[18, 5, 6, 12, 17, 1, 9, 2, 14, 11, 4, 13, 7, 15, 16, 8, 3, 10]);
makespan = 697;
----------
assign = array1d(1..18 ,[8, 7, 8, 2, 7, 8, 4, 7, 4, 1, 1, 2, 3, 4, 5, 6, 7, 8]);
next = array1d(1..18 ,[18, 5, 6, 12, 17, 1, 9, 2, 14, 11, 4, 13, 7, 15, 16, 8, 3, 10]);
makespan = 696;
----------
assign = array1d(1..18 ,[8, 7, 8, 2, 7, 8, 4, 7, 4, 1, 1, 2, 3, 4, 5, 6, 7, 8]);
next = array1d(1..18 ,[18, 5, 6, 12, 17, 1, 9, 2, 14, 11, 4, 13, 7, 15, 16, 8, 3, 10]);
makespan = 695;
----------
assign = array1d(1..18 ,[8, 7, 8, 2, 7, 8, 4, 7, 4, 1, 1, 2, 3, 4, 5, 6, 7, 8]);
next = array1d(1..18 ,[18, 5, 6, 12, 17, 1, 9, 2, 14, 11, 4, 13, 7, 15, 16, 8, 3, 10]);
makespan = 694;
----------
assign = array1d(1..18 ,[8, 7, 8, 2, 7, 8, 4, 7, 4, 1, 1, 2, 3, 4, 5, 6, 7, 8]);
next = array1d(1..18 ,[18, 5, 6, 12, 17, 1, 9, 2, 14, 11, 4, 13, 7, 15, 16, 8, 3, 10]);
makespan = 693;
----------
assign = array1d(1..18 ,[8, 7, 8, 2, 7, 8, 4, 7, 4, 1, 1, 2, 3, 4, 5, 6, 7, 8]);
next = array1d(1..18 ,[18, 5, 6, 12, 17, 1, 9, 2, 14, 11, 4, 13, 7, 15, 16, 8, 3, 10]);
makespan = 692;
----------
assign = array1d(1..18 ,[8, 7, 8, 2, 7, 8, 4, 7, 4, 1, 1, 2, 3, 4, 5, 6, 7, 8]);
next = array1d(1..18 ,[18, 5, 6, 12, 17, 1, 9, 2, 14, 11, 4, 13, 7, 15, 16, 8, 3, 10]);
makespan = 691;
----------
assign = array1d(1..18 ,[8, 7, 8, 2, 7, 8, 4, 7, 4, 1, 1, 2, 3, 4, 5, 6, 7, 8]);
next = array1d(1..18 ,[18, 5, 6, 12, 17, 1, 9, 2, 14, 11, 4, 13, 7, 15, 16, 8, 3, 10]);
makespan = 690;
----------
assign = array1d(1..18 ,[8, 7, 8, 2, 7, 8, 4, 7, 4, 1, 1, 2, 3, 4, 5, 6, 7, 8]);
next = array1d(1..18 ,[18, 5, 6, 12, 17, 1, 9, 2, 14, 11, 4, 13, 7, 15, 16, 8, 3, 10]);
makespan = 689;
----------
assign = array1d(1..18 ,[8, 7, 8, 2, 7, 8, 4, 7, 4, 1, 1, 2, 3, 4, 5, 6, 7, 8]);
next = array1d(1..18 ,[18, 5, 6, 12, 17, 1, 9, 2, 14, 11, 4, 13, 7, 15, 16, 8, 3, 10]);
makespan = 688;
----------
assign = array1d(1..18 ,[8, 7, 8, 2, 7, 8, 4, 7, 4, 1, 1, 2, 3, 4, 5, 6, 7, 8]);
next = array1d(1..18 ,[18, 5, 6, 12, 17, 1, 9, 2, 14, 11, 4, 13, 7, 15, 16, 8, 3, 10]);
makespan = 686;
----------
assign = array1d(1..18 ,[8, 7, 8, 2, 7, 8, 4, 7, 4, 1, 1, 2, 3, 4, 5, 6, 7, 8]);
next = array1d(1..18 ,[18, 5, 6, 12, 17, 1, 9, 2, 14, 11, 4, 13, 7, 15, 16, 8, 3, 10]);
makespan = 685;
----------
assign = array1d(1..18 ,[8, 7, 8, 2, 7, 8, 4, 7, 4, 1, 1, 2, 3, 4, 5, 6, 7, 8]);
next = array1d(1..18 ,[18, 5, 6, 12, 17, 1, 9, 2, 14, 11, 4, 13, 7, 15, 16, 8, 3, 10]);
makespan = 684;
----------
assign = array1d(1..18 ,[8, 7, 8, 2, 7, 8, 4, 7, 4, 1, 1, 2, 3, 4, 5, 6, 7, 8]);
next = array1d(1..18 ,[18, 5, 6, 12, 17, 1, 9, 2, 14, 11, 4, 13, 7, 15, 16, 8, 3, 10]);
makespan = 683;
----------
assign = array1d(1..18 ,[8, 7, 8, 2, 7, 8, 4, 7, 4, 1, 1, 2, 3, 4, 5, 6, 7, 8]);
next = array1d(1..18 ,[18, 5, 6, 12, 17, 1, 9, 2, 14, 11, 4, 13, 7, 15, 16, 8, 3, 10]);
makespan = 682;
----------
assign = array1d(1..18 ,[8, 7, 8, 2, 7, 8, 4, 7, 4, 1, 1, 2, 3, 4, 5, 6, 7, 8]);
next = array1d(1..18 ,[18, 5, 6, 12, 17, 1, 9, 2, 14, 11, 4, 13, 7, 15, 16, 8, 3, 10]);
makespan = 681;
----------
assign = array1d(1..18 ,[8, 7, 8, 2, 7, 8, 4, 7, 4, 1, 1, 2, 3, 4, 5, 6, 7, 8]);
next = array1d(1..18 ,[18, 5, 6, 12, 17, 1, 9, 2, 14, 11, 4, 13, 7, 15, 16, 8, 3, 10]);
makespan = 680;
----------
assign = array1d(1..18 ,[8, 7, 8, 2, 7, 8, 4, 7, 4, 1, 1, 2, 3, 4, 5, 6, 7, 8]);
next = array1d(1..18 ,[18, 5, 6, 12, 17, 1, 9, 2, 14, 11, 4, 13, 7, 15, 16, 8, 3, 10]);
makespan = 679;
----------
assign = array1d(1..18 ,[8, 7, 8, 2, 7, 8, 4, 7, 4, 1, 1, 2, 3, 4, 5, 6, 7, 8]);
next = array1d(1..18 ,[18, 5, 6, 12, 17, 1, 9, 2, 14, 11, 4, 13, 7, 15, 16, 8, 3, 10]);
makespan = 678;
----------
assign = array1d(1..18 ,[8, 7, 8, 2, 7, 8, 4, 7, 4, 1, 1, 2, 3, 4, 5, 6, 7, 8]);
next = array1d(1..18 ,[18, 5, 6, 12, 17, 1, 9, 2, 14, 11, 4, 13, 7, 15, 16, 8, 3, 10]);
makespan = 677;
----------
assign = array1d(1..18 ,[8, 7, 8, 2, 7, 8, 4, 7, 4, 1, 1, 2, 3, 4, 5, 6, 7, 8]);
next = array1d(1..18 ,[18, 5, 6, 12, 17, 1, 9, 2, 14, 11, 4, 13, 7, 15, 16, 8, 3, 10]);
makespan = 675;
----------
assign = array1d(1..18 ,[8, 7, 8, 2, 7, 8, 4, 7, 4, 1, 1, 2, 3, 4, 5, 6, 7, 8]);
next = array1d(1..18 ,[18, 5, 6, 12, 17, 1, 9, 2, 14, 11, 4, 13, 7, 15, 16, 8, 3, 10]);
makespan = 674;
----------
assign = array1d(1..18 ,[8, 7, 8, 2, 7, 8, 4, 7, 4, 1, 1, 2, 3, 4, 5, 6, 7, 8]);
next = array1d(1..18 ,[18, 5, 6, 12, 17, 1, 9, 2, 14, 11, 4, 13, 7, 15, 16, 8, 3, 10]);
makespan = 673;
----------
assign = array1d(1..18 ,[8, 7, 8, 2, 7, 8, 4, 7, 4, 1, 1, 2, 3, 4, 5, 6, 7, 8]);
next = array1d(1..18 ,[18, 5, 6, 12, 17, 1, 9, 2, 14, 11, 4, 13, 7, 15, 16, 8, 3, 10]);
makespan = 672;
----------
assign = array1d(1..18 ,[8, 7, 8, 2, 7, 8, 4, 7, 4, 1, 1, 2, 3, 4, 5, 6, 7, 8]);
next = array1d(1..18 ,[18, 5, 6, 12, 17, 1, 9, 2, 14, 11, 4, 13, 7, 15, 16, 8, 3, 10]);
makespan = 671;
----------
assign = array1d(1..18 ,[8, 7, 8, 2, 7, 8, 4, 7, 4, 1, 1, 2, 3, 4, 5, 6, 7, 8]);
next = array1d(1..18 ,[18, 5, 6, 12, 17, 1, 9, 2, 14, 11, 4, 13, 7, 15, 16, 8, 3, 10]);
makespan = 670;
----------
assign = array1d(1..18 ,[8, 7, 8, 2, 7, 8, 4, 7, 4, 1, 1, 2, 3, 4, 5, 6, 7, 8]);
next = array1d(1..18 ,[18, 5, 6, 12, 17, 1, 9, 2, 14, 11, 4, 13, 7, 15, 16, 8, 3, 10]);
makespan = 669;
----------
assign = array1d(1..18 ,[8, 7, 8, 2, 7, 8, 4, 7, 4, 1, 1, 2, 3, 4, 5, 6, 7, 8]);
next = array1d(1..18 ,[18, 5, 6, 12, 17, 1, 9, 2, 14, 11, 4, 13, 7, 15, 16, 8, 3, 10]);
makespan = 668;
----------
assign = array1d(1..18 ,[8, 7, 8, 2, 7, 8, 4, 7, 4, 1, 1, 2, 3, 4, 5, 6, 7, 8]);
next = array1d(1..18 ,[18, 5, 6, 12, 17, 1, 9, 2, 14, 11, 4, 13, 7, 15, 16, 8, 3, 10]);
makespan = 667;
----------
assign = array1d(1..18 ,[8, 7, 8, 2, 7, 8, 4, 7, 4, 1, 1, 2, 3, 4, 5, 6, 7, 8]);
next = array1d(1..18 ,[18, 5, 6, 12, 17, 1, 9, 2, 14, 11, 4, 13, 7, 15, 16, 8, 3, 10]);
makespan = 666;
----------
assign = array1d(1..18 ,[8, 7, 8, 2, 7, 8, 4, 7, 4, 1, 1, 2, 3, 4, 5, 6, 7, 8]);
next = array1d(1..18 ,[18, 5, 6, 12, 17, 1, 9, 2, 14, 11, 4, 13, 7, 15, 16, 8, 3, 10]);
makespan = 665;
----------
assign = array1d(1..18 ,[8, 7, 8, 2, 7, 8, 4, 7, 4, 1, 1, 2, 3, 4, 5, 6, 7, 8]);
next = array1d(1..18 ,[18, 5, 6, 12, 17, 1, 9, 2, 14, 11, 4, 13, 7, 15, 16, 8, 3, 10]);
makespan = 664;
----------
assign = array1d(1..18 ,[8, 7, 8, 2, 7, 8, 4, 7, 4, 1, 1, 2, 3, 4, 5, 6, 7, 8]);
next = array1d(1..18 ,[18, 5, 6, 12, 17, 1, 9, 2, 14, 11, 4, 13, 7, 15, 16, 8, 3, 10]);
makespan = 663;
----------
assign = array1d(1..18 ,[8, 7, 8, 2, 7, 8, 4, 7, 4, 1, 1, 2, 3, 4, 5, 6, 7, 8]);
next = array1d(1..18 ,[18, 5, 6, 12, 17, 1, 9, 2, 14, 11, 4, 13, 7, 15, 16, 8, 3, 10]);
makespan = 660;
----------
assign = array1d(1..18 ,[8, 7, 8, 2, 7, 8, 4, 7, 4, 1, 1, 2, 3, 4, 5, 6, 7, 8]);
next = array1d(1..18 ,[18, 5, 6, 12, 17, 1, 9, 2, 14, 11, 4, 13, 7, 15, 16, 8, 3, 10]);
makespan = 659;
----------
assign = array1d(1..18 ,[8, 7, 8, 2, 7, 8, 4, 7, 4, 1, 1, 2, 3, 4, 5, 6, 7, 8]);
next = array1d(1..18 ,[18, 5, 6, 12, 17, 1, 9, 2, 14, 11, 4, 13, 7, 15, 16, 8, 3, 10]);
makespan = 658;
----------
assign = array1d(1..18 ,[8, 7, 8, 2, 7, 8, 4, 7, 4, 1, 1, 2, 3, 4, 5, 6, 7, 8]);
next = array1d(1..18 ,[18, 5, 6, 12, 17, 1, 9, 2, 14, 11, 4, 13, 7, 15, 16, 8, 3, 10]);
makespan = 656;
----------
assign = array1d(1..18 ,[8, 7, 8, 2, 7, 8, 4, 7, 4, 1, 1, 2, 3, 4, 5, 6, 7, 8]);
next = array1d(1..18 ,[18, 5, 6, 12, 17, 1, 9, 2, 14, 11, 4, 13, 7, 15, 16, 8, 3, 10]);
makespan = 655;
----------
assign = array1d(1..18 ,[8, 7, 8, 2, 7, 8, 4, 7, 4, 1, 1, 2, 3, 4, 5, 6, 7, 8]);
next = array1d(1..18 ,[18, 5, 6, 12, 17, 1, 9, 2, 14, 11, 4, 13, 7, 15, 16, 8, 3, 10]);
makespan = 653;
----------
assign = array1d(1..18 ,[8, 7, 8, 2, 7, 8, 4, 7, 4, 1, 1, 2, 3, 4, 5, 6, 7, 8]);
next = array1d(1..18 ,[18, 5, 6, 12, 17, 1, 9, 2, 14, 11, 4, 13, 7, 15, 16, 8, 3, 10]);
makespan = 650;
----------
assign = array1d(1..18 ,[8, 7, 8, 2, 7, 8, 4, 7, 4, 1, 1, 2, 3, 4, 5, 6, 7, 8]);
next = array1d(1..18 ,[18, 5, 6, 12, 17, 1, 9, 2, 14, 11, 4, 13, 7, 15, 16, 8, 3, 10]);
makespan = 648;
----------
assign = array1d(1..18 ,[8, 7, 8, 2, 7, 8, 4, 7, 4, 1, 1, 2, 3, 4, 5, 6, 7, 8]);
next = array1d(1..18 ,[18, 5, 6, 12, 17, 1, 9, 2, 14, 11, 4, 13, 7, 15, 16, 8, 3, 10]);
makespan = 645;
----------
assign = array1d(1..18 ,[8, 7, 8, 2, 7, 8, 4, 7, 4, 1, 1, 2, 3, 4, 5, 6, 7, 8]);
next = array1d(1..18 ,[18, 5, 6, 12, 17, 1, 9, 2, 14, 11, 4, 13, 7, 15, 16, 8, 3, 10]);
makespan = 644;
----------
assign = array1d(1..18 ,[8, 7, 8, 2, 7, 8, 4, 7, 4, 1, 1, 2, 3, 4, 5, 6, 7, 8]);
next = array1d(1..18 ,[18, 5, 6, 12, 17, 1, 9, 2, 14, 11, 4, 13, 7, 15, 16, 8, 3, 10]);
makespan = 639;
----------
assign = array1d(1..18 ,[8, 7, 8, 2, 7, 8, 4, 7, 4, 1, 1, 2, 3, 4, 5, 6, 7, 8]);
next = array1d(1..18 ,[18, 5, 6, 12, 17, 1, 9, 2, 14, 11, 4, 13, 7, 15, 16, 8, 3, 10]);
makespan = 637;
----------
assign = array1d(1..18 ,[8, 7, 8, 2, 7, 8, 4, 7, 4, 1, 1, 2, 3, 4, 5, 6, 7, 8]);
next = array1d(1..18 ,[18, 5, 6, 12, 17, 1, 9, 2, 14, 11, 4, 13, 7, 15, 16, 8, 3, 10]);
makespan = 632;
----------
assign = array1d(1..18 ,[8, 7, 8, 2, 7, 8, 4, 7, 4, 1, 1, 2, 3, 4, 5, 6, 7, 8]);
next = array1d(1..18 ,[18, 5, 6, 12, 17, 1, 9, 2, 14, 11, 4, 13, 7, 15, 16, 8, 3, 10]);
makespan = 630;
----------
assign = array1d(1..18 ,[7, 8, 7, 2, 8, 7, 4, 8, 4, 1, 1, 2, 3, 4, 5, 6, 7, 8]);
next = array1d(1..18 ,[17, 5, 6, 12, 18, 1, 9, 2, 14, 11, 4, 13, 7, 15, 16, 3, 8, 10]);
makespan = 626;
----------
assign = array1d(1..18 ,[7, 8, 7, 2, 8, 7, 4, 8, 4, 1, 1, 2, 3, 4, 5, 6, 7, 8]);
next = array1d(1..18 ,[17, 5, 6, 12, 18, 1, 9, 2, 14, 11, 4, 13, 7, 15, 16, 3, 8, 10]);
makespan = 621;
----------
assign = array1d(1..18 ,[7, 8, 7, 2, 8, 7, 4, 8, 4, 1, 1, 2, 3, 4, 5, 6, 7, 8]);
next = array1d(1..18 ,[17, 5, 6, 12, 18, 1, 9, 2, 14, 11, 4, 13, 7, 15, 16, 3, 8, 10]);
makespan = 619;
----------
assign = array1d(1..18 ,[7, 8, 7, 2, 8, 7, 4, 8, 4, 1, 1, 2, 3, 4, 5, 6, 7, 8]);
next = array1d(1..18 ,[17, 5, 6, 12, 18, 1, 9, 2, 14, 11, 4, 13, 7, 15, 16, 3, 8, 10]);
makespan = 617;
----------
assign = array1d(1..18 ,[7, 8, 7, 2, 8, 7, 4, 8, 4, 1, 1, 2, 3, 4, 5, 6, 7, 8]);
next = array1d(1..18 ,[17, 5, 6, 12, 18, 1, 9, 2, 14, 11, 4, 13, 7, 15, 16, 3, 8, 10]);
makespan = 612;
----------
assign = array1d(1..18 ,[7, 8, 7, 2, 8, 7, 4, 8, 4, 1, 1, 2, 3, 4, 5, 6, 7, 8]);
next = array1d(1..18 ,[17, 5, 6, 12, 18, 1, 9, 2, 14, 11, 4, 13, 7, 15, 16, 3, 8, 10]);
makespan = 611;
----------
assign = array1d(1..18 ,[7, 8, 7, 2, 8, 7, 4, 8, 4, 1, 1, 2, 3, 4, 5, 6, 7, 8]);
next = array1d(1..18 ,[17, 5, 6, 12, 18, 1, 9, 2, 14, 11, 4, 13, 7, 15, 16, 3, 8, 10]);
makespan = 609;
----------
assign = array1d(1..18 ,[7, 8, 7, 2, 8, 7, 4, 8, 4, 1, 1, 2, 3, 4, 5, 6, 7, 8]);
next = array1d(1..18 ,[17, 5, 6, 12, 8, 1, 9, 18, 14, 11, 4, 13, 7, 15, 16, 3, 2, 10]);
makespan = 608;
----------
assign = array1d(1..18 ,[7, 8, 7, 2, 8, 7, 4, 8, 4, 1, 1, 2, 3, 4, 5, 6, 7, 8]);
next = array1d(1..18 ,[17, 5, 6, 12, 8, 1, 9, 18, 14, 11, 4, 13, 7, 15, 16, 3, 2, 10]);
makespan = 604;
----------
assign = array1d(1..18 ,[6, 8, 6, 2, 8, 6, 4, 8, 4, 7, 1, 2, 3, 4, 5, 6, 7, 8]);
next = array1d(1..18 ,[16, 5, 6, 12, 8, 1, 9, 18, 14, 17, 4, 13, 7, 15, 3, 10, 2, 11]);
makespan = 595;
----------
assign = array1d(1..18 ,[6, 8, 6, 2, 8, 6, 4, 8, 4, 7, 1, 2, 3, 4, 5, 6, 7, 8]);
next = array1d(1..18 ,[16, 5, 6, 12, 8, 1, 9, 18, 14, 17, 4, 13, 7, 15, 3, 10, 2, 11]);
makespan = 594;
----------
assign = array1d(1..18 ,[6, 8, 6, 2, 8, 6, 4, 7, 4, 7, 1, 2, 3, 4, 5, 6, 7, 8]);
next = array1d(1..18 ,[16, 5, 6, 12, 18, 1, 9, 17, 14, 8, 4, 13, 7, 15, 3, 10, 2, 11]);
makespan = 584;
----------
assign = array1d(1..18 ,[6, 8, 6, 7, 5, 6, 5, 8, 7, 7, 1, 2, 3, 4, 5, 6, 7, 8]);
next = array1d(1..18 ,[16, 18, 6, 17, 7, 1, 15, 2, 4, 9, 12, 13, 14, 5, 3, 10, 8, 11]);
makespan = 583;
----------
assign = array1d(1..18 ,[5, 8, 7, 7, 6, 7, 6, 5, 6, 8, 1, 2, 3, 4, 5, 6, 7, 8]);
next = array1d(1..18 ,[15, 18, 4, 17, 7, 3, 16, 1, 5, 2, 12, 13, 14, 8, 9, 6, 10, 11]);
makespan = 582;
----------
assign = array1d(1..18 ,[8, 1, 7, 7, 2, 8, 1, 7, 1, 5, 1, 2, 3, 4, 5, 6, 7, 8]);
next = array1d(1..18 ,[6, 9, 4, 8, 12, 18, 2, 17, 11, 15, 5, 13, 14, 10, 16, 3, 1, 7]);
makespan = 581;
----------
assign = array1d(1..18 ,[7, 1, 8, 8, 2, 8, 5, 1, 1, 7, 1, 2, 3, 4, 5, 6, 7, 8]);
next = array1d(1..18 ,[17, 9, 4, 6, 12, 18, 15, 2, 11, 1, 5, 13, 14, 7, 16, 10, 3, 8]);
makespan = 579;
----------
assign = array1d(1..18 ,[6, 4, 7, 7, 8, 7, 6, 4, 4, 8, 1, 2, 3, 4, 5, 6, 7, 8]);
next = array1d(1..18 ,[16, 9, 4, 6, 10, 17, 1, 2, 14, 18, 12, 13, 8, 15, 7, 3, 5, 11]);
makespan = 578;
----------
assign = array1d(1..18 ,[7, 4, 7, 8, 8, 8, 5, 4, 4, 7, 1, 2, 3, 4, 5, 6, 7, 8]);
next = array1d(1..18 ,[17, 9, 10, 6, 18, 5, 15, 2, 14, 1, 12, 13, 8, 7, 16, 3, 4, 11]);
makespan = 577;
----------
assign = array1d(1..18 ,[7, 4, 7, 8, 8, 8, 5, 4, 4, 7, 1, 2, 3, 4, 5, 6, 7, 8]);
next = array1d(1..18 ,[17, 9, 10, 6, 18, 5, 15, 2, 14, 1, 12, 13, 8, 7, 16, 3, 4, 11]);
makespan = 573;
----------
assign = array1d(1..18 ,[7, 4, 7, 8, 8, 8, 5, 4, 4, 7, 1, 2, 3, 4, 5, 6, 7, 8]);
next = array1d(1..18 ,[3, 9, 17, 6, 18, 5, 15, 2, 14, 1, 12, 13, 8, 7, 16, 10, 4, 11]);
makespan = 572;
----------
assign = array1d(1..18 ,[7, 4, 7, 8, 8, 8, 5, 4, 4, 7, 1, 2, 3, 4, 5, 6, 7, 8]);
next = array1d(1..18 ,[3, 9, 17, 6, 18, 5, 15, 2, 14, 1, 12, 13, 8, 7, 16, 10, 4, 11]);
makespan = 571;
----------
assign = array1d(1..18 ,[7, 4, 7, 8, 8, 8, 5, 4, 4, 7, 1, 2, 3, 4, 5, 6, 7, 8]);
next = array1d(1..18 ,[3, 9, 17, 6, 18, 5, 15, 2, 14, 1, 12, 13, 8, 7, 16, 10, 4, 11]);
makespan = 566;
----------
assign = array1d(1..18 ,[7, 4, 7, 8, 8, 8, 5, 4, 4, 7, 1, 2, 3, 4, 5, 6, 7, 8]);
next = array1d(1..18 ,[3, 9, 17, 6, 18, 5, 15, 2, 14, 1, 12, 13, 8, 7, 16, 10, 4, 11]);
makespan = 565;
----------
assign = array1d(1..18 ,[7, 4, 7, 8, 8, 8, 5, 4, 4, 7, 1, 2, 3, 4, 5, 6, 7, 8]);
next = array1d(1..18 ,[3, 9, 17, 6, 18, 5, 15, 2, 14, 1, 12, 13, 8, 7, 16, 10, 4, 11]);
makespan = 564;
----------
assign = array1d(1..18 ,[7, 4, 7, 8, 8, 8, 5, 4, 4, 7, 1, 2, 3, 4, 5, 6, 7, 8]);
next = array1d(1..18 ,[3, 9, 17, 6, 18, 5, 15, 2, 14, 1, 12, 13, 8, 7, 16, 10, 4, 11]);
makespan = 561;
----------
assign = array1d(1..18 ,[7, 4, 7, 8, 8, 8, 5, 4, 4, 7, 1, 2, 3, 4, 5, 6, 7, 8]);
next = array1d(1..18 ,[3, 9, 17, 6, 18, 5, 15, 2, 14, 1, 12, 13, 8, 7, 16, 10, 4, 11]);
makespan = 557;
----------
assign = array1d(1..18 ,[7, 4, 7, 8, 8, 8, 5, 4, 4, 7, 1, 2, 3, 4, 5, 6, 7, 8]);
next = array1d(1..18 ,[3, 9, 17, 6, 18, 5, 15, 2, 14, 1, 12, 13, 8, 7, 16, 10, 4, 11]);
makespan = 555;
----------
assign = array1d(1..18 ,[7, 4, 7, 8, 8, 8, 5, 4, 4, 7, 1, 2, 3, 4, 5, 6, 7, 8]);
next = array1d(1..18 ,[3, 9, 17, 6, 18, 5, 15, 2, 14, 1, 12, 13, 8, 7, 16, 10, 4, 11]);
makespan = 547;
----------
assign = array1d(1..18 ,[7, 6, 7, 8, 8, 8, 5, 5, 6, 7, 1, 2, 3, 4, 5, 6, 7, 8]);
next = array1d(1..18 ,[3, 9, 17, 6, 18, 5, 8, 15, 16, 1, 12, 13, 14, 7, 2, 10, 4, 11]);
makespan = 546;
----------
assign = array1d(1..18 ,[7, 5, 7, 8, 8, 8, 6, 6, 5, 7, 1, 2, 3, 4, 5, 6, 7, 8]);
next = array1d(1..18 ,[3, 9, 17, 6, 18, 5, 8, 16, 15, 1, 12, 13, 14, 2, 7, 10, 4, 11]);
makespan = 545;
----------
assign = array1d(1..18 ,[7, 8, 6, 5, 2, 2, 7, 8, 6, 5, 1, 2, 3, 4, 5, 6, 7, 8]);
next = array1d(1..18 ,[17, 18, 16, 15, 12, 5, 1, 2, 3, 4, 6, 13, 14, 10, 9, 7, 8, 11]);
makespan = 544;
----------
assign = array1d(1..18 ,[6, 6, 8, 5, 7, 5, 1, 1, 7, 8, 1, 2, 3, 4, 5, 6, 7, 8]);
next = array1d(1..18 ,[16, 1, 10, 6, 17, 15, 8, 11, 5, 18, 12, 13, 14, 4, 2, 9, 3, 7]);
makespan = 542;
----------
assign = array1d(1..18 ,[3, 6, 4, 3, 7, 6, 8, 7, 5, 5, 1, 2, 3, 4, 5, 6, 7, 8]);
next = array1d(1..18 ,[4, 6, 14, 13, 8, 16, 18, 17, 15, 9, 12, 1, 3, 10, 2, 5, 7, 11]);
makespan = 541;
----------
assign = array1d(1..18 ,[4, 6, 4, 1, 7, 6, 8, 4, 5, 7, 1, 2, 3, 4, 5, 6, 7, 8]);
next = array1d(1..18 ,[14, 6, 1, 11, 10, 16, 18, 3, 15, 17, 12, 13, 8, 9, 2, 5, 7, 4]);
makespan = 540;
----------
assign = array1d(1..18 ,[4, 6, 4, 1, 7, 6, 8, 4, 5, 7, 1, 2, 3, 4, 5, 6, 7, 8]);
next = array1d(1..18 ,[14, 6, 1, 11, 10, 16, 18, 3, 15, 17, 12, 13, 8, 9, 2, 5, 7, 4]);
makespan = 539;
----------
assign = array1d(1..18 ,[4, 6, 4, 3, 7, 6, 8, 4, 5, 7, 1, 2, 3, 4, 5, 6, 7, 8]);
next = array1d(1..18 ,[14, 6, 1, 13, 10, 16, 18, 3, 15, 17, 12, 4, 8, 9, 2, 5, 7, 11]);
makespan = 538;
----------
assign = array1d(1..18 ,[8, 6, 4, 4, 7, 6, 8, 4, 5, 7, 1, 2, 3, 4, 5, 6, 7, 8]);
next = array1d(1..18 ,[18, 6, 4, 14, 10, 16, 1, 3, 15, 17, 12, 13, 8, 9, 2, 5, 7, 11]);
makespan = 537;
----------
assign = array1d(1..18 ,[8, 6, 4, 4, 7, 6, 8, 4, 5, 7, 1, 2, 3, 4, 5, 6, 7, 8]);
next = array1d(1..18 ,[18, 6, 4, 14, 10, 16, 1, 3, 15, 17, 12, 13, 8, 9, 2, 5, 7, 11]);
makespan = 536;
----------
assign = array1d(1..18 ,[8, 6, 4, 4, 7, 6, 8, 4, 5, 7, 1, 2, 3, 4, 5, 6, 7, 8]);
next = array1d(1..18 ,[18, 6, 4, 14, 10, 16, 1, 3, 15, 17, 12, 13, 8, 9, 2, 5, 7, 11]);
makespan = 535;
----------
assign = array1d(1..18 ,[8, 6, 4, 4, 7, 6, 8, 4, 5, 7, 1, 2, 3, 4, 5, 6, 7, 8]);
next = array1d(1..18 ,[18, 6, 4, 14, 10, 16, 1, 3, 15, 17, 12, 13, 8, 9, 2, 5, 7, 11]);
makespan = 534;
----------
assign = array1d(1..18 ,[8, 6, 4, 4, 7, 6, 8, 4, 5, 7, 1, 2, 3, 4, 5, 6, 7, 8]);
next = array1d(1..18 ,[18, 6, 4, 14, 10, 16, 1, 3, 15, 17, 12, 13, 8, 9, 2, 5, 7, 11]);
makespan = 533;
----------
assign = array1d(1..18 ,[8, 6, 4, 4, 7, 6, 8, 4, 5, 7, 1, 2, 3, 4, 5, 6, 7, 8]);
next = array1d(1..18 ,[18, 6, 4, 14, 10, 16, 1, 3, 15, 17, 12, 13, 8, 9, 2, 5, 7, 11]);
makespan = 532;
----------
assign = array1d(1..18 ,[8, 6, 4, 4, 7, 6, 8, 4, 5, 7, 1, 2, 3, 4, 5, 6, 7, 8]);
next = array1d(1..18 ,[18, 6, 4, 14, 10, 16, 1, 3, 15, 17, 12, 13, 8, 9, 2, 5, 7, 11]);
makespan = 531;
----------
assign = array1d(1..18 ,[8, 6, 4, 4, 7, 6, 8, 4, 5, 7, 1, 2, 3, 4, 5, 6, 7, 8]);
next = array1d(1..18 ,[18, 6, 4, 14, 10, 16, 1, 3, 15, 17, 12, 13, 8, 9, 2, 5, 7, 11]);
makespan = 530;
----------
assign = array1d(1..18 ,[8, 6, 4, 4, 7, 6, 8, 4, 5, 7, 1, 2, 3, 4, 5, 6, 7, 8]);
next = array1d(1..18 ,[18, 6, 4, 14, 10, 16, 1, 3, 15, 17, 12, 13, 8, 9, 2, 5, 7, 11]);
makespan = 529;
----------
assign = array1d(1..18 ,[8, 6, 4, 4, 7, 6, 8, 4, 5, 7, 1, 2, 3, 4, 5, 6, 7, 8]);
next = array1d(1..18 ,[18, 6, 4, 14, 10, 16, 1, 3, 15, 17, 12, 13, 8, 9, 2, 5, 7, 11]);
makespan = 528;
----------
assign = array1d(1..18 ,[8, 6, 4, 4, 7, 6, 8, 4, 5, 7, 1, 2, 3, 4, 5, 6, 7, 8]);
next = array1d(1..18 ,[18, 6, 4, 14, 10, 16, 1, 3, 15, 17, 12, 13, 8, 9, 2, 5, 7, 11]);
makespan = 527;
----------
assign = array1d(1..18 ,[8, 6, 4, 4, 7, 6, 8, 4, 5, 7, 1, 2, 3, 4, 5, 6, 7, 8]);
next = array1d(1..18 ,[18, 6, 4, 14, 10, 16, 1, 3, 15, 17, 12, 13, 8, 9, 2, 5, 7, 11]);
makespan = 525;
----------
assign = array1d(1..18 ,[8, 6, 4, 4, 7, 6, 8, 4, 5, 7, 1, 2, 3, 4, 5, 6, 7, 8]);
next = array1d(1..18 ,[18, 6, 4, 14, 10, 16, 1, 3, 15, 17, 12, 13, 8, 9, 2, 5, 7, 11]);
makespan = 524;
----------
assign = array1d(1..18 ,[8, 6, 4, 4, 7, 6, 8, 4, 5, 7, 1, 2, 3, 4, 5, 6, 7, 8]);
next = array1d(1..18 ,[18, 6, 4, 14, 10, 16, 1, 3, 15, 17, 12, 13, 8, 9, 2, 5, 7, 11]);
makespan = 522;
----------
assign = array1d(1..18 ,[8, 6, 4, 4, 7, 6, 8, 4, 5, 7, 1, 2, 3, 4, 5, 6, 7, 8]);
next = array1d(1..18 ,[18, 6, 4, 14, 10, 16, 1, 3, 15, 17, 12, 13, 8, 9, 2, 5, 7, 11]);
makespan = 521;
----------
assign = array1d(1..18 ,[8, 6, 4, 4, 7, 6, 8, 4, 5, 7, 1, 2, 3, 4, 5, 6, 7, 8]);
next = array1d(1..18 ,[18, 6, 4, 14, 10, 16, 1, 3, 15, 17, 12, 13, 8, 9, 2, 5, 7, 11]);
makespan = 520;
----------
assign = array1d(1..18 ,[8, 6, 4, 4, 7, 6, 8, 4, 5, 7, 1, 2, 3, 4, 5, 6, 7, 8]);
next = array1d(1..18 ,[18, 6, 4, 14, 10, 16, 1, 3, 15, 17, 12, 13, 8, 9, 2, 5, 7, 11]);
makespan = 519;
----------
assign = array1d(1..18 ,[8, 6, 4, 4, 7, 6, 8, 4, 5, 7, 1, 2, 3, 4, 5, 6, 7, 8]);
next = array1d(1..18 ,[18, 6, 4, 14, 10, 16, 1, 3, 15, 17, 12, 13, 8, 9, 2, 5, 7, 11]);
makespan = 518;
----------
assign = array1d(1..18 ,[8, 6, 4, 4, 7, 6, 8, 4, 5, 7, 1, 2, 3, 4, 5, 6, 7, 8]);
next = array1d(1..18 ,[18, 6, 4, 14, 10, 16, 1, 3, 15, 17, 12, 13, 8, 9, 2, 5, 7, 11]);
makespan = 517;
----------
assign = array1d(1..18 ,[8, 6, 4, 4, 7, 6, 8, 4, 5, 7, 1, 2, 3, 4, 5, 6, 7, 8]);
next = array1d(1..18 ,[18, 6, 4, 14, 10, 16, 1, 3, 15, 17, 12, 13, 8, 9, 2, 5, 7, 11]);
makespan = 515;
----------
assign = array1d(1..18 ,[8, 6, 4, 4, 7, 6, 8, 4, 5, 7, 1, 2, 3, 4, 5, 6, 7, 8]);
next = array1d(1..18 ,[18, 6, 4, 14, 10, 16, 1, 3, 15, 17, 12, 13, 8, 9, 2, 5, 7, 11]);
makespan = 514;
----------
assign = array1d(1..18 ,[8, 6, 4, 4, 7, 6, 8, 4, 5, 7, 1, 2, 3, 4, 5, 6, 7, 8]);
next = array1d(1..18 ,[18, 6, 4, 14, 10, 16, 1, 3, 15, 17, 12, 13, 8, 9, 2, 5, 7, 11]);
makespan = 513;
----------
assign = array1d(1..18 ,[8, 6, 4, 4, 7, 6, 8, 4, 5, 7, 1, 2, 3, 4, 5, 6, 7, 8]);
next = array1d(1..18 ,[18, 6, 4, 14, 10, 16, 1, 3, 15, 17, 12, 13, 8, 9, 2, 5, 7, 11]);
makespan = 512;
----------
assign = array1d(1..18 ,[8, 6, 4, 4, 7, 6, 8, 4, 5, 7, 1, 2, 3, 4, 5, 6, 7, 8]);
next = array1d(1..18 ,[18, 6, 4, 14, 10, 16, 1, 3, 15, 17, 12, 13, 8, 9, 2, 5, 7, 11]);
makespan = 511;
----------
assign = array1d(1..18 ,[8, 6, 4, 4, 7, 6, 8, 4, 5, 7, 1, 2, 3, 4, 5, 6, 7, 8]);
next = array1d(1..18 ,[18, 6, 4, 14, 10, 16, 1, 3, 15, 17, 12, 13, 8, 9, 2, 5, 7, 11]);
makespan = 510;
----------
assign = array1d(1..18 ,[8, 6, 4, 4, 7, 6, 8, 4, 5, 7, 1, 2, 3, 4, 5, 6, 7, 8]);
next = array1d(1..18 ,[18, 6, 4, 14, 10, 16, 1, 3, 15, 17, 12, 13, 8, 9, 2, 5, 7, 11]);
makespan = 509;
----------
assign = array1d(1..18 ,[8, 6, 4, 4, 7, 6, 8, 4, 5, 7, 1, 2, 3, 4, 5, 6, 7, 8]);
next = array1d(1..18 ,[18, 6, 4, 14, 10, 16, 1, 3, 15, 17, 12, 13, 8, 9, 2, 5, 7, 11]);
makespan = 508;
----------
assign = array1d(1..18 ,[8, 6, 4, 4, 7, 6, 8, 4, 5, 7, 1, 2, 3, 4, 5, 6, 7, 8]);
next = array1d(1..18 ,[18, 6, 4, 14, 10, 16, 1, 3, 15, 17, 12, 13, 8, 9, 2, 5, 7, 11]);
makespan = 507;
----------
assign = array1d(1..18 ,[8, 6, 4, 4, 7, 6, 8, 4, 5, 7, 1, 2, 3, 4, 5, 6, 7, 8]);
next = array1d(1..18 ,[18, 6, 4, 14, 10, 16, 1, 3, 15, 17, 12, 13, 8, 9, 2, 5, 7, 11]);
makespan = 506;
----------
assign = array1d(1..18 ,[1, 6, 4, 8, 7, 6, 8, 4, 5, 7, 1, 2, 3, 4, 5, 6, 7, 8]);
next = array1d(1..18 ,[11, 6, 14, 18, 10, 16, 4, 3, 15, 17, 12, 13, 8, 9, 2, 5, 7, 1]);
makespan = 505;
----------
assign = array1d(1..18 ,[1, 6, 4, 8, 7, 6, 8, 4, 5, 7, 1, 2, 3, 4, 5, 6, 7, 8]);
next = array1d(1..18 ,[11, 6, 14, 18, 10, 16, 4, 3, 15, 17, 12, 13, 8, 9, 2, 5, 7, 1]);
makespan = 502;
----------
assign = array1d(1..18 ,[2, 6, 4, 8, 7, 6, 8, 4, 5, 7, 1, 2, 3, 4, 5, 6, 7, 8]);
next = array1d(1..18 ,[12, 6, 14, 18, 10, 16, 4, 3, 15, 17, 1, 13, 8, 9, 2, 5, 7, 11]);
makespan = 499;
----------
assign = array1d(1..18 ,[6, 4, 8, 7, 6, 2, 5, 8, 5, 7, 1, 2, 3, 4, 5, 6, 7, 8]);
next = array1d(1..18 ,[16, 14, 18, 17, 1, 12, 15, 3, 7, 4, 6, 13, 2, 9, 5, 10, 8, 11]);
makespan = 498;
----------
assign = array1d(1..18 ,[6, 4, 8, 7, 2, 2, 1, 8, 6, 7, 1, 2, 3, 4, 5, 6, 7, 8]);
next = array1d(1..18 ,[9, 14, 18, 17, 12, 5, 11, 3, 16, 4, 6, 13, 2, 15, 1, 10, 8, 7]);
makespan = 495;
----------
assign = array1d(1..18 ,[5, 5, 8, 7, 4, 6, 4, 8, 7, 6, 1, 2, 3, 4, 5, 6, 7, 8]);
next = array1d(1..18 ,[2, 15, 18, 17, 7, 16, 14, 3, 4, 6, 12, 13, 5, 1, 10, 9, 8, 11]);
makespan = 494;
----------
assign = array1d(1..18 ,[7, 6, 5, 5, 6, 8, 7, 4, 3, 8, 1, 2, 3, 4, 5, 6, 7, 8]);
next = array1d(1..18 ,[17, 16, 4, 15, 2, 18, 1, 14, 13, 6, 12, 9, 8, 3, 5, 7, 10, 11]);
makespan = 493;
----------
assign = array1d(1..18 ,[7, 4, 6, 6, 8, 4, 7, 1, 1, 8, 1, 2, 3, 4, 5, 6, 7, 8]);
next = array1d(1..18 ,[17, 6, 4, 16, 10, 14, 1, 9, 11, 18, 12, 13, 2, 15, 3, 7, 5, 8]);
makespan = 492;
----------
assign = array1d(1..18 ,[7, 5, 4, 6, 5, 4, 7, 6, 8, 8, 1, 2, 3, 4, 5, 6, 7, 8]);
next = array1d(1..18 ,[17, 5, 6, 8, 15, 14, 1, 16, 10, 18, 12, 13, 3, 2, 4, 7, 9, 11]);
makespan = 487;
----------
assign = array1d(1..18 ,[4, 7, 3, 8, 6, 7, 5, 8, 6, 4, 1, 2, 3, 4, 5, 6, 7, 8]);
next = array1d(1..18 ,[14, 17, 13, 8, 16, 2, 15, 18, 5, 1, 12, 3, 10, 7, 9, 6, 4, 11]);
makespan = 486;
----------
assign = array1d(1..18 ,[5, 4, 8, 7, 4, 1, 3, 7, 1, 5, 1, 2, 3, 4, 5, 6, 7, 8]);
next = array1d(1..18 ,[15, 5, 18, 8, 14, 9, 13, 17, 11, 1, 12, 7, 2, 10, 16, 4, 3, 6]);
makespan = 474;
----------
assign = array1d(1..18 ,[1, 7, 3, 8, 7, 1, 8, 5, 6, 5, 1, 2, 3, 4, 5, 6, 7, 8]);
next = array1d(1..18 ,[11, 5, 13, 18, 17, 1, 4, 15, 16, 8, 12, 3, 14, 10, 9, 2, 7, 6]);
makespan = 472;
----------
assign = array1d(1..18 ,[8, 2, 8, 7, 2, 6, 1, 5, 1, 5, 1, 2, 3, 4, 5, 6, 7, 8]);
next = array1d(1..18 ,[18, 5, 1, 17, 12, 16, 11, 15, 7, 8, 2, 13, 14, 10, 6, 4, 3, 9]);
makespan = 471;
----------
assign = array1d(1..18 ,[2, 4, 2, 8, 4, 8, 6, 3, 5, 3, 1, 2, 3, 4, 5, 6, 7, 8]);
next = array1d(1..18 ,[12, 5, 1, 18, 14, 4, 16, 13, 15, 8, 3, 10, 2, 9, 7, 17, 6, 11]);
makespan = 470;
----------
assign = array1d(1..18 ,[6, 8, 4, 5, 8, 5, 7, 4, 3, 7, 1, 2, 3, 4, 5, 6, 7, 8]);
next = array1d(1..18 ,[16, 5, 8, 6, 18, 15, 17, 14, 13, 7, 12, 9, 3, 4, 1, 10, 2, 11]);
makespan = 468;
----------
assign = array1d(1..18 ,[6, 8, 7, 6, 7, 4, 4, 1, 1, 8, 1, 2, 3, 4, 5, 6, 7, 8]);
next = array1d(1..18 ,[4, 10, 5, 16, 17, 7, 14, 9, 11, 18, 12, 13, 6, 15, 1, 3, 2, 8]);
makespan = 467;
----------
assign = array1d(1..18 ,[6, 8, 7, 6, 7, 1, 1, 5, 4, 8, 1, 2, 3, 4, 5, 6, 7, 8]);
next = array1d(1..18 ,[4, 10, 17, 16, 3, 7, 11, 15, 14, 18, 12, 13, 9, 8, 1, 5, 2, 6]);
makespan = 466;
----------
assign = array1d(1..18 ,[7, 1, 2, 8, 2, 7, 5, 5, 8, 1, 1, 2, 3, 4, 5, 6, 7, 8]);
next = array1d(1..18 ,[17, 10, 12, 9, 3, 1, 15, 7, 18, 11, 5, 13, 14, 8, 16, 6, 4, 2]);
makespan = 465;
----------
assign = array1d(1..18 ,[5, 6, 7, 2, 7, 6, 8, 8, 5, 2, 1, 2, 3, 4, 5, 6, 7, 8]);
next = array1d(1..18 ,[15, 16, 17, 12, 3, 2, 18, 7, 1, 4, 10, 13, 14, 9, 6, 5, 8, 11]);
makespan = 464;
----------
assign = array1d(1..18 ,[5, 7, 2, 6, 5, 6, 8, 8, 2, 7, 1, 2, 3, 4, 5, 6, 7, 8]);
next = array1d(1..18 ,[5, 10, 9, 16, 15, 4, 18, 7, 12, 17, 3, 13, 14, 1, 6, 2, 8, 11]);
makespan = 463;
----------
assign = array1d(1..18 ,[7, 5, 4, 6, 8, 2, 6, 2, 8, 5, 1, 2, 3, 4, 5, 6, 7, 8]);
next = array1d(1..18 ,[17, 10, 14, 7, 9, 8, 16, 12, 18, 15, 6, 13, 3, 2, 4, 1, 5, 11]);
makespan = 462;
----------
assign = array1d(1..18 ,[7, 5, 6, 8, 2, 2, 7, 5, 6, 8, 1, 2, 3, 4, 5, 6, 7, 8]);
next = array1d(1..18 ,[7, 15, 9, 10, 6, 12, 17, 2, 16, 18, 5, 13, 14, 8, 3, 1, 4, 11]);
makespan = 461;
----------
assign = array1d(1..18 ,[6, 8, 1, 7, 3, 4, 6, 4, 7, 8, 1, 2, 3, 4, 5, 6, 7, 8]);
next = array1d(1..18 ,[7, 18, 11, 17, 13, 8, 16, 14, 4, 2, 12, 5, 6, 15, 1, 9, 10, 3]);
makespan = 460;
----------
assign = array1d(1..18 ,[2, 8, 7, 2, 5, 6, 7, 5, 4, 8, 1, 2, 3, 4, 5, 6, 7, 8]);
next = array1d(1..18 ,[4, 18, 17, 12, 15, 16, 3, 5, 14, 2, 1, 13, 9, 8, 6, 7, 10, 11]);
makespan = 459;
----------
assign = array1d(1..18 ,[5, 8, 7, 8, 2, 2, 7, 6, 6, 5, 1, 2, 3, 4, 5, 6, 7, 8]);
next = array1d(1..18 ,[15, 18, 17, 2, 6, 12, 3, 16, 8, 1, 5, 13, 14, 10, 9, 7, 4, 11]);
makespan = 458;
----------
assign = array1d(1..18 ,[5, 3, 2, 5, 6, 7, 2, 6, 8, 8, 1, 2, 3, 4, 5, 6, 7, 8]);
next = array1d(1..18 ,[15, 13, 12, 1, 8, 17, 3, 16, 18, 9, 7, 2, 14, 4, 5, 6, 10, 11]);
makespan = 457;
----------
assign = array1d(1..18 ,[5, 3, 2, 5, 6, 7, 2, 6, 8, 8, 1, 2, 3, 4, 5, 6, 7, 8]);
next = array1d(1..18 ,[15, 13, 12, 1, 8, 17, 3, 16, 18, 9, 7, 2, 14, 4, 5, 6, 10, 11]);
makespan = 456;
----------
assign = array1d(1..18 ,[5, 3, 2, 5, 6, 7, 2, 6, 8, 8, 1, 2, 3, 4, 5, 6, 7, 8]);
next = array1d(1..18 ,[15, 13, 12, 1, 8, 17, 3, 16, 18, 9, 7, 2, 14, 4, 5, 6, 10, 11]);
makespan = 455;
----------
assign = array1d(1..18 ,[5, 3, 2, 5, 6, 7, 2, 6, 8, 8, 1, 2, 3, 4, 5, 6, 7, 8]);
next = array1d(1..18 ,[15, 13, 12, 1, 8, 17, 3, 16, 18, 9, 7, 2, 14, 4, 5, 6, 10, 11]);
makespan = 454;
----------
assign = array1d(1..18 ,[5, 3, 2, 5, 6, 7, 2, 6, 8, 8, 1, 2, 3, 4, 5, 6, 7, 8]);
next = array1d(1..18 ,[15, 13, 12, 1, 8, 17, 3, 16, 18, 9, 7, 2, 14, 4, 5, 6, 10, 11]);
makespan = 453;
----------
assign = array1d(1..18 ,[5, 3, 2, 5, 6, 7, 2, 6, 8, 8, 1, 2, 3, 4, 5, 6, 7, 8]);
next = array1d(1..18 ,[15, 13, 12, 1, 8, 17, 3, 16, 18, 9, 7, 2, 14, 4, 5, 6, 10, 11]);
makespan = 452;
----------
assign = array1d(1..18 ,[5, 3, 2, 5, 6, 7, 2, 6, 8, 8, 1, 2, 3, 4, 5, 6, 7, 8]);
next = array1d(1..18 ,[15, 13, 12, 1, 8, 17, 3, 16, 18, 9, 7, 2, 14, 4, 5, 6, 10, 11]);
makespan = 451;
----------
assign = array1d(1..18 ,[5, 3, 2, 5, 6, 7, 2, 6, 8, 8, 1, 2, 3, 4, 5, 6, 7, 8]);
next = array1d(1..18 ,[15, 13, 12, 1, 8, 17, 3, 16, 18, 9, 7, 2, 14, 4, 5, 6, 10, 11]);
makespan = 450;
----------
assign = array1d(1..18 ,[5, 3, 2, 5, 6, 7, 2, 6, 8, 8, 1, 2, 3, 4, 5, 6, 7, 8]);
next = array1d(1..18 ,[15, 13, 12, 1, 8, 17, 3, 16, 18, 9, 7, 2, 14, 4, 5, 6, 10, 11]);
makespan = 449;
----------
assign = array1d(1..18 ,[5, 3, 2, 5, 6, 7, 2, 6, 8, 8, 1, 2, 3, 4, 5, 6, 7, 8]);
next = array1d(1..18 ,[15, 13, 12, 1, 8, 17, 3, 16, 18, 9, 7, 2, 14, 4, 5, 6, 10, 11]);
makespan = 448;
----------
assign = array1d(1..18 ,[5, 3, 2, 5, 6, 7, 2, 6, 8, 8, 1, 2, 3, 4, 5, 6, 7, 8]);
next = array1d(1..18 ,[15, 13, 12, 1, 8, 17, 3, 16, 18, 9, 7, 2, 14, 4, 5, 6, 10, 11]);
makespan = 447;
----------
assign = array1d(1..18 ,[5, 3, 2, 5, 6, 7, 2, 6, 8, 8, 1, 2, 3, 4, 5, 6, 7, 8]);
next = array1d(1..18 ,[15, 13, 12, 1, 8, 17, 3, 16, 18, 9, 7, 2, 14, 4, 5, 6, 10, 11]);
makespan = 446;
----------
assign = array1d(1..18 ,[5, 3, 2, 5, 6, 7, 2, 6, 8, 8, 1, 2, 3, 4, 5, 6, 7, 8]);
next = array1d(1..18 ,[15, 13, 12, 1, 8, 17, 3, 16, 18, 9, 7, 2, 14, 4, 5, 6, 10, 11]);
makespan = 445;
----------
assign = array1d(1..18 ,[5, 3, 2, 5, 6, 7, 2, 6, 8, 8, 1, 2, 3, 4, 5, 6, 7, 8]);
next = array1d(1..18 ,[15, 13, 12, 1, 8, 17, 3, 16, 18, 9, 7, 2, 14, 4, 5, 6, 10, 11]);
makespan = 444;
----------
assign = array1d(1..18 ,[5, 3, 2, 5, 6, 7, 2, 6, 8, 8, 1, 2, 3, 4, 5, 6, 7, 8]);
next = array1d(1..18 ,[15, 13, 12, 1, 8, 17, 3, 16, 18, 9, 7, 2, 14, 4, 5, 6, 10, 11]);
makespan = 443;
----------
assign = array1d(1..18 ,[5, 3, 2, 5, 6, 7, 2, 6, 8, 8, 1, 2, 3, 4, 5, 6, 7, 8]);
next = array1d(1..18 ,[15, 13, 12, 1, 8, 17, 3, 16, 18, 9, 7, 2, 14, 4, 5, 6, 10, 11]);
makespan = 442;
----------
assign = array1d(1..18 ,[5, 3, 2, 5, 6, 7, 2, 6, 8, 8, 1, 2, 3, 4, 5, 6, 7, 8]);
next = array1d(1..18 ,[15, 13, 12, 1, 8, 17, 3, 16, 18, 9, 7, 2, 14, 4, 5, 6, 10, 11]);
makespan = 441;
----------
assign = array1d(1..18 ,[5, 3, 2, 5, 6, 7, 2, 6, 8, 8, 1, 2, 3, 4, 5, 6, 7, 8]);
next = array1d(1..18 ,[15, 13, 12, 1, 8, 17, 3, 16, 18, 9, 7, 2, 14, 4, 5, 6, 10, 11]);
makespan = 440;
----------
assign = array1d(1..18 ,[5, 3, 2, 5, 6, 7, 2, 6, 8, 8, 1, 2, 3, 4, 5, 6, 7, 8]);
next = array1d(1..18 ,[15, 13, 12, 1, 8, 17, 3, 16, 18, 9, 7, 2, 14, 4, 5, 6, 10, 11]);
makespan = 439;
----------
assign = array1d(1..18 ,[5, 3, 2, 5, 6, 7, 2, 6, 8, 8, 1, 2, 3, 4, 5, 6, 7, 8]);
next = array1d(1..18 ,[15, 13, 12, 1, 8, 17, 3, 16, 18, 9, 7, 2, 14, 4, 5, 6, 10, 11]);
makespan = 438;
----------
assign = array1d(1..18 ,[5, 3, 2, 5, 6, 7, 2, 6, 8, 8, 1, 2, 3, 4, 5, 6, 7, 8]);
next = array1d(1..18 ,[15, 13, 12, 1, 8, 17, 3, 16, 18, 9, 7, 2, 14, 4, 5, 6, 10, 11]);
makespan = 437;
----------
assign = array1d(1..18 ,[5, 3, 2, 5, 6, 7, 2, 6, 8, 8, 1, 2, 3, 4, 5, 6, 7, 8]);
next = array1d(1..18 ,[15, 13, 12, 1, 8, 17, 3, 16, 18, 9, 7, 2, 14, 4, 5, 6, 10, 11]);
makespan = 436;
----------
assign = array1d(1..18 ,[5, 3, 2, 5, 6, 7, 2, 6, 8, 8, 1, 2, 3, 4, 5, 6, 7, 8]);
next = array1d(1..18 ,[15, 13, 12, 1, 8, 17, 3, 16, 18, 9, 7, 2, 14, 4, 5, 6, 10, 11]);
makespan = 434;
----------
assign = array1d(1..18 ,[5, 3, 2, 5, 6, 7, 2, 6, 8, 8, 1, 2, 3, 4, 5, 6, 7, 8]);
next = array1d(1..18 ,[15, 13, 12, 1, 8, 17, 3, 16, 18, 9, 7, 2, 14, 4, 5, 6, 10, 11]);
makespan = 433;
----------
assign = array1d(1..18 ,[5, 3, 2, 5, 6, 7, 2, 6, 8, 8, 1, 2, 3, 4, 5, 6, 7, 8]);
next = array1d(1..18 ,[15, 13, 12, 1, 8, 17, 3, 16, 18, 9, 7, 2, 14, 4, 5, 6, 10, 11]);
makespan = 432;
----------
assign = array1d(1..18 ,[5, 3, 2, 5, 6, 7, 2, 6, 8, 8, 1, 2, 3, 4, 5, 6, 7, 8]);
next = array1d(1..18 ,[15, 13, 12, 1, 8, 17, 3, 16, 18, 9, 7, 2, 14, 4, 5, 6, 10, 11]);
makespan = 431;
----------
assign = array1d(1..18 ,[5, 3, 2, 5, 6, 7, 2, 6, 8, 8, 1, 2, 3, 4, 5, 6, 7, 8]);
next = array1d(1..18 ,[15, 13, 12, 1, 8, 17, 3, 16, 18, 9, 7, 2, 14, 4, 5, 6, 10, 11]);
makespan = 430;
----------
assign = array1d(1..18 ,[5, 3, 2, 5, 6, 7, 2, 6, 8, 8, 1, 2, 3, 4, 5, 6, 7, 8]);
next = array1d(1..18 ,[15, 13, 12, 1, 8, 17, 3, 16, 18, 9, 7, 2, 14, 4, 5, 6, 10, 11]);
makespan = 429;
----------
assign = array1d(1..18 ,[5, 3, 2, 5, 6, 7, 2, 6, 8, 8, 1, 2, 3, 4, 5, 6, 7, 8]);
next = array1d(1..18 ,[15, 13, 12, 1, 8, 17, 3, 16, 18, 9, 7, 2, 14, 4, 5, 6, 10, 11]);
makespan = 428;
----------
assign = array1d(1..18 ,[5, 3, 2, 5, 6, 7, 2, 6, 8, 8, 1, 2, 3, 4, 5, 6, 7, 8]);
next = array1d(1..18 ,[15, 13, 12, 1, 8, 17, 3, 16, 18, 9, 7, 2, 14, 4, 5, 6, 10, 11]);
makespan = 427;
----------
assign = array1d(1..18 ,[5, 3, 2, 5, 6, 7, 2, 6, 8, 8, 1, 2, 3, 4, 5, 6, 7, 8]);
next = array1d(1..18 ,[15, 13, 12, 1, 8, 17, 3, 16, 18, 9, 7, 2, 14, 4, 5, 6, 10, 11]);
makespan = 426;
----------
assign = array1d(1..18 ,[5, 3, 2, 5, 6, 7, 2, 6, 8, 8, 1, 2, 3, 4, 5, 6, 7, 8]);
next = array1d(1..18 ,[15, 13, 12, 1, 8, 17, 3, 16, 18, 9, 7, 2, 14, 4, 5, 6, 10, 11]);
makespan = 425;
----------
assign = array1d(1..18 ,[5, 3, 2, 5, 6, 7, 2, 6, 8, 8, 1, 2, 3, 4, 5, 6, 7, 8]);
next = array1d(1..18 ,[15, 13, 12, 1, 8, 17, 3, 16, 18, 9, 7, 2, 14, 4, 5, 6, 10, 11]);
makespan = 424;
----------
assign = array1d(1..18 ,[5, 3, 2, 5, 6, 7, 2, 6, 8, 8, 1, 2, 3, 4, 5, 6, 7, 8]);
next = array1d(1..18 ,[15, 13, 12, 1, 8, 17, 3, 16, 18, 9, 7, 2, 14, 4, 5, 6, 10, 11]);
makespan = 423;
----------
assign = array1d(1..18 ,[5, 3, 2, 5, 6, 7, 2, 6, 8, 8, 1, 2, 3, 4, 5, 6, 7, 8]);
next = array1d(1..18 ,[15, 13, 12, 1, 8, 17, 3, 16, 18, 9, 7, 2, 14, 4, 5, 6, 10, 11]);
makespan = 422;
----------
assign = array1d(1..18 ,[5, 3, 2, 5, 6, 7, 2, 6, 8, 8, 1, 2, 3, 4, 5, 6, 7, 8]);
next = array1d(1..18 ,[15, 13, 12, 1, 8, 17, 3, 16, 18, 9, 7, 2, 14, 4, 5, 6, 10, 11]);
makespan = 420;
----------
assign = array1d(1..18 ,[5, 3, 2, 5, 6, 7, 2, 6, 8, 8, 1, 2, 3, 4, 5, 6, 7, 8]);
next = array1d(1..18 ,[15, 13, 12, 1, 8, 17, 3, 16, 18, 9, 7, 2, 14, 4, 5, 6, 10, 11]);
makespan = 419;
----------
assign = array1d(1..18 ,[5, 3, 2, 5, 6, 7, 2, 6, 8, 8, 1, 2, 3, 4, 5, 6, 7, 8]);
next = array1d(1..18 ,[15, 13, 12, 1, 8, 17, 3, 16, 18, 9, 7, 2, 14, 4, 5, 6, 10, 11]);
makespan = 418;
----------
assign = array1d(1..18 ,[5, 3, 2, 5, 6, 7, 2, 6, 8, 8, 1, 2, 3, 4, 5, 6, 7, 8]);
next = array1d(1..18 ,[15, 13, 12, 1, 8, 17, 3, 16, 18, 9, 7, 2, 14, 4, 5, 6, 10, 11]);
makespan = 416;
----------
assign = array1d(1..18 ,[5, 3, 2, 5, 6, 7, 2, 6, 8, 8, 1, 2, 3, 4, 5, 6, 7, 8]);
next = array1d(1..18 ,[15, 13, 12, 1, 8, 17, 3, 16, 18, 9, 7, 2, 14, 4, 5, 6, 10, 11]);
makespan = 415;
----------
assign = array1d(1..18 ,[5, 3, 2, 5, 6, 7, 2, 6, 8, 8, 1, 2, 3, 4, 5, 6, 7, 8]);
next = array1d(1..18 ,[15, 13, 12, 1, 8, 17, 3, 16, 18, 9, 7, 2, 14, 4, 5, 6, 10, 11]);
makespan = 414;
----------
assign = array1d(1..18 ,[5, 3, 2, 5, 6, 7, 2, 6, 8, 8, 1, 2, 3, 4, 5, 6, 7, 8]);
next = array1d(1..18 ,[15, 13, 12, 1, 8, 17, 3, 16, 18, 9, 7, 2, 14, 4, 5, 6, 10, 11]);
makespan = 413;
----------
assign = array1d(1..18 ,[5, 3, 2, 5, 6, 7, 2, 6, 8, 8, 1, 2, 3, 4, 5, 6, 7, 8]);
next = array1d(1..18 ,[15, 13, 12, 1, 8, 17, 3, 16, 18, 9, 7, 2, 14, 4, 5, 6, 10, 11]);
makespan = 412;
----------
assign = array1d(1..18 ,[5, 3, 2, 5, 6, 7, 2, 6, 8, 8, 1, 2, 3, 4, 5, 6, 7, 8]);
next = array1d(1..18 ,[15, 13, 12, 1, 8, 17, 3, 16, 18, 9, 7, 2, 14, 4, 5, 6, 10, 11]);
makespan = 411;
----------
assign = array1d(1..18 ,[5, 3, 2, 5, 6, 7, 2, 6, 8, 8, 1, 2, 3, 4, 5, 6, 7, 8]);
next = array1d(1..18 ,[15, 13, 12, 1, 8, 17, 3, 16, 18, 9, 7, 2, 14, 4, 5, 6, 10, 11]);
makespan = 410;
----------
assign = array1d(1..18 ,[5, 3, 2, 5, 6, 7, 2, 6, 8, 8, 1, 2, 3, 4, 5, 6, 7, 8]);
next = array1d(1..18 ,[15, 13, 12, 1, 8, 17, 3, 16, 18, 9, 7, 2, 14, 4, 5, 6, 10, 11]);
makespan = 409;
----------
assign = array1d(1..18 ,[5, 3, 2, 5, 6, 7, 2, 6, 8, 8, 1, 2, 3, 4, 5, 6, 7, 8]);
next = array1d(1..18 ,[15, 13, 12, 1, 8, 17, 3, 16, 18, 9, 7, 2, 14, 4, 5, 6, 10, 11]);
makespan = 407;
----------
assign = array1d(1..18 ,[5, 3, 2, 5, 6, 7, 2, 6, 8, 8, 1, 2, 3, 4, 5, 6, 7, 8]);
next = array1d(1..18 ,[15, 13, 12, 1, 8, 17, 3, 16, 18, 9, 7, 2, 14, 4, 5, 6, 10, 11]);
makespan = 406;
----------
assign = array1d(1..18 ,[5, 3, 2, 5, 6, 7, 2, 6, 8, 8, 1, 2, 3, 4, 5, 6, 7, 8]);
next = array1d(1..18 ,[15, 13, 12, 1, 8, 17, 3, 16, 18, 9, 7, 2, 14, 4, 5, 6, 10, 11]);
makespan = 405;
----------
assign = array1d(1..18 ,[5, 3, 2, 5, 6, 7, 2, 6, 8, 8, 1, 2, 3, 4, 5, 6, 7, 8]);
next = array1d(1..18 ,[15, 13, 12, 1, 8, 17, 3, 16, 18, 9, 7, 2, 14, 4, 5, 6, 10, 11]);
makespan = 404;
----------
assign = array1d(1..18 ,[5, 3, 2, 5, 6, 7, 2, 6, 8, 8, 1, 2, 3, 4, 5, 6, 7, 8]);
next = array1d(1..18 ,[15, 13, 12, 1, 8, 17, 3, 16, 18, 9, 7, 2, 14, 4, 5, 6, 10, 11]);
makespan = 402;
----------
assign = array1d(1..18 ,[5, 3, 2, 5, 6, 7, 2, 6, 8, 8, 1, 2, 3, 4, 5, 6, 7, 8]);
next = array1d(1..18 ,[15, 13, 12, 1, 8, 17, 3, 16, 18, 9, 7, 2, 14, 4, 5, 6, 10, 11]);
makespan = 401;
----------
assign = array1d(1..18 ,[5, 3, 2, 5, 6, 7, 2, 6, 8, 8, 1, 2, 3, 4, 5, 6, 7, 8]);
next = array1d(1..18 ,[15, 13, 12, 1, 8, 17, 3, 16, 18, 9, 7, 2, 14, 4, 5, 6, 10, 11]);
makespan = 400;
----------
assign = array1d(1..18 ,[5, 3, 2, 5, 6, 7, 2, 6, 8, 8, 1, 2, 3, 4, 5, 6, 7, 8]);
next = array1d(1..18 ,[15, 13, 12, 1, 8, 17, 3, 16, 18, 9, 7, 2, 14, 4, 5, 6, 10, 11]);
makespan = 399;
----------
assign = array1d(1..18 ,[5, 3, 2, 5, 6, 7, 2, 6, 8, 8, 1, 2, 3, 4, 5, 6, 7, 8]);
next = array1d(1..18 ,[15, 13, 12, 1, 8, 17, 3, 16, 18, 9, 7, 2, 14, 4, 5, 6, 10, 11]);
makespan = 398;
----------
assign = array1d(1..18 ,[5, 3, 2, 5, 6, 7, 2, 6, 8, 8, 1, 2, 3, 4, 5, 6, 7, 8]);
next = array1d(1..18 ,[15, 13, 12, 1, 8, 17, 3, 16, 18, 9, 7, 2, 14, 4, 5, 6, 10, 11]);
makespan = 397;
----------
assign = array1d(1..18 ,[5, 3, 2, 5, 6, 7, 2, 6, 8, 8, 1, 2, 3, 4, 5, 6, 7, 8]);
next = array1d(1..18 ,[15, 13, 12, 1, 8, 17, 3, 16, 18, 9, 7, 2, 14, 4, 5, 6, 10, 11]);
makespan = 396;
----------
assign = array1d(1..18 ,[5, 3, 2, 5, 6, 7, 2, 6, 8, 8, 1, 2, 3, 4, 5, 6, 7, 8]);
next = array1d(1..18 ,[15, 13, 12, 1, 8, 17, 3, 16, 18, 9, 7, 2, 14, 4, 5, 6, 10, 11]);
makespan = 395;
----------
assign = array1d(1..18 ,[5, 3, 2, 5, 6, 7, 2, 6, 8, 8, 1, 2, 3, 4, 5, 6, 7, 8]);
next = array1d(1..18 ,[15, 13, 12, 1, 8, 17, 3, 16, 18, 9, 7, 2, 14, 4, 5, 6, 10, 11]);
makespan = 394;
----------
assign = array1d(1..18 ,[5, 3, 2, 5, 6, 7, 2, 6, 8, 8, 1, 2, 3, 4, 5, 6, 7, 8]);
next = array1d(1..18 ,[15, 13, 12, 1, 8, 17, 3, 16, 18, 9, 7, 2, 14, 4, 5, 6, 10, 11]);
makespan = 393;
----------
assign = array1d(1..18 ,[5, 3, 2, 5, 6, 7, 2, 6, 8, 8, 1, 2, 3, 4, 5, 6, 7, 8]);
next = array1d(1..18 ,[15, 13, 12, 1, 8, 17, 3, 16, 18, 9, 7, 2, 14, 4, 5, 6, 10, 11]);
makespan = 392;
----------
assign = array1d(1..18 ,[5, 3, 2, 5, 6, 7, 2, 6, 8, 8, 1, 2, 3, 4, 5, 6, 7, 8]);
next = array1d(1..18 ,[15, 13, 12, 1, 8, 17, 3, 16, 18, 9, 7, 2, 14, 4, 5, 6, 10, 11]);
makespan = 391;
----------
assign = array1d(1..18 ,[5, 3, 2, 5, 6, 7, 2, 6, 8, 8, 1, 2, 3, 4, 5, 6, 7, 8]);
next = array1d(1..18 ,[15, 13, 12, 1, 8, 17, 3, 16, 18, 9, 7, 2, 14, 4, 5, 6, 10, 11]);
makespan = 390;
----------
assign = array1d(1..18 ,[5, 3, 2, 5, 6, 7, 2, 6, 8, 8, 1, 2, 3, 4, 5, 6, 7, 8]);
next = array1d(1..18 ,[15, 13, 12, 1, 8, 17, 3, 16, 18, 9, 7, 2, 14, 4, 5, 6, 10, 11]);
makespan = 389;
----------
assign = array1d(1..18 ,[5, 3, 2, 5, 6, 7, 2, 6, 8, 8, 1, 2, 3, 4, 5, 6, 7, 8]);
next = array1d(1..18 ,[15, 13, 12, 1, 8, 17, 3, 16, 18, 9, 7, 2, 14, 4, 5, 6, 10, 11]);
makespan = 388;
----------
assign = array1d(1..18 ,[5, 3, 2, 5, 6, 7, 2, 6, 8, 8, 1, 2, 3, 4, 5, 6, 7, 8]);
next = array1d(1..18 ,[15, 13, 12, 1, 8, 17, 3, 16, 18, 9, 7, 2, 14, 4, 5, 6, 10, 11]);
makespan = 387;
----------
assign = array1d(1..18 ,[5, 3, 2, 5, 6, 7, 2, 6, 8, 8, 1, 2, 3, 4, 5, 6, 7, 8]);
next = array1d(1..18 ,[15, 13, 12, 1, 8, 17, 3, 16, 18, 9, 7, 2, 14, 4, 5, 6, 10, 11]);
makespan = 386;
----------
assign = array1d(1..18 ,[5, 3, 2, 5, 6, 8, 2, 6, 7, 7, 1, 2, 3, 4, 5, 6, 7, 8]);
next = array1d(1..18 ,[15, 13, 12, 1, 8, 18, 3, 16, 17, 9, 7, 2, 14, 4, 5, 10, 6, 11]);
makespan = 385;
----------
assign = array1d(1..18 ,[6, 8, 2, 6, 8, 3, 2, 3, 7, 7, 1, 2, 3, 4, 5, 6, 7, 8]);
next = array1d(1..18 ,[4, 5, 12, 16, 18, 13, 3, 6, 17, 9, 7, 8, 14, 15, 1, 10, 2, 11]);
makespan = 383;
----------
assign = array1d(1..18 ,[7, 4, 3, 7, 5, 4, 3, 6, 8, 8, 1, 2, 3, 4, 5, 6, 7, 8]);
next = array1d(1..18 ,[4, 6, 13, 17, 15, 14, 3, 16, 10, 18, 12, 7, 2, 5, 8, 1, 9, 11]);
makespan = 382;
----------
assign = array1d(1..18 ,[3, 4, 8, 6, 4, 8, 7, 7, 3, 6, 1, 2, 3, 4, 5, 6, 7, 8]);
next = array1d(1..18 ,[13, 5, 18, 10, 14, 3, 17, 7, 1, 16, 12, 9, 2, 15, 4, 8, 6, 11]);
makespan = 381;
----------
assign = array1d(1..18 ,[1, 4, 8, 7, 4, 8, 6, 6, 2, 7, 1, 2, 3, 4, 5, 6, 7, 8]);
next = array1d(1..18 ,[11, 5, 18, 10, 14, 3, 16, 7, 12, 17, 9, 13, 2, 15, 8, 4, 6, 1]);
makespan = 380;
----------
assign = array1d(1..18 ,[1, 6, 8, 5, 8, 1, 2, 2, 4, 5, 1, 2, 3, 4, 5, 6, 7, 8]);
next = array1d(1..18 ,[6, 16, 5, 10, 18, 11, 12, 7, 14, 15, 8, 13, 9, 4, 2, 17, 3, 1]);
makespan = 379;
----------
assign = array1d(1..18 ,[1, 6, 8, 5, 8, 1, 2, 2, 4, 5, 1, 2, 3, 4, 5, 6, 7, 8]);
next = array1d(1..18 ,[6, 16, 5, 10, 18, 11, 12, 7, 14, 15, 8, 13, 9, 4, 2, 17, 3, 1]);
makespan = 378;
----------
assign = array1d(1..18 ,[1, 6, 8, 5, 8, 1, 2, 2, 4, 5, 1, 2, 3, 4, 5, 6, 7, 8]);
next = array1d(1..18 ,[6, 16, 5, 10, 18, 11, 12, 7, 14, 15, 8, 13, 9, 4, 2, 17, 3, 1]);
makespan = 377;
----------
assign = array1d(1..18 ,[1, 6, 8, 5, 8, 1, 2, 2, 4, 5, 1, 2, 3, 4, 5, 6, 7, 8]);
next = array1d(1..18 ,[6, 16, 5, 10, 18, 11, 12, 7, 14, 15, 8, 13, 9, 4, 2, 17, 3, 1]);
makespan = 375;
----------
assign = array1d(1..18 ,[1, 6, 8, 5, 8, 1, 2, 2, 4, 5, 1, 2, 3, 4, 5, 6, 7, 8]);
next = array1d(1..18 ,[6, 16, 5, 10, 18, 11, 12, 7, 14, 15, 8, 13, 9, 4, 2, 17, 3, 1]);
makespan = 374;
----------
assign = array1d(1..18 ,[1, 6, 8, 5, 8, 1, 2, 2, 4, 5, 1, 2, 3, 4, 5, 6, 7, 8]);
next = array1d(1..18 ,[6, 16, 5, 10, 18, 11, 12, 7, 14, 15, 8, 13, 9, 4, 2, 17, 3, 1]);
makespan = 373;
----------
assign = array1d(1..18 ,[7, 4, 8, 5, 8, 1, 6, 6, 4, 5, 1, 2, 3, 4, 5, 6, 7, 8]);
next = array1d(1..18 ,[17, 9, 5, 10, 18, 11, 16, 7, 14, 15, 12, 13, 2, 4, 8, 1, 3, 6]);
makespan = 372;
----------
assign = array1d(1..18 ,[6, 4, 7, 1, 3, 8, 7, 6, 4, 1, 1, 2, 3, 4, 5, 6, 7, 8]);
next = array1d(1..18 ,[8, 9, 17, 10, 13, 18, 3, 16, 14, 11, 12, 5, 2, 15, 1, 7, 6, 4]);
makespan = 371;
----------
assign = array1d(1..18 ,[4, 6, 7, 5, 6, 8, 3, 3, 7, 5, 1, 2, 3, 4, 5, 6, 7, 8]);
next = array1d(1..18 ,[14, 16, 17, 10, 2, 18, 13, 7, 3, 15, 12, 8, 1, 4, 5, 9, 6, 11]);
makespan = 370;
----------
assign = array1d(1..18 ,[5, 4, 7, 4, 8, 8, 6, 6, 7, 2, 1, 2, 3, 4, 5, 6, 7, 8]);
next = array1d(1..18 ,[15, 4, 17, 14, 18, 5, 16, 7, 3, 12, 10, 13, 2, 1, 8, 9, 6, 11]);
makespan = 368;
----------
assign = array1d(1..18 ,[5, 4, 8, 7, 4, 6, 3, 6, 8, 7, 1, 2, 3, 4, 5, 6, 7, 8]);
next = array1d(1..18 ,[15, 5, 18, 10, 14, 16, 13, 6, 3, 17, 12, 7, 2, 1, 8, 4, 9, 11]);
makespan = 367;
----------
assign = array1d(1..18 ,[7, 8, 4, 7, 8, 6, 5, 5, 4, 6, 1, 2, 3, 4, 5, 6, 7, 8]);
next = array1d(1..18 ,[4, 18, 14, 17, 2, 10, 8, 15, 3, 16, 12, 13, 9, 7, 6, 1, 5, 11]);
makespan = 365;
----------
assign = array1d(1..18 ,[7, 8, 4, 7, 8, 6, 5, 6, 4, 5, 1, 2, 3, 4, 5, 6, 7, 8]);
next = array1d(1..18 ,[17, 18, 14, 1, 2, 16, 15, 6, 3, 7, 12, 13, 9, 10, 8, 4, 5, 11]);
makespan = 364;
----------
assign = array1d(1..18 ,[7, 8, 4, 7, 8, 6, 5, 6, 4, 5, 1, 2, 3, 4, 5, 6, 7, 8]);
next = array1d(1..18 ,[17, 18, 14, 1, 2, 16, 15, 6, 3, 7, 12, 13, 9, 10, 8, 4, 5, 11]);
makespan = 363;
----------
assign = array1d(1..18 ,[7, 8, 4, 7, 8, 6, 5, 6, 4, 5, 1, 2, 3, 4, 5, 6, 7, 8]);
next = array1d(1..18 ,[17, 18, 14, 1, 2, 16, 15, 6, 3, 7, 12, 13, 9, 10, 8, 4, 5, 11]);
makespan = 362;
----------
assign = array1d(1..18 ,[7, 8, 4, 7, 8, 6, 5, 6, 4, 5, 1, 2, 3, 4, 5, 6, 7, 8]);
next = array1d(1..18 ,[17, 18, 14, 1, 2, 16, 15, 6, 3, 7, 12, 13, 9, 10, 8, 4, 5, 11]);
makespan = 361;
----------
assign = array1d(1..18 ,[7, 8, 4, 7, 8, 6, 5, 6, 4, 5, 1, 2, 3, 4, 5, 6, 7, 8]);
next = array1d(1..18 ,[17, 18, 14, 1, 2, 16, 15, 6, 3, 7, 12, 13, 9, 10, 8, 4, 5, 11]);
makespan = 360;
----------
assign = array1d(1..18 ,[7, 8, 4, 7, 8, 6, 5, 6, 4, 5, 1, 2, 3, 4, 5, 6, 7, 8]);
next = array1d(1..18 ,[17, 18, 14, 1, 2, 16, 15, 6, 3, 7, 12, 13, 9, 10, 8, 4, 5, 11]);
makespan = 359;
----------
assign = array1d(1..18 ,[7, 8, 4, 7, 8, 6, 5, 6, 4, 5, 1, 2, 3, 4, 5, 6, 7, 8]);
next = array1d(1..18 ,[17, 18, 14, 1, 2, 16, 15, 6, 3, 7, 12, 13, 9, 10, 8, 4, 5, 11]);
makespan = 358;
----------
assign = array1d(1..18 ,[7, 8, 4, 7, 8, 6, 5, 6, 4, 5, 1, 2, 3, 4, 5, 6, 7, 8]);
next = array1d(1..18 ,[17, 18, 14, 1, 2, 16, 15, 6, 3, 7, 12, 13, 9, 10, 8, 4, 5, 11]);
makespan = 357;
----------
assign = array1d(1..18 ,[7, 8, 6, 7, 8, 3, 5, 3, 6, 5, 1, 2, 3, 4, 5, 6, 7, 8]);
next = array1d(1..18 ,[17, 18, 16, 1, 2, 13, 15, 6, 3, 7, 12, 8, 14, 10, 9, 4, 5, 11]);
makespan = 356;
----------
assign = array1d(1..18 ,[7, 8, 6, 7, 8, 3, 5, 3, 6, 5, 1, 2, 3, 4, 5, 6, 7, 8]);
next = array1d(1..18 ,[17, 18, 16, 1, 2, 13, 15, 6, 3, 7, 12, 8, 14, 10, 9, 4, 5, 11]);
makespan = 355;
----------
assign = array1d(1..18 ,[1, 8, 8, 5, 4, 3, 5, 3, 7, 1, 1, 2, 3, 4, 5, 6, 7, 8]);
next = array1d(1..18 ,[10, 18, 2, 7, 14, 13, 15, 6, 17, 11, 12, 8, 5, 4, 16, 9, 3, 1]);
makespan = 354;
----------
assign = array1d(1..18 ,[1, 8, 7, 5, 7, 3, 5, 3, 2, 1, 1, 2, 3, 4, 5, 6, 7, 8]);
next = array1d(1..18 ,[10, 18, 17, 7, 3, 13, 15, 6, 12, 11, 9, 8, 14, 4, 16, 5, 2, 1]);
makespan = 353;
----------
assign = array1d(1..18 ,[1, 8, 7, 5, 7, 3, 5, 3, 2, 1, 1, 2, 3, 4, 5, 6, 7, 8]);
next = array1d(1..18 ,[10, 18, 17, 7, 3, 13, 15, 6, 12, 11, 9, 8, 14, 4, 16, 5, 2, 1]);
makespan = 352;
----------
assign = array1d(1..18 ,[1, 4, 4, 3, 8, 8, 7, 6, 6, 1, 1, 2, 3, 4, 5, 6, 7, 8]);
next = array1d(1..18 ,[10, 14, 2, 13, 18, 5, 17, 16, 8, 11, 12, 4, 3, 15, 9, 7, 6, 1]);
makespan = 351;
----------
assign = array1d(1..18 ,[1, 4, 4, 5, 8, 8, 7, 2, 5, 1, 1, 2, 3, 4, 5, 6, 7, 8]);
next = array1d(1..18 ,[10, 14, 2, 15, 18, 5, 17, 12, 4, 11, 8, 13, 3, 9, 16, 7, 6, 1]);
makespan = 350;
----------
assign = array1d(1..18 ,[1, 4, 4, 5, 8, 8, 7, 2, 5, 1, 1, 2, 3, 4, 5, 6, 7, 8]);
next = array1d(1..18 ,[10, 14, 2, 15, 18, 5, 17, 12, 4, 11, 8, 13, 3, 9, 16, 7, 6, 1]);
makespan = 348;
----------
assign = array1d(1..18 ,[1, 4, 4, 5, 8, 8, 7, 2, 5, 1, 1, 2, 3, 4, 5, 6, 7, 8]);
next = array1d(1..18 ,[10, 14, 2, 15, 18, 5, 17, 12, 4, 11, 8, 13, 3, 9, 16, 7, 6, 1]);
makespan = 347;
----------
assign = array1d(1..18 ,[1, 4, 4, 5, 8, 8, 7, 2, 5, 1, 1, 2, 3, 4, 5, 6, 7, 8]);
next = array1d(1..18 ,[10, 14, 2, 15, 18, 5, 17, 12, 4, 11, 8, 13, 3, 9, 16, 7, 6, 1]);
makespan = 346;
----------
assign = array1d(1..18 ,[1, 4, 4, 5, 8, 8, 7, 2, 5, 1, 1, 2, 3, 4, 5, 6, 7, 8]);
next = array1d(1..18 ,[10, 14, 2, 15, 18, 5, 17, 12, 4, 11, 8, 13, 3, 9, 16, 7, 6, 1]);
makespan = 344;
----------
assign = array1d(1..18 ,[1, 4, 4, 6, 8, 8, 7, 2, 6, 1, 1, 2, 3, 4, 5, 6, 7, 8]);
next = array1d(1..18 ,[10, 14, 2, 16, 18, 5, 17, 12, 4, 11, 8, 13, 3, 15, 9, 7, 6, 1]);
makespan = 343;
----------
assign = array1d(1..18 ,[8, 3, 3, 4, 6, 6, 7, 4, 5, 2, 1, 2, 3, 4, 5, 6, 7, 8]);
next = array1d(1..18 ,[18, 13, 2, 14, 6, 16, 17, 4, 15, 12, 10, 3, 8, 9, 5, 7, 1, 11]);
makespan = 342;
----------
assign = array1d(1..18 ,[1, 3, 4, 5, 8, 8, 5, 6, 7, 1, 1, 2, 3, 4, 5, 6, 7, 8]);
next = array1d(1..18 ,[10, 13, 14, 7, 18, 5, 15, 16, 17, 11, 12, 2, 3, 4, 8, 9, 6, 1]);
makespan = 341;
----------
assign = array1d(1..18 ,[6, 8, 7, 7, 5, 4, 6, 4, 3, 2, 1, 2, 3, 4, 5, 6, 7, 8]);
next = array1d(1..18 ,[16, 18, 4, 17, 15, 8, 1, 14, 13, 12, 10, 9, 6, 5, 7, 3, 2, 11]);
makespan = 340;
----------
assign = array1d(1..18 ,[8, 7, 4, 1, 1, 6, 5, 4, 6, 5, 1, 2, 3, 4, 5, 6, 7, 8]);
next = array1d(1..18 ,[18, 17, 8, 11, 4, 9, 15, 14, 16, 7, 12, 13, 3, 10, 6, 2, 1, 5]);
makespan = 339;
----------
assign = array1d(1..18 ,[3, 6, 8, 1, 1, 2, 7, 3, 4, 5, 1, 2, 3, 4, 5, 6, 7, 8]);
next = array1d(1..18 ,[13, 16, 18, 11, 4, 12, 17, 1, 14, 15, 6, 8, 9, 10, 2, 7, 3, 5]);
makespan = 338;
----------
assign = array1d(1..18 ,[3, 4, 2, 8, 7, 4, 6, 5, 6, 1, 1, 2, 3, 4, 5, 6, 7, 8]);
next = array1d(1..18 ,[13, 6, 12, 18, 17, 14, 9, 15, 16, 11, 3, 1, 2, 8, 7, 5, 4, 10]);
makespan = 337;
----------
assign = array1d(1..18 ,[5, 7, 4, 4, 8, 6, 3, 8, 6, 1, 1, 2, 3, 4, 5, 6, 7, 8]);
next = array1d(1..18 ,[15, 17, 4, 14, 18, 9, 13, 5, 16, 11, 12, 7, 3, 1, 6, 2, 8, 10]);
makespan = 336;
----------
assign = array1d(1..18 ,[3, 3, 4, 4, 2, 8, 5, 1, 7, 6, 1, 2, 3, 4, 5, 6, 7, 8]);
next = array1d(1..18 ,[2, 13, 4, 14, 12, 18, 15, 11, 17, 16, 5, 1, 3, 7, 10, 9, 6, 8]);
makespan = 335;
----------
assign = array1d(1..18 ,[6, 4, 3, 5, 8, 4, 7, 8, 6, 5, 1, 2, 3, 4, 5, 6, 7, 8]);
next = array1d(1..18 ,[9, 6, 13, 15, 18, 14, 17, 5, 16, 4, 12, 3, 2, 10, 1, 7, 8, 11]);
makespan = 334;
----------
assign = array1d(1..18 ,[1, 4, 5, 6, 1, 4, 7, 2, 3, 8, 1, 2, 3, 4, 5, 6, 7, 8]);
next = array1d(1..18 ,[5, 6, 15, 16, 11, 14, 17, 12, 13, 18, 8, 9, 2, 3, 4, 7, 10, 1]);
makespan = 333;
----------
assign = array1d(1..18 ,[6, 2, 5, 8, 7, 3, 2, 4, 6, 1, 1, 2, 3, 4, 5, 6, 7, 8]);
next = array1d(1..18 ,[16, 7, 15, 18, 17, 13, 12, 14, 1, 11, 2, 6, 8, 3, 9, 5, 4, 10]);
makespan = 332;
----------
assign = array1d(1..18 ,[6, 4, 6, 5, 4, 8, 3, 7, 2, 5, 1, 2, 3, 4, 5, 6, 7, 8]);
next = array1d(1..18 ,[16, 5, 1, 15, 14, 18, 13, 17, 12, 4, 9, 7, 2, 10, 3, 8, 6, 11]);
makespan = 331;
----------
assign = array1d(1..18 ,[6, 4, 7, 8, 3, 4, 2, 5, 6, 1, 1, 2, 3, 4, 5, 6, 7, 8]);
next = array1d(1..18 ,[16, 6, 17, 18, 13, 14, 12, 15, 1, 11, 7, 5, 2, 8, 9, 3, 4, 10]);
makespan = 330;
----------
assign = array1d(1..18 ,[6, 5, 3, 4, 8, 7, 2, 2, 6, 1, 1, 2, 3, 4, 5, 6, 7, 8]);
next = array1d(1..18 ,[16, 15, 13, 14, 18, 17, 12, 7, 1, 11, 8, 3, 4, 2, 9, 6, 5, 10]);
makespan = 329;
----------
assign = array1d(1..18 ,[1, 3, 6, 8, 1, 2, 5, 3, 7, 4, 1, 2, 3, 4, 5, 6, 7, 8]);
next = array1d(1..18 ,[5, 8, 16, 18, 11, 12, 15, 13, 17, 14, 6, 2, 10, 7, 3, 9, 4, 1]);
makespan = 328;
----------
assign = array1d(1..18 ,[8, 3, 5, 7, 6, 2, 4, 3, 6, 1, 1, 2, 3, 4, 5, 6, 7, 8]);
next = array1d(1..18 ,[18, 8, 15, 17, 9, 12, 14, 13, 16, 11, 6, 2, 7, 3, 5, 4, 1, 10]);
makespan = 327;
----------
assign = array1d(1..18 ,[2, 5, 4, 1, 6, 8, 7, 4, 6, 3, 1, 2, 3, 4, 5, 6, 7, 8]);
next = array1d(1..18 ,[12, 15, 14, 11, 9, 18, 17, 3, 16, 13, 1, 10, 8, 2, 5, 7, 6, 4]);
makespan = 326;
----------
assign = array1d(1..18 ,[6, 8, 2, 7, 3, 5, 2, 4, 6, 1, 1, 2, 3, 4, 5, 6, 7, 8]);
next = array1d(1..18 ,[16, 18, 7, 17, 13, 15, 12, 14, 1, 11, 3, 5, 8, 6, 9, 4, 2, 10]);
makespan = 325;
----------
assign = array1d(1..18 ,[7, 3, 4, 5, 2, 8, 6, 3, 1, 5, 1, 2, 3, 4, 5, 6, 7, 8]);
next = array1d(1..18 ,[17, 8, 14, 15, 12, 18, 16, 13, 11, 4, 5, 2, 3, 10, 7, 1, 6, 9]);
makespan = 324;
----------
assign = array1d(1..18 ,[6, 8, 3, 5, 6, 4, 7, 2, 1, 5, 1, 2, 3, 4, 5, 6, 7, 8]);
next = array1d(1..18 ,[5, 18, 13, 15, 16, 14, 17, 12, 11, 4, 8, 3, 6, 10, 1, 7, 2, 9]);
makespan = 323;
----------
assign = array1d(1..18 ,[7, 1, 4, 5, 6, 8, 2, 3, 6, 5, 1, 2, 3, 4, 5, 6, 7, 8]);
next = array1d(1..18 ,[17, 11, 14, 15, 9, 18, 12, 13, 16, 4, 7, 8, 3, 10, 5, 1, 6, 2]);
makespan = 322;
----------
assign = array1d(1..18 ,[8, 3, 3, 5, 2, 7, 1, 4, 6, 5, 1, 2, 3, 4, 5, 6, 7, 8]);
next = array1d(1..18 ,[18, 3, 13, 15, 12, 17, 11, 14, 16, 4, 5, 2, 8, 10, 9, 6, 1, 7]);
makespan = 321;
----------
assign = array1d(1..18 ,[6, 3, 3, 5, 6, 2, 8, 4, 7, 5, 1, 2, 3, 4, 5, 6, 7, 8]);
next = array1d(1..18 ,[5, 3, 13, 15, 16, 12, 18, 14, 17, 4, 6, 2, 8, 10, 1, 9, 7, 11]);
makespan = 320;
----------
assign = array1d(1..18 ,[8, 3, 3, 5, 6, 2, 1, 7, 6, 5, 1, 2, 3, 4, 5, 6, 7, 8]);
next = array1d(1..18 ,[18, 3, 13, 15, 9, 12, 11, 17, 16, 4, 6, 2, 14, 10, 5, 8, 1, 7]);
makespan = 319;
----------
assign = array1d(1..18 ,[8, 3, 3, 5, 6, 2, 1, 7, 6, 5, 1, 2, 3, 4, 5, 6, 7, 8]);
next = array1d(1..18 ,[18, 3, 13, 15, 9, 12, 11, 17, 16, 4, 6, 2, 14, 10, 5, 8, 1, 7]);
makespan = 318;
----------
assign = array1d(1..18 ,[8, 3, 3, 5, 6, 2, 1, 7, 6, 5, 1, 2, 3, 4, 5, 6, 7, 8]);
next = array1d(1..18 ,[18, 3, 13, 15, 9, 12, 11, 17, 16, 4, 6, 2, 14, 10, 5, 8, 1, 7]);
makespan = 317;
----------
assign = array1d(1..18 ,[1, 3, 3, 7, 6, 4, 5, 2, 6, 8, 1, 2, 3, 4, 5, 6, 7, 8]);
next = array1d(1..18 ,[11, 3, 13, 17, 9, 14, 15, 12, 16, 18, 8, 2, 6, 7, 5, 4, 10, 1]);
makespan = 316;
----------
assign = array1d(1..18 ,[6, 2, 4, 7, 5, 4, 2, 1, 8, 3, 1, 2, 3, 4, 5, 6, 7, 8]);
next = array1d(1..18 ,[16, 7, 14, 17, 15, 3, 12, 11, 18, 13, 2, 10, 6, 5, 1, 4, 9, 8]);
makespan = 315;
----------
assign = array1d(1..18 ,[8, 2, 4, 7, 6, 4, 2, 5, 6, 3, 1, 2, 3, 4, 5, 6, 7, 8]);
next = array1d(1..18 ,[18, 7, 14, 17, 9, 3, 12, 15, 16, 13, 2, 10, 6, 8, 5, 4, 1, 11]);
makespan = 314;
----------
assign = array1d(1..18 ,[8, 2, 4, 5, 6, 4, 2, 7, 6, 3, 1, 2, 3, 4, 5, 6, 7, 8]);
next = array1d(1..18 ,[18, 7, 14, 15, 9, 3, 12, 17, 16, 13, 2, 10, 6, 4, 5, 8, 1, 11]);
makespan = 313;
----------
assign = array1d(1..18 ,[8, 2, 5, 7, 6, 6, 2, 3, 1, 4, 1, 2, 3, 4, 5, 6, 7, 8]);
next = array1d(1..18 ,[18, 7, 15, 17, 6, 16, 12, 13, 11, 14, 2, 8, 10, 3, 5, 4, 1, 9]);
makespan = 312;
----------
assign = array1d(1..18 ,[3, 3, 7, 5, 6, 1, 8, 2, 6, 4, 1, 2, 3, 4, 5, 6, 7, 8]);
next = array1d(1..18 ,[2, 13, 17, 15, 9, 11, 18, 12, 16, 14, 8, 1, 10, 4, 5, 3, 7, 6]);
makespan = 311;
----------
assign = array1d(1..18 ,[3, 3, 8, 2, 6, 1, 5, 4, 6, 7, 1, 2, 3, 4, 5, 6, 7, 8]);
next = array1d(1..18 ,[2, 13, 18, 12, 9, 11, 15, 14, 16, 17, 4, 1, 8, 7, 5, 10, 3, 6]);
makespan = 310;
----------
==========
	Command being timed: "mzn-chuffed lbbd-datasets/Rabadi-2006/dzn-p-dominant/model.mzn lbbd-datasets/Rabadi-2006/dzn-p-dominant/10on8Rp50Rs50_11Ameer.dzn"
	User time (seconds): 1.26
	System time (seconds): 0.05
	Percent of CPU this job got: 20%
	Elapsed (wall clock) time (h:mm:ss or m:ss): 0:06.50
	Average shared text size (kbytes): 0
	Average unshared data size (kbytes): 0
	Average stack size (kbytes): 0
	Average total size (kbytes): 0
	Maximum resident set size (kbytes): 60144
	Average resident set size (kbytes): 0
	Major (requiring I/O) page faults: 0
	Minor (reclaiming a frame) page faults: 6062
	Voluntary context switches: 468
	Involuntary context switches: 4
	Swaps: 0
	File system inputs: 0
	File system outputs: 920
	Socket messages sent: 0
	Socket messages received: 0
	Signals delivered: 0
	Page size (bytes): 4096
	Exit status: 0
