+ /usr/bin/timeout 600 /usr/bin/time -v mzn-chuffed lbbd-datasets/Rabadi-2006/dzn-balanced/model.mzn lbbd-datasets/Rabadi-2006/dzn-balanced/9on4Rp50Rs50_13Ameer.dzn
% No search annotation given. Defaulting to VSIDS!
assign = array1d(1..13 ,[4, 4, 4, 4, 4, 4, 4, 4, 4, 1, 2, 3, 4]);
next = array1d(1..13 ,[2, 3, 4, 5, 6, 7, 8, 9, 13, 11, 12, 1, 10]);
makespan = 1163;
----------
assign = array1d(1..13 ,[4, 4, 4, 4, 4, 4, 4, 4, 4, 1, 2, 3, 4]);
next = array1d(1..13 ,[3, 4, 2, 5, 6, 7, 8, 9, 13, 11, 12, 1, 10]);
makespan = 1115;
----------
assign = array1d(1..13 ,[4, 4, 4, 4, 2, 4, 4, 4, 4, 1, 2, 3, 4]);
next = array1d(1..13 ,[2, 6, 4, 1, 11, 7, 8, 9, 13, 5, 12, 3, 10]);
makespan = 1079;
----------
assign = array1d(1..13 ,[4, 2, 4, 4, 4, 4, 4, 4, 4, 1, 2, 3, 4]);
next = array1d(1..13 ,[13, 11, 4, 8, 6, 7, 3, 9, 1, 2, 12, 5, 10]);
makespan = 1067;
----------
assign = array1d(1..13 ,[4, 4, 4, 4, 3, 4, 4, 4, 4, 1, 2, 3, 4]);
next = array1d(1..13 ,[2, 13, 4, 1, 12, 7, 8, 9, 3, 11, 5, 6, 10]);
makespan = 1065;
----------
assign = array1d(1..13 ,[4, 4, 4, 4, 3, 4, 4, 4, 4, 1, 2, 3, 4]);
next = array1d(1..13 ,[2, 3, 4, 13, 12, 7, 1, 9, 6, 11, 5, 8, 10]);
makespan = 1059;
----------
assign = array1d(1..13 ,[4, 4, 4, 4, 3, 4, 4, 4, 4, 1, 2, 3, 4]);
next = array1d(1..13 ,[2, 8, 4, 13, 12, 7, 1, 9, 3, 11, 5, 6, 10]);
makespan = 1056;
----------
assign = array1d(1..13 ,[4, 4, 4, 4, 2, 4, 3, 4, 4, 1, 2, 3, 4]);
next = array1d(1..13 ,[2, 6, 4, 13, 11, 8, 12, 9, 3, 5, 7, 1, 10]);
makespan = 1052;
----------
assign = array1d(1..13 ,[4, 4, 4, 4, 4, 4, 4, 2, 2, 1, 2, 3, 4]);
next = array1d(1..13 ,[2, 5, 4, 6, 3, 7, 13, 9, 11, 8, 12, 1, 10]);
makespan = 1020;
----------
assign = array1d(1..13 ,[4, 4, 4, 3, 3, 4, 4, 4, 4, 1, 2, 3, 4]);
next = array1d(1..13 ,[2, 8, 1, 12, 4, 7, 3, 9, 13, 11, 5, 6, 10]);
makespan = 1014;
----------
assign = array1d(1..13 ,[4, 4, 2, 4, 4, 4, 4, 4, 2, 1, 2, 3, 4]);
next = array1d(1..13 ,[8, 5, 9, 7, 13, 4, 1, 2, 11, 3, 12, 6, 10]);
makespan = 1005;
----------
assign = array1d(1..13 ,[4, 4, 4, 2, 4, 4, 4, 2, 4, 1, 2, 3, 4]);
next = array1d(1..13 ,[7, 5, 9, 11, 3, 2, 6, 4, 13, 8, 12, 1, 10]);
makespan = 1002;
----------
assign = array1d(1..13 ,[4, 4, 4, 4, 4, 1, 4, 2, 4, 1, 2, 3, 4]);
next = array1d(1..13 ,[9, 5, 4, 7, 3, 10, 13, 11, 2, 8, 12, 1, 6]);
makespan = 1001;
----------
assign = array1d(1..13 ,[4, 4, 4, 4, 4, 1, 4, 3, 4, 1, 2, 3, 4]);
next = array1d(1..13 ,[7, 5, 1, 13, 3, 10, 9, 12, 4, 11, 8, 2, 6]);
makespan = 999;
----------
assign = array1d(1..13 ,[1, 4, 4, 4, 4, 4, 1, 4, 4, 1, 2, 3, 4]);
next = array1d(1..13 ,[10, 9, 8, 13, 2, 4, 1, 5, 6, 11, 12, 3, 7]);
makespan = 998;
----------
assign = array1d(1..13 ,[2, 4, 4, 4, 4, 2, 4, 4, 4, 1, 2, 3, 4]);
next = array1d(1..13 ,[11, 5, 8, 7, 4, 1, 13, 9, 2, 6, 12, 3, 10]);
makespan = 997;
----------
assign = array1d(1..13 ,[4, 4, 4, 4, 4, 3, 4, 3, 4, 1, 2, 3, 4]);
next = array1d(1..13 ,[7, 4, 9, 13, 3, 8, 5, 12, 2, 11, 6, 1, 10]);
makespan = 993;
----------
assign = array1d(1..13 ,[4, 3, 1, 4, 4, 4, 4, 4, 4, 1, 2, 3, 4]);
next = array1d(1..13 ,[4, 12, 10, 7, 9, 5, 6, 1, 13, 11, 2, 8, 3]);
makespan = 992;
----------
assign = array1d(1..13 ,[4, 4, 3, 4, 4, 2, 4, 4, 4, 1, 2, 3, 4]);
next = array1d(1..13 ,[13, 7, 12, 9, 1, 11, 5, 4, 2, 6, 3, 8, 10]);
makespan = 991;
----------
assign = array1d(1..13 ,[4, 4, 4, 4, 4, 3, 4, 3, 4, 1, 2, 3, 4]);
next = array1d(1..13 ,[9, 5, 4, 7, 3, 8, 13, 12, 2, 11, 6, 1, 10]);
makespan = 990;
----------
assign = array1d(1..13 ,[1, 1, 4, 4, 4, 4, 4, 4, 4, 1, 2, 3, 4]);
next = array1d(1..13 ,[10, 1, 8, 7, 3, 9, 5, 6, 13, 11, 12, 4, 2]);
makespan = 988;
----------
assign = array1d(1..13 ,[4, 4, 3, 4, 4, 4, 4, 4, 3, 1, 2, 3, 4]);
next = array1d(1..13 ,[7, 8, 9, 13, 1, 4, 6, 5, 12, 11, 3, 2, 10]);
makespan = 986;
----------
assign = array1d(1..13 ,[1, 4, 4, 4, 4, 4, 1, 4, 4, 1, 2, 3, 4]);
next = array1d(1..13 ,[10, 9, 4, 6, 3, 8, 1, 2, 13, 11, 12, 5, 7]);
makespan = 983;
----------
assign = array1d(1..13 ,[4, 4, 4, 1, 4, 1, 4, 4, 4, 1, 2, 3, 4]);
next = array1d(1..13 ,[8, 1, 13, 6, 3, 10, 9, 5, 2, 11, 12, 7, 4]);
makespan = 979;
----------
assign = array1d(1..13 ,[1, 4, 1, 4, 4, 4, 4, 4, 4, 1, 2, 3, 4]);
next = array1d(1..13 ,[10, 5, 1, 7, 9, 4, 8, 2, 13, 11, 12, 6, 3]);
makespan = 978;
----------
assign = array1d(1..13 ,[4, 4, 3, 1, 4, 4, 4, 4, 4, 1, 2, 3, 4]);
next = array1d(1..13 ,[7, 6, 12, 10, 1, 5, 13, 9, 2, 11, 3, 8, 4]);
makespan = 976;
----------
assign = array1d(1..13 ,[4, 4, 3, 4, 4, 4, 3, 4, 4, 1, 2, 3, 4]);
next = array1d(1..13 ,[4, 5, 7, 9, 1, 8, 12, 2, 13, 11, 3, 6, 10]);
makespan = 974;
----------
assign = array1d(1..13 ,[4, 3, 4, 4, 4, 3, 4, 4, 4, 1, 2, 3, 4]);
next = array1d(1..13 ,[7, 6, 9, 1, 3, 12, 5, 13, 8, 11, 2, 4, 10]);
makespan = 972;
----------
assign = array1d(1..13 ,[4, 4, 4, 3, 4, 3, 4, 4, 4, 1, 2, 3, 4]);
next = array1d(1..13 ,[7, 9, 8, 12, 3, 4, 13, 1, 5, 11, 6, 2, 10]);
makespan = 971;
----------
assign = array1d(1..13 ,[4, 4, 4, 4, 4, 3, 1, 4, 4, 1, 2, 3, 4]);
next = array1d(1..13 ,[4, 5, 1, 13, 3, 12, 10, 9, 2, 11, 6, 8, 7]);
makespan = 968;
----------
assign = array1d(1..13 ,[4, 4, 4, 1, 4, 1, 4, 4, 4, 1, 2, 3, 4]);
next = array1d(1..13 ,[13, 8, 7, 6, 9, 10, 5, 1, 2, 11, 12, 3, 4]);
makespan = 967;
----------
assign = array1d(1..13 ,[2, 4, 4, 4, 4, 4, 1, 4, 4, 1, 2, 3, 4]);
next = array1d(1..13 ,[11, 5, 6, 9, 3, 4, 10, 2, 13, 1, 12, 8, 7]);
makespan = 966;
----------
assign = array1d(1..13 ,[1, 4, 4, 1, 4, 4, 4, 4, 4, 1, 2, 3, 4]);
next = array1d(1..13 ,[4, 9, 8, 10, 3, 13, 5, 2, 6, 11, 12, 7, 1]);
makespan = 965;
----------
assign = array1d(1..13 ,[4, 4, 3, 4, 4, 4, 1, 4, 4, 1, 2, 3, 4]);
next = array1d(1..13 ,[9, 5, 12, 6, 13, 8, 10, 1, 2, 11, 3, 4, 7]);
makespan = 964;
----------
assign = array1d(1..13 ,[1, 1, 4, 4, 4, 4, 4, 4, 4, 1, 2, 3, 4]);
next = array1d(1..13 ,[10, 1, 8, 7, 3, 9, 5, 6, 13, 11, 12, 4, 2]);
makespan = 963;
----------
assign = array1d(1..13 ,[4, 3, 3, 4, 4, 4, 4, 4, 4, 1, 2, 3, 4]);
next = array1d(1..13 ,[6, 3, 12, 13, 1, 4, 9, 5, 8, 11, 2, 7, 10]);
makespan = 962;
----------
assign = array1d(1..13 ,[4, 4, 3, 3, 4, 4, 4, 4, 4, 1, 2, 3, 4]);
next = array1d(1..13 ,[7, 9, 4, 12, 2, 8, 5, 13, 6, 11, 3, 1, 10]);
makespan = 961;
----------
assign = array1d(1..13 ,[1, 4, 4, 4, 4, 2, 4, 4, 4, 1, 2, 3, 4]);
next = array1d(1..13 ,[10, 3, 9, 7, 2, 11, 5, 4, 13, 6, 12, 8, 1]);
makespan = 960;
----------
assign = array1d(1..13 ,[4, 3, 4, 4, 4, 3, 4, 4, 4, 1, 2, 3, 4]);
next = array1d(1..13 ,[8, 6, 1, 13, 9, 12, 5, 4, 3, 11, 2, 7, 10]);
makespan = 959;
----------
assign = array1d(1..13 ,[4, 4, 2, 4, 4, 3, 4, 4, 4, 1, 2, 3, 4]);
next = array1d(1..13 ,[7, 9, 11, 13, 2, 12, 5, 1, 4, 3, 6, 8, 10]);
makespan = 958;
----------
assign = array1d(1..13 ,[1, 4, 4, 4, 4, 3, 4, 4, 4, 1, 2, 3, 4]);
next = array1d(1..13 ,[10, 3, 9, 7, 2, 12, 5, 4, 13, 11, 6, 8, 1]);
makespan = 957;
----------
assign = array1d(1..13 ,[1, 4, 3, 4, 4, 4, 4, 4, 4, 1, 2, 3, 4]);
next = array1d(1..13 ,[10, 6, 12, 9, 13, 7, 5, 4, 2, 11, 3, 8, 1]);
makespan = 956;
----------
assign = array1d(1..13 ,[1, 4, 4, 4, 4, 2, 4, 4, 4, 1, 2, 3, 4]);
next = array1d(1..13 ,[10, 9, 4, 13, 3, 11, 5, 2, 7, 6, 12, 8, 1]);
makespan = 955;
----------
assign = array1d(1..13 ,[1, 4, 4, 4, 4, 3, 4, 4, 4, 1, 2, 3, 4]);
next = array1d(1..13 ,[10, 13, 8, 7, 3, 12, 9, 2, 5, 11, 6, 4, 1]);
makespan = 952;
----------
assign = array1d(1..13 ,[1, 4, 2, 4, 4, 4, 4, 4, 4, 1, 2, 3, 4]);
next = array1d(1..13 ,[10, 8, 11, 7, 9, 5, 13, 4, 2, 3, 12, 6, 1]);
makespan = 951;
----------
assign = array1d(1..13 ,[1, 4, 1, 4, 4, 4, 4, 4, 4, 1, 2, 3, 4]);
next = array1d(1..13 ,[10, 5, 1, 7, 9, 8, 13, 4, 6, 11, 12, 2, 3]);
makespan = 949;
----------
assign = array1d(1..13 ,[1, 4, 4, 4, 4, 1, 4, 4, 4, 1, 2, 3, 4]);
next = array1d(1..13 ,[10, 9, 4, 13, 3, 1, 5, 2, 7, 11, 12, 8, 6]);
makespan = 948;
----------
assign = array1d(1..13 ,[1, 4, 2, 4, 4, 4, 4, 4, 4, 1, 2, 3, 4]);
next = array1d(1..13 ,[10, 5, 11, 7, 6, 8, 9, 4, 13, 3, 12, 2, 1]);
makespan = 947;
----------
assign = array1d(1..13 ,[1, 4, 2, 4, 4, 4, 4, 4, 4, 1, 2, 3, 4]);
next = array1d(1..13 ,[10, 13, 11, 6, 2, 5, 9, 4, 8, 3, 12, 7, 1]);
makespan = 945;
----------
assign = array1d(1..13 ,[1, 4, 4, 4, 4, 1, 4, 4, 4, 1, 2, 3, 4]);
next = array1d(1..13 ,[6, 5, 9, 7, 3, 10, 8, 2, 13, 11, 12, 4, 1]);
makespan = 944;
----------
assign = array1d(1..13 ,[3, 4, 4, 4, 4, 2, 4, 4, 4, 1, 2, 3, 4]);
next = array1d(1..13 ,[12, 3, 9, 7, 2, 11, 5, 4, 13, 6, 1, 8, 10]);
makespan = 943;
----------
assign = array1d(1..13 ,[1, 4, 3, 4, 4, 4, 4, 4, 4, 1, 2, 3, 4]);
next = array1d(1..13 ,[10, 6, 12, 7, 2, 8, 9, 13, 5, 11, 3, 4, 1]);
makespan = 941;
----------
assign = array1d(1..13 ,[1, 4, 3, 4, 4, 4, 4, 4, 4, 1, 2, 3, 4]);
next = array1d(1..13 ,[10, 9, 12, 7, 2, 8, 6, 5, 13, 11, 3, 4, 1]);
makespan = 940;
----------
assign = array1d(1..13 ,[1, 4, 3, 4, 4, 4, 4, 4, 4, 1, 2, 3, 4]);
next = array1d(1..13 ,[10, 5, 12, 7, 6, 13, 9, 4, 2, 11, 3, 8, 1]);
makespan = 939;
----------
assign = array1d(1..13 ,[1, 4, 4, 4, 4, 2, 4, 4, 4, 1, 2, 3, 4]);
next = array1d(1..13 ,[10, 3, 8, 7, 9, 11, 5, 4, 13, 6, 12, 2, 1]);
makespan = 938;
----------
assign = array1d(1..13 ,[1, 4, 3, 4, 4, 4, 4, 4, 4, 1, 2, 3, 4]);
next = array1d(1..13 ,[10, 9, 12, 7, 2, 8, 5, 4, 13, 11, 3, 6, 1]);
makespan = 937;
----------
assign = array1d(1..13 ,[1, 4, 4, 4, 4, 1, 4, 4, 4, 1, 2, 3, 4]);
next = array1d(1..13 ,[10, 3, 8, 7, 9, 1, 13, 4, 2, 11, 12, 5, 6]);
makespan = 936;
----------
assign = array1d(1..13 ,[1, 4, 4, 4, 4, 1, 4, 4, 4, 1, 2, 3, 4]);
next = array1d(1..13 ,[10, 3, 8, 7, 9, 1, 13, 4, 2, 11, 12, 5, 6]);
makespan = 935;
----------
assign = array1d(1..13 ,[1, 4, 4, 4, 4, 1, 4, 4, 4, 1, 2, 3, 4]);
next = array1d(1..13 ,[10, 3, 8, 7, 9, 1, 13, 4, 2, 11, 12, 5, 6]);
makespan = 933;
----------
assign = array1d(1..13 ,[1, 4, 4, 4, 4, 1, 4, 4, 4, 1, 2, 3, 4]);
next = array1d(1..13 ,[10, 3, 8, 7, 9, 1, 13, 4, 2, 11, 12, 5, 6]);
makespan = 931;
----------
assign = array1d(1..13 ,[1, 4, 4, 4, 4, 1, 4, 4, 4, 1, 2, 3, 4]);
next = array1d(1..13 ,[10, 3, 8, 7, 9, 1, 13, 4, 2, 11, 12, 5, 6]);
makespan = 930;
----------
assign = array1d(1..13 ,[1, 4, 4, 4, 4, 1, 4, 4, 4, 1, 2, 3, 4]);
next = array1d(1..13 ,[10, 3, 8, 7, 9, 1, 13, 4, 2, 11, 12, 5, 6]);
makespan = 929;
----------
assign = array1d(1..13 ,[1, 4, 4, 4, 4, 2, 4, 4, 4, 1, 2, 3, 4]);
next = array1d(1..13 ,[10, 3, 8, 9, 2, 11, 5, 4, 13, 6, 12, 7, 1]);
makespan = 928;
----------
assign = array1d(1..13 ,[1, 4, 3, 4, 4, 4, 4, 4, 4, 1, 2, 3, 4]);
next = array1d(1..13 ,[10, 8, 12, 7, 9, 4, 13, 6, 2, 11, 3, 5, 1]);
makespan = 927;
----------
assign = array1d(1..13 ,[1, 4, 3, 1, 4, 4, 4, 4, 4, 1, 2, 3, 4]);
next = array1d(1..13 ,[10, 8, 12, 1, 9, 13, 5, 6, 2, 11, 3, 7, 4]);
makespan = 926;
----------
assign = array1d(1..13 ,[1, 4, 3, 1, 4, 4, 4, 4, 4, 1, 2, 3, 4]);
next = array1d(1..13 ,[10, 8, 12, 1, 9, 13, 5, 6, 2, 11, 3, 7, 4]);
makespan = 925;
----------
assign = array1d(1..13 ,[1, 4, 3, 1, 4, 4, 4, 4, 4, 1, 2, 3, 4]);
next = array1d(1..13 ,[10, 8, 12, 1, 9, 13, 5, 6, 2, 11, 3, 7, 4]);
makespan = 921;
----------
assign = array1d(1..13 ,[1, 4, 3, 1, 4, 4, 4, 4, 4, 1, 2, 3, 4]);
next = array1d(1..13 ,[10, 8, 12, 1, 9, 13, 5, 6, 2, 11, 3, 7, 4]);
makespan = 917;
----------
assign = array1d(1..13 ,[1, 4, 3, 1, 4, 4, 4, 4, 4, 1, 2, 3, 4]);
next = array1d(1..13 ,[10, 8, 12, 1, 9, 13, 5, 6, 2, 11, 3, 7, 4]);
makespan = 914;
----------
assign = array1d(1..13 ,[1, 4, 3, 1, 4, 4, 4, 4, 4, 1, 2, 3, 4]);
next = array1d(1..13 ,[10, 8, 12, 1, 9, 13, 5, 6, 2, 11, 3, 7, 4]);
makespan = 913;
----------
assign = array1d(1..13 ,[1, 4, 3, 1, 4, 4, 4, 4, 4, 1, 2, 3, 4]);
next = array1d(1..13 ,[10, 8, 12, 1, 9, 13, 5, 6, 2, 11, 3, 7, 4]);
makespan = 910;
----------
assign = array1d(1..13 ,[1, 4, 3, 1, 4, 4, 4, 4, 4, 1, 2, 3, 4]);
next = array1d(1..13 ,[10, 8, 12, 1, 9, 13, 5, 6, 2, 11, 3, 7, 4]);
makespan = 909;
----------
assign = array1d(1..13 ,[1, 4, 3, 1, 4, 4, 4, 4, 4, 1, 2, 3, 4]);
next = array1d(1..13 ,[10, 8, 12, 1, 9, 13, 5, 6, 2, 11, 3, 7, 4]);
makespan = 908;
----------
assign = array1d(1..13 ,[1, 4, 3, 1, 4, 4, 4, 4, 4, 1, 2, 3, 4]);
next = array1d(1..13 ,[10, 8, 12, 1, 9, 13, 5, 6, 2, 11, 3, 7, 4]);
makespan = 907;
----------
assign = array1d(1..13 ,[1, 4, 3, 1, 4, 4, 4, 4, 4, 1, 2, 3, 4]);
next = array1d(1..13 ,[10, 8, 12, 1, 9, 13, 5, 6, 2, 11, 3, 7, 4]);
makespan = 906;
----------
assign = array1d(1..13 ,[1, 4, 3, 1, 4, 4, 4, 4, 4, 1, 2, 3, 4]);
next = array1d(1..13 ,[10, 8, 12, 1, 9, 13, 5, 6, 2, 11, 3, 7, 4]);
makespan = 905;
----------
assign = array1d(1..13 ,[1, 4, 3, 1, 4, 4, 4, 4, 4, 1, 2, 3, 4]);
next = array1d(1..13 ,[10, 8, 12, 1, 9, 13, 5, 6, 2, 11, 3, 7, 4]);
makespan = 904;
----------
assign = array1d(1..13 ,[1, 4, 3, 1, 4, 4, 4, 4, 4, 1, 2, 3, 4]);
next = array1d(1..13 ,[10, 8, 12, 1, 9, 13, 5, 6, 2, 11, 3, 7, 4]);
makespan = 903;
----------
assign = array1d(1..13 ,[1, 4, 3, 1, 4, 4, 4, 4, 4, 1, 2, 3, 4]);
next = array1d(1..13 ,[10, 8, 12, 1, 9, 13, 5, 6, 2, 11, 3, 7, 4]);
makespan = 901;
----------
assign = array1d(1..13 ,[1, 4, 3, 1, 4, 4, 4, 4, 4, 1, 2, 3, 4]);
next = array1d(1..13 ,[10, 8, 12, 1, 9, 13, 5, 6, 2, 11, 3, 7, 4]);
makespan = 898;
----------
assign = array1d(1..13 ,[1, 4, 3, 1, 4, 4, 4, 4, 4, 1, 2, 3, 4]);
next = array1d(1..13 ,[10, 8, 12, 1, 9, 13, 5, 6, 2, 11, 3, 7, 4]);
makespan = 895;
----------
assign = array1d(1..13 ,[1, 4, 3, 1, 4, 4, 4, 4, 4, 1, 2, 3, 4]);
next = array1d(1..13 ,[10, 8, 12, 1, 9, 13, 5, 6, 2, 11, 3, 7, 4]);
makespan = 893;
----------
assign = array1d(1..13 ,[1, 4, 3, 1, 4, 4, 4, 4, 4, 1, 2, 3, 4]);
next = array1d(1..13 ,[10, 8, 12, 1, 9, 13, 5, 6, 2, 11, 3, 7, 4]);
makespan = 891;
----------
assign = array1d(1..13 ,[1, 4, 3, 1, 4, 4, 4, 4, 4, 1, 2, 3, 4]);
next = array1d(1..13 ,[10, 8, 12, 1, 9, 13, 5, 6, 2, 11, 3, 7, 4]);
makespan = 890;
----------
assign = array1d(1..13 ,[1, 4, 3, 1, 4, 4, 4, 4, 4, 1, 2, 3, 4]);
next = array1d(1..13 ,[10, 8, 12, 1, 9, 13, 5, 6, 2, 11, 3, 7, 4]);
makespan = 889;
----------
assign = array1d(1..13 ,[1, 4, 3, 1, 4, 4, 4, 4, 4, 1, 2, 3, 4]);
next = array1d(1..13 ,[10, 8, 12, 1, 9, 13, 5, 6, 2, 11, 3, 7, 4]);
makespan = 886;
----------
assign = array1d(1..13 ,[1, 4, 3, 1, 4, 4, 4, 4, 4, 1, 2, 3, 4]);
next = array1d(1..13 ,[10, 8, 12, 1, 9, 13, 5, 6, 2, 11, 3, 7, 4]);
makespan = 883;
----------
assign = array1d(1..13 ,[1, 4, 3, 1, 4, 4, 4, 4, 4, 1, 2, 3, 4]);
next = array1d(1..13 ,[10, 8, 12, 1, 9, 13, 5, 6, 2, 11, 3, 7, 4]);
makespan = 882;
----------
assign = array1d(1..13 ,[1, 4, 3, 1, 4, 4, 4, 4, 4, 1, 2, 3, 4]);
next = array1d(1..13 ,[10, 8, 12, 1, 9, 13, 5, 6, 2, 11, 3, 7, 4]);
makespan = 880;
----------
assign = array1d(1..13 ,[1, 4, 3, 1, 4, 4, 4, 4, 4, 1, 2, 3, 4]);
next = array1d(1..13 ,[10, 8, 12, 1, 9, 13, 5, 6, 2, 11, 3, 7, 4]);
makespan = 879;
----------
assign = array1d(1..13 ,[1, 4, 3, 1, 4, 4, 4, 4, 4, 1, 2, 3, 4]);
next = array1d(1..13 ,[10, 8, 12, 1, 9, 13, 5, 6, 2, 11, 3, 7, 4]);
makespan = 878;
----------
assign = array1d(1..13 ,[1, 4, 3, 1, 4, 4, 4, 4, 4, 1, 2, 3, 4]);
next = array1d(1..13 ,[10, 8, 12, 1, 9, 13, 5, 6, 2, 11, 3, 7, 4]);
makespan = 877;
----------
assign = array1d(1..13 ,[1, 4, 3, 1, 4, 4, 4, 4, 4, 1, 2, 3, 4]);
next = array1d(1..13 ,[10, 8, 12, 1, 9, 13, 5, 6, 2, 11, 3, 7, 4]);
makespan = 875;
----------
assign = array1d(1..13 ,[1, 4, 3, 1, 4, 4, 4, 4, 4, 1, 2, 3, 4]);
next = array1d(1..13 ,[10, 8, 12, 1, 9, 13, 5, 6, 2, 11, 3, 7, 4]);
makespan = 874;
----------
assign = array1d(1..13 ,[1, 4, 3, 1, 4, 4, 4, 4, 4, 1, 2, 3, 4]);
next = array1d(1..13 ,[10, 8, 12, 1, 9, 13, 5, 6, 2, 11, 3, 7, 4]);
makespan = 871;
----------
assign = array1d(1..13 ,[1, 4, 3, 1, 4, 4, 4, 4, 4, 1, 2, 3, 4]);
next = array1d(1..13 ,[10, 8, 12, 1, 9, 13, 5, 6, 2, 11, 3, 7, 4]);
makespan = 869;
----------
assign = array1d(1..13 ,[1, 4, 3, 1, 4, 4, 4, 4, 4, 1, 2, 3, 4]);
next = array1d(1..13 ,[10, 8, 12, 1, 9, 13, 5, 6, 2, 11, 3, 7, 4]);
makespan = 868;
----------
assign = array1d(1..13 ,[1, 4, 3, 1, 4, 4, 4, 4, 4, 1, 2, 3, 4]);
next = array1d(1..13 ,[10, 8, 12, 1, 9, 13, 5, 6, 2, 11, 3, 7, 4]);
makespan = 867;
----------
assign = array1d(1..13 ,[1, 4, 3, 1, 4, 4, 4, 4, 4, 1, 2, 3, 4]);
next = array1d(1..13 ,[10, 8, 12, 1, 9, 13, 5, 6, 2, 11, 3, 7, 4]);
makespan = 866;
----------
assign = array1d(1..13 ,[1, 4, 3, 1, 4, 4, 4, 4, 4, 1, 2, 3, 4]);
next = array1d(1..13 ,[10, 8, 12, 1, 9, 13, 5, 6, 2, 11, 3, 7, 4]);
makespan = 863;
----------
assign = array1d(1..13 ,[1, 4, 3, 1, 4, 4, 4, 4, 4, 1, 2, 3, 4]);
next = array1d(1..13 ,[10, 8, 12, 1, 9, 13, 5, 6, 2, 11, 3, 7, 4]);
makespan = 860;
----------
assign = array1d(1..13 ,[1, 4, 3, 1, 4, 4, 4, 4, 4, 1, 2, 3, 4]);
next = array1d(1..13 ,[10, 8, 12, 1, 9, 13, 5, 6, 2, 11, 3, 7, 4]);
makespan = 859;
----------
assign = array1d(1..13 ,[1, 4, 3, 1, 4, 4, 4, 4, 4, 1, 2, 3, 4]);
next = array1d(1..13 ,[10, 8, 12, 1, 9, 13, 5, 6, 2, 11, 3, 7, 4]);
makespan = 858;
----------
assign = array1d(1..13 ,[1, 4, 3, 1, 4, 4, 4, 4, 4, 1, 2, 3, 4]);
next = array1d(1..13 ,[10, 8, 12, 1, 9, 13, 5, 6, 2, 11, 3, 7, 4]);
makespan = 857;
----------
assign = array1d(1..13 ,[1, 4, 3, 1, 4, 4, 4, 4, 4, 1, 2, 3, 4]);
next = array1d(1..13 ,[10, 8, 12, 1, 9, 13, 5, 6, 2, 11, 3, 7, 4]);
makespan = 856;
----------
assign = array1d(1..13 ,[1, 4, 3, 1, 4, 4, 4, 4, 4, 1, 2, 3, 4]);
next = array1d(1..13 ,[10, 8, 12, 1, 9, 13, 5, 6, 2, 11, 3, 7, 4]);
makespan = 855;
----------
assign = array1d(1..13 ,[1, 4, 3, 1, 4, 4, 4, 4, 4, 1, 2, 3, 4]);
next = array1d(1..13 ,[10, 8, 12, 1, 9, 13, 5, 6, 2, 11, 3, 7, 4]);
makespan = 854;
----------
assign = array1d(1..13 ,[1, 4, 3, 1, 4, 4, 4, 4, 4, 1, 2, 3, 4]);
next = array1d(1..13 ,[10, 8, 12, 1, 9, 13, 5, 6, 2, 11, 3, 7, 4]);
makespan = 853;
----------
assign = array1d(1..13 ,[1, 4, 3, 1, 4, 4, 4, 4, 4, 1, 2, 3, 4]);
next = array1d(1..13 ,[10, 8, 12, 1, 9, 13, 5, 6, 2, 11, 3, 7, 4]);
makespan = 852;
----------
assign = array1d(1..13 ,[1, 4, 3, 1, 4, 4, 4, 4, 4, 1, 2, 3, 4]);
next = array1d(1..13 ,[10, 8, 12, 1, 9, 13, 5, 6, 2, 11, 3, 7, 4]);
makespan = 851;
----------
assign = array1d(1..13 ,[1, 4, 3, 1, 4, 4, 4, 4, 4, 1, 2, 3, 4]);
next = array1d(1..13 ,[10, 8, 12, 1, 9, 13, 5, 6, 2, 11, 3, 7, 4]);
makespan = 850;
----------
assign = array1d(1..13 ,[1, 4, 3, 1, 4, 4, 4, 4, 4, 1, 2, 3, 4]);
next = array1d(1..13 ,[10, 8, 12, 1, 9, 13, 5, 6, 2, 11, 3, 7, 4]);
makespan = 849;
----------
assign = array1d(1..13 ,[1, 4, 3, 1, 4, 4, 4, 4, 4, 1, 2, 3, 4]);
next = array1d(1..13 ,[10, 8, 12, 1, 9, 13, 5, 6, 2, 11, 3, 7, 4]);
makespan = 848;
----------
assign = array1d(1..13 ,[1, 4, 3, 1, 4, 4, 4, 4, 4, 1, 2, 3, 4]);
next = array1d(1..13 ,[10, 8, 12, 1, 9, 13, 5, 6, 2, 11, 3, 7, 4]);
makespan = 847;
----------
assign = array1d(1..13 ,[1, 4, 3, 1, 4, 4, 4, 4, 4, 1, 2, 3, 4]);
next = array1d(1..13 ,[10, 8, 12, 1, 9, 13, 5, 6, 2, 11, 3, 7, 4]);
makespan = 844;
----------
assign = array1d(1..13 ,[1, 4, 3, 1, 4, 4, 4, 4, 4, 1, 2, 3, 4]);
next = array1d(1..13 ,[10, 8, 12, 1, 9, 13, 5, 6, 2, 11, 3, 7, 4]);
makespan = 841;
----------
assign = array1d(1..13 ,[1, 4, 3, 1, 4, 4, 4, 4, 4, 1, 2, 3, 4]);
next = array1d(1..13 ,[10, 8, 12, 1, 9, 13, 5, 6, 2, 11, 3, 7, 4]);
makespan = 839;
----------
assign = array1d(1..13 ,[1, 4, 3, 1, 4, 4, 4, 4, 4, 1, 2, 3, 4]);
next = array1d(1..13 ,[10, 8, 12, 1, 9, 13, 5, 6, 2, 11, 3, 7, 4]);
makespan = 836;
----------
assign = array1d(1..13 ,[1, 4, 3, 1, 4, 4, 4, 4, 4, 1, 2, 3, 4]);
next = array1d(1..13 ,[10, 8, 12, 1, 9, 13, 5, 6, 2, 11, 3, 7, 4]);
makespan = 832;
----------
assign = array1d(1..13 ,[1, 4, 3, 1, 4, 4, 4, 4, 4, 1, 2, 3, 4]);
next = array1d(1..13 ,[10, 8, 12, 1, 9, 13, 5, 6, 2, 11, 3, 7, 4]);
makespan = 828;
----------
assign = array1d(1..13 ,[1, 4, 3, 1, 4, 4, 4, 4, 4, 1, 2, 3, 4]);
next = array1d(1..13 ,[10, 8, 12, 1, 9, 13, 5, 6, 2, 11, 3, 7, 4]);
makespan = 825;
----------
assign = array1d(1..13 ,[1, 4, 3, 1, 4, 4, 4, 4, 4, 1, 2, 3, 4]);
next = array1d(1..13 ,[10, 8, 12, 1, 9, 13, 5, 6, 2, 11, 3, 7, 4]);
makespan = 824;
----------
assign = array1d(1..13 ,[1, 4, 3, 1, 4, 4, 4, 4, 4, 1, 2, 3, 4]);
next = array1d(1..13 ,[10, 8, 12, 1, 9, 13, 5, 6, 2, 11, 3, 7, 4]);
makespan = 821;
----------
assign = array1d(1..13 ,[1, 4, 3, 1, 4, 4, 4, 4, 4, 1, 2, 3, 4]);
next = array1d(1..13 ,[10, 8, 12, 1, 9, 13, 5, 6, 2, 11, 3, 7, 4]);
makespan = 820;
----------
assign = array1d(1..13 ,[1, 4, 3, 1, 4, 4, 4, 4, 4, 1, 2, 3, 4]);
next = array1d(1..13 ,[10, 8, 12, 1, 9, 13, 5, 6, 2, 11, 3, 7, 4]);
makespan = 819;
----------
assign = array1d(1..13 ,[1, 4, 3, 1, 4, 4, 4, 4, 4, 1, 2, 3, 4]);
next = array1d(1..13 ,[10, 8, 12, 1, 9, 13, 5, 6, 2, 11, 3, 7, 4]);
makespan = 818;
----------
assign = array1d(1..13 ,[1, 4, 3, 1, 4, 4, 4, 4, 4, 1, 2, 3, 4]);
next = array1d(1..13 ,[10, 8, 12, 1, 9, 13, 5, 6, 2, 11, 3, 7, 4]);
makespan = 817;
----------
assign = array1d(1..13 ,[1, 4, 3, 1, 4, 4, 4, 4, 4, 1, 2, 3, 4]);
next = array1d(1..13 ,[10, 8, 12, 1, 9, 13, 5, 6, 2, 11, 3, 7, 4]);
makespan = 816;
----------
assign = array1d(1..13 ,[1, 4, 3, 1, 4, 4, 4, 4, 4, 1, 2, 3, 4]);
next = array1d(1..13 ,[10, 8, 12, 1, 9, 13, 5, 6, 2, 11, 3, 7, 4]);
makespan = 815;
----------
assign = array1d(1..13 ,[1, 4, 3, 1, 4, 4, 4, 4, 4, 1, 2, 3, 4]);
next = array1d(1..13 ,[10, 8, 12, 1, 9, 13, 5, 6, 2, 11, 3, 7, 4]);
makespan = 814;
----------
assign = array1d(1..13 ,[1, 4, 3, 1, 4, 4, 4, 4, 4, 1, 2, 3, 4]);
next = array1d(1..13 ,[10, 8, 12, 1, 9, 13, 5, 6, 2, 11, 3, 7, 4]);
makespan = 813;
----------
assign = array1d(1..13 ,[1, 4, 3, 1, 4, 4, 4, 4, 4, 1, 2, 3, 4]);
next = array1d(1..13 ,[10, 8, 12, 1, 9, 13, 5, 6, 2, 11, 3, 7, 4]);
makespan = 812;
----------
assign = array1d(1..13 ,[1, 4, 3, 1, 4, 4, 4, 4, 4, 1, 2, 3, 4]);
next = array1d(1..13 ,[10, 8, 12, 1, 9, 13, 5, 6, 2, 11, 3, 7, 4]);
makespan = 810;
----------
assign = array1d(1..13 ,[1, 4, 3, 1, 4, 4, 4, 4, 4, 1, 2, 3, 4]);
next = array1d(1..13 ,[10, 8, 12, 1, 9, 13, 5, 6, 2, 11, 3, 7, 4]);
makespan = 809;
----------
assign = array1d(1..13 ,[1, 4, 3, 1, 4, 4, 4, 4, 4, 1, 2, 3, 4]);
next = array1d(1..13 ,[10, 8, 12, 1, 9, 13, 5, 6, 2, 11, 3, 7, 4]);
makespan = 806;
----------
assign = array1d(1..13 ,[1, 4, 3, 1, 4, 4, 4, 4, 4, 1, 2, 3, 4]);
next = array1d(1..13 ,[10, 8, 12, 1, 9, 13, 5, 6, 2, 11, 3, 7, 4]);
makespan = 804;
----------
assign = array1d(1..13 ,[1, 4, 3, 1, 4, 4, 4, 4, 4, 1, 2, 3, 4]);
next = array1d(1..13 ,[10, 8, 12, 1, 9, 13, 5, 6, 2, 11, 3, 7, 4]);
makespan = 803;
----------
assign = array1d(1..13 ,[1, 4, 3, 1, 4, 4, 4, 4, 4, 1, 2, 3, 4]);
next = array1d(1..13 ,[10, 8, 12, 1, 9, 13, 5, 6, 2, 11, 3, 7, 4]);
makespan = 802;
----------
assign = array1d(1..13 ,[1, 4, 3, 1, 4, 4, 4, 4, 4, 1, 2, 3, 4]);
next = array1d(1..13 ,[10, 8, 12, 1, 9, 13, 5, 6, 2, 11, 3, 7, 4]);
makespan = 801;
----------
assign = array1d(1..13 ,[1, 4, 3, 1, 4, 4, 4, 4, 4, 1, 2, 3, 4]);
next = array1d(1..13 ,[10, 8, 12, 1, 9, 13, 5, 6, 2, 11, 3, 7, 4]);
makespan = 800;
----------
assign = array1d(1..13 ,[1, 4, 3, 1, 4, 4, 4, 4, 4, 1, 2, 3, 4]);
next = array1d(1..13 ,[10, 8, 12, 1, 9, 13, 5, 6, 2, 11, 3, 7, 4]);
makespan = 799;
----------
assign = array1d(1..13 ,[1, 4, 3, 1, 4, 4, 4, 4, 4, 1, 2, 3, 4]);
next = array1d(1..13 ,[10, 8, 12, 1, 9, 13, 5, 6, 2, 11, 3, 7, 4]);
makespan = 798;
----------
assign = array1d(1..13 ,[1, 4, 3, 1, 4, 4, 4, 4, 4, 1, 2, 3, 4]);
next = array1d(1..13 ,[10, 8, 12, 1, 9, 13, 5, 6, 2, 11, 3, 7, 4]);
makespan = 797;
----------
assign = array1d(1..13 ,[1, 4, 3, 1, 4, 4, 4, 4, 4, 1, 2, 3, 4]);
next = array1d(1..13 ,[10, 8, 12, 1, 9, 13, 5, 6, 2, 11, 3, 7, 4]);
makespan = 794;
----------
assign = array1d(1..13 ,[1, 4, 3, 1, 4, 4, 4, 4, 4, 1, 2, 3, 4]);
next = array1d(1..13 ,[10, 8, 12, 1, 9, 13, 5, 6, 2, 11, 3, 7, 4]);
makespan = 793;
----------
assign = array1d(1..13 ,[1, 4, 3, 1, 4, 4, 4, 4, 4, 1, 2, 3, 4]);
next = array1d(1..13 ,[10, 8, 12, 1, 9, 13, 5, 6, 2, 11, 3, 7, 4]);
makespan = 790;
----------
assign = array1d(1..13 ,[1, 4, 3, 1, 4, 4, 4, 4, 4, 1, 2, 3, 4]);
next = array1d(1..13 ,[10, 8, 12, 1, 9, 13, 5, 6, 2, 11, 3, 7, 4]);
makespan = 788;
----------
assign = array1d(1..13 ,[1, 4, 1, 1, 4, 4, 4, 4, 4, 1, 2, 3, 4]);
next = array1d(1..13 ,[3, 8, 10, 1, 9, 7, 13, 6, 2, 11, 12, 5, 4]);
makespan = 786;
----------
assign = array1d(1..13 ,[1, 4, 1, 1, 4, 4, 4, 4, 4, 1, 2, 3, 4]);
next = array1d(1..13 ,[3, 8, 10, 1, 9, 7, 13, 6, 2, 11, 12, 5, 4]);
makespan = 785;
----------
assign = array1d(1..13 ,[1, 4, 1, 1, 4, 4, 4, 4, 4, 1, 2, 3, 4]);
next = array1d(1..13 ,[3, 8, 10, 1, 9, 7, 13, 6, 2, 11, 12, 5, 4]);
makespan = 784;
----------
assign = array1d(1..13 ,[1, 4, 1, 1, 4, 4, 4, 4, 4, 1, 2, 3, 4]);
next = array1d(1..13 ,[3, 8, 10, 1, 9, 7, 13, 6, 2, 11, 12, 5, 4]);
makespan = 782;
----------
assign = array1d(1..13 ,[1, 4, 1, 1, 4, 4, 4, 4, 4, 1, 2, 3, 4]);
next = array1d(1..13 ,[3, 8, 10, 1, 9, 7, 13, 6, 2, 11, 12, 5, 4]);
makespan = 781;
----------
assign = array1d(1..13 ,[1, 4, 1, 1, 4, 4, 4, 4, 4, 1, 2, 3, 4]);
next = array1d(1..13 ,[3, 8, 10, 1, 9, 7, 13, 6, 2, 11, 12, 5, 4]);
makespan = 779;
----------
assign = array1d(1..13 ,[1, 4, 2, 4, 4, 4, 2, 4, 4, 1, 2, 3, 4]);
next = array1d(1..13 ,[10, 8, 7, 5, 9, 13, 11, 6, 2, 3, 12, 4, 1]);
makespan = 777;
----------
assign = array1d(1..13 ,[1, 4, 1, 4, 4, 4, 1, 4, 4, 1, 2, 3, 4]);
next = array1d(1..13 ,[3, 8, 7, 5, 9, 13, 10, 6, 2, 11, 12, 4, 1]);
makespan = 774;
----------
assign = array1d(1..13 ,[1, 4, 2, 4, 4, 4, 2, 4, 4, 1, 2, 3, 4]);
next = array1d(1..13 ,[10, 8, 7, 5, 9, 13, 11, 6, 2, 3, 12, 4, 1]);
makespan = 771;
----------
assign = array1d(1..13 ,[1, 4, 1, 4, 4, 4, 1, 4, 4, 1, 2, 3, 4]);
next = array1d(1..13 ,[3, 8, 7, 5, 9, 13, 10, 6, 2, 11, 12, 4, 1]);
makespan = 770;
----------
assign = array1d(1..13 ,[1, 4, 2, 4, 4, 4, 2, 4, 4, 1, 2, 3, 4]);
next = array1d(1..13 ,[10, 8, 7, 5, 9, 13, 11, 6, 2, 3, 12, 4, 1]);
makespan = 768;
----------
assign = array1d(1..13 ,[1, 4, 1, 4, 4, 4, 1, 4, 4, 1, 2, 3, 4]);
next = array1d(1..13 ,[3, 8, 7, 5, 9, 13, 10, 6, 2, 11, 12, 4, 1]);
makespan = 767;
----------
assign = array1d(1..13 ,[1, 4, 2, 4, 4, 4, 2, 4, 4, 1, 2, 3, 4]);
next = array1d(1..13 ,[10, 8, 7, 5, 9, 13, 11, 6, 2, 3, 12, 4, 1]);
makespan = 766;
----------
assign = array1d(1..13 ,[1, 4, 1, 4, 4, 4, 1, 4, 4, 1, 2, 3, 4]);
next = array1d(1..13 ,[3, 8, 7, 5, 9, 13, 10, 6, 2, 11, 12, 4, 1]);
makespan = 765;
----------
assign = array1d(1..13 ,[1, 4, 2, 4, 4, 4, 2, 4, 4, 1, 2, 3, 4]);
next = array1d(1..13 ,[10, 8, 7, 5, 9, 13, 11, 6, 2, 3, 12, 4, 1]);
makespan = 764;
----------
assign = array1d(1..13 ,[1, 4, 1, 4, 4, 4, 1, 4, 4, 1, 2, 3, 4]);
next = array1d(1..13 ,[3, 8, 7, 5, 9, 13, 10, 6, 2, 11, 12, 4, 1]);
makespan = 763;
----------
assign = array1d(1..13 ,[1, 4, 2, 4, 4, 4, 2, 4, 4, 1, 2, 3, 4]);
next = array1d(1..13 ,[10, 8, 7, 5, 9, 13, 11, 6, 2, 3, 12, 4, 1]);
makespan = 762;
----------
assign = array1d(1..13 ,[1, 4, 1, 4, 4, 4, 1, 4, 4, 1, 2, 3, 4]);
next = array1d(1..13 ,[3, 8, 7, 5, 9, 13, 10, 6, 2, 11, 12, 4, 1]);
makespan = 761;
----------
assign = array1d(1..13 ,[1, 4, 2, 4, 4, 4, 2, 4, 4, 1, 2, 3, 4]);
next = array1d(1..13 ,[10, 8, 7, 5, 9, 13, 11, 6, 2, 3, 12, 4, 1]);
makespan = 759;
----------
assign = array1d(1..13 ,[1, 4, 1, 4, 4, 4, 1, 4, 4, 1, 2, 3, 4]);
next = array1d(1..13 ,[3, 8, 7, 5, 9, 13, 10, 6, 2, 11, 12, 4, 1]);
makespan = 758;
----------
assign = array1d(1..13 ,[1, 4, 2, 4, 4, 4, 2, 4, 4, 1, 2, 3, 4]);
next = array1d(1..13 ,[10, 8, 7, 5, 9, 13, 11, 6, 2, 3, 12, 4, 1]);
makespan = 755;
----------
assign = array1d(1..13 ,[1, 4, 1, 4, 4, 4, 1, 4, 4, 1, 2, 3, 4]);
next = array1d(1..13 ,[3, 8, 7, 5, 9, 13, 10, 6, 2, 11, 12, 4, 1]);
makespan = 753;
----------
assign = array1d(1..13 ,[2, 4, 2, 2, 4, 4, 2, 4, 4, 1, 2, 3, 4]);
next = array1d(1..13 ,[7, 8, 4, 1, 9, 13, 11, 6, 2, 3, 12, 5, 10]);
makespan = 752;
----------
assign = array1d(1..13 ,[3, 4, 3, 3, 4, 4, 3, 4, 4, 1, 2, 3, 4]);
next = array1d(1..13 ,[7, 8, 4, 1, 9, 13, 12, 6, 2, 11, 3, 5, 10]);
makespan = 750;
----------
assign = array1d(1..13 ,[1, 4, 1, 1, 4, 4, 1, 4, 4, 1, 2, 3, 4]);
next = array1d(1..13 ,[7, 8, 4, 1, 9, 13, 10, 6, 2, 11, 12, 5, 3]);
makespan = 749;
----------
assign = array1d(1..13 ,[3, 4, 3, 3, 4, 4, 3, 4, 4, 1, 2, 3, 4]);
next = array1d(1..13 ,[7, 8, 4, 1, 9, 13, 12, 6, 2, 11, 3, 5, 10]);
makespan = 747;
----------
assign = array1d(1..13 ,[1, 4, 1, 1, 4, 4, 1, 4, 4, 1, 2, 3, 4]);
next = array1d(1..13 ,[7, 8, 4, 1, 9, 13, 10, 6, 2, 11, 12, 5, 3]);
makespan = 744;
----------
assign = array1d(1..13 ,[3, 4, 3, 3, 4, 4, 3, 4, 4, 1, 2, 3, 4]);
next = array1d(1..13 ,[7, 8, 4, 1, 9, 13, 12, 6, 2, 11, 3, 5, 10]);
makespan = 743;
----------
assign = array1d(1..13 ,[1, 4, 1, 1, 4, 4, 1, 4, 4, 1, 2, 3, 4]);
next = array1d(1..13 ,[7, 8, 4, 1, 9, 13, 10, 6, 2, 11, 12, 5, 3]);
makespan = 740;
----------
assign = array1d(1..13 ,[3, 4, 3, 3, 4, 4, 3, 4, 4, 1, 2, 3, 4]);
next = array1d(1..13 ,[7, 8, 4, 1, 9, 13, 12, 6, 2, 11, 3, 5, 10]);
makespan = 736;
----------
assign = array1d(1..13 ,[1, 4, 1, 1, 4, 4, 1, 4, 4, 1, 2, 3, 4]);
next = array1d(1..13 ,[7, 8, 4, 1, 9, 13, 10, 6, 2, 11, 12, 5, 3]);
makespan = 730;
----------
assign = array1d(1..13 ,[3, 4, 3, 3, 4, 4, 3, 4, 4, 1, 2, 3, 4]);
next = array1d(1..13 ,[7, 8, 4, 1, 9, 13, 12, 6, 2, 11, 3, 5, 10]);
makespan = 727;
----------
assign = array1d(1..13 ,[1, 4, 1, 1, 4, 4, 1, 4, 4, 1, 2, 3, 4]);
next = array1d(1..13 ,[7, 8, 4, 1, 9, 13, 10, 6, 2, 11, 12, 5, 3]);
makespan = 726;
----------
assign = array1d(1..13 ,[1, 4, 1, 1, 4, 4, 1, 4, 4, 1, 2, 3, 4]);
next = array1d(1..13 ,[7, 8, 4, 1, 9, 13, 10, 6, 2, 11, 12, 5, 3]);
makespan = 725;
----------
assign = array1d(1..13 ,[1, 4, 1, 1, 4, 4, 1, 4, 4, 1, 2, 3, 4]);
next = array1d(1..13 ,[7, 8, 4, 1, 9, 13, 10, 6, 2, 11, 12, 5, 3]);
makespan = 724;
----------
assign = array1d(1..13 ,[1, 4, 1, 1, 4, 4, 1, 4, 4, 1, 2, 3, 4]);
next = array1d(1..13 ,[7, 8, 4, 1, 9, 13, 10, 6, 2, 11, 12, 5, 3]);
makespan = 723;
----------
assign = array1d(1..13 ,[2, 4, 2, 2, 4, 4, 2, 4, 4, 1, 2, 3, 4]);
next = array1d(1..13 ,[7, 8, 4, 1, 9, 13, 11, 6, 2, 3, 12, 5, 10]);
makespan = 717;
----------
assign = array1d(1..13 ,[1, 4, 1, 1, 4, 4, 1, 4, 4, 1, 2, 3, 4]);
next = array1d(1..13 ,[7, 8, 4, 1, 9, 13, 10, 6, 2, 11, 12, 5, 3]);
makespan = 714;
----------
assign = array1d(1..13 ,[2, 4, 2, 2, 4, 4, 2, 4, 4, 1, 2, 3, 4]);
next = array1d(1..13 ,[7, 8, 4, 1, 9, 13, 11, 6, 2, 3, 12, 5, 10]);
makespan = 713;
----------
assign = array1d(1..13 ,[3, 4, 3, 3, 4, 4, 3, 4, 4, 1, 2, 3, 4]);
next = array1d(1..13 ,[7, 8, 4, 1, 9, 13, 12, 6, 2, 11, 3, 5, 10]);
makespan = 712;
----------
assign = array1d(1..13 ,[3, 4, 3, 3, 4, 4, 3, 4, 4, 1, 2, 3, 4]);
next = array1d(1..13 ,[7, 8, 4, 1, 9, 13, 12, 6, 2, 11, 3, 5, 10]);
makespan = 711;
----------
assign = array1d(1..13 ,[3, 4, 3, 3, 4, 4, 3, 4, 4, 1, 2, 3, 4]);
next = array1d(1..13 ,[7, 8, 4, 1, 9, 13, 12, 6, 2, 11, 3, 5, 10]);
makespan = 710;
----------
assign = array1d(1..13 ,[2, 4, 2, 2, 4, 4, 2, 4, 4, 1, 2, 3, 4]);
next = array1d(1..13 ,[7, 8, 4, 1, 9, 13, 11, 6, 2, 3, 12, 5, 10]);
makespan = 708;
----------
assign = array1d(1..13 ,[1, 4, 1, 1, 4, 4, 1, 4, 4, 1, 2, 3, 4]);
next = array1d(1..13 ,[7, 8, 4, 1, 9, 13, 10, 6, 2, 11, 12, 5, 3]);
makespan = 705;
----------
assign = array1d(1..13 ,[2, 4, 2, 2, 4, 4, 2, 4, 4, 1, 2, 3, 4]);
next = array1d(1..13 ,[7, 8, 4, 1, 9, 13, 11, 6, 2, 3, 12, 5, 10]);
makespan = 704;
----------
assign = array1d(1..13 ,[3, 4, 3, 3, 4, 4, 3, 4, 4, 1, 2, 3, 4]);
next = array1d(1..13 ,[7, 8, 4, 1, 9, 13, 12, 6, 2, 11, 3, 5, 10]);
makespan = 695;
----------
assign = array1d(1..13 ,[1, 4, 1, 1, 4, 4, 1, 4, 4, 1, 2, 3, 4]);
next = array1d(1..13 ,[7, 8, 4, 1, 9, 13, 10, 6, 2, 11, 12, 5, 3]);
makespan = 694;
----------
assign = array1d(1..13 ,[3, 4, 3, 3, 4, 4, 3, 4, 4, 1, 2, 3, 4]);
next = array1d(1..13 ,[7, 8, 4, 1, 9, 13, 12, 6, 2, 11, 3, 5, 10]);
makespan = 693;
----------
assign = array1d(1..13 ,[3, 4, 3, 3, 4, 4, 3, 4, 4, 1, 2, 3, 4]);
next = array1d(1..13 ,[7, 8, 4, 1, 9, 13, 12, 6, 2, 11, 3, 5, 10]);
makespan = 692;
----------
assign = array1d(1..13 ,[3, 4, 3, 3, 4, 4, 3, 4, 4, 1, 2, 3, 4]);
next = array1d(1..13 ,[7, 8, 4, 1, 9, 13, 12, 6, 2, 11, 3, 5, 10]);
makespan = 690;
----------
assign = array1d(1..13 ,[3, 4, 3, 3, 4, 4, 3, 4, 4, 1, 2, 3, 4]);
next = array1d(1..13 ,[7, 8, 4, 1, 9, 13, 12, 6, 2, 11, 3, 5, 10]);
makespan = 682;
----------
assign = array1d(1..13 ,[3, 4, 3, 3, 4, 4, 3, 4, 4, 1, 2, 3, 4]);
next = array1d(1..13 ,[7, 8, 4, 1, 9, 13, 12, 6, 2, 11, 3, 5, 10]);
makespan = 675;
----------
assign = array1d(1..13 ,[3, 4, 3, 3, 4, 4, 3, 4, 4, 1, 2, 3, 4]);
next = array1d(1..13 ,[7, 8, 4, 1, 9, 13, 12, 6, 2, 11, 3, 5, 10]);
makespan = 673;
----------
assign = array1d(1..13 ,[3, 4, 3, 3, 4, 4, 3, 4, 4, 1, 2, 3, 4]);
next = array1d(1..13 ,[7, 8, 4, 1, 9, 13, 12, 6, 2, 11, 3, 5, 10]);
makespan = 667;
----------
assign = array1d(1..13 ,[3, 4, 3, 3, 4, 4, 3, 4, 4, 1, 2, 3, 4]);
next = array1d(1..13 ,[7, 8, 4, 1, 9, 13, 12, 6, 2, 11, 3, 5, 10]);
makespan = 663;
----------
assign = array1d(1..13 ,[3, 4, 3, 3, 4, 4, 3, 4, 4, 1, 2, 3, 4]);
next = array1d(1..13 ,[7, 8, 4, 1, 9, 13, 12, 6, 2, 11, 3, 5, 10]);
makespan = 660;
----------
assign = array1d(1..13 ,[3, 4, 3, 3, 4, 4, 3, 4, 4, 1, 2, 3, 4]);
next = array1d(1..13 ,[7, 8, 4, 1, 9, 13, 12, 6, 2, 11, 3, 5, 10]);
makespan = 658;
----------
assign = array1d(1..13 ,[2, 4, 2, 2, 4, 4, 2, 4, 4, 1, 2, 3, 4]);
next = array1d(1..13 ,[7, 8, 4, 1, 9, 13, 11, 6, 2, 3, 12, 5, 10]);
makespan = 655;
----------
assign = array1d(1..13 ,[1, 4, 1, 1, 4, 4, 1, 4, 4, 1, 2, 3, 4]);
next = array1d(1..13 ,[7, 8, 4, 1, 9, 13, 10, 6, 2, 11, 12, 5, 3]);
makespan = 654;
----------
assign = array1d(1..13 ,[3, 4, 3, 3, 4, 4, 3, 4, 4, 1, 2, 3, 4]);
next = array1d(1..13 ,[7, 8, 4, 1, 9, 13, 12, 6, 2, 11, 3, 5, 10]);
makespan = 651;
----------
assign = array1d(1..13 ,[1, 4, 1, 1, 4, 4, 1, 4, 4, 1, 2, 3, 4]);
next = array1d(1..13 ,[7, 8, 4, 1, 9, 13, 10, 6, 2, 11, 12, 5, 3]);
makespan = 647;
----------
assign = array1d(1..13 ,[3, 4, 3, 3, 4, 4, 3, 4, 4, 1, 2, 3, 4]);
next = array1d(1..13 ,[7, 8, 4, 1, 9, 13, 12, 6, 2, 11, 3, 5, 10]);
makespan = 646;
----------
assign = array1d(1..13 ,[1, 4, 1, 1, 4, 4, 1, 4, 4, 1, 2, 3, 4]);
next = array1d(1..13 ,[7, 8, 4, 1, 9, 13, 10, 6, 2, 11, 12, 5, 3]);
makespan = 641;
----------
assign = array1d(1..13 ,[3, 4, 3, 3, 4, 4, 3, 4, 4, 1, 2, 3, 4]);
next = array1d(1..13 ,[7, 8, 4, 1, 9, 13, 12, 6, 2, 11, 3, 5, 10]);
makespan = 638;
----------
assign = array1d(1..13 ,[2, 4, 2, 2, 4, 4, 2, 4, 4, 1, 2, 3, 4]);
next = array1d(1..13 ,[11, 13, 7, 1, 9, 2, 4, 6, 8, 3, 12, 5, 10]);
makespan = 633;
----------
assign = array1d(1..13 ,[3, 4, 3, 3, 4, 4, 3, 4, 4, 1, 2, 3, 4]);
next = array1d(1..13 ,[12, 13, 7, 1, 9, 2, 4, 6, 8, 11, 3, 5, 10]);
makespan = 632;
----------
assign = array1d(1..13 ,[1, 4, 1, 1, 4, 4, 1, 4, 4, 1, 2, 3, 4]);
next = array1d(1..13 ,[10, 13, 7, 1, 9, 2, 4, 6, 8, 11, 12, 5, 3]);
makespan = 628;
----------
assign = array1d(1..13 ,[3, 4, 3, 3, 4, 4, 3, 4, 4, 1, 2, 3, 4]);
next = array1d(1..13 ,[12, 13, 7, 1, 9, 2, 4, 6, 8, 11, 3, 5, 10]);
makespan = 625;
----------
assign = array1d(1..13 ,[2, 4, 2, 2, 4, 4, 2, 4, 4, 1, 2, 3, 4]);
next = array1d(1..13 ,[11, 13, 7, 1, 9, 2, 4, 6, 8, 3, 12, 5, 10]);
makespan = 623;
----------
assign = array1d(1..13 ,[1, 4, 1, 1, 4, 4, 1, 4, 4, 1, 2, 3, 4]);
next = array1d(1..13 ,[10, 13, 7, 1, 9, 2, 4, 6, 8, 11, 12, 5, 3]);
makespan = 621;
----------
assign = array1d(1..13 ,[3, 4, 3, 3, 4, 4, 3, 4, 4, 1, 2, 3, 4]);
next = array1d(1..13 ,[12, 13, 7, 1, 9, 2, 4, 6, 8, 11, 3, 5, 10]);
makespan = 620;
----------
assign = array1d(1..13 ,[2, 4, 2, 2, 4, 4, 2, 4, 4, 1, 2, 3, 4]);
next = array1d(1..13 ,[11, 13, 7, 1, 9, 2, 4, 6, 8, 3, 12, 5, 10]);
makespan = 619;
----------
assign = array1d(1..13 ,[2, 2, 2, 3, 4, 4, 3, 4, 4, 1, 2, 3, 4]);
next = array1d(1..13 ,[11, 1, 2, 12, 9, 5, 4, 6, 13, 3, 7, 8, 10]);
makespan = 617;
----------
assign = array1d(1..13 ,[3, 3, 3, 4, 4, 4, 3, 4, 4, 1, 2, 3, 4]);
next = array1d(1..13 ,[7, 12, 2, 5, 9, 13, 3, 6, 8, 11, 1, 4, 10]);
makespan = 616;
----------
assign = array1d(1..13 ,[2, 3, 3, 2, 4, 4, 2, 4, 4, 1, 2, 3, 4]);
next = array1d(1..13 ,[7, 12, 2, 11, 9, 5, 4, 6, 13, 1, 3, 8, 10]);
makespan = 613;
----------
assign = array1d(1..13 ,[3, 2, 2, 3, 4, 4, 3, 4, 4, 1, 2, 3, 4]);
next = array1d(1..13 ,[7, 11, 2, 12, 9, 5, 4, 6, 13, 3, 1, 8, 10]);
makespan = 610;
----------
assign = array1d(1..13 ,[3, 2, 2, 3, 4, 4, 3, 4, 4, 1, 2, 3, 4]);
next = array1d(1..13 ,[7, 11, 2, 12, 9, 5, 4, 6, 13, 3, 1, 8, 10]);
makespan = 609;
----------
assign = array1d(1..13 ,[3, 2, 2, 3, 4, 4, 3, 4, 4, 1, 2, 3, 4]);
next = array1d(1..13 ,[7, 11, 2, 12, 9, 5, 4, 6, 13, 3, 1, 8, 10]);
makespan = 606;
----------
assign = array1d(1..13 ,[3, 2, 2, 3, 4, 4, 3, 4, 4, 1, 2, 3, 4]);
next = array1d(1..13 ,[7, 11, 2, 12, 9, 5, 4, 6, 13, 3, 1, 8, 10]);
makespan = 604;
----------
assign = array1d(1..13 ,[3, 2, 2, 3, 4, 4, 3, 4, 4, 1, 2, 3, 4]);
next = array1d(1..13 ,[7, 11, 2, 12, 9, 5, 4, 6, 13, 3, 1, 8, 10]);
makespan = 603;
----------
assign = array1d(1..13 ,[3, 2, 2, 3, 4, 4, 3, 4, 4, 1, 2, 3, 4]);
next = array1d(1..13 ,[7, 11, 2, 12, 9, 5, 4, 6, 13, 3, 1, 8, 10]);
makespan = 602;
----------
assign = array1d(1..13 ,[3, 2, 2, 3, 4, 4, 3, 4, 4, 1, 2, 3, 4]);
next = array1d(1..13 ,[7, 11, 2, 12, 9, 5, 4, 6, 13, 3, 1, 8, 10]);
makespan = 598;
----------
assign = array1d(1..13 ,[3, 2, 2, 3, 4, 4, 3, 4, 4, 1, 2, 3, 4]);
next = array1d(1..13 ,[7, 11, 2, 12, 9, 5, 4, 6, 13, 3, 1, 8, 10]);
makespan = 594;
----------
assign = array1d(1..13 ,[3, 2, 2, 3, 4, 4, 3, 4, 4, 1, 2, 3, 4]);
next = array1d(1..13 ,[7, 11, 2, 12, 9, 5, 4, 6, 13, 3, 1, 8, 10]);
makespan = 589;
----------
assign = array1d(1..13 ,[3, 2, 2, 3, 4, 4, 3, 4, 4, 1, 2, 3, 4]);
next = array1d(1..13 ,[7, 11, 2, 12, 9, 5, 4, 6, 13, 3, 1, 8, 10]);
makespan = 584;
----------
assign = array1d(1..13 ,[3, 2, 2, 3, 4, 4, 3, 4, 4, 1, 2, 3, 4]);
next = array1d(1..13 ,[7, 11, 2, 12, 9, 5, 4, 6, 13, 3, 1, 8, 10]);
makespan = 580;
----------
assign = array1d(1..13 ,[3, 2, 2, 3, 4, 4, 3, 4, 4, 1, 2, 3, 4]);
next = array1d(1..13 ,[7, 11, 2, 12, 9, 5, 4, 6, 13, 3, 1, 8, 10]);
makespan = 579;
----------
assign = array1d(1..13 ,[3, 2, 2, 3, 4, 4, 3, 4, 4, 1, 2, 3, 4]);
next = array1d(1..13 ,[7, 11, 2, 12, 9, 5, 4, 6, 13, 3, 1, 8, 10]);
makespan = 578;
----------
assign = array1d(1..13 ,[3, 2, 2, 3, 4, 4, 3, 4, 4, 1, 2, 3, 4]);
next = array1d(1..13 ,[7, 11, 2, 12, 9, 5, 4, 6, 13, 3, 1, 8, 10]);
makespan = 577;
----------
assign = array1d(1..13 ,[3, 2, 2, 3, 4, 4, 3, 4, 4, 1, 2, 3, 4]);
next = array1d(1..13 ,[7, 11, 2, 12, 9, 5, 4, 6, 13, 3, 1, 8, 10]);
makespan = 576;
----------
assign = array1d(1..13 ,[3, 2, 2, 3, 4, 4, 3, 4, 4, 1, 2, 3, 4]);
next = array1d(1..13 ,[7, 11, 2, 12, 9, 5, 4, 6, 13, 3, 1, 8, 10]);
makespan = 575;
----------
assign = array1d(1..13 ,[3, 2, 2, 3, 4, 4, 3, 4, 4, 1, 2, 3, 4]);
next = array1d(1..13 ,[7, 11, 2, 12, 9, 5, 4, 6, 13, 3, 1, 8, 10]);
makespan = 574;
----------
assign = array1d(1..13 ,[3, 2, 2, 3, 4, 4, 3, 4, 4, 1, 2, 3, 4]);
next = array1d(1..13 ,[7, 11, 2, 12, 9, 5, 4, 6, 13, 3, 1, 8, 10]);
makespan = 571;
----------
assign = array1d(1..13 ,[3, 2, 2, 3, 4, 4, 3, 4, 4, 1, 2, 3, 4]);
next = array1d(1..13 ,[7, 11, 2, 12, 9, 5, 4, 6, 13, 3, 1, 8, 10]);
makespan = 566;
----------
assign = array1d(1..13 ,[3, 2, 2, 3, 4, 4, 3, 4, 4, 1, 2, 3, 4]);
next = array1d(1..13 ,[7, 11, 2, 12, 9, 5, 4, 6, 13, 3, 1, 8, 10]);
makespan = 564;
----------
assign = array1d(1..13 ,[3, 2, 2, 3, 4, 4, 3, 4, 4, 1, 2, 3, 4]);
next = array1d(1..13 ,[7, 11, 2, 12, 9, 5, 4, 6, 13, 3, 1, 8, 10]);
makespan = 559;
----------
assign = array1d(1..13 ,[3, 2, 2, 3, 4, 4, 3, 4, 4, 1, 2, 3, 4]);
next = array1d(1..13 ,[7, 11, 2, 12, 9, 5, 4, 6, 13, 3, 1, 8, 10]);
makespan = 557;
----------
assign = array1d(1..13 ,[3, 2, 2, 3, 4, 4, 3, 4, 4, 1, 2, 3, 4]);
next = array1d(1..13 ,[7, 11, 2, 12, 9, 5, 4, 6, 13, 3, 1, 8, 10]);
makespan = 549;
----------
assign = array1d(1..13 ,[3, 2, 2, 3, 4, 4, 3, 4, 4, 1, 2, 3, 4]);
next = array1d(1..13 ,[7, 11, 2, 12, 9, 5, 4, 6, 13, 3, 1, 8, 10]);
makespan = 547;
----------
assign = array1d(1..13 ,[3, 2, 2, 3, 4, 4, 3, 4, 4, 1, 2, 3, 4]);
next = array1d(1..13 ,[7, 11, 2, 12, 9, 5, 4, 6, 13, 3, 1, 8, 10]);
makespan = 544;
----------
assign = array1d(1..13 ,[3, 2, 2, 3, 4, 4, 3, 4, 4, 1, 2, 3, 4]);
next = array1d(1..13 ,[7, 11, 2, 12, 9, 5, 4, 6, 13, 3, 1, 8, 10]);
makespan = 543;
----------
assign = array1d(1..13 ,[3, 2, 2, 3, 4, 4, 3, 4, 4, 1, 2, 3, 4]);
next = array1d(1..13 ,[7, 11, 2, 12, 9, 5, 4, 6, 13, 3, 1, 8, 10]);
makespan = 541;
----------
assign = array1d(1..13 ,[3, 2, 2, 3, 4, 4, 3, 4, 4, 1, 2, 3, 4]);
next = array1d(1..13 ,[7, 11, 2, 12, 9, 5, 4, 6, 13, 3, 1, 8, 10]);
makespan = 539;
----------
assign = array1d(1..13 ,[3, 2, 2, 3, 4, 4, 3, 4, 4, 1, 2, 3, 4]);
next = array1d(1..13 ,[7, 11, 2, 12, 9, 5, 4, 6, 13, 3, 1, 8, 10]);
makespan = 528;
----------
assign = array1d(1..13 ,[3, 2, 2, 3, 4, 4, 3, 4, 4, 1, 2, 3, 4]);
next = array1d(1..13 ,[7, 11, 2, 12, 9, 5, 4, 6, 13, 3, 1, 8, 10]);
makespan = 521;
----------
assign = array1d(1..13 ,[3, 2, 2, 3, 4, 4, 3, 4, 4, 1, 2, 3, 4]);
next = array1d(1..13 ,[7, 11, 2, 12, 9, 13, 4, 6, 8, 3, 1, 5, 10]);
makespan = 520;
----------
assign = array1d(1..13 ,[3, 2, 2, 3, 4, 4, 3, 4, 4, 1, 2, 3, 4]);
next = array1d(1..13 ,[7, 11, 2, 12, 9, 13, 4, 6, 8, 3, 1, 5, 10]);
makespan = 517;
----------
assign = array1d(1..13 ,[3, 2, 2, 3, 4, 4, 3, 4, 4, 1, 2, 3, 4]);
next = array1d(1..13 ,[7, 11, 2, 12, 9, 13, 4, 6, 8, 3, 1, 5, 10]);
makespan = 512;
----------
assign = array1d(1..13 ,[3, 2, 2, 3, 4, 4, 3, 4, 4, 1, 2, 3, 4]);
next = array1d(1..13 ,[7, 11, 2, 12, 9, 13, 4, 6, 8, 3, 1, 5, 10]);
makespan = 505;
----------
assign = array1d(1..13 ,[3, 2, 2, 3, 4, 4, 3, 4, 4, 1, 2, 3, 4]);
next = array1d(1..13 ,[7, 11, 2, 12, 9, 13, 4, 6, 8, 3, 1, 5, 10]);
makespan = 502;
----------
assign = array1d(1..13 ,[3, 2, 2, 3, 4, 4, 3, 4, 4, 1, 2, 3, 4]);
next = array1d(1..13 ,[7, 11, 2, 12, 9, 13, 4, 6, 8, 3, 1, 5, 10]);
makespan = 498;
----------
assign = array1d(1..13 ,[2, 3, 4, 4, 4, 3, 2, 2, 4, 1, 2, 3, 4]);
next = array1d(1..13 ,[7, 12, 13, 5, 9, 2, 11, 1, 3, 8, 6, 4, 10]);
makespan = 487;
----------
assign = array1d(1..13 ,[3, 2, 4, 4, 4, 2, 3, 3, 4, 1, 2, 3, 4]);
next = array1d(1..13 ,[7, 11, 13, 5, 9, 2, 12, 1, 3, 6, 8, 4, 10]);
makespan = 485;
----------
assign = array1d(1..13 ,[3, 2, 4, 4, 4, 2, 3, 3, 4, 1, 2, 3, 4]);
next = array1d(1..13 ,[7, 11, 13, 5, 9, 2, 12, 1, 3, 6, 8, 4, 10]);
makespan = 482;
----------
assign = array1d(1..13 ,[3, 2, 4, 4, 4, 2, 3, 3, 4, 1, 2, 3, 4]);
next = array1d(1..13 ,[7, 11, 13, 5, 9, 2, 12, 1, 3, 6, 8, 4, 10]);
makespan = 468;
----------
assign = array1d(1..13 ,[2, 3, 4, 4, 4, 3, 2, 2, 4, 1, 2, 3, 4]);
next = array1d(1..13 ,[7, 12, 13, 5, 9, 2, 11, 1, 3, 8, 6, 4, 10]);
makespan = 466;
----------
assign = array1d(1..13 ,[1, 3, 4, 2, 4, 3, 2, 2, 4, 1, 2, 3, 4]);
next = array1d(1..13 ,[10, 12, 5, 7, 9, 2, 11, 4, 13, 8, 6, 3, 1]);
makespan = 464;
----------
assign = array1d(1..13 ,[3, 2, 4, 3, 4, 3, 2, 2, 4, 1, 2, 3, 4]);
next = array1d(1..13 ,[4, 7, 5, 6, 9, 12, 11, 2, 13, 8, 1, 3, 10]);
makespan = 463;
----------
assign = array1d(1..13 ,[3, 2, 4, 3, 4, 3, 2, 2, 4, 1, 2, 3, 4]);
next = array1d(1..13 ,[4, 7, 5, 6, 9, 12, 11, 2, 13, 8, 1, 3, 10]);
makespan = 460;
----------
assign = array1d(1..13 ,[3, 2, 4, 3, 4, 3, 2, 2, 4, 1, 2, 3, 4]);
next = array1d(1..13 ,[4, 7, 5, 6, 9, 12, 11, 2, 13, 8, 1, 3, 10]);
makespan = 459;
----------
assign = array1d(1..13 ,[3, 2, 4, 3, 4, 3, 2, 2, 4, 1, 2, 3, 4]);
next = array1d(1..13 ,[4, 7, 5, 6, 9, 12, 11, 2, 13, 8, 1, 3, 10]);
makespan = 455;
----------
assign = array1d(1..13 ,[3, 2, 4, 3, 4, 3, 2, 2, 4, 1, 2, 3, 4]);
next = array1d(1..13 ,[4, 7, 5, 6, 9, 12, 11, 2, 13, 8, 1, 3, 10]);
makespan = 453;
----------
assign = array1d(1..13 ,[3, 2, 4, 3, 4, 3, 2, 2, 4, 1, 2, 3, 4]);
next = array1d(1..13 ,[4, 7, 5, 6, 9, 12, 11, 2, 13, 8, 1, 3, 10]);
makespan = 448;
----------
assign = array1d(1..13 ,[3, 2, 4, 3, 4, 3, 2, 2, 4, 1, 2, 3, 4]);
next = array1d(1..13 ,[4, 7, 5, 6, 9, 12, 11, 2, 13, 8, 1, 3, 10]);
makespan = 446;
----------
assign = array1d(1..13 ,[2, 3, 4, 2, 4, 2, 3, 3, 4, 1, 2, 3, 4]);
next = array1d(1..13 ,[4, 12, 5, 6, 9, 11, 2, 7, 13, 1, 8, 3, 10]);
makespan = 442;
----------
assign = array1d(1..13 ,[4, 3, 3, 4, 3, 4, 2, 2, 2, 1, 2, 3, 4]);
next = array1d(1..13 ,[4, 3, 5, 6, 12, 13, 9, 7, 11, 8, 2, 1, 10]);
makespan = 441;
----------
assign = array1d(1..13 ,[4, 3, 3, 4, 2, 4, 2, 3, 2, 1, 2, 3, 4]);
next = array1d(1..13 ,[4, 12, 2, 6, 9, 13, 11, 3, 7, 5, 8, 1, 10]);
makespan = 440;
----------
assign = array1d(1..13 ,[4, 3, 2, 4, 2, 4, 3, 3, 2, 1, 2, 3, 4]);
next = array1d(1..13 ,[4, 8, 5, 6, 9, 13, 12, 7, 11, 3, 2, 1, 10]);
makespan = 437;
----------
assign = array1d(1..13 ,[4, 3, 2, 4, 2, 4, 3, 3, 2, 1, 2, 3, 4]);
next = array1d(1..13 ,[4, 8, 5, 6, 9, 13, 12, 7, 11, 3, 2, 1, 10]);
makespan = 433;
----------
assign = array1d(1..13 ,[4, 3, 2, 4, 2, 4, 3, 3, 2, 1, 2, 3, 4]);
next = array1d(1..13 ,[4, 8, 5, 6, 9, 13, 12, 7, 11, 3, 2, 1, 10]);
makespan = 430;
----------
assign = array1d(1..13 ,[4, 3, 2, 4, 2, 4, 3, 3, 2, 1, 2, 3, 4]);
next = array1d(1..13 ,[4, 8, 5, 6, 9, 13, 12, 7, 11, 3, 2, 1, 10]);
makespan = 428;
----------
assign = array1d(1..13 ,[4, 3, 2, 4, 2, 4, 3, 3, 2, 1, 2, 3, 4]);
next = array1d(1..13 ,[4, 8, 5, 6, 9, 13, 12, 7, 11, 3, 2, 1, 10]);
makespan = 423;
----------
assign = array1d(1..13 ,[4, 3, 2, 4, 2, 4, 3, 3, 2, 1, 2, 3, 4]);
next = array1d(1..13 ,[4, 8, 5, 6, 9, 13, 12, 7, 11, 3, 2, 1, 10]);
makespan = 421;
----------
assign = array1d(1..13 ,[4, 3, 2, 4, 2, 4, 3, 3, 2, 1, 2, 3, 4]);
next = array1d(1..13 ,[4, 8, 5, 6, 9, 13, 12, 7, 11, 3, 2, 1, 10]);
makespan = 418;
----------
assign = array1d(1..13 ,[4, 3, 2, 4, 2, 4, 3, 3, 2, 1, 2, 3, 4]);
next = array1d(1..13 ,[4, 8, 5, 6, 9, 13, 12, 7, 11, 3, 2, 1, 10]);
makespan = 416;
----------
assign = array1d(1..13 ,[4, 3, 2, 4, 2, 4, 3, 3, 2, 1, 2, 3, 4]);
next = array1d(1..13 ,[4, 8, 5, 6, 9, 13, 12, 7, 11, 3, 2, 1, 10]);
makespan = 414;
----------
assign = array1d(1..13 ,[4, 3, 2, 4, 2, 4, 3, 3, 2, 1, 2, 3, 4]);
next = array1d(1..13 ,[4, 8, 5, 6, 9, 13, 12, 7, 11, 3, 2, 1, 10]);
makespan = 410;
----------
assign = array1d(1..13 ,[4, 3, 2, 4, 2, 4, 3, 3, 2, 1, 2, 3, 4]);
next = array1d(1..13 ,[4, 8, 5, 6, 9, 13, 12, 7, 11, 3, 2, 1, 10]);
makespan = 409;
----------
assign = array1d(1..13 ,[4, 3, 2, 4, 2, 4, 3, 3, 2, 1, 2, 3, 4]);
next = array1d(1..13 ,[4, 8, 5, 6, 9, 13, 12, 7, 11, 3, 2, 1, 10]);
makespan = 407;
----------
assign = array1d(1..13 ,[4, 3, 2, 4, 2, 4, 3, 3, 2, 1, 2, 3, 4]);
next = array1d(1..13 ,[4, 8, 5, 6, 9, 13, 12, 7, 11, 3, 2, 1, 10]);
makespan = 405;
----------
assign = array1d(1..13 ,[4, 3, 2, 4, 2, 4, 3, 3, 2, 1, 2, 3, 4]);
next = array1d(1..13 ,[4, 8, 5, 6, 9, 13, 12, 7, 11, 3, 2, 1, 10]);
makespan = 403;
----------
assign = array1d(1..13 ,[4, 3, 2, 4, 2, 4, 3, 3, 2, 1, 2, 3, 4]);
next = array1d(1..13 ,[4, 8, 5, 6, 9, 13, 12, 7, 11, 3, 2, 1, 10]);
makespan = 401;
----------
assign = array1d(1..13 ,[4, 3, 2, 4, 2, 4, 3, 3, 2, 1, 2, 3, 4]);
next = array1d(1..13 ,[4, 8, 5, 6, 9, 13, 12, 7, 11, 3, 2, 1, 10]);
makespan = 398;
----------
assign = array1d(1..13 ,[4, 3, 2, 4, 2, 4, 3, 3, 2, 1, 2, 3, 4]);
next = array1d(1..13 ,[4, 8, 5, 6, 9, 13, 12, 7, 11, 3, 2, 1, 10]);
makespan = 395;
----------
assign = array1d(1..13 ,[4, 3, 2, 4, 2, 4, 3, 3, 2, 1, 2, 3, 4]);
next = array1d(1..13 ,[4, 8, 5, 6, 9, 13, 12, 7, 11, 3, 2, 1, 10]);
makespan = 392;
----------
assign = array1d(1..13 ,[4, 3, 2, 4, 2, 4, 3, 3, 2, 1, 2, 3, 4]);
next = array1d(1..13 ,[4, 8, 5, 6, 9, 13, 12, 7, 11, 3, 2, 1, 10]);
makespan = 389;
----------
assign = array1d(1..13 ,[2, 3, 3, 2, 4, 2, 4, 3, 4, 1, 2, 3, 4]);
next = array1d(1..13 ,[4, 3, 12, 6, 9, 11, 13, 2, 7, 1, 8, 5, 10]);
makespan = 383;
----------
assign = array1d(1..13 ,[2, 3, 4, 2, 4, 2, 3, 3, 4, 1, 2, 3, 4]);
next = array1d(1..13 ,[4, 8, 5, 6, 9, 11, 12, 7, 13, 1, 2, 3, 10]);
makespan = 382;
----------
assign = array1d(1..13 ,[4, 3, 2, 4, 2, 3, 2, 3, 4, 1, 2, 3, 4]);
next = array1d(1..13 ,[4, 8, 5, 9, 7, 2, 11, 12, 13, 3, 6, 1, 10]);
makespan = 378;
----------
assign = array1d(1..13 ,[4, 1, 2, 1, 4, 1, 3, 3, 4, 1, 2, 3, 4]);
next = array1d(1..13 ,[9, 10, 11, 6, 13, 2, 8, 12, 5, 3, 7, 1, 4]);
makespan = 375;
----------
assign = array1d(1..13 ,[2, 1, 3, 1, 4, 1, 4, 2, 4, 1, 2, 3, 4]);
next = array1d(1..13 ,[11, 10, 12, 6, 7, 2, 13, 1, 5, 8, 3, 9, 4]);
makespan = 374;
----------
assign = array1d(1..13 ,[2, 1, 4, 1, 4, 1, 2, 3, 4, 1, 2, 3, 4]);
next = array1d(1..13 ,[11, 10, 13, 6, 9, 2, 1, 12, 3, 7, 8, 5, 4]);
makespan = 373;
----------
assign = array1d(1..13 ,[2, 1, 4, 1, 4, 1, 2, 3, 4, 1, 2, 3, 4]);
next = array1d(1..13 ,[11, 10, 13, 6, 9, 2, 1, 12, 3, 7, 8, 5, 4]);
makespan = 370;
----------
assign = array1d(1..13 ,[2, 1, 4, 1, 4, 1, 2, 3, 4, 1, 2, 3, 4]);
next = array1d(1..13 ,[11, 10, 13, 6, 9, 2, 1, 12, 3, 7, 8, 5, 4]);
makespan = 368;
----------
assign = array1d(1..13 ,[2, 1, 4, 1, 4, 1, 2, 3, 4, 1, 2, 3, 4]);
next = array1d(1..13 ,[11, 10, 13, 6, 9, 2, 1, 12, 3, 7, 8, 5, 4]);
makespan = 365;
----------
assign = array1d(1..13 ,[2, 1, 4, 1, 4, 1, 2, 3, 4, 1, 2, 3, 4]);
next = array1d(1..13 ,[11, 10, 13, 6, 9, 2, 1, 12, 3, 7, 8, 5, 4]);
makespan = 364;
----------
assign = array1d(1..13 ,[2, 1, 4, 1, 4, 1, 2, 3, 4, 1, 2, 3, 4]);
next = array1d(1..13 ,[11, 10, 13, 6, 9, 2, 1, 12, 3, 7, 8, 5, 4]);
makespan = 358;
----------
assign = array1d(1..13 ,[2, 1, 4, 1, 4, 1, 2, 3, 4, 1, 2, 3, 4]);
next = array1d(1..13 ,[11, 10, 13, 6, 9, 2, 1, 12, 3, 7, 8, 5, 4]);
makespan = 354;
----------
assign = array1d(1..13 ,[2, 1, 4, 1, 4, 1, 2, 3, 4, 1, 2, 3, 4]);
next = array1d(1..13 ,[11, 10, 13, 6, 9, 2, 1, 12, 3, 7, 8, 5, 4]);
makespan = 353;
----------
assign = array1d(1..13 ,[2, 1, 4, 1, 4, 1, 2, 3, 4, 1, 2, 3, 4]);
next = array1d(1..13 ,[11, 10, 13, 6, 9, 2, 1, 12, 3, 7, 8, 5, 4]);
makespan = 351;
----------
assign = array1d(1..13 ,[2, 1, 3, 1, 4, 1, 2, 3, 4, 1, 2, 3, 4]);
next = array1d(1..13 ,[11, 10, 8, 6, 9, 2, 1, 12, 13, 7, 3, 5, 4]);
makespan = 350;
----------
assign = array1d(1..13 ,[2, 4, 2, 4, 3, 4, 3, 1, 2, 1, 2, 3, 4]);
next = array1d(1..13 ,[9, 13, 11, 6, 7, 2, 12, 10, 3, 1, 5, 4, 8]);
makespan = 348;
----------
assign = array1d(1..13 ,[4, 4, 2, 3, 1, 3, 1, 2, 4, 1, 2, 3, 4]);
next = array1d(1..13 ,[9, 1, 11, 6, 7, 12, 10, 3, 13, 8, 4, 2, 5]);
makespan = 344;
----------
assign = array1d(1..13 ,[4, 1, 3, 4, 3, 1, 2, 2, 4, 1, 2, 3, 4]);
next = array1d(1..13 ,[9, 10, 5, 1, 12, 2, 8, 11, 13, 7, 3, 4, 6]);
makespan = 343;
----------
assign = array1d(1..13 ,[4, 1, 3, 2, 2, 1, 3, 4, 4, 1, 2, 3, 4]);
next = array1d(1..13 ,[9, 10, 12, 11, 4, 2, 3, 13, 8, 5, 7, 1, 6]);
makespan = 341;
----------
assign = array1d(1..13 ,[4, 2, 3, 1, 2, 1, 3, 4, 4, 1, 2, 3, 4]);
next = array1d(1..13 ,[9, 5, 12, 10, 11, 4, 3, 13, 8, 2, 7, 1, 6]);
makespan = 340;
----------
assign = array1d(1..13 ,[4, 1, 2, 3, 2, 1, 3, 4, 4, 1, 2, 3, 4]);
next = array1d(1..13 ,[9, 10, 5, 7, 11, 2, 12, 13, 8, 3, 4, 1, 6]);
makespan = 339;
----------
assign = array1d(1..13 ,[4, 3, 4, 1, 2, 3, 2, 1, 2, 1, 2, 3, 4]);
next = array1d(1..13 ,[13, 12, 1, 8, 7, 2, 9, 10, 11, 5, 6, 3, 4]);
makespan = 338;
----------
assign = array1d(1..13 ,[2, 1, 2, 3, 4, 3, 4, 4, 2, 1, 2, 3, 4]);
next = array1d(1..13 ,[3, 10, 11, 6, 7, 12, 13, 5, 1, 9, 4, 8, 2]);
makespan = 336;
----------
assign = array1d(1..13 ,[3, 1, 3, 1, 4, 2, 4, 1, 4, 1, 2, 3, 4]);
next = array1d(1..13 ,[3, 10, 12, 2, 7, 11, 13, 4, 5, 6, 1, 9, 8]);
makespan = 335;
----------
assign = array1d(1..13 ,[3, 4, 1, 4, 2, 3, 2, 4, 1, 1, 2, 3, 4]);
next = array1d(1..13 ,[6, 13, 9, 2, 7, 12, 11, 4, 10, 5, 1, 8, 3]);
makespan = 334;
----------
assign = array1d(1..13 ,[1, 3, 2, 3, 4, 1, 4, 4, 2, 1, 2, 3, 4]);
next = array1d(1..13 ,[10, 12, 9, 2, 7, 1, 13, 5, 11, 3, 4, 8, 6]);
makespan = 332;
----------
assign = array1d(1..13 ,[3, 2, 1, 4, 4, 4, 3, 2, 1, 1, 2, 3, 4]);
next = array1d(1..13 ,[12, 8, 9, 5, 6, 13, 1, 11, 10, 2, 7, 4, 3]);
makespan = 331;
----------
assign = array1d(1..13 ,[3, 2, 4, 2, 4, 1, 3, 4, 1, 1, 2, 3, 4]);
next = array1d(1..13 ,[12, 11, 13, 2, 8, 10, 1, 3, 6, 4, 7, 5, 9]);
makespan = 330;
----------
assign = array1d(1..13 ,[4, 2, 1, 1, 2, 3, 1, 4, 3, 1, 2, 3, 4]);
next = array1d(1..13 ,[8, 11, 10, 7, 2, 12, 3, 13, 6, 5, 9, 1, 4]);
makespan = 329;
----------
assign = array1d(1..13 ,[1, 3, 2, 4, 3, 1, 4, 2, 4, 1, 2, 3, 4]);
next = array1d(1..13 ,[6, 12, 11, 7, 2, 10, 13, 3, 4, 8, 5, 9, 1]);
makespan = 328;
----------
assign = array1d(1..13 ,[1, 3, 4, 4, 3, 2, 1, 4, 2, 1, 2, 3, 4]);
next = array1d(1..13 ,[7, 12, 13, 8, 2, 11, 10, 3, 6, 9, 5, 4, 1]);
makespan = 327;
----------
assign = array1d(1..13 ,[1, 4, 3, 3, 4, 2, 1, 4, 2, 1, 2, 3, 4]);
next = array1d(1..13 ,[7, 8, 4, 12, 2, 9, 10, 13, 11, 6, 3, 5, 1]);
makespan = 326;
----------
assign = array1d(1..13 ,[4, 1, 3, 3, 2, 4, 1, 2, 1, 1, 2, 3, 4]);
next = array1d(1..13 ,[13, 9, 4, 12, 8, 1, 10, 11, 7, 5, 3, 6, 2]);
makespan = 325;
----------
assign = array1d(1..13 ,[2, 3, 1, 3, 4, 1, 4, 4, 2, 1, 2, 3, 4]);
next = array1d(1..13 ,[9, 12, 10, 2, 8, 3, 5, 13, 11, 1, 4, 7, 6]);
makespan = 324;
----------
assign = array1d(1..13 ,[1, 3, 4, 1, 2, 4, 1, 2, 3, 1, 2, 3, 4]);
next = array1d(1..13 ,[7, 9, 13, 1, 8, 3, 10, 11, 12, 5, 2, 6, 4]);
makespan = 323;
----------
assign = array1d(1..13 ,[3, 4, 3, 4, 2, 1, 4, 2, 1, 1, 2, 3, 4]);
next = array1d(1..13 ,[12, 13, 1, 2, 8, 10, 4, 11, 6, 5, 3, 7, 9]);
makespan = 322;
----------
assign = array1d(1..13 ,[3, 4, 1, 3, 4, 2, 1, 4, 2, 1, 2, 3, 4]);
next = array1d(1..13 ,[4, 5, 10, 12, 8, 11, 3, 13, 6, 9, 1, 2, 7]);
makespan = 321;
----------
assign = array1d(1..13 ,[3, 4, 1, 3, 4, 2, 1, 4, 2, 1, 2, 3, 4]);
next = array1d(1..13 ,[4, 5, 10, 12, 8, 11, 3, 13, 6, 9, 1, 2, 7]);
makespan = 320;
----------
assign = array1d(1..13 ,[3, 4, 1, 3, 4, 2, 1, 4, 2, 1, 2, 3, 4]);
next = array1d(1..13 ,[4, 5, 10, 12, 8, 11, 3, 13, 6, 9, 1, 2, 7]);
makespan = 318;
----------
assign = array1d(1..13 ,[3, 4, 1, 3, 4, 2, 1, 4, 2, 1, 2, 3, 4]);
next = array1d(1..13 ,[4, 5, 10, 12, 8, 11, 3, 13, 6, 9, 1, 2, 7]);
makespan = 317;
----------
assign = array1d(1..13 ,[3, 4, 1, 3, 4, 2, 1, 4, 2, 1, 2, 3, 4]);
next = array1d(1..13 ,[4, 5, 10, 12, 8, 11, 3, 13, 6, 9, 1, 2, 7]);
makespan = 316;
----------
assign = array1d(1..13 ,[3, 4, 1, 3, 4, 2, 1, 4, 2, 1, 2, 3, 4]);
next = array1d(1..13 ,[4, 5, 10, 12, 8, 11, 3, 13, 6, 9, 1, 2, 7]);
makespan = 315;
----------
assign = array1d(1..13 ,[3, 4, 1, 3, 4, 2, 1, 4, 2, 1, 2, 3, 4]);
next = array1d(1..13 ,[4, 5, 10, 12, 8, 11, 3, 13, 6, 9, 1, 2, 7]);
makespan = 314;
----------
assign = array1d(1..13 ,[3, 4, 1, 3, 4, 2, 1, 4, 2, 1, 2, 3, 4]);
next = array1d(1..13 ,[4, 5, 10, 12, 8, 11, 3, 13, 6, 9, 1, 2, 7]);
makespan = 313;
----------
assign = array1d(1..13 ,[3, 4, 1, 3, 4, 2, 1, 4, 2, 1, 2, 3, 4]);
next = array1d(1..13 ,[4, 5, 10, 12, 8, 11, 3, 13, 6, 9, 1, 2, 7]);
makespan = 312;
----------
assign = array1d(1..13 ,[3, 1, 3, 1, 4, 2, 4, 4, 1, 1, 2, 3, 4]);
next = array1d(1..13 ,[12, 9, 1, 2, 8, 11, 5, 13, 10, 6, 3, 7, 4]);
makespan = 311;
----------
assign = array1d(1..13 ,[1, 4, 1, 4, 3, 2, 2, 3, 4, 1, 2, 3, 4]);
next = array1d(1..13 ,[3, 9, 10, 2, 8, 11, 6, 12, 13, 7, 5, 4, 1]);
makespan = 310;
----------
assign = array1d(1..13 ,[4, 1, 4, 1, 2, 3, 3, 2, 1, 1, 2, 3, 4]);
next = array1d(1..13 ,[3, 9, 13, 2, 11, 7, 12, 5, 10, 8, 6, 1, 4]);
makespan = 309;
----------
assign = array1d(1..13 ,[2, 4, 2, 3, 4, 3, 1, 1, 4, 1, 2, 3, 4]);
next = array1d(1..13 ,[11, 9, 1, 6, 13, 12, 10, 7, 5, 3, 4, 2, 8]);
makespan = 308;
----------
assign = array1d(1..13 ,[1, 4, 1, 4, 2, 2, 3, 3, 4, 1, 2, 3, 4]);
next = array1d(1..13 ,[3, 9, 10, 2, 11, 5, 12, 7, 13, 6, 8, 4, 1]);
makespan = 306;
----------
assign = array1d(1..13 ,[4, 1, 4, 2, 3, 3, 1, 2, 1, 1, 2, 3, 4]);
next = array1d(1..13 ,[3, 9, 13, 8, 6, 12, 2, 11, 10, 4, 5, 1, 7]);
makespan = 305;
----------
assign = array1d(1..13 ,[1, 4, 1, 2, 3, 3, 4, 2, 4, 1, 2, 3, 4]);
next = array1d(1..13 ,[10, 9, 1, 8, 6, 12, 2, 11, 13, 4, 5, 7, 3]);
makespan = 304;
----------
assign = array1d(1..13 ,[3, 2, 1, 4, 4, 1, 4, 3, 2, 1, 2, 3, 4]);
next = array1d(1..13 ,[12, 11, 10, 5, 7, 3, 13, 1, 2, 9, 8, 4, 6]);
makespan = 302;
----------
assign = array1d(1..13 ,[4, 3, 2, 1, 2, 1, 4, 2, 3, 1, 2, 3, 4]);
next = array1d(1..13 ,[7, 12, 8, 6, 3, 10, 13, 11, 2, 5, 9, 1, 4]);
makespan = 301;
----------
assign = array1d(1..13 ,[1, 1, 3, 4, 4, 3, 2, 4, 2, 1, 2, 3, 4]);
next = array1d(1..13 ,[2, 10, 12, 5, 13, 3, 9, 4, 11, 7, 6, 8, 1]);
makespan = 300;
----------
assign = array1d(1..13 ,[3, 4, 1, 2, 2, 1, 4, 3, 4, 1, 2, 3, 4]);
next = array1d(1..13 ,[8, 9, 6, 5, 11, 10, 2, 12, 13, 4, 1, 7, 3]);
makespan = 299;
----------
assign = array1d(1..13 ,[2, 4, 3, 1, 1, 3, 4, 2, 4, 1, 2, 3, 4]);
next = array1d(1..13 ,[11, 9, 6, 5, 10, 12, 2, 1, 13, 8, 3, 7, 4]);
makespan = 298;
----------
assign = array1d(1..13 ,[1, 4, 1, 3, 3, 2, 4, 2, 4, 1, 2, 3, 4]);
next = array1d(1..13 ,[3, 9, 10, 5, 12, 11, 2, 6, 13, 8, 4, 7, 1]);
makespan = 297;
----------
assign = array1d(1..13 ,[2, 4, 1, 3, 3, 1, 4, 2, 4, 1, 2, 3, 4]);
next = array1d(1..13 ,[11, 9, 10, 5, 12, 3, 2, 1, 13, 8, 4, 7, 6]);
makespan = 296;
----------
assign = array1d(1..13 ,[2, 4, 3, 1, 1, 2, 4, 3, 4, 1, 2, 3, 4]);
next = array1d(1..13 ,[6, 9, 12, 5, 10, 11, 2, 3, 13, 1, 8, 7, 4]);
makespan = 295;
----------
assign = array1d(1..13 ,[1, 4, 3, 4, 4, 3, 2, 1, 2, 1, 2, 3, 4]);
next = array1d(1..13 ,[10, 4, 12, 5, 13, 3, 9, 1, 11, 7, 6, 2, 8]);
makespan = 294;
----------
assign = array1d(1..13 ,[3, 4, 2, 4, 4, 3, 2, 1, 1, 1, 2, 3, 4]);
next = array1d(1..13 ,[12, 4, 11, 5, 13, 1, 3, 9, 10, 7, 6, 2, 8]);
makespan = 293;
----------
assign = array1d(1..13 ,[4, 1, 2, 3, 3, 4, 1, 2, 1, 1, 2, 3, 4]);
next = array1d(1..13 ,[13, 9, 11, 5, 12, 1, 2, 3, 10, 8, 4, 6, 7]);
makespan = 292;
----------
assign = array1d(1..13 ,[1, 3, 2, 1, 2, 3, 4, 4, 4, 1, 2, 3, 4]);
next = array1d(1..13 ,[4, 12, 11, 10, 3, 2, 8, 9, 13, 5, 6, 7, 1]);
makespan = 291;
----------
assign = array1d(1..13 ,[1, 3, 2, 2, 1, 3, 4, 4, 4, 1, 2, 3, 4]);
next = array1d(1..13 ,[10, 12, 11, 3, 1, 2, 8, 9, 13, 4, 6, 7, 5]);
makespan = 290;
----------
assign = array1d(1..13 ,[2, 1, 2, 4, 4, 1, 3, 4, 3, 1, 2, 3, 4]);
next = array1d(1..13 ,[3, 10, 11, 5, 8, 2, 12, 13, 7, 1, 9, 4, 6]);
makespan = 289;
----------
assign = array1d(1..13 ,[2, 3, 2, 4, 4, 1, 4, 1, 3, 1, 2, 3, 4]);
next = array1d(1..13 ,[11, 9, 1, 5, 13, 10, 4, 6, 12, 3, 2, 7, 8]);
makespan = 288;
----------
assign = array1d(1..13 ,[2, 4, 3, 1, 1, 3, 4, 2, 4, 1, 2, 3, 4]);
next = array1d(1..13 ,[8, 9, 12, 5, 10, 3, 2, 11, 13, 1, 6, 7, 4]);
makespan = 287;
----------
assign = array1d(1..13 ,[3, 4, 2, 1, 3, 2, 4, 1, 4, 1, 2, 3, 4]);
next = array1d(1..13 ,[5, 9, 11, 10, 12, 3, 2, 4, 13, 6, 1, 7, 8]);
makespan = 286;
----------
assign = array1d(1..13 ,[3, 4, 2, 1, 4, 2, 4, 1, 3, 1, 2, 3, 4]);
next = array1d(1..13 ,[12, 13, 11, 10, 7, 3, 2, 4, 1, 6, 9, 5, 8]);
makespan = 285;
----------
assign = array1d(1..13 ,[2, 4, 3, 1, 4, 3, 4, 1, 2, 1, 2, 3, 4]);
next = array1d(1..13 ,[9, 13, 12, 10, 7, 3, 2, 4, 11, 1, 6, 5, 8]);
makespan = 284;
----------
assign = array1d(1..13 ,[2, 4, 3, 1, 4, 3, 4, 1, 2, 1, 2, 3, 4]);
next = array1d(1..13 ,[9, 13, 12, 10, 7, 3, 2, 4, 11, 1, 6, 5, 8]);
makespan = 283;
----------
assign = array1d(1..13 ,[2, 4, 3, 1, 4, 3, 4, 1, 2, 1, 2, 3, 4]);
next = array1d(1..13 ,[9, 13, 12, 10, 7, 3, 2, 4, 11, 1, 6, 5, 8]);
makespan = 282;
----------
assign = array1d(1..13 ,[2, 4, 3, 1, 4, 3, 4, 1, 2, 1, 2, 3, 4]);
next = array1d(1..13 ,[9, 13, 12, 10, 7, 3, 2, 4, 11, 1, 6, 5, 8]);
makespan = 281;
----------
assign = array1d(1..13 ,[2, 4, 3, 1, 4, 3, 4, 1, 2, 1, 2, 3, 4]);
next = array1d(1..13 ,[9, 13, 12, 10, 7, 3, 2, 4, 11, 1, 6, 5, 8]);
makespan = 280;
----------
assign = array1d(1..13 ,[2, 4, 3, 1, 4, 3, 4, 1, 2, 1, 2, 3, 4]);
next = array1d(1..13 ,[9, 13, 12, 10, 7, 3, 2, 4, 11, 1, 6, 5, 8]);
makespan = 279;
----------
assign = array1d(1..13 ,[2, 4, 3, 1, 4, 3, 4, 1, 2, 1, 2, 3, 4]);
next = array1d(1..13 ,[9, 13, 12, 10, 7, 3, 2, 4, 11, 1, 6, 5, 8]);
makespan = 278;
----------
assign = array1d(1..13 ,[2, 4, 3, 1, 4, 3, 4, 1, 2, 1, 2, 3, 4]);
next = array1d(1..13 ,[9, 13, 12, 10, 7, 3, 2, 4, 11, 1, 6, 5, 8]);
makespan = 277;
----------
assign = array1d(1..13 ,[2, 4, 3, 1, 4, 3, 4, 1, 2, 1, 2, 3, 4]);
next = array1d(1..13 ,[9, 13, 12, 10, 7, 3, 2, 4, 11, 1, 6, 5, 8]);
makespan = 276;
----------
assign = array1d(1..13 ,[2, 4, 3, 1, 4, 3, 4, 1, 2, 1, 2, 3, 4]);
next = array1d(1..13 ,[9, 13, 12, 10, 7, 3, 2, 4, 11, 1, 6, 5, 8]);
makespan = 275;
----------
assign = array1d(1..13 ,[2, 4, 3, 1, 4, 3, 4, 1, 2, 1, 2, 3, 4]);
next = array1d(1..13 ,[9, 13, 12, 10, 7, 3, 2, 4, 11, 1, 6, 5, 8]);
makespan = 274;
----------
assign = array1d(1..13 ,[2, 4, 3, 1, 4, 3, 4, 1, 2, 1, 2, 3, 4]);
next = array1d(1..13 ,[9, 13, 12, 10, 7, 3, 2, 4, 11, 1, 6, 5, 8]);
makespan = 273;
----------
assign = array1d(1..13 ,[2, 4, 3, 1, 4, 3, 4, 1, 2, 1, 2, 3, 4]);
next = array1d(1..13 ,[9, 13, 12, 10, 7, 3, 2, 4, 11, 1, 6, 5, 8]);
makespan = 272;
----------
assign = array1d(1..13 ,[2, 4, 2, 4, 3, 3, 4, 1, 1, 1, 2, 3, 4]);
next = array1d(1..13 ,[3, 4, 11, 13, 6, 12, 2, 9, 10, 1, 5, 7, 8]);
makespan = 271;
----------
==========
	Command being timed: "mzn-chuffed lbbd-datasets/Rabadi-2006/dzn-balanced/model.mzn lbbd-datasets/Rabadi-2006/dzn-balanced/9on4Rp50Rs50_13Ameer.dzn"
	User time (seconds): 0.60
	System time (seconds): 0.03
	Percent of CPU this job got: 1%
	Elapsed (wall clock) time (h:mm:ss or m:ss): 0:34.63
	Average shared text size (kbytes): 0
	Average unshared data size (kbytes): 0
	Average stack size (kbytes): 0
	Average total size (kbytes): 0
	Maximum resident set size (kbytes): 42224
	Average resident set size (kbytes): 0
	Major (requiring I/O) page faults: 0
	Minor (reclaiming a frame) page faults: 3848
	Voluntary context switches: 383
	Involuntary context switches: 4
	Swaps: 0
	File system inputs: 0
	File system outputs: 456
	Socket messages sent: 0
	Socket messages received: 0
	Signals delivered: 0
	Page size (bytes): 4096
	Exit status: 0
