+ /usr/bin/timeout 600 /usr/bin/time -v mzn-chuffed lbbd-datasets/Rabadi-2006/dzn-p-dominant/model.mzn lbbd-datasets/Rabadi-2006/dzn-p-dominant/10on4Rp50Rs50_15Ameer.dzn
% No search annotation given. Defaulting to VSIDS!
assign = array1d(1..14 ,[4, 4, 4, 4, 4, 4, 4, 4, 4, 4, 1, 2, 3, 4]);
next = array1d(1..14 ,[2, 3, 4, 5, 6, 7, 8, 9, 10, 14, 12, 13, 1, 11]);
makespan = 2189;
----------
assign = array1d(1..14 ,[4, 4, 4, 4, 4, 4, 4, 4, 4, 4, 1, 2, 3, 4]);
next = array1d(1..14 ,[3, 4, 2, 5, 6, 7, 8, 9, 10, 14, 12, 13, 1, 11]);
makespan = 2179;
----------
assign = array1d(1..14 ,[4, 4, 4, 4, 4, 4, 4, 4, 4, 1, 1, 2, 3, 4]);
next = array1d(1..14 ,[2, 5, 4, 8, 6, 7, 14, 9, 1, 11, 12, 13, 3, 10]);
makespan = 2046;
----------
assign = array1d(1..14 ,[4, 1, 4, 4, 4, 4, 4, 4, 4, 4, 1, 2, 3, 4]);
next = array1d(1..14 ,[5, 11, 10, 3, 4, 7, 8, 9, 1, 14, 12, 13, 6, 2]);
makespan = 2044;
----------
assign = array1d(1..14 ,[4, 4, 4, 4, 1, 4, 4, 4, 4, 4, 1, 2, 3, 4]);
next = array1d(1..14 ,[2, 4, 6, 8, 11, 1, 9, 7, 10, 14, 12, 13, 3, 5]);
makespan = 2042;
----------
assign = array1d(1..14 ,[4, 4, 4, 4, 4, 4, 4, 4, 4, 1, 1, 2, 3, 4]);
next = array1d(1..14 ,[14, 8, 2, 7, 1, 3, 9, 4, 5, 11, 12, 13, 6, 10]);
makespan = 2035;
----------
assign = array1d(1..14 ,[1, 4, 4, 4, 4, 4, 4, 4, 4, 4, 1, 2, 3, 4]);
next = array1d(1..14 ,[11, 6, 9, 8, 4, 10, 14, 7, 2, 5, 12, 13, 3, 1]);
makespan = 2033;
----------
assign = array1d(1..14 ,[4, 4, 4, 4, 4, 4, 4, 4, 4, 3, 1, 2, 3, 4]);
next = array1d(1..14 ,[7, 3, 4, 5, 9, 2, 14, 1, 8, 13, 12, 10, 6, 11]);
makespan = 2025;
----------
assign = array1d(1..14 ,[4, 1, 4, 4, 4, 4, 4, 4, 4, 4, 1, 2, 3, 4]);
next = array1d(1..14 ,[5, 11, 7, 8, 4, 10, 9, 3, 6, 14, 12, 13, 1, 2]);
makespan = 2024;
----------
assign = array1d(1..14 ,[4, 4, 4, 4, 4, 4, 1, 4, 4, 4, 1, 2, 3, 4]);
next = array1d(1..14 ,[5, 8, 9, 3, 4, 2, 11, 14, 10, 6, 12, 13, 1, 7]);
makespan = 2021;
----------
assign = array1d(1..14 ,[4, 4, 4, 4, 4, 4, 1, 4, 4, 4, 1, 2, 3, 4]);
next = array1d(1..14 ,[5, 1, 2, 14, 4, 10, 11, 3, 8, 9, 12, 13, 6, 7]);
makespan = 2020;
----------
assign = array1d(1..14 ,[4, 4, 4, 4, 4, 4, 1, 4, 4, 4, 1, 2, 3, 4]);
next = array1d(1..14 ,[2, 6, 9, 8, 4, 5, 11, 3, 10, 14, 12, 13, 1, 7]);
makespan = 2019;
----------
assign = array1d(1..14 ,[4, 2, 4, 4, 4, 4, 4, 4, 4, 4, 1, 2, 3, 4]);
next = array1d(1..14 ,[10, 12, 6, 8, 4, 14, 9, 7, 1, 3, 2, 13, 5, 11]);
makespan = 2017;
----------
assign = array1d(1..14 ,[4, 4, 4, 4, 4, 4, 2, 4, 4, 4, 1, 2, 3, 4]);
next = array1d(1..14 ,[2, 6, 5, 8, 9, 4, 12, 3, 10, 14, 7, 13, 1, 11]);
makespan = 2016;
----------
assign = array1d(1..14 ,[4, 4, 4, 4, 4, 4, 1, 4, 4, 4, 1, 2, 3, 4]);
next = array1d(1..14 ,[10, 6, 14, 3, 4, 5, 11, 1, 2, 9, 12, 13, 8, 7]);
makespan = 2014;
----------
assign = array1d(1..14 ,[4, 4, 4, 4, 4, 4, 1, 4, 4, 4, 1, 2, 3, 4]);
next = array1d(1..14 ,[5, 3, 10, 2, 14, 4, 11, 1, 8, 9, 12, 13, 6, 7]);
makespan = 2013;
----------
assign = array1d(1..14 ,[4, 4, 4, 4, 4, 4, 1, 4, 4, 4, 1, 2, 3, 4]);
next = array1d(1..14 ,[14, 5, 1, 3, 4, 10, 11, 2, 8, 9, 12, 13, 6, 7]);
makespan = 2012;
----------
assign = array1d(1..14 ,[4, 4, 4, 4, 4, 4, 1, 4, 4, 4, 1, 2, 3, 4]);
next = array1d(1..14 ,[5, 10, 6, 14, 9, 2, 11, 4, 8, 1, 12, 13, 3, 7]);
makespan = 2010;
----------
assign = array1d(1..14 ,[4, 4, 4, 4, 4, 4, 1, 4, 4, 4, 1, 2, 3, 4]);
next = array1d(1..14 ,[6, 8, 10, 3, 14, 2, 11, 4, 5, 9, 12, 13, 1, 7]);
makespan = 2009;
----------
assign = array1d(1..14 ,[4, 4, 4, 4, 4, 4, 3, 4, 4, 4, 1, 2, 3, 4]);
next = array1d(1..14 ,[2, 6, 14, 5, 8, 10, 13, 3, 4, 9, 12, 7, 1, 11]);
makespan = 2008;
----------
assign = array1d(1..14 ,[4, 4, 4, 4, 4, 4, 4, 4, 1, 4, 1, 2, 3, 4]);
next = array1d(1..14 ,[2, 7, 4, 6, 8, 10, 3, 1, 11, 14, 12, 13, 5, 9]);
makespan = 1992;
----------
assign = array1d(1..14 ,[4, 4, 4, 1, 4, 4, 4, 4, 4, 4, 1, 2, 3, 4]);
next = array1d(1..14 ,[6, 7, 10, 11, 14, 5, 1, 9, 3, 2, 12, 13, 8, 4]);
makespan = 1984;
----------
assign = array1d(1..14 ,[4, 4, 4, 4, 4, 4, 4, 4, 4, 1, 1, 2, 3, 4]);
next = array1d(1..14 ,[6, 8, 14, 3, 4, 5, 2, 1, 7, 11, 12, 13, 9, 10]);
makespan = 1974;
----------
assign = array1d(1..14 ,[1, 4, 4, 4, 4, 4, 4, 4, 4, 4, 1, 2, 3, 4]);
next = array1d(1..14 ,[11, 8, 7, 5, 9, 3, 2, 10, 6, 14, 12, 13, 4, 1]);
makespan = 1969;
----------
