+ /usr/bin/timeout 600 /usr/bin/time -v mzn-grb -a lbbd-datasets/Rabadi-2006/dzn-p-dominant/model.mzn lbbd-datasets/Rabadi-2006/dzn-p-dominant/7on2Rp50Rs50_15Ameer.dzn
assign = array1d(1..9 ,[2, 1, 1, 1, 2, 2, 2, 1, 2]);
next = array1d(1..9 ,[7, 8, 2, 3, 1, 9, 6, 5, 4]);
makespan = 834;
----------
assign = array1d(1..9 ,[2, 2, 2, 2, 1, 1, 1, 1, 2]);
next = array1d(1..9 ,[3, 1, 9, 2, 6, 8, 5, 4, 7]);
makespan = 801;
----------
assign = array1d(1..9 ,[2, 1, 1, 1, 1, 2, 2, 1, 2]);
next = array1d(1..9 ,[9, 4, 2, 8, 3, 7, 1, 6, 5]);
makespan = 765;
----------
assign = array1d(1..9 ,[1, 1, 2, 1, 2, 1, 2, 1, 2]);
next = array1d(1..9 ,[8, 4, 7, 1, 3, 2, 9, 5, 6]);
makespan = 744;
----------
assign = array1d(1..9 ,[2, 1, 2, 1, 1, 2, 1, 1, 2]);
next = array1d(1..9 ,[9, 8, 6, 7, 4, 1, 2, 3, 5]);
makespan = 740;
----------
assign = array1d(1..9 ,[1, 1, 2, 1, 2, 2, 1, 1, 2]);
next = array1d(1..9 ,[8, 4, 6, 1, 9, 5, 2, 3, 7]);
makespan = 739;
----------
assign = array1d(1..9 ,[1, 1, 2, 1, 1, 2, 2, 1, 2]);
next = array1d(1..9 ,[2, 8, 6, 1, 4, 9, 3, 7, 5]);
makespan = 728;
----------
assign = array1d(1..9 ,[1, 1, 2, 1, 1, 2, 2, 1, 2]);
next = array1d(1..9 ,[2, 8, 6, 1, 4, 9, 3, 7, 5]);
makespan = 728;
----------
==========
	Command being timed: "mzn-grb -a lbbd-datasets/Rabadi-2006/dzn-p-dominant/model.mzn lbbd-datasets/Rabadi-2006/dzn-p-dominant/7on2Rp50Rs50_15Ameer.dzn"
	User time (seconds): 1.39
	System time (seconds): 0.02
	Percent of CPU this job got: 99%
	Elapsed (wall clock) time (h:mm:ss or m:ss): 0:01.42
	Average shared text size (kbytes): 0
	Average unshared data size (kbytes): 0
	Average stack size (kbytes): 0
	Average total size (kbytes): 0
	Maximum resident set size (kbytes): 78432
	Average resident set size (kbytes): 0
	Major (requiring I/O) page faults: 0
	Minor (reclaiming a frame) page faults: 6274
	Voluntary context switches: 4
	Involuntary context switches: 8
	Swaps: 0
	File system inputs: 0
	File system outputs: 0
	Socket messages sent: 0
	Socket messages received: 0
	Signals delivered: 0
	Page size (bytes): 4096
	Exit status: 0
