+ /usr/bin/timeout 600 /usr/bin/time -v mzn-grb -a lbbd-datasets/sscplp/trucks-dzn/model.mzn lbbd-datasets/sscplp/trucks-dzn/p02-l50-c80-uncorrelated.dzn
source = [7, 7, 6, 6, 6, 4, 6, 4, 4, 4, 3, 4, 3, 3, 3, 3, 1, 1, 1, 1]
open = [true, false, true, true, false, true, true, false, false, false]
trucks_used = [4, 0, 4, 4, 0, 4, 2, 0, 0, 0]
truck_assigned = [1, 2, 4, 3, 2, 4, 2, 3, 3, 2, 4, 2, 3, 2, 2, 2, 4, 3, 3, 2]
obj = 5837
----------
source = [10, 7, 9, 3, 7, 7, 1, 9, 9, 1, 10, 10, 10, 4, 4, 5, 7, 1, 10, 3]
open = [true, false, true, true, true, false, true, false, true, true]
trucks_used = [2, 0, 2, 1, 1, 0, 3, 0, 1, 4]
truck_assigned = [1, 3, 1, 2, 1, 2, 1, 1, 1, 1, 1, 1, 2, 1, 1, 1, 1, 2, 4, 2]
obj = 5681
----------
source = [10, 7, 9, 1, 7, 9, 10, 9, 10, 4, 10, 10, 1, 4, 4, 1, 7, 5, 10, 5]
open = [true, false, false, true, true, false, true, false, true, true]
trucks_used = [2, 0, 0, 2, 2, 0, 2, 0, 1, 3]
truck_assigned = [1, 1, 1, 2, 2, 1, 3, 1, 2, 1, 2, 1, 1, 1, 2, 2, 2, 1, 1, 2]
obj = 4198
----------
source = [10, 7, 9, 1, 7, 9, 10, 9, 10, 4, 10, 10, 1, 4, 4, 1, 7, 5, 10, 5]
open = [true, false, false, true, true, false, true, false, true, true]
trucks_used = [2, 0, 0, 2, 1, 0, 2, 0, 1, 3]
truck_assigned = [1, 1, 1, 2, 2, 1, 3, 1, 2, 1, 2, 1, 1, 1, 2, 2, 2, 1, 1, 1]
obj = 4118
----------
source = [10, 7, 9, 1, 7, 9, 10, 9, 10, 1, 10, 10, 4, 4, 4, 1, 1, 7, 7, 10]
open = [true, false, false, true, false, false, true, false, true, true]
trucks_used = [2, 0, 0, 2, 0, 0, 2, 0, 1, 6]
truck_assigned = [1, 2, 1, 2, 1, 1, 6, 1, 2, 1, 1, 1, 2, 1, 2, 1, 2, 1, 1, 3]
obj = 3973
----------
source = [10, 7, 8, 1, 7, 8, 10, 4, 10, 1, 10, 10, 4, 4, 4, 1, 1, 7, 10, 7]
open = [true, false, false, true, false, false, true, true, false, true]
trucks_used = [2, 0, 0, 2, 0, 0, 2, 1, 0, 3]
truck_assigned = [2, 2, 1, 2, 1, 1, 3, 1, 1, 1, 1, 2, 1, 2, 2, 1, 2, 1, 2, 1]
obj = 3687
----------
source = [10, 7, 8, 1, 7, 8, 10, 4, 10, 1, 10, 10, 4, 4, 4, 1, 1, 7, 10, 7]
open = [true, false, false, true, false, false, true, true, false, true]
trucks_used = [2, 0, 0, 2, 0, 0, 2, 1, 0, 3]
truck_assigned = [2, 2, 1, 2, 1, 1, 3, 1, 1, 1, 1, 2, 1, 2, 2, 1, 2, 1, 2, 1]
obj = 3687
----------
==========
	Command being timed: "mzn-grb -a lbbd-datasets/sscplp/trucks-dzn/model.mzn lbbd-datasets/sscplp/trucks-dzn/p02-l50-c80-uncorrelated.dzn"
	User time (seconds): 110.29
	System time (seconds): 0.41
	Percent of CPU this job got: 99%
	Elapsed (wall clock) time (h:mm:ss or m:ss): 1:50.91
	Average shared text size (kbytes): 0
	Average unshared data size (kbytes): 0
	Average stack size (kbytes): 0
	Average total size (kbytes): 0
	Maximum resident set size (kbytes): 1639136
	Average resident set size (kbytes): 0
	Major (requiring I/O) page faults: 0
	Minor (reclaiming a frame) page faults: 110442
	Voluntary context switches: 6
	Involuntary context switches: 185
	Swaps: 0
	File system inputs: 0
	File system outputs: 16
	Socket messages sent: 0
	Socket messages received: 0
	Signals delivered: 0
	Page size (bytes): 4096
	Exit status: 0
