+ /usr/bin/timeout 600 /usr/bin/time -v mzn-grb -a lbbd-datasets/Rabadi-2006/dzn-balanced/model.mzn lbbd-datasets/Rabadi-2006/dzn-balanced/7on4Rp50Rs50_4Ameer.dzn
assign = array1d(1..11 ,[4, 2, 2, 1, 4, 1, 3, 1, 2, 3, 4]);
next = array1d(1..11 ,[5, 3, 9, 8, 11, 4, 10, 2, 7, 1, 6]);
makespan = 190;
----------
assign = array1d(1..11 ,[4, 3, 4, 2, 2, 3, 1, 1, 2, 3, 4]);
next = array1d(1..11 ,[3, 6, 11, 5, 9, 10, 8, 4, 2, 1, 7]);
makespan = 188;
----------
assign = array1d(1..11 ,[3, 3, 1, 2, 2, 4, 1, 1, 2, 3, 4]);
next = array1d(1..11 ,[10, 1, 8, 5, 9, 11, 3, 4, 2, 6, 7]);
makespan = 186;
----------
assign = array1d(1..11 ,[3, 3, 1, 2, 2, 4, 1, 1, 2, 3, 4]);
next = array1d(1..11 ,[10, 1, 8, 5, 9, 11, 3, 4, 2, 6, 7]);
makespan = 186;
----------
==========
	Command being timed: "mzn-grb -a lbbd-datasets/Rabadi-2006/dzn-balanced/model.mzn lbbd-datasets/Rabadi-2006/dzn-balanced/7on4Rp50Rs50_4Ameer.dzn"
	User time (seconds): 3.10
	System time (seconds): 0.03
	Percent of CPU this job got: 99%
	Elapsed (wall clock) time (h:mm:ss or m:ss): 0:03.15
	Average shared text size (kbytes): 0
	Average unshared data size (kbytes): 0
	Average stack size (kbytes): 0
	Average total size (kbytes): 0
	Maximum resident set size (kbytes): 107024
	Average resident set size (kbytes): 0
	Major (requiring I/O) page faults: 0
	Minor (reclaiming a frame) page faults: 8642
	Voluntary context switches: 6
	Involuntary context switches: 12
	Swaps: 0
	File system inputs: 0
	File system outputs: 8
	Socket messages sent: 0
	Socket messages received: 0
	Signals delivered: 0
	Page size (bytes): 4096
	Exit status: 0
