+ /usr/bin/timeout 600 /usr/bin/time -v mzn-grb -a lbbd-datasets/Rabadi-2006/dzn-s-dominant/model.mzn lbbd-datasets/Rabadi-2006/dzn-s-dominant/10on2Rp50Rs50_7Ameer.dzn
assign = array1d(1..12 ,[2, 1, 2, 1, 2, 1, 1, 2, 2, 1, 1, 2]);
next = array1d(1..12 ,[12, 7, 1, 6, 3, 10, 4, 9, 5, 11, 8, 2]);
makespan = 1023;
----------
assign = array1d(1..12 ,[1, 2, 1, 2, 2, 1, 2, 1, 1, 2, 1, 2]);
next = array1d(1..12 ,[8, 10, 9, 5, 12, 3, 4, 6, 11, 7, 2, 1]);
makespan = 932;
----------
assign = array1d(1..12 ,[2, 2, 1, 2, 2, 1, 2, 1, 1, 1, 1, 2]);
next = array1d(1..12 ,[7, 5, 8, 2, 12, 3, 4, 9, 11, 6, 1, 10]);
makespan = 914;
----------
assign = array1d(1..12 ,[2, 2, 2, 1, 2, 1, 1, 2, 1, 1, 1, 2]);
next = array1d(1..12 ,[3, 5, 8, 10, 12, 11, 9, 2, 4, 6, 1, 7]);
makespan = 898;
----------
assign = array1d(1..12 ,[2, 1, 2, 2, 1, 1, 2, 2, 1, 1, 1, 2]);
next = array1d(1..12 ,[7, 10, 8, 12, 11, 5, 4, 1, 2, 6, 3, 9]);
makespan = 895;
----------
assign = array1d(1..12 ,[2, 1, 2, 2, 1, 1, 2, 2, 1, 1, 1, 2]);
next = array1d(1..12 ,[7, 10, 8, 12, 11, 5, 4, 1, 2, 6, 3, 9]);
makespan = 895;
----------
==========
	Command being timed: "mzn-grb -a lbbd-datasets/Rabadi-2006/dzn-s-dominant/model.mzn lbbd-datasets/Rabadi-2006/dzn-s-dominant/10on2Rp50Rs50_7Ameer.dzn"
	User time (seconds): 27.46
	System time (seconds): 0.05
	Percent of CPU this job got: 99%
	Elapsed (wall clock) time (h:mm:ss or m:ss): 0:27.57
	Average shared text size (kbytes): 0
	Average unshared data size (kbytes): 0
	Average stack size (kbytes): 0
	Average total size (kbytes): 0
	Maximum resident set size (kbytes): 142192
	Average resident set size (kbytes): 0
	Major (requiring I/O) page faults: 0
	Minor (reclaiming a frame) page faults: 15624
	Voluntary context switches: 6
	Involuntary context switches: 39
	Swaps: 0
	File system inputs: 0
	File system outputs: 8
	Socket messages sent: 0
	Socket messages received: 0
	Signals delivered: 0
	Page size (bytes): 4096
	Exit status: 0
