+ /usr/bin/timeout 600 /usr/bin/time -v mzn-grb -a lbbd-datasets/Rabadi-2006/dzn-p-dominant/model.mzn lbbd-datasets/Rabadi-2006/dzn-p-dominant/8on4Rp50Rs50_4Ameer.dzn
assign = array1d(1..12 ,[2, 3, 2, 4, 3, 4, 1, 1, 1, 2, 3, 4]);
next = array1d(1..12 ,[3, 11, 10, 6, 2, 12, 8, 9, 1, 5, 4, 7]);
makespan = 357;
----------
assign = array1d(1..12 ,[2, 3, 2, 3, 4, 4, 1, 1, 1, 2, 3, 4]);
next = array1d(1..12 ,[3, 11, 10, 2, 6, 12, 8, 9, 1, 4, 5, 7]);
makespan = 344;
----------
assign = array1d(1..12 ,[2, 3, 2, 3, 4, 4, 1, 1, 1, 2, 3, 4]);
next = array1d(1..12 ,[3, 11, 10, 2, 6, 12, 8, 9, 1, 4, 5, 7]);
makespan = 344;
----------
==========
	Command being timed: "mzn-grb -a lbbd-datasets/Rabadi-2006/dzn-p-dominant/model.mzn lbbd-datasets/Rabadi-2006/dzn-p-dominant/8on4Rp50Rs50_4Ameer.dzn"
	User time (seconds): 4.45
	System time (seconds): 0.03
	Percent of CPU this job got: 99%
	Elapsed (wall clock) time (h:mm:ss or m:ss): 0:04.49
	Average shared text size (kbytes): 0
	Average unshared data size (kbytes): 0
	Average stack size (kbytes): 0
	Average total size (kbytes): 0
	Maximum resident set size (kbytes): 120960
	Average resident set size (kbytes): 0
	Major (requiring I/O) page faults: 0
	Minor (reclaiming a frame) page faults: 10432
	Voluntary context switches: 4
	Involuntary context switches: 16
	Swaps: 0
	File system inputs: 0
	File system outputs: 8
	Socket messages sent: 0
	Socket messages received: 0
	Signals delivered: 0
	Page size (bytes): 4096
	Exit status: 0
