+ /usr/bin/timeout 600 /usr/bin/time -v mzn-grb -a lbbd-datasets/planningandscheduling/cost-insts/model.mzn lbbd-datasets/planningandscheduling/cost-insts/de14j3m3.dzn
obj = 435
----------
obj = 420
----------
obj = 419
----------
obj = 408
----------
obj = 407
----------
obj = 407
----------
==========
	Command being timed: "mzn-grb -a lbbd-datasets/planningandscheduling/cost-insts/model.mzn lbbd-datasets/planningandscheduling/cost-insts/de14j3m3.dzn"
	User time (seconds): 86.22
	System time (seconds): 0.34
	Percent of CPU this job got: 99%
	Elapsed (wall clock) time (h:mm:ss or m:ss): 1:26.73
	Average shared text size (kbytes): 0
	Average unshared data size (kbytes): 0
	Average stack size (kbytes): 0
	Average total size (kbytes): 0
	Maximum resident set size (kbytes): 1457824
	Average resident set size (kbytes): 0
	Major (requiring I/O) page faults: 0
	Minor (reclaiming a frame) page faults: 93295
	Voluntary context switches: 9
	Involuntary context switches: 176
	Swaps: 0
	File system inputs: 0
	File system outputs: 32
	Socket messages sent: 0
	Socket messages received: 0
	Signals delivered: 0
	Page size (bytes): 4096
	Exit status: 0
