+ /usr/bin/timeout 600 /usr/bin/time -v mzn-grb -a lbbd-datasets/Rabadi-2006/dzn-p-dominant/model.mzn lbbd-datasets/Rabadi-2006/dzn-p-dominant/10on2Rp50Rs50_15Ameer.dzn
assign = array1d(1..12 ,[1, 1, 1, 1, 1, 2, 1, 1, 1, 1, 1, 2]);
next = array1d(1..12 ,[10, 11, 2, 7, 4, 12, 3, 1, 8, 5, 6, 9]);
makespan = 1939;
----------
assign = array1d(1..12 ,[2, 1, 1, 1, 1, 1, 1, 2, 2, 1, 1, 2]);
next = array1d(1..12 ,[12, 3, 6, 5, 11, 10, 2, 9, 1, 4, 8, 7]);
makespan = 1430;
----------
assign = array1d(1..12 ,[2, 1, 2, 2, 1, 2, 1, 1, 2, 1, 1, 2]);
next = array1d(1..12 ,[3, 11, 12, 9, 2, 1, 10, 7, 6, 5, 4, 8]);
makespan = 967;
----------
assign = array1d(1..12 ,[2, 1, 2, 1, 1, 2, 1, 1, 2, 2, 1, 2]);
next = array1d(1..12 ,[10, 8, 1, 5, 11, 9, 2, 4, 12, 6, 3, 7]);
makespan = 960;
----------
assign = array1d(1..12 ,[2, 1, 2, 1, 1, 2, 1, 2, 2, 1, 1, 2]);
next = array1d(1..12 ,[9, 11, 8, 5, 2, 12, 10, 1, 6, 4, 3, 7]);
makespan = 958;
----------
assign = array1d(1..12 ,[2, 1, 2, 1, 1, 2, 1, 2, 2, 1, 1, 2]);
next = array1d(1..12 ,[9, 11, 8, 5, 2, 12, 10, 1, 6, 4, 3, 7]);
makespan = 958;
----------
==========
	Command being timed: "mzn-grb -a lbbd-datasets/Rabadi-2006/dzn-p-dominant/model.mzn lbbd-datasets/Rabadi-2006/dzn-p-dominant/10on2Rp50Rs50_15Ameer.dzn"
	User time (seconds): 1.72
	System time (seconds): 0.02
	Percent of CPU this job got: 99%
	Elapsed (wall clock) time (h:mm:ss or m:ss): 0:01.75
	Average shared text size (kbytes): 0
	Average unshared data size (kbytes): 0
	Average stack size (kbytes): 0
	Average total size (kbytes): 0
	Maximum resident set size (kbytes): 103760
	Average resident set size (kbytes): 0
	Major (requiring I/O) page faults: 0
	Minor (reclaiming a frame) page faults: 7208
	Voluntary context switches: 4
	Involuntary context switches: 9
	Swaps: 0
	File system inputs: 0
	File system outputs: 8
	Socket messages sent: 0
	Socket messages received: 0
	Signals delivered: 0
	Page size (bytes): 4096
	Exit status: 0
