+ /usr/bin/timeout 600 /usr/bin/time -v mzn-grb -a lbbd-datasets/sscplp/trucks-dzn/model.mzn lbbd-datasets/sscplp/trucks-dzn/p02-l50-c150-correlated.dzn
source = [4, 6, 9, 8, 8, 3, 6, 6, 4, 4, 4, 1, 3, 3, 3, 3, 1, 1, 1, 1]
open = [true, false, true, true, false, true, false, true, true, false]
trucks_used = [4, 0, 5, 4, 0, 3, 0, 2, 1, 0]
truck_assigned = [1, 1, 1, 1, 2, 1, 3, 2, 4, 3, 2, 4, 5, 4, 3, 2, 3, 3, 2, 2]
obj = 7474
----------
source = [10, 7, 9, 7, 1, 8, 10, 4, 10, 4, 9, 8, 1, 4, 10, 1, 4, 7, 7, 10]
open = [true, false, false, true, false, false, true, true, true, true]
trucks_used = [3, 0, 0, 2, 0, 0, 2, 1, 1, 4]
truck_assigned = [4, 1, 1, 2, 2, 1, 1, 2, 1, 1, 1, 1, 3, 2, 3, 1, 1, 2, 1, 1]
obj = 5204
----------
source = [10, 7, 9, 7, 1, 8, 10, 4, 10, 4, 9, 8, 1, 4, 10, 1, 4, 7, 7, 10]
open = [true, false, false, true, false, false, true, true, true, true]
trucks_used = [3, 0, 0, 2, 0, 0, 2, 1, 1, 2]
truck_assigned = [1, 1, 1, 2, 2, 1, 2, 2, 2, 1, 1, 1, 3, 2, 1, 1, 1, 2, 1, 2]
obj = 4904
----------
source = [10, 7, 9, 7, 7, 8, 10, 4, 10, 4, 1, 8, 1, 4, 10, 1, 4, 9, 10, 10]
open = [true, false, false, true, false, false, true, true, true, true]
trucks_used = [2, 0, 0, 2, 0, 0, 2, 1, 1, 3]
truck_assigned = [1, 1, 1, 2, 2, 1, 3, 1, 1, 1, 2, 1, 1, 2, 2, 2, 2, 1, 2, 1]
obj = 4821
----------
source = [10, 7, 9, 7, 7, 9, 10, 4, 10, 4, 1, 7, 1, 4, 10, 1, 4, 9, 10, 10]
open = [true, false, false, true, false, false, true, false, true, true]
trucks_used = [2, 0, 0, 2, 0, 0, 2, 0, 2, 3]
truck_assigned = [2, 1, 2, 2, 2, 1, 3, 1, 1, 1, 2, 1, 1, 2, 1, 2, 2, 1, 2, 1]
obj = 4505
----------
source = [10, 7, 8, 7, 7, 4, 10, 4, 10, 4, 1, 8, 1, 4, 10, 8, 1, 7, 10, 10]
open = [true, false, false, true, false, false, true, true, false, true]
trucks_used = [2, 0, 0, 2, 0, 0, 2, 1, 0, 3]
truck_assigned = [2, 2, 1, 1, 1, 1, 3, 2, 1, 1, 1, 1, 2, 2, 1, 1, 1, 2, 2, 1]
obj = 4315
----------
source = [10, 7, 8, 7, 7, 4, 10, 4, 10, 4, 1, 8, 1, 4, 10, 8, 4, 7, 10, 10]
open = [true, false, false, true, false, false, true, true, false, true]
trucks_used = [1, 0, 0, 3, 0, 0, 2, 1, 0, 3]
truck_assigned = [1, 2, 1, 1, 1, 2, 3, 2, 2, 1, 1, 1, 1, 3, 1, 1, 1, 2, 2, 1]
obj = 4303
----------
source = [10, 7, 9, 1, 7, 9, 10, 10, 10, 4, 1, 10, 4, 7, 4, 1, 4, 7, 10, 10]
open = [true, false, false, true, false, false, true, false, true, true]
trucks_used = [1, 0, 0, 2, 0, 0, 2, 0, 1, 3]
truck_assigned = [2, 1, 1, 1, 1, 1, 3, 2, 2, 2, 1, 3, 2, 2, 1, 1, 1, 2, 1, 1]
obj = 4286
----------
source = [10, 7, 10, 1, 7, 8, 10, 10, 8, 4, 1, 8, 4, 7, 4, 1, 4, 7, 10, 10]
open = [true, false, false, true, false, false, true, true, false, true]
trucks_used = [1, 0, 0, 2, 0, 0, 2, 1, 0, 3]
truck_assigned = [2, 2, 1, 1, 1, 1, 3, 2, 1, 2, 1, 1, 2, 2, 1, 1, 1, 1, 3, 1]
obj = 4247
----------
source = [10, 7, 8, 1, 7, 4, 10, 1, 10, 4, 10, 8, 1, 4, 4, 8, 1, 7, 7, 10]
open = [true, false, false, true, false, false, true, true, false, true]
trucks_used = [2, 0, 0, 2, 0, 0, 2, 1, 0, 2]
truck_assigned = [2, 2, 1, 1, 1, 1, 2, 2, 2, 2, 1, 1, 2, 2, 1, 1, 1, 1, 2, 1]
obj = 4195
----------
source = [10, 10, 8, 7, 7, 4, 10, 1, 10, 4, 1, 8, 1, 4, 4, 8, 7, 7, 7, 10]
open = [true, false, false, true, false, false, true, true, false, true]
trucks_used = [2, 0, 0, 2, 0, 0, 2, 1, 0, 2]
truck_assigned = [2, 2, 1, 2, 2, 1, 1, 2, 1, 2, 1, 1, 2, 2, 1, 1, 1, 1, 2, 1]
obj = 4184
----------
source = [10, 10, 8, 7, 7, 4, 10, 1, 10, 4, 1, 8, 1, 4, 4, 8, 7, 7, 7, 10]
open = [true, false, false, true, false, false, true, true, false, true]
trucks_used = [2, 0, 0, 2, 0, 0, 2, 1, 0, 2]
truck_assigned = [2, 2, 1, 2, 2, 1, 1, 2, 1, 2, 1, 1, 2, 2, 1, 1, 1, 1, 2, 1]
obj = 4184
----------
==========
	Command being timed: "mzn-grb -a lbbd-datasets/sscplp/trucks-dzn/model.mzn lbbd-datasets/sscplp/trucks-dzn/p02-l50-c150-correlated.dzn"
	User time (seconds): 96.79
	System time (seconds): 0.40
	Percent of CPU this job got: 99%
	Elapsed (wall clock) time (h:mm:ss or m:ss): 1:37.41
	Average shared text size (kbytes): 0
	Average unshared data size (kbytes): 0
	Average stack size (kbytes): 0
	Average total size (kbytes): 0
	Maximum resident set size (kbytes): 1630144
	Average resident set size (kbytes): 0
	Major (requiring I/O) page faults: 0
	Minor (reclaiming a frame) page faults: 111394
	Voluntary context switches: 4
	Involuntary context switches: 141
	Swaps: 0
	File system inputs: 0
	File system outputs: 56
	Socket messages sent: 0
	Socket messages received: 0
	Signals delivered: 0
	Page size (bytes): 4096
	Exit status: 0
