+ /usr/bin/timeout 600 /usr/bin/time -v mzn-grb -a lbbd-datasets/Rabadi-2006/dzn-p-dominant/model.mzn lbbd-datasets/Rabadi-2006/dzn-p-dominant/10on8Rp50Rs50_5Ameer.dzn
assign = array1d(1..18 ,[2, 6, 3, 4, 6, 5, 8, 1, 7, 4, 1, 2, 3, 4, 5, 6, 7, 8]);
next = array1d(1..18 ,[12, 16, 13, 10, 2, 15, 18, 11, 17, 14, 1, 3, 4, 6, 5, 9, 7, 8]);
makespan = 330;
----------
assign = array1d(1..18 ,[3, 2, 5, 4, 6, 8, 8, 1, 7, 6, 1, 2, 3, 4, 5, 6, 7, 8]);
next = array1d(1..18 ,[13, 12, 15, 14, 16, 7, 18, 11, 17, 5, 2, 1, 4, 3, 10, 9, 6, 8]);
makespan = 324;
----------
assign = array1d(1..18 ,[3, 7, 4, 5, 6, 2, 8, 1, 7, 6, 1, 2, 3, 4, 5, 6, 7, 8]);
next = array1d(1..18 ,[13, 17, 14, 15, 16, 12, 18, 11, 2, 5, 6, 1, 3, 4, 10, 9, 7, 8]);
makespan = 320;
----------
assign = array1d(1..18 ,[3, 7, 4, 5, 6, 2, 8, 1, 7, 6, 1, 2, 3, 4, 5, 6, 7, 8]);
next = array1d(1..18 ,[13, 17, 14, 15, 16, 12, 18, 11, 2, 5, 6, 1, 3, 4, 10, 9, 7, 8]);
makespan = 320;
----------
==========
	Command being timed: "mzn-grb -a lbbd-datasets/Rabadi-2006/dzn-p-dominant/model.mzn lbbd-datasets/Rabadi-2006/dzn-p-dominant/10on8Rp50Rs50_5Ameer.dzn"
	User time (seconds): 16.53
	System time (seconds): 0.09
	Percent of CPU this job got: 99%
	Elapsed (wall clock) time (h:mm:ss or m:ss): 0:16.65
	Average shared text size (kbytes): 0
	Average unshared data size (kbytes): 0
	Average stack size (kbytes): 0
	Average total size (kbytes): 0
	Maximum resident set size (kbytes): 288672
	Average resident set size (kbytes): 0
	Major (requiring I/O) page faults: 0
	Minor (reclaiming a frame) page faults: 26021
	Voluntary context switches: 4
	Involuntary context switches: 24
	Swaps: 0
	File system inputs: 0
	File system outputs: 8
	Socket messages sent: 0
	Socket messages received: 0
	Signals delivered: 0
	Page size (bytes): 4096
	Exit status: 0
