+ /usr/bin/timeout 600 /usr/bin/time -v mzn-grb -a lbbd-datasets/Rabadi-2006/dzn-balanced/model.mzn lbbd-datasets/Rabadi-2006/dzn-balanced/6on2Rp50Rs50_5Ameer.dzn
assign = array1d(1..8 ,[2, 1, 2, 2, 2, 1, 1, 2]);
next = array1d(1..8 ,[3, 7, 4, 5, 8, 2, 1, 6]);
makespan = 472;
----------
assign = array1d(1..8 ,[2, 2, 1, 2, 2, 1, 1, 2]);
next = array1d(1..8 ,[2, 4, 6, 8, 1, 7, 5, 3]);
makespan = 450;
----------
assign = array1d(1..8 ,[1, 2, 1, 1, 2, 2, 1, 2]);
next = array1d(1..8 ,[7, 5, 1, 3, 6, 8, 2, 4]);
makespan = 355;
----------
assign = array1d(1..8 ,[2, 2, 1, 1, 2, 1, 1, 2]);
next = array1d(1..8 ,[5, 8, 7, 3, 2, 4, 1, 6]);
makespan = 337;
----------
assign = array1d(1..8 ,[2, 1, 1, 2, 1, 2, 1, 2]);
next = array1d(1..8 ,[4, 5, 7, 6, 3, 8, 1, 2]);
makespan = 329;
----------
assign = array1d(1..8 ,[1, 2, 1, 2, 1, 2, 1, 2]);
next = array1d(1..8 ,[5, 6, 7, 2, 3, 8, 4, 1]);
makespan = 327;
----------
assign = array1d(1..8 ,[1, 2, 1, 2, 1, 2, 1, 2]);
next = array1d(1..8 ,[5, 6, 7, 2, 3, 8, 4, 1]);
makespan = 327;
----------
==========
	Command being timed: "mzn-grb -a lbbd-datasets/Rabadi-2006/dzn-balanced/model.mzn lbbd-datasets/Rabadi-2006/dzn-balanced/6on2Rp50Rs50_5Ameer.dzn"
	User time (seconds): 0.89
	System time (seconds): 0.01
	Percent of CPU this job got: 99%
	Elapsed (wall clock) time (h:mm:ss or m:ss): 0:00.91
	Average shared text size (kbytes): 0
	Average unshared data size (kbytes): 0
	Average stack size (kbytes): 0
	Average total size (kbytes): 0
	Maximum resident set size (kbytes): 71920
	Average resident set size (kbytes): 0
	Major (requiring I/O) page faults: 0
	Minor (reclaiming a frame) page faults: 5162
	Voluntary context switches: 4
	Involuntary context switches: 9
	Swaps: 0
	File system inputs: 0
	File system outputs: 0
	Socket messages sent: 0
	Socket messages received: 0
	Signals delivered: 0
	Page size (bytes): 4096
	Exit status: 0
