+ /usr/bin/timeout 600 /usr/bin/time -v mzn-grb -a lbbd-datasets/Rabadi-2006/dzn-s-dominant/model.mzn lbbd-datasets/Rabadi-2006/dzn-s-dominant/10on4Rp50Rs50_15Ameer.dzn
assign = array1d(1..14 ,[1, 2, 3, 2, 4, 3, 1, 4, 4, 2, 1, 2, 3, 4]);
next = array1d(1..14 ,[11, 10, 6, 12, 8, 13, 1, 9, 14, 4, 2, 3, 5, 7]);
makespan = 485;
----------
assign = array1d(1..14 ,[2, 1, 3, 1, 2, 3, 3, 4, 4, 4, 1, 2, 3, 4]);
next = array1d(1..14 ,[5, 4, 7, 11, 12, 13, 6, 9, 14, 8, 1, 3, 10, 2]);
makespan = 482;
----------
assign = array1d(1..14 ,[1, 1, 3, 3, 2, 3, 2, 4, 4, 4, 1, 2, 3, 4]);
next = array1d(1..14 ,[2, 11, 4, 6, 12, 13, 5, 9, 14, 8, 7, 3, 10, 1]);
makespan = 477;
----------
assign = array1d(1..14 ,[1, 2, 3, 4, 1, 4, 3, 4, 2, 2, 1, 2, 3, 4]);
next = array1d(1..14 ,[5, 10, 13, 6, 11, 14, 3, 4, 12, 9, 2, 7, 8, 1]);
makespan = 475;
----------
assign = array1d(1..14 ,[3, 2, 3, 4, 1, 4, 1, 4, 2, 2, 1, 2, 3, 4]);
next = array1d(1..14 ,[13, 10, 1, 6, 11, 8, 5, 14, 2, 12, 9, 3, 4, 7]);
makespan = 465;
----------
assign = array1d(1..14 ,[2, 3, 1, 4, 3, 4, 1, 4, 2, 2, 1, 2, 3, 4]);
next = array1d(1..14 ,[12, 13, 7, 6, 2, 8, 11, 14, 1, 9, 10, 5, 4, 3]);
makespan = 463;
----------
assign = array1d(1..14 ,[1, 4, 3, 3, 2, 3, 2, 4, 4, 1, 1, 2, 3, 4]);
next = array1d(1..14 ,[10, 8, 13, 6, 12, 3, 5, 14, 2, 11, 7, 4, 9, 1]);
makespan = 447;
----------
