+ /usr/bin/timeout 600 /usr/bin/time -v mzn-grb -a lbbd-datasets/sscplp/trucks-dzn/model.mzn lbbd-datasets/sscplp/trucks-dzn/p16-l50-c80-uncorrelated.dzn
source = [8, 12, 8, 14, 6, 8, 14, 5, 5, 6, 4, 15, 6, 4, 7, 15, 8, 6, 15, 12, 14, 12, 12, 5, 4, 7, 13, 13, 14, 7]
open = [false, false, false, true, true, true, true, true, false, false, false, true, true, true, true]
trucks_used = [0, 0, 0, 2, 2, 2, 2, 4, 0, 0, 0, 3, 1, 4, 2]
truck_assigned = [2, 2, 1, 1, 2, 1, 1, 1, 2, 2, 1, 1, 1, 2, 1, 2, 4, 1, 2, 3, 3, 1, 1, 2, 1, 1, 1, 1, 4, 2]
obj = 11724
----------
source = [8, 12, 8, 13, 6, 8, 5, 5, 12, 6, 4, 6, 6, 1, 4, 4, 13, 6, 8, 12, 5, 5, 1, 4, 4, 7, 13, 1, 6, 7]
open = [true, false, false, true, true, true, true, true, false, false, false, true, true, false, false]
trucks_used = [2, 0, 0, 3, 3, 3, 1, 3, 0, 0, 0, 2, 2, 0, 0]
truck_assigned = [3, 1, 1, 1, 1, 2, 3, 3, 2, 1, 1, 2, 3, 2, 3, 2, 1, 1, 2, 2, 2, 1, 1, 2, 1, 1, 2, 1, 3, 1]
obj = 10443
----------
source = [8, 12, 8, 13, 6, 8, 5, 5, 12, 6, 4, 6, 6, 1, 7, 4, 13, 6, 8, 12, 5, 5, 1, 4, 4, 7, 13, 1, 6, 7]
open = [true, false, false, true, true, true, true, true, false, false, false, true, true, false, false]
trucks_used = [2, 0, 0, 2, 3, 3, 2, 3, 0, 0, 0, 2, 2, 0, 0]
truck_assigned = [3, 1, 1, 1, 1, 1, 3, 3, 2, 1, 1, 2, 3, 2, 1, 2, 1, 1, 2, 2, 2, 1, 1, 2, 1, 1, 2, 1, 3, 2]
obj = 10437
----------
source = [8, 12, 8, 13, 6, 8, 7, 5, 12, 6, 4, 6, 6, 1, 4, 4, 13, 6, 7, 5, 5, 12, 12, 4, 4, 7, 13, 1, 6, 5]
open = [true, false, false, true, true, true, true, true, false, false, false, true, true, false, false]
trucks_used = [2, 0, 0, 3, 2, 3, 1, 2, 0, 0, 0, 2, 2, 0, 0]
truck_assigned = [2, 1, 1, 1, 2, 1, 1, 2, 2, 2, 3, 1, 3, 2, 1, 2, 1, 2, 1, 1, 2, 2, 2, 1, 2, 1, 2, 1, 3, 1]
obj = 10319
----------
source = [13, 4, 8, 1, 7, 8, 5, 13, 12, 6, 4, 6, 6, 4, 8, 4, 8, 6, 8, 12, 1, 5, 12, 5, 4, 7, 12, 13, 6, 7]
open = [true, false, false, true, true, true, true, true, false, false, false, true, true, false, false]
trucks_used = [1, 0, 0, 3, 2, 3, 2, 3, 0, 0, 0, 3, 2, 0, 0]
truck_assigned = [2, 3, 3, 1, 1, 3, 1, 1, 2, 2, 3, 3, 1, 1, 2, 1, 1, 2, 1, 3, 1, 2, 2, 1, 2, 2, 1, 1, 1, 2]
obj = 10293
----------
source = [8, 4, 13, 13, 6, 8, 7, 13, 12, 6, 4, 6, 5, 4, 8, 4, 13, 6, 7, 12, 5, 5, 12, 5, 4, 7, 12, 13, 6, 5]
open = [false, false, false, true, true, true, true, true, false, false, false, true, true, false, false]
trucks_used = [0, 0, 0, 3, 3, 3, 1, 3, 0, 0, 0, 3, 4, 0, 0]
truck_assigned = [3, 2, 4, 2, 2, 2, 1, 2, 2, 2, 3, 3, 2, 1, 1, 2, 1, 2, 1, 3, 2, 3, 2, 1, 1, 1, 1, 3, 1, 1]
obj = 9308
----------
source = [8, 4, 8, 13, 7, 8, 7, 13, 12, 6, 4, 6, 6, 4, 8, 4, 13, 6, 12, 5, 5, 5, 12, 5, 4, 6, 12, 13, 6, 7]
open = [false, false, false, true, true, true, true, true, false, false, false, true, true, false, false]
trucks_used = [0, 0, 0, 3, 3, 4, 2, 3, 0, 0, 0, 3, 2, 0, 0]
truck_assigned = [2, 3, 3, 2, 1, 3, 2, 1, 3, 4, 1, 2, 1, 2, 1, 3, 2, 1, 1, 1, 2, 3, 3, 2, 2, 4, 2, 1, 3, 2]
obj = 9196
----------
source = [4, 4, 8, 13, 6, 8, 7, 5, 12, 6, 7, 6, 8, 4, 4, 13, 8, 13, 8, 5, 12, 12, 12, 5, 4, 6, 12, 13, 6, 8]
open = [false, false, false, true, true, true, true, true, false, false, false, true, true, false, false]
trucks_used = [0, 0, 0, 2, 2, 3, 2, 3, 0, 0, 0, 3, 2, 0, 0]
truck_assigned = [2, 1, 2, 1, 3, 1, 2, 2, 3, 1, 1, 2, 1, 1, 2, 2, 3, 2, 3, 1, 3, 1, 1, 2, 1, 1, 2, 1, 3, 2]
obj = 9156
----------
source = [4, 4, 8, 13, 6, 8, 7, 5, 12, 6, 7, 6, 8, 4, 4, 13, 8, 13, 8, 5, 5, 12, 12, 5, 4, 6, 12, 13, 6, 8]
open = [false, false, false, true, true, true, true, true, false, false, false, true, true, false, false]
trucks_used = [0, 0, 0, 2, 3, 3, 2, 3, 0, 0, 0, 2, 2, 0, 0]
truck_assigned = [2, 1, 2, 1, 3, 1, 2, 2, 2, 1, 1, 2, 1, 1, 2, 2, 3, 2, 3, 1, 2, 2, 2, 3, 1, 1, 1, 1, 3, 2]
obj = 9154
----------
source = [4, 7, 8, 13, 6, 8, 5, 5, 12, 6, 4, 6, 6, 4, 8, 13, 8, 6, 8, 5, 12, 12, 12, 4, 4, 7, 12, 13, 6, 7]
open = [false, false, false, true, true, true, true, true, false, false, false, true, true, false, false]
trucks_used = [0, 0, 0, 2, 2, 3, 2, 3, 0, 0, 0, 3, 2, 0, 0]
truck_assigned = [1, 1, 1, 1, 1, 3, 2, 2, 3, 1, 2, 2, 3, 1, 2, 2, 1, 1, 3, 1, 1, 1, 3, 2, 1, 1, 2, 1, 3, 2]
obj = 9056
----------
source = [4, 7, 8, 13, 6, 8, 5, 5, 5, 6, 4, 6, 6, 4, 8, 13, 8, 6, 8, 12, 12, 12, 12, 4, 4, 7, 12, 13, 6, 7]
open = [false, false, false, true, true, true, true, true, false, false, false, true, true, false, false]
trucks_used = [0, 0, 0, 2, 2, 3, 2, 3, 0, 0, 0, 3, 2, 0, 0]
truck_assigned = [1, 1, 1, 1, 1, 3, 1, 2, 2, 1, 2, 2, 3, 1, 2, 2, 1, 1, 3, 3, 1, 1, 3, 2, 1, 1, 2, 1, 3, 2]
obj = 9033
----------
source = [4, 7, 8, 13, 6, 8, 12, 5, 5, 6, 4, 6, 6, 4, 8, 13, 8, 6, 8, 12, 5, 12, 12, 4, 4, 7, 5, 13, 6, 7]
open = [false, false, false, true, true, true, true, true, false, false, false, true, true, false, false]
trucks_used = [0, 0, 0, 2, 2, 3, 2, 3, 0, 0, 0, 2, 2, 0, 0]
truck_assigned = [1, 1, 1, 1, 1, 3, 1, 2, 2, 1, 2, 2, 3, 1, 2, 2, 1, 1, 3, 2, 1, 1, 2, 2, 1, 1, 1, 1, 3, 2]
obj = 9002
----------
