+ /usr/bin/timeout 600 /usr/bin/time -v mzn-grb -a lbbd-datasets/planningandscheduling/cost-insts/model.mzn lbbd-datasets/planningandscheduling/cost-insts/c24j2m3.dzn
obj = 510
----------
obj = 504
----------
obj = 491
----------
obj = 489
----------
obj = 486
----------
obj = 472
----------
obj = 469
----------
