+ /usr/bin/timeout 600 /usr/bin/time -v mzn-grb -a lbbd-datasets/Rabadi-2006/dzn-p-dominant/model.mzn lbbd-datasets/Rabadi-2006/dzn-p-dominant/10on2Rp50Rs50_12Ameer.dzn
assign = array1d(1..12 ,[2, 2, 2, 2, 2, 2, 1, 1, 1, 1, 1, 2]);
next = array1d(1..12 ,[6, 3, 4, 12, 2, 5, 8, 9, 10, 11, 1, 7]);
makespan = 1282;
----------
assign = array1d(1..12 ,[2, 2, 2, 2, 2, 1, 1, 1, 1, 1, 1, 2]);
next = array1d(1..12 ,[2, 12, 1, 5, 3, 8, 10, 9, 7, 11, 4, 6]);
makespan = 1076;
----------
assign = array1d(1..12 ,[1, 2, 1, 1, 2, 2, 2, 1, 2, 1, 1, 2]);
next = array1d(1..12 ,[11, 9, 1, 8, 12, 5, 6, 3, 7, 4, 2, 10]);
makespan = 976;
----------
assign = array1d(1..12 ,[1, 2, 1, 2, 2, 2, 1, 1, 2, 1, 1, 2]);
next = array1d(1..12 ,[11, 6, 1, 2, 12, 5, 8, 10, 4, 3, 9, 7]);
makespan = 975;
----------
assign = array1d(1..12 ,[1, 2, 1, 2, 2, 2, 1, 1, 2, 1, 1, 2]);
next = array1d(1..12 ,[11, 12, 1, 2, 9, 5, 8, 10, 4, 3, 6, 7]);
makespan = 957;
----------
assign = array1d(1..12 ,[1, 2, 1, 2, 2, 1, 2, 1, 2, 1, 1, 2]);
next = array1d(1..12 ,[11, 12, 6, 2, 7, 1, 9, 10, 4, 3, 5, 8]);
makespan = 940;
----------
assign = array1d(1..12 ,[1, 2, 1, 2, 2, 1, 2, 1, 2, 1, 1, 2]);
next = array1d(1..12 ,[11, 12, 6, 2, 7, 1, 9, 10, 4, 3, 5, 8]);
makespan = 940;
----------
==========
	Command being timed: "mzn-grb -a lbbd-datasets/Rabadi-2006/dzn-p-dominant/model.mzn lbbd-datasets/Rabadi-2006/dzn-p-dominant/10on2Rp50Rs50_12Ameer.dzn"
	User time (seconds): 2.32
	System time (seconds): 0.03
	Percent of CPU this job got: 99%
	Elapsed (wall clock) time (h:mm:ss or m:ss): 0:02.37
	Average shared text size (kbytes): 0
	Average unshared data size (kbytes): 0
	Average stack size (kbytes): 0
	Average total size (kbytes): 0
	Maximum resident set size (kbytes): 102192
	Average resident set size (kbytes): 0
	Major (requiring I/O) page faults: 0
	Minor (reclaiming a frame) page faults: 8272
	Voluntary context switches: 4
	Involuntary context switches: 12
	Swaps: 0
	File system inputs: 0
	File system outputs: 8
	Socket messages sent: 0
	Socket messages received: 0
	Signals delivered: 0
	Page size (bytes): 4096
	Exit status: 0
