+ /usr/bin/timeout 600 /usr/bin/time -v mzn-grb -a lbbd-datasets/Rabadi-2006/dzn-p-dominant/model.mzn lbbd-datasets/Rabadi-2006/dzn-p-dominant/9on4Rp50Rs50_1Ameer.dzn
assign = array1d(1..13 ,[3, 2, 1, 3, 4, 4, 2, 3, 1, 1, 2, 3, 4]);
next = array1d(1..13 ,[8, 7, 9, 12, 6, 13, 11, 4, 10, 2, 1, 5, 3]);
makespan = 572;
----------
assign = array1d(1..13 ,[3, 1, 4, 3, 2, 4, 2, 1, 1, 1, 2, 3, 4]);
next = array1d(1..13 ,[4, 8, 13, 12, 11, 3, 5, 9, 10, 7, 1, 6, 2]);
makespan = 534;
----------
assign = array1d(1..13 ,[3, 2, 4, 4, 3, 1, 2, 1, 2, 1, 2, 3, 4]);
next = array1d(1..13 ,[5, 11, 13, 3, 12, 10, 9, 6, 2, 7, 1, 4, 8]);
makespan = 528;
----------
assign = array1d(1..13 ,[4, 3, 1, 3, 4, 2, 2, 1, 1, 1, 2, 3, 4]);
next = array1d(1..13 ,[5, 12, 9, 2, 13, 11, 6, 3, 10, 7, 4, 1, 8]);
makespan = 525;
----------
assign = array1d(1..13 ,[1, 2, 1, 3, 3, 2, 2, 4, 4, 1, 2, 3, 4]);
next = array1d(1..13 ,[3, 6, 10, 12, 4, 7, 11, 9, 13, 2, 5, 8, 1]);
makespan = 511;
----------
assign = array1d(1..13 ,[1, 2, 1, 3, 3, 2, 2, 4, 4, 1, 2, 3, 4]);
next = array1d(1..13 ,[3, 6, 10, 12, 4, 7, 11, 9, 13, 2, 5, 8, 1]);
makespan = 511;
----------
==========
	Command being timed: "mzn-grb -a lbbd-datasets/Rabadi-2006/dzn-p-dominant/model.mzn lbbd-datasets/Rabadi-2006/dzn-p-dominant/9on4Rp50Rs50_1Ameer.dzn"
	User time (seconds): 366.59
	System time (seconds): 0.22
	Percent of CPU this job got: 99%
	Elapsed (wall clock) time (h:mm:ss or m:ss): 6:07.62
	Average shared text size (kbytes): 0
	Average unshared data size (kbytes): 0
	Average stack size (kbytes): 0
	Average total size (kbytes): 0
	Maximum resident set size (kbytes): 297808
	Average resident set size (kbytes): 0
	Major (requiring I/O) page faults: 0
	Minor (reclaiming a frame) page faults: 46414
	Voluntary context switches: 4
	Involuntary context switches: 560
	Swaps: 0
	File system inputs: 0
	File system outputs: 8
	Socket messages sent: 0
	Socket messages received: 0
	Signals delivered: 0
	Page size (bytes): 4096
	Exit status: 0
