+ /usr/bin/timeout 600 /usr/bin/time -v mzn-grb -a lbbd-datasets/planningandscheduling/makespan-insts/model.mzn lbbd-datasets/planningandscheduling/makespan-insts/c10j3m5.dzn
obj = 21
----------
obj = 19
----------
obj = 17
----------
obj = 16
----------
obj = 16
----------
==========
	Command being timed: "mzn-grb -a lbbd-datasets/planningandscheduling/makespan-insts/model.mzn lbbd-datasets/planningandscheduling/makespan-insts/c10j3m5.dzn"
	User time (seconds): 19.65
	System time (seconds): 0.14
	Percent of CPU this job got: 98%
	Elapsed (wall clock) time (h:mm:ss or m:ss): 0:20.05
	Average shared text size (kbytes): 0
	Average unshared data size (kbytes): 0
	Average stack size (kbytes): 0
	Average total size (kbytes): 0
	Maximum resident set size (kbytes): 441504
	Average resident set size (kbytes): 0
	Major (requiring I/O) page faults: 0
	Minor (reclaiming a frame) page faults: 35341
	Voluntary context switches: 5
	Involuntary context switches: 67
	Swaps: 0
	File system inputs: 0
	File system outputs: 8
	Socket messages sent: 0
	Socket messages received: 0
	Signals delivered: 0
	Page size (bytes): 4096
	Exit status: 0
