+ /usr/bin/timeout 600 /usr/bin/time -v mzn-grb -a lbbd-datasets/Rabadi-2006/dzn-p-dominant/model.mzn lbbd-datasets/Rabadi-2006/dzn-p-dominant/10on4Rp50Rs50_6Ameer.dzn
assign = array1d(1..14 ,[4, 4, 2, 3, 3, 1, 2, 2, 1, 1, 1, 2, 3, 4]);
next = array1d(1..14 ,[14, 1, 8, 13, 4, 11, 12, 7, 10, 6, 3, 5, 2, 9]);
makespan = 543;
----------
assign = array1d(1..14 ,[4, 4, 2, 3, 3, 1, 4, 2, 1, 1, 1, 2, 3, 4]);
next = array1d(1..14 ,[7, 14, 8, 13, 4, 11, 2, 12, 10, 6, 3, 5, 1, 9]);
makespan = 531;
----------
assign = array1d(1..14 ,[3, 2, 2, 3, 4, 4, 2, 1, 3, 1, 1, 2, 3, 4]);
next = array1d(1..14 ,[9, 3, 7, 1, 6, 14, 12, 10, 13, 11, 2, 4, 5, 8]);
makespan = 526;
----------
assign = array1d(1..14 ,[4, 2, 1, 3, 4, 4, 3, 2, 1, 1, 1, 2, 3, 4]);
next = array1d(1..14 ,[5, 12, 11, 7, 6, 14, 13, 2, 10, 3, 8, 4, 1, 9]);
makespan = 525;
----------
assign = array1d(1..14 ,[4, 4, 2, 3, 4, 1, 3, 2, 1, 1, 1, 2, 3, 4]);
next = array1d(1..14 ,[2, 5, 12, 13, 14, 11, 4, 3, 10, 6, 8, 7, 1, 9]);
makespan = 518;
----------
assign = array1d(1..14 ,[4, 3, 1, 2, 2, 4, 4, 3, 1, 1, 1, 2, 3, 4]);
next = array1d(1..14 ,[14, 8, 9, 12, 4, 1, 6, 13, 11, 3, 5, 2, 7, 10]);
makespan = 517;
----------
assign = array1d(1..14 ,[4, 3, 1, 2, 2, 4, 4, 3, 1, 1, 1, 2, 3, 4]);
next = array1d(1..14 ,[14, 8, 9, 5, 12, 1, 6, 13, 10, 11, 4, 2, 7, 3]);
makespan = 511;
----------
assign = array1d(1..14 ,[2, 4, 2, 3, 3, 1, 2, 4, 1, 1, 1, 2, 3, 4]);
next = array1d(1..14 ,[12, 8, 7, 13, 4, 11, 1, 14, 10, 6, 3, 5, 2, 9]);
makespan = 510;
----------
assign = array1d(1..14 ,[2, 4, 2, 3, 3, 1, 2, 4, 1, 1, 1, 2, 3, 4]);
next = array1d(1..14 ,[12, 8, 7, 13, 4, 11, 1, 14, 10, 6, 3, 5, 2, 9]);
makespan = 510;
----------
==========
	Command being timed: "mzn-grb -a lbbd-datasets/Rabadi-2006/dzn-p-dominant/model.mzn lbbd-datasets/Rabadi-2006/dzn-p-dominant/10on4Rp50Rs50_6Ameer.dzn"
	User time (seconds): 195.77
	System time (seconds): 0.13
	Percent of CPU this job got: 99%
	Elapsed (wall clock) time (h:mm:ss or m:ss): 3:16.31
	Average shared text size (kbytes): 0
	Average unshared data size (kbytes): 0
	Average stack size (kbytes): 0
	Average total size (kbytes): 0
	Maximum resident set size (kbytes): 276448
	Average resident set size (kbytes): 0
	Major (requiring I/O) page faults: 0
	Minor (reclaiming a frame) page faults: 39683
	Voluntary context switches: 5
	Involuntary context switches: 318
	Swaps: 0
	File system inputs: 0
	File system outputs: 40
	Socket messages sent: 0
	Socket messages received: 0
	Signals delivered: 0
	Page size (bytes): 4096
	Exit status: 0
