+ /usr/bin/timeout 600 /usr/bin/time -v mzn-grb -a lbbd-datasets/Rabadi-2006/dzn-p-dominant/model.mzn lbbd-datasets/Rabadi-2006/dzn-p-dominant/11on6Rp50Rs50_1Ameer.dzn
assign = array1d(1..17 ,[3, 3, 1, 4, 1, 2, 4, 5, 2, 5, 6, 1, 2, 3, 4, 5, 6]);
next = array1d(1..17 ,[2, 14, 12, 15, 3, 13, 4, 10, 6, 16, 17, 9, 1, 7, 8, 11, 5]);
makespan = 369;
----------
assign = array1d(1..17 ,[3, 6, 5, 4, 1, 2, 6, 5, 2, 4, 3, 1, 2, 3, 4, 5, 6]);
next = array1d(1..17 ,[14, 17, 8, 10, 12, 13, 2, 16, 6, 15, 1, 9, 11, 4, 3, 7, 5]);
makespan = 358;
----------
assign = array1d(1..17 ,[3, 6, 5, 4, 6, 2, 4, 5, 2, 1, 3, 1, 2, 3, 4, 5, 6]);
next = array1d(1..17 ,[14, 5, 8, 7, 17, 9, 15, 16, 13, 12, 1, 6, 11, 4, 3, 2, 10]);
makespan = 350;
----------
assign = array1d(1..17 ,[3, 1, 5, 4, 4, 5, 6, 6, 2, 2, 3, 1, 2, 3, 4, 5, 6]);
next = array1d(1..17 ,[14, 12, 16, 5, 15, 3, 8, 17, 13, 9, 1, 10, 11, 4, 6, 7, 2]);
makespan = 333;
----------
assign = array1d(1..17 ,[3, 6, 2, 5, 4, 2, 4, 5, 6, 1, 3, 1, 2, 3, 4, 5, 6]);
next = array1d(1..17 ,[14, 9, 6, 16, 15, 13, 5, 4, 17, 12, 1, 3, 11, 7, 8, 2, 10]);
makespan = 329;
----------
assign = array1d(1..17 ,[3, 6, 2, 5, 4, 2, 4, 5, 6, 1, 3, 1, 2, 3, 4, 5, 6]);
next = array1d(1..17 ,[14, 9, 6, 16, 15, 13, 5, 4, 17, 12, 1, 3, 11, 7, 8, 2, 10]);
makespan = 329;
----------
==========
	Command being timed: "mzn-grb -a lbbd-datasets/Rabadi-2006/dzn-p-dominant/model.mzn lbbd-datasets/Rabadi-2006/dzn-p-dominant/11on6Rp50Rs50_1Ameer.dzn"
	User time (seconds): 25.64
	System time (seconds): 0.10
	Percent of CPU this job got: 99%
	Elapsed (wall clock) time (h:mm:ss or m:ss): 0:25.89
	Average shared text size (kbytes): 0
	Average unshared data size (kbytes): 0
	Average stack size (kbytes): 0
	Average total size (kbytes): 0
	Maximum resident set size (kbytes): 260976
	Average resident set size (kbytes): 0
	Major (requiring I/O) page faults: 0
	Minor (reclaiming a frame) page faults: 27874
	Voluntary context switches: 6
	Involuntary context switches: 81
	Swaps: 0
	File system inputs: 0
	File system outputs: 8
	Socket messages sent: 0
	Socket messages received: 0
	Signals delivered: 0
	Page size (bytes): 4096
	Exit status: 0
