+ /usr/bin/timeout 600 /usr/bin/time -v mzn-grb -a lbbd-datasets/Rabadi-2006/dzn-s-dominant/model.mzn lbbd-datasets/Rabadi-2006/dzn-s-dominant/8on6Rp50Rs50_12Ameer.dzn
assign = array1d(1..14 ,[1, 3, 5, 6, 5, 2, 3, 4, 1, 2, 3, 4, 5, 6]);
next = array1d(1..14 ,[9, 7, 5, 14, 13, 10, 11, 12, 6, 2, 8, 3, 4, 1]);
makespan = 270;
----------
assign = array1d(1..14 ,[6, 3, 5, 4, 5, 2, 6, 1, 1, 2, 3, 4, 5, 6]);
next = array1d(1..14 ,[7, 11, 5, 12, 13, 10, 14, 9, 6, 2, 4, 3, 1, 8]);
makespan = 269;
----------
assign = array1d(1..14 ,[6, 3, 5, 6, 5, 2, 4, 1, 1, 2, 3, 4, 5, 6]);
next = array1d(1..14 ,[4, 11, 5, 14, 13, 10, 12, 9, 6, 2, 7, 3, 1, 8]);
makespan = 268;
----------
assign = array1d(1..14 ,[6, 4, 3, 6, 5, 2, 3, 1, 1, 2, 3, 4, 5, 6]);
next = array1d(1..14 ,[4, 12, 7, 14, 13, 10, 11, 9, 6, 3, 2, 5, 1, 8]);
makespan = 255;
----------
assign = array1d(1..14 ,[4, 6, 3, 1, 5, 2, 3, 5, 1, 2, 3, 4, 5, 6]);
next = array1d(1..14 ,[12, 14, 7, 9, 13, 10, 11, 5, 6, 3, 1, 8, 2, 4]);
makespan = 254;
----------
assign = array1d(1..14 ,[4, 1, 3, 5, 6, 2, 3, 5, 1, 2, 3, 4, 5, 6]);
next = array1d(1..14 ,[12, 9, 7, 8, 14, 10, 11, 13, 6, 3, 1, 4, 5, 2]);
makespan = 247;
----------
assign = array1d(1..14 ,[4, 1, 3, 5, 6, 2, 3, 5, 1, 2, 3, 4, 5, 6]);
next = array1d(1..14 ,[12, 9, 7, 8, 14, 10, 11, 13, 6, 3, 1, 4, 5, 2]);
makespan = 247;
----------
==========
	Command being timed: "mzn-grb -a lbbd-datasets/Rabadi-2006/dzn-s-dominant/model.mzn lbbd-datasets/Rabadi-2006/dzn-s-dominant/8on6Rp50Rs50_12Ameer.dzn"
	User time (seconds): 10.52
	System time (seconds): 0.07
	Percent of CPU this job got: 99%
	Elapsed (wall clock) time (h:mm:ss or m:ss): 0:10.62
	Average shared text size (kbytes): 0
	Average unshared data size (kbytes): 0
	Average stack size (kbytes): 0
	Average total size (kbytes): 0
	Maximum resident set size (kbytes): 176112
	Average resident set size (kbytes): 0
	Major (requiring I/O) page faults: 0
	Minor (reclaiming a frame) page faults: 17570
	Voluntary context switches: 4
	Involuntary context switches: 26
	Swaps: 0
	File system inputs: 0
	File system outputs: 0
	Socket messages sent: 0
	Socket messages received: 0
	Signals delivered: 0
	Page size (bytes): 4096
	Exit status: 0
