+ /usr/bin/timeout 600 /usr/bin/time -v mzn-grb -a lbbd-datasets/sscplp/trucks-dzn/model.mzn lbbd-datasets/sscplp/trucks-dzn/p14-l40-c50-correlated.dzn
source = [7, 15, 15, 10, 7, 10, 15, 15, 2, 14, 2, 15, 8, 14, 10, 14, 8, 15, 8, 15, 2, 10, 14, 2, 8, 1, 7, 14, 8, 7]
open = [true, true, false, false, false, false, true, true, false, true, false, false, false, true, true]
trucks_used = [1, 2, 0, 0, 0, 0, 2, 3, 0, 2, 0, 0, 0, 3, 4]
truck_assigned = [1, 4, 4, 1, 2, 2, 3, 1, 2, 1, 1, 2, 3, 1, 2, 2, 3, 2, 2, 1, 2, 1, 2, 1, 1, 1, 2, 3, 2, 1]
obj = 6680
----------
source = [8, 15, 15, 7, 7, 8, 8, 8, 15, 14, 2, 7, 15, 14, 7, 14, 8, 14, 8, 1, 2, 5, 14, 2, 8, 14, 7, 14, 14, 2]
open = [true, true, false, false, true, false, true, true, false, false, false, false, false, true, true]
trucks_used = [1, 2, 0, 0, 1, 0, 2, 5, 0, 0, 0, 0, 0, 6, 2]
truck_assigned = [3, 2, 2, 2, 2, 1, 4, 5, 1, 1, 2, 1, 1, 1, 1, 2, 2, 2, 2, 1, 2, 1, 6, 1, 1, 3, 2, 5, 4, 1]
obj = 6505
----------
source = [8, 15, 15, 7, 7, 8, 8, 15, 15, 14, 2, 7, 8, 14, 7, 14, 8, 15, 8, 2, 2, 5, 14, 5, 8, 14, 7, 14, 14, 2]
open = [false, true, false, false, true, false, true, true, false, false, false, false, false, true, true]
trucks_used = [0, 3, 0, 0, 1, 0, 2, 4, 0, 0, 0, 0, 0, 5, 2]
truck_assigned = [3, 2, 2, 2, 2, 1, 4, 1, 1, 1, 1, 1, 4, 1, 1, 2, 2, 1, 2, 2, 3, 1, 2, 1, 1, 3, 2, 5, 4, 1]
obj = 6023
----------
source = [2, 15, 15, 7, 7, 8, 8, 15, 15, 14, 2, 7, 8, 14, 7, 14, 8, 15, 8, 2, 2, 5, 14, 5, 8, 14, 7, 14, 14, 2]
open = [false, true, false, false, true, false, true, true, false, false, false, false, false, true, true]
trucks_used = [0, 3, 0, 0, 1, 0, 2, 3, 0, 0, 0, 0, 0, 5, 2]
truck_assigned = [3, 2, 2, 2, 2, 1, 1, 1, 1, 1, 1, 1, 3, 1, 1, 2, 3, 1, 2, 2, 3, 1, 2, 1, 2, 3, 2, 5, 4, 1]
obj = 5989
----------
source = [8, 15, 15, 7, 7, 8, 8, 15, 15, 14, 2, 7, 8, 14, 7, 14, 8, 15, 15, 15, 2, 5, 14, 5, 2, 14, 7, 14, 14, 2]
open = [false, true, false, false, true, false, true, true, false, false, false, false, false, true, true]
trucks_used = [0, 2, 0, 0, 1, 0, 2, 3, 0, 0, 0, 0, 0, 5, 3]
truck_assigned = [2, 1, 2, 2, 2, 1, 1, 1, 3, 1, 1, 1, 3, 2, 1, 2, 3, 1, 2, 3, 2, 1, 1, 1, 1, 4, 2, 5, 3, 2]
obj = 5972
----------
source = [7, 14, 1, 14, 7, 8, 5, 1, 7, 14, 2, 1, 8, 14, 7, 14, 8, 1, 8, 7, 2, 5, 14, 2, 8, 14, 14, 5, 8, 2]
open = [true, true, false, false, true, false, true, true, false, false, false, false, false, true, false]
trucks_used = [3, 2, 0, 0, 3, 0, 3, 5, 0, 0, 0, 0, 0, 7, 0]
truck_assigned = [3, 3, 3, 2, 2, 1, 1, 2, 1, 1, 1, 1, 5, 2, 1, 4, 3, 1, 4, 2, 1, 2, 7, 2, 2, 5, 1, 3, 1, 2]
obj = 5024
----------
source = [7, 14, 1, 14, 7, 8, 5, 1, 7, 14, 2, 1, 8, 14, 7, 14, 8, 1, 8, 7, 2, 5, 14, 2, 8, 14, 14, 5, 8, 2]
open = [true, true, false, false, true, false, true, true, false, false, false, false, false, true, false]
trucks_used = [3, 2, 0, 0, 3, 0, 3, 3, 0, 0, 0, 0, 0, 7, 0]
truck_assigned = [3, 3, 3, 2, 3, 1, 1, 2, 1, 1, 1, 1, 3, 2, 1, 4, 3, 2, 2, 2, 1, 2, 7, 2, 2, 5, 1, 3, 1, 2]
obj = 4924
----------
source = [7, 14, 1, 7, 7, 8, 5, 1, 7, 14, 2, 1, 8, 14, 7, 14, 8, 1, 8, 7, 2, 5, 14, 2, 8, 14, 14, 5, 8, 2]
open = [true, true, false, false, true, false, true, true, false, false, false, false, false, true, false]
trucks_used = [3, 2, 0, 0, 3, 0, 3, 3, 0, 0, 0, 0, 0, 7, 0]
truck_assigned = [2, 4, 3, 2, 3, 1, 1, 2, 1, 1, 1, 1, 3, 3, 1, 3, 3, 2, 2, 3, 1, 2, 7, 2, 2, 2, 5, 3, 1, 2]
obj = 4923
----------
source = [7, 14, 1, 7, 7, 8, 5, 1, 7, 14, 2, 1, 8, 14, 7, 14, 8, 1, 8, 7, 2, 5, 14, 2, 8, 14, 14, 5, 8, 2]
open = [true, true, false, false, true, false, true, true, false, false, false, false, false, true, false]
trucks_used = [3, 2, 0, 0, 3, 0, 3, 3, 0, 0, 0, 0, 0, 5, 0]
truck_assigned = [2, 4, 3, 2, 3, 2, 1, 2, 1, 1, 1, 1, 1, 3, 1, 3, 3, 2, 3, 3, 1, 2, 5, 2, 2, 2, 1, 3, 1, 2]
obj = 4823
----------
source = [7, 14, 1, 7, 7, 8, 5, 1, 7, 14, 2, 1, 8, 14, 7, 14, 8, 1, 8, 7, 2, 5, 14, 2, 8, 14, 14, 5, 8, 2]
open = [true, true, false, false, true, false, true, true, false, false, false, false, false, true, false]
trucks_used = [2, 2, 0, 0, 3, 0, 3, 3, 0, 0, 0, 0, 0, 5, 0]
truck_assigned = [2, 4, 1, 2, 3, 2, 1, 2, 1, 1, 1, 1, 1, 3, 1, 3, 3, 2, 3, 3, 1, 2, 5, 2, 2, 2, 1, 3, 1, 2]
obj = 4773
----------
source = [7, 2, 1, 7, 7, 8, 5, 1, 7, 14, 2, 1, 8, 14, 7, 14, 8, 1, 8, 7, 2, 5, 14, 14, 8, 14, 14, 5, 8, 2]
open = [true, true, false, false, true, false, true, true, false, false, false, false, false, true, false]
trucks_used = [2, 2, 0, 0, 3, 0, 3, 3, 0, 0, 0, 0, 0, 4, 0]
truck_assigned = [2, 1, 1, 2, 3, 3, 1, 2, 1, 1, 2, 1, 1, 3, 1, 4, 3, 2, 2, 3, 2, 2, 4, 3, 2, 2, 1, 3, 1, 1]
obj = 4753
----------
source = [7, 14, 1, 7, 5, 8, 5, 1, 2, 14, 2, 1, 8, 14, 7, 14, 8, 1, 8, 2, 14, 5, 14, 2, 8, 5, 7, 14, 8, 2]
open = [true, true, false, false, true, false, true, true, false, false, false, false, false, true, false]
trucks_used = [2, 3, 0, 0, 3, 0, 2, 3, 0, 0, 0, 0, 0, 5, 0]
truck_assigned = [2, 5, 2, 1, 3, 3, 1, 1, 1, 1, 3, 1, 2, 1, 1, 4, 3, 2, 1, 2, 3, 2, 4, 3, 2, 3, 2, 2, 1, 1]
obj = 4739
----------
