+ /usr/bin/timeout 600 /usr/bin/time -v mzn-grb -a lbbd-datasets/Rabadi-2006/dzn-p-dominant/model.mzn lbbd-datasets/Rabadi-2006/dzn-p-dominant/11on6Rp50Rs50_8Ameer.dzn
assign = array1d(1..17 ,[6, 5, 4, 5, 3, 4, 2, 3, 1, 1, 6, 1, 2, 3, 4, 5, 6]);
next = array1d(1..17 ,[11, 4, 15, 16, 14, 3, 13, 5, 12, 9, 17, 7, 8, 6, 2, 1, 10]);
makespan = 342;
----------
assign = array1d(1..17 ,[6, 5, 1, 6, 3, 4, 2, 3, 1, 5, 2, 1, 2, 3, 4, 5, 6]);
next = array1d(1..17 ,[4, 10, 12, 17, 14, 15, 13, 5, 3, 16, 7, 11, 8, 6, 2, 1, 9]);
makespan = 341;
----------
assign = array1d(1..17 ,[2, 5, 4, 6, 3, 4, 6, 5, 1, 1, 2, 1, 2, 3, 4, 5, 6]);
next = array1d(1..17 ,[11, 8, 15, 17, 14, 3, 4, 16, 12, 9, 13, 1, 5, 6, 2, 7, 10]);
makespan = 335;
----------
assign = array1d(1..17 ,[5, 4, 2, 6, 3, 4, 6, 3, 1, 1, 2, 1, 2, 3, 4, 5, 6]);
next = array1d(1..17 ,[16, 15, 11, 17, 14, 2, 4, 5, 12, 9, 13, 3, 8, 6, 1, 7, 10]);
makespan = 334;
----------
assign = array1d(1..17 ,[6, 4, 4, 5, 3, 2, 6, 3, 1, 1, 5, 1, 2, 3, 4, 5, 6]);
next = array1d(1..17 ,[7, 15, 2, 11, 14, 13, 17, 5, 12, 9, 16, 6, 8, 3, 4, 1, 10]);
makespan = 332;
----------
assign = array1d(1..17 ,[2, 4, 6, 5, 3, 4, 2, 3, 1, 5, 1, 1, 2, 3, 4, 5, 6]);
next = array1d(1..17 ,[13, 15, 17, 10, 14, 2, 1, 5, 12, 16, 9, 7, 8, 6, 4, 3, 11]);
makespan = 331;
----------
assign = array1d(1..17 ,[6, 4, 2, 5, 3, 4, 6, 3, 1, 5, 1, 1, 2, 3, 4, 5, 6]);
next = array1d(1..17 ,[7, 15, 13, 10, 14, 2, 17, 5, 12, 16, 9, 3, 8, 6, 4, 1, 11]);
makespan = 329;
----------
assign = array1d(1..17 ,[6, 6, 1, 5, 3, 4, 2, 3, 1, 5, 2, 1, 2, 3, 4, 5, 6]);
next = array1d(1..17 ,[17, 1, 12, 10, 14, 15, 13, 5, 3, 16, 7, 11, 8, 6, 4, 2, 9]);
makespan = 325;
----------
assign = array1d(1..17 ,[6, 6, 1, 5, 3, 4, 2, 3, 1, 5, 2, 1, 2, 3, 4, 5, 6]);
next = array1d(1..17 ,[17, 1, 12, 10, 14, 15, 13, 5, 3, 16, 7, 11, 8, 6, 4, 2, 9]);
makespan = 325;
----------
==========
	Command being timed: "mzn-grb -a lbbd-datasets/Rabadi-2006/dzn-p-dominant/model.mzn lbbd-datasets/Rabadi-2006/dzn-p-dominant/11on6Rp50Rs50_8Ameer.dzn"
	User time (seconds): 27.64
	System time (seconds): 0.10
	Percent of CPU this job got: 98%
	Elapsed (wall clock) time (h:mm:ss or m:ss): 0:28.14
	Average shared text size (kbytes): 0
	Average unshared data size (kbytes): 0
	Average stack size (kbytes): 0
	Average total size (kbytes): 0
	Maximum resident set size (kbytes): 277296
	Average resident set size (kbytes): 0
	Major (requiring I/O) page faults: 0
	Minor (reclaiming a frame) page faults: 25674
	Voluntary context switches: 5
	Involuntary context switches: 76
	Swaps: 0
	File system inputs: 0
	File system outputs: 8
	Socket messages sent: 0
	Socket messages received: 0
	Signals delivered: 0
	Page size (bytes): 4096
	Exit status: 0
