+ /usr/bin/timeout 600 /usr/bin/time -v mzn-grb -a lbbd-datasets/Rabadi-2006/dzn-s-dominant/model.mzn lbbd-datasets/Rabadi-2006/dzn-s-dominant/10on8Rp50Rs50_11Ameer.dzn
assign = array1d(1..18 ,[4, 7, 8, 2, 1, 6, 5, 3, 7, 8, 1, 2, 3, 4, 5, 6, 7, 8]);
next = array1d(1..18 ,[14, 9, 18, 12, 11, 16, 15, 13, 17, 3, 4, 8, 1, 7, 6, 2, 10, 5]);
makespan = 281;
----------
assign = array1d(1..18 ,[3, 7, 4, 2, 8, 1, 5, 3, 5, 6, 1, 2, 3, 4, 5, 6, 7, 8]);
next = array1d(1..18 ,[13, 17, 14, 12, 18, 11, 9, 1, 15, 16, 4, 8, 3, 7, 10, 2, 5, 6]);
makespan = 266;
----------
assign = array1d(1..18 ,[3, 1, 4, 4, 8, 5, 2, 6, 2, 7, 1, 2, 3, 4, 5, 6, 7, 8]);
next = array1d(1..18 ,[13, 11, 4, 14, 18, 15, 9, 16, 12, 17, 7, 1, 3, 6, 8, 10, 5, 2]);
makespan = 251;
----------
assign = array1d(1..18 ,[7, 1, 3, 2, 8, 5, 4, 6, 5, 4, 1, 2, 3, 4, 5, 6, 7, 8]);
next = array1d(1..18 ,[17, 11, 13, 12, 18, 15, 10, 16, 6, 14, 4, 3, 7, 9, 8, 1, 5, 2]);
makespan = 245;
----------
assign = array1d(1..18 ,[2, 7, 5, 3, 1, 8, 6, 3, 5, 4, 1, 2, 3, 4, 5, 6, 7, 8]);
next = array1d(1..18 ,[12, 17, 9, 8, 11, 18, 16, 13, 15, 14, 1, 4, 10, 3, 7, 2, 6, 5]);
makespan = 243;
----------
assign = array1d(1..18 ,[4, 2, 3, 7, 5, 1, 8, 6, 2, 4, 1, 2, 3, 4, 5, 6, 7, 8]);
next = array1d(1..18 ,[10, 12, 13, 17, 15, 11, 18, 16, 2, 14, 9, 3, 1, 5, 8, 4, 7, 6]);
makespan = 239;
----------
assign = array1d(1..18 ,[4, 2, 5, 3, 1, 6, 8, 7, 5, 4, 1, 2, 3, 4, 5, 6, 7, 8]);
next = array1d(1..18 ,[10, 12, 9, 13, 11, 16, 18, 17, 15, 14, 2, 4, 1, 3, 6, 8, 7, 5]);
makespan = 233;
----------
assign = array1d(1..18 ,[4, 2, 5, 3, 1, 6, 8, 7, 5, 4, 1, 2, 3, 4, 5, 6, 7, 8]);
next = array1d(1..18 ,[10, 12, 9, 13, 11, 16, 18, 17, 15, 14, 2, 4, 1, 3, 6, 8, 7, 5]);
makespan = 233;
----------
==========
	Command being timed: "mzn-grb -a lbbd-datasets/Rabadi-2006/dzn-s-dominant/model.mzn lbbd-datasets/Rabadi-2006/dzn-s-dominant/10on8Rp50Rs50_11Ameer.dzn"
	User time (seconds): 14.03
	System time (seconds): 0.09
	Percent of CPU this job got: 99%
	Elapsed (wall clock) time (h:mm:ss or m:ss): 0:14.19
	Average shared text size (kbytes): 0
	Average unshared data size (kbytes): 0
	Average stack size (kbytes): 0
	Average total size (kbytes): 0
	Maximum resident set size (kbytes): 275664
	Average resident set size (kbytes): 0
	Major (requiring I/O) page faults: 0
	Minor (reclaiming a frame) page faults: 28369
	Voluntary context switches: 5
	Involuntary context switches: 53
	Swaps: 0
	File system inputs: 0
	File system outputs: 8
	Socket messages sent: 0
	Socket messages received: 0
	Signals delivered: 0
	Page size (bytes): 4096
	Exit status: 0
