+ /usr/bin/timeout 600 /usr/bin/time -v mzn-grb -a lbbd-datasets/Rabadi-2006/dzn-p-dominant/model.mzn lbbd-datasets/Rabadi-2006/dzn-p-dominant/9on2Rp50Rs50_15Ameer.dzn
assign = array1d(1..11 ,[2, 2, 2, 1, 2, 2, 1, 1, 1, 1, 2]);
next = array1d(1..11 ,[11, 5, 2, 7, 6, 1, 8, 10, 4, 3, 9]);
makespan = 981;
----------
assign = array1d(1..11 ,[2, 2, 2, 1, 1, 2, 1, 1, 2, 1, 2]);
next = array1d(1..11 ,[3, 1, 11, 5, 10, 9, 4, 7, 2, 6, 8]);
makespan = 945;
----------
assign = array1d(1..11 ,[2, 2, 1, 1, 1, 2, 2, 1, 2, 1, 2]);
next = array1d(1..11 ,[7, 1, 4, 8, 10, 9, 11, 5, 2, 6, 3]);
makespan = 936;
----------
assign = array1d(1..11 ,[2, 1, 2, 1, 1, 2, 1, 1, 2, 1, 2]);
next = array1d(1..11 ,[11, 8, 6, 2, 10, 1, 4, 5, 3, 9, 7]);
makespan = 935;
----------
assign = array1d(1..11 ,[2, 2, 2, 1, 2, 1, 1, 1, 2, 1, 2]);
next = array1d(1..11 ,[5, 1, 11, 8, 3, 10, 4, 6, 2, 9, 7]);
makespan = 926;
----------
assign = array1d(1..11 ,[2, 2, 1, 1, 2, 2, 1, 1, 2, 1, 2]);
next = array1d(1..11 ,[5, 1, 10, 8, 11, 9, 4, 3, 2, 6, 7]);
makespan = 920;
----------
assign = array1d(1..11 ,[2, 2, 1, 1, 2, 2, 1, 1, 2, 1, 2]);
next = array1d(1..11 ,[5, 1, 10, 8, 11, 9, 4, 3, 2, 6, 7]);
makespan = 920;
----------
==========
	Command being timed: "mzn-grb -a lbbd-datasets/Rabadi-2006/dzn-p-dominant/model.mzn lbbd-datasets/Rabadi-2006/dzn-p-dominant/9on2Rp50Rs50_15Ameer.dzn"
	User time (seconds): 2.60
	System time (seconds): 0.02
	Percent of CPU this job got: 99%
	Elapsed (wall clock) time (h:mm:ss or m:ss): 0:02.63
	Average shared text size (kbytes): 0
	Average unshared data size (kbytes): 0
	Average stack size (kbytes): 0
	Average total size (kbytes): 0
	Maximum resident set size (kbytes): 93024
	Average resident set size (kbytes): 0
	Major (requiring I/O) page faults: 0
	Minor (reclaiming a frame) page faults: 6819
	Voluntary context switches: 4
	Involuntary context switches: 11
	Swaps: 0
	File system inputs: 0
	File system outputs: 8
	Socket messages sent: 0
	Socket messages received: 0
	Signals delivered: 0
	Page size (bytes): 4096
	Exit status: 0
