+ /usr/bin/timeout 600 /usr/bin/time -v mzn-grb -a lbbd-datasets/Rabadi-2006/dzn-p-dominant/model.mzn lbbd-datasets/Rabadi-2006/dzn-p-dominant/7on4Rp50Rs50_11Ameer.dzn
assign = array1d(1..11 ,[2, 2, 3, 4, 1, 3, 1, 1, 2, 3, 4]);
next = array1d(1..11 ,[9, 1, 10, 11, 8, 3, 5, 2, 6, 4, 7]);
makespan = 392;
----------
assign = array1d(1..11 ,[3, 4, 4, 1, 1, 3, 2, 1, 2, 3, 4]);
next = array1d(1..11 ,[10, 11, 2, 5, 8, 1, 9, 7, 6, 3, 4]);
makespan = 389;
----------
assign = array1d(1..11 ,[3, 2, 3, 1, 2, 4, 1, 1, 2, 3, 4]);
next = array1d(1..11 ,[3, 5, 10, 8, 9, 11, 4, 2, 1, 6, 7]);
makespan = 366;
----------
assign = array1d(1..11 ,[3, 4, 3, 1, 2, 4, 1, 1, 2, 3, 4]);
next = array1d(1..11 ,[10, 11, 1, 8, 9, 2, 4, 5, 3, 6, 7]);
makespan = 361;
----------
assign = array1d(1..11 ,[2, 4, 4, 1, 3, 3, 1, 1, 2, 3, 4]);
next = array1d(1..11 ,[9, 11, 2, 8, 10, 5, 4, 1, 6, 3, 7]);
makespan = 359;
----------
assign = array1d(1..11 ,[2, 4, 3, 1, 3, 4, 1, 1, 2, 3, 4]);
next = array1d(1..11 ,[9, 11, 5, 8, 10, 2, 4, 1, 3, 6, 7]);
makespan = 352;
----------
assign = array1d(1..11 ,[2, 4, 3, 1, 4, 3, 1, 1, 2, 3, 4]);
next = array1d(1..11 ,[9, 5, 10, 7, 11, 3, 8, 1, 6, 2, 4]);
makespan = 341;
----------
assign = array1d(1..11 ,[2, 4, 3, 1, 4, 3, 1, 1, 2, 3, 4]);
next = array1d(1..11 ,[9, 5, 10, 7, 11, 3, 8, 1, 6, 2, 4]);
makespan = 341;
----------
==========
	Command being timed: "mzn-grb -a lbbd-datasets/Rabadi-2006/dzn-p-dominant/model.mzn lbbd-datasets/Rabadi-2006/dzn-p-dominant/7on4Rp50Rs50_11Ameer.dzn"
	User time (seconds): 2.01
	System time (seconds): 0.02
	Percent of CPU this job got: 96%
	Elapsed (wall clock) time (h:mm:ss or m:ss): 0:02.11
	Average shared text size (kbytes): 0
	Average unshared data size (kbytes): 0
	Average stack size (kbytes): 0
	Average total size (kbytes): 0
	Maximum resident set size (kbytes): 104704
	Average resident set size (kbytes): 0
	Major (requiring I/O) page faults: 0
	Minor (reclaiming a frame) page faults: 7468
	Voluntary context switches: 4
	Involuntary context switches: 22
	Swaps: 0
	File system inputs: 0
	File system outputs: 8
	Socket messages sent: 0
	Socket messages received: 0
	Signals delivered: 0
	Page size (bytes): 4096
	Exit status: 0
