+ /usr/bin/timeout 600 /usr/bin/time -v mzn-grb -a lbbd-datasets/Rabadi-2006/dzn-balanced/model.mzn lbbd-datasets/Rabadi-2006/dzn-balanced/9on6Rp50Rs50_14Ameer.dzn
assign = array1d(1..15 ,[6, 5, 2, 6, 2, 4, 1, 5, 3, 1, 2, 3, 4, 5, 6]);
next = array1d(1..15 ,[4, 8, 5, 15, 11, 13, 10, 14, 12, 3, 9, 6, 2, 1, 7]);
makespan = 200;
----------
assign = array1d(1..15 ,[6, 4, 5, 3, 6, 4, 2, 3, 1, 1, 2, 3, 4, 5, 6]);
next = array1d(1..15 ,[15, 13, 14, 8, 1, 2, 11, 12, 10, 7, 4, 6, 3, 5, 9]);
makespan = 194;
----------
assign = array1d(1..15 ,[6, 5, 5, 6, 3, 1, 2, 3, 1, 1, 2, 3, 4, 5, 6]);
next = array1d(1..15 ,[15, 3, 14, 1, 8, 9, 11, 12, 10, 7, 5, 13, 2, 4, 6]);
makespan = 173;
----------
assign = array1d(1..15 ,[6, 5, 5, 6, 3, 4, 2, 3, 1, 1, 2, 3, 4, 5, 6]);
next = array1d(1..15 ,[15, 3, 14, 1, 8, 13, 11, 12, 10, 7, 5, 6, 2, 4, 9]);
makespan = 171;
----------
assign = array1d(1..15 ,[6, 5, 5, 6, 3, 4, 2, 3, 1, 1, 2, 3, 4, 5, 6]);
next = array1d(1..15 ,[15, 3, 14, 1, 8, 13, 11, 12, 10, 7, 5, 6, 2, 4, 9]);
makespan = 171;
----------
==========
	Command being timed: "mzn-grb -a lbbd-datasets/Rabadi-2006/dzn-balanced/model.mzn lbbd-datasets/Rabadi-2006/dzn-balanced/9on6Rp50Rs50_14Ameer.dzn"
	User time (seconds): 16.17
	System time (seconds): 0.08
	Percent of CPU this job got: 99%
	Elapsed (wall clock) time (h:mm:ss or m:ss): 0:16.32
	Average shared text size (kbytes): 0
	Average unshared data size (kbytes): 0
	Average stack size (kbytes): 0
	Average total size (kbytes): 0
	Maximum resident set size (kbytes): 199744
	Average resident set size (kbytes): 0
	Major (requiring I/O) page faults: 0
	Minor (reclaiming a frame) page faults: 27251
	Voluntary context switches: 5
	Involuntary context switches: 43
	Swaps: 0
	File system inputs: 0
	File system outputs: 8
	Socket messages sent: 0
	Socket messages received: 0
	Signals delivered: 0
	Page size (bytes): 4096
	Exit status: 0
