+ /usr/bin/timeout 600 /usr/bin/time -v mzn-grb -a lbbd-datasets/Rabadi-2006/dzn-p-dominant/model.mzn lbbd-datasets/Rabadi-2006/dzn-p-dominant/8on2Rp50Rs50_5Ameer.dzn
assign = array1d(1..10 ,[2, 2, 2, 1, 2, 1, 2, 1, 1, 2]);
next = array1d(1..10 ,[10, 5, 1, 6, 7, 9, 3, 4, 2, 8]);
makespan = 997;
----------
assign = array1d(1..10 ,[2, 1, 1, 2, 1, 2, 1, 2, 1, 2]);
next = array1d(1..10 ,[4, 7, 9, 8, 3, 10, 5, 6, 1, 2]);
makespan = 837;
----------
assign = array1d(1..10 ,[2, 2, 2, 1, 1, 1, 2, 1, 1, 2]);
next = array1d(1..10 ,[3, 7, 2, 9, 6, 8, 10, 4, 1, 5]);
makespan = 819;
----------
assign = array1d(1..10 ,[1, 2, 1, 2, 1, 2, 1, 2, 1, 2]);
next = array1d(1..10 ,[3, 6, 9, 8, 1, 4, 5, 10, 2, 7]);
makespan = 796;
----------
assign = array1d(1..10 ,[2, 2, 1, 2, 1, 1, 2, 1, 1, 2]);
next = array1d(1..10 ,[7, 4, 9, 1, 6, 8, 10, 3, 2, 5]);
makespan = 789;
----------
assign = array1d(1..10 ,[1, 2, 1, 2, 1, 2, 2, 1, 1, 2]);
next = array1d(1..10 ,[9, 6, 1, 2, 8, 10, 4, 3, 7, 5]);
makespan = 754;
----------
assign = array1d(1..10 ,[2, 1, 1, 2, 1, 1, 2, 2, 1, 2]);
next = array1d(1..10 ,[8, 6, 9, 7, 3, 5, 1, 10, 4, 2]);
makespan = 751;
----------
assign = array1d(1..10 ,[2, 2, 1, 2, 1, 1, 1, 2, 1, 2]);
next = array1d(1..10 ,[8, 1, 9, 2, 6, 7, 3, 10, 4, 5]);
makespan = 746;
----------
assign = array1d(1..10 ,[2, 1, 2, 2, 1, 1, 2, 1, 1, 2]);
next = array1d(1..10 ,[10, 9, 1, 7, 6, 2, 3, 5, 4, 8]);
makespan = 742;
----------
assign = array1d(1..10 ,[2, 1, 2, 2, 1, 1, 2, 1, 1, 2]);
next = array1d(1..10 ,[10, 9, 1, 7, 6, 2, 3, 5, 4, 8]);
makespan = 742;
----------
==========
	Command being timed: "mzn-grb -a lbbd-datasets/Rabadi-2006/dzn-p-dominant/model.mzn lbbd-datasets/Rabadi-2006/dzn-p-dominant/8on2Rp50Rs50_5Ameer.dzn"
	User time (seconds): 1.27
	System time (seconds): 0.01
	Percent of CPU this job got: 99%
	Elapsed (wall clock) time (h:mm:ss or m:ss): 0:01.29
	Average shared text size (kbytes): 0
	Average unshared data size (kbytes): 0
	Average stack size (kbytes): 0
	Average total size (kbytes): 0
	Maximum resident set size (kbytes): 87584
	Average resident set size (kbytes): 0
	Major (requiring I/O) page faults: 0
	Minor (reclaiming a frame) page faults: 6065
	Voluntary context switches: 6
	Involuntary context switches: 5
	Swaps: 0
	File system inputs: 0
	File system outputs: 8
	Socket messages sent: 0
	Socket messages received: 0
	Signals delivered: 0
	Page size (bytes): 4096
	Exit status: 0
