+ /usr/bin/timeout 600 /usr/bin/time -v mzn-grb -a lbbd-datasets/sscplp/trucks-dzn/model.mzn lbbd-datasets/sscplp/trucks-dzn/p06-l40-c100-correlated.dzn
source = [5, 1, 3, 5, 4, 5, 4, 2, 4, 4, 4, 5, 2, 3, 3, 3, 2, 1, 2, 1]
open = [true, true, true, true, true, false, false, false, false, false]
trucks_used = [3, 4, 4, 5, 4, 0, 0, 0, 0, 0]
truck_assigned = [1, 1, 1, 4, 1, 3, 5, 1, 4, 3, 2, 2, 4, 4, 3, 2, 3, 3, 2, 2]
obj = 4191
----------
source = [8, 4, 5, 2, 2, 5, 1, 1, 4, 3, 5, 3, 4, 8, 6, 9, 4, 2, 9, 6]
open = [true, true, true, true, true, true, false, true, true, false]
trucks_used = [1, 3, 1, 2, 2, 2, 0, 1, 1, 0]
truck_assigned = [1, 1, 1, 2, 1, 2, 1, 1, 1, 1, 1, 1, 2, 1, 1, 1, 2, 3, 1, 2]
obj = 3495
----------
source = [8, 2, 4, 2, 3, 5, 1, 1, 4, 3, 5, 3, 4, 8, 3, 9, 4, 2, 9, 1]
open = [true, true, true, true, true, false, false, true, true, false]
trucks_used = [2, 2, 2, 2, 1, 0, 0, 1, 1, 0]
truck_assigned = [1, 1, 1, 1, 2, 1, 1, 2, 2, 1, 1, 1, 1, 1, 2, 1, 2, 2, 1, 1]
obj = 3085
----------
source = [8, 2, 4, 2, 3, 5, 5, 1, 5, 3, 5, 3, 4, 8, 3, 9, 4, 2, 9, 1]
open = [true, true, true, true, true, false, false, true, true, false]
trucks_used = [1, 2, 2, 1, 2, 0, 0, 1, 1, 0]
truck_assigned = [1, 1, 1, 1, 2, 2, 2, 1, 1, 1, 1, 1, 1, 1, 2, 1, 1, 2, 1, 1]
obj = 3015
----------
source = [8, 3, 5, 2, 2, 5, 8, 1, 5, 3, 5, 3, 1, 8, 3, 9, 9, 2, 9, 1]
open = [true, true, true, false, true, false, false, true, true, false]
trucks_used = [2, 2, 2, 0, 2, 0, 0, 2, 2, 0]
truck_assigned = [1, 1, 1, 2, 2, 2, 1, 2, 1, 1, 2, 2, 1, 2, 2, 2, 1, 1, 1, 1]
obj = 2986
----------
source = [8, 3, 5, 2, 2, 5, 1, 1, 5, 3, 5, 3, 8, 8, 3, 9, 9, 2, 9, 1]
open = [true, true, true, false, true, false, false, true, true, false]
trucks_used = [2, 2, 2, 0, 2, 0, 0, 2, 2, 0]
truck_assigned = [1, 1, 1, 2, 2, 2, 1, 2, 1, 1, 2, 2, 1, 2, 2, 2, 1, 1, 1, 1]
obj = 2981
----------
source = [5, 3, 4, 2, 2, 5, 8, 8, 5, 3, 5, 3, 4, 8, 3, 9, 4, 2, 9, 5]
open = [false, true, true, true, true, false, false, true, true, false]
trucks_used = [0, 2, 2, 1, 3, 0, 0, 2, 1, 0]
truck_assigned = [3, 1, 1, 2, 2, 2, 1, 1, 1, 1, 2, 2, 1, 2, 2, 1, 1, 1, 1, 1]
obj = 2969
----------
source = [5, 2, 4, 2, 3, 5, 5, 3, 5, 3, 5, 3, 4, 3, 3, 9, 4, 2, 9, 9]
open = [false, true, true, true, true, false, false, false, true, false]
trucks_used = [0, 2, 5, 1, 3, 0, 0, 0, 2, 0]
truck_assigned = [2, 1, 1, 2, 5, 3, 3, 1, 1, 1, 1, 2, 1, 3, 5, 1, 1, 1, 2, 2]
obj = 2952
----------
source = [5, 2, 4, 2, 3, 5, 5, 3, 5, 3, 5, 3, 4, 3, 3, 9, 4, 2, 9, 4]
open = [false, true, true, true, true, false, false, false, true, false]
trucks_used = [0, 2, 5, 2, 3, 0, 0, 0, 1, 0]
truck_assigned = [2, 1, 1, 2, 5, 3, 3, 1, 1, 1, 1, 2, 1, 3, 5, 1, 1, 1, 1, 2]
obj = 2934
----------
source = [2, 3, 5, 2, 2, 5, 5, 3, 4, 4, 5, 3, 4, 3, 3, 9, 4, 5, 9, 4]
open = [false, true, true, true, true, false, false, false, true, false]
trucks_used = [0, 2, 3, 3, 3, 0, 0, 0, 1, 0]
truck_assigned = [1, 3, 2, 2, 2, 1, 2, 3, 2, 3, 1, 1, 2, 2, 1, 1, 1, 3, 1, 1]
obj = 2906
----------
source = [2, 3, 4, 2, 3, 5, 5, 3, 5, 3, 5, 3, 4, 2, 3, 9, 4, 5, 9, 4]
open = [false, true, true, true, true, false, false, false, true, false]
trucks_used = [0, 3, 3, 2, 3, 0, 0, 0, 1, 0]
truck_assigned = [1, 3, 1, 2, 1, 2, 1, 3, 1, 1, 2, 2, 1, 3, 2, 1, 1, 3, 1, 2]
obj = 2873
----------
source = [2, 3, 4, 2, 3, 5, 5, 3, 5, 3, 5, 3, 4, 2, 3, 9, 4, 9, 9, 4]
open = [false, true, true, true, true, false, false, false, true, false]
trucks_used = [0, 3, 3, 2, 2, 0, 0, 0, 2, 0]
truck_assigned = [2, 3, 1, 1, 1, 2, 1, 3, 1, 1, 2, 2, 1, 3, 2, 1, 1, 2, 1, 2]
obj = 2862
----------
source = [2, 3, 4, 2, 2, 5, 5, 4, 5, 3, 5, 3, 4, 3, 3, 9, 4, 9, 9, 4]
open = [false, true, true, true, true, false, false, false, true, false]
trucks_used = [0, 2, 3, 3, 2, 0, 0, 0, 2, 0]
truck_assigned = [2, 3, 1, 1, 1, 2, 1, 3, 1, 2, 2, 3, 1, 1, 2, 1, 2, 2, 1, 2]
obj = 2845
----------
source = [2, 3, 4, 2, 2, 5, 5, 3, 5, 3, 5, 3, 4, 3, 3, 9, 4, 9, 9, 4]
open = [false, true, true, true, true, false, false, false, true, false]
trucks_used = [0, 2, 4, 2, 2, 0, 0, 0, 2, 0]
truck_assigned = [2, 1, 1, 1, 1, 2, 1, 1, 1, 2, 2, 2, 1, 4, 3, 1, 2, 2, 1, 2]
obj = 2837
----------
source = [2, 3, 4, 2, 2, 5, 5, 9, 5, 3, 5, 3, 4, 3, 3, 9, 4, 9, 9, 4]
open = [false, true, true, true, true, false, false, false, true, false]
trucks_used = [0, 2, 3, 2, 2, 0, 0, 0, 3, 0]
truck_assigned = [2, 3, 1, 1, 1, 2, 1, 2, 1, 2, 2, 2, 1, 1, 3, 1, 2, 3, 1, 2]
obj = 2834
----------
source = [2, 3, 5, 2, 2, 5, 5, 9, 4, 3, 5, 3, 4, 3, 3, 9, 4, 9, 9, 4]
open = [false, true, true, true, true, false, false, false, true, false]
trucks_used = [0, 2, 3, 2, 2, 0, 0, 0, 3, 0]
truck_assigned = [2, 3, 1, 1, 1, 2, 1, 2, 1, 2, 2, 2, 1, 1, 3, 1, 2, 3, 1, 2]
obj = 2827
----------
source = [8, 3, 4, 2, 2, 5, 8, 8, 5, 3, 5, 3, 4, 8, 3, 9, 4, 2, 9, 5]
open = [false, true, true, true, true, false, false, true, true, false]
trucks_used = [0, 2, 2, 1, 2, 0, 0, 2, 1, 0]
truck_assigned = [2, 1, 1, 2, 2, 2, 1, 1, 1, 2, 1, 1, 1, 2, 2, 1, 1, 1, 1, 2]
obj = 2815
----------
source = [5, 3, 4, 2, 2, 5, 9, 3, 5, 3, 5, 3, 4, 2, 3, 9, 4, 3, 9, 5]
open = [false, true, true, true, true, false, false, false, true, false]
trucks_used = [0, 2, 3, 1, 3, 0, 0, 0, 2, 0]
truck_assigned = [1, 1, 1, 1, 1, 3, 2, 2, 2, 2, 2, 3, 1, 2, 3, 1, 1, 1, 2, 3]
obj = 2796
----------
source = [5, 3, 4, 2, 2, 5, 5, 3, 5, 3, 5, 3, 4, 2, 3, 9, 4, 3, 9, 4]
open = [false, true, true, true, true, false, false, false, true, false]
trucks_used = [0, 2, 3, 2, 3, 0, 0, 0, 1, 0]
truck_assigned = [2, 2, 1, 1, 1, 3, 1, 1, 1, 1, 3, 3, 1, 2, 3, 1, 2, 2, 1, 2]
obj = 2778
----------
source = [5, 3, 4, 2, 2, 5, 5, 3, 5, 3, 5, 3, 4, 2, 3, 9, 4, 3, 9, 4]
open = [false, true, true, true, true, false, false, false, true, false]
trucks_used = [0, 2, 3, 2, 3, 0, 0, 0, 1, 0]
truck_assigned = [2, 2, 1, 1, 1, 3, 1, 1, 1, 1, 3, 3, 1, 2, 3, 1, 2, 2, 1, 2]
obj = 2778
----------
==========
	Command being timed: "mzn-grb -a lbbd-datasets/sscplp/trucks-dzn/model.mzn lbbd-datasets/sscplp/trucks-dzn/p06-l40-c100-correlated.dzn"
	User time (seconds): 204.49
	System time (seconds): 0.45
	Percent of CPU this job got: 99%
	Elapsed (wall clock) time (h:mm:ss or m:ss): 3:25.32
	Average shared text size (kbytes): 0
	Average unshared data size (kbytes): 0
	Average stack size (kbytes): 0
	Average total size (kbytes): 0
	Maximum resident set size (kbytes): 1642368
	Average resident set size (kbytes): 0
	Major (requiring I/O) page faults: 0
	Minor (reclaiming a frame) page faults: 109207
	Voluntary context switches: 4
	Involuntary context switches: 327
	Swaps: 0
	File system inputs: 0
	File system outputs: 64
	Socket messages sent: 0
	Socket messages received: 0
	Signals delivered: 0
	Page size (bytes): 4096
	Exit status: 0
