+ /usr/bin/timeout 600 /usr/bin/time -v mzn-grb -a lbbd-datasets/sscplp/trucks-dzn/model.mzn lbbd-datasets/sscplp/trucks-dzn/p07-l100-c150-uncorrelated.dzn
source = [6, 6, 6, 11, 14, 6, 4, 6, 14, 4, 2, 4, 6, 11, 4, 11, 11, 14, 14, 14, 14, 2, 6, 6, 14, 14, 5, 6, 11, 11]
open = [false, true, false, true, true, true, false, false, false, false, true, false, false, true, false]
trucks_used = [0, 1, 0, 1, 1, 4, 0, 0, 0, 0, 2, 0, 0, 2, 0]
truck_assigned = [3, 1, 1, 1, 1, 2, 1, 4, 1, 1, 1, 1, 1, 1, 1, 1, 1, 1, 1, 1, 1, 1, 1, 1, 2, 1, 1, 1, 2, 2]
obj = 5766
----------
source = [6, 5, 6, 11, 14, 6, 4, 6, 14, 4, 2, 4, 6, 11, 4, 11, 11, 14, 14, 14, 14, 2, 6, 6, 14, 14, 6, 6, 11, 11]
open = [false, true, false, true, true, true, false, false, false, false, true, false, false, true, false]
trucks_used = [0, 1, 0, 1, 1, 3, 0, 0, 0, 0, 2, 0, 0, 2, 0]
truck_assigned = [3, 1, 1, 1, 2, 2, 1, 3, 2, 1, 1, 1, 1, 2, 1, 1, 2, 1, 1, 1, 1, 1, 2, 2, 1, 1, 1, 2, 1, 2]
obj = 5642
----------
source = [6, 6, 14, 11, 14, 6, 4, 6, 14, 4, 14, 2, 6, 11, 4, 11, 11, 14, 14, 14, 4, 2, 6, 6, 14, 14, 6, 6, 11, 11]
open = [false, true, false, true, false, true, false, false, false, false, true, false, false, true, false]
trucks_used = [0, 1, 0, 1, 0, 3, 0, 0, 0, 0, 2, 0, 0, 2, 0]
truck_assigned = [3, 1, 2, 1, 2, 2, 1, 3, 1, 1, 1, 1, 1, 1, 1, 1, 2, 1, 1, 1, 1, 1, 1, 2, 2, 1, 1, 2, 2, 2]
obj = 5144
----------
source = [9, 6, 14, 11, 14, 6, 9, 6, 14, 9, 14, 2, 6, 11, 11, 11, 11, 14, 14, 2, 14, 9, 6, 6, 14, 14, 6, 9, 6, 11]
open = [false, true, false, false, false, true, false, false, true, false, true, false, false, true, false]
trucks_used = [0, 1, 0, 0, 0, 3, 0, 0, 2, 0, 2, 0, 0, 2, 0]
truck_assigned = [2, 2, 2, 1, 2, 1, 1, 3, 1, 1, 1, 1, 1, 1, 1, 2, 2, 1, 1, 1, 1, 1, 3, 2, 2, 1, 1, 2, 2, 2]
obj = 4923
----------
source = [6, 6, 14, 11, 14, 6, 2, 6, 14, 14, 15, 2, 6, 15, 11, 11, 15, 14, 14, 15, 14, 11, 6, 6, 14, 14, 6, 6, 11, 11]
open = [false, true, false, false, false, true, false, false, false, false, true, false, false, true, true]
trucks_used = [0, 1, 0, 0, 0, 3, 0, 0, 0, 0, 2, 0, 0, 2, 1]
truck_assigned = [2, 2, 2, 1, 1, 1, 1, 3, 1, 2, 1, 1, 1, 1, 1, 2, 1, 1, 1, 1, 1, 1, 3, 2, 2, 1, 1, 2, 2, 2]
obj = 4593
----------
source = [6, 6, 6, 11, 14, 6, 11, 14, 14, 14, 15, 2, 6, 15, 11, 11, 15, 14, 14, 15, 14, 2, 6, 6, 11, 14, 6, 6, 11, 11]
open = [false, true, false, false, false, true, false, false, false, false, true, false, false, true, true]
trucks_used = [0, 1, 0, 0, 0, 2, 0, 0, 0, 0, 2, 0, 0, 2, 1]
truck_assigned = [1, 2, 1, 1, 1, 1, 1, 1, 2, 2, 1, 1, 1, 1, 1, 2, 1, 1, 1, 1, 2, 1, 1, 2, 1, 1, 2, 2, 2, 2]
obj = 4566
----------
source = [14, 6, 6, 11, 14, 6, 2, 14, 14, 6, 15, 2, 6, 15, 11, 11, 15, 14, 14, 15, 14, 11, 6, 6, 14, 14, 6, 6, 11, 11]
open = [false, true, false, false, false, true, false, false, false, false, true, false, false, true, true]
trucks_used = [0, 1, 0, 0, 0, 2, 0, 0, 0, 0, 2, 0, 0, 2, 1]
truck_assigned = [2, 1, 1, 1, 1, 2, 1, 1, 2, 2, 1, 1, 1, 1, 2, 2, 1, 1, 1, 1, 2, 1, 1, 1, 2, 1, 2, 1, 1, 2]
obj = 4511
----------
source = [6, 6, 6, 11, 14, 6, 2, 14, 14, 14, 15, 2, 14, 15, 11, 11, 15, 14, 14, 15, 14, 11, 6, 6, 14, 6, 6, 6, 11, 11]
open = [false, true, false, false, false, true, false, false, false, false, true, false, false, true, true]
trucks_used = [0, 1, 0, 0, 0, 2, 0, 0, 0, 0, 2, 0, 0, 2, 1]
truck_assigned = [2, 1, 2, 1, 1, 1, 1, 2, 1, 2, 1, 1, 1, 1, 2, 2, 1, 1, 1, 1, 1, 1, 1, 1, 2, 1, 2, 2, 1, 2]
obj = 4503
----------
source = [11, 6, 6, 11, 14, 6, 11, 14, 14, 14, 15, 15, 14, 15, 15, 11, 11, 14, 14, 15, 14, 11, 6, 6, 14, 6, 6, 6, 6, 11]
open = [false, false, false, false, false, true, false, false, false, false, true, false, false, true, true]
trucks_used = [0, 0, 0, 0, 0, 2, 0, 0, 0, 0, 2, 0, 0, 2, 2]
truck_assigned = [1, 1, 2, 1, 1, 1, 1, 2, 1, 2, 2, 2, 1, 1, 1, 2, 2, 1, 1, 1, 1, 2, 1, 1, 2, 1, 2, 2, 2, 1]
obj = 4474
----------
source = [14, 6, 6, 11, 14, 6, 11, 14, 14, 6, 15, 15, 6, 15, 11, 11, 11, 14, 14, 15, 14, 11, 6, 6, 14, 14, 6, 15, 6, 11]
open = [false, false, false, false, false, true, false, false, false, false, true, false, false, true, true]
trucks_used = [0, 0, 0, 0, 0, 2, 0, 0, 0, 0, 2, 0, 0, 2, 2]
truck_assigned = [2, 1, 1, 1, 1, 2, 1, 2, 1, 2, 1, 2, 1, 2, 1, 2, 2, 2, 1, 1, 1, 2, 1, 1, 1, 1, 2, 1, 1, 1]
obj = 4450
----------
source = [14, 14, 6, 11, 14, 6, 11, 14, 14, 14, 14, 15, 6, 15, 15, 11, 15, 6, 14, 15, 14, 11, 6, 6, 14, 6, 6, 11, 11, 11]
open = [false, false, false, false, false, true, false, false, false, false, true, false, false, true, true]
trucks_used = [0, 0, 0, 0, 0, 2, 0, 0, 0, 0, 2, 0, 0, 3, 1]
truck_assigned = [1, 2, 1, 2, 1, 2, 1, 3, 1, 1, 3, 1, 1, 1, 1, 2, 1, 1, 3, 1, 2, 2, 1, 2, 2, 1, 2, 1, 1, 1]
obj = 4444
----------
source = [14, 6, 14, 11, 14, 6, 11, 6, 14, 14, 14, 15, 6, 15, 15, 11, 15, 14, 14, 15, 14, 11, 6, 6, 14, 6, 6, 11, 11, 11]
open = [false, false, false, false, false, true, false, false, false, false, true, false, false, true, true]
trucks_used = [0, 0, 0, 0, 0, 2, 0, 0, 0, 0, 2, 0, 0, 3, 1]
truck_assigned = [3, 1, 2, 2, 1, 2, 1, 1, 1, 2, 3, 1, 1, 1, 1, 1, 1, 1, 1, 1, 3, 2, 2, 1, 1, 2, 2, 1, 2, 1]
obj = 4435
----------
source = [15, 6, 6, 11, 14, 6, 11, 14, 14, 6, 14, 15, 6, 15, 11, 11, 14, 15, 14, 15, 14, 11, 6, 6, 14, 14, 6, 11, 6, 11]
open = [false, false, false, false, false, true, false, false, false, false, true, false, false, true, true]
trucks_used = [0, 0, 0, 0, 0, 2, 0, 0, 0, 0, 2, 0, 0, 2, 1]
truck_assigned = [1, 1, 2, 2, 1, 2, 1, 2, 1, 1, 2, 1, 1, 1, 2, 1, 1, 1, 1, 1, 2, 2, 2, 1, 1, 1, 2, 1, 1, 1]
obj = 4405
----------
source = [15, 6, 6, 11, 14, 6, 11, 14, 14, 6, 14, 15, 6, 15, 6, 11, 14, 15, 14, 15, 14, 11, 6, 6, 14, 14, 6, 11, 11, 11]
open = [false, false, false, false, false, true, false, false, false, false, true, false, false, true, true]
trucks_used = [0, 0, 0, 0, 0, 2, 0, 0, 0, 0, 2, 0, 0, 2, 1]
truck_assigned = [1, 1, 1, 2, 1, 2, 1, 2, 2, 2, 2, 1, 1, 1, 2, 1, 1, 1, 2, 1, 1, 2, 2, 1, 1, 1, 1, 1, 2, 1]
obj = 4383
----------
source = [15, 6, 6, 11, 14, 6, 11, 14, 14, 6, 14, 15, 6, 15, 6, 11, 14, 15, 14, 15, 14, 11, 6, 6, 14, 14, 6, 11, 11, 11]
open = [false, false, false, false, false, true, false, false, false, false, true, false, false, true, true]
trucks_used = [0, 0, 0, 0, 0, 2, 0, 0, 0, 0, 2, 0, 0, 2, 1]
truck_assigned = [1, 1, 1, 2, 1, 2, 1, 2, 2, 2, 2, 1, 1, 1, 2, 1, 1, 1, 2, 1, 1, 2, 2, 1, 1, 1, 1, 1, 2, 1]
obj = 4383
----------
==========
	Command being timed: "mzn-grb -a lbbd-datasets/sscplp/trucks-dzn/model.mzn lbbd-datasets/sscplp/trucks-dzn/p07-l100-c150-uncorrelated.dzn"
	User time (seconds): 340.34
	System time (seconds): 1.18
	Percent of CPU this job got: 99%
	Elapsed (wall clock) time (h:mm:ss or m:ss): 5:42.19
	Average shared text size (kbytes): 0
	Average unshared data size (kbytes): 0
	Average stack size (kbytes): 0
	Average total size (kbytes): 0
	Maximum resident set size (kbytes): 5623808
	Average resident set size (kbytes): 0
	Major (requiring I/O) page faults: 0
	Minor (reclaiming a frame) page faults: 342593
	Voluntary context switches: 4
	Involuntary context switches: 690
	Swaps: 0
	File system inputs: 0
	File system outputs: 96
	Socket messages sent: 0
	Socket messages received: 0
	Signals delivered: 0
	Page size (bytes): 4096
	Exit status: 0
