+ /usr/bin/timeout 600 /usr/bin/time -v mzn-grb -a lbbd-datasets/Rabadi-2006/dzn-s-dominant/model.mzn lbbd-datasets/Rabadi-2006/dzn-s-dominant/9on2Rp50Rs50_7Ameer.dzn
assign = array1d(1..11 ,[1, 2, 2, 2, 1, 1, 1, 2, 1, 1, 2]);
next = array1d(1..11 ,[5, 3, 11, 2, 10, 1, 6, 4, 7, 8, 9]);
makespan = 1029;
----------
assign = array1d(1..11 ,[2, 2, 1, 1, 2, 1, 1, 1, 2, 1, 2]);
next = array1d(1..11 ,[5, 9, 7, 3, 2, 10, 6, 4, 11, 1, 8]);
makespan = 960;
----------
assign = array1d(1..11 ,[2, 2, 2, 1, 1, 1, 1, 2, 2, 1, 2]);
next = array1d(1..11 ,[3, 9, 11, 6, 4, 10, 5, 2, 1, 8, 7]);
makespan = 929;
----------
assign = array1d(1..11 ,[1, 2, 2, 1, 1, 2, 2, 1, 1, 1, 2]);
next = array1d(1..11 ,[5, 3, 11, 9, 10, 2, 6, 4, 1, 7, 8]);
makespan = 915;
----------
assign = array1d(1..11 ,[1, 2, 2, 1, 1, 2, 1, 2, 1, 1, 2]);
next = array1d(1..11 ,[7, 3, 11, 9, 4, 8, 10, 2, 1, 6, 5]);
makespan = 881;
----------
assign = array1d(1..11 ,[1, 2, 1, 1, 1, 2, 2, 2, 1, 1, 2]);
next = array1d(1..11 ,[10, 7, 5, 9, 4, 8, 11, 2, 1, 6, 3]);
makespan = 880;
----------
assign = array1d(1..11 ,[1, 2, 2, 1, 1, 1, 2, 2, 1, 1, 2]);
next = array1d(1..11 ,[6, 7, 11, 9, 4, 10, 3, 2, 1, 8, 5]);
makespan = 874;
----------
assign = array1d(1..11 ,[1, 1, 2, 1, 1, 2, 2, 2, 1, 1, 2]);
next = array1d(1..11 ,[2, 10, 7, 9, 4, 8, 6, 11, 1, 3, 5]);
makespan = 858;
----------
assign = array1d(1..11 ,[1, 1, 2, 1, 1, 2, 2, 2, 1, 1, 2]);
next = array1d(1..11 ,[2, 10, 7, 9, 4, 8, 6, 11, 1, 3, 5]);
makespan = 858;
----------
==========
	Command being timed: "mzn-grb -a lbbd-datasets/Rabadi-2006/dzn-s-dominant/model.mzn lbbd-datasets/Rabadi-2006/dzn-s-dominant/9on2Rp50Rs50_7Ameer.dzn"
	User time (seconds): 112.65
	System time (seconds): 0.28
	Percent of CPU this job got: 99%
	Elapsed (wall clock) time (h:mm:ss or m:ss): 1:53.14
	Average shared text size (kbytes): 0
	Average unshared data size (kbytes): 0
	Average stack size (kbytes): 0
	Average total size (kbytes): 0
	Maximum resident set size (kbytes): 185632
	Average resident set size (kbytes): 0
	Major (requiring I/O) page faults: 0
	Minor (reclaiming a frame) page faults: 76396
	Voluntary context switches: 6
	Involuntary context switches: 173
	Swaps: 0
	File system inputs: 0
	File system outputs: 16
	Socket messages sent: 0
	Socket messages received: 0
	Signals delivered: 0
	Page size (bytes): 4096
	Exit status: 0
