+ /usr/bin/timeout 600 /usr/bin/time -v mzn-grb -a lbbd-datasets/planningandscheduling/makespan-insts/model.mzn lbbd-datasets/planningandscheduling/makespan-insts/c24j4m5.dzn
obj = 32
----------
obj = 31
----------
obj = 30
----------
obj = 29
----------
