+ /usr/bin/timeout 600 /usr/bin/time -v mzn-grb -a lbbd-datasets/sscplp/trucks-dzn/model.mzn lbbd-datasets/sscplp/trucks-dzn/p19-l50-c80-correlated.dzn
source = [19, 3, 9, 1, 19, 9, 2, 7, 11, 2, 14, 2, 20, 20, 3, 7, 9, 11, 7, 3, 19, 7, 11, 2, 9, 3, 20, 9, 19, 7, 19, 19, 2, 11, 1, 3, 14, 7, 7, 1]
open = [true, true, true, false, false, false, true, false, true, false, true, false, false, true, false, false, false, false, true, true]
trucks_used = [2, 2, 2, 0, 0, 0, 3, 0, 2, 0, 2, 0, 0, 2, 0, 0, 0, 0, 2, 1]
truck_assigned = [2, 2, 1, 2, 1, 2, 2, 2, 1, 2, 2, 2, 1, 1, 2, 1, 2, 1, 2, 1, 1, 3, 1, 1, 1, 1, 1, 1, 2, 3, 1, 2, 1, 2, 1, 1, 1, 1, 1, 1]
obj = 19277
----------
source = [19, 1, 19, 11, 19, 9, 1, 9, 11, 2, 19, 2, 11, 7, 2, 7, 9, 19, 7, 3, 3, 7, 11, 1, 9, 3, 3, 9, 2, 1, 19, 19, 14, 11, 1, 3, 14, 7, 7, 7]
open = [true, true, true, false, false, false, true, false, true, false, true, false, false, true, false, false, false, false, true, false]
trucks_used = [3, 2, 2, 0, 0, 0, 4, 0, 2, 0, 2, 0, 0, 2, 0, 0, 0, 0, 3, 0]
truck_assigned = [1, 1, 1, 2, 3, 2, 3, 1, 2, 2, 2, 1, 1, 3, 1, 3, 2, 2, 2, 2, 1, 4, 1, 3, 1, 2, 1, 1, 1, 1, 1, 3, 2, 1, 2, 1, 1, 2, 1, 1]
obj = 16975
----------
source = [19, 1, 9, 11, 19, 9, 1, 11, 11, 1, 19, 2, 11, 7, 2, 7, 9, 19, 7, 3, 3, 7, 11, 1, 9, 3, 3, 9, 2, 7, 19, 19, 2, 11, 1, 3, 19, 7, 7, 1]
open = [true, true, true, false, false, false, true, false, true, false, true, false, false, false, false, false, false, false, true, false]
trucks_used = [3, 2, 2, 0, 0, 0, 4, 0, 2, 0, 3, 0, 0, 0, 0, 0, 0, 0, 3, 0]
truck_assigned = [1, 1, 2, 1, 3, 2, 3, 3, 2, 1, 2, 2, 2, 3, 1, 1, 1, 2, 2, 2, 1, 4, 1, 3, 1, 2, 1, 2, 1, 1, 1, 3, 2, 3, 2, 2, 1, 3, 2, 2]
obj = 16034
----------
source = [19, 1, 9, 11, 19, 9, 1, 11, 11, 1, 19, 2, 11, 7, 2, 7, 9, 11, 19, 3, 3, 7, 11, 1, 9, 3, 3, 9, 2, 7, 19, 19, 2, 3, 1, 3, 19, 7, 7, 1]
open = [true, true, true, false, false, false, true, false, true, false, true, false, false, false, false, false, false, false, true, false]
trucks_used = [3, 2, 2, 0, 0, 0, 3, 0, 2, 0, 2, 0, 0, 0, 0, 0, 0, 0, 3, 0]
truck_assigned = [1, 1, 1, 1, 3, 2, 3, 2, 2, 1, 2, 2, 2, 2, 1, 1, 2, 1, 1, 2, 1, 3, 1, 3, 1, 2, 1, 2, 1, 1, 2, 3, 2, 1, 2, 2, 1, 3, 2, 2]
obj = 15888
----------
source = [19, 1, 9, 11, 19, 9, 2, 11, 11, 1, 19, 2, 11, 7, 2, 7, 9, 11, 7, 3, 3, 7, 11, 2, 9, 3, 3, 9, 19, 7, 19, 19, 2, 3, 1, 3, 7, 7, 7, 1]
open = [true, true, true, false, false, false, true, false, true, false, true, false, false, false, false, false, false, false, true, false]
trucks_used = [2, 2, 2, 0, 0, 0, 4, 0, 2, 0, 2, 0, 0, 0, 0, 0, 0, 0, 3, 0]
truck_assigned = [1, 1, 1, 1, 3, 2, 1, 2, 2, 1, 2, 1, 2, 2, 1, 1, 1, 1, 4, 2, 1, 3, 1, 2, 2, 2, 1, 2, 1, 1, 2, 3, 2, 1, 2, 2, 4, 3, 2, 2]
obj = 15851
----------
source = [19, 1, 9, 1, 19, 9, 9, 11, 11, 1, 19, 2, 11, 7, 3, 7, 11, 19, 7, 3, 3, 7, 11, 2, 9, 3, 2, 9, 19, 7, 19, 19, 2, 11, 1, 3, 7, 2, 7, 7]
open = [true, true, true, false, false, false, true, false, true, false, true, false, false, false, false, false, false, false, true, false]
trucks_used = [2, 2, 2, 0, 0, 0, 4, 0, 2, 0, 2, 0, 0, 0, 0, 0, 0, 0, 3, 0]
truck_assigned = [2, 2, 1, 1, 3, 1, 2, 1, 2, 1, 2, 1, 2, 2, 1, 1, 1, 1, 3, 2, 1, 3, 1, 2, 2, 2, 1, 1, 1, 1, 2, 3, 2, 2, 2, 2, 4, 1, 2, 4]
obj = 15839
----------
source = [19, 1, 9, 11, 19, 9, 2, 11, 11, 3, 7, 2, 11, 7, 2, 7, 9, 11, 7, 3, 19, 7, 11, 2, 9, 3, 3, 9, 1, 7, 19, 19, 2, 3, 1, 3, 19, 1, 7, 7]
open = [true, true, true, false, false, false, true, false, true, false, true, false, false, false, false, false, false, false, true, false]
trucks_used = [2, 2, 2, 0, 0, 0, 4, 0, 2, 0, 2, 0, 0, 0, 0, 0, 0, 0, 2, 0]
truck_assigned = [2, 2, 1, 1, 2, 1, 2, 2, 2, 1, 3, 1, 2, 2, 1, 2, 2, 1, 4, 2, 1, 3, 1, 2, 2, 2, 1, 1, 1, 1, 2, 1, 1, 1, 2, 2, 1, 1, 1, 4]
obj = 15830
----------
source = [19, 1, 9, 1, 19, 9, 2, 7, 3, 1, 19, 2, 9, 7, 2, 3, 9, 19, 19, 7, 19, 7, 7, 1, 2, 3, 3, 9, 1, 7, 1, 19, 2, 3, 7, 3, 7, 1, 7, 1]
open = [true, true, true, false, false, false, true, false, true, false, false, false, false, false, false, false, false, false, true, false]
trucks_used = [6, 3, 3, 0, 0, 0, 6, 0, 2, 0, 0, 0, 0, 0, 0, 0, 0, 0, 3, 0]
truck_assigned = [2, 5, 1, 1, 3, 1, 1, 2, 2, 4, 3, 3, 2, 6, 1, 2, 2, 2, 1, 3, 1, 3, 5, 2, 2, 3, 3, 1, 5, 1, 6, 1, 2, 1, 4, 1, 2, 1, 4, 2]
obj = 14115
----------
source = [19, 1, 9, 1, 1, 9, 2, 7, 3, 1, 19, 2, 9, 7, 2, 3, 9, 19, 19, 7, 19, 7, 7, 1, 2, 3, 3, 9, 19, 7, 1, 19, 2, 3, 7, 3, 7, 1, 7, 1]
open = [true, true, true, false, false, false, true, false, true, false, false, false, false, false, false, false, false, false, true, false]
trucks_used = [5, 3, 3, 0, 0, 0, 6, 0, 2, 0, 0, 0, 0, 0, 0, 0, 0, 0, 3, 0]
truck_assigned = [2, 5, 1, 1, 3, 1, 1, 2, 2, 4, 3, 3, 2, 6, 3, 2, 2, 3, 1, 1, 1, 3, 5, 2, 2, 3, 3, 1, 2, 1, 5, 1, 2, 1, 4, 1, 2, 1, 4, 2]
obj = 14043
----------
source = [19, 1, 9, 1, 19, 9, 2, 7, 3, 1, 19, 2, 9, 7, 2, 3, 9, 19, 19, 7, 19, 7, 7, 1, 2, 3, 3, 9, 1, 7, 1, 19, 2, 3, 7, 3, 7, 1, 7, 1]
open = [true, true, true, false, false, false, true, false, true, false, false, false, false, false, false, false, false, false, true, false]
trucks_used = [4, 2, 3, 0, 0, 0, 5, 0, 2, 0, 0, 0, 0, 0, 0, 0, 0, 0, 3, 0]
truck_assigned = [2, 1, 1, 4, 3, 1, 1, 3, 2, 4, 3, 1, 2, 5, 1, 2, 1, 2, 1, 1, 1, 3, 2, 3, 2, 3, 3, 2, 3, 1, 2, 1, 2, 1, 4, 1, 2, 1, 4, 2]
obj = 13795
----------
source = [19, 1, 19, 1, 1, 9, 2, 7, 3, 7, 19, 2, 9, 7, 2, 3, 9, 19, 19, 7, 19, 7, 7, 1, 2, 3, 3, 9, 1, 7, 19, 9, 2, 3, 1, 3, 19, 1, 7, 1]
open = [true, true, true, false, false, false, true, false, true, false, false, false, false, false, false, false, false, false, true, false]
trucks_used = [4, 2, 3, 0, 0, 0, 4, 0, 2, 0, 0, 0, 0, 0, 0, 0, 0, 0, 3, 0]
truck_assigned = [2, 1, 2, 4, 2, 1, 1, 3, 2, 1, 3, 1, 2, 4, 1, 2, 1, 3, 1, 2, 1, 3, 2, 3, 2, 3, 3, 2, 3, 1, 2, 1, 2, 1, 1, 1, 1, 1, 4, 2]
obj = 13724
----------
source = [19, 1, 9, 1, 1, 9, 2, 7, 3, 1, 19, 2, 9, 7, 2, 7, 3, 19, 19, 3, 19, 7, 7, 9, 2, 3, 3, 9, 1, 7, 19, 19, 2, 3, 1, 3, 7, 1, 7, 1]
open = [true, true, true, false, false, false, true, false, true, false, false, false, false, false, false, false, false, false, true, false]
trucks_used = [4, 2, 3, 0, 0, 0, 4, 0, 2, 0, 0, 0, 0, 0, 0, 0, 0, 0, 3, 0]
truck_assigned = [2, 2, 1, 3, 2, 1, 1, 1, 2, 1, 3, 1, 2, 4, 1, 2, 3, 3, 1, 3, 1, 3, 2, 1, 2, 2, 1, 2, 3, 1, 1, 2, 2, 1, 1, 1, 3, 4, 4, 4]
obj = 13683
----------
source = [19, 1, 9, 1, 19, 9, 9, 7, 3, 1, 19, 2, 9, 7, 2, 7, 3, 19, 19, 3, 19, 7, 7, 2, 2, 3, 3, 9, 1, 7, 1, 19, 2, 3, 1, 3, 7, 1, 7, 1]
open = [true, true, true, false, false, false, true, false, true, false, false, false, false, false, false, false, false, false, true, false]
trucks_used = [4, 2, 3, 0, 0, 0, 4, 0, 2, 0, 0, 0, 0, 0, 0, 0, 0, 0, 3, 0]
truck_assigned = [2, 1, 1, 4, 3, 1, 2, 1, 2, 2, 3, 1, 2, 3, 1, 1, 3, 1, 1, 1, 2, 4, 2, 2, 2, 2, 1, 1, 3, 4, 3, 2, 1, 3, 1, 1, 2, 1, 3, 4]
obj = 13647
----------
