+ /usr/bin/timeout 600 /usr/bin/time -v mzn-grb -a lbbd-datasets/planningandscheduling/cost-insts/model.mzn lbbd-datasets/planningandscheduling/cost-insts/df14j3m2.dzn
obj = 403
----------
obj = 392
----------
obj = 370
----------
obj = 357
----------
obj = 355
----------
obj = 355
----------
==========
	Command being timed: "mzn-grb -a lbbd-datasets/planningandscheduling/cost-insts/model.mzn lbbd-datasets/planningandscheduling/cost-insts/df14j3m2.dzn"
	User time (seconds): 26.43
	System time (seconds): 0.18
	Percent of CPU this job got: 99%
	Elapsed (wall clock) time (h:mm:ss or m:ss): 0:26.67
	Average shared text size (kbytes): 0
	Average unshared data size (kbytes): 0
	Average stack size (kbytes): 0
	Average total size (kbytes): 0
	Maximum resident set size (kbytes): 716880
	Average resident set size (kbytes): 0
	Major (requiring I/O) page faults: 0
	Minor (reclaiming a frame) page faults: 46981
	Voluntary context switches: 4
	Involuntary context switches: 43
	Swaps: 0
	File system inputs: 0
	File system outputs: 8
	Socket messages sent: 0
	Socket messages received: 0
	Signals delivered: 0
	Page size (bytes): 4096
	Exit status: 0
