+ /usr/bin/timeout 600 /usr/bin/time -v mzn-grb -a lbbd-datasets/planningandscheduling/makespan-insts/model.mzn lbbd-datasets/planningandscheduling/makespan-insts/de20j3m2.dzn
obj = 52
----------
obj = 48
----------
obj = 47
----------
obj = 46
----------
