+ /usr/bin/timeout 600 /usr/bin/time -v mzn-grb -a lbbd-datasets/sscplp/dzn/model.mzn lbbd-datasets/sscplp/dzn/p07.dzn
source = [11, 7, 14, 11, 14, 6, 9, 6, 14, 14, 15, 2, 6, 7, 7, 7, 11, 7, 10, 10, 4, 2, 6, 7, 14, 4, 6, 15, 7, 11]
obj = 6588
----------
source = [9, 7, 14, 14, 7, 6, 2, 6, 15, 6, 15, 7, 6, 14, 8, 7, 11, 7, 14, 7, 14, 9, 12, 6, 14, 14, 8, 11, 11, 11]
obj = 6422
----------
source = [9, 7, 14, 1, 7, 6, 2, 6, 15, 14, 15, 1, 1, 7, 11, 7, 11, 7, 14, 7, 14, 9, 6, 6, 14, 14, 6, 1, 11, 11]
obj = 6182
----------
source = [9, 7, 14, 2, 7, 6, 9, 6, 14, 14, 15, 2, 6, 15, 11, 7, 11, 7, 14, 7, 4, 9, 4, 7, 14, 14, 6, 15, 11, 11]
obj = 5536
----------
source = [2, 7, 4, 11, 7, 6, 15, 6, 14, 4, 15, 2, 14, 7, 7, 7, 11, 7, 14, 7, 14, 11, 6, 6, 11, 14, 6, 15, 11, 4]
obj = 5103
----------
source = [4, 7, 14, 2, 7, 6, 15, 6, 14, 4, 15, 2, 4, 7, 7, 7, 11, 7, 14, 7, 14, 11, 6, 6, 14, 14, 6, 15, 11, 11]
obj = 5064
----------
source = [4, 7, 14, 11, 7, 6, 15, 6, 14, 4, 15, 2, 14, 7, 4, 7, 11, 7, 14, 7, 4, 2, 4, 6, 14, 14, 6, 15, 11, 11]
obj = 4948
----------
source = [11, 7, 14, 11, 14, 6, 15, 6, 14, 4, 15, 2, 6, 7, 4, 7, 15, 7, 14, 7, 4, 2, 4, 7, 14, 14, 6, 11, 11, 11]
obj = 4936
----------
source = [11, 7, 14, 11, 7, 6, 11, 6, 15, 6, 15, 2, 14, 7, 7, 7, 11, 7, 14, 7, 14, 2, 9, 6, 14, 14, 6, 11, 14, 9]
obj = 4887
----------
source = [11, 7, 14, 2, 7, 9, 6, 9, 14, 14, 15, 2, 6, 7, 7, 7, 11, 7, 9, 15, 14, 14, 6, 7, 14, 6, 6, 15, 11, 11]
obj = 4778
----------
source = [12, 11, 14, 12, 7, 6, 15, 6, 14, 14, 15, 5, 14, 15, 11, 7, 11, 7, 14, 7, 7, 2, 6, 6, 2, 14, 6, 11, 11, 7]
obj = 4765
----------
source = [11, 7, 14, 2, 7, 6, 15, 6, 14, 7, 15, 14, 14, 15, 7, 7, 11, 7, 11, 7, 12, 2, 6, 6, 14, 14, 6, 5, 11, 11]
obj = 4715
----------
source = [4, 7, 14, 2, 14, 6, 6, 6, 14, 7, 15, 4, 14, 15, 4, 7, 15, 4, 14, 7, 7, 2, 6, 7, 4, 14, 6, 4, 4, 4]
obj = 4635
----------
source = [4, 7, 14, 2, 14, 6, 6, 6, 14, 7, 15, 4, 14, 15, 4, 7, 15, 4, 4, 7, 7, 2, 6, 7, 14, 14, 6, 4, 4, 4]
obj = 4629
----------
source = [4, 7, 14, 2, 7, 6, 15, 6, 14, 4, 15, 4, 6, 15, 4, 7, 4, 7, 14, 7, 14, 2, 6, 7, 14, 14, 6, 4, 4, 4]
obj = 4549
----------
source = [4, 7, 14, 2, 14, 6, 15, 6, 14, 4, 15, 4, 6, 15, 4, 7, 4, 7, 14, 7, 4, 2, 6, 7, 14, 14, 6, 4, 4, 7]
obj = 4530
----------
source = [11, 7, 14, 11, 7, 6, 4, 14, 14, 4, 14, 4, 14, 7, 4, 7, 4, 7, 11, 7, 4, 7, 6, 6, 14, 6, 6, 4, 11, 11]
obj = 4511
----------
source = [11, 7, 14, 11, 14, 6, 4, 6, 14, 4, 7, 4, 14, 7, 4, 7, 4, 7, 11, 7, 4, 7, 6, 6, 14, 14, 6, 4, 11, 11]
obj = 4504
----------
source = [9, 7, 14, 14, 7, 6, 9, 6, 14, 9, 15, 15, 6, 7, 7, 7, 11, 7, 9, 15, 14, 9, 6, 7, 14, 14, 6, 11, 11, 11]
obj = 4469
----------
source = [9, 7, 14, 11, 14, 6, 9, 6, 14, 9, 15, 15, 14, 7, 11, 7, 15, 7, 9, 7, 7, 9, 6, 6, 14, 14, 6, 11, 11, 11]
obj = 4460
----------
source = [9, 14, 14, 11, 7, 6, 9, 6, 14, 9, 15, 15, 6, 7, 11, 7, 15, 7, 9, 7, 14, 9, 6, 7, 14, 14, 6, 11, 11, 11]
obj = 4457
----------
source = [9, 7, 14, 11, 7, 6, 9, 6, 15, 14, 15, 15, 14, 7, 7, 7, 11, 7, 9, 7, 14, 9, 9, 6, 14, 14, 6, 6, 11, 11]
obj = 4454
----------
source = [9, 7, 14, 11, 7, 6, 9, 6, 15, 14, 15, 15, 14, 7, 7, 7, 11, 7, 9, 7, 14, 9, 6, 6, 14, 14, 6, 9, 11, 11]
obj = 4452
----------
source = [9, 7, 14, 2, 14, 7, 9, 6, 14, 5, 11, 2, 14, 9, 6, 7, 11, 7, 9, 7, 7, 9, 6, 6, 14, 14, 6, 6, 11, 11]
obj = 4433
----------
source = [9, 14, 14, 2, 9, 6, 9, 7, 14, 5, 14, 2, 6, 11, 7, 7, 11, 7, 14, 7, 14, 9, 6, 7, 14, 6, 6, 9, 11, 11]
obj = 4386
----------
source = [9, 7, 14, 2, 7, 6, 9, 6, 14, 14, 7, 2, 14, 11, 7, 7, 11, 7, 9, 7, 14, 9, 9, 6, 14, 6, 5, 6, 11, 11]
obj = 4382
----------
source = [9, 14, 14, 2, 7, 6, 9, 6, 14, 5, 7, 2, 6, 11, 6, 7, 11, 7, 9, 7, 14, 9, 9, 7, 14, 14, 6, 6, 11, 11]
obj = 4380
----------
source = [9, 7, 14, 2, 7, 6, 9, 6, 14, 7, 5, 2, 9, 11, 7, 7, 11, 7, 14, 7, 14, 9, 6, 6, 14, 14, 6, 9, 11, 11]
obj = 4373
----------
source = [9, 7, 14, 2, 7, 6, 9, 14, 14, 5, 7, 2, 14, 11, 7, 7, 11, 7, 14, 7, 14, 9, 6, 6, 9, 6, 6, 9, 11, 11]
obj = 4372
----------
source = [11, 7, 14, 11, 7, 6, 6, 14, 15, 7, 15, 15, 14, 11, 7, 7, 11, 7, 14, 7, 14, 11, 6, 6, 2, 14, 5, 6, 2, 6]
obj = 4366
----------
source = [11, 7, 14, 11, 7, 6, 6, 14, 15, 7, 15, 15, 14, 11, 7, 7, 11, 7, 14, 7, 14, 11, 6, 6, 2, 14, 5, 6, 2, 6]
obj = 4366
----------
==========
	Command being timed: "mzn-grb -a lbbd-datasets/sscplp/dzn/model.mzn lbbd-datasets/sscplp/dzn/p07.dzn"
	User time (seconds): 4.33
	System time (seconds): 0.02
	Percent of CPU this job got: 99%
	Elapsed (wall clock) time (h:mm:ss or m:ss): 0:04.37
	Average shared text size (kbytes): 0
	Average unshared data size (kbytes): 0
	Average stack size (kbytes): 0
	Average total size (kbytes): 0
	Maximum resident set size (kbytes): 99632
	Average resident set size (kbytes): 0
	Major (requiring I/O) page faults: 0
	Minor (reclaiming a frame) page faults: 7658
	Voluntary context switches: 4
	Involuntary context switches: 13
	Swaps: 0
	File system inputs: 0
	File system outputs: 16
	Socket messages sent: 0
	Socket messages received: 0
	Signals delivered: 0
	Page size (bytes): 4096
	Exit status: 0
