+ /usr/bin/timeout 600 /usr/bin/time -v mzn-grb -a lbbd-datasets/Rabadi-2006/dzn-balanced/model.mzn lbbd-datasets/Rabadi-2006/dzn-balanced/7on2Rp50Rs50_14Ameer.dzn
assign = array1d(1..9 ,[2, 1, 2, 1, 1, 1, 1, 1, 2]);
next = array1d(1..9 ,[3, 4, 9, 6, 8, 7, 5, 1, 2]);
makespan = 665;
----------
assign = array1d(1..9 ,[2, 2, 2, 1, 1, 1, 1, 1, 2]);
next = array1d(1..9 ,[2, 3, 9, 5, 7, 8, 6, 1, 4]);
makespan = 514;
----------
assign = array1d(1..9 ,[2, 2, 1, 2, 1, 1, 1, 1, 2]);
next = array1d(1..9 ,[9, 4, 8, 1, 7, 3, 6, 2, 5]);
makespan = 490;
----------
assign = array1d(1..9 ,[2, 2, 2, 2, 1, 1, 1, 1, 2]);
next = array1d(1..9 ,[9, 1, 2, 3, 7, 5, 8, 4, 6]);
makespan = 455;
----------
assign = array1d(1..9 ,[1, 2, 2, 2, 1, 2, 1, 1, 2]);
next = array1d(1..9 ,[5, 6, 2, 3, 7, 9, 8, 4, 1]);
makespan = 442;
----------
assign = array1d(1..9 ,[2, 2, 1, 2, 1, 1, 1, 1, 2]);
next = array1d(1..9 ,[2, 4, 6, 9, 7, 5, 8, 1, 3]);
makespan = 436;
----------
assign = array1d(1..9 ,[2, 2, 1, 2, 1, 1, 1, 1, 2]);
next = array1d(1..9 ,[2, 4, 6, 9, 7, 5, 8, 1, 3]);
makespan = 436;
----------
==========
	Command being timed: "mzn-grb -a lbbd-datasets/Rabadi-2006/dzn-balanced/model.mzn lbbd-datasets/Rabadi-2006/dzn-balanced/7on2Rp50Rs50_14Ameer.dzn"
	User time (seconds): 3.24
	System time (seconds): 0.02
	Percent of CPU this job got: 99%
	Elapsed (wall clock) time (h:mm:ss or m:ss): 0:03.28
	Average shared text size (kbytes): 0
	Average unshared data size (kbytes): 0
	Average stack size (kbytes): 0
	Average total size (kbytes): 0
	Maximum resident set size (kbytes): 82352
	Average resident set size (kbytes): 0
	Major (requiring I/O) page faults: 0
	Minor (reclaiming a frame) page faults: 7775
	Voluntary context switches: 6
	Involuntary context switches: 8
	Swaps: 0
	File system inputs: 0
	File system outputs: 8
	Socket messages sent: 0
	Socket messages received: 0
	Signals delivered: 0
	Page size (bytes): 4096
	Exit status: 0
