+ /usr/bin/timeout 600 /usr/bin/time -v mzn-grb -a lbbd-datasets/Rabadi-2006/dzn-balanced/model.mzn lbbd-datasets/Rabadi-2006/dzn-balanced/11on8Rp50Rs50_4Ameer.dzn
assign = array1d(1..19 ,[1, 3, 8, 4, 1, 6, 5, 6, 4, 7, 2, 1, 2, 3, 4, 5, 6, 7, 8]);
next = array1d(1..19 ,[5, 14, 19, 9, 12, 17, 16, 6, 15, 18, 13, 11, 2, 4, 7, 8, 10, 3, 1]);
makespan = 192;
----------
assign = array1d(1..19 ,[3, 1, 8, 2, 1, 6, 5, 6, 2, 4, 7, 1, 2, 3, 4, 5, 6, 7, 8]);
next = array1d(1..19 ,[14, 12, 19, 13, 2, 17, 16, 6, 4, 15, 18, 9, 1, 10, 7, 8, 11, 3, 5]);
makespan = 187;
----------
assign = array1d(1..19 ,[3, 3, 8, 6, 5, 2, 4, 1, 4, 5, 7, 1, 2, 3, 4, 5, 6, 7, 8]);
next = array1d(1..19 ,[2, 14, 19, 17, 10, 13, 15, 12, 7, 16, 18, 6, 1, 9, 5, 4, 11, 3, 8]);
makespan = 178;
----------
assign = array1d(1..19 ,[3, 3, 8, 7, 6, 2, 5, 1, 2, 4, 7, 1, 2, 3, 4, 5, 6, 7, 8]);
next = array1d(1..19 ,[2, 14, 19, 11, 17, 13, 16, 12, 6, 15, 18, 9, 1, 10, 7, 5, 4, 3, 8]);
makespan = 170;
----------
assign = array1d(1..19 ,[3, 3, 8, 6, 6, 2, 5, 7, 2, 4, 1, 1, 2, 3, 4, 5, 6, 7, 8]);
next = array1d(1..19 ,[2, 14, 19, 17, 4, 9, 16, 18, 13, 15, 12, 6, 1, 10, 7, 5, 8, 3, 11]);
makespan = 164;
----------
assign = array1d(1..19 ,[3, 3, 8, 6, 6, 2, 5, 7, 2, 4, 1, 1, 2, 3, 4, 5, 6, 7, 8]);
next = array1d(1..19 ,[2, 14, 19, 17, 4, 9, 16, 18, 13, 15, 12, 6, 1, 10, 7, 5, 8, 3, 11]);
makespan = 164;
----------
==========
	Command being timed: "mzn-grb -a lbbd-datasets/Rabadi-2006/dzn-balanced/model.mzn lbbd-datasets/Rabadi-2006/dzn-balanced/11on8Rp50Rs50_4Ameer.dzn"
	User time (seconds): 18.72
	System time (seconds): 0.11
	Percent of CPU this job got: 99%
	Elapsed (wall clock) time (h:mm:ss or m:ss): 0:18.88
	Average shared text size (kbytes): 0
	Average unshared data size (kbytes): 0
	Average stack size (kbytes): 0
	Average total size (kbytes): 0
	Maximum resident set size (kbytes): 319360
	Average resident set size (kbytes): 0
	Major (requiring I/O) page faults: 0
	Minor (reclaiming a frame) page faults: 36372
	Voluntary context switches: 4
	Involuntary context switches: 64
	Swaps: 0
	File system inputs: 0
	File system outputs: 8
	Socket messages sent: 0
	Socket messages received: 0
	Signals delivered: 0
	Page size (bytes): 4096
	Exit status: 0
