+ /usr/bin/timeout 600 /usr/bin/time -v mzn-grb -a lbbd-datasets/Rabadi-2006/dzn-balanced/model.mzn lbbd-datasets/Rabadi-2006/dzn-balanced/11on4Rp50Rs50_10Ameer.dzn
assign = array1d(1..15 ,[2, 1, 3, 2, 3, 4, 1, 1, 2, 2, 3, 1, 2, 3, 4]);
next = array1d(1..15 ,[9, 8, 5, 10, 11, 15, 12, 7, 4, 13, 14, 1, 3, 6, 2]);
makespan = 510;
----------
assign = array1d(1..15 ,[4, 1, 3, 1, 4, 4, 1, 3, 2, 2, 3, 1, 2, 3, 4]);
next = array1d(1..15 ,[5, 7, 8, 2, 6, 15, 12, 14, 10, 13, 3, 9, 11, 1, 4]);
makespan = 368;
----------
assign = array1d(1..15 ,[2, 1, 1, 1, 4, 4, 3, 3, 2, 2, 3, 1, 2, 3, 4]);
next = array1d(1..15 ,[10, 4, 2, 12, 15, 5, 8, 14, 13, 9, 7, 1, 11, 6, 3]);
makespan = 324;
----------
assign = array1d(1..15 ,[3, 1, 4, 1, 4, 2, 2, 1, 2, 3, 3, 1, 2, 3, 4]);
next = array1d(1..15 ,[10, 8, 15, 2, 3, 7, 9, 12, 13, 11, 14, 6, 1, 5, 4]);
makespan = 322;
----------
assign = array1d(1..15 ,[4, 1, 4, 1, 4, 2, 2, 1, 2, 3, 3, 1, 2, 3, 4]);
next = array1d(1..15 ,[15, 8, 5, 12, 1, 9, 13, 4, 7, 11, 14, 6, 10, 3, 2]);
makespan = 313;
----------
assign = array1d(1..15 ,[3, 2, 3, 1, 1, 4, 1, 2, 2, 3, 4, 1, 2, 3, 4]);
next = array1d(1..15 ,[14, 8, 10, 7, 4, 15, 12, 13, 2, 1, 6, 9, 3, 11, 5]);
makespan = 311;
----------
assign = array1d(1..15 ,[3, 2, 3, 1, 1, 4, 4, 2, 2, 3, 1, 1, 2, 3, 4]);
next = array1d(1..15 ,[14, 8, 10, 12, 11, 15, 6, 13, 2, 1, 4, 9, 3, 7, 5]);
makespan = 309;
----------
assign = array1d(1..15 ,[4, 2, 3, 1, 4, 2, 1, 3, 2, 3, 1, 1, 2, 3, 4]);
next = array1d(1..15 ,[15, 13, 10, 12, 1, 9, 11, 14, 2, 8, 4, 6, 3, 5, 7]);
makespan = 307;
----------
assign = array1d(1..15 ,[4, 2, 3, 1, 3, 4, 1, 3, 2, 2, 1, 1, 2, 3, 4]);
next = array1d(1..15 ,[15, 13, 14, 12, 8, 1, 11, 3, 2, 9, 4, 10, 5, 6, 7]);
makespan = 305;
----------
assign = array1d(1..15 ,[3, 2, 2, 1, 4, 4, 1, 3, 2, 3, 1, 1, 2, 3, 4]);
next = array1d(1..15 ,[10, 3, 13, 12, 6, 15, 11, 14, 2, 8, 4, 9, 1, 5, 7]);
makespan = 304;
----------
assign = array1d(1..15 ,[3, 2, 2, 1, 4, 4, 1, 3, 2, 3, 1, 1, 2, 3, 4]);
next = array1d(1..15 ,[10, 3, 13, 12, 6, 15, 11, 14, 2, 8, 4, 9, 1, 5, 7]);
makespan = 304;
----------
==========
	Command being timed: "mzn-grb -a lbbd-datasets/Rabadi-2006/dzn-balanced/model.mzn lbbd-datasets/Rabadi-2006/dzn-balanced/11on4Rp50Rs50_10Ameer.dzn"
	User time (seconds): 252.09
	System time (seconds): 0.10
	Percent of CPU this job got: 99%
	Elapsed (wall clock) time (h:mm:ss or m:ss): 4:13.18
	Average shared text size (kbytes): 0
	Average unshared data size (kbytes): 0
	Average stack size (kbytes): 0
	Average total size (kbytes): 0
	Maximum resident set size (kbytes): 276848
	Average resident set size (kbytes): 0
	Major (requiring I/O) page faults: 0
	Minor (reclaiming a frame) page faults: 26472
	Voluntary context switches: 4
	Involuntary context switches: 406
	Swaps: 0
	File system inputs: 0
	File system outputs: 48
	Socket messages sent: 0
	Socket messages received: 0
	Signals delivered: 0
	Page size (bytes): 4096
	Exit status: 0
