+ /usr/bin/timeout 600 /usr/bin/time -v mzn-grb -a lbbd-datasets/Rabadi-2006/dzn-balanced/model.mzn lbbd-datasets/Rabadi-2006/dzn-balanced/7on2Rp50Rs50_2Ameer.dzn
assign = array1d(1..9 ,[1, 2, 1, 1, 1, 1, 2, 1, 2]);
next = array1d(1..9 ,[8, 7, 1, 5, 6, 3, 9, 2, 4]);
makespan = 724;
----------
assign = array1d(1..9 ,[2, 1, 1, 2, 2, 2, 1, 1, 2]);
next = array1d(1..9 ,[4, 8, 7, 6, 1, 9, 2, 5, 3]);
makespan = 609;
----------
assign = array1d(1..9 ,[2, 2, 1, 1, 2, 1, 2, 1, 2]);
next = array1d(1..9 ,[5, 7, 8, 6, 9, 3, 1, 2, 4]);
makespan = 537;
----------
assign = array1d(1..9 ,[1, 1, 1, 1, 2, 2, 2, 1, 2]);
next = array1d(1..9 ,[2, 8, 1, 3, 9, 5, 6, 7, 4]);
makespan = 523;
----------
assign = array1d(1..9 ,[2, 1, 2, 1, 2, 1, 2, 1, 2]);
next = array1d(1..9 ,[7, 8, 5, 6, 9, 2, 3, 1, 4]);
makespan = 467;
----------
assign = array1d(1..9 ,[1, 1, 2, 2, 2, 1, 1, 1, 2]);
next = array1d(1..9 ,[7, 8, 4, 5, 9, 2, 6, 3, 1]);
makespan = 463;
----------
assign = array1d(1..9 ,[1, 1, 2, 2, 2, 1, 1, 1, 2]);
next = array1d(1..9 ,[7, 8, 4, 5, 9, 2, 6, 3, 1]);
makespan = 463;
----------
==========
	Command being timed: "mzn-grb -a lbbd-datasets/Rabadi-2006/dzn-balanced/model.mzn lbbd-datasets/Rabadi-2006/dzn-balanced/7on2Rp50Rs50_2Ameer.dzn"
	User time (seconds): 4.04
	System time (seconds): 0.02
	Percent of CPU this job got: 99%
	Elapsed (wall clock) time (h:mm:ss or m:ss): 0:04.08
	Average shared text size (kbytes): 0
	Average unshared data size (kbytes): 0
	Average stack size (kbytes): 0
	Average total size (kbytes): 0
	Maximum resident set size (kbytes): 84000
	Average resident set size (kbytes): 0
	Major (requiring I/O) page faults: 0
	Minor (reclaiming a frame) page faults: 7675
	Voluntary context switches: 4
	Involuntary context switches: 15
	Swaps: 0
	File system inputs: 0
	File system outputs: 8
	Socket messages sent: 0
	Socket messages received: 0
	Signals delivered: 0
	Page size (bytes): 4096
	Exit status: 0
