+ /usr/bin/timeout 600 /usr/bin/time -v mzn-grb -a lbbd-datasets/Rabadi-2006/dzn-p-dominant/model.mzn lbbd-datasets/Rabadi-2006/dzn-p-dominant/8on2Rp50Rs50_11Ameer.dzn
assign = array1d(1..10 ,[1, 2, 2, 1, 2, 2, 2, 2, 1, 2]);
next = array1d(1..10 ,[4, 10, 2, 9, 6, 8, 5, 3, 7, 1]);
makespan = 1292;
----------
assign = array1d(1..10 ,[2, 1, 1, 2, 2, 2, 1, 2, 1, 2]);
next = array1d(1..10 ,[8, 9, 2, 10, 4, 5, 3, 6, 1, 7]);
makespan = 1125;
----------
assign = array1d(1..10 ,[1, 2, 2, 2, 1, 1, 2, 1, 1, 2]);
next = array1d(1..10 ,[8, 7, 10, 2, 9, 5, 3, 6, 4, 1]);
makespan = 770;
----------
assign = array1d(1..10 ,[1, 2, 2, 2, 1, 1, 2, 1, 1, 2]);
next = array1d(1..10 ,[8, 4, 2, 10, 9, 5, 3, 6, 7, 1]);
makespan = 758;
----------
assign = array1d(1..10 ,[1, 2, 2, 2, 1, 1, 2, 1, 1, 2]);
next = array1d(1..10 ,[8, 4, 2, 10, 9, 5, 3, 6, 7, 1]);
makespan = 758;
----------
==========
	Command being timed: "mzn-grb -a lbbd-datasets/Rabadi-2006/dzn-p-dominant/model.mzn lbbd-datasets/Rabadi-2006/dzn-p-dominant/8on2Rp50Rs50_11Ameer.dzn"
	User time (seconds): 1.47
	System time (seconds): 0.01
	Percent of CPU this job got: 99%
	Elapsed (wall clock) time (h:mm:ss or m:ss): 0:01.50
	Average shared text size (kbytes): 0
	Average unshared data size (kbytes): 0
	Average stack size (kbytes): 0
	Average total size (kbytes): 0
	Maximum resident set size (kbytes): 85392
	Average resident set size (kbytes): 0
	Major (requiring I/O) page faults: 0
	Minor (reclaiming a frame) page faults: 6284
	Voluntary context switches: 4
	Involuntary context switches: 13
	Swaps: 0
	File system inputs: 0
	File system outputs: 8
	Socket messages sent: 0
	Socket messages received: 0
	Signals delivered: 0
	Page size (bytes): 4096
	Exit status: 0
