+ /usr/bin/timeout 600 /usr/bin/time -v mzn-grb -a lbbd-datasets/planningandscheduling/cost-insts/model.mzn lbbd-datasets/planningandscheduling/cost-insts/c24j3m1.dzn
obj = 701
----------
obj = 699
----------
obj = 698
----------
obj = 662
----------
obj = 648
----------
