+ /usr/bin/timeout 600 /usr/bin/time -v mzn-grb -a lbbd-datasets/sscplp/trucks-dzn/model.mzn lbbd-datasets/sscplp/trucks-dzn/p03-l40-c50-correlated.dzn
source = [3, 1, 7, 10, 3, 10, 6, 5, 10, 3, 3, 5, 3, 1, 5, 7, 10, 5, 3, 9]
open = [true, false, true, false, true, true, true, false, true, true]
trucks_used = [1, 0, 4, 0, 3, 1, 2, 0, 1, 3]
truck_assigned = [1, 1, 1, 1, 2, 2, 1, 1, 3, 4, 3, 3, 1, 1, 2, 2, 1, 1, 3, 1]
obj = 6423
----------
source = [3, 1, 7, 10, 9, 9, 7, 5, 10, 3, 3, 5, 3, 1, 9, 5, 10, 5, 3, 10]
open = [true, false, true, false, true, false, true, false, true, true]
trucks_used = [1, 0, 3, 0, 3, 0, 1, 0, 1, 2]
truck_assigned = [1, 1, 1, 2, 1, 1, 1, 1, 1, 3, 2, 3, 1, 1, 1, 2, 2, 1, 2, 1]
obj = 4977
----------
source = [7, 1, 3, 10, 3, 10, 5, 5, 3, 5, 3, 5, 10, 1, 2, 2, 10, 7, 3, 10]
open = [true, true, true, false, true, false, true, false, false, true]
trucks_used = [1, 1, 3, 0, 4, 0, 2, 0, 0, 4]
truck_assigned = [2, 1, 3, 1, 1, 3, 4, 1, 2, 3, 2, 4, 4, 1, 1, 1, 2, 1, 1, 2]
obj = 4692
----------
source = [3, 1, 7, 10, 3, 10, 7, 5, 10, 3, 3, 5, 3, 1, 2, 5, 10, 5, 3, 2]
open = [true, true, true, false, true, false, true, false, false, true]
trucks_used = [1, 1, 4, 0, 4, 0, 1, 0, 0, 3]
truck_assigned = [1, 1, 1, 3, 1, 2, 1, 1, 1, 4, 2, 4, 2, 1, 1, 2, 1, 1, 3, 1]
obj = 4516
----------
source = [3, 1, 7, 10, 3, 10, 7, 5, 10, 3, 3, 5, 3, 1, 2, 5, 10, 5, 3, 2]
open = [true, true, true, false, true, false, true, false, false, true]
trucks_used = [1, 1, 4, 0, 3, 0, 1, 0, 0, 3]
truck_assigned = [1, 1, 1, 3, 1, 2, 1, 1, 1, 4, 2, 3, 2, 1, 1, 2, 1, 3, 3, 1]
obj = 4466
----------
source = [3, 1, 7, 10, 3, 10, 7, 5, 10, 3, 3, 5, 3, 1, 2, 5, 10, 5, 3, 2]
open = [true, true, true, false, true, false, true, false, false, true]
trucks_used = [1, 1, 3, 0, 3, 0, 1, 0, 0, 3]
truck_assigned = [1, 1, 1, 3, 2, 2, 1, 1, 1, 1, 2, 3, 3, 1, 1, 2, 1, 3, 3, 1]
obj = 4416
----------
source = [3, 1, 7, 10, 3, 10, 7, 5, 10, 3, 3, 5, 3, 1, 2, 5, 10, 5, 3, 2]
open = [true, true, true, false, true, false, true, false, false, true]
trucks_used = [1, 1, 3, 0, 3, 0, 1, 0, 0, 3]
truck_assigned = [1, 1, 1, 3, 2, 2, 1, 1, 1, 1, 2, 3, 3, 1, 1, 2, 1, 3, 3, 1]
obj = 4416
----------
==========
	Command being timed: "mzn-grb -a lbbd-datasets/sscplp/trucks-dzn/model.mzn lbbd-datasets/sscplp/trucks-dzn/p03-l40-c50-correlated.dzn"
	User time (seconds): 81.93
	System time (seconds): 0.44
	Percent of CPU this job got: 99%
	Elapsed (wall clock) time (h:mm:ss or m:ss): 1:22.56
	Average shared text size (kbytes): 0
	Average unshared data size (kbytes): 0
	Average stack size (kbytes): 0
	Average total size (kbytes): 0
	Maximum resident set size (kbytes): 1603984
	Average resident set size (kbytes): 0
	Major (requiring I/O) page faults: 0
	Minor (reclaiming a frame) page faults: 108308
	Voluntary context switches: 6
	Involuntary context switches: 130
	Swaps: 0
	File system inputs: 0
	File system outputs: 32
	Socket messages sent: 0
	Socket messages received: 0
	Signals delivered: 0
	Page size (bytes): 4096
	Exit status: 0
