+ /usr/bin/timeout 600 /usr/bin/time -v mzn-grb -a lbbd-datasets/Rabadi-2006/dzn-balanced/model.mzn lbbd-datasets/Rabadi-2006/dzn-balanced/10on6Rp50Rs50_5Ameer.dzn
assign = array1d(1..16 ,[4, 6, 5, 2, 3, 6, 4, 2, 1, 1, 1, 2, 3, 4, 5, 6]);
next = array1d(1..16 ,[14, 16, 15, 8, 13, 2, 1, 12, 11, 9, 4, 5, 7, 3, 6, 10]);
makespan = 181;
----------
assign = array1d(1..16 ,[6, 3, 5, 2, 5, 3, 4, 2, 1, 1, 1, 2, 3, 4, 5, 6]);
next = array1d(1..16 ,[16, 6, 5, 8, 15, 13, 14, 12, 11, 9, 4, 2, 7, 3, 1, 10]);
makespan = 176;
----------
assign = array1d(1..16 ,[4, 6, 5, 2, 5, 1, 3, 2, 1, 4, 1, 2, 3, 4, 5, 6]);
next = array1d(1..16 ,[14, 16, 5, 8, 15, 9, 13, 12, 11, 1, 4, 7, 10, 3, 2, 6]);
makespan = 175;
----------
assign = array1d(1..16 ,[4, 6, 5, 2, 5, 1, 3, 2, 1, 4, 1, 2, 3, 4, 5, 6]);
next = array1d(1..16 ,[14, 16, 5, 8, 15, 9, 13, 12, 11, 1, 4, 7, 10, 3, 2, 6]);
makespan = 175;
----------
==========
	Command being timed: "mzn-grb -a lbbd-datasets/Rabadi-2006/dzn-balanced/model.mzn lbbd-datasets/Rabadi-2006/dzn-balanced/10on6Rp50Rs50_5Ameer.dzn"
	User time (seconds): 17.25
	System time (seconds): 0.09
	Percent of CPU this job got: 98%
	Elapsed (wall clock) time (h:mm:ss or m:ss): 0:17.56
	Average shared text size (kbytes): 0
	Average unshared data size (kbytes): 0
	Average stack size (kbytes): 0
	Average total size (kbytes): 0
	Maximum resident set size (kbytes): 234864
	Average resident set size (kbytes): 0
	Major (requiring I/O) page faults: 0
	Minor (reclaiming a frame) page faults: 24603
	Voluntary context switches: 5
	Involuntary context switches: 50
	Swaps: 0
	File system inputs: 0
	File system outputs: 8
	Socket messages sent: 0
	Socket messages received: 0
	Signals delivered: 0
	Page size (bytes): 4096
	Exit status: 0
