+ /usr/bin/timeout 600 /usr/bin/time -v mzn-grb -a lbbd-datasets/Rabadi-2006/dzn-s-dominant/model.mzn lbbd-datasets/Rabadi-2006/dzn-s-dominant/8on4Rp50Rs50_7Ameer.dzn
assign = array1d(1..12 ,[2, 4, 4, 4, 1, 3, 1, 2, 1, 2, 3, 4]);
next = array1d(1..12 ,[8, 3, 12, 2, 9, 11, 5, 10, 1, 6, 4, 7]);
makespan = 487;
----------
assign = array1d(1..12 ,[2, 4, 3, 1, 1, 4, 1, 2, 1, 2, 3, 4]);
next = array1d(1..12 ,[8, 12, 11, 9, 4, 2, 5, 10, 1, 3, 6, 7]);
makespan = 470;
----------
assign = array1d(1..12 ,[2, 4, 3, 1, 4, 3, 1, 2, 1, 2, 3, 4]);
next = array1d(1..12 ,[10, 12, 11, 9, 2, 3, 4, 1, 8, 6, 5, 7]);
makespan = 307;
----------
assign = array1d(1..12 ,[2, 2, 4, 4, 3, 3, 1, 1, 1, 2, 3, 4]);
next = array1d(1..12 ,[2, 10, 4, 12, 6, 11, 9, 7, 1, 5, 3, 8]);
makespan = 289;
----------
assign = array1d(1..12 ,[4, 2, 4, 1, 2, 3, 1, 3, 1, 2, 3, 4]);
next = array1d(1..12 ,[12, 10, 1, 7, 2, 8, 9, 11, 5, 6, 3, 4]);
makespan = 288;
----------
assign = array1d(1..12 ,[4, 2, 4, 1, 2, 3, 1, 3, 1, 2, 3, 4]);
next = array1d(1..12 ,[12, 10, 1, 7, 2, 8, 9, 11, 5, 6, 3, 4]);
makespan = 288;
----------
==========
	Command being timed: "mzn-grb -a lbbd-datasets/Rabadi-2006/dzn-s-dominant/model.mzn lbbd-datasets/Rabadi-2006/dzn-s-dominant/8on4Rp50Rs50_7Ameer.dzn"
	User time (seconds): 7.85
	System time (seconds): 0.04
	Percent of CPU this job got: 99%
	Elapsed (wall clock) time (h:mm:ss or m:ss): 0:07.91
	Average shared text size (kbytes): 0
	Average unshared data size (kbytes): 0
	Average stack size (kbytes): 0
	Average total size (kbytes): 0
	Maximum resident set size (kbytes): 128976
	Average resident set size (kbytes): 0
	Major (requiring I/O) page faults: 0
	Minor (reclaiming a frame) page faults: 10800
	Voluntary context switches: 4
	Involuntary context switches: 19
	Swaps: 0
	File system inputs: 0
	File system outputs: 8
	Socket messages sent: 0
	Socket messages received: 0
	Signals delivered: 0
	Page size (bytes): 4096
	Exit status: 0
