+ /usr/bin/timeout 600 /usr/bin/time -v mzn-grb -a lbbd-datasets/sscplp/trucks-dzn/model.mzn lbbd-datasets/sscplp/trucks-dzn/p23-l50-c80-uncorrelated.dzn
source = [10, 10, 8, 19, 5, 14, 13, 6, 7, 5, 10, 6, 5, 14, 5, 5, 14, 14, 5, 8, 10, 14, 5, 13, 8, 11, 7, 19, 14, 14, 5, 6, 14, 8, 14, 11, 6, 14, 5, 7]
open = [false, false, false, false, true, true, true, true, false, true, true, false, true, true, false, false, false, false, true, false]
trucks_used = [0, 0, 0, 0, 4, 2, 1, 2, 0, 4, 1, 0, 1, 7, 0, 0, 0, 0, 2, 0]
truck_assigned = [1, 4, 1, 1, 4, 7, 1, 2, 1, 1, 1, 1, 1, 4, 2, 3, 1, 5, 3, 1, 2, 3, 4, 1, 2, 1, 1, 2, 2, 1, 4, 1, 6, 2, 5, 1, 1, 4, 3, 1]
obj = 8936
----------
source = [13, 10, 10, 6, 5, 14, 13, 6, 7, 5, 10, 6, 5, 14, 5, 5, 14, 14, 5, 8, 10, 14, 5, 13, 11, 7, 7, 19, 14, 14, 5, 11, 14, 8, 14, 19, 6, 14, 5, 7]
open = [false, false, false, false, true, true, true, true, false, true, true, false, true, true, false, false, false, false, true, false]
trucks_used = [0, 0, 0, 0, 4, 2, 1, 2, 0, 2, 1, 0, 1, 6, 0, 0, 0, 0, 1, 0]
truck_assigned = [1, 2, 2, 1, 1, 1, 1, 2, 1, 1, 1, 1, 1, 4, 2, 3, 1, 5, 3, 1, 1, 3, 4, 1, 1, 1, 1, 1, 2, 2, 4, 1, 6, 2, 5, 1, 1, 6, 3, 1]
obj = 8730
----------
source = [7, 10, 10, 6, 5, 14, 19, 6, 7, 5, 10, 13, 5, 14, 5, 5, 14, 14, 5, 8, 10, 14, 5, 7, 8, 11, 13, 19, 14, 14, 5, 6, 14, 8, 14, 11, 6, 14, 5, 13]
open = [false, false, false, false, true, true, true, true, false, true, true, false, true, true, false, false, false, false, true, false]
trucks_used = [0, 0, 0, 0, 4, 2, 1, 2, 0, 2, 1, 0, 2, 6, 0, 0, 0, 0, 1, 0]
truck_assigned = [1, 2, 2, 1, 1, 1, 1, 2, 1, 1, 1, 2, 1, 4, 2, 3, 1, 5, 3, 1, 1, 3, 4, 1, 2, 1, 1, 1, 2, 2, 4, 1, 6, 2, 5, 1, 1, 6, 3, 2]
obj = 8673
----------
source = [7, 10, 10, 6, 5, 14, 19, 5, 7, 5, 10, 13, 5, 14, 5, 5, 14, 14, 5, 8, 10, 14, 5, 7, 8, 11, 13, 6, 14, 14, 19, 6, 14, 8, 14, 11, 6, 14, 5, 13]
open = [false, false, false, false, true, true, true, true, false, true, true, false, true, true, false, false, false, false, true, false]
trucks_used = [0, 0, 0, 0, 4, 1, 1, 2, 0, 2, 1, 0, 2, 6, 0, 0, 0, 0, 1, 0]
truck_assigned = [1, 2, 2, 1, 1, 1, 1, 4, 1, 1, 1, 2, 1, 4, 2, 3, 1, 5, 3, 1, 1, 3, 4, 1, 2, 1, 1, 1, 2, 4, 1, 1, 6, 2, 5, 1, 1, 6, 3, 2]
obj = 8658
----------
source = [7, 6, 11, 6, 5, 14, 19, 5, 7, 5, 5, 13, 5, 11, 5, 5, 14, 14, 5, 8, 14, 14, 6, 7, 8, 19, 13, 6, 14, 14, 8, 6, 14, 8, 14, 11, 6, 14, 5, 13]
open = [false, false, false, false, true, true, true, true, false, false, true, false, true, true, false, false, false, false, true, false]
trucks_used = [0, 0, 0, 0, 5, 2, 1, 2, 0, 0, 2, 0, 2, 6, 0, 0, 0, 0, 1, 0]
truck_assigned = [1, 2, 2, 1, 1, 4, 1, 4, 1, 1, 4, 2, 5, 1, 2, 3, 1, 5, 3, 1, 1, 3, 2, 1, 2, 1, 1, 1, 2, 4, 1, 1, 6, 2, 5, 1, 1, 6, 3, 2]
obj = 7321
----------
source = [7, 6, 11, 6, 5, 14, 19, 5, 11, 5, 5, 13, 5, 11, 5, 5, 14, 14, 5, 8, 14, 14, 6, 7, 8, 7, 13, 6, 14, 14, 19, 6, 14, 8, 14, 19, 6, 14, 5, 13]
open = [false, false, false, false, true, true, true, true, false, false, true, false, true, true, false, false, false, false, true, false]
trucks_used = [0, 0, 0, 0, 5, 2, 1, 2, 0, 0, 1, 0, 2, 6, 0, 0, 0, 0, 1, 0]
truck_assigned = [1, 2, 1, 1, 1, 4, 1, 4, 1, 1, 4, 2, 5, 1, 2, 3, 1, 5, 3, 1, 1, 3, 2, 1, 2, 1, 1, 1, 2, 4, 1, 1, 6, 2, 5, 1, 1, 6, 1, 2]
obj = 7256
----------
source = [7, 6, 8, 6, 5, 14, 19, 5, 11, 5, 5, 13, 5, 14, 5, 5, 14, 14, 5, 19, 8, 14, 6, 7, 11, 7, 13, 6, 14, 14, 8, 6, 14, 19, 14, 11, 6, 14, 5, 13]
open = [false, false, false, false, true, true, true, true, false, false, true, false, true, true, false, false, false, false, true, false]
trucks_used = [0, 0, 0, 0, 5, 2, 1, 1, 0, 0, 1, 0, 2, 6, 0, 0, 0, 0, 1, 0]
truck_assigned = [1, 2, 1, 1, 1, 1, 1, 4, 1, 3, 1, 2, 5, 4, 2, 3, 1, 5, 1, 1, 1, 3, 2, 1, 1, 1, 1, 1, 2, 4, 1, 1, 6, 1, 5, 1, 1, 6, 4, 2]
obj = 7239
----------
source = [7, 6, 8, 6, 5, 14, 19, 5, 11, 5, 5, 13, 5, 14, 5, 5, 14, 14, 5, 19, 8, 14, 6, 11, 14, 7, 13, 6, 14, 14, 8, 6, 14, 7, 14, 11, 6, 14, 5, 13]
open = [false, false, false, false, true, true, true, true, false, false, true, false, true, true, false, false, false, false, true, false]
trucks_used = [0, 0, 0, 0, 5, 2, 1, 1, 0, 0, 1, 0, 2, 6, 0, 0, 0, 0, 1, 0]
truck_assigned = [1, 2, 1, 1, 1, 1, 1, 4, 1, 3, 1, 2, 5, 4, 2, 3, 1, 5, 1, 1, 1, 3, 2, 1, 2, 1, 1, 1, 2, 4, 1, 1, 6, 1, 5, 1, 1, 6, 4, 2]
obj = 7223
----------
source = [7, 6, 11, 6, 5, 14, 19, 5, 11, 5, 5, 13, 5, 14, 5, 5, 14, 14, 5, 8, 8, 14, 6, 11, 11, 7, 13, 6, 14, 14, 19, 6, 14, 7, 14, 19, 6, 14, 5, 13]
open = [false, false, false, false, true, true, true, true, false, false, true, false, true, true, false, false, false, false, true, false]
trucks_used = [0, 0, 0, 0, 5, 2, 1, 1, 0, 0, 1, 0, 2, 6, 0, 0, 0, 0, 1, 0]
truck_assigned = [1, 2, 1, 1, 1, 1, 1, 4, 1, 3, 1, 2, 5, 4, 2, 3, 5, 1, 1, 1, 1, 3, 2, 1, 1, 1, 1, 1, 2, 4, 1, 1, 6, 1, 5, 1, 1, 6, 4, 2]
obj = 7173
----------
source = [7, 6, 11, 6, 5, 14, 19, 5, 11, 5, 5, 13, 5, 14, 5, 5, 14, 14, 5, 8, 8, 14, 6, 11, 11, 7, 13, 6, 14, 14, 19, 6, 14, 7, 14, 19, 6, 14, 5, 13]
open = [false, false, false, false, true, true, true, true, false, false, true, false, true, true, false, false, false, false, true, false]
trucks_used = [0, 0, 0, 0, 4, 2, 1, 1, 0, 0, 1, 0, 2, 6, 0, 0, 0, 0, 1, 0]
truck_assigned = [1, 2, 1, 1, 1, 1, 1, 4, 1, 3, 4, 2, 1, 4, 2, 3, 5, 1, 1, 1, 1, 3, 2, 1, 1, 1, 1, 1, 2, 4, 1, 1, 6, 1, 5, 1, 1, 6, 3, 2]
obj = 7093
----------
source = [13, 6, 8, 6, 5, 14, 19, 5, 11, 5, 5, 11, 5, 14, 5, 5, 18, 14, 5, 8, 18, 14, 6, 11, 18, 19, 13, 6, 14, 14, 6, 6, 14, 19, 14, 18, 6, 14, 5, 13]
open = [false, false, false, false, true, true, false, true, false, false, true, false, true, true, false, false, false, true, true, false]
trucks_used = [0, 0, 0, 0, 4, 2, 0, 1, 0, 0, 1, 0, 2, 6, 0, 0, 0, 2, 2, 0]
truck_assigned = [2, 2, 1, 2, 1, 1, 2, 4, 1, 3, 4, 1, 1, 2, 2, 3, 1, 5, 1, 1, 2, 3, 2, 1, 1, 2, 1, 1, 4, 4, 1, 1, 6, 1, 2, 1, 1, 5, 3, 2]
obj = 7007
----------
source = [8, 6, 8, 6, 5, 14, 6, 5, 11, 5, 5, 13, 5, 14, 5, 5, 14, 14, 5, 19, 8, 14, 6, 11, 14, 19, 13, 6, 14, 14, 19, 6, 14, 19, 14, 11, 13, 14, 5, 13]
open = [false, false, false, false, true, true, false, true, false, false, true, false, true, true, false, false, false, false, true, false]
trucks_used = [0, 0, 0, 0, 4, 2, 0, 2, 0, 0, 1, 0, 4, 6, 0, 0, 0, 0, 2, 0]
truck_assigned = [1, 2, 2, 2, 1, 1, 1, 4, 1, 3, 4, 3, 1, 2, 2, 3, 5, 5, 1, 2, 1, 3, 2, 1, 1, 2, 1, 1, 4, 4, 1, 1, 6, 1, 2, 1, 2, 5, 3, 4]
obj = 6740
----------
