+ /usr/bin/timeout 600 /usr/bin/time -v mzn-grb -a lbbd-datasets/Rabadi-2006/dzn-p-dominant/model.mzn lbbd-datasets/Rabadi-2006/dzn-p-dominant/8on2Rp50Rs50_6Ameer.dzn
assign = array1d(1..10 ,[2, 1, 1, 1, 1, 1, 2, 1, 1, 2]);
next = array1d(1..10 ,[10, 9, 2, 5, 3, 8, 1, 4, 7, 6]);
makespan = 1289;
----------
assign = array1d(1..10 ,[2, 2, 1, 2, 2, 2, 1, 2, 1, 2]);
next = array1d(1..10 ,[8, 6, 9, 5, 2, 1, 3, 10, 4, 7]);
makespan = 1249;
----------
assign = array1d(1..10 ,[2, 1, 1, 1, 1, 2, 1, 2, 1, 2]);
next = array1d(1..10 ,[10, 9, 4, 5, 2, 1, 3, 6, 8, 7]);
makespan = 962;
----------
assign = array1d(1..10 ,[2, 1, 2, 1, 1, 2, 2, 1, 1, 2]);
next = array1d(1..10 ,[7, 8, 10, 9, 4, 1, 3, 5, 6, 2]);
makespan = 785;
----------
assign = array1d(1..10 ,[2, 1, 1, 2, 1, 2, 2, 1, 1, 2]);
next = array1d(1..10 ,[7, 3, 8, 10, 2, 1, 4, 9, 6, 5]);
makespan = 765;
----------
assign = array1d(1..10 ,[2, 1, 1, 1, 2, 2, 2, 1, 1, 2]);
next = array1d(1..10 ,[7, 3, 4, 9, 6, 1, 10, 2, 5, 8]);
makespan = 763;
----------
assign = array1d(1..10 ,[2, 1, 2, 2, 1, 1, 2, 1, 1, 2]);
next = array1d(1..10 ,[7, 6, 4, 10, 2, 9, 3, 5, 1, 8]);
makespan = 759;
----------
assign = array1d(1..10 ,[2, 1, 2, 1, 1, 2, 2, 1, 1, 2]);
next = array1d(1..10 ,[7, 8, 10, 2, 9, 1, 3, 5, 6, 4]);
makespan = 753;
----------
assign = array1d(1..10 ,[2, 1, 2, 1, 1, 2, 2, 1, 1, 2]);
next = array1d(1..10 ,[7, 8, 10, 2, 9, 1, 3, 5, 6, 4]);
makespan = 753;
----------
==========
	Command being timed: "mzn-grb -a lbbd-datasets/Rabadi-2006/dzn-p-dominant/model.mzn lbbd-datasets/Rabadi-2006/dzn-p-dominant/8on2Rp50Rs50_6Ameer.dzn"
	User time (seconds): 1.32
	System time (seconds): 0.01
	Percent of CPU this job got: 99%
	Elapsed (wall clock) time (h:mm:ss or m:ss): 0:01.34
	Average shared text size (kbytes): 0
	Average unshared data size (kbytes): 0
	Average stack size (kbytes): 0
	Average total size (kbytes): 0
	Maximum resident set size (kbytes): 86304
	Average resident set size (kbytes): 0
	Major (requiring I/O) page faults: 0
	Minor (reclaiming a frame) page faults: 5984
	Voluntary context switches: 4
	Involuntary context switches: 9
	Swaps: 0
	File system inputs: 0
	File system outputs: 16
	Socket messages sent: 0
	Socket messages received: 0
	Signals delivered: 0
	Page size (bytes): 4096
	Exit status: 0
