+ /usr/bin/timeout 600 /usr/bin/time -v mzn-grb -a lbbd-datasets/sscplp/trucks-dzn/model.mzn lbbd-datasets/sscplp/trucks-dzn/p13-l40-c50-correlated.dzn
source = [12, 5, 11, 1, 15, 6, 6, 9, 4, 10, 5, 1, 9, 1, 5, 11, 14, 12, 1, 9, 15, 14, 6, 12, 10, 5, 4, 11, 1, 15]
open = [true, false, false, true, true, true, false, false, true, true, true, true, false, true, true]
trucks_used = [3, 0, 0, 1, 2, 2, 0, 0, 2, 1, 2, 2, 0, 1, 2]
truck_assigned = [2, 2, 2, 2, 1, 1, 2, 2, 1, 1, 1, 1, 2, 2, 1, 2, 1, 1, 1, 1, 1, 1, 2, 2, 1, 2, 1, 1, 3, 2]
obj = 4916
----------
source = [12, 5, 11, 1, 15, 6, 6, 9, 4, 10, 5, 1, 9, 1, 5, 11, 14, 12, 1, 9, 15, 14, 6, 12, 10, 1, 4, 11, 1, 5]
open = [true, false, false, true, true, true, false, false, true, true, true, true, false, true, true]
trucks_used = [4, 0, 0, 1, 2, 2, 0, 0, 2, 1, 2, 2, 0, 1, 1]
truck_assigned = [2, 2, 2, 4, 1, 1, 2, 2, 1, 1, 1, 2, 2, 4, 2, 1, 1, 1, 1, 1, 1, 1, 2, 1, 1, 1, 1, 1, 3, 1]
obj = 4849
----------
source = [12, 5, 11, 1, 12, 6, 11, 9, 4, 10, 5, 1, 4, 1, 5, 11, 14, 12, 1, 9, 12, 14, 6, 12, 10, 1, 1, 12, 6, 5]
open = [true, false, false, true, true, true, false, false, true, true, true, true, false, true, false]
trucks_used = [3, 0, 0, 1, 2, 1, 0, 0, 1, 1, 2, 3, 0, 1, 0]
truck_assigned = [3, 1, 2, 3, 1, 1, 1, 1, 1, 1, 2, 2, 1, 3, 2, 2, 1, 1, 1, 1, 2, 1, 1, 3, 1, 1, 2, 2, 1, 1]
obj = 4475
----------
source = [12, 5, 11, 1, 6, 11, 11, 9, 4, 1, 5, 1, 4, 1, 5, 11, 14, 12, 1, 9, 12, 14, 6, 12, 12, 6, 1, 12, 6, 5]
open = [true, false, false, true, true, true, false, false, true, false, true, true, false, true, false]
trucks_used = [3, 0, 0, 1, 2, 3, 0, 0, 1, 0, 3, 5, 0, 1, 0]
truck_assigned = [5, 1, 2, 3, 1, 1, 3, 1, 1, 1, 2, 2, 1, 3, 2, 2, 1, 1, 1, 1, 5, 1, 1, 3, 2, 2, 2, 1, 3, 1]
obj = 4399
----------
source = [12, 5, 11, 1, 6, 11, 11, 9, 4, 1, 5, 1, 4, 1, 5, 11, 9, 12, 1, 14, 12, 14, 6, 12, 12, 6, 1, 11, 6, 5]
open = [true, false, false, true, true, true, false, false, true, false, true, true, false, true, false]
trucks_used = [3, 0, 0, 1, 2, 3, 0, 0, 1, 0, 3, 3, 0, 1, 0]
truck_assigned = [1, 1, 2, 3, 1, 1, 3, 1, 1, 1, 2, 2, 1, 3, 2, 1, 1, 1, 1, 1, 3, 1, 1, 3, 2, 2, 2, 2, 3, 1]
obj = 4300
----------
source = [10, 5, 5, 1, 9, 6, 4, 9, 4, 10, 5, 1, 9, 1, 12, 10, 14, 12, 1, 9, 12, 14, 6, 12, 10, 1, 1, 12, 6, 5]
open = [true, false, false, true, true, true, false, false, true, true, false, true, false, true, false]
trucks_used = [3, 0, 0, 2, 2, 1, 0, 0, 2, 2, 0, 3, 0, 1, 0]
truck_assigned = [2, 1, 1, 3, 2, 1, 1, 2, 2, 1, 2, 2, 1, 3, 1, 2, 1, 2, 1, 1, 3, 1, 1, 3, 1, 1, 2, 1, 1, 2]
obj = 3927
----------
source = [12, 5, 5, 1, 9, 6, 4, 9, 4, 10, 5, 1, 9, 1, 12, 10, 14, 12, 1, 9, 12, 14, 6, 12, 10, 1, 1, 12, 6, 5]
open = [true, false, false, true, true, true, false, false, true, true, false, true, false, true, false]
trucks_used = [3, 0, 0, 2, 2, 1, 0, 0, 2, 2, 0, 3, 0, 1, 0]
truck_assigned = [2, 1, 1, 3, 2, 1, 1, 2, 2, 2, 2, 2, 1, 3, 1, 2, 1, 2, 1, 1, 3, 1, 1, 3, 1, 1, 2, 1, 1, 2]
obj = 3915
----------
source = [10, 5, 11, 11, 9, 14, 4, 9, 11, 10, 5, 1, 9, 1, 5, 11, 14, 14, 1, 9, 1, 14, 4, 11, 10, 1, 1, 11, 5, 14]
open = [true, false, false, true, true, false, false, false, true, true, true, false, false, true, false]
trucks_used = [4, 0, 0, 1, 2, 0, 0, 0, 2, 2, 4, 0, 0, 3, 0]
truck_assigned = [2, 1, 1, 1, 2, 1, 1, 1, 2, 2, 2, 4, 1, 1, 2, 4, 1, 2, 1, 2, 4, 3, 1, 3, 1, 3, 2, 4, 2, 3]
obj = 3790
----------
source = [10, 5, 11, 11, 9, 14, 11, 9, 4, 10, 5, 1, 9, 1, 5, 11, 14, 14, 1, 9, 1, 14, 4, 11, 10, 1, 1, 11, 5, 14]
open = [true, false, false, true, true, false, false, false, true, true, true, false, false, true, false]
trucks_used = [4, 0, 0, 1, 2, 0, 0, 0, 2, 2, 4, 0, 0, 3, 0]
truck_assigned = [2, 1, 1, 1, 2, 1, 3, 1, 1, 2, 2, 4, 2, 1, 2, 4, 1, 2, 1, 1, 4, 3, 1, 2, 1, 2, 3, 4, 2, 3]
obj = 3747
----------
source = [10, 5, 11, 1, 9, 14, 11, 9, 4, 10, 5, 1, 9, 1, 5, 11, 14, 14, 1, 9, 1, 14, 11, 11, 10, 1, 4, 11, 5, 14]
open = [true, false, false, true, true, false, false, false, true, true, true, false, false, true, false]
trucks_used = [3, 0, 0, 1, 2, 0, 0, 0, 2, 2, 5, 0, 0, 3, 0]
truck_assigned = [1, 2, 1, 2, 2, 1, 3, 2, 1, 2, 2, 3, 1, 1, 1, 5, 1, 2, 1, 1, 3, 3, 4, 2, 2, 2, 1, 5, 1, 3]
obj = 3738
----------
source = [12, 4, 5, 1, 12, 6, 6, 9, 4, 10, 5, 1, 4, 1, 10, 10, 9, 12, 1, 12, 12, 1, 6, 12, 12, 1, 1, 12, 5, 5]
open = [true, false, false, true, true, true, false, false, true, true, false, true, false, false, false]
trucks_used = [4, 0, 0, 2, 2, 2, 0, 0, 1, 2, 0, 5, 0, 0, 0]
truck_assigned = [5, 2, 1, 3, 3, 1, 2, 1, 1, 2, 2, 4, 1, 1, 1, 2, 1, 1, 1, 4, 1, 4, 2, 3, 2, 3, 2, 5, 1, 2]
obj = 3626
----------
source = [12, 5, 5, 1, 12, 6, 6, 9, 4, 10, 5, 1, 4, 1, 10, 10, 9, 12, 1, 12, 12, 1, 6, 12, 12, 1, 1, 12, 5, 4]
open = [true, false, false, true, true, true, false, false, true, true, false, true, false, false, false]
trucks_used = [4, 0, 0, 2, 2, 2, 0, 0, 1, 2, 0, 5, 0, 0, 0]
truck_assigned = [5, 1, 2, 2, 3, 1, 2, 1, 2, 2, 2, 4, 2, 1, 1, 2, 1, 1, 1, 4, 1, 4, 2, 3, 2, 2, 3, 5, 1, 1]
obj = 3614
----------
source = [10, 5, 6, 1, 15, 15, 7, 9, 9, 10, 5, 1, 7, 1, 5, 10, 14, 14, 1, 14, 1, 6, 6, 14, 10, 1, 5, 14, 6, 5]
open = [true, false, false, false, true, true, true, false, true, true, false, false, false, true, true]
trucks_used = [3, 0, 0, 0, 3, 2, 1, 0, 1, 2, 0, 0, 0, 4, 1]
truck_assigned = [2, 1, 1, 1, 1, 1, 1, 1, 1, 1, 2, 2, 1, 3, 3, 2, 3, 2, 1, 3, 2, 2, 2, 1, 1, 3, 3, 4, 1, 1]
obj = 3585
----------
source = [10, 5, 11, 11, 6, 6, 11, 11, 11, 10, 5, 1, 9, 1, 5, 10, 11, 1, 1, 9, 1, 1, 6, 11, 10, 1, 5, 11, 6, 5]
open = [true, false, false, false, true, true, false, false, true, true, true, false, false, false, false]
trucks_used = [4, 0, 0, 0, 3, 2, 0, 0, 1, 2, 6, 0, 0, 0, 0]
truck_assigned = [2, 1, 2, 1, 1, 1, 4, 1, 3, 1, 2, 2, 1, 4, 2, 2, 6, 1, 3, 1, 2, 4, 2, 5, 1, 3, 3, 2, 2, 1]
obj = 3583
----------
source = [10, 5, 11, 11, 6, 11, 11, 11, 6, 10, 5, 1, 9, 1, 5, 10, 11, 1, 1, 9, 1, 1, 6, 11, 10, 1, 5, 11, 6, 5]
open = [true, false, false, false, true, true, false, false, true, true, true, false, false, false, false]
trucks_used = [4, 0, 0, 0, 3, 2, 0, 0, 1, 2, 6, 0, 0, 0, 0]
truck_assigned = [2, 1, 2, 1, 1, 3, 4, 1, 2, 1, 2, 2, 1, 4, 2, 2, 6, 2, 1, 1, 3, 4, 1, 5, 1, 1, 3, 2, 2, 1]
obj = 3579
----------
source = [10, 5, 5, 1, 12, 6, 6, 9, 4, 10, 5, 1, 4, 1, 12, 10, 9, 12, 1, 12, 12, 1, 6, 12, 10, 1, 1, 12, 5, 4]
open = [true, false, false, true, true, true, false, false, true, true, false, true, false, false, false]
trucks_used = [4, 0, 0, 2, 2, 2, 0, 0, 1, 2, 0, 4, 0, 0, 0]
truck_assigned = [2, 1, 2, 2, 4, 2, 1, 1, 1, 1, 1, 3, 1, 1, 2, 2, 1, 2, 4, 3, 4, 4, 1, 1, 1, 1, 3, 1, 2, 2]
obj = 3564
----------
source = [12, 5, 11, 1, 12, 11, 11, 11, 4, 1, 5, 1, 9, 1, 12, 11, 11, 12, 1, 9, 12, 1, 11, 12, 12, 5, 4, 11, 5, 5]
open = [true, false, false, true, true, false, false, false, true, false, true, true, false, false, false]
trucks_used = [3, 0, 0, 1, 2, 0, 0, 0, 1, 0, 5, 4, 0, 0, 0]
truck_assigned = [4, 2, 2, 3, 3, 5, 1, 4, 1, 1, 1, 3, 1, 2, 1, 5, 3, 3, 2, 1, 1, 1, 4, 4, 2, 1, 1, 2, 1, 2]
obj = 3544
----------
