+ /usr/bin/timeout 600 /usr/bin/time -v mzn-grb -a lbbd-datasets/Rabadi-2006/dzn-p-dominant/model.mzn lbbd-datasets/Rabadi-2006/dzn-p-dominant/8on4Rp50Rs50_10Ameer.dzn
assign = array1d(1..12 ,[1, 3, 3, 2, 1, 2, 4, 4, 1, 2, 3, 4]);
next = array1d(1..12 ,[9, 3, 11, 10, 1, 4, 12, 7, 6, 2, 8, 5]);
makespan = 423;
----------
assign = array1d(1..12 ,[1, 2, 2, 3, 1, 3, 4, 4, 1, 2, 3, 4]);
next = array1d(1..12 ,[9, 3, 10, 6, 1, 11, 12, 7, 2, 4, 8, 5]);
makespan = 396;
----------
assign = array1d(1..12 ,[1, 2, 3, 2, 1, 3, 4, 4, 1, 2, 3, 4]);
next = array1d(1..12 ,[9, 4, 11, 10, 1, 3, 12, 7, 2, 6, 8, 5]);
makespan = 392;
----------
assign = array1d(1..12 ,[1, 2, 3, 4, 3, 2, 4, 1, 1, 2, 3, 4]);
next = array1d(1..12 ,[8, 6, 5, 12, 11, 10, 4, 9, 2, 3, 7, 1]);
makespan = 369;
----------
assign = array1d(1..12 ,[1, 1, 3, 2, 4, 4, 3, 2, 1, 2, 3, 4]);
next = array1d(1..12 ,[9, 1, 11, 10, 12, 5, 3, 4, 8, 7, 6, 2]);
makespan = 368;
----------
assign = array1d(1..12 ,[1, 1, 3, 2, 4, 4, 3, 2, 1, 2, 3, 4]);
next = array1d(1..12 ,[9, 1, 11, 10, 12, 5, 3, 4, 8, 7, 6, 2]);
makespan = 368;
----------
==========
	Command being timed: "mzn-grb -a lbbd-datasets/Rabadi-2006/dzn-p-dominant/model.mzn lbbd-datasets/Rabadi-2006/dzn-p-dominant/8on4Rp50Rs50_10Ameer.dzn"
	User time (seconds): 2.53
	System time (seconds): 0.03
	Percent of CPU this job got: 99%
	Elapsed (wall clock) time (h:mm:ss or m:ss): 0:02.57
	Average shared text size (kbytes): 0
	Average unshared data size (kbytes): 0
	Average stack size (kbytes): 0
	Average total size (kbytes): 0
	Maximum resident set size (kbytes): 116288
	Average resident set size (kbytes): 0
	Major (requiring I/O) page faults: 0
	Minor (reclaiming a frame) page faults: 8652
	Voluntary context switches: 4
	Involuntary context switches: 12
	Swaps: 0
	File system inputs: 0
	File system outputs: 8
	Socket messages sent: 0
	Socket messages received: 0
	Signals delivered: 0
	Page size (bytes): 4096
	Exit status: 0
