+ /usr/bin/timeout 600 /usr/bin/time -v mzn-grb -a lbbd-datasets/Rabadi-2006/dzn-balanced/model.mzn lbbd-datasets/Rabadi-2006/dzn-balanced/10on4Rp50Rs50_1Ameer.dzn
assign = array1d(1..14 ,[2, 2, 3, 4, 1, 3, 3, 1, 4, 2, 1, 2, 3, 4]);
next = array1d(1..14 ,[12, 1, 6, 14, 11, 7, 13, 5, 4, 2, 10, 3, 9, 8]);
makespan = 333;
----------
assign = array1d(1..14 ,[2, 2, 3, 4, 1, 3, 3, 4, 2, 1, 1, 2, 3, 4]);
next = array1d(1..14 ,[12, 1, 7, 8, 11, 3, 13, 14, 2, 5, 9, 6, 4, 10]);
makespan = 312;
----------
assign = array1d(1..14 ,[2, 2, 2, 4, 1, 4, 3, 3, 3, 1, 1, 2, 3, 4]);
next = array1d(1..14 ,[12, 1, 2, 6, 11, 14, 13, 9, 7, 5, 3, 8, 4, 10]);
makespan = 310;
----------
assign = array1d(1..14 ,[2, 2, 3, 4, 1, 4, 3, 2, 3, 1, 1, 2, 3, 4]);
next = array1d(1..14 ,[12, 8, 13, 6, 10, 14, 3, 1, 7, 11, 2, 9, 4, 5]);
makespan = 296;
----------
assign = array1d(1..14 ,[2, 2, 3, 1, 4, 4, 3, 2, 1, 3, 1, 2, 3, 4]);
next = array1d(1..14 ,[12, 8, 13, 9, 6, 14, 10, 1, 11, 3, 2, 7, 5, 4]);
makespan = 295;
----------
assign = array1d(1..14 ,[2, 2, 3, 4, 1, 3, 2, 1, 4, 3, 1, 2, 3, 4]);
next = array1d(1..14 ,[12, 7, 13, 9, 11, 10, 1, 5, 14, 3, 2, 6, 4, 8]);
makespan = 287;
----------
assign = array1d(1..14 ,[2, 2, 3, 1, 4, 3, 2, 3, 4, 1, 1, 2, 3, 4]);
next = array1d(1..14 ,[12, 7, 8, 11, 14, 13, 1, 6, 5, 4, 2, 3, 9, 10]);
makespan = 285;
----------
assign = array1d(1..14 ,[2, 2, 3, 1, 4, 3, 2, 3, 4, 1, 1, 2, 3, 4]);
next = array1d(1..14 ,[12, 7, 8, 11, 14, 13, 1, 6, 5, 4, 2, 3, 9, 10]);
makespan = 285;
----------
==========
	Command being timed: "mzn-grb -a lbbd-datasets/Rabadi-2006/dzn-balanced/model.mzn lbbd-datasets/Rabadi-2006/dzn-balanced/10on4Rp50Rs50_1Ameer.dzn"
	User time (seconds): 163.95
	System time (seconds): 0.11
	Percent of CPU this job got: 99%
	Elapsed (wall clock) time (h:mm:ss or m:ss): 2:44.84
	Average shared text size (kbytes): 0
	Average unshared data size (kbytes): 0
	Average stack size (kbytes): 0
	Average total size (kbytes): 0
	Maximum resident set size (kbytes): 229696
	Average resident set size (kbytes): 0
	Major (requiring I/O) page faults: 0
	Minor (reclaiming a frame) page faults: 27119
	Voluntary context switches: 4
	Involuntary context switches: 271
	Swaps: 0
	File system inputs: 0
	File system outputs: 24
	Socket messages sent: 0
	Socket messages received: 0
	Signals delivered: 0
	Page size (bytes): 4096
	Exit status: 0
