+ /usr/bin/timeout 600 /usr/bin/time -v mzn-grb -a lbbd-datasets/sscplp/trucks-dzn/model.mzn lbbd-datasets/sscplp/trucks-dzn/p18-l50-c150-uncorrelated.dzn
source = [16, 5, 7, 20, 20, 6, 2, 17, 17, 6, 3, 16, 9, 20, 6, 1, 3, 1, 5, 7, 3, 9, 7, 1, 20, 5, 7, 3, 9, 20, 1, 1, 20, 5, 7, 1, 5, 20, 7, 3]
open = [true, true, true, false, true, true, true, false, true, false, false, false, false, false, false, true, true, false, false, true]
trucks_used = [3, 1, 2, 0, 2, 1, 3, 0, 1, 0, 0, 0, 0, 0, 0, 1, 1, 0, 0, 4]
truck_assigned = [1, 2, 3, 4, 1, 1, 1, 1, 1, 1, 2, 1, 1, 2, 1, 1, 2, 1, 2, 1, 1, 1, 3, 3, 2, 2, 2, 1, 1, 1, 2, 1, 3, 1, 1, 3, 1, 3, 2, 1]
obj = 15612
----------
source = [7, 5, 7, 20, 20, 5, 16, 17, 17, 6, 3, 16, 9, 20, 6, 1, 16, 20, 5, 7, 3, 9, 7, 1, 20, 5, 7, 3, 9, 3, 1, 1, 20, 5, 1, 1, 5, 20, 7, 6]
open = [true, false, true, false, true, true, true, false, true, false, false, false, false, false, false, true, true, false, false, true]
trucks_used = [3, 0, 2, 0, 2, 2, 3, 0, 1, 0, 0, 0, 0, 0, 0, 1, 1, 0, 0, 7]
truck_assigned = [1, 1, 3, 7, 1, 1, 1, 1, 1, 1, 2, 1, 1, 3, 2, 1, 1, 2, 2, 2, 1, 1, 3, 3, 2, 2, 2, 2, 1, 2, 2, 2, 7, 2, 1, 3, 1, 3, 1, 1]
obj = 15036
----------
source = [7, 5, 7, 6, 20, 13, 16, 17, 17, 2, 3, 16, 5, 13, 6, 1, 3, 20, 5, 3, 6, 1, 7, 20, 20, 5, 7, 3, 7, 20, 1, 1, 20, 5, 1, 1, 7, 20, 2, 3]
open = [true, true, true, false, true, true, true, false, false, false, false, false, true, false, false, true, true, false, false, true]
trucks_used = [3, 2, 2, 0, 2, 2, 3, 0, 0, 0, 0, 0, 2, 0, 0, 1, 1, 0, 0, 4]
truck_assigned = [1, 2, 2, 2, 4, 2, 1, 1, 1, 2, 1, 1, 1, 1, 2, 3, 2, 1, 1, 2, 1, 2, 2, 2, 2, 2, 3, 1, 1, 1, 3, 1, 1, 1, 1, 2, 3, 3, 1, 1]
obj = 14761
----------
source = [7, 5, 7, 3, 20, 13, 16, 17, 17, 2, 3, 16, 5, 13, 6, 1, 16, 20, 5, 3, 6, 1, 7, 20, 20, 5, 7, 3, 7, 20, 1, 1, 20, 5, 1, 1, 7, 20, 2, 3]
open = [true, true, true, false, true, true, true, false, false, false, false, false, true, false, false, true, true, false, false, true]
trucks_used = [3, 2, 2, 0, 2, 1, 3, 0, 0, 0, 0, 0, 2, 0, 0, 1, 1, 0, 0, 4]
truck_assigned = [1, 2, 2, 1, 4, 2, 1, 1, 1, 2, 1, 1, 1, 1, 1, 3, 1, 1, 2, 2, 1, 3, 2, 2, 2, 2, 3, 1, 1, 1, 2, 1, 1, 1, 1, 2, 3, 3, 1, 2]
obj = 14586
----------
source = [7, 2, 16, 3, 20, 6, 16, 17, 17, 6, 3, 16, 5, 5, 1, 1, 3, 20, 5, 7, 3, 6, 20, 1, 20, 5, 7, 3, 7, 20, 1, 1, 20, 5, 1, 7, 2, 20, 7, 2]
open = [true, true, true, false, true, true, true, false, false, false, false, false, false, false, false, true, true, false, false, true]
trucks_used = [3, 2, 2, 0, 2, 1, 3, 0, 0, 0, 0, 0, 0, 0, 0, 2, 1, 0, 0, 4]
truck_assigned = [2, 2, 1, 2, 3, 1, 1, 1, 1, 1, 2, 2, 2, 1, 3, 2, 1, 1, 1, 2, 1, 1, 2, 3, 2, 2, 3, 1, 1, 1, 2, 1, 1, 1, 1, 2, 2, 4, 1, 1]
obj = 14053
----------
source = [7, 2, 16, 3, 5, 6, 16, 17, 17, 6, 3, 16, 5, 20, 1, 1, 3, 20, 5, 7, 3, 6, 20, 1, 20, 5, 7, 3, 7, 20, 1, 1, 20, 5, 1, 7, 2, 20, 7, 2]
open = [true, true, true, false, true, true, true, false, false, false, false, false, false, false, false, true, true, false, false, true]
trucks_used = [3, 2, 2, 0, 2, 1, 3, 0, 0, 0, 0, 0, 0, 0, 0, 2, 1, 0, 0, 3]
truck_assigned = [1, 2, 1, 2, 1, 1, 1, 1, 1, 1, 2, 2, 2, 3, 1, 3, 1, 1, 1, 1, 1, 1, 2, 3, 3, 2, 3, 2, 2, 1, 2, 2, 1, 2, 1, 1, 2, 2, 1, 1]
obj = 13907
----------
source = [7, 2, 7, 3, 5, 6, 16, 17, 17, 6, 3, 16, 5, 20, 6, 1, 3, 20, 5, 7, 3, 1, 20, 1, 20, 5, 7, 3, 7, 20, 1, 1, 20, 5, 16, 1, 2, 20, 7, 2]
open = [true, true, true, false, true, true, true, false, false, false, false, false, false, false, false, true, true, false, false, true]
trucks_used = [3, 2, 2, 0, 2, 1, 3, 0, 0, 0, 0, 0, 0, 0, 0, 1, 1, 0, 0, 3]
truck_assigned = [1, 2, 3, 2, 1, 1, 1, 1, 1, 1, 2, 1, 1, 3, 1, 3, 1, 1, 2, 1, 1, 3, 2, 1, 3, 2, 3, 2, 2, 1, 2, 2, 1, 2, 1, 1, 2, 2, 1, 1]
obj = 13730
----------
source = [7, 2, 7, 3, 5, 6, 16, 17, 17, 6, 3, 16, 5, 20, 6, 1, 3, 1, 5, 7, 3, 1, 20, 1, 20, 5, 7, 3, 20, 20, 1, 1, 20, 5, 16, 7, 2, 20, 7, 2]
open = [true, true, true, false, true, true, true, false, false, false, false, false, false, false, false, true, true, false, false, true]
trucks_used = [3, 2, 2, 0, 2, 1, 2, 0, 0, 0, 0, 0, 0, 0, 0, 1, 1, 0, 0, 3]
truck_assigned = [1, 2, 2, 2, 1, 1, 1, 1, 1, 1, 2, 1, 1, 1, 1, 2, 1, 1, 1, 1, 1, 3, 2, 1, 3, 2, 2, 2, 3, 1, 2, 3, 1, 2, 1, 1, 2, 2, 1, 1]
obj = 13676
----------
