+ /usr/bin/timeout 600 /usr/bin/time -v mzn-grb -a lbbd-datasets/Rabadi-2006/dzn-balanced/model.mzn lbbd-datasets/Rabadi-2006/dzn-balanced/11on8Rp50Rs50_8Ameer.dzn
assign = array1d(1..19 ,[7, 2, 3, 2, 3, 6, 1, 5, 8, 8, 4, 1, 2, 3, 4, 5, 6, 7, 8]);
next = array1d(1..19 ,[18, 13, 5, 2, 14, 17, 12, 16, 10, 19, 15, 4, 3, 11, 8, 6, 1, 9, 7]);
makespan = 197;
----------
assign = array1d(1..19 ,[7, 2, 4, 5, 4, 8, 1, 3, 8, 6, 6, 1, 2, 3, 4, 5, 6, 7, 8]);
next = array1d(1..19 ,[18, 13, 5, 16, 15, 9, 12, 14, 19, 17, 10, 2, 8, 3, 4, 11, 1, 6, 7]);
makespan = 190;
----------
assign = array1d(1..19 ,[5, 2, 8, 7, 1, 1, 4, 6, 3, 2, 6, 1, 2, 3, 4, 5, 6, 7, 8]);
next = array1d(1..19 ,[16, 13, 19, 18, 12, 5, 15, 11, 14, 2, 17, 10, 9, 7, 1, 8, 4, 3, 6]);
makespan = 188;
----------
assign = array1d(1..19 ,[7, 7, 1, 3, 1, 8, 5, 6, 4, 2, 6, 1, 2, 3, 4, 5, 6, 7, 8]);
next = array1d(1..19 ,[18, 1, 12, 14, 3, 19, 16, 17, 15, 13, 8, 10, 4, 9, 7, 11, 2, 6, 5]);
makespan = 181;
----------
assign = array1d(1..19 ,[7, 8, 7, 3, 4, 8, 5, 6, 1, 2, 6, 1, 2, 3, 4, 5, 6, 7, 8]);
next = array1d(1..19 ,[3, 6, 18, 14, 15, 19, 16, 11, 12, 13, 17, 10, 4, 5, 7, 8, 1, 2, 9]);
makespan = 167;
----------
assign = array1d(1..19 ,[7, 2, 7, 6, 1, 4, 5, 3, 8, 1, 8, 1, 2, 3, 4, 5, 6, 7, 8]);
next = array1d(1..19 ,[3, 13, 18, 17, 12, 15, 16, 14, 11, 5, 19, 2, 8, 6, 7, 4, 1, 9, 10]);
makespan = 165;
----------
assign = array1d(1..19 ,[7, 2, 7, 6, 1, 4, 5, 3, 8, 1, 8, 1, 2, 3, 4, 5, 6, 7, 8]);
next = array1d(1..19 ,[3, 13, 18, 17, 12, 15, 16, 14, 11, 5, 19, 2, 8, 6, 7, 4, 1, 9, 10]);
makespan = 165;
----------
==========
	Command being timed: "mzn-grb -a lbbd-datasets/Rabadi-2006/dzn-balanced/model.mzn lbbd-datasets/Rabadi-2006/dzn-balanced/11on8Rp50Rs50_8Ameer.dzn"
	User time (seconds): 22.34
	System time (seconds): 0.13
	Percent of CPU this job got: 99%
	Elapsed (wall clock) time (h:mm:ss or m:ss): 0:22.51
	Average shared text size (kbytes): 0
	Average unshared data size (kbytes): 0
	Average stack size (kbytes): 0
	Average total size (kbytes): 0
	Maximum resident set size (kbytes): 329040
	Average resident set size (kbytes): 0
	Major (requiring I/O) page faults: 0
	Minor (reclaiming a frame) page faults: 33877
	Voluntary context switches: 4
	Involuntary context switches: 37
	Swaps: 0
	File system inputs: 0
	File system outputs: 8
	Socket messages sent: 0
	Socket messages received: 0
	Signals delivered: 0
	Page size (bytes): 4096
	Exit status: 0
