+ /usr/bin/timeout 600 /usr/bin/time -v mzn-grb -a lbbd-datasets/Rabadi-2006/dzn-balanced/model.mzn lbbd-datasets/Rabadi-2006/dzn-balanced/10on2Rp50Rs50_8Ameer.dzn
assign = array1d(1..12 ,[2, 2, 2, 1, 2, 1, 1, 1, 1, 2, 1, 2]);
next = array1d(1..12 ,[5, 10, 12, 7, 2, 4, 11, 6, 8, 3, 1, 9]);
makespan = 650;
----------
assign = array1d(1..12 ,[2, 1, 2, 1, 2, 1, 1, 2, 1, 2, 1, 2]);
next = array1d(1..12 ,[8, 4, 12, 7, 3, 2, 11, 5, 6, 1, 10, 9]);
makespan = 621;
----------
assign = array1d(1..12 ,[2, 1, 2, 2, 2, 1, 1, 1, 1, 2, 1, 2]);
next = array1d(1..12 ,[12, 8, 4, 5, 10, 2, 11, 7, 6, 1, 3, 9]);
makespan = 617;
----------
assign = array1d(1..12 ,[2, 1, 2, 2, 2, 1, 1, 1, 1, 2, 1, 2]);
next = array1d(1..12 ,[12, 8, 4, 10, 3, 2, 11, 7, 6, 1, 5, 9]);
makespan = 616;
----------
assign = array1d(1..12 ,[2, 1, 2, 2, 1, 1, 2, 1, 1, 2, 1, 2]);
next = array1d(1..12 ,[12, 11, 4, 7, 9, 2, 1, 5, 6, 3, 10, 8]);
makespan = 599;
----------
assign = array1d(1..12 ,[2, 1, 2, 2, 2, 1, 1, 1, 1, 2, 1, 2]);
next = array1d(1..12 ,[12, 9, 1, 5, 3, 2, 6, 7, 11, 4, 10, 8]);
makespan = 598;
----------
assign = array1d(1..12 ,[1, 1, 2, 2, 2, 1, 2, 1, 1, 2, 1, 2]);
next = array1d(1..12 ,[6, 9, 7, 5, 3, 2, 12, 1, 11, 4, 10, 8]);
makespan = 590;
----------
assign = array1d(1..12 ,[1, 1, 2, 2, 2, 1, 2, 1, 1, 2, 1, 2]);
next = array1d(1..12 ,[6, 9, 7, 5, 3, 2, 12, 1, 11, 4, 10, 8]);
makespan = 590;
----------
==========
	Command being timed: "mzn-grb -a lbbd-datasets/Rabadi-2006/dzn-balanced/model.mzn lbbd-datasets/Rabadi-2006/dzn-balanced/10on2Rp50Rs50_8Ameer.dzn"
	User time (seconds): 2.88
	System time (seconds): 0.02
	Percent of CPU this job got: 99%
	Elapsed (wall clock) time (h:mm:ss or m:ss): 0:02.91
	Average shared text size (kbytes): 0
	Average unshared data size (kbytes): 0
	Average stack size (kbytes): 0
	Average total size (kbytes): 0
	Maximum resident set size (kbytes): 105152
	Average resident set size (kbytes): 0
	Major (requiring I/O) page faults: 0
	Minor (reclaiming a frame) page faults: 7455
	Voluntary context switches: 4
	Involuntary context switches: 15
	Swaps: 0
	File system inputs: 0
	File system outputs: 8
	Socket messages sent: 0
	Socket messages received: 0
	Signals delivered: 0
	Page size (bytes): 4096
	Exit status: 0
