+ /usr/bin/timeout 600 /usr/bin/time -v mzn-grb -a lbbd-datasets/Rabadi-2006/dzn-s-dominant/model.mzn lbbd-datasets/Rabadi-2006/dzn-s-dominant/9on2Rp50Rs50_14Ameer.dzn
assign = array1d(1..11 ,[1, 2, 2, 2, 1, 2, 2, 2, 2, 1, 2]);
next = array1d(1..11 ,[10, 3, 7, 2, 1, 11, 9, 6, 8, 4, 5]);
makespan = 1385;
----------
assign = array1d(1..11 ,[1, 1, 1, 1, 1, 1, 1, 2, 2, 1, 2]);
next = array1d(1..11 ,[10, 6, 7, 5, 1, 4, 2, 9, 11, 8, 3]);
makespan = 1342;
----------
assign = array1d(1..11 ,[2, 1, 2, 2, 1, 2, 2, 2, 1, 1, 2]);
next = array1d(1..11 ,[8, 9, 7, 1, 10, 11, 6, 3, 5, 4, 2]);
makespan = 1101;
----------
assign = array1d(1..11 ,[1, 1, 2, 1, 1, 2, 1, 2, 2, 1, 2]);
next = array1d(1..11 ,[7, 10, 8, 2, 4, 11, 5, 6, 3, 9, 1]);
makespan = 893;
----------
assign = array1d(1..11 ,[2, 1, 1, 2, 2, 2, 2, 1, 1, 1, 2]);
next = array1d(1..11 ,[7, 9, 8, 5, 1, 11, 6, 10, 3, 4, 2]);
makespan = 890;
----------
assign = array1d(1..11 ,[1, 2, 1, 2, 1, 1, 1, 2, 2, 1, 2]);
next = array1d(1..11 ,[7, 11, 6, 2, 10, 1, 5, 4, 8, 9, 3]);
makespan = 878;
----------
assign = array1d(1..11 ,[2, 1, 2, 1, 1, 1, 2, 2, 2, 1, 2]);
next = array1d(1..11 ,[11, 6, 7, 2, 4, 10, 1, 9, 3, 8, 5]);
makespan = 873;
----------
assign = array1d(1..11 ,[2, 1, 2, 1, 1, 1, 2, 2, 2, 1, 2]);
next = array1d(1..11 ,[3, 6, 9, 2, 4, 10, 1, 11, 8, 7, 5]);
makespan = 870;
----------
assign = array1d(1..11 ,[2, 1, 2, 1, 1, 2, 2, 1, 2, 1, 2]);
next = array1d(1..11 ,[3, 5, 9, 2, 8, 11, 6, 10, 7, 1, 4]);
makespan = 849;
----------
assign = array1d(1..11 ,[2, 1, 2, 1, 2, 2, 2, 1, 1, 1, 2]);
next = array1d(1..11 ,[3, 8, 7, 2, 1, 11, 6, 10, 4, 5, 9]);
makespan = 845;
----------
assign = array1d(1..11 ,[2, 1, 2, 2, 1, 2, 2, 1, 1, 1, 2]);
next = array1d(1..11 ,[3, 10, 7, 1, 9, 11, 6, 5, 2, 4, 8]);
makespan = 844;
----------
assign = array1d(1..11 ,[2, 1, 2, 2, 1, 2, 2, 1, 1, 1, 2]);
next = array1d(1..11 ,[3, 10, 7, 1, 9, 11, 6, 5, 2, 4, 8]);
makespan = 844;
----------
==========
	Command being timed: "mzn-grb -a lbbd-datasets/Rabadi-2006/dzn-s-dominant/model.mzn lbbd-datasets/Rabadi-2006/dzn-s-dominant/9on2Rp50Rs50_14Ameer.dzn"
	User time (seconds): 33.53
	System time (seconds): 0.03
	Percent of CPU this job got: 99%
	Elapsed (wall clock) time (h:mm:ss or m:ss): 0:33.63
	Average shared text size (kbytes): 0
	Average unshared data size (kbytes): 0
	Average stack size (kbytes): 0
	Average total size (kbytes): 0
	Maximum resident set size (kbytes): 128688
	Average resident set size (kbytes): 0
	Major (requiring I/O) page faults: 0
	Minor (reclaiming a frame) page faults: 13588
	Voluntary context switches: 6
	Involuntary context switches: 41
	Swaps: 0
	File system inputs: 0
	File system outputs: 16
	Socket messages sent: 0
	Socket messages received: 0
	Signals delivered: 0
	Page size (bytes): 4096
	Exit status: 0
