+ /usr/bin/timeout 600 /usr/bin/time -v mzn-grb -a lbbd-datasets/Rabadi-2006/dzn-s-dominant/model.mzn lbbd-datasets/Rabadi-2006/dzn-s-dominant/11on6Rp50Rs50_10Ameer.dzn
assign = array1d(1..17 ,[6, 6, 2, 5, 1, 1, 2, 3, 3, 4, 4, 1, 2, 3, 4, 5, 6]);
next = array1d(1..17 ,[2, 17, 13, 16, 12, 5, 3, 14, 8, 11, 15, 7, 9, 10, 4, 1, 6]);
makespan = 269;
----------
assign = array1d(1..17 ,[2, 3, 5, 6, 1, 1, 5, 4, 3, 4, 2, 1, 2, 3, 4, 5, 6]);
next = array1d(1..17 ,[11, 9, 7, 17, 12, 5, 16, 15, 14, 8, 13, 1, 2, 10, 3, 4, 6]);
makespan = 268;
----------
assign = array1d(1..17 ,[3, 6, 5, 2, 1, 1, 2, 3, 5, 4, 6, 1, 2, 3, 4, 5, 6]);
next = array1d(1..17 ,[14, 17, 9, 7, 12, 5, 13, 1, 16, 15, 2, 4, 8, 10, 3, 11, 6]);
makespan = 265;
----------
assign = array1d(1..17 ,[3, 6, 5, 6, 1, 1, 5, 2, 3, 4, 4, 1, 2, 3, 4, 5, 6]);
next = array1d(1..17 ,[14, 4, 7, 17, 12, 5, 16, 13, 1, 11, 15, 8, 9, 10, 3, 2, 6]);
makespan = 259;
----------
assign = array1d(1..17 ,[2, 3, 5, 6, 4, 6, 2, 1, 5, 4, 3, 1, 2, 3, 4, 5, 6]);
next = array1d(1..17 ,[13, 11, 9, 17, 10, 4, 1, 12, 16, 15, 14, 7, 2, 5, 3, 6, 8]);
makespan = 257;
----------
assign = array1d(1..17 ,[2, 3, 5, 6, 4, 6, 2, 1, 5, 4, 3, 1, 2, 3, 4, 5, 6]);
next = array1d(1..17 ,[13, 11, 9, 17, 10, 4, 1, 12, 16, 15, 14, 7, 2, 5, 3, 6, 8]);
makespan = 257;
----------
==========
	Command being timed: "mzn-grb -a lbbd-datasets/Rabadi-2006/dzn-s-dominant/model.mzn lbbd-datasets/Rabadi-2006/dzn-s-dominant/11on6Rp50Rs50_10Ameer.dzn"
	User time (seconds): 13.93
	System time (seconds): 0.09
	Percent of CPU this job got: 99%
	Elapsed (wall clock) time (h:mm:ss or m:ss): 0:14.05
	Average shared text size (kbytes): 0
	Average unshared data size (kbytes): 0
	Average stack size (kbytes): 0
	Average total size (kbytes): 0
	Maximum resident set size (kbytes): 248768
	Average resident set size (kbytes): 0
	Major (requiring I/O) page faults: 0
	Minor (reclaiming a frame) page faults: 22457
	Voluntary context switches: 4
	Involuntary context switches: 34
	Swaps: 0
	File system inputs: 0
	File system outputs: 8
	Socket messages sent: 0
	Socket messages received: 0
	Signals delivered: 0
	Page size (bytes): 4096
	Exit status: 0
