+ /usr/bin/timeout 600 /usr/bin/time -v mzn-grb -a lbbd-datasets/Rabadi-2006/dzn-p-dominant/model.mzn lbbd-datasets/Rabadi-2006/dzn-p-dominant/10on4Rp50Rs50_8Ameer.dzn
assign = array1d(1..14 ,[1, 3, 3, 4, 2, 3, 1, 2, 2, 4, 1, 2, 3, 4]);
next = array1d(1..14 ,[11, 3, 13, 14, 8, 2, 1, 9, 12, 4, 5, 6, 10, 7]);
makespan = 603;
----------
assign = array1d(1..14 ,[1, 3, 2, 2, 2, 4, 3, 4, 1, 3, 1, 2, 3, 4]);
next = array1d(1..14 ,[9, 7, 4, 5, 12, 8, 10, 14, 11, 13, 3, 2, 6, 1]);
makespan = 583;
----------
assign = array1d(1..14 ,[4, 2, 3, 4, 2, 4, 3, 2, 3, 1, 1, 2, 3, 4]);
next = array1d(1..14 ,[6, 8, 9, 1, 12, 14, 13, 5, 7, 11, 2, 3, 4, 10]);
makespan = 555;
----------
assign = array1d(1..14 ,[4, 3, 1, 2, 2, 4, 3, 2, 4, 1, 1, 2, 3, 4]);
next = array1d(1..14 ,[9, 7, 11, 5, 8, 14, 13, 12, 6, 3, 4, 2, 1, 10]);
makespan = 530;
----------
assign = array1d(1..14 ,[4, 1, 4, 1, 2, 4, 3, 2, 2, 3, 1, 2, 3, 4]);
next = array1d(1..14 ,[14, 11, 1, 2, 8, 3, 10, 12, 5, 13, 9, 7, 6, 4]);
makespan = 527;
----------
assign = array1d(1..14 ,[4, 1, 4, 2, 2, 4, 3, 3, 2, 1, 1, 2, 3, 4]);
next = array1d(1..14 ,[14, 10, 1, 9, 12, 3, 8, 13, 5, 11, 4, 7, 6, 2]);
makespan = 524;
----------
