+ /usr/bin/timeout 600 /usr/bin/time -v mzn-grb -a lbbd-datasets/sscplp/trucks-dzn/model.mzn lbbd-datasets/sscplp/trucks-dzn/p06-l40-c50-correlated.dzn
source = [2, 10, 4, 5, 5, 5, 5, 3, 4, 4, 4, 3, 1, 3, 3, 3, 2, 1, 1, 2]
open = [true, true, true, true, true, false, false, false, false, true]
trucks_used = [3, 3, 5, 4, 4, 0, 0, 0, 0, 1]
truck_assigned = [1, 1, 1, 4, 3, 2, 2, 1, 4, 3, 2, 5, 1, 4, 3, 2, 3, 3, 2, 2]
obj = 3340
----------
source = [8, 3, 4, 6, 2, 5, 1, 7, 4, 3, 5, 3, 4, 8, 3, 9, 4, 2, 9, 1]
open = [true, true, true, true, true, true, true, true, true, false]
trucks_used = [1, 2, 4, 2, 1, 1, 1, 1, 1, 0]
truck_assigned = [1, 1, 2, 1, 1, 1, 1, 1, 1, 1, 1, 4, 2, 1, 4, 1, 1, 2, 1, 1]
obj = 3203
----------
source = [8, 2, 4, 2, 6, 5, 1, 9, 4, 3, 5, 6, 4, 8, 3, 9, 4, 6, 9, 1]
open = [true, true, true, true, true, true, false, true, true, false]
trucks_used = [1, 2, 1, 2, 1, 3, 0, 1, 2, 0]
truck_assigned = [1, 1, 2, 2, 3, 1, 1, 1, 1, 1, 1, 1, 2, 1, 1, 2, 1, 2, 2, 1]
obj = 2933
----------
source = [8, 2, 4, 2, 3, 5, 1, 7, 4, 3, 5, 3, 4, 8, 3, 9, 4, 2, 9, 1]
open = [true, true, true, true, true, false, true, true, true, false]
trucks_used = [1, 2, 2, 2, 1, 0, 1, 1, 1, 0]
truck_assigned = [1, 1, 2, 1, 2, 1, 1, 1, 2, 2, 1, 1, 1, 1, 1, 1, 1, 2, 1, 1]
obj = 2866
----------
source = [8, 3, 4, 2, 2, 5, 1, 7, 4, 3, 5, 3, 4, 8, 3, 9, 4, 2, 9, 1]
open = [true, true, true, true, true, false, true, true, true, false]
trucks_used = [1, 2, 2, 2, 1, 0, 1, 1, 1, 0]
truck_assigned = [1, 1, 2, 1, 1, 1, 1, 1, 2, 2, 1, 1, 1, 1, 2, 1, 1, 2, 1, 1]
obj = 2855
----------
source = [6, 4, 5, 2, 3, 5, 5, 1, 4, 5, 5, 1, 4, 2, 6, 9, 9, 2, 9, 1]
open = [true, true, true, true, true, true, false, false, true, false]
trucks_used = [2, 3, 1, 2, 5, 1, 0, 0, 2, 0]
truck_assigned = [1, 2, 5, 2, 1, 1, 2, 1, 1, 4, 1, 2, 1, 3, 1, 1, 1, 1, 2, 1]
obj = 2850
----------
source = [6, 4, 5, 2, 2, 5, 5, 1, 4, 5, 5, 3, 1, 2, 6, 9, 9, 2, 9, 4]
open = [true, true, true, true, true, true, false, false, true, false]
trucks_used = [1, 3, 1, 2, 3, 1, 0, 0, 2, 0]
truck_assigned = [1, 2, 1, 3, 1, 3, 3, 1, 1, 1, 2, 1, 1, 2, 1, 2, 1, 1, 2, 2]
obj = 2670
----------
source = [6, 4, 5, 2, 2, 5, 5, 1, 4, 3, 5, 3, 4, 3, 6, 9, 9, 2, 9, 1]
open = [true, true, true, true, true, true, false, false, true, false]
trucks_used = [1, 2, 2, 2, 3, 1, 0, 0, 2, 0]
truck_assigned = [1, 2, 1, 2, 1, 3, 3, 1, 1, 2, 2, 2, 2, 1, 1, 1, 2, 1, 2, 1]
obj = 2620
----------
source = [2, 4, 5, 2, 2, 5, 5, 9, 1, 5, 5, 3, 4, 3, 3, 9, 4, 1, 9, 4]
open = [true, true, true, true, true, false, false, false, true, false]
trucks_used = [2, 2, 2, 2, 3, 0, 0, 0, 2, 0]
truck_assigned = [2, 2, 1, 1, 1, 3, 3, 1, 2, 1, 2, 1, 1, 2, 1, 2, 1, 1, 2, 2]
obj = 2567
----------
source = [8, 4, 5, 2, 2, 5, 5, 8, 4, 5, 5, 3, 4, 3, 3, 9, 9, 2, 9, 4]
open = [false, true, true, true, true, false, false, true, true, false]
trucks_used = [0, 2, 2, 2, 3, 0, 0, 1, 2, 0]
truck_assigned = [1, 2, 1, 1, 1, 3, 3, 1, 1, 1, 2, 1, 1, 2, 1, 1, 2, 2, 2, 2]
obj = 2496
----------
source = [8, 3, 5, 2, 2, 5, 5, 8, 4, 3, 5, 3, 4, 2, 3, 9, 4, 2, 9, 4]
open = [false, true, true, true, true, false, false, true, true, false]
trucks_used = [0, 3, 2, 2, 3, 0, 0, 1, 1, 0]
truck_assigned = [1, 2, 3, 1, 1, 1, 1, 1, 1, 2, 2, 1, 2, 2, 1, 1, 1, 3, 1, 2]
obj = 2475
----------
source = [8, 3, 5, 2, 2, 5, 5, 9, 4, 3, 5, 3, 4, 8, 3, 9, 4, 2, 9, 4]
open = [false, true, true, true, true, false, false, true, true, false]
trucks_used = [0, 2, 2, 2, 3, 0, 0, 1, 2, 0]
truck_assigned = [1, 2, 3, 1, 1, 1, 1, 1, 2, 2, 2, 1, 1, 1, 1, 2, 1, 2, 2, 2]
obj = 2419
----------
source = [6, 3, 3, 2, 2, 5, 5, 9, 4, 3, 5, 3, 4, 5, 6, 9, 4, 2, 9, 4]
open = [false, true, true, true, true, true, false, false, true, false]
trucks_used = [0, 2, 2, 2, 3, 1, 0, 0, 2, 0]
truck_assigned = [1, 2, 1, 1, 2, 1, 1, 2, 2, 2, 2, 1, 1, 3, 1, 1, 1, 2, 1, 2]
obj = 2398
----------
source = [6, 3, 3, 2, 2, 5, 5, 9, 4, 3, 5, 3, 4, 3, 6, 9, 4, 2, 9, 4]
open = [false, true, true, true, true, true, false, false, true, false]
trucks_used = [0, 2, 3, 2, 2, 1, 0, 0, 2, 0]
truck_assigned = [1, 2, 1, 1, 2, 1, 1, 2, 2, 2, 2, 1, 1, 3, 1, 1, 1, 2, 1, 2]
obj = 2369
----------
source = [2, 3, 4, 2, 2, 5, 5, 9, 4, 3, 5, 3, 4, 3, 3, 9, 4, 9, 9, 5]
open = [false, true, true, true, true, false, false, false, true, false]
trucks_used = [0, 2, 4, 2, 3, 0, 0, 0, 3, 0]
truck_assigned = [1, 2, 1, 2, 1, 3, 3, 3, 1, 1, 2, 1, 2, 3, 4, 2, 2, 1, 2, 1]
obj = 2323
----------
source = [5, 3, 4, 2, 2, 5, 5, 9, 4, 3, 5, 3, 4, 3, 3, 9, 9, 2, 9, 4]
open = [false, true, true, true, true, false, false, false, true, false]
trucks_used = [0, 2, 4, 2, 3, 0, 0, 0, 3, 0]
truck_assigned = [1, 2, 1, 2, 1, 3, 2, 3, 1, 1, 3, 1, 2, 3, 4, 1, 2, 1, 2, 2]
obj = 2319
----------
source = [5, 3, 4, 2, 2, 5, 5, 9, 4, 3, 5, 3, 4, 2, 3, 9, 9, 2, 9, 4]
open = [false, true, true, true, true, false, false, false, true, false]
trucks_used = [0, 3, 2, 2, 3, 0, 0, 0, 3, 0]
truck_assigned = [1, 1, 1, 2, 1, 2, 2, 3, 2, 2, 3, 1, 1, 3, 2, 1, 2, 1, 1, 2]
obj = 2287
----------
source = [5, 3, 4, 2, 2, 5, 5, 9, 4, 3, 5, 3, 4, 3, 3, 9, 9, 2, 9, 4]
open = [false, true, true, true, true, false, false, false, true, false]
trucks_used = [0, 2, 3, 2, 3, 0, 0, 0, 3, 0]
truck_assigned = [1, 1, 2, 1, 2, 2, 2, 3, 2, 3, 3, 1, 1, 2, 3, 2, 2, 2, 1, 1]
obj = 2269
----------
source = [7, 7, 5, 2, 2, 5, 5, 7, 4, 5, 4, 7, 4, 7, 9, 9, 4, 7, 9, 5]
open = [false, true, false, true, true, false, true, false, true, false]
trucks_used = [0, 1, 0, 3, 3, 0, 3, 0, 2, 0]
truck_assigned = [3, 2, 3, 1, 1, 1, 1, 3, 3, 3, 2, 1, 1, 2, 1, 2, 1, 1, 2, 2]
obj = 2266
----------
source = [7, 7, 4, 2, 2, 5, 5, 7, 4, 5, 5, 7, 4, 7, 9, 9, 4, 7, 9, 5]
open = [false, true, false, true, true, false, true, false, true, false]
trucks_used = [0, 1, 0, 2, 4, 0, 3, 0, 2, 0]
truck_assigned = [3, 2, 2, 1, 1, 1, 1, 3, 1, 3, 4, 1, 1, 2, 1, 2, 2, 1, 2, 2]
obj = 2226
----------
source = [7, 2, 4, 2, 3, 3, 9, 7, 4, 3, 7, 3, 4, 7, 3, 9, 7, 2, 9, 4]
open = [false, true, true, true, false, false, true, false, true, false]
trucks_used = [0, 2, 3, 2, 0, 0, 3, 0, 2, 0]
truck_assigned = [2, 1, 1, 1, 2, 3, 1, 2, 1, 2, 3, 3, 2, 1, 1, 2, 1, 2, 1, 2]
obj = 2223
----------
source = [7, 7, 5, 2, 2, 5, 9, 7, 5, 5, 5, 2, 6, 7, 6, 9, 7, 7, 9, 6]
open = [false, true, false, false, true, true, true, false, true, false]
trucks_used = [0, 2, 0, 0, 3, 2, 3, 0, 2, 0]
truck_assigned = [3, 2, 3, 1, 2, 3, 1, 1, 1, 1, 2, 2, 1, 2, 2, 2, 1, 3, 1, 2]
obj = 2209
----------
source = [8, 4, 5, 2, 2, 5, 8, 8, 5, 5, 5, 2, 4, 8, 9, 9, 4, 5, 9, 4]
open = [false, true, false, true, true, false, false, true, true, false]
trucks_used = [0, 2, 0, 2, 4, 0, 0, 2, 2, 0]
truck_assigned = [1, 2, 3, 1, 1, 2, 2, 1, 3, 2, 1, 2, 1, 2, 2, 1, 1, 4, 1, 2]
obj = 2205
----------
source = [7, 7, 5, 2, 2, 5, 5, 7, 4, 5, 5, 7, 4, 7, 9, 9, 4, 7, 9, 4]
open = [false, true, false, true, true, false, true, false, true, false]
trucks_used = [0, 1, 0, 2, 3, 0, 3, 0, 2, 0]
truck_assigned = [2, 1, 3, 1, 1, 1, 2, 2, 2, 3, 1, 3, 1, 1, 2, 1, 2, 3, 1, 1]
obj = 2180
----------
source = [7, 7, 5, 2, 2, 5, 5, 7, 4, 5, 5, 7, 4, 7, 9, 9, 4, 7, 9, 4]
open = [false, true, false, true, true, false, true, false, true, false]
trucks_used = [0, 1, 0, 2, 3, 0, 3, 0, 2, 0]
truck_assigned = [2, 1, 3, 1, 1, 1, 2, 2, 2, 3, 1, 3, 1, 1, 2, 1, 2, 3, 1, 1]
obj = 2180
----------
==========
	Command being timed: "mzn-grb -a lbbd-datasets/sscplp/trucks-dzn/model.mzn lbbd-datasets/sscplp/trucks-dzn/p06-l40-c50-correlated.dzn"
	User time (seconds): 138.32
	System time (seconds): 0.37
	Percent of CPU this job got: 99%
	Elapsed (wall clock) time (h:mm:ss or m:ss): 2:18.96
	Average shared text size (kbytes): 0
	Average unshared data size (kbytes): 0
	Average stack size (kbytes): 0
	Average total size (kbytes): 0
	Maximum resident set size (kbytes): 1644768
	Average resident set size (kbytes): 0
	Major (requiring I/O) page faults: 0
	Minor (reclaiming a frame) page faults: 110376
	Voluntary context switches: 6
	Involuntary context switches: 281
	Swaps: 0
	File system inputs: 0
	File system outputs: 56
	Socket messages sent: 0
	Socket messages received: 0
	Signals delivered: 0
	Page size (bytes): 4096
	Exit status: 0
