+ /usr/bin/timeout 600 /usr/bin/time -v mzn-grb -a lbbd-datasets/Rabadi-2006/dzn-p-dominant/model.mzn lbbd-datasets/Rabadi-2006/dzn-p-dominant/8on4Rp50Rs50_7Ameer.dzn
assign = array1d(1..12 ,[4, 3, 4, 2, 2, 3, 1, 1, 1, 2, 3, 4]);
next = array1d(1..12 ,[12, 6, 1, 10, 4, 11, 8, 9, 5, 2, 3, 7]);
makespan = 360;
----------
assign = array1d(1..12 ,[4, 3, 4, 2, 2, 3, 1, 1, 1, 2, 3, 4]);
next = array1d(1..12 ,[3, 11, 12, 10, 4, 2, 9, 7, 5, 6, 1, 8]);
makespan = 355;
----------
assign = array1d(1..12 ,[4, 1, 4, 2, 2, 3, 3, 1, 1, 2, 3, 4]);
next = array1d(1..12 ,[3, 9, 12, 10, 4, 7, 11, 2, 5, 6, 1, 8]);
makespan = 353;
----------
assign = array1d(1..12 ,[4, 1, 1, 2, 4, 3, 3, 2, 1, 2, 3, 4]);
next = array1d(1..12 ,[12, 9, 2, 8, 1, 11, 6, 10, 4, 7, 5, 3]);
makespan = 352;
----------
assign = array1d(1..12 ,[1, 1, 3, 2, 4, 3, 2, 4, 1, 2, 3, 4]);
next = array1d(1..12 ,[2, 9, 6, 7, 8, 11, 10, 12, 4, 3, 5, 1]);
makespan = 347;
----------
assign = array1d(1..12 ,[4, 3, 1, 2, 4, 3, 1, 2, 1, 2, 3, 4]);
next = array1d(1..12 ,[5, 6, 7, 8, 12, 11, 9, 10, 4, 2, 1, 3]);
makespan = 341;
----------
assign = array1d(1..12 ,[4, 3, 1, 2, 4, 3, 1, 2, 1, 2, 3, 4]);
next = array1d(1..12 ,[5, 6, 7, 8, 12, 11, 9, 10, 4, 2, 1, 3]);
makespan = 341;
----------
==========
	Command being timed: "mzn-grb -a lbbd-datasets/Rabadi-2006/dzn-p-dominant/model.mzn lbbd-datasets/Rabadi-2006/dzn-p-dominant/8on4Rp50Rs50_7Ameer.dzn"
	User time (seconds): 3.02
	System time (seconds): 0.03
	Percent of CPU this job got: 99%
	Elapsed (wall clock) time (h:mm:ss or m:ss): 0:03.07
	Average shared text size (kbytes): 0
	Average unshared data size (kbytes): 0
	Average stack size (kbytes): 0
	Average total size (kbytes): 0
	Maximum resident set size (kbytes): 120272
	Average resident set size (kbytes): 0
	Major (requiring I/O) page faults: 0
	Minor (reclaiming a frame) page faults: 8701
	Voluntary context switches: 4
	Involuntary context switches: 17
	Swaps: 0
	File system inputs: 0
	File system outputs: 8
	Socket messages sent: 0
	Socket messages received: 0
	Signals delivered: 0
	Page size (bytes): 4096
	Exit status: 0
