+ /usr/bin/timeout 600 /usr/bin/time -v mzn-grb -a lbbd-datasets/Rabadi-2006/dzn-p-dominant/model.mzn lbbd-datasets/Rabadi-2006/dzn-p-dominant/6on4Rp50Rs50_12Ameer.dzn
assign = array1d(1..10 ,[4, 3, 1, 3, 2, 4, 1, 2, 3, 4]);
next = array1d(1..10 ,[10, 4, 7, 9, 8, 1, 5, 2, 6, 3]);
makespan = 353;
----------
assign = array1d(1..10 ,[2, 3, 4, 3, 1, 1, 1, 2, 3, 4]);
next = array1d(1..10 ,[8, 4, 10, 9, 6, 7, 1, 2, 3, 5]);
makespan = 349;
----------
assign = array1d(1..10 ,[2, 3, 4, 1, 1, 3, 1, 2, 3, 4]);
next = array1d(1..10 ,[8, 9, 10, 5, 7, 2, 1, 6, 3, 4]);
makespan = 341;
----------
assign = array1d(1..10 ,[2, 3, 4, 1, 3, 2, 1, 2, 3, 4]);
next = array1d(1..10 ,[6, 5, 10, 7, 9, 8, 1, 2, 3, 4]);
makespan = 339;
----------
assign = array1d(1..10 ,[2, 3, 4, 1, 3, 1, 1, 2, 3, 4]);
next = array1d(1..10 ,[8, 9, 10, 6, 2, 7, 1, 5, 3, 4]);
makespan = 338;
----------
assign = array1d(1..10 ,[2, 3, 4, 1, 3, 1, 1, 2, 3, 4]);
next = array1d(1..10 ,[8, 9, 10, 6, 2, 7, 1, 5, 3, 4]);
makespan = 338;
----------
==========
	Command being timed: "mzn-grb -a lbbd-datasets/Rabadi-2006/dzn-p-dominant/model.mzn lbbd-datasets/Rabadi-2006/dzn-p-dominant/6on4Rp50Rs50_12Ameer.dzn"
	User time (seconds): 1.55
	System time (seconds): 0.01
	Percent of CPU this job got: 99%
	Elapsed (wall clock) time (h:mm:ss or m:ss): 0:01.58
	Average shared text size (kbytes): 0
	Average unshared data size (kbytes): 0
	Average stack size (kbytes): 0
	Average total size (kbytes): 0
	Maximum resident set size (kbytes): 91024
	Average resident set size (kbytes): 0
	Major (requiring I/O) page faults: 0
	Minor (reclaiming a frame) page faults: 6321
	Voluntary context switches: 4
	Involuntary context switches: 12
	Swaps: 0
	File system inputs: 0
	File system outputs: 8
	Socket messages sent: 0
	Socket messages received: 0
	Signals delivered: 0
	Page size (bytes): 4096
	Exit status: 0
