+ /usr/bin/timeout 600 /usr/bin/time -v mzn-grb -a lbbd-datasets/Rabadi-2006/dzn-p-dominant/model.mzn lbbd-datasets/Rabadi-2006/dzn-p-dominant/6on2Rp50Rs50_6Ameer.dzn
assign = array1d(1..8 ,[1, 1, 2, 2, 2, 1, 1, 2]);
next = array1d(1..8 ,[6, 7, 5, 8, 4, 2, 3, 1]);
makespan = 588;
----------
assign = array1d(1..8 ,[1, 1, 2, 1, 2, 2, 1, 2]);
next = array1d(1..8 ,[2, 7, 5, 1, 6, 8, 3, 4]);
makespan = 576;
----------
assign = array1d(1..8 ,[1, 1, 2, 1, 2, 2, 1, 2]);
next = array1d(1..8 ,[2, 7, 5, 1, 6, 8, 3, 4]);
makespan = 576;
----------
==========
	Command being timed: "mzn-grb -a lbbd-datasets/Rabadi-2006/dzn-p-dominant/model.mzn lbbd-datasets/Rabadi-2006/dzn-p-dominant/6on2Rp50Rs50_6Ameer.dzn"
	User time (seconds): 0.63
	System time (seconds): 0.02
	Percent of CPU this job got: 99%
	Elapsed (wall clock) time (h:mm:ss or m:ss): 0:00.66
	Average shared text size (kbytes): 0
	Average unshared data size (kbytes): 0
	Average stack size (kbytes): 0
	Average total size (kbytes): 0
	Maximum resident set size (kbytes): 71040
	Average resident set size (kbytes): 0
	Major (requiring I/O) page faults: 0
	Minor (reclaiming a frame) page faults: 5026
	Voluntary context switches: 6
	Involuntary context switches: 2
	Swaps: 0
	File system inputs: 0
	File system outputs: 8
	Socket messages sent: 0
	Socket messages received: 0
	Signals delivered: 0
	Page size (bytes): 4096
	Exit status: 0
