+ /usr/bin/timeout 600 /usr/bin/time -v mzn-grb -a lbbd-datasets/sscplp/trucks-dzn/model.mzn lbbd-datasets/sscplp/trucks-dzn/p12-l50-c80-correlated.dzn
source = [12, 5, 11, 1, 12, 6, 4, 9, 4, 10, 1, 1, 9, 1, 5, 11, 14, 12, 1, 9, 15, 14, 6, 11, 10, 5, 15, 12, 5, 5]
open = [true, false, false, true, true, true, false, false, true, true, true, true, false, true, true]
trucks_used = [2, 0, 0, 1, 2, 1, 0, 0, 1, 1, 2, 2, 0, 1, 1]
truck_assigned = [2, 1, 1, 1, 1, 1, 1, 1, 1, 1, 2, 1, 1, 2, 1, 2, 1, 2, 1, 1, 1, 1, 1, 2, 1, 2, 1, 2, 2, 2]
obj = 5758
----------
source = [12, 5, 11, 1, 12, 6, 4, 9, 4, 10, 1, 1, 9, 1, 5, 11, 14, 12, 1, 9, 15, 14, 6, 14, 10, 5, 15, 12, 5, 5]
open = [true, false, false, true, true, true, false, false, true, true, true, true, false, true, true]
trucks_used = [2, 0, 0, 1, 2, 1, 0, 0, 1, 1, 1, 2, 0, 1, 1]
truck_assigned = [2, 1, 1, 1, 1, 1, 1, 1, 1, 1, 2, 1, 1, 2, 1, 1, 1, 2, 1, 1, 1, 1, 1, 1, 1, 2, 1, 2, 2, 2]
obj = 5666
----------
source = [10, 5, 5, 1, 9, 6, 6, 9, 4, 1, 5, 1, 2, 1, 5, 10, 9, 14, 1, 14, 1, 14, 6, 12, 10, 1, 4, 4, 6, 5]
open = [true, true, false, true, true, true, false, false, true, true, false, true, false, true, false]
trucks_used = [3, 1, 0, 1, 2, 2, 0, 0, 1, 2, 0, 1, 0, 1, 0]
truck_assigned = [1, 1, 2, 2, 1, 2, 2, 1, 1, 3, 2, 1, 1, 1, 1, 2, 1, 1, 1, 1, 2, 1, 1, 1, 2, 3, 1, 1, 1, 2]
obj = 5478
----------
source = [10, 5, 5, 1, 9, 6, 6, 9, 4, 1, 5, 1, 2, 1, 5, 10, 9, 14, 1, 14, 1, 14, 6, 12, 10, 1, 4, 12, 6, 5]
open = [true, true, false, true, true, true, false, false, true, true, false, true, false, true, false]
trucks_used = [3, 1, 0, 1, 2, 2, 0, 0, 1, 2, 0, 1, 0, 1, 0]
truck_assigned = [1, 1, 2, 2, 1, 2, 2, 1, 1, 3, 2, 1, 1, 1, 1, 2, 1, 1, 1, 1, 2, 1, 1, 1, 2, 3, 1, 1, 1, 2]
obj = 5471
----------
source = [12, 5, 5, 1, 9, 6, 6, 9, 4, 1, 5, 1, 4, 1, 5, 10, 9, 14, 1, 14, 1, 14, 6, 12, 10, 1, 4, 12, 6, 5]
open = [true, false, false, true, true, true, false, false, true, true, false, true, false, true, false]
trucks_used = [3, 0, 0, 1, 2, 2, 0, 0, 1, 1, 0, 1, 0, 1, 0]
truck_assigned = [1, 1, 2, 2, 1, 2, 2, 1, 1, 3, 2, 1, 1, 1, 1, 1, 1, 1, 1, 1, 2, 1, 1, 1, 1, 3, 1, 1, 1, 2]
obj = 4594
----------
source = [12, 5, 5, 1, 9, 6, 6, 9, 4, 1, 5, 1, 4, 1, 5, 1, 9, 12, 1, 14, 12, 14, 6, 14, 12, 1, 4, 12, 6, 5]
open = [true, false, false, true, true, true, false, false, true, false, false, true, false, true, false]
trucks_used = [3, 0, 0, 1, 2, 2, 0, 0, 1, 0, 0, 2, 0, 1, 0]
truck_assigned = [1, 1, 2, 2, 1, 2, 2, 1, 1, 3, 2, 1, 1, 2, 1, 1, 1, 1, 1, 1, 2, 1, 1, 1, 2, 3, 1, 1, 1, 2]
obj = 4197
----------
source = [12, 5, 5, 1, 12, 6, 6, 9, 4, 1, 5, 1, 9, 1, 5, 1, 14, 12, 1, 14, 12, 1, 6, 14, 12, 9, 4, 4, 6, 5]
open = [true, false, false, true, true, true, false, false, true, false, false, true, false, true, false]
trucks_used = [3, 0, 0, 1, 2, 2, 0, 0, 1, 0, 0, 2, 0, 1, 0]
truck_assigned = [1, 1, 2, 2, 1, 2, 2, 1, 1, 3, 2, 1, 1, 2, 1, 1, 1, 1, 1, 1, 2, 3, 1, 1, 2, 1, 1, 1, 1, 2]
obj = 4196
----------
source = [10, 1, 5, 1, 6, 6, 4, 9, 6, 1, 6, 10, 9, 1, 5, 1, 14, 14, 1, 14, 1, 14, 4, 14, 10, 9, 4, 14, 5, 5]
open = [true, false, false, true, true, true, false, false, true, true, false, false, false, true, false]
trucks_used = [3, 0, 0, 2, 2, 2, 0, 0, 1, 2, 0, 0, 0, 2, 0]
truck_assigned = [1, 3, 1, 1, 1, 2, 1, 1, 2, 3, 1, 2, 1, 1, 1, 2, 1, 2, 1, 1, 2, 2, 2, 1, 2, 1, 2, 2, 2, 2]
obj = 4178
----------
source = [10, 5, 6, 1, 6, 6, 4, 9, 6, 1, 5, 10, 9, 1, 5, 10, 14, 14, 1, 14, 1, 14, 4, 14, 10, 9, 4, 14, 5, 5]
open = [true, false, false, true, true, true, false, false, true, true, false, false, false, true, false]
trucks_used = [2, 0, 0, 2, 2, 2, 0, 0, 1, 2, 0, 0, 0, 2, 0]
truck_assigned = [1, 1, 2, 1, 1, 2, 1, 1, 1, 1, 2, 2, 1, 2, 1, 1, 1, 2, 1, 1, 2, 2, 1, 1, 2, 1, 2, 2, 2, 2]
obj = 4012
----------
source = [10, 5, 5, 1, 6, 6, 4, 9, 6, 1, 5, 10, 9, 1, 5, 10, 14, 14, 1, 14, 1, 14, 4, 14, 10, 9, 4, 14, 6, 5]
open = [true, false, false, true, true, true, false, false, true, true, false, false, false, true, false]
trucks_used = [2, 0, 0, 2, 2, 2, 0, 0, 1, 2, 0, 0, 0, 2, 0]
truck_assigned = [1, 1, 2, 1, 1, 2, 2, 1, 1, 1, 2, 2, 1, 2, 1, 1, 1, 2, 1, 1, 2, 2, 1, 1, 2, 1, 1, 2, 2, 2]
obj = 3994
----------
source = [12, 4, 5, 1, 12, 6, 6, 9, 6, 1, 4, 9, 4, 1, 5, 1, 9, 12, 1, 12, 12, 1, 6, 12, 12, 1, 4, 12, 5, 4]
open = [true, false, false, true, true, true, false, false, true, false, false, true, false, false, false]
trucks_used = [3, 0, 0, 3, 1, 2, 0, 0, 1, 0, 0, 3, 0, 0, 0]
truck_assigned = [2, 3, 1, 2, 3, 2, 2, 1, 1, 2, 1, 1, 2, 1, 1, 1, 1, 2, 1, 2, 1, 2, 1, 1, 3, 3, 2, 3, 1, 2]
obj = 3906
----------
source = [12, 5, 5, 1, 12, 6, 6, 9, 6, 1, 5, 1, 4, 1, 4, 1, 9, 12, 1, 12, 12, 1, 6, 12, 12, 1, 4, 12, 5, 4]
open = [true, false, false, true, true, true, false, false, true, false, false, true, false, false, false]
trucks_used = [3, 0, 0, 2, 2, 2, 0, 0, 1, 0, 0, 3, 0, 0, 0]
truck_assigned = [2, 1, 2, 2, 3, 2, 2, 1, 1, 2, 1, 2, 2, 1, 1, 1, 1, 2, 1, 2, 1, 3, 1, 1, 3, 3, 2, 3, 2, 1]
obj = 3826
----------
source = [12, 5, 5, 1, 12, 6, 6, 9, 6, 1, 5, 1, 4, 1, 12, 1, 4, 12, 1, 9, 12, 1, 6, 12, 12, 9, 1, 12, 5, 5]
open = [true, false, false, true, true, true, false, false, true, false, false, true, false, false, false]
trucks_used = [3, 0, 0, 1, 2, 2, 0, 0, 1, 0, 0, 3, 0, 0, 0]
truck_assigned = [1, 2, 1, 1, 2, 2, 2, 1, 1, 2, 1, 3, 1, 2, 3, 1, 1, 1, 1, 1, 1, 2, 1, 3, 2, 1, 3, 2, 1, 2]
obj = 3749
----------
source = [12, 5, 5, 1, 12, 6, 6, 9, 6, 1, 5, 1, 9, 1, 12, 1, 4, 12, 1, 9, 12, 1, 6, 12, 12, 1, 4, 12, 5, 4]
open = [true, false, false, true, true, true, false, false, true, false, false, true, false, false, false]
trucks_used = [3, 0, 0, 1, 2, 2, 0, 0, 1, 0, 0, 3, 0, 0, 0]
truck_assigned = [1, 2, 1, 2, 2, 2, 2, 1, 1, 3, 1, 3, 1, 2, 3, 1, 1, 1, 2, 1, 1, 3, 1, 3, 2, 1, 1, 2, 1, 1]
obj = 3746
----------
source = [12, 5, 5, 1, 12, 6, 6, 9, 4, 1, 5, 1, 9, 1, 5, 1, 4, 12, 1, 12, 12, 1, 6, 12, 12, 9, 1, 12, 6, 5]
open = [true, false, false, true, true, true, false, false, true, false, false, true, false, false, false]
trucks_used = [3, 0, 0, 1, 2, 2, 0, 0, 1, 0, 0, 3, 0, 0, 0]
truck_assigned = [1, 2, 1, 2, 2, 2, 1, 1, 1, 3, 2, 3, 1, 2, 1, 1, 1, 1, 2, 3, 1, 3, 2, 3, 2, 1, 1, 2, 1, 1]
obj = 3718
----------
source = [12, 5, 5, 1, 12, 6, 6, 9, 4, 1, 5, 1, 4, 1, 5, 1, 9, 12, 1, 12, 12, 1, 6, 12, 12, 1, 4, 12, 6, 5]
open = [true, false, false, true, true, true, false, false, true, false, false, true, false, false, false]
trucks_used = [3, 0, 0, 1, 2, 2, 0, 0, 1, 0, 0, 3, 0, 0, 0]
truck_assigned = [1, 2, 1, 2, 2, 2, 1, 1, 1, 3, 2, 3, 1, 1, 1, 1, 1, 1, 1, 3, 1, 3, 2, 3, 2, 2, 1, 2, 1, 1]
obj = 3698
----------
source = [12, 5, 5, 1, 12, 6, 6, 9, 6, 1, 5, 1, 9, 1, 12, 1, 15, 12, 1, 15, 12, 1, 6, 12, 12, 9, 1, 12, 5, 5]
open = [true, false, false, false, true, true, false, false, true, false, false, true, false, false, true]
trucks_used = [3, 0, 0, 0, 2, 2, 0, 0, 1, 0, 0, 3, 0, 0, 1]
truck_assigned = [1, 2, 1, 2, 2, 2, 2, 1, 1, 3, 2, 3, 1, 1, 1, 2, 1, 2, 2, 1, 2, 3, 1, 3, 3, 1, 1, 1, 1, 1]
obj = 3682
----------
