+ /usr/bin/timeout 600 /usr/bin/time -v mzn-grb -a lbbd-datasets/sscplp/trucks-dzn/model.mzn lbbd-datasets/sscplp/trucks-dzn/p13-l100-c150-uncorrelated.dzn
source = [12, 12, 11, 11, 12, 14, 11, 9, 6, 1, 5, 14, 9, 1, 5, 11, 14, 12, 1, 9, 12, 5, 6, 12, 11, 5, 1, 11, 6, 14]
open = [true, false, false, false, true, true, false, false, true, false, true, true, false, true, false]
trucks_used = [1, 0, 0, 0, 1, 1, 0, 0, 1, 0, 2, 2, 0, 1, 0]
truck_assigned = [1, 1, 1, 1, 1, 1, 1, 1, 1, 1, 1, 1, 1, 1, 1, 1, 1, 2, 1, 1, 2, 1, 1, 1, 2, 1, 1, 1, 1, 1]
obj = 4652
----------
source = [12, 12, 11, 11, 12, 11, 11, 9, 4, 1, 5, 4, 9, 1, 5, 11, 12, 1, 1, 9, 12, 5, 12, 12, 11, 1, 1, 11, 5, 4]
open = [true, false, false, true, true, false, false, false, true, false, true, true, false, false, false]
trucks_used = [2, 0, 0, 1, 1, 0, 0, 0, 1, 0, 2, 2, 0, 0, 0]
truck_assigned = [1, 1, 1, 1, 1, 1, 2, 1, 1, 1, 1, 1, 1, 2, 1, 1, 1, 1, 1, 1, 2, 1, 1, 1, 2, 1, 2, 1, 1, 1]
obj = 4251
----------
source = [12, 12, 11, 11, 12, 11, 6, 9, 11, 1, 5, 6, 9, 1, 5, 11, 12, 6, 1, 9, 1, 5, 6, 12, 11, 1, 1, 11, 6, 5]
open = [true, false, false, false, true, true, false, false, true, false, true, true, false, false, false]
trucks_used = [2, 0, 0, 0, 1, 1, 0, 0, 1, 0, 2, 1, 0, 0, 0]
truck_assigned = [1, 1, 1, 1, 1, 2, 1, 1, 2, 1, 1, 1, 1, 2, 1, 1, 1, 1, 1, 1, 2, 1, 1, 1, 2, 1, 2, 1, 1, 1]
obj = 4242
----------
source = [12, 4, 11, 11, 12, 11, 11, 9, 4, 1, 5, 11, 9, 1, 5, 11, 12, 1, 1, 9, 12, 5, 11, 12, 12, 1, 1, 11, 5, 4]
open = [true, false, false, true, true, false, false, false, true, false, true, true, false, false, false]
trucks_used = [2, 0, 0, 1, 1, 0, 0, 0, 1, 0, 2, 2, 0, 0, 0]
truck_assigned = [1, 1, 1, 2, 2, 2, 1, 1, 1, 1, 1, 1, 1, 2, 1, 1, 1, 1, 1, 1, 2, 1, 2, 1, 1, 1, 2, 1, 1, 1]
obj = 4174
----------
source = [12, 4, 11, 11, 12, 11, 11, 9, 4, 1, 5, 11, 9, 1, 12, 12, 12, 1, 1, 9, 1, 1, 11, 12, 11, 5, 1, 11, 5, 4]
open = [true, false, false, true, true, false, false, false, true, false, true, true, false, false, false]
trucks_used = [2, 0, 0, 1, 1, 0, 0, 0, 1, 0, 2, 1, 0, 0, 0]
truck_assigned = [1, 1, 1, 1, 1, 2, 1, 1, 1, 1, 1, 1, 1, 2, 1, 1, 1, 1, 1, 1, 2, 1, 2, 1, 1, 1, 2, 2, 1, 1]
obj = 4108
----------
source = [12, 4, 11, 11, 12, 11, 11, 9, 4, 1, 5, 1, 9, 1, 12, 12, 12, 1, 1, 9, 1, 5, 11, 12, 11, 5, 1, 11, 5, 4]
open = [true, false, false, true, true, false, false, false, true, false, true, true, false, false, false]
trucks_used = [2, 0, 0, 1, 1, 0, 0, 0, 1, 0, 2, 1, 0, 0, 0]
truck_assigned = [1, 1, 2, 1, 1, 1, 1, 1, 1, 1, 1, 2, 1, 1, 1, 1, 1, 1, 1, 1, 2, 1, 2, 1, 1, 1, 2, 2, 1, 1]
obj = 4087
----------
source = [10, 9, 5, 11, 6, 11, 11, 9, 11, 1, 5, 1, 9, 1, 10, 10, 6, 1, 1, 10, 1, 6, 6, 11, 11, 5, 1, 11, 6, 5]
open = [true, false, false, false, true, true, false, false, true, true, true, false, false, false, false]
trucks_used = [2, 0, 0, 0, 1, 1, 0, 0, 1, 1, 2, 0, 0, 0, 0]
truck_assigned = [1, 1, 1, 1, 1, 1, 1, 1, 2, 1, 1, 2, 1, 1, 1, 1, 1, 1, 1, 1, 2, 1, 1, 2, 1, 1, 2, 1, 1, 1]
obj = 4062
----------
source = [10, 9, 11, 11, 6, 11, 10, 9, 11, 1, 5, 1, 9, 1, 5, 10, 6, 1, 1, 10, 1, 6, 6, 11, 11, 5, 1, 11, 6, 5]
open = [true, false, false, false, true, true, false, false, true, true, true, false, false, false, false]
trucks_used = [2, 0, 0, 0, 1, 1, 0, 0, 1, 1, 2, 0, 0, 0, 0]
truck_assigned = [1, 1, 2, 1, 1, 1, 1, 1, 2, 1, 1, 2, 1, 1, 1, 1, 1, 1, 1, 1, 2, 1, 1, 2, 1, 1, 2, 1, 1, 1]
obj = 4040
----------
source = [10, 1, 11, 11, 6, 11, 10, 9, 11, 1, 5, 11, 9, 1, 5, 10, 6, 1, 1, 9, 1, 6, 6, 11, 11, 5, 1, 11, 6, 5]
open = [true, false, false, false, true, true, false, false, true, true, true, false, false, false, false]
trucks_used = [2, 0, 0, 0, 1, 1, 0, 0, 1, 1, 2, 0, 0, 0, 0]
truck_assigned = [1, 2, 2, 1, 1, 1, 1, 1, 2, 1, 1, 1, 1, 1, 1, 1, 1, 1, 1, 1, 2, 1, 1, 2, 1, 1, 2, 1, 1, 1]
obj = 4031
----------
source = [10, 1, 11, 11, 6, 11, 10, 9, 11, 1, 5, 11, 9, 1, 5, 11, 6, 1, 1, 9, 1, 6, 6, 11, 10, 5, 1, 11, 6, 5]
open = [true, false, false, false, true, true, false, false, true, true, true, false, false, false, false]
trucks_used = [2, 0, 0, 0, 1, 1, 0, 0, 1, 1, 2, 0, 0, 0, 0]
truck_assigned = [1, 2, 2, 1, 1, 2, 1, 1, 2, 1, 1, 1, 1, 1, 1, 1, 1, 2, 1, 1, 2, 1, 1, 1, 1, 1, 1, 2, 1, 1]
obj = 3986
----------
source = [1, 4, 11, 11, 6, 11, 4, 9, 11, 1, 5, 11, 9, 1, 5, 11, 6, 6, 1, 9, 1, 5, 6, 11, 6, 1, 4, 11, 5, 4]
open = [true, false, false, true, true, true, false, false, true, false, true, false, false, false, false]
trucks_used = [2, 0, 0, 1, 1, 1, 0, 0, 1, 0, 2, 0, 0, 0, 0]
truck_assigned = [2, 1, 1, 2, 1, 2, 1, 1, 2, 1, 1, 1, 1, 1, 1, 1, 1, 1, 2, 1, 1, 1, 1, 1, 1, 2, 1, 2, 1, 1]
obj = 3982
----------
source = [5, 4, 11, 11, 6, 11, 4, 9, 11, 1, 5, 11, 9, 1, 5, 11, 6, 6, 1, 9, 1, 1, 6, 11, 6, 1, 4, 11, 5, 4]
open = [true, false, false, true, true, true, false, false, true, false, true, false, false, false, false]
trucks_used = [2, 0, 0, 1, 1, 1, 0, 0, 1, 0, 2, 0, 0, 0, 0]
truck_assigned = [1, 1, 1, 1, 1, 1, 1, 1, 2, 1, 1, 1, 1, 1, 1, 2, 1, 1, 2, 1, 2, 1, 1, 2, 1, 2, 1, 1, 1, 1]
obj = 3978
----------
