+ /usr/bin/timeout 600 /usr/bin/time -v mzn-grb -a lbbd-datasets/Rabadi-2006/dzn-p-dominant/model.mzn lbbd-datasets/Rabadi-2006/dzn-p-dominant/9on4Rp50Rs50_12Ameer.dzn
assign = array1d(1..13 ,[3, 2, 4, 3, 1, 4, 1, 3, 2, 1, 2, 3, 4]);
next = array1d(1..13 ,[8, 9, 6, 1, 7, 13, 10, 12, 11, 2, 4, 3, 5]);
makespan = 532;
----------
assign = array1d(1..13 ,[3, 2, 4, 3, 1, 4, 1, 3, 2, 1, 2, 3, 4]);
next = array1d(1..13 ,[12, 9, 6, 1, 7, 13, 10, 4, 11, 2, 8, 3, 5]);
makespan = 493;
----------
assign = array1d(1..13 ,[3, 2, 4, 3, 1, 4, 1, 3, 2, 1, 2, 3, 4]);
next = array1d(1..13 ,[12, 9, 6, 1, 7, 13, 10, 4, 11, 2, 8, 3, 5]);
makespan = 493;
----------
==========
	Command being timed: "mzn-grb -a lbbd-datasets/Rabadi-2006/dzn-p-dominant/model.mzn lbbd-datasets/Rabadi-2006/dzn-p-dominant/9on4Rp50Rs50_12Ameer.dzn"
	User time (seconds): 346.20
	System time (seconds): 0.25
	Percent of CPU this job got: 99%
	Elapsed (wall clock) time (h:mm:ss or m:ss): 5:47.10
	Average shared text size (kbytes): 0
	Average unshared data size (kbytes): 0
	Average stack size (kbytes): 0
	Average total size (kbytes): 0
	Maximum resident set size (kbytes): 354480
	Average resident set size (kbytes): 0
	Major (requiring I/O) page faults: 0
	Minor (reclaiming a frame) page faults: 63957
	Voluntary context switches: 6
	Involuntary context switches: 512
	Swaps: 0
	File system inputs: 0
	File system outputs: 24
	Socket messages sent: 0
	Socket messages received: 0
	Signals delivered: 0
	Page size (bytes): 4096
	Exit status: 0
