+ /usr/bin/timeout 600 /usr/bin/time -v mzn-grb -a lbbd-datasets/sscplp/trucks-dzn/model.mzn lbbd-datasets/sscplp/trucks-dzn/p20-l40-c50-correlated.dzn
source = [15, 7, 4, 20, 7, 2, 7, 1, 20, 16, 10, 4, 1, 5, 20, 17, 5, 16, 5, 16, 6, 10, 15, 1, 10, 5, 6, 16, 2, 2, 16, 10, 7, 20, 20, 20, 16, 5, 2, 17]
open = [true, true, false, true, true, true, true, false, false, true, false, false, false, false, true, true, true, false, false, true]
trucks_used = [2, 2, 0, 2, 2, 2, 2, 0, 0, 2, 0, 0, 0, 0, 2, 3, 1, 0, 0, 3]
truck_assigned = [1, 1, 2, 3, 2, 1, 2, 1, 2, 2, 1, 1, 1, 1, 2, 1, 2, 2, 1, 1, 2, 2, 2, 2, 2, 1, 1, 1, 1, 2, 3, 1, 1, 1, 3, 1, 3, 2, 2, 1]
obj = 17735
----------
source = [6, 7, 17, 20, 7, 4, 7, 1, 20, 16, 10, 4, 1, 5, 20, 17, 5, 16, 5, 10, 16, 20, 2, 1, 10, 5, 10, 16, 2, 15, 16, 10, 2, 20, 2, 20, 7, 5, 2, 6]
open = [true, true, false, true, true, true, true, false, false, true, false, false, false, false, true, true, true, false, false, true]
trucks_used = [2, 3, 0, 2, 2, 1, 2, 0, 0, 3, 0, 0, 0, 0, 1, 3, 1, 0, 0, 3]
truck_assigned = [1, 2, 1, 3, 2, 2, 1, 1, 2, 3, 1, 1, 1, 1, 3, 1, 2, 2, 1, 2, 1, 1, 2, 2, 3, 1, 1, 2, 2, 1, 3, 2, 3, 1, 1, 2, 1, 2, 1, 1]
obj = 17695
----------
source = [6, 10, 17, 20, 7, 2, 7, 1, 20, 16, 10, 7, 1, 5, 20, 17, 5, 16, 5, 16, 16, 20, 2, 20, 10, 5, 4, 16, 2, 15, 10, 10, 7, 1, 4, 20, 7, 5, 2, 6]
open = [true, true, false, true, true, true, true, false, false, true, false, false, false, false, true, true, true, false, false, true]
trucks_used = [2, 2, 0, 2, 2, 1, 3, 0, 0, 3, 0, 0, 0, 0, 1, 3, 1, 0, 0, 3]
truck_assigned = [1, 3, 1, 3, 3, 2, 1, 2, 1, 3, 1, 3, 1, 1, 2, 1, 2, 3, 1, 2, 1, 3, 1, 1, 2, 1, 2, 2, 1, 1, 1, 2, 2, 1, 1, 2, 1, 2, 2, 1]
obj = 17687
----------
source = [6, 10, 17, 20, 7, 2, 7, 1, 20, 16, 10, 7, 1, 5, 20, 17, 5, 16, 5, 16, 16, 20, 2, 1, 10, 5, 4, 16, 2, 15, 10, 10, 7, 20, 4, 20, 7, 5, 2, 6]
open = [true, true, false, true, true, true, true, false, false, true, false, false, false, false, true, true, true, false, false, true]
trucks_used = [2, 2, 0, 2, 2, 1, 3, 0, 0, 3, 0, 0, 0, 0, 1, 3, 1, 0, 0, 3]
truck_assigned = [1, 3, 1, 2, 3, 2, 1, 2, 1, 3, 1, 1, 1, 1, 3, 1, 2, 3, 1, 1, 2, 2, 1, 1, 2, 1, 2, 1, 1, 1, 1, 2, 2, 3, 1, 1, 3, 2, 2, 1]
obj = 17678
----------
source = [6, 10, 17, 20, 7, 17, 7, 1, 20, 16, 10, 4, 1, 5, 20, 2, 6, 16, 5, 16, 16, 20, 17, 1, 10, 5, 5, 16, 2, 2, 10, 10, 7, 4, 20, 20, 4, 5, 2, 7]
open = [true, true, false, true, true, true, true, false, false, true, false, false, false, false, false, true, true, false, false, true]
trucks_used = [2, 2, 0, 3, 2, 1, 3, 0, 0, 3, 0, 0, 0, 0, 0, 3, 2, 0, 0, 3]
truck_assigned = [1, 3, 2, 3, 3, 1, 1, 1, 2, 3, 1, 3, 1, 1, 1, 2, 1, 3, 2, 1, 2, 2, 2, 2, 1, 2, 1, 1, 2, 1, 2, 2, 2, 1, 1, 3, 2, 2, 1, 1]
obj = 17076
----------
source = [6, 7, 17, 20, 7, 17, 7, 1, 20, 16, 10, 4, 1, 5, 20, 2, 5, 16, 5, 16, 16, 20, 17, 1, 10, 5, 10, 16, 2, 2, 10, 10, 7, 4, 20, 20, 4, 5, 2, 6]
open = [true, true, false, true, true, true, true, false, false, true, false, false, false, false, false, true, true, false, false, true]
trucks_used = [2, 2, 0, 3, 2, 1, 3, 0, 0, 3, 0, 0, 0, 0, 0, 3, 2, 0, 0, 3]
truck_assigned = [1, 1, 2, 3, 3, 1, 1, 1, 2, 3, 3, 3, 2, 1, 3, 1, 1, 3, 2, 1, 2, 2, 2, 2, 2, 2, 1, 1, 2, 1, 3, 2, 2, 1, 1, 1, 2, 2, 2, 1]
obj = 17063
----------
source = [6, 10, 17, 20, 7, 17, 7, 1, 20, 16, 5, 7, 1, 5, 20, 2, 5, 16, 15, 16, 16, 20, 17, 1, 10, 5, 10, 16, 2, 15, 10, 10, 7, 20, 2, 20, 7, 5, 2, 6]
open = [true, true, false, false, true, true, true, false, false, true, false, false, false, false, true, true, true, false, false, true]
trucks_used = [2, 2, 0, 0, 2, 1, 3, 0, 0, 3, 0, 0, 0, 0, 2, 3, 2, 0, 0, 3]
truck_assigned = [1, 1, 2, 3, 3, 1, 1, 1, 2, 3, 1, 1, 1, 1, 3, 1, 2, 3, 2, 1, 2, 2, 2, 2, 2, 2, 1, 1, 2, 1, 3, 2, 2, 1, 1, 1, 3, 2, 2, 1]
obj = 16437
----------
source = [6, 10, 17, 20, 7, 17, 7, 20, 20, 16, 1, 7, 1, 5, 20, 2, 5, 15, 15, 16, 16, 10, 17, 1, 10, 5, 5, 16, 2, 2, 16, 10, 7, 1, 20, 20, 7, 5, 2, 6]
open = [true, true, false, false, true, true, true, false, false, true, false, false, false, false, true, true, true, false, false, true]
trucks_used = [2, 2, 0, 0, 2, 1, 3, 0, 0, 2, 0, 0, 0, 0, 1, 3, 2, 0, 0, 4]
truck_assigned = [1, 1, 2, 4, 3, 2, 1, 1, 2, 3, 2, 3, 2, 1, 3, 2, 2, 1, 1, 1, 2, 1, 1, 1, 2, 2, 1, 1, 2, 1, 3, 2, 2, 1, 3, 1, 1, 2, 1, 1]
obj = 16390
----------
source = [6, 10, 17, 20, 7, 17, 7, 20, 1, 16, 1, 7, 1, 5, 20, 2, 5, 15, 15, 16, 16, 10, 17, 20, 10, 5, 5, 16, 2, 2, 16, 10, 7, 1, 20, 20, 7, 5, 2, 6]
open = [true, true, false, false, true, true, true, false, false, true, false, false, false, false, true, true, true, false, false, true]
trucks_used = [2, 2, 0, 0, 2, 1, 3, 0, 0, 2, 0, 0, 0, 0, 1, 3, 2, 0, 0, 3]
truck_assigned = [1, 1, 2, 2, 3, 2, 3, 1, 1, 1, 2, 1, 2, 1, 3, 2, 2, 1, 1, 3, 2, 1, 1, 2, 2, 2, 1, 3, 2, 1, 1, 2, 2, 1, 3, 1, 1, 2, 1, 1]
obj = 16349
----------
source = [6, 10, 17, 20, 7, 17, 7, 20, 20, 16, 1, 7, 1, 5, 20, 2, 5, 15, 15, 16, 16, 10, 17, 1, 10, 5, 5, 16, 2, 2, 16, 10, 7, 1, 20, 20, 7, 5, 2, 6]
open = [true, true, false, false, true, true, true, false, false, true, false, false, false, false, true, true, true, false, false, true]
trucks_used = [2, 2, 0, 0, 2, 1, 3, 0, 0, 2, 0, 0, 0, 0, 1, 3, 2, 0, 0, 3]
truck_assigned = [1, 1, 2, 1, 2, 2, 2, 2, 3, 1, 2, 1, 2, 1, 3, 1, 2, 1, 1, 3, 2, 1, 1, 1, 2, 2, 1, 3, 2, 1, 1, 2, 3, 1, 1, 2, 1, 2, 2, 1]
obj = 16340
----------
source = [6, 10, 5, 20, 7, 2, 7, 20, 20, 16, 1, 7, 1, 1, 20, 17, 5, 15, 15, 16, 16, 10, 17, 1, 10, 5, 5, 16, 2, 2, 16, 10, 7, 20, 2, 20, 7, 5, 2, 6]
open = [true, true, false, false, true, true, true, false, false, true, false, false, false, false, true, true, true, false, false, true]
trucks_used = [2, 3, 0, 0, 2, 1, 3, 0, 0, 2, 0, 0, 0, 0, 1, 3, 1, 0, 0, 3]
truck_assigned = [1, 2, 1, 1, 2, 2, 2, 2, 3, 1, 2, 1, 2, 1, 3, 1, 2, 1, 1, 3, 2, 1, 1, 1, 2, 2, 1, 3, 1, 3, 1, 1, 3, 1, 2, 2, 1, 2, 3, 1]
obj = 16331
----------
