+ /usr/bin/timeout 600 /usr/bin/time -v mzn-grb -a lbbd-datasets/sscplp/trucks-dzn/model.mzn lbbd-datasets/sscplp/trucks-dzn/p13-l50-c150-correlated.dzn
source = [12, 5, 11, 1, 15, 6, 6, 9, 4, 10, 5, 10, 15, 1, 5, 11, 14, 12, 1, 14, 15, 14, 6, 12, 10, 9, 4, 11, 5, 4]
open = [true, false, false, true, true, true, false, false, true, true, true, true, false, true, true]
trucks_used = [1, 0, 0, 2, 2, 2, 0, 0, 1, 2, 2, 1, 0, 1, 2]
truck_assigned = [1, 1, 2, 1, 1, 2, 2, 1, 2, 1, 2, 2, 2, 1, 1, 2, 1, 1, 1, 1, 1, 1, 1, 1, 2, 1, 1, 1, 2, 2]
obj = 6347
----------
source = [12, 5, 11, 1, 15, 6, 6, 9, 4, 10, 5, 1, 15, 1, 5, 11, 14, 12, 1, 14, 15, 1, 6, 12, 10, 9, 4, 11, 5, 14]
open = [true, false, false, true, true, true, false, false, true, true, true, true, false, true, true]
trucks_used = [2, 0, 0, 1, 2, 2, 0, 0, 1, 1, 2, 1, 0, 1, 2]
truck_assigned = [1, 2, 2, 1, 1, 2, 2, 1, 1, 1, 2, 2, 2, 1, 1, 1, 1, 1, 1, 1, 1, 2, 1, 1, 1, 1, 1, 1, 2, 1]
obj = 6206
----------
source = [12, 5, 11, 11, 12, 6, 11, 9, 6, 1, 5, 1, 4, 1, 5, 11, 14, 12, 1, 14, 12, 1, 6, 12, 12, 9, 4, 12, 5, 14]
open = [true, false, false, true, true, true, false, false, true, false, true, true, false, true, false]
trucks_used = [2, 0, 0, 1, 2, 2, 0, 0, 1, 0, 2, 4, 0, 1, 0]
truck_assigned = [1, 2, 2, 1, 3, 2, 2, 1, 1, 1, 2, 2, 1, 2, 1, 1, 1, 2, 2, 1, 4, 1, 1, 1, 2, 1, 1, 1, 2, 1]
obj = 5682
----------
source = [12, 5, 11, 11, 12, 11, 11, 9, 4, 1, 5, 1, 4, 1, 5, 11, 14, 12, 1, 14, 12, 14, 14, 12, 12, 9, 1, 12, 5, 14]
open = [true, false, false, true, true, false, false, false, true, false, true, true, false, true, false]
trucks_used = [2, 0, 0, 1, 2, 0, 0, 0, 1, 0, 3, 3, 0, 2, 0]
truck_assigned = [1, 1, 3, 1, 3, 1, 2, 1, 1, 1, 1, 1, 1, 2, 1, 2, 2, 2, 1, 1, 3, 1, 1, 1, 2, 1, 2, 1, 2, 2]
obj = 5182
----------
source = [12, 5, 11, 11, 12, 14, 11, 9, 4, 1, 5, 1, 4, 1, 12, 11, 14, 12, 1, 14, 12, 14, 11, 12, 12, 9, 1, 11, 5, 4]
open = [true, false, false, true, true, false, false, false, true, false, true, true, false, true, false]
trucks_used = [2, 0, 0, 1, 1, 0, 0, 0, 1, 0, 4, 3, 0, 1, 0]
truck_assigned = [1, 1, 3, 1, 2, 1, 2, 1, 1, 1, 1, 1, 1, 2, 2, 2, 1, 1, 1, 1, 3, 1, 4, 1, 3, 1, 2, 1, 1, 1]
obj = 5048
----------
source = [12, 12, 6, 1, 12, 14, 4, 9, 4, 1, 5, 10, 9, 1, 5, 10, 14, 12, 1, 14, 12, 14, 6, 12, 12, 5, 1, 12, 6, 5]
open = [true, false, false, true, true, true, false, false, true, true, false, true, false, true, false]
trucks_used = [2, 0, 0, 1, 2, 1, 0, 0, 1, 1, 0, 3, 0, 1, 0]
truck_assigned = [2, 2, 1, 2, 1, 1, 1, 1, 1, 1, 2, 1, 1, 2, 2, 1, 1, 2, 2, 1, 3, 1, 1, 3, 1, 2, 1, 3, 1, 1]
obj = 4916
----------
source = [12, 12, 6, 1, 12, 14, 4, 9, 4, 1, 5, 1, 9, 1, 12, 1, 14, 12, 1, 9, 12, 6, 6, 12, 5, 5, 5, 12, 6, 14]
open = [true, false, false, true, true, true, false, false, true, false, false, true, false, true, false]
trucks_used = [3, 0, 0, 1, 2, 2, 0, 0, 1, 0, 0, 3, 0, 1, 0]
truck_assigned = [2, 2, 2, 2, 1, 1, 1, 1, 1, 1, 2, 3, 1, 2, 1, 1, 1, 2, 2, 1, 3, 1, 2, 3, 1, 2, 1, 3, 1, 1]
obj = 4815
----------
source = [12, 12, 6, 1, 12, 14, 4, 9, 4, 1, 5, 1, 9, 1, 5, 1, 14, 12, 1, 9, 12, 5, 6, 12, 12, 5, 6, 12, 6, 14]
open = [true, false, false, true, true, true, false, false, true, false, false, true, false, true, false]
trucks_used = [3, 0, 0, 1, 2, 2, 0, 0, 1, 0, 0, 3, 0, 1, 0]
truck_assigned = [2, 2, 2, 2, 1, 1, 1, 1, 1, 1, 2, 3, 1, 2, 1, 1, 1, 2, 2, 1, 3, 1, 1, 3, 1, 2, 2, 3, 1, 1]
obj = 4796
----------
source = [12, 12, 6, 1, 12, 14, 4, 9, 4, 1, 5, 1, 9, 1, 5, 1, 14, 12, 1, 14, 12, 14, 6, 12, 12, 5, 6, 12, 6, 5]
open = [true, false, false, true, true, true, false, false, true, false, false, true, false, true, false]
trucks_used = [3, 0, 0, 1, 2, 2, 0, 0, 1, 0, 0, 3, 0, 1, 0]
truck_assigned = [2, 2, 2, 2, 1, 1, 1, 1, 1, 1, 2, 3, 1, 2, 1, 1, 1, 2, 2, 1, 3, 1, 1, 3, 1, 2, 2, 3, 1, 1]
obj = 4776
----------
source = [12, 12, 5, 1, 12, 14, 6, 9, 4, 1, 5, 1, 4, 1, 5, 1, 14, 12, 9, 14, 12, 14, 6, 12, 12, 6, 1, 12, 6, 4]
open = [true, false, false, true, true, true, false, false, true, false, false, true, false, true, false]
trucks_used = [3, 0, 0, 1, 1, 2, 0, 0, 1, 0, 0, 3, 0, 1, 0]
truck_assigned = [2, 2, 1, 1, 1, 1, 2, 1, 1, 1, 1, 3, 1, 2, 1, 3, 1, 2, 1, 1, 3, 1, 1, 3, 1, 2, 2, 3, 1, 1]
obj = 4641
----------
source = [12, 4, 5, 1, 12, 14, 6, 9, 9, 1, 5, 4, 4, 1, 5, 1, 14, 12, 1, 14, 12, 14, 6, 12, 12, 6, 4, 12, 6, 4]
open = [true, false, false, true, true, true, false, false, true, false, false, true, false, true, false]
trucks_used = [2, 0, 0, 2, 1, 2, 0, 0, 1, 0, 0, 3, 0, 1, 0]
truck_assigned = [2, 2, 1, 2, 1, 1, 2, 1, 1, 1, 1, 1, 1, 2, 1, 1, 1, 2, 2, 1, 3, 1, 1, 3, 1, 2, 2, 3, 1, 1]
obj = 4629
----------
source = [12, 4, 5, 1, 6, 1, 6, 9, 12, 10, 5, 4, 4, 1, 5, 10, 9, 12, 1, 10, 12, 1, 6, 12, 10, 6, 4, 12, 6, 4]
open = [true, false, false, true, true, true, false, false, true, true, false, true, false, false, false]
trucks_used = [2, 0, 0, 2, 1, 2, 0, 0, 1, 2, 0, 2, 0, 0, 0]
truck_assigned = [1, 2, 1, 1, 2, 2, 1, 1, 1, 1, 1, 1, 1, 2, 1, 2, 1, 1, 1, 1, 2, 1, 2, 2, 2, 1, 2, 2, 2, 1]
obj = 4627
----------
source = [12, 5, 10, 1, 6, 4, 6, 9, 12, 10, 5, 10, 9, 1, 5, 1, 4, 12, 1, 9, 12, 6, 6, 12, 10, 1, 5, 12, 6, 5]
open = [true, false, false, true, true, true, false, false, true, true, false, true, false, false, false]
trucks_used = [2, 0, 0, 1, 2, 2, 0, 0, 1, 2, 0, 2, 0, 0, 0]
truck_assigned = [1, 2, 1, 1, 1, 1, 2, 1, 1, 1, 1, 2, 1, 1, 1, 2, 1, 1, 1, 1, 2, 2, 1, 2, 2, 2, 1, 2, 1, 2]
obj = 4610
----------
