+ /usr/bin/timeout 600 /usr/bin/time -v mzn-grb -a lbbd-datasets/Rabadi-2006/dzn-p-dominant/model.mzn lbbd-datasets/Rabadi-2006/dzn-p-dominant/11on2Rp50Rs50_15Ameer.dzn
assign = array1d(1..13 ,[1, 1, 1, 2, 1, 2, 1, 1, 1, 1, 2, 1, 2]);
next = array1d(1..13 ,[10, 12, 9, 11, 1, 4, 8, 2, 7, 3, 13, 6, 5]);
makespan = 1768;
----------
assign = array1d(1..13 ,[2, 2, 2, 1, 1, 1, 1, 2, 2, 2, 2, 1, 2]);
next = array1d(1..13 ,[8, 3, 11, 12, 4, 7, 5, 10, 1, 2, 13, 9, 6]);
makespan = 1508;
----------
assign = array1d(1..13 ,[2, 2, 2, 2, 1, 2, 2, 1, 1, 1, 2, 1, 2]);
next = array1d(1..13 ,[13, 3, 4, 7, 12, 2, 11, 9, 5, 8, 1, 6, 10]);
makespan = 1407;
----------
assign = array1d(1..13 ,[2, 1, 1, 1, 1, 2, 2, 1, 1, 1, 2, 1, 2]);
next = array1d(1..13 ,[13, 8, 4, 9, 12, 7, 11, 10, 2, 5, 1, 6, 3]);
makespan = 1400;
----------
assign = array1d(1..13 ,[2, 1, 1, 1, 1, 2, 2, 2, 1, 1, 2, 1, 2]);
next = array1d(1..13 ,[13, 3, 10, 9, 12, 7, 11, 6, 2, 5, 1, 8, 4]);
makespan = 1155;
----------
assign = array1d(1..13 ,[2, 1, 1, 1, 2, 2, 2, 2, 1, 1, 2, 1, 2]);
next = array1d(1..13 ,[13, 3, 4, 12, 8, 7, 11, 6, 2, 9, 1, 5, 10]);
makespan = 1145;
----------
assign = array1d(1..13 ,[2, 1, 1, 1, 1, 2, 2, 2, 2, 1, 2, 1, 2]);
next = array1d(1..13 ,[13, 10, 4, 12, 2, 9, 11, 6, 1, 3, 8, 7, 5]);
makespan = 1133;
----------
assign = array1d(1..13 ,[2, 2, 1, 1, 1, 2, 2, 2, 1, 1, 2, 1, 2]);
next = array1d(1..13 ,[13, 7, 4, 9, 12, 2, 11, 6, 5, 3, 1, 8, 10]);
makespan = 1126;
----------
assign = array1d(1..13 ,[2, 2, 1, 1, 1, 2, 2, 2, 1, 1, 2, 1, 2]);
next = array1d(1..13 ,[13, 7, 4, 9, 12, 2, 11, 6, 5, 3, 1, 8, 10]);
makespan = 1126;
----------
==========
	Command being timed: "mzn-grb -a lbbd-datasets/Rabadi-2006/dzn-p-dominant/model.mzn lbbd-datasets/Rabadi-2006/dzn-p-dominant/11on2Rp50Rs50_15Ameer.dzn"
	User time (seconds): 10.47
	System time (seconds): 0.06
	Percent of CPU this job got: 99%
	Elapsed (wall clock) time (h:mm:ss or m:ss): 0:10.56
	Average shared text size (kbytes): 0
	Average unshared data size (kbytes): 0
	Average stack size (kbytes): 0
	Average total size (kbytes): 0
	Maximum resident set size (kbytes): 119728
	Average resident set size (kbytes): 0
	Major (requiring I/O) page faults: 0
	Minor (reclaiming a frame) page faults: 11061
	Voluntary context switches: 6
	Involuntary context switches: 20
	Swaps: 0
	File system inputs: 0
	File system outputs: 8
	Socket messages sent: 0
	Socket messages received: 0
	Signals delivered: 0
	Page size (bytes): 4096
	Exit status: 0
