+ /usr/bin/timeout 600 /usr/bin/time -v mzn-grb -a lbbd-datasets/Rabadi-2006/dzn-balanced/model.mzn lbbd-datasets/Rabadi-2006/dzn-balanced/11on8Rp50Rs50_15Ameer.dzn
assign = array1d(1..19 ,[5, 7, 3, 2, 7, 6, 4, 8, 3, 2, 1, 1, 2, 3, 4, 5, 6, 7, 8]);
next = array1d(1..19 ,[16, 5, 14, 10, 18, 17, 15, 19, 3, 13, 12, 4, 9, 7, 1, 6, 2, 8, 11]);
makespan = 180;
----------
assign = array1d(1..19 ,[6, 5, 1, 7, 7, 3, 6, 1, 2, 8, 4, 1, 2, 3, 4, 5, 6, 7, 8]);
next = array1d(1..19 ,[7, 16, 12, 18, 4, 14, 17, 3, 13, 19, 15, 9, 6, 11, 2, 1, 5, 10, 8]);
makespan = 166;
----------
assign = array1d(1..19 ,[6, 3, 8, 7, 7, 2, 6, 4, 1, 5, 1, 1, 2, 3, 4, 5, 6, 7, 8]);
next = array1d(1..19 ,[17, 14, 19, 18, 4, 13, 1, 15, 11, 16, 12, 6, 2, 8, 10, 7, 5, 3, 9]);
makespan = 164;
----------
assign = array1d(1..19 ,[6, 3, 8, 7, 7, 2, 6, 4, 1, 5, 1, 1, 2, 3, 4, 5, 6, 7, 8]);
next = array1d(1..19 ,[17, 14, 19, 18, 4, 13, 1, 15, 11, 16, 12, 6, 2, 8, 10, 7, 5, 3, 9]);
makespan = 164;
----------
==========
	Command being timed: "mzn-grb -a lbbd-datasets/Rabadi-2006/dzn-balanced/model.mzn lbbd-datasets/Rabadi-2006/dzn-balanced/11on8Rp50Rs50_15Ameer.dzn"
	User time (seconds): 16.21
	System time (seconds): 0.13
	Percent of CPU this job got: 99%
	Elapsed (wall clock) time (h:mm:ss or m:ss): 0:16.38
	Average shared text size (kbytes): 0
	Average unshared data size (kbytes): 0
	Average stack size (kbytes): 0
	Average total size (kbytes): 0
	Maximum resident set size (kbytes): 319376
	Average resident set size (kbytes): 0
	Major (requiring I/O) page faults: 0
	Minor (reclaiming a frame) page faults: 31544
	Voluntary context switches: 6
	Involuntary context switches: 21
	Swaps: 0
	File system inputs: 0
	File system outputs: 8
	Socket messages sent: 0
	Socket messages received: 0
	Signals delivered: 0
	Page size (bytes): 4096
	Exit status: 0
