+ /usr/bin/timeout 600 /usr/bin/time -v mzn-grb -a lbbd-datasets/Rabadi-2006/dzn-balanced/model.mzn lbbd-datasets/Rabadi-2006/dzn-balanced/11on4Rp50Rs50_14Ameer.dzn
assign = array1d(1..15 ,[3, 2, 2, 1, 3, 4, 3, 4, 2, 1, 4, 1, 2, 3, 4]);
next = array1d(1..15 ,[5, 13, 9, 10, 7, 11, 14, 15, 2, 12, 8, 3, 1, 6, 4]);
makespan = 339;
----------
assign = array1d(1..15 ,[3, 2, 3, 1, 3, 4, 2, 4, 2, 1, 4, 1, 2, 3, 4]);
next = array1d(1..15 ,[3, 9, 5, 12, 14, 11, 2, 6, 13, 4, 15, 7, 1, 8, 10]);
makespan = 334;
----------
assign = array1d(1..15 ,[3, 2, 3, 1, 4, 4, 3, 1, 4, 2, 2, 1, 2, 3, 4]);
next = array1d(1..15 ,[3, 13, 7, 12, 9, 5, 14, 4, 15, 11, 2, 10, 1, 6, 8]);
makespan = 320;
----------
assign = array1d(1..15 ,[3, 2, 3, 2, 4, 1, 1, 4, 4, 1, 3, 1, 2, 3, 4]);
next = array1d(1..15 ,[3, 13, 14, 2, 15, 7, 10, 9, 5, 12, 1, 4, 11, 8, 6]);
makespan = 314;
----------
assign = array1d(1..15 ,[2, 2, 3, 3, 1, 1, 3, 4, 2, 4, 4, 1, 2, 3, 4]);
next = array1d(1..15 ,[9, 13, 7, 14, 12, 5, 4, 15, 2, 11, 8, 1, 3, 10, 6]);
makespan = 313;
----------
assign = array1d(1..15 ,[2, 2, 3, 3, 1, 4, 3, 1, 2, 4, 4, 1, 2, 3, 4]);
next = array1d(1..15 ,[9, 13, 7, 14, 12, 11, 4, 5, 2, 6, 15, 1, 3, 10, 8]);
makespan = 312;
----------
assign = array1d(1..15 ,[2, 2, 3, 1, 1, 3, 3, 4, 4, 2, 4, 1, 2, 3, 4]);
next = array1d(1..15 ,[2, 10, 7, 5, 12, 14, 6, 9, 15, 13, 8, 1, 3, 11, 4]);
makespan = 310;
----------
assign = array1d(1..15 ,[3, 2, 2, 1, 4, 3, 3, 1, 2, 4, 4, 1, 2, 3, 4]);
next = array1d(1..15 ,[14, 9, 13, 12, 10, 1, 6, 4, 3, 11, 15, 2, 7, 5, 8]);
makespan = 309;
----------
assign = array1d(1..15 ,[2, 2, 3, 1, 4, 3, 3, 1, 2, 4, 4, 1, 2, 3, 4]);
next = array1d(1..15 ,[9, 1, 7, 12, 10, 14, 6, 4, 13, 11, 15, 2, 3, 5, 8]);
makespan = 304;
----------
assign = array1d(1..15 ,[2, 2, 3, 1, 4, 3, 3, 1, 2, 4, 4, 1, 2, 3, 4]);
next = array1d(1..15 ,[9, 1, 7, 12, 10, 14, 6, 4, 13, 11, 15, 2, 3, 5, 8]);
makespan = 304;
----------
==========
	Command being timed: "mzn-grb -a lbbd-datasets/Rabadi-2006/dzn-balanced/model.mzn lbbd-datasets/Rabadi-2006/dzn-balanced/11on4Rp50Rs50_14Ameer.dzn"
	User time (seconds): 261.40
	System time (seconds): 0.12
	Percent of CPU this job got: 99%
	Elapsed (wall clock) time (h:mm:ss or m:ss): 4:22.00
	Average shared text size (kbytes): 0
	Average unshared data size (kbytes): 0
	Average stack size (kbytes): 0
	Average total size (kbytes): 0
	Maximum resident set size (kbytes): 271424
	Average resident set size (kbytes): 0
	Major (requiring I/O) page faults: 0
	Minor (reclaiming a frame) page faults: 31550
	Voluntary context switches: 6
	Involuntary context switches: 476
	Swaps: 0
	File system inputs: 0
	File system outputs: 56
	Socket messages sent: 0
	Socket messages received: 0
	Signals delivered: 0
	Page size (bytes): 4096
	Exit status: 0
