+ /usr/bin/timeout 600 /usr/bin/time -v mzn-grb -a lbbd-datasets/Rabadi-2006/dzn-balanced/model.mzn lbbd-datasets/Rabadi-2006/dzn-balanced/10on8Rp50Rs50_15Ameer.dzn
assign = array1d(1..18 ,[1, 2, 8, 5, 8, 7, 5, 4, 3, 6, 1, 2, 3, 4, 5, 6, 7, 8]);
next = array1d(1..18 ,[11, 12, 18, 7, 3, 17, 15, 14, 13, 16, 2, 9, 8, 4, 10, 6, 5, 1]);
makespan = 189;
----------
assign = array1d(1..18 ,[1, 2, 6, 5, 8, 2, 3, 3, 7, 4, 1, 2, 3, 4, 5, 6, 7, 8]);
next = array1d(1..18 ,[11, 12, 16, 15, 18, 2, 8, 13, 17, 14, 6, 7, 10, 4, 3, 9, 5, 1]);
makespan = 187;
----------
assign = array1d(1..18 ,[1, 7, 6, 5, 8, 2, 4, 3, 7, 4, 1, 2, 3, 4, 5, 6, 7, 8]);
next = array1d(1..18 ,[11, 9, 16, 15, 18, 12, 10, 13, 17, 14, 6, 8, 7, 4, 3, 2, 5, 1]);
makespan = 186;
----------
assign = array1d(1..18 ,[1, 7, 4, 5, 8, 3, 5, 2, 7, 6, 1, 2, 3, 4, 5, 6, 7, 8]);
next = array1d(1..18 ,[11, 9, 14, 7, 18, 13, 15, 12, 17, 16, 8, 6, 3, 4, 10, 2, 5, 1]);
makespan = 181;
----------
assign = array1d(1..18 ,[1, 7, 7, 5, 8, 2, 3, 3, 6, 4, 1, 2, 3, 4, 5, 6, 7, 8]);
next = array1d(1..18 ,[11, 17, 2, 15, 18, 12, 8, 13, 16, 14, 6, 7, 10, 4, 9, 3, 5, 1]);
makespan = 174;
----------
assign = array1d(1..18 ,[5, 7, 7, 2, 3, 8, 3, 1, 6, 4, 1, 2, 3, 4, 5, 6, 7, 8]);
next = array1d(1..18 ,[15, 17, 2, 12, 13, 18, 5, 11, 16, 14, 4, 7, 10, 1, 9, 3, 6, 8]);
makespan = 165;
----------
assign = array1d(1..18 ,[4, 7, 8, 6, 3, 5, 3, 1, 2, 7, 1, 2, 3, 4, 5, 6, 7, 8]);
next = array1d(1..18 ,[14, 10, 18, 16, 13, 15, 5, 11, 12, 17, 9, 7, 1, 6, 4, 2, 3, 8]);
makespan = 159;
----------
assign = array1d(1..18 ,[4, 7, 8, 6, 3, 5, 3, 1, 2, 7, 1, 2, 3, 4, 5, 6, 7, 8]);
next = array1d(1..18 ,[14, 10, 18, 16, 13, 15, 5, 11, 12, 17, 9, 7, 1, 6, 4, 2, 3, 8]);
makespan = 159;
----------
==========
	Command being timed: "mzn-grb -a lbbd-datasets/Rabadi-2006/dzn-balanced/model.mzn lbbd-datasets/Rabadi-2006/dzn-balanced/10on8Rp50Rs50_15Ameer.dzn"
	User time (seconds): 16.01
	System time (seconds): 0.09
	Percent of CPU this job got: 99%
	Elapsed (wall clock) time (h:mm:ss or m:ss): 0:16.14
	Average shared text size (kbytes): 0
	Average unshared data size (kbytes): 0
	Average stack size (kbytes): 0
	Average total size (kbytes): 0
	Maximum resident set size (kbytes): 284096
	Average resident set size (kbytes): 0
	Major (requiring I/O) page faults: 0
	Minor (reclaiming a frame) page faults: 28032
	Voluntary context switches: 6
	Involuntary context switches: 33
	Swaps: 0
	File system inputs: 0
	File system outputs: 8
	Socket messages sent: 0
	Socket messages received: 0
	Signals delivered: 0
	Page size (bytes): 4096
	Exit status: 0
