+ /usr/bin/timeout 600 /usr/bin/time -v mzn-grb -a lbbd-datasets/Rabadi-2006/dzn-balanced/model.mzn lbbd-datasets/Rabadi-2006/dzn-balanced/7on2Rp50Rs50_7Ameer.dzn
assign = array1d(1..9 ,[1, 2, 2, 2, 2, 1, 1, 1, 2]);
next = array1d(1..9 ,[7, 5, 4, 2, 9, 1, 8, 3, 6]);
makespan = 476;
----------
assign = array1d(1..9 ,[1, 2, 1, 2, 1, 2, 2, 1, 2]);
next = array1d(1..9 ,[3, 7, 8, 2, 1, 9, 6, 4, 5]);
makespan = 427;
----------
assign = array1d(1..9 ,[1, 1, 2, 2, 2, 2, 1, 1, 2]);
next = array1d(1..9 ,[7, 8, 5, 3, 9, 4, 2, 6, 1]);
makespan = 422;
----------
assign = array1d(1..9 ,[1, 1, 1, 2, 2, 2, 2, 1, 2]);
next = array1d(1..9 ,[3, 8, 2, 7, 9, 4, 5, 6, 1]);
makespan = 412;
----------
assign = array1d(1..9 ,[1, 2, 2, 1, 1, 2, 2, 1, 2]);
next = array1d(1..9 ,[4, 7, 9, 8, 1, 3, 6, 2, 5]);
makespan = 407;
----------
assign = array1d(1..9 ,[1, 2, 2, 1, 1, 2, 2, 1, 2]);
next = array1d(1..9 ,[4, 7, 9, 8, 1, 3, 6, 2, 5]);
makespan = 407;
----------
==========
	Command being timed: "mzn-grb -a lbbd-datasets/Rabadi-2006/dzn-balanced/model.mzn lbbd-datasets/Rabadi-2006/dzn-balanced/7on2Rp50Rs50_7Ameer.dzn"
	User time (seconds): 3.86
	System time (seconds): 0.02
	Percent of CPU this job got: 99%
	Elapsed (wall clock) time (h:mm:ss or m:ss): 0:03.90
	Average shared text size (kbytes): 0
	Average unshared data size (kbytes): 0
	Average stack size (kbytes): 0
	Average total size (kbytes): 0
	Maximum resident set size (kbytes): 85056
	Average resident set size (kbytes): 0
	Major (requiring I/O) page faults: 0
	Minor (reclaiming a frame) page faults: 6897
	Voluntary context switches: 4
	Involuntary context switches: 13
	Swaps: 0
	File system inputs: 0
	File system outputs: 8
	Socket messages sent: 0
	Socket messages received: 0
	Signals delivered: 0
	Page size (bytes): 4096
	Exit status: 0
