+ /usr/bin/timeout 600 /usr/bin/time -v mzn-grb -a lbbd-datasets/Rabadi-2006/dzn-balanced/model.mzn lbbd-datasets/Rabadi-2006/dzn-balanced/7on2Rp50Rs50_1Ameer.dzn
assign = array1d(1..9 ,[1, 2, 1, 1, 2, 2, 1, 1, 2]);
next = array1d(1..9 ,[4, 6, 7, 8, 2, 9, 1, 5, 3]);
makespan = 490;
----------
assign = array1d(1..9 ,[2, 1, 2, 2, 2, 1, 1, 1, 2]);
next = array1d(1..9 ,[3, 7, 5, 9, 4, 2, 8, 1, 6]);
makespan = 484;
----------
assign = array1d(1..9 ,[1, 2, 2, 1, 2, 2, 1, 1, 2]);
next = array1d(1..9 ,[7, 6, 5, 8, 2, 9, 4, 3, 1]);
makespan = 454;
----------
assign = array1d(1..9 ,[2, 2, 2, 1, 1, 1, 1, 1, 2]);
next = array1d(1..9 ,[2, 9, 1, 8, 6, 4, 5, 3, 7]);
makespan = 453;
----------
assign = array1d(1..9 ,[2, 2, 2, 1, 2, 1, 1, 1, 2]);
next = array1d(1..9 ,[3, 9, 5, 6, 2, 7, 8, 1, 4]);
makespan = 420;
----------
assign = array1d(1..9 ,[2, 2, 2, 1, 2, 1, 1, 1, 2]);
next = array1d(1..9 ,[3, 9, 5, 6, 2, 7, 8, 1, 4]);
makespan = 420;
----------
==========
	Command being timed: "mzn-grb -a lbbd-datasets/Rabadi-2006/dzn-balanced/model.mzn lbbd-datasets/Rabadi-2006/dzn-balanced/7on2Rp50Rs50_1Ameer.dzn"
	User time (seconds): 3.54
	System time (seconds): 0.03
	Percent of CPU this job got: 99%
	Elapsed (wall clock) time (h:mm:ss or m:ss): 0:03.58
	Average shared text size (kbytes): 0
	Average unshared data size (kbytes): 0
	Average stack size (kbytes): 0
	Average total size (kbytes): 0
	Maximum resident set size (kbytes): 83344
	Average resident set size (kbytes): 0
	Major (requiring I/O) page faults: 0
	Minor (reclaiming a frame) page faults: 8164
	Voluntary context switches: 4
	Involuntary context switches: 12
	Swaps: 0
	File system inputs: 0
	File system outputs: 8
	Socket messages sent: 0
	Socket messages received: 0
	Signals delivered: 0
	Page size (bytes): 4096
	Exit status: 0
