+ /usr/bin/timeout 600 /usr/bin/time -v mzn-grb -a lbbd-datasets/Rabadi-2006/dzn-balanced/model.mzn lbbd-datasets/Rabadi-2006/dzn-balanced/11on6Rp50Rs50_11Ameer.dzn
assign = array1d(1..17 ,[2, 4, 3, 5, 6, 4, 2, 1, 6, 3, 1, 1, 2, 3, 4, 5, 6]);
next = array1d(1..17 ,[7, 6, 10, 16, 9, 15, 13, 11, 17, 14, 12, 1, 3, 2, 4, 5, 8]);
makespan = 216;
----------
assign = array1d(1..17 ,[5, 4, 2, 1, 4, 3, 2, 1, 6, 3, 5, 1, 2, 3, 4, 5, 6]);
next = array1d(1..17 ,[16, 5, 13, 8, 15, 10, 3, 12, 17, 14, 1, 7, 6, 2, 11, 9, 4]);
makespan = 206;
----------
assign = array1d(1..17 ,[2, 4, 5, 1, 6, 3, 2, 1, 6, 3, 4, 1, 2, 3, 4, 5, 6]);
next = array1d(1..17 ,[13, 11, 16, 8, 17, 10, 1, 12, 5, 14, 15, 7, 6, 2, 3, 9, 4]);
makespan = 205;
----------
assign = array1d(1..17 ,[5, 4, 3, 2, 4, 3, 2, 1, 6, 1, 6, 1, 2, 3, 4, 5, 6]);
next = array1d(1..17 ,[16, 5, 14, 7, 15, 3, 13, 10, 11, 12, 17, 4, 6, 2, 1, 9, 8]);
makespan = 192;
----------
assign = array1d(1..17 ,[2, 5, 1, 5, 6, 4, 2, 1, 3, 3, 4, 1, 2, 3, 4, 5, 6]);
next = array1d(1..17 ,[13, 16, 12, 2, 17, 11, 1, 3, 14, 9, 15, 7, 10, 6, 4, 5, 8]);
makespan = 191;
----------
assign = array1d(1..17 ,[5, 5, 2, 1, 6, 4, 2, 1, 6, 3, 4, 1, 2, 3, 4, 5, 6]);
next = array1d(1..17 ,[2, 16, 13, 8, 17, 11, 3, 12, 5, 14, 15, 7, 10, 6, 1, 9, 4]);
makespan = 186;
----------
assign = array1d(1..17 ,[2, 5, 3, 5, 6, 1, 2, 3, 6, 1, 4, 1, 2, 3, 4, 5, 6]);
next = array1d(1..17 ,[7, 16, 8, 2, 9, 12, 13, 14, 17, 6, 15, 1, 3, 11, 4, 5, 10]);
makespan = 183;
----------
assign = array1d(1..17 ,[2, 5, 3, 5, 6, 4, 2, 1, 6, 1, 4, 1, 2, 3, 4, 5, 6]);
next = array1d(1..17 ,[13, 16, 14, 2, 9, 11, 1, 10, 17, 12, 15, 7, 3, 6, 4, 5, 8]);
makespan = 182;
----------
assign = array1d(1..17 ,[3, 5, 2, 5, 4, 4, 2, 1, 3, 1, 6, 1, 2, 3, 4, 5, 6]);
next = array1d(1..17 ,[9, 16, 7, 2, 6, 15, 13, 10, 14, 12, 17, 3, 1, 5, 4, 11, 8]);
makespan = 179;
----------
assign = array1d(1..17 ,[3, 5, 2, 5, 4, 4, 2, 1, 3, 1, 6, 1, 2, 3, 4, 5, 6]);
next = array1d(1..17 ,[9, 16, 7, 2, 6, 15, 13, 10, 14, 12, 17, 3, 1, 5, 4, 11, 8]);
makespan = 179;
----------
==========
	Command being timed: "mzn-grb -a lbbd-datasets/Rabadi-2006/dzn-balanced/model.mzn lbbd-datasets/Rabadi-2006/dzn-balanced/11on6Rp50Rs50_11Ameer.dzn"
	User time (seconds): 19.97
	System time (seconds): 0.08
	Percent of CPU this job got: 99%
	Elapsed (wall clock) time (h:mm:ss or m:ss): 0:20.10
	Average shared text size (kbytes): 0
	Average unshared data size (kbytes): 0
	Average stack size (kbytes): 0
	Average total size (kbytes): 0
	Maximum resident set size (kbytes): 264384
	Average resident set size (kbytes): 0
	Major (requiring I/O) page faults: 0
	Minor (reclaiming a frame) page faults: 24476
	Voluntary context switches: 5
	Involuntary context switches: 64
	Swaps: 0
	File system inputs: 0
	File system outputs: 8
	Socket messages sent: 0
	Socket messages received: 0
	Signals delivered: 0
	Page size (bytes): 4096
	Exit status: 0
