+ /usr/bin/timeout 600 /usr/bin/time -v mzn-grb -a lbbd-datasets/Rabadi-2006/dzn-p-dominant/model.mzn lbbd-datasets/Rabadi-2006/dzn-p-dominant/8on2Rp50Rs50_4Ameer.dzn
assign = array1d(1..10 ,[1, 1, 1, 2, 2, 2, 2, 2, 1, 2]);
next = array1d(1..10 ,[2, 9, 1, 6, 10, 5, 8, 4, 7, 3]);
makespan = 1035;
----------
assign = array1d(1..10 ,[1, 1, 2, 1, 1, 2, 2, 1, 1, 2]);
next = array1d(1..10 ,[4, 1, 10, 9, 2, 7, 3, 5, 6, 8]);
makespan = 922;
----------
assign = array1d(1..10 ,[1, 1, 2, 2, 1, 2, 1, 2, 1, 2]);
next = array1d(1..10 ,[9, 1, 8, 6, 2, 10, 5, 4, 3, 7]);
makespan = 802;
----------
assign = array1d(1..10 ,[1, 1, 2, 1, 2, 1, 2, 2, 1, 2]);
next = array1d(1..10 ,[4, 1, 10, 6, 7, 9, 3, 5, 8, 2]);
makespan = 765;
----------
assign = array1d(1..10 ,[1, 1, 2, 1, 2, 1, 2, 2, 1, 2]);
next = array1d(1..10 ,[4, 1, 8, 6, 10, 9, 5, 7, 3, 2]);
makespan = 754;
----------
assign = array1d(1..10 ,[1, 1, 2, 1, 1, 2, 2, 2, 1, 2]);
next = array1d(1..10 ,[4, 1, 8, 9, 2, 10, 3, 6, 7, 5]);
makespan = 750;
----------
assign = array1d(1..10 ,[2, 1, 2, 1, 2, 1, 2, 1, 1, 2]);
next = array1d(1..10 ,[3, 4, 7, 6, 1, 8, 10, 9, 5, 2]);
makespan = 746;
----------
assign = array1d(1..10 ,[1, 2, 2, 1, 2, 1, 2, 1, 1, 2]);
next = array1d(1..10 ,[4, 5, 10, 6, 7, 8, 3, 9, 2, 1]);
makespan = 734;
----------
assign = array1d(1..10 ,[1, 2, 2, 1, 2, 1, 2, 1, 1, 2]);
next = array1d(1..10 ,[4, 5, 10, 6, 7, 8, 3, 9, 2, 1]);
makespan = 734;
----------
==========
	Command being timed: "mzn-grb -a lbbd-datasets/Rabadi-2006/dzn-p-dominant/model.mzn lbbd-datasets/Rabadi-2006/dzn-p-dominant/8on2Rp50Rs50_4Ameer.dzn"
	User time (seconds): 1.29
	System time (seconds): 0.02
	Percent of CPU this job got: 99%
	Elapsed (wall clock) time (h:mm:ss or m:ss): 0:01.32
	Average shared text size (kbytes): 0
	Average unshared data size (kbytes): 0
	Average stack size (kbytes): 0
	Average total size (kbytes): 0
	Maximum resident set size (kbytes): 87792
	Average resident set size (kbytes): 0
	Major (requiring I/O) page faults: 0
	Minor (reclaiming a frame) page faults: 6176
	Voluntary context switches: 4
	Involuntary context switches: 8
	Swaps: 0
	File system inputs: 0
	File system outputs: 0
	Socket messages sent: 0
	Socket messages received: 0
	Signals delivered: 0
	Page size (bytes): 4096
	Exit status: 0
