+ /usr/bin/timeout 600 /usr/bin/time -v mzn-grb -a lbbd-datasets/planningandscheduling/cost-insts/model.mzn lbbd-datasets/planningandscheduling/cost-insts/df24j3m5.dzn
obj = 609
----------
obj = 602
----------
obj = 598
----------
obj = 595
----------
obj = 588
----------
obj = 584
----------
