+ /usr/bin/timeout 600 /usr/bin/time -v mzn-grb -a lbbd-datasets/Rabadi-2006/dzn-balanced/model.mzn lbbd-datasets/Rabadi-2006/dzn-balanced/7on2Rp50Rs50_13Ameer.dzn
assign = array1d(1..9 ,[2, 1, 1, 2, 2, 1, 1, 1, 2]);
next = array1d(1..9 ,[9, 3, 7, 1, 4, 8, 6, 5, 2]);
makespan = 537;
----------
assign = array1d(1..9 ,[2, 2, 1, 2, 2, 1, 1, 1, 2]);
next = array1d(1..9 ,[2, 4, 6, 9, 1, 7, 8, 5, 3]);
makespan = 451;
----------
assign = array1d(1..9 ,[2, 2, 1, 2, 2, 1, 1, 1, 2]);
next = array1d(1..9 ,[2, 4, 8, 5, 9, 7, 3, 1, 6]);
makespan = 442;
----------
assign = array1d(1..9 ,[2, 2, 1, 2, 2, 1, 1, 1, 2]);
next = array1d(1..9 ,[2, 4, 8, 5, 9, 7, 3, 1, 6]);
makespan = 442;
----------
==========
	Command being timed: "mzn-grb -a lbbd-datasets/Rabadi-2006/dzn-balanced/model.mzn lbbd-datasets/Rabadi-2006/dzn-balanced/7on2Rp50Rs50_13Ameer.dzn"
	User time (seconds): 4.36
	System time (seconds): 0.02
	Percent of CPU this job got: 99%
	Elapsed (wall clock) time (h:mm:ss or m:ss): 0:04.39
	Average shared text size (kbytes): 0
	Average unshared data size (kbytes): 0
	Average stack size (kbytes): 0
	Average total size (kbytes): 0
	Maximum resident set size (kbytes): 84480
	Average resident set size (kbytes): 0
	Major (requiring I/O) page faults: 0
	Minor (reclaiming a frame) page faults: 7781
	Voluntary context switches: 4
	Involuntary context switches: 16
	Swaps: 0
	File system inputs: 0
	File system outputs: 8
	Socket messages sent: 0
	Socket messages received: 0
	Signals delivered: 0
	Page size (bytes): 4096
	Exit status: 0
