+ /usr/bin/timeout 600 /usr/bin/time -v mzn-grb -a lbbd-datasets/Rabadi-2006/dzn-balanced/model.mzn lbbd-datasets/Rabadi-2006/dzn-balanced/6on4Rp50Rs50_2Ameer.dzn
assign = array1d(1..10 ,[3, 1, 3, 2, 4, 4, 1, 2, 3, 4]);
next = array1d(1..10 ,[9, 7, 1, 8, 10, 5, 4, 3, 6, 2]);
makespan = 210;
----------
assign = array1d(1..10 ,[4, 3, 1, 2, 4, 1, 1, 2, 3, 4]);
next = array1d(1..10 ,[10, 9, 7, 8, 1, 3, 4, 2, 5, 6]);
makespan = 201;
----------
assign = array1d(1..10 ,[1, 3, 4, 2, 4, 1, 1, 2, 3, 4]);
next = array1d(1..10 ,[7, 9, 10, 8, 3, 1, 4, 2, 5, 6]);
makespan = 190;
----------
assign = array1d(1..10 ,[3, 2, 4, 1, 4, 3, 1, 2, 3, 4]);
next = array1d(1..10 ,[6, 8, 10, 7, 3, 9, 2, 1, 5, 4]);
makespan = 189;
----------
assign = array1d(1..10 ,[2, 3, 2, 1, 4, 4, 1, 2, 3, 4]);
next = array1d(1..10 ,[8, 9, 1, 7, 6, 10, 3, 2, 5, 4]);
makespan = 185;
----------
assign = array1d(1..10 ,[2, 3, 2, 1, 4, 4, 1, 2, 3, 4]);
next = array1d(1..10 ,[8, 9, 1, 7, 6, 10, 3, 2, 5, 4]);
makespan = 185;
----------
==========
	Command being timed: "mzn-grb -a lbbd-datasets/Rabadi-2006/dzn-balanced/model.mzn lbbd-datasets/Rabadi-2006/dzn-balanced/6on4Rp50Rs50_2Ameer.dzn"
	User time (seconds): 2.14
	System time (seconds): 0.01
	Percent of CPU this job got: 99%
	Elapsed (wall clock) time (h:mm:ss or m:ss): 0:02.16
	Average shared text size (kbytes): 0
	Average unshared data size (kbytes): 0
	Average stack size (kbytes): 0
	Average total size (kbytes): 0
	Maximum resident set size (kbytes): 94368
	Average resident set size (kbytes): 0
	Major (requiring I/O) page faults: 0
	Minor (reclaiming a frame) page faults: 7847
	Voluntary context switches: 4
	Involuntary context switches: 11
	Swaps: 0
	File system inputs: 0
	File system outputs: 8
	Socket messages sent: 0
	Socket messages received: 0
	Signals delivered: 0
	Page size (bytes): 4096
	Exit status: 0
