+ /usr/bin/timeout 600 /usr/bin/time -v mzn-grb -a lbbd-datasets/Rabadi-2006/dzn-balanced/model.mzn lbbd-datasets/Rabadi-2006/dzn-balanced/7on4Rp50Rs50_5Ameer.dzn
assign = array1d(1..11 ,[1, 3, 2, 3, 1, 4, 2, 1, 2, 3, 4]);
next = array1d(1..11 ,[8, 10, 9, 2, 1, 11, 3, 7, 4, 6, 5]);
makespan = 211;
----------
assign = array1d(1..11 ,[1, 3, 2, 2, 4, 3, 1, 1, 2, 3, 4]);
next = array1d(1..11 ,[8, 6, 9, 3, 11, 10, 1, 4, 2, 5, 7]);
makespan = 208;
----------
assign = array1d(1..11 ,[1, 2, 4, 3, 2, 4, 3, 1, 2, 3, 4]);
next = array1d(1..11 ,[8, 9, 6, 10, 2, 11, 4, 5, 7, 3, 1]);
makespan = 202;
----------
assign = array1d(1..11 ,[4, 3, 1, 2, 1, 3, 2, 1, 2, 3, 4]);
next = array1d(1..11 ,[11, 6, 8, 9, 3, 10, 4, 7, 2, 1, 5]);
makespan = 197;
----------
assign = array1d(1..11 ,[4, 3, 1, 2, 1, 3, 2, 1, 2, 3, 4]);
next = array1d(1..11 ,[11, 6, 8, 9, 3, 10, 4, 7, 2, 1, 5]);
makespan = 197;
----------
==========
	Command being timed: "mzn-grb -a lbbd-datasets/Rabadi-2006/dzn-balanced/model.mzn lbbd-datasets/Rabadi-2006/dzn-balanced/7on4Rp50Rs50_5Ameer.dzn"
	User time (seconds): 3.28
	System time (seconds): 0.03
	Percent of CPU this job got: 99%
	Elapsed (wall clock) time (h:mm:ss or m:ss): 0:03.32
	Average shared text size (kbytes): 0
	Average unshared data size (kbytes): 0
	Average stack size (kbytes): 0
	Average total size (kbytes): 0
	Maximum resident set size (kbytes): 108688
	Average resident set size (kbytes): 0
	Major (requiring I/O) page faults: 0
	Minor (reclaiming a frame) page faults: 8596
	Voluntary context switches: 6
	Involuntary context switches: 5
	Swaps: 0
	File system inputs: 0
	File system outputs: 8
	Socket messages sent: 0
	Socket messages received: 0
	Signals delivered: 0
	Page size (bytes): 4096
	Exit status: 0
