+ /usr/bin/timeout 600 /usr/bin/time -v mzn-grb -a lbbd-datasets/Rabadi-2006/dzn-p-dominant/model.mzn lbbd-datasets/Rabadi-2006/dzn-p-dominant/8on4Rp50Rs50_9Ameer.dzn
assign = array1d(1..12 ,[1, 1, 2, 4, 3, 3, 2, 4, 1, 2, 3, 4]);
next = array1d(1..12 ,[2, 9, 7, 8, 11, 5, 10, 12, 3, 6, 4, 1]);
makespan = 358;
----------
assign = array1d(1..12 ,[1, 1, 2, 4, 3, 3, 2, 4, 1, 2, 3, 4]);
next = array1d(1..12 ,[9, 1, 10, 12, 11, 5, 3, 4, 7, 6, 8, 2]);
makespan = 355;
----------
assign = array1d(1..12 ,[1, 1, 2, 4, 3, 3, 2, 4, 1, 2, 3, 4]);
next = array1d(1..12 ,[9, 1, 7, 12, 6, 11, 10, 4, 3, 5, 8, 2]);
makespan = 350;
----------
assign = array1d(1..12 ,[1, 2, 2, 4, 3, 3, 1, 4, 1, 2, 3, 4]);
next = array1d(1..12 ,[7, 10, 2, 12, 6, 11, 9, 4, 3, 5, 8, 1]);
makespan = 349;
----------
assign = array1d(1..12 ,[1, 2, 2, 4, 3, 3, 1, 4, 1, 2, 3, 4]);
next = array1d(1..12 ,[7, 10, 2, 12, 6, 11, 9, 4, 3, 5, 8, 1]);
makespan = 349;
----------
==========
	Command being timed: "mzn-grb -a lbbd-datasets/Rabadi-2006/dzn-p-dominant/model.mzn lbbd-datasets/Rabadi-2006/dzn-p-dominant/8on4Rp50Rs50_9Ameer.dzn"
	User time (seconds): 2.84
	System time (seconds): 0.03
	Percent of CPU this job got: 99%
	Elapsed (wall clock) time (h:mm:ss or m:ss): 0:02.88
	Average shared text size (kbytes): 0
	Average unshared data size (kbytes): 0
	Average stack size (kbytes): 0
	Average total size (kbytes): 0
	Maximum resident set size (kbytes): 119264
	Average resident set size (kbytes): 0
	Major (requiring I/O) page faults: 0
	Minor (reclaiming a frame) page faults: 8852
	Voluntary context switches: 6
	Involuntary context switches: 6
	Swaps: 0
	File system inputs: 0
	File system outputs: 8
	Socket messages sent: 0
	Socket messages received: 0
	Signals delivered: 0
	Page size (bytes): 4096
	Exit status: 0
