+ /usr/bin/timeout 600 /usr/bin/time -v mzn-grb -a lbbd-datasets/sscplp/trucks-dzn/model.mzn lbbd-datasets/sscplp/trucks-dzn/p03-l50-c80-uncorrelated.dzn
source = [4, 1, 6, 6, 6, 5, 5, 5, 5, 4, 4, 4, 4, 4, 3, 3, 3, 3, 3, 1]
open = [true, false, true, true, true, true, false, false, false, false]
trucks_used = [2, 0, 5, 6, 4, 3, 0, 0, 0, 0]
truck_assigned = [1, 1, 1, 3, 2, 4, 3, 3, 2, 6, 5, 4, 3, 2, 5, 4, 3, 3, 2, 2]
obj = 7255
----------
source = [10, 9, 3, 3, 9, 9, 5, 5, 3, 5, 3, 10, 10, 1, 9, 10, 5, 9, 1, 10]
open = [true, false, true, false, true, false, false, false, true, true]
trucks_used = [2, 0, 3, 0, 2, 0, 0, 0, 3, 4]
truck_assigned = [1, 2, 2, 2, 3, 2, 2, 1, 1, 1, 3, 2, 2, 1, 3, 3, 1, 1, 2, 4]
obj = 5365
----------
source = [10, 9, 3, 10, 9, 9, 5, 5, 3, 5, 3, 10, 3, 1, 9, 10, 5, 9, 1, 10]
open = [true, false, true, false, true, false, false, false, true, true]
trucks_used = [1, 0, 3, 0, 2, 0, 0, 0, 3, 4]
truck_assigned = [1, 2, 2, 1, 3, 2, 2, 1, 1, 1, 3, 2, 1, 1, 3, 3, 1, 1, 1, 4]
obj = 5229
----------
source = [10, 10, 3, 5, 3, 10, 5, 5, 3, 5, 3, 1, 2, 1, 2, 7, 10, 3, 7, 10]
open = [true, true, true, false, true, false, true, false, false, true]
trucks_used = [2, 2, 3, 0, 2, 0, 2, 0, 0, 4]
truck_assigned = [1, 4, 1, 1, 2, 3, 2, 2, 1, 1, 3, 2, 1, 1, 2, 2, 1, 2, 1, 2]
obj = 5214
----------
source = [10, 1, 3, 10, 2, 10, 2, 5, 3, 5, 3, 10, 3, 1, 5, 7, 5, 3, 7, 10]
open = [true, true, true, false, true, false, true, false, false, true]
trucks_used = [1, 2, 3, 0, 2, 0, 2, 0, 0, 3]
truck_assigned = [3, 1, 1, 2, 1, 1, 2, 1, 3, 1, 2, 1, 1, 1, 2, 2, 1, 3, 1, 3]
obj = 5035
----------
source = [10, 1, 3, 10, 2, 10, 2, 5, 3, 5, 3, 10, 3, 1, 5, 7, 5, 3, 7, 10]
open = [true, true, true, false, true, false, true, false, false, true]
trucks_used = [1, 1, 3, 0, 2, 0, 2, 0, 0, 3]
truck_assigned = [3, 1, 1, 1, 1, 2, 1, 1, 3, 1, 2, 1, 1, 1, 2, 2, 1, 3, 1, 3]
obj = 4955
----------
source = [10, 1, 3, 2, 2, 10, 5, 10, 3, 5, 3, 10, 3, 1, 5, 7, 5, 3, 7, 10]
open = [true, true, true, false, true, false, true, false, false, true]
trucks_used = [1, 1, 3, 0, 2, 0, 2, 0, 0, 3]
truck_assigned = [3, 1, 1, 1, 1, 2, 1, 1, 3, 1, 2, 1, 1, 1, 2, 2, 1, 3, 1, 3]
obj = 4946
----------
source = [10, 1, 3, 10, 2, 10, 5, 5, 3, 5, 3, 10, 3, 1, 2, 7, 5, 3, 7, 10]
open = [true, true, true, false, true, false, true, false, false, true]
trucks_used = [1, 1, 3, 0, 2, 0, 2, 0, 0, 3]
truck_assigned = [3, 1, 1, 2, 1, 3, 2, 2, 3, 1, 2, 1, 3, 1, 1, 2, 1, 1, 1, 1]
obj = 4862
----------
source = [3, 1, 3, 10, 2, 10, 5, 10, 3, 5, 3, 10, 5, 1, 2, 5, 5, 3, 7, 7]
open = [true, true, true, false, true, false, true, false, false, true]
trucks_used = [1, 1, 3, 0, 2, 0, 1, 0, 0, 2]
truck_assigned = [1, 1, 1, 2, 1, 1, 2, 2, 3, 1, 2, 1, 2, 1, 1, 1, 2, 1, 1, 1]
obj = 4799
----------
source = [10, 1, 3, 10, 9, 9, 7, 10, 9, 10, 3, 3, 7, 1, 9, 7, 9, 3, 3, 10]
open = [true, false, true, false, false, false, true, false, true, true]
trucks_used = [1, 0, 3, 0, 0, 0, 2, 0, 2, 3]
truck_assigned = [1, 1, 1, 1, 2, 1, 1, 2, 1, 3, 2, 1, 1, 1, 2, 2, 1, 1, 3, 2]
obj = 4767
----------
source = [10, 1, 3, 10, 9, 9, 7, 10, 9, 10, 3, 3, 7, 1, 9, 7, 3, 3, 9, 10]
open = [true, false, true, false, false, false, true, false, true, true]
trucks_used = [1, 0, 2, 0, 0, 0, 2, 0, 2, 3]
truck_assigned = [1, 1, 1, 1, 1, 2, 1, 1, 2, 3, 2, 2, 1, 1, 2, 2, 1, 1, 1, 2]
obj = 4712
----------
source = [10, 7, 3, 10, 9, 9, 7, 10, 3, 1, 9, 10, 10, 3, 9, 9, 3, 3, 1, 9]
open = [true, false, true, false, false, false, true, false, true, true]
trucks_used = [1, 0, 2, 0, 0, 0, 1, 0, 3, 2]
truck_assigned = [2, 1, 2, 2, 2, 1, 1, 2, 2, 1, 2, 1, 1, 1, 3, 3, 1, 1, 1, 1]
obj = 4688
----------
source = [10, 1, 3, 10, 3, 9, 7, 10, 3, 3, 9, 10, 7, 1, 9, 7, 9, 9, 3, 10]
open = [true, false, true, false, false, false, true, false, true, true]
trucks_used = [1, 0, 4, 0, 0, 0, 2, 0, 2, 2]
truck_assigned = [2, 1, 2, 1, 2, 2, 1, 2, 4, 3, 2, 1, 2, 1, 2, 1, 1, 1, 1, 2]
obj = 4684
----------
source = [10, 1, 3, 10, 3, 9, 7, 10, 3, 3, 9, 10, 7, 1, 9, 7, 9, 9, 3, 10]
open = [true, false, true, false, false, false, true, false, true, true]
trucks_used = [1, 0, 4, 0, 0, 0, 2, 0, 2, 2]
truck_assigned = [2, 1, 2, 1, 2, 2, 1, 2, 4, 3, 2, 1, 2, 1, 2, 1, 1, 1, 1, 2]
obj = 4684
----------
==========
	Command being timed: "mzn-grb -a lbbd-datasets/sscplp/trucks-dzn/model.mzn lbbd-datasets/sscplp/trucks-dzn/p03-l50-c80-uncorrelated.dzn"
	User time (seconds): 187.55
	System time (seconds): 0.38
	Percent of CPU this job got: 99%
	Elapsed (wall clock) time (h:mm:ss or m:ss): 3:08.49
	Average shared text size (kbytes): 0
	Average unshared data size (kbytes): 0
	Average stack size (kbytes): 0
	Average total size (kbytes): 0
	Maximum resident set size (kbytes): 1645808
	Average resident set size (kbytes): 0
	Major (requiring I/O) page faults: 0
	Minor (reclaiming a frame) page faults: 109927
	Voluntary context switches: 6
	Involuntary context switches: 419
	Swaps: 0
	File system inputs: 0
	File system outputs: 72
	Socket messages sent: 0
	Socket messages received: 0
	Signals delivered: 0
	Page size (bytes): 4096
	Exit status: 0
