+ /usr/bin/timeout 600 /usr/bin/time -v mzn-grb -a lbbd-datasets/planningandscheduling/cost-insts/model.mzn lbbd-datasets/planningandscheduling/cost-insts/c26j2m4.dzn
obj = 560
----------
obj = 528
----------
obj = 508
----------
