+ /usr/bin/timeout 600 /usr/bin/time -v mzn-grb -a lbbd-datasets/sscplp/trucks-dzn/model.mzn lbbd-datasets/sscplp/trucks-dzn/p12-l50-c80-uncorrelated.dzn
source = [12, 5, 5, 1, 6, 6, 4, 9, 12, 1, 1, 1, 4, 1, 5, 12, 9, 12, 1, 12, 1, 1, 6, 12, 12, 6, 4, 4, 6, 6]
open = [true, false, false, true, true, true, false, false, true, false, false, true, false, false, false]
trucks_used = [5, 0, 0, 2, 2, 2, 0, 0, 2, 0, 0, 4, 0, 0, 0]
truck_assigned = [1, 2, 1, 5, 2, 2, 2, 2, 4, 5, 2, 1, 1, 4, 2, 2, 1, 3, 3, 4, 2, 1, 2, 2, 1, 1, 1, 2, 1, 2]
obj = 4269
----------
source = [12, 1, 5, 1, 6, 6, 4, 9, 12, 1, 1, 1, 4, 1, 5, 12, 9, 12, 1, 12, 1, 1, 6, 12, 12, 6, 4, 4, 6, 6]
open = [true, false, false, true, true, true, false, false, true, false, false, true, false, false, false]
trucks_used = [5, 0, 0, 2, 1, 2, 0, 0, 2, 0, 0, 4, 0, 0, 0]
truck_assigned = [1, 1, 1, 5, 2, 2, 2, 2, 4, 5, 2, 1, 1, 4, 1, 2, 1, 3, 3, 4, 2, 1, 2, 2, 1, 1, 1, 2, 1, 2]
obj = 4239
----------
source = [12, 1, 5, 1, 12, 6, 4, 9, 12, 1, 1, 1, 4, 1, 5, 12, 9, 12, 1, 12, 1, 1, 6, 12, 12, 6, 4, 4, 6, 6]
open = [true, false, false, true, true, true, false, false, true, false, false, true, false, false, false]
trucks_used = [5, 0, 0, 2, 1, 2, 0, 0, 2, 0, 0, 4, 0, 0, 0]
truck_assigned = [1, 1, 1, 5, 1, 2, 2, 2, 4, 5, 2, 1, 1, 4, 1, 2, 1, 3, 3, 4, 2, 1, 2, 2, 1, 1, 1, 2, 1, 2]
obj = 4229
----------
source = [12, 1, 5, 1, 12, 6, 4, 9, 12, 1, 5, 9, 4, 1, 5, 12, 9, 12, 1, 12, 1, 1, 6, 12, 12, 6, 4, 4, 6, 6]
open = [true, false, false, true, true, true, false, false, true, false, false, true, false, false, false]
trucks_used = [4, 0, 0, 2, 2, 2, 0, 0, 2, 0, 0, 4, 0, 0, 0]
truck_assigned = [1, 1, 1, 1, 1, 2, 2, 2, 4, 4, 2, 1, 1, 2, 1, 2, 1, 3, 3, 4, 4, 1, 2, 2, 1, 1, 1, 2, 1, 2]
obj = 4212
----------
source = [12, 1, 5, 1, 12, 6, 4, 9, 12, 1, 5, 9, 5, 1, 5, 12, 9, 12, 1, 12, 1, 1, 6, 12, 12, 6, 4, 4, 6, 4]
open = [true, false, false, true, true, true, false, false, true, false, false, true, false, false, false]
trucks_used = [4, 0, 0, 2, 2, 2, 0, 0, 2, 0, 0, 4, 0, 0, 0]
truck_assigned = [1, 1, 1, 1, 1, 2, 2, 2, 4, 4, 2, 1, 2, 2, 1, 2, 1, 3, 3, 4, 4, 1, 2, 2, 1, 2, 1, 2, 1, 1]
obj = 4204
----------
source = [12, 12, 5, 1, 6, 6, 4, 9, 12, 1, 5, 1, 4, 1, 5, 12, 9, 12, 1, 12, 1, 1, 6, 5, 12, 6, 4, 4, 6, 6]
open = [true, false, false, true, true, true, false, false, true, false, false, true, false, false, false]
trucks_used = [4, 0, 0, 2, 3, 2, 0, 0, 2, 0, 0, 3, 0, 0, 0]
truck_assigned = [1, 2, 2, 1, 1, 1, 2, 1, 3, 1, 3, 4, 2, 2, 2, 3, 2, 1, 3, 2, 4, 1, 1, 1, 2, 2, 1, 1, 2, 1]
obj = 4187
----------
source = [12, 12, 5, 1, 6, 6, 4, 9, 12, 1, 5, 9, 4, 1, 5, 12, 9, 12, 1, 12, 1, 1, 6, 6, 12, 6, 4, 4, 1, 6]
open = [true, false, false, true, true, true, false, false, true, false, false, true, false, false, false]
trucks_used = [4, 0, 0, 2, 2, 2, 0, 0, 2, 0, 0, 3, 0, 0, 0]
truck_assigned = [1, 2, 1, 3, 1, 1, 2, 1, 3, 2, 2, 2, 2, 4, 1, 3, 2, 1, 1, 2, 2, 3, 1, 2, 2, 2, 1, 1, 3, 1]
obj = 4178
----------
source = [12, 12, 5, 1, 6, 6, 4, 9, 12, 1, 5, 9, 5, 1, 5, 12, 9, 12, 1, 12, 1, 1, 6, 1, 12, 6, 4, 4, 6, 4]
open = [true, false, false, true, true, true, false, false, true, false, false, true, false, false, false]
trucks_used = [4, 0, 0, 2, 2, 2, 0, 0, 2, 0, 0, 3, 0, 0, 0]
truck_assigned = [1, 2, 1, 3, 1, 2, 2, 1, 3, 3, 2, 2, 2, 4, 1, 3, 2, 1, 1, 2, 2, 3, 2, 2, 2, 2, 1, 1, 1, 2]
obj = 4148
----------
