+ /usr/bin/timeout 600 /usr/bin/time -v mzn-grb -a lbbd-datasets/Rabadi-2006/dzn-p-dominant/model.mzn lbbd-datasets/Rabadi-2006/dzn-p-dominant/11on6Rp50Rs50_9Ameer.dzn
assign = array1d(1..17 ,[2, 6, 5, 5, 1, 1, 2, 3, 3, 4, 4, 1, 2, 3, 4, 5, 6]);
next = array1d(1..17 ,[7, 17, 16, 3, 6, 12, 13, 9, 14, 15, 10, 1, 8, 11, 4, 2, 5]);
makespan = 365;
----------
assign = array1d(1..17 ,[6, 6, 3, 5, 1, 1, 2, 3, 5, 4, 4, 1, 2, 3, 4, 5, 6]);
next = array1d(1..17 ,[2, 17, 8, 9, 12, 5, 13, 14, 16, 11, 15, 7, 3, 10, 4, 1, 6]);
makespan = 334;
----------
assign = array1d(1..17 ,[2, 3, 5, 6, 4, 6, 2, 1, 5, 4, 3, 1, 2, 3, 4, 5, 6]);
next = array1d(1..17 ,[13, 11, 9, 17, 10, 4, 1, 12, 16, 15, 14, 7, 2, 5, 3, 6, 8]);
makespan = 332;
----------
assign = array1d(1..17 ,[2, 3, 5, 6, 4, 6, 2, 1, 5, 4, 3, 1, 2, 3, 4, 5, 6]);
next = array1d(1..17 ,[13, 11, 9, 17, 10, 4, 1, 12, 16, 15, 14, 7, 2, 5, 3, 6, 8]);
makespan = 332;
----------
==========
	Command being timed: "mzn-grb -a lbbd-datasets/Rabadi-2006/dzn-p-dominant/model.mzn lbbd-datasets/Rabadi-2006/dzn-p-dominant/11on6Rp50Rs50_9Ameer.dzn"
	User time (seconds): 15.47
	System time (seconds): 0.07
	Percent of CPU this job got: 99%
	Elapsed (wall clock) time (h:mm:ss or m:ss): 0:15.58
	Average shared text size (kbytes): 0
	Average unshared data size (kbytes): 0
	Average stack size (kbytes): 0
	Average total size (kbytes): 0
	Maximum resident set size (kbytes): 248496
	Average resident set size (kbytes): 0
	Major (requiring I/O) page faults: 0
	Minor (reclaiming a frame) page faults: 20573
	Voluntary context switches: 4
	Involuntary context switches: 27
	Swaps: 0
	File system inputs: 0
	File system outputs: 8
	Socket messages sent: 0
	Socket messages received: 0
	Signals delivered: 0
	Page size (bytes): 4096
	Exit status: 0
