+ /usr/bin/timeout 600 /usr/bin/time -v mzn-grb -a lbbd-datasets/sscplp/trucks-dzn/model.mzn lbbd-datasets/sscplp/trucks-dzn/p24-l50-c150-uncorrelated.dzn
source = [5, 19, 13, 16, 13, 11, 17, 3, 11, 2, 17, 11, 3, 2, 11, 11, 17, 17, 19, 3, 12, 5, 11, 17, 2, 13, 19, 2, 13, 17, 11, 11, 3, 11, 14, 5, 17, 10, 17, 17]
open = [false, true, true, false, true, false, false, false, false, true, true, true, true, true, false, true, true, false, true, false]
trucks_used = [0, 3, 3, 0, 2, 0, 0, 0, 0, 1, 4, 1, 3, 1, 0, 1, 7, 0, 3, 0]
truck_assigned = [2, 1, 3, 1, 2, 2, 4, 3, 2, 3, 3, 3, 1, 3, 2, 4, 4, 1, 1, 1, 1, 2, 4, 2, 1, 3, 3, 2, 1, 4, 1, 3, 1, 4, 1, 1, 7, 1, 2, 6]
obj = 18036
----------
source = [5, 19, 13, 16, 13, 11, 17, 3, 11, 2, 11, 11, 3, 2, 17, 11, 17, 17, 19, 3, 12, 5, 11, 17, 2, 13, 19, 2, 13, 17, 11, 11, 3, 11, 3, 5, 17, 11, 17, 17]
open = [false, true, true, false, true, false, false, false, false, false, true, true, true, false, false, true, true, false, true, false]
trucks_used = [0, 3, 3, 0, 2, 0, 0, 0, 0, 0, 4, 1, 2, 0, 0, 1, 7, 0, 3, 0]
truck_assigned = [2, 1, 1, 1, 2, 2, 4, 3, 1, 3, 1, 3, 1, 3, 2, 4, 5, 1, 1, 1, 1, 2, 4, 2, 1, 2, 3, 2, 1, 4, 1, 3, 1, 4, 2, 1, 7, 2, 2, 6]
obj = 13618
----------
source = [17, 19, 13, 12, 13, 11, 17, 3, 11, 2, 11, 11, 3, 2, 17, 11, 17, 17, 19, 3, 12, 5, 11, 17, 3, 13, 19, 2, 13, 17, 11, 11, 3, 11, 3, 5, 17, 11, 17, 17]
open = [false, true, true, false, true, false, false, false, false, false, true, true, true, false, false, false, true, false, true, false]
trucks_used = [0, 2, 3, 0, 2, 0, 0, 0, 0, 0, 4, 1, 2, 0, 0, 0, 7, 0, 3, 0]
truck_assigned = [1, 1, 1, 1, 2, 2, 4, 3, 1, 1, 1, 3, 1, 1, 2, 4, 5, 4, 1, 1, 1, 2, 1, 2, 3, 2, 3, 2, 1, 4, 1, 3, 1, 4, 2, 1, 7, 2, 2, 6]
obj = 11821
----------
source = [17, 19, 13, 12, 2, 11, 17, 3, 11, 2, 11, 11, 3, 2, 17, 11, 17, 17, 19, 3, 12, 5, 11, 17, 3, 13, 19, 2, 13, 17, 11, 11, 3, 11, 3, 5, 17, 11, 17, 17]
open = [false, true, true, false, true, false, false, false, false, false, true, true, true, false, false, false, true, false, true, false]
trucks_used = [0, 3, 3, 0, 2, 0, 0, 0, 0, 0, 4, 1, 1, 0, 0, 0, 6, 0, 3, 0]
truck_assigned = [1, 1, 1, 1, 1, 2, 4, 3, 1, 3, 1, 3, 1, 3, 2, 4, 5, 4, 1, 1, 1, 2, 4, 2, 3, 1, 3, 2, 1, 4, 1, 3, 1, 4, 2, 1, 6, 2, 2, 6]
obj = 11665
----------
source = [17, 13, 13, 11, 2, 11, 17, 3, 11, 2, 11, 11, 11, 2, 11, 3, 17, 17, 17, 3, 11, 5, 11, 17, 3, 13, 11, 2, 13, 11, 11, 11, 3, 11, 3, 5, 17, 11, 17, 17]
open = [false, true, true, false, true, false, false, false, false, false, true, false, true, false, false, false, true, false, false, false]
trucks_used = [0, 3, 3, 0, 2, 0, 0, 0, 0, 0, 7, 0, 2, 0, 0, 0, 5, 0, 0, 0]
truck_assigned = [5, 1, 2, 1, 1, 2, 4, 3, 4, 3, 3, 6, 7, 3, 4, 1, 3, 4, 1, 1, 2, 2, 4, 2, 3, 1, 6, 2, 2, 2, 1, 3, 1, 5, 2, 1, 2, 5, 2, 4]
obj = 9603
----------
source = [17, 13, 13, 11, 13, 11, 17, 2, 11, 11, 3, 11, 11, 3, 11, 11, 17, 17, 17, 2, 11, 11, 11, 17, 11, 13, 11, 2, 13, 11, 11, 11, 17, 11, 17, 2, 17, 11, 17, 11]
open = [false, true, true, false, false, false, false, false, false, false, true, false, true, false, false, false, true, false, false, false]
trucks_used = [0, 2, 2, 0, 0, 0, 0, 0, 0, 0, 9, 0, 2, 0, 0, 0, 5, 0, 0, 0]
truck_assigned = [1, 2, 1, 6, 1, 6, 4, 2, 2, 9, 2, 1, 5, 1, 7, 3, 2, 2, 3, 2, 9, 2, 1, 4, 8, 1, 4, 1, 2, 5, 1, 7, 5, 8, 5, 1, 4, 4, 2, 3]
obj = 8942
----------
source = [17, 13, 13, 12, 13, 11, 17, 2, 11, 11, 11, 11, 11, 2, 11, 11, 17, 17, 12, 11, 11, 11, 11, 17, 11, 13, 11, 2, 13, 11, 13, 11, 17, 11, 17, 2, 17, 11, 17, 17]
open = [false, true, false, false, false, false, false, false, false, false, true, true, true, false, false, false, true, false, false, false]
trucks_used = [0, 4, 0, 0, 0, 0, 0, 0, 0, 0, 9, 1, 3, 0, 0, 0, 5, 0, 0, 0]
truck_assigned = [1, 2, 1, 1, 1, 6, 4, 2, 2, 9, 3, 3, 5, 1, 7, 4, 5, 4, 1, 2, 9, 1, 1, 2, 8, 1, 6, 4, 2, 5, 3, 7, 2, 8, 5, 1, 5, 4, 2, 4]
obj = 8173
----------
source = [17, 13, 13, 11, 13, 11, 5, 2, 11, 11, 11, 11, 11, 2, 11, 11, 5, 17, 17, 2, 11, 11, 11, 17, 11, 13, 11, 2, 13, 11, 11, 11, 17, 11, 17, 5, 17, 11, 17, 17]
open = [false, true, false, false, true, false, false, false, false, false, true, false, true, false, false, false, true, false, false, false]
trucks_used = [0, 3, 0, 0, 2, 0, 0, 0, 0, 0, 9, 0, 2, 0, 0, 0, 5, 0, 0, 0]
truck_assigned = [4, 2, 1, 5, 1, 8, 2, 1, 9, 1, 5, 1, 3, 2, 2, 6, 1, 2, 5, 1, 4, 8, 2, 2, 7, 1, 6, 3, 2, 3, 7, 9, 3, 2, 1, 1, 2, 4, 1, 3]
obj = 8120
----------
source = [17, 13, 13, 11, 2, 11, 17, 11, 11, 11, 5, 11, 11, 2, 11, 11, 17, 17, 17, 2, 11, 11, 11, 17, 13, 13, 11, 2, 13, 11, 11, 11, 17, 11, 17, 2, 17, 11, 17, 11]
open = [false, true, false, false, true, false, false, false, false, false, true, false, true, false, false, false, true, false, false, false]
trucks_used = [0, 3, 0, 0, 1, 0, 0, 0, 0, 0, 9, 0, 2, 0, 0, 0, 5, 0, 0, 0]
truck_assigned = [2, 2, 1, 1, 2, 4, 5, 6, 2, 8, 1, 5, 9, 1, 2, 7, 1, 1, 3, 3, 3, 4, 2, 5, 1, 1, 3, 3, 2, 1, 9, 8, 4, 6, 5, 2, 4, 5, 1, 7]
obj = 8054
----------
source = [17, 13, 13, 11, 2, 11, 17, 11, 11, 11, 11, 11, 11, 2, 11, 11, 17, 17, 17, 2, 12, 11, 11, 17, 13, 13, 11, 2, 13, 11, 11, 11, 17, 11, 17, 2, 17, 11, 17, 11]
open = [false, true, false, false, false, false, false, false, false, false, true, true, true, false, false, false, true, false, false, false]
trucks_used = [0, 3, 0, 0, 0, 0, 0, 0, 0, 0, 9, 1, 2, 0, 0, 0, 5, 0, 0, 0]
truck_assigned = [5, 2, 1, 1, 2, 4, 4, 6, 2, 8, 3, 5, 9, 1, 2, 7, 1, 2, 3, 1, 1, 4, 2, 2, 1, 1, 3, 3, 2, 1, 9, 8, 4, 6, 1, 2, 2, 5, 1, 7]
obj = 7865
----------
source = [17, 13, 13, 11, 2, 11, 17, 11, 11, 11, 11, 11, 11, 2, 11, 11, 17, 17, 12, 2, 12, 11, 11, 17, 13, 13, 11, 2, 13, 11, 11, 11, 17, 11, 17, 2, 17, 11, 17, 17]
open = [false, true, false, false, false, false, false, false, false, false, true, true, true, false, false, false, true, false, false, false]
trucks_used = [0, 3, 0, 0, 0, 0, 0, 0, 0, 0, 9, 1, 2, 0, 0, 0, 5, 0, 0, 0]
truck_assigned = [5, 2, 1, 1, 2, 4, 4, 6, 2, 8, 3, 5, 9, 1, 2, 7, 3, 2, 1, 1, 1, 4, 2, 2, 1, 1, 3, 3, 2, 1, 9, 8, 4, 6, 1, 2, 2, 5, 1, 1]
obj = 7856
----------
source = [17, 13, 13, 12, 2, 11, 17, 11, 11, 11, 11, 11, 11, 2, 11, 11, 17, 17, 12, 2, 11, 11, 11, 17, 13, 13, 11, 2, 13, 11, 11, 11, 17, 11, 17, 2, 17, 11, 17, 11]
open = [false, true, false, false, false, false, false, false, false, false, true, true, true, false, false, false, true, false, false, false]
trucks_used = [0, 3, 0, 0, 0, 0, 0, 0, 0, 0, 9, 1, 2, 0, 0, 0, 4, 0, 0, 0]
truck_assigned = [4, 2, 1, 1, 2, 4, 1, 6, 7, 8, 3, 5, 9, 1, 2, 7, 3, 2, 1, 1, 1, 4, 2, 2, 1, 1, 3, 3, 2, 2, 9, 8, 3, 6, 1, 2, 2, 5, 1, 1]
obj = 7770
----------
source = [17, 13, 13, 12, 13, 11, 17, 11, 11, 11, 11, 11, 11, 2, 11, 11, 17, 17, 17, 2, 12, 11, 11, 17, 12, 13, 11, 2, 13, 11, 11, 11, 17, 11, 17, 2, 17, 11, 17, 11]
open = [false, true, false, false, false, false, false, false, false, false, true, true, true, false, false, false, true, false, false, false]
trucks_used = [0, 2, 0, 0, 0, 0, 0, 0, 0, 0, 9, 1, 2, 0, 0, 0, 5, 0, 0, 0]
truck_assigned = [4, 2, 1, 1, 1, 4, 1, 6, 7, 8, 3, 5, 9, 2, 2, 1, 3, 2, 5, 1, 1, 7, 2, 2, 1, 1, 3, 1, 2, 2, 9, 8, 3, 6, 1, 2, 2, 5, 1, 1]
obj = 7765
----------
source = [17, 13, 13, 12, 13, 11, 17, 11, 11, 2, 11, 11, 11, 2, 11, 11, 17, 17, 17, 11, 12, 11, 11, 17, 12, 13, 11, 2, 13, 11, 11, 11, 17, 11, 17, 2, 17, 11, 17, 11]
open = [false, true, false, false, false, false, false, false, false, false, true, true, true, false, false, false, true, false, false, false]
trucks_used = [0, 2, 0, 0, 0, 0, 0, 0, 0, 0, 9, 1, 2, 0, 0, 0, 5, 0, 0, 0]
truck_assigned = [4, 2, 1, 1, 1, 4, 1, 6, 7, 1, 3, 2, 9, 2, 4, 1, 3, 2, 5, 3, 1, 7, 2, 2, 1, 1, 5, 1, 2, 2, 9, 8, 3, 6, 1, 2, 2, 5, 1, 1]
obj = 7724
----------
