+ /usr/bin/timeout 600 /usr/bin/time -v mzn-grb -a lbbd-datasets/sscplp/trucks-dzn/model.mzn lbbd-datasets/sscplp/trucks-dzn/p11-l100-c300-correlated.dzn
source = [8, 14, 13, 4, 1, 14, 2, 4, 8, 2, 13, 2, 8, 8, 2, 2, 14, 5, 4, 1, 4, 2, 14, 1, 4, 13, 8, 13, 1, 5]
open = [true, true, false, true, true, false, false, true, false, false, false, false, true, true, false]
trucks_used = [1, 2, 0, 1, 1, 0, 0, 1, 0, 0, 0, 0, 1, 1, 0]
truck_assigned = [1, 1, 1, 1, 1, 1, 1, 1, 1, 1, 1, 1, 1, 1, 2, 1, 1, 1, 1, 1, 1, 2, 1, 1, 1, 1, 1, 1, 1, 1]
obj = 5302
----------
source = [8, 1, 13, 4, 1, 14, 2, 1, 8, 2, 1, 13, 8, 15, 2, 2, 14, 2, 4, 15, 1, 15, 14, 15, 4, 13, 8, 15, 13, 8]
open = [true, true, false, true, false, false, false, true, false, false, false, false, true, true, true]
trucks_used = [1, 1, 0, 1, 0, 0, 0, 1, 0, 0, 0, 0, 1, 1, 1]
truck_assigned = [1, 1, 1, 1, 1, 1, 1, 1, 1, 1, 1, 1, 1, 1, 1, 1, 1, 1, 1, 1, 1, 1, 1, 1, 1, 1, 1, 1, 1, 1]
obj = 4707
----------
source = [8, 14, 13, 4, 1, 4, 2, 1, 8, 2, 1, 13, 8, 15, 2, 2, 14, 2, 4, 15, 1, 15, 8, 15, 4, 13, 13, 15, 1, 8]
open = [true, true, false, true, false, false, false, true, false, false, false, false, true, true, true]
trucks_used = [1, 1, 0, 1, 0, 0, 0, 1, 0, 0, 0, 0, 1, 1, 1]
truck_assigned = [1, 1, 1, 1, 1, 1, 1, 1, 1, 1, 1, 1, 1, 1, 1, 1, 1, 1, 1, 1, 1, 1, 1, 1, 1, 1, 1, 1, 1, 1]
obj = 4666
----------
source = [8, 14, 13, 4, 1, 4, 2, 1, 8, 2, 1, 13, 8, 15, 2, 2, 8, 15, 4, 1, 1, 15, 2, 15, 4, 13, 8, 15, 13, 14]
open = [true, true, false, true, false, false, false, true, false, false, false, false, true, true, true]
trucks_used = [1, 1, 0, 1, 0, 0, 0, 1, 0, 0, 0, 0, 1, 1, 1]
truck_assigned = [1, 1, 1, 1, 1, 1, 1, 1, 1, 1, 1, 1, 1, 1, 1, 1, 1, 1, 1, 1, 1, 1, 1, 1, 1, 1, 1, 1, 1, 1]
obj = 4637
----------
source = [8, 14, 1, 2, 1, 14, 2, 1, 8, 2, 1, 9, 8, 15, 8, 2, 14, 15, 15, 1, 13, 13, 14, 15, 2, 13, 9, 9, 13, 8]
open = [true, true, false, false, false, false, false, true, true, false, false, false, true, true, true]
trucks_used = [1, 1, 0, 0, 0, 0, 0, 1, 1, 0, 0, 0, 1, 1, 1]
truck_assigned = [1, 1, 1, 1, 1, 1, 1, 1, 1, 1, 1, 1, 1, 1, 1, 1, 1, 1, 1, 1, 1, 1, 1, 1, 1, 1, 1, 1, 1, 1]
obj = 4575
----------
source = [8, 14, 13, 4, 13, 14, 2, 1, 8, 2, 1, 13, 8, 8, 2, 2, 14, 1, 4, 1, 1, 13, 14, 4, 4, 2, 8, 13, 4, 13]
open = [true, true, false, true, false, false, false, true, false, false, false, false, true, true, false]
trucks_used = [1, 1, 0, 1, 0, 0, 0, 1, 0, 0, 0, 0, 2, 1, 0]
truck_assigned = [1, 1, 1, 1, 2, 1, 1, 1, 1, 1, 1, 1, 1, 1, 1, 1, 1, 1, 1, 1, 1, 1, 1, 1, 1, 1, 1, 1, 1, 1]
obj = 4478
----------
source = [8, 1, 13, 2, 6, 14, 2, 1, 8, 2, 1, 13, 8, 8, 14, 2, 6, 15, 15, 1, 1, 15, 14, 15, 2, 13, 8, 15, 13, 14]
open = [true, true, false, false, false, true, false, true, false, false, false, false, true, true, true]
trucks_used = [1, 1, 0, 0, 0, 1, 0, 1, 0, 0, 0, 0, 1, 1, 1]
truck_assigned = [1, 1, 1, 1, 1, 1, 1, 1, 1, 1, 1, 1, 1, 1, 1, 1, 1, 1, 1, 1, 1, 1, 1, 1, 1, 1, 1, 1, 1, 1]
obj = 4421
----------
source = [8, 1, 13, 2, 1, 14, 2, 6, 8, 2, 1, 13, 8, 8, 14, 2, 6, 15, 15, 1, 1, 15, 14, 15, 2, 13, 8, 15, 13, 14]
open = [true, true, false, false, false, true, false, true, false, false, false, false, true, true, true]
trucks_used = [1, 1, 0, 0, 0, 1, 0, 1, 0, 0, 0, 0, 1, 1, 1]
truck_assigned = [1, 1, 1, 1, 1, 1, 1, 1, 1, 1, 1, 1, 1, 1, 1, 1, 1, 1, 1, 1, 1, 1, 1, 1, 1, 1, 1, 1, 1, 1]
obj = 4401
----------
source = [8, 1, 13, 4, 13, 4, 2, 1, 8, 2, 1, 13, 8, 15, 2, 2, 8, 4, 4, 1, 1, 13, 2, 15, 4, 13, 8, 15, 15, 15]
open = [true, true, false, true, false, false, false, true, false, false, false, false, true, false, true]
trucks_used = [1, 1, 0, 1, 0, 0, 0, 1, 0, 0, 0, 0, 1, 0, 1]
truck_assigned = [1, 1, 1, 1, 1, 1, 1, 1, 1, 1, 1, 1, 1, 1, 1, 1, 1, 1, 1, 1, 1, 1, 1, 1, 1, 1, 1, 1, 1, 1]
obj = 4214
----------
source = [8, 15, 13, 4, 1, 4, 2, 1, 8, 2, 1, 13, 8, 15, 2, 2, 8, 4, 4, 15, 1, 13, 2, 15, 4, 13, 8, 15, 1, 13]
open = [true, true, false, true, false, false, false, true, false, false, false, false, true, false, true]
trucks_used = [1, 1, 0, 1, 0, 0, 0, 1, 0, 0, 0, 0, 1, 0, 1]
truck_assigned = [1, 1, 1, 1, 1, 1, 1, 1, 1, 1, 1, 1, 1, 1, 1, 1, 1, 1, 1, 1, 1, 1, 1, 1, 1, 1, 1, 1, 1, 1]
obj = 4204
----------
source = [8, 15, 13, 4, 1, 4, 2, 1, 8, 2, 1, 13, 8, 15, 2, 2, 8, 4, 4, 15, 1, 13, 2, 15, 4, 13, 8, 15, 1, 13]
open = [true, true, false, true, false, false, false, true, false, false, false, false, true, false, true]
trucks_used = [1, 1, 0, 1, 0, 0, 0, 1, 0, 0, 0, 0, 1, 0, 1]
truck_assigned = [1, 1, 1, 1, 1, 1, 1, 1, 1, 1, 1, 1, 1, 1, 1, 1, 1, 1, 1, 1, 1, 1, 1, 1, 1, 1, 1, 1, 1, 1]
obj = 4204
----------
==========
	Command being timed: "mzn-grb -a lbbd-datasets/sscplp/trucks-dzn/model.mzn lbbd-datasets/sscplp/trucks-dzn/p11-l100-c300-correlated.dzn"
	User time (seconds): 253.53
	System time (seconds): 1.26
	Percent of CPU this job got: 99%
	Elapsed (wall clock) time (h:mm:ss or m:ss): 4:15.28
	Average shared text size (kbytes): 0
	Average unshared data size (kbytes): 0
	Average stack size (kbytes): 0
	Average total size (kbytes): 0
	Maximum resident set size (kbytes): 5687296
	Average resident set size (kbytes): 0
	Major (requiring I/O) page faults: 0
	Minor (reclaiming a frame) page faults: 333452
	Voluntary context switches: 6
	Involuntary context switches: 563
	Swaps: 0
	File system inputs: 0
	File system outputs: 64
	Socket messages sent: 0
	Socket messages received: 0
	Signals delivered: 0
	Page size (bytes): 4096
	Exit status: 0
