+ /usr/bin/timeout 600 /usr/bin/time -v mzn-grb -a lbbd-datasets/Rabadi-2006/dzn-balanced/model.mzn lbbd-datasets/Rabadi-2006/dzn-balanced/6on2Rp50Rs50_13Ameer.dzn
assign = array1d(1..8 ,[2, 2, 1, 1, 1, 2, 1, 2]);
next = array1d(1..8 ,[6, 1, 7, 5, 3, 8, 2, 4]);
makespan = 358;
----------
assign = array1d(1..8 ,[2, 1, 1, 2, 1, 2, 1, 2]);
next = array1d(1..8 ,[4, 5, 2, 8, 7, 1, 6, 3]);
makespan = 344;
----------
assign = array1d(1..8 ,[2, 1, 1, 1, 2, 2, 1, 2]);
next = array1d(1..8 ,[5, 7, 2, 3, 8, 1, 6, 4]);
makespan = 320;
----------
assign = array1d(1..8 ,[2, 1, 1, 1, 2, 2, 1, 2]);
next = array1d(1..8 ,[5, 7, 2, 3, 8, 1, 6, 4]);
makespan = 320;
----------
==========
	Command being timed: "mzn-grb -a lbbd-datasets/Rabadi-2006/dzn-balanced/model.mzn lbbd-datasets/Rabadi-2006/dzn-balanced/6on2Rp50Rs50_13Ameer.dzn"
	User time (seconds): 0.74
	System time (seconds): 0.01
	Percent of CPU this job got: 99%
	Elapsed (wall clock) time (h:mm:ss or m:ss): 0:00.76
	Average shared text size (kbytes): 0
	Average unshared data size (kbytes): 0
	Average stack size (kbytes): 0
	Average total size (kbytes): 0
	Maximum resident set size (kbytes): 70800
	Average resident set size (kbytes): 0
	Major (requiring I/O) page faults: 0
	Minor (reclaiming a frame) page faults: 4999
	Voluntary context switches: 6
	Involuntary context switches: 5
	Swaps: 0
	File system inputs: 0
	File system outputs: 8
	Socket messages sent: 0
	Socket messages received: 0
	Signals delivered: 0
	Page size (bytes): 4096
	Exit status: 0
