+ /usr/bin/timeout 600 /usr/bin/time -v mzn-grb -a lbbd-datasets/Rabadi-2006/dzn-p-dominant/model.mzn lbbd-datasets/Rabadi-2006/dzn-p-dominant/11on2Rp50Rs50_4Ameer.dzn
assign = array1d(1..13 ,[1, 1, 2, 2, 2, 2, 2, 2, 2, 2, 2, 1, 2]);
next = array1d(1..13 ,[2, 12, 5, 13, 11, 3, 6, 10, 8, 7, 4, 9, 1]);
makespan = 1962;
----------
assign = array1d(1..13 ,[2, 2, 2, 2, 1, 2, 2, 2, 2, 2, 1, 1, 2]);
next = array1d(1..13 ,[13, 10, 6, 3, 11, 1, 4, 2, 8, 7, 12, 9, 5]);
makespan = 1936;
----------
assign = array1d(1..13 ,[1, 1, 1, 2, 1, 1, 1, 1, 1, 2, 2, 1, 2]);
next = array1d(1..13 ,[6, 12, 9, 11, 1, 3, 5, 7, 2, 13, 10, 4, 8]);
makespan = 1657;
----------
assign = array1d(1..13 ,[1, 1, 2, 2, 2, 2, 1, 1, 1, 1, 2, 1, 2]);
next = array1d(1..13 ,[9, 8, 6, 11, 4, 13, 10, 7, 2, 12, 3, 5, 1]);
makespan = 1226;
----------
assign = array1d(1..13 ,[2, 1, 1, 2, 1, 2, 1, 1, 1, 2, 2, 1, 2]);
next = array1d(1..13 ,[10, 8, 2, 11, 9, 13, 5, 7, 12, 6, 1, 4, 3]);
makespan = 1187;
----------
assign = array1d(1..13 ,[2, 1, 1, 2, 1, 2, 1, 1, 1, 2, 2, 1, 2]);
next = array1d(1..13 ,[10, 8, 2, 11, 3, 13, 9, 7, 12, 6, 1, 4, 5]);
makespan = 1149;
----------
assign = array1d(1..13 ,[2, 1, 2, 1, 1, 2, 1, 1, 2, 2, 1, 1, 2]);
next = array1d(1..13 ,[10, 7, 9, 8, 11, 3, 5, 12, 13, 6, 4, 1, 2]);
makespan = 1144;
----------
assign = array1d(1..13 ,[2, 1, 2, 1, 1, 2, 1, 1, 2, 2, 1, 1, 2]);
next = array1d(1..13 ,[10, 8, 9, 12, 11, 3, 5, 7, 13, 6, 4, 1, 2]);
makespan = 1108;
----------
assign = array1d(1..13 ,[2, 1, 2, 2, 1, 2, 1, 1, 2, 1, 1, 1, 2]);
next = array1d(1..13 ,[13, 8, 9, 1, 11, 4, 5, 7, 6, 12, 10, 3, 2]);
makespan = 1107;
----------
assign = array1d(1..13 ,[2, 1, 2, 2, 1, 2, 1, 1, 2, 1, 1, 1, 2]);
next = array1d(1..13 ,[13, 8, 9, 1, 11, 4, 5, 7, 6, 12, 10, 3, 2]);
makespan = 1107;
----------
==========
	Command being timed: "mzn-grb -a lbbd-datasets/Rabadi-2006/dzn-p-dominant/model.mzn lbbd-datasets/Rabadi-2006/dzn-p-dominant/11on2Rp50Rs50_4Ameer.dzn"
	User time (seconds): 9.32
	System time (seconds): 0.03
	Percent of CPU this job got: 99%
	Elapsed (wall clock) time (h:mm:ss or m:ss): 0:09.38
	Average shared text size (kbytes): 0
	Average unshared data size (kbytes): 0
	Average stack size (kbytes): 0
	Average total size (kbytes): 0
	Maximum resident set size (kbytes): 121936
	Average resident set size (kbytes): 0
	Major (requiring I/O) page faults: 0
	Minor (reclaiming a frame) page faults: 12168
	Voluntary context switches: 6
	Involuntary context switches: 29
	Swaps: 0
	File system inputs: 0
	File system outputs: 8
	Socket messages sent: 0
	Socket messages received: 0
	Signals delivered: 0
	Page size (bytes): 4096
	Exit status: 0
