+ /usr/bin/timeout 600 /usr/bin/time -v mzn-grb -a lbbd-datasets/sscplp/trucks-dzn/model.mzn lbbd-datasets/sscplp/trucks-dzn/p19-l100-c150-uncorrelated.dzn
source = [11, 1, 9, 1, 20, 9, 9, 7, 11, 7, 7, 2, 20, 20, 3, 3, 11, 19, 2, 3, 19, 7, 11, 2, 9, 19, 3, 9, 19, 2, 19, 19, 2, 7, 1, 3, 7, 7, 7, 20]
open = [true, true, true, false, false, false, true, false, true, false, true, false, false, false, false, false, false, false, true, true]
trucks_used = [1, 1, 2, 0, 0, 0, 2, 0, 2, 0, 2, 0, 0, 0, 0, 0, 0, 0, 2, 1]
truck_assigned = [2, 1, 1, 1, 1, 1, 1, 1, 1, 2, 1, 1, 1, 1, 2, 2, 1, 1, 1, 1, 1, 1, 1, 1, 2, 1, 1, 1, 2, 1, 1, 2, 1, 1, 1, 1, 1, 1, 2, 1]
obj = 19085
----------
source = [11, 11, 9, 11, 20, 9, 9, 3, 11, 7, 7, 2, 20, 20, 3, 3, 11, 11, 7, 2, 19, 7, 7, 2, 9, 19, 3, 9, 19, 2, 19, 19, 2, 7, 20, 3, 7, 7, 7, 20]
open = [false, true, true, false, false, false, true, false, true, false, true, false, false, false, false, false, false, false, true, true]
trucks_used = [0, 1, 2, 0, 0, 0, 2, 0, 2, 0, 2, 0, 0, 0, 0, 0, 0, 0, 1, 2]
truck_assigned = [2, 1, 1, 1, 1, 1, 1, 1, 1, 2, 1, 1, 1, 2, 2, 2, 2, 1, 2, 1, 1, 1, 2, 1, 2, 1, 1, 1, 1, 1, 1, 1, 1, 1, 1, 1, 1, 1, 2, 1]
obj = 16221
----------
source = [11, 11, 9, 11, 20, 11, 9, 3, 11, 7, 7, 2, 20, 20, 20, 3, 11, 11, 7, 2, 19, 7, 11, 2, 9, 19, 3, 9, 19, 2, 19, 19, 2, 7, 20, 7, 7, 7, 7, 20]
open = [false, true, true, false, false, false, true, false, true, false, true, false, false, false, false, false, false, false, true, true]
trucks_used = [0, 1, 1, 0, 0, 0, 2, 0, 1, 0, 2, 0, 0, 0, 0, 0, 0, 0, 1, 2]
truck_assigned = [1, 2, 1, 2, 1, 2, 1, 1, 1, 2, 1, 1, 1, 2, 2, 1, 1, 1, 2, 1, 1, 1, 2, 1, 1, 1, 1, 1, 1, 1, 1, 1, 1, 1, 1, 1, 1, 1, 2, 1]
obj = 15940
----------
source = [11, 11, 19, 11, 3, 11, 9, 3, 20, 3, 7, 2, 11, 20, 20, 9, 11, 11, 7, 2, 19, 7, 11, 2, 9, 2, 3, 9, 19, 7, 19, 19, 2, 7, 3, 7, 7, 7, 7, 20]
open = [false, true, true, false, false, false, true, false, true, false, true, false, false, false, false, false, false, false, true, true]
trucks_used = [0, 1, 1, 0, 0, 0, 2, 0, 1, 0, 2, 0, 0, 0, 0, 0, 0, 0, 1, 1]
truck_assigned = [1, 1, 1, 2, 1, 1, 1, 1, 1, 1, 1, 1, 2, 1, 1, 1, 1, 1, 2, 1, 1, 1, 2, 1, 1, 1, 1, 1, 1, 2, 1, 1, 1, 1, 1, 2, 1, 1, 1, 1]
obj = 15905
----------
source = [19, 1, 9, 1, 1, 1, 9, 3, 3, 3, 19, 2, 9, 7, 1, 3, 9, 19, 7, 7, 19, 7, 7, 2, 9, 2, 3, 2, 19, 7, 19, 19, 2, 7, 1, 7, 7, 1, 7, 1]
open = [true, true, true, false, false, false, true, false, true, false, false, false, false, false, false, false, false, false, true, false]
trucks_used = [6, 1, 2, 0, 0, 0, 6, 0, 2, 0, 0, 0, 0, 0, 0, 0, 0, 0, 2, 0]
truck_assigned = [1, 2, 1, 5, 1, 1, 1, 2, 1, 1, 2, 1, 2, 1, 4, 1, 2, 1, 2, 3, 2, 1, 6, 1, 1, 1, 2, 1, 1, 2, 1, 2, 1, 1, 6, 2, 1, 1, 2, 6]
obj = 15247
----------
source = [19, 1, 19, 1, 1, 19, 1, 3, 3, 7, 7, 2, 19, 7, 1, 9, 3, 19, 2, 3, 19, 7, 7, 2, 9, 3, 3, 9, 2, 7, 19, 9, 2, 7, 1, 7, 7, 1, 7, 1]
open = [true, true, true, false, false, false, true, false, true, false, false, false, false, false, false, false, false, false, true, false]
trucks_used = [5, 1, 4, 0, 0, 0, 2, 0, 4, 0, 0, 0, 0, 0, 0, 0, 0, 0, 3, 0]
truck_assigned = [1, 5, 3, 1, 4, 2, 1, 1, 1, 1, 1, 1, 1, 2, 1, 1, 1, 1, 1, 4, 1, 1, 1, 1, 4, 2, 1, 1, 1, 2, 1, 2, 1, 2, 1, 1, 1, 2, 2, 2]
obj = 15244
----------
source = [19, 1, 19, 1, 1, 9, 9, 7, 3, 7, 19, 2, 19, 7, 1, 3, 3, 19, 2, 3, 19, 7, 7, 2, 9, 1, 3, 9, 2, 7, 19, 9, 2, 7, 1, 3, 7, 1, 7, 1]
open = [true, true, true, false, false, false, true, false, true, false, false, false, false, false, false, false, false, false, true, false]
trucks_used = [5, 1, 4, 0, 0, 0, 2, 0, 4, 0, 0, 0, 0, 0, 0, 0, 0, 0, 3, 0]
truck_assigned = [1, 5, 3, 1, 4, 2, 1, 1, 1, 1, 2, 1, 1, 2, 1, 2, 1, 1, 1, 4, 1, 1, 1, 1, 4, 1, 1, 1, 1, 2, 1, 2, 1, 2, 1, 2, 1, 2, 2, 2]
obj = 15202
----------
source = [19, 1, 19, 1, 1, 9, 9, 7, 3, 7, 19, 2, 19, 7, 1, 3, 3, 19, 2, 3, 19, 7, 7, 2, 9, 1, 3, 9, 2, 7, 19, 9, 2, 7, 1, 3, 7, 1, 7, 1]
open = [true, true, true, false, false, false, true, false, true, false, false, false, false, false, false, false, false, false, true, false]
trucks_used = [5, 1, 3, 0, 0, 0, 2, 0, 4, 0, 0, 0, 0, 0, 0, 0, 0, 0, 3, 0]
truck_assigned = [1, 5, 3, 1, 4, 2, 1, 1, 1, 1, 2, 1, 1, 1, 1, 2, 1, 1, 1, 3, 1, 1, 1, 1, 4, 1, 1, 1, 1, 2, 1, 2, 1, 2, 1, 2, 1, 2, 2, 2]
obj = 15052
----------
source = [19, 1, 19, 1, 1, 9, 9, 7, 3, 7, 19, 2, 19, 7, 1, 3, 3, 19, 2, 3, 19, 7, 7, 2, 9, 1, 3, 9, 2, 7, 19, 9, 2, 7, 1, 3, 7, 1, 7, 1]
open = [true, true, true, false, false, false, true, false, true, false, false, false, false, false, false, false, false, false, true, false]
trucks_used = [4, 1, 3, 0, 0, 0, 2, 0, 4, 0, 0, 0, 0, 0, 0, 0, 0, 0, 3, 0]
truck_assigned = [1, 4, 3, 1, 4, 2, 1, 1, 2, 2, 2, 1, 1, 1, 1, 3, 1, 1, 1, 3, 1, 1, 1, 1, 4, 1, 2, 1, 1, 2, 1, 2, 1, 2, 1, 2, 2, 2, 2, 2]
obj = 14902
----------
source = [19, 1, 19, 1, 1, 9, 9, 7, 3, 7, 19, 2, 19, 7, 1, 3, 3, 19, 2, 3, 19, 7, 7, 2, 9, 1, 3, 9, 2, 7, 19, 9, 2, 7, 1, 3, 7, 1, 7, 1]
open = [true, true, true, false, false, false, true, false, true, false, false, false, false, false, false, false, false, false, true, false]
trucks_used = [4, 1, 3, 0, 0, 0, 2, 0, 2, 0, 0, 0, 0, 0, 0, 0, 0, 0, 3, 0]
truck_assigned = [1, 4, 3, 1, 3, 2, 1, 1, 2, 2, 2, 1, 1, 1, 1, 3, 1, 1, 1, 3, 1, 1, 1, 1, 2, 1, 2, 1, 1, 2, 1, 1, 1, 2, 1, 2, 2, 2, 2, 2]
obj = 14602
----------
source = [19, 1, 19, 1, 1, 9, 9, 7, 3, 7, 19, 2, 19, 7, 1, 3, 3, 19, 2, 3, 19, 7, 7, 2, 9, 1, 3, 9, 2, 7, 19, 9, 2, 7, 1, 3, 7, 1, 7, 1]
open = [true, true, true, false, false, false, true, false, true, false, false, false, false, false, false, false, false, false, true, false]
trucks_used = [4, 1, 2, 0, 0, 0, 2, 0, 2, 0, 0, 0, 0, 0, 0, 0, 0, 0, 2, 0]
truck_assigned = [1, 4, 2, 1, 3, 2, 1, 1, 2, 1, 2, 1, 1, 1, 1, 1, 2, 1, 1, 2, 1, 1, 2, 1, 2, 1, 1, 1, 1, 1, 1, 1, 1, 2, 1, 1, 2, 2, 2, 2]
obj = 14302
----------
source = [19, 1, 19, 1, 1, 9, 9, 7, 3, 7, 19, 2, 19, 7, 1, 3, 3, 19, 2, 3, 19, 7, 7, 2, 9, 1, 3, 9, 2, 7, 19, 9, 2, 7, 1, 3, 7, 1, 7, 1]
open = [true, true, true, false, false, false, true, false, true, false, false, false, false, false, false, false, false, false, true, false]
trucks_used = [3, 1, 2, 0, 0, 0, 2, 0, 2, 0, 0, 0, 0, 0, 0, 0, 0, 0, 2, 0]
truck_assigned = [2, 3, 2, 1, 3, 1, 1, 1, 2, 1, 2, 1, 1, 2, 1, 1, 2, 2, 1, 2, 1, 1, 2, 1, 2, 2, 1, 1, 1, 1, 1, 2, 1, 2, 1, 1, 2, 2, 2, 2]
obj = 14152
----------
source = [19, 1, 19, 1, 1, 9, 9, 7, 3, 7, 19, 2, 9, 7, 1, 3, 3, 19, 2, 3, 19, 7, 7, 2, 9, 1, 3, 9, 2, 7, 19, 19, 2, 7, 1, 3, 7, 1, 7, 1]
open = [true, true, true, false, false, false, true, false, true, false, false, false, false, false, false, false, false, false, true, false]
trucks_used = [3, 1, 2, 0, 0, 0, 2, 0, 2, 0, 0, 0, 0, 0, 0, 0, 0, 0, 2, 0]
truck_assigned = [1, 3, 1, 1, 1, 1, 1, 1, 2, 1, 2, 1, 2, 2, 1, 1, 1, 1, 1, 1, 1, 1, 2, 1, 2, 2, 2, 1, 1, 1, 1, 2, 1, 2, 3, 2, 1, 2, 2, 2]
obj = 14128
----------
source = [2, 1, 19, 1, 1, 9, 1, 7, 3, 1, 7, 2, 19, 7, 3, 3, 3, 19, 2, 7, 19, 7, 7, 9, 9, 1, 3, 9, 19, 1, 19, 9, 2, 7, 1, 3, 7, 2, 7, 1]
open = [true, true, true, false, false, false, true, false, true, false, false, false, false, false, false, false, false, false, true, false]
trucks_used = [3, 1, 2, 0, 0, 0, 2, 0, 2, 0, 0, 0, 0, 0, 0, 0, 0, 0, 1, 0]
truck_assigned = [1, 3, 1, 1, 2, 1, 1, 1, 2, 3, 1, 1, 1, 1, 2, 1, 1, 1, 1, 2, 1, 1, 1, 1, 2, 1, 2, 1, 1, 2, 1, 2, 1, 2, 2, 1, 2, 1, 2, 1]
obj = 13992
----------
source = [2, 1, 19, 1, 1, 9, 9, 7, 3, 1, 7, 2, 19, 7, 3, 3, 3, 19, 2, 7, 19, 7, 7, 1, 9, 1, 3, 9, 19, 1, 19, 9, 2, 7, 1, 3, 7, 2, 7, 1]
open = [true, true, true, false, false, false, true, false, true, false, false, false, false, false, false, false, false, false, true, false]
trucks_used = [3, 1, 2, 0, 0, 0, 2, 0, 2, 0, 0, 0, 0, 0, 0, 0, 0, 0, 1, 0]
truck_assigned = [1, 3, 1, 3, 2, 1, 1, 1, 1, 3, 1, 1, 1, 1, 2, 1, 2, 1, 1, 2, 1, 1, 1, 2, 2, 2, 1, 1, 1, 2, 1, 2, 1, 2, 1, 2, 2, 1, 2, 1]
obj = 13983
----------
source = [2, 1, 19, 1, 1, 1, 9, 7, 3, 3, 7, 2, 19, 7, 1, 3, 3, 19, 7, 7, 19, 7, 7, 9, 9, 1, 3, 9, 19, 2, 19, 1, 2, 1, 1, 3, 7, 2, 7, 9]
open = [true, true, true, false, false, false, true, false, true, false, false, false, false, false, false, false, false, false, true, false]
trucks_used = [2, 1, 2, 0, 0, 0, 2, 0, 1, 0, 0, 0, 0, 0, 0, 0, 0, 0, 1, 0]
truck_assigned = [1, 2, 1, 1, 2, 2, 1, 2, 2, 1, 1, 1, 1, 1, 1, 2, 2, 1, 1, 2, 1, 1, 1, 1, 1, 1, 1, 1, 1, 1, 1, 2, 1, 1, 1, 1, 2, 1, 2, 1]
obj = 13968
----------
