+ /usr/bin/timeout 600 /usr/bin/time -v mzn-grb -a lbbd-datasets/planningandscheduling/cost-insts/model.mzn lbbd-datasets/planningandscheduling/cost-insts/de24j3m3.dzn
obj = 727
----------
obj = 712
----------
obj = 687
----------
obj = 683
----------
obj = 681
----------
obj = 676
----------
obj = 664
----------
obj = 663
----------
obj = 661
----------
obj = 651
----------
obj = 629
----------
