+ /usr/bin/timeout 600 /usr/bin/time -v mzn-grb -a lbbd-datasets/sscplp/trucks-dzn/model.mzn lbbd-datasets/sscplp/trucks-dzn/p19-l40-c50-correlated.dzn
source = [19, 1, 19, 11, 19, 9, 2, 11, 11, 1, 19, 2, 9, 7, 3, 7, 9, 11, 2, 7, 3, 7, 7, 2, 9, 3, 3, 9, 19, 7, 1, 19, 2, 3, 1, 3, 7, 1, 7, 1]
open = [true, true, true, false, false, false, true, false, true, false, true, false, false, false, false, false, false, false, true, false]
trucks_used = [3, 3, 3, 0, 0, 0, 4, 0, 3, 0, 2, 0, 0, 0, 0, 0, 0, 0, 3, 0]
truck_assigned = [2, 3, 1, 1, 2, 1, 1, 1, 2, 2, 3, 2, 1, 1, 3, 4, 3, 2, 1, 4, 3, 2, 3, 3, 2, 2, 2, 2, 1, 2, 2, 3, 2, 1, 3, 1, 3, 1, 1, 1]
obj = 15591
----------
source = [19, 1, 19, 11, 19, 9, 2, 11, 11, 1, 19, 2, 9, 7, 3, 7, 11, 11, 2, 7, 3, 7, 11, 2, 9, 3, 3, 9, 19, 7, 1, 19, 2, 3, 1, 3, 7, 1, 7, 1]
open = [true, true, true, false, false, false, true, false, true, false, true, false, false, false, false, false, false, false, true, false]
trucks_used = [3, 3, 3, 0, 0, 0, 4, 0, 2, 0, 3, 0, 0, 0, 0, 0, 0, 0, 3, 0]
truck_assigned = [2, 3, 1, 1, 2, 1, 2, 2, 3, 2, 3, 2, 1, 1, 3, 3, 1, 3, 1, 4, 3, 2, 2, 3, 2, 2, 2, 2, 1, 2, 2, 3, 3, 1, 3, 1, 3, 1, 1, 1]
obj = 15570
----------
source = [19, 1, 9, 1, 19, 19, 2, 7, 3, 1, 19, 2, 9, 7, 3, 7, 3, 19, 2, 7, 19, 7, 7, 2, 9, 3, 3, 9, 1, 14, 1, 19, 2, 3, 1, 3, 14, 1, 7, 1]
open = [true, true, true, false, false, false, true, false, true, false, false, false, false, true, false, false, false, false, true, false]
trucks_used = [4, 3, 4, 0, 0, 0, 4, 0, 2, 0, 0, 0, 0, 2, 0, 0, 0, 0, 4, 0]
truck_assigned = [4, 4, 2, 3, 3, 2, 2, 2, 4, 3, 3, 3, 2, 3, 2, 4, 3, 1, 2, 4, 4, 1, 2, 1, 1, 3, 1, 1, 1, 2, 1, 2, 1, 2, 2, 1, 1, 4, 1, 2]
obj = 14107
----------
source = [19, 1, 9, 1, 19, 19, 2, 7, 3, 1, 19, 2, 9, 7, 3, 7, 3, 19, 2, 7, 19, 7, 7, 2, 9, 3, 2, 9, 1, 14, 1, 19, 2, 3, 1, 3, 14, 1, 7, 1]
open = [true, true, true, false, false, false, true, false, true, false, false, false, false, true, false, false, false, false, true, false]
trucks_used = [4, 3, 3, 0, 0, 0, 4, 0, 2, 0, 0, 0, 0, 2, 0, 0, 0, 0, 4, 0]
truck_assigned = [4, 4, 2, 3, 1, 2, 2, 2, 3, 3, 4, 2, 2, 3, 1, 4, 3, 3, 1, 4, 1, 1, 2, 1, 1, 1, 3, 1, 1, 2, 1, 2, 3, 2, 2, 2, 1, 4, 3, 2]
obj = 14062
----------
source = [19, 3, 9, 11, 19, 9, 9, 11, 11, 2, 19, 9, 11, 7, 7, 7, 9, 19, 7, 3, 3, 7, 11, 2, 11, 3, 3, 9, 19, 14, 19, 19, 2, 11, 7, 3, 14, 2, 7, 7]
open = [false, true, true, false, false, false, true, false, true, false, true, false, false, true, false, false, false, false, true, false]
trucks_used = [0, 3, 5, 0, 0, 0, 5, 0, 4, 0, 5, 0, 0, 2, 0, 0, 0, 0, 4, 0]
truck_assigned = [4, 4, 2, 2, 1, 3, 1, 5, 2, 3, 4, 4, 4, 5, 2, 3, 4, 3, 3, 5, 1, 4, 1, 2, 3, 2, 3, 1, 2, 2, 1, 2, 1, 1, 1, 3, 1, 3, 1, 2]
obj = 13913
----------
source = [19, 1, 19, 1, 19, 19, 9, 7, 3, 1, 19, 2, 9, 7, 3, 7, 9, 19, 7, 3, 2, 7, 7, 1, 9, 3, 2, 9, 2, 1, 1, 19, 2, 3, 1, 3, 7, 1, 7, 1]
open = [true, true, true, false, false, false, true, false, true, false, false, false, false, false, false, false, false, false, true, false]
trucks_used = [8, 3, 5, 0, 0, 0, 5, 0, 4, 0, 0, 0, 0, 0, 0, 0, 0, 0, 5, 0]
truck_assigned = [4, 3, 5, 4, 1, 4, 1, 1, 3, 8, 2, 2, 1, 5, 4, 3, 4, 3, 3, 5, 2, 4, 1, 1, 2, 2, 1, 2, 1, 7, 5, 2, 3, 1, 1, 1, 4, 5, 2, 2]
obj = 13719
----------
source = [19, 1, 19, 1, 19, 19, 9, 7, 3, 1, 19, 2, 9, 7, 3, 7, 9, 19, 7, 3, 2, 7, 7, 1, 9, 3, 2, 9, 2, 1, 1, 19, 2, 3, 1, 3, 7, 1, 7, 1]
open = [true, true, true, false, false, false, true, false, true, false, false, false, false, false, false, false, false, false, true, false]
trucks_used = [7, 3, 5, 0, 0, 0, 5, 0, 4, 0, 0, 0, 0, 0, 0, 0, 0, 0, 5, 0]
truck_assigned = [4, 3, 5, 4, 1, 1, 1, 2, 3, 1, 2, 2, 1, 5, 2, 1, 4, 3, 3, 5, 2, 4, 1, 1, 2, 2, 1, 2, 1, 7, 5, 2, 3, 1, 2, 1, 4, 7, 2, 2]
obj = 13669
----------
source = [19, 1, 19, 1, 19, 19, 9, 7, 3, 1, 19, 2, 9, 7, 3, 7, 9, 19, 7, 2, 3, 7, 7, 1, 9, 3, 2, 9, 2, 1, 1, 19, 2, 3, 1, 3, 7, 1, 7, 1]
open = [true, true, true, false, false, false, true, false, true, false, false, false, false, false, false, false, false, false, true, false]
trucks_used = [7, 3, 3, 0, 0, 0, 4, 0, 3, 0, 0, 0, 0, 0, 0, 0, 0, 0, 5, 0]
truck_assigned = [2, 2, 5, 4, 3, 1, 3, 2, 1, 2, 3, 2, 1, 1, 2, 3, 1, 4, 4, 2, 3, 3, 2, 1, 2, 1, 1, 2, 1, 7, 3, 2, 3, 2, 1, 3, 4, 7, 1, 6]
obj = 13469
----------
source = [19, 1, 19, 1, 19, 19, 9, 7, 3, 1, 19, 2, 9, 7, 3, 7, 9, 19, 7, 2, 3, 7, 7, 1, 9, 3, 2, 9, 2, 1, 1, 19, 2, 3, 1, 3, 7, 1, 7, 1]
open = [true, true, true, false, false, false, true, false, true, false, false, false, false, false, false, false, false, false, true, false]
trucks_used = [6, 3, 3, 0, 0, 0, 4, 0, 3, 0, 0, 0, 0, 0, 0, 0, 0, 0, 5, 0]
truck_assigned = [2, 3, 5, 4, 3, 1, 3, 2, 1, 2, 3, 3, 3, 1, 2, 3, 1, 4, 4, 2, 3, 3, 2, 1, 2, 1, 1, 2, 1, 2, 5, 2, 3, 3, 1, 2, 4, 6, 1, 6]
obj = 13419
----------
source = [19, 1, 19, 1, 19, 9, 1, 7, 3, 1, 19, 2, 9, 7, 3, 7, 9, 19, 19, 2, 3, 7, 7, 1, 9, 3, 2, 9, 2, 7, 1, 19, 2, 3, 1, 3, 7, 1, 7, 1]
open = [true, true, true, false, false, false, true, false, true, false, false, false, false, false, false, false, false, false, true, false]
trucks_used = [6, 3, 3, 0, 0, 0, 4, 0, 3, 0, 0, 0, 0, 0, 0, 0, 0, 0, 5, 0]
truck_assigned = [2, 2, 5, 4, 3, 3, 3, 4, 1, 2, 3, 3, 2, 1, 2, 3, 1, 1, 4, 2, 3, 3, 2, 1, 1, 1, 1, 2, 1, 2, 5, 2, 3, 3, 5, 2, 4, 6, 1, 6]
obj = 13414
----------
source = [19, 1, 9, 1, 19, 19, 2, 7, 3, 1, 19, 9, 9, 7, 3, 7, 3, 19, 2, 2, 19, 7, 7, 2, 9, 3, 3, 9, 1, 7, 1, 19, 2, 3, 1, 3, 7, 1, 7, 1]
open = [true, true, true, false, false, false, true, false, true, false, false, false, false, false, false, false, false, false, true, false]
trucks_used = [5, 3, 4, 0, 0, 0, 4, 0, 3, 0, 0, 0, 0, 0, 0, 0, 0, 0, 4, 0]
truck_assigned = [4, 5, 2, 4, 2, 1, 2, 4, 4, 1, 2, 1, 2, 1, 2, 3, 4, 3, 3, 2, 4, 3, 2, 1, 3, 1, 1, 1, 1, 2, 3, 1, 3, 3, 2, 2, 4, 5, 1, 2]
obj = 13382
----------
source = [19, 1, 9, 1, 19, 9, 2, 7, 3, 1, 19, 2, 9, 7, 3, 7, 3, 19, 19, 2, 19, 7, 7, 9, 2, 3, 3, 9, 1, 7, 1, 19, 2, 3, 1, 3, 7, 1, 7, 1]
open = [true, true, true, false, false, false, true, false, true, false, false, false, false, false, false, false, false, false, true, false]
trucks_used = [5, 3, 4, 0, 0, 0, 4, 0, 3, 0, 0, 0, 0, 0, 0, 0, 0, 0, 4, 0]
truck_assigned = [4, 5, 3, 4, 1, 1, 2, 4, 1, 1, 2, 3, 2, 1, 4, 2, 3, 3, 4, 2, 1, 3, 2, 3, 1, 3, 2, 2, 1, 4, 3, 2, 3, 2, 2, 1, 3, 5, 1, 2]
obj = 13380
----------
source = [19, 1, 9, 1, 19, 9, 9, 7, 3, 1, 19, 2, 9, 7, 3, 7, 3, 19, 19, 2, 19, 7, 7, 2, 2, 3, 3, 9, 1, 7, 1, 19, 2, 3, 1, 3, 7, 1, 7, 1]
open = [true, true, true, false, false, false, true, false, true, false, false, false, false, false, false, false, false, false, true, false]
trucks_used = [5, 3, 4, 0, 0, 0, 4, 0, 3, 0, 0, 0, 0, 0, 0, 0, 0, 0, 4, 0]
truck_assigned = [4, 5, 3, 4, 1, 1, 2, 4, 1, 1, 2, 3, 2, 1, 4, 2, 3, 3, 1, 2, 4, 3, 2, 2, 1, 1, 2, 1, 1, 3, 3, 2, 3, 2, 2, 3, 4, 5, 1, 2]
obj = 13363
----------
source = [2, 1, 9, 1, 19, 19, 1, 9, 3, 1, 19, 2, 9, 7, 7, 7, 3, 3, 2, 3, 19, 7, 7, 1, 9, 3, 2, 2, 1, 1, 19, 19, 2, 3, 1, 3, 7, 1, 7, 7]
open = [true, true, true, false, false, false, true, false, true, false, false, false, false, false, false, false, false, false, true, false]
trucks_used = [5, 3, 4, 0, 0, 0, 4, 0, 2, 0, 0, 0, 0, 0, 0, 0, 0, 0, 3, 0]
truck_assigned = [2, 5, 2, 2, 3, 2, 3, 1, 1, 2, 1, 2, 1, 1, 2, 4, 2, 3, 1, 4, 3, 4, 2, 1, 2, 4, 3, 3, 1, 4, 2, 1, 1, 2, 4, 1, 3, 5, 1, 3]
obj = 13357
----------
