+ /usr/bin/timeout 600 /usr/bin/time -v mzn-grb -a lbbd-datasets/sscplp/trucks-dzn/model.mzn lbbd-datasets/sscplp/trucks-dzn/p21-l40-c50-uncorrelated.dzn
source = [12, 9, 12, 5, 12, 12, 2, 15, 8, 15, 7, 17, 7, 17, 2, 20, 2, 2, 15, 18, 11, 20, 8, 7, 9, 11, 12, 9, 5, 9, 17, 17, 12, 15, 11, 6, 11, 18, 20, 6]
open = [false, true, false, false, true, true, true, true, true, false, true, true, false, false, true, false, true, true, false, true]
trucks_used = [0, 2, 0, 0, 1, 1, 1, 2, 2, 0, 2, 4, 0, 0, 2, 0, 3, 1, 0, 2]
truck_assigned = [3, 2, 2, 1, 2, 4, 1, 2, 1, 2, 1, 3, 1, 1, 2, 1, 2, 1, 1, 1, 1, 1, 2, 1, 2, 2, 1, 1, 1, 1, 2, 2, 1, 1, 1, 1, 2, 1, 2, 1]
obj = 7155
----------
source = [15, 9, 8, 5, 12, 2, 2, 15, 6, 15, 7, 7, 9, 15, 1, 20, 2, 2, 15, 18, 7, 20, 8, 7, 11, 11, 12, 9, 5, 8, 15, 9, 12, 9, 11, 6, 11, 18, 20, 2]
open = [true, true, false, false, true, true, true, true, true, false, true, true, false, false, true, false, false, true, false, true]
trucks_used = [1, 2, 0, 0, 1, 1, 2, 3, 3, 0, 2, 2, 0, 0, 3, 0, 0, 1, 0, 2]
truck_assigned = [2, 3, 2, 1, 1, 2, 2, 2, 1, 3, 2, 2, 2, 1, 1, 1, 1, 1, 1, 1, 1, 1, 3, 1, 1, 2, 1, 1, 1, 1, 1, 1, 2, 3, 1, 1, 1, 1, 2, 1]
obj = 6890
----------
source = [15, 9, 8, 5, 12, 2, 2, 15, 6, 15, 7, 7, 9, 15, 1, 20, 2, 2, 15, 18, 7, 20, 8, 7, 11, 11, 12, 9, 5, 8, 15, 9, 6, 9, 11, 6, 11, 18, 20, 2]
open = [true, true, false, false, true, true, true, true, true, false, true, true, false, false, true, false, false, true, false, true]
trucks_used = [1, 2, 0, 0, 1, 1, 2, 3, 3, 0, 2, 1, 0, 0, 3, 0, 0, 1, 0, 2]
truck_assigned = [2, 3, 2, 1, 1, 2, 2, 2, 1, 3, 2, 2, 2, 2, 1, 1, 2, 1, 1, 1, 1, 1, 3, 1, 1, 2, 1, 1, 1, 1, 1, 1, 1, 3, 1, 1, 1, 1, 2, 1]
obj = 6843
----------
source = [15, 9, 8, 5, 9, 2, 2, 15, 6, 11, 7, 7, 9, 15, 1, 20, 2, 2, 15, 18, 7, 20, 8, 7, 11, 11, 2, 9, 5, 8, 15, 9, 6, 9, 11, 6, 11, 18, 20, 2]
open = [true, true, false, false, true, true, true, true, true, false, true, false, false, false, true, false, false, true, false, true]
trucks_used = [1, 2, 0, 0, 1, 1, 2, 3, 3, 0, 2, 0, 0, 0, 2, 0, 0, 1, 0, 2]
truck_assigned = [1, 2, 2, 1, 1, 2, 2, 2, 1, 2, 2, 2, 2, 2, 1, 1, 2, 1, 1, 1, 1, 1, 3, 1, 1, 2, 1, 1, 1, 1, 2, 3, 1, 1, 1, 1, 1, 1, 2, 1]
obj = 6184
----------
source = [15, 9, 8, 5, 9, 18, 2, 15, 6, 15, 7, 7, 7, 20, 2, 18, 2, 20, 15, 9, 7, 20, 8, 20, 11, 11, 11, 9, 6, 8, 15, 9, 5, 9, 11, 6, 11, 18, 20, 2]
open = [false, true, false, false, true, true, true, true, true, false, true, false, false, false, true, false, false, true, false, true]
trucks_used = [0, 3, 0, 0, 2, 1, 2, 3, 3, 0, 3, 0, 0, 0, 2, 0, 0, 2, 0, 4]
truck_assigned = [2, 2, 1, 2, 2, 2, 1, 2, 1, 1, 2, 1, 2, 2, 3, 1, 1, 3, 1, 1, 1, 2, 3, 1, 1, 3, 2, 1, 1, 2, 2, 3, 1, 1, 1, 1, 1, 2, 4, 2]
obj = 6118
----------
source = [15, 9, 8, 5, 20, 18, 2, 15, 6, 15, 7, 7, 7, 15, 2, 18, 2, 20, 15, 9, 7, 20, 8, 20, 11, 11, 11, 9, 6, 8, 15, 9, 5, 9, 11, 6, 11, 18, 20, 2]
open = [false, true, false, false, true, true, true, true, true, false, true, false, false, false, true, false, false, true, false, true]
trucks_used = [0, 3, 0, 0, 2, 1, 2, 3, 2, 0, 3, 0, 0, 0, 3, 0, 0, 2, 0, 4]
truck_assigned = [3, 1, 1, 2, 2, 2, 3, 2, 1, 1, 2, 2, 1, 1, 3, 1, 1, 3, 2, 2, 1, 2, 3, 1, 3, 3, 2, 1, 1, 2, 2, 2, 1, 1, 1, 1, 2, 2, 4, 2]
obj = 6114
----------
source = [15, 20, 8, 5, 20, 18, 2, 15, 6, 15, 7, 7, 9, 15, 18, 20, 2, 2, 15, 9, 7, 7, 8, 20, 11, 11, 2, 9, 5, 8, 15, 9, 6, 9, 11, 6, 11, 18, 20, 2]
open = [false, true, false, false, true, true, true, true, true, false, true, false, false, false, true, false, false, true, false, true]
trucks_used = [0, 2, 0, 0, 1, 1, 2, 3, 2, 0, 2, 0, 0, 0, 3, 0, 0, 2, 0, 4]
truck_assigned = [3, 3, 3, 1, 1, 2, 1, 2, 1, 3, 2, 2, 1, 1, 1, 1, 1, 2, 1, 2, 1, 1, 2, 2, 2, 2, 1, 1, 1, 1, 2, 2, 1, 1, 1, 1, 1, 2, 4, 2]
obj = 5961
----------
source = [15, 20, 8, 5, 20, 2, 2, 15, 6, 11, 7, 7, 9, 15, 18, 20, 2, 2, 15, 9, 7, 7, 8, 20, 11, 11, 2, 9, 5, 8, 15, 9, 6, 9, 11, 6, 11, 18, 20, 2]
open = [false, true, false, false, true, true, true, true, true, false, true, false, false, false, true, false, false, true, false, true]
trucks_used = [0, 2, 0, 0, 1, 1, 2, 3, 2, 0, 2, 0, 0, 0, 2, 0, 0, 1, 0, 4]
truck_assigned = [1, 3, 3, 1, 1, 2, 2, 2, 1, 2, 2, 2, 1, 1, 1, 1, 1, 1, 1, 2, 1, 1, 2, 2, 1, 2, 1, 1, 1, 1, 2, 2, 1, 1, 1, 1, 1, 1, 4, 2]
obj = 5832
----------
