+ /usr/bin/timeout 600 /usr/bin/time -v mzn-grb -a lbbd-datasets/sscplp/trucks-dzn/model.mzn lbbd-datasets/sscplp/trucks-dzn/p20-l40-c50-uncorrelated.dzn
source = [16, 7, 20, 7, 20, 2, 7, 16, 20, 16, 16, 2, 5, 5, 20, 17, 6, 15, 5, 10, 16, 2, 3, 4, 20, 5, 10, 5, 1, 7, 10, 10, 10, 1, 20, 2, 4, 1, 2, 17]
open = [true, true, true, true, true, true, true, false, false, true, false, false, false, false, true, true, true, false, false, true]
trucks_used = [2, 5, 1, 2, 3, 1, 3, 0, 0, 4, 0, 0, 0, 0, 1, 3, 1, 0, 0, 5]
truck_assigned = [3, 2, 3, 2, 2, 1, 3, 1, 4, 2, 3, 4, 2, 2, 1, 1, 1, 1, 1, 1, 2, 3, 1, 2, 1, 1, 2, 3, 1, 1, 4, 3, 1, 1, 5, 2, 1, 2, 5, 1]
obj = 21648
----------
source = [16, 7, 20, 7, 20, 2, 7, 16, 20, 16, 16, 2, 5, 5, 20, 17, 6, 15, 5, 10, 16, 2, 3, 4, 20, 5, 10, 5, 1, 15, 10, 10, 10, 1, 20, 2, 4, 1, 2, 17]
open = [true, true, true, true, true, true, true, false, false, true, false, false, false, false, true, true, true, false, false, true]
trucks_used = [2, 5, 1, 2, 3, 1, 2, 0, 0, 4, 0, 0, 0, 0, 1, 3, 1, 0, 0, 5]
truck_assigned = [3, 1, 3, 1, 2, 4, 2, 1, 4, 2, 3, 1, 1, 2, 1, 1, 1, 1, 2, 1, 2, 3, 1, 2, 1, 1, 1, 3, 1, 1, 4, 3, 2, 1, 5, 2, 1, 2, 5, 1]
obj = 21600
----------
source = [16, 7, 20, 7, 20, 2, 7, 16, 20, 16, 16, 2, 5, 5, 20, 17, 1, 15, 5, 10, 16, 2, 3, 4, 20, 5, 10, 5, 1, 15, 10, 10, 7, 10, 20, 2, 4, 1, 2, 17]
open = [true, true, true, true, true, false, true, false, false, true, false, false, false, false, true, true, true, false, false, true]
trucks_used = [2, 5, 1, 2, 3, 0, 4, 0, 0, 4, 0, 0, 0, 0, 1, 3, 1, 0, 0, 5]
truck_assigned = [3, 1, 3, 2, 5, 4, 4, 1, 1, 2, 3, 1, 1, 2, 2, 1, 1, 1, 2, 1, 2, 3, 1, 2, 1, 1, 3, 3, 1, 1, 4, 2, 3, 1, 4, 2, 1, 2, 5, 1]
obj = 20869
----------
source = [16, 7, 17, 7, 7, 2, 17, 10, 20, 16, 4, 6, 5, 5, 20, 16, 1, 4, 5, 10, 16, 2, 2, 20, 20, 5, 7, 5, 1, 15, 15, 10, 10, 6, 20, 16, 20, 1, 2, 17]
open = [true, true, false, true, true, true, true, false, false, true, false, false, false, false, true, true, true, false, false, true]
trucks_used = [2, 4, 0, 2, 3, 2, 2, 0, 0, 2, 0, 0, 0, 0, 2, 3, 2, 0, 0, 5]
truck_assigned = [3, 2, 2, 2, 2, 3, 1, 2, 4, 1, 1, 2, 2, 1, 1, 3, 1, 2, 1, 1, 1, 2, 1, 3, 2, 2, 1, 3, 1, 2, 1, 2, 1, 1, 2, 2, 5, 2, 4, 1]
obj = 18602
----------
source = [16, 7, 17, 7, 7, 6, 15, 17, 20, 16, 4, 6, 5, 5, 20, 16, 1, 4, 5, 10, 16, 2, 2, 20, 20, 5, 7, 5, 1, 15, 20, 10, 10, 10, 20, 2, 16, 1, 2, 10]
open = [true, true, false, true, true, true, true, false, false, true, false, false, false, false, true, true, true, false, false, true]
trucks_used = [2, 3, 0, 2, 3, 2, 2, 0, 0, 5, 0, 0, 0, 0, 2, 3, 1, 0, 0, 4]
truck_assigned = [1, 2, 1, 2, 2, 1, 1, 1, 2, 2, 1, 2, 1, 3, 1, 3, 1, 2, 2, 1, 2, 2, 1, 3, 2, 1, 1, 3, 1, 2, 4, 2, 1, 2, 4, 1, 1, 2, 3, 5]
obj = 18503
----------
source = [5, 7, 17, 7, 7, 6, 15, 17, 20, 16, 16, 6, 5, 5, 20, 16, 1, 4, 5, 10, 16, 2, 2, 20, 20, 5, 10, 4, 1, 15, 20, 10, 10, 16, 20, 2, 7, 1, 2, 10]
open = [true, true, false, true, true, true, true, false, false, true, false, false, false, false, true, true, true, false, false, true]
trucks_used = [2, 3, 0, 2, 3, 2, 2, 0, 0, 5, 0, 0, 0, 0, 2, 3, 1, 0, 0, 4]
truck_assigned = [3, 2, 1, 2, 2, 1, 1, 1, 2, 2, 1, 2, 1, 2, 3, 3, 1, 2, 2, 1, 2, 2, 1, 4, 1, 1, 1, 1, 1, 2, 3, 3, 2, 1, 1, 1, 1, 2, 3, 5]
obj = 18427
----------
source = [16, 7, 17, 7, 7, 2, 15, 16, 20, 16, 10, 6, 5, 5, 20, 17, 1, 4, 5, 10, 16, 20, 2, 20, 20, 5, 10, 4, 1, 15, 10, 10, 5, 16, 20, 2, 16, 1, 2, 6]
open = [true, true, false, true, true, true, true, false, false, true, false, false, false, false, true, true, true, false, false, true]
trucks_used = [2, 3, 0, 2, 2, 2, 1, 0, 0, 4, 0, 0, 0, 0, 2, 4, 1, 0, 0, 5]
truck_assigned = [1, 1, 1, 1, 1, 2, 1, 4, 2, 2, 4, 2, 1, 1, 3, 1, 1, 2, 2, 1, 3, 5, 1, 1, 1, 2, 1, 1, 1, 2, 2, 3, 1, 1, 4, 1, 3, 2, 3, 1]
obj = 18265
----------
source = [5, 7, 20, 7, 20, 17, 7, 16, 20, 16, 10, 2, 5, 5, 20, 2, 1, 15, 5, 10, 16, 2, 17, 4, 20, 16, 10, 5, 1, 15, 10, 10, 7, 10, 5, 4, 16, 1, 2, 17]
open = [true, true, false, true, true, false, true, false, false, true, false, false, false, false, true, true, true, false, false, true]
trucks_used = [2, 4, 0, 2, 3, 0, 3, 0, 0, 4, 0, 0, 0, 0, 1, 3, 2, 0, 0, 4]
truck_assigned = [2, 1, 3, 1, 2, 2, 3, 2, 1, 3, 4, 1, 2, 1, 4, 2, 1, 1, 1, 1, 3, 3, 1, 2, 3, 1, 1, 3, 1, 1, 2, 3, 2, 3, 1, 1, 1, 2, 4, 2]
obj = 17503
----------
source = [6, 7, 20, 7, 20, 17, 7, 16, 20, 16, 10, 7, 5, 5, 20, 17, 1, 15, 5, 10, 16, 2, 2, 20, 10, 16, 10, 5, 1, 15, 20, 10, 5, 16, 5, 2, 7, 1, 2, 6]
open = [true, true, false, false, true, true, true, false, false, true, false, false, false, false, true, true, true, false, false, true]
trucks_used = [2, 3, 0, 0, 3, 2, 3, 0, 0, 4, 0, 0, 0, 0, 1, 4, 2, 0, 0, 5]
truck_assigned = [2, 1, 1, 1, 2, 2, 3, 4, 4, 3, 4, 2, 2, 2, 3, 2, 1, 1, 1, 1, 3, 2, 1, 5, 1, 2, 2, 3, 1, 1, 3, 3, 1, 1, 1, 1, 2, 2, 3, 1]
obj = 17093
----------
source = [6, 7, 20, 7, 7, 17, 10, 16, 20, 16, 10, 7, 5, 5, 20, 17, 1, 15, 5, 10, 16, 2, 2, 20, 20, 16, 10, 5, 1, 15, 20, 10, 5, 10, 5, 2, 16, 1, 2, 6]
open = [true, true, false, false, true, true, true, false, false, true, false, false, false, false, true, true, true, false, false, true]
trucks_used = [2, 3, 0, 0, 3, 2, 2, 0, 0, 4, 0, 0, 0, 0, 1, 4, 2, 0, 0, 4]
truck_assigned = [2, 1, 2, 1, 2, 2, 3, 4, 4, 1, 4, 2, 2, 2, 3, 2, 1, 1, 1, 1, 1, 2, 1, 1, 3, 3, 2, 3, 1, 1, 2, 3, 1, 2, 1, 1, 2, 2, 3, 1]
obj = 17039
----------
source = [16, 7, 20, 7, 7, 17, 17, 16, 20, 16, 10, 7, 6, 5, 20, 16, 1, 15, 5, 10, 10, 2, 2, 20, 20, 5, 10, 5, 1, 15, 20, 10, 5, 6, 5, 2, 16, 1, 2, 17]
open = [true, true, false, false, true, true, true, false, false, true, false, false, false, false, true, true, true, false, false, true]
trucks_used = [2, 3, 0, 0, 3, 1, 2, 0, 0, 4, 0, 0, 0, 0, 1, 3, 2, 0, 0, 4]
truck_assigned = [1, 1, 2, 1, 2, 1, 2, 3, 4, 2, 4, 2, 1, 2, 3, 1, 1, 1, 1, 1, 1, 2, 1, 1, 3, 2, 2, 3, 1, 1, 1, 3, 1, 1, 1, 1, 2, 2, 3, 1]
obj = 16994
----------
source = [6, 2, 20, 7, 20, 6, 7, 17, 20, 16, 16, 7, 2, 5, 16, 17, 1, 15, 5, 10, 16, 10, 2, 20, 20, 5, 10, 5, 1, 15, 20, 10, 5, 10, 5, 16, 7, 1, 2, 7]
open = [true, true, false, false, true, true, true, false, false, true, false, false, false, false, true, true, true, false, false, true]
trucks_used = [2, 3, 0, 0, 3, 2, 4, 0, 0, 3, 0, 0, 0, 0, 1, 2, 1, 0, 0, 4]
truck_assigned = [2, 3, 3, 1, 4, 1, 4, 1, 2, 2, 1, 1, 1, 2, 1, 1, 1, 1, 1, 2, 2, 3, 3, 1, 3, 2, 2, 3, 1, 1, 1, 1, 1, 1, 3, 1, 1, 2, 2, 3]
obj = 16966
----------
source = [6, 7, 20, 7, 20, 2, 7, 17, 20, 16, 16, 7, 2, 5, 16, 17, 1, 15, 5, 10, 16, 10, 2, 20, 20, 5, 10, 5, 1, 15, 20, 10, 5, 10, 5, 16, 16, 1, 2, 6]
open = [true, true, false, false, true, true, true, false, false, true, false, false, false, false, true, true, true, false, false, true]
trucks_used = [2, 4, 0, 0, 3, 2, 2, 0, 0, 3, 0, 0, 0, 0, 1, 3, 1, 0, 0, 4]
truck_assigned = [2, 1, 3, 1, 4, 4, 2, 1, 2, 3, 1, 1, 2, 2, 1, 1, 1, 1, 1, 2, 2, 3, 1, 1, 3, 2, 2, 3, 1, 1, 1, 1, 1, 1, 3, 1, 2, 2, 3, 1]
obj = 16905
----------
source = [6, 7, 20, 7, 20, 2, 7, 17, 20, 16, 16, 7, 2, 5, 16, 17, 1, 15, 5, 10, 16, 2, 20, 20, 20, 5, 10, 5, 1, 15, 10, 10, 5, 10, 5, 16, 16, 1, 2, 6]
open = [true, true, false, false, true, true, true, false, false, true, false, false, false, false, true, true, true, false, false, true]
trucks_used = [2, 4, 0, 0, 3, 2, 2, 0, 0, 3, 0, 0, 0, 0, 1, 3, 1, 0, 0, 4]
truck_assigned = [2, 1, 1, 1, 4, 4, 2, 1, 2, 3, 3, 1, 2, 1, 1, 1, 1, 1, 2, 2, 2, 1, 2, 3, 3, 2, 2, 3, 1, 1, 1, 3, 1, 3, 3, 1, 2, 2, 3, 1]
obj = 16904
----------
source = [6, 7, 2, 7, 20, 2, 7, 17, 20, 16, 16, 7, 5, 5, 20, 17, 1, 15, 5, 10, 16, 2, 20, 20, 20, 16, 10, 5, 1, 15, 10, 10, 5, 10, 5, 16, 16, 1, 2, 6]
open = [true, true, false, false, true, true, true, false, false, true, false, false, false, false, true, true, true, false, false, true]
trucks_used = [2, 4, 0, 0, 3, 2, 2, 0, 0, 3, 0, 0, 0, 0, 1, 3, 1, 0, 0, 4]
truck_assigned = [2, 1, 2, 1, 4, 4, 2, 1, 1, 3, 3, 1, 1, 1, 2, 1, 1, 1, 2, 2, 2, 1, 2, 3, 3, 1, 2, 3, 1, 1, 1, 3, 2, 3, 3, 1, 2, 2, 3, 1]
obj = 16902
----------
