+ /usr/bin/timeout 600 /usr/bin/time -v mzn-grb -a lbbd-datasets/Rabadi-2006/dzn-s-dominant/model.mzn lbbd-datasets/Rabadi-2006/dzn-s-dominant/8on4Rp50Rs50_9Ameer.dzn
assign = array1d(1..12 ,[3, 1, 2, 3, 1, 2, 4, 4, 1, 2, 3, 4]);
next = array1d(1..12 ,[11, 5, 10, 1, 9, 3, 8, 12, 6, 4, 7, 2]);
makespan = 292;
----------
assign = array1d(1..12 ,[2, 1, 2, 3, 4, 1, 4, 3, 1, 2, 3, 4]);
next = array1d(1..12 ,[10, 9, 1, 8, 7, 2, 12, 11, 3, 4, 5, 6]);
makespan = 283;
----------
assign = array1d(1..12 ,[1, 4, 3, 2, 1, 2, 4, 3, 1, 2, 3, 4]);
next = array1d(1..12 ,[9, 7, 8, 10, 1, 4, 12, 11, 6, 3, 2, 5]);
makespan = 278;
----------
assign = array1d(1..12 ,[2, 3, 2, 4, 1, 1, 4, 3, 1, 2, 3, 4]);
next = array1d(1..12 ,[3, 11, 10, 12, 6, 9, 4, 2, 1, 8, 7, 5]);
makespan = 271;
----------
assign = array1d(1..12 ,[4, 1, 3, 2, 1, 2, 4, 3, 1, 2, 3, 4]);
next = array1d(1..12 ,[7, 9, 8, 10, 2, 4, 12, 11, 6, 3, 1, 5]);
makespan = 270;
----------
assign = array1d(1..12 ,[2, 1, 3, 4, 1, 2, 4, 3, 1, 2, 3, 4]);
next = array1d(1..12 ,[6, 9, 8, 7, 2, 10, 12, 11, 1, 3, 4, 5]);
makespan = 268;
----------
assign = array1d(1..12 ,[2, 1, 3, 4, 1, 2, 4, 3, 1, 2, 3, 4]);
next = array1d(1..12 ,[6, 9, 8, 7, 2, 10, 12, 11, 1, 3, 4, 5]);
makespan = 268;
----------
==========
	Command being timed: "mzn-grb -a lbbd-datasets/Rabadi-2006/dzn-s-dominant/model.mzn lbbd-datasets/Rabadi-2006/dzn-s-dominant/8on4Rp50Rs50_9Ameer.dzn"
	User time (seconds): 5.01
	System time (seconds): 0.03
	Percent of CPU this job got: 99%
	Elapsed (wall clock) time (h:mm:ss or m:ss): 0:05.06
	Average shared text size (kbytes): 0
	Average unshared data size (kbytes): 0
	Average stack size (kbytes): 0
	Average total size (kbytes): 0
	Maximum resident set size (kbytes): 122784
	Average resident set size (kbytes): 0
	Major (requiring I/O) page faults: 0
	Minor (reclaiming a frame) page faults: 10675
	Voluntary context switches: 6
	Involuntary context switches: 8
	Swaps: 0
	File system inputs: 0
	File system outputs: 8
	Socket messages sent: 0
	Socket messages received: 0
	Signals delivered: 0
	Page size (bytes): 4096
	Exit status: 0
