+ /usr/bin/timeout 600 /usr/bin/time -v mzn-grb -a lbbd-datasets/Rabadi-2006/dzn-balanced/model.mzn lbbd-datasets/Rabadi-2006/dzn-balanced/8on2Rp50Rs50_12Ameer.dzn
assign = array1d(1..10 ,[1, 2, 2, 2, 2, 1, 1, 1, 1, 2]);
next = array1d(1..10 ,[8, 3, 10, 2, 4, 9, 6, 7, 5, 1]);
makespan = 488;
----------
assign = array1d(1..10 ,[2, 2, 1, 2, 2, 1, 1, 1, 1, 2]);
next = array1d(1..10 ,[5, 4, 8, 10, 2, 3, 9, 7, 1, 6]);
makespan = 468;
----------
assign = array1d(1..10 ,[2, 2, 1, 2, 2, 1, 1, 1, 1, 2]);
next = array1d(1..10 ,[5, 1, 8, 10, 4, 3, 9, 7, 2, 6]);
makespan = 438;
----------
assign = array1d(1..10 ,[2, 2, 1, 2, 2, 1, 1, 1, 1, 2]);
next = array1d(1..10 ,[5, 1, 8, 10, 4, 3, 9, 7, 2, 6]);
makespan = 438;
----------
==========
	Command being timed: "mzn-grb -a lbbd-datasets/Rabadi-2006/dzn-balanced/model.mzn lbbd-datasets/Rabadi-2006/dzn-balanced/8on2Rp50Rs50_12Ameer.dzn"
	User time (seconds): 1.24
	System time (seconds): 0.02
	Percent of CPU this job got: 99%
	Elapsed (wall clock) time (h:mm:ss or m:ss): 0:01.27
	Average shared text size (kbytes): 0
	Average unshared data size (kbytes): 0
	Average stack size (kbytes): 0
	Average total size (kbytes): 0
	Maximum resident set size (kbytes): 86352
	Average resident set size (kbytes): 0
	Major (requiring I/O) page faults: 0
	Minor (reclaiming a frame) page faults: 6622
	Voluntary context switches: 6
	Involuntary context switches: 5
	Swaps: 0
	File system inputs: 0
	File system outputs: 8
	Socket messages sent: 0
	Socket messages received: 0
	Signals delivered: 0
	Page size (bytes): 4096
	Exit status: 0
