+ /usr/bin/timeout 600 /usr/bin/time -v mzn-grb -a lbbd-datasets/planningandscheduling/cost-insts/model.mzn lbbd-datasets/planningandscheduling/cost-insts/c22j3m4.dzn
obj = 517
----------
obj = 498
----------
obj = 491
----------
obj = 484
----------
