+ /usr/bin/timeout 600 /usr/bin/time -v mzn-grb -a lbbd-datasets/Rabadi-2006/dzn-p-dominant/model.mzn lbbd-datasets/Rabadi-2006/dzn-p-dominant/10on2Rp50Rs50_14Ameer.dzn
assign = array1d(1..12 ,[2, 2, 2, 1, 1, 2, 2, 1, 2, 1, 1, 2]);
next = array1d(1..12 ,[2, 12, 9, 10, 4, 3, 6, 5, 1, 11, 7, 8]);
makespan = 1293;
----------
assign = array1d(1..12 ,[1, 2, 1, 1, 2, 2, 1, 1, 1, 2, 1, 2]);
next = array1d(1..12 ,[4, 10, 11, 7, 2, 12, 3, 9, 1, 6, 5, 8]);
makespan = 1195;
----------
assign = array1d(1..12 ,[1, 2, 1, 1, 2, 2, 2, 1, 1, 2, 1, 2]);
next = array1d(1..12 ,[4, 5, 1, 9, 6, 12, 2, 11, 8, 7, 10, 3]);
makespan = 1042;
----------
assign = array1d(1..12 ,[1, 2, 1, 1, 2, 2, 1, 1, 2, 2, 1, 2]);
next = array1d(1..12 ,[7, 6, 11, 1, 12, 10, 3, 4, 5, 9, 2, 8]);
makespan = 1004;
----------
assign = array1d(1..12 ,[1, 2, 2, 1, 2, 2, 1, 1, 2, 1, 1, 2]);
next = array1d(1..12 ,[4, 5, 2, 11, 9, 3, 8, 1, 12, 7, 6, 10]);
makespan = 958;
----------
assign = array1d(1..12 ,[1, 2, 1, 2, 2, 1, 1, 2, 2, 1, 1, 2]);
next = array1d(1..12 ,[7, 12, 11, 8, 2, 10, 3, 9, 5, 1, 4, 6]);
makespan = 957;
----------
assign = array1d(1..12 ,[1, 2, 1, 1, 2, 2, 1, 1, 2, 2, 1, 2]);
next = array1d(1..12 ,[4, 10, 8, 11, 2, 12, 3, 1, 5, 6, 9, 7]);
makespan = 955;
----------
assign = array1d(1..12 ,[1, 2, 1, 2, 2, 1, 1, 2, 2, 1, 1, 2]);
next = array1d(1..12 ,[7, 5, 11, 2, 9, 10, 3, 12, 8, 1, 4, 6]);
makespan = 953;
----------
assign = array1d(1..12 ,[1, 2, 1, 1, 2, 2, 1, 2, 2, 1, 1, 2]);
next = array1d(1..12 ,[4, 5, 10, 11, 9, 12, 1, 6, 8, 7, 2, 3]);
makespan = 951;
----------
assign = array1d(1..12 ,[1, 1, 2, 1, 2, 2, 1, 2, 2, 1, 1, 2]);
next = array1d(1..12 ,[4, 1, 5, 11, 9, 3, 2, 12, 8, 7, 6, 10]);
makespan = 950;
----------
assign = array1d(1..12 ,[1, 1, 2, 1, 2, 2, 1, 2, 2, 1, 1, 2]);
next = array1d(1..12 ,[4, 1, 5, 11, 9, 3, 2, 12, 8, 7, 6, 10]);
makespan = 950;
----------
==========
	Command being timed: "mzn-grb -a lbbd-datasets/Rabadi-2006/dzn-p-dominant/model.mzn lbbd-datasets/Rabadi-2006/dzn-p-dominant/10on2Rp50Rs50_14Ameer.dzn"
	User time (seconds): 1.40
	System time (seconds): 0.01
	Percent of CPU this job got: 99%
	Elapsed (wall clock) time (h:mm:ss or m:ss): 0:01.42
	Average shared text size (kbytes): 0
	Average unshared data size (kbytes): 0
	Average stack size (kbytes): 0
	Average total size (kbytes): 0
	Maximum resident set size (kbytes): 101872
	Average resident set size (kbytes): 0
	Major (requiring I/O) page faults: 0
	Minor (reclaiming a frame) page faults: 7880
	Voluntary context switches: 6
	Involuntary context switches: 4
	Swaps: 0
	File system inputs: 0
	File system outputs: 8
	Socket messages sent: 0
	Socket messages received: 0
	Signals delivered: 0
	Page size (bytes): 4096
	Exit status: 0
