+ /usr/bin/timeout 600 /usr/bin/time -v mzn-grb -a lbbd-datasets/sscplp/trucks-dzn/model.mzn lbbd-datasets/sscplp/trucks-dzn/p08-l40-c100-uncorrelated.dzn
source = [9, 1, 1, 1, 15, 1, 1, 1, 1, 1, 1, 1, 1, 9, 1, 14, 1, 1, 14, 15, 1, 1, 1, 13, 13, 14, 1, 15, 1, 1]
open = [true, false, false, false, false, false, false, false, true, false, false, false, true, true, true]
trucks_used = [20, 0, 0, 0, 0, 0, 0, 0, 1, 0, 0, 0, 1, 2, 2]
truck_assigned = [1, 2, 4, 3, 1, 12, 5, 1, 17, 9, 6, 7, 8, 1, 10, 1, 19, 2, 2, 2, 16, 20, 15, 1, 1, 1, 11, 1, 14, 13]
obj = 7491
----------
source = [9, 1, 1, 1, 15, 1, 1, 1, 1, 15, 1, 1, 1, 9, 1, 14, 1, 1, 14, 15, 1, 1, 1, 13, 13, 14, 1, 14, 1, 1]
open = [true, false, false, false, false, false, false, false, true, false, false, false, true, true, true]
trucks_used = [16, 0, 0, 0, 0, 0, 0, 0, 1, 0, 0, 0, 1, 2, 2]
truck_assigned = [1, 4, 4, 15, 1, 6, 3, 5, 2, 1, 1, 9, 8, 1, 10, 2, 11, 5, 2, 2, 16, 12, 7, 1, 1, 1, 13, 1, 14, 1]
obj = 7059
----------
source = [10, 1, 1, 1, 9, 1, 1, 1, 1, 9, 1, 1, 1, 9, 1, 14, 1, 1, 10, 9, 1, 1, 1, 1, 9, 9, 1, 14, 1, 1]
open = [true, false, false, false, false, false, false, false, true, true, false, false, false, true, false]
trucks_used = [16, 0, 0, 0, 0, 0, 0, 0, 6, 1, 0, 0, 0, 1, 0]
truck_assigned = [1, 4, 4, 3, 1, 6, 1, 5, 2, 3, 1, 9, 8, 1, 10, 1, 11, 5, 1, 1, 13, 16, 15, 7, 4, 6, 12, 1, 14, 13]
obj = 6312
----------
source = [10, 1, 1, 1, 9, 1, 1, 1, 1, 1, 1, 1, 1, 9, 1, 13, 1, 1, 10, 9, 1, 1, 1, 13, 13, 9, 1, 13, 1, 1]
open = [true, false, false, false, false, false, false, false, true, true, false, false, true, false, false]
trucks_used = [16, 0, 0, 0, 0, 0, 0, 0, 2, 1, 0, 0, 4, 0, 0]
truck_assigned = [1, 4, 13, 7, 1, 9, 1, 5, 2, 15, 1, 8, 3, 1, 10, 4, 11, 5, 1, 1, 4, 16, 6, 3, 2, 2, 12, 1, 14, 2]
obj = 6059
----------
source = [10, 1, 13, 1, 9, 1, 1, 1, 1, 1, 1, 1, 1, 9, 1, 13, 1, 1, 10, 9, 1, 1, 1, 13, 13, 9, 1, 13, 1, 1]
open = [true, false, false, false, false, false, false, false, true, true, false, false, true, false, false]
trucks_used = [15, 0, 0, 0, 0, 0, 0, 0, 2, 1, 0, 0, 4, 0, 0]
truck_assigned = [1, 4, 1, 12, 1, 9, 7, 5, 2, 15, 7, 8, 3, 1, 10, 4, 11, 10, 1, 1, 4, 13, 6, 3, 3, 2, 1, 2, 14, 2]
obj = 5900
----------
source = [15, 1, 1, 1, 9, 1, 1, 1, 1, 1, 1, 1, 1, 9, 1, 15, 9, 1, 9, 9, 1, 1, 1, 1, 15, 9, 1, 9, 1, 1]
open = [true, false, false, false, false, false, false, false, true, false, false, false, false, false, true]
trucks_used = [16, 0, 0, 0, 0, 0, 0, 0, 4, 0, 0, 0, 0, 0, 3]
truck_assigned = [2, 8, 8, 13, 3, 9, 7, 5, 2, 16, 7, 4, 3, 1, 10, 1, 3, 10, 2, 1, 15, 1, 14, 12, 3, 4, 6, 1, 11, 2]
obj = 5786
----------
source = [10, 1, 1, 1, 9, 1, 1, 1, 1, 1, 1, 1, 1, 9, 1, 8, 1, 1, 10, 9, 9, 1, 1, 1, 9, 9, 1, 8, 1, 1]
open = [true, false, false, false, false, false, false, true, true, true, false, false, false, false, false]
trucks_used = [16, 0, 0, 0, 0, 0, 0, 1, 3, 1, 0, 0, 0, 0, 0]
truck_assigned = [1, 8, 8, 6, 2, 2, 14, 1, 5, 11, 14, 4, 16, 2, 7, 1, 3, 1, 1, 2, 3, 12, 9, 15, 3, 1, 13, 1, 10, 5]
obj = 5752
----------
source = [15, 1, 1, 1, 9, 1, 1, 1, 1, 1, 1, 1, 1, 9, 1, 15, 1, 1, 9, 9, 1, 1, 1, 1, 9, 9, 1, 15, 1, 1]
open = [true, false, false, false, false, false, false, false, true, false, false, false, false, false, true]
trucks_used = [17, 0, 0, 0, 0, 0, 0, 0, 4, 0, 0, 0, 0, 0, 2]
truck_assigned = [2, 15, 15, 14, 1, 7, 12, 2, 17, 4, 12, 8, 1, 1, 9, 1, 6, 4, 4, 1, 3, 13, 11, 16, 3, 2, 10, 2, 5, 3]
obj = 5736
----------
source = [10, 1, 13, 1, 9, 1, 1, 1, 1, 9, 1, 1, 1, 9, 1, 13, 9, 1, 10, 9, 1, 1, 1, 1, 13, 13, 1, 9, 9, 1]
open = [true, false, false, false, false, false, false, false, true, true, false, false, true, false, false]
trucks_used = [13, 0, 0, 0, 0, 0, 0, 0, 3, 1, 0, 0, 3, 0, 0]
truck_assigned = [1, 10, 2, 6, 1, 9, 2, 8, 7, 3, 2, 5, 11, 2, 12, 1, 2, 12, 1, 1, 10, 3, 4, 13, 2, 3, 1, 1, 3, 7]
obj = 5713
----------
