+ /usr/bin/timeout 600 /usr/bin/time -v mzn-grb -a lbbd-datasets/sscplp/dzn/model.mzn lbbd-datasets/sscplp/dzn/p40.dzn
source = [20, 19, 19, 18, 18, 17, 16, 16, 16, 15, 14, 14, 14, 14, 14, 13, 12, 13, 11, 10, 13, 11, 11, 10, 10, 10, 10, 9, 9, 9, 9, 7, 9, 8, 8, 8, 7, 7, 7, 6, 6, 6, 5, 5, 5, 5, 5, 4, 4, 3, 3, 3, 3, 3, 2, 2, 2, 2, 1, 1]
obj = 115618
----------
source = [28, 19, 27, 28, 24, 10, 5, 26, 14, 5, 9, 1, 5, 10, 16, 16, 26, 28, 24, 8, 6, 6, 10, 6, 27, 22, 24, 22, 21, 14, 5, 5, 16, 27, 9, 29, 29, 24, 19, 27, 9, 28, 9, 29, 5, 1, 24, 10, 14, 22, 28, 16, 26, 14, 8, 8, 21, 8, 14, 29]
obj = 75131
----------
source = [28, 29, 8, 28, 24, 28, 27, 26, 14, 5, 9, 1, 5, 1, 16, 16, 1, 9, 24, 5, 6, 29, 10, 6, 16, 22, 24, 22, 14, 29, 27, 5, 6, 27, 10, 29, 22, 26, 24, 27, 9, 26, 10, 28, 5, 9, 24, 10, 14, 9, 28, 16, 4, 14, 16, 8, 8, 8, 14, 26]
obj = 64968
----------
source = [28, 5, 8, 28, 26, 28, 27, 26, 14, 5, 9, 1, 9, 8, 16, 16, 26, 9, 24, 8, 6, 6, 10, 6, 22, 22, 24, 22, 14, 5, 5, 5, 16, 26, 27, 29, 4, 4, 24, 27, 1, 29, 9, 28, 5, 9, 24, 10, 14, 22, 28, 16, 29, 14, 8, 10, 10, 8, 14, 29]
obj = 64785
----------
source = [28, 29, 8, 28, 4, 28, 5, 26, 14, 5, 9, 24, 5, 8, 16, 16, 1, 9, 9, 8, 6, 6, 10, 6, 27, 22, 26, 24, 14, 29, 5, 5, 16, 26, 27, 29, 22, 24, 24, 27, 9, 26, 9, 28, 5, 1, 4, 10, 14, 22, 28, 16, 24, 14, 8, 10, 10, 8, 14, 29]
obj = 64644
----------
source = [28, 29, 8, 13, 4, 28, 13, 26, 14, 5, 9, 1, 5, 8, 16, 16, 26, 28, 10, 8, 6, 6, 10, 6, 10, 10, 14, 22, 22, 5, 5, 13, 16, 27, 9, 29, 13, 26, 26, 27, 1, 26, 9, 28, 5, 9, 4, 10, 14, 22, 14, 16, 29, 14, 8, 27, 9, 8, 14, 29]
obj = 63973
----------
source = [27, 29, 5, 28, 26, 28, 27, 26, 14, 22, 28, 1, 5, 28, 28, 24, 26, 9, 9, 8, 6, 6, 16, 6, 5, 22, 1, 22, 14, 29, 28, 5, 16, 26, 27, 29, 24, 24, 1, 21, 9, 8, 9, 21, 5, 9, 5, 27, 14, 22, 14, 16, 24, 14, 8, 8, 21, 21, 21, 29]
obj = 63509
----------
source = [28, 5, 8, 28, 26, 28, 27, 26, 24, 5, 9, 1, 5, 29, 28, 24, 26, 9, 1, 8, 6, 6, 16, 6, 9, 22, 1, 22, 14, 29, 29, 5, 16, 26, 27, 14, 29, 24, 24, 21, 9, 28, 5, 21, 22, 9, 5, 27, 14, 27, 28, 16, 24, 14, 8, 8, 21, 21, 21, 29]
obj = 63469
----------
source = [28, 5, 8, 5, 26, 28, 27, 26, 24, 5, 9, 24, 9, 29, 16, 24, 1, 28, 1, 5, 6, 6, 16, 6, 9, 22, 1, 22, 14, 29, 5, 5, 16, 26, 27, 14, 29, 26, 24, 21, 9, 28, 9, 21, 22, 8, 5, 27, 14, 27, 28, 29, 24, 14, 8, 8, 21, 21, 21, 29]
obj = 63342
----------
source = [28, 5, 8, 5, 26, 28, 27, 26, 24, 28, 9, 24, 9, 29, 16, 24, 1, 8, 26, 5, 6, 6, 16, 6, 27, 22, 14, 22, 14, 29, 5, 5, 16, 26, 27, 1, 29, 9, 24, 21, 9, 28, 9, 21, 22, 8, 5, 27, 14, 5, 14, 29, 24, 14, 28, 8, 21, 21, 21, 29]
obj = 63323
----------
source = [29, 29, 8, 28, 26, 28, 27, 26, 24, 5, 9, 24, 9, 29, 28, 24, 1, 28, 26, 8, 6, 6, 16, 6, 22, 22, 14, 22, 14, 5, 5, 5, 16, 26, 27, 1, 29, 9, 24, 21, 9, 28, 27, 21, 5, 9, 5, 27, 14, 22, 14, 16, 24, 14, 8, 8, 21, 21, 21, 29]
obj = 63231
----------
source = [29, 29, 8, 28, 26, 28, 27, 26, 24, 5, 9, 24, 1, 29, 16, 24, 26, 28, 9, 8, 6, 6, 16, 6, 22, 22, 1, 22, 21, 14, 5, 5, 8, 26, 27, 29, 14, 8, 24, 9, 9, 28, 27, 21, 5, 9, 5, 27, 14, 22, 28, 16, 24, 14, 16, 5, 21, 21, 8, 29]
obj = 63204
----------
source = [29, 29, 27, 28, 26, 28, 27, 26, 14, 5, 9, 1, 5, 29, 16, 24, 26, 28, 9, 8, 6, 6, 16, 6, 22, 22, 14, 22, 21, 14, 5, 5, 8, 26, 27, 29, 24, 9, 24, 9, 1, 28, 9, 21, 5, 9, 5, 27, 14, 22, 28, 16, 24, 14, 16, 8, 21, 21, 8, 29]
obj = 63174
----------
source = [29, 29, 27, 28, 26, 28, 27, 26, 14, 5, 9, 24, 5, 29, 16, 24, 26, 28, 9, 8, 6, 6, 16, 6, 22, 22, 14, 22, 21, 14, 5, 5, 8, 26, 27, 29, 1, 24, 24, 9, 9, 28, 9, 21, 5, 1, 5, 27, 14, 22, 28, 16, 24, 14, 16, 8, 21, 21, 8, 29]
obj = 63164
----------
source = [28, 29, 27, 28, 26, 28, 27, 26, 14, 5, 8, 1, 5, 16, 28, 16, 26, 9, 10, 5, 6, 5, 10, 6, 10, 22, 6, 22, 21, 14, 5, 5, 16, 27, 9, 29, 1, 26, 26, 9, 9, 28, 27, 21, 22, 8, 10, 10, 14, 6, 28, 16, 29, 14, 8, 8, 21, 21, 14, 29]
obj = 62944
----------
source = [28, 29, 8, 28, 26, 28, 5, 26, 14, 5, 9, 1, 5, 16, 28, 16, 26, 9, 10, 8, 6, 6, 10, 6, 10, 22, 14, 22, 21, 14, 5, 5, 16, 27, 9, 29, 22, 26, 26, 27, 1, 28, 9, 21, 5, 8, 10, 10, 14, 9, 28, 16, 29, 14, 8, 27, 21, 21, 8, 29]
obj = 62917
----------
source = [28, 29, 8, 28, 26, 10, 5, 26, 14, 28, 9, 27, 5, 10, 16, 8, 1, 24, 1, 8, 6, 6, 10, 27, 27, 24, 1, 22, 14, 29, 28, 5, 16, 27, 9, 29, 24, 26, 24, 9, 22, 6, 9, 28, 5, 9, 10, 27, 14, 22, 28, 16, 29, 14, 16, 5, 8, 8, 14, 26]
obj = 61793
----------
source = [28, 29, 8, 28, 5, 10, 27, 26, 14, 28, 9, 1, 5, 10, 16, 24, 26, 24, 26, 8, 6, 6, 10, 27, 27, 22, 8, 24, 14, 29, 28, 5, 16, 27, 9, 29, 22, 24, 24, 9, 1, 6, 9, 28, 5, 9, 10, 24, 14, 22, 28, 16, 29, 14, 16, 5, 8, 8, 14, 26]
obj = 61725
----------
source = [28, 29, 8, 28, 5, 10, 27, 26, 14, 28, 8, 24, 5, 10, 16, 24, 26, 9, 26, 8, 6, 6, 10, 27, 22, 22, 8, 22, 14, 29, 28, 5, 16, 27, 9, 29, 24, 24, 24, 9, 9, 6, 27, 28, 5, 1, 10, 24, 14, 22, 28, 16, 29, 14, 16, 5, 1, 8, 14, 26]
obj = 61707
----------
source = [28, 5, 27, 28, 10, 28, 27, 26, 27, 5, 8, 1, 5, 24, 16, 24, 26, 9, 9, 8, 6, 6, 10, 6, 10, 22, 14, 22, 14, 14, 5, 5, 16, 26, 9, 29, 29, 24, 24, 27, 1, 26, 9, 28, 29, 8, 10, 10, 14, 22, 28, 16, 24, 22, 16, 5, 9, 8, 8, 29]
obj = 61668
----------
source = [28, 5, 27, 5, 26, 28, 27, 26, 14, 27, 8, 24, 1, 10, 16, 24, 10, 28, 9, 8, 6, 6, 10, 6, 22, 22, 1, 22, 14, 5, 5, 5, 16, 26, 27, 29, 29, 24, 24, 9, 9, 28, 9, 29, 5, 8, 10, 10, 14, 22, 28, 16, 24, 14, 16, 8, 9, 26, 14, 29]
obj = 61655
----------
source = [28, 5, 27, 5, 26, 28, 27, 26, 24, 27, 9, 1, 9, 10, 16, 24, 26, 28, 10, 8, 6, 6, 10, 6, 22, 22, 14, 22, 14, 5, 5, 5, 16, 26, 27, 29, 29, 24, 24, 9, 1, 28, 9, 29, 5, 9, 10, 10, 14, 22, 28, 16, 24, 14, 16, 8, 8, 8, 14, 29]
obj = 61638
----------
source = [8, 5, 27, 28, 26, 28, 27, 26, 24, 5, 9, 24, 1, 10, 16, 24, 1, 28, 10, 8, 6, 6, 10, 6, 22, 22, 14, 22, 14, 5, 5, 5, 16, 26, 9, 29, 29, 9, 24, 27, 9, 28, 27, 29, 5, 9, 10, 10, 14, 22, 28, 16, 24, 14, 16, 8, 8, 26, 14, 29]
obj = 61637
----------
source = [28, 5, 27, 5, 26, 28, 27, 26, 14, 27, 8, 24, 1, 10, 16, 24, 26, 28, 9, 8, 6, 6, 10, 6, 22, 22, 1, 22, 14, 5, 5, 5, 16, 26, 27, 29, 29, 24, 24, 9, 9, 28, 9, 29, 5, 8, 10, 10, 14, 22, 28, 16, 24, 14, 16, 8, 9, 10, 14, 29]
obj = 61633
----------
source = [28, 5, 27, 5, 26, 28, 27, 26, 14, 27, 8, 24, 1, 10, 16, 24, 26, 28, 9, 8, 6, 6, 10, 6, 22, 22, 1, 22, 14, 5, 5, 5, 16, 26, 27, 29, 29, 24, 24, 9, 9, 28, 9, 29, 5, 8, 10, 10, 14, 22, 28, 16, 24, 14, 16, 8, 9, 10, 14, 29]
obj = 61633
----------
==========
	Command being timed: "mzn-grb -a lbbd-datasets/sscplp/dzn/model.mzn lbbd-datasets/sscplp/dzn/p40.dzn"
	User time (seconds): 145.97
	System time (seconds): 0.11
	Percent of CPU this job got: 99%
	Elapsed (wall clock) time (h:mm:ss or m:ss): 2:26.35
	Average shared text size (kbytes): 0
	Average unshared data size (kbytes): 0
	Average stack size (kbytes): 0
	Average total size (kbytes): 0
	Maximum resident set size (kbytes): 305856
	Average resident set size (kbytes): 0
	Major (requiring I/O) page faults: 0
	Minor (reclaiming a frame) page faults: 26724
	Voluntary context switches: 4
	Involuntary context switches: 229
	Swaps: 0
	File system inputs: 0
	File system outputs: 104
	Socket messages sent: 0
	Socket messages received: 0
	Signals delivered: 0
	Page size (bytes): 4096
	Exit status: 0
