+ /usr/bin/timeout 600 /usr/bin/time -v mzn-grb -a lbbd-datasets/Rabadi-2006/dzn-s-dominant/model.mzn lbbd-datasets/Rabadi-2006/dzn-s-dominant/6on2Rp50Rs50_9Ameer.dzn
assign = array1d(1..8 ,[2, 1, 2, 2, 1, 1, 1, 2]);
next = array1d(1..8 ,[4, 6, 8, 3, 2, 7, 1, 5]);
makespan = 545;
----------
assign = array1d(1..8 ,[1, 1, 2, 2, 1, 2, 1, 2]);
next = array1d(1..8 ,[5, 1, 6, 3, 7, 8, 4, 2]);
makespan = 540;
----------
assign = array1d(1..8 ,[2, 2, 1, 1, 1, 2, 1, 2]);
next = array1d(1..8 ,[8, 6, 7, 5, 3, 1, 2, 4]);
makespan = 509;
----------
assign = array1d(1..8 ,[2, 1, 1, 1, 2, 2, 1, 2]);
next = array1d(1..8 ,[8, 3, 4, 7, 6, 1, 5, 2]);
makespan = 499;
----------
assign = array1d(1..8 ,[2, 1, 1, 1, 2, 2, 1, 2]);
next = array1d(1..8 ,[8, 4, 2, 7, 6, 1, 5, 3]);
makespan = 498;
----------
assign = array1d(1..8 ,[2, 1, 1, 1, 2, 2, 1, 2]);
next = array1d(1..8 ,[5, 7, 2, 3, 8, 1, 6, 4]);
makespan = 491;
----------
assign = array1d(1..8 ,[2, 1, 1, 1, 2, 2, 1, 2]);
next = array1d(1..8 ,[5, 4, 2, 7, 8, 1, 6, 3]);
makespan = 488;
----------
assign = array1d(1..8 ,[2, 1, 1, 1, 2, 2, 1, 2]);
next = array1d(1..8 ,[5, 4, 2, 7, 8, 1, 6, 3]);
makespan = 488;
----------
==========
	Command being timed: "mzn-grb -a lbbd-datasets/Rabadi-2006/dzn-s-dominant/model.mzn lbbd-datasets/Rabadi-2006/dzn-s-dominant/6on2Rp50Rs50_9Ameer.dzn"
	User time (seconds): 0.53
	System time (seconds): 0.00
	Percent of CPU this job got: 99%
	Elapsed (wall clock) time (h:mm:ss or m:ss): 0:00.55
	Average shared text size (kbytes): 0
	Average unshared data size (kbytes): 0
	Average stack size (kbytes): 0
	Average total size (kbytes): 0
	Maximum resident set size (kbytes): 72800
	Average resident set size (kbytes): 0
	Major (requiring I/O) page faults: 0
	Minor (reclaiming a frame) page faults: 5174
	Voluntary context switches: 6
	Involuntary context switches: 2
	Swaps: 0
	File system inputs: 0
	File system outputs: 8
	Socket messages sent: 0
	Socket messages received: 0
	Signals delivered: 0
	Page size (bytes): 4096
	Exit status: 0
