+ /usr/bin/timeout 600 /usr/bin/time -v mzn-grb -a lbbd-datasets/sscplp/trucks-dzn/model.mzn lbbd-datasets/sscplp/trucks-dzn/p13-l100-c300-uncorrelated.dzn
source = [10, 2, 5, 11, 9, 11, 11, 9, 1, 10, 2, 10, 1, 1, 14, 10, 11, 14, 1, 14, 14, 1, 11, 1, 5, 9, 5, 11, 10, 2]
open = [true, true, false, false, true, false, false, false, true, true, true, false, false, true, false]
trucks_used = [2, 1, 0, 0, 1, 0, 0, 0, 1, 2, 2, 0, 0, 1, 0]
truck_assigned = [1, 1, 1, 1, 1, 2, 1, 1, 2, 2, 1, 1, 1, 1, 1, 1, 2, 1, 1, 1, 1, 1, 1, 1, 1, 1, 1, 1, 1, 1]
obj = 6668
----------
source = [10, 5, 6, 11, 9, 11, 11, 9, 6, 10, 5, 10, 1, 1, 14, 10, 11, 14, 1, 14, 14, 1, 11, 1, 5, 9, 5, 11, 6, 5]
open = [true, false, false, false, true, true, false, false, true, true, true, false, false, true, false]
trucks_used = [1, 0, 0, 0, 1, 1, 0, 0, 1, 1, 2, 0, 0, 1, 0]
truck_assigned = [1, 1, 1, 1, 1, 1, 1, 1, 1, 1, 1, 1, 1, 1, 1, 1, 2, 1, 1, 1, 1, 1, 1, 1, 1, 1, 1, 1, 1, 1]
obj = 5614
----------
source = [10, 5, 6, 11, 9, 14, 11, 9, 1, 10, 5, 10, 9, 1, 14, 10, 11, 14, 1, 9, 14, 6, 11, 6, 5, 1, 5, 11, 6, 5]
open = [true, false, false, false, true, true, false, false, true, true, true, false, false, true, false]
trucks_used = [1, 0, 0, 0, 1, 1, 0, 0, 1, 1, 1, 0, 0, 1, 0]
truck_assigned = [1, 1, 1, 1, 1, 1, 1, 1, 1, 1, 1, 1, 1, 1, 1, 1, 1, 1, 1, 1, 1, 1, 1, 1, 1, 1, 1, 1, 1, 1]
obj = 5299
----------
source = [10, 5, 6, 11, 9, 11, 11, 9, 1, 10, 5, 10, 9, 1, 11, 10, 11, 11, 1, 9, 6, 6, 1, 1, 5, 11, 5, 11, 6, 5]
open = [true, false, false, false, true, true, false, false, true, true, true, false, false, false, false]
trucks_used = [1, 0, 0, 0, 1, 1, 0, 0, 1, 1, 2, 0, 0, 0, 0]
truck_assigned = [1, 1, 1, 1, 1, 1, 2, 1, 1, 1, 1, 1, 1, 1, 2, 1, 1, 1, 1, 1, 1, 1, 1, 1, 1, 2, 1, 1, 1, 1]
obj = 5087
----------
source = [6, 5, 6, 11, 9, 11, 11, 9, 1, 10, 5, 10, 9, 1, 10, 10, 11, 11, 1, 9, 6, 1, 11, 1, 5, 11, 5, 11, 6, 5]
open = [true, false, false, false, true, true, false, false, true, true, true, false, false, false, false]
trucks_used = [1, 0, 0, 0, 1, 1, 0, 0, 1, 1, 2, 0, 0, 0, 0]
truck_assigned = [1, 1, 1, 1, 1, 1, 2, 1, 1, 1, 1, 1, 1, 1, 1, 1, 1, 1, 1, 1, 1, 1, 1, 1, 1, 2, 1, 2, 1, 1]
obj = 5081
----------
source = [10, 5, 6, 11, 9, 11, 11, 9, 1, 10, 5, 10, 9, 1, 1, 10, 11, 6, 1, 9, 6, 11, 11, 1, 5, 11, 5, 11, 6, 5]
open = [true, false, false, false, true, true, false, false, true, true, true, false, false, false, false]
trucks_used = [1, 0, 0, 0, 1, 1, 0, 0, 1, 1, 2, 0, 0, 0, 0]
truck_assigned = [1, 1, 1, 2, 1, 1, 2, 1, 1, 1, 1, 1, 1, 1, 1, 1, 1, 1, 1, 1, 1, 1, 2, 1, 1, 2, 1, 1, 1, 1]
obj = 5047
----------
source = [10, 5, 6, 11, 9, 11, 11, 9, 1, 10, 5, 10, 9, 1, 1, 10, 11, 6, 1, 9, 6, 11, 11, 1, 5, 11, 5, 11, 6, 5]
open = [true, false, false, false, true, true, false, false, true, true, true, false, false, false, false]
trucks_used = [1, 0, 0, 0, 1, 1, 0, 0, 1, 1, 2, 0, 0, 0, 0]
truck_assigned = [1, 1, 1, 2, 1, 1, 2, 1, 1, 1, 1, 1, 1, 1, 1, 1, 1, 1, 1, 1, 1, 1, 2, 1, 1, 2, 1, 1, 1, 1]
obj = 5047
----------
==========
	Command being timed: "mzn-grb -a lbbd-datasets/sscplp/trucks-dzn/model.mzn lbbd-datasets/sscplp/trucks-dzn/p13-l100-c300-uncorrelated.dzn"
	User time (seconds): 300.21
	System time (seconds): 1.40
	Percent of CPU this job got: 99%
	Elapsed (wall clock) time (h:mm:ss or m:ss): 5:02.18
	Average shared text size (kbytes): 0
	Average unshared data size (kbytes): 0
	Average stack size (kbytes): 0
	Average total size (kbytes): 0
	Maximum resident set size (kbytes): 5648736
	Average resident set size (kbytes): 0
	Major (requiring I/O) page faults: 0
	Minor (reclaiming a frame) page faults: 341301
	Voluntary context switches: 6
	Involuntary context switches: 432
	Swaps: 0
	File system inputs: 0
	File system outputs: 32
	Socket messages sent: 0
	Socket messages received: 0
	Signals delivered: 0
	Page size (bytes): 4096
	Exit status: 0
