+ /usr/bin/timeout 600 /usr/bin/time -v mzn-grb -a lbbd-datasets/planningandscheduling/cost-insts/model.mzn lbbd-datasets/planningandscheduling/cost-insts/c20j3m5.dzn
obj = 422
----------
obj = 419
----------
obj = 414
----------
obj = 405
----------
