+ /usr/bin/timeout 600 /usr/bin/time -v mzn-grb -a lbbd-datasets/Rabadi-2006/dzn-s-dominant/model.mzn lbbd-datasets/Rabadi-2006/dzn-s-dominant/7on4Rp50Rs50_6Ameer.dzn
assign = array1d(1..11 ,[3, 1, 1, 2, 3, 4, 4, 1, 2, 3, 4]);
next = array1d(1..11 ,[5, 3, 8, 9, 10, 11, 6, 4, 1, 7, 2]);
makespan = 281;
----------
assign = array1d(1..11 ,[3, 4, 1, 2, 1, 4, 2, 1, 2, 3, 4]);
next = array1d(1..11 ,[10, 6, 5, 9, 8, 11, 4, 7, 1, 2, 3]);
makespan = 275;
----------
assign = array1d(1..11 ,[4, 4, 1, 1, 3, 3, 2, 1, 2, 3, 4]);
next = array1d(1..11 ,[11, 1, 8, 3, 10, 5, 9, 7, 6, 2, 4]);
makespan = 269;
----------
assign = array1d(1..11 ,[4, 4, 1, 2, 1, 2, 3, 1, 2, 3, 4]);
next = array1d(1..11 ,[2, 11, 5, 6, 8, 9, 10, 4, 7, 1, 3]);
makespan = 267;
----------
assign = array1d(1..11 ,[2, 4, 1, 2, 3, 3, 4, 1, 2, 3, 4]);
next = array1d(1..11 ,[4, 11, 8, 9, 10, 5, 2, 1, 6, 7, 3]);
makespan = 263;
----------
assign = array1d(1..11 ,[2, 4, 1, 2, 3, 3, 4, 1, 2, 3, 4]);
next = array1d(1..11 ,[4, 11, 8, 9, 6, 10, 2, 1, 5, 7, 3]);
makespan = 262;
----------
assign = array1d(1..11 ,[2, 4, 1, 2, 1, 3, 4, 1, 2, 3, 4]);
next = array1d(1..11 ,[4, 11, 5, 9, 8, 10, 2, 1, 6, 7, 3]);
makespan = 256;
----------
assign = array1d(1..11 ,[4, 4, 1, 2, 1, 3, 2, 1, 2, 3, 4]);
next = array1d(1..11 ,[2, 11, 5, 9, 8, 10, 4, 7, 6, 1, 3]);
makespan = 254;
----------
assign = array1d(1..11 ,[4, 4, 1, 2, 1, 3, 2, 1, 2, 3, 4]);
next = array1d(1..11 ,[2, 11, 5, 9, 8, 10, 4, 7, 6, 1, 3]);
makespan = 254;
----------
==========
	Command being timed: "mzn-grb -a lbbd-datasets/Rabadi-2006/dzn-s-dominant/model.mzn lbbd-datasets/Rabadi-2006/dzn-s-dominant/7on4Rp50Rs50_6Ameer.dzn"
	User time (seconds): 3.32
	System time (seconds): 0.03
	Percent of CPU this job got: 99%
	Elapsed (wall clock) time (h:mm:ss or m:ss): 0:03.37
	Average shared text size (kbytes): 0
	Average unshared data size (kbytes): 0
	Average stack size (kbytes): 0
	Average total size (kbytes): 0
	Maximum resident set size (kbytes): 108736
	Average resident set size (kbytes): 0
	Major (requiring I/O) page faults: 0
	Minor (reclaiming a frame) page faults: 9678
	Voluntary context switches: 4
	Involuntary context switches: 11
	Swaps: 0
	File system inputs: 0
	File system outputs: 8
	Socket messages sent: 0
	Socket messages received: 0
	Signals delivered: 0
	Page size (bytes): 4096
	Exit status: 0
