+ /usr/bin/timeout 600 /usr/bin/time -v mzn-grb -a lbbd-datasets/Rabadi-2006/dzn-p-dominant/model.mzn lbbd-datasets/Rabadi-2006/dzn-p-dominant/8on2Rp50Rs50_13Ameer.dzn
assign = array1d(1..10 ,[2, 1, 2, 1, 2, 2, 1, 2, 1, 2]);
next = array1d(1..10 ,[6, 4, 1, 7, 8, 5, 9, 10, 3, 2]);
makespan = 1011;
----------
assign = array1d(1..10 ,[1, 1, 2, 1, 2, 2, 2, 2, 1, 2]);
next = array1d(1..10 ,[9, 4, 8, 1, 3, 5, 10, 7, 6, 2]);
makespan = 998;
----------
assign = array1d(1..10 ,[1, 2, 2, 1, 2, 2, 1, 1, 1, 2]);
next = array1d(1..10 ,[8, 3, 10, 7, 6, 2, 9, 4, 5, 1]);
makespan = 805;
----------
assign = array1d(1..10 ,[2, 2, 2, 1, 1, 2, 1, 1, 1, 2]);
next = array1d(1..10 ,[10, 3, 1, 7, 8, 2, 9, 4, 6, 5]);
makespan = 776;
----------
assign = array1d(1..10 ,[2, 1, 1, 1, 2, 2, 1, 2, 1, 2]);
next = array1d(1..10 ,[5, 4, 2, 7, 10, 8, 9, 1, 6, 3]);
makespan = 763;
----------
assign = array1d(1..10 ,[1, 2, 1, 2, 1, 2, 1, 2, 1, 2]);
next = array1d(1..10 ,[7, 4, 5, 8, 1, 2, 9, 10, 6, 3]);
makespan = 753;
----------
assign = array1d(1..10 ,[1, 2, 1, 2, 1, 2, 1, 2, 1, 2]);
next = array1d(1..10 ,[7, 4, 5, 8, 1, 2, 9, 10, 6, 3]);
makespan = 753;
----------
==========
	Command being timed: "mzn-grb -a lbbd-datasets/Rabadi-2006/dzn-p-dominant/model.mzn lbbd-datasets/Rabadi-2006/dzn-p-dominant/8on2Rp50Rs50_13Ameer.dzn"
	User time (seconds): 1.26
	System time (seconds): 0.02
	Percent of CPU this job got: 99%
	Elapsed (wall clock) time (h:mm:ss or m:ss): 0:01.29
	Average shared text size (kbytes): 0
	Average unshared data size (kbytes): 0
	Average stack size (kbytes): 0
	Average total size (kbytes): 0
	Maximum resident set size (kbytes): 87616
	Average resident set size (kbytes): 0
	Major (requiring I/O) page faults: 0
	Minor (reclaiming a frame) page faults: 6083
	Voluntary context switches: 5
	Involuntary context switches: 4
	Swaps: 0
	File system inputs: 0
	File system outputs: 8
	Socket messages sent: 0
	Socket messages received: 0
	Signals delivered: 0
	Page size (bytes): 4096
	Exit status: 0
