+ /usr/bin/timeout 600 /usr/bin/time -v mzn-grb -a lbbd-datasets/Rabadi-2006/dzn-s-dominant/model.mzn lbbd-datasets/Rabadi-2006/dzn-s-dominant/7on4Rp50Rs50_4Ameer.dzn
assign = array1d(1..11 ,[2, 2, 4, 1, 3, 1, 4, 1, 2, 3, 4]);
next = array1d(1..11 ,[2, 9, 11, 8, 10, 4, 3, 1, 5, 7, 6]);
makespan = 286;
----------
assign = array1d(1..11 ,[2, 3, 4, 2, 1, 1, 4, 1, 2, 3, 4]);
next = array1d(1..11 ,[9, 10, 11, 1, 6, 8, 3, 4, 2, 7, 5]);
makespan = 274;
----------
assign = array1d(1..11 ,[2, 2, 4, 1, 3, 3, 4, 1, 2, 3, 4]);
next = array1d(1..11 ,[2, 9, 11, 8, 10, 5, 3, 1, 6, 7, 4]);
makespan = 272;
----------
assign = array1d(1..11 ,[2, 2, 4, 3, 1, 4, 3, 1, 2, 3, 4]);
next = array1d(1..11 ,[2, 9, 6, 7, 8, 11, 10, 1, 4, 3, 5]);
makespan = 270;
----------
assign = array1d(1..11 ,[2, 2, 4, 1, 3, 4, 3, 1, 2, 3, 4]);
next = array1d(1..11 ,[2, 9, 6, 8, 10, 11, 5, 1, 7, 3, 4]);
makespan = 263;
----------
assign = array1d(1..11 ,[2, 2, 4, 1, 1, 3, 4, 1, 2, 3, 4]);
next = array1d(1..11 ,[2, 9, 11, 5, 8, 10, 3, 1, 6, 7, 4]);
makespan = 259;
----------
assign = array1d(1..11 ,[2, 2, 4, 3, 1, 3, 4, 1, 2, 3, 4]);
next = array1d(1..11 ,[2, 9, 11, 10, 8, 4, 3, 1, 6, 7, 5]);
makespan = 257;
----------
assign = array1d(1..11 ,[2, 2, 4, 3, 1, 3, 4, 1, 2, 3, 4]);
next = array1d(1..11 ,[2, 9, 11, 10, 8, 4, 3, 1, 6, 7, 5]);
makespan = 257;
----------
==========
	Command being timed: "mzn-grb -a lbbd-datasets/Rabadi-2006/dzn-s-dominant/model.mzn lbbd-datasets/Rabadi-2006/dzn-s-dominant/7on4Rp50Rs50_4Ameer.dzn"
	User time (seconds): 3.17
	System time (seconds): 0.02
	Percent of CPU this job got: 99%
	Elapsed (wall clock) time (h:mm:ss or m:ss): 0:03.21
	Average shared text size (kbytes): 0
	Average unshared data size (kbytes): 0
	Average stack size (kbytes): 0
	Average total size (kbytes): 0
	Maximum resident set size (kbytes): 110736
	Average resident set size (kbytes): 0
	Major (requiring I/O) page faults: 0
	Minor (reclaiming a frame) page faults: 9369
	Voluntary context switches: 6
	Involuntary context switches: 12
	Swaps: 0
	File system inputs: 0
	File system outputs: 8
	Socket messages sent: 0
	Socket messages received: 0
	Signals delivered: 0
	Page size (bytes): 4096
	Exit status: 0
