+ /usr/bin/timeout 600 /usr/bin/time -v mzn-grb -a lbbd-datasets/Rabadi-2006/dzn-balanced/model.mzn lbbd-datasets/Rabadi-2006/dzn-balanced/11on8Rp50Rs50_14Ameer.dzn
assign = array1d(1..19 ,[5, 7, 8, 3, 3, 4, 6, 7, 1, 2, 8, 1, 2, 3, 4, 5, 6, 7, 8]);
next = array1d(1..19 ,[16, 8, 19, 14, 4, 15, 17, 18, 12, 13, 3, 10, 5, 6, 1, 7, 2, 11, 9]);
makespan = 176;
----------
assign = array1d(1..19 ,[5, 7, 8, 3, 1, 4, 6, 7, 2, 8, 3, 1, 2, 3, 4, 5, 6, 7, 8]);
next = array1d(1..19 ,[16, 8, 19, 14, 12, 15, 17, 18, 13, 3, 4, 9, 11, 6, 1, 7, 2, 10, 5]);
makespan = 174;
----------
assign = array1d(1..19 ,[5, 2, 3, 7, 2, 8, 6, 7, 4, 1, 4, 1, 2, 3, 4, 5, 6, 7, 8]);
next = array1d(1..19 ,[16, 5, 14, 18, 13, 19, 17, 4, 11, 12, 15, 2, 3, 9, 1, 7, 8, 6, 10]);
makespan = 173;
----------
assign = array1d(1..19 ,[1, 7, 8, 6, 5, 4, 2, 7, 3, 8, 5, 1, 2, 3, 4, 5, 6, 7, 8]);
next = array1d(1..19 ,[12, 8, 19, 17, 16, 15, 13, 18, 14, 3, 5, 7, 9, 6, 11, 4, 2, 10, 1]);
makespan = 171;
----------
assign = array1d(1..19 ,[3, 7, 8, 6, 5, 4, 2, 1, 7, 8, 5, 1, 2, 3, 4, 5, 6, 7, 8]);
next = array1d(1..19 ,[14, 9, 19, 17, 16, 15, 13, 12, 18, 3, 5, 7, 1, 6, 11, 4, 2, 10, 8]);
makespan = 166;
----------
assign = array1d(1..19 ,[3, 7, 8, 6, 5, 4, 2, 1, 7, 8, 5, 1, 2, 3, 4, 5, 6, 7, 8]);
next = array1d(1..19 ,[14, 9, 19, 17, 16, 15, 13, 12, 18, 3, 5, 7, 1, 6, 11, 4, 2, 10, 8]);
makespan = 166;
----------
==========
	Command being timed: "mzn-grb -a lbbd-datasets/Rabadi-2006/dzn-balanced/model.mzn lbbd-datasets/Rabadi-2006/dzn-balanced/11on8Rp50Rs50_14Ameer.dzn"
	User time (seconds): 19.33
	System time (seconds): 0.11
	Percent of CPU this job got: 99%
	Elapsed (wall clock) time (h:mm:ss or m:ss): 0:19.50
	Average shared text size (kbytes): 0
	Average unshared data size (kbytes): 0
	Average stack size (kbytes): 0
	Average total size (kbytes): 0
	Maximum resident set size (kbytes): 324384
	Average resident set size (kbytes): 0
	Major (requiring I/O) page faults: 0
	Minor (reclaiming a frame) page faults: 33587
	Voluntary context switches: 6
	Involuntary context switches: 42
	Swaps: 0
	File system inputs: 0
	File system outputs: 8
	Socket messages sent: 0
	Socket messages received: 0
	Signals delivered: 0
	Page size (bytes): 4096
	Exit status: 0
