+ /usr/bin/timeout 600 /usr/bin/time -v mzn-grb -a lbbd-datasets/sscplp/trucks-dzn/model.mzn lbbd-datasets/sscplp/trucks-dzn/p25-l40-c100-correlated.dzn
source = [2, 5, 19, 1, 19, 19, 1, 5, 5, 5, 2, 3, 19, 5, 1, 2, 2, 5, 19, 2, 19, 5, 2, 19, 2, 1, 1, 2, 3, 2, 3, 5, 5, 2, 2, 19, 19, 5, 3, 5]
open = [true, true, true, false, true, false, false, false, false, false, false, false, false, false, false, false, false, false, true, false]
trucks_used = [3, 7, 2, 0, 7, 0, 0, 0, 0, 0, 0, 0, 0, 0, 0, 0, 0, 0, 5, 0]
truck_assigned = [7, 5, 4, 3, 3, 4, 2, 7, 4, 2, 6, 1, 2, 4, 1, 2, 3, 1, 3, 2, 5, 6, 4, 1, 4, 2, 3, 1, 2, 6, 2, 1, 3, 1, 3, 2, 1, 6, 1, 2]
obj = 10779
----------
source = [2, 5, 19, 10, 19, 19, 1, 5, 5, 5, 2, 2, 1, 5, 1, 2, 2, 5, 19, 2, 19, 5, 2, 2, 2, 1, 19, 2, 1, 5, 1, 5, 5, 2, 2, 19, 19, 2, 10, 5]
open = [true, true, false, false, true, false, false, false, false, true, false, false, false, false, false, false, false, false, true, false]
trucks_used = [5, 7, 0, 0, 7, 0, 0, 0, 0, 1, 0, 0, 0, 0, 0, 0, 0, 0, 5, 0]
truck_assigned = [7, 5, 1, 1, 4, 1, 5, 4, 2, 6, 2, 1, 2, 2, 3, 6, 7, 3, 4, 3, 3, 3, 6, 5, 4, 5, 5, 4, 1, 1, 4, 6, 7, 1, 3, 5, 2, 2, 1, 1]
obj = 9212
----------
source = [2, 5, 19, 10, 19, 19, 1, 5, 5, 5, 2, 2, 19, 5, 1, 2, 2, 5, 19, 2, 19, 5, 2, 2, 2, 19, 1, 2, 1, 2, 19, 5, 5, 2, 2, 19, 19, 5, 10, 5]
open = [true, true, false, false, true, false, false, false, false, true, false, false, false, false, false, false, false, false, true, false]
trucks_used = [3, 7, 0, 0, 7, 0, 0, 0, 0, 1, 0, 0, 0, 0, 0, 0, 0, 0, 7, 0]
truck_assigned = [7, 5, 1, 1, 3, 4, 1, 4, 5, 1, 2, 1, 1, 2, 3, 2, 7, 3, 3, 3, 6, 3, 6, 5, 4, 4, 2, 4, 1, 6, 2, 6, 7, 1, 3, 7, 2, 6, 1, 1]
obj = 9095
----------
source = [2, 5, 19, 19, 19, 19, 1, 5, 5, 5, 2, 2, 19, 5, 1, 2, 2, 5, 19, 2, 19, 5, 2, 2, 2, 19, 1, 2, 1, 5, 19, 5, 5, 2, 2, 19, 19, 2, 2, 5]
open = [true, true, false, false, true, false, false, false, false, false, false, false, false, false, false, false, false, false, true, false]
trucks_used = [3, 8, 0, 0, 8, 0, 0, 0, 0, 0, 0, 0, 0, 0, 0, 0, 0, 0, 7, 0]
truck_assigned = [7, 8, 1, 2, 3, 4, 1, 6, 2, 1, 8, 1, 1, 2, 3, 2, 7, 3, 3, 3, 6, 3, 3, 5, 4, 5, 2, 4, 1, 4, 2, 5, 7, 1, 8, 7, 4, 2, 6, 1]
obj = 8568
----------
source = [2, 5, 19, 19, 19, 19, 1, 5, 5, 5, 19, 2, 19, 5, 1, 19, 2, 5, 19, 2, 2, 5, 2, 19, 2, 19, 1, 19, 1, 5, 19, 5, 5, 2, 2, 19, 19, 2, 19, 5]
open = [true, true, false, false, true, false, false, false, false, false, false, false, false, false, false, false, false, false, true, false]
trucks_used = [3, 6, 0, 0, 7, 0, 0, 0, 0, 0, 0, 0, 0, 0, 0, 0, 0, 0, 9, 0]
truck_assigned = [1, 2, 6, 1, 4, 3, 1, 6, 3, 7, 1, 5, 4, 3, 3, 8, 5, 5, 5, 2, 4, 5, 6, 2, 3, 2, 2, 5, 2, 7, 6, 1, 4, 1, 2, 3, 9, 3, 7, 1]
obj = 8437
----------
source = [2, 5, 19, 19, 19, 19, 1, 5, 5, 5, 19, 2, 19, 5, 1, 2, 2, 5, 19, 2, 19, 5, 2, 19, 2, 19, 1, 19, 1, 5, 19, 5, 5, 2, 2, 19, 2, 2, 19, 5]
open = [true, true, false, false, true, false, false, false, false, false, false, false, false, false, false, false, false, false, true, false]
trucks_used = [3, 6, 0, 0, 7, 0, 0, 0, 0, 0, 0, 0, 0, 0, 0, 0, 0, 0, 9, 0]
truck_assigned = [1, 2, 9, 1, 3, 3, 1, 6, 3, 7, 7, 5, 1, 3, 3, 4, 5, 5, 5, 4, 8, 5, 6, 2, 3, 2, 2, 5, 1, 7, 6, 1, 4, 2, 6, 9, 1, 2, 4, 1]
obj = 8434
----------
source = [2, 5, 19, 19, 19, 19, 1, 5, 5, 5, 19, 2, 19, 5, 1, 2, 2, 5, 19, 2, 19, 5, 2, 19, 2, 19, 1, 2, 1, 5, 19, 5, 5, 2, 2, 19, 2, 2, 19, 5]
open = [true, true, false, false, true, false, false, false, false, false, false, false, false, false, false, false, false, false, true, false]
trucks_used = [3, 6, 0, 0, 7, 0, 0, 0, 0, 0, 0, 0, 0, 0, 0, 0, 0, 0, 9, 0]
truck_assigned = [4, 2, 9, 1, 3, 3, 1, 6, 3, 7, 7, 5, 1, 3, 3, 4, 5, 5, 5, 1, 8, 5, 6, 2, 3, 2, 2, 3, 1, 7, 6, 1, 4, 2, 6, 9, 1, 2, 4, 1]
obj = 8418
----------
source = [2, 5, 19, 1, 19, 19, 1, 5, 5, 5, 19, 2, 19, 5, 1, 19, 1, 5, 19, 2, 2, 5, 2, 19, 2, 1, 19, 2, 1, 5, 19, 5, 5, 2, 2, 19, 19, 2, 2, 5]
open = [true, true, false, false, true, false, false, false, false, false, false, false, false, false, false, false, false, false, true, false]
trucks_used = [4, 7, 0, 0, 7, 0, 0, 0, 0, 0, 0, 0, 0, 0, 0, 0, 0, 0, 7, 0]
truck_assigned = [6, 6, 1, 4, 5, 7, 2, 3, 5, 2, 6, 5, 4, 7, 3, 3, 1, 7, 2, 7, 2, 5, 1, 1, 4, 4, 6, 4, 2, 2, 2, 1, 4, 5, 1, 4, 7, 6, 3, 1]
obj = 8396
----------
source = [2, 5, 2, 19, 19, 19, 1, 5, 5, 5, 19, 2, 19, 5, 1, 2, 2, 5, 19, 2, 19, 5, 2, 19, 2, 19, 1, 2, 1, 5, 19, 5, 5, 2, 2, 19, 19, 2, 2, 5]
open = [true, true, false, false, true, false, false, false, false, false, false, false, false, false, false, false, false, false, true, false]
trucks_used = [3, 7, 0, 0, 7, 0, 0, 0, 0, 0, 0, 0, 0, 0, 0, 0, 0, 0, 7, 0]
truck_assigned = [7, 7, 6, 3, 1, 3, 2, 4, 1, 2, 7, 4, 6, 6, 3, 5, 4, 6, 2, 5, 5, 1, 1, 6, 1, 2, 2, 6, 1, 5, 4, 2, 3, 7, 2, 1, 7, 2, 3, 5]
obj = 8305
----------
