+ /usr/bin/timeout 600 /usr/bin/time -v mzn-grb -a lbbd-datasets/sscplp/trucks-dzn/model.mzn lbbd-datasets/sscplp/trucks-dzn/p15-l100-c300-correlated.dzn
source = [1, 7, 8, 1, 7, 8, 14, 5, 8, 6, 4, 6, 1, 4, 4, 4, 12, 6, 12, 12, 5, 1, 5, 5, 1, 6, 12, 8, 6, 7]
open = [true, false, false, true, true, true, true, true, false, false, false, true, false, true, false]
trucks_used = [1, 0, 0, 1, 1, 1, 1, 1, 0, 0, 0, 1, 0, 1, 0]
truck_assigned = [1, 1, 1, 1, 1, 1, 1, 1, 1, 1, 1, 1, 1, 1, 1, 1, 1, 1, 1, 1, 1, 1, 1, 1, 1, 1, 1, 1, 1, 1]
obj = 8521
----------
source = [1, 12, 15, 1, 1, 8, 5, 5, 8, 8, 4, 6, 5, 1, 4, 4, 12, 6, 15, 12, 5, 5, 15, 4, 12, 6, 12, 8, 6, 6]
open = [true, false, false, true, true, true, false, true, false, false, false, true, false, false, true]
trucks_used = [1, 0, 0, 1, 2, 1, 0, 1, 0, 0, 0, 1, 0, 0, 1]
truck_assigned = [1, 1, 1, 1, 1, 1, 1, 1, 1, 1, 1, 1, 1, 1, 1, 1, 1, 1, 1, 1, 1, 2, 1, 1, 1, 1, 1, 1, 1, 1]
obj = 8079
----------
source = [1, 7, 8, 1, 7, 8, 5, 5, 8, 6, 7, 6, 1, 4, 4, 4, 12, 6, 12, 12, 5, 1, 5, 4, 1, 6, 12, 8, 6, 12]
open = [true, false, false, true, true, true, true, true, false, false, false, true, false, false, false]
trucks_used = [1, 0, 0, 1, 1, 1, 1, 1, 0, 0, 0, 1, 0, 0, 0]
truck_assigned = [1, 1, 1, 1, 1, 1, 1, 1, 1, 1, 1, 1, 1, 1, 1, 1, 1, 1, 1, 1, 1, 1, 1, 1, 1, 1, 1, 1, 1, 1]
obj = 7481
----------
source = [1, 7, 8, 1, 7, 8, 5, 5, 8, 6, 4, 6, 1, 4, 7, 4, 12, 6, 12, 12, 5, 1, 5, 4, 1, 6, 12, 8, 6, 12]
open = [true, false, false, true, true, true, true, true, false, false, false, true, false, false, false]
trucks_used = [1, 0, 0, 1, 1, 1, 1, 1, 0, 0, 0, 1, 0, 0, 0]
truck_assigned = [1, 1, 1, 1, 1, 1, 1, 1, 1, 1, 1, 1, 1, 1, 1, 1, 1, 1, 1, 1, 1, 1, 1, 1, 1, 1, 1, 1, 1, 1]
obj = 7480
----------
source = [13, 7, 13, 13, 7, 8, 5, 4, 8, 6, 7, 6, 5, 4, 8, 4, 12, 6, 12, 12, 5, 5, 5, 4, 4, 6, 12, 13, 6, 12]
open = [false, false, false, true, true, true, true, true, false, false, false, true, true, false, false]
trucks_used = [0, 0, 0, 1, 1, 1, 1, 1, 0, 0, 0, 1, 1, 0, 0]
truck_assigned = [1, 1, 1, 1, 1, 1, 1, 1, 1, 1, 1, 1, 1, 1, 1, 1, 1, 1, 1, 1, 1, 1, 1, 1, 1, 1, 1, 1, 1, 1]
obj = 7241
----------
source = [13, 7, 13, 13, 7, 8, 5, 4, 8, 6, 12, 6, 5, 4, 8, 4, 12, 6, 12, 12, 5, 5, 5, 4, 4, 6, 12, 13, 6, 7]
open = [false, false, false, true, true, true, true, true, false, false, false, true, true, false, false]
trucks_used = [0, 0, 0, 1, 1, 1, 1, 1, 0, 0, 0, 1, 1, 0, 0]
truck_assigned = [1, 1, 1, 1, 1, 1, 1, 1, 1, 1, 1, 1, 1, 1, 1, 1, 1, 1, 1, 1, 1, 1, 1, 1, 1, 1, 1, 1, 1, 1]
obj = 7225
----------
source = [1, 12, 13, 13, 1, 8, 14, 5, 8, 8, 12, 6, 8, 1, 14, 13, 5, 13, 1, 12, 14, 14, 12, 5, 1, 6, 6, 13, 6, 5]
open = [true, false, false, false, true, true, false, true, false, false, false, true, true, true, false]
trucks_used = [1, 0, 0, 0, 1, 1, 0, 1, 0, 0, 0, 1, 1, 1, 0]
truck_assigned = [1, 1, 1, 1, 1, 1, 1, 1, 1, 1, 1, 1, 1, 1, 1, 1, 1, 1, 1, 1, 1, 1, 1, 1, 1, 1, 1, 1, 1, 1]
obj = 7187
----------
source = [1, 12, 13, 13, 1, 8, 14, 5, 8, 8, 12, 6, 5, 1, 14, 13, 12, 13, 1, 5, 14, 14, 12, 5, 1, 6, 6, 13, 6, 12]
open = [true, false, false, false, true, true, false, true, false, false, false, true, true, true, false]
trucks_used = [1, 0, 0, 0, 1, 1, 0, 1, 0, 0, 0, 1, 1, 1, 0]
truck_assigned = [1, 1, 1, 1, 1, 1, 1, 1, 1, 1, 1, 1, 1, 1, 1, 1, 1, 1, 1, 1, 1, 1, 1, 1, 1, 1, 1, 1, 1, 1]
obj = 7148
----------
source = [13, 12, 13, 14, 7, 8, 14, 8, 8, 6, 7, 6, 8, 6, 7, 14, 12, 6, 13, 12, 14, 5, 5, 5, 12, 7, 12, 13, 6, 5]
open = [false, false, false, false, true, true, true, true, false, false, false, true, true, true, false]
trucks_used = [0, 0, 0, 0, 1, 1, 1, 1, 0, 0, 0, 1, 1, 1, 0]
truck_assigned = [1, 1, 1, 1, 1, 1, 1, 1, 1, 1, 1, 1, 1, 1, 1, 1, 1, 1, 1, 1, 1, 1, 1, 1, 1, 1, 1, 1, 1, 1]
obj = 7133
----------
source = [12, 12, 13, 13, 7, 8, 14, 5, 8, 6, 7, 6, 6, 14, 14, 13, 12, 13, 7, 12, 14, 5, 5, 5, 12, 6, 6, 13, 8, 7]
open = [false, false, false, false, true, true, true, true, false, false, false, true, true, true, false]
trucks_used = [0, 0, 0, 0, 1, 1, 1, 1, 0, 0, 0, 1, 1, 1, 0]
truck_assigned = [1, 1, 1, 1, 1, 1, 1, 1, 1, 1, 1, 1, 1, 1, 1, 1, 1, 1, 1, 1, 1, 1, 1, 1, 1, 1, 1, 1, 1, 1]
obj = 7122
----------
source = [12, 12, 13, 13, 7, 8, 14, 5, 8, 8, 7, 6, 8, 14, 14, 13, 12, 13, 7, 12, 14, 5, 5, 5, 12, 6, 6, 13, 6, 7]
open = [false, false, false, false, true, true, true, true, false, false, false, true, true, true, false]
trucks_used = [0, 0, 0, 0, 1, 1, 1, 1, 0, 0, 0, 1, 1, 1, 0]
truck_assigned = [1, 1, 1, 1, 1, 1, 1, 1, 1, 1, 1, 1, 1, 1, 1, 1, 1, 1, 1, 1, 1, 1, 1, 1, 1, 1, 1, 1, 1, 1]
obj = 7109
----------
source = [5, 12, 8, 13, 7, 8, 14, 8, 8, 6, 7, 6, 5, 6, 14, 13, 12, 6, 13, 12, 14, 14, 5, 5, 12, 7, 12, 7, 6, 7]
open = [false, false, false, false, true, true, true, true, false, false, false, true, true, true, false]
trucks_used = [0, 0, 0, 0, 1, 1, 1, 1, 0, 0, 0, 1, 1, 1, 0]
truck_assigned = [1, 1, 1, 1, 1, 1, 1, 1, 1, 1, 1, 1, 1, 1, 1, 1, 1, 1, 1, 1, 1, 1, 1, 1, 1, 1, 1, 1, 1, 1]
obj = 7099
----------
source = [5, 12, 8, 13, 7, 8, 14, 5, 8, 6, 7, 6, 5, 8, 14, 13, 12, 6, 7, 12, 14, 14, 6, 5, 12, 13, 12, 13, 6, 7]
open = [false, false, false, false, true, true, true, true, false, false, false, true, true, true, false]
trucks_used = [0, 0, 0, 0, 1, 1, 1, 1, 0, 0, 0, 1, 1, 1, 0]
truck_assigned = [1, 1, 1, 1, 1, 1, 1, 1, 1, 1, 1, 1, 1, 1, 1, 1, 1, 1, 1, 1, 1, 1, 1, 1, 1, 1, 1, 1, 1, 1]
obj = 7089
----------
source = [5, 12, 8, 13, 7, 8, 14, 5, 8, 6, 7, 6, 5, 8, 14, 13, 12, 6, 13, 12, 14, 14, 6, 5, 12, 7, 12, 7, 6, 7]
open = [false, false, false, false, true, true, true, true, false, false, false, true, true, true, false]
trucks_used = [0, 0, 0, 0, 1, 1, 1, 1, 0, 0, 0, 1, 1, 1, 0]
truck_assigned = [1, 1, 1, 1, 1, 1, 1, 1, 1, 1, 1, 1, 1, 1, 1, 1, 1, 1, 1, 1, 1, 1, 1, 1, 1, 1, 1, 1, 1, 1]
obj = 7074
----------
source = [5, 12, 8, 13, 7, 8, 14, 5, 8, 6, 7, 6, 5, 8, 14, 13, 12, 6, 13, 12, 14, 14, 6, 5, 12, 7, 12, 7, 6, 7]
open = [false, false, false, false, true, true, true, true, false, false, false, true, true, true, false]
trucks_used = [0, 0, 0, 0, 1, 1, 1, 1, 0, 0, 0, 1, 1, 1, 0]
truck_assigned = [1, 1, 1, 1, 1, 1, 1, 1, 1, 1, 1, 1, 1, 1, 1, 1, 1, 1, 1, 1, 1, 1, 1, 1, 1, 1, 1, 1, 1, 1]
obj = 7074
----------
==========
	Command being timed: "mzn-grb -a lbbd-datasets/sscplp/trucks-dzn/model.mzn lbbd-datasets/sscplp/trucks-dzn/p15-l100-c300-correlated.dzn"
	User time (seconds): 260.59
	System time (seconds): 1.14
	Percent of CPU this job got: 99%
	Elapsed (wall clock) time (h:mm:ss or m:ss): 4:22.38
	Average shared text size (kbytes): 0
	Average unshared data size (kbytes): 0
	Average stack size (kbytes): 0
	Average total size (kbytes): 0
	Maximum resident set size (kbytes): 5662368
	Average resident set size (kbytes): 0
	Major (requiring I/O) page faults: 0
	Minor (reclaiming a frame) page faults: 342230
	Voluntary context switches: 4
	Involuntary context switches: 436
	Swaps: 0
	File system inputs: 0
	File system outputs: 72
	Socket messages sent: 0
	Socket messages received: 0
	Signals delivered: 0
	Page size (bytes): 4096
	Exit status: 0
