+ /usr/bin/timeout 600 /usr/bin/time -v mzn-grb -a lbbd-datasets/Rabadi-2006/dzn-s-dominant/model.mzn lbbd-datasets/Rabadi-2006/dzn-s-dominant/10on4Rp50Rs50_4Ameer.dzn
assign = array1d(1..14 ,[1, 3, 2, 4, 4, 4, 2, 1, 2, 3, 1, 2, 3, 4]);
next = array1d(1..14 ,[11, 10, 12, 14, 6, 4, 9, 1, 3, 13, 7, 2, 5, 8]);
makespan = 504;
----------
assign = array1d(1..14 ,[1, 3, 1, 2, 4, 4, 3, 4, 2, 2, 1, 2, 3, 4]);
next = array1d(1..14 ,[3, 7, 11, 9, 6, 14, 13, 5, 12, 4, 10, 2, 8, 1]);
makespan = 494;
----------
assign = array1d(1..14 ,[2, 4, 4, 3, 3, 2, 1, 1, 2, 3, 1, 2, 3, 4]);
next = array1d(1..14 ,[12, 3, 14, 10, 4, 9, 11, 7, 1, 13, 6, 5, 2, 8]);
makespan = 475;
----------
assign = array1d(1..14 ,[1, 1, 2, 3, 3, 2, 4, 4, 2, 3, 1, 2, 3, 4]);
next = array1d(1..14 ,[2, 11, 12, 10, 4, 9, 14, 7, 3, 13, 6, 5, 8, 1]);
makespan = 471;
----------
assign = array1d(1..14 ,[1, 4, 2, 4, 3, 4, 1, 3, 2, 3, 1, 2, 3, 4]);
next = array1d(1..14 ,[11, 4, 12, 14, 13, 2, 1, 10, 3, 5, 9, 8, 6, 7]);
makespan = 469;
----------
assign = array1d(1..14 ,[1, 4, 2, 4, 3, 4, 1, 3, 2, 3, 1, 2, 3, 4]);
next = array1d(1..14 ,[11, 4, 12, 6, 13, 14, 1, 10, 3, 5, 9, 8, 2, 7]);
makespan = 467;
----------
assign = array1d(1..14 ,[2, 1, 2, 4, 3, 4, 3, 4, 2, 1, 1, 2, 3, 4]);
next = array1d(1..14 ,[3, 11, 12, 6, 13, 8, 5, 14, 1, 2, 9, 7, 4, 10]);
makespan = 463;
----------
assign = array1d(1..14 ,[3, 4, 2, 4, 1, 4, 3, 2, 2, 1, 1, 2, 3, 4]);
next = array1d(1..14 ,[7, 4, 8, 6, 11, 14, 13, 9, 12, 5, 3, 1, 2, 10]);
makespan = 461;
----------
assign = array1d(1..14 ,[2, 4, 3, 4, 3, 4, 1, 1, 2, 3, 1, 2, 3, 4]);
next = array1d(1..14 ,[12, 4, 13, 6, 3, 14, 8, 11, 1, 5, 9, 10, 2, 7]);
makespan = 460;
----------
assign = array1d(1..14 ,[2, 1, 3, 4, 3, 4, 1, 4, 2, 3, 1, 2, 3, 4]);
next = array1d(1..14 ,[12, 11, 5, 6, 10, 8, 2, 14, 1, 13, 9, 3, 4, 7]);
makespan = 451;
----------
assign = array1d(1..14 ,[2, 1, 3, 4, 3, 4, 2, 1, 4, 3, 1, 2, 3, 4]);
next = array1d(1..14 ,[12, 11, 5, 6, 10, 9, 1, 2, 14, 13, 7, 3, 4, 8]);
makespan = 446;
----------
assign = array1d(1..14 ,[2, 1, 3, 4, 3, 4, 2, 1, 4, 3, 1, 2, 3, 4]);
next = array1d(1..14 ,[12, 11, 5, 6, 10, 9, 1, 2, 14, 13, 7, 3, 4, 8]);
makespan = 446;
----------
==========
	Command being timed: "mzn-grb -a lbbd-datasets/Rabadi-2006/dzn-s-dominant/model.mzn lbbd-datasets/Rabadi-2006/dzn-s-dominant/10on4Rp50Rs50_4Ameer.dzn"
	User time (seconds): 573.28
	System time (seconds): 0.18
	Percent of CPU this job got: 99%
	Elapsed (wall clock) time (h:mm:ss or m:ss): 9:34.50
	Average shared text size (kbytes): 0
	Average unshared data size (kbytes): 0
	Average stack size (kbytes): 0
	Average total size (kbytes): 0
	Maximum resident set size (kbytes): 317488
	Average resident set size (kbytes): 0
	Major (requiring I/O) page faults: 0
	Minor (reclaiming a frame) page faults: 50402
	Voluntary context switches: 24
	Involuntary context switches: 658
	Swaps: 0
	File system inputs: 0
	File system outputs: 40
	Socket messages sent: 0
	Socket messages received: 0
	Signals delivered: 0
	Page size (bytes): 4096
	Exit status: 0
