+ /usr/bin/timeout 600 /usr/bin/time -v mzn-grb -a lbbd-datasets/sscplp/dzn/model.mzn lbbd-datasets/sscplp/dzn/p39.dzn
source = [16, 18, 17, 17, 17, 5, 17, 16, 16, 16, 16, 15, 13, 14, 15, 15, 14, 14, 13, 12, 11, 11, 11, 11, 11, 10, 10, 9, 10, 10, 9, 8, 9, 9, 8, 8, 8, 6, 4, 7, 7, 3, 7, 7, 6, 5, 4, 4, 4, 3, 3, 3, 2, 3, 2, 2, 1, 1, 1, 1]
obj = 83828
----------
source = [25, 24, 19, 7, 25, 11, 27, 24, 27, 23, 15, 19, 23, 7, 1, 30, 25, 2, 2, 11, 25, 15, 3, 8, 25, 1, 1, 1, 3, 8, 12, 7, 7, 24, 1, 19, 19, 11, 26, 26, 8, 3, 4, 24, 20, 23, 26, 23, 20, 3, 26, 2, 30, 15, 11, 26, 11, 7, 8, 26]
obj = 52514
----------
source = [25, 24, 19, 7, 25, 25, 23, 26, 27, 23, 15, 19, 23, 7, 1, 30, 20, 25, 2, 11, 2, 3, 23, 8, 25, 1, 1, 1, 3, 8, 7, 15, 7, 24, 1, 19, 24, 11, 19, 26, 8, 3, 24, 19, 20, 23, 26, 27, 15, 3, 26, 2, 30, 15, 11, 26, 11, 7, 8, 26]
obj = 43880
----------
source = [7, 24, 19, 23, 3, 11, 23, 30, 27, 23, 15, 19, 23, 7, 1, 4, 20, 2, 2, 11, 30, 20, 3, 26, 11, 8, 1, 1, 3, 8, 7, 15, 7, 24, 1, 19, 24, 11, 26, 26, 8, 3, 24, 19, 4, 3, 23, 26, 15, 27, 26, 2, 30, 15, 1, 26, 11, 7, 8, 4]
obj = 43829
----------
source = [24, 24, 19, 23, 3, 11, 27, 2, 27, 23, 15, 19, 23, 7, 1, 4, 20, 1, 2, 11, 30, 3, 24, 8, 20, 20, 24, 30, 3, 8, 7, 15, 7, 24, 1, 1, 19, 11, 26, 26, 8, 3, 7, 19, 4, 23, 23, 26, 15, 2, 26, 26, 30, 15, 11, 26, 11, 7, 8, 4]
obj = 43820
----------
source = [27, 24, 19, 23, 3, 11, 23, 26, 27, 23, 7, 19, 23, 27, 1, 4, 20, 1, 2, 11, 30, 15, 3, 8, 20, 20, 1, 30, 3, 8, 7, 7, 7, 24, 1, 19, 24, 11, 26, 26, 8, 3, 24, 19, 4, 3, 23, 26, 15, 2, 26, 2, 30, 15, 11, 26, 11, 7, 8, 4]
obj = 43798
----------
source = [27, 24, 19, 23, 3, 11, 27, 26, 3, 23, 15, 19, 23, 27, 26, 9, 20, 1, 2, 11, 9, 11, 3, 8, 20, 20, 1, 1, 1, 8, 7, 7, 7, 24, 1, 7, 24, 3, 26, 9, 8, 23, 24, 19, 23, 3, 26, 26, 15, 2, 26, 2, 9, 15, 11, 19, 11, 7, 8, 19]
obj = 41334
----------
source = [27, 24, 20, 7, 26, 11, 2, 26, 27, 23, 15, 19, 23, 27, 26, 9, 19, 1, 7, 11, 9, 20, 3, 8, 8, 1, 1, 1, 3, 1, 7, 15, 7, 24, 19, 11, 24, 3, 8, 9, 8, 3, 24, 19, 23, 3, 26, 23, 15, 2, 26, 2, 9, 15, 11, 26, 11, 7, 8, 19]
obj = 41213
----------
source = [27, 27, 20, 7, 26, 11, 23, 26, 27, 3, 15, 19, 23, 7, 26, 9, 19, 1, 2, 11, 9, 20, 24, 8, 11, 1, 24, 1, 3, 1, 9, 15, 7, 24, 1, 19, 24, 3, 8, 9, 8, 3, 7, 19, 23, 3, 26, 23, 15, 2, 26, 2, 8, 15, 11, 26, 11, 7, 8, 19]
obj = 41186
----------
source = [24, 1, 7, 7, 3, 11, 23, 24, 27, 23, 19, 26, 23, 7, 26, 9, 19, 15, 2, 11, 9, 15, 24, 8, 11, 1, 1, 23, 3, 27, 9, 26, 7, 24, 1, 1, 19, 3, 8, 9, 8, 3, 24, 19, 20, 3, 26, 23, 20, 2, 26, 2, 8, 15, 11, 26, 11, 7, 8, 19]
obj = 41157
----------
source = [24, 24, 7, 7, 3, 11, 23, 24, 27, 23, 19, 26, 23, 7, 26, 9, 19, 15, 2, 11, 9, 15, 3, 8, 11, 1, 1, 23, 3, 27, 9, 26, 7, 24, 1, 1, 19, 11, 8, 9, 8, 3, 24, 19, 20, 3, 26, 23, 20, 2, 26, 2, 8, 15, 1, 26, 11, 7, 8, 19]
obj = 41143
----------
source = [19, 24, 19, 7, 3, 20, 26, 2, 27, 26, 7, 26, 23, 3, 1, 4, 3, 15, 2, 11, 24, 23, 24, 8, 20, 1, 1, 1, 15, 27, 7, 15, 7, 24, 1, 11, 19, 3, 8, 26, 8, 24, 4, 19, 4, 3, 23, 23, 20, 2, 26, 11, 8, 15, 11, 26, 11, 7, 8, 19]
obj = 41141
----------
source = [4, 24, 3, 23, 26, 20, 23, 26, 27, 23, 19, 26, 23, 7, 1, 4, 3, 15, 2, 11, 24, 3, 3, 8, 20, 1, 1, 1, 15, 27, 7, 15, 7, 24, 1, 19, 19, 11, 8, 26, 8, 11, 7, 24, 4, 19, 23, 26, 20, 2, 26, 2, 8, 15, 11, 19, 11, 7, 8, 4]
obj = 41043
----------
source = [4, 24, 3, 23, 26, 20, 23, 26, 27, 23, 15, 26, 23, 7, 1, 4, 19, 15, 2, 11, 24, 3, 3, 8, 20, 1, 1, 1, 3, 27, 7, 15, 7, 24, 1, 19, 19, 11, 8, 26, 8, 11, 7, 24, 4, 19, 23, 26, 20, 2, 26, 2, 8, 15, 11, 19, 11, 7, 8, 4]
obj = 41030
----------
source = [4, 24, 20, 23, 3, 11, 23, 24, 27, 23, 15, 19, 23, 7, 1, 4, 19, 1, 2, 11, 24, 20, 3, 26, 8, 1, 24, 1, 3, 27, 7, 15, 7, 24, 1, 11, 19, 3, 26, 26, 8, 3, 7, 19, 4, 19, 23, 26, 15, 2, 26, 2, 8, 15, 11, 26, 11, 7, 8, 4]
obj = 41016
----------
source = [24, 24, 20, 7, 3, 11, 23, 26, 27, 23, 19, 26, 23, 7, 26, 4, 19, 1, 2, 15, 24, 15, 24, 8, 11, 1, 1, 23, 3, 27, 1, 15, 7, 24, 1, 11, 19, 3, 8, 4, 8, 3, 7, 19, 4, 3, 26, 23, 20, 2, 26, 2, 8, 15, 11, 26, 11, 7, 8, 19]
obj = 41014
----------
source = [4, 24, 19, 23, 3, 11, 23, 8, 27, 26, 15, 19, 23, 7, 1, 4, 19, 15, 2, 11, 24, 20, 3, 8, 8, 1, 1, 1, 3, 27, 7, 15, 7, 24, 1, 11, 19, 3, 26, 26, 8, 3, 7, 24, 4, 23, 23, 26, 20, 2, 26, 2, 19, 15, 11, 26, 11, 7, 8, 4]
obj = 41013
----------
source = [4, 24, 19, 7, 26, 11, 23, 26, 27, 23, 19, 19, 23, 7, 26, 4, 19, 1, 2, 15, 24, 15, 3, 8, 11, 1, 1, 23, 3, 27, 1, 15, 7, 24, 1, 11, 19, 3, 8, 20, 8, 3, 7, 24, 4, 3, 26, 23, 20, 2, 26, 2, 8, 15, 11, 26, 11, 7, 8, 4]
obj = 41007
----------
source = [4, 24, 19, 7, 26, 11, 23, 26, 27, 23, 19, 19, 23, 7, 26, 4, 19, 1, 2, 15, 24, 15, 3, 8, 11, 1, 1, 23, 3, 27, 1, 15, 7, 24, 1, 11, 19, 3, 8, 20, 8, 3, 7, 24, 4, 3, 26, 23, 20, 2, 26, 2, 8, 15, 11, 26, 11, 7, 8, 4]
obj = 41007
----------
==========
	Command being timed: "mzn-grb -a lbbd-datasets/sscplp/dzn/model.mzn lbbd-datasets/sscplp/dzn/p39.dzn"
	User time (seconds): 60.07
	System time (seconds): 0.10
	Percent of CPU this job got: 99%
	Elapsed (wall clock) time (h:mm:ss or m:ss): 1:00.28
	Average shared text size (kbytes): 0
	Average unshared data size (kbytes): 0
	Average stack size (kbytes): 0
	Average total size (kbytes): 0
	Maximum resident set size (kbytes): 252272
	Average resident set size (kbytes): 0
	Major (requiring I/O) page faults: 0
	Minor (reclaiming a frame) page faults: 30937
	Voluntary context switches: 7
	Involuntary context switches: 95
	Swaps: 0
	File system inputs: 0
	File system outputs: 24
	Socket messages sent: 0
	Socket messages received: 0
	Signals delivered: 0
	Page size (bytes): 4096
	Exit status: 0
