+ /usr/bin/timeout 600 /usr/bin/time -v mzn-grb -a lbbd-datasets/Rabadi-2006/dzn-s-dominant/model.mzn lbbd-datasets/Rabadi-2006/dzn-s-dominant/11on2Rp50Rs50_15Ameer.dzn
assign = array1d(1..13 ,[1, 2, 1, 2, 1, 1, 1, 1, 2, 2, 2, 1, 2]);
next = array1d(1..13 ,[3, 13, 5, 9, 6, 7, 12, 1, 10, 2, 4, 11, 8]);
makespan = 1283;
----------
assign = array1d(1..13 ,[2, 2, 1, 1, 2, 1, 2, 2, 1, 1, 2, 1, 2]);
next = array1d(1..13 ,[5, 8, 4, 6, 2, 9, 13, 11, 12, 3, 7, 1, 10]);
makespan = 1155;
----------
assign = array1d(1..13 ,[2, 2, 1, 1, 2, 1, 2, 2, 1, 1, 2, 1, 2]);
next = array1d(1..13 ,[5, 13, 4, 6, 8, 9, 2, 11, 12, 3, 7, 1, 10]);
makespan = 1079;
----------
assign = array1d(1..13 ,[1, 2, 2, 1, 1, 1, 2, 2, 2, 1, 2, 1, 2]);
next = array1d(1..13 ,[5, 3, 9, 6, 12, 10, 2, 13, 11, 1, 8, 7, 4]);
makespan = 1036;
----------
assign = array1d(1..13 ,[1, 2, 2, 1, 1, 1, 2, 2, 2, 2, 1, 1, 2]);
next = array1d(1..13 ,[5, 3, 9, 6, 4, 11, 8, 13, 7, 2, 12, 10, 1]);
makespan = 1025;
----------
assign = array1d(1..13 ,[1, 2, 2, 1, 1, 1, 2, 2, 2, 2, 1, 1, 2]);
next = array1d(1..13 ,[5, 3, 9, 6, 4, 11, 8, 13, 7, 2, 12, 10, 1]);
makespan = 1025;
----------
==========
	Command being timed: "mzn-grb -a lbbd-datasets/Rabadi-2006/dzn-s-dominant/model.mzn lbbd-datasets/Rabadi-2006/dzn-s-dominant/11on2Rp50Rs50_15Ameer.dzn"
	User time (seconds): 64.29
	System time (seconds): 0.06
	Percent of CPU this job got: 99%
	Elapsed (wall clock) time (h:mm:ss or m:ss): 1:04.48
	Average shared text size (kbytes): 0
	Average unshared data size (kbytes): 0
	Average stack size (kbytes): 0
	Average total size (kbytes): 0
	Maximum resident set size (kbytes): 173104
	Average resident set size (kbytes): 0
	Major (requiring I/O) page faults: 0
	Minor (reclaiming a frame) page faults: 17023
	Voluntary context switches: 6
	Involuntary context switches: 116
	Swaps: 0
	File system inputs: 0
	File system outputs: 16
	Socket messages sent: 0
	Socket messages received: 0
	Signals delivered: 0
	Page size (bytes): 4096
	Exit status: 0
