+ /usr/bin/timeout 600 /usr/bin/time -v mzn-grb -a lbbd-datasets/Rabadi-2006/dzn-s-dominant/model.mzn lbbd-datasets/Rabadi-2006/dzn-s-dominant/6on4Rp50Rs50_2Ameer.dzn
assign = array1d(1..10 ,[2, 1, 1, 3, 4, 4, 1, 2, 3, 4]);
next = array1d(1..10 ,[8, 3, 7, 9, 6, 10, 1, 4, 5, 2]);
makespan = 281;
----------
assign = array1d(1..10 ,[4, 3, 1, 2, 4, 1, 1, 2, 3, 4]);
next = array1d(1..10 ,[10, 9, 7, 8, 1, 3, 4, 2, 5, 6]);
makespan = 277;
----------
assign = array1d(1..10 ,[4, 2, 1, 1, 3, 4, 1, 2, 3, 4]);
next = array1d(1..10 ,[6, 8, 7, 3, 9, 10, 2, 5, 1, 4]);
makespan = 275;
----------
assign = array1d(1..10 ,[3, 2, 1, 3, 4, 1, 1, 2, 3, 4]);
next = array1d(1..10 ,[9, 8, 6, 1, 10, 7, 2, 4, 5, 3]);
makespan = 272;
----------
assign = array1d(1..10 ,[4, 2, 1, 3, 3, 4, 1, 2, 3, 4]);
next = array1d(1..10 ,[6, 8, 7, 5, 9, 10, 2, 4, 1, 3]);
makespan = 266;
----------
assign = array1d(1..10 ,[3, 3, 1, 2, 4, 4, 1, 2, 3, 4]);
next = array1d(1..10 ,[2, 9, 7, 8, 10, 5, 4, 1, 6, 3]);
makespan = 258;
----------
assign = array1d(1..10 ,[3, 3, 1, 2, 4, 4, 1, 2, 3, 4]);
next = array1d(1..10 ,[2, 9, 7, 8, 10, 5, 4, 1, 6, 3]);
makespan = 258;
----------
==========
	Command being timed: "mzn-grb -a lbbd-datasets/Rabadi-2006/dzn-s-dominant/model.mzn lbbd-datasets/Rabadi-2006/dzn-s-dominant/6on4Rp50Rs50_2Ameer.dzn"
	User time (seconds): 2.29
	System time (seconds): 0.02
	Percent of CPU this job got: 99%
	Elapsed (wall clock) time (h:mm:ss or m:ss): 0:02.32
	Average shared text size (kbytes): 0
	Average unshared data size (kbytes): 0
	Average stack size (kbytes): 0
	Average total size (kbytes): 0
	Maximum resident set size (kbytes): 94928
	Average resident set size (kbytes): 0
	Major (requiring I/O) page faults: 0
	Minor (reclaiming a frame) page faults: 8038
	Voluntary context switches: 5
	Involuntary context switches: 6
	Swaps: 0
	File system inputs: 0
	File system outputs: 8
	Socket messages sent: 0
	Socket messages received: 0
	Signals delivered: 0
	Page size (bytes): 4096
	Exit status: 0
