+ /usr/bin/timeout 600 /usr/bin/time -v mzn-grb -a lbbd-datasets/Rabadi-2006/dzn-s-dominant/model.mzn lbbd-datasets/Rabadi-2006/dzn-s-dominant/11on8Rp50Rs50_8Ameer.dzn
assign = array1d(1..19 ,[5, 1, 3, 1, 8, 6, 6, 4, 3, 2, 7, 1, 2, 3, 4, 5, 6, 7, 8]);
next = array1d(1..19 ,[16, 12, 9, 2, 19, 7, 17, 15, 14, 13, 18, 10, 3, 8, 1, 6, 11, 5, 4]);
makespan = 249;
----------
assign = array1d(1..19 ,[5, 1, 3, 1, 8, 6, 6, 4, 5, 7, 2, 1, 2, 3, 4, 5, 6, 7, 8]);
next = array1d(1..19 ,[9, 12, 14, 2, 19, 7, 17, 15, 16, 18, 13, 11, 3, 8, 1, 6, 10, 5, 4]);
makespan = 235;
----------
assign = array1d(1..19 ,[5, 1, 3, 1, 8, 6, 6, 4, 5, 7, 2, 1, 2, 3, 4, 5, 6, 7, 8]);
next = array1d(1..19 ,[9, 12, 14, 2, 19, 7, 17, 15, 16, 18, 13, 11, 3, 8, 1, 6, 10, 5, 4]);
makespan = 235;
----------
==========
	Command being timed: "mzn-grb -a lbbd-datasets/Rabadi-2006/dzn-s-dominant/model.mzn lbbd-datasets/Rabadi-2006/dzn-s-dominant/11on8Rp50Rs50_8Ameer.dzn"
	User time (seconds): 20.59
	System time (seconds): 0.12
	Percent of CPU this job got: 98%
	Elapsed (wall clock) time (h:mm:ss or m:ss): 0:21.02
	Average shared text size (kbytes): 0
	Average unshared data size (kbytes): 0
	Average stack size (kbytes): 0
	Average total size (kbytes): 0
	Maximum resident set size (kbytes): 314592
	Average resident set size (kbytes): 0
	Major (requiring I/O) page faults: 0
	Minor (reclaiming a frame) page faults: 31718
	Voluntary context switches: 5
	Involuntary context switches: 75
	Swaps: 0
	File system inputs: 0
	File system outputs: 0
	Socket messages sent: 0
	Socket messages received: 0
	Signals delivered: 0
	Page size (bytes): 4096
	Exit status: 0
