+ /usr/bin/timeout 600 /usr/bin/time -v mzn-grb -a lbbd-datasets/Rabadi-2006/dzn-s-dominant/model.mzn lbbd-datasets/Rabadi-2006/dzn-s-dominant/10on4Rp50Rs50_9Ameer.dzn
assign = array1d(1..14 ,[3, 4, 1, 2, 1, 1, 4, 4, 3, 2, 1, 2, 3, 4]);
next = array1d(1..14 ,[9, 7, 5, 12, 11, 3, 14, 2, 13, 4, 10, 1, 8, 6]);
makespan = 488;
----------
assign = array1d(1..14 ,[1, 4, 1, 2, 3, 2, 2, 4, 3, 1, 1, 2, 3, 4]);
next = array1d(1..14 ,[11, 14, 10, 12, 13, 4, 6, 2, 5, 1, 7, 9, 8, 3]);
makespan = 473;
----------
assign = array1d(1..14 ,[3, 4, 1, 2, 1, 1, 2, 4, 3, 4, 1, 2, 3, 4]);
next = array1d(1..14 ,[9, 10, 5, 12, 6, 11, 4, 14, 13, 8, 7, 1, 2, 3]);
makespan = 470;
----------
assign = array1d(1..14 ,[4, 4, 1, 3, 1, 1, 4, 2, 2, 3, 1, 2, 3, 4]);
next = array1d(1..14 ,[7, 14, 5, 13, 6, 11, 2, 9, 12, 4, 8, 10, 1, 3]);
makespan = 468;
----------
assign = array1d(1..14 ,[4, 4, 1, 3, 1, 1, 4, 2, 2, 3, 1, 2, 3, 4]);
next = array1d(1..14 ,[7, 14, 5, 13, 11, 3, 2, 9, 12, 4, 8, 10, 1, 6]);
makespan = 461;
----------
assign = array1d(1..14 ,[1, 4, 3, 2, 3, 1, 4, 4, 2, 2, 1, 2, 3, 4]);
next = array1d(1..14 ,[6, 8, 5, 10, 13, 11, 2, 14, 12, 9, 4, 3, 7, 1]);
makespan = 446;
----------
assign = array1d(1..14 ,[3, 3, 2, 2, 1, 1, 4, 4, 2, 1, 1, 2, 3, 4]);
next = array1d(1..14 ,[2, 13, 12, 9, 10, 11, 14, 7, 3, 6, 4, 1, 8, 5]);
makespan = 441;
----------
assign = array1d(1..14 ,[2, 2, 3, 3, 1, 1, 4, 4, 3, 1, 1, 2, 3, 4]);
next = array1d(1..14 ,[2, 12, 4, 13, 10, 11, 14, 7, 3, 6, 1, 9, 8, 5]);
makespan = 434;
----------
assign = array1d(1..14 ,[2, 2, 3, 3, 1, 1, 4, 4, 3, 1, 1, 2, 3, 4]);
next = array1d(1..14 ,[2, 12, 4, 13, 10, 11, 14, 7, 3, 6, 1, 9, 8, 5]);
makespan = 434;
----------
==========
	Command being timed: "mzn-grb -a lbbd-datasets/Rabadi-2006/dzn-s-dominant/model.mzn lbbd-datasets/Rabadi-2006/dzn-s-dominant/10on4Rp50Rs50_9Ameer.dzn"
	User time (seconds): 392.83
	System time (seconds): 0.18
	Percent of CPU this job got: 99%
	Elapsed (wall clock) time (h:mm:ss or m:ss): 6:33.71
	Average shared text size (kbytes): 0
	Average unshared data size (kbytes): 0
	Average stack size (kbytes): 0
	Average total size (kbytes): 0
	Maximum resident set size (kbytes): 367968
	Average resident set size (kbytes): 0
	Major (requiring I/O) page faults: 0
	Minor (reclaiming a frame) page faults: 56783
	Voluntary context switches: 6
	Involuntary context switches: 440
	Swaps: 0
	File system inputs: 0
	File system outputs: 32
	Socket messages sent: 0
	Socket messages received: 0
	Signals delivered: 0
	Page size (bytes): 4096
	Exit status: 0
