+ /usr/bin/timeout 600 /usr/bin/time -v mzn-grb -a lbbd-datasets/sscplp/trucks-dzn/model.mzn lbbd-datasets/sscplp/trucks-dzn/p17-l100-c150-correlated.dzn
source = [7, 12, 12, 1, 12, 1, 4, 7, 6, 7, 4, 1, 4, 7, 1, 12, 7, 6, 7, 1, 4, 1, 6, 7, 1, 1, 1, 7, 1, 6]
open = [true, false, false, true, false, true, true, false, false, false, false, true, false, false, false]
trucks_used = [3, 0, 0, 1, 0, 1, 2, 0, 0, 0, 0, 1, 0, 0, 0]
truck_assigned = [1, 1, 1, 1, 1, 3, 1, 2, 1, 1, 1, 2, 1, 2, 2, 1, 2, 1, 2, 1, 1, 1, 1, 2, 3, 3, 2, 1, 1, 1]
obj = 9096
----------
source = [7, 12, 12, 12, 7, 1, 4, 7, 6, 7, 1, 1, 4, 7, 1, 12, 4, 6, 7, 1, 4, 1, 6, 7, 1, 1, 1, 7, 1, 12]
open = [true, false, false, true, false, true, true, false, false, false, false, true, false, false, false]
trucks_used = [3, 0, 0, 1, 0, 1, 2, 0, 0, 0, 0, 1, 0, 0, 0]
truck_assigned = [1, 1, 1, 1, 1, 3, 1, 2, 1, 1, 3, 2, 1, 2, 2, 1, 1, 1, 2, 1, 1, 1, 1, 2, 2, 3, 2, 1, 2, 1]
obj = 9042
----------
source = [7, 7, 12, 12, 7, 1, 4, 6, 6, 7, 1, 1, 4, 7, 1, 12, 4, 6, 7, 1, 4, 1, 6, 7, 1, 1, 1, 7, 1, 12]
open = [true, false, false, true, false, true, true, false, false, false, false, true, false, false, false]
trucks_used = [3, 0, 0, 1, 0, 1, 2, 0, 0, 0, 0, 1, 0, 0, 0]
truck_assigned = [1, 1, 1, 1, 1, 3, 1, 1, 1, 1, 3, 2, 1, 2, 2, 1, 1, 1, 2, 1, 1, 1, 1, 2, 2, 3, 2, 2, 2, 1]
obj = 9039
----------
source = [7, 7, 12, 12, 12, 1, 7, 7, 6, 7, 1, 1, 1, 7, 1, 12, 7, 6, 7, 1, 6, 1, 6, 7, 1, 1, 1, 7, 1, 12]
open = [true, false, false, false, false, true, true, false, false, false, false, true, false, false, false]
trucks_used = [3, 0, 0, 0, 0, 1, 5, 0, 0, 0, 0, 1, 0, 0, 0]
truck_assigned = [1, 1, 1, 1, 1, 3, 2, 2, 1, 1, 3, 2, 1, 2, 2, 1, 1, 1, 2, 1, 1, 1, 1, 2, 2, 3, 2, 5, 2, 1]
obj = 8643
----------
source = [7, 7, 12, 12, 12, 1, 7, 7, 6, 7, 1, 1, 12, 12, 1, 12, 7, 6, 7, 1, 6, 1, 6, 7, 1, 1, 1, 7, 1, 12]
open = [true, false, false, false, false, true, true, false, false, false, false, true, false, false, false]
trucks_used = [3, 0, 0, 0, 0, 1, 2, 0, 0, 0, 0, 2, 0, 0, 0]
truck_assigned = [1, 1, 2, 2, 1, 3, 2, 2, 1, 1, 3, 2, 1, 1, 2, 1, 1, 1, 2, 1, 1, 1, 1, 2, 2, 1, 2, 2, 2, 1]
obj = 8342
----------
source = [7, 7, 12, 12, 12, 1, 7, 6, 6, 7, 1, 12, 12, 7, 1, 12, 7, 6, 7, 1, 6, 1, 1, 7, 1, 1, 1, 7, 1, 12]
open = [true, false, false, false, false, true, true, false, false, false, false, true, false, false, false]
trucks_used = [3, 0, 0, 0, 0, 1, 2, 0, 0, 0, 0, 2, 0, 0, 0]
truck_assigned = [1, 1, 2, 2, 1, 3, 2, 1, 1, 1, 3, 1, 1, 2, 1, 1, 1, 1, 2, 2, 1, 1, 1, 2, 2, 1, 2, 2, 2, 1]
obj = 8339
----------
source = [7, 12, 12, 12, 12, 1, 7, 7, 6, 7, 1, 1, 12, 7, 1, 12, 7, 6, 7, 1, 6, 1, 6, 7, 1, 1, 1, 7, 1, 12]
open = [true, false, false, false, false, true, true, false, false, false, false, true, false, false, false]
trucks_used = [3, 0, 0, 0, 0, 1, 2, 0, 0, 0, 0, 2, 0, 0, 0]
truck_assigned = [1, 1, 2, 2, 1, 3, 2, 2, 1, 1, 3, 3, 1, 2, 1, 1, 1, 1, 2, 2, 1, 1, 1, 2, 2, 1, 2, 1, 2, 1]
obj = 8332
----------
source = [7, 12, 12, 12, 12, 1, 7, 6, 6, 7, 1, 1, 12, 7, 7, 12, 7, 6, 7, 1, 1, 1, 6, 7, 1, 1, 1, 7, 1, 12]
open = [true, false, false, false, false, true, true, false, false, false, false, true, false, false, false]
trucks_used = [3, 0, 0, 0, 0, 1, 2, 0, 0, 0, 0, 2, 0, 0, 0]
truck_assigned = [1, 1, 2, 2, 1, 3, 2, 1, 1, 1, 3, 3, 1, 2, 2, 1, 1, 1, 2, 2, 1, 1, 1, 2, 2, 1, 2, 1, 2, 1]
obj = 8328
----------
source = [7, 12, 12, 6, 7, 1, 7, 7, 6, 7, 1, 1, 12, 7, 1, 12, 7, 6, 7, 1, 1, 1, 6, 7, 1, 1, 1, 7, 1, 12]
open = [true, false, false, false, false, true, true, false, false, false, false, true, false, false, false]
trucks_used = [3, 0, 0, 0, 0, 1, 2, 0, 0, 0, 0, 1, 0, 0, 0]
truck_assigned = [1, 1, 1, 1, 1, 3, 2, 2, 1, 1, 3, 3, 1, 1, 1, 1, 2, 1, 2, 2, 1, 2, 1, 2, 2, 1, 2, 1, 3, 1]
obj = 8187
----------
source = [7, 7, 12, 6, 12, 1, 7, 7, 6, 7, 1, 1, 12, 7, 1, 12, 7, 6, 7, 1, 1, 1, 6, 7, 1, 1, 1, 7, 1, 12]
open = [true, false, false, false, false, true, true, false, false, false, false, true, false, false, false]
trucks_used = [3, 0, 0, 0, 0, 1, 2, 0, 0, 0, 0, 1, 0, 0, 0]
truck_assigned = [1, 1, 1, 1, 1, 3, 2, 2, 1, 1, 3, 2, 1, 1, 3, 1, 2, 1, 2, 1, 1, 2, 1, 2, 2, 2, 1, 1, 3, 1]
obj = 8185
----------
source = [7, 12, 12, 1, 12, 1, 7, 7, 1, 7, 12, 12, 12, 12, 1, 12, 7, 7, 7, 1, 1, 1, 1, 7, 1, 1, 1, 7, 1, 12]
open = [true, false, false, false, false, false, true, false, false, false, false, true, false, false, false]
trucks_used = [4, 0, 0, 0, 0, 0, 2, 0, 0, 0, 0, 2, 0, 0, 0]
truck_assigned = [1, 2, 1, 1, 1, 2, 2, 2, 3, 1, 2, 1, 2, 1, 1, 1, 2, 1, 2, 4, 3, 1, 1, 2, 2, 2, 1, 1, 4, 2]
obj = 7715
----------
source = [7, 12, 12, 7, 12, 1, 7, 7, 1, 7, 12, 12, 12, 7, 1, 12, 7, 7, 7, 1, 1, 1, 1, 7, 1, 1, 1, 7, 1, 12]
open = [true, false, false, false, false, false, true, false, false, false, false, true, false, false, false]
trucks_used = [3, 0, 0, 0, 0, 0, 3, 0, 0, 0, 0, 2, 0, 0, 0]
truck_assigned = [3, 1, 1, 3, 1, 2, 2, 1, 3, 2, 2, 2, 2, 1, 1, 1, 2, 1, 2, 3, 3, 1, 1, 1, 2, 2, 1, 1, 1, 2]
obj = 7692
----------
source = [7, 7, 6, 1, 7, 1, 7, 6, 6, 7, 1, 1, 1, 10, 1, 10, 7, 6, 7, 1, 10, 1, 1, 7, 1, 10, 1, 7, 1, 10]
open = [true, false, false, false, false, true, true, false, false, true, false, false, false, false, false]
trucks_used = [3, 0, 0, 0, 0, 1, 2, 0, 0, 1, 0, 0, 0, 0, 0]
truck_assigned = [1, 2, 1, 2, 2, 2, 2, 1, 1, 1, 1, 1, 1, 1, 3, 1, 2, 1, 1, 3, 1, 3, 3, 1, 2, 1, 1, 1, 3, 1]
obj = 7580
----------
source = [7, 7, 12, 12, 12, 1, 7, 7, 1, 7, 1, 1, 12, 7, 1, 12, 7, 12, 7, 1, 1, 1, 1, 7, 1, 12, 1, 7, 1, 12]
open = [true, false, false, false, false, false, true, false, false, false, false, true, false, false, false]
trucks_used = [3, 0, 0, 0, 0, 0, 2, 0, 0, 0, 0, 2, 0, 0, 0]
truck_assigned = [1, 2, 2, 1, 2, 3, 1, 2, 3, 1, 2, 1, 2, 2, 3, 1, 2, 1, 2, 2, 1, 2, 3, 1, 2, 2, 1, 2, 1, 1]
obj = 7562
----------
source = [7, 12, 12, 12, 12, 1, 7, 7, 1, 7, 1, 12, 1, 12, 1, 12, 7, 7, 7, 1, 12, 1, 1, 7, 1, 1, 1, 7, 1, 12]
open = [true, false, false, false, false, false, true, false, false, false, false, true, false, false, false]
trucks_used = [3, 0, 0, 0, 0, 0, 2, 0, 0, 0, 0, 2, 0, 0, 0]
truck_assigned = [2, 2, 2, 1, 2, 2, 1, 2, 3, 1, 1, 2, 3, 2, 3, 1, 2, 1, 1, 2, 1, 1, 3, 2, 1, 2, 1, 2, 1, 1]
obj = 7561
----------
source = [7, 12, 12, 1, 12, 1, 7, 12, 1, 7, 1, 12, 12, 7, 1, 12, 7, 7, 7, 1, 12, 1, 1, 7, 1, 1, 1, 7, 1, 12]
open = [true, false, false, false, false, false, true, false, false, false, false, true, false, false, false]
trucks_used = [3, 0, 0, 0, 0, 0, 2, 0, 0, 0, 0, 2, 0, 0, 0]
truck_assigned = [2, 1, 2, 1, 1, 2, 1, 1, 3, 2, 3, 2, 2, 1, 2, 1, 1, 1, 2, 2, 2, 1, 1, 2, 1, 3, 1, 2, 2, 1]
obj = 7552
----------
source = [7, 12, 12, 12, 12, 1, 7, 12, 1, 7, 1, 12, 1, 7, 1, 12, 7, 7, 7, 1, 12, 1, 1, 7, 1, 1, 1, 7, 1, 12]
open = [true, false, false, false, false, false, true, false, false, false, false, true, false, false, false]
trucks_used = [3, 0, 0, 0, 0, 0, 2, 0, 0, 0, 0, 2, 0, 0, 0]
truck_assigned = [2, 2, 2, 1, 2, 2, 1, 1, 3, 2, 3, 2, 3, 1, 2, 2, 1, 1, 2, 2, 1, 2, 1, 2, 1, 1, 1, 2, 3, 1]
obj = 7551
----------
source = [7, 12, 12, 12, 12, 1, 7, 12, 1, 7, 1, 12, 1, 7, 1, 12, 7, 7, 7, 1, 12, 1, 1, 7, 1, 1, 1, 7, 1, 12]
open = [true, false, false, false, false, false, true, false, false, false, false, true, false, false, false]
trucks_used = [3, 0, 0, 0, 0, 0, 2, 0, 0, 0, 0, 2, 0, 0, 0]
truck_assigned = [2, 2, 2, 1, 2, 2, 1, 1, 3, 2, 3, 2, 3, 1, 2, 2, 1, 1, 2, 2, 1, 2, 1, 2, 1, 1, 1, 2, 3, 1]
obj = 7551
----------
==========
	Command being timed: "mzn-grb -a lbbd-datasets/sscplp/trucks-dzn/model.mzn lbbd-datasets/sscplp/trucks-dzn/p17-l100-c150-correlated.dzn"
	User time (seconds): 415.94
	System time (seconds): 1.50
	Percent of CPU this job got: 99%
	Elapsed (wall clock) time (h:mm:ss or m:ss): 6:58.38
	Average shared text size (kbytes): 0
	Average unshared data size (kbytes): 0
	Average stack size (kbytes): 0
	Average total size (kbytes): 0
	Maximum resident set size (kbytes): 6439920
	Average resident set size (kbytes): 0
	Major (requiring I/O) page faults: 0
	Minor (reclaiming a frame) page faults: 371267
	Voluntary context switches: 4
	Involuntary context switches: 785
	Swaps: 0
	File system inputs: 0
	File system outputs: 80
	Socket messages sent: 0
	Socket messages received: 0
	Signals delivered: 0
	Page size (bytes): 4096
	Exit status: 0
