+ /usr/bin/timeout 600 /usr/bin/time -v mzn-grb -a lbbd-datasets/Rabadi-2006/dzn-s-dominant/model.mzn lbbd-datasets/Rabadi-2006/dzn-s-dominant/9on4Rp50Rs50_11Ameer.dzn
assign = array1d(1..13 ,[4, 2, 1, 2, 4, 3, 1, 3, 4, 1, 2, 3, 4]);
next = array1d(1..13 ,[5, 11, 10, 2, 13, 8, 3, 12, 1, 4, 6, 9, 7]);
makespan = 451;
----------
assign = array1d(1..13 ,[4, 3, 2, 2, 1, 3, 4, 1, 1, 1, 2, 3, 4]);
next = array1d(1..13 ,[7, 12, 11, 3, 8, 2, 13, 10, 5, 4, 6, 1, 9]);
makespan = 440;
----------
assign = array1d(1..13 ,[1, 3, 4, 2, 4, 2, 1, 3, 2, 1, 2, 3, 4]);
next = array1d(1..13 ,[10, 8, 13, 9, 3, 4, 1, 12, 11, 6, 2, 5, 7]);
makespan = 433;
----------
assign = array1d(1..13 ,[1, 3, 4, 2, 4, 2, 1, 3, 2, 1, 2, 3, 4]);
next = array1d(1..13 ,[10, 8, 13, 9, 3, 4, 1, 12, 11, 6, 2, 5, 7]);
makespan = 433;
----------
==========
	Command being timed: "mzn-grb -a lbbd-datasets/Rabadi-2006/dzn-s-dominant/model.mzn lbbd-datasets/Rabadi-2006/dzn-s-dominant/9on4Rp50Rs50_11Ameer.dzn"
	User time (seconds): 473.80
	System time (seconds): 0.16
	Percent of CPU this job got: 99%
	Elapsed (wall clock) time (h:mm:ss or m:ss): 7:54.88
	Average shared text size (kbytes): 0
	Average unshared data size (kbytes): 0
	Average stack size (kbytes): 0
	Average total size (kbytes): 0
	Maximum resident set size (kbytes): 282736
	Average resident set size (kbytes): 0
	Major (requiring I/O) page faults: 0
	Minor (reclaiming a frame) page faults: 42878
	Voluntary context switches: 6
	Involuntary context switches: 568
	Swaps: 0
	File system inputs: 0
	File system outputs: 16
	Socket messages sent: 0
	Socket messages received: 0
	Signals delivered: 0
	Page size (bytes): 4096
	Exit status: 0
