+ /usr/bin/timeout 600 /usr/bin/time -v mzn-grb -a lbbd-datasets/Rabadi-2006/dzn-s-dominant/model.mzn lbbd-datasets/Rabadi-2006/dzn-s-dominant/11on4Rp50Rs50_9Ameer.dzn
assign = array1d(1..15 ,[2, 4, 3, 3, 2, 3, 1, 1, 2, 1, 4, 1, 2, 3, 4]);
next = array1d(1..15 ,[9, 15, 4, 14, 13, 3, 12, 10, 5, 7, 2, 1, 6, 11, 8]);
makespan = 514;
----------
assign = array1d(1..15 ,[4, 2, 3, 1, 4, 3, 2, 1, 3, 1, 2, 1, 2, 3, 4]);
next = array1d(1..15 ,[5, 13, 14, 8, 15, 9, 2, 10, 3, 12, 7, 11, 6, 1, 4]);
makespan = 492;
----------
assign = array1d(1..15 ,[4, 2, 3, 1, 4, 4, 2, 1, 3, 1, 2, 1, 2, 3, 4]);
next = array1d(1..15 ,[5, 13, 14, 8, 15, 1, 2, 10, 3, 12, 7, 11, 9, 6, 4]);
makespan = 479;
----------
assign = array1d(1..15 ,[4, 2, 3, 3, 4, 4, 2, 1, 1, 1, 3, 1, 2, 3, 4]);
next = array1d(1..15 ,[5, 13, 11, 14, 15, 1, 2, 10, 8, 12, 4, 7, 3, 6, 9]);
makespan = 476;
----------
assign = array1d(1..15 ,[4, 2, 3, 3, 2, 4, 2, 1, 1, 1, 3, 1, 2, 3, 4]);
next = array1d(1..15 ,[15, 5, 11, 14, 13, 1, 2, 10, 8, 12, 4, 7, 3, 6, 9]);
makespan = 461;
----------
assign = array1d(1..15 ,[4, 2, 3, 3, 2, 4, 2, 1, 1, 1, 3, 1, 2, 3, 4]);
next = array1d(1..15 ,[15, 5, 11, 3, 13, 1, 2, 10, 8, 12, 14, 7, 4, 6, 9]);
makespan = 460;
----------
assign = array1d(1..15 ,[4, 4, 3, 1, 2, 3, 2, 1, 3, 1, 2, 1, 2, 3, 4]);
next = array1d(1..15 ,[2, 15, 9, 10, 11, 14, 13, 4, 6, 12, 7, 5, 3, 1, 8]);
makespan = 459;
----------
assign = array1d(1..15 ,[4, 2, 3, 3, 2, 1, 1, 2, 1, 4, 3, 1, 2, 3, 4]);
next = array1d(1..15 ,[15, 5, 14, 3, 13, 7, 9, 2, 12, 1, 4, 8, 11, 10, 6]);
makespan = 457;
----------
assign = array1d(1..15 ,[4, 2, 3, 3, 4, 1, 2, 1, 2, 1, 3, 1, 2, 3, 4]);
next = array1d(1..15 ,[15, 7, 14, 3, 1, 10, 9, 6, 13, 12, 4, 2, 11, 5, 8]);
makespan = 455;
----------
assign = array1d(1..15 ,[4, 2, 3, 3, 2, 1, 1, 4, 2, 1, 3, 1, 2, 3, 4]);
next = array1d(1..15 ,[8, 5, 14, 3, 9, 7, 12, 15, 13, 6, 4, 2, 11, 1, 10]);
makespan = 452;
----------
assign = array1d(1..15 ,[4, 2, 3, 3, 2, 1, 1, 4, 2, 1, 3, 1, 2, 3, 4]);
next = array1d(1..15 ,[8, 5, 14, 3, 13, 10, 6, 15, 2, 12, 4, 9, 11, 1, 7]);
makespan = 439;
----------
