+ /usr/bin/timeout 600 /usr/bin/time -v mzn-grb -a lbbd-datasets/Rabadi-2006/dzn-s-dominant/model.mzn lbbd-datasets/Rabadi-2006/dzn-s-dominant/6on2Rp50Rs50_12Ameer.dzn
assign = array1d(1..8 ,[1, 2, 1, 2, 1, 2, 1, 2]);
next = array1d(1..8 ,[5, 8, 7, 2, 3, 4, 6, 1]);
makespan = 522;
----------
assign = array1d(1..8 ,[1, 1, 1, 2, 2, 2, 1, 2]);
next = array1d(1..8 ,[2, 7, 1, 5, 6, 8, 4, 3]);
makespan = 498;
----------
assign = array1d(1..8 ,[1, 2, 1, 2, 2, 1, 1, 2]);
next = array1d(1..8 ,[6, 5, 1, 8, 4, 7, 2, 3]);
makespan = 472;
----------
assign = array1d(1..8 ,[1, 2, 1, 2, 2, 1, 1, 2]);
next = array1d(1..8 ,[6, 5, 1, 8, 4, 7, 2, 3]);
makespan = 472;
----------
==========
	Command being timed: "mzn-grb -a lbbd-datasets/Rabadi-2006/dzn-s-dominant/model.mzn lbbd-datasets/Rabadi-2006/dzn-s-dominant/6on2Rp50Rs50_12Ameer.dzn"
	User time (seconds): 0.74
	System time (seconds): 0.01
	Percent of CPU this job got: 99%
	Elapsed (wall clock) time (h:mm:ss or m:ss): 0:00.76
	Average shared text size (kbytes): 0
	Average unshared data size (kbytes): 0
	Average stack size (kbytes): 0
	Average total size (kbytes): 0
	Maximum resident set size (kbytes): 71552
	Average resident set size (kbytes): 0
	Major (requiring I/O) page faults: 0
	Minor (reclaiming a frame) page faults: 5092
	Voluntary context switches: 4
	Involuntary context switches: 8
	Swaps: 0
	File system inputs: 0
	File system outputs: 8
	Socket messages sent: 0
	Socket messages received: 0
	Signals delivered: 0
	Page size (bytes): 4096
	Exit status: 0
