+ /usr/bin/timeout 600 /usr/bin/time -v mzn-grb -a lbbd-datasets/Rabadi-2006/dzn-s-dominant/model.mzn lbbd-datasets/Rabadi-2006/dzn-s-dominant/8on2Rp50Rs50_1Ameer.dzn
assign = array1d(1..10 ,[2, 1, 2, 1, 1, 2, 1, 1, 1, 2]);
next = array1d(1..10 ,[3, 9, 10, 5, 2, 1, 8, 4, 6, 7]);
makespan = 1026;
----------
assign = array1d(1..10 ,[2, 1, 2, 2, 2, 1, 1, 1, 1, 2]);
next = array1d(1..10 ,[4, 8, 5, 3, 10, 2, 9, 7, 1, 6]);
makespan = 772;
----------
assign = array1d(1..10 ,[1, 1, 1, 2, 2, 1, 2, 2, 1, 2]);
next = array1d(1..10 ,[6, 9, 2, 8, 4, 3, 10, 7, 5, 1]);
makespan = 738;
----------
assign = array1d(1..10 ,[1, 1, 2, 2, 2, 1, 1, 2, 1, 2]);
next = array1d(1..10 ,[2, 7, 8, 3, 10, 1, 9, 5, 4, 6]);
makespan = 736;
----------
assign = array1d(1..10 ,[1, 1, 2, 1, 2, 1, 2, 2, 1, 2]);
next = array1d(1..10 ,[4, 9, 10, 6, 8, 2, 3, 7, 5, 1]);
makespan = 713;
----------
assign = array1d(1..10 ,[1, 1, 2, 1, 2, 1, 2, 2, 1, 2]);
next = array1d(1..10 ,[4, 9, 10, 2, 8, 1, 3, 7, 5, 6]);
makespan = 708;
----------
assign = array1d(1..10 ,[1, 2, 2, 2, 1, 2, 1, 1, 1, 2]);
next = array1d(1..10 ,[8, 10, 6, 2, 7, 4, 9, 5, 3, 1]);
makespan = 706;
----------
assign = array1d(1..10 ,[1, 2, 2, 2, 1, 2, 1, 1, 1, 2]);
next = array1d(1..10 ,[8, 10, 6, 2, 7, 4, 9, 5, 3, 1]);
makespan = 706;
----------
==========
	Command being timed: "mzn-grb -a lbbd-datasets/Rabadi-2006/dzn-s-dominant/model.mzn lbbd-datasets/Rabadi-2006/dzn-s-dominant/8on2Rp50Rs50_1Ameer.dzn"
	User time (seconds): 1.66
	System time (seconds): 0.01
	Percent of CPU this job got: 99%
	Elapsed (wall clock) time (h:mm:ss or m:ss): 0:01.69
	Average shared text size (kbytes): 0
	Average unshared data size (kbytes): 0
	Average stack size (kbytes): 0
	Average total size (kbytes): 0
	Maximum resident set size (kbytes): 87472
	Average resident set size (kbytes): 0
	Major (requiring I/O) page faults: 0
	Minor (reclaiming a frame) page faults: 6077
	Voluntary context switches: 6
	Involuntary context switches: 7
	Swaps: 0
	File system inputs: 0
	File system outputs: 8
	Socket messages sent: 0
	Socket messages received: 0
	Signals delivered: 0
	Page size (bytes): 4096
	Exit status: 0
