+ /usr/bin/timeout 600 /usr/bin/time -v mzn-grb -a lbbd-datasets/Rabadi-2006/dzn-s-dominant/model.mzn lbbd-datasets/Rabadi-2006/dzn-s-dominant/11on4Rp50Rs50_7Ameer.dzn
assign = array1d(1..15 ,[3, 4, 3, 4, 3, 1, 2, 2, 1, 1, 2, 1, 2, 3, 4]);
next = array1d(1..15 ,[3, 4, 14, 15, 1, 12, 8, 11, 6, 9, 13, 7, 5, 2, 10]);
makespan = 475;
----------
assign = array1d(1..15 ,[3, 3, 1, 4, 4, 1, 2, 3, 1, 2, 2, 1, 2, 3, 4]);
next = array1d(1..15 ,[8, 1, 12, 5, 15, 9, 11, 14, 3, 7, 13, 10, 2, 4, 6]);
makespan = 474;
----------
assign = array1d(1..15 ,[3, 2, 1, 4, 3, 1, 4, 3, 1, 2, 2, 1, 2, 3, 4]);
next = array1d(1..15 ,[5, 10, 12, 15, 8, 9, 4, 14, 3, 11, 13, 2, 1, 7, 6]);
makespan = 473;
----------
assign = array1d(1..15 ,[3, 2, 3, 4, 3, 1, 1, 4, 1, 2, 2, 1, 2, 3, 4]);
next = array1d(1..15 ,[14, 13, 5, 15, 1, 9, 12, 4, 7, 11, 2, 10, 3, 8, 6]);
makespan = 470;
----------
