+ /usr/bin/timeout 600 /usr/bin/time -v mzn-grb -a lbbd-datasets/Rabadi-2006/dzn-p-dominant/model.mzn lbbd-datasets/Rabadi-2006/dzn-p-dominant/10on6Rp50Rs50_9Ameer.dzn
assign = array1d(1..16 ,[6, 6, 1, 4, 4, 3, 1, 3, 2, 5, 1, 2, 3, 4, 5, 6]);
next = array1d(1..16 ,[2, 16, 11, 14, 4, 13, 3, 6, 12, 15, 9, 8, 5, 10, 1, 7]);
makespan = 377;
----------
assign = array1d(1..16 ,[5, 5, 6, 4, 2, 1, 3, 3, 2, 4, 1, 2, 3, 4, 5, 6]);
next = array1d(1..16 ,[2, 15, 16, 10, 12, 11, 8, 13, 5, 14, 9, 7, 4, 1, 3, 6]);
makespan = 363;
----------
assign = array1d(1..16 ,[6, 6, 1, 1, 5, 3, 4, 3, 2, 5, 1, 2, 3, 4, 5, 6]);
next = array1d(1..16 ,[16, 1, 4, 11, 10, 8, 14, 13, 12, 15, 9, 6, 7, 5, 2, 3]);
makespan = 353;
----------
assign = array1d(1..16 ,[5, 6, 2, 4, 1, 3, 1, 3, 2, 5, 1, 2, 3, 4, 5, 6]);
next = array1d(1..16 ,[10, 16, 12, 14, 7, 8, 11, 13, 3, 15, 9, 6, 4, 1, 2, 5]);
makespan = 345;
----------
assign = array1d(1..16 ,[6, 6, 2, 4, 1, 3, 1, 2, 5, 5, 1, 2, 3, 4, 5, 6]);
next = array1d(1..16 ,[2, 16, 8, 14, 7, 13, 11, 12, 10, 15, 3, 6, 4, 9, 1, 5]);
makespan = 338;
----------
assign = array1d(1..16 ,[1, 3, 2, 4, 2, 3, 6, 1, 5, 5, 1, 2, 3, 4, 5, 6]);
next = array1d(1..16 ,[11, 13, 12, 14, 3, 2, 16, 1, 10, 15, 5, 6, 4, 9, 7, 8]);
makespan = 337;
----------
assign = array1d(1..16 ,[6, 6, 2, 2, 4, 1, 1, 3, 5, 4, 1, 2, 3, 4, 5, 6]);
next = array1d(1..16 ,[2, 16, 4, 12, 14, 11, 6, 13, 15, 5, 3, 8, 10, 9, 1, 7]);
makespan = 335;
----------
assign = array1d(1..16 ,[6, 6, 3, 4, 2, 1, 1, 5, 2, 5, 1, 2, 3, 4, 5, 6]);
next = array1d(1..16 ,[2, 16, 13, 14, 12, 11, 6, 15, 5, 8, 9, 3, 4, 10, 1, 7]);
makespan = 333;
----------
assign = array1d(1..16 ,[6, 6, 3, 4, 2, 1, 1, 5, 2, 5, 1, 2, 3, 4, 5, 6]);
next = array1d(1..16 ,[2, 16, 13, 14, 12, 11, 6, 15, 5, 8, 9, 3, 4, 10, 1, 7]);
makespan = 333;
----------
==========
	Command being timed: "mzn-grb -a lbbd-datasets/Rabadi-2006/dzn-p-dominant/model.mzn lbbd-datasets/Rabadi-2006/dzn-p-dominant/10on6Rp50Rs50_9Ameer.dzn"
	User time (seconds): 6.64
	System time (seconds): 0.05
	Percent of CPU this job got: 99%
	Elapsed (wall clock) time (h:mm:ss or m:ss): 0:06.71
	Average shared text size (kbytes): 0
	Average unshared data size (kbytes): 0
	Average stack size (kbytes): 0
	Average total size (kbytes): 0
	Maximum resident set size (kbytes): 207872
	Average resident set size (kbytes): 0
	Major (requiring I/O) page faults: 0
	Minor (reclaiming a frame) page faults: 16212
	Voluntary context switches: 4
	Involuntary context switches: 21
	Swaps: 0
	File system inputs: 0
	File system outputs: 8
	Socket messages sent: 0
	Socket messages received: 0
	Signals delivered: 0
	Page size (bytes): 4096
	Exit status: 0
