+ /usr/bin/timeout 600 /usr/bin/time -v mzn-grb -a lbbd-datasets/sscplp/trucks-dzn/model.mzn lbbd-datasets/sscplp/trucks-dzn/p04-l50-c150-uncorrelated.dzn
source = [4, 8, 10, 1, 10, 1, 1, 1, 7, 3, 7, 8, 3, 10, 1, 7, 7, 4, 3, 4]
open = [true, false, true, true, false, false, true, true, false, true]
trucks_used = [3, 0, 1, 1, 0, 0, 1, 1, 0, 3]
truck_assigned = [1, 1, 3, 2, 1, 2, 1, 3, 1, 1, 1, 1, 1, 1, 1, 1, 1, 1, 1, 1]
obj = 8629
----------
source = [6, 7, 6, 1, 5, 1, 1, 1, 5, 5, 7, 8, 5, 4, 1, 8, 7, 4, 5, 8]
open = [true, false, false, true, true, true, true, true, false, false]
trucks_used = [3, 0, 0, 2, 3, 2, 1, 2, 0, 0]
truck_assigned = [1, 1, 2, 2, 1, 2, 1, 3, 3, 3, 1, 1, 1, 1, 1, 1, 1, 2, 2, 2]
obj = 7459
----------
source = [4, 10, 10, 1, 10, 1, 8, 1, 7, 6, 7, 1, 1, 10, 1, 7, 7, 4, 6, 4]
open = [true, false, false, true, false, true, true, true, false, true]
trucks_used = [5, 0, 0, 1, 0, 1, 1, 1, 0, 2]
truck_assigned = [1, 2, 1, 2, 1, 1, 1, 3, 1, 1, 1, 4, 5, 2, 1, 1, 1, 1, 1, 1]
obj = 7381
----------
source = [4, 1, 1, 1, 10, 1, 1, 10, 7, 10, 7, 8, 10, 8, 1, 7, 7, 4, 10, 4]
open = [true, false, false, true, false, false, true, true, false, true]
trucks_used = [4, 0, 0, 2, 0, 0, 1, 1, 0, 4]
truck_assigned = [1, 3, 4, 4, 3, 1, 2, 2, 1, 4, 1, 1, 2, 1, 1, 1, 1, 2, 1, 1]
obj = 7159
----------
source = [4, 10, 1, 1, 10, 10, 1, 1, 7, 10, 7, 8, 1, 8, 1, 7, 7, 4, 10, 4]
open = [true, false, false, true, false, false, true, true, false, true]
trucks_used = [6, 0, 0, 1, 0, 0, 1, 1, 0, 3]
truck_assigned = [1, 3, 2, 2, 2, 2, 6, 3, 1, 1, 1, 1, 1, 1, 1, 1, 1, 1, 1, 1]
obj = 7140
----------
source = [4, 10, 10, 1, 10, 1, 1, 1, 7, 10, 7, 8, 10, 10, 8, 7, 7, 4, 10, 4]
open = [true, false, false, true, false, false, true, true, false, true]
trucks_used = [4, 0, 0, 1, 0, 0, 1, 1, 0, 4]
truck_assigned = [1, 3, 3, 2, 4, 1, 4, 3, 1, 2, 1, 1, 1, 4, 1, 1, 1, 1, 1, 1]
obj = 6881
----------
source = [4, 10, 1, 1, 1, 10, 8, 1, 7, 10, 7, 8, 10, 10, 1, 7, 7, 4, 10, 4]
open = [true, false, false, true, false, false, true, true, false, true]
trucks_used = [3, 0, 0, 1, 0, 0, 1, 1, 0, 3]
truck_assigned = [1, 3, 2, 2, 1, 1, 1, 3, 1, 2, 1, 1, 1, 3, 3, 1, 1, 1, 1, 1]
obj = 6702
----------
source = [4, 10, 1, 1, 10, 10, 8, 1, 7, 10, 7, 8, 1, 10, 1, 7, 7, 4, 10, 4]
open = [true, false, false, true, false, false, true, true, false, true]
trucks_used = [3, 0, 0, 1, 0, 0, 1, 1, 0, 3]
truck_assigned = [1, 3, 2, 2, 1, 1, 1, 3, 1, 2, 1, 1, 1, 3, 3, 1, 1, 1, 1, 1]
obj = 6698
----------
source = [4, 10, 10, 1, 10, 1, 8, 1, 7, 10, 7, 8, 1, 10, 1, 7, 7, 4, 10, 4]
open = [true, false, false, true, false, false, true, true, false, true]
trucks_used = [3, 0, 0, 1, 0, 0, 1, 1, 0, 3]
truck_assigned = [1, 3, 1, 1, 1, 1, 1, 3, 1, 2, 1, 1, 2, 3, 3, 1, 1, 1, 1, 1]
obj = 6676
----------
source = [4, 10, 1, 1, 10, 1, 1, 8, 7, 10, 7, 8, 10, 10, 1, 7, 7, 4, 10, 4]
open = [true, false, false, true, false, false, true, true, false, true]
trucks_used = [3, 0, 0, 1, 0, 0, 1, 1, 0, 3]
truck_assigned = [1, 3, 2, 3, 2, 2, 1, 1, 1, 1, 1, 1, 2, 3, 1, 1, 1, 1, 1, 1]
obj = 6665
----------
source = [4, 10, 10, 1, 10, 1, 1, 8, 7, 10, 7, 8, 10, 10, 1, 7, 7, 4, 1, 4]
open = [true, false, false, true, false, false, true, true, false, true]
trucks_used = [3, 0, 0, 1, 0, 0, 1, 1, 0, 3]
truck_assigned = [1, 3, 1, 3, 2, 3, 1, 1, 1, 1, 1, 1, 2, 3, 1, 1, 1, 1, 2, 1]
obj = 6619
----------
source = [4, 3, 1, 1, 3, 1, 3, 1, 7, 3, 7, 8, 3, 8, 1, 7, 7, 4, 3, 4]
open = [true, false, true, true, false, false, true, true, false, false]
trucks_used = [3, 0, 2, 1, 0, 0, 1, 1, 0, 0]
truck_assigned = [1, 1, 1, 3, 2, 3, 1, 2, 1, 2, 1, 1, 2, 1, 1, 1, 1, 1, 1, 1]
obj = 6551
----------
source = [4, 3, 1, 1, 3, 1, 3, 8, 7, 3, 7, 1, 3, 8, 1, 7, 7, 4, 3, 4]
open = [true, false, true, true, false, false, true, true, false, false]
trucks_used = [3, 0, 2, 1, 0, 0, 1, 1, 0, 0]
truck_assigned = [1, 2, 1, 3, 1, 3, 1, 1, 1, 2, 1, 2, 2, 1, 1, 1, 1, 1, 1, 1]
obj = 6532
----------
source = [4, 10, 10, 1, 10, 10, 1, 1, 7, 1, 7, 10, 1, 10, 1, 7, 7, 4, 10, 4]
open = [true, false, false, true, false, false, true, false, false, true]
trucks_used = [5, 0, 0, 1, 0, 0, 1, 0, 0, 3]
truck_assigned = [1, 3, 1, 3, 2, 2, 4, 5, 1, 1, 1, 1, 2, 3, 2, 1, 1, 1, 2, 1]
obj = 6408
----------
source = [4, 10, 1, 1, 10, 10, 1, 1, 7, 10, 7, 1, 10, 10, 1, 7, 7, 4, 10, 4]
open = [true, false, false, true, false, false, true, false, false, true]
trucks_used = [4, 0, 0, 1, 0, 0, 1, 0, 0, 4]
truck_assigned = [1, 4, 1, 1, 1, 3, 4, 3, 1, 3, 1, 2, 1, 2, 3, 1, 1, 1, 2, 1]
obj = 6374
----------
source = [4, 10, 1, 1, 10, 1, 1, 10, 7, 10, 7, 10, 10, 1, 1, 7, 7, 4, 10, 4]
open = [true, false, false, true, false, false, true, false, false, true]
trucks_used = [4, 0, 0, 1, 0, 0, 1, 0, 0, 4]
truck_assigned = [1, 2, 2, 2, 4, 4, 1, 2, 1, 1, 1, 3, 4, 3, 1, 1, 1, 1, 1, 1]
obj = 6340
----------
source = [4, 10, 10, 1, 10, 1, 1, 10, 7, 10, 7, 10, 10, 1, 1, 7, 7, 4, 1, 4]
open = [true, false, false, true, false, false, true, false, false, true]
trucks_used = [4, 0, 0, 1, 0, 0, 1, 0, 0, 4]
truck_assigned = [1, 2, 1, 4, 4, 4, 1, 2, 1, 1, 1, 3, 4, 2, 1, 1, 1, 1, 3, 1]
obj = 6294
----------
source = [4, 10, 10, 1, 10, 1, 1, 10, 7, 10, 7, 10, 10, 1, 1, 7, 7, 4, 1, 4]
open = [true, false, false, true, false, false, true, false, false, true]
trucks_used = [4, 0, 0, 1, 0, 0, 1, 0, 0, 4]
truck_assigned = [1, 2, 1, 4, 4, 4, 1, 2, 1, 1, 1, 3, 4, 2, 1, 1, 1, 1, 3, 1]
obj = 6294
----------
==========
	Command being timed: "mzn-grb -a lbbd-datasets/sscplp/trucks-dzn/model.mzn lbbd-datasets/sscplp/trucks-dzn/p04-l50-c150-uncorrelated.dzn"
	User time (seconds): 161.30
	System time (seconds): 0.46
	Percent of CPU this job got: 99%
	Elapsed (wall clock) time (h:mm:ss or m:ss): 2:42.08
	Average shared text size (kbytes): 0
	Average unshared data size (kbytes): 0
	Average stack size (kbytes): 0
	Average total size (kbytes): 0
	Maximum resident set size (kbytes): 1639888
	Average resident set size (kbytes): 0
	Major (requiring I/O) page faults: 0
	Minor (reclaiming a frame) page faults: 108710
	Voluntary context switches: 4
	Involuntary context switches: 291
	Swaps: 0
	File system inputs: 0
	File system outputs: 80
	Socket messages sent: 0
	Socket messages received: 0
	Signals delivered: 0
	Page size (bytes): 4096
	Exit status: 0
