+ /usr/bin/timeout 600 /usr/bin/time -v mzn-grb -a lbbd-datasets/planningandscheduling/cost-insts/model.mzn lbbd-datasets/planningandscheduling/cost-insts/de20j3m3.dzn
obj = 614
----------
obj = 572
----------
obj = 567
----------
obj = 561
----------
obj = 560
----------
obj = 554
----------
obj = 551
----------
obj = 549
----------
