+ /usr/bin/timeout 600 /usr/bin/time -v mzn-grb -a lbbd-datasets/sscplp/trucks-dzn/model.mzn lbbd-datasets/sscplp/trucks-dzn/p22-l100-c150-correlated.dzn
source = [6, 18, 18, 15, 9, 15, 18, 7, 9, 10, 16, 9, 16, 15, 6, 15, 7, 10, 7, 18, 6, 7, 9, 10, 18, 16, 9, 7, 16, 7, 6, 15, 16, 7, 6, 7, 9, 10, 9, 7]
open = [false, false, false, false, false, true, true, false, true, true, false, false, false, false, true, true, false, true, false, false]
trucks_used = [0, 0, 0, 0, 0, 1, 2, 0, 1, 1, 0, 0, 0, 0, 1, 1, 0, 1, 0, 0]
truck_assigned = [1, 1, 1, 1, 1, 1, 1, 1, 1, 1, 1, 1, 1, 1, 1, 1, 2, 1, 2, 1, 1, 1, 1, 1, 1, 1, 1, 1, 1, 1, 1, 1, 1, 2, 1, 1, 1, 1, 1, 2]
obj = 3673
----------
