+ /usr/bin/timeout 600 /usr/bin/time -v mzn-grb -a lbbd-datasets/Rabadi-2006/dzn-balanced/model.mzn lbbd-datasets/Rabadi-2006/dzn-balanced/8on4Rp50Rs50_13Ameer.dzn
assign = array1d(1..12 ,[1, 2, 3, 3, 4, 1, 4, 2, 1, 2, 3, 4]);
next = array1d(1..12 ,[9, 8, 11, 3, 12, 1, 5, 10, 2, 4, 7, 6]);
makespan = 251;
----------
assign = array1d(1..12 ,[4, 2, 3, 2, 3, 1, 1, 4, 1, 2, 3, 4]);
next = array1d(1..12 ,[12, 10, 5, 2, 11, 9, 6, 1, 4, 3, 8, 7]);
makespan = 249;
----------
assign = array1d(1..12 ,[1, 4, 2, 3, 2, 3, 1, 4, 1, 2, 3, 4]);
next = array1d(1..12 ,[9, 8, 5, 11, 10, 4, 1, 12, 3, 6, 2, 7]);
makespan = 232;
----------
assign = array1d(1..12 ,[3, 1, 2, 3, 2, 1, 4, 4, 1, 2, 3, 4]);
next = array1d(1..12 ,[11, 9, 5, 1, 10, 2, 12, 7, 3, 4, 8, 6]);
makespan = 227;
----------
assign = array1d(1..12 ,[1, 3, 2, 4, 4, 2, 3, 1, 1, 2, 3, 4]);
next = array1d(1..12 ,[8, 7, 10, 5, 12, 3, 11, 9, 6, 2, 4, 1]);
makespan = 223;
----------
assign = array1d(1..12 ,[3, 2, 1, 4, 4, 1, 3, 2, 1, 2, 3, 4]);
next = array1d(1..12 ,[7, 8, 6, 12, 4, 9, 11, 10, 2, 1, 5, 3]);
makespan = 222;
----------
assign = array1d(1..12 ,[1, 2, 2, 4, 4, 1, 3, 3, 1, 2, 3, 4]);
next = array1d(1..12 ,[9, 10, 2, 12, 4, 1, 8, 11, 3, 7, 5, 6]);
makespan = 217;
----------
assign = array1d(1..12 ,[1, 2, 2, 3, 4, 1, 3, 4, 1, 2, 3, 4]);
next = array1d(1..12 ,[9, 10, 2, 7, 8, 1, 11, 12, 3, 4, 5, 6]);
makespan = 206;
----------
assign = array1d(1..12 ,[1, 2, 2, 3, 4, 1, 3, 4, 1, 2, 3, 4]);
next = array1d(1..12 ,[9, 10, 2, 7, 8, 1, 11, 12, 3, 4, 5, 6]);
makespan = 206;
----------
==========
	Command being timed: "mzn-grb -a lbbd-datasets/Rabadi-2006/dzn-balanced/model.mzn lbbd-datasets/Rabadi-2006/dzn-balanced/8on4Rp50Rs50_13Ameer.dzn"
	User time (seconds): 7.58
	System time (seconds): 0.03
	Percent of CPU this job got: 99%
	Elapsed (wall clock) time (h:mm:ss or m:ss): 0:07.63
	Average shared text size (kbytes): 0
	Average unshared data size (kbytes): 0
	Average stack size (kbytes): 0
	Average total size (kbytes): 0
	Maximum resident set size (kbytes): 128880
	Average resident set size (kbytes): 0
	Major (requiring I/O) page faults: 0
	Minor (reclaiming a frame) page faults: 13407
	Voluntary context switches: 5
	Involuntary context switches: 16
	Swaps: 0
	File system inputs: 0
	File system outputs: 8
	Socket messages sent: 0
	Socket messages received: 0
	Signals delivered: 0
	Page size (bytes): 4096
	Exit status: 0
