+ /usr/bin/timeout 600 /usr/bin/time -v mzn-grb -a lbbd-datasets/sscplp/trucks-dzn/model.mzn lbbd-datasets/sscplp/trucks-dzn/p21-l40-c100-correlated.dzn
source = [15, 2, 8, 7, 1, 3, 6, 1, 6, 15, 14, 20, 5, 14, 15, 4, 18, 17, 15, 9, 11, 7, 20, 20, 15, 11, 11, 11, 9, 9, 20, 9, 9, 9, 2, 11, 17, 15, 8, 2]
open = [true, true, true, true, true, true, true, true, true, false, true, false, false, true, true, false, true, true, false, true]
trucks_used = [2, 1, 1, 1, 1, 2, 1, 1, 4, 0, 3, 0, 0, 1, 3, 0, 2, 1, 0, 2]
truck_assigned = [2, 1, 1, 1, 2, 1, 2, 1, 1, 1, 1, 2, 1, 1, 1, 1, 1, 1, 2, 2, 1, 1, 2, 1, 3, 2, 3, 2, 2, 4, 1, 1, 3, 1, 1, 3, 2, 3, 1, 1]
obj = 9807
----------
source = [12, 8, 11, 7, 2, 1, 6, 6, 3, 3, 1, 20, 9, 2, 15, 18, 2, 18, 15, 20, 11, 20, 6, 7, 15, 1, 12, 3, 9, 9, 20, 9, 9, 9, 2, 11, 12, 15, 8, 2]
open = [true, true, true, false, false, true, true, true, true, false, true, true, false, false, true, false, false, true, false, true]
trucks_used = [3, 3, 1, 0, 0, 2, 1, 1, 3, 0, 2, 2, 0, 0, 2, 0, 0, 2, 0, 2]
truck_assigned = [1, 1, 1, 1, 2, 3, 2, 2, 1, 1, 2, 1, 2, 2, 1, 2, 1, 1, 2, 2, 2, 2, 1, 1, 2, 1, 1, 1, 3, 2, 1, 1, 1, 3, 1, 2, 2, 1, 1, 3]
obj = 8758
----------
source = [12, 8, 11, 7, 2, 2, 6, 6, 3, 3, 18, 20, 9, 2, 2, 18, 2, 3, 15, 20, 11, 7, 6, 20, 15, 11, 11, 3, 9, 9, 20, 9, 9, 9, 7, 15, 12, 15, 8, 2]
open = [false, true, true, false, false, true, true, true, true, false, true, true, false, false, true, false, false, true, false, true]
trucks_used = [0, 3, 4, 0, 0, 2, 1, 1, 3, 0, 3, 1, 0, 0, 2, 0, 0, 2, 0, 2]
truck_assigned = [1, 1, 3, 1, 2, 1, 2, 2, 1, 1, 1, 1, 2, 3, 1, 2, 2, 4, 2, 2, 2, 1, 1, 2, 1, 2, 1, 4, 3, 2, 1, 1, 1, 3, 1, 2, 1, 1, 1, 3]
obj = 8193
----------
source = [15, 8, 8, 7, 1, 1, 6, 6, 9, 15, 1, 20, 2, 2, 8, 18, 2, 18, 15, 20, 11, 7, 6, 7, 15, 11, 11, 11, 9, 9, 20, 1, 9, 9, 2, 11, 19, 15, 20, 15]
open = [true, true, false, false, false, true, true, true, true, false, true, false, false, false, true, false, false, true, true, true]
trucks_used = [4, 3, 0, 0, 0, 2, 1, 2, 4, 0, 3, 0, 0, 0, 3, 0, 0, 2, 1, 3]
truck_assigned = [3, 2, 1, 1, 4, 3, 2, 2, 2, 1, 1, 1, 3, 1, 1, 1, 2, 2, 2, 3, 1, 1, 1, 1, 1, 3, 1, 2, 3, 3, 1, 2, 1, 4, 3, 2, 1, 2, 2, 3]
obj = 8095
----------
source = [15, 8, 8, 7, 1, 1, 6, 6, 9, 15, 1, 20, 2, 2, 8, 18, 2, 18, 15, 20, 11, 7, 6, 7, 15, 11, 11, 11, 9, 9, 20, 1, 9, 9, 2, 11, 11, 15, 20, 15]
open = [true, true, false, false, false, true, true, true, true, false, true, false, false, false, true, false, false, true, false, true]
trucks_used = [4, 3, 0, 0, 0, 2, 1, 2, 4, 0, 3, 0, 0, 0, 3, 0, 0, 2, 0, 3]
truck_assigned = [2, 2, 1, 1, 4, 3, 2, 2, 2, 1, 1, 3, 1, 3, 1, 1, 2, 2, 3, 3, 2, 1, 1, 1, 1, 3, 1, 3, 3, 4, 1, 2, 1, 4, 3, 2, 1, 2, 2, 3]
obj = 7559
----------
source = [20, 2, 8, 7, 2, 2, 6, 6, 9, 15, 11, 20, 2, 2, 15, 20, 18, 18, 15, 20, 11, 7, 6, 1, 15, 11, 11, 2, 9, 9, 20, 1, 9, 9, 7, 11, 7, 1, 8, 15]
open = [true, true, false, false, false, true, true, true, true, false, true, false, false, false, true, false, false, true, false, true]
trucks_used = [2, 3, 0, 0, 0, 2, 2, 1, 4, 0, 3, 0, 0, 0, 3, 0, 0, 2, 0, 4]
truck_assigned = [4, 3, 1, 2, 2, 1, 2, 2, 2, 2, 2, 1, 3, 2, 3, 2, 2, 1, 1, 3, 3, 2, 1, 2, 1, 3, 1, 1, 3, 3, 1, 2, 1, 4, 2, 1, 1, 1, 1, 2]
obj = 7409
----------
source = [15, 2, 8, 7, 2, 2, 6, 6, 9, 15, 11, 7, 2, 2, 8, 6, 18, 18, 15, 20, 11, 7, 20, 1, 15, 11, 11, 2, 9, 9, 20, 1, 9, 9, 20, 11, 7, 15, 8, 15]
open = [true, true, false, false, false, true, true, true, true, false, true, false, false, false, true, false, false, true, false, true]
trucks_used = [2, 3, 0, 0, 0, 2, 2, 2, 4, 0, 3, 0, 0, 0, 3, 0, 0, 2, 0, 2]
truck_assigned = [3, 3, 1, 1, 1, 2, 2, 2, 2, 1, 2, 2, 3, 2, 1, 1, 2, 1, 3, 2, 3, 1, 1, 2, 2, 3, 1, 1, 3, 3, 1, 2, 1, 4, 2, 1, 2, 2, 2, 1]
obj = 7243
----------
source = [15, 2, 8, 7, 7, 1, 6, 6, 15, 15, 11, 20, 9, 1, 15, 20, 2, 8, 18, 20, 11, 7, 6, 7, 15, 11, 11, 9, 9, 9, 20, 1, 9, 9, 2, 11, 7, 15, 8, 20]
open = [true, true, false, false, false, true, true, true, true, false, true, false, false, false, true, false, false, true, false, true]
trucks_used = [2, 2, 0, 0, 0, 2, 2, 2, 4, 0, 3, 0, 0, 0, 3, 0, 0, 1, 0, 3]
truck_assigned = [3, 2, 2, 1, 2, 1, 2, 2, 1, 2, 2, 1, 4, 2, 1, 3, 2, 1, 1, 2, 3, 1, 1, 1, 2, 3, 1, 1, 1, 2, 2, 2, 3, 2, 1, 1, 2, 3, 2, 1]
obj = 7195
----------
source = [15, 2, 8, 7, 2, 2, 6, 6, 15, 15, 11, 20, 9, 1, 15, 20, 2, 8, 18, 20, 11, 7, 6, 20, 15, 11, 11, 9, 9, 9, 20, 1, 9, 9, 7, 11, 7, 15, 8, 2]
open = [true, true, false, false, false, true, true, true, true, false, true, false, false, false, true, false, false, true, false, true]
trucks_used = [2, 2, 0, 0, 0, 2, 2, 2, 4, 0, 3, 0, 0, 0, 3, 0, 0, 1, 0, 3]
truck_assigned = [1, 2, 2, 1, 1, 1, 2, 1, 3, 2, 2, 1, 4, 2, 1, 3, 2, 1, 1, 2, 3, 1, 1, 1, 2, 3, 1, 1, 1, 2, 2, 2, 3, 2, 1, 1, 2, 3, 2, 1]
obj = 7094
----------
source = [15, 2, 8, 7, 2, 2, 6, 6, 15, 15, 11, 20, 9, 1, 15, 20, 2, 8, 18, 20, 11, 7, 6, 20, 15, 11, 11, 9, 9, 9, 20, 1, 9, 9, 7, 11, 1, 15, 8, 2]
open = [true, true, false, false, false, true, true, true, true, false, true, false, false, false, true, false, false, true, false, true]
trucks_used = [2, 2, 0, 0, 0, 2, 1, 2, 4, 0, 3, 0, 0, 0, 3, 0, 0, 1, 0, 3]
truck_assigned = [1, 2, 2, 1, 1, 1, 2, 1, 3, 2, 2, 1, 4, 1, 1, 3, 2, 1, 1, 2, 3, 1, 1, 1, 2, 3, 1, 1, 1, 2, 2, 2, 3, 2, 1, 1, 2, 3, 2, 1]
obj = 6993
----------
source = [15, 17, 8, 5, 2, 20, 6, 6, 15, 15, 11, 17, 9, 2, 15, 8, 2, 17, 18, 20, 11, 20, 6, 20, 15, 11, 11, 9, 9, 9, 20, 9, 5, 9, 2, 11, 20, 15, 8, 2]
open = [false, true, false, false, true, true, false, true, true, false, true, false, false, false, true, false, true, true, false, true]
trucks_used = [0, 4, 0, 0, 1, 2, 0, 2, 3, 0, 3, 0, 0, 0, 3, 0, 2, 1, 0, 3]
truck_assigned = [1, 1, 2, 1, 4, 2, 2, 1, 3, 2, 2, 1, 2, 4, 1, 1, 2, 2, 1, 2, 3, 1, 1, 3, 2, 3, 1, 1, 3, 2, 1, 3, 1, 1, 1, 1, 3, 3, 2, 1]
obj = 6922
----------
source = [15, 17, 8, 5, 2, 20, 6, 6, 15, 15, 11, 17, 9, 2, 15, 8, 2, 17, 18, 20, 11, 20, 6, 20, 15, 11, 11, 9, 9, 9, 20, 9, 5, 9, 2, 11, 20, 15, 8, 2]
open = [false, true, false, false, true, true, false, true, true, false, true, false, false, false, true, false, true, true, false, true]
trucks_used = [0, 3, 0, 0, 1, 2, 0, 2, 3, 0, 3, 0, 0, 0, 3, 0, 2, 1, 0, 3]
truck_assigned = [1, 1, 2, 1, 3, 2, 2, 1, 3, 2, 3, 1, 2, 2, 1, 1, 3, 2, 1, 2, 1, 1, 1, 3, 2, 2, 1, 1, 3, 2, 1, 3, 1, 1, 1, 2, 3, 3, 2, 1]
obj = 6822
----------
