+ /usr/bin/timeout 600 /usr/bin/time -v mzn-grb -a lbbd-datasets/Rabadi-2006/dzn-balanced/model.mzn lbbd-datasets/Rabadi-2006/dzn-balanced/10on8Rp50Rs50_4Ameer.dzn
assign = array1d(1..18 ,[4, 6, 3, 5, 4, 7, 1, 2, 8, 2, 1, 2, 3, 4, 5, 6, 7, 8]);
next = array1d(1..18 ,[14, 16, 13, 15, 1, 17, 11, 12, 18, 8, 10, 3, 5, 4, 2, 6, 9, 7]);
makespan = 184;
----------
assign = array1d(1..18 ,[1, 6, 6, 7, 4, 8, 3, 2, 8, 7, 1, 2, 3, 4, 5, 6, 7, 8]);
next = array1d(1..18 ,[11, 3, 16, 10, 14, 18, 13, 12, 6, 17, 8, 7, 5, 15, 2, 4, 9, 1]);
makespan = 171;
----------
assign = array1d(1..18 ,[1, 6, 1, 5, 4, 8, 3, 6, 7, 2, 1, 2, 3, 4, 5, 6, 7, 8]);
next = array1d(1..18 ,[11, 8, 1, 15, 14, 18, 13, 16, 17, 12, 10, 7, 5, 4, 2, 9, 6, 3]);
makespan = 170;
----------
assign = array1d(1..18 ,[8, 3, 1, 5, 4, 7, 1, 6, 6, 2, 1, 2, 3, 4, 5, 6, 7, 8]);
next = array1d(1..18 ,[18, 13, 11, 15, 14, 17, 3, 16, 8, 12, 10, 2, 5, 4, 9, 6, 1, 7]);
makespan = 167;
----------
assign = array1d(1..18 ,[8, 3, 1, 5, 4, 7, 1, 6, 6, 2, 1, 2, 3, 4, 5, 6, 7, 8]);
next = array1d(1..18 ,[18, 13, 11, 15, 14, 17, 3, 16, 8, 12, 10, 2, 5, 4, 9, 6, 1, 7]);
makespan = 167;
----------
==========
	Command being timed: "mzn-grb -a lbbd-datasets/Rabadi-2006/dzn-balanced/model.mzn lbbd-datasets/Rabadi-2006/dzn-balanced/10on8Rp50Rs50_4Ameer.dzn"
	User time (seconds): 12.90
	System time (seconds): 0.07
	Percent of CPU this job got: 99%
	Elapsed (wall clock) time (h:mm:ss or m:ss): 0:13.00
	Average shared text size (kbytes): 0
	Average unshared data size (kbytes): 0
	Average stack size (kbytes): 0
	Average total size (kbytes): 0
	Maximum resident set size (kbytes): 275536
	Average resident set size (kbytes): 0
	Major (requiring I/O) page faults: 0
	Minor (reclaiming a frame) page faults: 27382
	Voluntary context switches: 4
	Involuntary context switches: 30
	Swaps: 0
	File system inputs: 0
	File system outputs: 8
	Socket messages sent: 0
	Socket messages received: 0
	Signals delivered: 0
	Page size (bytes): 4096
	Exit status: 0
