+ /usr/bin/timeout 600 /usr/bin/time -v mzn-grb -a lbbd-datasets/Rabadi-2006/dzn-p-dominant/model.mzn lbbd-datasets/Rabadi-2006/dzn-p-dominant/10on6Rp50Rs50_10Ameer.dzn
assign = array1d(1..16 ,[5, 6, 2, 4, 1, 1, 3, 6, 3, 2, 1, 2, 3, 4, 5, 6]);
next = array1d(1..16 ,[15, 8, 12, 14, 11, 5, 9, 16, 13, 3, 10, 7, 4, 1, 2, 6]);
makespan = 351;
----------
assign = array1d(1..16 ,[5, 6, 4, 1, 5, 3, 2, 4, 1, 6, 1, 2, 3, 4, 5, 6]);
next = array1d(1..16 ,[15, 16, 14, 11, 1, 13, 12, 3, 4, 2, 7, 6, 8, 5, 10, 9]);
makespan = 347;
----------
assign = array1d(1..16 ,[5, 5, 4, 4, 3, 1, 2, 6, 1, 6, 1, 2, 3, 4, 5, 6]);
next = array1d(1..16 ,[15, 1, 14, 3, 13, 9, 12, 10, 11, 16, 7, 5, 4, 2, 8, 6]);
makespan = 345;
----------
assign = array1d(1..16 ,[5, 2, 5, 1, 4, 1, 3, 6, 3, 6, 1, 2, 3, 4, 5, 6]);
next = array1d(1..16 ,[3, 12, 15, 6, 14, 11, 9, 10, 13, 16, 2, 7, 5, 1, 8, 4]);
makespan = 338;
----------
assign = array1d(1..16 ,[5, 5, 2, 1, 4, 1, 3, 6, 3, 6, 1, 2, 3, 4, 5, 6]);
next = array1d(1..16 ,[2, 15, 12, 6, 14, 11, 9, 10, 13, 16, 3, 7, 5, 1, 8, 4]);
makespan = 336;
----------
assign = array1d(1..16 ,[5, 5, 3, 4, 6, 1, 2, 4, 3, 6, 1, 2, 3, 4, 5, 6]);
next = array1d(1..16 ,[2, 15, 13, 8, 16, 11, 12, 14, 3, 5, 7, 9, 4, 1, 10, 6]);
makespan = 330;
----------
assign = array1d(1..16 ,[5, 5, 4, 6, 2, 1, 3, 4, 3, 6, 1, 2, 3, 4, 5, 6]);
next = array1d(1..16 ,[2, 15, 14, 10, 12, 11, 9, 3, 13, 16, 5, 7, 8, 1, 4, 6]);
makespan = 329;
----------
assign = array1d(1..16 ,[5, 2, 3, 1, 5, 4, 3, 6, 1, 6, 1, 2, 3, 4, 5, 6]);
next = array1d(1..16 ,[15, 12, 7, 11, 1, 14, 13, 16, 4, 8, 2, 3, 6, 5, 10, 9]);
makespan = 327;
----------
assign = array1d(1..16 ,[5, 2, 3, 1, 5, 4, 3, 6, 1, 6, 1, 2, 3, 4, 5, 6]);
next = array1d(1..16 ,[15, 12, 7, 11, 1, 14, 13, 16, 4, 8, 2, 3, 6, 5, 10, 9]);
makespan = 327;
----------
==========
	Command being timed: "mzn-grb -a lbbd-datasets/Rabadi-2006/dzn-p-dominant/model.mzn lbbd-datasets/Rabadi-2006/dzn-p-dominant/10on6Rp50Rs50_10Ameer.dzn"
	User time (seconds): 4.56
	System time (seconds): 0.04
	Percent of CPU this job got: 99%
	Elapsed (wall clock) time (h:mm:ss or m:ss): 0:04.62
	Average shared text size (kbytes): 0
	Average unshared data size (kbytes): 0
	Average stack size (kbytes): 0
	Average total size (kbytes): 0
	Maximum resident set size (kbytes): 209200
	Average resident set size (kbytes): 0
	Major (requiring I/O) page faults: 0
	Minor (reclaiming a frame) page faults: 15648
	Voluntary context switches: 6
	Involuntary context switches: 9
	Swaps: 0
	File system inputs: 0
	File system outputs: 8
	Socket messages sent: 0
	Socket messages received: 0
	Signals delivered: 0
	Page size (bytes): 4096
	Exit status: 0
