+ /usr/bin/timeout 600 /usr/bin/time -v mzn-grb -a lbbd-datasets/Rabadi-2006/dzn-balanced/model.mzn lbbd-datasets/Rabadi-2006/dzn-balanced/11on8Rp50Rs50_13Ameer.dzn
assign = array1d(1..19 ,[3, 7, 1, 7, 6, 2, 3, 8, 5, 4, 6, 1, 2, 3, 4, 5, 6, 7, 8]);
next = array1d(1..19 ,[14, 4, 12, 18, 11, 13, 1, 19, 16, 15, 17, 6, 7, 10, 9, 5, 2, 8, 3]);
makespan = 185;
----------
assign = array1d(1..19 ,[2, 7, 8, 6, 4, 2, 3, 7, 5, 1, 3, 1, 2, 3, 4, 5, 6, 7, 8]);
next = array1d(1..19 ,[13, 18, 19, 17, 15, 1, 14, 2, 16, 12, 7, 6, 11, 5, 9, 4, 8, 3, 10]);
makespan = 184;
----------
assign = array1d(1..19 ,[6, 8, 1, 1, 2, 5, 5, 7, 4, 6, 3, 1, 2, 3, 4, 5, 6, 7, 8]);
next = array1d(1..19 ,[17, 19, 4, 12, 13, 7, 16, 18, 15, 1, 14, 5, 11, 9, 6, 10, 8, 2, 3]);
makespan = 181;
----------
assign = array1d(1..19 ,[2, 4, 1, 1, 7, 6, 3, 2, 5, 4, 3, 1, 2, 3, 4, 5, 6, 7, 8]);
next = array1d(1..19 ,[8, 10, 12, 3, 18, 17, 14, 13, 16, 15, 7, 1, 11, 2, 9, 6, 5, 19, 4]);
makespan = 180;
----------
assign = array1d(1..19 ,[2, 4, 1, 1, 7, 6, 5, 2, 8, 4, 3, 1, 2, 3, 4, 5, 6, 7, 8]);
next = array1d(1..19 ,[8, 10, 12, 3, 18, 17, 16, 13, 19, 15, 14, 1, 11, 2, 7, 6, 5, 9, 4]);
makespan = 176;
----------
assign = array1d(1..19 ,[3, 7, 1, 7, 2, 6, 3, 8, 5, 4, 1, 1, 2, 3, 4, 5, 6, 7, 8]);
next = array1d(1..19 ,[14, 4, 12, 18, 13, 17, 1, 19, 16, 15, 3, 5, 7, 10, 9, 6, 2, 8, 11]);
makespan = 169;
----------
assign = array1d(1..19 ,[3, 7, 1, 7, 2, 6, 3, 8, 5, 4, 1, 1, 2, 3, 4, 5, 6, 7, 8]);
next = array1d(1..19 ,[14, 4, 12, 18, 13, 17, 1, 19, 16, 15, 3, 5, 7, 10, 9, 6, 2, 8, 11]);
makespan = 169;
----------
==========
	Command being timed: "mzn-grb -a lbbd-datasets/Rabadi-2006/dzn-balanced/model.mzn lbbd-datasets/Rabadi-2006/dzn-balanced/11on8Rp50Rs50_13Ameer.dzn"
	User time (seconds): 24.07
	System time (seconds): 0.20
	Percent of CPU this job got: 99%
	Elapsed (wall clock) time (h:mm:ss or m:ss): 0:24.33
	Average shared text size (kbytes): 0
	Average unshared data size (kbytes): 0
	Average stack size (kbytes): 0
	Average total size (kbytes): 0
	Maximum resident set size (kbytes): 315824
	Average resident set size (kbytes): 0
	Major (requiring I/O) page faults: 0
	Minor (reclaiming a frame) page faults: 39256
	Voluntary context switches: 5
	Involuntary context switches: 54
	Swaps: 0
	File system inputs: 0
	File system outputs: 8
	Socket messages sent: 0
	Socket messages received: 0
	Signals delivered: 0
	Page size (bytes): 4096
	Exit status: 0
