+ /usr/bin/timeout 600 /usr/bin/time -v mzn-grb -a lbbd-datasets/planningandscheduling/cost-insts/model.mzn lbbd-datasets/planningandscheduling/cost-insts/c30j2m4.dzn
obj = 705
----------
obj = 693
----------
obj = 685
----------
obj = 678
----------
obj = 659
----------
obj = 652
----------
obj = 641
----------
