+ /usr/bin/timeout 600 /usr/bin/time -v mzn-grb -a lbbd-datasets/sscplp/trucks-dzn/model.mzn lbbd-datasets/sscplp/trucks-dzn/p20-l100-c300-uncorrelated.dzn
source = [4, 10, 5, 17, 7, 2, 6, 20, 20, 2, 1, 1, 5, 20, 2, 16, 6, 16, 15, 10, 10, 2, 17, 1, 4, 16, 1, 16, 7, 15, 1, 10, 7, 20, 17, 20, 16, 5, 5, 20]
open = [true, true, false, true, true, true, true, false, false, true, false, false, false, false, true, true, true, false, false, true]
trucks_used = [2, 1, 0, 1, 1, 1, 1, 0, 0, 1, 0, 0, 0, 0, 1, 1, 1, 0, 0, 1]
truck_assigned = [1, 1, 1, 1, 1, 1, 1, 1, 1, 1, 1, 1, 1, 1, 1, 1, 1, 1, 1, 1, 1, 1, 1, 1, 1, 1, 1, 1, 1, 1, 2, 1, 1, 1, 1, 1, 1, 1, 1, 1]
obj = 20551
----------
source = [7, 17, 5, 17, 7, 2, 6, 20, 20, 2, 10, 1, 5, 20, 2, 16, 6, 16, 15, 10, 10, 2, 17, 1, 4, 16, 1, 16, 7, 15, 1, 10, 7, 20, 4, 20, 16, 5, 5, 20]
open = [true, true, false, true, true, true, true, false, false, true, false, false, false, false, true, true, true, false, false, true]
trucks_used = [1, 1, 0, 1, 1, 1, 1, 0, 0, 1, 0, 0, 0, 0, 1, 1, 1, 0, 0, 1]
truck_assigned = [1, 1, 1, 1, 1, 1, 1, 1, 1, 1, 1, 1, 1, 1, 1, 1, 1, 1, 1, 1, 1, 1, 1, 1, 1, 1, 1, 1, 1, 1, 1, 1, 1, 1, 1, 1, 1, 1, 1, 1]
obj = 20213
----------
source = [3, 17, 5, 17, 10, 2, 7, 20, 20, 16, 1, 1, 2, 20, 2, 16, 1, 16, 7, 10, 10, 3, 17, 1, 10, 16, 5, 3, 7, 2, 1, 3, 7, 20, 3, 20, 16, 5, 5, 20]
open = [true, true, true, false, true, false, true, false, false, true, false, false, false, false, false, true, true, false, false, true]
trucks_used = [1, 1, 1, 0, 1, 0, 1, 0, 0, 1, 0, 0, 0, 0, 0, 1, 1, 0, 0, 1]
truck_assigned = [1, 1, 1, 1, 1, 1, 1, 1, 1, 1, 1, 1, 1, 1, 1, 1, 1, 1, 1, 1, 1, 1, 1, 1, 1, 1, 1, 1, 1, 1, 1, 1, 1, 1, 1, 1, 1, 1, 1, 1]
obj = 19966
----------
source = [3, 17, 5, 17, 10, 2, 7, 20, 20, 16, 1, 1, 2, 20, 2, 16, 1, 16, 7, 10, 10, 3, 17, 1, 10, 16, 5, 3, 2, 7, 1, 3, 7, 20, 3, 20, 16, 5, 5, 20]
open = [true, true, true, false, true, false, true, false, false, true, false, false, false, false, false, true, true, false, false, true]
trucks_used = [1, 1, 1, 0, 1, 0, 1, 0, 0, 1, 0, 0, 0, 0, 0, 1, 1, 0, 0, 1]
truck_assigned = [1, 1, 1, 1, 1, 1, 1, 1, 1, 1, 1, 1, 1, 1, 1, 1, 1, 1, 1, 1, 1, 1, 1, 1, 1, 1, 1, 1, 1, 1, 1, 1, 1, 1, 1, 1, 1, 1, 1, 1]
obj = 19942
----------
source = [3, 17, 5, 17, 7, 2, 7, 20, 20, 16, 1, 1, 2, 20, 2, 16, 1, 16, 7, 10, 10, 10, 3, 1, 10, 16, 5, 3, 2, 17, 1, 3, 7, 20, 3, 20, 16, 5, 5, 20]
open = [true, true, true, false, true, false, true, false, false, true, false, false, false, false, false, true, true, false, false, true]
trucks_used = [1, 1, 1, 0, 1, 0, 1, 0, 0, 1, 0, 0, 0, 0, 0, 1, 1, 0, 0, 1]
truck_assigned = [1, 1, 1, 1, 1, 1, 1, 1, 1, 1, 1, 1, 1, 1, 1, 1, 1, 1, 1, 1, 1, 1, 1, 1, 1, 1, 1, 1, 1, 1, 1, 1, 1, 1, 1, 1, 1, 1, 1, 1]
obj = 19913
----------
source = [3, 17, 5, 17, 7, 2, 7, 20, 20, 16, 10, 1, 5, 20, 2, 16, 2, 16, 7, 10, 10, 3, 17, 1, 10, 16, 10, 3, 1, 2, 1, 3, 7, 20, 3, 20, 16, 5, 5, 20]
open = [true, true, true, false, true, false, true, false, false, true, false, false, false, false, false, true, true, false, false, true]
trucks_used = [1, 1, 1, 0, 1, 0, 1, 0, 0, 1, 0, 0, 0, 0, 0, 1, 1, 0, 0, 1]
truck_assigned = [1, 1, 1, 1, 1, 1, 1, 1, 1, 1, 1, 1, 1, 1, 1, 1, 1, 1, 1, 1, 1, 1, 1, 1, 1, 1, 1, 1, 1, 1, 1, 1, 1, 1, 1, 1, 1, 1, 1, 1]
obj = 19895
----------
source = [4, 7, 17, 2, 2, 17, 7, 16, 20, 2, 1, 1, 5, 20, 2, 16, 1, 4, 15, 10, 10, 10, 17, 1, 10, 16, 5, 16, 7, 15, 1, 5, 7, 20, 5, 20, 20, 5, 20, 20]
open = [true, true, false, true, true, false, true, false, false, true, false, false, false, false, true, true, true, false, false, true]
trucks_used = [1, 1, 0, 1, 2, 0, 1, 0, 0, 1, 0, 0, 0, 0, 1, 1, 1, 0, 0, 2]
truck_assigned = [1, 1, 1, 1, 1, 1, 1, 1, 2, 1, 1, 1, 2, 1, 1, 1, 1, 1, 1, 1, 1, 1, 1, 1, 1, 1, 2, 1, 1, 1, 1, 2, 1, 1, 2, 1, 1, 1, 2, 1]
obj = 19835
----------
source = [4, 7, 5, 10, 16, 2, 7, 20, 20, 2, 1, 1, 2, 20, 2, 16, 1, 4, 15, 10, 10, 17, 17, 1, 10, 16, 10, 16, 7, 15, 1, 5, 7, 20, 17, 20, 16, 5, 5, 20]
open = [true, true, false, true, true, false, true, false, false, true, false, false, false, false, true, true, true, false, false, true]
trucks_used = [1, 1, 0, 1, 1, 0, 1, 0, 0, 2, 0, 0, 0, 0, 1, 1, 1, 0, 0, 1]
truck_assigned = [1, 1, 1, 1, 1, 1, 1, 1, 1, 1, 1, 1, 1, 1, 1, 1, 1, 1, 1, 1, 1, 1, 1, 1, 1, 1, 2, 1, 1, 1, 1, 1, 1, 1, 1, 1, 1, 1, 1, 1]
obj = 19487
----------
source = [5, 7, 5, 10, 10, 2, 7, 20, 20, 16, 10, 1, 2, 6, 2, 2, 6, 16, 15, 10, 5, 17, 17, 1, 10, 16, 5, 16, 7, 15, 1, 1, 7, 20, 17, 20, 16, 5, 20, 20]
open = [true, true, false, false, true, true, true, false, false, true, false, false, false, false, true, true, true, false, false, true]
trucks_used = [1, 1, 0, 0, 1, 1, 1, 0, 0, 1, 0, 0, 0, 0, 1, 1, 1, 0, 0, 1]
truck_assigned = [1, 1, 1, 1, 1, 1, 1, 1, 1, 1, 1, 1, 1, 1, 1, 1, 1, 1, 1, 1, 1, 1, 1, 1, 1, 1, 1, 1, 1, 1, 1, 1, 1, 1, 1, 1, 1, 1, 1, 1]
obj = 18650
----------
source = [5, 7, 5, 17, 2, 2, 7, 16, 20, 2, 10, 1, 5, 6, 20, 16, 6, 16, 15, 10, 10, 2, 17, 1, 10, 16, 5, 10, 7, 15, 1, 1, 7, 20, 17, 20, 16, 5, 20, 20]
open = [true, true, false, false, true, true, true, false, false, true, false, false, false, false, true, true, true, false, false, true]
trucks_used = [1, 1, 0, 0, 1, 1, 1, 0, 0, 1, 0, 0, 0, 0, 1, 1, 1, 0, 0, 1]
truck_assigned = [1, 1, 1, 1, 1, 1, 1, 1, 1, 1, 1, 1, 1, 1, 1, 1, 1, 1, 1, 1, 1, 1, 1, 1, 1, 1, 1, 1, 1, 1, 1, 1, 1, 1, 1, 1, 1, 1, 1, 1]
obj = 18649
----------
source = [5, 7, 5, 17, 2, 2, 7, 20, 20, 16, 10, 1, 5, 6, 2, 16, 6, 16, 15, 10, 10, 2, 17, 1, 10, 16, 5, 10, 7, 15, 1, 1, 7, 20, 17, 20, 16, 5, 20, 20]
open = [true, true, false, false, true, true, true, false, false, true, false, false, false, false, true, true, true, false, false, true]
trucks_used = [1, 1, 0, 0, 1, 1, 1, 0, 0, 1, 0, 0, 0, 0, 1, 1, 1, 0, 0, 1]
truck_assigned = [1, 1, 1, 1, 1, 1, 1, 1, 1, 1, 1, 1, 1, 1, 1, 1, 1, 1, 1, 1, 1, 1, 1, 1, 1, 1, 1, 1, 1, 1, 1, 1, 1, 1, 1, 1, 1, 1, 1, 1]
obj = 18633
----------
source = [5, 7, 5, 17, 6, 2, 7, 20, 20, 2, 1, 1, 5, 20, 2, 16, 1, 16, 15, 10, 10, 2, 17, 1, 10, 16, 5, 16, 7, 15, 1, 10, 7, 20, 6, 20, 16, 5, 20, 17]
open = [true, true, false, false, true, true, true, false, false, true, false, false, false, false, true, true, true, false, false, true]
trucks_used = [1, 1, 0, 0, 1, 1, 1, 0, 0, 1, 0, 0, 0, 0, 1, 1, 1, 0, 0, 1]
truck_assigned = [1, 1, 1, 1, 1, 1, 1, 1, 1, 1, 1, 1, 1, 1, 1, 1, 1, 1, 1, 1, 1, 1, 1, 1, 1, 1, 1, 1, 1, 1, 1, 1, 1, 1, 1, 1, 1, 1, 1, 1]
obj = 18609
----------
source = [5, 17, 5, 17, 6, 2, 7, 20, 20, 2, 1, 1, 5, 20, 2, 16, 1, 16, 15, 10, 10, 2, 17, 1, 10, 16, 5, 16, 7, 15, 1, 10, 7, 20, 6, 20, 16, 5, 20, 7]
open = [true, true, false, false, true, true, true, false, false, true, false, false, false, false, true, true, true, false, false, true]
trucks_used = [1, 1, 0, 0, 1, 1, 1, 0, 0, 1, 0, 0, 0, 0, 1, 1, 1, 0, 0, 1]
truck_assigned = [1, 1, 1, 1, 1, 1, 1, 1, 1, 1, 1, 1, 1, 1, 1, 1, 1, 1, 1, 1, 1, 1, 1, 1, 1, 1, 1, 1, 1, 1, 1, 1, 1, 1, 1, 1, 1, 1, 1, 1]
obj = 18607
----------
