+ /usr/bin/timeout 600 /usr/bin/time -v mzn-grb -a lbbd-datasets/Rabadi-2006/dzn-balanced/model.mzn lbbd-datasets/Rabadi-2006/dzn-balanced/6on2Rp50Rs50_14Ameer.dzn
assign = array1d(1..8 ,[2, 2, 1, 1, 2, 1, 1, 2]);
next = array1d(1..8 ,[5, 8, 7, 3, 2, 4, 1, 6]);
makespan = 393;
----------
assign = array1d(1..8 ,[1, 1, 2, 2, 1, 2, 1, 2]);
next = array1d(1..8 ,[7, 1, 4, 8, 2, 3, 6, 5]);
makespan = 383;
----------
assign = array1d(1..8 ,[2, 2, 1, 2, 1, 1, 1, 2]);
next = array1d(1..8 ,[2, 8, 6, 1, 7, 5, 4, 3]);
makespan = 375;
----------
assign = array1d(1..8 ,[1, 2, 1, 2, 2, 1, 1, 2]);
next = array1d(1..8 ,[3, 4, 6, 5, 8, 7, 2, 1]);
makespan = 362;
----------
assign = array1d(1..8 ,[2, 1, 2, 2, 1, 1, 1, 2]);
next = array1d(1..8 ,[4, 5, 1, 8, 6, 7, 3, 2]);
makespan = 346;
----------
assign = array1d(1..8 ,[1, 2, 2, 2, 1, 1, 1, 2]);
next = array1d(1..8 ,[7, 3, 8, 2, 6, 1, 4, 5]);
makespan = 313;
----------
assign = array1d(1..8 ,[1, 2, 2, 2, 1, 1, 1, 2]);
next = array1d(1..8 ,[7, 3, 8, 2, 6, 1, 4, 5]);
makespan = 313;
----------
==========
	Command being timed: "mzn-grb -a lbbd-datasets/Rabadi-2006/dzn-balanced/model.mzn lbbd-datasets/Rabadi-2006/dzn-balanced/6on2Rp50Rs50_14Ameer.dzn"
	User time (seconds): 0.73
	System time (seconds): 0.01
	Percent of CPU this job got: 99%
	Elapsed (wall clock) time (h:mm:ss or m:ss): 0:00.75
	Average shared text size (kbytes): 0
	Average unshared data size (kbytes): 0
	Average stack size (kbytes): 0
	Average total size (kbytes): 0
	Maximum resident set size (kbytes): 69136
	Average resident set size (kbytes): 0
	Major (requiring I/O) page faults: 0
	Minor (reclaiming a frame) page faults: 4892
	Voluntary context switches: 4
	Involuntary context switches: 11
	Swaps: 0
	File system inputs: 0
	File system outputs: 8
	Socket messages sent: 0
	Socket messages received: 0
	Signals delivered: 0
	Page size (bytes): 4096
	Exit status: 0
