+ /usr/bin/timeout 600 /usr/bin/time -v mzn-grb -a lbbd-datasets/sscplp/trucks-dzn/model.mzn lbbd-datasets/sscplp/trucks-dzn/p13-l50-c80-correlated.dzn
source = [10, 5, 11, 1, 9, 6, 11, 15, 4, 10, 5, 1, 15, 1, 5, 10, 9, 14, 1, 14, 1, 14, 6, 11, 10, 1, 4, 11, 6, 5]
open = [true, false, false, true, true, true, false, false, true, true, true, false, false, true, true]
trucks_used = [3, 0, 0, 1, 2, 1, 0, 0, 1, 2, 2, 0, 0, 2, 2]
truck_assigned = [2, 1, 2, 2, 1, 1, 1, 2, 1, 1, 1, 1, 1, 2, 2, 2, 1, 1, 1, 2, 2, 1, 1, 2, 1, 3, 1, 1, 1, 2]
obj = 4732
----------
source = [10, 5, 11, 1, 9, 6, 11, 9, 4, 10, 5, 1, 9, 1, 5, 10, 14, 14, 1, 14, 1, 14, 6, 11, 10, 1, 4, 11, 6, 5]
open = [true, false, false, true, true, true, false, false, true, true, true, false, false, true, false]
trucks_used = [3, 0, 0, 1, 2, 1, 0, 0, 1, 2, 2, 0, 0, 2, 0]
truck_assigned = [2, 2, 1, 2, 1, 1, 2, 1, 1, 1, 1, 1, 1, 2, 1, 2, 1, 1, 1, 2, 2, 2, 1, 1, 1, 3, 1, 2, 1, 2]
obj = 4294
----------
source = [15, 5, 11, 1, 12, 11, 11, 9, 4, 1, 5, 4, 9, 1, 12, 11, 15, 12, 1, 9, 12, 1, 11, 12, 12, 1, 4, 12, 5, 5]
open = [true, false, false, true, true, false, false, false, true, false, true, true, false, false, true]
trucks_used = [3, 0, 0, 1, 2, 0, 0, 0, 1, 0, 3, 5, 0, 0, 1]
truck_assigned = [1, 1, 3, 2, 5, 1, 2, 1, 1, 2, 2, 1, 1, 2, 1, 3, 1, 3, 1, 1, 4, 1, 1, 2, 1, 3, 1, 2, 1, 2]
obj = 4197
----------
source = [15, 5, 11, 1, 12, 11, 11, 9, 4, 1, 5, 1, 9, 1, 5, 11, 15, 1, 1, 9, 12, 11, 11, 12, 12, 1, 4, 12, 5, 4]
open = [true, false, false, true, true, false, false, false, true, false, true, true, false, false, true]
trucks_used = [3, 0, 0, 2, 2, 0, 0, 0, 1, 0, 3, 2, 0, 0, 1]
truck_assigned = [1, 1, 3, 3, 2, 1, 2, 1, 1, 2, 2, 1, 1, 3, 2, 3, 1, 2, 1, 1, 1, 1, 2, 2, 1, 3, 2, 2, 1, 2]
obj = 4066
----------
source = [15, 5, 11, 1, 6, 11, 11, 9, 6, 1, 5, 4, 9, 1, 5, 11, 15, 1, 1, 9, 1, 6, 4, 11, 5, 6, 4, 11, 6, 4]
open = [true, false, false, true, true, true, false, false, true, false, true, false, false, false, true]
trucks_used = [3, 0, 0, 2, 2, 2, 0, 0, 1, 0, 3, 0, 0, 0, 1]
truck_assigned = [1, 1, 3, 3, 2, 1, 2, 1, 2, 1, 2, 1, 1, 2, 1, 3, 1, 3, 1, 1, 1, 1, 1, 1, 2, 1, 2, 2, 1, 2]
obj = 3907
----------
source = [10, 5, 11, 1, 15, 11, 11, 9, 4, 10, 5, 4, 9, 1, 5, 10, 15, 1, 1, 9, 1, 11, 11, 11, 10, 1, 4, 11, 11, 5]
open = [true, false, false, true, true, false, false, false, true, true, true, false, false, false, true]
trucks_used = [3, 0, 0, 1, 2, 0, 0, 0, 1, 2, 4, 0, 0, 0, 1]
truck_assigned = [1, 1, 4, 1, 1, 1, 2, 1, 1, 1, 2, 1, 1, 1, 1, 2, 1, 2, 1, 1, 3, 3, 1, 4, 2, 2, 1, 2, 3, 2]
obj = 3839
----------
source = [10, 15, 11, 1, 15, 11, 11, 9, 4, 10, 5, 4, 9, 1, 5, 10, 15, 1, 1, 9, 1, 11, 11, 11, 10, 11, 4, 11, 5, 5]
open = [true, false, false, true, true, false, false, false, true, true, true, false, false, false, true]
trucks_used = [2, 0, 0, 1, 2, 0, 0, 0, 1, 2, 4, 0, 0, 0, 2]
truck_assigned = [2, 1, 4, 1, 1, 2, 1, 1, 1, 1, 1, 1, 1, 1, 2, 2, 2, 2, 1, 1, 2, 1, 2, 3, 1, 4, 1, 3, 2, 2]
obj = 3838
----------
source = [10, 15, 11, 1, 5, 11, 11, 9, 4, 10, 5, 4, 9, 1, 5, 10, 15, 1, 1, 9, 1, 11, 11, 11, 10, 11, 4, 11, 5, 5]
open = [true, false, false, true, true, false, false, false, true, true, true, false, false, false, true]
trucks_used = [2, 0, 0, 1, 2, 0, 0, 0, 1, 2, 4, 0, 0, 0, 1]
truck_assigned = [2, 1, 4, 1, 1, 2, 1, 1, 1, 1, 1, 1, 1, 1, 2, 2, 1, 2, 1, 1, 2, 1, 2, 3, 1, 4, 1, 3, 2, 2]
obj = 3775
----------
