+ /usr/bin/timeout 600 /usr/bin/time -v mzn-grb -a lbbd-datasets/planningandscheduling/cost-insts/model.mzn lbbd-datasets/planningandscheduling/cost-insts/c16j3m3.dzn
obj = 434
----------
obj = 419
----------
obj = 334
----------
obj = 329
----------
obj = 319
----------
obj = 317
----------
obj = 316
----------
obj = 310
----------
obj = 309
----------
