+ /usr/bin/timeout 600 /usr/bin/time -v mzn-grb -a lbbd-datasets/Rabadi-2006/dzn-p-dominant/model.mzn lbbd-datasets/Rabadi-2006/dzn-p-dominant/8on6Rp50Rs50_15Ameer.dzn
assign = array1d(1..14 ,[3, 6, 1, 5, 6, 1, 2, 4, 1, 2, 3, 4, 5, 6]);
next = array1d(1..14 ,[11, 5, 9, 13, 14, 3, 10, 12, 7, 1, 8, 4, 2, 6]);
makespan = 374;
----------
assign = array1d(1..14 ,[2, 6, 5, 4, 6, 2, 1, 3, 1, 2, 3, 4, 5, 6]);
next = array1d(1..14 ,[10, 5, 13, 12, 14, 1, 9, 11, 6, 8, 4, 3, 2, 7]);
makespan = 348;
----------
assign = array1d(1..14 ,[3, 2, 6, 3, 6, 5, 1, 4, 1, 2, 3, 4, 5, 6]);
next = array1d(1..14 ,[11, 10, 5, 1, 14, 13, 9, 12, 2, 4, 8, 6, 3, 7]);
makespan = 337;
----------
assign = array1d(1..14 ,[3, 6, 5, 2, 6, 4, 1, 4, 1, 2, 3, 4, 5, 6]);
next = array1d(1..14 ,[11, 14, 13, 10, 2, 12, 9, 6, 4, 1, 8, 3, 5, 7]);
makespan = 329;
----------
assign = array1d(1..14 ,[3, 6, 5, 6, 1, 2, 4, 4, 1, 2, 3, 4, 5, 6]);
next = array1d(1..14 ,[11, 14, 13, 2, 9, 10, 12, 7, 6, 1, 8, 3, 4, 5]);
makespan = 328;
----------
assign = array1d(1..14 ,[3, 6, 5, 1, 6, 2, 4, 4, 1, 2, 3, 4, 5, 6]);
next = array1d(1..14 ,[11, 14, 13, 9, 2, 10, 12, 7, 6, 1, 8, 3, 5, 4]);
makespan = 326;
----------
assign = array1d(1..14 ,[1, 6, 6, 3, 4, 5, 2, 4, 1, 2, 3, 4, 5, 6]);
next = array1d(1..14 ,[9, 14, 2, 11, 12, 13, 10, 5, 7, 4, 8, 6, 3, 1]);
makespan = 315;
----------
assign = array1d(1..14 ,[1, 6, 6, 3, 4, 5, 2, 4, 1, 2, 3, 4, 5, 6]);
next = array1d(1..14 ,[9, 14, 2, 11, 12, 13, 10, 5, 7, 4, 8, 6, 3, 1]);
makespan = 315;
----------
==========
	Command being timed: "mzn-grb -a lbbd-datasets/Rabadi-2006/dzn-p-dominant/model.mzn lbbd-datasets/Rabadi-2006/dzn-p-dominant/8on6Rp50Rs50_15Ameer.dzn"
	User time (seconds): 10.81
	System time (seconds): 0.06
	Percent of CPU this job got: 99%
	Elapsed (wall clock) time (h:mm:ss or m:ss): 0:10.91
	Average shared text size (kbytes): 0
	Average unshared data size (kbytes): 0
	Average stack size (kbytes): 0
	Average total size (kbytes): 0
	Maximum resident set size (kbytes): 176752
	Average resident set size (kbytes): 0
	Major (requiring I/O) page faults: 0
	Minor (reclaiming a frame) page faults: 18768
	Voluntary context switches: 4
	Involuntary context switches: 20
	Swaps: 0
	File system inputs: 0
	File system outputs: 8
	Socket messages sent: 0
	Socket messages received: 0
	Signals delivered: 0
	Page size (bytes): 4096
	Exit status: 0
