+ /usr/bin/timeout 600 /usr/bin/time -v mzn-grb -a lbbd-datasets/sscplp/trucks-dzn/model.mzn lbbd-datasets/sscplp/trucks-dzn/p19-l100-c150-correlated.dzn
source = [14, 3, 19, 1, 19, 9, 9, 11, 11, 1, 19, 2, 11, 7, 2, 7, 9, 11, 7, 3, 19, 7, 11, 2, 9, 3, 2, 9, 19, 7, 1, 19, 2, 3, 1, 3, 7, 7, 7, 1]
open = [true, true, true, false, false, false, true, false, true, false, true, false, false, true, false, false, false, false, true, false]
trucks_used = [1, 1, 1, 0, 0, 0, 2, 0, 1, 0, 1, 0, 0, 1, 0, 0, 0, 0, 2, 0]
truck_assigned = [1, 1, 1, 1, 1, 1, 1, 1, 1, 1, 1, 1, 1, 2, 1, 1, 1, 1, 2, 1, 1, 1, 1, 1, 1, 1, 1, 1, 1, 1, 1, 2, 1, 1, 1, 1, 1, 1, 2, 1]
obj = 16782
----------
source = [19, 3, 19, 11, 20, 9, 9, 11, 11, 2, 7, 2, 20, 20, 3, 7, 9, 11, 2, 3, 19, 7, 11, 2, 9, 3, 20, 9, 19, 7, 19, 19, 2, 3, 20, 3, 7, 7, 7, 7]
open = [false, true, true, false, false, false, true, false, true, false, true, false, false, false, false, false, false, false, true, true]
trucks_used = [0, 1, 2, 0, 0, 0, 2, 0, 1, 0, 1, 0, 0, 0, 0, 0, 0, 0, 1, 1]
truck_assigned = [1, 1, 1, 1, 1, 1, 1, 1, 1, 1, 1, 1, 1, 1, 2, 2, 1, 1, 1, 1, 1, 1, 1, 1, 1, 1, 1, 1, 1, 2, 1, 1, 1, 1, 1, 2, 1, 1, 1, 2]
obj = 15621
----------
source = [19, 3, 9, 11, 20, 9, 9, 11, 11, 2, 7, 2, 20, 20, 3, 7, 9, 19, 2, 3, 19, 7, 11, 2, 11, 3, 20, 9, 19, 7, 19, 19, 2, 3, 20, 3, 7, 7, 7, 7]
open = [false, true, true, false, false, false, true, false, true, false, true, false, false, false, false, false, false, false, true, true]
trucks_used = [0, 1, 2, 0, 0, 0, 2, 0, 1, 0, 1, 0, 0, 0, 0, 0, 0, 0, 1, 1]
truck_assigned = [1, 1, 1, 1, 1, 1, 1, 1, 1, 1, 1, 1, 1, 1, 2, 2, 1, 1, 1, 1, 1, 1, 1, 1, 1, 1, 1, 1, 1, 2, 1, 1, 1, 2, 1, 2, 2, 1, 1, 1]
obj = 15616
----------
source = [19, 3, 9, 11, 20, 9, 9, 11, 11, 2, 7, 2, 20, 20, 3, 7, 11, 19, 2, 3, 19, 7, 11, 2, 9, 3, 20, 9, 19, 7, 19, 19, 2, 3, 20, 3, 7, 7, 7, 7]
open = [false, true, true, false, false, false, true, false, true, false, true, false, false, false, false, false, false, false, true, true]
trucks_used = [0, 1, 2, 0, 0, 0, 2, 0, 1, 0, 1, 0, 0, 0, 0, 0, 0, 0, 1, 1]
truck_assigned = [1, 1, 1, 1, 1, 1, 1, 1, 1, 1, 1, 1, 1, 1, 2, 2, 1, 1, 1, 1, 1, 1, 1, 1, 1, 1, 1, 1, 1, 2, 1, 1, 1, 2, 1, 2, 2, 1, 1, 1]
obj = 15610
----------
source = [19, 3, 9, 11, 20, 9, 9, 11, 11, 2, 7, 9, 20, 20, 3, 7, 11, 19, 2, 7, 19, 7, 11, 9, 11, 3, 20, 9, 19, 7, 19, 19, 2, 11, 20, 3, 7, 2, 7, 7]
open = [false, true, true, false, false, false, true, false, true, false, true, false, false, false, false, false, false, false, true, true]
trucks_used = [0, 1, 1, 0, 0, 0, 2, 0, 1, 0, 2, 0, 0, 0, 0, 0, 0, 0, 1, 1]
truck_assigned = [1, 1, 1, 1, 1, 1, 1, 2, 2, 1, 1, 1, 1, 1, 1, 2, 1, 1, 1, 2, 1, 1, 1, 1, 1, 1, 1, 1, 1, 2, 1, 1, 1, 1, 1, 1, 1, 1, 1, 2]
obj = 15600
----------
source = [19, 3, 9, 11, 20, 9, 2, 11, 11, 2, 7, 9, 20, 20, 2, 7, 9, 19, 7, 7, 3, 19, 7, 9, 11, 3, 20, 9, 19, 7, 19, 19, 2, 11, 20, 3, 7, 3, 7, 7]
open = [false, true, true, false, false, false, true, false, true, false, true, false, false, false, false, false, false, false, true, true]
trucks_used = [0, 1, 1, 0, 0, 0, 2, 0, 1, 0, 1, 0, 0, 0, 0, 0, 0, 0, 1, 1]
truck_assigned = [1, 1, 1, 1, 1, 1, 1, 1, 1, 1, 1, 1, 1, 1, 1, 2, 1, 1, 2, 2, 1, 1, 1, 1, 1, 1, 1, 1, 1, 2, 1, 1, 1, 1, 1, 1, 1, 1, 1, 1]
obj = 15513
----------
source = [11, 3, 9, 11, 19, 9, 9, 11, 11, 2, 14, 8, 11, 7, 3, 7, 11, 19, 2, 7, 19, 7, 11, 2, 9, 3, 2, 9, 19, 7, 19, 19, 2, 14, 7, 3, 14, 3, 7, 7]
open = [false, true, true, false, false, false, true, true, true, false, true, false, false, true, false, false, false, false, true, false]
trucks_used = [0, 1, 2, 0, 0, 0, 2, 1, 1, 0, 2, 0, 0, 1, 0, 0, 0, 0, 2, 0]
truck_assigned = [2, 2, 1, 2, 1, 1, 1, 1, 1, 1, 1, 1, 1, 1, 1, 2, 1, 1, 1, 2, 2, 1, 1, 1, 1, 1, 1, 1, 1, 1, 1, 1, 1, 1, 2, 1, 1, 1, 1, 2]
obj = 15427
----------
source = [11, 3, 9, 11, 19, 9, 9, 11, 11, 2, 14, 2, 11, 7, 3, 7, 11, 19, 2, 3, 19, 19, 7, 2, 11, 3, 3, 9, 19, 7, 19, 9, 2, 14, 7, 3, 14, 7, 7, 7]
open = [false, true, true, false, false, false, true, false, true, false, true, false, false, true, false, false, false, false, true, false]
trucks_used = [0, 1, 2, 0, 0, 0, 2, 0, 1, 0, 2, 0, 0, 1, 0, 0, 0, 0, 2, 0]
truck_assigned = [2, 2, 1, 2, 1, 1, 1, 1, 1, 1, 1, 1, 1, 1, 1, 2, 1, 2, 1, 1, 1, 1, 1, 1, 1, 2, 1, 1, 1, 2, 1, 1, 1, 1, 2, 2, 1, 2, 1, 1]
obj = 14272
----------
source = [11, 3, 9, 11, 19, 9, 2, 11, 11, 2, 14, 9, 11, 7, 7, 3, 9, 19, 2, 3, 19, 7, 11, 9, 11, 3, 2, 9, 19, 7, 19, 19, 2, 14, 7, 3, 14, 7, 7, 7]
open = [false, true, true, false, false, false, true, false, true, false, true, false, false, true, false, false, false, false, true, false]
trucks_used = [0, 1, 1, 0, 0, 0, 2, 0, 1, 0, 2, 0, 0, 1, 0, 0, 0, 0, 2, 0]
truck_assigned = [1, 1, 1, 2, 2, 1, 1, 1, 1, 1, 1, 1, 1, 1, 2, 1, 1, 1, 1, 1, 1, 2, 1, 1, 1, 1, 1, 1, 1, 1, 1, 2, 1, 1, 2, 1, 1, 2, 1, 1]
obj = 14125
----------
source = [19, 1, 19, 1, 1, 9, 1, 9, 3, 1, 19, 2, 7, 7, 2, 3, 9, 19, 7, 7, 19, 7, 7, 2, 9, 3, 2, 9, 1, 7, 19, 19, 2, 7, 1, 3, 1, 3, 7, 1]
open = [true, true, true, false, false, false, true, false, true, false, false, false, false, false, false, false, false, false, true, false]
trucks_used = [3, 1, 1, 0, 0, 0, 2, 0, 1, 0, 0, 0, 0, 0, 0, 0, 0, 0, 2, 0]
truck_assigned = [2, 2, 1, 1, 1, 1, 3, 1, 1, 2, 1, 1, 2, 1, 1, 1, 1, 2, 1, 2, 1, 1, 1, 1, 1, 1, 1, 1, 2, 1, 1, 1, 1, 2, 2, 1, 1, 1, 2, 1]
obj = 13780
----------
source = [19, 1, 2, 1, 1, 9, 1, 7, 3, 1, 7, 2, 9, 7, 2, 3, 9, 19, 7, 3, 19, 19, 7, 1, 9, 3, 2, 9, 19, 7, 1, 19, 2, 7, 1, 3, 7, 1, 7, 7]
open = [true, true, true, false, false, false, true, false, true, false, false, false, false, false, false, false, false, false, true, false]
trucks_used = [2, 1, 1, 0, 0, 0, 3, 0, 1, 0, 0, 0, 0, 0, 0, 0, 0, 0, 1, 0]
truck_assigned = [1, 2, 1, 1, 2, 1, 1, 2, 1, 2, 3, 1, 1, 1, 1, 1, 1, 1, 1, 1, 1, 1, 2, 1, 1, 1, 1, 1, 1, 1, 1, 1, 1, 3, 2, 1, 1, 1, 2, 2]
obj = 13624
----------
source = [19, 1, 2, 1, 1, 9, 1, 7, 3, 1, 7, 2, 9, 7, 2, 3, 9, 19, 7, 7, 19, 19, 7, 1, 9, 3, 2, 9, 19, 7, 1, 19, 2, 7, 1, 3, 7, 3, 7, 1]
open = [true, true, true, false, false, false, true, false, true, false, false, false, false, false, false, false, false, false, true, false]
trucks_used = [2, 1, 1, 0, 0, 0, 2, 0, 1, 0, 0, 0, 0, 0, 0, 0, 0, 0, 1, 0]
truck_assigned = [1, 2, 1, 1, 2, 1, 2, 2, 1, 2, 1, 1, 1, 2, 1, 1, 1, 1, 1, 1, 1, 1, 2, 1, 1, 1, 1, 1, 1, 2, 1, 1, 1, 1, 1, 1, 1, 1, 2, 1]
obj = 13470
----------
source = [19, 1, 2, 1, 19, 9, 1, 7, 3, 1, 7, 2, 9, 7, 2, 3, 9, 19, 7, 7, 19, 1, 7, 1, 9, 3, 2, 9, 19, 7, 1, 19, 2, 7, 1, 3, 7, 3, 7, 1]
open = [true, true, true, false, false, false, true, false, true, false, false, false, false, false, false, false, false, false, true, false]
trucks_used = [2, 1, 1, 0, 0, 0, 2, 0, 1, 0, 0, 0, 0, 0, 0, 0, 0, 0, 1, 0]
truck_assigned = [1, 2, 1, 2, 1, 1, 2, 2, 1, 2, 1, 1, 1, 2, 1, 1, 1, 1, 2, 1, 1, 1, 2, 1, 1, 1, 1, 1, 1, 1, 2, 1, 1, 1, 1, 1, 1, 1, 2, 1]
obj = 13464
----------
source = [19, 1, 2, 1, 19, 9, 1, 7, 3, 1, 7, 2, 9, 7, 2, 3, 9, 19, 7, 7, 19, 1, 7, 1, 9, 3, 2, 9, 19, 7, 1, 19, 2, 7, 1, 3, 7, 3, 7, 1]
open = [true, true, true, false, false, false, true, false, true, false, false, false, false, false, false, false, false, false, true, false]
trucks_used = [2, 1, 1, 0, 0, 0, 2, 0, 1, 0, 0, 0, 0, 0, 0, 0, 0, 0, 1, 0]
truck_assigned = [1, 2, 1, 2, 1, 1, 2, 2, 1, 2, 1, 1, 1, 2, 1, 1, 1, 1, 2, 1, 1, 1, 2, 1, 1, 1, 1, 1, 1, 1, 2, 1, 1, 1, 1, 1, 1, 1, 2, 1]
obj = 13464
----------
==========
	Command being timed: "mzn-grb -a lbbd-datasets/sscplp/trucks-dzn/model.mzn lbbd-datasets/sscplp/trucks-dzn/p19-l100-c150-correlated.dzn"
	User time (seconds): 433.03
	System time (seconds): 2.65
	Percent of CPU this job got: 99%
	Elapsed (wall clock) time (h:mm:ss or m:ss): 7:16.65
	Average shared text size (kbytes): 0
	Average unshared data size (kbytes): 0
	Average stack size (kbytes): 0
	Average total size (kbytes): 0
	Maximum resident set size (kbytes): 13243680
	Average resident set size (kbytes): 0
	Major (requiring I/O) page faults: 0
	Minor (reclaiming a frame) page faults: 748632
	Voluntary context switches: 7
	Involuntary context switches: 636
	Swaps: 0
	File system inputs: 0
	File system outputs: 56
	Socket messages sent: 0
	Socket messages received: 0
	Signals delivered: 0
	Page size (bytes): 4096
	Exit status: 0
