+ /usr/bin/timeout 600 /usr/bin/time -v mzn-grb -a lbbd-datasets/sscplp/trucks-dzn/model.mzn lbbd-datasets/sscplp/trucks-dzn/p25-l100-c300-uncorrelated.dzn
source = [2, 1, 19, 1, 19, 4, 1, 2, 5, 2, 19, 16, 16, 5, 4, 13, 1, 13, 2, 2, 2, 19, 19, 19, 13, 3, 1, 2, 13, 2, 19, 5, 13, 4, 4, 19, 19, 5, 16, 13]
open = [true, true, true, true, true, false, false, false, false, false, false, false, true, false, false, true, false, false, true, false]
trucks_used = [2, 2, 1, 1, 1, 0, 0, 0, 0, 0, 0, 0, 1, 0, 0, 1, 0, 0, 2, 0]
truck_assigned = [1, 2, 1, 2, 2, 1, 2, 2, 1, 1, 2, 1, 1, 1, 1, 1, 2, 1, 1, 2, 2, 1, 1, 2, 1, 1, 1, 2, 1, 2, 1, 1, 1, 1, 1, 1, 2, 1, 1, 1]
obj = 21266
----------
source = [2, 1, 19, 1, 19, 4, 1, 2, 5, 2, 19, 16, 16, 5, 4, 13, 1, 3, 2, 2, 2, 19, 19, 19, 13, 3, 1, 2, 13, 2, 19, 5, 13, 4, 4, 19, 19, 5, 16, 13]
open = [true, true, true, true, true, false, false, false, false, false, false, false, true, false, false, true, false, false, true, false]
trucks_used = [2, 2, 1, 1, 1, 0, 0, 0, 0, 0, 0, 0, 1, 0, 0, 1, 0, 0, 2, 0]
truck_assigned = [1, 2, 2, 1, 1, 1, 1, 2, 1, 1, 2, 1, 1, 1, 1, 1, 2, 1, 1, 2, 2, 1, 1, 2, 1, 1, 1, 2, 1, 2, 1, 1, 1, 1, 1, 1, 2, 1, 1, 1]
obj = 21252
----------
source = [2, 19, 19, 19, 19, 2, 1, 3, 2, 2, 4, 3, 2, 2, 1, 4, 20, 5, 20, 5, 2, 19, 19, 19, 4, 19, 1, 2, 1, 2, 19, 3, 5, 19, 2, 19, 2, 5, 4, 4]
open = [true, true, true, true, true, false, false, false, false, false, false, false, false, false, false, false, false, false, true, true]
trucks_used = [1, 2, 1, 2, 1, 0, 0, 0, 0, 0, 0, 0, 0, 0, 0, 0, 0, 0, 3, 1]
truck_assigned = [2, 2, 1, 1, 2, 2, 1, 1, 1, 1, 1, 1, 1, 1, 1, 2, 1, 1, 1, 1, 1, 1, 1, 1, 1, 2, 1, 1, 1, 1, 3, 1, 1, 2, 2, 1, 2, 1, 2, 1]
obj = 17212
----------
source = [2, 19, 19, 19, 19, 2, 1, 3, 2, 2, 19, 3, 2, 5, 1, 4, 1, 5, 2, 3, 2, 19, 19, 19, 4, 19, 5, 2, 1, 2, 3, 4, 4, 4, 2, 19, 2, 5, 4, 4]
open = [true, true, true, true, true, false, false, false, false, false, false, false, false, false, false, false, false, false, true, false]
trucks_used = [1, 2, 1, 2, 1, 0, 0, 0, 0, 0, 0, 0, 0, 0, 0, 0, 0, 0, 2, 0]
truck_assigned = [2, 2, 1, 1, 2, 2, 1, 1, 2, 1, 2, 1, 1, 1, 1, 2, 1, 1, 2, 1, 1, 1, 1, 1, 1, 2, 1, 1, 1, 1, 1, 1, 2, 2, 2, 1, 1, 1, 1, 1]
obj = 13802
----------
source = [2, 19, 19, 19, 4, 4, 1, 2, 2, 2, 19, 19, 2, 5, 4, 1, 1, 5, 2, 4, 2, 19, 19, 19, 4, 19, 5, 2, 1, 2, 19, 5, 4, 4, 4, 19, 2, 5, 4, 4]
open = [true, true, false, true, true, false, false, false, false, false, false, false, false, false, false, false, false, false, true, false]
trucks_used = [1, 2, 0, 2, 1, 0, 0, 0, 0, 0, 0, 0, 0, 0, 0, 0, 0, 0, 4, 0]
truck_assigned = [2, 2, 1, 2, 1, 2, 1, 2, 2, 1, 2, 4, 1, 1, 2, 1, 1, 1, 2, 1, 1, 2, 1, 1, 1, 4, 1, 1, 1, 1, 1, 1, 2, 2, 2, 1, 1, 1, 1, 1]
obj = 11685
----------
source = [2, 19, 19, 1, 4, 4, 1, 2, 2, 2, 19, 19, 2, 5, 4, 1, 1, 5, 2, 4, 2, 19, 19, 19, 4, 19, 1, 2, 5, 2, 19, 5, 4, 4, 4, 19, 2, 5, 4, 4]
open = [true, true, false, true, true, false, false, false, false, false, false, false, false, false, false, false, false, false, true, false]
trucks_used = [1, 2, 0, 2, 1, 0, 0, 0, 0, 0, 0, 0, 0, 0, 0, 0, 0, 0, 2, 0]
truck_assigned = [2, 2, 1, 1, 1, 2, 1, 2, 2, 1, 2, 2, 1, 1, 2, 1, 1, 1, 1, 1, 1, 2, 1, 1, 1, 2, 1, 1, 1, 1, 1, 1, 2, 2, 2, 1, 2, 1, 1, 1]
obj = 11082
----------
source = [2, 19, 19, 1, 4, 2, 1, 2, 4, 2, 19, 19, 2, 5, 4, 4, 1, 5, 19, 4, 2, 19, 4, 19, 4, 19, 1, 2, 5, 2, 19, 5, 4, 4, 2, 19, 2, 5, 4, 4]
open = [true, true, false, true, true, false, false, false, false, false, false, false, false, false, false, false, false, false, true, false]
trucks_used = [1, 2, 0, 2, 1, 0, 0, 0, 0, 0, 0, 0, 0, 0, 0, 0, 0, 0, 2, 0]
truck_assigned = [2, 2, 1, 1, 1, 2, 1, 1, 2, 1, 1, 2, 1, 1, 2, 2, 1, 1, 2, 1, 1, 2, 1, 1, 1, 2, 1, 1, 1, 1, 1, 1, 2, 2, 2, 1, 2, 1, 1, 1]
obj = 11055
----------
source = [2, 19, 19, 1, 4, 2, 1, 2, 4, 2, 19, 19, 2, 5, 4, 4, 1, 5, 19, 4, 2, 19, 4, 19, 4, 19, 1, 2, 1, 2, 19, 5, 4, 4, 2, 19, 2, 5, 4, 4]
open = [true, true, false, true, true, false, false, false, false, false, false, false, false, false, false, false, false, false, true, false]
trucks_used = [1, 2, 0, 2, 1, 0, 0, 0, 0, 0, 0, 0, 0, 0, 0, 0, 0, 0, 2, 0]
truck_assigned = [2, 2, 1, 1, 1, 2, 1, 1, 2, 1, 1, 2, 1, 1, 2, 2, 1, 1, 2, 1, 1, 2, 1, 1, 1, 2, 1, 1, 1, 1, 1, 1, 2, 2, 2, 1, 2, 1, 1, 1]
obj = 11012
----------
source = [2, 1, 19, 1, 19, 2, 1, 5, 5, 2, 2, 19, 10, 5, 1, 5, 1, 5, 19, 5, 2, 19, 19, 19, 2, 19, 5, 2, 5, 2, 1, 5, 5, 5, 2, 19, 2, 5, 1, 19]
open = [true, true, false, false, true, false, false, false, false, true, false, false, false, false, false, false, false, false, true, false]
trucks_used = [2, 3, 0, 0, 3, 0, 0, 0, 0, 1, 0, 0, 0, 0, 0, 0, 0, 0, 2, 0]
truck_assigned = [1, 2, 1, 2, 2, 3, 2, 2, 2, 1, 1, 2, 1, 3, 2, 1, 1, 2, 1, 1, 3, 1, 1, 1, 1, 2, 1, 2, 1, 2, 1, 3, 3, 1, 2, 2, 2, 1, 1, 1]
obj = 10424
----------
source = [2, 19, 19, 2, 19, 2, 1, 5, 5, 2, 2, 19, 5, 5, 1, 1, 1, 5, 1, 5, 2, 19, 19, 19, 2, 19, 5, 2, 5, 2, 1, 5, 5, 5, 2, 19, 2, 5, 5, 19]
open = [true, true, false, false, true, false, false, false, false, false, false, false, false, false, false, false, false, false, true, false]
trucks_used = [2, 3, 0, 0, 3, 0, 0, 0, 0, 0, 0, 0, 0, 0, 0, 0, 0, 0, 2, 0]
truck_assigned = [2, 2, 1, 3, 2, 2, 1, 3, 1, 2, 1, 2, 2, 1, 1, 2, 1, 1, 2, 2, 1, 1, 2, 1, 3, 1, 3, 2, 2, 2, 2, 3, 3, 1, 1, 2, 1, 2, 2, 1]
obj = 9490
----------
source = [2, 1, 19, 2, 19, 2, 1, 5, 5, 2, 2, 19, 5, 5, 1, 1, 1, 5, 19, 5, 2, 19, 19, 19, 2, 19, 5, 2, 5, 2, 1, 5, 5, 5, 2, 19, 2, 5, 5, 19]
open = [true, true, false, false, true, false, false, false, false, false, false, false, false, false, false, false, false, false, true, false]
trucks_used = [2, 3, 0, 0, 3, 0, 0, 0, 0, 0, 0, 0, 0, 0, 0, 0, 0, 0, 2, 0]
truck_assigned = [2, 1, 1, 3, 2, 2, 1, 3, 1, 1, 1, 2, 2, 1, 1, 2, 2, 2, 2, 1, 2, 1, 1, 1, 3, 2, 3, 2, 2, 2, 2, 3, 3, 1, 1, 2, 1, 1, 2, 1]
obj = 9441
----------
source = [2, 1, 19, 19, 19, 2, 1, 5, 5, 2, 19, 19, 5, 5, 1, 2, 1, 5, 2, 5, 2, 19, 19, 19, 2, 19, 5, 1, 5, 2, 19, 5, 5, 5, 1, 19, 2, 5, 5, 19]
open = [true, true, false, false, true, false, false, false, false, false, false, false, false, false, false, false, false, false, true, false]
trucks_used = [2, 2, 0, 0, 3, 0, 0, 0, 0, 0, 0, 0, 0, 0, 0, 0, 0, 0, 3, 0]
truck_assigned = [2, 2, 3, 1, 2, 2, 2, 2, 2, 1, 1, 1, 1, 1, 1, 2, 1, 2, 2, 3, 1, 2, 1, 1, 1, 2, 1, 2, 1, 1, 2, 1, 3, 1, 1, 3, 1, 3, 3, 1]
obj = 9395
----------
source = [2, 1, 19, 1, 19, 2, 1, 5, 5, 2, 2, 19, 2, 5, 1, 2, 5, 5, 2, 5, 2, 19, 19, 1, 2, 19, 5, 2, 5, 2, 19, 5, 5, 5, 2, 19, 19, 5, 5, 19]
open = [true, true, false, false, true, false, false, false, false, false, false, false, false, false, false, false, false, false, true, false]
trucks_used = [2, 3, 0, 0, 3, 0, 0, 0, 0, 0, 0, 0, 0, 0, 0, 0, 0, 0, 2, 0]
truck_assigned = [1, 2, 2, 2, 1, 3, 2, 3, 1, 1, 1, 2, 1, 3, 2, 2, 2, 2, 1, 3, 3, 1, 2, 1, 2, 1, 1, 2, 1, 1, 1, 2, 2, 1, 3, 2, 2, 1, 3, 1]
obj = 9297
----------
