+ /usr/bin/timeout 600 /usr/bin/time -v mzn-grb -a lbbd-datasets/Rabadi-2006/dzn-balanced/model.mzn lbbd-datasets/Rabadi-2006/dzn-balanced/11on6Rp50Rs50_6Ameer.dzn
assign = array1d(1..17 ,[3, 1, 5, 3, 4, 2, 4, 5, 1, 6, 6, 1, 2, 3, 4, 5, 6]);
next = array1d(1..17 ,[4, 12, 8, 14, 7, 13, 15, 16, 2, 17, 10, 6, 1, 5, 3, 11, 9]);
makespan = 220;
----------
assign = array1d(1..17 ,[2, 1, 3, 3, 4, 6, 2, 5, 1, 6, 5, 1, 2, 3, 4, 5, 6]);
next = array1d(1..17 ,[7, 9, 4, 14, 15, 17, 13, 11, 12, 6, 16, 1, 3, 5, 8, 10, 2]);
makespan = 219;
----------
assign = array1d(1..17 ,[2, 1, 3, 3, 4, 6, 4, 5, 1, 2, 6, 1, 2, 3, 4, 5, 6]);
next = array1d(1..17 ,[10, 9, 4, 14, 15, 11, 5, 16, 12, 13, 17, 1, 3, 7, 8, 6, 2]);
makespan = 211;
----------
assign = array1d(1..17 ,[5, 1, 3, 3, 4, 6, 4, 2, 1, 5, 6, 1, 2, 3, 4, 5, 6]);
next = array1d(1..17 ,[16, 12, 14, 3, 15, 11, 5, 13, 2, 1, 17, 8, 4, 7, 10, 6, 9]);
makespan = 201;
----------
assign = array1d(1..17 ,[3, 5, 5, 6, 4, 1, 2, 3, 1, 2, 6, 1, 2, 3, 4, 5, 6]);
next = array1d(1..17 ,[14, 3, 16, 17, 15, 9, 10, 1, 12, 13, 4, 7, 8, 5, 2, 11, 6]);
makespan = 198;
----------
assign = array1d(1..17 ,[3, 1, 4, 3, 4, 6, 5, 1, 5, 2, 6, 1, 2, 3, 4, 5, 6]);
next = array1d(1..17 ,[14, 12, 5, 1, 15, 11, 16, 2, 7, 13, 17, 10, 4, 3, 9, 6, 8]);
makespan = 195;
----------
assign = array1d(1..17 ,[4, 1, 3, 1, 4, 6, 5, 3, 5, 2, 6, 1, 2, 3, 4, 5, 6]);
next = array1d(1..17 ,[15, 12, 14, 2, 1, 11, 16, 3, 7, 13, 17, 10, 8, 5, 9, 6, 4]);
makespan = 194;
----------
assign = array1d(1..17 ,[4, 1, 3, 1, 4, 6, 5, 3, 5, 2, 6, 1, 2, 3, 4, 5, 6]);
next = array1d(1..17 ,[15, 12, 14, 2, 1, 11, 16, 3, 7, 13, 17, 10, 8, 5, 9, 6, 4]);
makespan = 194;
----------
==========
	Command being timed: "mzn-grb -a lbbd-datasets/Rabadi-2006/dzn-balanced/model.mzn lbbd-datasets/Rabadi-2006/dzn-balanced/11on6Rp50Rs50_6Ameer.dzn"
	User time (seconds): 28.49
	System time (seconds): 0.08
	Percent of CPU this job got: 99%
	Elapsed (wall clock) time (h:mm:ss or m:ss): 0:28.63
	Average shared text size (kbytes): 0
	Average unshared data size (kbytes): 0
	Average stack size (kbytes): 0
	Average total size (kbytes): 0
	Maximum resident set size (kbytes): 285536
	Average resident set size (kbytes): 0
	Major (requiring I/O) page faults: 0
	Minor (reclaiming a frame) page faults: 25399
	Voluntary context switches: 5
	Involuntary context switches: 41
	Swaps: 0
	File system inputs: 0
	File system outputs: 8
	Socket messages sent: 0
	Socket messages received: 0
	Signals delivered: 0
	Page size (bytes): 4096
	Exit status: 0
