+ /usr/bin/timeout 600 /usr/bin/time -v mzn-grb -a lbbd-datasets/Rabadi-2006/dzn-p-dominant/model.mzn lbbd-datasets/Rabadi-2006/dzn-p-dominant/11on6Rp50Rs50_15Ameer.dzn
assign = array1d(1..17 ,[4, 5, 1, 2, 3, 3, 4, 6, 5, 2, 6, 1, 2, 3, 4, 5, 6]);
next = array1d(1..17 ,[15, 9, 12, 13, 6, 14, 1, 11, 16, 4, 17, 10, 5, 7, 2, 8, 3]);
makespan = 347;
----------
assign = array1d(1..17 ,[4, 2, 1, 2, 1, 3, 4, 6, 5, 5, 6, 1, 2, 3, 4, 5, 6]);
next = array1d(1..17 ,[7, 4, 12, 13, 3, 14, 15, 11, 10, 16, 17, 2, 6, 1, 9, 8, 5]);
makespan = 344;
----------
assign = array1d(1..17 ,[1, 5, 1, 6, 3, 3, 4, 6, 5, 2, 4, 1, 2, 3, 4, 5, 6]);
next = array1d(1..17 ,[12, 9, 1, 8, 6, 14, 11, 17, 16, 13, 15, 10, 5, 7, 2, 4, 3]);
makespan = 339;
----------
assign = array1d(1..17 ,[4, 2, 1, 6, 1, 3, 4, 5, 5, 2, 6, 1, 2, 3, 4, 5, 6]);
next = array1d(1..17 ,[15, 10, 12, 17, 3, 14, 1, 16, 8, 13, 4, 2, 6, 7, 9, 11, 5]);
makespan = 338;
----------
assign = array1d(1..17 ,[4, 2, 1, 6, 1, 3, 4, 5, 5, 2, 6, 1, 2, 3, 4, 5, 6]);
next = array1d(1..17 ,[15, 10, 12, 17, 3, 14, 1, 16, 8, 13, 4, 2, 6, 7, 9, 11, 5]);
makespan = 338;
----------
==========
	Command being timed: "mzn-grb -a lbbd-datasets/Rabadi-2006/dzn-p-dominant/model.mzn lbbd-datasets/Rabadi-2006/dzn-p-dominant/11on6Rp50Rs50_15Ameer.dzn"
	User time (seconds): 20.90
	System time (seconds): 0.08
	Percent of CPU this job got: 99%
	Elapsed (wall clock) time (h:mm:ss or m:ss): 0:21.03
	Average shared text size (kbytes): 0
	Average unshared data size (kbytes): 0
	Average stack size (kbytes): 0
	Average total size (kbytes): 0
	Maximum resident set size (kbytes): 243824
	Average resident set size (kbytes): 0
	Major (requiring I/O) page faults: 0
	Minor (reclaiming a frame) page faults: 22431
	Voluntary context switches: 4
	Involuntary context switches: 34
	Swaps: 0
	File system inputs: 0
	File system outputs: 8
	Socket messages sent: 0
	Socket messages received: 0
	Signals delivered: 0
	Page size (bytes): 4096
	Exit status: 0
