+ /usr/bin/timeout 600 /usr/bin/time -v mzn-grb -a lbbd-datasets/sscplp/trucks-dzn/model.mzn lbbd-datasets/sscplp/trucks-dzn/p01-l100-c300-uncorrelated.dzn
source = [5, 5, 4, 5, 5, 3, 3, 4, 4, 3, 2, 3, 1, 3, 2, 2, 2, 1, 1, 1]
open = [true, true, true, true, true, false, false, false, false, false]
trucks_used = [3, 3, 3, 3, 2, 0, 0, 0, 0, 0]
truck_assigned = [2, 2, 3, 2, 2, 3, 3, 2, 2, 2, 3, 2, 3, 2, 2, 2, 2, 2, 2, 2]
obj = 6713
----------
source = [5, 5, 2, 2, 7, 8, 9, 7, 1, 9, 2, 7, 7, 5, 2, 1, 8, 9, 5, 9]
open = [true, true, false, false, true, false, true, true, true, false]
trucks_used = [2, 2, 0, 0, 2, 0, 1, 1, 1, 0]
truck_assigned = [1, 1, 2, 1, 1, 1, 1, 1, 2, 1, 2, 1, 1, 1, 1, 2, 1, 1, 2, 1]
obj = 4724
----------
source = [5, 2, 2, 5, 7, 8, 9, 7, 5, 9, 5, 7, 7, 5, 9, 8, 8, 9, 2, 9]
open = [false, true, false, false, true, false, true, true, true, false]
trucks_used = [0, 1, 0, 0, 1, 0, 1, 1, 2, 0]
truck_assigned = [1, 1, 1, 1, 1, 1, 2, 1, 1, 1, 1, 1, 1, 1, 1, 1, 1, 1, 1, 1]
obj = 3302
----------
source = [5, 2, 2, 5, 7, 7, 9, 7, 5, 9, 5, 9, 7, 5, 9, 8, 8, 9, 2, 8]
open = [false, true, false, false, true, false, true, true, true, false]
trucks_used = [0, 1, 0, 0, 1, 0, 1, 1, 1, 0]
truck_assigned = [1, 1, 1, 1, 1, 1, 1, 1, 1, 1, 1, 1, 1, 1, 1, 1, 1, 1, 1, 1]
obj = 3026
----------
source = [5, 2, 8, 5, 5, 8, 9, 9, 5, 9, 4, 9, 2, 5, 2, 4, 2, 9, 4, 8]
open = [false, true, false, true, true, false, false, true, true, false]
trucks_used = [0, 1, 0, 1, 1, 0, 0, 1, 1, 0]
truck_assigned = [1, 1, 1, 1, 1, 1, 1, 1, 1, 1, 1, 1, 1, 1, 1, 1, 1, 1, 1, 1]
obj = 2976
----------
source = [5, 2, 8, 5, 8, 5, 9, 9, 5, 9, 4, 9, 2, 5, 2, 4, 2, 9, 4, 8]
open = [false, true, false, true, true, false, false, true, true, false]
trucks_used = [0, 1, 0, 1, 1, 0, 0, 1, 1, 0]
truck_assigned = [1, 1, 1, 1, 1, 1, 1, 1, 1, 1, 1, 1, 1, 1, 1, 1, 1, 1, 1, 1]
obj = 2933
----------
source = [9, 2, 8, 4, 7, 7, 9, 7, 8, 9, 4, 4, 2, 7, 2, 8, 8, 9, 2, 9]
open = [false, true, false, true, false, false, true, true, true, false]
trucks_used = [0, 1, 0, 1, 0, 0, 1, 1, 1, 0]
truck_assigned = [1, 1, 1, 1, 1, 1, 1, 1, 1, 1, 1, 1, 1, 1, 1, 1, 1, 1, 1, 1]
obj = 2922
----------
source = [9, 2, 8, 4, 7, 7, 9, 7, 8, 9, 4, 4, 2, 7, 2, 8, 8, 9, 2, 9]
open = [false, true, false, true, false, false, true, true, true, false]
trucks_used = [0, 1, 0, 1, 0, 0, 1, 1, 1, 0]
truck_assigned = [1, 1, 1, 1, 1, 1, 1, 1, 1, 1, 1, 1, 1, 1, 1, 1, 1, 1, 1, 1]
obj = 2922
----------
==========
	Command being timed: "mzn-grb -a lbbd-datasets/sscplp/trucks-dzn/model.mzn lbbd-datasets/sscplp/trucks-dzn/p01-l100-c300-uncorrelated.dzn"
	User time (seconds): 55.55
	System time (seconds): 0.38
	Percent of CPU this job got: 99%
	Elapsed (wall clock) time (h:mm:ss or m:ss): 0:56.05
	Average shared text size (kbytes): 0
	Average unshared data size (kbytes): 0
	Average stack size (kbytes): 0
	Average total size (kbytes): 0
	Maximum resident set size (kbytes): 1610448
	Average resident set size (kbytes): 0
	Major (requiring I/O) page faults: 0
	Minor (reclaiming a frame) page faults: 104427
	Voluntary context switches: 5
	Involuntary context switches: 67
	Swaps: 0
	File system inputs: 0
	File system outputs: 24
	Socket messages sent: 0
	Socket messages received: 0
	Signals delivered: 0
	Page size (bytes): 4096
	Exit status: 0
