+ /usr/bin/timeout 600 /usr/bin/time -v mzn-grb -a lbbd-datasets/Rabadi-2006/dzn-balanced/model.mzn lbbd-datasets/Rabadi-2006/dzn-balanced/10on4Rp50Rs50_5Ameer.dzn
assign = array1d(1..14 ,[3, 2, 1, 1, 4, 1, 2, 3, 4, 4, 1, 2, 3, 4]);
next = array1d(1..14 ,[8, 7, 4, 11, 14, 3, 12, 13, 5, 9, 2, 1, 10, 6]);
makespan = 360;
----------
assign = array1d(1..14 ,[2, 2, 3, 1, 4, 4, 4, 3, 1, 3, 1, 2, 3, 4]);
next = array1d(1..14 ,[12, 1, 10, 9, 6, 14, 5, 3, 11, 13, 2, 8, 7, 4]);
makespan = 353;
----------
assign = array1d(1..14 ,[2, 2, 3, 1, 1, 2, 4, 3, 4, 3, 1, 2, 3, 4]);
next = array1d(1..14 ,[12, 1, 13, 11, 4, 2, 14, 10, 7, 3, 6, 8, 9, 5]);
makespan = 338;
----------
assign = array1d(1..14 ,[4, 1, 2, 4, 3, 1, 2, 2, 3, 3, 1, 2, 3, 4]);
next = array1d(1..14 ,[4, 11, 7, 14, 13, 2, 8, 12, 5, 9, 3, 10, 1, 6]);
makespan = 337;
----------
assign = array1d(1..14 ,[3, 3, 4, 1, 2, 4, 2, 1, 1, 4, 1, 2, 3, 4]);
next = array1d(1..14 ,[2, 13, 14, 9, 12, 3, 5, 11, 8, 6, 7, 1, 10, 4]);
makespan = 336;
----------
assign = array1d(1..14 ,[3, 3, 4, 1, 2, 4, 2, 1, 1, 4, 1, 2, 3, 4]);
next = array1d(1..14 ,[2, 13, 6, 9, 12, 14, 5, 11, 8, 3, 7, 1, 10, 4]);
makespan = 333;
----------
assign = array1d(1..14 ,[3, 2, 3, 1, 4, 2, 4, 1, 2, 4, 1, 2, 3, 4]);
next = array1d(1..14 ,[3, 9, 13, 8, 14, 2, 5, 11, 12, 7, 6, 1, 10, 4]);
makespan = 331;
----------
assign = array1d(1..14 ,[2, 3, 3, 1, 4, 2, 2, 4, 1, 3, 1, 2, 3, 4]);
next = array1d(1..14 ,[7, 3, 10, 9, 14, 12, 6, 5, 11, 13, 1, 2, 8, 4]);
makespan = 325;
----------
assign = array1d(1..14 ,[2, 2, 3, 1, 1, 4, 4, 3, 2, 3, 1, 2, 3, 4]);
next = array1d(1..14 ,[9, 1, 8, 11, 4, 14, 6, 10, 12, 13, 2, 3, 7, 5]);
makespan = 323;
----------
assign = array1d(1..14 ,[2, 2, 1, 1, 1, 4, 2, 3, 4, 3, 1, 2, 3, 4]);
next = array1d(1..14 ,[7, 1, 11, 5, 3, 9, 12, 13, 14, 8, 2, 10, 6, 4]);
makespan = 322;
----------
assign = array1d(1..14 ,[2, 2, 1, 3, 1, 4, 2, 3, 4, 3, 1, 2, 3, 4]);
next = array1d(1..14 ,[7, 1, 11, 8, 3, 9, 12, 13, 14, 4, 2, 10, 6, 5]);
makespan = 319;
----------
assign = array1d(1..14 ,[1, 2, 4, 3, 2, 4, 1, 3, 4, 3, 1, 2, 3, 4]);
next = array1d(1..14 ,[7, 12, 6, 13, 2, 14, 11, 10, 3, 4, 5, 8, 9, 1]);
makespan = 317;
----------
assign = array1d(1..14 ,[1, 4, 2, 4, 1, 2, 2, 3, 3, 3, 1, 2, 3, 4]);
next = array1d(1..14 ,[11, 14, 7, 2, 1, 12, 6, 10, 13, 9, 3, 8, 4, 5]);
makespan = 316;
----------
assign = array1d(1..14 ,[4, 2, 3, 3, 1, 2, 2, 4, 1, 3, 1, 2, 3, 4]);
next = array1d(1..14 ,[14, 7, 10, 3, 11, 2, 12, 1, 5, 13, 6, 4, 8, 9]);
makespan = 309;
----------
assign = array1d(1..14 ,[4, 2, 3, 3, 1, 2, 2, 4, 1, 3, 1, 2, 3, 4]);
next = array1d(1..14 ,[14, 12, 10, 3, 11, 2, 6, 1, 5, 13, 7, 4, 8, 9]);
makespan = 304;
----------
assign = array1d(1..14 ,[4, 2, 3, 3, 1, 2, 2, 4, 1, 3, 1, 2, 3, 4]);
next = array1d(1..14 ,[14, 12, 10, 3, 11, 2, 6, 1, 5, 13, 7, 4, 8, 9]);
makespan = 304;
----------
==========
	Command being timed: "mzn-grb -a lbbd-datasets/Rabadi-2006/dzn-balanced/model.mzn lbbd-datasets/Rabadi-2006/dzn-balanced/10on4Rp50Rs50_5Ameer.dzn"
	User time (seconds): 466.18
	System time (seconds): 0.15
	Percent of CPU this job got: 99%
	Elapsed (wall clock) time (h:mm:ss or m:ss): 7:47.33
	Average shared text size (kbytes): 0
	Average unshared data size (kbytes): 0
	Average stack size (kbytes): 0
	Average total size (kbytes): 0
	Maximum resident set size (kbytes): 304816
	Average resident set size (kbytes): 0
	Major (requiring I/O) page faults: 0
	Minor (reclaiming a frame) page faults: 39494
	Voluntary context switches: 6
	Involuntary context switches: 778
	Swaps: 0
	File system inputs: 0
	File system outputs: 32
	Socket messages sent: 0
	Socket messages received: 0
	Signals delivered: 0
	Page size (bytes): 4096
	Exit status: 0
