+ /usr/bin/timeout 600 /usr/bin/time -v mzn-grb -a lbbd-datasets/sscplp/trucks-dzn/model.mzn lbbd-datasets/sscplp/trucks-dzn/p09-l40-c100-uncorrelated.dzn
source = [6, 2, 14, 5, 12, 13, 4, 7, 5, 13, 3, 12, 5, 4, 4, 5, 1, 1, 4, 7, 1, 2, 14, 4, 3, 1, 15, 6, 13, 2]
open = [true, true, true, true, true, true, true, false, false, false, false, true, true, true, true]
trucks_used = [3, 2, 1, 3, 2, 2, 1, 0, 0, 0, 0, 2, 2, 2, 1]
truck_assigned = [2, 2, 1, 1, 2, 1, 2, 1, 1, 1, 1, 1, 1, 1, 1, 2, 1, 3, 3, 1, 2, 1, 2, 3, 1, 1, 1, 1, 2, 2]
obj = 5032
----------
source = [7, 2, 14, 1, 1, 4, 4, 14, 5, 6, 3, 7, 5, 4, 4, 14, 2, 15, 4, 7, 1, 2, 14, 3, 3, 3, 15, 1, 2, 5]
open = [true, true, true, true, true, true, true, false, false, false, false, false, false, true, true]
trucks_used = [3, 3, 2, 3, 2, 1, 2, 0, 0, 0, 0, 0, 0, 3, 1]
truck_assigned = [1, 3, 1, 3, 3, 2, 1, 1, 2, 1, 1, 1, 1, 3, 2, 2, 2, 1, 2, 2, 2, 1, 3, 1, 2, 1, 1, 1, 1, 1]
obj = 4877
----------
source = [7, 2, 14, 1, 1, 13, 4, 14, 5, 13, 3, 7, 5, 4, 4, 14, 2, 15, 4, 7, 1, 2, 14, 3, 3, 3, 15, 1, 2, 5]
open = [true, true, true, true, true, false, true, false, false, false, false, false, true, true, true]
trucks_used = [3, 3, 2, 3, 2, 0, 2, 0, 0, 0, 0, 0, 1, 3, 1]
truck_assigned = [2, 3, 1, 3, 3, 1, 1, 1, 2, 1, 1, 1, 1, 3, 2, 2, 2, 1, 2, 2, 2, 1, 3, 1, 2, 1, 1, 1, 1, 1]
obj = 4753
----------
source = [7, 2, 14, 5, 1, 3, 4, 7, 5, 12, 3, 12, 5, 4, 4, 14, 1, 1, 4, 7, 1, 2, 14, 4, 3, 6, 3, 1, 5, 2]
open = [true, true, true, true, true, true, true, false, false, false, false, true, false, true, false]
trucks_used = [4, 2, 3, 3, 2, 1, 2, 0, 0, 0, 0, 2, 0, 3, 0]
truck_assigned = [2, 2, 2, 2, 1, 2, 2, 1, 2, 1, 3, 2, 1, 3, 1, 1, 1, 4, 1, 1, 2, 1, 3, 1, 1, 1, 3, 3, 1, 2]
obj = 4587
----------
source = [7, 2, 14, 5, 1, 3, 4, 14, 5, 12, 3, 12, 5, 4, 4, 14, 1, 1, 4, 7, 1, 2, 14, 4, 3, 3, 2, 1, 2, 12]
open = [true, true, true, true, true, false, true, false, false, false, false, true, false, true, false]
trucks_used = [4, 2, 2, 3, 1, 0, 1, 0, 0, 0, 0, 2, 0, 3, 0]
truck_assigned = [1, 2, 1, 1, 1, 2, 2, 1, 1, 1, 1, 2, 1, 3, 1, 2, 1, 4, 1, 1, 2, 1, 3, 1, 1, 2, 2, 3, 1, 1]
obj = 3913
----------
source = [7, 2, 14, 5, 1, 3, 7, 14, 5, 12, 3, 12, 5, 4, 4, 14, 1, 1, 4, 14, 1, 2, 4, 4, 3, 3, 2, 1, 2, 12]
open = [true, true, true, true, true, false, true, false, false, false, false, true, false, true, false]
trucks_used = [4, 2, 2, 3, 1, 0, 1, 0, 0, 0, 0, 2, 0, 2, 0]
truck_assigned = [1, 2, 1, 1, 3, 2, 1, 1, 1, 1, 1, 2, 1, 3, 1, 2, 1, 4, 1, 2, 1, 1, 2, 1, 1, 2, 2, 2, 1, 1]
obj = 3873
----------
source = [7, 2, 5, 1, 4, 3, 7, 14, 5, 12, 3, 12, 5, 4, 4, 14, 1, 1, 4, 14, 1, 2, 14, 4, 3, 3, 2, 1, 2, 12]
open = [true, true, true, true, true, false, true, false, false, false, false, true, false, true, false]
trucks_used = [3, 2, 2, 3, 2, 0, 1, 0, 0, 0, 0, 2, 0, 2, 0]
truck_assigned = [1, 2, 1, 1, 3, 2, 1, 1, 2, 1, 1, 2, 2, 2, 1, 2, 3, 1, 1, 2, 3, 1, 1, 1, 1, 2, 2, 2, 1, 1]
obj = 3796
----------
source = [7, 2, 5, 1, 4, 13, 7, 14, 5, 13, 14, 5, 5, 4, 4, 14, 1, 1, 4, 3, 1, 2, 14, 4, 3, 3, 2, 1, 2, 3]
open = [true, true, true, true, true, false, true, false, false, false, false, false, true, true, false]
trucks_used = [3, 2, 2, 3, 3, 0, 1, 0, 0, 0, 0, 0, 1, 2, 0]
truck_assigned = [1, 2, 1, 1, 3, 1, 1, 1, 3, 1, 2, 2, 3, 2, 1, 1, 3, 1, 2, 1, 3, 1, 2, 1, 1, 2, 2, 2, 1, 2]
obj = 3793
----------
