+ /usr/bin/timeout 600 /usr/bin/time -v mzn-grb -a lbbd-datasets/planningandscheduling/makespan-insts/model.mzn lbbd-datasets/planningandscheduling/makespan-insts/c20j4m1.dzn
obj = 34
----------
obj = 33
----------
obj = 27
----------
obj = 21
----------
obj = 20
----------
obj = 19
----------
obj = 18
----------
obj = 17
----------
