+ /usr/bin/timeout 600 /usr/bin/time -v mzn-grb -a lbbd-datasets/Rabadi-2006/dzn-s-dominant/model.mzn lbbd-datasets/Rabadi-2006/dzn-s-dominant/9on6Rp50Rs50_13Ameer.dzn
assign = array1d(1..15 ,[5, 1, 4, 3, 6, 4, 1, 2, 2, 1, 2, 3, 4, 5, 6]);
next = array1d(1..15 ,[14, 10, 6, 12, 15, 13, 2, 11, 8, 9, 4, 3, 1, 5, 7]);
makespan = 257;
----------
assign = array1d(1..15 ,[5, 1, 4, 3, 1, 2, 4, 6, 2, 1, 2, 3, 4, 5, 6]);
next = array1d(1..15 ,[14, 10, 7, 12, 2, 9, 13, 15, 11, 6, 4, 3, 1, 8, 5]);
makespan = 255;
----------
assign = array1d(1..15 ,[5, 3, 4, 3, 1, 4, 1, 2, 2, 1, 2, 3, 4, 5, 6]);
next = array1d(1..15 ,[14, 4, 13, 12, 7, 3, 10, 11, 8, 9, 2, 6, 1, 15, 5]);
makespan = 253;
----------
assign = array1d(1..15 ,[6, 1, 4, 5, 5, 4, 1, 2, 2, 1, 2, 3, 4, 5, 6]);
next = array1d(1..15 ,[15, 10, 13, 5, 14, 3, 2, 11, 8, 9, 12, 6, 4, 1, 7]);
makespan = 251;
----------
assign = array1d(1..15 ,[6, 1, 3, 5, 5, 4, 1, 2, 2, 1, 2, 3, 4, 5, 6]);
next = array1d(1..15 ,[15, 10, 12, 5, 14, 13, 2, 11, 8, 9, 3, 6, 4, 1, 7]);
makespan = 249;
----------
assign = array1d(1..15 ,[5, 1, 3, 4, 6, 4, 1, 2, 2, 1, 2, 3, 4, 5, 6]);
next = array1d(1..15 ,[14, 10, 12, 6, 15, 13, 2, 11, 8, 9, 3, 4, 1, 5, 7]);
makespan = 244;
----------
assign = array1d(1..15 ,[5, 1, 3, 4, 6, 4, 1, 2, 2, 1, 2, 3, 4, 5, 6]);
next = array1d(1..15 ,[14, 10, 12, 6, 15, 13, 2, 11, 8, 9, 3, 4, 1, 5, 7]);
makespan = 244;
----------
==========
	Command being timed: "mzn-grb -a lbbd-datasets/Rabadi-2006/dzn-s-dominant/model.mzn lbbd-datasets/Rabadi-2006/dzn-s-dominant/9on6Rp50Rs50_13Ameer.dzn"
	User time (seconds): 10.59
	System time (seconds): 0.06
	Percent of CPU this job got: 99%
	Elapsed (wall clock) time (h:mm:ss or m:ss): 0:10.68
	Average shared text size (kbytes): 0
	Average unshared data size (kbytes): 0
	Average stack size (kbytes): 0
	Average total size (kbytes): 0
	Maximum resident set size (kbytes): 191376
	Average resident set size (kbytes): 0
	Major (requiring I/O) page faults: 0
	Minor (reclaiming a frame) page faults: 18296
	Voluntary context switches: 6
	Involuntary context switches: 34
	Swaps: 0
	File system inputs: 0
	File system outputs: 8
	Socket messages sent: 0
	Socket messages received: 0
	Signals delivered: 0
	Page size (bytes): 4096
	Exit status: 0
