+ /usr/bin/timeout 600 /usr/bin/time -v mzn-grb -a lbbd-datasets/Rabadi-2006/dzn-balanced/model.mzn lbbd-datasets/Rabadi-2006/dzn-balanced/11on4Rp50Rs50_9Ameer.dzn
assign = array1d(1..15 ,[4, 3, 2, 4, 2, 3, 1, 1, 2, 1, 3, 1, 2, 3, 4]);
next = array1d(1..15 ,[15, 11, 9, 1, 3, 2, 12, 7, 13, 8, 14, 5, 6, 4, 10]);
makespan = 386;
----------
assign = array1d(1..15 ,[4, 2, 3, 4, 2, 3, 1, 1, 2, 1, 3, 1, 2, 3, 4]);
next = array1d(1..15 ,[4, 9, 14, 15, 2, 3, 8, 10, 13, 12, 6, 5, 11, 1, 7]);
makespan = 339;
----------
assign = array1d(1..15 ,[4, 2, 3, 3, 2, 3, 1, 1, 2, 1, 4, 1, 2, 3, 4]);
next = array1d(1..15 ,[15, 13, 14, 3, 9, 4, 12, 10, 2, 7, 1, 5, 6, 11, 8]);
makespan = 321;
----------
assign = array1d(1..15 ,[4, 2, 3, 1, 2, 3, 2, 1, 3, 1, 4, 1, 2, 3, 4]);
next = array1d(1..15 ,[11, 5, 9, 10, 13, 14, 2, 4, 6, 12, 15, 7, 3, 1, 8]);
makespan = 303;
----------
assign = array1d(1..15 ,[4, 2, 3, 1, 2, 3, 1, 4, 3, 1, 2, 1, 2, 3, 4]);
next = array1d(1..15 ,[8, 13, 9, 10, 11, 14, 4, 15, 6, 12, 2, 5, 3, 1, 7]);
makespan = 299;
----------
assign = array1d(1..15 ,[4, 2, 3, 1, 2, 3, 4, 1, 3, 1, 2, 1, 2, 3, 4]);
next = array1d(1..15 ,[15, 5, 9, 10, 13, 14, 1, 4, 6, 12, 2, 11, 3, 7, 8]);
makespan = 298;
----------
assign = array1d(1..15 ,[4, 2, 3, 1, 2, 3, 4, 1, 3, 1, 2, 1, 2, 3, 4]);
next = array1d(1..15 ,[15, 5, 9, 10, 11, 14, 1, 4, 6, 12, 13, 2, 3, 7, 8]);
makespan = 290;
----------
assign = array1d(1..15 ,[4, 2, 3, 3, 2, 1, 1, 4, 2, 1, 3, 1, 2, 3, 4]);
next = array1d(1..15 ,[8, 5, 14, 3, 9, 10, 6, 15, 13, 12, 4, 2, 11, 1, 7]);
makespan = 289;
----------
assign = array1d(1..15 ,[4, 2, 3, 3, 2, 1, 1, 4, 2, 1, 3, 1, 2, 3, 4]);
next = array1d(1..15 ,[8, 5, 14, 3, 9, 10, 6, 15, 13, 12, 4, 2, 11, 1, 7]);
makespan = 289;
----------
==========
	Command being timed: "mzn-grb -a lbbd-datasets/Rabadi-2006/dzn-balanced/model.mzn lbbd-datasets/Rabadi-2006/dzn-balanced/11on4Rp50Rs50_9Ameer.dzn"
	User time (seconds): 130.38
	System time (seconds): 0.12
	Percent of CPU this job got: 99%
	Elapsed (wall clock) time (h:mm:ss or m:ss): 2:10.74
	Average shared text size (kbytes): 0
	Average unshared data size (kbytes): 0
	Average stack size (kbytes): 0
	Average total size (kbytes): 0
	Maximum resident set size (kbytes): 270416
	Average resident set size (kbytes): 0
	Major (requiring I/O) page faults: 0
	Minor (reclaiming a frame) page faults: 33246
	Voluntary context switches: 6
	Involuntary context switches: 231
	Swaps: 0
	File system inputs: 0
	File system outputs: 40
	Socket messages sent: 0
	Socket messages received: 0
	Signals delivered: 0
	Page size (bytes): 4096
	Exit status: 0
