+ /usr/bin/timeout 600 /usr/bin/time -v mzn-grb -a lbbd-datasets/Rabadi-2006/dzn-balanced/model.mzn lbbd-datasets/Rabadi-2006/dzn-balanced/8on6Rp50Rs50_14Ameer.dzn
assign = array1d(1..14 ,[5, 1, 4, 1, 6, 2, 3, 4, 1, 2, 3, 4, 5, 6]);
next = array1d(1..14 ,[13, 4, 8, 9, 14, 10, 11, 12, 6, 7, 3, 1, 5, 2]);
makespan = 183;
----------
assign = array1d(1..14 ,[5, 1, 4, 1, 6, 2, 3, 4, 1, 2, 3, 4, 5, 6]);
next = array1d(1..14 ,[13, 4, 8, 9, 14, 10, 11, 12, 6, 7, 3, 1, 5, 2]);
makespan = 183;
----------
==========
	Command being timed: "mzn-grb -a lbbd-datasets/Rabadi-2006/dzn-balanced/model.mzn lbbd-datasets/Rabadi-2006/dzn-balanced/8on6Rp50Rs50_14Ameer.dzn"
	User time (seconds): 6.92
	System time (seconds): 0.05
	Percent of CPU this job got: 99%
	Elapsed (wall clock) time (h:mm:ss or m:ss): 0:06.99
	Average shared text size (kbytes): 0
	Average unshared data size (kbytes): 0
	Average stack size (kbytes): 0
	Average total size (kbytes): 0
	Maximum resident set size (kbytes): 166160
	Average resident set size (kbytes): 0
	Major (requiring I/O) page faults: 0
	Minor (reclaiming a frame) page faults: 15502
	Voluntary context switches: 6
	Involuntary context switches: 15
	Swaps: 0
	File system inputs: 0
	File system outputs: 8
	Socket messages sent: 0
	Socket messages received: 0
	Signals delivered: 0
	Page size (bytes): 4096
	Exit status: 0
