+ /usr/bin/timeout 600 /usr/bin/time -v mzn-grb -a lbbd-datasets/planningandscheduling/cost-insts/model.mzn lbbd-datasets/planningandscheduling/cost-insts/de26j3m2.dzn
obj = 788
----------
obj = 767
----------
obj = 765
----------
obj = 747
----------
obj = 733
----------
obj = 727
----------
obj = 703
----------
obj = 675
----------
obj = 656
----------
