+ /usr/bin/timeout 600 /usr/bin/time -v mzn-lbbd lbbd-datasets/Rabadi-2006/dzn-s-dominant/model.mzn lbbd-datasets/Rabadi-2006/dzn-s-dominant/8on2Rp50Rs50_3Ameer.dzn
% No search annotation given. Defaulting to VSIDS!
% [makespan>246]
Found 79 new models
assign = array1d(1..10 ,[2, 1, 2, 1, 2, 2, 1, 1, 1, 2]);
next = array1d(1..10 ,[6, 7, 5, 9, 10, 3, 8, 4, 1, 2]);
makespan = 671;
----------
Found 7 new models
assign = array1d(1..10 ,[2, 1, 2, 1, 2, 2, 1, 1, 1, 2]);
next = array1d(1..10 ,[6, 7, 5, 2, 10, 3, 9, 4, 1, 8]);
makespan = 654;
----------
% [makespan>328]
% [makespan>332]
% [makespan>355]
% [makespan>367]
==========
	Command being timed: "mzn-lbbd lbbd-datasets/Rabadi-2006/dzn-s-dominant/model.mzn lbbd-datasets/Rabadi-2006/dzn-s-dominant/8on2Rp50Rs50_3Ameer.dzn"
	User time (seconds): 24.68
	System time (seconds): 0.03
	Percent of CPU this job got: 99%
	Elapsed (wall clock) time (h:mm:ss or m:ss): 0:24.76
	Average shared text size (kbytes): 0
	Average unshared data size (kbytes): 0
	Average stack size (kbytes): 0
	Average total size (kbytes): 0
	Maximum resident set size (kbytes): 93744
	Average resident set size (kbytes): 0
	Major (requiring I/O) page faults: 0
	Minor (reclaiming a frame) page faults: 6767
	Voluntary context switches: 3
	Involuntary context switches: 42
	Swaps: 0
	File system inputs: 0
	File system outputs: 144
	Socket messages sent: 0
	Socket messages received: 0
	Signals delivered: 0
	Page size (bytes): 4096
	Exit status: 0
