+ /usr/bin/timeout 600 /usr/bin/time -v mzn-lbbd lbbd-datasets/Rabadi-2006/dzn-s-dominant/model.mzn lbbd-datasets/Rabadi-2006/dzn-s-dominant/11on6Rp50Rs50_10Ameer.dzn
% No search annotation given. Defaulting to VSIDS!
% [makespan>120]
Found 29 new models
assign = array1d(1..17 ,[2, 2, 2, 2, 2, 2, 1, 4, 2, 1, 6, 1, 2, 3, 4, 5, 6]);
next = array1d(1..17 ,[2, 3, 5, 6, 4, 9, 12, 15, 13, 7, 17, 1, 14, 8, 16, 11, 10]);
makespan = 1385;
----------
Found 2 new models
assign = array1d(1..17 ,[6, 6, 2, 2, 2, 2, 1, 2, 2, 1, 2, 1, 2, 3, 4, 5, 6]);
next = array1d(1..17 ,[17, 1, 5, 11, 4, 9, 12, 13, 3, 7, 8, 6, 14, 15, 16, 2, 10]);
makespan = 1383;
----------
Found 70 new models
assign = array1d(1..17 ,[2, 2, 6, 6, 2, 1, 2, 2, 2, 4, 5, 1, 2, 3, 4, 5, 6]);
next = array1d(1..17 ,[13, 5, 4, 17, 1, 12, 8, 2, 7, 15, 16, 9, 14, 10, 11, 3, 6]);
makespan = 1277;
----------
Found 293 new models
assign = array1d(1..17 ,[6, 1, 4, 5, 6, 1, 2, 3, 3, 4, 2, 1, 2, 3, 4, 5, 6]);
next = array1d(1..17 ,[5, 6, 10, 16, 17, 12, 13, 14, 8, 15, 7, 11, 9, 3, 4, 1, 2]);
makespan = 268;
----------
Found 2 new models
assign = array1d(1..17 ,[4, 1, 6, 5, 5, 1, 2, 3, 3, 4, 2, 1, 2, 3, 4, 5, 6]);
next = array1d(1..17 ,[15, 12, 17, 16, 4, 2, 13, 14, 8, 1, 7, 11, 9, 10, 5, 3, 6]);
makespan = 265;
----------
% [makespan>121]
Found 2 new models
assign = array1d(1..17 ,[3, 1, 6, 5, 4, 1, 2, 3, 5, 4, 2, 1, 2, 3, 4, 5, 6]);
next = array1d(1..17 ,[8, 12, 17, 16, 10, 2, 13, 14, 4, 15, 7, 11, 1, 5, 9, 3, 6]);
makespan = 262;
----------
% [makespan>121]
% [makespan>123]
Found 3 new models
assign = array1d(1..17 ,[3, 6, 4, 5, 1, 1, 2, 3, 5, 6, 4, 1, 2, 3, 4, 5, 6]);
next = array1d(1..17 ,[8, 10, 11, 16, 12, 5, 13, 14, 4, 17, 15, 7, 1, 3, 9, 2, 6]);
makespan = 259;
----------
% [makespan>127]
Found 1 new models
assign = array1d(1..17 ,[2, 3, 5, 6, 3, 6, 2, 4, 5, 1, 4, 1, 2, 3, 4, 5, 6]);
next = array1d(1..17 ,[13, 14, 9, 17, 2, 4, 1, 11, 16, 12, 15, 7, 5, 8, 3, 6, 10]);
makespan = 258;
----------
% [makespan>128]
Found 1 new models
assign = array1d(1..17 ,[2, 3, 5, 6, 4, 6, 2, 1, 5, 4, 3, 1, 2, 3, 4, 5, 6]);
next = array1d(1..17 ,[13, 11, 9, 17, 10, 4, 1, 12, 16, 15, 14, 7, 2, 5, 3, 6, 8]);
makespan = 257;
----------
% [makespan>131]
==========
	Command being timed: "mzn-lbbd lbbd-datasets/Rabadi-2006/dzn-s-dominant/model.mzn lbbd-datasets/Rabadi-2006/dzn-s-dominant/11on6Rp50Rs50_10Ameer.dzn"
	User time (seconds): 38.84
	System time (seconds): 0.03
	Percent of CPU this job got: 99%
	Elapsed (wall clock) time (h:mm:ss or m:ss): 0:38.94
	Average shared text size (kbytes): 0
	Average unshared data size (kbytes): 0
	Average stack size (kbytes): 0
	Average total size (kbytes): 0
	Maximum resident set size (kbytes): 126848
	Average resident set size (kbytes): 0
	Major (requiring I/O) page faults: 0
	Minor (reclaiming a frame) page faults: 9434
	Voluntary context switches: 8
	Involuntary context switches: 45
	Swaps: 0
	File system inputs: 0
	File system outputs: 672
	Socket messages sent: 0
	Socket messages received: 0
	Signals delivered: 0
	Page size (bytes): 4096
	Exit status: 0
