+ /usr/bin/timeout 600 /usr/bin/time -v mzn-lbbd lbbd-datasets/Rabadi-2006/dzn-p-dominant/model.mzn lbbd-datasets/Rabadi-2006/dzn-p-dominant/8on4Rp50Rs50_1Ameer.dzn
% No search annotation given. Defaulting to VSIDS!
% [makespan>278]
Found 16 new models
assign = array1d(1..12 ,[4, 1, 3, 4, 3, 3, 4, 3, 1, 2, 3, 4]);
next = array1d(1..12 ,[4, 9, 8, 7, 3, 11, 12, 6, 10, 5, 1, 2]);
makespan = 827;
----------
Found 100 new models
assign = array1d(1..12 ,[3, 4, 3, 4, 2, 2, 1, 1, 1, 2, 3, 4]);
next = array1d(1..12 ,[11, 4, 1, 12, 10, 5, 9, 7, 6, 3, 2, 8]);
makespan = 340;
----------
% [makespan>279]
==========
	Command being timed: "mzn-lbbd lbbd-datasets/Rabadi-2006/dzn-p-dominant/model.mzn lbbd-datasets/Rabadi-2006/dzn-p-dominant/8on4Rp50Rs50_1Ameer.dzn"
	User time (seconds): 3.07
	System time (seconds): 0.01
	Percent of CPU this job got: 99%
	Elapsed (wall clock) time (h:mm:ss or m:ss): 0:03.10
	Average shared text size (kbytes): 0
	Average unshared data size (kbytes): 0
	Average stack size (kbytes): 0
	Average total size (kbytes): 0
	Maximum resident set size (kbytes): 64960
	Average resident set size (kbytes): 0
	Major (requiring I/O) page faults: 0
	Minor (reclaiming a frame) page faults: 4761
	Voluntary context switches: 6
	Involuntary context switches: 7
	Swaps: 0
	File system inputs: 0
	File system outputs: 256
	Socket messages sent: 0
	Socket messages received: 0
	Signals delivered: 0
	Page size (bytes): 4096
	Exit status: 0
