+ /usr/bin/timeout 600 /usr/bin/time -v mzn-lbbd lbbd-datasets/Rabadi-2006/dzn-s-dominant/model.mzn lbbd-datasets/Rabadi-2006/dzn-s-dominant/8on6Rp50Rs50_15Ameer.dzn
% No search annotation given. Defaulting to VSIDS!
% [makespan>110]
Found 132 new models
assign = array1d(1..14 ,[2, 1, 1, 6, 4, 5, 5, 3, 1, 2, 3, 4, 5, 6]);
next = array1d(1..14 ,[10, 3, 9, 14, 12, 13, 6, 11, 1, 8, 5, 7, 4, 2]);
makespan = 266;
----------
Found 4 new models
assign = array1d(1..14 ,[2, 6, 1, 6, 3, 5, 4, 1, 1, 2, 3, 4, 5, 6]);
next = array1d(1..14 ,[10, 14, 9, 2, 11, 13, 12, 3, 1, 5, 7, 6, 4, 8]);
makespan = 246;
----------
% [makespan>110]
==========
	Command being timed: "mzn-lbbd lbbd-datasets/Rabadi-2006/dzn-s-dominant/model.mzn lbbd-datasets/Rabadi-2006/dzn-s-dominant/8on6Rp50Rs50_15Ameer.dzn"
	User time (seconds): 5.76
	System time (seconds): 0.01
	Percent of CPU this job got: 99%
	Elapsed (wall clock) time (h:mm:ss or m:ss): 0:05.79
	Average shared text size (kbytes): 0
	Average unshared data size (kbytes): 0
	Average stack size (kbytes): 0
	Average total size (kbytes): 0
	Maximum resident set size (kbytes): 80896
	Average resident set size (kbytes): 0
	Major (requiring I/O) page faults: 0
	Minor (reclaiming a frame) page faults: 5757
	Voluntary context switches: 3
	Involuntary context switches: 12
	Swaps: 0
	File system inputs: 0
	File system outputs: 368
	Socket messages sent: 0
	Socket messages received: 0
	Signals delivered: 0
	Page size (bytes): 4096
	Exit status: 0
