+ /usr/bin/timeout 600 /usr/bin/time -v mzn-lbbd lbbd-datasets/planningandscheduling/makespan-insts/model.mzn lbbd-datasets/planningandscheduling/makespan-insts/c30j2m2.dzn
% No search annotation given. Defaulting to VSIDS!
% [makespan>38]
Found 2 new models
obj = 74
----------
Found 25 new models
obj = 49
----------
Found 3 new models
obj = 46
----------
% [makespan>38]
Found 1 new models
obj = 45
----------
Found 1 new models
obj = 44
----------
% [makespan>38]
% [makespan>38]
Found 1 new models
obj = 43
----------
% [makespan>39]
% [makespan>39]
% [makespan>39]
Found 1 new models
obj = 42
----------
% [makespan>39]
% [makespan>39]
% [makespan>39]
% [makespan>39]
% [makespan>39]
% [makespan>39]
% [makespan>39]
% [makespan>39]
% [makespan>39]
% [makespan>39]
% [makespan>39]
% [makespan>39]
% [makespan>39]
% [makespan>39]
% [makespan>39]
% [makespan>39]
% [makespan>39]
% [makespan>39]
% [makespan>39]
