+ /usr/bin/timeout 600 /usr/bin/time -v mzn-lbbd lbbd-datasets/Rabadi-2006/dzn-p-dominant/model.mzn lbbd-datasets/Rabadi-2006/dzn-p-dominant/8on6Rp50Rs50_6Ameer.dzn
% No search annotation given. Defaulting to VSIDS!
% [makespan>258]
Found 64 new models
assign = array1d(1..14 ,[2, 5, 6, 3, 6, 4, 4, 1, 1, 2, 3, 4, 5, 6]);
next = array1d(1..14 ,[10, 13, 5, 11, 14, 7, 12, 9, 1, 4, 6, 2, 3, 8]);
makespan = 333;
----------
Found 4 new models
assign = array1d(1..14 ,[2, 6, 4, 3, 3, 6, 5, 1, 1, 2, 3, 4, 5, 6]);
next = array1d(1..14 ,[10, 14, 12, 11, 4, 2, 13, 9, 1, 5, 3, 7, 6, 8]);
makespan = 327;
----------
Found 3 new models
assign = array1d(1..14 ,[1, 6, 1, 4, 3, 6, 5, 2, 1, 2, 3, 4, 5, 6]);
next = array1d(1..14 ,[9, 14, 1, 12, 11, 2, 13, 10, 8, 5, 4, 7, 6, 3]);
makespan = 316;
----------
% [makespan>260]
==========
	Command being timed: "mzn-lbbd lbbd-datasets/Rabadi-2006/dzn-p-dominant/model.mzn lbbd-datasets/Rabadi-2006/dzn-p-dominant/8on6Rp50Rs50_6Ameer.dzn"
	User time (seconds): 5.45
	System time (seconds): 0.01
	Percent of CPU this job got: 99%
	Elapsed (wall clock) time (h:mm:ss or m:ss): 0:05.48
	Average shared text size (kbytes): 0
	Average unshared data size (kbytes): 0
	Average stack size (kbytes): 0
	Average total size (kbytes): 0
	Maximum resident set size (kbytes): 78864
	Average resident set size (kbytes): 0
	Major (requiring I/O) page faults: 0
	Minor (reclaiming a frame) page faults: 5621
	Voluntary context switches: 6
	Involuntary context switches: 15
	Swaps: 0
	File system inputs: 0
	File system outputs: 368
	Socket messages sent: 0
	Socket messages received: 0
	Signals delivered: 0
	Page size (bytes): 4096
	Exit status: 0
