+ /usr/bin/timeout 600 /usr/bin/time -v mzn-lbbd lbbd-datasets/planningandscheduling/makespan-insts/model.mzn lbbd-datasets/planningandscheduling/makespan-insts/c32j3m3.dzn
% No search annotation given. Defaulting to VSIDS!
% [makespan>28]
Found 1 new models
obj = 71
----------
% [makespan>28]
Found 24 new models
obj = 47
----------
Found 9 new models
obj = 38
----------
Found 1 new models
obj = 37
----------
Found 1 new models
obj = 36
----------
% [makespan>28]
Found 1 new models
obj = 35
----------
Found 1 new models
obj = 34
----------
% [makespan>28]
Found 1 new models
obj = 33
----------
% [makespan>28]
% [makespan>28]
Found 1 new models
obj = 32
----------
% [makespan>28]
% [makespan>28]
% [makespan>28]
% [makespan>29]
% [makespan>29]
% [makespan>29]
% [makespan>29]
% [makespan>29]
% [makespan>30]
% [makespan>30]
==========
	Command being timed: "mzn-lbbd lbbd-datasets/planningandscheduling/makespan-insts/model.mzn lbbd-datasets/planningandscheduling/makespan-insts/c32j3m3.dzn"
	User time (seconds): 146.71
	System time (seconds): 0.03
	Percent of CPU this job got: 99%
	Elapsed (wall clock) time (h:mm:ss or m:ss): 2:27.01
	Average shared text size (kbytes): 0
	Average unshared data size (kbytes): 0
	Average stack size (kbytes): 0
	Average total size (kbytes): 0
	Maximum resident set size (kbytes): 148208
	Average resident set size (kbytes): 0
	Major (requiring I/O) page faults: 0
	Minor (reclaiming a frame) page faults: 10896
	Voluntary context switches: 7
	Involuntary context switches: 250
	Swaps: 0
	File system inputs: 0
	File system outputs: 224
	Socket messages sent: 0
	Socket messages received: 0
	Signals delivered: 0
	Page size (bytes): 4096
	Exit status: 0
