+ /usr/bin/timeout 600 /usr/bin/time -v mzn-lbbd lbbd-datasets/sscplp/trucks-dzn/model.mzn lbbd-datasets/sscplp/trucks-dzn/p20-l100-c150-uncorrelated.dzn
% No search annotation given. Defaulting to VSIDS!
% [obj>17032]
Found 1 new models
source = [13, 13, 17, 17, 7, 2, 7, 13, 1, 16, 1, 6, 1, 13, 2, 16, 10, 7, 15, 10, 10, 20, 17, 20, 10, 20, 1, 16, 2, 15, 16, 6, 10, 16, 20, 20, 16, 2, 20, 7]
open = [1, 1, 0, 0, 0, 1, 1, 0, 0, 1, 0, 0, 1, 0, 1, 1, 1, 0, 0, 1]
trucks_used = [1, 1, 0, 0, 0, 1, 1, 0, 0, 1, 0, 0, 1, 0, 1, 1, 1, 0, 0, 1]
truck_assigned = [1, 1, 1, 1, 1, 1, 1, 1, 1, 1, 1, 1, 1, 1, 1, 1, 1, 1, 1, 1, 1, 1, 1, 1, 1, 1, 1, 1, 1, 1, 1, 1, 1, 1, 1, 1, 1, 1, 1, 1]
obj = 17034
----------
