+ /usr/bin/timeout 600 /usr/bin/time -v mzn-lbbd lbbd-datasets/planningandscheduling/makespan-insts/model.mzn lbbd-datasets/planningandscheduling/makespan-insts/c36j2m5.dzn
% No search annotation given. Defaulting to VSIDS!
% [makespan>45]
% [makespan>45]
% [makespan>45]
% [makespan>45]
Found 19 new models
obj = 72
----------
Found 8 new models
obj = 64
----------
% [makespan>45]
Found 6 new models
obj = 58
----------
Found 2 new models
obj = 56
----------
Found 2 new models
obj = 54
----------
Found 2 new models
obj = 52
----------
% [makespan>45]
Found 2 new models
obj = 50
----------
Found 1 new models
obj = 49
----------
% [makespan>45]
% [makespan>45]
% [makespan>45]
% [makespan>45]
Found 1 new models
obj = 48
----------
% [makespan>45]
% [makespan>45]
% [makespan>45]
% [makespan>45]
% [makespan>45]
% [makespan>45]
% [makespan>45]
% [makespan>45]
% [makespan>45]
% [makespan>45]
% [makespan>45]
% [makespan>45]
% [makespan>45]
% [makespan>45]
% [makespan>45]
