+ /usr/bin/timeout 600 /usr/bin/time -v mzn-lbbd lbbd-datasets/Rabadi-2006/dzn-s-dominant/model.mzn lbbd-datasets/Rabadi-2006/dzn-s-dominant/9on2Rp50Rs50_10Ameer.dzn
% No search annotation given. Defaulting to VSIDS!
% [makespan>294]
Found 43 new models
assign = array1d(1..11 ,[2, 1, 2, 1, 2, 1, 1, 1, 1, 1, 2]);
next = array1d(1..11 ,[3, 6, 11, 2, 1, 10, 4, 9, 7, 5, 8]);
makespan = 1129;
----------
Found 49 new models
assign = array1d(1..11 ,[2, 2, 1, 2, 2, 1, 2, 1, 1, 1, 2]);
next = array1d(1..11 ,[2, 11, 6, 7, 4, 10, 1, 9, 3, 5, 8]);
makespan = 888;
----------
Found 3 new models
assign = array1d(1..11 ,[2, 2, 1, 2, 2, 1, 2, 1, 1, 1, 2]);
next = array1d(1..11 ,[5, 4, 6, 7, 11, 10, 1, 9, 3, 2, 8]);
makespan = 869;
----------
Found 19 new models
assign = array1d(1..11 ,[1, 1, 1, 2, 1, 1, 2, 2, 2, 1, 2]);
next = array1d(1..11 ,[6, 3, 10, 7, 2, 5, 9, 11, 8, 4, 1]);
makespan = 846;
----------
Found 12 new models
assign = array1d(1..11 ,[2, 1, 1, 2, 1, 1, 2, 2, 1, 1, 2]);
next = array1d(1..11 ,[8, 3, 6, 7, 2, 9, 11, 4, 10, 1, 5]);
makespan = 827;
----------
Found 5 new models
assign = array1d(1..11 ,[2, 1, 1, 2, 1, 1, 2, 2, 1, 1, 2]);
next = array1d(1..11 ,[4, 3, 9, 11, 2, 5, 8, 1, 10, 7, 6]);
makespan = 818;
----------
% [makespan>358]
% [makespan>364]
% [makespan>372]
% [makespan>373]
% [makespan>437]
% [makespan>438]
% [makespan>438]
% [makespan>438]
% [makespan>440]
% [makespan>441]
% [makespan>445]
% [makespan>445]
% [makespan>447]
