+ /usr/bin/timeout 600 /usr/bin/time -v mzn-lbbd lbbd-datasets/Rabadi-2006/dzn-balanced/model.mzn lbbd-datasets/Rabadi-2006/dzn-balanced/9on4Rp50Rs50_1Ameer.dzn
% No search annotation given. Defaulting to VSIDS!
% [makespan>176]
Found 66 new models
assign = array1d(1..13 ,[3, 2, 1, 1, 4, 1, 4, 3, 2, 1, 2, 3, 4]);
next = array1d(1..13 ,[12, 11, 6, 10, 7, 4, 13, 1, 2, 9, 8, 5, 3]);
makespan = 333;
----------
Found 12 new models
assign = array1d(1..13 ,[1, 3, 2, 2, 1, 3, 4, 4, 2, 1, 2, 3, 4]);
next = array1d(1..13 ,[5, 6, 4, 9, 10, 12, 8, 13, 11, 3, 2, 7, 1]);
makespan = 304;
----------
% [makespan>176]
Found 11 new models
assign = array1d(1..13 ,[4, 1, 3, 2, 3, 3, 4, 1, 2, 1, 2, 3, 4]);
next = array1d(1..13 ,[13, 8, 5, 9, 6, 12, 1, 10, 11, 4, 3, 7, 2]);
makespan = 293;
----------
Found 4 new models
assign = array1d(1..13 ,[4, 2, 3, 3, 3, 2, 4, 1, 1, 1, 2, 3, 4]);
next = array1d(1..13 ,[13, 11, 5, 3, 12, 2, 1, 9, 10, 6, 4, 7, 8]);
makespan = 289;
----------
% [makespan>176]
% [makespan>179]
% [makespan>180]
% [makespan>181]
% [makespan>181]
% [makespan>183]
% [makespan>183]
% [makespan>183]
% [makespan>184]
% [makespan>184]
% [makespan>185]
% [makespan>185]
% [makespan>185]
% [makespan>187]
% [makespan>187]
% [makespan>187]
