+ /usr/bin/timeout 600 /usr/bin/time -v mzn-lbbd lbbd-datasets/Rabadi-2006/dzn-s-dominant/model.mzn lbbd-datasets/Rabadi-2006/dzn-s-dominant/10on6Rp50Rs50_10Ameer.dzn
% No search annotation given. Defaulting to VSIDS!
% [makespan>110]
Found 25 new models
assign = array1d(1..16 ,[5, 5, 5, 5, 6, 2, 6, 5, 5, 5, 1, 2, 3, 4, 5, 6]);
next = array1d(1..16 ,[3, 1, 9, 2, 16, 12, 5, 10, 15, 4, 6, 13, 14, 8, 7, 11]);
makespan = 1408;
----------
Found 106 new models
assign = array1d(1..16 ,[6, 2, 5, 5, 2, 2, 2, 5, 5, 5, 1, 2, 3, 4, 5, 6]);
next = array1d(1..16 ,[16, 7, 9, 3, 2, 12, 6, 10, 8, 15, 5, 13, 14, 4, 1, 11]);
makespan = 1006;
----------
Found 15 new models
assign = array1d(1..16 ,[5, 1, 5, 6, 4, 1, 5, 5, 5, 6, 1, 2, 3, 4, 5, 6]);
next = array1d(1..16 ,[7, 6, 9, 10, 14, 11, 3, 1, 15, 16, 12, 13, 5, 8, 4, 2]);
makespan = 949;
----------
Found 24 new models
assign = array1d(1..16 ,[5, 5, 5, 6, 4, 1, 5, 5, 6, 6, 1, 2, 3, 4, 5, 6]);
next = array1d(1..16 ,[7, 8, 15, 10, 14, 11, 3, 1, 16, 9, 12, 13, 5, 2, 4, 6]);
makespan = 911;
----------
Found 151 new models
assign = array1d(1..16 ,[5, 5, 1, 1, 6, 4, 2, 1, 3, 6, 1, 2, 3, 4, 5, 6]);
next = array1d(1..16 ,[15, 1, 4, 11, 16, 14, 12, 3, 13, 5, 7, 9, 6, 2, 10, 8]);
makespan = 456;
----------
Found 68 new models
assign = array1d(1..16 ,[2, 2, 3, 1, 4, 5, 4, 3, 1, 6, 1, 2, 3, 4, 5, 6]);
next = array1d(1..16 ,[12, 1, 8, 11, 7, 15, 14, 13, 4, 16, 2, 3, 5, 6, 10, 9]);
makespan = 267;
----------
Found 4 new models
assign = array1d(1..16 ,[5, 4, 2, 1, 6, 4, 2, 3, 1, 3, 1, 2, 3, 4, 5, 6]);
next = array1d(1..16 ,[15, 14, 12, 11, 16, 2, 3, 10, 4, 13, 7, 8, 6, 1, 5, 9]);
makespan = 259;
----------
Found 2 new models
assign = array1d(1..16 ,[2, 4, 2, 5, 3, 4, 5, 6, 1, 3, 1, 2, 3, 4, 5, 6]);
next = array1d(1..16 ,[3, 14, 12, 15, 13, 2, 4, 16, 11, 5, 1, 10, 6, 7, 8, 9]);
makespan = 256;
----------
% [makespan>112]
Found 3 new models
assign = array1d(1..16 ,[2, 4, 2, 1, 1, 4, 5, 6, 3, 3, 1, 2, 3, 4, 5, 6]);
next = array1d(1..16 ,[3, 14, 12, 11, 4, 2, 15, 16, 13, 9, 1, 10, 6, 7, 8, 5]);
makespan = 253;
----------
Found 2 new models
assign = array1d(1..16 ,[2, 4, 3, 5, 1, 4, 2, 1, 3, 6, 1, 2, 3, 4, 5, 6]);
next = array1d(1..16 ,[7, 14, 9, 15, 11, 2, 12, 5, 13, 16, 1, 3, 6, 4, 10, 8]);
makespan = 250;
----------
Found 1 new models
assign = array1d(1..16 ,[5, 4, 3, 2, 1, 4, 2, 1, 3, 6, 1, 2, 3, 4, 5, 6]);
next = array1d(1..16 ,[15, 14, 9, 7, 11, 2, 12, 5, 13, 16, 4, 3, 6, 1, 10, 8]);
makespan = 249;
----------
Found 6 new models
assign = array1d(1..16 ,[5, 4, 3, 2, 1, 4, 2, 1, 3, 6, 1, 2, 3, 4, 5, 6]);
next = array1d(1..16 ,[15, 14, 9, 12, 11, 2, 4, 5, 13, 16, 7, 3, 6, 1, 10, 8]);
makespan = 243;
----------
% [makespan>112]
% [makespan>113]
% [makespan>114]
==========
	Command being timed: "mzn-lbbd lbbd-datasets/Rabadi-2006/dzn-s-dominant/model.mzn lbbd-datasets/Rabadi-2006/dzn-s-dominant/10on6Rp50Rs50_10Ameer.dzn"
	User time (seconds): 27.49
	System time (seconds): 0.02
	Percent of CPU this job got: 99%
	Elapsed (wall clock) time (h:mm:ss or m:ss): 0:27.57
	Average shared text size (kbytes): 0
	Average unshared data size (kbytes): 0
	Average stack size (kbytes): 0
	Average total size (kbytes): 0
	Maximum resident set size (kbytes): 119280
	Average resident set size (kbytes): 0
	Major (requiring I/O) page faults: 0
	Minor (reclaiming a frame) page faults: 8860
	Voluntary context switches: 5
	Involuntary context switches: 34
	Swaps: 0
	File system inputs: 0
	File system outputs: 552
	Socket messages sent: 0
	Socket messages received: 0
	Signals delivered: 0
	Page size (bytes): 4096
	Exit status: 0
