+ /usr/bin/timeout 600 /usr/bin/time -v mzn-lbbd lbbd-datasets/Rabadi-2006/dzn-p-dominant/model.mzn lbbd-datasets/Rabadi-2006/dzn-p-dominant/9on4Rp50Rs50_10Ameer.dzn
% No search annotation given. Defaulting to VSIDS!
% [makespan>393]
Found 63 new models
assign = array1d(1..13 ,[3, 1, 2, 4, 2, 1, 4, 3, 2, 1, 2, 3, 4]);
next = array1d(1..13 ,[8, 6, 5, 13, 11, 10, 4, 12, 3, 9, 1, 7, 2]);
makespan = 539;
----------
Found 4 new models
assign = array1d(1..13 ,[4, 1, 2, 3, 2, 1, 4, 3, 3, 1, 2, 3, 4]);
next = array1d(1..13 ,[13, 6, 5, 9, 11, 10, 1, 4, 12, 3, 8, 7, 2]);
makespan = 533;
----------
Found 1 new models
assign = array1d(1..13 ,[3, 1, 2, 3, 2, 1, 4, 4, 4, 1, 2, 3, 4]);
next = array1d(1..13 ,[4, 6, 5, 12, 11, 10, 13, 9, 7, 3, 1, 8, 2]);
makespan = 532;
----------
Found 14 new models
assign = array1d(1..13 ,[2, 1, 2, 4, 2, 1, 4, 3, 3, 1, 2, 3, 4]);
next = array1d(1..13 ,[3, 6, 11, 13, 1, 10, 4, 9, 12, 5, 8, 7, 2]);
makespan = 515;
----------
Found 2 new models
assign = array1d(1..13 ,[1, 1, 2, 1, 2, 4, 4, 3, 3, 1, 2, 3, 4]);
next = array1d(1..13 ,[10, 1, 11, 2, 3, 7, 13, 9, 12, 5, 8, 6, 4]);
makespan = 513;
----------
% [makespan>401]
% [makespan>401]
% [makespan>401]
% [makespan>401]
% [makespan>401]
% [makespan>403]
% [makespan>404]
% [makespan>404]
% [makespan>404]
% [makespan>404]
% [makespan>404]
% [makespan>404]
% [makespan>408]
% [makespan>408]
% [makespan>408]
% [makespan>408]
% [makespan>410]
% [makespan>411]
==========
	Command being timed: "mzn-lbbd lbbd-datasets/Rabadi-2006/dzn-p-dominant/model.mzn lbbd-datasets/Rabadi-2006/dzn-p-dominant/9on4Rp50Rs50_10Ameer.dzn"
	User time (seconds): 526.19
	System time (seconds): 0.08
	Percent of CPU this job got: 99%
	Elapsed (wall clock) time (h:mm:ss or m:ss): 8:47.31
	Average shared text size (kbytes): 0
	Average unshared data size (kbytes): 0
	Average stack size (kbytes): 0
	Average total size (kbytes): 0
	Maximum resident set size (kbytes): 252608
	Average resident set size (kbytes): 0
	Major (requiring I/O) page faults: 0
	Minor (reclaiming a frame) page faults: 19203
	Voluntary context switches: 5
	Involuntary context switches: 646
	Swaps: 0
	File system inputs: 0
	File system outputs: 440
	Socket messages sent: 0
	Socket messages received: 0
	Signals delivered: 0
	Page size (bytes): 4096
	Exit status: 0
