+ /usr/bin/timeout 600 /usr/bin/time -v mzn-lbbd lbbd-datasets/sscplp/trucks-dzn/model.mzn lbbd-datasets/sscplp/trucks-dzn/p04-l50-c150-uncorrelated.dzn
% No search annotation given. Defaulting to VSIDS!
% [obj>6177]
Found 11 new models
source = [4, 10, 10, 1, 10, 10, 1, 1, 7, 10, 7, 1, 10, 8, 1, 10, 7, 10, 1, 4]
open = [1, 0, 0, 1, 0, 0, 1, 1, 0, 1]
trucks_used = [5, 0, 0, 1, 0, 0, 1, 1, 0, 8]
truck_assigned = [1, 6, 8, 4, 6, 1, 2, 5, 1, 1, 1, 1, 7, 1, 5, 8, 1, 5, 3, 1]
obj = 7726
----------
Found 3 new models
source = [4, 10, 10, 1, 10, 10, 1, 1, 7, 10, 7, 1, 10, 8, 1, 10, 7, 10, 1, 4]
open = [1, 0, 0, 1, 0, 0, 1, 1, 0, 1]
trucks_used = [5, 0, 0, 1, 0, 0, 1, 1, 0, 5]
truck_assigned = [1, 3, 5, 4, 2, 1, 2, 5, 1, 1, 1, 1, 3, 1, 5, 4, 1, 5, 3, 1]
obj = 7276
----------
Found 9 new models
source = [4, 5, 5, 1, 5, 1, 1, 8, 7, 5, 7, 1, 5, 8, 1, 7, 7, 4, 1, 4]
open = [1, 0, 0, 1, 1, 0, 1, 1, 0, 0]
trucks_used = [4, 0, 0, 1, 3, 0, 1, 1, 0, 0]
truck_assigned = [1, 1, 3, 4, 2, 4, 2, 1, 1, 2, 1, 1, 2, 1, 2, 1, 1, 1, 3, 1]
obj = 6554
----------
Found 3 new models
source = [4, 10, 1, 1, 10, 10, 1, 1, 7, 10, 7, 1, 10, 10, 1, 7, 7, 4, 10, 4]
open = [1, 0, 0, 1, 0, 0, 1, 0, 0, 1]
trucks_used = [4, 0, 0, 1, 0, 0, 1, 0, 0, 4]
truck_assigned = [1, 3, 1, 1, 1, 3, 2, 4, 1, 2, 1, 3, 4, 1, 2, 1, 1, 1, 2, 1]
obj = 6374
----------
Found 1 new models
source = [4, 10, 10, 1, 10, 1, 1, 10, 7, 10, 7, 10, 10, 1, 1, 7, 7, 4, 1, 4]
open = [1, 0, 0, 1, 0, 0, 1, 0, 0, 1]
trucks_used = [4, 0, 0, 1, 0, 0, 1, 0, 0, 4]
truck_assigned = [1, 4, 2, 2, 1, 2, 4, 1, 1, 2, 1, 3, 4, 3, 4, 1, 1, 1, 1, 1]
obj = 6294
----------
% [obj>6194]
% [obj>6237]
% [obj>6257]
% [obj>6268]
% [obj>6268]
