+ /usr/bin/timeout 600 /usr/bin/time -v mzn-lbbd lbbd-datasets/Rabadi-2006/dzn-balanced/model.mzn lbbd-datasets/Rabadi-2006/dzn-balanced/9on4Rp50Rs50_13Ameer.dzn
% No search annotation given. Defaulting to VSIDS!
% [makespan>153]
Found 14 new models
assign = array1d(1..13 ,[1, 2, 3, 4, 4, 3, 4, 1, 2, 1, 2, 3, 4]);
next = array1d(1..13 ,[8, 9, 6, 7, 4, 12, 13, 10, 11, 2, 3, 5, 1]);
makespan = 319;
----------
Found 29 new models
assign = array1d(1..13 ,[1, 4, 2, 4, 2, 3, 4, 1, 3, 1, 2, 3, 4]);
next = array1d(1..13 ,[8, 13, 5, 2, 11, 9, 4, 10, 12, 3, 6, 7, 1]);
makespan = 283;
----------
Found 11 new models
assign = array1d(1..13 ,[1, 4, 2, 4, 2, 3, 4, 1, 3, 1, 2, 3, 4]);
next = array1d(1..13 ,[8, 4, 5, 13, 11, 9, 2, 10, 12, 3, 6, 7, 1]);
makespan = 271;
----------
% [makespan>153]
% [makespan>156]
% [makespan>157]
% [makespan>157]
% [makespan>158]
% [makespan>159]
% [makespan>160]
% [makespan>160]
% [makespan>160]
% [makespan>160]
% [makespan>160]
% [makespan>162]
% [makespan>162]
% [makespan>162]
% [makespan>164]
% [makespan>165]
% [makespan>181]
==========
	Command being timed: "mzn-lbbd lbbd-datasets/Rabadi-2006/dzn-balanced/model.mzn lbbd-datasets/Rabadi-2006/dzn-balanced/9on4Rp50Rs50_13Ameer.dzn"
	User time (seconds): 542.85
	System time (seconds): 0.10
	Percent of CPU this job got: 99%
	Elapsed (wall clock) time (h:mm:ss or m:ss): 9:04.04
	Average shared text size (kbytes): 0
	Average unshared data size (kbytes): 0
	Average stack size (kbytes): 0
	Average total size (kbytes): 0
	Maximum resident set size (kbytes): 342928
	Average resident set size (kbytes): 0
	Major (requiring I/O) page faults: 0
	Minor (reclaiming a frame) page faults: 22924
	Voluntary context switches: 37
	Involuntary context switches: 669
	Swaps: 0
	File system inputs: 0
	File system outputs: 416
	Socket messages sent: 0
	Socket messages received: 0
	Signals delivered: 0
	Page size (bytes): 4096
	Exit status: 0
