+ /usr/bin/timeout 600 /usr/bin/time -v mzn-lbbd lbbd-datasets/sscplp/trucks-dzn/model.mzn lbbd-datasets/sscplp/trucks-dzn/p25-l50-c150-uncorrelated.dzn
% No search annotation given. Defaulting to VSIDS!
% [obj>9057]
Found 3 new models
source = [20, 5, 2, 12, 2, 19, 20, 2, 19, 15, 20, 2, 19, 5, 2, 1, 5, 5, 19, 17, 9, 2, 2, 1, 19, 1, 19, 20, 5, 5, 17, 2, 20, 20, 11, 10, 2, 2, 2, 5]
open = [1, 1, 0, 0, 1, 0, 0, 0, 1, 1, 1, 1, 0, 0, 1, 0, 1, 0, 1, 1]
trucks_used = [3, 11, 0, 0, 6, 0, 0, 0, 1, 1, 1, 1, 0, 0, 1, 0, 2, 0, 6, 6]
truck_assigned = [3, 2, 9, 1, 6, 6, 4, 7, 5, 1, 6, 7, 5, 5, 8, 3, 2, 1, 6, 1, 1, 8, 2, 3, 3, 3, 6, 3, 3, 6, 2, 1, 6, 5, 1, 1, 11, 10, 11, 4]
obj = 26438
----------
Found 26 new models
source = [19, 11, 2, 1, 2, 19, 1, 12, 19, 5, 2, 2, 19, 5, 2, 1, 2, 5, 19, 2, 19, 1, 2, 1, 17, 9, 15, 2, 5, 5, 17, 20, 17, 2, 2, 19, 2, 2, 19, 5]
open = [1, 1, 0, 0, 1, 0, 0, 0, 1, 0, 1, 1, 0, 0, 1, 0, 1, 0, 1, 1]
trucks_used = [3, 10, 0, 0, 6, 0, 0, 0, 1, 0, 1, 1, 0, 0, 1, 0, 2, 0, 6, 1]
truck_assigned = [1, 1, 9, 2, 4, 6, 1, 1, 5, 2, 1, 7, 5, 5, 5, 3, 3, 1, 6, 2, 1, 1, 5, 3, 1, 1, 1, 2, 4, 2, 2, 1, 2, 7, 6, 2, 10, 8, 4, 6]
obj = 24044
----------
Found 2 new models
source = [19, 5, 2, 1, 2, 19, 1, 5, 19, 5, 2, 2, 19, 5, 2, 1, 5, 5, 19, 2, 19, 5, 2, 1, 19, 1, 19, 2, 5, 5, 19, 10, 1, 2, 2, 19, 2, 2, 2, 5]
open = [1, 1, 0, 0, 1, 0, 0, 0, 0, 1, 0, 0, 0, 0, 0, 0, 0, 0, 1, 0]
trucks_used = [3, 9, 0, 0, 7, 0, 0, 0, 0, 1, 0, 0, 0, 0, 0, 0, 0, 0, 6, 0]
truck_assigned = [1, 1, 9, 2, 4, 6, 1, 1, 5, 2, 1, 7, 5, 5, 5, 3, 7, 4, 6, 2, 2, 3, 5, 3, 1, 1, 1, 2, 3, 2, 3, 1, 1, 3, 6, 2, 7, 8, 4, 6]
obj = 10872
----------
Found 1 new models
source = [19, 5, 2, 1, 2, 19, 1, 5, 19, 5, 2, 2, 19, 5, 2, 1, 5, 5, 19, 2, 19, 5, 2, 1, 19, 1, 19, 2, 5, 5, 19, 10, 1, 2, 2, 19, 2, 2, 2, 5]
open = [1, 1, 0, 0, 1, 0, 0, 0, 0, 1, 0, 0, 0, 0, 0, 0, 0, 0, 1, 0]
trucks_used = [3, 9, 0, 0, 7, 0, 0, 0, 0, 1, 0, 0, 0, 0, 0, 0, 0, 0, 5, 0]
truck_assigned = [1, 1, 9, 2, 4, 5, 1, 1, 5, 2, 1, 7, 4, 5, 5, 3, 7, 4, 5, 2, 2, 3, 5, 3, 1, 1, 1, 2, 3, 2, 3, 1, 1, 3, 6, 2, 7, 8, 4, 6]
obj = 10722
----------
