+ /usr/bin/timeout 600 /usr/bin/time -v mzn-lbbd lbbd-datasets/sscplp/trucks-dzn/model.mzn lbbd-datasets/sscplp/trucks-dzn/p05-l100-c300-uncorrelated.dzn
% No search annotation given. Defaulting to VSIDS!
% [obj>4730]
Found 1 new models
source = [1, 1, 1, 9, 7, 2, 9, 1, 7, 7, 7, 9, 7, 2, 9, 1, 1, 1, 2, 2]
open = [1, 1, 0, 0, 0, 0, 1, 0, 1, 0]
trucks_used = [2, 1, 0, 0, 0, 0, 1, 0, 1, 0]
truck_assigned = [1, 2, 1, 1, 1, 1, 1, 1, 1, 1, 1, 1, 1, 1, 1, 2, 2, 2, 1, 1]
obj = 4731
----------
==========
	Command being timed: "mzn-lbbd lbbd-datasets/sscplp/trucks-dzn/model.mzn lbbd-datasets/sscplp/trucks-dzn/p05-l100-c300-uncorrelated.dzn"
	User time (seconds): 4.63
	System time (seconds): 0.03
	Percent of CPU this job got: 91%
	Elapsed (wall clock) time (h:mm:ss or m:ss): 0:05.09
	Average shared text size (kbytes): 0
	Average unshared data size (kbytes): 0
	Average stack size (kbytes): 0
	Average total size (kbytes): 0
	Maximum resident set size (kbytes): 103600
	Average resident set size (kbytes): 0
	Major (requiring I/O) page faults: 0
	Minor (reclaiming a frame) page faults: 8673
	Voluntary context switches: 4
	Involuntary context switches: 66
	Swaps: 0
	File system inputs: 0
	File system outputs: 408
	Socket messages sent: 0
	Socket messages received: 0
	Signals delivered: 0
	Page size (bytes): 4096
	Exit status: 0
