+ /usr/bin/timeout 600 /usr/bin/time -v mzn-lbbd lbbd-datasets/sscplp/dzn/model.mzn lbbd-datasets/sscplp/dzn/p24.dzn
% No search annotation given. Defaulting to VSIDS!
% [obj>6326]
Found 1 new models
source = [17, 9, 13, 11, 2, 11, 11, 2, 11, 12, 11, 11, 3, 3, 11, 12, 17, 11, 17, 3, 11, 11, 3, 3, 3, 13, 3, 2, 13, 9, 17, 11, 3, 11, 11, 12, 17, 17, 17, 17]
obj = 6327
----------
==========
	Command being timed: "mzn-lbbd lbbd-datasets/sscplp/dzn/model.mzn lbbd-datasets/sscplp/dzn/p24.dzn"
	User time (seconds): 3.00
	System time (seconds): 0.03
	Percent of CPU this job got: 99%
	Elapsed (wall clock) time (h:mm:ss or m:ss): 0:03.03
	Average shared text size (kbytes): 0
	Average unshared data size (kbytes): 0
	Average stack size (kbytes): 0
	Average total size (kbytes): 0
	Maximum resident set size (kbytes): 100944
	Average resident set size (kbytes): 0
	Major (requiring I/O) page faults: 0
	Minor (reclaiming a frame) page faults: 7433
	Voluntary context switches: 6
	Involuntary context switches: 9
	Swaps: 0
	File system inputs: 0
	File system outputs: 616
	Socket messages sent: 0
	Socket messages received: 0
	Signals delivered: 0
	Page size (bytes): 4096
	Exit status: 0
