+ /usr/bin/timeout 600 /usr/bin/time -v mzn-lbbd lbbd-datasets/Rabadi-2006/dzn-p-dominant/model.mzn lbbd-datasets/Rabadi-2006/dzn-p-dominant/11on8Rp50Rs50_15Ameer.dzn
% No search annotation given. Defaulting to VSIDS!
% [makespan>254]
Found 351 new models
assign = array1d(1..19 ,[1, 8, 7, 5, 3, 2, 3, 8, 1, 6, 4, 1, 2, 3, 4, 5, 6, 7, 8]);
next = array1d(1..19 ,[12, 8, 18, 16, 7, 13, 14, 19, 1, 17, 15, 6, 5, 11, 4, 10, 3, 2, 9]);
makespan = 340;
----------
Found 11 new models
assign = array1d(1..19 ,[2, 3, 6, 5, 1, 7, 3, 8, 4, 8, 5, 1, 2, 3, 4, 5, 6, 7, 8]);
next = array1d(1..19 ,[13, 14, 17, 11, 12, 18, 2, 19, 15, 8, 16, 1, 7, 9, 4, 3, 6, 10, 5]);
makespan = 323;
----------
Found 1 new models
assign = array1d(1..19 ,[2, 3, 7, 4, 1, 6, 3, 8, 5, 8, 5, 1, 2, 3, 4, 5, 6, 7, 8]);
next = array1d(1..19 ,[13, 14, 18, 15, 12, 17, 2, 19, 16, 8, 9, 1, 7, 4, 11, 6, 3, 10, 5]);
makespan = 322;
----------
Found 4 new models
assign = array1d(1..19 ,[2, 1, 4, 3, 3, 4, 8, 8, 6, 7, 5, 1, 2, 3, 4, 5, 6, 7, 8]);
next = array1d(1..19 ,[13, 12, 15, 5, 14, 3, 8, 19, 17, 18, 16, 1, 4, 6, 11, 9, 10, 7, 2]);
makespan = 318;
----------
Found 1 new models
assign = array1d(1..19 ,[1, 3, 2, 3, 6, 4, 8, 8, 7, 5, 5, 1, 2, 3, 4, 5, 6, 7, 8]);
next = array1d(1..19 ,[12, 4, 13, 14, 17, 15, 8, 19, 18, 11, 16, 3, 2, 6, 10, 5, 9, 7, 1]);
makespan = 317;
----------
% [makespan>255]
% [makespan>256]
% [makespan>258]
% [makespan>258]
==========
	Command being timed: "mzn-lbbd lbbd-datasets/Rabadi-2006/dzn-p-dominant/model.mzn lbbd-datasets/Rabadi-2006/dzn-p-dominant/11on8Rp50Rs50_15Ameer.dzn"
	User time (seconds): 40.97
	System time (seconds): 0.04
	Percent of CPU this job got: 99%
	Elapsed (wall clock) time (h:mm:ss or m:ss): 0:41.10
	Average shared text size (kbytes): 0
	Average unshared data size (kbytes): 0
	Average stack size (kbytes): 0
	Average total size (kbytes): 0
	Maximum resident set size (kbytes): 151376
	Average resident set size (kbytes): 0
	Major (requiring I/O) page faults: 0
	Minor (reclaiming a frame) page faults: 10756
	Voluntary context switches: 4
	Involuntary context switches: 106
	Swaps: 0
	File system inputs: 0
	File system outputs: 864
	Socket messages sent: 0
	Socket messages received: 0
	Signals delivered: 0
	Page size (bytes): 4096
	Exit status: 0
