+ /usr/bin/timeout 600 /usr/bin/time -v mzn-lbbd lbbd-datasets/Rabadi-2006/dzn-p-dominant/model.mzn lbbd-datasets/Rabadi-2006/dzn-p-dominant/11on6Rp50Rs50_6Ameer.dzn
% No search annotation given. Defaulting to VSIDS!
% [makespan>267]
Found 119 new models
assign = array1d(1..17 ,[4, 2, 2, 5, 6, 1, 5, 1, 6, 3, 3, 1, 2, 3, 4, 5, 6]);
next = array1d(1..17 ,[15, 13, 2, 7, 9, 8, 16, 12, 17, 11, 14, 3, 10, 1, 4, 5, 6]);
makespan = 347;
----------
Found 5 new models
assign = array1d(1..17 ,[2, 2, 1, 5, 3, 4, 6, 1, 6, 3, 4, 1, 2, 3, 4, 5, 6]);
next = array1d(1..17 ,[2, 13, 12, 16, 14, 11, 17, 3, 7, 5, 15, 1, 10, 6, 4, 9, 8]);
makespan = 341;
----------
Found 6 new models
assign = array1d(1..17 ,[2, 2, 5, 5, 3, 4, 6, 1, 6, 3, 4, 1, 2, 3, 4, 5, 6]);
next = array1d(1..17 ,[2, 13, 4, 16, 14, 11, 17, 12, 7, 5, 15, 1, 10, 6, 3, 9, 8]);
makespan = 335;
----------
Found 2 new models
assign = array1d(1..17 ,[5, 2, 3, 4, 6, 4, 2, 1, 6, 1, 3, 1, 2, 3, 4, 5, 6]);
next = array1d(1..17 ,[16, 7, 14, 6, 9, 15, 13, 12, 17, 8, 3, 2, 11, 4, 1, 5, 10]);
makespan = 333;
----------
Found 1 new models
assign = array1d(1..17 ,[5, 2, 3, 2, 4, 4, 6, 1, 6, 1, 3, 1, 2, 3, 4, 5, 6]);
next = array1d(1..17 ,[16, 13, 14, 2, 6, 15, 17, 12, 7, 8, 3, 4, 11, 5, 1, 9, 10]);
makespan = 332;
----------
% [makespan>267]
Found 1 new models
assign = array1d(1..17 ,[2, 2, 3, 1, 5, 4, 6, 1, 6, 3, 4, 1, 2, 3, 4, 5, 6]);
next = array1d(1..17 ,[2, 13, 14, 8, 16, 11, 17, 12, 7, 3, 15, 1, 10, 6, 5, 9, 4]);
makespan = 331;
----------
% [makespan>270]
Found 2 new models
assign = array1d(1..17 ,[2, 5, 3, 5, 6, 4, 2, 1, 3, 1, 4, 1, 2, 3, 4, 5, 6]);
next = array1d(1..17 ,[13, 16, 14, 2, 17, 11, 1, 12, 3, 8, 15, 7, 9, 6, 4, 5, 10]);
makespan = 329;
----------
% [makespan>275]
% [makespan>277]
% [makespan>277]
% [makespan>277]
==========
	Command being timed: "mzn-lbbd lbbd-datasets/Rabadi-2006/dzn-p-dominant/model.mzn lbbd-datasets/Rabadi-2006/dzn-p-dominant/11on6Rp50Rs50_6Ameer.dzn"
	User time (seconds): 36.69
	System time (seconds): 0.03
	Percent of CPU this job got: 99%
	Elapsed (wall clock) time (h:mm:ss or m:ss): 0:36.80
	Average shared text size (kbytes): 0
	Average unshared data size (kbytes): 0
	Average stack size (kbytes): 0
	Average total size (kbytes): 0
	Maximum resident set size (kbytes): 131936
	Average resident set size (kbytes): 0
	Major (requiring I/O) page faults: 0
	Minor (reclaiming a frame) page faults: 9795
	Voluntary context switches: 3
	Involuntary context switches: 59
	Swaps: 0
	File system inputs: 0
	File system outputs: 664
	Socket messages sent: 0
	Socket messages received: 0
	Signals delivered: 0
	Page size (bytes): 4096
	Exit status: 0
