+ /usr/bin/timeout 600 /usr/bin/time -v mzn-lbbd lbbd-datasets/sscplp/trucks-dzn/model.mzn lbbd-datasets/sscplp/trucks-dzn/p06-l40-c100-uncorrelated.dzn
% No search annotation given. Defaulting to VSIDS!
% [obj>2896]
Found 7 new models
source = [6, 5, 3, 1, 7, 3, 5, 3, 5, 8, 5, 2, 6, 9, 6, 2, 8, 10, 3, 8]
open = [1, 1, 1, 0, 1, 1, 1, 1, 1, 1]
trucks_used = [1, 1, 4, 0, 3, 3, 1, 2, 1, 1]
truck_assigned = [2, 3, 2, 1, 1, 3, 3, 3, 1, 2, 2, 1, 1, 1, 3, 1, 2, 1, 4, 1]
obj = 4977
----------
Found 6 new models
source = [6, 5, 3, 3, 10, 1, 5, 3, 5, 8, 5, 9, 6, 7, 6, 2, 8, 6, 3, 8]
open = [1, 1, 1, 0, 1, 1, 1, 1, 1, 1]
trucks_used = [1, 1, 3, 0, 3, 3, 1, 2, 1, 1]
truck_assigned = [2, 3, 1, 3, 1, 1, 3, 3, 1, 2, 2, 1, 1, 1, 3, 1, 2, 3, 2, 1]
obj = 4815
----------
Found 20 new models
source = [6, 1, 3, 2, 2, 3, 9, 3, 1, 6, 9, 2, 9, 4, 6, 4, 9, 3, 4, 3]
open = [1, 1, 1, 1, 0, 1, 0, 0, 1, 0]
trucks_used = [1, 1, 2, 2, 0, 3, 0, 0, 2, 0]
truck_assigned = [2, 1, 1, 1, 1, 2, 2, 2, 1, 1, 2, 1, 1, 2, 3, 2, 1, 2, 1, 1]
obj = 3170
----------
Found 2 new models
source = [6, 5, 3, 2, 2, 3, 5, 3, 5, 5, 5, 2, 6, 4, 6, 4, 3, 6, 4, 3]
open = [0, 1, 1, 1, 1, 1, 0, 0, 0, 0]
trucks_used = [0, 1, 3, 2, 4, 3, 0, 0, 0, 0]
truck_assigned = [2, 1, 1, 1, 1, 2, 1, 3, 4, 3, 2, 1, 1, 2, 3, 2, 2, 3, 1, 1]
obj = 3110
----------
% [obj>2896]
Found 1 new models
source = [10, 4, 3, 2, 2, 3, 9, 3, 3, 10, 10, 2, 9, 4, 9, 4, 9, 3, 10, 3]
open = [0, 1, 1, 1, 0, 0, 0, 0, 1, 1]
trucks_used = [0, 1, 3, 2, 0, 0, 0, 0, 2, 3]
truck_assigned = [1, 1, 2, 1, 1, 2, 1, 3, 1, 3, 2, 1, 2, 2, 1, 2, 2, 3, 3, 3]
obj = 3076
----------
Found 2 new models
source = [10, 10, 3, 9, 3, 2, 9, 3, 4, 10, 4, 2, 9, 2, 3, 4, 9, 3, 10, 3]
open = [0, 1, 1, 1, 0, 0, 0, 0, 1, 1]
trucks_used = [0, 1, 3, 2, 0, 0, 0, 0, 2, 3]
truck_assigned = [1, 3, 2, 1, 3, 1, 1, 3, 1, 2, 2, 1, 2, 1, 1, 1, 2, 1, 2, 2]
obj = 3050
----------
Found 1 new models
source = [10, 4, 3, 2, 2, 3, 9, 3, 3, 10, 9, 2, 9, 10, 3, 4, 9, 10, 10, 4]
open = [0, 1, 1, 1, 0, 0, 0, 0, 1, 1]
trucks_used = [0, 1, 3, 2, 0, 0, 0, 0, 2, 3]
truck_assigned = [3, 2, 2, 1, 1, 2, 1, 3, 1, 2, 1, 1, 2, 1, 3, 1, 2, 1, 2, 1]
obj = 3036
----------
% [obj>2908]
