+ /usr/bin/timeout 600 /usr/bin/time -v mzn-lbbd lbbd-datasets/Rabadi-2006/dzn-s-dominant/model.mzn lbbd-datasets/Rabadi-2006/dzn-s-dominant/11on8Rp50Rs50_9Ameer.dzn
% No search annotation given. Defaulting to VSIDS!
% [makespan>106]
Found 6 new models
assign = array1d(1..19 ,[5, 3, 5, 5, 4, 1, 2, 7, 1, 8, 7, 1, 2, 3, 4, 5, 6, 7, 8]);
next = array1d(1..19 ,[4, 14, 16, 3, 15, 12, 13, 11, 6, 19, 18, 7, 2, 5, 1, 17, 8, 10, 9]);
makespan = 456;
----------
Found 2 new models
assign = array1d(1..19 ,[3, 3, 5, 5, 8, 5, 2, 6, 2, 7, 6, 1, 2, 3, 4, 5, 6, 7, 8]);
next = array1d(1..19 ,[2, 14, 6, 3, 19, 16, 13, 11, 7, 18, 17, 9, 1, 15, 4, 8, 10, 5, 12]);
makespan = 454;
----------
Found 11 new models
assign = array1d(1..19 ,[4, 4, 5, 1, 7, 5, 2, 8, 5, 3, 8, 1, 2, 3, 4, 5, 6, 7, 8]);
next = array1d(1..19 ,[2, 15, 6, 12, 18, 9, 13, 11, 16, 14, 19, 7, 10, 1, 3, 17, 5, 8, 4]);
makespan = 438;
----------
Found 91 new models
assign = array1d(1..19 ,[3, 6, 5, 4, 3, 5, 2, 8, 6, 7, 1, 1, 2, 3, 4, 5, 6, 7, 8]);
next = array1d(1..19 ,[5, 17, 6, 15, 14, 16, 13, 19, 2, 18, 12, 7, 1, 4, 3, 9, 10, 8, 11]);
makespan = 271;
----------
Found 11 new models
assign = array1d(1..19 ,[8, 6, 5, 8, 3, 5, 2, 4, 3, 7, 1, 1, 2, 3, 4, 5, 6, 7, 8]);
next = array1d(1..19 ,[19, 17, 6, 1, 14, 16, 13, 15, 5, 18, 12, 7, 9, 8, 3, 2, 10, 4, 11]);
makespan = 256;
----------
Found 2 new models
assign = array1d(1..19 ,[8, 7, 5, 8, 3, 5, 7, 4, 1, 2, 6, 1, 2, 3, 4, 5, 6, 7, 8]);
next = array1d(1..19 ,[19, 7, 6, 1, 14, 16, 18, 15, 12, 13, 17, 10, 5, 8, 3, 11, 2, 4, 9]);
makespan = 254;
----------
Found 5 new models
assign = array1d(1..19 ,[8, 1, 5, 8, 3, 5, 7, 4, 2, 1, 6, 1, 2, 3, 4, 5, 6, 7, 8]);
next = array1d(1..19 ,[19, 12, 6, 1, 14, 16, 18, 15, 13, 2, 17, 9, 5, 8, 3, 11, 7, 4, 10]);
makespan = 249;
----------
% [makespan>108]
% [makespan>108]
Found 3 new models
assign = array1d(1..19 ,[8, 1, 3, 4, 3, 5, 7, 2, 5, 1, 6, 1, 2, 3, 4, 5, 6, 7, 8]);
next = array1d(1..19 ,[19, 12, 14, 15, 3, 9, 18, 13, 16, 2, 17, 8, 5, 4, 6, 11, 7, 1, 10]);
makespan = 246;
----------
% [makespan>109]
Found 3 new models
assign = array1d(1..19 ,[5, 1, 3, 4, 6, 8, 7, 2, 3, 1, 8, 1, 2, 3, 4, 5, 6, 7, 8]);
next = array1d(1..19 ,[16, 12, 14, 15, 17, 11, 18, 13, 3, 2, 19, 8, 9, 4, 1, 5, 7, 6, 10]);
makespan = 243;
----------
% [makespan>110]
==========
	Command being timed: "mzn-lbbd lbbd-datasets/Rabadi-2006/dzn-s-dominant/model.mzn lbbd-datasets/Rabadi-2006/dzn-s-dominant/11on8Rp50Rs50_9Ameer.dzn"
	User time (seconds): 45.88
	System time (seconds): 0.03
	Percent of CPU this job got: 99%
	Elapsed (wall clock) time (h:mm:ss or m:ss): 0:46.00
	Average shared text size (kbytes): 0
	Average unshared data size (kbytes): 0
	Average stack size (kbytes): 0
	Average total size (kbytes): 0
	Maximum resident set size (kbytes): 159376
	Average resident set size (kbytes): 0
	Major (requiring I/O) page faults: 0
	Minor (reclaiming a frame) page faults: 11411
	Voluntary context switches: 4
	Involuntary context switches: 66
	Swaps: 0
	File system inputs: 0
	File system outputs: 872
	Socket messages sent: 0
	Socket messages received: 0
	Signals delivered: 0
	Page size (bytes): 4096
	Exit status: 0
