+ /usr/bin/timeout 600 /usr/bin/time -v mzn-lbbd lbbd-datasets/Rabadi-2006/dzn-balanced/model.mzn lbbd-datasets/Rabadi-2006/dzn-balanced/11on8Rp50Rs50_8Ameer.dzn
% No search annotation given. Defaulting to VSIDS!
% [makespan>106]
Found 14 new models
assign = array1d(1..19 ,[5, 5, 5, 5, 5, 5, 4, 5, 5, 5, 1, 1, 2, 3, 4, 5, 6, 7, 8]);
next = array1d(1..19 ,[2, 16, 8, 5, 6, 1, 15, 9, 10, 4, 12, 13, 14, 7, 3, 17, 18, 19, 11]);
makespan = 1277;
----------
Found 3 new models
assign = array1d(1..19 ,[5, 5, 5, 5, 5, 5, 4, 8, 5, 5, 5, 1, 2, 3, 4, 5, 6, 7, 8]);
next = array1d(1..19 ,[2, 3, 9, 5, 6, 11, 15, 19, 10, 4, 16, 13, 14, 7, 1, 17, 18, 8, 12]);
makespan = 1260;
----------
Found 367 new models
assign = array1d(1..19 ,[7, 2, 7, 1, 4, 5, 3, 6, 8, 2, 8, 1, 2, 3, 4, 5, 6, 7, 8]);
next = array1d(1..19 ,[3, 13, 18, 12, 15, 16, 14, 17, 11, 2, 19, 10, 7, 5, 6, 8, 1, 9, 4]);
makespan = 167;
----------
% [makespan>109]
Found 2 new models
assign = array1d(1..19 ,[7, 2, 7, 4, 1, 5, 3, 6, 8, 1, 8, 1, 2, 3, 4, 5, 6, 7, 8]);
next = array1d(1..19 ,[3, 13, 18, 15, 12, 16, 14, 17, 11, 5, 19, 2, 7, 4, 6, 8, 1, 9, 10]);
makespan = 165;
----------
% [makespan>110]
% [makespan>111]
% [makespan>112]
==========
	Command being timed: "mzn-lbbd lbbd-datasets/Rabadi-2006/dzn-balanced/model.mzn lbbd-datasets/Rabadi-2006/dzn-balanced/11on8Rp50Rs50_8Ameer.dzn"
	User time (seconds): 46.02
	System time (seconds): 0.03
	Percent of CPU this job got: 99%
	Elapsed (wall clock) time (h:mm:ss or m:ss): 0:46.15
	Average shared text size (kbytes): 0
	Average unshared data size (kbytes): 0
	Average stack size (kbytes): 0
	Average total size (kbytes): 0
	Maximum resident set size (kbytes): 151232
	Average resident set size (kbytes): 0
	Major (requiring I/O) page faults: 0
	Minor (reclaiming a frame) page faults: 11306
	Voluntary context switches: 4
	Involuntary context switches: 80
	Swaps: 0
	File system inputs: 0
	File system outputs: 880
	Socket messages sent: 0
	Socket messages received: 0
	Signals delivered: 0
	Page size (bytes): 4096
	Exit status: 0
