+ /usr/bin/timeout 600 /usr/bin/time -v mzn-lbbd lbbd-datasets/Rabadi-2006/dzn-balanced/model.mzn lbbd-datasets/Rabadi-2006/dzn-balanced/10on2Rp50Rs50_6Ameer.dzn
% No search annotation given. Defaulting to VSIDS!
% [makespan>331]
Found 39 new models
assign = array1d(1..12 ,[2, 2, 2, 2, 2, 1, 1, 1, 1, 1, 1, 2]);
next = array1d(1..12 ,[3, 1, 12, 5, 2, 8, 9, 10, 11, 7, 4, 6]);
makespan = 672;
----------
Found 14 new models
assign = array1d(1..12 ,[1, 2, 2, 1, 2, 1, 2, 1, 1, 2, 1, 2]);
next = array1d(1..12 ,[11, 10, 2, 9, 12, 4, 5, 6, 1, 7, 3, 8]);
makespan = 649;
----------
Found 14 new models
assign = array1d(1..12 ,[1, 2, 1, 1, 2, 2, 2, 2, 1, 1, 1, 2]);
next = array1d(1..12 ,[3, 6, 10, 9, 2, 12, 5, 7, 1, 11, 8, 4]);
makespan = 628;
----------
Found 28 new models
assign = array1d(1..12 ,[1, 2, 1, 1, 2, 1, 1, 2, 2, 2, 1, 2]);
next = array1d(1..12 ,[4, 5, 11, 6, 9, 7, 3, 10, 8, 12, 2, 1]);
makespan = 596;
----------
Found 10 new models
assign = array1d(1..12 ,[1, 2, 2, 1, 2, 1, 1, 1, 2, 2, 1, 2]);
next = array1d(1..12 ,[4, 10, 12, 11, 2, 7, 8, 1, 5, 3, 9, 6]);
makespan = 586;
----------
Found 10 new models
assign = array1d(1..12 ,[1, 2, 1, 1, 2, 2, 1, 2, 2, 1, 1, 2]);
next = array1d(1..12 ,[7, 5, 4, 11, 9, 12, 3, 6, 8, 1, 2, 10]);
makespan = 576;
----------
% [makespan>333]
Found 1 new models
assign = array1d(1..12 ,[1, 1, 2, 1, 2, 2, 1, 2, 2, 1, 1, 2]);
next = array1d(1..12 ,[4, 1, 5, 11, 9, 3, 2, 12, 8, 7, 6, 10]);
makespan = 575;
----------
% [makespan>346]
% [makespan>382]
% [makespan>387]
% [makespan>392]
% [makespan>393]
% [makespan>393]
% [makespan>394]
% [makespan>396]
% [makespan>399]
% [makespan>405]
% [makespan>409]
==========
	Command being timed: "mzn-lbbd lbbd-datasets/Rabadi-2006/dzn-balanced/model.mzn lbbd-datasets/Rabadi-2006/dzn-balanced/10on2Rp50Rs50_6Ameer.dzn"
	User time (seconds): 158.40
	System time (seconds): 0.08
	Percent of CPU this job got: 99%
	Elapsed (wall clock) time (h:mm:ss or m:ss): 2:38.77
	Average shared text size (kbytes): 0
	Average unshared data size (kbytes): 0
	Average stack size (kbytes): 0
	Average total size (kbytes): 0
	Maximum resident set size (kbytes): 236688
	Average resident set size (kbytes): 0
	Major (requiring I/O) page faults: 0
	Minor (reclaiming a frame) page faults: 16885
	Voluntary context switches: 3
	Involuntary context switches: 191
	Swaps: 0
	File system inputs: 0
	File system outputs: 288
	Socket messages sent: 0
	Socket messages received: 0
	Signals delivered: 0
	Page size (bytes): 4096
	Exit status: 0
