+ /usr/bin/timeout 600 /usr/bin/time -v mzn-lbbd lbbd-datasets/Rabadi-2006/dzn-p-dominant/model.mzn lbbd-datasets/Rabadi-2006/dzn-p-dominant/9on4Rp50Rs50_4Ameer.dzn
% No search annotation given. Defaulting to VSIDS!
% [makespan>392]
Found 14 new models
assign = array1d(1..13 ,[2, 4, 4, 1, 2, 2, 4, 3, 4, 1, 2, 3, 4]);
next = array1d(1..13 ,[5, 13, 9, 10, 6, 11, 3, 12, 2, 1, 8, 7, 4]);
makespan = 806;
----------
Found 89 new models
assign = array1d(1..13 ,[1, 3, 4, 1, 2, 1, 3, 2, 4, 1, 2, 3, 4]);
next = array1d(1..13 ,[6, 7, 9, 10, 11, 4, 12, 5, 13, 8, 2, 3, 1]);
makespan = 507;
----------
% [makespan>392]
% [makespan>394]
% [makespan>397]
% [makespan>397]
% [makespan>399]
% [makespan>401]
% [makespan>402]
% [makespan>403]
% [makespan>403]
% [makespan>403]
% [makespan>403]
% [makespan>405]
% [makespan>406]
% [makespan>408]
% [makespan>408]
% [makespan>408]
% [makespan>409]
% [makespan>409]
==========
	Command being timed: "mzn-lbbd lbbd-datasets/Rabadi-2006/dzn-p-dominant/model.mzn lbbd-datasets/Rabadi-2006/dzn-p-dominant/9on4Rp50Rs50_4Ameer.dzn"
	User time (seconds): 503.58
	System time (seconds): 0.15
	Percent of CPU this job got: 99%
	Elapsed (wall clock) time (h:mm:ss or m:ss): 8:24.73
	Average shared text size (kbytes): 0
	Average unshared data size (kbytes): 0
	Average stack size (kbytes): 0
	Average total size (kbytes): 0
	Maximum resident set size (kbytes): 294704
	Average resident set size (kbytes): 0
	Major (requiring I/O) page faults: 0
	Minor (reclaiming a frame) page faults: 20923
	Voluntary context switches: 9
	Involuntary context switches: 1262
	Swaps: 0
	File system inputs: 0
	File system outputs: 440
	Socket messages sent: 0
	Socket messages received: 0
	Signals delivered: 0
	Page size (bytes): 4096
	Exit status: 0
