+ /usr/bin/timeout 600 /usr/bin/time -v mzn-lbbd lbbd-datasets/sscplp/trucks-dzn/model.mzn lbbd-datasets/sscplp/trucks-dzn/p14-l50-c80-uncorrelated.dzn
% No search annotation given. Defaulting to VSIDS!
% [obj>5203]
Found 16 new models
source = [8, 2, 2, 7, 7, 15, 14, 10, 14, 14, 8, 7, 15, 14, 15, 1, 5, 5, 8, 7, 14, 15, 1, 2, 2, 14, 7, 14, 8, 2]
open = [1, 1, 0, 0, 1, 0, 1, 1, 0, 1, 0, 0, 0, 1, 1]
trucks_used = [1, 2, 0, 0, 2, 0, 4, 4, 0, 1, 0, 0, 0, 7, 3]
truck_assigned = [2, 1, 2, 1, 1, 2, 6, 1, 5, 6, 4, 4, 3, 1, 1, 1, 2, 2, 3, 2, 4, 2, 1, 2, 1, 1, 3, 7, 4, 1]
obj = 8649
----------
Found 1 new models
source = [8, 2, 2, 7, 7, 2, 14, 8, 14, 14, 8, 7, 8, 14, 9, 1, 5, 7, 8, 7, 14, 14, 5, 2, 9, 14, 7, 14, 8, 2]
open = [1, 1, 0, 0, 1, 0, 1, 1, 1, 0, 0, 0, 0, 1, 0]
trucks_used = [1, 2, 0, 0, 2, 0, 4, 4, 1, 0, 0, 0, 0, 5, 0]
truck_assigned = [2, 1, 2, 1, 2, 1, 3, 1, 5, 3, 4, 4, 1, 1, 1, 1, 2, 1, 3, 3, 4, 2, 1, 2, 1, 1, 2, 4, 4, 1]
obj = 8642
----------
Found 4 new models
source = [1, 2, 5, 14, 7, 2, 14, 8, 2, 14, 8, 7, 8, 14, 2, 1, 5, 7, 8, 7, 14, 14, 14, 10, 7, 14, 7, 14, 8, 2]
open = [1, 1, 0, 0, 1, 0, 1, 1, 0, 1, 0, 0, 0, 1, 0]
trucks_used = [1, 2, 0, 0, 2, 0, 3, 3, 0, 1, 0, 0, 0, 5, 0]
truck_assigned = [1, 1, 1, 5, 3, 2, 3, 1, 2, 3, 3, 3, 1, 1, 1, 1, 2, 3, 2, 2, 5, 2, 4, 1, 1, 1, 1, 1, 3, 1]
obj = 6325
----------
Found 4 new models
source = [14, 14, 8, 7, 7, 2, 14, 8, 14, 14, 8, 7, 8, 14, 2, 1, 5, 7, 8, 7, 14, 5, 1, 2, 7, 2, 7, 14, 8, 2]
open = [1, 1, 0, 0, 1, 0, 1, 1, 0, 0, 0, 0, 0, 1, 0]
trucks_used = [1, 2, 0, 0, 1, 0, 4, 3, 0, 0, 0, 0, 0, 5, 0]
truck_assigned = [1, 4, 1, 1, 3, 2, 3, 1, 2, 3, 3, 4, 3, 1, 1, 1, 1, 3, 2, 2, 5, 1, 1, 1, 3, 2, 1, 5, 3, 2]
obj = 5598
----------
Found 2 new models
source = [1, 14, 2, 7, 7, 2, 14, 8, 2, 14, 8, 7, 8, 14, 2, 1, 5, 7, 8, 7, 14, 5, 8, 2, 7, 14, 7, 14, 8, 2]
open = [1, 1, 0, 0, 1, 0, 1, 1, 0, 0, 0, 0, 0, 1, 0]
trucks_used = [1, 3, 0, 0, 1, 0, 4, 3, 0, 0, 0, 0, 0, 3, 0]
truck_assigned = [1, 3, 1, 1, 3, 2, 2, 3, 2, 3, 3, 4, 1, 1, 2, 1, 1, 3, 2, 2, 2, 1, 1, 1, 3, 1, 1, 1, 3, 3]
obj = 5440
----------
Found 1 new models
source = [7, 14, 2, 7, 7, 2, 14, 8, 2, 14, 8, 7, 8, 14, 2, 1, 5, 8, 8, 7, 14, 5, 1, 2, 7, 14, 7, 14, 8, 2]
open = [1, 1, 0, 0, 1, 0, 1, 1, 0, 0, 0, 0, 0, 1, 0]
trucks_used = [1, 3, 0, 0, 1, 0, 4, 3, 0, 0, 0, 0, 0, 3, 0]
truck_assigned = [1, 3, 1, 3, 1, 2, 2, 3, 2, 3, 3, 4, 1, 1, 2, 1, 1, 1, 2, 2, 2, 1, 1, 1, 3, 1, 4, 1, 3, 3]
obj = 5371
----------
