+ /usr/bin/timeout 600 /usr/bin/time -v mzn-lbbd lbbd-datasets/planningandscheduling/makespan-insts/model.mzn lbbd-datasets/planningandscheduling/makespan-insts/c34j2m4.dzn
% No search annotation given. Defaulting to VSIDS!
% [makespan>46]
% [makespan>46]
% [makespan>46]
Found 1 new models
obj = 85
----------
Found 26 new models
obj = 59
----------
Found 4 new models
obj = 55
----------
Found 1 new models
obj = 54
----------
Found 3 new models
obj = 51
----------
% [makespan>46]
% [makespan>46]
Found 1 new models
obj = 50
----------
% [makespan>46]
% [makespan>46]
% [makespan>46]
% [makespan>46]
% [makespan>46]
% [makespan>46]
% [makespan>46]
% [makespan>46]
% [makespan>46]
% [makespan>46]
% [makespan>46]
% [makespan>46]
% [makespan>46]
% [makespan>46]
% [makespan>46]
% [makespan>46]
% [makespan>46]
% [makespan>46]
