+ /usr/bin/timeout 600 /usr/bin/time -v mzn-lbbd lbbd-datasets/Rabadi-2006/dzn-p-dominant/model.mzn lbbd-datasets/Rabadi-2006/dzn-p-dominant/11on4Rp50Rs50_11Ameer.dzn
% No search annotation given. Defaulting to VSIDS!
% [makespan>406]
Found 19 new models
assign = array1d(1..15 ,[1, 3, 4, 1, 2, 3, 3, 2, 2, 2, 4, 1, 2, 3, 4]);
next = array1d(1..15 ,[12, 7, 11, 1, 8, 14, 6, 10, 5, 13, 15, 9, 2, 3, 4]);
makespan = 786;
----------
Found 86 new models
assign = array1d(1..15 ,[1, 4, 4, 1, 2, 3, 3, 4, 2, 2, 3, 1, 2, 3, 4]);
next = array1d(1..15 ,[4, 3, 15, 12, 9, 11, 6, 2, 13, 5, 14, 10, 7, 8, 1]);
makespan = 523;
----------
% [makespan>406]
% [makespan>406]
% [makespan>409]
% [makespan>412]
% [makespan>416]
% [makespan>417]
% [makespan>417]
% [makespan>417]
% [makespan>417]
% [makespan>418]
% [makespan>418]
% [makespan>419]
% [makespan>419]
% [makespan>419]
% [makespan>422]
% [makespan>423]
% [makespan>423]
% [makespan>424]
