+ /usr/bin/timeout 600 /usr/bin/time -v mzn-lbbd lbbd-datasets/planningandscheduling/makespan-insts/model.mzn lbbd-datasets/planningandscheduling/makespan-insts/de26j3m4.dzn
% No search annotation given. Defaulting to VSIDS!
% [makespan>24]
Found 35 new models
obj = 50
----------
Found 12 new models
obj = 38
----------
Found 1 new models
obj = 37
----------
Found 4 new models
obj = 33
----------
Found 2 new models
obj = 31
----------
Found 2 new models
obj = 29
----------
Found 1 new models
obj = 28
----------
% [makespan>24]
% [makespan>25]
% [makespan>25]
% [makespan>25]
==========
	Command being timed: "mzn-lbbd lbbd-datasets/planningandscheduling/makespan-insts/model.mzn lbbd-datasets/planningandscheduling/makespan-insts/de26j3m4.dzn"
	User time (seconds): 7.25
	System time (seconds): 0.01
	Percent of CPU this job got: 99%
	Elapsed (wall clock) time (h:mm:ss or m:ss): 0:07.28
	Average shared text size (kbytes): 0
	Average unshared data size (kbytes): 0
	Average stack size (kbytes): 0
	Average total size (kbytes): 0
	Maximum resident set size (kbytes): 63264
	Average resident set size (kbytes): 0
	Major (requiring I/O) page faults: 0
	Minor (reclaiming a frame) page faults: 4606
	Voluntary context switches: 5
	Involuntary context switches: 14
	Swaps: 0
	File system inputs: 0
	File system outputs: 120
	Socket messages sent: 0
	Socket messages received: 0
	Signals delivered: 0
	Page size (bytes): 4096
	Exit status: 0
