+ /usr/bin/timeout 600 /usr/bin/time -v mzn-lbbd lbbd-datasets/Rabadi-2006/dzn-balanced/model.mzn lbbd-datasets/Rabadi-2006/dzn-balanced/11on6Rp50Rs50_14Ameer.dzn
% No search annotation given. Defaulting to VSIDS!
% [makespan>120]
Found 80 new models
assign = array1d(1..17 ,[5, 1, 2, 1, 5, 6, 1, 1, 1, 1, 1, 1, 2, 3, 4, 5, 6]);
next = array1d(1..17 ,[5, 9, 13, 8, 16, 17, 2, 12, 11, 4, 10, 3, 14, 15, 1, 6, 7]);
makespan = 980;
----------
Found 70 new models
assign = array1d(1..17 ,[5, 1, 5, 1, 6, 6, 1, 1, 1, 5, 1, 1, 2, 3, 4, 5, 6]);
next = array1d(1..17 ,[3, 9, 10, 8, 17, 5, 2, 11, 12, 16, 7, 13, 14, 15, 1, 6, 4]);
makespan = 847;
----------
Found 20 new models
assign = array1d(1..17 ,[6, 1, 5, 1, 1, 5, 1, 1, 1, 5, 6, 1, 2, 3, 4, 5, 6]);
next = array1d(1..17 ,[11, 9, 10, 8, 12, 16, 2, 5, 4, 6, 17, 13, 14, 15, 3, 1, 7]);
makespan = 814;
----------
Found 208 new models
assign = array1d(1..17 ,[3, 6, 2, 5, 1, 1, 6, 4, 5, 3, 4, 1, 2, 3, 4, 5, 6]);
next = array1d(1..17 ,[14, 7, 13, 9, 12, 5, 17, 11, 16, 1, 15, 3, 10, 8, 4, 2, 6]);
makespan = 198;
----------
Found 7 new models
assign = array1d(1..17 ,[6, 6, 4, 2, 1, 1, 2, 3, 5, 3, 4, 1, 2, 3, 4, 5, 6]);
next = array1d(1..17 ,[2, 17, 15, 7, 12, 5, 13, 10, 16, 14, 3, 4, 8, 11, 9, 1, 6]);
makespan = 190;
----------
Found 6 new models
assign = array1d(1..17 ,[6, 6, 3, 5, 1, 1, 2, 3, 5, 4, 4, 1, 2, 3, 4, 5, 6]);
next = array1d(1..17 ,[2, 17, 14, 9, 12, 5, 13, 3, 16, 11, 15, 7, 8, 10, 4, 1, 6]);
makespan = 184;
----------
% [makespan>121]
% [makespan>121]
Found 2 new models
assign = array1d(1..17 ,[2, 3, 5, 6, 4, 6, 2, 1, 5, 4, 3, 1, 2, 3, 4, 5, 6]);
next = array1d(1..17 ,[13, 11, 9, 17, 10, 4, 1, 12, 16, 15, 14, 7, 2, 5, 3, 6, 8]);
makespan = 182;
----------
% [makespan>123]
==========
	Command being timed: "mzn-lbbd lbbd-datasets/Rabadi-2006/dzn-balanced/model.mzn lbbd-datasets/Rabadi-2006/dzn-balanced/11on6Rp50Rs50_14Ameer.dzn"
	User time (seconds): 26.26
	System time (seconds): 0.03
	Percent of CPU this job got: 99%
	Elapsed (wall clock) time (h:mm:ss or m:ss): 0:26.34
	Average shared text size (kbytes): 0
	Average unshared data size (kbytes): 0
	Average stack size (kbytes): 0
	Average total size (kbytes): 0
	Maximum resident set size (kbytes): 116944
	Average resident set size (kbytes): 0
	Major (requiring I/O) page faults: 0
	Minor (reclaiming a frame) page faults: 8689
	Voluntary context switches: 5
	Involuntary context switches: 34
	Swaps: 0
	File system inputs: 0
	File system outputs: 656
	Socket messages sent: 0
	Socket messages received: 0
	Signals delivered: 0
	Page size (bytes): 4096
	Exit status: 0
