+ /usr/bin/timeout 600 /usr/bin/time -v mzn-lbbd lbbd-datasets/sscplp/trucks-dzn/model.mzn lbbd-datasets/sscplp/trucks-dzn/p19-l100-c150-uncorrelated.dzn
% No search annotation given. Defaulting to VSIDS!
% [obj>13948]
Found 1 new models
source = [19, 1, 9, 1, 1, 19, 9, 7, 3, 7, 19, 2, 19, 7, 1, 7, 3, 3, 7, 2, 3, 1, 3, 2, 9, 2, 3, 9, 19, 7, 19, 19, 2, 7, 1, 3, 7, 1, 7, 9]
open = [1, 1, 1, 0, 0, 0, 1, 0, 1, 0, 0, 0, 0, 0, 0, 0, 0, 0, 1, 0]
trucks_used = [2, 1, 2, 0, 0, 0, 2, 0, 1, 0, 0, 0, 0, 0, 0, 0, 0, 0, 2, 0]
truck_assigned = [2, 2, 1, 2, 1, 1, 1, 2, 2, 2, 1, 1, 2, 2, 1, 1, 2, 1, 2, 1, 1, 1, 2, 1, 1, 1, 2, 1, 1, 1, 2, 2, 1, 2, 2, 1, 2, 1, 1, 1]
obj = 13950
----------
