+ /usr/bin/timeout 600 /usr/bin/time -v mzn-lbbd lbbd-datasets/sscplp/trucks-dzn/model.mzn lbbd-datasets/sscplp/trucks-dzn/p12-l100-c300-correlated.dzn
% No search annotation given. Defaulting to VSIDS!
% [obj>4688]
Found 1 new models
source = [10, 5, 5, 1, 6, 6, 4, 9, 6, 10, 5, 9, 9, 1, 5, 10, 4, 1, 1, 10, 1, 1, 6, 9, 10, 1, 1, 4, 6, 5]
open = [1, 0, 0, 1, 1, 1, 0, 0, 1, 1, 0, 0, 0, 0, 0]
trucks_used = [2, 0, 0, 1, 1, 1, 0, 0, 1, 1, 0, 0, 0, 0, 0]
truck_assigned = [1, 1, 1, 2, 1, 1, 1, 1, 1, 1, 1, 1, 1, 1, 1, 1, 1, 1, 1, 1, 2, 2, 1, 1, 1, 2, 1, 1, 1, 1]
obj = 4689
----------
==========
	Command being timed: "mzn-lbbd lbbd-datasets/sscplp/trucks-dzn/model.mzn lbbd-datasets/sscplp/trucks-dzn/p12-l100-c300-correlated.dzn"
	User time (seconds): 14.08
	System time (seconds): 0.05
	Percent of CPU this job got: 99%
	Elapsed (wall clock) time (h:mm:ss or m:ss): 0:14.16
	Average shared text size (kbytes): 0
	Average unshared data size (kbytes): 0
	Average stack size (kbytes): 0
	Average total size (kbytes): 0
	Maximum resident set size (kbytes): 188816
	Average resident set size (kbytes): 0
	Major (requiring I/O) page faults: 0
	Minor (reclaiming a frame) page faults: 12841
	Voluntary context switches: 4
	Involuntary context switches: 26
	Swaps: 0
	File system inputs: 0
	File system outputs: 888
	Socket messages sent: 0
	Socket messages received: 0
	Signals delivered: 0
	Page size (bytes): 4096
	Exit status: 0
