+ /usr/bin/timeout 600 /usr/bin/time -v mzn-lbbd lbbd-datasets/planningandscheduling/makespan-insts/model.mzn lbbd-datasets/planningandscheduling/makespan-insts/c26j2m3.dzn
% No search annotation given. Defaulting to VSIDS!
% [makespan>35]
Found 8 new models
obj = 58
----------
Found 9 new models
obj = 49
----------
Found 3 new models
obj = 46
----------
Found 1 new models
obj = 45
----------
Found 2 new models
obj = 43
----------
% [makespan>35]
Found 2 new models
obj = 41
----------
Found 1 new models
obj = 40
----------
% [makespan>36]
Found 1 new models
obj = 39
----------
% [makespan>36]
Found 1 new models
obj = 38
----------
% [makespan>36]
% [makespan>39]
==========
	Command being timed: "mzn-lbbd lbbd-datasets/planningandscheduling/makespan-insts/model.mzn lbbd-datasets/planningandscheduling/makespan-insts/c26j2m3.dzn"
	User time (seconds): 12.74
	System time (seconds): 0.01
	Percent of CPU this job got: 99%
	Elapsed (wall clock) time (h:mm:ss or m:ss): 0:12.78
	Average shared text size (kbytes): 0
	Average unshared data size (kbytes): 0
	Average stack size (kbytes): 0
	Average total size (kbytes): 0
	Maximum resident set size (kbytes): 65680
	Average resident set size (kbytes): 0
	Major (requiring I/O) page faults: 0
	Minor (reclaiming a frame) page faults: 4931
	Voluntary context switches: 6
	Involuntary context switches: 19
	Swaps: 0
	File system inputs: 0
	File system outputs: 96
	Socket messages sent: 0
	Socket messages received: 0
	Signals delivered: 0
	Page size (bytes): 4096
	Exit status: 0
