+ /usr/bin/timeout 600 /usr/bin/time -v mzn-lbbd lbbd-datasets/Rabadi-2006/dzn-s-dominant/model.mzn lbbd-datasets/Rabadi-2006/dzn-s-dominant/6on2Rp50Rs50_14Ameer.dzn
% No search annotation given. Defaulting to VSIDS!
% [makespan>219]
Found 36 new models
assign = array1d(1..8 ,[1, 2, 1, 2, 2, 1, 1, 2]);
next = array1d(1..8 ,[3, 5, 7, 8, 4, 1, 2, 6]);
makespan = 508;
----------
Found 3 new models
assign = array1d(1..8 ,[1, 1, 2, 1, 2, 2, 1, 2]);
next = array1d(1..8 ,[2, 4, 5, 7, 8, 3, 6, 1]);
makespan = 496;
----------
==========
	Command being timed: "mzn-lbbd lbbd-datasets/Rabadi-2006/dzn-s-dominant/model.mzn lbbd-datasets/Rabadi-2006/dzn-s-dominant/6on2Rp50Rs50_14Ameer.dzn"
	User time (seconds): 0.56
	System time (seconds): 0.01
	Percent of CPU this job got: 98%
	Elapsed (wall clock) time (h:mm:ss or m:ss): 0:00.58
	Average shared text size (kbytes): 0
	Average unshared data size (kbytes): 0
	Average stack size (kbytes): 0
	Average total size (kbytes): 0
	Maximum resident set size (kbytes): 48448
	Average resident set size (kbytes): 0
	Major (requiring I/O) page faults: 0
	Minor (reclaiming a frame) page faults: 3583
	Voluntary context switches: 4
	Involuntary context switches: 7
	Swaps: 0
	File system inputs: 0
	File system outputs: 88
	Socket messages sent: 0
	Socket messages received: 0
	Signals delivered: 0
	Page size (bytes): 4096
	Exit status: 0
