+ /usr/bin/timeout 600 /usr/bin/time -v mzn-lbbd lbbd-datasets/sscplp/trucks-dzn/model.mzn lbbd-datasets/sscplp/trucks-dzn/p14-l40-c50-uncorrelated.dzn
% No search annotation given. Defaulting to VSIDS!
% [obj>4787]
Found 47 new models
source = [8, 14, 1, 4, 8, 14, 8, 4, 14, 14, 2, 7, 2, 14, 7, 1, 2, 14, 8, 7, 2, 4, 14, 8, 4, 8, 7, 4, 14, 8]
open = [1, 1, 0, 1, 0, 0, 1, 1, 0, 0, 0, 0, 0, 1, 0]
trucks_used = [2, 3, 0, 3, 0, 0, 2, 4, 0, 0, 0, 0, 0, 4, 0]
truck_assigned = [2, 3, 2, 1, 4, 3, 1, 2, 4, 4, 1, 2, 3, 2, 2, 1, 2, 2, 3, 1, 3, 2, 1, 3, 3, 3, 1, 1, 3, 2]
obj = 5497
----------
Found 1 new models
source = [8, 14, 1, 7, 8, 14, 8, 4, 14, 14, 2, 7, 2, 14, 7, 1, 2, 14, 8, 4, 2, 4, 14, 8, 7, 8, 7, 4, 14, 8]
open = [1, 1, 0, 1, 0, 0, 1, 1, 0, 0, 0, 0, 0, 1, 0]
trucks_used = [2, 3, 0, 2, 0, 0, 3, 4, 0, 0, 0, 0, 0, 4, 0]
truck_assigned = [2, 3, 2, 1, 4, 3, 1, 2, 4, 4, 1, 1, 3, 2, 2, 1, 2, 2, 3, 1, 3, 2, 1, 3, 2, 3, 3, 1, 3, 2]
obj = 5464
----------
Found 10 new models
source = [8, 14, 1, 7, 1, 14, 8, 1, 2, 14, 2, 7, 8, 14, 7, 5, 2, 7, 8, 5, 14, 5, 14, 8, 2, 8, 7, 2, 14, 8]
open = [1, 1, 0, 0, 1, 0, 1, 1, 0, 0, 0, 0, 0, 1, 0]
trucks_used = [2, 4, 0, 0, 2, 0, 2, 3, 0, 0, 0, 0, 0, 4, 0]
truck_assigned = [2, 3, 2, 2, 1, 3, 3, 1, 3, 4, 2, 2, 3, 2, 1, 2, 4, 1, 1, 1, 2, 1, 1, 1, 4, 1, 1, 1, 3, 2]
obj = 4909
----------
Found 1 new models
source = [8, 14, 1, 7, 1, 14, 8, 1, 2, 14, 2, 7, 8, 14, 7, 2, 2, 7, 8, 5, 14, 5, 14, 8, 2, 8, 7, 5, 14, 8]
open = [1, 1, 0, 0, 1, 0, 1, 1, 0, 0, 0, 0, 0, 1, 0]
trucks_used = [2, 4, 0, 0, 2, 0, 2, 3, 0, 0, 0, 0, 0, 4, 0]
truck_assigned = [2, 3, 2, 2, 1, 3, 3, 1, 3, 4, 2, 2, 3, 2, 1, 1, 4, 1, 1, 1, 2, 2, 1, 1, 4, 1, 1, 1, 3, 2]
obj = 4846
----------
% [obj>4816]
% [obj>4823]
