+ /usr/bin/timeout 600 /usr/bin/time -v mzn-lbbd lbbd-datasets/Rabadi-2006/dzn-balanced/model.mzn lbbd-datasets/Rabadi-2006/dzn-balanced/11on8Rp50Rs50_12Ameer.dzn
% No search annotation given. Defaulting to VSIDS!
% [makespan>110]
Found 97 new models
assign = array1d(1..19 ,[8, 2, 7, 3, 5, 6, 6, 2, 2, 6, 6, 1, 2, 3, 4, 5, 6, 7, 8]);
next = array1d(1..19 ,[19, 8, 18, 14, 16, 7, 10, 13, 2, 11, 17, 9, 4, 15, 5, 6, 3, 1, 12]);
makespan = 523;
----------
Found 19 new models
assign = array1d(1..19 ,[4, 3, 7, 8, 5, 7, 2, 6, 6, 6, 6, 1, 2, 3, 4, 5, 6, 7, 8]);
next = array1d(1..19 ,[15, 14, 6, 19, 16, 18, 13, 11, 8, 17, 10, 7, 2, 1, 5, 9, 3, 4, 12]);
makespan = 488;
----------
Found 8 new models
assign = array1d(1..19 ,[6, 3, 7, 8, 4, 7, 2, 6, 6, 5, 6, 1, 2, 3, 4, 5, 6, 7, 8]);
next = array1d(1..19 ,[17, 14, 6, 19, 15, 18, 13, 11, 8, 16, 1, 7, 2, 5, 10, 9, 3, 4, 12]);
makespan = 470;
----------
Found 123 new models
assign = array1d(1..19 ,[2, 3, 1, 3, 5, 8, 1, 6, 2, 7, 4, 1, 2, 3, 4, 5, 6, 7, 8]);
next = array1d(1..19 ,[13, 4, 12, 14, 16, 19, 3, 17, 1, 18, 15, 9, 2, 11, 5, 8, 10, 6, 7]);
makespan = 168;
----------
% [makespan>110]
% [makespan>111]
% [makespan>111]
% [makespan>111]
==========
	Command being timed: "mzn-lbbd lbbd-datasets/Rabadi-2006/dzn-balanced/model.mzn lbbd-datasets/Rabadi-2006/dzn-balanced/11on8Rp50Rs50_12Ameer.dzn"
	User time (seconds): 41.58
	System time (seconds): 0.03
	Percent of CPU this job got: 99%
	Elapsed (wall clock) time (h:mm:ss or m:ss): 0:41.70
	Average shared text size (kbytes): 0
	Average unshared data size (kbytes): 0
	Average stack size (kbytes): 0
	Average total size (kbytes): 0
	Maximum resident set size (kbytes): 145552
	Average resident set size (kbytes): 0
	Major (requiring I/O) page faults: 0
	Minor (reclaiming a frame) page faults: 10565
	Voluntary context switches: 4
	Involuntary context switches: 60
	Swaps: 0
	File system inputs: 0
	File system outputs: 872
	Socket messages sent: 0
	Socket messages received: 0
	Signals delivered: 0
	Page size (bytes): 4096
	Exit status: 0
