+ /usr/bin/timeout 600 /usr/bin/time -v mzn-lbbd lbbd-datasets/sscplp/trucks-dzn/model.mzn lbbd-datasets/sscplp/trucks-dzn/p24-l50-c80-correlated.dzn
% No search annotation given. Defaulting to VSIDS!
% [obj>5743]
Found 28 new models
source = [17, 13, 12, 13, 13, 3, 17, 2, 17, 3, 17, 3, 3, 3, 3, 12, 17, 17, 17, 2, 12, 3, 3, 3, 3, 13, 3, 2, 13, 2, 3, 19, 3, 3, 13, 19, 17, 17, 17, 17]
open = [0, 1, 1, 0, 0, 0, 0, 0, 0, 0, 0, 1, 1, 0, 0, 0, 1, 0, 1, 0]
trucks_used = [0, 2, 8, 0, 0, 0, 0, 0, 0, 0, 0, 2, 3, 0, 0, 0, 5, 0, 1, 0]
truck_assigned = [4, 3, 2, 1, 2, 7, 2, 1, 3, 8, 1, 4, 3, 1, 4, 1, 3, 5, 2, 1, 1, 2, 5, 1, 6, 3, 1, 2, 3, 2, 3, 1, 5, 2, 2, 1, 1, 1, 4, 5]
obj = 7861
----------
Found 4 new models
source = [17, 19, 12, 13, 2, 2, 17, 3, 17, 3, 17, 3, 17, 3, 3, 12, 17, 17, 17, 2, 12, 3, 13, 3, 2, 13, 19, 2, 13, 3, 2, 3, 3, 3, 13, 12, 17, 17, 17, 17]
open = [0, 1, 1, 0, 0, 0, 0, 0, 0, 0, 0, 1, 1, 0, 0, 0, 1, 0, 1, 0]
trucks_used = [0, 2, 6, 0, 0, 0, 0, 0, 0, 0, 0, 2, 3, 0, 0, 0, 6, 0, 1, 0]
truck_assigned = [4, 1, 2, 1, 1, 1, 2, 3, 3, 6, 5, 4, 1, 1, 4, 1, 3, 6, 2, 2, 1, 2, 2, 4, 2, 3, 1, 2, 3, 1, 1, 3, 5, 2, 2, 2, 4, 1, 6, 5]
obj = 7679
----------
Found 1 new models
source = [17, 19, 12, 13, 2, 2, 17, 3, 17, 3, 17, 3, 17, 3, 3, 12, 17, 17, 17, 2, 12, 3, 13, 3, 2, 13, 19, 2, 13, 3, 2, 3, 3, 3, 13, 12, 17, 17, 3, 17]
open = [0, 1, 1, 0, 0, 0, 0, 0, 0, 0, 0, 1, 1, 0, 0, 0, 1, 0, 1, 0]
trucks_used = [0, 2, 6, 0, 0, 0, 0, 0, 0, 0, 0, 2, 3, 0, 0, 0, 5, 0, 1, 0]
truck_assigned = [3, 1, 2, 1, 1, 1, 2, 3, 3, 6, 4, 4, 1, 1, 4, 1, 1, 5, 2, 2, 1, 2, 2, 4, 2, 3, 1, 2, 3, 1, 1, 3, 5, 2, 2, 2, 4, 4, 5, 5]
obj = 7666
----------
