+ /usr/bin/timeout 600 /usr/bin/time -v mzn-lbbd lbbd-datasets/Rabadi-2006/dzn-balanced/model.mzn lbbd-datasets/Rabadi-2006/dzn-balanced/8on2Rp50Rs50_10Ameer.dzn
% No search annotation given. Defaulting to VSIDS!
% [makespan>260]
Found 43 new models
assign = array1d(1..10 ,[2, 1, 2, 1, 1, 2, 2, 1, 1, 2]);
next = array1d(1..10 ,[10, 4, 7, 5, 8, 1, 6, 9, 3, 2]);
makespan = 478;
----------
Found 4 new models
assign = array1d(1..10 ,[2, 1, 2, 1, 1, 2, 2, 1, 1, 2]);
next = array1d(1..10 ,[3, 9, 7, 5, 2, 10, 6, 4, 1, 8]);
makespan = 467;
----------
Found 1 new models
assign = array1d(1..10 ,[2, 1, 2, 2, 1, 1, 1, 2, 1, 2]);
next = array1d(1..10 ,[4, 7, 10, 8, 6, 9, 5, 3, 1, 2]);
makespan = 466;
----------
Found 13 new models
assign = array1d(1..10 ,[2, 1, 1, 2, 2, 1, 2, 1, 1, 2]);
next = array1d(1..10 ,[4, 8, 6, 10, 7, 9, 1, 3, 5, 2]);
makespan = 453;
----------
% [makespan>274]
% [makespan>277]
==========
	Command being timed: "mzn-lbbd lbbd-datasets/Rabadi-2006/dzn-balanced/model.mzn lbbd-datasets/Rabadi-2006/dzn-balanced/8on2Rp50Rs50_10Ameer.dzn"
	User time (seconds): 7.97
	System time (seconds): 0.01
	Percent of CPU this job got: 95%
	Elapsed (wall clock) time (h:mm:ss or m:ss): 0:08.32
	Average shared text size (kbytes): 0
	Average unshared data size (kbytes): 0
	Average stack size (kbytes): 0
	Average total size (kbytes): 0
	Maximum resident set size (kbytes): 62144
	Average resident set size (kbytes): 0
	Major (requiring I/O) page faults: 0
	Minor (reclaiming a frame) page faults: 4543
	Voluntary context switches: 5
	Involuntary context switches: 45
	Swaps: 0
	File system inputs: 0
	File system outputs: 144
	Socket messages sent: 0
	Socket messages received: 0
	Signals delivered: 0
	Page size (bytes): 4096
	Exit status: 0
