+ /usr/bin/timeout 600 /usr/bin/time -v mzn-lbbd lbbd-datasets/sscplp/trucks-dzn/model.mzn lbbd-datasets/sscplp/trucks-dzn/p23-l100-c150-uncorrelated.dzn
% No search annotation given. Defaulting to VSIDS!
% [obj>5968]
Found 1 new models
source = [14, 19, 14, 17, 5, 17, 17, 14, 19, 5, 13, 17, 19, 13, 19, 5, 14, 14, 17, 17, 17, 14, 13, 5, 14, 5, 17, 17, 14, 5, 5, 17, 14, 5, 14, 13, 17, 5, 17, 5]
open = [0, 0, 0, 0, 1, 0, 0, 0, 0, 0, 0, 0, 1, 1, 0, 0, 1, 0, 1, 0]
trucks_used = [0, 0, 0, 0, 2, 0, 0, 0, 0, 0, 0, 0, 1, 2, 0, 0, 3, 0, 1, 0]
truck_assigned = [2, 1, 1, 1, 2, 2, 2, 1, 1, 1, 1, 2, 1, 1, 1, 1, 2, 2, 3, 1, 2, 1, 1, 2, 1, 2, 1, 3, 2, 2, 2, 3, 2, 2, 1, 1, 3, 1, 2, 1]
obj = 5969
----------
==========
	Command being timed: "mzn-lbbd lbbd-datasets/sscplp/trucks-dzn/model.mzn lbbd-datasets/sscplp/trucks-dzn/p23-l100-c150-uncorrelated.dzn"
	User time (seconds): 53.62
	System time (seconds): 0.06
	Percent of CPU this job got: 99%
	Elapsed (wall clock) time (h:mm:ss or m:ss): 0:53.95
	Average shared text size (kbytes): 0
	Average unshared data size (kbytes): 0
	Average stack size (kbytes): 0
	Average total size (kbytes): 0
	Maximum resident set size (kbytes): 265328
	Average resident set size (kbytes): 0
	Major (requiring I/O) page faults: 0
	Minor (reclaiming a frame) page faults: 19410
	Voluntary context switches: 6
	Involuntary context switches: 122
	Swaps: 0
	File system inputs: 0
	File system outputs: 1568
	Socket messages sent: 0
	Socket messages received: 0
	Signals delivered: 0
	Page size (bytes): 4096
	Exit status: 0
