+ /usr/bin/timeout 600 /usr/bin/time -v mzn-lbbd lbbd-datasets/Rabadi-2006/dzn-s-dominant/model.mzn lbbd-datasets/Rabadi-2006/dzn-s-dominant/9on2Rp50Rs50_13Ameer.dzn
% No search annotation given. Defaulting to VSIDS!
% [makespan>303]
Found 25 new models
assign = array1d(1..11 ,[2, 2, 2, 2, 1, 2, 2, 2, 2, 1, 2]);
next = array1d(1..11 ,[8, 1, 2, 11, 10, 3, 4, 7, 6, 9, 5]);
makespan = 1614;
----------
Found 188 new models
assign = array1d(1..11 ,[2, 2, 1, 1, 1, 1, 1, 2, 2, 1, 2]);
next = array1d(1..11 ,[8, 11, 7, 3, 6, 4, 10, 2, 1, 9, 5]);
makespan = 836;
----------
Found 5 new models
assign = array1d(1..11 ,[2, 2, 2, 1, 1, 1, 1, 1, 2, 1, 2]);
next = array1d(1..11 ,[2, 3, 9, 8, 6, 7, 10, 5, 11, 1, 4]);
makespan = 831;
----------
% [makespan>308]
Found 5 new models
assign = array1d(1..11 ,[2, 2, 2, 1, 1, 1, 1, 2, 1, 1, 2]);
next = array1d(1..11 ,[11, 1, 8, 7, 6, 4, 10, 2, 5, 3, 9]);
makespan = 826;
----------
% [makespan>369]
% [makespan>377]
% [makespan>380]
% [makespan>387]
% [makespan>391]
% [makespan>392]
% [makespan>395]
% [makespan>395]
% [makespan>397]
% [makespan>404]
% [makespan>411]
