+ /usr/bin/timeout 600 /usr/bin/time -v mzn-lbbd lbbd-datasets/planningandscheduling/makespan-insts/model.mzn lbbd-datasets/planningandscheduling/makespan-insts/e40j8m1.dzn
% No search annotation given. Defaulting to VSIDS!
% [makespan>10]
Found 1 new models
obj = 33
----------
Found 5 new models
obj = 28
----------
Found 5 new models
obj = 23
----------
Found 3 new models
obj = 20
----------
Found 3 new models
obj = 17
----------
Found 3 new models
obj = 14
----------
% [makespan>10]
Found 1 new models
obj = 13
----------
% [makespan>10]
% [makespan>10]
Found 1 new models
obj = 12
----------
% [makespan>10]
==========
	Command being timed: "mzn-lbbd lbbd-datasets/planningandscheduling/makespan-insts/model.mzn lbbd-datasets/planningandscheduling/makespan-insts/e40j8m1.dzn"
	User time (seconds): 28.02
	System time (seconds): 0.02
	Percent of CPU this job got: 99%
	Elapsed (wall clock) time (h:mm:ss or m:ss): 0:28.10
	Average shared text size (kbytes): 0
	Average unshared data size (kbytes): 0
	Average stack size (kbytes): 0
	Average total size (kbytes): 0
	Maximum resident set size (kbytes): 109344
	Average resident set size (kbytes): 0
	Major (requiring I/O) page faults: 0
	Minor (reclaiming a frame) page faults: 7867
	Voluntary context switches: 5
	Involuntary context switches: 33
	Swaps: 0
	File system inputs: 0
	File system outputs: 408
	Socket messages sent: 0
	Socket messages received: 0
	Signals delivered: 0
	Page size (bytes): 4096
	Exit status: 0
