+ /usr/bin/timeout 600 /usr/bin/time -v mzn-lbbd lbbd-datasets/Rabadi-2006/dzn-p-dominant/model.mzn lbbd-datasets/Rabadi-2006/dzn-p-dominant/11on4Rp50Rs50_12Ameer.dzn
% No search annotation given. Defaulting to VSIDS!
% [makespan>393]
Found 56 new models
assign = array1d(1..15 ,[2, 2, 2, 2, 3, 2, 3, 2, 4, 3, 3, 1, 2, 3, 4]);
next = array1d(1..15 ,[8, 4, 2, 1, 10, 3, 5, 13, 15, 11, 14, 6, 7, 9, 12]);
makespan = 1252;
----------
Found 64 new models
assign = array1d(1..15 ,[4, 2, 2, 2, 3, 2, 4, 3, 4, 3, 4, 1, 2, 3, 4]);
next = array1d(1..15 ,[7, 13, 6, 2, 14, 4, 11, 5, 1, 8, 15, 3, 10, 9, 12]);
makespan = 802;
----------
Found 65 new models
assign = array1d(1..15 ,[3, 1, 3, 2, 3, 2, 2, 4, 1, 1, 4, 1, 2, 3, 4]);
next = array1d(1..15 ,[5, 9, 14, 7, 3, 13, 6, 15, 12, 2, 8, 4, 1, 11, 10]);
makespan = 586;
----------
Found 22 new models
assign = array1d(1..15 ,[2, 4, 1, 1, 3, 1, 2, 3, 3, 4, 4, 1, 2, 3, 4]);
next = array1d(1..15 ,[7, 15, 12, 3, 14, 4, 13, 9, 5, 11, 2, 1, 8, 10, 6]);
makespan = 544;
----------
Found 3 new models
assign = array1d(1..15 ,[2, 1, 3, 1, 4, 1, 4, 3, 3, 2, 4, 1, 2, 3, 4]);
next = array1d(1..15 ,[13, 6, 8, 12, 15, 4, 5, 9, 14, 1, 7, 10, 3, 11, 2]);
makespan = 541;
----------
Found 22 new models
assign = array1d(1..15 ,[1, 4, 3, 4, 4, 2, 1, 1, 3, 2, 3, 1, 2, 3, 4]);
next = array1d(1..15 ,[8, 5, 9, 15, 4, 10, 12, 7, 11, 13, 14, 6, 3, 2, 1]);
makespan = 519;
----------
Found 2 new models
assign = array1d(1..15 ,[1, 4, 3, 4, 3, 2, 1, 1, 3, 2, 4, 1, 2, 3, 4]);
next = array1d(1..15 ,[8, 4, 5, 15, 9, 10, 12, 7, 14, 13, 2, 6, 3, 11, 1]);
makespan = 517;
----------
% [makespan>396]
Found 2 new models
assign = array1d(1..15 ,[1, 4, 3, 1, 4, 2, 3, 1, 3, 2, 4, 1, 2, 3, 4]);
next = array1d(1..15 ,[8, 5, 9, 12, 15, 10, 14, 4, 7, 13, 2, 6, 3, 11, 1]);
makespan = 515;
----------
Found 7 new models
assign = array1d(1..15 ,[1, 1, 2, 4, 4, 2, 3, 1, 3, 4, 3, 1, 2, 3, 4]);
next = array1d(1..15 ,[8, 1, 6, 15, 10, 13, 11, 12, 7, 4, 14, 3, 9, 5, 2]);
makespan = 508;
----------
% [makespan>398]
% [makespan>399]
% [makespan>401]
% [makespan>402]
% [makespan>404]
% [makespan>405]
% [makespan>405]
% [makespan>406]
% [makespan>407]
% [makespan>408]
% [makespan>412]
% [makespan>412]
% [makespan>414]
% [makespan>415]
% [makespan>419]
==========
	Command being timed: "mzn-lbbd lbbd-datasets/Rabadi-2006/dzn-p-dominant/model.mzn lbbd-datasets/Rabadi-2006/dzn-p-dominant/11on4Rp50Rs50_12Ameer.dzn"
	User time (seconds): 434.06
	System time (seconds): 0.07
	Percent of CPU this job got: 99%
	Elapsed (wall clock) time (h:mm:ss or m:ss): 7:14.90
	Average shared text size (kbytes): 0
	Average unshared data size (kbytes): 0
	Average stack size (kbytes): 0
	Average total size (kbytes): 0
	Maximum resident set size (kbytes): 252864
	Average resident set size (kbytes): 0
	Major (requiring I/O) page faults: 0
	Minor (reclaiming a frame) page faults: 19061
	Voluntary context switches: 5
	Involuntary context switches: 485
	Swaps: 0
	File system inputs: 0
	File system outputs: 552
	Socket messages sent: 0
	Socket messages received: 0
	Signals delivered: 0
	Page size (bytes): 4096
	Exit status: 0
