+ /usr/bin/timeout 600 /usr/bin/time -v mzn-lbbd lbbd-datasets/planningandscheduling/cost-insts/model.mzn lbbd-datasets/planningandscheduling/cost-insts/e45j9m2.dzn
% No search annotation given. Defaulting to VSIDS!
% [sched_cost>1031]
Found 22 new models
obj = 1381
----------
Found 21 new models
obj = 1276
----------
Found 8 new models
obj = 1258
----------
Found 3 new models
obj = 1242
----------
Found 3 new models
obj = 1235
----------
% [sched_cost>1032]
Found 3 new models
obj = 1230
----------
Found 7 new models
obj = 1206
----------
Found 2 new models
obj = 1204
----------
Found 3 new models
obj = 1192
----------
Found 4 new models
obj = 1183
----------
Found 2 new models
obj = 1178
----------
Found 3 new models
obj = 1172
----------
Found 1 new models
obj = 1167
----------
% [sched_cost>1034]
Found 1 new models
obj = 1164
----------
% [sched_cost>1035]
Found 1 new models
obj = 1159
----------
Found 6 new models
obj = 1151
----------
Found 1 new models
obj = 1149
----------
Found 2 new models
obj = 1133
----------
Found 1 new models
obj = 1132
----------
% [sched_cost>1035]
Found 3 new models
obj = 1127
----------
Found 1 new models
obj = 1126
----------
Found 1 new models
obj = 1125
----------
% [sched_cost>1038]
Found 6 new models
obj = 1104
----------
Found 2 new models
obj = 1099
----------
Found 1 new models
obj = 1097
----------
% [sched_cost>1038]
Found 1 new models
obj = 1093
----------
% [sched_cost>1038]
% [sched_cost>1039]
% [sched_cost>1040]
Found 3 new models
obj = 1088
----------
Found 1 new models
obj = 1087
----------
Found 1 new models
obj = 1085
----------
Found 1 new models
obj = 1083
----------
% [sched_cost>1041]
Found 1 new models
obj = 1082
----------
Found 2 new models
obj = 1080
----------
% [sched_cost>1041]
Found 1 new models
obj = 1079
----------
% [sched_cost>1042]
Found 2 new models
obj = 1076
----------
% [sched_cost>1042]
Found 1 new models
obj = 1073
----------
% [sched_cost>1043]
Found 4 new models
obj = 1065
----------
Found 3 new models
obj = 1060
----------
Found 2 new models
obj = 1056
----------
Found 1 new models
obj = 1053
----------
% [sched_cost>1043]
