+ /usr/bin/timeout 600 /usr/bin/time -v mzn-lbbd lbbd-datasets/sscplp/trucks-dzn/model.mzn lbbd-datasets/sscplp/trucks-dzn/p05-l40-c50-correlated.dzn
% No search annotation given. Defaulting to VSIDS!
% [obj>3565]
Found 5 new models
source = [1, 1, 10, 8, 2, 6, 8, 8, 9, 6, 9, 9, 1, 1, 10, 9, 8, 1, 10, 1]
open = [1, 1, 0, 0, 0, 1, 0, 1, 1, 1]
trucks_used = [6, 1, 0, 0, 0, 1, 0, 4, 4, 2]
truck_assigned = [2, 5, 1, 1, 1, 1, 3, 4, 2, 1, 3, 4, 4, 6, 2, 1, 2, 1, 2, 3]
obj = 4965
----------
Found 6 new models
source = [1, 1, 10, 1, 8, 2, 2, 8, 9, 6, 9, 9, 8, 1, 10, 9, 1, 1, 10, 1]
open = [1, 1, 0, 0, 0, 1, 0, 1, 1, 1]
trucks_used = [5, 1, 0, 0, 0, 1, 0, 3, 4, 2]
truck_assigned = [2, 5, 1, 3, 2, 1, 1, 1, 2, 1, 3, 4, 3, 4, 2, 1, 1, 1, 2, 3]
obj = 4794
----------
Found 5 new models
source = [1, 1, 10, 1, 2, 6, 2, 9, 10, 6, 1, 8, 8, 2, 10, 2, 1, 8, 10, 1]
open = [1, 1, 0, 0, 0, 1, 0, 1, 1, 1]
trucks_used = [4, 3, 0, 0, 0, 1, 0, 2, 1, 3]
truck_assigned = [2, 4, 3, 3, 1, 1, 2, 1, 1, 1, 1, 2, 1, 2, 2, 3, 2, 1, 2, 3]
obj = 4559
----------
Found 13 new models
source = [8, 1, 6, 1, 2, 6, 2, 9, 9, 8, 1, 9, 8, 2, 8, 2, 1, 6, 9, 1]
open = [1, 1, 0, 0, 0, 1, 0, 1, 1, 0]
trucks_used = [4, 3, 0, 0, 0, 3, 0, 2, 3, 0]
truck_assigned = [1, 4, 3, 3, 1, 1, 2, 1, 1, 2, 1, 3, 2, 3, 1, 2, 2, 2, 2, 3]
obj = 4211
----------
Found 3 new models
source = [8, 1, 6, 1, 8, 6, 2, 9, 9, 8, 1, 9, 1, 2, 8, 2, 1, 6, 2, 1]
open = [1, 1, 0, 0, 0, 1, 0, 1, 1, 0]
trucks_used = [4, 3, 0, 0, 0, 2, 0, 3, 2, 0]
truck_assigned = [1, 4, 2, 3, 3, 1, 2, 2, 2, 2, 2, 1, 1, 3, 1, 2, 4, 1, 1, 3]
obj = 4147
----------
Found 2 new models
source = [8, 1, 8, 1, 8, 6, 2, 9, 9, 8, 1, 9, 1, 2, 2, 2, 1, 6, 2, 1]
open = [1, 1, 0, 0, 0, 1, 0, 1, 1, 0]
trucks_used = [4, 2, 0, 0, 0, 1, 0, 4, 2, 0]
truck_assigned = [1, 4, 3, 3, 4, 1, 1, 2, 2, 2, 2, 1, 1, 2, 2, 2, 4, 1, 1, 3]
obj = 4104
----------
% [obj>3585]
Found 3 new models
source = [8, 1, 9, 1, 8, 6, 2, 9, 9, 8, 8, 9, 1, 2, 2, 2, 1, 6, 2, 1]
open = [1, 1, 0, 0, 0, 1, 0, 1, 1, 0]
trucks_used = [3, 2, 0, 0, 0, 1, 0, 4, 3, 0]
truck_assigned = [1, 2, 3, 3, 4, 1, 1, 2, 2, 2, 3, 1, 1, 2, 2, 2, 2, 1, 1, 3]
obj = 4016
----------
Found 6 new models
source = [5, 1, 7, 1, 7, 6, 9, 9, 5, 6, 1, 7, 7, 5, 9, 1, 1, 1, 7, 1]
open = [1, 0, 0, 0, 1, 1, 1, 0, 1, 0]
trucks_used = [5, 0, 0, 0, 2, 1, 5, 0, 2, 0]
truck_assigned = [1, 5, 4, 4, 2, 1, 2, 1, 2, 1, 3, 5, 1, 1, 1, 2, 1, 1, 3, 4]
obj = 3949
----------
Found 4 new models
source = [10, 1, 10, 1, 7, 6, 9, 9, 10, 7, 1, 7, 1, 6, 9, 7, 1, 1, 7, 1]
open = [1, 0, 0, 0, 0, 1, 1, 0, 1, 1]
trucks_used = [5, 0, 0, 0, 0, 1, 4, 0, 2, 2]
truck_assigned = [2, 2, 1, 5, 3, 1, 2, 1, 2, 2, 3, 4, 1, 1, 1, 1, 1, 5, 2, 4]
obj = 3730
----------
Found 1 new models
source = [10, 1, 10, 1, 9, 6, 1, 9, 10, 7, 7, 7, 1, 6, 9, 1, 1, 1, 7, 7]
open = [1, 0, 0, 0, 0, 1, 1, 0, 1, 1]
trucks_used = [5, 0, 0, 0, 0, 1, 4, 0, 2, 2]
truck_assigned = [2, 3, 1, 5, 2, 1, 4, 1, 2, 2, 3, 4, 1, 1, 1, 2, 1, 5, 2, 1]
obj = 3718
----------
% [obj>3591]
Found 2 new models
source = [1, 1, 9, 1, 7, 2, 2, 9, 2, 7, 7, 9, 1, 2, 9, 2, 1, 1, 7, 1]
open = [1, 1, 0, 0, 0, 0, 1, 0, 1, 0]
trucks_used = [5, 2, 0, 0, 0, 0, 3, 0, 3, 0]
truck_assigned = [4, 3, 3, 5, 1, 2, 2, 1, 1, 2, 3, 2, 2, 1, 1, 2, 1, 5, 2, 1]
obj = 3661
----------
