+ /usr/bin/timeout 600 /usr/bin/time -v mzn-lbbd lbbd-datasets/Rabadi-2006/dzn-balanced/model.mzn lbbd-datasets/Rabadi-2006/dzn-balanced/9on6Rp50Rs50_5Ameer.dzn
% No search annotation given. Defaulting to VSIDS!
% [makespan>110]
Found 18 new models
assign = array1d(1..15 ,[1, 1, 2, 5, 3, 4, 3, 5, 6, 1, 2, 3, 4, 5, 6]);
next = array1d(1..15 ,[10, 1, 11, 8, 12, 13, 5, 14, 15, 3, 7, 6, 4, 9, 2]);
makespan = 222;
----------
Found 12 new models
assign = array1d(1..15 ,[1, 1, 2, 5, 6, 4, 5, 3, 4, 1, 2, 3, 4, 5, 6]);
next = array1d(1..15 ,[2, 10, 11, 14, 15, 9, 4, 12, 13, 3, 8, 6, 7, 5, 1]);
makespan = 197;
----------
Found 11 new models
assign = array1d(1..15 ,[6, 2, 1, 3, 5, 4, 5, 1, 4, 1, 2, 3, 4, 5, 6]);
next = array1d(1..15 ,[15, 11, 10, 12, 14, 9, 5, 3, 13, 2, 4, 6, 7, 1, 8]);
makespan = 179;
----------
Found 1 new models
assign = array1d(1..15 ,[6, 1, 5, 2, 4, 4, 3, 5, 1, 1, 2, 3, 4, 5, 6]);
next = array1d(1..15 ,[15, 10, 14, 11, 13, 5, 12, 3, 2, 4, 7, 6, 8, 1, 9]);
makespan = 178;
----------
Found 2 new models
assign = array1d(1..15 ,[1, 6, 5, 6, 4, 2, 3, 5, 4, 1, 2, 3, 4, 5, 6]);
next = array1d(1..15 ,[10, 4, 14, 15, 13, 11, 12, 3, 5, 6, 7, 9, 8, 2, 1]);
makespan = 176;
----------
% [makespan>113]
Found 3 new models
assign = array1d(1..15 ,[2, 6, 1, 6, 4, 4, 1, 3, 5, 1, 2, 3, 4, 5, 6]);
next = array1d(1..15 ,[11, 4, 10, 15, 6, 13, 3, 12, 14, 1, 8, 5, 9, 2, 7]);
makespan = 173;
----------
% [makespan>116]
==========
	Command being timed: "mzn-lbbd lbbd-datasets/Rabadi-2006/dzn-balanced/model.mzn lbbd-datasets/Rabadi-2006/dzn-balanced/9on6Rp50Rs50_5Ameer.dzn"
	User time (seconds): 7.61
	System time (seconds): 0.01
	Percent of CPU this job got: 99%
	Elapsed (wall clock) time (h:mm:ss or m:ss): 0:07.64
	Average shared text size (kbytes): 0
	Average unshared data size (kbytes): 0
	Average stack size (kbytes): 0
	Average total size (kbytes): 0
	Maximum resident set size (kbytes): 87152
	Average resident set size (kbytes): 0
	Major (requiring I/O) page faults: 0
	Minor (reclaiming a frame) page faults: 6199
	Voluntary context switches: 4
	Involuntary context switches: 17
	Swaps: 0
	File system inputs: 0
	File system outputs: 448
	Socket messages sent: 0
	Socket messages received: 0
	Signals delivered: 0
	Page size (bytes): 4096
	Exit status: 0
