+ /usr/bin/timeout 600 /usr/bin/time -v mzn-lbbd lbbd-datasets/planningandscheduling/makespan-insts/model.mzn lbbd-datasets/planningandscheduling/makespan-insts/e40j8m2.dzn
% No search annotation given. Defaulting to VSIDS!
% [makespan>11]
Found 3 new models
obj = 31
----------
Found 8 new models
obj = 23
----------
Found 1 new models
obj = 22
----------
Found 1 new models
obj = 21
----------
Found 2 new models
obj = 19
----------
Found 1 new models
obj = 18
----------
Found 1 new models
obj = 17
----------
% [makespan>11]
Found 1 new models
obj = 16
----------
Found 1 new models
obj = 15
----------
% [makespan>11]
Found 1 new models
obj = 14
----------
% [makespan>11]
% [makespan>11]
% [makespan>11]
% [makespan>11]
% [makespan>11]
% [makespan>11]
% [makespan>11]
% [makespan>11]
% [makespan>11]
% [makespan>11]
% [makespan>12]
% [makespan>12]
==========
	Command being timed: "mzn-lbbd lbbd-datasets/planningandscheduling/makespan-insts/model.mzn lbbd-datasets/planningandscheduling/makespan-insts/e40j8m2.dzn"
	User time (seconds): 260.22
	System time (seconds): 0.10
	Percent of CPU this job got: 99%
	Elapsed (wall clock) time (h:mm:ss or m:ss): 4:20.80
	Average shared text size (kbytes): 0
	Average unshared data size (kbytes): 0
	Average stack size (kbytes): 0
	Average total size (kbytes): 0
	Maximum resident set size (kbytes): 316848
	Average resident set size (kbytes): 0
	Major (requiring I/O) page faults: 0
	Minor (reclaiming a frame) page faults: 27675
	Voluntary context switches: 8
	Involuntary context switches: 366
	Swaps: 0
	File system inputs: 0
	File system outputs: 496
	Socket messages sent: 0
	Socket messages received: 0
	Signals delivered: 0
	Page size (bytes): 4096
	Exit status: 0
