+ /usr/bin/timeout 600 /usr/bin/time -v mzn-lbbd lbbd-datasets/Rabadi-2006/dzn-balanced/model.mzn lbbd-datasets/Rabadi-2006/dzn-balanced/11on8Rp50Rs50_3Ameer.dzn
% No search annotation given. Defaulting to VSIDS!
% [makespan>110]
Found 85 new models
assign = array1d(1..19 ,[5, 5, 5, 8, 5, 5, 8, 5, 5, 5, 8, 1, 2, 3, 4, 5, 6, 7, 8]);
next = array1d(1..19 ,[2, 6, 1, 11, 8, 5, 4, 10, 16, 9, 19, 13, 14, 15, 3, 17, 18, 7, 12]);
makespan = 1169;
----------
Found 99 new models
assign = array1d(1..19 ,[5, 5, 5, 4, 5, 5, 3, 3, 5, 5, 4, 1, 2, 3, 4, 5, 6, 7, 8]);
next = array1d(1..19 ,[2, 6, 1, 11, 9, 5, 8, 14, 16, 3, 15, 13, 7, 4, 10, 17, 18, 19, 12]);
makespan = 995;
----------
Found 26 new models
assign = array1d(1..19 ,[5, 5, 5, 4, 5, 5, 6, 8, 5, 5, 4, 1, 2, 3, 4, 5, 6, 7, 8]);
next = array1d(1..19 ,[2, 9, 1, 11, 10, 5, 17, 19, 16, 3, 15, 13, 14, 4, 6, 7, 18, 8, 12]);
makespan = 959;
----------
Found 195 new models
assign = array1d(1..19 ,[5, 5, 6, 1, 5, 5, 7, 1, 8, 2, 6, 1, 2, 3, 4, 5, 6, 7, 8]);
next = array1d(1..19 ,[2, 16, 11, 8, 6, 1, 18, 12, 19, 13, 17, 10, 14, 15, 5, 3, 7, 9, 4]);
makespan = 535;
----------
Found 95 new models
assign = array1d(1..19 ,[4, 5, 7, 1, 1, 6, 5, 2, 4, 8, 3, 1, 2, 3, 4, 5, 6, 7, 8]);
next = array1d(1..19 ,[9, 7, 18, 12, 4, 17, 16, 13, 15, 19, 14, 8, 11, 1, 2, 6, 3, 10, 5]);
makespan = 198;
----------
Found 10 new models
assign = array1d(1..19 ,[3, 8, 1, 5, 1, 4, 5, 2, 7, 6, 7, 1, 2, 3, 4, 5, 6, 7, 8]);
next = array1d(1..19 ,[14, 19, 5, 16, 12, 15, 4, 13, 18, 17, 9, 8, 1, 6, 7, 10, 11, 2, 3]);
makespan = 179;
----------
Found 2 new models
assign = array1d(1..19 ,[3, 5, 1, 5, 1, 4, 8, 2, 6, 8, 7, 1, 2, 3, 4, 5, 6, 7, 8]);
next = array1d(1..19 ,[14, 4, 5, 16, 12, 15, 19, 13, 17, 7, 18, 8, 1, 6, 2, 9, 11, 10, 3]);
makespan = 177;
----------
Found 4 new models
assign = array1d(1..19 ,[6, 4, 2, 5, 1, 8, 3, 3, 4, 8, 7, 1, 2, 3, 4, 5, 6, 7, 8]);
next = array1d(1..19 ,[17, 9, 13, 16, 12, 10, 8, 14, 15, 19, 18, 3, 7, 2, 4, 1, 11, 6, 5]);
makespan = 172;
----------
% [makespan>112]
% [makespan>113]
% [makespan>114]
% [makespan>116]
==========
	Command being timed: "mzn-lbbd lbbd-datasets/Rabadi-2006/dzn-balanced/model.mzn lbbd-datasets/Rabadi-2006/dzn-balanced/11on8Rp50Rs50_3Ameer.dzn"
	User time (seconds): 58.37
	System time (seconds): 0.04
	Percent of CPU this job got: 99%
	Elapsed (wall clock) time (h:mm:ss or m:ss): 0:58.55
	Average shared text size (kbytes): 0
	Average unshared data size (kbytes): 0
	Average stack size (kbytes): 0
	Average total size (kbytes): 0
	Maximum resident set size (kbytes): 155280
	Average resident set size (kbytes): 0
	Major (requiring I/O) page faults: 0
	Minor (reclaiming a frame) page faults: 11447
	Voluntary context switches: 4
	Involuntary context switches: 83
	Swaps: 0
	File system inputs: 0
	File system outputs: 880
	Socket messages sent: 0
	Socket messages received: 0
	Signals delivered: 0
	Page size (bytes): 4096
	Exit status: 0
