+ /usr/bin/timeout 600 /usr/bin/time -v mzn-lbbd lbbd-datasets/sscplp/dzn/model.mzn lbbd-datasets/sscplp/dzn/p31.dzn
% No search annotation given. Defaulting to VSIDS!
% [obj>4465]
Found 1 new models
source = [13, 7, 13, 8, 7, 8, 10, 20, 7, 7, 6, 7, 17, 8, 20, 10, 8, 8, 2, 20, 19, 10, 10, 8, 3, 10, 10, 10, 20, 10, 3, 13, 7, 2, 17, 6, 20, 2, 7, 19, 20, 13, 10, 19, 6, 2, 13, 8, 8, 6]
obj = 4466
----------
==========
	Command being timed: "mzn-lbbd lbbd-datasets/sscplp/dzn/model.mzn lbbd-datasets/sscplp/dzn/p31.dzn"
	User time (seconds): 15.72
	System time (seconds): 0.03
	Percent of CPU this job got: 99%
	Elapsed (wall clock) time (h:mm:ss or m:ss): 0:15.79
	Average shared text size (kbytes): 0
	Average unshared data size (kbytes): 0
	Average stack size (kbytes): 0
	Average total size (kbytes): 0
	Maximum resident set size (kbytes): 138512
	Average resident set size (kbytes): 0
	Major (requiring I/O) page faults: 0
	Minor (reclaiming a frame) page faults: 9705
	Voluntary context switches: 6
	Involuntary context switches: 37
	Swaps: 0
	File system inputs: 0
	File system outputs: 768
	Socket messages sent: 0
	Socket messages received: 0
	Signals delivered: 0
	Page size (bytes): 4096
	Exit status: 0
