+ /usr/bin/timeout 600 /usr/bin/time -v mzn-lbbd lbbd-datasets/sscplp/trucks-dzn/model.mzn lbbd-datasets/sscplp/trucks-dzn/p09-l50-c150-correlated.dzn
% No search annotation given. Defaulting to VSIDS!
% [obj>3601]
Found 20 new models
source = [6, 2, 5, 3, 8, 3, 13, 3, 1, 1, 8, 12, 6, 1, 4, 5, 8, 5, 5, 5, 14, 7, 2, 4, 6, 3, 8, 12, 4, 4]
open = [1, 1, 1, 1, 1, 1, 1, 1, 0, 0, 0, 1, 1, 1, 0]
trucks_used = [2, 2, 2, 2, 5, 3, 1, 3, 0, 0, 0, 2, 1, 1, 0]
truck_assigned = [1, 2, 4, 2, 1, 1, 1, 2, 1, 1, 3, 2, 2, 2, 2, 4, 3, 5, 5, 3, 1, 1, 2, 2, 3, 1, 2, 1, 1, 1]
obj = 6179
----------
Found 14 new models
source = [8, 2, 5, 3, 8, 3, 13, 3, 1, 1, 8, 12, 6, 1, 4, 5, 8, 8, 5, 5, 1, 14, 12, 4, 2, 7, 8, 12, 4, 4]
open = [1, 1, 1, 1, 1, 1, 1, 1, 0, 0, 0, 1, 1, 1, 0]
trucks_used = [2, 2, 2, 2, 3, 1, 1, 3, 0, 0, 0, 2, 1, 1, 0]
truck_assigned = [1, 2, 2, 2, 2, 1, 1, 1, 1, 1, 3, 2, 1, 2, 2, 3, 3, 2, 3, 2, 2, 1, 1, 2, 1, 1, 1, 2, 1, 1]
obj = 5547
----------
Found 27 new models
source = [8, 2, 8, 13, 8, 3, 1, 3, 1, 13, 3, 12, 5, 4, 4, 5, 8, 5, 5, 5, 14, 2, 12, 7, 2, 3, 3, 12, 4, 7]
open = [1, 1, 1, 1, 1, 0, 1, 1, 0, 0, 0, 1, 1, 1, 0]
trucks_used = [1, 1, 2, 2, 3, 0, 1, 3, 0, 0, 0, 1, 1, 1, 0]
truck_assigned = [1, 1, 2, 1, 2, 1, 1, 2, 1, 1, 2, 1, 2, 2, 2, 3, 3, 1, 1, 2, 1, 1, 1, 1, 1, 2, 1, 1, 1, 1]
obj = 4590
----------
Found 7 new models
source = [8, 2, 8, 3, 8, 3, 1, 3, 1, 1, 7, 12, 5, 8, 4, 5, 8, 8, 5, 5, 1, 2, 12, 4, 2, 3, 3, 12, 4, 4]
open = [1, 1, 1, 1, 1, 0, 1, 1, 0, 0, 0, 1, 0, 0, 0]
trucks_used = [2, 1, 2, 2, 2, 0, 1, 3, 0, 0, 0, 1, 0, 0, 0]
truck_assigned = [1, 1, 2, 2, 2, 1, 1, 1, 1, 2, 1, 1, 2, 1, 2, 1, 3, 3, 2, 2, 2, 1, 1, 1, 1, 2, 1, 1, 2, 1]
obj = 4086
----------
Found 8 new models
source = [8, 2, 8, 3, 8, 3, 1, 3, 1, 1, 8, 12, 5, 4, 4, 7, 8, 5, 5, 5, 1, 2, 12, 4, 2, 3, 3, 12, 4, 7]
open = [1, 1, 1, 1, 1, 0, 1, 1, 0, 0, 0, 1, 0, 0, 0]
trucks_used = [2, 1, 2, 2, 2, 0, 1, 2, 0, 0, 0, 1, 0, 0, 0]
truck_assigned = [1, 1, 2, 2, 2, 1, 2, 1, 1, 2, 1, 1, 2, 2, 1, 1, 2, 1, 2, 2, 1, 1, 1, 1, 1, 1, 2, 1, 2, 1]
obj = 3836
----------
Found 1 new models
source = [12, 2, 8, 3, 8, 3, 1, 3, 1, 1, 8, 12, 5, 4, 4, 5, 8, 5, 5, 5, 1, 2, 12, 4, 2, 3, 3, 12, 8, 4]
open = [1, 1, 1, 1, 1, 0, 0, 1, 0, 0, 0, 1, 0, 0, 0]
trucks_used = [2, 1, 2, 2, 2, 0, 0, 2, 0, 0, 0, 2, 0, 0, 0]
truck_assigned = [1, 1, 2, 2, 2, 1, 2, 1, 1, 2, 1, 1, 2, 2, 2, 1, 2, 1, 2, 2, 1, 1, 1, 1, 1, 1, 2, 2, 1, 1]
obj = 3776
----------
