+ /usr/bin/timeout 600 /usr/bin/time -v mzn-lbbd lbbd-datasets/planningandscheduling/makespan-insts/model.mzn lbbd-datasets/planningandscheduling/makespan-insts/c28j4m3.dzn
% No search annotation given. Defaulting to VSIDS!
% [makespan>16]
Found 9 new models
obj = 50
----------
Found 17 new models
obj = 33
----------
Found 4 new models
obj = 29
----------
Found 6 new models
obj = 23
----------
Found 1 new models
obj = 22
----------
Found 1 new models
obj = 21
----------
% [makespan>17]
Found 1 new models
obj = 20
----------
% [makespan>19]
==========
	Command being timed: "mzn-lbbd lbbd-datasets/planningandscheduling/makespan-insts/model.mzn lbbd-datasets/planningandscheduling/makespan-insts/c28j4m3.dzn"
	User time (seconds): 6.22
	System time (seconds): 0.00
	Percent of CPU this job got: 97%
	Elapsed (wall clock) time (h:mm:ss or m:ss): 0:06.40
	Average shared text size (kbytes): 0
	Average unshared data size (kbytes): 0
	Average stack size (kbytes): 0
	Average total size (kbytes): 0
	Maximum resident set size (kbytes): 60608
	Average resident set size (kbytes): 0
	Major (requiring I/O) page faults: 0
	Minor (reclaiming a frame) page faults: 4788
	Voluntary context switches: 5
	Involuntary context switches: 24
	Swaps: 0
	File system inputs: 0
	File system outputs: 160
	Socket messages sent: 0
	Socket messages received: 0
	Signals delivered: 0
	Page size (bytes): 4096
	Exit status: 0
