+ /usr/bin/timeout 600 /usr/bin/time -v mzn-lbbd lbbd-datasets/Rabadi-2006/dzn-p-dominant/model.mzn lbbd-datasets/Rabadi-2006/dzn-p-dominant/11on8Rp50Rs50_12Ameer.dzn
% No search annotation given. Defaulting to VSIDS!
% [makespan>257]
Found 52 new models
assign = array1d(1..19 ,[4, 8, 4, 7, 8, 6, 7, 7, 7, 8, 7, 1, 2, 3, 4, 5, 6, 7, 8]);
next = array1d(1..19 ,[15, 10, 1, 9, 2, 17, 8, 18, 7, 19, 4, 13, 14, 3, 16, 6, 11, 5, 12]);
makespan = 1038;
----------
Found 14 new models
assign = array1d(1..19 ,[4, 8, 7, 7, 7, 7, 6, 8, 8, 8, 7, 1, 2, 3, 4, 5, 6, 7, 8]);
next = array1d(1..19 ,[15, 10, 6, 3, 18, 5, 17, 19, 8, 9, 4, 13, 14, 1, 16, 7, 11, 2, 12]);
makespan = 1010;
----------
Found 4 new models
assign = array1d(1..19 ,[7, 8, 6, 7, 7, 7, 6, 8, 8, 8, 7, 1, 2, 3, 4, 5, 6, 7, 8]);
next = array1d(1..19 ,[18, 10, 7, 6, 1, 5, 17, 19, 8, 9, 4, 13, 14, 15, 16, 3, 11, 2, 12]);
makespan = 1005;
----------
Found 164 new models
assign = array1d(1..19 ,[7, 8, 4, 3, 3, 6, 6, 1, 1, 5, 7, 1, 2, 3, 4, 5, 6, 7, 8]);
next = array1d(1..19 ,[18, 19, 15, 5, 14, 7, 17, 12, 8, 16, 1, 13, 4, 3, 10, 6, 11, 2, 9]);
makespan = 365;
----------
% [makespan>258]
Found 13 new models
assign = array1d(1..19 ,[6, 1, 4, 8, 3, 6, 7, 3, 5, 2, 8, 1, 2, 3, 4, 5, 6, 7, 8]);
next = array1d(1..19 ,[17, 12, 15, 19, 8, 1, 18, 14, 16, 13, 4, 10, 5, 3, 9, 6, 7, 11, 2]);
makespan = 335;
----------
Found 12 new models
assign = array1d(1..19 ,[6, 1, 3, 8, 7, 3, 5, 2, 5, 4, 1, 1, 2, 3, 4, 5, 6, 7, 8]);
next = array1d(1..19 ,[17, 12, 6, 19, 18, 14, 16, 13, 7, 15, 2, 8, 3, 10, 9, 1, 5, 4, 11]);
makespan = 323;
----------
Found 1 new models
assign = array1d(1..19 ,[5, 1, 4, 8, 7, 6, 3, 2, 3, 6, 1, 1, 2, 3, 4, 5, 6, 7, 8]);
next = array1d(1..19 ,[16, 12, 15, 19, 18, 10, 14, 13, 7, 17, 2, 8, 9, 3, 1, 6, 5, 4, 11]);
makespan = 322;
----------
% [makespan>258]
Found 1 new models
assign = array1d(1..19 ,[5, 1, 3, 1, 8, 3, 6, 2, 5, 7, 4, 1, 2, 3, 4, 5, 6, 7, 8]);
next = array1d(1..19 ,[9, 12, 6, 2, 19, 14, 17, 13, 16, 18, 15, 8, 3, 11, 1, 7, 10, 5, 4]);
makespan = 321;
----------
Found 11 new models
assign = array1d(1..19 ,[5, 1, 3, 1, 8, 6, 6, 2, 5, 7, 4, 1, 2, 3, 4, 5, 6, 7, 8]);
next = array1d(1..19 ,[9, 12, 14, 2, 19, 7, 17, 13, 16, 18, 15, 8, 3, 11, 1, 6, 10, 5, 4]);
makespan = 310;
----------
% [makespan>258]
% [makespan>262]
==========
	Command being timed: "mzn-lbbd lbbd-datasets/Rabadi-2006/dzn-p-dominant/model.mzn lbbd-datasets/Rabadi-2006/dzn-p-dominant/11on8Rp50Rs50_12Ameer.dzn"
	User time (seconds): 35.76
	System time (seconds): 0.04
	Percent of CPU this job got: 99%
	Elapsed (wall clock) time (h:mm:ss or m:ss): 0:35.87
	Average shared text size (kbytes): 0
	Average unshared data size (kbytes): 0
	Average stack size (kbytes): 0
	Average total size (kbytes): 0
	Maximum resident set size (kbytes): 146384
	Average resident set size (kbytes): 0
	Major (requiring I/O) page faults: 0
	Minor (reclaiming a frame) page faults: 10994
	Voluntary context switches: 4
	Involuntary context switches: 53
	Swaps: 0
	File system inputs: 0
	File system outputs: 864
	Socket messages sent: 0
	Socket messages received: 0
	Signals delivered: 0
	Page size (bytes): 4096
	Exit status: 0
