+ /usr/bin/timeout 600 /usr/bin/time -v mzn-lbbd lbbd-datasets/Rabadi-2006/dzn-p-dominant/model.mzn lbbd-datasets/Rabadi-2006/dzn-p-dominant/7on2Rp50Rs50_11Ameer.dzn
% No search annotation given. Defaulting to VSIDS!
% [makespan>572]
Found 54 new models
assign = array1d(1..9 ,[2, 2, 1, 1, 2, 1, 1, 1, 2]);
next = array1d(1..9 ,[9, 1, 6, 8, 2, 4, 3, 5, 7]);
makespan = 757;
----------
Found 17 new models
assign = array1d(1..9 ,[1, 2, 1, 1, 2, 2, 1, 1, 2]);
next = array1d(1..9 ,[8, 6, 4, 1, 2, 9, 3, 5, 7]);
makespan = 736;
----------
% [makespan>602]
==========
	Command being timed: "mzn-lbbd lbbd-datasets/Rabadi-2006/dzn-p-dominant/model.mzn lbbd-datasets/Rabadi-2006/dzn-p-dominant/7on2Rp50Rs50_11Ameer.dzn"
	User time (seconds): 1.37
	System time (seconds): 0.00
	Percent of CPU this job got: 99%
	Elapsed (wall clock) time (h:mm:ss or m:ss): 0:01.38
	Average shared text size (kbytes): 0
	Average unshared data size (kbytes): 0
	Average stack size (kbytes): 0
	Average total size (kbytes): 0
	Maximum resident set size (kbytes): 50832
	Average resident set size (kbytes): 0
	Major (requiring I/O) page faults: 0
	Minor (reclaiming a frame) page faults: 3821
	Voluntary context switches: 5
	Involuntary context switches: 8
	Swaps: 0
	File system inputs: 0
	File system outputs: 112
	Socket messages sent: 0
	Socket messages received: 0
	Signals delivered: 0
	Page size (bytes): 4096
	Exit status: 0
