+ /usr/bin/timeout 600 /usr/bin/time -v mzn-lbbd lbbd-datasets/sscplp/trucks-dzn/model.mzn lbbd-datasets/sscplp/trucks-dzn/p16-l40-c50-correlated.dzn
% No search annotation given. Defaulting to VSIDS!
% [obj>8005]
Found 4 new models
source = [5, 12, 11, 13, 7, 11, 14, 6, 13, 8, 11, 6, 11, 6, 7, 12, 12, 14, 11, 5, 5, 5, 7, 14, 12, 6, 12, 13, 8, 7]
open = [0, 0, 0, 0, 1, 1, 1, 1, 0, 0, 1, 1, 1, 1, 0]
trucks_used = [0, 0, 0, 0, 4, 3, 3, 2, 0, 0, 4, 4, 3, 3, 0]
truck_assigned = [4, 2, 3, 3, 2, 4, 3, 1, 3, 1, 2, 2, 1, 3, 3, 3, 1, 2, 3, 3, 3, 2, 1, 1, 2, 2, 4, 2, 2, 3]
obj = 10637
----------
