+ /usr/bin/timeout 600 /usr/bin/time -v mzn-lbbd lbbd-datasets/planningandscheduling/makespan-insts/model.mzn lbbd-datasets/planningandscheduling/makespan-insts/c36j2m1.dzn
% No search annotation given. Defaulting to VSIDS!
% [makespan>46]
% [makespan>46]
Found 15 new models
obj = 76
----------
Found 15 new models
obj = 61
----------
Found 3 new models
obj = 58
----------
Found 1 new models
obj = 57
----------
Found 4 new models
obj = 53
----------
% [makespan>46]
Found 1 new models
obj = 52
----------
Found 1 new models
obj = 51
----------
% [makespan>46]
% [makespan>46]
Found 1 new models
obj = 50
----------
% [makespan>46]
% [makespan>46]
% [makespan>46]
% [makespan>46]
% [makespan>46]
% [makespan>46]
% [makespan>46]
% [makespan>46]
% [makespan>46]
% [makespan>46]
% [makespan>46]
% [makespan>46]
% [makespan>46]
Found 1 new models
obj = 49
----------
% [makespan>46]
% [makespan>46]
% [makespan>46]
% [makespan>46]
% [makespan>46]
% [makespan>46]
% [makespan>46]
