+ /usr/bin/timeout 600 /usr/bin/time -v mzn-lbbd lbbd-datasets/planningandscheduling/cost-insts/model.mzn lbbd-datasets/planningandscheduling/cost-insts/c38j2m5.dzn
% No search annotation given. Defaulting to VSIDS!
% [sched_cost>626]
Found 16 new models
obj = 681
----------
Found 1 new models
obj = 674
----------
Found 2 new models
obj = 659
----------
% [sched_cost>626]
Found 3 new models
obj = 639
----------
Found 1 new models
obj = 638
----------
% [sched_cost>626]
Found 1 new models
obj = 633
----------
% [sched_cost>626]
% [sched_cost>626]
% [sched_cost>626]
% [sched_cost>626]
Found 1 new models
obj = 632
----------
% [sched_cost>626]
% [sched_cost>626]
% [sched_cost>626]
% [sched_cost>626]
% [sched_cost>626]
% [sched_cost>626]
% [sched_cost>626]
% [sched_cost>626]
% [sched_cost>626]
% [sched_cost>626]
% [sched_cost>626]
% [sched_cost>626]
% [sched_cost>626]
% [sched_cost>626]
% [sched_cost>626]
% [sched_cost>626]
% [sched_cost>626]
