+ /usr/bin/timeout 600 /usr/bin/time -v mzn-lbbd lbbd-datasets/Rabadi-2006/dzn-s-dominant/model.mzn lbbd-datasets/Rabadi-2006/dzn-s-dominant/7on4Rp50Rs50_1Ameer.dzn
% No search annotation given. Defaulting to VSIDS!
% [makespan>122]
Found 22 new models
assign = array1d(1..11 ,[2, 4, 2, 1, 1, 3, 4, 1, 2, 3, 4]);
next = array1d(1..11 ,[9, 11, 1, 5, 8, 10, 2, 3, 6, 7, 4]);
makespan = 267;
----------
Found 3 new models
assign = array1d(1..11 ,[2, 4, 2, 1, 3, 4, 1, 1, 2, 3, 4]);
next = array1d(1..11 ,[9, 11, 1, 7, 10, 2, 8, 3, 5, 6, 4]);
makespan = 263;
----------
==========
	Command being timed: "mzn-lbbd lbbd-datasets/Rabadi-2006/dzn-s-dominant/model.mzn lbbd-datasets/Rabadi-2006/dzn-s-dominant/7on4Rp50Rs50_1Ameer.dzn"
	User time (seconds): 1.67
	System time (seconds): 0.01
	Percent of CPU this job got: 99%
	Elapsed (wall clock) time (h:mm:ss or m:ss): 0:01.69
	Average shared text size (kbytes): 0
	Average unshared data size (kbytes): 0
	Average stack size (kbytes): 0
	Average total size (kbytes): 0
	Maximum resident set size (kbytes): 60480
	Average resident set size (kbytes): 0
	Major (requiring I/O) page faults: 0
	Minor (reclaiming a frame) page faults: 4362
	Voluntary context switches: 4
	Involuntary context switches: 11
	Swaps: 0
	File system inputs: 0
	File system outputs: 200
	Socket messages sent: 0
	Socket messages received: 0
	Signals delivered: 0
	Page size (bytes): 4096
	Exit status: 0
