+ /usr/bin/timeout 600 /usr/bin/time -v mzn-lbbd lbbd-datasets/Rabadi-2006/dzn-balanced/model.mzn lbbd-datasets/Rabadi-2006/dzn-balanced/8on4Rp50Rs50_6Ameer.dzn
% No search annotation given. Defaulting to VSIDS!
% [makespan>137]
Found 88 new models
assign = array1d(1..12 ,[2, 2, 3, 1, 4, 1, 4, 3, 1, 2, 3, 4]);
next = array1d(1..12 ,[2, 10, 11, 6, 7, 9, 12, 3, 1, 8, 5, 4]);
makespan = 235;
----------
Found 35 new models
assign = array1d(1..12 ,[4, 2, 3, 2, 1, 1, 4, 3, 1, 2, 3, 4]);
next = array1d(1..12 ,[12, 10, 11, 2, 6, 9, 1, 3, 4, 8, 7, 5]);
makespan = 196;
----------
% [makespan>145]
==========
	Command being timed: "mzn-lbbd lbbd-datasets/Rabadi-2006/dzn-balanced/model.mzn lbbd-datasets/Rabadi-2006/dzn-balanced/8on4Rp50Rs50_6Ameer.dzn"
	User time (seconds): 4.23
	System time (seconds): 0.01
	Percent of CPU this job got: 99%
	Elapsed (wall clock) time (h:mm:ss or m:ss): 0:04.25
	Average shared text size (kbytes): 0
	Average unshared data size (kbytes): 0
	Average stack size (kbytes): 0
	Average total size (kbytes): 0
	Maximum resident set size (kbytes): 67120
	Average resident set size (kbytes): 0
	Major (requiring I/O) page faults: 0
	Minor (reclaiming a frame) page faults: 4779
	Voluntary context switches: 6
	Involuntary context switches: 8
	Swaps: 0
	File system inputs: 0
	File system outputs: 256
	Socket messages sent: 0
	Socket messages received: 0
	Signals delivered: 0
	Page size (bytes): 4096
	Exit status: 0
