+ /usr/bin/timeout 600 /usr/bin/time -v mzn-lbbd lbbd-datasets/sscplp/trucks-dzn/model.mzn lbbd-datasets/sscplp/trucks-dzn/p16-l100-c150-uncorrelated.dzn
% No search annotation given. Defaulting to VSIDS!
% [obj>8455]
Found 1 new models
source = [14, 12, 13, 13, 7, 8, 14, 12, 6, 8, 7, 6, 12, 14, 8, 13, 7, 7, 8, 12, 5, 12, 5, 5, 13, 6, 5, 13, 6, 7]
open = [0, 0, 0, 0, 1, 1, 1, 1, 0, 0, 0, 1, 1, 1, 0]
trucks_used = [0, 0, 0, 0, 1, 1, 1, 1, 0, 0, 0, 1, 1, 1, 0]
truck_assigned = [1, 1, 1, 1, 1, 1, 1, 1, 1, 1, 1, 1, 1, 1, 1, 1, 1, 1, 1, 1, 1, 1, 1, 1, 1, 1, 1, 1, 1, 1]
obj = 8456
----------
==========
	Command being timed: "mzn-lbbd lbbd-datasets/sscplp/trucks-dzn/model.mzn lbbd-datasets/sscplp/trucks-dzn/p16-l100-c150-uncorrelated.dzn"
	User time (seconds): 59.29
	System time (seconds): 0.07
	Percent of CPU this job got: 99%
	Elapsed (wall clock) time (h:mm:ss or m:ss): 0:59.48
	Average shared text size (kbytes): 0
	Average unshared data size (kbytes): 0
	Average stack size (kbytes): 0
	Average total size (kbytes): 0
	Maximum resident set size (kbytes): 190112
	Average resident set size (kbytes): 0
	Major (requiring I/O) page faults: 0
	Minor (reclaiming a frame) page faults: 15786
	Voluntary context switches: 6
	Involuntary context switches: 73
	Swaps: 0
	File system inputs: 0
	File system outputs: 896
	Socket messages sent: 0
	Socket messages received: 0
	Signals delivered: 0
	Page size (bytes): 4096
	Exit status: 0
