+ /usr/bin/timeout 600 /usr/bin/time -v mzn-lbbd lbbd-datasets/sscplp/trucks-dzn/model.mzn lbbd-datasets/sscplp/trucks-dzn/p17-l100-c300-correlated.dzn
% No search annotation given. Defaulting to VSIDS!
% [obj>8621]
Found 1 new models
source = [7, 7, 6, 7, 7, 1, 1, 6, 6, 7, 1, 1, 1, 7, 1, 10, 7, 6, 7, 1, 10, 1, 1, 7, 1, 10, 1, 7, 1, 10]
open = [1, 0, 0, 0, 0, 1, 1, 0, 0, 1, 0, 0, 0, 0, 0]
trucks_used = [3, 0, 0, 0, 0, 1, 2, 0, 0, 1, 0, 0, 0, 0, 0]
truck_assigned = [2, 1, 1, 1, 1, 3, 1, 1, 1, 2, 1, 2, 2, 2, 2, 1, 1, 1, 1, 2, 1, 1, 3, 2, 1, 1, 3, 2, 3, 1]
obj = 8622
----------
==========
	Command being timed: "mzn-lbbd lbbd-datasets/sscplp/trucks-dzn/model.mzn lbbd-datasets/sscplp/trucks-dzn/p17-l100-c300-correlated.dzn"
	User time (seconds): 10.19
	System time (seconds): 0.03
	Percent of CPU this job got: 99%
	Elapsed (wall clock) time (h:mm:ss or m:ss): 0:10.25
	Average shared text size (kbytes): 0
	Average unshared data size (kbytes): 0
	Average stack size (kbytes): 0
	Average total size (kbytes): 0
	Maximum resident set size (kbytes): 183680
	Average resident set size (kbytes): 0
	Major (requiring I/O) page faults: 0
	Minor (reclaiming a frame) page faults: 12259
	Voluntary context switches: 5
	Involuntary context switches: 14
	Swaps: 0
	File system inputs: 0
	File system outputs: 888
	Socket messages sent: 0
	Socket messages received: 0
	Signals delivered: 0
	Page size (bytes): 4096
	Exit status: 0
