+ /usr/bin/timeout 600 /usr/bin/time -v mzn-lbbd lbbd-datasets/sscplp/trucks-dzn/model.mzn lbbd-datasets/sscplp/trucks-dzn/p01-l100-c300-uncorrelated.dzn
% No search annotation given. Defaulting to VSIDS!
% [obj>2921]
Found 1 new models
source = [9, 2, 8, 4, 7, 7, 9, 7, 8, 9, 4, 4, 2, 7, 2, 8, 8, 9, 2, 9]
open = [0, 1, 0, 1, 0, 0, 1, 1, 1, 0]
trucks_used = [0, 1, 0, 1, 0, 0, 1, 1, 1, 0]
truck_assigned = [1, 1, 1, 1, 1, 1, 1, 1, 1, 1, 1, 1, 1, 1, 1, 1, 1, 1, 1, 1]
obj = 2922
----------
==========
	Command being timed: "mzn-lbbd lbbd-datasets/sscplp/trucks-dzn/model.mzn lbbd-datasets/sscplp/trucks-dzn/p01-l100-c300-uncorrelated.dzn"
	User time (seconds): 2.06
	System time (seconds): 0.02
	Percent of CPU this job got: 99%
	Elapsed (wall clock) time (h:mm:ss or m:ss): 0:02.09
	Average shared text size (kbytes): 0
	Average unshared data size (kbytes): 0
	Average stack size (kbytes): 0
	Average total size (kbytes): 0
	Maximum resident set size (kbytes): 90464
	Average resident set size (kbytes): 0
	Major (requiring I/O) page faults: 0
	Minor (reclaiming a frame) page faults: 6809
	Voluntary context switches: 4
	Involuntary context switches: 11
	Swaps: 0
	File system inputs: 0
	File system outputs: 408
	Socket messages sent: 0
	Socket messages received: 0
	Signals delivered: 0
	Page size (bytes): 4096
	Exit status: 0
