+ /usr/bin/timeout 600 /usr/bin/time -v mzn-lbbd lbbd-datasets/planningandscheduling/makespan-insts/model.mzn lbbd-datasets/planningandscheduling/makespan-insts/c38j2m3.dzn
% No search annotation given. Defaulting to VSIDS!
% [makespan>47]
% [makespan>47]
Found 1 new models
obj = 95
----------
Found 36 new models
obj = 59
----------
Found 1 new models
obj = 58
----------
% [makespan>47]
Found 1 new models
obj = 57
----------
Found 1 new models
obj = 56
----------
Found 2 new models
obj = 54
----------
Found 1 new models
obj = 53
----------
Found 1 new models
obj = 52
----------
% [makespan>47]
% [makespan>47]
% [makespan>47]
% [makespan>47]
% [makespan>47]
% [makespan>47]
% [makespan>47]
Found 1 new models
obj = 51
----------
Found 1 new models
obj = 50
----------
% [makespan>47]
% [makespan>48]
% [makespan>48]
% [makespan>48]
% [makespan>48]
% [makespan>48]
% [makespan>48]
% [makespan>48]
% [makespan>48]
% [makespan>48]
% [makespan>48]
% [makespan>48]
% [makespan>48]
% [makespan>48]
% [makespan>48]
% [makespan>48]
% [makespan>48]
