+ /usr/bin/timeout 600 /usr/bin/time -v mzn-lbbd lbbd-datasets/planningandscheduling/cost-insts/model.mzn lbbd-datasets/planningandscheduling/cost-insts/e45j9m4.dzn
% No search annotation given. Defaulting to VSIDS!
% [sched_cost>986]
Found 63 new models
obj = 1128
----------
Found 15 new models
obj = 1091
----------
Found 14 new models
obj = 1053
----------
Found 3 new models
obj = 1045
----------
Found 5 new models
obj = 1036
----------
Found 2 new models
obj = 1032
----------
Found 1 new models
obj = 1031
----------
% [sched_cost>987]
Found 2 new models
obj = 1026
----------
Found 2 new models
obj = 1024
----------
Found 1 new models
obj = 1022
----------
Found 1 new models
obj = 1021
----------
Found 5 new models
obj = 1011
----------
Found 1 new models
obj = 1010
----------
Found 1 new models
obj = 1007
----------
% [sched_cost>989]
Found 2 new models
obj = 1005
----------
Found 1 new models
obj = 1002
----------
Found 1 new models
obj = 1001
----------
% [sched_cost>991]
% [sched_cost>991]
% [sched_cost>993]
% [sched_cost>994]
% [sched_cost>995]
% [sched_cost>996]
% [sched_cost>997]
% [sched_cost>998]
