+ /usr/bin/timeout 600 /usr/bin/time -v mzn-lbbd lbbd-datasets/Rabadi-2006/dzn-p-dominant/model.mzn lbbd-datasets/Rabadi-2006/dzn-p-dominant/7on2Rp50Rs50_1Ameer.dzn
% No search annotation given. Defaulting to VSIDS!
% [makespan>536]
Found 111 new models
assign = array1d(1..9 ,[1, 1, 1, 2, 2, 2, 2, 1, 2]);
next = array1d(1..9 ,[8, 1, 2, 7, 9, 4, 5, 6, 3]);
makespan = 712;
----------
Found 2 new models
assign = array1d(1..9 ,[1, 2, 1, 2, 1, 2, 2, 1, 2]);
next = array1d(1..9 ,[3, 7, 8, 9, 1, 4, 6, 2, 5]);
makespan = 709;
----------
Found 2 new models
assign = array1d(1..9 ,[1, 2, 2, 1, 1, 2, 2, 1, 2]);
next = array1d(1..9 ,[4, 7, 9, 8, 1, 3, 6, 2, 5]);
makespan = 707;
----------
% [makespan>551]
==========
	Command being timed: "mzn-lbbd lbbd-datasets/Rabadi-2006/dzn-p-dominant/model.mzn lbbd-datasets/Rabadi-2006/dzn-p-dominant/7on2Rp50Rs50_1Ameer.dzn"
	User time (seconds): 2.49
	System time (seconds): 0.01
	Percent of CPU this job got: 99%
	Elapsed (wall clock) time (h:mm:ss or m:ss): 0:02.52
	Average shared text size (kbytes): 0
	Average unshared data size (kbytes): 0
	Average stack size (kbytes): 0
	Average total size (kbytes): 0
	Maximum resident set size (kbytes): 52288
	Average resident set size (kbytes): 0
	Major (requiring I/O) page faults: 0
	Minor (reclaiming a frame) page faults: 3919
	Voluntary context switches: 6
	Involuntary context switches: 9
	Swaps: 0
	File system inputs: 0
	File system outputs: 112
	Socket messages sent: 0
	Socket messages received: 0
	Signals delivered: 0
	Page size (bytes): 4096
	Exit status: 0
