+ /usr/bin/timeout 600 /usr/bin/time -v mzn-lbbd lbbd-datasets/Rabadi-2006/dzn-balanced/model.mzn lbbd-datasets/Rabadi-2006/dzn-balanced/10on6Rp50Rs50_3Ameer.dzn
% No search annotation given. Defaulting to VSIDS!
% [makespan>120]
Found 156 new models
assign = array1d(1..16 ,[1, 3, 5, 2, 6, 2, 5, 1, 4, 3, 1, 2, 3, 4, 5, 6]);
next = array1d(1..16 ,[11, 10, 7, 12, 16, 4, 15, 1, 14, 13, 6, 2, 9, 3, 5, 8]);
makespan = 242;
----------
Found 15 new models
assign = array1d(1..16 ,[2, 4, 3, 6, 4, 6, 5, 5, 1, 3, 1, 2, 3, 4, 5, 6]);
next = array1d(1..16 ,[12, 5, 13, 16, 14, 4, 8, 15, 11, 3, 1, 10, 2, 7, 6, 9]);
makespan = 204;
----------
Found 2 new models
assign = array1d(1..16 ,[2, 5, 3, 6, 4, 6, 4, 5, 1, 3, 1, 2, 3, 4, 5, 6]);
next = array1d(1..16 ,[12, 15, 13, 16, 7, 4, 14, 2, 11, 3, 1, 10, 5, 8, 6, 9]);
makespan = 201;
----------
Found 2 new models
assign = array1d(1..16 ,[2, 5, 2, 3, 4, 3, 4, 5, 1, 6, 1, 2, 3, 4, 5, 6]);
next = array1d(1..16 ,[12, 15, 1, 13, 7, 4, 14, 2, 11, 16, 3, 6, 5, 8, 10, 9]);
makespan = 198;
----------
Found 9 new models
assign = array1d(1..16 ,[6, 5, 2, 3, 4, 4, 3, 5, 1, 6, 1, 2, 3, 4, 5, 6]);
next = array1d(1..16 ,[16, 8, 12, 13, 14, 5, 4, 15, 11, 1, 3, 7, 6, 2, 10, 9]);
makespan = 188;
----------
% [makespan>124]
Found 2 new models
assign = array1d(1..16 ,[6, 1, 2, 3, 2, 4, 4, 5, 3, 6, 1, 2, 3, 4, 5, 6]);
next = array1d(1..16 ,[16, 11, 12, 13, 3, 14, 6, 15, 4, 1, 5, 9, 7, 8, 10, 2]);
makespan = 186;
----------
% [makespan>125]
% [makespan>130]
==========
	Command being timed: "mzn-lbbd lbbd-datasets/Rabadi-2006/dzn-balanced/model.mzn lbbd-datasets/Rabadi-2006/dzn-balanced/10on6Rp50Rs50_3Ameer.dzn"
	User time (seconds): 21.10
	System time (seconds): 0.03
	Percent of CPU this job got: 99%
	Elapsed (wall clock) time (h:mm:ss or m:ss): 0:21.18
	Average shared text size (kbytes): 0
	Average unshared data size (kbytes): 0
	Average stack size (kbytes): 0
	Average total size (kbytes): 0
	Maximum resident set size (kbytes): 104992
	Average resident set size (kbytes): 0
	Major (requiring I/O) page faults: 0
	Minor (reclaiming a frame) page faults: 7641
	Voluntary context switches: 5
	Involuntary context switches: 38
	Swaps: 0
	File system inputs: 0
	File system outputs: 552
	Socket messages sent: 0
	Socket messages received: 0
	Signals delivered: 0
	Page size (bytes): 4096
	Exit status: 0
