+ /usr/bin/timeout 600 /usr/bin/time -v mzn-lbbd lbbd-datasets/Rabadi-2006/dzn-balanced/model.mzn lbbd-datasets/Rabadi-2006/dzn-balanced/10on6Rp50Rs50_14Ameer.dzn
% No search annotation given. Defaulting to VSIDS!
% [makespan>114]
Found 8 new models
assign = array1d(1..16 ,[4, 4, 4, 4, 4, 4, 6, 6, 6, 6, 1, 2, 3, 4, 5, 6]);
next = array1d(1..16 ,[14, 1, 5, 3, 2, 4, 10, 16, 8, 9, 12, 13, 6, 15, 7, 11]);
makespan = 789;
----------
Found 11 new models
assign = array1d(1..16 ,[4, 4, 4, 4, 4, 6, 6, 4, 5, 5, 1, 2, 3, 4, 5, 6]);
next = array1d(1..16 ,[14, 1, 5, 2, 4, 7, 16, 3, 15, 9, 12, 13, 8, 10, 6, 11]);
makespan = 772;
----------
Found 19 new models
assign = array1d(1..16 ,[4, 4, 1, 4, 4, 6, 6, 4, 4, 1, 1, 2, 3, 4, 5, 6]);
next = array1d(1..16 ,[14, 4, 10, 8, 2, 7, 16, 9, 1, 11, 12, 13, 5, 15, 6, 3]);
makespan = 748;
----------
Found 245 new models
assign = array1d(1..16 ,[4, 4, 5, 1, 6, 3, 5, 6, 3, 2, 1, 2, 3, 4, 5, 6]);
next = array1d(1..16 ,[14, 1, 7, 11, 8, 9, 15, 16, 13, 12, 10, 6, 2, 3, 5, 4]);
makespan = 198;
----------
Found 5 new models
assign = array1d(1..16 ,[2, 4, 3, 4, 1, 3, 6, 1, 5, 2, 1, 2, 3, 4, 5, 6]);
next = array1d(1..16 ,[12, 14, 6, 2, 8, 13, 16, 11, 15, 1, 10, 3, 4, 9, 7, 5]);
makespan = 192;
----------
Found 8 new models
assign = array1d(1..16 ,[4, 2, 6, 4, 5, 2, 3, 6, 3, 1, 1, 2, 3, 4, 5, 6]);
next = array1d(1..16 ,[14, 6, 16, 1, 15, 12, 9, 3, 13, 11, 2, 7, 4, 5, 8, 10]);
makespan = 183;
----------
% [makespan>114]
Found 1 new models
assign = array1d(1..16 ,[4, 5, 6, 2, 3, 6, 5, 4, 3, 1, 1, 2, 3, 4, 5, 6]);
next = array1d(1..16 ,[14, 15, 16, 12, 9, 3, 2, 1, 13, 11, 4, 5, 8, 7, 6, 10]);
makespan = 182;
----------
Found 6 new models
assign = array1d(1..16 ,[4, 5, 6, 4, 3, 2, 5, 6, 3, 1, 1, 2, 3, 4, 5, 6]);
next = array1d(1..16 ,[14, 15, 8, 1, 9, 12, 2, 16, 13, 11, 6, 5, 4, 7, 3, 10]);
makespan = 176;
----------
Found 4 new models
assign = array1d(1..16 ,[4, 3, 6, 4, 1, 5, 5, 6, 1, 2, 1, 2, 3, 4, 5, 6]);
next = array1d(1..16 ,[14, 13, 8, 1, 11, 7, 15, 16, 5, 12, 10, 2, 4, 6, 3, 9]);
makespan = 172;
----------
% [makespan>117]
% [makespan>117]
==========
	Command being timed: "mzn-lbbd lbbd-datasets/Rabadi-2006/dzn-balanced/model.mzn lbbd-datasets/Rabadi-2006/dzn-balanced/10on6Rp50Rs50_14Ameer.dzn"
	User time (seconds): 21.43
	System time (seconds): 0.02
	Percent of CPU this job got: 99%
	Elapsed (wall clock) time (h:mm:ss or m:ss): 0:21.49
	Average shared text size (kbytes): 0
	Average unshared data size (kbytes): 0
	Average stack size (kbytes): 0
	Average total size (kbytes): 0
	Maximum resident set size (kbytes): 105200
	Average resident set size (kbytes): 0
	Major (requiring I/O) page faults: 0
	Minor (reclaiming a frame) page faults: 7639
	Voluntary context switches: 5
	Involuntary context switches: 63
	Swaps: 0
	File system inputs: 0
	File system outputs: 552
	Socket messages sent: 0
	Socket messages received: 0
	Signals delivered: 0
	Page size (bytes): 4096
	Exit status: 0
