+ /usr/bin/timeout 600 /usr/bin/time -v mzn-lbbd lbbd-datasets/sscplp/trucks-dzn/model.mzn lbbd-datasets/sscplp/trucks-dzn/p20-l40-c50-uncorrelated.dzn
% No search annotation given. Defaulting to VSIDS!
% [obj>16591]
