+ /usr/bin/timeout 600 /usr/bin/time -v mzn-lbbd lbbd-datasets/Rabadi-2006/dzn-balanced/model.mzn lbbd-datasets/Rabadi-2006/dzn-balanced/8on6Rp50Rs50_13Ameer.dzn
% No search annotation given. Defaulting to VSIDS!
% [makespan>104]
Found 100 new models
assign = array1d(1..14 ,[1, 3, 2, 5, 1, 6, 3, 4, 1, 2, 3, 4, 5, 6]);
next = array1d(1..14 ,[9, 11, 10, 13, 1, 14, 2, 12, 3, 7, 8, 4, 6, 5]);
makespan = 190;
----------
Found 10 new models
assign = array1d(1..14 ,[1, 5, 3, 6, 2, 1, 5, 4, 1, 2, 3, 4, 5, 6]);
next = array1d(1..14 ,[9, 13, 11, 14, 10, 1, 2, 12, 5, 3, 8, 7, 4, 6]);
makespan = 164;
----------
% [makespan>112]
==========
	Command being timed: "mzn-lbbd lbbd-datasets/Rabadi-2006/dzn-balanced/model.mzn lbbd-datasets/Rabadi-2006/dzn-balanced/8on6Rp50Rs50_13Ameer.dzn"
	User time (seconds): 5.50
	System time (seconds): 0.01
	Percent of CPU this job got: 97%
	Elapsed (wall clock) time (h:mm:ss or m:ss): 0:05.66
	Average shared text size (kbytes): 0
	Average unshared data size (kbytes): 0
	Average stack size (kbytes): 0
	Average total size (kbytes): 0
	Maximum resident set size (kbytes): 79552
	Average resident set size (kbytes): 0
	Major (requiring I/O) page faults: 0
	Minor (reclaiming a frame) page faults: 5666
	Voluntary context switches: 5
	Involuntary context switches: 23
	Swaps: 0
	File system inputs: 0
	File system outputs: 368
	Socket messages sent: 0
	Socket messages received: 0
	Signals delivered: 0
	Page size (bytes): 4096
	Exit status: 0
