+ /usr/bin/timeout 600 /usr/bin/time -v mzn-lbbd lbbd-datasets/Rabadi-2006/dzn-p-dominant/model.mzn lbbd-datasets/Rabadi-2006/dzn-p-dominant/8on4Rp50Rs50_14Ameer.dzn
% No search annotation given. Defaulting to VSIDS!
% [makespan>292]
Found 64 new models
assign = array1d(1..12 ,[4, 1, 2, 3, 1, 3, 4, 2, 1, 2, 3, 4]);
next = array1d(1..12 ,[12, 9, 8, 11, 2, 4, 1, 10, 3, 6, 7, 5]);
makespan = 359;
----------
Found 6 new models
assign = array1d(1..12 ,[1, 4, 2, 3, 1, 3, 4, 2, 1, 2, 3, 4]);
next = array1d(1..12 ,[5, 12, 8, 11, 9, 4, 2, 10, 3, 6, 7, 1]);
makespan = 346;
----------
==========
	Command being timed: "mzn-lbbd lbbd-datasets/Rabadi-2006/dzn-p-dominant/model.mzn lbbd-datasets/Rabadi-2006/dzn-p-dominant/8on4Rp50Rs50_14Ameer.dzn"
	User time (seconds): 2.40
	System time (seconds): 0.01
	Percent of CPU this job got: 99%
	Elapsed (wall clock) time (h:mm:ss or m:ss): 0:02.42
	Average shared text size (kbytes): 0
	Average unshared data size (kbytes): 0
	Average stack size (kbytes): 0
	Average total size (kbytes): 0
	Maximum resident set size (kbytes): 62320
	Average resident set size (kbytes): 0
	Major (requiring I/O) page faults: 0
	Minor (reclaiming a frame) page faults: 4493
	Voluntary context switches: 6
	Involuntary context switches: 7
	Swaps: 0
	File system inputs: 0
	File system outputs: 256
	Socket messages sent: 0
	Socket messages received: 0
	Signals delivered: 0
	Page size (bytes): 4096
	Exit status: 0
