+ /usr/bin/timeout 600 /usr/bin/time -v mzn-lbbd lbbd-datasets/Rabadi-2006/dzn-p-dominant/model.mzn lbbd-datasets/Rabadi-2006/dzn-p-dominant/8on6Rp50Rs50_8Ameer.dzn
% No search annotation given. Defaulting to VSIDS!
% [makespan>259]
Found 183 new models
assign = array1d(1..14 ,[3, 1, 6, 5, 3, 5, 4, 2, 1, 2, 3, 4, 5, 6]);
next = array1d(1..14 ,[11, 9, 14, 13, 1, 4, 12, 10, 8, 5, 7, 6, 3, 2]);
makespan = 340;
----------
Found 2 new models
assign = array1d(1..14 ,[1, 5, 2, 5, 3, 6, 4, 6, 1, 2, 3, 4, 5, 6]);
next = array1d(1..14 ,[9, 4, 10, 13, 11, 14, 12, 6, 3, 5, 7, 2, 8, 1]);
makespan = 332;
----------
% [makespan>259]
Found 2 new models
assign = array1d(1..14 ,[3, 1, 2, 2, 4, 1, 5, 6, 1, 2, 3, 4, 5, 6]);
next = array1d(1..14 ,[11, 6, 4, 10, 12, 9, 13, 14, 3, 1, 5, 7, 8, 2]);
makespan = 330;
----------
==========
	Command being timed: "mzn-lbbd lbbd-datasets/Rabadi-2006/dzn-p-dominant/model.mzn lbbd-datasets/Rabadi-2006/dzn-p-dominant/8on6Rp50Rs50_8Ameer.dzn"
	User time (seconds): 5.27
	System time (seconds): 0.01
	Percent of CPU this job got: 99%
	Elapsed (wall clock) time (h:mm:ss or m:ss): 0:05.30
	Average shared text size (kbytes): 0
	Average unshared data size (kbytes): 0
	Average stack size (kbytes): 0
	Average total size (kbytes): 0
	Maximum resident set size (kbytes): 78800
	Average resident set size (kbytes): 0
	Major (requiring I/O) page faults: 0
	Minor (reclaiming a frame) page faults: 5618
	Voluntary context switches: 3
	Involuntary context switches: 18
	Swaps: 0
	File system inputs: 0
	File system outputs: 368
	Socket messages sent: 0
	Socket messages received: 0
	Signals delivered: 0
	Page size (bytes): 4096
	Exit status: 0
