+ /usr/bin/timeout 600 /usr/bin/time -v mzn-lbbd lbbd-datasets/Rabadi-2006/dzn-s-dominant/model.mzn lbbd-datasets/Rabadi-2006/dzn-s-dominant/9on4Rp50Rs50_11Ameer.dzn
% No search annotation given. Defaulting to VSIDS!
% [makespan>164]
Found 44 new models
assign = array1d(1..13 ,[4, 1, 4, 2, 2, 3, 3, 1, 2, 1, 2, 3, 4]);
next = array1d(1..13 ,[13, 10, 1, 11, 4, 7, 12, 2, 5, 9, 6, 3, 8]);
makespan = 464;
----------
Found 8 new models
assign = array1d(1..13 ,[4, 2, 4, 3, 1, 3, 2, 1, 1, 1, 2, 3, 4]);
next = array1d(1..13 ,[13, 11, 1, 6, 8, 12, 2, 10, 5, 7, 4, 3, 9]);
makespan = 440;
----------
% [makespan>164]
Found 7 new models
assign = array1d(1..13 ,[4, 3, 4, 2, 1, 2, 3, 1, 2, 1, 2, 3, 4]);
next = array1d(1..13 ,[13, 12, 1, 9, 8, 4, 2, 10, 11, 6, 7, 3, 5]);
makespan = 433;
----------
% [makespan>165]
% [makespan>165]
% [makespan>170]
% [makespan>171]
% [makespan>172]
% [makespan>172]
% [makespan>173]
% [makespan>173]
% [makespan>173]
% [makespan>173]
% [makespan>173]
% [makespan>173]
