+ /usr/bin/timeout 600 /usr/bin/time -v mzn-lbbd lbbd-datasets/sscplp/trucks-dzn/model.mzn lbbd-datasets/sscplp/trucks-dzn/p10-l40-c50-correlated.dzn
% No search annotation given. Defaulting to VSIDS!
% [obj>14568]
