+ /usr/bin/timeout 600 /usr/bin/time -v mzn-lbbd lbbd-datasets/planningandscheduling/makespan-insts/model.mzn lbbd-datasets/planningandscheduling/makespan-insts/de28j3m1.dzn
% No search annotation given. Defaulting to VSIDS!
% [makespan>29]
Found 22 new models
obj = 70
----------
Found 10 new models
obj = 60
----------
Found 12 new models
obj = 48
----------
Found 7 new models
obj = 41
----------
Found 2 new models
obj = 39
----------
Found 1 new models
obj = 38
----------
Found 2 new models
obj = 36
----------
Found 1 new models
obj = 35
----------
% [makespan>29]
Found 1 new models
obj = 34
----------
% [makespan>30]
% [makespan>30]
% [makespan>30]
Found 1 new models
obj = 33
----------
% [makespan>31]
% [makespan>32]
==========
	Command being timed: "mzn-lbbd lbbd-datasets/planningandscheduling/makespan-insts/model.mzn lbbd-datasets/planningandscheduling/makespan-insts/de28j3m1.dzn"
	User time (seconds): 28.77
	System time (seconds): 0.02
	Percent of CPU this job got: 99%
	Elapsed (wall clock) time (h:mm:ss or m:ss): 0:28.86
	Average shared text size (kbytes): 0
	Average unshared data size (kbytes): 0
	Average stack size (kbytes): 0
	Average total size (kbytes): 0
	Maximum resident set size (kbytes): 97376
	Average resident set size (kbytes): 0
	Major (requiring I/O) page faults: 0
	Minor (reclaiming a frame) page faults: 7355
	Voluntary context switches: 4
	Involuntary context switches: 70
	Swaps: 0
	File system inputs: 0
	File system outputs: 128
	Socket messages sent: 0
	Socket messages received: 0
	Signals delivered: 0
	Page size (bytes): 4096
	Exit status: 0
