+ /usr/bin/timeout 600 /usr/bin/time -v mzn-lbbd lbbd-datasets/Rabadi-2006/dzn-balanced/model.mzn lbbd-datasets/Rabadi-2006/dzn-balanced/11on6Rp50Rs50_1Ameer.dzn
% No search annotation given. Defaulting to VSIDS!
% [makespan>128]
Found 90 new models
assign = array1d(1..17 ,[6, 1, 6, 5, 5, 3, 4, 1, 3, 2, 4, 1, 2, 3, 4, 5, 6]);
next = array1d(1..17 ,[17, 12, 1, 16, 4, 9, 15, 2, 14, 13, 7, 10, 6, 11, 5, 3, 8]);
makespan = 212;
----------
Found 9 new models
assign = array1d(1..17 ,[4, 1, 3, 5, 2, 3, 6, 6, 4, 1, 5, 1, 2, 3, 4, 5, 6]);
next = array1d(1..17 ,[9, 12, 6, 16, 13, 14, 8, 17, 15, 2, 4, 5, 3, 1, 11, 7, 10]);
makespan = 202;
----------
Found 4 new models
assign = array1d(1..17 ,[1, 4, 5, 6, 5, 2, 3, 3, 4, 1, 6, 1, 2, 3, 4, 5, 6]);
next = array1d(1..17 ,[10, 15, 5, 17, 16, 13, 8, 14, 2, 12, 4, 6, 7, 9, 3, 11, 1]);
makespan = 198;
----------
% [makespan>129]
% [makespan>131]
% [makespan>133]
Found 3 new models
assign = array1d(1..17 ,[6, 2, 3, 4, 3, 5, 6, 1, 1, 4, 5, 1, 2, 3, 4, 5, 6]);
next = array1d(1..17 ,[7, 13, 5, 10, 14, 16, 17, 12, 8, 15, 6, 2, 3, 4, 11, 1, 9]);
makespan = 195;
----------
% [makespan>133]
% [makespan>137]
% [makespan>138]
==========
	Command being timed: "mzn-lbbd lbbd-datasets/Rabadi-2006/dzn-balanced/model.mzn lbbd-datasets/Rabadi-2006/dzn-balanced/11on6Rp50Rs50_1Ameer.dzn"
	User time (seconds): 57.20
	System time (seconds): 0.03
	Percent of CPU this job got: 99%
	Elapsed (wall clock) time (h:mm:ss or m:ss): 0:57.34
	Average shared text size (kbytes): 0
	Average unshared data size (kbytes): 0
	Average stack size (kbytes): 0
	Average total size (kbytes): 0
	Maximum resident set size (kbytes): 147440
	Average resident set size (kbytes): 0
	Major (requiring I/O) page faults: 0
	Minor (reclaiming a frame) page faults: 11110
	Voluntary context switches: 6
	Involuntary context switches: 71
	Swaps: 0
	File system inputs: 0
	File system outputs: 672
	Socket messages sent: 0
	Socket messages received: 0
	Signals delivered: 0
	Page size (bytes): 4096
	Exit status: 0
