+ /usr/bin/timeout 600 /usr/bin/time -v mzn-lbbd lbbd-datasets/planningandscheduling/cost-insts/model.mzn lbbd-datasets/planningandscheduling/cost-insts/e40j8m4.dzn
% No search annotation given. Defaulting to VSIDS!
% [sched_cost>832]
% [sched_cost>833]
Found 63 new models
obj = 1105
----------
Found 32 new models
obj = 914
----------
Found 12 new models
obj = 856
----------
Found 2 new models
obj = 854
----------
Found 2 new models
obj = 851
----------
Found 3 new models
obj = 845
----------
% [sched_cost>834]
Found 1 new models
obj = 841
----------
% [sched_cost>835]
Found 2 new models
obj = 839
----------
Found 1 new models
obj = 838
----------
% [sched_cost>836]
% [sched_cost>840]
==========
	Command being timed: "mzn-lbbd lbbd-datasets/planningandscheduling/cost-insts/model.mzn lbbd-datasets/planningandscheduling/cost-insts/e40j8m4.dzn"
	User time (seconds): 118.75
	System time (seconds): 0.07
	Percent of CPU this job got: 99%
	Elapsed (wall clock) time (h:mm:ss or m:ss): 1:59.09
	Average shared text size (kbytes): 0
	Average unshared data size (kbytes): 0
	Average stack size (kbytes): 0
	Average total size (kbytes): 0
	Maximum resident set size (kbytes): 202592
	Average resident set size (kbytes): 0
	Major (requiring I/O) page faults: 0
	Minor (reclaiming a frame) page faults: 14635
	Voluntary context switches: 6
	Involuntary context switches: 146
	Swaps: 0
	File system inputs: 0
	File system outputs: 448
	Socket messages sent: 0
	Socket messages received: 0
	Signals delivered: 0
	Page size (bytes): 4096
	Exit status: 0
