+ /usr/bin/timeout 600 /usr/bin/time -v mzn-lbbd lbbd-datasets/Rabadi-2006/dzn-s-dominant/model.mzn lbbd-datasets/Rabadi-2006/dzn-s-dominant/10on6Rp50Rs50_11Ameer.dzn
% No search annotation given. Defaulting to VSIDS!
% [makespan>124]
Found 26 new models
assign = array1d(1..16 ,[3, 6, 3, 3, 3, 6, 3, 3, 1, 3, 1, 2, 3, 4, 5, 6]);
next = array1d(1..16 ,[7, 6, 4, 5, 13, 16, 8, 3, 11, 1, 12, 10, 14, 15, 2, 9]);
makespan = 1435;
----------
Found 8 new models
assign = array1d(1..16 ,[3, 1, 6, 3, 3, 3, 3, 3, 4, 3, 1, 2, 3, 4, 5, 6]);
next = array1d(1..16 ,[7, 11, 16, 5, 6, 13, 8, 10, 14, 4, 12, 1, 9, 15, 3, 2]);
makespan = 1421;
----------
Found 6 new models
assign = array1d(1..16 ,[3, 3, 3, 3, 3, 1, 6, 3, 1, 3, 1, 2, 3, 4, 5, 6]);
next = array1d(1..16 ,[8, 3, 4, 5, 13, 9, 16, 10, 11, 2, 12, 1, 14, 15, 7, 6]);
makespan = 1403;
----------
Found 360 new models
assign = array1d(1..16 ,[3, 4, 3, 1, 3, 6, 2, 2, 1, 4, 1, 2, 3, 4, 5, 6]);
next = array1d(1..16 ,[3, 14, 5, 9, 13, 16, 12, 7, 11, 2, 8, 1, 10, 15, 6, 4]);
makespan = 467;
----------
Found 39 new models
assign = array1d(1..16 ,[3, 5, 3, 1, 4, 4, 6, 1, 2, 6, 1, 2, 3, 4, 5, 6]);
next = array1d(1..16 ,[3, 15, 13, 8, 14, 5, 10, 11, 12, 16, 9, 1, 6, 2, 7, 4]);
makespan = 299;
----------
Found 9 new models
assign = array1d(1..16 ,[3, 4, 5, 2, 3, 4, 1, 2, 6, 1, 1, 2, 3, 4, 5, 6]);
next = array1d(1..16 ,[5, 6, 15, 12, 13, 14, 11, 4, 16, 7, 8, 1, 2, 3, 9, 10]);
makespan = 265;
----------
Found 2 new models
assign = array1d(1..16 ,[5, 6, 4, 2, 3, 6, 1, 2, 3, 1, 1, 2, 3, 4, 5, 6]);
next = array1d(1..16 ,[15, 16, 14, 12, 13, 2, 11, 4, 5, 7, 8, 9, 3, 1, 6, 10]);
makespan = 261;
----------
% [makespan>125]
Found 1 new models
assign = array1d(1..16 ,[6, 4, 5, 2, 3, 6, 1, 2, 4, 1, 1, 2, 3, 4, 5, 6]);
next = array1d(1..16 ,[6, 14, 15, 12, 13, 16, 11, 4, 2, 7, 8, 5, 9, 3, 1, 10]);
makespan = 260;
----------
% [makespan>126]
Found 3 new models
assign = array1d(1..16 ,[3, 3, 5, 2, 6, 4, 1, 2, 4, 1, 1, 2, 3, 4, 5, 6]);
next = array1d(1..16 ,[2, 13, 15, 12, 16, 9, 11, 4, 14, 7, 8, 1, 6, 3, 5, 10]);
makespan = 257;
----------
% [makespan>126]
==========
	Command being timed: "mzn-lbbd lbbd-datasets/Rabadi-2006/dzn-s-dominant/model.mzn lbbd-datasets/Rabadi-2006/dzn-s-dominant/10on6Rp50Rs50_11Ameer.dzn"
	User time (seconds): 30.88
	System time (seconds): 0.03
	Percent of CPU this job got: 99%
	Elapsed (wall clock) time (h:mm:ss or m:ss): 0:30.97
	Average shared text size (kbytes): 0
	Average unshared data size (kbytes): 0
	Average stack size (kbytes): 0
	Average total size (kbytes): 0
	Maximum resident set size (kbytes): 108896
	Average resident set size (kbytes): 0
	Major (requiring I/O) page faults: 0
	Minor (reclaiming a frame) page faults: 7922
	Voluntary context switches: 6
	Involuntary context switches: 53
	Swaps: 0
	File system inputs: 0
	File system outputs: 552
	Socket messages sent: 0
	Socket messages received: 0
	Signals delivered: 0
	Page size (bytes): 4096
	Exit status: 0
