+ /usr/bin/timeout 600 /usr/bin/time -v mzn-lbbd lbbd-datasets/Rabadi-2006/dzn-balanced/model.mzn lbbd-datasets/Rabadi-2006/dzn-balanced/11on6Rp50Rs50_4Ameer.dzn
% No search annotation given. Defaulting to VSIDS!
% [makespan>121]
Found 51 new models
assign = array1d(1..17 ,[1, 1, 4, 5, 5, 6, 1, 4, 6, 4, 4, 1, 2, 3, 4, 5, 6]);
next = array1d(1..17 ,[12, 7, 10, 5, 16, 17, 1, 15, 6, 11, 8, 13, 14, 3, 4, 9, 2]);
makespan = 466;
----------
Found 11 new models
assign = array1d(1..17 ,[4, 4, 4, 3, 5, 6, 1, 3, 3, 6, 6, 1, 2, 3, 4, 5, 6]);
next = array1d(1..17 ,[3, 15, 2, 14, 16, 10, 12, 9, 4, 11, 17, 13, 8, 1, 5, 6, 7]);
makespan = 437;
----------
Found 16 new models
assign = array1d(1..17 ,[4, 6, 4, 3, 5, 5, 1, 3, 3, 5, 4, 1, 2, 3, 4, 5, 6]);
next = array1d(1..17 ,[3, 17, 11, 14, 6, 10, 12, 9, 4, 16, 15, 13, 8, 1, 5, 2, 7]);
makespan = 417;
----------
Found 19 new models
assign = array1d(1..17 ,[6, 3, 4, 6, 5, 5, 1, 3, 3, 4, 4, 1, 2, 3, 4, 5, 6]);
next = array1d(1..17 ,[4, 14, 11, 17, 6, 16, 12, 9, 2, 3, 15, 13, 8, 10, 5, 1, 7]);
makespan = 385;
----------
Found 87 new models
assign = array1d(1..17 ,[6, 2, 1, 1, 5, 5, 4, 6, 3, 2, 3, 1, 2, 3, 4, 5, 6]);
next = array1d(1..17 ,[17, 10, 4, 12, 6, 16, 15, 1, 11, 13, 14, 2, 9, 7, 5, 8, 3]);
makespan = 195;
----------
Found 8 new models
assign = array1d(1..17 ,[6, 2, 1, 1, 5, 3, 5, 6, 3, 2, 4, 1, 2, 3, 4, 5, 6]);
next = array1d(1..17 ,[17, 10, 4, 12, 16, 14, 5, 1, 6, 13, 15, 2, 9, 11, 7, 8, 3]);
makespan = 186;
----------
% [makespan>124]
% [makespan>126]
% [makespan>126]
Found 4 new models
assign = array1d(1..17 ,[4, 5, 1, 1, 6, 3, 2, 6, 2, 3, 5, 1, 2, 3, 4, 5, 6]);
next = array1d(1..17 ,[15, 11, 4, 12, 8, 10, 13, 17, 7, 14, 16, 9, 6, 1, 2, 5, 3]);
makespan = 182;
----------
% [makespan>129]
% [makespan>129]
==========
	Command being timed: "mzn-lbbd lbbd-datasets/Rabadi-2006/dzn-balanced/model.mzn lbbd-datasets/Rabadi-2006/dzn-balanced/11on6Rp50Rs50_4Ameer.dzn"
	User time (seconds): 41.91
	System time (seconds): 0.03
	Percent of CPU this job got: 99%
	Elapsed (wall clock) time (h:mm:ss or m:ss): 0:42.02
	Average shared text size (kbytes): 0
	Average unshared data size (kbytes): 0
	Average stack size (kbytes): 0
	Average total size (kbytes): 0
	Maximum resident set size (kbytes): 129344
	Average resident set size (kbytes): 0
	Major (requiring I/O) page faults: 0
	Minor (reclaiming a frame) page faults: 9486
	Voluntary context switches: 9
	Involuntary context switches: 57
	Swaps: 0
	File system inputs: 0
	File system outputs: 672
	Socket messages sent: 0
	Socket messages received: 0
	Signals delivered: 0
	Page size (bytes): 4096
	Exit status: 0
