+ /usr/bin/timeout 600 /usr/bin/time -v mzn-lbbd lbbd-datasets/Rabadi-2006/dzn-p-dominant/model.mzn lbbd-datasets/Rabadi-2006/dzn-p-dominant/10on4Rp50Rs50_7Ameer.dzn
% No search annotation given. Defaulting to VSIDS!
% [makespan>399]
Found 85 new models
assign = array1d(1..14 ,[4, 3, 3, 3, 4, 2, 2, 1, 1, 1, 1, 2, 3, 4]);
next = array1d(1..14 ,[5, 13, 4, 2, 14, 7, 12, 10, 8, 11, 6, 3, 1, 9]);
makespan = 553;
----------
Found 7 new models
assign = array1d(1..14 ,[1, 3, 2, 4, 4, 3, 3, 1, 2, 1, 1, 2, 3, 4]);
next = array1d(1..14 ,[8, 6, 12, 14, 4, 13, 2, 10, 3, 11, 9, 7, 5, 1]);
makespan = 545;
----------
Found 2 new models
assign = array1d(1..14 ,[1, 3, 2, 3, 4, 3, 4, 1, 2, 1, 1, 2, 3, 4]);
next = array1d(1..14 ,[8, 6, 12, 2, 7, 13, 14, 11, 3, 1, 9, 4, 5, 10]);
makespan = 540;
----------
Found 23 new models
assign = array1d(1..14 ,[1, 4, 3, 2, 1, 3, 2, 4, 1, 4, 1, 2, 3, 4]);
next = array1d(1..14 ,[11, 8, 13, 7, 1, 3, 12, 14, 5, 2, 4, 6, 10, 9]);
makespan = 517;
----------
% [makespan>405]
% [makespan>410]
% [makespan>410]
% [makespan>412]
% [makespan>415]
% [makespan>415]
% [makespan>417]
% [makespan>420]
% [makespan>420]
% [makespan>420]
% [makespan>422]
% [makespan>422]
% [makespan>422]
% [makespan>422]
% [makespan>422]
% [makespan>422]
% [makespan>422]
% [makespan>422]
% [makespan>422]
==========
	Command being timed: "mzn-lbbd lbbd-datasets/Rabadi-2006/dzn-p-dominant/model.mzn lbbd-datasets/Rabadi-2006/dzn-p-dominant/10on4Rp50Rs50_7Ameer.dzn"
	User time (seconds): 498.07
	System time (seconds): 0.10
	Percent of CPU this job got: 99%
	Elapsed (wall clock) time (h:mm:ss or m:ss): 8:19.19
	Average shared text size (kbytes): 0
	Average unshared data size (kbytes): 0
	Average stack size (kbytes): 0
	Average total size (kbytes): 0
	Maximum resident set size (kbytes): 267936
	Average resident set size (kbytes): 0
	Major (requiring I/O) page faults: 0
	Minor (reclaiming a frame) page faults: 20388
	Voluntary context switches: 27
	Involuntary context switches: 735
	Swaps: 0
	File system inputs: 0
	File system outputs: 512
	Socket messages sent: 0
	Socket messages received: 0
	Signals delivered: 0
	Page size (bytes): 4096
	Exit status: 0
