+ /usr/bin/timeout 600 /usr/bin/time -v mzn-lbbd lbbd-datasets/planningandscheduling/cost-insts/model.mzn lbbd-datasets/planningandscheduling/cost-insts/e45j9m3.dzn
% No search annotation given. Defaulting to VSIDS!
% [sched_cost>1009]
Found 27 new models
obj = 1353
----------
Found 21 new models
obj = 1192
----------
Found 2 new models
obj = 1181
----------
Found 5 new models
obj = 1170
----------
Found 8 new models
obj = 1118
----------
Found 9 new models
obj = 1091
----------
Found 1 new models
obj = 1087
----------
% [sched_cost>1010]
Found 4 new models
obj = 1077
----------
Found 6 new models
obj = 1056
----------
Found 2 new models
obj = 1053
----------
Found 2 new models
obj = 1047
----------
Found 3 new models
obj = 1038
----------
Found 3 new models
obj = 1032
----------
Found 2 new models
obj = 1028
----------
% [sched_cost>1011]
Found 1 new models
obj = 1026
----------
Found 1 new models
obj = 1025
----------
% [sched_cost>1013]
% [sched_cost>1014]
% [sched_cost>1015]
% [sched_cost>1016]
Found 1 new models
obj = 1024
----------
% [sched_cost>1017]
% [sched_cost>1017]
% [sched_cost>1017]
% [sched_cost>1018]
% [sched_cost>1018]
% [sched_cost>1018]
