+ /usr/bin/timeout 600 /usr/bin/time -v mzn-lbbd lbbd-datasets/Rabadi-2006/dzn-balanced/model.mzn lbbd-datasets/Rabadi-2006/dzn-balanced/7on2Rp50Rs50_10Ameer.dzn
% No search annotation given. Defaulting to VSIDS!
% [makespan>261]
Found 93 new models
assign = array1d(1..9 ,[1, 1, 1, 2, 1, 2, 2, 1, 2]);
next = array1d(1..9 ,[5, 3, 8, 9, 2, 4, 6, 7, 1]);
makespan = 512;
----------
Found 23 new models
assign = array1d(1..9 ,[2, 2, 1, 2, 1, 1, 1, 1, 2]);
next = array1d(1..9 ,[9, 4, 7, 1, 6, 3, 8, 2, 5]);
makespan = 455;
----------
Found 6 new models
assign = array1d(1..9 ,[1, 2, 1, 2, 1, 1, 2, 1, 2]);
next = array1d(1..9 ,[8, 4, 6, 7, 3, 1, 9, 2, 5]);
makespan = 447;
----------
Found 15 new models
assign = array1d(1..9 ,[1, 2, 1, 2, 1, 1, 2, 1, 2]);
next = array1d(1..9 ,[5, 4, 6, 9, 3, 8, 2, 7, 1]);
makespan = 430;
----------
% [makespan>271]
==========
	Command being timed: "mzn-lbbd lbbd-datasets/Rabadi-2006/dzn-balanced/model.mzn lbbd-datasets/Rabadi-2006/dzn-balanced/7on2Rp50Rs50_10Ameer.dzn"
	User time (seconds): 2.43
	System time (seconds): 0.01
	Percent of CPU this job got: 99%
	Elapsed (wall clock) time (h:mm:ss or m:ss): 0:02.45
	Average shared text size (kbytes): 0
	Average unshared data size (kbytes): 0
	Average stack size (kbytes): 0
	Average total size (kbytes): 0
	Maximum resident set size (kbytes): 52384
	Average resident set size (kbytes): 0
	Major (requiring I/O) page faults: 0
	Minor (reclaiming a frame) page faults: 3926
	Voluntary context switches: 6
	Involuntary context switches: 6
	Swaps: 0
	File system inputs: 0
	File system outputs: 112
	Socket messages sent: 0
	Socket messages received: 0
	Signals delivered: 0
	Page size (bytes): 4096
	Exit status: 0
