+ /usr/bin/timeout 600 /usr/bin/time -v mzn-lbbd lbbd-datasets/Rabadi-2006/dzn-s-dominant/model.mzn lbbd-datasets/Rabadi-2006/dzn-s-dominant/9on6Rp50Rs50_7Ameer.dzn
% No search annotation given. Defaulting to VSIDS!
% [makespan>110]
Found 62 new models
assign = array1d(1..15 ,[6, 3, 6, 3, 3, 6, 5, 3, 3, 1, 2, 3, 4, 5, 6]);
next = array1d(1..15 ,[6, 8, 1, 2, 12, 15, 14, 9, 5, 11, 4, 13, 7, 3, 10]);
makespan = 937;
----------
Found 148 new models
assign = array1d(1..15 ,[5, 2, 4, 1, 3, 5, 6, 2, 3, 1, 2, 3, 4, 5, 6]);
next = array1d(1..15 ,[6, 11, 13, 10, 12, 14, 15, 2, 5, 8, 9, 3, 1, 7, 4]);
makespan = 244;
----------
% [makespan>112]
% [makespan>113]
==========
	Command being timed: "mzn-lbbd lbbd-datasets/Rabadi-2006/dzn-s-dominant/model.mzn lbbd-datasets/Rabadi-2006/dzn-s-dominant/9on6Rp50Rs50_7Ameer.dzn"
	User time (seconds): 14.68
	System time (seconds): 0.02
	Percent of CPU this job got: 99%
	Elapsed (wall clock) time (h:mm:ss or m:ss): 0:14.73
	Average shared text size (kbytes): 0
	Average unshared data size (kbytes): 0
	Average stack size (kbytes): 0
	Average total size (kbytes): 0
	Maximum resident set size (kbytes): 93008
	Average resident set size (kbytes): 0
	Major (requiring I/O) page faults: 0
	Minor (reclaiming a frame) page faults: 6671
	Voluntary context switches: 6
	Involuntary context switches: 24
	Swaps: 0
	File system inputs: 0
	File system outputs: 456
	Socket messages sent: 0
	Socket messages received: 0
	Signals delivered: 0
	Page size (bytes): 4096
	Exit status: 0
