+ /usr/bin/timeout 600 /usr/bin/time -v mzn-lbbd lbbd-datasets/Rabadi-2006/dzn-balanced/model.mzn lbbd-datasets/Rabadi-2006/dzn-balanced/10on4Rp50Rs50_10Ameer.dzn
% No search annotation given. Defaulting to VSIDS!
% [makespan>175]
Found 33 new models
assign = array1d(1..14 ,[1, 2, 1, 2, 2, 4, 1, 2, 1, 2, 1, 2, 3, 4]);
next = array1d(1..14 ,[9, 8, 11, 12, 4, 14, 3, 10, 7, 5, 2, 13, 6, 1]);
makespan = 610;
----------
Found 14 new models
assign = array1d(1..14 ,[1, 1, 1, 2, 2, 4, 1, 2, 2, 2, 1, 2, 3, 4]);
next = array1d(1..14 ,[3, 11, 7, 9, 4, 14, 2, 10, 12, 5, 8, 13, 6, 1]);
makespan = 578;
----------
Found 30 new models
assign = array1d(1..14 ,[1, 2, 4, 2, 2, 4, 4, 1, 2, 4, 1, 2, 3, 4]);
next = array1d(1..14 ,[8, 4, 7, 12, 9, 10, 6, 11, 2, 14, 5, 13, 3, 1]);
makespan = 531;
----------
Found 95 new models
assign = array1d(1..14 ,[4, 1, 4, 2, 1, 3, 3, 3, 2, 4, 1, 2, 3, 4]);
next = array1d(1..14 ,[10, 11, 1, 12, 2, 13, 6, 7, 4, 14, 9, 8, 3, 5]);
makespan = 317;
----------
Found 9 new models
assign = array1d(1..14 ,[4, 1, 4, 2, 1, 3, 3, 2, 2, 3, 1, 2, 3, 4]);
next = array1d(1..14 ,[14, 11, 1, 12, 2, 13, 6, 4, 8, 7, 9, 10, 3, 5]);
makespan = 308;
----------
Found 3 new models
assign = array1d(1..14 ,[4, 1, 4, 2, 1, 3, 3, 2, 2, 3, 1, 2, 3, 4]);
next = array1d(1..14 ,[14, 11, 1, 9, 2, 13, 6, 4, 12, 7, 8, 10, 3, 5]);
makespan = 305;
----------
Found 3 new models
assign = array1d(1..14 ,[4, 1, 4, 2, 1, 4, 3, 2, 2, 3, 1, 2, 3, 4]);
next = array1d(1..14 ,[14, 11, 1, 9, 2, 3, 13, 4, 12, 7, 8, 10, 6, 5]);
makespan = 302;
----------
% [makespan>177]
Found 1 new models
assign = array1d(1..14 ,[1, 3, 4, 4, 3, 4, 1, 2, 2, 2, 1, 2, 3, 4]);
next = array1d(1..14 ,[11, 13, 4, 14, 2, 3, 1, 12, 10, 8, 9, 5, 6, 7]);
makespan = 301;
----------
% [makespan>177]
% [makespan>184]
% [makespan>184]
% [makespan>185]
% [makespan>186]
Found 1 new models
assign = array1d(1..14 ,[4, 3, 4, 2, 2, 4, 3, 1, 2, 1, 1, 2, 3, 4]);
next = array1d(1..14 ,[14, 13, 1, 12, 4, 3, 2, 11, 5, 8, 9, 7, 6, 10]);
makespan = 300;
----------
Found 1 new models
assign = array1d(1..14 ,[4, 3, 4, 2, 2, 4, 3, 1, 2, 1, 1, 2, 3, 4]);
next = array1d(1..14 ,[14, 13, 1, 9, 12, 3, 2, 11, 5, 8, 4, 7, 6, 10]);
makespan = 299;
----------
% [makespan>187]
% [makespan>187]
% [makespan>187]
% [makespan>187]
% [makespan>188]
% [makespan>188]
% [makespan>188]
% [makespan>188]
% [makespan>188]
% [makespan>189]
% [makespan>189]
% [makespan>189]
