+ /usr/bin/timeout 600 /usr/bin/time -v mzn-lbbd lbbd-datasets/planningandscheduling/cost-insts/model.mzn lbbd-datasets/planningandscheduling/cost-insts/c26j3m3.dzn
% No search annotation given. Defaulting to VSIDS!
% [sched_cost>502]
Found 19 new models
obj = 678
----------
Found 4 new models
obj = 659
----------
Found 7 new models
obj = 614
----------
Found 1 new models
obj = 608
----------
Found 4 new models
obj = 559
----------
Found 1 new models
obj = 553
----------
% [sched_cost>511]
Found 3 new models
obj = 538
----------
Found 1 new models
obj = 531
----------
% [sched_cost>511]
% [sched_cost>511]
% [sched_cost>513]
% [sched_cost>516]
% [sched_cost>516]
% [sched_cost>516]
% [sched_cost>518]
% [sched_cost>519]
% [sched_cost>520]
% [sched_cost>522]
% [sched_cost>525]
% [sched_cost>525]
% [sched_cost>525]
% [sched_cost>527]
% [sched_cost>529]
==========
	Command being timed: "mzn-lbbd lbbd-datasets/planningandscheduling/cost-insts/model.mzn lbbd-datasets/planningandscheduling/cost-insts/c26j3m3.dzn"
	User time (seconds): 152.41
	System time (seconds): 0.07
	Percent of CPU this job got: 99%
	Elapsed (wall clock) time (h:mm:ss or m:ss): 2:32.76
	Average shared text size (kbytes): 0
	Average unshared data size (kbytes): 0
	Average stack size (kbytes): 0
	Average total size (kbytes): 0
	Maximum resident set size (kbytes): 173888
	Average resident set size (kbytes): 0
	Major (requiring I/O) page faults: 0
	Minor (reclaiming a frame) page faults: 13378
	Voluntary context switches: 8
	Involuntary context switches: 196
	Swaps: 0
	File system inputs: 0
	File system outputs: 208
	Socket messages sent: 0
	Socket messages received: 0
	Signals delivered: 0
	Page size (bytes): 4096
	Exit status: 0
