+ /usr/bin/timeout 600 /usr/bin/time -v mzn-lbbd lbbd-datasets/sscplp/trucks-dzn/model.mzn lbbd-datasets/sscplp/trucks-dzn/p20-l40-c100-correlated.dzn
% No search annotation given. Defaulting to VSIDS!
% [obj>17115]
Found 3 new models
source = [15, 17, 3, 20, 7, 2, 16, 20, 11, 16, 5, 7, 20, 18, 10, 17, 20, 16, 1, 16, 6, 10, 9, 1, 20, 1, 15, 16, 2, 2, 16, 10, 8, 10, 1, 20, 18, 5, 3, 7]
open = [1, 1, 1, 0, 1, 1, 1, 1, 1, 1, 1, 0, 0, 0, 1, 1, 1, 1, 0, 1]
trucks_used = [4, 3, 2, 0, 2, 1, 3, 1, 1, 4, 1, 0, 0, 0, 2, 6, 1, 2, 0, 6]
truck_assigned = [2, 1, 2, 4, 3, 2, 5, 5, 1, 6, 2, 2, 6, 1, 3, 1, 4, 4, 4, 6, 1, 4, 1, 4, 1, 3, 1, 4, 3, 3, 5, 2, 1, 4, 2, 5, 2, 1, 1, 2]
obj = 33342
----------
Found 14 new models
source = [15, 5, 5, 20, 7, 2, 16, 20, 11, 16, 5, 7, 8, 5, 20, 17, 20, 16, 15, 12, 6, 10, 9, 1, 20, 1, 16, 16, 2, 2, 16, 10, 8, 10, 4, 20, 6, 11, 12, 17]
open = [1, 1, 0, 1, 1, 1, 1, 1, 1, 1, 1, 1, 0, 0, 1, 1, 1, 0, 0, 1]
trucks_used = [1, 2, 0, 1, 2, 1, 2, 2, 1, 2, 2, 1, 0, 0, 2, 5, 2, 0, 0, 4]
truck_assigned = [2, 2, 1, 3, 1, 1, 5, 1, 1, 4, 1, 2, 1, 2, 1, 2, 2, 4, 1, 1, 1, 2, 1, 1, 4, 1, 3, 1, 2, 2, 5, 1, 2, 1, 1, 4, 1, 2, 1, 1]
obj = 31932
----------
Found 6 new models
source = [15, 5, 5, 20, 7, 2, 16, 20, 11, 16, 5, 7, 1, 5, 20, 17, 20, 16, 15, 16, 6, 10, 16, 1, 17, 1, 19, 5, 2, 2, 19, 19, 7, 10, 2, 20, 6, 11, 2, 7]
open = [1, 1, 0, 0, 1, 1, 1, 0, 0, 1, 1, 0, 0, 0, 1, 1, 1, 0, 1, 1]
trucks_used = [1, 2, 0, 0, 3, 1, 2, 0, 0, 1, 1, 0, 0, 0, 2, 3, 1, 0, 2, 3]
truck_assigned = [2, 2, 1, 3, 1, 1, 3, 1, 1, 3, 1, 2, 1, 2, 1, 1, 2, 2, 1, 2, 1, 1, 1, 1, 1, 1, 2, 3, 1, 2, 1, 1, 2, 1, 2, 2, 1, 1, 1, 1]
obj = 23753
----------
