+ /usr/bin/timeout 600 /usr/bin/time -v mzn-lbbd lbbd-datasets/planningandscheduling/cost-insts/model.mzn lbbd-datasets/planningandscheduling/cost-insts/c26j4m4.dzn
% No search annotation given. Defaulting to VSIDS!
% [sched_cost>622]
Found 32 new models
obj = 740
----------
Found 4 new models
obj = 712
----------
Found 7 new models
obj = 672
----------
Found 2 new models
obj = 657
----------
% [sched_cost>623]
Found 2 new models
obj = 652
----------
Found 2 new models
obj = 643
----------
Found 1 new models
obj = 642
----------
Found 2 new models
obj = 636
----------
% [sched_cost>623]
Found 1 new models
obj = 635
----------
% [sched_cost>627]
% [sched_cost>627]
% [sched_cost>628]
% [sched_cost>629]
% [sched_cost>631]
% [sched_cost>634]
==========
	Command being timed: "mzn-lbbd lbbd-datasets/planningandscheduling/cost-insts/model.mzn lbbd-datasets/planningandscheduling/cost-insts/c26j4m4.dzn"
	User time (seconds): 174.59
	System time (seconds): 0.06
	Percent of CPU this job got: 99%
	Elapsed (wall clock) time (h:mm:ss or m:ss): 2:55.07
	Average shared text size (kbytes): 0
	Average unshared data size (kbytes): 0
	Average stack size (kbytes): 0
	Average total size (kbytes): 0
	Maximum resident set size (kbytes): 190048
	Average resident set size (kbytes): 0
	Major (requiring I/O) page faults: 0
	Minor (reclaiming a frame) page faults: 15625
	Voluntary context switches: 3
	Involuntary context switches: 214
	Swaps: 0
	File system inputs: 0
	File system outputs: 200
	Socket messages sent: 0
	Socket messages received: 0
	Signals delivered: 0
	Page size (bytes): 4096
	Exit status: 0
