+ /usr/bin/timeout 600 /usr/bin/time -v mzn-lbbd lbbd-datasets/Rabadi-2006/dzn-s-dominant/model.mzn lbbd-datasets/Rabadi-2006/dzn-s-dominant/11on6Rp50Rs50_2Ameer.dzn
% No search annotation given. Defaulting to VSIDS!
% [makespan>129]
Found 53 new models
assign = array1d(1..17 ,[6, 6, 6, 4, 6, 6, 6, 4, 6, 2, 6, 1, 2, 3, 4, 5, 6]);
next = array1d(1..17 ,[17, 3, 1, 8, 6, 7, 9, 15, 11, 13, 2, 10, 14, 4, 16, 5, 12]);
makespan = 1683;
----------
Found 154 new models
assign = array1d(1..17 ,[5, 6, 6, 1, 2, 6, 6, 2, 6, 2, 6, 1, 2, 3, 4, 5, 6]);
next = array1d(1..17 ,[16, 3, 6, 12, 10, 7, 9, 13, 11, 8, 17, 5, 14, 15, 1, 2, 4]);
makespan = 1210;
----------
Found 16 new models
assign = array1d(1..17 ,[6, 5, 1, 5, 2, 6, 6, 5, 6, 6, 6, 1, 2, 3, 4, 5, 6]);
next = array1d(1..17 ,[17, 16, 12, 8, 13, 7, 9, 2, 11, 1, 10, 5, 14, 15, 4, 6, 3]);
makespan = 1171;
----------
Found 321 new models
assign = array1d(1..17 ,[5, 6, 4, 4, 4, 6, 1, 2, 6, 5, 4, 1, 2, 3, 4, 5, 6]);
next = array1d(1..17 ,[10, 9, 11, 15, 4, 2, 12, 13, 17, 16, 5, 8, 14, 3, 1, 6, 7]);
makespan = 652;
----------
Found 179 new models
assign = array1d(1..17 ,[4, 1, 3, 3, 4, 5, 2, 1, 6, 2, 5, 1, 2, 3, 4, 5, 6]);
next = array1d(1..17 ,[5, 12, 4, 14, 15, 11, 13, 2, 17, 7, 16, 10, 3, 1, 6, 9, 8]);
makespan = 286;
----------
Found 9 new models
assign = array1d(1..17 ,[4, 5, 5, 6, 4, 3, 2, 1, 3, 2, 6, 1, 2, 3, 4, 5, 6]);
next = array1d(1..17 ,[15, 3, 16, 17, 1, 14, 13, 12, 6, 7, 4, 10, 9, 5, 2, 11, 8]);
makespan = 273;
----------
Found 1 new models
assign = array1d(1..17 ,[3, 5, 4, 5, 4, 6, 2, 1, 3, 2, 6, 1, 2, 3, 4, 5, 6]);
next = array1d(1..17 ,[9, 4, 5, 16, 15, 11, 13, 12, 14, 7, 17, 10, 1, 3, 2, 6, 8]);
makespan = 272;
----------
Found 2 new models
assign = array1d(1..17 ,[4, 5, 3, 5, 4, 6, 2, 3, 1, 2, 6, 1, 2, 3, 4, 5, 6]);
next = array1d(1..17 ,[15, 4, 14, 16, 1, 11, 10, 3, 12, 13, 17, 7, 8, 5, 2, 6, 9]);
makespan = 270;
----------
% [makespan>130]
Found 1 new models
assign = array1d(1..17 ,[4, 1, 3, 1, 4, 6, 5, 3, 5, 2, 6, 1, 2, 3, 4, 5, 6]);
next = array1d(1..17 ,[15, 4, 14, 12, 1, 11, 16, 3, 7, 13, 17, 10, 8, 5, 9, 6, 2]);
makespan = 269;
----------
% [makespan>130]
% [makespan>130]
% [makespan>130]
% [makespan>131]
% [makespan>131]
% [makespan>132]
==========
	Command being timed: "mzn-lbbd lbbd-datasets/Rabadi-2006/dzn-s-dominant/model.mzn lbbd-datasets/Rabadi-2006/dzn-s-dominant/11on6Rp50Rs50_2Ameer.dzn"
	User time (seconds): 83.88
	System time (seconds): 0.04
	Percent of CPU this job got: 99%
	Elapsed (wall clock) time (h:mm:ss or m:ss): 1:24.08
	Average shared text size (kbytes): 0
	Average unshared data size (kbytes): 0
	Average stack size (kbytes): 0
	Average total size (kbytes): 0
	Maximum resident set size (kbytes): 184448
	Average resident set size (kbytes): 0
	Major (requiring I/O) page faults: 0
	Minor (reclaiming a frame) page faults: 13128
	Voluntary context switches: 4
	Involuntary context switches: 147
	Swaps: 0
	File system inputs: 0
	File system outputs: 696
	Socket messages sent: 0
	Socket messages received: 0
	Signals delivered: 0
	Page size (bytes): 4096
	Exit status: 0
