+ /usr/bin/timeout 600 /usr/bin/time -v mzn-lbbd lbbd-datasets/Rabadi-2006/dzn-p-dominant/model.mzn lbbd-datasets/Rabadi-2006/dzn-p-dominant/10on8Rp50Rs50_4Ameer.dzn
% No search annotation given. Defaulting to VSIDS!
% [makespan>255]
Found 319 new models
assign = array1d(1..18 ,[8, 6, 5, 2, 7, 7, 3, 2, 1, 4, 1, 2, 3, 4, 5, 6, 7, 8]);
next = array1d(1..18 ,[18, 16, 15, 12, 6, 17, 13, 4, 11, 14, 8, 7, 10, 3, 2, 5, 1, 9]);
makespan = 334;
----------
Found 6 new models
assign = array1d(1..18 ,[8, 1, 5, 2, 2, 7, 3, 1, 6, 4, 1, 2, 3, 4, 5, 6, 7, 8]);
next = array1d(1..18 ,[18, 8, 15, 12, 4, 17, 13, 11, 16, 14, 5, 7, 10, 3, 9, 6, 1, 2]);
makespan = 317;
----------
% [makespan>259]
% [makespan>260]
Found 6 new models
assign = array1d(1..18 ,[3, 1, 5, 4, 7, 8, 2, 1, 6, 7, 1, 2, 3, 4, 5, 6, 7, 8]);
next = array1d(1..18 ,[13, 8, 15, 14, 17, 18, 12, 11, 16, 5, 7, 1, 4, 3, 9, 10, 6, 2]);
makespan = 311;
----------
% [makespan>260]
==========
	Command being timed: "mzn-lbbd lbbd-datasets/Rabadi-2006/dzn-p-dominant/model.mzn lbbd-datasets/Rabadi-2006/dzn-p-dominant/10on8Rp50Rs50_4Ameer.dzn"
	User time (seconds): 25.82
	System time (seconds): 0.02
	Percent of CPU this job got: 99%
	Elapsed (wall clock) time (h:mm:ss or m:ss): 0:25.89
	Average shared text size (kbytes): 0
	Average unshared data size (kbytes): 0
	Average stack size (kbytes): 0
	Average total size (kbytes): 0
	Maximum resident set size (kbytes): 122800
	Average resident set size (kbytes): 0
	Major (requiring I/O) page faults: 0
	Minor (reclaiming a frame) page faults: 9161
	Voluntary context switches: 6
	Involuntary context switches: 40
	Swaps: 0
	File system inputs: 0
	File system outputs: 720
	Socket messages sent: 0
	Socket messages received: 0
	Signals delivered: 0
	Page size (bytes): 4096
	Exit status: 0
