+ /usr/bin/timeout 600 /usr/bin/time -v mzn-lbbd lbbd-datasets/Rabadi-2006/dzn-s-dominant/model.mzn lbbd-datasets/Rabadi-2006/dzn-s-dominant/8on4Rp50Rs50_7Ameer.dzn
% No search annotation given. Defaulting to VSIDS!
% [makespan>143]
Found 140 new models
assign = array1d(1..12 ,[3, 4, 2, 1, 2, 3, 1, 4, 1, 2, 3, 4]);
next = array1d(1..12 ,[11, 8, 5, 7, 10, 1, 9, 12, 3, 6, 2, 4]);
makespan = 292;
----------
Found 3 new models
assign = array1d(1..12 ,[4, 2, 4, 1, 3, 3, 1, 2, 1, 2, 3, 4]);
next = array1d(1..12 ,[12, 10, 1, 7, 6, 11, 9, 2, 8, 5, 3, 4]);
makespan = 288;
----------
% [makespan>150]
==========
	Command being timed: "mzn-lbbd lbbd-datasets/Rabadi-2006/dzn-s-dominant/model.mzn lbbd-datasets/Rabadi-2006/dzn-s-dominant/8on4Rp50Rs50_7Ameer.dzn"
	User time (seconds): 4.34
	System time (seconds): 0.02
	Percent of CPU this job got: 99%
	Elapsed (wall clock) time (h:mm:ss or m:ss): 0:04.37
	Average shared text size (kbytes): 0
	Average unshared data size (kbytes): 0
	Average stack size (kbytes): 0
	Average total size (kbytes): 0
	Maximum resident set size (kbytes): 67248
	Average resident set size (kbytes): 0
	Major (requiring I/O) page faults: 0
	Minor (reclaiming a frame) page faults: 4781
	Voluntary context switches: 4
	Involuntary context switches: 14
	Swaps: 0
	File system inputs: 0
	File system outputs: 256
	Socket messages sent: 0
	Socket messages received: 0
	Signals delivered: 0
	Page size (bytes): 4096
	Exit status: 0
