+ /usr/bin/timeout 600 /usr/bin/time -v mzn-lbbd lbbd-datasets/Rabadi-2006/dzn-s-dominant/model.mzn lbbd-datasets/Rabadi-2006/dzn-s-dominant/10on8Rp50Rs50_7Ameer.dzn
% No search annotation given. Defaulting to VSIDS!
% [makespan>103]
Found 177 new models
assign = array1d(1..18 ,[6, 2, 7, 7, 6, 3, 4, 3, 8, 1, 1, 2, 3, 4, 5, 6, 7, 8]);
next = array1d(1..18 ,[16, 12, 17, 3, 1, 13, 14, 6, 18, 11, 2, 8, 7, 15, 5, 4, 9, 10]);
makespan = 304;
----------
Found 10 new models
assign = array1d(1..18 ,[6, 4, 2, 8, 7, 1, 5, 3, 2, 4, 1, 2, 3, 4, 5, 6, 7, 8]);
next = array1d(1..18 ,[16, 14, 9, 18, 17, 11, 15, 13, 12, 2, 3, 8, 10, 7, 1, 5, 4, 6]);
makespan = 267;
----------
Found 4 new models
assign = array1d(1..18 ,[6, 8, 2, 7, 4, 1, 5, 3, 2, 7, 1, 2, 3, 4, 5, 6, 7, 8]);
next = array1d(1..18 ,[16, 18, 9, 10, 14, 11, 15, 13, 12, 17, 3, 8, 5, 7, 1, 4, 2, 6]);
makespan = 256;
----------
Found 1 new models
assign = array1d(1..18 ,[1, 6, 2, 8, 4, 7, 5, 3, 2, 7, 1, 2, 3, 4, 5, 6, 7, 8]);
next = array1d(1..18 ,[11, 16, 9, 18, 14, 17, 15, 13, 12, 6, 3, 8, 5, 7, 2, 10, 4, 1]);
makespan = 255;
----------
Found 5 new models
assign = array1d(1..18 ,[1, 7, 2, 5, 4, 3, 6, 8, 2, 6, 1, 2, 3, 4, 5, 6, 7, 8]);
next = array1d(1..18 ,[11, 17, 9, 15, 14, 13, 10, 18, 12, 16, 3, 6, 5, 4, 7, 2, 8, 1]);
makespan = 248;
----------
Found 11 new models
assign = array1d(1..18 ,[3, 4, 1, 6, 8, 6, 7, 5, 2, 5, 1, 2, 3, 4, 5, 6, 7, 8]);
next = array1d(1..18 ,[13, 14, 11, 16, 18, 4, 17, 15, 12, 8, 9, 1, 2, 10, 6, 7, 5, 3]);
makespan = 231;
----------
% [makespan>105]
% [makespan>110]
% [makespan>111]
==========
	Command being timed: "mzn-lbbd lbbd-datasets/Rabadi-2006/dzn-s-dominant/model.mzn lbbd-datasets/Rabadi-2006/dzn-s-dominant/10on8Rp50Rs50_7Ameer.dzn"
	User time (seconds): 30.15
	System time (seconds): 0.04
	Percent of CPU this job got: 97%
	Elapsed (wall clock) time (h:mm:ss or m:ss): 0:30.86
	Average shared text size (kbytes): 0
	Average unshared data size (kbytes): 0
	Average stack size (kbytes): 0
	Average total size (kbytes): 0
	Maximum resident set size (kbytes): 131744
	Average resident set size (kbytes): 0
	Major (requiring I/O) page faults: 0
	Minor (reclaiming a frame) page faults: 9546
	Voluntary context switches: 4
	Involuntary context switches: 111
	Swaps: 0
	File system inputs: 0
	File system outputs: 720
	Socket messages sent: 0
	Socket messages received: 0
	Signals delivered: 0
	Page size (bytes): 4096
	Exit status: 0
