+ /usr/bin/timeout 600 /usr/bin/time -v mzn-lbbd lbbd-datasets/Rabadi-2006/dzn-s-dominant/model.mzn lbbd-datasets/Rabadi-2006/dzn-s-dominant/8on6Rp50Rs50_10Ameer.dzn
% No search annotation given. Defaulting to VSIDS!
% [makespan>110]
Found 117 new models
assign = array1d(1..14 ,[1, 2, 3, 6, 4, 2, 5, 1, 1, 2, 3, 4, 5, 6]);
next = array1d(1..14 ,[9, 10, 11, 14, 12, 2, 13, 1, 6, 3, 5, 7, 4, 8]);
makespan = 250;
----------
Found 5 new models
assign = array1d(1..14 ,[4, 6, 3, 2, 3, 1, 5, 4, 1, 2, 3, 4, 5, 6]);
next = array1d(1..14 ,[12, 14, 11, 10, 3, 9, 13, 1, 4, 5, 8, 7, 2, 6]);
makespan = 241;
----------
% [makespan>111]
==========
	Command being timed: "mzn-lbbd lbbd-datasets/Rabadi-2006/dzn-s-dominant/model.mzn lbbd-datasets/Rabadi-2006/dzn-s-dominant/8on6Rp50Rs50_10Ameer.dzn"
	User time (seconds): 5.99
	System time (seconds): 0.01
	Percent of CPU this job got: 99%
	Elapsed (wall clock) time (h:mm:ss or m:ss): 0:06.02
	Average shared text size (kbytes): 0
	Average unshared data size (kbytes): 0
	Average stack size (kbytes): 0
	Average total size (kbytes): 0
	Maximum resident set size (kbytes): 80992
	Average resident set size (kbytes): 0
	Major (requiring I/O) page faults: 0
	Minor (reclaiming a frame) page faults: 5766
	Voluntary context switches: 5
	Involuntary context switches: 15
	Swaps: 0
	File system inputs: 0
	File system outputs: 368
	Socket messages sent: 0
	Socket messages received: 0
	Signals delivered: 0
	Page size (bytes): 4096
	Exit status: 0
