+ /usr/bin/timeout 600 /usr/bin/time -v mzn-lbbd lbbd-datasets/planningandscheduling/cost-insts/model.mzn lbbd-datasets/planningandscheduling/cost-insts/c28j4m5.dzn
% No search annotation given. Defaulting to VSIDS!
% [sched_cost>630]
Found 4 new models
obj = 860
----------
Found 13 new models
obj = 663
----------
Found 1 new models
obj = 653
----------
Found 1 new models
obj = 649
----------
% [sched_cost>630]
Found 1 new models
obj = 642
----------
% [sched_cost>631]
Found 1 new models
obj = 639
----------
% [sched_cost>631]
% [sched_cost>633]
% [sched_cost>634]
% [sched_cost>634]
% [sched_cost>634]
% [sched_cost>634]
% [sched_cost>636]
% [sched_cost>637]
% [sched_cost>650]
==========
	Command being timed: "mzn-lbbd lbbd-datasets/planningandscheduling/cost-insts/model.mzn lbbd-datasets/planningandscheduling/cost-insts/c28j4m5.dzn"
	User time (seconds): 276.21
	System time (seconds): 0.11
	Percent of CPU this job got: 99%
	Elapsed (wall clock) time (h:mm:ss or m:ss): 4:36.83
	Average shared text size (kbytes): 0
	Average unshared data size (kbytes): 0
	Average stack size (kbytes): 0
	Average total size (kbytes): 0
	Maximum resident set size (kbytes): 240032
	Average resident set size (kbytes): 0
	Major (requiring I/O) page faults: 0
	Minor (reclaiming a frame) page faults: 17102
	Voluntary context switches: 9
	Involuntary context switches: 382
	Swaps: 0
	File system inputs: 0
	File system outputs: 240
	Socket messages sent: 0
	Socket messages received: 0
	Signals delivered: 0
	Page size (bytes): 4096
	Exit status: 0
