+ /usr/bin/timeout 600 /usr/bin/time -v mzn-lbbd lbbd-datasets/Rabadi-2006/dzn-balanced/model.mzn lbbd-datasets/Rabadi-2006/dzn-balanced/10on6Rp50Rs50_11Ameer.dzn
% No search annotation given. Defaulting to VSIDS!
% [makespan>126]
Found 24 new models
assign = array1d(1..16 ,[4, 6, 3, 6, 4, 2, 5, 5, 6, 1, 1, 2, 3, 4, 5, 6]);
next = array1d(1..16 ,[5, 4, 13, 16, 14, 12, 8, 15, 2, 11, 6, 3, 1, 7, 9, 10]);
makespan = 332;
----------
Found 57 new models
assign = array1d(1..16 ,[5, 1, 4, 6, 3, 2, 6, 5, 1, 4, 1, 2, 3, 4, 5, 6]);
next = array1d(1..16 ,[8, 9, 10, 16, 13, 12, 4, 15, 11, 14, 6, 5, 3, 1, 7, 2]);
makespan = 198;
----------
Found 2 new models
assign = array1d(1..16 ,[5, 1, 1, 6, 5, 2, 6, 4, 3, 4, 1, 2, 3, 4, 5, 6]);
next = array1d(1..16 ,[5, 3, 11, 16, 15, 12, 4, 14, 13, 8, 6, 9, 10, 1, 7, 2]);
makespan = 196;
----------
Found 6 new models
assign = array1d(1..16 ,[5, 1, 6, 6, 2, 3, 5, 4, 2, 4, 1, 2, 3, 4, 5, 6]);
next = array1d(1..16 ,[7, 11, 16, 3, 9, 13, 15, 14, 12, 8, 5, 6, 10, 1, 4, 2]);
makespan = 190;
----------
% [makespan>126]
Found 4 new models
assign = array1d(1..16 ,[5, 6, 1, 4, 6, 3, 5, 2, 2, 1, 1, 2, 3, 4, 5, 6]);
next = array1d(1..16 ,[7, 5, 11, 14, 16, 13, 15, 12, 8, 3, 9, 6, 4, 1, 2, 10]);
makespan = 186;
----------
% [makespan>133]
==========
	Command being timed: "mzn-lbbd lbbd-datasets/Rabadi-2006/dzn-balanced/model.mzn lbbd-datasets/Rabadi-2006/dzn-balanced/10on6Rp50Rs50_11Ameer.dzn"
	User time (seconds): 14.65
	System time (seconds): 0.03
	Percent of CPU this job got: 99%
	Elapsed (wall clock) time (h:mm:ss or m:ss): 0:14.72
	Average shared text size (kbytes): 0
	Average unshared data size (kbytes): 0
	Average stack size (kbytes): 0
	Average total size (kbytes): 0
	Maximum resident set size (kbytes): 99600
	Average resident set size (kbytes): 0
	Major (requiring I/O) page faults: 0
	Minor (reclaiming a frame) page faults: 7151
	Voluntary context switches: 4
	Involuntary context switches: 42
	Swaps: 0
	File system inputs: 0
	File system outputs: 552
	Socket messages sent: 0
	Socket messages received: 0
	Signals delivered: 0
	Page size (bytes): 4096
	Exit status: 0
