+ /usr/bin/timeout 600 /usr/bin/time -v mzn-lbbd lbbd-datasets/planningandscheduling/makespan-insts/model.mzn lbbd-datasets/planningandscheduling/makespan-insts/c22j4m3.dzn
% No search annotation given. Defaulting to VSIDS!
% [makespan>14]
Found 15 new models
obj = 32
----------
Found 7 new models
obj = 25
----------
Found 4 new models
obj = 21
----------
Found 1 new models
obj = 20
----------
Found 1 new models
obj = 19
----------
Found 1 new models
obj = 18
----------
% [makespan>15]
% [makespan>15]
==========
	Command being timed: "mzn-lbbd lbbd-datasets/planningandscheduling/makespan-insts/model.mzn lbbd-datasets/planningandscheduling/makespan-insts/c22j4m3.dzn"
	User time (seconds): 2.53
	System time (seconds): 0.01
	Percent of CPU this job got: 93%
	Elapsed (wall clock) time (h:mm:ss or m:ss): 0:02.70
	Average shared text size (kbytes): 0
	Average unshared data size (kbytes): 0
	Average stack size (kbytes): 0
	Average total size (kbytes): 0
	Maximum resident set size (kbytes): 55232
	Average resident set size (kbytes): 0
	Major (requiring I/O) page faults: 0
	Minor (reclaiming a frame) page faults: 4048
	Voluntary context switches: 5
	Involuntary context switches: 21
	Swaps: 0
	File system inputs: 0
	File system outputs: 128
	Socket messages sent: 0
	Socket messages received: 0
	Signals delivered: 0
	Page size (bytes): 4096
	Exit status: 0
