+ /usr/bin/timeout 600 /usr/bin/time -v mzn-lbbd lbbd-datasets/Rabadi-2006/dzn-balanced/model.mzn lbbd-datasets/Rabadi-2006/dzn-balanced/10on8Rp50Rs50_2Ameer.dzn
% No search annotation given. Defaulting to VSIDS!
% [makespan>108]
Found 105 new models
assign = array1d(1..18 ,[1, 2, 3, 3, 3, 3, 3, 2, 1, 2, 1, 2, 3, 4, 5, 6, 7, 8]);
next = array1d(1..18 ,[9, 12, 4, 5, 13, 3, 6, 10, 11, 2, 8, 7, 14, 15, 16, 17, 18, 1]);
makespan = 699;
----------
Found 16 new models
assign = array1d(1..18 ,[1, 6, 3, 1, 3, 3, 8, 3, 3, 1, 1, 2, 3, 4, 5, 6, 7, 8]);
next = array1d(1..18 ,[11, 16, 8, 10, 6, 3, 18, 13, 5, 1, 12, 9, 14, 15, 2, 17, 7, 4]);
makespan = 664;
----------
Found 2 new models
assign = array1d(1..18 ,[1, 3, 3, 3, 3, 1, 8, 3, 8, 8, 1, 2, 3, 4, 5, 6, 7, 8]);
next = array1d(1..18 ,[11, 5, 8, 2, 13, 1, 10, 4, 18, 9, 12, 3, 14, 15, 16, 17, 7, 6]);
makespan = 662;
----------
Found 226 new models
assign = array1d(1..18 ,[3, 7, 3, 4, 5, 1, 8, 2, 2, 6, 1, 2, 3, 4, 5, 6, 7, 8]);
next = array1d(1..18 ,[13, 17, 1, 14, 15, 11, 18, 9, 12, 16, 8, 3, 4, 5, 10, 2, 7, 6]);
makespan = 174;
----------
% [makespan>109]
Found 1 new models
assign = array1d(1..18 ,[3, 7, 4, 8, 5, 1, 7, 2, 2, 6, 1, 2, 3, 4, 5, 6, 7, 8]);
next = array1d(1..18 ,[13, 7, 14, 18, 15, 11, 17, 9, 12, 16, 8, 1, 3, 5, 10, 2, 4, 6]);
makespan = 172;
----------
Found 3 new models
assign = array1d(1..18 ,[1, 5, 3, 6, 2, 6, 8, 4, 2, 7, 1, 2, 3, 4, 5, 6, 7, 8]);
next = array1d(1..18 ,[11, 15, 13, 6, 9, 16, 18, 14, 12, 17, 5, 3, 8, 2, 4, 10, 7, 1]);
makespan = 169;
----------
% [makespan>111]
% [makespan>113]
==========
	Command being timed: "mzn-lbbd lbbd-datasets/Rabadi-2006/dzn-balanced/model.mzn lbbd-datasets/Rabadi-2006/dzn-balanced/10on8Rp50Rs50_2Ameer.dzn"
	User time (seconds): 34.22
	System time (seconds): 0.02
	Percent of CPU this job got: 99%
	Elapsed (wall clock) time (h:mm:ss or m:ss): 0:34.31
	Average shared text size (kbytes): 0
	Average unshared data size (kbytes): 0
	Average stack size (kbytes): 0
	Average total size (kbytes): 0
	Maximum resident set size (kbytes): 129104
	Average resident set size (kbytes): 0
	Major (requiring I/O) page faults: 0
	Minor (reclaiming a frame) page faults: 9617
	Voluntary context switches: 3
	Involuntary context switches: 60
	Swaps: 0
	File system inputs: 0
	File system outputs: 728
	Socket messages sent: 0
	Socket messages received: 0
	Signals delivered: 0
	Page size (bytes): 4096
	Exit status: 0
