+ /usr/bin/timeout 600 /usr/bin/time -v mzn-lbbd lbbd-datasets/Rabadi-2006/dzn-p-dominant/model.mzn lbbd-datasets/Rabadi-2006/dzn-p-dominant/8on4Rp50Rs50_11Ameer.dzn
% No search annotation given. Defaulting to VSIDS!
% [makespan>271]
Found 57 new models
assign = array1d(1..12 ,[1, 2, 4, 2, 3, 3, 4, 1, 1, 2, 3, 4]);
next = array1d(1..12 ,[9, 4, 12, 10, 11, 5, 3, 1, 2, 6, 7, 8]);
makespan = 353;
----------
Found 10 new models
assign = array1d(1..12 ,[2, 2, 1, 4, 1, 4, 3, 3, 1, 2, 3, 4]);
next = array1d(1..12 ,[10, 1, 5, 6, 9, 12, 11, 7, 2, 8, 4, 3]);
makespan = 329;
----------
% [makespan>289]
==========
	Command being timed: "mzn-lbbd lbbd-datasets/Rabadi-2006/dzn-p-dominant/model.mzn lbbd-datasets/Rabadi-2006/dzn-p-dominant/8on4Rp50Rs50_11Ameer.dzn"
	User time (seconds): 1.90
	System time (seconds): 0.01
	Percent of CPU this job got: 99%
	Elapsed (wall clock) time (h:mm:ss or m:ss): 0:01.93
	Average shared text size (kbytes): 0
	Average unshared data size (kbytes): 0
	Average stack size (kbytes): 0
	Average total size (kbytes): 0
	Maximum resident set size (kbytes): 63456
	Average resident set size (kbytes): 0
	Major (requiring I/O) page faults: 0
	Minor (reclaiming a frame) page faults: 4565
	Voluntary context switches: 4
	Involuntary context switches: 12
	Swaps: 0
	File system inputs: 0
	File system outputs: 256
	Socket messages sent: 0
	Socket messages received: 0
	Signals delivered: 0
	Page size (bytes): 4096
	Exit status: 0
