+ /usr/bin/timeout 600 /usr/bin/time -v mzn-lbbd lbbd-datasets/sscplp/trucks-dzn/model.mzn lbbd-datasets/sscplp/trucks-dzn/p12-l40-c100-correlated.dzn
% No search annotation given. Defaulting to VSIDS!
% [obj>4218]
Found 8 new models
source = [10, 5, 5, 7, 10, 6, 8, 9, 6, 1, 5, 10, 3, 15, 5, 12, 12, 12, 1, 12, 12, 10, 6, 4, 12, 6, 15, 8, 9, 12]
open = [1, 0, 1, 1, 1, 1, 1, 1, 1, 1, 0, 1, 0, 0, 1]
trucks_used = [1, 0, 1, 1, 3, 3, 1, 2, 2, 3, 0, 5, 0, 0, 2]
truck_assigned = [3, 1, 3, 1, 2, 2, 2, 1, 3, 1, 2, 3, 1, 2, 2, 5, 1, 5, 1, 3, 4, 1, 2, 1, 4, 1, 1, 1, 2, 2]
obj = 8013
----------
Found 22 new models
source = [15, 5, 10, 12, 12, 6, 8, 9, 4, 4, 5, 1, 7, 1, 5, 12, 9, 12, 1, 7, 12, 6, 6, 12, 12, 6, 1, 12, 5, 5]
open = [1, 0, 0, 1, 1, 1, 1, 1, 1, 1, 0, 1, 0, 0, 1]
trucks_used = [2, 0, 0, 1, 3, 3, 1, 1, 2, 1, 0, 5, 0, 0, 1]
truck_assigned = [1, 1, 1, 1, 1, 2, 1, 1, 1, 1, 2, 2, 1, 1, 2, 5, 2, 5, 1, 1, 4, 1, 1, 2, 4, 3, 2, 2, 3, 3]
obj = 6282
----------
Found 2 new models
source = [8, 5, 10, 1, 15, 6, 7, 9, 4, 1, 5, 1, 7, 6, 5, 12, 9, 12, 1, 12, 12, 1, 6, 12, 12, 1, 1, 12, 5, 5]
open = [1, 0, 0, 1, 1, 1, 1, 1, 1, 1, 0, 1, 0, 0, 1]
trucks_used = [4, 0, 0, 1, 3, 2, 1, 1, 1, 1, 0, 4, 0, 0, 1]
truck_assigned = [1, 1, 1, 1, 1, 2, 1, 1, 1, 4, 2, 2, 1, 1, 2, 3, 1, 3, 4, 1, 4, 3, 2, 2, 4, 1, 2, 2, 3, 3]
obj = 6162
----------
Found 3 new models
source = [8, 5, 5, 1, 12, 6, 7, 9, 6, 1, 5, 1, 7, 1, 5, 12, 9, 12, 1, 12, 12, 1, 6, 12, 12, 1, 4, 12, 15, 5]
open = [1, 0, 0, 1, 1, 1, 1, 1, 1, 0, 0, 1, 0, 0, 1]
trucks_used = [4, 0, 0, 1, 4, 2, 1, 1, 1, 0, 0, 4, 0, 0, 1]
truck_assigned = [1, 3, 1, 1, 1, 2, 1, 1, 1, 4, 2, 2, 1, 1, 2, 1, 1, 3, 4, 3, 4, 3, 2, 2, 4, 2, 1, 2, 1, 4]
obj = 5792
----------
% [obj>4262]
Found 1 new models
source = [13, 5, 5, 1, 7, 6, 7, 9, 6, 1, 5, 1, 7, 1, 5, 12, 9, 12, 1, 12, 12, 1, 6, 12, 12, 1, 1, 12, 13, 5]
open = [1, 0, 0, 0, 1, 1, 1, 0, 1, 0, 0, 1, 1, 0, 0]
trucks_used = [5, 0, 0, 0, 4, 2, 1, 0, 1, 0, 0, 4, 2, 0, 0]
truck_assigned = [1, 3, 1, 2, 1, 2, 1, 1, 1, 4, 2, 3, 1, 4, 2, 1, 1, 3, 5, 3, 4, 3, 2, 2, 4, 2, 1, 2, 2, 4]
obj = 5516
----------
Found 9 new models
source = [12, 5, 5, 1, 6, 15, 6, 9, 6, 1, 5, 1, 7, 1, 5, 12, 9, 12, 1, 12, 12, 1, 6, 12, 12, 1, 1, 12, 6, 7]
open = [1, 0, 0, 0, 1, 1, 1, 0, 1, 0, 0, 1, 0, 0, 1]
trucks_used = [5, 0, 0, 0, 3, 3, 1, 0, 1, 0, 0, 4, 0, 0, 1]
truck_assigned = [1, 3, 1, 2, 2, 1, 1, 1, 3, 4, 2, 3, 1, 4, 2, 1, 1, 3, 5, 3, 4, 3, 2, 2, 4, 2, 1, 2, 1, 1]
obj = 4788
----------
Found 4 new models
source = [12, 5, 5, 1, 6, 6, 6, 9, 4, 7, 5, 1, 9, 1, 5, 12, 4, 12, 1, 12, 12, 6, 6, 12, 12, 1, 1, 12, 6, 7]
open = [1, 0, 0, 1, 1, 1, 1, 0, 1, 0, 0, 1, 0, 0, 0]
trucks_used = [3, 0, 0, 1, 3, 3, 1, 0, 1, 0, 0, 4, 0, 0, 0]
truck_assigned = [1, 3, 1, 2, 3, 3, 1, 1, 1, 1, 2, 1, 1, 3, 2, 1, 1, 3, 3, 3, 4, 2, 2, 2, 4, 2, 1, 2, 1, 1]
obj = 4671
----------
Found 1 new models
source = [12, 5, 5, 1, 6, 6, 6, 9, 4, 1, 5, 1, 9, 1, 5, 12, 4, 12, 1, 12, 12, 6, 6, 12, 12, 9, 1, 12, 6, 5]
open = [1, 0, 0, 1, 1, 1, 0, 0, 1, 0, 0, 1, 0, 0, 0]
trucks_used = [3, 0, 0, 1, 4, 3, 0, 0, 1, 0, 0, 4, 0, 0, 0]
truck_assigned = [1, 3, 2, 2, 3, 3, 1, 1, 1, 2, 4, 1, 1, 3, 2, 1, 1, 3, 3, 3, 4, 2, 2, 2, 4, 1, 1, 2, 1, 1]
obj = 4363
----------
