+ /usr/bin/timeout 600 /usr/bin/time -v mzn-lbbd lbbd-datasets/Rabadi-2006/dzn-balanced/model.mzn lbbd-datasets/Rabadi-2006/dzn-balanced/9on2Rp50Rs50_3Ameer.dzn
% No search annotation given. Defaulting to VSIDS!
% [makespan>290]
Found 22 new models
assign = array1d(1..11 ,[1, 1, 2, 2, 2, 2, 1, 2, 2, 1, 2]);
next = array1d(1..11 ,[10, 7, 9, 3, 4, 8, 1, 5, 11, 6, 2]);
makespan = 752;
----------
Found 52 new models
assign = array1d(1..11 ,[1, 1, 1, 2, 2, 2, 2, 2, 1, 1, 2]);
next = array1d(1..11 ,[3, 10, 2, 6, 11, 8, 4, 5, 1, 7, 9]);
makespan = 656;
----------
Found 71 new models
assign = array1d(1..11 ,[1, 2, 2, 2, 1, 1, 2, 1, 1, 1, 2]);
next = array1d(1..11 ,[5, 7, 4, 11, 8, 9, 3, 10, 1, 2, 6]);
makespan = 520;
----------
Found 1 new models
assign = array1d(1..11 ,[1, 1, 2, 2, 1, 2, 2, 1, 1, 1, 2]);
next = array1d(1..11 ,[5, 1, 11, 7, 10, 4, 3, 9, 2, 6, 8]);
makespan = 519;
----------
Found 26 new models
assign = array1d(1..11 ,[1, 1, 2, 2, 1, 1, 2, 2, 1, 1, 2]);
next = array1d(1..11 ,[5, 1, 4, 8, 10, 9, 3, 11, 2, 7, 6]);
makespan = 493;
----------
% [makespan>301]
% [makespan>306]
% [makespan>309]
% [makespan>310]
% [makespan>335]
==========
	Command being timed: "mzn-lbbd lbbd-datasets/Rabadi-2006/dzn-balanced/model.mzn lbbd-datasets/Rabadi-2006/dzn-balanced/9on2Rp50Rs50_3Ameer.dzn"
	User time (seconds): 24.82
	System time (seconds): 0.02
	Percent of CPU this job got: 99%
	Elapsed (wall clock) time (h:mm:ss or m:ss): 0:24.89
	Average shared text size (kbytes): 0
	Average unshared data size (kbytes): 0
	Average stack size (kbytes): 0
	Average total size (kbytes): 0
	Maximum resident set size (kbytes): 90752
	Average resident set size (kbytes): 0
	Major (requiring I/O) page faults: 0
	Minor (reclaiming a frame) page faults: 6448
	Voluntary context switches: 6
	Involuntary context switches: 35
	Swaps: 0
	File system inputs: 0
	File system outputs: 176
	Socket messages sent: 0
	Socket messages received: 0
	Signals delivered: 0
	Page size (bytes): 4096
	Exit status: 0
