+ /usr/bin/timeout 600 /usr/bin/time -v mzn-lbbd lbbd-datasets/Rabadi-2006/dzn-p-dominant/model.mzn lbbd-datasets/Rabadi-2006/dzn-p-dominant/10on8Rp50Rs50_14Ameer.dzn
% No search annotation given. Defaulting to VSIDS!
% [makespan>263]
Found 47 new models
assign = array1d(1..18 ,[3, 5, 3, 5, 8, 5, 5, 5, 5, 5, 1, 2, 3, 4, 5, 6, 7, 8]);
next = array1d(1..18 ,[3, 8, 13, 6, 18, 7, 15, 10, 2, 4, 12, 1, 14, 9, 16, 17, 5, 11]);
makespan = 1479;
----------
Found 1 new models
assign = array1d(1..18 ,[2, 5, 8, 5, 7, 5, 5, 5, 5, 5, 1, 2, 3, 4, 5, 6, 7, 8]);
next = array1d(1..18 ,[12, 4, 18, 6, 17, 7, 8, 10, 2, 15, 1, 13, 14, 9, 16, 5, 3, 11]);
makespan = 1478;
----------
Found 230 new models
assign = array1d(1..18 ,[7, 6, 1, 3, 2, 4, 8, 7, 5, 6, 1, 2, 3, 4, 5, 6, 7, 8]);
next = array1d(1..18 ,[17, 10, 11, 13, 12, 14, 18, 1, 15, 16, 5, 4, 6, 9, 2, 8, 7, 3]);
makespan = 328;
----------
% [makespan>264]
Found 2 new models
assign = array1d(1..18 ,[7, 6, 1, 2, 4, 6, 8, 4, 5, 3, 1, 2, 3, 4, 5, 6, 7, 8]);
next = array1d(1..18 ,[17, 16, 11, 12, 14, 2, 18, 5, 15, 13, 4, 10, 8, 9, 6, 1, 7, 3]);
makespan = 326;
----------
% [makespan>264]
% [makespan>267]
==========
	Command being timed: "mzn-lbbd lbbd-datasets/Rabadi-2006/dzn-p-dominant/model.mzn lbbd-datasets/Rabadi-2006/dzn-p-dominant/10on8Rp50Rs50_14Ameer.dzn"
	User time (seconds): 26.71
	System time (seconds): 0.02
	Percent of CPU this job got: 99%
	Elapsed (wall clock) time (h:mm:ss or m:ss): 0:26.97
	Average shared text size (kbytes): 0
	Average unshared data size (kbytes): 0
	Average stack size (kbytes): 0
	Average total size (kbytes): 0
	Maximum resident set size (kbytes): 125792
	Average resident set size (kbytes): 0
	Major (requiring I/O) page faults: 0
	Minor (reclaiming a frame) page faults: 9093
	Voluntary context switches: 5
	Involuntary context switches: 96
	Swaps: 0
	File system inputs: 0
	File system outputs: 720
	Socket messages sent: 0
	Socket messages received: 0
	Signals delivered: 0
	Page size (bytes): 4096
	Exit status: 0
