+ /usr/bin/timeout 600 /usr/bin/time -v mzn-lbbd lbbd-datasets/Rabadi-2006/dzn-s-dominant/model.mzn lbbd-datasets/Rabadi-2006/dzn-s-dominant/11on2Rp50Rs50_5Ameer.dzn
% No search annotation given. Defaulting to VSIDS!
% [makespan>361]
Found 92 new models
assign = array1d(1..13 ,[2, 1, 2, 1, 2, 2, 2, 1, 2, 1, 2, 1, 2]);
next = array1d(1..13 ,[7, 4, 11, 8, 1, 13, 9, 10, 3, 12, 6, 5, 2]);
makespan = 1409;
----------
Found 1 new models
assign = array1d(1..13 ,[2, 2, 1, 1, 2, 2, 2, 1, 2, 1, 2, 1, 2]);
next = array1d(1..13 ,[7, 13, 8, 10, 1, 9, 11, 4, 2, 12, 6, 5, 3]);
makespan = 1408;
----------
Found 11 new models
assign = array1d(1..13 ,[2, 2, 1, 1, 2, 2, 2, 1, 2, 1, 2, 1, 2]);
next = array1d(1..13 ,[7, 5, 8, 10, 1, 13, 11, 4, 2, 12, 6, 9, 3]);
makespan = 1390;
----------
Found 2 new models
assign = array1d(1..13 ,[2, 2, 1, 1, 2, 2, 2, 1, 2, 1, 2, 1, 2]);
next = array1d(1..13 ,[7, 9, 8, 10, 1, 13, 2, 4, 11, 12, 6, 5, 3]);
makespan = 1388;
----------
Found 205 new models
assign = array1d(1..13 ,[2, 2, 1, 1, 2, 1, 2, 2, 2, 1, 1, 1, 2]);
next = array1d(1..13 ,[9, 5, 4, 6, 1, 11, 2, 7, 13, 3, 12, 8, 10]);
makespan = 1087;
----------
Found 11 new models
assign = array1d(1..13 ,[2, 2, 1, 1, 2, 1, 2, 2, 2, 1, 1, 1, 2]);
next = array1d(1..13 ,[9, 5, 4, 6, 1, 11, 13, 7, 8, 3, 12, 2, 10]);
makespan = 1070;
----------
Found 16 new models
assign = array1d(1..13 ,[1, 2, 1, 1, 2, 2, 1, 1, 2, 1, 2, 1, 2]);
next = array1d(1..13 ,[12, 11, 10, 7, 6, 9, 3, 4, 2, 1, 13, 5, 8]);
makespan = 1047;
----------
% [makespan>380]
Found 6 new models
assign = array1d(1..13 ,[1, 2, 1, 1, 2, 2, 1, 1, 2, 1, 2, 1, 2]);
next = array1d(1..13 ,[12, 9, 8, 10, 11, 13, 3, 4, 5, 1, 6, 2, 7]);
makespan = 1041;
----------
% [makespan>384]
% [makespan>404]
% [makespan>440]
% [makespan>453]
% [makespan>458]
% [makespan>462]
% [makespan>473]
% [makespan>477]
% [makespan>480]
% [makespan>482]
% [makespan>483]
% [makespan>483]
% [makespan>484]
% [makespan>484]
% [makespan>485]
