+ /usr/bin/timeout 600 /usr/bin/time -v mzn-lbbd lbbd-datasets/planningandscheduling/cost-insts/model.mzn lbbd-datasets/planningandscheduling/cost-insts/c38j2m1.dzn
% No search annotation given. Defaulting to VSIDS!
% [sched_cost>627]
% [sched_cost>627]
% [sched_cost>627]
Found 13 new models
obj = 680
----------
Found 1 new models
obj = 677
----------
Found 2 new models
obj = 664
----------
Found 1 new models
obj = 661
----------
Found 1 new models
obj = 656
----------
% [sched_cost>627]
Found 2 new models
obj = 638
----------
% [sched_cost>627]
% [sched_cost>627]
% [sched_cost>627]
% [sched_cost>627]
Found 1 new models
obj = 637
----------
% [sched_cost>627]
% [sched_cost>627]
% [sched_cost>627]
% [sched_cost>627]
% [sched_cost>627]
% [sched_cost>627]
% [sched_cost>627]
% [sched_cost>627]
Found 1 new models
obj = 635
----------
% [sched_cost>627]
% [sched_cost>627]
% [sched_cost>627]
% [sched_cost>627]
% [sched_cost>627]
% [sched_cost>627]
% [sched_cost>627]
% [sched_cost>627]
% [sched_cost>627]
