+ /usr/bin/timeout 600 /usr/bin/time -v mzn-lbbd lbbd-datasets/Rabadi-2006/dzn-p-dominant/model.mzn lbbd-datasets/Rabadi-2006/dzn-p-dominant/11on4Rp50Rs50_1Ameer.dzn
% No search annotation given. Defaulting to VSIDS!
% [makespan>409]
Found 81 new models
assign = array1d(1..15 ,[3, 3, 3, 3, 1, 2, 1, 1, 4, 4, 1, 1, 2, 3, 4]);
next = array1d(1..15 ,[14, 3, 1, 2, 12, 13, 5, 7, 15, 9, 8, 6, 4, 10, 11]);
makespan = 843;
----------
Found 14 new models
assign = array1d(1..15 ,[4, 2, 1, 4, 3, 3, 3, 2, 4, 3, 1, 1, 2, 3, 4]);
next = array1d(1..15 ,[15, 13, 12, 9, 7, 14, 10, 2, 1, 6, 3, 8, 5, 4, 11]);
makespan = 814;
----------
Found 104 new models
assign = array1d(1..15 ,[4, 1, 1, 3, 2, 3, 4, 3, 2, 2, 4, 1, 2, 3, 4]);
next = array1d(1..15 ,[11, 3, 12, 6, 10, 14, 15, 4, 13, 9, 7, 5, 8, 1, 2]);
makespan = 543;
----------
Found 1 new models
assign = array1d(1..15 ,[3, 1, 1, 3, 2, 3, 4, 4, 2, 2, 4, 1, 2, 3, 4]);
next = array1d(1..15 ,[14, 3, 12, 6, 10, 1, 8, 15, 13, 9, 7, 5, 4, 11, 2]);
makespan = 542;
----------
Found 12 new models
assign = array1d(1..15 ,[1, 2, 3, 3, 1, 3, 4, 2, 4, 2, 4, 1, 2, 3, 4]);
next = array1d(1..15 ,[12, 10, 6, 3, 1, 14, 9, 13, 15, 8, 7, 2, 4, 11, 5]);
makespan = 530;
----------
Found 4 new models
assign = array1d(1..15 ,[1, 2, 4, 3, 1, 3, 4, 2, 3, 2, 4, 1, 2, 3, 4]);
next = array1d(1..15 ,[12, 10, 15, 6, 1, 9, 3, 13, 14, 8, 7, 2, 4, 11, 5]);
makespan = 526;
----------
% [makespan>415]
% [makespan>415]
% [makespan>415]
% [makespan>415]
% [makespan>416]
% [makespan>418]
% [makespan>419]
% [makespan>419]
% [makespan>419]
% [makespan>419]
% [makespan>420]
% [makespan>420]
% [makespan>420]
% [makespan>421]
% [makespan>421]
% [makespan>426]
% [makespan>426]
% [makespan>428]
==========
	Command being timed: "mzn-lbbd lbbd-datasets/Rabadi-2006/dzn-p-dominant/model.mzn lbbd-datasets/Rabadi-2006/dzn-p-dominant/11on4Rp50Rs50_1Ameer.dzn"
	User time (seconds): 469.33
	System time (seconds): 0.10
	Percent of CPU this job got: 99%
	Elapsed (wall clock) time (h:mm:ss or m:ss): 7:50.27
	Average shared text size (kbytes): 0
	Average unshared data size (kbytes): 0
	Average stack size (kbytes): 0
	Average total size (kbytes): 0
	Maximum resident set size (kbytes): 265360
	Average resident set size (kbytes): 0
	Major (requiring I/O) page faults: 0
	Minor (reclaiming a frame) page faults: 20682
	Voluntary context switches: 10
	Involuntary context switches: 628
	Swaps: 0
	File system inputs: 0
	File system outputs: 584
	Socket messages sent: 0
	Socket messages received: 0
	Signals delivered: 0
	Page size (bytes): 4096
	Exit status: 0
