+ /usr/bin/timeout 600 /usr/bin/time -v mzn-lbbd lbbd-datasets/Rabadi-2006/dzn-balanced/model.mzn lbbd-datasets/Rabadi-2006/dzn-balanced/7on2Rp50Rs50_9Ameer.dzn
% No search annotation given. Defaulting to VSIDS!
% [makespan>245]
Found 37 new models
assign = array1d(1..9 ,[2, 1, 1, 1, 1, 2, 2, 1, 2]);
next = array1d(1..9 ,[7, 4, 8, 5, 3, 9, 6, 1, 2]);
makespan = 432;
----------
Found 8 new models
assign = array1d(1..9 ,[2, 1, 1, 1, 1, 2, 2, 1, 2]);
next = array1d(1..9 ,[7, 4, 2, 5, 8, 9, 6, 1, 3]);
makespan = 422;
----------
% [makespan>274]
==========
	Command being timed: "mzn-lbbd lbbd-datasets/Rabadi-2006/dzn-balanced/model.mzn lbbd-datasets/Rabadi-2006/dzn-balanced/7on2Rp50Rs50_9Ameer.dzn"
	User time (seconds): 2.27
	System time (seconds): 0.01
	Percent of CPU this job got: 99%
	Elapsed (wall clock) time (h:mm:ss or m:ss): 0:02.29
	Average shared text size (kbytes): 0
	Average unshared data size (kbytes): 0
	Average stack size (kbytes): 0
	Average total size (kbytes): 0
	Maximum resident set size (kbytes): 52304
	Average resident set size (kbytes): 0
	Major (requiring I/O) page faults: 0
	Minor (reclaiming a frame) page faults: 3920
	Voluntary context switches: 5
	Involuntary context switches: 5
	Swaps: 0
	File system inputs: 0
	File system outputs: 112
	Socket messages sent: 0
	Socket messages received: 0
	Signals delivered: 0
	Page size (bytes): 4096
	Exit status: 0
