+ /usr/bin/timeout 600 /usr/bin/time -v mzn-lbbd lbbd-datasets/Rabadi-2006/dzn-p-dominant/model.mzn lbbd-datasets/Rabadi-2006/dzn-p-dominant/11on8Rp50Rs50_13Ameer.dzn
% No search annotation given. Defaulting to VSIDS!
% [makespan>256]
Found 136 new models
assign = array1d(1..19 ,[2, 4, 3, 4, 1, 3, 7, 7, 6, 8, 5, 1, 2, 3, 4, 5, 6, 7, 8]);
next = array1d(1..19 ,[13, 15, 6, 2, 12, 14, 18, 7, 17, 19, 16, 1, 3, 4, 11, 9, 8, 10, 5]);
makespan = 366;
----------
Found 1 new models
assign = array1d(1..19 ,[2, 4, 3, 4, 1, 3, 7, 6, 6, 8, 5, 1, 2, 3, 4, 5, 6, 7, 8]);
next = array1d(1..19 ,[13, 15, 6, 2, 12, 14, 18, 9, 17, 19, 16, 1, 3, 4, 11, 8, 7, 10, 5]);
makespan = 365;
----------
Found 7 new models
assign = array1d(1..19 ,[4, 6, 5, 2, 3, 5, 8, 7, 3, 7, 1, 1, 2, 3, 4, 5, 6, 7, 8]);
next = array1d(1..19 ,[15, 17, 6, 13, 9, 16, 19, 10, 14, 18, 12, 4, 5, 1, 3, 2, 8, 7, 11]);
makespan = 344;
----------
Found 5 new models
assign = array1d(1..19 ,[4, 6, 5, 2, 3, 5, 7, 8, 3, 7, 1, 1, 2, 3, 4, 5, 6, 7, 8]);
next = array1d(1..19 ,[15, 17, 6, 13, 14, 16, 10, 19, 5, 18, 12, 4, 9, 1, 3, 2, 7, 8, 11]);
makespan = 335;
----------
Found 1 new models
assign = array1d(1..19 ,[4, 3, 5, 2, 7, 5, 6, 8, 3, 7, 1, 1, 2, 3, 4, 5, 6, 7, 8]);
next = array1d(1..19 ,[15, 9, 6, 13, 18, 16, 17, 19, 14, 5, 12, 4, 2, 1, 3, 7, 10, 8, 11]);
makespan = 334;
----------
Found 9 new models
assign = array1d(1..19 ,[4, 3, 5, 8, 2, 5, 1, 6, 3, 7, 8, 1, 2, 3, 4, 5, 6, 7, 8]);
next = array1d(1..19 ,[15, 9, 6, 11, 13, 16, 12, 17, 14, 18, 19, 5, 2, 1, 3, 8, 10, 4, 7]);
makespan = 325;
----------
Found 1 new models
assign = array1d(1..19 ,[8, 3, 5, 8, 2, 5, 1, 6, 3, 7, 4, 1, 2, 3, 4, 5, 6, 7, 8]);
next = array1d(1..19 ,[19, 9, 6, 1, 13, 16, 12, 17, 14, 18, 15, 5, 2, 11, 3, 8, 10, 4, 7]);
makespan = 324;
----------
% [makespan>258]
% [makespan>259]
% [makespan>259]
Found 6 new models
assign = array1d(1..19 ,[6, 1, 3, 7, 2, 8, 5, 4, 3, 1, 8, 1, 2, 3, 4, 5, 6, 7, 8]);
next = array1d(1..19 ,[17, 12, 14, 18, 13, 11, 16, 15, 3, 2, 19, 5, 9, 8, 7, 1, 4, 6, 10]);
makespan = 318;
----------
% [makespan>263]
==========
	Command being timed: "mzn-lbbd lbbd-datasets/Rabadi-2006/dzn-p-dominant/model.mzn lbbd-datasets/Rabadi-2006/dzn-p-dominant/11on8Rp50Rs50_13Ameer.dzn"
	User time (seconds): 23.98
	System time (seconds): 0.02
	Percent of CPU this job got: 99%
	Elapsed (wall clock) time (h:mm:ss or m:ss): 0:24.05
	Average shared text size (kbytes): 0
	Average unshared data size (kbytes): 0
	Average stack size (kbytes): 0
	Average total size (kbytes): 0
	Maximum resident set size (kbytes): 138848
	Average resident set size (kbytes): 0
	Major (requiring I/O) page faults: 0
	Minor (reclaiming a frame) page faults: 10382
	Voluntary context switches: 6
	Involuntary context switches: 32
	Swaps: 0
	File system inputs: 0
	File system outputs: 856
	Socket messages sent: 0
	Socket messages received: 0
	Signals delivered: 0
	Page size (bytes): 4096
	Exit status: 0
