+ /usr/bin/timeout 600 /usr/bin/time -v mzn-lbbd lbbd-datasets/Rabadi-2006/dzn-s-dominant/model.mzn lbbd-datasets/Rabadi-2006/dzn-s-dominant/11on6Rp50Rs50_12Ameer.dzn
% No search annotation given. Defaulting to VSIDS!
% [makespan>116]
Found 68 new models
assign = array1d(1..17 ,[1, 6, 3, 1, 5, 1, 1, 3, 1, 1, 1, 1, 2, 3, 4, 5, 6]);
next = array1d(1..17 ,[4, 17, 14, 12, 16, 9, 11, 3, 7, 6, 1, 13, 8, 15, 5, 2, 10]);
makespan = 1330;
----------
Found 9 new models
assign = array1d(1..17 ,[1, 6, 2, 1, 5, 1, 1, 6, 1, 1, 1, 1, 2, 3, 4, 5, 6]);
next = array1d(1..17 ,[10, 8, 13, 12, 16, 9, 4, 17, 7, 6, 1, 3, 14, 15, 5, 2, 11]);
makespan = 1308;
----------
Found 190 new models
assign = array1d(1..17 ,[1, 5, 4, 6, 5, 1, 5, 4, 1, 4, 1, 1, 2, 3, 4, 5, 6]);
next = array1d(1..17 ,[6, 7, 15, 17, 16, 9, 5, 10, 12, 3, 1, 13, 14, 8, 2, 4, 11]);
makespan = 682;
----------
Found 65 new models
assign = array1d(1..17 ,[1, 4, 3, 2, 4, 1, 5, 6, 6, 3, 5, 1, 2, 3, 4, 5, 6]);
next = array1d(1..17 ,[12, 15, 10, 13, 2, 1, 16, 9, 17, 14, 7, 4, 3, 5, 11, 8, 6]);
makespan = 268;
----------
Found 3 new models
assign = array1d(1..17 ,[1, 2, 3, 4, 5, 1, 3, 6, 6, 5, 4, 1, 2, 3, 4, 5, 6]);
next = array1d(1..17 ,[6, 13, 7, 11, 16, 12, 14, 17, 8, 5, 15, 2, 3, 4, 10, 9, 1]);
makespan = 259;
----------
Found 1 new models
assign = array1d(1..17 ,[1, 2, 3, 4, 4, 1, 3, 6, 6, 5, 5, 1, 2, 3, 4, 5, 6]);
next = array1d(1..17 ,[6, 13, 7, 15, 4, 12, 14, 17, 8, 11, 16, 2, 3, 5, 10, 9, 1]);
makespan = 258;
----------
Found 2 new models
assign = array1d(1..17 ,[1, 2, 5, 4, 4, 1, 3, 6, 3, 5, 6, 1, 2, 3, 4, 5, 6]);
next = array1d(1..17 ,[6, 13, 16, 15, 4, 12, 14, 17, 7, 3, 8, 2, 9, 5, 10, 11, 1]);
makespan = 256;
----------
% [makespan>118]
Found 1 new models
assign = array1d(1..17 ,[1, 2, 5, 4, 4, 1, 3, 6, 6, 3, 5, 1, 2, 3, 4, 5, 6]);
next = array1d(1..17 ,[6, 13, 16, 15, 4, 12, 10, 17, 8, 14, 3, 2, 7, 5, 11, 9, 1]);
makespan = 255;
----------
% [makespan>121]
% [makespan>122]
% [makespan>124]
Found 4 new models
assign = array1d(1..17 ,[6, 4, 3, 1, 5, 1, 5, 2, 6, 3, 4, 1, 2, 3, 4, 5, 6]);
next = array1d(1..17 ,[17, 15, 10, 6, 16, 12, 5, 13, 1, 14, 2, 8, 3, 11, 7, 9, 4]);
makespan = 251;
----------
% [makespan>124]
==========
	Command being timed: "mzn-lbbd lbbd-datasets/Rabadi-2006/dzn-s-dominant/model.mzn lbbd-datasets/Rabadi-2006/dzn-s-dominant/11on6Rp50Rs50_12Ameer.dzn"
	User time (seconds): 37.52
	System time (seconds): 0.03
	Percent of CPU this job got: 99%
	Elapsed (wall clock) time (h:mm:ss or m:ss): 0:37.62
	Average shared text size (kbytes): 0
	Average unshared data size (kbytes): 0
	Average stack size (kbytes): 0
	Average total size (kbytes): 0
	Maximum resident set size (kbytes): 134528
	Average resident set size (kbytes): 0
	Major (requiring I/O) page faults: 0
	Minor (reclaiming a frame) page faults: 9702
	Voluntary context switches: 3
	Involuntary context switches: 68
	Swaps: 0
	File system inputs: 0
	File system outputs: 664
	Socket messages sent: 0
	Socket messages received: 0
	Signals delivered: 0
	Page size (bytes): 4096
	Exit status: 0
