+ /usr/bin/timeout 600 /usr/bin/time -v mzn-lbbd lbbd-datasets/planningandscheduling/cost-insts/model.mzn lbbd-datasets/planningandscheduling/cost-insts/c32j4m2.dzn
% No search annotation given. Defaulting to VSIDS!
% [sched_cost>735]
% [sched_cost>738]
Found 25 new models
obj = 807
----------
Found 5 new models
obj = 784
----------
Found 1 new models
obj = 772
----------
Found 1 new models
obj = 764
----------
% [sched_cost>741]
Found 1 new models
obj = 762
----------
Found 2 new models
obj = 757
----------
% [sched_cost>741]
% [sched_cost>743]
% [sched_cost>744]
% [sched_cost>745]
% [sched_cost>746]
% [sched_cost>746]
% [sched_cost>747]
% [sched_cost>748]
% [sched_cost>750]
% [sched_cost>751]
% [sched_cost>752]
