+ /usr/bin/timeout 600 /usr/bin/time -v mzn-lbbd lbbd-datasets/Rabadi-2006/dzn-p-dominant/model.mzn lbbd-datasets/Rabadi-2006/dzn-p-dominant/11on2Rp50Rs50_12Ameer.dzn
% No search annotation given. Defaulting to VSIDS!
% [makespan>841]
Found 156 new models
assign = array1d(1..13 ,[2, 1, 2, 1, 1, 2, 2, 1, 2, 2, 1, 1, 2]);
next = array1d(1..13 ,[13, 8, 1, 5, 11, 10, 6, 4, 7, 3, 12, 9, 2]);
makespan = 1156;
----------
Found 5 new models
assign = array1d(1..13 ,[2, 1, 2, 1, 2, 2, 2, 1, 1, 2, 1, 1, 2]);
next = array1d(1..13 ,[13, 9, 5, 12, 1, 10, 6, 4, 8, 3, 2, 7, 11]);
makespan = 1149;
----------
Found 3 new models
assign = array1d(1..13 ,[2, 1, 2, 1, 2, 2, 2, 1, 1, 2, 1, 1, 2]);
next = array1d(1..13 ,[7, 8, 5, 12, 13, 10, 6, 4, 11, 3, 2, 1, 9]);
makespan = 1146;
----------
Found 8 new models
assign = array1d(1..13 ,[2, 1, 2, 1, 1, 2, 2, 1, 2, 2, 1, 1, 2]);
next = array1d(1..13 ,[7, 8, 9, 11, 2, 10, 6, 4, 13, 3, 12, 1, 5]);
makespan = 1138;
----------
% [makespan>858]
% [makespan>863]
% [makespan>863]
% [makespan>864]
% [makespan>864]
% [makespan>865]
% [makespan>866]
% [makespan>866]
% [makespan>866]
% [makespan>866]
% [makespan>867]
% [makespan>867]
% [makespan>868]
% [makespan>869]
% [makespan>870]
% [makespan>871]
% [makespan>871]
% [makespan>872]
% [makespan>873]
% [makespan>873]
% [makespan>873]
