+ /usr/bin/timeout 600 /usr/bin/time -v mzn-lbbd lbbd-datasets/planningandscheduling/makespan-insts/model.mzn lbbd-datasets/planningandscheduling/makespan-insts/c24j3m1.dzn
% No search annotation given. Defaulting to VSIDS!
% [makespan>27]
Found 3 new models
obj = 51
----------
Found 10 new models
obj = 41
----------
Found 4 new models
obj = 37
----------
Found 1 new models
obj = 36
----------
Found 2 new models
obj = 34
----------
% [makespan>27]
Found 2 new models
obj = 32
----------
Found 1 new models
obj = 31
----------
Found 1 new models
obj = 30
----------
% [makespan>27]
% [makespan>27]
==========
	Command being timed: "mzn-lbbd lbbd-datasets/planningandscheduling/makespan-insts/model.mzn lbbd-datasets/planningandscheduling/makespan-insts/c24j3m1.dzn"
	User time (seconds): 8.93
	System time (seconds): 0.00
	Percent of CPU this job got: 99%
	Elapsed (wall clock) time (h:mm:ss or m:ss): 0:08.96
	Average shared text size (kbytes): 0
	Average unshared data size (kbytes): 0
	Average stack size (kbytes): 0
	Average total size (kbytes): 0
	Maximum resident set size (kbytes): 63200
	Average resident set size (kbytes): 0
	Major (requiring I/O) page faults: 0
	Minor (reclaiming a frame) page faults: 4790
	Voluntary context switches: 6
	Involuntary context switches: 13
	Swaps: 0
	File system inputs: 0
	File system outputs: 112
	Socket messages sent: 0
	Socket messages received: 0
	Signals delivered: 0
	Page size (bytes): 4096
	Exit status: 0
