+ /usr/bin/timeout 600 /usr/bin/time -v mzn-lbbd lbbd-datasets/Rabadi-2006/dzn-p-dominant/model.mzn lbbd-datasets/Rabadi-2006/dzn-p-dominant/7on4Rp50Rs50_15Ameer.dzn
% No search annotation given. Defaulting to VSIDS!
% [makespan>278]
Found 38 new models
assign = array1d(1..11 ,[2, 1, 3, 4, 3, 2, 1, 1, 2, 3, 4]);
next = array1d(1..11 ,[9, 7, 10, 11, 3, 1, 8, 6, 5, 4, 2]);
makespan = 352;
----------
Found 6 new models
assign = array1d(1..11 ,[4, 2, 1, 1, 4, 3, 2, 1, 2, 3, 4]);
next = array1d(1..11 ,[11, 9, 4, 8, 1, 10, 2, 7, 6, 5, 3]);
makespan = 335;
----------
==========
	Command being timed: "mzn-lbbd lbbd-datasets/Rabadi-2006/dzn-p-dominant/model.mzn lbbd-datasets/Rabadi-2006/dzn-p-dominant/7on4Rp50Rs50_15Ameer.dzn"
	User time (seconds): 1.11
	System time (seconds): 0.01
	Percent of CPU this job got: 99%
	Elapsed (wall clock) time (h:mm:ss or m:ss): 0:01.13
	Average shared text size (kbytes): 0
	Average unshared data size (kbytes): 0
	Average stack size (kbytes): 0
	Average total size (kbytes): 0
	Maximum resident set size (kbytes): 59008
	Average resident set size (kbytes): 0
	Major (requiring I/O) page faults: 0
	Minor (reclaiming a frame) page faults: 4267
	Voluntary context switches: 3
	Involuntary context switches: 7
	Swaps: 0
	File system inputs: 0
	File system outputs: 200
	Socket messages sent: 0
	Socket messages received: 0
	Signals delivered: 0
	Page size (bytes): 4096
	Exit status: 0
