+ /usr/bin/timeout 600 /usr/bin/time -v mzn-lbbd lbbd-datasets/Rabadi-2006/dzn-p-dominant/model.mzn lbbd-datasets/Rabadi-2006/dzn-p-dominant/8on6Rp50Rs50_10Ameer.dzn
% No search annotation given. Defaulting to VSIDS!
% [makespan>255]
Found 134 new models
assign = array1d(1..14 ,[6, 4, 1, 4, 2, 3, 5, 3, 1, 2, 3, 4, 5, 6]);
next = array1d(1..14 ,[14, 12, 9, 2, 10, 8, 13, 11, 5, 6, 4, 7, 1, 3]);
makespan = 320;
----------
Found 1 new models
assign = array1d(1..14 ,[6, 3, 2, 4, 4, 1, 5, 1, 1, 2, 3, 4, 5, 6]);
next = array1d(1..14 ,[14, 11, 10, 5, 12, 8, 13, 9, 3, 2, 4, 7, 1, 6]);
makespan = 319;
----------
Found 1 new models
assign = array1d(1..14 ,[6, 4, 2, 2, 3, 1, 5, 1, 1, 2, 3, 4, 5, 6]);
next = array1d(1..14 ,[14, 12, 4, 10, 11, 8, 13, 9, 3, 5, 2, 7, 1, 6]);
makespan = 318;
----------
Found 1 new models
assign = array1d(1..14 ,[6, 4, 2, 2, 4, 1, 5, 3, 1, 2, 3, 4, 5, 6]);
next = array1d(1..14 ,[14, 5, 4, 10, 12, 9, 13, 11, 3, 8, 2, 7, 1, 6]);
makespan = 317;
----------
Found 1 new models
assign = array1d(1..14 ,[6, 4, 3, 2, 5, 3, 2, 1, 1, 2, 3, 4, 5, 6]);
next = array1d(1..14 ,[14, 12, 6, 10, 13, 11, 4, 9, 7, 3, 2, 5, 1, 8]);
makespan = 316;
----------
% [makespan>258]
Found 2 new models
assign = array1d(1..14 ,[2, 2, 3, 4, 5, 3, 6, 1, 1, 2, 3, 4, 5, 6]);
next = array1d(1..14 ,[10, 1, 6, 12, 13, 11, 14, 9, 2, 3, 4, 5, 7, 8]);
makespan = 314;
----------
==========
	Command being timed: "mzn-lbbd lbbd-datasets/Rabadi-2006/dzn-p-dominant/model.mzn lbbd-datasets/Rabadi-2006/dzn-p-dominant/8on6Rp50Rs50_10Ameer.dzn"
	User time (seconds): 5.37
	System time (seconds): 0.02
	Percent of CPU this job got: 99%
	Elapsed (wall clock) time (h:mm:ss or m:ss): 0:05.41
	Average shared text size (kbytes): 0
	Average unshared data size (kbytes): 0
	Average stack size (kbytes): 0
	Average total size (kbytes): 0
	Maximum resident set size (kbytes): 81408
	Average resident set size (kbytes): 0
	Major (requiring I/O) page faults: 0
	Minor (reclaiming a frame) page faults: 5783
	Voluntary context switches: 4
	Involuntary context switches: 20
	Swaps: 0
	File system inputs: 0
	File system outputs: 368
	Socket messages sent: 0
	Socket messages received: 0
	Signals delivered: 0
	Page size (bytes): 4096
	Exit status: 0
