+ /usr/bin/timeout 600 /usr/bin/time -v mzn-lbbd lbbd-datasets/Rabadi-2006/dzn-p-dominant/model.mzn lbbd-datasets/Rabadi-2006/dzn-p-dominant/11on6Rp50Rs50_15Ameer.dzn
% No search annotation given. Defaulting to VSIDS!
% [makespan>277]
Found 120 new models
assign = array1d(1..17 ,[4, 4, 1, 6, 1, 5, 2, 6, 5, 2, 3, 1, 2, 3, 4, 5, 6]);
next = array1d(1..17 ,[2, 15, 12, 8, 3, 9, 10, 17, 16, 13, 14, 7, 11, 1, 6, 4, 5]);
makespan = 344;
----------
Found 1 new models
assign = array1d(1..17 ,[4, 5, 1, 6, 1, 3, 2, 6, 5, 2, 4, 1, 2, 3, 4, 5, 6]);
next = array1d(1..17 ,[11, 9, 12, 8, 3, 14, 10, 17, 16, 13, 15, 7, 6, 1, 2, 4, 5]);
makespan = 343;
----------
Found 3 new models
assign = array1d(1..17 ,[4, 5, 1, 6, 3, 3, 2, 6, 5, 1, 4, 1, 2, 3, 4, 5, 6]);
next = array1d(1..17 ,[11, 9, 10, 8, 6, 14, 13, 17, 16, 12, 15, 7, 5, 1, 2, 4, 3]);
makespan = 339;
----------
% [makespan>278]
Found 1 new models
assign = array1d(1..17 ,[4, 2, 1, 6, 1, 3, 4, 5, 5, 2, 6, 1, 2, 3, 4, 5, 6]);
next = array1d(1..17 ,[15, 10, 12, 17, 3, 14, 1, 16, 8, 13, 4, 2, 6, 7, 9, 11, 5]);
makespan = 338;
----------
% [makespan>279]
% [makespan>279]
% [makespan>279]
% [makespan>280]
% [makespan>283]
==========
	Command being timed: "mzn-lbbd lbbd-datasets/Rabadi-2006/dzn-p-dominant/model.mzn lbbd-datasets/Rabadi-2006/dzn-p-dominant/11on6Rp50Rs50_15Ameer.dzn"
	User time (seconds): 41.44
	System time (seconds): 0.03
	Percent of CPU this job got: 99%
	Elapsed (wall clock) time (h:mm:ss or m:ss): 0:41.55
	Average shared text size (kbytes): 0
	Average unshared data size (kbytes): 0
	Average stack size (kbytes): 0
	Average total size (kbytes): 0
	Maximum resident set size (kbytes): 133568
	Average resident set size (kbytes): 0
	Major (requiring I/O) page faults: 0
	Minor (reclaiming a frame) page faults: 10144
	Voluntary context switches: 4
	Involuntary context switches: 72
	Swaps: 0
	File system inputs: 0
	File system outputs: 672
	Socket messages sent: 0
	Socket messages received: 0
	Signals delivered: 0
	Page size (bytes): 4096
	Exit status: 0
