+ /usr/bin/timeout 600 /usr/bin/time -v mzn-lbbd lbbd-datasets/Rabadi-2006/dzn-p-dominant/model.mzn lbbd-datasets/Rabadi-2006/dzn-p-dominant/7on2Rp50Rs50_6Ameer.dzn
% No search annotation given. Defaulting to VSIDS!
% [makespan>528]
Found 82 new models
assign = array1d(1..9 ,[1, 2, 1, 2, 2, 1, 2, 1, 2]);
next = array1d(1..9 ,[6, 7, 1, 5, 2, 8, 9, 4, 3]);
makespan = 785;
----------
Found 8 new models
assign = array1d(1..9 ,[1, 1, 2, 2, 1, 1, 2, 1, 2]);
next = array1d(1..9 ,[8, 6, 7, 9, 1, 5, 4, 3, 2]);
makespan = 740;
----------
Found 5 new models
assign = array1d(1..9 ,[1, 1, 2, 1, 1, 2, 2, 1, 2]);
next = array1d(1..9 ,[8, 5, 7, 2, 1, 9, 6, 3, 4]);
makespan = 731;
----------
Found 18 new models
assign = array1d(1..9 ,[2, 1, 2, 1, 1, 1, 2, 1, 2]);
next = array1d(1..9 ,[3, 6, 9, 2, 4, 8, 1, 7, 5]);
makespan = 710;
----------
% [makespan>583]
==========
	Command being timed: "mzn-lbbd lbbd-datasets/Rabadi-2006/dzn-p-dominant/model.mzn lbbd-datasets/Rabadi-2006/dzn-p-dominant/7on2Rp50Rs50_6Ameer.dzn"
	User time (seconds): 1.67
	System time (seconds): 0.01
	Percent of CPU this job got: 99%
	Elapsed (wall clock) time (h:mm:ss or m:ss): 0:01.69
	Average shared text size (kbytes): 0
	Average unshared data size (kbytes): 0
	Average stack size (kbytes): 0
	Average total size (kbytes): 0
	Maximum resident set size (kbytes): 51184
	Average resident set size (kbytes): 0
	Major (requiring I/O) page faults: 0
	Minor (reclaiming a frame) page faults: 3828
	Voluntary context switches: 3
	Involuntary context switches: 9
	Swaps: 0
	File system inputs: 0
	File system outputs: 112
	Socket messages sent: 0
	Socket messages received: 0
	Signals delivered: 0
	Page size (bytes): 4096
	Exit status: 0
