+ /usr/bin/timeout 600 /usr/bin/time -v mzn-lbbd lbbd-datasets/sscplp/trucks-dzn/model.mzn lbbd-datasets/sscplp/trucks-dzn/p20-l100-c150-correlated.dzn
% No search annotation given. Defaulting to VSIDS!
% [obj>16724]
Found 1 new models
source = [7, 17, 5, 20, 13, 17, 7, 20, 20, 16, 5, 2, 2, 13, 20, 16, 5, 16, 15, 16, 13, 10, 17, 20, 10, 5, 10, 16, 2, 15, 13, 10, 7, 10, 2, 20, 7, 5, 2, 7]
open = [0, 1, 0, 0, 1, 0, 1, 0, 0, 1, 0, 0, 1, 0, 1, 1, 1, 0, 0, 1]
trucks_used = [0, 1, 0, 0, 1, 0, 1, 0, 0, 1, 0, 0, 1, 0, 1, 1, 1, 0, 0, 1]
truck_assigned = [1, 1, 1, 1, 1, 1, 1, 1, 1, 1, 1, 1, 1, 1, 1, 1, 1, 1, 1, 1, 1, 1, 1, 1, 1, 1, 1, 1, 1, 1, 1, 1, 1, 1, 1, 1, 1, 1, 1, 1]
obj = 16726
----------
