+ /usr/bin/timeout 600 /usr/bin/time -v mzn-lbbd lbbd-datasets/sscplp/dzn/model.mzn lbbd-datasets/sscplp/dzn/p41.dzn
% No search annotation given. Defaulting to VSIDS!
% [obj>17245]
Found 1 new models
source = [5, 7, 5, 13, 11, 5, 7, 11, 11, 11, 7, 5, 13, 13, 5, 11, 11, 5, 5, 11, 11, 5, 5, 13, 13, 13, 7, 13, 7, 11, 5, 5, 11, 7, 7, 7, 7, 11, 7, 5, 11, 13, 11, 7, 13, 11, 13, 7, 11, 5, 7, 7, 13, 13, 7, 7, 7, 11, 5, 13]
obj = 17246
----------
==========
	Command being timed: "mzn-lbbd lbbd-datasets/sscplp/dzn/model.mzn lbbd-datasets/sscplp/dzn/p41.dzn"
	User time (seconds): 4.62
	System time (seconds): 0.04
	Percent of CPU this job got: 99%
	Elapsed (wall clock) time (h:mm:ss or m:ss): 0:04.67
	Average shared text size (kbytes): 0
	Average unshared data size (kbytes): 0
	Average stack size (kbytes): 0
	Average total size (kbytes): 0
	Maximum resident set size (kbytes): 166384
	Average resident set size (kbytes): 0
	Major (requiring I/O) page faults: 0
	Minor (reclaiming a frame) page faults: 12246
	Voluntary context switches: 6
	Involuntary context switches: 15
	Swaps: 0
	File system inputs: 0
	File system outputs: 1352
	Socket messages sent: 0
	Socket messages received: 0
	Signals delivered: 0
	Page size (bytes): 4096
	Exit status: 0
