+ /usr/bin/timeout 600 /usr/bin/time -v mzn-lbbd lbbd-datasets/sscplp/trucks-dzn/model.mzn lbbd-datasets/sscplp/trucks-dzn/p22-l100-c150-correlated.dzn
% No search annotation given. Defaulting to VSIDS!
% [obj>3551]
Found 1 new models
source = [6, 18, 9, 6, 10, 7, 18, 7, 9, 10, 16, 9, 7, 9, 6, 9, 7, 9, 7, 9, 18, 18, 16, 10, 18, 16, 9, 7, 16, 7, 6, 16, 10, 7, 6, 7, 9, 10, 9, 7]
open = [0, 0, 0, 0, 0, 1, 1, 0, 1, 1, 0, 0, 0, 0, 0, 1, 0, 1, 0, 0]
trucks_used = [0, 0, 0, 0, 0, 1, 2, 0, 2, 1, 0, 0, 0, 0, 0, 1, 0, 1, 0, 0]
truck_assigned = [1, 1, 2, 1, 1, 2, 1, 1, 1, 1, 1, 1, 1, 1, 1, 2, 1, 2, 1, 2, 1, 1, 1, 1, 1, 1, 1, 2, 1, 2, 1, 1, 1, 2, 1, 2, 1, 1, 2, 1]
obj = 3552
----------
==========
	Command being timed: "mzn-lbbd lbbd-datasets/sscplp/trucks-dzn/model.mzn lbbd-datasets/sscplp/trucks-dzn/p22-l100-c150-correlated.dzn"
	User time (seconds): 64.89
	System time (seconds): 0.09
	Percent of CPU this job got: 99%
	Elapsed (wall clock) time (h:mm:ss or m:ss): 1:05.24
	Average shared text size (kbytes): 0
	Average unshared data size (kbytes): 0
	Average stack size (kbytes): 0
	Average total size (kbytes): 0
	Maximum resident set size (kbytes): 284704
	Average resident set size (kbytes): 0
	Major (requiring I/O) page faults: 0
	Minor (reclaiming a frame) page faults: 24361
	Voluntary context switches: 3
	Involuntary context switches: 93
	Swaps: 0
	File system inputs: 0
	File system outputs: 1560
	Socket messages sent: 0
	Socket messages received: 0
	Signals delivered: 0
	Page size (bytes): 4096
	Exit status: 0
