+ /usr/bin/timeout 600 /usr/bin/time -v mzn-lbbd lbbd-datasets/sscplp/trucks-dzn/model.mzn lbbd-datasets/sscplp/trucks-dzn/p24-l50-c80-uncorrelated.dzn
% No search annotation given. Defaulting to VSIDS!
% [obj>6137]
Found 18 new models
source = [19, 20, 17, 3, 12, 2, 13, 2, 17, 17, 17, 3, 19, 17, 3, 19, 17, 17, 15, 3, 20, 8, 14, 3, 17, 13, 4, 2, 20, 19, 13, 3, 18, 12, 17, 15, 20, 19, 20, 13]
open = [0, 1, 1, 1, 0, 0, 0, 1, 0, 0, 0, 1, 1, 1, 1, 0, 1, 1, 1, 1]
trucks_used = [0, 2, 6, 1, 0, 0, 0, 1, 0, 0, 0, 2, 4, 1, 1, 0, 9, 1, 5, 5]
truck_assigned = [3, 1, 8, 4, 2, 2, 4, 1, 8, 7, 9, 4, 4, 8, 5, 5, 6, 9, 1, 1, 5, 1, 1, 3, 9, 1, 1, 2, 5, 2, 4, 6, 1, 1, 7, 1, 3, 1, 2, 3]
obj = 22470
----------
Found 7 new models
source = [2, 13, 13, 3, 19, 2, 12, 2, 20, 19, 17, 14, 20, 17, 3, 1, 17, 17, 15, 3, 12, 8, 17, 3, 17, 13, 3, 2, 3, 19, 13, 3, 18, 3, 2, 12, 19, 19, 20, 13]
open = [1, 1, 1, 0, 0, 0, 0, 1, 0, 0, 0, 1, 1, 1, 1, 0, 1, 1, 1, 1]
trucks_used = [1, 2, 6, 0, 0, 0, 0, 1, 0, 0, 0, 2, 4, 1, 1, 0, 6, 1, 4, 3]
truck_assigned = [2, 4, 2, 4, 2, 2, 1, 1, 1, 4, 5, 1, 3, 6, 5, 1, 6, 5, 1, 3, 2, 1, 1, 2, 5, 1, 1, 2, 2, 3, 4, 6, 1, 4, 1, 2, 2, 1, 2, 3]
obj = 21783
----------
Found 20 new models
source = [17, 13, 17, 3, 19, 2, 17, 15, 20, 14, 19, 3, 3, 17, 3, 14, 17, 17, 15, 3, 12, 15, 19, 3, 17, 13, 19, 2, 3, 1, 18, 3, 3, 3, 1, 12, 8, 8, 13, 13]
open = [1, 1, 1, 0, 0, 0, 0, 1, 0, 0, 0, 1, 1, 1, 1, 0, 1, 1, 1, 1]
trucks_used = [2, 2, 5, 0, 0, 0, 0, 2, 0, 0, 0, 2, 3, 2, 1, 0, 6, 1, 4, 1]
truck_assigned = [1, 3, 2, 4, 2, 2, 4, 1, 1, 2, 3, 2, 1, 6, 2, 1, 6, 5, 1, 3, 2, 1, 4, 2, 5, 1, 3, 1, 5, 2, 1, 5, 3, 4, 1, 2, 2, 1, 3, 2]
obj = 21403
----------
