+ /usr/bin/timeout 600 /usr/bin/time -v mzn-lbbd lbbd-datasets/planningandscheduling/cost-insts/model.mzn lbbd-datasets/planningandscheduling/cost-insts/c30j4m4.dzn
% No search annotation given. Defaulting to VSIDS!
% [sched_cost>891]
Found 5 new models
obj = 1522
----------
Found 15 new models
obj = 1216
----------
Found 6 new models
obj = 1117
----------
Found 3 new models
obj = 1073
----------
Found 7 new models
obj = 1017
----------
Found 1 new models
obj = 989
----------
% [sched_cost>894]
Found 1 new models
obj = 985
----------
Found 1 new models
obj = 976
----------
Found 2 new models
obj = 968
----------
Found 1 new models
obj = 953
----------
% [sched_cost>895]
Found 1 new models
obj = 949
----------
Found 2 new models
obj = 936
----------
% [sched_cost>895]
Found 1 new models
obj = 932
----------
% [sched_cost>898]
Found 3 new models
obj = 927
----------
% [sched_cost>898]
% [sched_cost>901]
% [sched_cost>901]
Found 1 new models
obj = 925
----------
% [sched_cost>902]
% [sched_cost>903]
% [sched_cost>903]
% [sched_cost>906]
% [sched_cost>906]
% [sched_cost>906]
% [sched_cost>906]
% [sched_cost>907]
% [sched_cost>907]
