+ /usr/bin/timeout 600 /usr/bin/time -v mzn-lbbd lbbd-datasets/planningandscheduling/cost-insts/model.mzn lbbd-datasets/planningandscheduling/cost-insts/e40j8m2.dzn
% No search annotation given. Defaulting to VSIDS!
% [sched_cost>830]
Found 34 new models
obj = 1013
----------
Found 19 new models
obj = 899
----------
Found 9 new models
obj = 869
----------
Found 1 new models
obj = 868
----------
Found 1 new models
obj = 867
----------
Found 2 new models
obj = 862
----------
Found 1 new models
obj = 861
----------
% [sched_cost>830]
Found 1 new models
obj = 859
----------
Found 2 new models
obj = 855
----------
Found 3 new models
obj = 851
----------
Found 1 new models
obj = 849
----------
Found 1 new models
obj = 848
----------
Found 1 new models
obj = 847
----------
% [sched_cost>832]
Found 1 new models
obj = 846
----------
Found 1 new models
obj = 844
----------
Found 1 new models
obj = 843
----------
% [sched_cost>835]
% [sched_cost>836]
% [sched_cost>836]
% [sched_cost>837]
% [sched_cost>837]
% [sched_cost>838]
% [sched_cost>838]
% [sched_cost>839]
% [sched_cost>840]
% [sched_cost>840]
% [sched_cost>841]
