+ /usr/bin/timeout 600 /usr/bin/time -v mzn-lbbd lbbd-datasets/Rabadi-2006/dzn-s-dominant/model.mzn lbbd-datasets/Rabadi-2006/dzn-s-dominant/10on6Rp50Rs50_14Ameer.dzn
% No search annotation given. Defaulting to VSIDS!
% [makespan>116]
Found 73 new models
assign = array1d(1..16 ,[1, 1, 6, 1, 1, 6, 6, 6, 6, 6, 1, 2, 3, 4, 5, 6]);
next = array1d(1..16 ,[4, 11, 16, 2, 1, 9, 10, 6, 3, 8, 12, 13, 14, 15, 7, 5]);
makespan = 1143;
----------
Found 64 new models
assign = array1d(1..16 ,[6, 4, 1, 3, 1, 6, 6, 1, 6, 6, 1, 2, 3, 4, 5, 6]);
next = array1d(1..16 ,[16, 14, 8, 13, 11, 9, 10, 5, 1, 6, 12, 4, 2, 15, 7, 3]);
makespan = 985;
----------
Found 181 new models
assign = array1d(1..16 ,[3, 6, 5, 4, 1, 4, 3, 2, 6, 1, 1, 2, 3, 4, 5, 6]);
next = array1d(1..16 ,[7, 16, 15, 6, 10, 14, 13, 12, 2, 11, 8, 1, 4, 3, 9, 5]);
makespan = 295;
----------
Found 15 new models
assign = array1d(1..16 ,[5, 4, 3, 1, 3, 5, 2, 6, 6, 4, 1, 2, 3, 4, 5, 6]);
next = array1d(1..16 ,[15, 10, 13, 11, 3, 1, 12, 9, 16, 14, 7, 5, 2, 6, 8, 4]);
makespan = 264;
----------
Found 5 new models
assign = array1d(1..16 ,[5, 2, 3, 1, 3, 5, 1, 6, 6, 4, 1, 2, 3, 4, 5, 6]);
next = array1d(1..16 ,[15, 12, 13, 7, 3, 1, 11, 9, 16, 14, 2, 5, 10, 6, 8, 4]);
makespan = 259;
----------
% [makespan>120]
Found 3 new models
assign = array1d(1..16 ,[5, 2, 3, 5, 3, 1, 1, 6, 6, 4, 1, 2, 3, 4, 5, 6]);
next = array1d(1..16 ,[15, 12, 13, 1, 3, 7, 11, 9, 16, 14, 2, 5, 10, 4, 8, 6]);
makespan = 256;
----------
% [makespan>120]
% [makespan>126]
==========
	Command being timed: "mzn-lbbd lbbd-datasets/Rabadi-2006/dzn-s-dominant/model.mzn lbbd-datasets/Rabadi-2006/dzn-s-dominant/10on6Rp50Rs50_14Ameer.dzn"
	User time (seconds): 28.37
	System time (seconds): 0.02
	Percent of CPU this job got: 99%
	Elapsed (wall clock) time (h:mm:ss or m:ss): 0:28.45
	Average shared text size (kbytes): 0
	Average unshared data size (kbytes): 0
	Average stack size (kbytes): 0
	Average total size (kbytes): 0
	Maximum resident set size (kbytes): 110768
	Average resident set size (kbytes): 0
	Major (requiring I/O) page faults: 0
	Minor (reclaiming a frame) page faults: 8065
	Voluntary context switches: 6
	Involuntary context switches: 46
	Swaps: 0
	File system inputs: 0
	File system outputs: 552
	Socket messages sent: 0
	Socket messages received: 0
	Signals delivered: 0
	Page size (bytes): 4096
	Exit status: 0
