+ /usr/bin/timeout 600 /usr/bin/time -v mzn-lbbd lbbd-datasets/planningandscheduling/makespan-insts/model.mzn lbbd-datasets/planningandscheduling/makespan-insts/e50j10m4.dzn
% No search annotation given. Defaulting to VSIDS!
% [makespan>9]
Found 3 new models
obj = 31
----------
Found 12 new models
obj = 19
----------
Found 3 new models
obj = 16
----------
Found 1 new models
obj = 15
----------
Found 1 new models
obj = 14
----------
% [makespan>9]
Found 1 new models
obj = 13
----------
Found 1 new models
obj = 12
----------
% [makespan>9]
Found 1 new models
obj = 11
----------
% [makespan>9]
% [makespan>9]
% [makespan>9]
% [makespan>9]
==========
	Command being timed: "mzn-lbbd lbbd-datasets/planningandscheduling/makespan-insts/model.mzn lbbd-datasets/planningandscheduling/makespan-insts/e50j10m4.dzn"
	User time (seconds): 57.70
	System time (seconds): 0.02
	Percent of CPU this job got: 99%
	Elapsed (wall clock) time (h:mm:ss or m:ss): 0:57.83
	Average shared text size (kbytes): 0
	Average unshared data size (kbytes): 0
	Average stack size (kbytes): 0
	Average total size (kbytes): 0
	Maximum resident set size (kbytes): 146624
	Average resident set size (kbytes): 0
	Major (requiring I/O) page faults: 0
	Minor (reclaiming a frame) page faults: 10725
	Voluntary context switches: 5
	Involuntary context switches: 81
	Swaps: 0
	File system inputs: 0
	File system outputs: 624
	Socket messages sent: 0
	Socket messages received: 0
	Signals delivered: 0
	Page size (bytes): 4096
	Exit status: 0
