+ /usr/bin/timeout 600 /usr/bin/time -v mzn-lbbd lbbd-datasets/Rabadi-2006/dzn-balanced/model.mzn lbbd-datasets/Rabadi-2006/dzn-balanced/9on6Rp50Rs50_15Ameer.dzn
% No search annotation given. Defaulting to VSIDS!
% [makespan>116]
Found 27 new models
assign = array1d(1..15 ,[2, 1, 1, 2, 2, 1, 6, 2, 5, 1, 2, 3, 4, 5, 6]);
next = array1d(1..15 ,[5, 10, 6, 11, 8, 2, 15, 4, 14, 1, 12, 13, 9, 7, 3]);
makespan = 556;
----------
Found 1 new models
assign = array1d(1..15 ,[2, 1, 6, 1, 2, 2, 2, 1, 5, 1, 2, 3, 4, 5, 6]);
next = array1d(1..15 ,[5, 4, 15, 8, 6, 7, 11, 10, 14, 1, 12, 13, 9, 3, 2]);
makespan = 555;
----------
Found 7 new models
assign = array1d(1..15 ,[2, 1, 6, 2, 1, 1, 2, 2, 5, 1, 2, 3, 4, 5, 6]);
next = array1d(1..15 ,[11, 6, 15, 1, 10, 5, 8, 4, 14, 7, 12, 13, 9, 3, 2]);
makespan = 540;
----------
Found 91 new models
assign = array1d(1..15 ,[5, 6, 3, 6, 1, 1, 4, 2, 3, 1, 2, 3, 4, 5, 6]);
next = array1d(1..15 ,[14, 4, 12, 15, 10, 5, 13, 11, 3, 8, 9, 7, 1, 2, 6]);
makespan = 175;
----------
Found 2 new models
assign = array1d(1..15 ,[4, 6, 5, 5, 1, 1, 2, 3, 3, 1, 2, 3, 4, 5, 6]);
next = array1d(1..15 ,[13, 15, 14, 3, 10, 5, 11, 9, 12, 7, 8, 1, 4, 2, 6]);
makespan = 173;
----------
% [makespan>116]
% [makespan>116]
==========
	Command being timed: "mzn-lbbd lbbd-datasets/Rabadi-2006/dzn-balanced/model.mzn lbbd-datasets/Rabadi-2006/dzn-balanced/9on6Rp50Rs50_15Ameer.dzn"
	User time (seconds): 15.20
	System time (seconds): 0.02
	Percent of CPU this job got: 99%
	Elapsed (wall clock) time (h:mm:ss or m:ss): 0:15.25
	Average shared text size (kbytes): 0
	Average unshared data size (kbytes): 0
	Average stack size (kbytes): 0
	Average total size (kbytes): 0
	Maximum resident set size (kbytes): 95024
	Average resident set size (kbytes): 0
	Major (requiring I/O) page faults: 0
	Minor (reclaiming a frame) page faults: 6781
	Voluntary context switches: 5
	Involuntary context switches: 27
	Swaps: 0
	File system inputs: 0
	File system outputs: 448
	Socket messages sent: 0
	Socket messages received: 0
	Signals delivered: 0
	Page size (bytes): 4096
	Exit status: 0
