+ /usr/bin/timeout 600 /usr/bin/time -v mzn-lbbd lbbd-datasets/Rabadi-2006/dzn-p-dominant/model.mzn lbbd-datasets/Rabadi-2006/dzn-p-dominant/8on2Rp50Rs50_5Ameer.dzn
% No search annotation given. Defaulting to VSIDS!
% [makespan>551]
Found 25 new models
assign = array1d(1..10 ,[2, 1, 1, 2, 1, 2, 1, 1, 1, 2]);
next = array1d(1..10 ,[4, 5, 2, 6, 7, 10, 8, 9, 1, 3]);
makespan = 1032;
----------
Found 7 new models
assign = array1d(1..10 ,[2, 1, 1, 2, 1, 1, 1, 2, 1, 2]);
next = array1d(1..10 ,[4, 5, 7, 8, 6, 3, 9, 10, 1, 2]);
makespan = 1013;
----------
Found 101 new models
assign = array1d(1..10 ,[2, 2, 1, 2, 1, 1, 2, 1, 1, 2]);
next = array1d(1..10 ,[10, 1, 9, 2, 8, 5, 4, 3, 7, 6]);
makespan = 744;
----------
Found 2 new models
assign = array1d(1..10 ,[2, 1, 2, 2, 1, 1, 2, 1, 1, 2]);
next = array1d(1..10 ,[10, 6, 1, 7, 8, 9, 3, 2, 4, 5]);
makespan = 742;
----------
% [makespan>577]
==========
	Command being timed: "mzn-lbbd lbbd-datasets/Rabadi-2006/dzn-p-dominant/model.mzn lbbd-datasets/Rabadi-2006/dzn-p-dominant/8on2Rp50Rs50_5Ameer.dzn"
	User time (seconds): 2.67
	System time (seconds): 0.00
	Percent of CPU this job got: 99%
	Elapsed (wall clock) time (h:mm:ss or m:ss): 0:02.68
	Average shared text size (kbytes): 0
	Average unshared data size (kbytes): 0
	Average stack size (kbytes): 0
	Average total size (kbytes): 0
	Maximum resident set size (kbytes): 54656
	Average resident set size (kbytes): 0
	Major (requiring I/O) page faults: 0
	Minor (reclaiming a frame) page faults: 4057
	Voluntary context switches: 6
	Involuntary context switches: 6
	Swaps: 0
	File system inputs: 0
	File system outputs: 144
	Socket messages sent: 0
	Socket messages received: 0
	Signals delivered: 0
	Page size (bytes): 4096
	Exit status: 0
