+ /usr/bin/timeout 600 /usr/bin/time -v mzn-lbbd lbbd-datasets/sscplp/trucks-dzn/model.mzn lbbd-datasets/sscplp/trucks-dzn/p14-l50-c150-uncorrelated.dzn
% No search annotation given. Defaulting to VSIDS!
% [obj>6115]
Found 12 new models
source = [12, 14, 7, 7, 2, 9, 2, 8, 14, 7, 2, 5, 15, 14, 1, 13, 8, 9, 8, 14, 15, 3, 7, 8, 5, 2, 14, 14, 14, 15]
open = [1, 1, 1, 0, 1, 0, 1, 1, 1, 0, 0, 1, 1, 1, 1]
trucks_used = [1, 3, 1, 0, 2, 0, 3, 4, 1, 0, 0, 1, 1, 7, 3]
truck_assigned = [1, 6, 1, 3, 3, 1, 3, 1, 4, 3, 2, 2, 1, 7, 1, 1, 2, 1, 4, 7, 3, 1, 3, 3, 1, 1, 6, 5, 5, 2]
obj = 22161
----------
Found 83 new models
source = [7, 14, 2, 14, 5, 2, 2, 8, 14, 7, 2, 1, 7, 14, 1, 8, 8, 8, 7, 14, 2, 8, 8, 5, 5, 7, 14, 14, 14, 8]
open = [1, 1, 0, 0, 1, 0, 1, 1, 0, 0, 0, 0, 0, 1, 0]
trucks_used = [1, 2, 0, 0, 1, 0, 2, 4, 0, 0, 0, 0, 0, 4, 0]
truck_assigned = [1, 3, 2, 2, 1, 1, 1, 3, 3, 1, 1, 1, 2, 4, 1, 2, 1, 4, 2, 4, 2, 3, 2, 1, 1, 2, 1, 1, 2, 1]
obj = 6410
----------
Found 1 new models
source = [7, 14, 2, 7, 5, 7, 2, 8, 14, 7, 2, 1, 7, 14, 1, 8, 8, 2, 7, 14, 2, 8, 14, 5, 5, 14, 14, 8, 14, 2]
open = [1, 1, 0, 0, 1, 0, 1, 1, 0, 0, 0, 0, 0, 1, 0]
trucks_used = [1, 3, 0, 0, 1, 0, 2, 3, 0, 0, 0, 0, 0, 4, 0]
truck_assigned = [1, 3, 2, 2, 1, 2, 1, 3, 3, 1, 1, 1, 2, 4, 1, 2, 1, 1, 2, 4, 2, 3, 1, 1, 1, 2, 1, 2, 2, 3]
obj = 6399
----------
