+ /usr/bin/timeout 600 /usr/bin/time -v mzn-lbbd lbbd-datasets/Rabadi-2006/dzn-balanced/model.mzn lbbd-datasets/Rabadi-2006/dzn-balanced/9on4Rp50Rs50_9Ameer.dzn
% No search annotation given. Defaulting to VSIDS!
% [makespan>173]
Found 136 new models
assign = array1d(1..13 ,[2, 3, 1, 3, 4, 3, 4, 1, 2, 1, 2, 3, 4]);
next = array1d(1..13 ,[11, 12, 10, 2, 7, 4, 13, 3, 1, 9, 6, 5, 8]);
makespan = 305;
----------
Found 7 new models
assign = array1d(1..13 ,[3, 3, 2, 3, 1, 4, 4, 2, 1, 1, 2, 3, 4]);
next = array1d(1..13 ,[12, 1, 8, 2, 9, 7, 13, 11, 10, 3, 4, 6, 5]);
makespan = 298;
----------
Found 17 new models
assign = array1d(1..13 ,[4, 1, 2, 3, 1, 2, 4, 3, 4, 1, 2, 3, 4]);
next = array1d(1..13 ,[7, 10, 6, 12, 2, 11, 9, 4, 13, 3, 8, 1, 5]);
makespan = 281;
----------
% [makespan>173]
% [makespan>173]
% [makespan>176]
% [makespan>178]
% [makespan>179]
% [makespan>180]
% [makespan>183]
% [makespan>184]
% [makespan>184]
% [makespan>184]
% [makespan>184]
% [makespan>185]
% [makespan>185]
% [makespan>186]
% [makespan>187]
% [makespan>187]
% [makespan>188]
% [makespan>188]
==========
	Command being timed: "mzn-lbbd lbbd-datasets/Rabadi-2006/dzn-balanced/model.mzn lbbd-datasets/Rabadi-2006/dzn-balanced/9on4Rp50Rs50_9Ameer.dzn"
	User time (seconds): 526.90
	System time (seconds): 0.13
	Percent of CPU this job got: 98%
	Elapsed (wall clock) time (h:mm:ss or m:ss): 8:53.27
	Average shared text size (kbytes): 0
	Average unshared data size (kbytes): 0
	Average stack size (kbytes): 0
	Average total size (kbytes): 0
	Maximum resident set size (kbytes): 343296
	Average resident set size (kbytes): 0
	Major (requiring I/O) page faults: 0
	Minor (reclaiming a frame) page faults: 25188
	Voluntary context switches: 7
	Involuntary context switches: 671
	Swaps: 0
	File system inputs: 0
	File system outputs: 448
	Socket messages sent: 0
	Socket messages received: 0
	Signals delivered: 0
	Page size (bytes): 4096
	Exit status: 0
