+ /usr/bin/timeout 600 /usr/bin/time -v mzn-lbbd lbbd-datasets/Rabadi-2006/dzn-s-dominant/model.mzn lbbd-datasets/Rabadi-2006/dzn-s-dominant/8on4Rp50Rs50_10Ameer.dzn
% No search annotation given. Defaulting to VSIDS!
% [makespan>137]
Found 134 new models
assign = array1d(1..12 ,[1, 4, 4, 1, 2, 3, 2, 3, 1, 2, 3, 4]);
next = array1d(1..12 ,[4, 3, 12, 9, 10, 11, 5, 6, 7, 8, 2, 1]);
makespan = 319;
----------
Found 11 new models
assign = array1d(1..12 ,[4, 3, 3, 1, 4, 1, 2, 2, 1, 2, 3, 4]);
next = array1d(1..12 ,[5, 3, 11, 9, 12, 4, 8, 10, 7, 2, 1, 6]);
makespan = 286;
----------
Found 5 new models
assign = array1d(1..12 ,[2, 4, 3, 3, 4, 1, 2, 1, 1, 2, 3, 4]);
next = array1d(1..12 ,[10, 5, 11, 3, 12, 8, 1, 9, 7, 4, 2, 6]);
makespan = 281;
----------
Found 1 new models
assign = array1d(1..12 ,[3, 4, 4, 2, 2, 3, 1, 1, 1, 2, 3, 4]);
next = array1d(1..12 ,[6, 12, 2, 5, 10, 11, 8, 9, 4, 1, 3, 7]);
makespan = 280;
----------
Found 2 new models
assign = array1d(1..12 ,[3, 2, 4, 1, 4, 3, 1, 2, 1, 2, 3, 4]);
next = array1d(1..12 ,[6, 8, 12, 7, 3, 11, 9, 10, 2, 1, 5, 4]);
makespan = 278;
----------
Found 2 new models
assign = array1d(1..12 ,[4, 2, 3, 1, 4, 3, 1, 2, 1, 2, 3, 4]);
next = array1d(1..12 ,[5, 8, 11, 7, 12, 3, 9, 10, 2, 6, 1, 4]);
makespan = 276;
----------
==========
	Command being timed: "mzn-lbbd lbbd-datasets/Rabadi-2006/dzn-s-dominant/model.mzn lbbd-datasets/Rabadi-2006/dzn-s-dominant/8on4Rp50Rs50_10Ameer.dzn"
	User time (seconds): 3.17
	System time (seconds): 0.01
	Percent of CPU this job got: 99%
	Elapsed (wall clock) time (h:mm:ss or m:ss): 0:03.19
	Average shared text size (kbytes): 0
	Average unshared data size (kbytes): 0
	Average stack size (kbytes): 0
	Average total size (kbytes): 0
	Maximum resident set size (kbytes): 64368
	Average resident set size (kbytes): 0
	Major (requiring I/O) page faults: 0
	Minor (reclaiming a frame) page faults: 4603
	Voluntary context switches: 4
	Involuntary context switches: 10
	Swaps: 0
	File system inputs: 0
	File system outputs: 256
	Socket messages sent: 0
	Socket messages received: 0
	Signals delivered: 0
	Page size (bytes): 4096
	Exit status: 0
