+ /usr/bin/timeout 600 /usr/bin/time -v mzn-lbbd lbbd-datasets/sscplp/trucks-dzn/model.mzn lbbd-datasets/sscplp/trucks-dzn/p07-l40-c50-correlated.dzn
% No search annotation given. Defaulting to VSIDS!
% [obj>3842]
Found 33 new models
source = [14, 7, 14, 11, 7, 12, 2, 14, 14, 7, 14, 2, 14, 7, 7, 7, 11, 7, 5, 7, 14, 2, 11, 7, 14, 14, 5, 11, 11, 7]
open = [0, 1, 0, 0, 1, 0, 1, 0, 0, 0, 1, 1, 0, 1, 0]
trucks_used = [0, 2, 0, 0, 1, 0, 6, 0, 0, 0, 3, 1, 0, 5, 0]
truck_assigned = [2, 1, 2, 3, 2, 1, 1, 3, 3, 6, 4, 2, 1, 3, 4, 2, 1, 3, 1, 5, 4, 2, 1, 1, 5, 5, 1, 3, 2, 5]
obj = 4295
----------
Found 1 new models
source = [14, 7, 14, 11, 7, 11, 2, 14, 14, 7, 14, 2, 14, 7, 7, 7, 11, 7, 5, 7, 14, 2, 11, 7, 14, 14, 5, 11, 11, 7]
open = [0, 1, 0, 0, 1, 0, 1, 0, 0, 0, 1, 0, 0, 1, 0]
trucks_used = [0, 2, 0, 0, 1, 0, 6, 0, 0, 0, 4, 0, 0, 5, 0]
truck_assigned = [2, 1, 2, 3, 2, 2, 1, 3, 3, 6, 4, 2, 1, 3, 4, 2, 1, 3, 1, 5, 4, 2, 1, 1, 5, 5, 1, 4, 3, 5]
obj = 3943
----------
Found 1 new models
source = [14, 7, 14, 11, 7, 11, 2, 14, 14, 7, 14, 2, 14, 7, 7, 7, 7, 7, 5, 7, 14, 2, 11, 7, 14, 14, 5, 11, 11, 11]
open = [0, 1, 0, 0, 1, 0, 1, 0, 0, 0, 1, 0, 0, 1, 0]
trucks_used = [0, 2, 0, 0, 1, 0, 6, 0, 0, 0, 3, 0, 0, 5, 0]
truck_assigned = [2, 4, 2, 3, 5, 1, 1, 3, 3, 6, 4, 2, 1, 3, 4, 1, 2, 3, 1, 5, 4, 2, 2, 1, 5, 5, 1, 3, 2, 1]
obj = 3917
----------
% [obj>3845]
Found 1 new models
source = [14, 7, 14, 11, 7, 11, 2, 14, 14, 7, 7, 2, 14, 7, 7, 7, 14, 7, 5, 7, 14, 2, 11, 7, 14, 14, 5, 11, 11, 11]
open = [0, 1, 0, 0, 1, 0, 1, 0, 0, 0, 1, 0, 0, 1, 0]
trucks_used = [0, 2, 0, 0, 1, 0, 6, 0, 0, 0, 3, 0, 0, 5, 0]
truck_assigned = [2, 4, 2, 3, 5, 1, 1, 3, 3, 6, 2, 2, 1, 3, 4, 1, 4, 3, 1, 5, 4, 2, 2, 1, 5, 5, 1, 3, 2, 1]
obj = 3898
----------
