+ /usr/bin/timeout 600 /usr/bin/time -v mzn-lbbd lbbd-datasets/sscplp/trucks-dzn/model.mzn lbbd-datasets/sscplp/trucks-dzn/p03-l40-c50-correlated.dzn
% No search annotation given. Defaulting to VSIDS!
% [obj>4381]
Found 12 new models
source = [10, 1, 5, 4, 3, 10, 9, 5, 10, 3, 3, 5, 10, 3, 2, 5, 10, 1, 3, 2]
open = [1, 1, 1, 1, 1, 0, 0, 0, 1, 1]
trucks_used = [1, 1, 5, 1, 4, 0, 0, 0, 1, 5]
truck_assigned = [5, 1, 4, 1, 1, 4, 1, 3, 5, 5, 4, 3, 1, 3, 1, 1, 3, 1, 4, 1]
obj = 7163
----------
Found 12 new models
source = [10, 1, 3, 7, 3, 3, 5, 5, 10, 3, 10, 5, 10, 1, 2, 7, 10, 5, 3, 2]
open = [1, 1, 1, 0, 1, 0, 1, 0, 0, 1]
trucks_used = [1, 1, 4, 0, 2, 0, 1, 0, 0, 3]
truck_assigned = [1, 1, 1, 1, 2, 4, 2, 1, 1, 3, 2, 2, 3, 1, 1, 1, 3, 1, 2, 1]
obj = 4548
----------
Found 5 new models
source = [10, 1, 3, 7, 3, 10, 5, 5, 10, 3, 3, 5, 10, 1, 2, 7, 10, 5, 3, 2]
open = [1, 1, 1, 0, 1, 0, 1, 0, 0, 1]
trucks_used = [1, 1, 4, 0, 2, 0, 1, 0, 0, 3]
truck_assigned = [1, 1, 1, 1, 2, 2, 2, 1, 1, 3, 4, 2, 3, 1, 1, 1, 3, 1, 2, 1]
obj = 4432
----------
Found 1 new models
source = [3, 1, 3, 10, 3, 10, 5, 5, 10, 3, 3, 5, 3, 1, 2, 7, 10, 5, 7, 2]
open = [1, 1, 1, 0, 1, 0, 1, 0, 0, 1]
trucks_used = [1, 1, 4, 0, 2, 0, 1, 0, 0, 3]
truck_assigned = [1, 1, 2, 1, 1, 2, 2, 1, 3, 3, 4, 2, 4, 1, 1, 1, 3, 1, 1, 1]
obj = 4428
----------
% [obj>4392]
Found 1 new models
source = [3, 1, 7, 10, 3, 10, 5, 5, 10, 3, 3, 5, 3, 1, 2, 7, 10, 5, 3, 2]
open = [1, 1, 1, 0, 1, 0, 1, 0, 0, 1]
trucks_used = [1, 1, 3, 0, 2, 0, 2, 0, 0, 3]
truck_assigned = [2, 1, 1, 1, 1, 2, 2, 1, 3, 2, 3, 2, 3, 1, 1, 2, 3, 1, 1, 1]
obj = 4422
----------
% [obj>4403]
% [obj>4404]
