+ /usr/bin/timeout 600 /usr/bin/time -v mzn-lbbd lbbd-datasets/sscplp/trucks-dzn/model.mzn lbbd-datasets/sscplp/trucks-dzn/p10-l100-c300-correlated.dzn
% No search annotation given. Defaulting to VSIDS!
% [obj>16201]
Found 1 new models
source = [6, 5, 12, 15, 15, 12, 9, 3, 2, 9, 6, 12, 9, 12, 12, 2, 3, 2, 12, 2, 2, 15, 3, 6, 9, 9, 6, 5, 12, 15]
open = [0, 1, 1, 0, 1, 1, 0, 0, 1, 0, 0, 1, 0, 0, 1]
trucks_used = [0, 1, 1, 0, 1, 1, 0, 0, 1, 0, 0, 2, 0, 0, 1]
truck_assigned = [1, 1, 2, 1, 1, 1, 1, 1, 1, 1, 1, 2, 1, 2, 2, 1, 1, 1, 1, 1, 1, 1, 1, 1, 1, 1, 1, 1, 1, 1]
obj = 16203
----------
