+ /usr/bin/timeout 600 /usr/bin/time -v mzn-lbbd lbbd-datasets/Rabadi-2006/dzn-p-dominant/model.mzn lbbd-datasets/Rabadi-2006/dzn-p-dominant/9on2Rp50Rs50_4Ameer.dzn
% No search annotation given. Defaulting to VSIDS!
% [makespan>679]
Found 49 new models
assign = array1d(1..11 ,[1, 1, 2, 2, 1, 1, 1, 1, 2, 1, 2]);
next = array1d(1..11 ,[2, 8, 11, 9, 6, 7, 10, 5, 3, 4, 1]);
makespan = 1270;
----------
Found 92 new models
assign = array1d(1..11 ,[1, 1, 1, 2, 2, 1, 1, 2, 2, 1, 2]);
next = array1d(1..11 ,[7, 1, 6, 11, 9, 2, 10, 5, 4, 8, 3]);
makespan = 934;
----------
Found 2 new models
assign = array1d(1..11 ,[1, 1, 1, 2, 2, 1, 1, 2, 2, 1, 2]);
next = array1d(1..11 ,[3, 1, 6, 9, 11, 10, 2, 5, 8, 4, 7]);
makespan = 931;
----------
Found 5 new models
assign = array1d(1..11 ,[1, 1, 1, 2, 2, 1, 1, 2, 2, 1, 2]);
next = array1d(1..11 ,[7, 10, 6, 9, 11, 1, 2, 5, 8, 4, 3]);
makespan = 923;
----------
Found 12 new models
assign = array1d(1..11 ,[1, 1, 1, 2, 2, 1, 1, 2, 2, 1, 2]);
next = array1d(1..11 ,[3, 6, 7, 8, 11, 10, 2, 9, 5, 4, 1]);
makespan = 909;
----------
% [makespan>685]
% [makespan>688]
% [makespan>688]
% [makespan>691]
% [makespan>700]
% [makespan>706]
% [makespan>712]
==========
	Command being timed: "mzn-lbbd lbbd-datasets/Rabadi-2006/dzn-p-dominant/model.mzn lbbd-datasets/Rabadi-2006/dzn-p-dominant/9on2Rp50Rs50_4Ameer.dzn"
	User time (seconds): 55.98
	System time (seconds): 0.05
	Percent of CPU this job got: 99%
	Elapsed (wall clock) time (h:mm:ss or m:ss): 0:56.14
	Average shared text size (kbytes): 0
	Average unshared data size (kbytes): 0
	Average stack size (kbytes): 0
	Average total size (kbytes): 0
	Maximum resident set size (kbytes): 139056
	Average resident set size (kbytes): 0
	Major (requiring I/O) page faults: 0
	Minor (reclaiming a frame) page faults: 9568
	Voluntary context switches: 6
	Involuntary context switches: 78
	Swaps: 0
	File system inputs: 0
	File system outputs: 192
	Socket messages sent: 0
	Socket messages received: 0
	Signals delivered: 0
	Page size (bytes): 4096
	Exit status: 0
