+ /usr/bin/timeout 600 /usr/bin/time -v mzn-lbbd lbbd-datasets/Rabadi-2006/dzn-p-dominant/model.mzn lbbd-datasets/Rabadi-2006/dzn-p-dominant/8on6Rp50Rs50_11Ameer.dzn
% No search annotation given. Defaulting to VSIDS!
% [makespan>259]
Found 32 new models
assign = array1d(1..14 ,[2, 1, 6, 3, 3, 5, 4, 4, 1, 2, 3, 4, 5, 6]);
next = array1d(1..14 ,[10, 9, 14, 11, 4, 13, 12, 7, 1, 5, 8, 6, 3, 2]);
makespan = 331;
----------
Found 2 new models
assign = array1d(1..14 ,[3, 1, 6, 2, 3, 4, 5, 4, 1, 2, 3, 4, 5, 6]);
next = array1d(1..14 ,[11, 9, 14, 10, 1, 8, 13, 12, 4, 5, 6, 7, 3, 2]);
makespan = 323;
----------
Found 1 new models
assign = array1d(1..14 ,[3, 1, 2, 6, 3, 4, 5, 4, 1, 2, 3, 4, 5, 6]);
next = array1d(1..14 ,[5, 9, 10, 14, 11, 8, 13, 12, 3, 1, 6, 7, 4, 2]);
makespan = 321;
----------
% [makespan>259]
==========
	Command being timed: "mzn-lbbd lbbd-datasets/Rabadi-2006/dzn-p-dominant/model.mzn lbbd-datasets/Rabadi-2006/dzn-p-dominant/8on6Rp50Rs50_11Ameer.dzn"
	User time (seconds): 4.98
	System time (seconds): 0.01
	Percent of CPU this job got: 99%
	Elapsed (wall clock) time (h:mm:ss or m:ss): 0:05.01
	Average shared text size (kbytes): 0
	Average unshared data size (kbytes): 0
	Average stack size (kbytes): 0
	Average total size (kbytes): 0
	Maximum resident set size (kbytes): 79776
	Average resident set size (kbytes): 0
	Major (requiring I/O) page faults: 0
	Minor (reclaiming a frame) page faults: 5679
	Voluntary context switches: 4
	Involuntary context switches: 12
	Swaps: 0
	File system inputs: 0
	File system outputs: 368
	Socket messages sent: 0
	Socket messages received: 0
	Signals delivered: 0
	Page size (bytes): 4096
	Exit status: 0
