+ /usr/bin/timeout 600 /usr/bin/time -v mzn-lbbd lbbd-datasets/Rabadi-2006/dzn-s-dominant/model.mzn lbbd-datasets/Rabadi-2006/dzn-s-dominant/10on2Rp50Rs50_12Ameer.dzn
% No search annotation given. Defaulting to VSIDS!
% [makespan>315]
Found 44 new models
assign = array1d(1..12 ,[2, 2, 2, 2, 2, 2, 2, 2, 2, 2, 1, 2]);
next = array1d(1..12 ,[9, 3, 1, 2, 7, 10, 4, 12, 8, 5, 6, 11]);
makespan = 2057;
----------
Found 420 new models
assign = array1d(1..12 ,[2, 2, 1, 2, 2, 2, 1, 1, 1, 1, 1, 2]);
next = array1d(1..12 ,[6, 1, 10, 5, 2, 12, 11, 3, 7, 9, 4, 8]);
makespan = 867;
----------
Found 13 new models
assign = array1d(1..12 ,[2, 2, 1, 2, 2, 2, 1, 1, 1, 1, 1, 2]);
next = array1d(1..12 ,[5, 6, 10, 2, 12, 1, 3, 9, 7, 11, 4, 8]);
makespan = 854;
----------
% [makespan>317]
Found 7 new models
assign = array1d(1..12 ,[2, 2, 1, 2, 2, 2, 1, 1, 1, 1, 1, 2]);
next = array1d(1..12 ,[6, 12, 10, 5, 1, 2, 3, 9, 7, 11, 4, 8]);
makespan = 847;
----------
Found 6 new models
assign = array1d(1..12 ,[2, 2, 1, 2, 2, 1, 1, 2, 1, 1, 1, 2]);
next = array1d(1..12 ,[8, 12, 6, 5, 1, 11, 3, 2, 7, 9, 4, 10]);
makespan = 841;
----------
% [makespan>341]
% [makespan>365]
% [makespan>369]
% [makespan>441]
% [makespan>443]
% [makespan>446]
% [makespan>452]
% [makespan>452]
% [makespan>459]
% [makespan>460]
% [makespan>464]
% [makespan>464]
% [makespan>469]
