+ /usr/bin/timeout 600 /usr/bin/time -v mzn-lbbd lbbd-datasets/sscplp/dzn/model.mzn lbbd-datasets/sscplp/dzn/p13.dzn
% No search annotation given. Defaulting to VSIDS!
% [obj>3759]
Found 1 new models
source = [10, 5, 11, 11, 9, 6, 13, 13, 13, 10, 5, 11, 4, 1, 5, 11, 15, 1, 1, 13, 1, 6, 13, 11, 10, 9, 4, 11, 6, 4]
obj = 3760
----------
==========
	Command being timed: "mzn-lbbd lbbd-datasets/sscplp/dzn/model.mzn lbbd-datasets/sscplp/dzn/p13.dzn"
	User time (seconds): 5.59
	System time (seconds): 0.02
	Percent of CPU this job got: 99%
	Elapsed (wall clock) time (h:mm:ss or m:ss): 0:05.63
	Average shared text size (kbytes): 0
	Average unshared data size (kbytes): 0
	Average stack size (kbytes): 0
	Average total size (kbytes): 0
	Maximum resident set size (kbytes): 89168
	Average resident set size (kbytes): 0
	Major (requiring I/O) page faults: 0
	Minor (reclaiming a frame) page faults: 7359
	Voluntary context switches: 6
	Involuntary context switches: 12
	Swaps: 0
	File system inputs: 0
	File system outputs: 360
	Socket messages sent: 0
	Socket messages received: 0
	Signals delivered: 0
	Page size (bytes): 4096
	Exit status: 0
