+ /usr/bin/timeout 600 /usr/bin/time -v mzn-lbbd lbbd-datasets/planningandscheduling/cost-insts/model.mzn lbbd-datasets/planningandscheduling/cost-insts/c32j3m3.dzn
% No search annotation given. Defaulting to VSIDS!
% [sched_cost>685]
Found 12 new models
obj = 787
----------
Found 1 new models
obj = 781
----------
Found 5 new models
obj = 753
----------
Found 2 new models
obj = 747
----------
% [sched_cost>685]
Found 3 new models
obj = 740
----------
Found 4 new models
obj = 729
----------
Found 1 new models
obj = 726
----------
Found 1 new models
obj = 724
----------
% [sched_cost>685]
Found 1 new models
obj = 723
----------
% [sched_cost>685]
Found 1 new models
obj = 722
----------
% [sched_cost>685]
% [sched_cost>685]
% [sched_cost>685]
Found 1 new models
obj = 717
----------
% [sched_cost>685]
Found 1 new models
obj = 715
----------
Found 1 new models
obj = 712
----------
Found 1 new models
obj = 710
----------
% [sched_cost>686]
Found 1 new models
obj = 708
----------
% [sched_cost>686]
% [sched_cost>687]
Found 1 new models
obj = 704
----------
% [sched_cost>687]
Found 1 new models
obj = 702
----------
% [sched_cost>687]
% [sched_cost>688]
% [sched_cost>688]
% [sched_cost>688]
% [sched_cost>688]
% [sched_cost>688]
% [sched_cost>689]
% [sched_cost>690]
% [sched_cost>691]
% [sched_cost>691]
% [sched_cost>691]
