+ /usr/bin/timeout 600 /usr/bin/time -v mzn-lbbd lbbd-datasets/sscplp/trucks-dzn/model.mzn lbbd-datasets/sscplp/trucks-dzn/p19-l100-c300-uncorrelated.dzn
% No search annotation given. Defaulting to VSIDS!
% [obj>15057]
Found 1 new models
source = [2, 2, 3, 3, 1, 9, 19, 9, 1, 3, 7, 9, 7, 7, 9, 3, 9, 19, 19, 7, 2, 1, 7, 1, 1, 19, 3, 1, 2, 7, 1, 19, 19, 3, 1, 7, 19, 7, 7, 1]
open = [1, 1, 1, 0, 0, 0, 1, 0, 1, 0, 0, 0, 0, 0, 0, 0, 0, 0, 1, 0]
trucks_used = [2, 1, 1, 0, 0, 0, 2, 0, 1, 0, 0, 0, 0, 0, 0, 0, 0, 0, 1, 0]
truck_assigned = [1, 1, 1, 1, 2, 1, 1, 1, 1, 1, 2, 1, 2, 1, 1, 1, 1, 1, 1, 2, 1, 1, 1, 2, 1, 1, 1, 2, 1, 1, 1, 1, 1, 1, 2, 2, 1, 2, 1, 2]
obj = 15059
----------
