+ /usr/bin/timeout 600 /usr/bin/time -v mzn-lbbd lbbd-datasets/Rabadi-2006/dzn-s-dominant/model.mzn lbbd-datasets/Rabadi-2006/dzn-s-dominant/8on4Rp50Rs50_8Ameer.dzn
% No search annotation given. Defaulting to VSIDS!
% [makespan>139]
Found 42 new models
assign = array1d(1..12 ,[3, 4, 4, 2, 3, 1, 1, 2, 1, 2, 3, 4]);
next = array1d(1..12 ,[11, 3, 12, 10, 1, 7, 9, 4, 8, 5, 2, 6]);
makespan = 292;
----------
Found 4 new models
assign = array1d(1..12 ,[4, 3, 1, 2, 3, 1, 4, 2, 1, 2, 3, 4]);
next = array1d(1..12 ,[12, 11, 9, 10, 2, 3, 1, 4, 8, 5, 7, 6]);
makespan = 288;
----------
Found 6 new models
assign = array1d(1..12 ,[1, 3, 4, 2, 3, 1, 4, 2, 1, 2, 3, 4]);
next = array1d(1..12 ,[6, 11, 12, 10, 2, 9, 3, 4, 8, 5, 7, 1]);
makespan = 277;
----------
Found 2 new models
assign = array1d(1..12 ,[3, 2, 1, 2, 3, 4, 4, 1, 1, 2, 3, 4]);
next = array1d(1..12 ,[11, 4, 9, 10, 1, 7, 12, 3, 2, 5, 6, 8]);
makespan = 275;
----------
% [makespan>146]
==========
	Command being timed: "mzn-lbbd lbbd-datasets/Rabadi-2006/dzn-s-dominant/model.mzn lbbd-datasets/Rabadi-2006/dzn-s-dominant/8on4Rp50Rs50_8Ameer.dzn"
	User time (seconds): 4.59
	System time (seconds): 0.01
	Percent of CPU this job got: 99%
	Elapsed (wall clock) time (h:mm:ss or m:ss): 0:04.62
	Average shared text size (kbytes): 0
	Average unshared data size (kbytes): 0
	Average stack size (kbytes): 0
	Average total size (kbytes): 0
	Maximum resident set size (kbytes): 66128
	Average resident set size (kbytes): 0
	Major (requiring I/O) page faults: 0
	Minor (reclaiming a frame) page faults: 4713
	Voluntary context switches: 4
	Involuntary context switches: 12
	Swaps: 0
	File system inputs: 0
	File system outputs: 256
	Socket messages sent: 0
	Socket messages received: 0
	Signals delivered: 0
	Page size (bytes): 4096
	Exit status: 0
