+ /usr/bin/timeout 600 /usr/bin/time -v mzn-lbbd lbbd-datasets/Rabadi-2006/dzn-s-dominant/model.mzn lbbd-datasets/Rabadi-2006/dzn-s-dominant/10on4Rp50Rs50_1Ameer.dzn
% No search annotation given. Defaulting to VSIDS!
% [makespan>154]
Found 21 new models
assign = array1d(1..14 ,[4, 4, 4, 3, 4, 4, 4, 3, 3, 3, 1, 2, 3, 4]);
next = array1d(1..14 ,[7, 14, 6, 8, 1, 2, 3, 13, 10, 4, 12, 9, 5, 11]);
makespan = 1092;
----------
Found 162 new models
assign = array1d(1..14 ,[1, 2, 4, 3, 4, 2, 1, 3, 1, 4, 1, 2, 3, 4]);
next = array1d(1..14 ,[11, 6, 14, 13, 10, 12, 9, 4, 1, 3, 2, 8, 5, 7]);
makespan = 454;
----------
Found 12 new models
assign = array1d(1..14 ,[2, 2, 4, 3, 4, 2, 1, 3, 1, 4, 1, 2, 3, 4]);
next = array1d(1..14 ,[2, 6, 5, 13, 14, 12, 9, 4, 11, 3, 1, 8, 10, 7]);
makespan = 440;
----------
Found 5 new models
assign = array1d(1..14 ,[1, 2, 3, 4, 3, 3, 1, 4, 2, 1, 1, 2, 3, 4]);
next = array1d(1..14 ,[10, 12, 5, 14, 13, 3, 11, 4, 2, 7, 9, 6, 8, 1]);
makespan = 434;
----------
% [makespan>162]
Found 3 new models
assign = array1d(1..14 ,[2, 2, 3, 4, 3, 3, 4, 1, 1, 2, 1, 2, 3, 4]);
next = array1d(1..14 ,[2, 12, 5, 14, 13, 3, 4, 11, 8, 1, 10, 6, 7, 9]);
makespan = 431;
----------
% [makespan>162]
% [makespan>162]
% [makespan>162]
% [makespan>164]
% [makespan>164]
% [makespan>165]
% [makespan>171]
% [makespan>172]
% [makespan>172]
% [makespan>174]
% [makespan>175]
% [makespan>175]
% [makespan>175]
% [makespan>175]
% [makespan>175]
