+ /usr/bin/timeout 600 /usr/bin/time -v mzn-lbbd lbbd-datasets/Rabadi-2006/dzn-p-dominant/model.mzn lbbd-datasets/Rabadi-2006/dzn-p-dominant/9on2Rp50Rs50_5Ameer.dzn
% No search annotation given. Defaulting to VSIDS!
% [makespan>676]
Found 14 new models
assign = array1d(1..11 ,[1, 2, 1, 1, 1, 2, 2, 2, 2, 1, 2]);
next = array1d(1..11 ,[5, 6, 4, 10, 3, 11, 8, 2, 7, 9, 1]);
makespan = 960;
----------
Found 6 new models
assign = array1d(1..11 ,[2, 1, 1, 1, 1, 2, 1, 2, 2, 1, 2]);
next = array1d(1..11 ,[11, 7, 4, 5, 2, 9, 10, 1, 8, 6, 3]);
makespan = 954;
----------
Found 5 new models
assign = array1d(1..11 ,[2, 1, 1, 1, 1, 2, 1, 2, 2, 1, 2]);
next = array1d(1..11 ,[6, 7, 10, 5, 2, 9, 3, 11, 8, 1, 4]);
makespan = 947;
----------
Found 2 new models
assign = array1d(1..11 ,[1, 2, 1, 1, 1, 2, 1, 2, 2, 1, 2]);
next = array1d(1..11 ,[7, 11, 10, 5, 1, 9, 3, 6, 2, 8, 4]);
makespan = 945;
----------
Found 7 new models
assign = array1d(1..11 ,[1, 2, 1, 1, 1, 2, 2, 2, 2, 1, 2]);
next = array1d(1..11 ,[3, 8, 4, 10, 1, 2, 9, 11, 6, 7, 5]);
makespan = 937;
----------
% [makespan>691]
% [makespan>694]
% [makespan>699]
% [makespan>710]
% [makespan>711]
% [makespan>716]
% [makespan>730]
% [makespan>756]
==========
	Command being timed: "mzn-lbbd lbbd-datasets/Rabadi-2006/dzn-p-dominant/model.mzn lbbd-datasets/Rabadi-2006/dzn-p-dominant/9on2Rp50Rs50_5Ameer.dzn"
	User time (seconds): 72.65
	System time (seconds): 0.04
	Percent of CPU this job got: 99%
	Elapsed (wall clock) time (h:mm:ss or m:ss): 1:12.84
	Average shared text size (kbytes): 0
	Average unshared data size (kbytes): 0
	Average stack size (kbytes): 0
	Average total size (kbytes): 0
	Maximum resident set size (kbytes): 169872
	Average resident set size (kbytes): 0
	Major (requiring I/O) page faults: 0
	Minor (reclaiming a frame) page faults: 11492
	Voluntary context switches: 4
	Involuntary context switches: 134
	Swaps: 0
	File system inputs: 0
	File system outputs: 208
	Socket messages sent: 0
	Socket messages received: 0
	Signals delivered: 0
	Page size (bytes): 4096
	Exit status: 0
