+ /usr/bin/timeout 600 /usr/bin/time -v mzn-lbbd lbbd-datasets/Rabadi-2006/dzn-p-dominant/model.mzn lbbd-datasets/Rabadi-2006/dzn-p-dominant/10on6Rp50Rs50_11Ameer.dzn
% No search annotation given. Defaulting to VSIDS!
% [makespan>260]
Found 71 new models
assign = array1d(1..16 ,[1, 1, 5, 4, 4, 3, 2, 2, 6, 3, 1, 2, 3, 4, 5, 6]);
next = array1d(1..16 ,[2, 11, 15, 5, 14, 10, 8, 12, 16, 13, 7, 6, 4, 3, 9, 1]);
makespan = 363;
----------
Found 12 new models
assign = array1d(1..16 ,[4, 3, 5, 6, 1, 2, 4, 5, 1, 6, 1, 2, 3, 4, 5, 6]);
next = array1d(1..16 ,[7, 13, 15, 10, 9, 12, 14, 3, 11, 16, 6, 2, 1, 8, 4, 5]);
makespan = 342;
----------
Found 10 new models
assign = array1d(1..16 ,[4, 2, 3, 6, 1, 5, 4, 5, 3, 6, 1, 2, 3, 4, 5, 6]);
next = array1d(1..16 ,[7, 12, 13, 16, 11, 15, 14, 6, 3, 4, 2, 9, 1, 8, 10, 5]);
makespan = 326;
----------
Found 3 new models
assign = array1d(1..16 ,[4, 2, 3, 2, 1, 6, 4, 5, 3, 5, 1, 2, 3, 4, 5, 6]);
next = array1d(1..16 ,[7, 12, 13, 2, 11, 16, 14, 15, 3, 8, 4, 9, 1, 10, 6, 5]);
makespan = 323;
----------
Found 1 new models
assign = array1d(1..16 ,[4, 2, 3, 2, 1, 6, 4, 5, 6, 5, 1, 2, 3, 4, 5, 6]);
next = array1d(1..16 ,[7, 12, 13, 2, 11, 16, 14, 15, 6, 8, 4, 3, 1, 10, 9, 5]);
makespan = 322;
----------
% [makespan>264]
% [makespan>264]
Found 2 new models
assign = array1d(1..16 ,[4, 1, 2, 6, 4, 5, 5, 3, 3, 6, 1, 2, 3, 4, 5, 6]);
next = array1d(1..16 ,[5, 11, 12, 16, 14, 15, 6, 9, 13, 4, 3, 8, 1, 7, 10, 2]);
makespan = 320;
----------
==========
	Command being timed: "mzn-lbbd lbbd-datasets/Rabadi-2006/dzn-p-dominant/model.mzn lbbd-datasets/Rabadi-2006/dzn-p-dominant/10on6Rp50Rs50_11Ameer.dzn"
	User time (seconds): 12.95
	System time (seconds): 0.03
	Percent of CPU this job got: 99%
	Elapsed (wall clock) time (h:mm:ss or m:ss): 0:13.01
	Average shared text size (kbytes): 0
	Average unshared data size (kbytes): 0
	Average stack size (kbytes): 0
	Average total size (kbytes): 0
	Maximum resident set size (kbytes): 98480
	Average resident set size (kbytes): 0
	Major (requiring I/O) page faults: 0
	Minor (reclaiming a frame) page faults: 7121
	Voluntary context switches: 6
	Involuntary context switches: 25
	Swaps: 0
	File system inputs: 0
	File system outputs: 552
	Socket messages sent: 0
	Socket messages received: 0
	Signals delivered: 0
	Page size (bytes): 4096
	Exit status: 0
