+ /usr/bin/timeout 600 /usr/bin/time -v mzn-lbbd lbbd-datasets/Rabadi-2006/dzn-p-dominant/model.mzn lbbd-datasets/Rabadi-2006/dzn-p-dominant/11on4Rp50Rs50_15Ameer.dzn
% No search annotation given. Defaulting to VSIDS!
% [makespan>406]
Found 175 new models
assign = array1d(1..15 ,[1, 4, 3, 4, 2, 4, 1, 2, 3, 1, 2, 1, 2, 3, 4]);
next = array1d(1..15 ,[12, 4, 9, 6, 13, 15, 1, 5, 14, 7, 8, 11, 3, 2, 10]);
makespan = 597;
----------
Found 16 new models
assign = array1d(1..15 ,[1, 3, 2, 3, 4, 2, 1, 1, 4, 2, 4, 1, 2, 3, 4]);
next = array1d(1..15 ,[7, 4, 10, 14, 15, 13, 12, 1, 11, 6, 5, 3, 2, 9, 8]);
makespan = 561;
----------
Found 13 new models
assign = array1d(1..15 ,[1, 3, 2, 3, 4, 2, 1, 1, 4, 2, 4, 1, 2, 3, 4]);
next = array1d(1..15 ,[12, 4, 13, 14, 15, 3, 8, 1, 5, 6, 9, 10, 2, 11, 7]);
makespan = 546;
----------
Found 5 new models
assign = array1d(1..15 ,[1, 3, 2, 3, 3, 2, 1, 1, 4, 2, 4, 1, 2, 3, 4]);
next = array1d(1..15 ,[12, 5, 13, 2, 14, 3, 8, 1, 11, 6, 15, 10, 4, 9, 7]);
makespan = 541;
----------
Found 8 new models
assign = array1d(1..15 ,[2, 1, 2, 1, 3, 2, 4, 4, 4, 3, 3, 1, 2, 3, 4]);
next = array1d(1..15 ,[13, 4, 6, 12, 14, 1, 9, 15, 8, 11, 5, 3, 10, 7, 2]);
makespan = 532;
----------
Found 11 new models
assign = array1d(1..15 ,[4, 3, 2, 4, 3, 3, 1, 1, 1, 2, 2, 1, 2, 3, 4]);
next = array1d(1..15 ,[15, 14, 11, 1, 6, 2, 8, 12, 7, 3, 13, 10, 5, 4, 9]);
makespan = 521;
----------
% [makespan>407]
% [makespan>408]
% [makespan>411]
% [makespan>413]
% [makespan>413]
% [makespan>413]
% [makespan>414]
% [makespan>414]
% [makespan>417]
% [makespan>417]
% [makespan>417]
% [makespan>420]
% [makespan>421]
% [makespan>421]
% [makespan>422]
==========
	Command being timed: "mzn-lbbd lbbd-datasets/Rabadi-2006/dzn-p-dominant/model.mzn lbbd-datasets/Rabadi-2006/dzn-p-dominant/11on4Rp50Rs50_15Ameer.dzn"
	User time (seconds): 324.42
	System time (seconds): 0.06
	Percent of CPU this job got: 99%
	Elapsed (wall clock) time (h:mm:ss or m:ss): 5:25.06
	Average shared text size (kbytes): 0
	Average unshared data size (kbytes): 0
	Average stack size (kbytes): 0
	Average total size (kbytes): 0
	Maximum resident set size (kbytes): 242752
	Average resident set size (kbytes): 0
	Major (requiring I/O) page faults: 0
	Minor (reclaiming a frame) page faults: 17989
	Voluntary context switches: 4
	Involuntary context switches: 373
	Swaps: 0
	File system inputs: 0
	File system outputs: 552
	Socket messages sent: 0
	Socket messages received: 0
	Signals delivered: 0
	Page size (bytes): 4096
	Exit status: 0
