+ /usr/bin/timeout 600 /usr/bin/time -v mzn-lbbd lbbd-datasets/Rabadi-2006/dzn-p-dominant/model.mzn lbbd-datasets/Rabadi-2006/dzn-p-dominant/10on6Rp50Rs50_10Ameer.dzn
% No search annotation given. Defaulting to VSIDS!
% [makespan>263]
Found 170 new models
assign = array1d(1..16 ,[1, 4, 1, 6, 2, 4, 5, 3, 3, 6, 1, 2, 3, 4, 5, 6]);
next = array1d(1..16 ,[11, 14, 1, 16, 12, 2, 15, 9, 13, 4, 5, 8, 6, 7, 10, 3]);
makespan = 360;
----------
Found 5 new models
assign = array1d(1..16 ,[3, 4, 2, 1, 1, 4, 5, 6, 6, 2, 1, 2, 3, 4, 5, 6]);
next = array1d(1..16 ,[13, 14, 12, 11, 4, 2, 15, 9, 16, 3, 10, 1, 6, 7, 8, 5]);
makespan = 341;
----------
Found 1 new models
assign = array1d(1..16 ,[5, 3, 2, 1, 1, 4, 5, 4, 6, 6, 1, 2, 3, 4, 5, 6]);
next = array1d(1..16 ,[15, 13, 12, 11, 4, 14, 1, 6, 16, 9, 3, 2, 8, 7, 10, 5]);
makespan = 339;
----------
Found 3 new models
assign = array1d(1..16 ,[5, 2, 1, 6, 5, 4, 3, 4, 3, 6, 1, 2, 3, 4, 5, 6]);
next = array1d(1..16 ,[15, 12, 11, 10, 1, 14, 9, 6, 13, 16, 2, 7, 8, 5, 4, 3]);
makespan = 332;
----------
Found 2 new models
assign = array1d(1..16 ,[5, 2, 3, 4, 6, 1, 3, 4, 5, 6, 1, 2, 3, 4, 5, 6]);
next = array1d(1..16 ,[15, 12, 7, 8, 16, 11, 13, 14, 1, 5, 2, 3, 4, 9, 10, 6]);
makespan = 330;
----------
Found 3 new models
assign = array1d(1..16 ,[5, 2, 3, 1, 5, 4, 3, 6, 1, 6, 1, 2, 3, 4, 5, 6]);
next = array1d(1..16 ,[15, 12, 7, 11, 1, 14, 13, 16, 4, 8, 2, 3, 6, 5, 10, 9]);
makespan = 327;
----------
% [makespan>264]
% [makespan>268]
==========
	Command being timed: "mzn-lbbd lbbd-datasets/Rabadi-2006/dzn-p-dominant/model.mzn lbbd-datasets/Rabadi-2006/dzn-p-dominant/10on6Rp50Rs50_10Ameer.dzn"
	User time (seconds): 11.20
	System time (seconds): 0.02
	Percent of CPU this job got: 99%
	Elapsed (wall clock) time (h:mm:ss or m:ss): 0:11.25
	Average shared text size (kbytes): 0
	Average unshared data size (kbytes): 0
	Average stack size (kbytes): 0
	Average total size (kbytes): 0
	Maximum resident set size (kbytes): 97536
	Average resident set size (kbytes): 0
	Major (requiring I/O) page faults: 0
	Minor (reclaiming a frame) page faults: 7048
	Voluntary context switches: 5
	Involuntary context switches: 24
	Swaps: 0
	File system inputs: 0
	File system outputs: 552
	Socket messages sent: 0
	Socket messages received: 0
	Signals delivered: 0
	Page size (bytes): 4096
	Exit status: 0
