+ /usr/bin/timeout 600 /usr/bin/time -v mzn-lbbd lbbd-datasets/sscplp/trucks-dzn/model.mzn lbbd-datasets/sscplp/trucks-dzn/p02-l40-c50-uncorrelated.dzn
% No search annotation given. Defaulting to VSIDS!
% [obj>3573]
Found 19 new models
source = [9, 10, 7, 7, 4, 7, 10, 1, 10, 4, 9, 5, 10, 7, 4, 1, 1, 9, 1, 5]
open = [1, 0, 0, 1, 1, 0, 1, 0, 1, 1]
trucks_used = [4, 0, 0, 2, 1, 0, 2, 0, 3, 3]
truck_assigned = [1, 2, 1, 2, 2, 2, 1, 4, 3, 2, 1, 1, 2, 1, 1, 1, 2, 3, 3, 1]
obj = 4364
----------
Found 3 new models
source = [5, 10, 9, 1, 7, 7, 10, 1, 9, 4, 7, 10, 10, 5, 4, 1, 1, 9, 10, 4]
open = [1, 0, 0, 1, 1, 0, 1, 0, 1, 1]
trucks_used = [4, 0, 0, 2, 1, 0, 2, 0, 3, 4]
truck_assigned = [1, 3, 1, 3, 2, 1, 1, 4, 2, 2, 1, 2, 4, 1, 1, 1, 2, 3, 3, 1]
obj = 4282
----------
Found 4 new models
source = [9, 10, 9, 1, 7, 7, 10, 1, 7, 4, 1, 10, 10, 4, 4, 9, 1, 9, 10, 5]
open = [1, 0, 0, 1, 1, 0, 1, 0, 1, 1]
trucks_used = [4, 0, 0, 1, 1, 0, 2, 0, 3, 4]
truck_assigned = [2, 3, 1, 3, 2, 1, 1, 4, 1, 1, 1, 2, 4, 1, 1, 2, 2, 3, 3, 1]
obj = 4247
----------
Found 1 new models
source = [7, 10, 9, 1, 7, 9, 10, 1, 7, 4, 7, 10, 10, 4, 4, 1, 1, 9, 10, 5]
open = [1, 0, 0, 1, 1, 0, 1, 0, 1, 1]
trucks_used = [4, 0, 0, 1, 1, 0, 3, 0, 3, 4]
truck_assigned = [1, 3, 1, 3, 2, 2, 1, 4, 1, 1, 3, 2, 4, 1, 1, 1, 2, 3, 3, 1]
obj = 4223
----------
% [obj>3600]
Found 3 new models
source = [7, 10, 9, 1, 7, 9, 10, 5, 7, 4, 7, 10, 10, 4, 4, 1, 4, 9, 10, 5]
open = [1, 0, 0, 1, 1, 0, 1, 0, 1, 1]
trucks_used = [2, 0, 0, 2, 2, 0, 3, 0, 3, 4]
truck_assigned = [1, 3, 1, 2, 2, 2, 1, 2, 1, 2, 3, 2, 4, 2, 2, 1, 1, 3, 3, 1]
obj = 4206
----------
Found 1 new models
source = [7, 10, 9, 1, 7, 9, 10, 5, 1, 4, 7, 10, 10, 4, 4, 7, 4, 1, 10, 5]
open = [1, 0, 0, 1, 1, 0, 1, 0, 1, 1]
trucks_used = [2, 0, 0, 2, 2, 0, 3, 0, 2, 4]
truck_assigned = [1, 3, 1, 2, 3, 2, 1, 2, 1, 2, 1, 2, 4, 2, 2, 2, 1, 1, 3, 1]
obj = 4191
----------
Found 3 new models
source = [7, 10, 9, 1, 7, 9, 10, 5, 10, 4, 7, 10, 10, 4, 4, 1, 4, 7, 1, 5]
open = [1, 0, 0, 1, 1, 0, 1, 0, 1, 1]
trucks_used = [3, 0, 0, 2, 2, 0, 3, 0, 2, 4]
truck_assigned = [1, 3, 1, 2, 3, 2, 4, 2, 1, 2, 1, 2, 3, 2, 2, 1, 1, 2, 3, 1]
obj = 4163
----------
Found 5 new models
source = [1, 5, 7, 9, 7, 1, 1, 4, 8, 4, 9, 5, 8, 7, 4, 9, 4, 7, 1, 4]
open = [1, 0, 0, 1, 1, 0, 1, 1, 1, 0]
trucks_used = [4, 0, 0, 3, 2, 0, 3, 1, 1, 0]
truck_assigned = [2, 1, 2, 1, 3, 1, 3, 1, 1, 3, 1, 2, 1, 1, 2, 1, 2, 1, 4, 3]
obj = 4065
----------
Found 1 new models
source = [1, 5, 7, 9, 7, 1, 1, 4, 8, 4, 9, 5, 8, 7, 4, 9, 4, 1, 7, 4]
open = [1, 0, 0, 1, 1, 0, 1, 1, 1, 0]
trucks_used = [4, 0, 0, 3, 2, 0, 3, 1, 1, 0]
truck_assigned = [2, 1, 2, 1, 3, 1, 3, 1, 1, 3, 1, 2, 1, 2, 2, 1, 2, 4, 1, 3]
obj = 4054
----------
Found 6 new models
source = [7, 10, 7, 7, 7, 8, 10, 4, 8, 4, 9, 8, 10, 4, 9, 9, 4, 10, 10, 4]
open = [0, 0, 0, 1, 0, 0, 1, 1, 1, 1]
trucks_used = [0, 0, 0, 3, 0, 0, 3, 2, 2, 3]
truck_assigned = [1, 2, 2, 2, 3, 1, 1, 1, 2, 2, 2, 2, 3, 3, 2, 1, 2, 2, 3, 3]
obj = 3868
----------
% [obj>3628]
Found 1 new models
source = [7, 10, 7, 7, 7, 8, 10, 4, 9, 4, 9, 8, 10, 4, 10, 9, 4, 10, 8, 4]
open = [0, 0, 0, 1, 0, 0, 1, 1, 1, 1]
trucks_used = [0, 0, 0, 3, 0, 0, 3, 2, 2, 3]
truck_assigned = [1, 2, 2, 2, 3, 2, 1, 1, 1, 2, 2, 1, 3, 3, 3, 1, 2, 2, 1, 3]
obj = 3816
----------
Found 1 new models
source = [7, 10, 8, 7, 7, 4, 10, 1, 8, 1, 7, 10, 10, 4, 4, 1, 1, 1, 10, 4]
open = [1, 0, 0, 1, 0, 0, 1, 1, 0, 1]
trucks_used = [5, 0, 0, 2, 0, 0, 3, 1, 0, 4]
truck_assigned = [1, 2, 1, 2, 3, 1, 1, 4, 1, 5, 1, 4, 3, 2, 1, 3, 2, 1, 2, 2]
obj = 3815
----------
Found 1 new models
source = [7, 10, 8, 7, 7, 4, 10, 1, 8, 4, 7, 10, 10, 4, 4, 1, 1, 1, 10, 1]
open = [1, 0, 0, 1, 0, 0, 1, 1, 0, 1]
trucks_used = [5, 0, 0, 2, 0, 0, 3, 1, 0, 4]
truck_assigned = [1, 2, 1, 2, 3, 1, 1, 4, 1, 1, 1, 4, 3, 2, 2, 5, 2, 1, 2, 3]
obj = 3779
----------
Found 4 new models
source = [7, 10, 8, 7, 7, 7, 10, 4, 8, 4, 1, 10, 10, 4, 4, 1, 1, 7, 10, 1]
open = [1, 0, 0, 1, 0, 0, 1, 1, 0, 1]
trucks_used = [4, 0, 0, 2, 0, 0, 3, 1, 0, 4]
truck_assigned = [1, 2, 1, 2, 3, 1, 1, 1, 1, 2, 4, 4, 3, 2, 2, 3, 1, 2, 2, 2]
obj = 3729
----------
% [obj>3634]
% [obj>3636]
