+ /usr/bin/timeout 600 /usr/bin/time -v mzn-lbbd lbbd-datasets/sscplp/dzn/model.mzn lbbd-datasets/sscplp/dzn/p50.dzn
% No search annotation given. Defaulting to VSIDS!
% [obj>5936]
Found 1 new models
source = [22, 18, 20, 20, 18, 18, 13, 17, 13, 19, 13, 22, 13, 17, 17, 13, 17, 19, 13, 18, 22, 18, 17, 22, 20, 20, 18, 18, 13, 13, 20, 14, 22, 19, 13, 18, 13, 19, 18, 13, 22, 18, 18, 18, 20, 17, 17, 20, 22, 20, 19, 14, 18, 19, 14, 19, 19, 14, 17, 19, 19, 14, 18, 20, 22, 22, 20, 18, 22, 20, 22, 14, 19, 20, 13, 18, 19, 20, 17, 20, 22, 22, 17, 20, 20, 17, 13, 19, 20, 14]
obj = 5937
----------
==========
	Command being timed: "mzn-lbbd lbbd-datasets/sscplp/dzn/model.mzn lbbd-datasets/sscplp/dzn/p50.dzn"
	User time (seconds): 21.91
	System time (seconds): 0.08
	Percent of CPU this job got: 99%
	Elapsed (wall clock) time (h:mm:ss or m:ss): 0:22.03
	Average shared text size (kbytes): 0
	Average unshared data size (kbytes): 0
	Average stack size (kbytes): 0
	Average total size (kbytes): 0
	Maximum resident set size (kbytes): 237536
	Average resident set size (kbytes): 0
	Major (requiring I/O) page faults: 0
	Minor (reclaiming a frame) page faults: 19915
	Voluntary context switches: 4
	Involuntary context switches: 48
	Swaps: 0
	File system inputs: 0
	File system outputs: 2008
	Socket messages sent: 0
	Socket messages received: 0
	Signals delivered: 0
	Page size (bytes): 4096
	Exit status: 0
