+ /usr/bin/timeout 600 /usr/bin/time -v mzn-lbbd lbbd-datasets/planningandscheduling/makespan-insts/model.mzn lbbd-datasets/planningandscheduling/makespan-insts/de14j3m3.dzn
% No search annotation given. Defaulting to VSIDS!
% [makespan>23]
Found 19 new models
obj = 28
----------
==========
	Command being timed: "mzn-lbbd lbbd-datasets/planningandscheduling/makespan-insts/model.mzn lbbd-datasets/planningandscheduling/makespan-insts/de14j3m3.dzn"
	User time (seconds): 0.54
	System time (seconds): 0.00
	Percent of CPU this job got: 99%
	Elapsed (wall clock) time (h:mm:ss or m:ss): 0:00.55
	Average shared text size (kbytes): 0
	Average unshared data size (kbytes): 0
	Average stack size (kbytes): 0
	Average total size (kbytes): 0
	Maximum resident set size (kbytes): 49344
	Average resident set size (kbytes): 0
	Major (requiring I/O) page faults: 0
	Minor (reclaiming a frame) page faults: 3637
	Voluntary context switches: 6
	Involuntary context switches: 3
	Swaps: 0
	File system inputs: 0
	File system outputs: 72
	Socket messages sent: 0
	Socket messages received: 0
	Signals delivered: 0
	Page size (bytes): 4096
	Exit status: 0
