+ /usr/bin/timeout 600 /usr/bin/time -v mzn-lbbd lbbd-datasets/Rabadi-2006/dzn-s-dominant/model.mzn lbbd-datasets/Rabadi-2006/dzn-s-dominant/11on8Rp50Rs50_1Ameer.dzn
% No search annotation given. Defaulting to VSIDS!
% [makespan>105]
Found 70 new models
assign = array1d(1..19 ,[5, 1, 5, 1, 5, 1, 8, 1, 8, 8, 5, 1, 2, 3, 4, 5, 6, 7, 8]);
next = array1d(1..19 ,[11, 12, 1, 2, 16, 4, 10, 6, 7, 19, 5, 13, 14, 15, 3, 17, 18, 9, 8]);
makespan = 801;
----------
Found 44 new models
assign = array1d(1..19 ,[4, 6, 7, 1, 8, 4, 1, 6, 1, 2, 1, 1, 2, 3, 4, 5, 6, 7, 8]);
next = array1d(1..19 ,[6, 8, 18, 9, 19, 15, 11, 17, 7, 13, 12, 10, 14, 1, 16, 2, 3, 5, 4]);
makespan = 680;
----------
Found 6 new models
assign = array1d(1..19 ,[4, 6, 7, 1, 1, 4, 1, 6, 1, 2, 3, 1, 2, 3, 4, 5, 6, 7, 8]);
next = array1d(1..19 ,[6, 8, 18, 9, 12, 15, 5, 17, 7, 13, 14, 10, 11, 1, 16, 2, 3, 19, 4]);
makespan = 666;
----------
Found 17 new models
assign = array1d(1..19 ,[1, 8, 7, 8, 1, 4, 1, 8, 1, 2, 3, 1, 2, 3, 4, 5, 6, 7, 8]);
next = array1d(1..19 ,[9, 8, 18, 19, 12, 15, 5, 4, 7, 13, 14, 10, 11, 6, 16, 17, 3, 2, 1]);
makespan = 643;
----------
Found 156 new models
assign = array1d(1..19 ,[7, 5, 4, 8, 1, 2, 1, 6, 2, 8, 3, 1, 2, 3, 4, 5, 6, 7, 8]);
next = array1d(1..19 ,[18, 16, 15, 10, 12, 9, 5, 17, 13, 19, 14, 6, 11, 3, 2, 8, 1, 4, 7]);
makespan = 254;
----------
% [makespan>107]
Found 4 new models
assign = array1d(1..19 ,[3, 5, 4, 7, 2, 2, 1, 6, 1, 8, 8, 1, 2, 3, 4, 5, 6, 7, 8]);
next = array1d(1..19 ,[14, 16, 15, 18, 6, 13, 12, 17, 7, 11, 19, 5, 1, 3, 2, 8, 4, 10, 9]);
makespan = 247;
----------
Found 3 new models
assign = array1d(1..19 ,[1, 5, 4, 3, 2, 7, 1, 6, 6, 8, 2, 1, 2, 3, 4, 5, 6, 7, 8]);
next = array1d(1..19 ,[12, 16, 15, 14, 11, 18, 1, 9, 17, 19, 13, 5, 4, 3, 2, 8, 6, 10, 7]);
makespan = 244;
----------
Found 2 new models
assign = array1d(1..19 ,[1, 5, 4, 3, 2, 2, 6, 6, 7, 8, 1, 1, 2, 3, 4, 5, 6, 7, 8]);
next = array1d(1..19 ,[12, 16, 15, 14, 6, 13, 17, 7, 18, 19, 1, 5, 4, 3, 2, 8, 9, 10, 11]);
makespan = 242;
----------
% [makespan>107]
Found 2 new models
assign = array1d(1..19 ,[1, 6, 4, 3, 5, 2, 6, 8, 2, 7, 1, 1, 2, 3, 4, 5, 6, 7, 8]);
next = array1d(1..19 ,[12, 7, 15, 14, 16, 9, 17, 19, 13, 18, 1, 6, 4, 3, 5, 2, 10, 8, 11]);
makespan = 240;
----------
Found 1 new models
assign = array1d(1..19 ,[1, 8, 5, 6, 3, 2, 6, 4, 2, 7, 1, 1, 2, 3, 4, 5, 6, 7, 8]);
next = array1d(1..19 ,[12, 19, 16, 17, 14, 9, 4, 15, 13, 18, 1, 6, 5, 8, 3, 7, 10, 2, 11]);
makespan = 239;
----------
% [makespan>107]
% [makespan>107]
% [makespan>109]
==========
	Command being timed: "mzn-lbbd lbbd-datasets/Rabadi-2006/dzn-s-dominant/model.mzn lbbd-datasets/Rabadi-2006/dzn-s-dominant/11on8Rp50Rs50_1Ameer.dzn"
	User time (seconds): 50.67
	System time (seconds): 0.03
	Percent of CPU this job got: 99%
	Elapsed (wall clock) time (h:mm:ss or m:ss): 0:50.79
	Average shared text size (kbytes): 0
	Average unshared data size (kbytes): 0
	Average stack size (kbytes): 0
	Average total size (kbytes): 0
	Maximum resident set size (kbytes): 170544
	Average resident set size (kbytes): 0
	Major (requiring I/O) page faults: 0
	Minor (reclaiming a frame) page faults: 12493
	Voluntary context switches: 5
	Involuntary context switches: 71
	Swaps: 0
	File system inputs: 0
	File system outputs: 880
	Socket messages sent: 0
	Socket messages received: 0
	Signals delivered: 0
	Page size (bytes): 4096
	Exit status: 0
