+ /usr/bin/timeout 600 /usr/bin/time -v mzn-lbbd lbbd-datasets/Rabadi-2006/dzn-p-dominant/model.mzn lbbd-datasets/Rabadi-2006/dzn-p-dominant/10on8Rp50Rs50_3Ameer.dzn
% No search annotation given. Defaulting to VSIDS!
% [makespan>253]
Found 79 new models
assign = array1d(1..18 ,[3, 7, 1, 2, 2, 6, 5, 3, 8, 4, 1, 2, 3, 4, 5, 6, 7, 8]);
next = array1d(1..18 ,[13, 17, 11, 5, 12, 16, 15, 1, 18, 14, 4, 8, 10, 7, 6, 2, 9, 3]);
makespan = 350;
----------
Found 9 new models
assign = array1d(1..18 ,[8, 7, 4, 2, 6, 5, 6, 5, 1, 3, 1, 2, 3, 4, 5, 6, 7, 8]);
next = array1d(1..18 ,[18, 17, 14, 12, 7, 15, 16, 6, 11, 13, 4, 10, 3, 8, 5, 2, 1, 9]);
makespan = 332;
----------
Found 6 new models
assign = array1d(1..18 ,[8, 7, 2, 1, 4, 5, 6, 5, 2, 3, 1, 2, 3, 4, 5, 6, 7, 8]);
next = array1d(1..18 ,[18, 17, 9, 11, 14, 15, 16, 6, 12, 13, 3, 10, 5, 8, 7, 2, 1, 4]);
makespan = 318;
----------
% [makespan>255]
Found 12 new models
assign = array1d(1..18 ,[3, 4, 1, 6, 8, 6, 7, 5, 2, 5, 1, 2, 3, 4, 5, 6, 7, 8]);
next = array1d(1..18 ,[13, 14, 11, 16, 18, 4, 17, 15, 12, 8, 9, 1, 2, 10, 6, 7, 5, 3]);
makespan = 306;
----------
% [makespan>260]
% [makespan>262]
==========
	Command being timed: "mzn-lbbd lbbd-datasets/Rabadi-2006/dzn-p-dominant/model.mzn lbbd-datasets/Rabadi-2006/dzn-p-dominant/10on8Rp50Rs50_3Ameer.dzn"
	User time (seconds): 23.59
	System time (seconds): 0.03
	Percent of CPU this job got: 99%
	Elapsed (wall clock) time (h:mm:ss or m:ss): 0:23.67
	Average shared text size (kbytes): 0
	Average unshared data size (kbytes): 0
	Average stack size (kbytes): 0
	Average total size (kbytes): 0
	Maximum resident set size (kbytes): 126576
	Average resident set size (kbytes): 0
	Major (requiring I/O) page faults: 0
	Minor (reclaiming a frame) page faults: 8968
	Voluntary context switches: 4
	Involuntary context switches: 42
	Swaps: 0
	File system inputs: 0
	File system outputs: 720
	Socket messages sent: 0
	Socket messages received: 0
	Signals delivered: 0
	Page size (bytes): 4096
	Exit status: 0
