+ /usr/bin/timeout 600 /usr/bin/time -v mzn-lbbd lbbd-datasets/Rabadi-2006/dzn-p-dominant/model.mzn lbbd-datasets/Rabadi-2006/dzn-p-dominant/10on2Rp50Rs50_2Ameer.dzn
% No search annotation given. Defaulting to VSIDS!
% [makespan>721]
Found 63 new models
assign = array1d(1..12 ,[2, 1, 1, 1, 2, 1, 1, 2, 2, 2, 1, 2]);
next = array1d(1..12 ,[5, 7, 2, 11, 9, 4, 6, 1, 10, 12, 8, 3]);
makespan = 1076;
----------
Found 19 new models
assign = array1d(1..12 ,[2, 1, 1, 1, 2, 2, 1, 2, 2, 1, 1, 2]);
next = array1d(1..12 ,[5, 4, 11, 3, 9, 12, 10, 1, 6, 2, 8, 7]);
makespan = 1040;
----------
Found 13 new models
assign = array1d(1..12 ,[2, 1, 2, 2, 2, 2, 1, 1, 1, 1, 1, 2]);
next = array1d(1..12 ,[4, 11, 12, 3, 1, 5, 10, 7, 8, 2, 6, 9]);
makespan = 1010;
----------
Found 18 new models
assign = array1d(1..12 ,[2, 2, 1, 2, 2, 1, 2, 1, 1, 1, 1, 2]);
next = array1d(1..12 ,[4, 5, 6, 7, 1, 10, 12, 11, 8, 9, 2, 3]);
makespan = 980;
----------
Found 15 new models
assign = array1d(1..12 ,[1, 2, 1, 2, 2, 1, 2, 1, 1, 2, 1, 2]);
next = array1d(1..12 ,[3, 5, 11, 7, 12, 9, 10, 1, 8, 2, 4, 6]);
makespan = 962;
----------
Found 4 new models
assign = array1d(1..12 ,[1, 2, 1, 2, 2, 1, 2, 1, 1, 2, 1, 2]);
next = array1d(1..12 ,[6, 10, 8, 5, 12, 9, 4, 1, 11, 7, 2, 3]);
makespan = 958;
----------
% [makespan>725]
Found 6 new models
assign = array1d(1..12 ,[1, 2, 1, 2, 2, 1, 2, 2, 1, 1, 1, 2]);
next = array1d(1..12 ,[11, 5, 10, 7, 8, 3, 12, 4, 1, 9, 2, 6]);
makespan = 952;
----------
% [makespan>731]
% [makespan>734]
% [makespan>737]
% [makespan>744]
% [makespan>753]
% [makespan>756]
% [makespan>770]
% [makespan>831]
==========
	Command being timed: "mzn-lbbd lbbd-datasets/Rabadi-2006/dzn-p-dominant/model.mzn lbbd-datasets/Rabadi-2006/dzn-p-dominant/10on2Rp50Rs50_2Ameer.dzn"
	User time (seconds): 66.59
	System time (seconds): 0.04
	Percent of CPU this job got: 99%
	Elapsed (wall clock) time (h:mm:ss or m:ss): 1:06.89
	Average shared text size (kbytes): 0
	Average unshared data size (kbytes): 0
	Average stack size (kbytes): 0
	Average total size (kbytes): 0
	Maximum resident set size (kbytes): 134816
	Average resident set size (kbytes): 0
	Major (requiring I/O) page faults: 0
	Minor (reclaiming a frame) page faults: 9330
	Voluntary context switches: 6
	Involuntary context switches: 124
	Swaps: 0
	File system inputs: 0
	File system outputs: 248
	Socket messages sent: 0
	Socket messages received: 0
	Signals delivered: 0
	Page size (bytes): 4096
	Exit status: 0
