+ /usr/bin/timeout 600 /usr/bin/time -v mzn-lbbd lbbd-datasets/Rabadi-2006/dzn-s-dominant/model.mzn lbbd-datasets/Rabadi-2006/dzn-s-dominant/9on4Rp50Rs50_13Ameer.dzn
% No search annotation given. Defaulting to VSIDS!
% [makespan>164]
Found 83 new models
assign = array1d(1..13 ,[3, 2, 3, 4, 1, 4, 2, 2, 1, 1, 2, 3, 4]);
next = array1d(1..13 ,[3, 8, 12, 13, 9, 4, 2, 11, 10, 7, 1, 6, 5]);
makespan = 459;
----------
Found 8 new models
assign = array1d(1..13 ,[1, 2, 4, 3, 3, 2, 4, 2, 1, 1, 2, 3, 4]);
next = array1d(1..13 ,[10, 11, 13, 5, 12, 2, 3, 6, 1, 8, 4, 7, 9]);
makespan = 430;
----------
% [makespan>168]
% [makespan>171]
% [makespan>171]
% [makespan>171]
% [makespan>171]
% [makespan>174]
% [makespan>178]
% [makespan>178]
% [makespan>182]
% [makespan>184]
% [makespan>185]
% [makespan>185]
% [makespan>185]
