+ /usr/bin/timeout 600 /usr/bin/time -v mzn-lbbd lbbd-datasets/planningandscheduling/makespan-insts/model.mzn lbbd-datasets/planningandscheduling/makespan-insts/c34j2m5.dzn
% No search annotation given. Defaulting to VSIDS!
% [makespan>40]
Found 19 new models
obj = 67
----------
Found 10 new models
obj = 57
----------
% [makespan>40]
Found 2 new models
obj = 55
----------
Found 2 new models
obj = 53
----------
Found 1 new models
obj = 52
----------
Found 1 new models
obj = 51
----------
Found 1 new models
obj = 50
----------
% [makespan>40]
Found 3 new models
obj = 47
----------
% [makespan>40]
% [makespan>40]
% [makespan>40]
% [makespan>40]
% [makespan>40]
Found 1 new models
obj = 46
----------
% [makespan>40]
% [makespan>40]
% [makespan>40]
% [makespan>40]
% [makespan>40]
% [makespan>40]
% [makespan>40]
% [makespan>40]
% [makespan>40]
% [makespan>40]
% [makespan>41]
% [makespan>41]
% [makespan>41]
% [makespan>41]
% [makespan>41]
% [makespan>41]
% [makespan>41]
% [makespan>41]
% [makespan>41]
