+ /usr/bin/timeout 600 /usr/bin/time -v mzn-lbbd lbbd-datasets/Rabadi-2006/dzn-p-dominant/model.mzn lbbd-datasets/Rabadi-2006/dzn-p-dominant/7on2Rp50Rs50_13Ameer.dzn
% No search annotation given. Defaulting to VSIDS!
% [makespan>548]
Found 73 new models
assign = array1d(1..9 ,[2, 1, 1, 1, 1, 2, 2, 1, 2]);
next = array1d(1..9 ,[7, 3, 8, 2, 4, 9, 6, 1, 5]);
makespan = 780;
----------
Found 3 new models
assign = array1d(1..9 ,[1, 1, 1, 2, 2, 1, 2, 1, 2]);
next = array1d(1..9 ,[2, 3, 6, 7, 9, 8, 5, 4, 1]);
makespan = 745;
----------
Found 8 new models
assign = array1d(1..9 ,[2, 1, 1, 2, 1, 1, 2, 1, 2]);
next = array1d(1..9 ,[9, 3, 6, 1, 2, 8, 4, 7, 5]);
makespan = 735;
----------
% [makespan>556]
==========
	Command being timed: "mzn-lbbd lbbd-datasets/Rabadi-2006/dzn-p-dominant/model.mzn lbbd-datasets/Rabadi-2006/dzn-p-dominant/7on2Rp50Rs50_13Ameer.dzn"
	User time (seconds): 1.55
	System time (seconds): 0.01
	Percent of CPU this job got: 99%
	Elapsed (wall clock) time (h:mm:ss or m:ss): 0:01.57
	Average shared text size (kbytes): 0
	Average unshared data size (kbytes): 0
	Average stack size (kbytes): 0
	Average total size (kbytes): 0
	Maximum resident set size (kbytes): 51680
	Average resident set size (kbytes): 0
	Major (requiring I/O) page faults: 0
	Minor (reclaiming a frame) page faults: 3855
	Voluntary context switches: 5
	Involuntary context switches: 9
	Swaps: 0
	File system inputs: 0
	File system outputs: 112
	Socket messages sent: 0
	Socket messages received: 0
	Signals delivered: 0
	Page size (bytes): 4096
	Exit status: 0
