+ /usr/bin/timeout 600 /usr/bin/time -v mzn-lbbd lbbd-datasets/Rabadi-2006/dzn-p-dominant/model.mzn lbbd-datasets/Rabadi-2006/dzn-p-dominant/7on2Rp50Rs50_7Ameer.dzn
% No search annotation given. Defaulting to VSIDS!
% [makespan>550]
Found 43 new models
assign = array1d(1..9 ,[1, 1, 2, 1, 2, 1, 2, 1, 2]);
next = array1d(1..9 ,[8, 4, 9, 1, 3, 2, 5, 7, 6]);
makespan = 768;
----------
Found 12 new models
assign = array1d(1..9 ,[2, 1, 1, 1, 2, 1, 2, 1, 2]);
next = array1d(1..9 ,[9, 8, 4, 6, 7, 2, 1, 5, 3]);
makespan = 743;
----------
Found 1 new models
assign = array1d(1..9 ,[2, 2, 2, 2, 1, 1, 1, 1, 2]);
next = array1d(1..9 ,[2, 3, 4, 9, 7, 5, 8, 1, 6]);
makespan = 742;
----------
% [makespan>592]
==========
	Command being timed: "mzn-lbbd lbbd-datasets/Rabadi-2006/dzn-p-dominant/model.mzn lbbd-datasets/Rabadi-2006/dzn-p-dominant/7on2Rp50Rs50_7Ameer.dzn"
	User time (seconds): 1.54
	System time (seconds): 0.01
	Percent of CPU this job got: 99%
	Elapsed (wall clock) time (h:mm:ss or m:ss): 0:01.56
	Average shared text size (kbytes): 0
	Average unshared data size (kbytes): 0
	Average stack size (kbytes): 0
	Average total size (kbytes): 0
	Maximum resident set size (kbytes): 52064
	Average resident set size (kbytes): 0
	Major (requiring I/O) page faults: 0
	Minor (reclaiming a frame) page faults: 4002
	Voluntary context switches: 6
	Involuntary context switches: 22
	Swaps: 0
	File system inputs: 0
	File system outputs: 112
	Socket messages sent: 0
	Socket messages received: 0
	Signals delivered: 0
	Page size (bytes): 4096
	Exit status: 0
