+ /usr/bin/timeout 600 /usr/bin/time -v mzn-lbbd lbbd-datasets/Rabadi-2006/dzn-p-dominant/model.mzn lbbd-datasets/Rabadi-2006/dzn-p-dominant/8on4Rp50Rs50_5Ameer.dzn
% No search annotation given. Defaulting to VSIDS!
% [makespan>302]
Found 79 new models
assign = array1d(1..12 ,[3, 1, 1, 2, 2, 4, 4, 3, 1, 2, 3, 4]);
next = array1d(1..12 ,[11, 3, 9, 5, 10, 7, 12, 1, 4, 8, 6, 2]);
makespan = 372;
----------
Found 6 new models
assign = array1d(1..12 ,[4, 1, 1, 2, 2, 4, 3, 3, 1, 2, 3, 4]);
next = array1d(1..12 ,[12, 3, 9, 5, 10, 1, 11, 7, 4, 8, 6, 2]);
makespan = 355;
----------
==========
	Command being timed: "mzn-lbbd lbbd-datasets/Rabadi-2006/dzn-p-dominant/model.mzn lbbd-datasets/Rabadi-2006/dzn-p-dominant/8on4Rp50Rs50_5Ameer.dzn"
	User time (seconds): 1.87
	System time (seconds): 0.00
	Percent of CPU this job got: 99%
	Elapsed (wall clock) time (h:mm:ss or m:ss): 0:01.89
	Average shared text size (kbytes): 0
	Average unshared data size (kbytes): 0
	Average stack size (kbytes): 0
	Average total size (kbytes): 0
	Maximum resident set size (kbytes): 62464
	Average resident set size (kbytes): 0
	Major (requiring I/O) page faults: 0
	Minor (reclaiming a frame) page faults: 4502
	Voluntary context switches: 4
	Involuntary context switches: 15
	Swaps: 0
	File system inputs: 0
	File system outputs: 256
	Socket messages sent: 0
	Socket messages received: 0
	Signals delivered: 0
	Page size (bytes): 4096
	Exit status: 0
