+ /usr/bin/timeout 600 /usr/bin/time -v mzn-lbbd lbbd-datasets/sscplp/trucks-dzn/model.mzn lbbd-datasets/sscplp/trucks-dzn/p02-l40-c100-correlated.dzn
% No search annotation given. Defaulting to VSIDS!
% [obj>3785]
Found 33 new models
source = [2, 4, 9, 8, 7, 9, 10, 10, 10, 7, 4, 10, 8, 4, 7, 9, 4, 7, 10, 10]
open = [0, 1, 0, 1, 0, 0, 1, 1, 1, 1]
trucks_used = [0, 1, 0, 3, 0, 0, 2, 1, 2, 3]
truck_assigned = [1, 3, 1, 1, 2, 2, 2, 1, 1, 1, 1, 2, 1, 2, 1, 2, 2, 2, 3, 3]
obj = 4451
----------
Found 5 new models
source = [10, 7, 10, 8, 7, 8, 10, 10, 10, 4, 1, 8, 1, 4, 4, 1, 4, 7, 10, 7]
open = [1, 0, 0, 1, 0, 0, 1, 1, 0, 1]
trucks_used = [2, 0, 0, 2, 0, 0, 2, 1, 0, 3]
truck_assigned = [1, 1, 2, 1, 2, 1, 2, 1, 3, 1, 1, 1, 2, 2, 1, 1, 2, 1, 3, 2]
obj = 3832
----------
Found 2 new models
source = [10, 7, 1, 8, 7, 8, 10, 10, 10, 4, 10, 8, 1, 4, 4, 1, 4, 7, 7, 10]
open = [1, 0, 0, 1, 0, 0, 1, 1, 0, 1]
trucks_used = [2, 0, 0, 2, 0, 0, 2, 1, 0, 3]
truck_assigned = [2, 1, 1, 1, 2, 1, 3, 2, 3, 1, 1, 1, 2, 2, 1, 1, 2, 1, 2, 3]
obj = 3791
----------
% [obj>3800]
==========
	Command being timed: "mzn-lbbd lbbd-datasets/sscplp/trucks-dzn/model.mzn lbbd-datasets/sscplp/trucks-dzn/p02-l40-c100-correlated.dzn"
	User time (seconds): 111.69
	System time (seconds): 0.06
	Percent of CPU this job got: 99%
	Elapsed (wall clock) time (h:mm:ss or m:ss): 1:51.96
	Average shared text size (kbytes): 0
	Average unshared data size (kbytes): 0
	Average stack size (kbytes): 0
	Average total size (kbytes): 0
	Maximum resident set size (kbytes): 181664
	Average resident set size (kbytes): 0
	Major (requiring I/O) page faults: 0
	Minor (reclaiming a frame) page faults: 12751
	Voluntary context switches: 3
	Involuntary context switches: 167
	Swaps: 0
	File system inputs: 0
	File system outputs: 416
	Socket messages sent: 0
	Socket messages received: 0
	Signals delivered: 0
	Page size (bytes): 4096
	Exit status: 0
