+ /usr/bin/timeout 600 /usr/bin/time -v mzn-lbbd lbbd-datasets/Rabadi-2006/dzn-balanced/model.mzn lbbd-datasets/Rabadi-2006/dzn-balanced/10on4Rp50Rs50_6Ameer.dzn
% No search annotation given. Defaulting to VSIDS!
% [makespan>182]
Found 16 new models
assign = array1d(1..14 ,[1, 4, 3, 4, 2, 2, 4, 3, 3, 2, 1, 2, 3, 4]);
next = array1d(1..14 ,[11, 14, 9, 7, 10, 12, 2, 13, 8, 6, 5, 3, 4, 1]);
makespan = 364;
----------
Found 23 new models
assign = array1d(1..14 ,[2, 4, 2, 3, 3, 1, 4, 1, 3, 2, 1, 2, 3, 4]);
next = array1d(1..14 ,[3, 7, 12, 9, 4, 11, 14, 6, 13, 1, 10, 5, 2, 8]);
makespan = 309;
----------
Found 4 new models
assign = array1d(1..14 ,[2, 4, 2, 3, 3, 1, 4, 1, 3, 2, 1, 2, 3, 4]);
next = array1d(1..14 ,[12, 7, 10, 9, 4, 11, 14, 6, 13, 1, 3, 5, 2, 8]);
makespan = 305;
----------
Found 15 new models
assign = array1d(1..14 ,[1, 1, 2, 2, 4, 1, 4, 3, 3, 2, 1, 2, 3, 4]);
next = array1d(1..14 ,[11, 6, 10, 12, 7, 1, 14, 9, 13, 4, 3, 8, 5, 2]);
makespan = 290;
----------
% [makespan>182]
% [makespan>182]
% [makespan>182]
% [makespan>182]
% [makespan>186]
% [makespan>186]
% [makespan>186]
% [makespan>190]
% [makespan>190]
% [makespan>190]
% [makespan>191]
% [makespan>191]
% [makespan>191]
% [makespan>192]
% [makespan>192]
% [makespan>192]
% [makespan>192]
