+ /usr/bin/timeout 600 /usr/bin/time -v mzn-lbbd lbbd-datasets/Rabadi-2006/dzn-balanced/model.mzn lbbd-datasets/Rabadi-2006/dzn-balanced/7on4Rp50Rs50_3Ameer.dzn
% No search annotation given. Defaulting to VSIDS!
% [makespan>115]
Found 45 new models
assign = array1d(1..11 ,[2, 4, 1, 3, 2, 3, 4, 1, 2, 3, 4]);
next = array1d(1..11 ,[5, 7, 8, 10, 9, 4, 11, 1, 6, 2, 3]);
makespan = 190;
----------
Found 9 new models
assign = array1d(1..11 ,[4, 4, 1, 2, 2, 3, 1, 1, 2, 3, 4]);
next = array1d(1..11 ,[2, 11, 7, 5, 9, 10, 8, 4, 6, 1, 3]);
makespan = 178;
----------
==========
	Command being timed: "mzn-lbbd lbbd-datasets/Rabadi-2006/dzn-balanced/model.mzn lbbd-datasets/Rabadi-2006/dzn-balanced/7on4Rp50Rs50_3Ameer.dzn"
	User time (seconds): 1.92
	System time (seconds): 0.01
	Percent of CPU this job got: 99%
	Elapsed (wall clock) time (h:mm:ss or m:ss): 0:01.94
	Average shared text size (kbytes): 0
	Average unshared data size (kbytes): 0
	Average stack size (kbytes): 0
	Average total size (kbytes): 0
	Maximum resident set size (kbytes): 60576
	Average resident set size (kbytes): 0
	Major (requiring I/O) page faults: 0
	Minor (reclaiming a frame) page faults: 4367
	Voluntary context switches: 5
	Involuntary context switches: 10
	Swaps: 0
	File system inputs: 0
	File system outputs: 200
	Socket messages sent: 0
	Socket messages received: 0
	Signals delivered: 0
	Page size (bytes): 4096
	Exit status: 0
