+ /usr/bin/timeout 600 /usr/bin/time -v mzn-lbbd lbbd-datasets/Rabadi-2006/dzn-p-dominant/model.mzn lbbd-datasets/Rabadi-2006/dzn-p-dominant/10on4Rp50Rs50_8Ameer.dzn
% No search annotation given. Defaulting to VSIDS!
% [makespan>390]
Found 150 new models
assign = array1d(1..14 ,[4, 1, 1, 3, 2, 2, 4, 2, 3, 4, 1, 2, 3, 4]);
next = array1d(1..14 ,[10, 11, 2, 13, 8, 5, 14, 12, 4, 7, 6, 9, 1, 3]);
makespan = 569;
----------
Found 7 new models
assign = array1d(1..14 ,[4, 3, 2, 3, 1, 2, 1, 2, 4, 4, 1, 2, 3, 4]);
next = array1d(1..14 ,[10, 4, 8, 13, 7, 12, 11, 6, 14, 9, 3, 2, 1, 5]);
makespan = 558;
----------
Found 3 new models
assign = array1d(1..14 ,[4, 3, 2, 4, 1, 3, 1, 2, 4, 2, 1, 2, 3, 4]);
next = array1d(1..14 ,[4, 13, 8, 14, 7, 2, 11, 10, 1, 12, 3, 6, 9, 5]);
makespan = 554;
----------
Found 15 new models
assign = array1d(1..14 ,[4, 3, 1, 4, 2, 3, 1, 2, 4, 2, 1, 2, 3, 4]);
next = array1d(1..14 ,[9, 13, 7, 14, 12, 2, 11, 5, 4, 8, 10, 6, 1, 3]);
makespan = 537;
----------
Found 10 new models
assign = array1d(1..14 ,[4, 3, 1, 4, 2, 3, 1, 2, 2, 4, 1, 2, 3, 4]);
next = array1d(1..14 ,[10, 13, 7, 14, 8, 2, 11, 12, 5, 4, 9, 6, 1, 3]);
makespan = 527;
----------
% [makespan>398]
Found 3 new models
assign = array1d(1..14 ,[4, 3, 4, 2, 2, 4, 1, 3, 2, 1, 1, 2, 3, 4]);
next = array1d(1..14 ,[14, 8, 1, 9, 12, 3, 11, 13, 5, 7, 4, 2, 6, 10]);
makespan = 524;
----------
% [makespan>400]
% [makespan>402]
% [makespan>406]
% [makespan>407]
% [makespan>407]
% [makespan>407]
% [makespan>409]
% [makespan>409]
% [makespan>409]
% [makespan>409]
% [makespan>409]
% [makespan>410]
% [makespan>413]
% [makespan>413]
% [makespan>413]
% [makespan>413]
% [makespan>413]
% [makespan>414]
==========
	Command being timed: "mzn-lbbd lbbd-datasets/Rabadi-2006/dzn-p-dominant/model.mzn lbbd-datasets/Rabadi-2006/dzn-p-dominant/10on4Rp50Rs50_8Ameer.dzn"
	User time (seconds): 574.17
	System time (seconds): 0.08
	Percent of CPU this job got: 99%
	Elapsed (wall clock) time (h:mm:ss or m:ss): 9:35.34
	Average shared text size (kbytes): 0
	Average unshared data size (kbytes): 0
	Average stack size (kbytes): 0
	Average total size (kbytes): 0
	Maximum resident set size (kbytes): 268352
	Average resident set size (kbytes): 0
	Major (requiring I/O) page faults: 0
	Minor (reclaiming a frame) page faults: 21548
	Voluntary context switches: 33
	Involuntary context switches: 709
	Swaps: 0
	File system inputs: 0
	File system outputs: 512
	Socket messages sent: 0
	Socket messages received: 0
	Signals delivered: 0
	Page size (bytes): 4096
	Exit status: 0
