+ /usr/bin/timeout 600 /usr/bin/time -v mzn-lbbd lbbd-datasets/planningandscheduling/makespan-insts/model.mzn lbbd-datasets/planningandscheduling/makespan-insts/c24j4m1.dzn
% No search annotation given. Defaulting to VSIDS!
% [makespan>19]
Found 1 new models
obj = 50
----------
Found 8 new models
obj = 42
----------
Found 12 new models
obj = 30
----------
Found 2 new models
obj = 28
----------
Found 3 new models
obj = 25
----------
Found 1 new models
obj = 24
----------
% [makespan>20]
% [makespan>20]
% [makespan>21]
==========
	Command being timed: "mzn-lbbd lbbd-datasets/planningandscheduling/makespan-insts/model.mzn lbbd-datasets/planningandscheduling/makespan-insts/c24j4m1.dzn"
	User time (seconds): 7.33
	System time (seconds): 0.00
	Percent of CPU this job got: 97%
	Elapsed (wall clock) time (h:mm:ss or m:ss): 0:07.54
	Average shared text size (kbytes): 0
	Average unshared data size (kbytes): 0
	Average stack size (kbytes): 0
	Average total size (kbytes): 0
	Maximum resident set size (kbytes): 61088
	Average resident set size (kbytes): 0
	Major (requiring I/O) page faults: 0
	Minor (reclaiming a frame) page faults: 4479
	Voluntary context switches: 4
	Involuntary context switches: 30
	Swaps: 0
	File system inputs: 0
	File system outputs: 144
	Socket messages sent: 0
	Socket messages received: 0
	Signals delivered: 0
	Page size (bytes): 4096
	Exit status: 0
