+ /usr/bin/timeout 600 /usr/bin/time -v mzn-lbbd lbbd-datasets/Rabadi-2006/dzn-s-dominant/model.mzn lbbd-datasets/Rabadi-2006/dzn-s-dominant/11on8Rp50Rs50_7Ameer.dzn
% No search annotation given. Defaulting to VSIDS!
% [makespan>107]
Found 23 new models
assign = array1d(1..19 ,[7, 7, 6, 5, 5, 1, 3, 2, 3, 8, 4, 1, 2, 3, 4, 5, 6, 7, 8]);
next = array1d(1..19 ,[18, 1, 17, 16, 4, 12, 9, 13, 14, 19, 15, 8, 7, 11, 5, 3, 2, 10, 6]);
makespan = 286;
----------
Found 12 new models
assign = array1d(1..19 ,[1, 7, 5, 8, 6, 3, 3, 2, 1, 7, 4, 1, 2, 3, 4, 5, 6, 7, 8]);
next = array1d(1..19 ,[9, 10, 16, 19, 17, 7, 14, 13, 12, 18, 15, 8, 6, 11, 3, 5, 2, 4, 1]);
makespan = 261;
----------
Found 16 new models
assign = array1d(1..19 ,[1, 7, 8, 6, 2, 4, 3, 3, 7, 5, 8, 1, 2, 3, 4, 5, 6, 7, 8]);
next = array1d(1..19 ,[12, 9, 11, 17, 13, 15, 14, 7, 18, 16, 19, 5, 8, 6, 10, 4, 2, 3, 1]);
makespan = 241;
----------
% [makespan>109]
% [makespan>112]
% [makespan>113]
% [makespan>115]
==========
	Command being timed: "mzn-lbbd lbbd-datasets/Rabadi-2006/dzn-s-dominant/model.mzn lbbd-datasets/Rabadi-2006/dzn-s-dominant/11on8Rp50Rs50_7Ameer.dzn"
	User time (seconds): 45.96
	System time (seconds): 0.05
	Percent of CPU this job got: 99%
	Elapsed (wall clock) time (h:mm:ss or m:ss): 0:46.10
	Average shared text size (kbytes): 0
	Average unshared data size (kbytes): 0
	Average stack size (kbytes): 0
	Average total size (kbytes): 0
	Maximum resident set size (kbytes): 154528
	Average resident set size (kbytes): 0
	Major (requiring I/O) page faults: 0
	Minor (reclaiming a frame) page faults: 11733
	Voluntary context switches: 3
	Involuntary context switches: 70
	Swaps: 0
	File system inputs: 0
	File system outputs: 872
	Socket messages sent: 0
	Socket messages received: 0
	Signals delivered: 0
	Page size (bytes): 4096
	Exit status: 0
