+ /usr/bin/timeout 600 /usr/bin/time -v mzn-lbbd lbbd-datasets/planningandscheduling/makespan-insts/model.mzn lbbd-datasets/planningandscheduling/makespan-insts/c18j4m4.dzn
% No search annotation given. Defaulting to VSIDS!
% [makespan>16]
Found 9 new models
obj = 29
----------
Found 6 new models
obj = 23
----------
Found 1 new models
obj = 22
----------
Found 1 new models
obj = 21
----------
Found 1 new models
obj = 20
----------
==========
	Command being timed: "mzn-lbbd lbbd-datasets/planningandscheduling/makespan-insts/model.mzn lbbd-datasets/planningandscheduling/makespan-insts/c18j4m4.dzn"
	User time (seconds): 1.54
	System time (seconds): 0.00
	Percent of CPU this job got: 99%
	Elapsed (wall clock) time (h:mm:ss or m:ss): 0:01.56
	Average shared text size (kbytes): 0
	Average unshared data size (kbytes): 0
	Average stack size (kbytes): 0
	Average total size (kbytes): 0
	Maximum resident set size (kbytes): 52000
	Average resident set size (kbytes): 0
	Major (requiring I/O) page faults: 0
	Minor (reclaiming a frame) page faults: 3808
	Voluntary context switches: 4
	Involuntary context switches: 8
	Swaps: 0
	File system inputs: 0
	File system outputs: 112
	Socket messages sent: 0
	Socket messages received: 0
	Signals delivered: 0
	Page size (bytes): 4096
	Exit status: 0
