347
12
40

76 76 91 53 99 81 99 96 90 74 75 79 
82 54 96 62 63 58 92 73 86 89 64 51 
93 89 50 83 61 54 87 70 75 50 76 67 
94 82 85 72 67 74 57 81 70 84 50 90 
55 97 52 84 83 52 88 81 97 70 82 73 
52 86 61 76 59 81 94 91 75 65 81 90 
88 66 99 97 87 73 75 86 77 50 56 65 
82 53 50 73 70 86 96 82 76 91 73 88 
55 65 74 87 94 54 63 93 68 81 71 81 
58 96 69 83 90 72 85 79 53 77 99 91 
80 57 73 50 69 73 86 56 97 99 62 76 
89 61 58 80 81 82 53 68 67 90 83 89 
75 79 52 74 86 58 92 70 93 99 65 89 
52 72 76 62 85 93 75 71 93 70 61 53 
55 93 71 63 94 52 65 61 70 90 71 80 
62 83 96 72 94 95 74 74 93 93 64 89 
91 95 57 65 68 76 94 97 96 80 85 86 
72 71 99 97 90 90 53 90 86 73 65 63 
62 67 89 66 70 96 83 93 66 80 68 77 
73 62 55 81 85 70 71 73 57 53 70 53 
65 53 80 50 55 95 70 94 82 96 89 91 
64 53 92 73 74 93 88 57 54 95 71 79 
69 68 71 64 52 94 78 75 87 66 55 56 
79 86 78 66 61 80 78 63 64 68 59 52 
92 60 51 76 67 92 55 56 53 78 71 72 
73 94 70 63 81 56 63 71 59 50 67 73 
63 67 54 58 60 60 69 64 61 92 93 86 
82 66 69 78 97 90 91 61 74 64 87 79 
50 67 52 79 53 96 78 87 87 82 58 78 
53 58 55 70 61 52 99 85 92 92 67 75 
54 88 51 51 50 59 53 55 69 67 67 71 
64 80 94 83 92 77 97 88 88 53 92 77 
54 75 60 75 75 76 88 96 54 90 63 63 
84 80 59 71 79 85 76 61 78 91 69 90 
80 80 94 64 73 50 78 61 83 50 64 68 
52 86 57 60 59 81 51 66 75 96 87 79 
84 52 99 81 78 66 71 69 67 93 91 74 
79 93 72 51 69 85 87 98 54 76 81 78 
87 88 60 74 65 79 69 51 61 86 52 73 
60 53 95 84 69 77 94 59 70 78 62 79 

55 56 79 85 71 91 66 55 87 79 97 80 52 71 79 79 58 96 60 75 50 76 89 80 93 54 97 91 83 59 83 50 67 89 76 88 56 87 55 79 
87 59 90 53 57 99 57 79 70 93 97 78 55 53 67 70 77 91 70 86 64 56 68 85 94 78 61 88 82 85 93 63 53 72 68 77 84 84 53 57 
65 81 68 74 93 54 84 76 54 92 57 69 74 61 65 97 84 55 87 65 91 72 63 76 87 54 95 53 87 61 66 80 97 91 82 86 78 74 65 58 
63 95 80 67 68 67 72 82 55 99 94 94 80 91 93 56 69 77 73 82 67 66 55 96 59 62 64 86 95 51 85 60 83 84 67 81 64 50 58 74 
93 70 93 77 93 61 75 89 71 95 61 77 95 62 72 89 88 89 80 72 97 84 90 96 94 82 72 99 79 94 63 72 64 87 60 70 87 99 88 92 
72 60 86 91 52 54 79 94 96 70 88 61 60 62 86 53 96 65 72 95 72 71 84 88 60 82 71 91 90 53 74 99 73 53 77 57 91 53 54 52 
87 55 67 72 75 91 78 54 88 96 63 99 52 91 76 51 59 77 67 81 81 94 73 86 63 73 65 53 51 54 68 82 91 84 63 73 71 56 73 67 
64 74 85 60 78 56 85 66 99 83 68 92 79 85 84 79 66 89 67 74 52 77 95 89 94 67 68 95 85 84 83 77 74 69 87 95 64 62 85 71 
58 53 88 60 96 61 94 72 77 93 88 64 77 69 74 66 68 83 61 71 89 88 67 84 84 66 96 59 53 56 67 86 62 77 56 82 86 55 76 54 
91 61 73 69 58 93 77 63 57 58 50 99 95 87 79 67 89 91 71 65 75 61 94 63 57 80 92 64 55 97 62 58 57 90 83 96 59 66 67 97 
86 64 73 88 95 52 67 95 99 50 57 89 52 59 89 97 74 58 58 63 76 81 75 94 55 62 76 72 74 51 50 86 67 76 80 63 84 53 53 69 
88 67 78 91 64 83 70 91 51 73 74 60 73 92 53 57 61 81 50 78 96 82 86 86 85 79 55 61 99 90 64 74 51 96 87 84 63 99 94 55 
79 51 73 77 50 59 93 89 61 58 57 91 78 82 75 71 64 80 99 94 88 83 78 55 84 85 86 74 79 57 96 51 80 88 87 54 68 67 54 99 
81 94 69 93 50 88 79 93 54 96 60 72 69 58 70 61 88 60 87 92 98 85 79 75 94 96 75 70 51 78 95 92 63 88 66 74 78 79 85 63 
87 68 84 86 63 96 73 52 58 97 63 88 52 68 87 97 79 84 76 67 60 57 60 69 99 63 94 98 91 83 75 69 75 92 95 84 84 92 54 93 
92 82 81 66 94 84 59 91 67 93 76 90 96 75 97 70 71 67 57 77 94 55 70 54 51 60 74 98 71 84 93 98 61 54 93 75 83 89 57 50 
62 79 52 52 80 74 77 69 88 66 83 73 52 99 96 88 57 69 57 76 53 72 52 62 68 69 96 85 54 69 91 70 98 54 61 60 54 75 56 79 
71 95 92 74 74 75 80 81 64 99 97 63 64 90 69 90 84 81 91 99 57 84 97 92 78 85 60 87 58 64 52 50 97 79 53 78 52 92 75 67 
93 63 80 50 90 82 83 99 54 71 60 56 66 62 77 86 71 67 68 54 80 57 64 58 96 78 97 64 93 95 82 55 72 66 89 73 93 70 68 83 
61 81 96 52 99 82 54 82 98 91 75 93 82 74 68 96 98 97 59 52 78 91 80 85 99 85 52 98 55 79 59 50 59 53 84 81 60 73 94 78 
87 80 80 74 97 94 51 81 78 96 52 95 97 94 62 67 89 84 59 65 90 83 94 61 70 79 52 69 62 97 75 54 78 75 67 66 95 70 89 93 
51 99 82 55 80 72 96 54 82 78 87 93 61 71 52 57 89 66 72 95 91 61 59 80 75 75 55 95 98 87 51 62 99 54 80 55 97 66 97 79 
72 65 51 69 92 67 99 94 56 71 64 56 68 64 52 84 82 76 72 51 76 57 69 90 78 69 76 79 60 64 57 85 90 86 50 78 59 57 94 58 
81 73 52 65 77 75 58 72 60 67 90 71 57 60 75 74 88 82 66 75 85 88 84 76 73 98 99 72 94 95 67 71 77 50 91 58 69 86 99 55 
68 56 85 63 87 67 90 76 52 55 73 99 62 85 95 77 50 97 62 51 57 59 72 71 59 60 50 57 99 88 54 67 94 94 79 86 54 84 84 84 
65 98 95 56 66 65 52 74 80 70 97 52 55 91 78 58 93 60 91 66 75 50 94 82 73 89 52 65 86 98 97 96 55 72 87 79 52 91 55 85 
54 58 73 68 99 80 82 54 54 95 66 95 79 80 78 67 97 88 53 84 60 65 96 50 71 68 80 83 64 89 76 81 75 50 67 93 53 77 62 54 
85 75 78 75 58 92 64 99 51 95 56 64 69 81 90 91 68 82 72 65 86 84 82 52 50 89 77 81 86 69 57 86 75 65 51 91 81 73 51 84 
72 64 89 51 84 81 57 55 54 68 63 51 90 72 60 82 54 95 81 56 89 73 81 92 60 74 84 68 55 72 78 53 57 80 62 86 67 79 74 65 
75 78 70 73 69 82 65 67 85 88 54 95 89 99 54 86 53 51 72 66 81 51 90 95 58 59 67 73 77 72 91 55 74 54 87 76 92 96 55 52 
64 79 70 76 86 64 88 73 84 85 85 96 81 56 83 75 57 81 91 80 60 56 50 59 72 56 74 77 55 56 51 70 80 87 52 85 81 58 52 94 
65 69 53 83 73 61 71 60 86 91 89 61 55 94 92 68 97 97 54 76 61 89 59 96 61 98 86 94 96 51 90 65 84 81 74 72 66 65 64 92 
78 56 87 64 67 77 60 74 92 61 79 68 73 70 95 69 98 85 88 70 98 96 69 89 64 65 59 56 92 59 57 64 57 94 64 60 81 56 73 94 
63 99 53 87 73 71 61 79 60 77 94 80 96 74 86 75 51 90 83 60 60 69 55 90 67 74 71 65 85 58 83 77 99 96 93 77 66 91 86 98 
59 51 97 99 75 52 74 81 77 97 79 74 91 52 53 77 91 90 90 51 59 64 61 69 79 64 76 60 66 69 93 70 78 63 60 82 54 51 50 55 
79 59 81 64 73 63 58 98 57 59 81 83 50 95 70 86 75 93 50 69 89 90 97 87 73 51 85 77 75 50 53 87 75 60 57 70 84 54 74 69 
59 50 71 91 83 74 63 55 55 78 75 99 67 85 97 71 56 99 91 78 82 58 51 67 61 84 78 71 57 77 85 56 53 60 75 85 96 99 53 56 
97 95 95 85 84 77 85 74 63 64 76 94 71 96 72 94 61 65 85 52 65 74 99 92 85 50 53 67 70 72 89 61 79 56 53 83 88 81 56 83 
59 54 89 81 94 69 59 58 68 67 63 89 86 59 89 66 52 67 81 97 80 72 78 72 84 69 55 63 94 59 71 96 80 66 68 94 59 69 61 62 
90 93 81 79 90 68 59 93 83 95 93 74 66 87 85 57 86 94 84 60 68 81 72 65 61 51 89 96 88 82 57 89 82 63 68 88 86 65 98 74 

86 77 59 91 80 54 63 99 64 82 66 90 52 54 77 76 71 96 81 97 60 64 77 56 94 82 55 73 79 57 92 91 71 58 98 64 50 76 59 61 
60 95 73 50 88 89 74 84 69 62 86 73 83 97 55 71 58 58 70 93 97 78 93 77 66 58 71 66 88 52 61 97 90 72 84 56 53 55 74 94 
85 53 66 88 81 93 69 67 76 76 66 78 97 74 69 96 87 62 86 89 98 51 69 95 64 85 51 61 99 92 96 74 53 81 54 70 71 87 73 68 
75 78 90 71 74 56 52 97 51 53 67 95 92 61 67 85 53 85 65 56 85 60 65 71 97 99 93 72 72 65 93 54 77 61 78 91 94 66 77 85 
79 65 57 86 75 61 99 54 60 67 56 56 72 87 99 99 99 59 97 99 75 52 78 73 50 84 85 87 51 86 70 99 67 53 95 94 50 73 63 93 
58 50 84 94 98 97 68 88 97 87 59 77 56 54 50 65 81 63 90 92 99 85 96 88 74 98 72 54 66 88 68 76 86 60 75 84 97 61 89 61 
50 63 74 65 82 82 53 79 59 50 54 72 76 63 62 93 88 87 99 74 82 96 65 50 86 60 80 56 55 70 85 93 68 58 62 93 55 79 96 53 
90 97 82 94 83 57 85 90 57 91 84 80 90 63 57 73 75 82 76 60 75 83 62 53 52 87 71 78 96 59 81 61 99 83 68 97 92 98 59 89 
65 92 97 92 76 51 96 90 74 97 83 78 85 57 86 64 97 52 83 66 75 58 97 83 70 73 87 77 72 88 79 50 53 95 72 54 91 65 84 93 
67 69 87 70 97 75 50 56 83 73 77 63 94 77 94 75 81 90 60 67 52 93 89 83 55 83 66 99 57 71 86 85 57 62 84 95 53 61 98 72 
67 75 60 78 79 84 82 80 95 71 77 70 63 70 80 96 98 68 59 98 65 97 58 75 95 75 73 56 92 65 74 59 69 59 89 83 81 93 59 69 
91 60 55 96 60 54 99 56 70 61 61 96 82 82 82 96 81 90 83 61 65 80 91 93 73 87 79 86 93 90 52 98 50 81 57 98 65 64 94 91 
93 95 82 69 65 87 87 71 82 72 99 63 96 52 56 74 83 90 81 69 65 51 74 50 75 56 50 81 83 63 82 75 77 85 76 88 85 51 74 50 
76 51 85 57 62 57 79 83 65 68 59 89 58 84 86 89 51 60 56 85 66 75 93 96 83 92 66 72 83 85 70 56 63 92 56 78 94 73 62 90 
92 51 83 79 70 53 87 78 60 64 64 65 74 91 90 94 51 73 92 79 90 70 58 97 50 76 69 78 57 64 96 71 90 64 77 51 53 96 54 94 
57 86 64 78 71 65 99 77 80 51 89 51 85 63 72 86 69 56 71 83 75 67 77 96 96 62 98 84 73 64 94 68 63 99 77 78 88 50 65 86 
80 90 66 64 89 58 56 80 86 51 67 59 78 99 90 77 78 77 59 70 53 61 99 98 73 72 88 53 50 79 63 77 86 80 86 71 67 59 64 55 
67 83 68 88 94 75 74 88 58 95 68 83 86 54 85 56 90 57 62 84 67 69 88 79 66 57 68 80 76 94 86 87 79 65 83 60 50 81 98 90 
84 62 79 71 78 95 77 93 62 60 81 60 59 67 75 84 90 67 64 50 65 99 60 84 96 97 83 82 61 80 52 80 62 56 90 77 52 82 66 61 
83 78 88 80 79 61 93 85 57 73 77 82 75 70 96 56 99 61 50 75 91 53 86 70 76 96 62 76 80 90 67 74 54 98 81 52 86 88 76 83 
99 50 55 59 51 56 86 73 82 64 79 76 84 85 52 75 51 83 84 57 66 90 50 85 76 62 57 64 78 82 87 83 63 87 80 78 55 73 98 50 
57 99 67 70 63 54 78 71 52 61 72 98 75 87 78 58 83 54 97 75 99 63 73 52 88 63 71 99 81 60 76 98 53 68 85 52 92 96 89 71 
98 92 76 77 97 84 78 55 66 73 55 85 92 77 76 74 55 98 82 64 68 82 91 53 65 82 87 50 57 63 78 89 98 51 62 79 98 81 72 77 
92 87 65 83 93 64 86 51 88 76 62 87 61 50 60 98 65 94 72 51 77 99 96 56 73 89 97 79 89 61 83 56 63 72 97 97 59 76 57 90 
63 96 70 55 91 59 90 71 74 99 60 61 82 91 95 59 77 79 83 58 52 96 87 97 70 89 53 61 69 58 72 84 85 60 60 63 90 65 56 53 
87 69 52 71 72 83 99 71 69 87 98 89 84 65 85 81 90 81 88 89 78 89 92 67 84 87 65 64 65 95 69 71 70 62 87 88 66 51 74 68 
53 95 62 97 95 68 98 88 77 59 51 75 78 94 83 93 60 65 55 80 81 84 73 66 74 52 78 68 88 53 94 65 70 68 77 53 73 56 77 81 
82 95 59 95 98 56 88 86 75 83 92 96 63 83 92 79 95 89 61 64 58 96 71 76 97 93 58 92 58 98 73 71 81 93 76 69 58 83 66 89 
67 74 74 50 91 81 96 52 68 93 63 97 66 97 76 80 54 73 98 55 84 91 87 73 64 54 91 70 87 77 64 60 94 90 97 62 92 51 73 73 
54 85 87 58 67 93 83 68 89 74 83 90 74 82 92 88 52 93 64 94 77 70 55 99 87 78 74 80 90 87 66 58 85 85 78 67 81 75 84 82 
74 82 55 85 88 83 54 68 50 78 64 53 91 78 60 53 80 58 82 87 54 93 65 60 59 69 56 92 56 96 69 71 96 92 64 54 72 77 76 71 
64 55 74 74 76 82 93 98 56 63 69 78 80 77 90 90 70 79 96 91 88 90 93 91 84 68 94 81 69 60 81 69 62 95 51 85 93 66 50 72 
79 57 78 74 80 62 69 61 57 59 84 60 95 50 81 78 63 80 65 72 66 88 51 61 89 51 69 63 87 84 84 91 52 52 78 57 67 86 82 93 
76 94 86 89 92 58 71 80 58 95 96 86 68 51 87 53 64 68 52 90 91 66 98 92 62 76 97 93 55 62 52 51 89 50 57 53 53 62 70 94 
73 55 83 60 63 62 92 86 56 94 87 70 97 51 53 57 94 95 81 97 85 94 93 98 57 77 69 97 89 58 50 55 82 60 69 51 59 80 59 71 
89 93 82 66 55 80 78 93 54 88 80 90 70 52 83 98 76 97 54 67 59 65 72 61 89 91 57 90 97 54 71 98 50 51 96 67 59 91 83 70 
88 89 62 63 60 74 55 71 90 75 58 91 62 91 67 84 55 82 77 82 82 88 96 60 71 73 94 57 70 93 55 71 93 55 51 93 81 99 66 97 
55 60 94 92 58 51 85 99 51 98 91 65 86 72 64 81 72 53 54 66 61 72 91 73 88 91 61 95 72 66 53 93 66 64 85 96 56 97 53 69 
69 86 72 56 86 59 59 99 53 63 62 76 63 62 55 71 97 69 52 86 59 76 96 98 52 82 94 58 96 51 51 50 92 81 87 65 52 69 80 59 
57 99 91 87 84 96 67 61 65 83 54 84 83 63 82 92 63 64 97 96 65 75 67 95 78 70 99 85 62 77 72 59 93 55 96 71 98 88 92 53 

99 83 55 85 83 81 53 51 93 71 80 79 62 71 77 99 56 99 83 63 67 68 73 51 97 87 92 57 52 55 94 80 72 98 86 51 62 99 89 52 
51 77 65 86 83 56 73 64 56 89 89 98 94 69 51 95 87 85 50 91 97 53 82 80 91 73 82 66 64 80 77 75 87 97 73 75 97 56 68 71 
91 75 64 91 79 78 52 87 99 82 80 51 57 64 57 73 93 91 87 82 80 68 95 53 59 73 67 97 72 98 94 69 53 55 79 53 55 68 68 94 
95 83 94 62 56 80 92 74 71 92 66 89 75 87 63 75 65 68 77 59 65 97 75 70 85 95 70 71 77 54 95 95 77 88 73 59 56 94 73 60 
84 72 60 85 89 50 67 98 67 62 56 56 73 99 80 70 58 69 58 81 87 81 77 71 73 98 80 56 98 98 55 71 95 62 67 70 99 51 74 92 
94 98 81 57 82 91 59 63 80 88 52 60 61 72 50 62 76 71 95 72 80 88 53 76 57 57 76 57 70 65 97 83 81 82 86 75 65 90 95 51 
90 71 78 64 53 96 75 90 94 96 86 73 77 77 83 76 99 64 73 69 78 75 65 75 93 68 71 51 52 68 93 80 75 69 71 80 97 61 60 58 
68 65 97 76 84 74 98 67 68 51 57 96 62 80 65 94 56 74 99 81 83 73 89 72 50 97 75 85 94 59 88 65 81 77 60 94 64 54 74 59 
83 81 65 74 69 85 94 73 51 76 96 67 52 87 63 50 52 79 99 97 80 67 89 69 82 86 52 56 50 87 94 75 86 51 82 58 68 95 55 58 
57 51 75 57 71 99 80 66 78 64 80 75 97 86 50 91 53 61 77 98 79 97 59 91 96 73 85 57 56 70 72 95 63 97 70 98 52 61 89 56 
65 62 59 65 90 84 91 77 93 98 74 64 50 85 92 81 88 69 61 77 67 56 78 65 77 64 64 72 68 88 53 63 53 75 85 51 97 86 73 54 
59 61 94 52 83 67 95 68 93 90 87 98 75 52 90 97 90 62 90 73 71 91 70 81 82 73 56 79 87 81 57 53 74 73 65 72 68 67 54 57 
58 62 53 78 73 74 72 52 68 53 81 80 91 83 54 58 91 86 58 60 92 66 89 66 59 73 52 99 57 99 55 77 60 54 91 85 72 62 66 93 
58 93 61 59 95 81 52 77 85 79 95 83 65 55 53 62 66 64 91 64 94 88 74 64 92 80 61 77 52 96 56 96 85 67 85 87 93 55 78 92 
77 59 97 93 91 79 64 69 83 50 52 70 97 91 51 54 78 89 52 81 93 85 68 97 71 52 86 79 80 58 99 89 71 67 90 97 69 73 53 54 
54 77 91 80 71 62 85 95 65 82 99 99 55 92 70 74 62 53 77 55 99 52 61 64 72 99 57 62 95 71 63 84 68 97 54 54 65 92 65 65 
86 81 92 74 57 69 71 55 55 74 82 74 68 87 64 99 94 60 97 76 85 64 63 97 95 73 71 62 70 94 84 58 52 76 73 74 71 90 64 57 
86 81 59 53 54 90 73 97 60 73 82 86 56 75 73 55 86 67 51 75 85 91 62 94 53 80 57 63 57 96 64 57 70 89 81 99 54 81 74 68 
94 56 89 52 96 80 83 89 58 71 54 53 90 62 74 64 99 65 78 64 56 65 71 90 74 85 58 99 52 75 52 91 57 54 58 65 58 65 59 82 
64 59 66 59 51 88 85 59 87 96 62 95 59 57 96 52 56 52 64 65 60 85 92 88 59 76 86 73 75 82 63 57 82 96 54 61 97 95 78 76 
86 66 89 72 55 94 94 66 67 76 74 74 64 85 95 86 80 59 95 79 86 92 91 67 63 71 90 77 75 95 56 79 88 76 56 52 55 58 83 83 
60 81 83 91 59 68 65 87 71 61 84 66 53 63 62 94 85 56 71 80 82 79 96 91 56 64 90 58 55 63 61 51 79 73 91 74 75 98 58 75 
96 55 74 95 78 75 61 72 51 71 56 83 94 87 52 89 81 91 83 55 72 95 83 62 89 63 90 57 88 75 95 55 74 84 87 70 88 73 75 94 
58 96 66 99 64 84 71 72 98 91 71 59 85 68 85 50 80 79 65 91 73 84 83 63 78 75 88 67 64 81 61 80 97 89 74 74 63 88 95 77 
85 93 55 67 51 80 52 70 95 70 69 61 56 54 89 64 86 96 82 71 88 74 83 66 68 64 66 65 63 65 75 82 71 57 81 93 73 56 70 55 
82 81 71 90 87 60 69 81 91 56 51 88 78 98 81 96 62 59 84 92 60 82 57 80 54 97 71 91 57 54 86 54 86 85 74 55 80 96 72 76 
68 64 97 62 92 64 98 75 62 95 54 55 85 99 52 90 92 59 69 51 65 67 97 73 90 94 60 93 54 94 72 78 95 73 79 82 79 98 79 50 
65 98 95 86 54 91 68 67 80 58 68 75 70 86 88 52 82 83 74 74 76 52 92 91 81 57 65 61 70 55 78 57 73 55 69 97 86 93 63 65 
73 74 66 65 92 52 50 62 97 70 91 60 74 60 87 78 69 99 55 59 56 73 56 59 93 77 96 58 72 67 58 58 63 87 72 88 81 81 65 51 
55 69 84 76 75 51 66 92 72 69 80 70 87 71 99 80 56 57 52 58 90 66 99 52 53 99 62 94 84 72 86 87 56 51 90 75 86 80 67 53 
57 76 62 60 59 87 96 98 67 76 63 61 59 94 70 69 98 74 64 78 95 77 74 94 76 70 89 78 53 98 80 51 94 74 78 66 54 88 68 55 
56 65 96 91 76 54 88 64 75 54 68 92 51 72 69 66 60 55 66 72 89 78 78 53 73 74 95 69 52 67 85 60 78 66 91 67 73 99 88 83 
87 83 70 78 54 97 83 57 55 96 76 75 56 64 61 63 73 59 97 50 93 87 59 97 70 78 61 66 69 74 57 58 77 93 71 56 62 56 62 91 
64 68 85 74 51 50 54 89 86 81 72 87 95 60 87 70 70 57 56 86 96 85 58 93 74 88 57 75 93 99 90 77 90 73 56 67 54 91 88 65 
80 65 95 55 57 80 88 77 84 69 67 79 80 54 60 81 99 51 79 84 68 70 74 83 91 67 70 81 60 97 67 98 72 82 87 51 74 53 85 50 
76 94 65 66 81 60 60 87 61 89 99 86 67 56 94 86 92 52 98 72 62 86 62 84 73 66 55 82 90 63 64 73 84 77 81 57 71 69 55 58 
75 92 59 91 70 72 57 58 53 65 60 98 68 51 66 84 51 96 50 72 74 67 65 58 92 89 96 93 74 79 90 60 84 82 90 54 79 69 72 81 
98 92 86 63 81 65 76 67 57 93 78 57 87 79 57 98 79 50 53 64 72 79 79 92 95 79 55 66 82 50 63 68 60 71 83 65 87 90 95 93 
56 98 60 62 84 72 87 85 61 91 65 92 89 61 76 66 96 84 91 90 92 60 74 87 69 67 92 64 76 93 63 84 53 84 85 57 90 87 85 52 
59 77 71 51 84 52 56 74 85 52 74 55 89 85 59 68 97 81 99 95 83 81 81 89 85 66 94 72 56 74 56 86 56 53 61 69 92 74 76 63 

81 65 92 85 67 85 64 52 75 92 55 56 73 82 79 63 84 99 88 70 69 93 82 51 53 54 68 74 54 95 99 63 98 98 81 77 56 72 83 80 
99 75 81 75 60 82 95 84 94 68 88 60 74 63 82 52 60 86 84 93 92 64 52 62 73 53 64 66 89 85 83 82 65 88 82 51 74 70 82 89 
87 95 69 73 53 84 56 94 73 95 92 99 82 64 73 87 56 57 58 90 72 86 52 62 72 98 86 60 75 80 93 56 77 65 77 81 73 84 65 86 
70 59 80 52 93 61 89 95 84 51 67 89 76 93 57 96 74 95 53 61 86 74 72 87 50 66 76 75 71 87 69 72 55 74 92 87 77 79 87 70 
97 87 52 50 82 85 77 50 97 85 51 94 82 83 79 62 58 77 58 67 52 97 54 71 59 95 81 84 96 64 66 94 63 61 53 50 66 74 85 70 
74 87 99 73 94 85 58 60 50 90 94 54 61 97 71 98 72 75 65 75 66 95 94 98 70 76 81 70 98 72 85 56 85 87 80 82 80 69 94 96 
73 99 57 66 89 65 89 73 84 84 86 81 77 71 55 58 82 99 67 73 69 87 54 61 71 92 70 52 53 54 67 81 63 82 60 90 99 95 54 96 
68 55 80 93 56 87 99 78 95 69 98 64 66 59 95 82 76 55 85 67 65 93 67 74 51 67 69 87 76 70 73 99 57 53 61 72 92 67 55 59 
69 98 93 94 54 82 72 77 72 70 94 68 54 67 95 69 74 90 78 54 75 69 86 98 65 59 50 65 92 63 52 52 58 70 78 92 81 97 57 67 
68 54 84 91 79 94 93 52 66 80 66 94 84 66 79 95 55 56 59 68 97 65 53 85 81 75 57 68 62 92 77 72 56 85 93 78 88 60 73 86 
96 64 88 73 70 69 92 55 58 82 51 65 95 52 89 70 56 61 90 85 70 50 56 89 60 58 88 90 96 87 93 53 97 61 78 56 96 64 67 74 
74 56 96 74 72 55 74 77 87 90 59 73 95 64 51 79 55 64 59 83 81 85 65 95 77 90 71 53 64 93 52 78 94 71 92 55 98 84 54 59 
69 53 53 97 76 51 94 94 62 91 66 91 67 72 91 91 83 60 61 80 55 60 57 81 61 51 81 79 79 63 98 91 98 54 56 66 51 62 76 88 
88 55 52 70 95 59 98 63 70 71 82 60 75 75 56 89 51 95 70 68 61 74 60 92 96 61 91 81 69 60 91 92 86 68 83 83 97 52 66 79 
89 73 88 58 97 73 99 56 82 80 91 68 51 82 72 78 85 77 73 56 94 98 97 77 71 67 89 80 70 72 80 73 85 89 84 86 87 67 83 77 
73 81 52 78 86 92 89 66 61 53 94 82 85 87 79 71 60 95 97 86 90 89 85 72 71 92 94 99 86 79 94 68 82 77 67 61 90 97 80 80 
75 99 51 87 54 62 96 70 52 81 96 60 81 61 95 93 54 53 95 53 63 79 98 55 96 93 76 77 65 56 81 97 83 65 58 63 88 61 54 77 
78 86 55 57 96 82 53 56 86 88 67 73 57 66 89 88 76 51 61 83 75 93 56 94 82 84 89 75 77 95 80 63 61 65 82 76 85 94 71 68 
51 86 81 78 78 58 56 94 62 91 86 75 59 81 88 66 71 67 57 62 80 72 78 78 66 63 73 51 93 52 54 96 95 84 89 60 55 74 89 78 
90 94 74 81 84 90 67 83 66 68 78 97 63 73 91 89 58 80 51 81 74 86 62 78 55 54 99 80 66 88 80 94 50 73 66 80 69 83 78 99 
77 72 54 61 71 57 54 56 95 63 73 83 50 86 75 87 76 81 87 59 81 96 83 60 68 81 73 56 71 71 81 89 87 95 91 88 54 62 79 77 
89 50 78 83 63 95 65 86 96 69 59 64 63 52 82 63 63 56 94 97 95 95 83 99 82 77 91 93 71 58 70 64 70 53 91 50 93 93 71 86 
94 70 52 89 87 68 89 65 59 59 94 88 93 87 86 92 73 72 56 98 53 59 66 60 70 62 62 51 97 63 87 91 65 66 62 82 97 51 67 82 
99 94 56 95 89 56 98 72 55 71 99 96 91 78 85 91 52 57 76 98 87 72 64 65 58 93 82 96 64 84 85 60 89 82 85 87 89 76 77 83 
76 63 84 98 84 64 77 93 63 97 84 88 86 87 87 75 87 78 56 55 62 84 96 94 90 89 69 92 86 86 64 57 57 52 88 69 67 72 77 71 
94 64 87 78 67 84 81 63 56 85 61 67 51 86 70 69 68 75 62 76 69 56 61 66 56 78 87 60 81 79 96 96 92 58 53 97 71 54 63 78 
54 52 80 94 73 81 62 83 61 80 58 67 67 81 80 85 78 97 58 63 70 65 53 80 72 86 94 99 99 61 88 82 99 50 67 71 51 68 97 58 
82 61 95 70 53 74 74 96 54 80 84 63 97 54 86 92 50 56 55 61 71 66 76 65 93 82 99 68 84 52 84 98 87 57 95 54 70 99 76 94 
60 89 58 65 71 84 85 61 56 72 80 61 88 72 93 87 80 63 53 85 65 84 80 84 56 84 61 82 65 81 72 58 94 81 73 84 82 75 92 81 
63 52 57 98 69 79 91 92 69 78 85 70 85 68 73 88 66 79 95 86 95 54 61 72 86 80 68 86 94 75 80 99 57 93 89 69 95 81 60 89 
63 56 96 57 90 80 63 58 69 58 88 99 80 91 65 67 62 83 93 72 78 59 53 98 86 50 51 81 87 96 61 86 98 67 91 98 83 62 71 58 
74 76 63 91 73 79 94 55 86 56 96 85 54 57 91 91 86 50 90 59 75 95 62 86 69 78 77 93 98 59 94 51 67 93 95 87 74 99 90 97 
96 86 91 50 52 70 50 58 60 96 61 54 60 99 95 90 60 69 90 90 59 84 69 54 87 94 98 82 77 87 99 51 61 78 93 69 56 97 59 68 
90 84 86 91 62 50 90 56 75 78 90 73 66 62 78 65 85 73 91 56 80 81 71 55 58 62 56 97 66 52 79 89 66 74 69 84 74 82 78 98 
62 69 66 58 93 52 82 56 66 86 60 68 54 51 87 86 65 60 54 96 78 80 71 63 98 81 63 68 59 90 90 91 76 70 58 55 98 58 74 87 
75 80 52 90 91 63 69 93 70 85 89 83 69 72 68 88 64 85 55 81 95 56 65 69 70 76 52 75 93 85 56 98 53 93 50 66 73 70 66 87 
60 51 76 80 99 74 78 86 89 81 72 63 97 95 53 97 73 79 89 83 95 56 66 62 55 50 56 75 82 58 96 60 93 51 79 58 65 86 92 81 
88 74 82 60 59 61 80 98 89 87 94 77 56 56 95 50 89 87 78 98 96 55 86 83 62 99 60 93 87 91 69 78 60 80 92 80 70 65 90 78 
87 85 71 93 63 99 91 56 76 73 70 79 70 77 99 62 50 55 95 57 90 88 76 93 98 91 65 63 56 55 71 93 74 95 66 65 61 83 88 65 
88 50 63 69 65 61 92 90 54 54 55 70 78 89 61 71 98 57 91 87 65 72 95 71 71 62 56 74 71 64 55 96 68 63 53 52 88 69 74 64 

67 95 76 54 97 97 80 93 64 62 68 91 73 92 75 84 95 79 85 53 72 63 99 64 69 80 61 94 87 65 96 75 75 87 67 89 90 54 65 84 
98 67 57 82 89 66 57 91 51 63 91 83 98 60 70 75 73 64 69 85 64 80 96 50 72 96 62 94 91 91 76 68 60 50 78 82 74 87 81 78 
92 65 63 53 76 54 75 78 68 73 50 84 83 56 60 95 88 92 82 83 75 71 50 94 52 91 69 96 63 99 52 51 82 64 77 73 91 88 54 95 
50 65 84 95 68 53 54 60 91 89 98 63 79 51 50 55 62 89 87 58 66 57 84 58 95 99 50 51 61 61 84 69 54 51 51 79 88 52 93 99 
94 64 52 87 75 77 70 79 94 54 86 75 74 51 94 91 51 60 94 72 62 79 70 98 86 69 94 69 70 72 69 66 91 63 87 90 52 98 78 80 
64 54 69 96 84 50 71 64 58 85 53 79 83 75 52 78 59 55 64 88 72 68 65 70 54 87 90 79 90 90 99 66 69 93 98 66 57 77 88 87 
75 58 71 89 64 91 68 70 78 69 92 53 51 58 63 98 66 82 71 66 95 67 53 70 99 94 96 66 77 66 64 90 71 63 58 83 82 60 93 87 
89 51 55 84 65 83 59 64 88 60 82 51 82 66 60 57 75 62 55 70 64 51 65 97 76 97 87 83 86 61 78 63 63 81 85 98 54 86 63 50 
90 60 53 61 68 70 96 54 59 90 71 57 77 97 80 99 58 82 60 60 55 79 65 77 87 51 86 97 87 66 90 67 94 83 77 58 78 50 99 60 
57 90 98 50 86 76 52 62 78 70 90 60 92 53 69 56 72 54 63 63 90 57 92 60 52 90 87 66 74 83 53 62 66 53 78 76 84 89 72 97 
94 82 61 75 62 66 78 61 76 94 55 50 97 54 60 77 91 76 76 77 78 83 84 67 61 73 88 52 77 74 70 88 75 92 89 82 62 97 73 62 
98 60 88 55 69 99 88 95 81 64 51 91 64 57 59 82 76 60 67 71 62 73 71 86 59 65 80 77 80 63 64 75 76 61 87 55 61 67 61 61 
91 92 82 96 51 96 90 88 60 56 68 80 50 60 71 80 66 91 64 63 75 54 75 64 77 78 53 91 68 59 92 60 65 54 68 94 97 94 79 68 
99 53 57 62 61 66 79 89 83 72 81 75 50 88 98 73 64 90 61 61 96 63 73 76 70 74 90 68 76 65 86 88 75 66 53 90 63 71 83 87 
62 69 53 86 77 94 83 74 68 69 86 62 66 81 75 51 78 86 94 92 88 94 97 96 78 94 56 54 96 98 56 65 94 91 92 80 65 78 68 62 
81 74 77 95 75 56 59 77 84 97 51 75 50 97 78 81 78 88 89 50 53 55 50 50 80 59 76 76 57 86 82 70 56 83 71 53 81 83 57 88 
80 54 88 79 55 93 52 95 82 86 82 88 93 69 58 71 90 51 69 59 87 66 89 88 96 80 81 50 75 53 91 50 60 92 67 94 90 64 92 64 
77 98 93 80 56 78 51 71 56 91 55 59 53 95 63 69 84 80 84 97 59 81 92 81 76 66 85 94 70 94 55 78 78 70 53 65 90 51 90 53 
90 58 65 69 98 71 65 65 54 67 83 96 58 53 64 96 92 77 55 67 60 72 66 55 65 58 88 75 59 58 99 63 64 63 69 64 90 81 79 69 
66 78 71 50 51 56 61 53 81 82 71 87 88 99 50 98 51 71 91 59 95 66 66 60 83 87 87 90 84 99 61 84 61 89 72 70 62 82 80 58 
57 79 70 65 94 71 70 84 94 55 51 96 50 73 78 73 62 66 50 80 50 89 74 73 90 62 81 79 68 76 98 75 66 62 70 98 61 75 98 89 
68 79 58 80 65 97 80 54 89 75 87 55 93 59 76 74 53 66 74 86 79 88 50 66 56 93 59 72 75 76 80 81 72 77 88 92 55 61 98 91 
99 57 90 58 91 96 85 62 75 74 87 67 62 92 74 60 78 71 57 58 85 59 64 55 93 56 84 77 97 94 61 52 76 79 87 55 94 85 71 73 
99 50 74 92 50 66 99 52 84 58 89 57 51 63 74 62 58 88 80 89 51 57 62 95 70 94 82 62 71 52 83 97 92 98 62 85 60 84 53 80 
54 61 75 85 52 69 93 55 86 88 70 66 60 91 53 55 79 89 61 99 95 93 70 73 57 98 82 83 53 77 83 52 72 92 65 77 87 98 69 81 
76 75 72 69 93 71 69 59 61 51 94 68 52 69 57 72 55 93 62 68 89 87 65 51 54 68 98 71 99 98 75 93 94 90 66 86 74 88 55 62 
94 89 88 90 91 85 54 60 97 58 65 56 86 73 89 56 56 53 56 53 53 96 87 93 81 92 56 56 63 92 57 55 64 59 69 75 53 70 53 95 
85 72 98 56 63 89 83 71 84 73 56 74 68 84 88 61 87 64 85 95 75 96 83 90 92 94 72 70 88 73 97 96 57 71 62 70 94 60 84 54 
60 87 54 89 77 98 55 80 95 56 76 66 72 78 96 61 94 61 96 92 84 93 81 98 52 74 62 89 55 62 77 56 85 76 73 69 79 62 98 99 
66 77 85 98 75 87 55 88 64 50 95 55 90 75 84 67 78 51 51 62 89 53 77 81 62 96 89 64 97 69 53 53 87 61 73 97 52 86 88 63 
65 60 62 81 75 77 76 81 52 82 90 71 51 98 78 80 51 89 94 79 82 82 68 54 85 56 62 85 73 84 84 84 93 82 87 56 79 90 80 65 
86 74 87 74 82 63 94 74 77 78 73 59 64 94 65 67 53 54 65 90 99 96 53 61 95 89 68 80 56 79 85 92 93 76 52 95 55 84 53 84 
58 69 64 63 50 68 51 96 72 65 85 61 76 71 84 57 52 77 75 83 92 81 86 90 58 53 88 57 56 57 58 82 59 96 61 66 72 84 58 78 
65 65 65 84 57 87 72 60 93 50 94 63 54 68 72 51 93 58 75 90 84 88 84 62 75 72 80 75 67 80 76 54 96 88 83 53 88 52 72 64 
73 85 91 57 77 51 80 94 51 57 53 68 84 73 61 67 56 70 65 89 88 76 98 86 60 83 98 69 63 91 55 62 53 65 74 54 93 68 50 79 
73 72 83 91 61 85 89 91 74 88 93 92 85 50 62 89 58 68 52 77 85 50 70 66 66 56 90 84 53 76 71 50 95 96 76 74 76 92 51 94 
66 50 76 90 62 62 80 54 61 81 81 66 59 69 73 59 72 64 56 53 98 73 74 61 79 78 86 64 56 56 61 71 79 66 59 50 87 74 51 54 
82 71 64 72 68 91 71 79 74 54 93 80 65 80 87 53 56 65 85 82 53 97 75 59 67 82 58 84 54 63 51 91 63 78 62 64 50 95 94 72 
94 66 50 53 84 97 85 59 76 80 53 82 75 58 66 64 82 67 76 97 74 56 53 63 77 50 86 74 51 86 81 74 50 52 68 82 59 56 74 58 
68 50 94 95 74 78 63 69 70 73 70 80 96 66 83 52 98 65 77 80 96 84 66 71 55 93 77 80 52 57 82 92 51 58 57 87 79 91 63 62 

68 50 55 64 83 64 50 74 55 93 98 87 94 72 86 82 54 82 79 85 82 71 57 59 87 81 94 94 56 56 52 74 97 84 95 97 67 82 52 59 
57 90 70 51 75 50 89 97 67 68 88 65 53 86 93 71 79 66 90 58 67 86 55 94 69 76 58 82 53 81 61 56 92 71 72 90 62 66 68 88 
96 58 81 67 78 83 92 58 70 50 58 58 97 85 70 83 63 77 88 70 50 92 97 65 96 96 89 89 68 73 52 72 79 58 78 85 56 85 79 99 
60 78 51 96 57 80 88 96 79 57 90 66 75 51 86 92 58 68 98 83 91 67 82 54 99 90 94 97 75 61 59 57 73 75 79 74 62 70 99 65 
79 82 50 69 71 50 77 91 75 62 68 78 66 62 86 85 68 98 98 72 89 62 90 75 74 73 64 83 76 88 58 94 98 92 50 72 99 64 58 92 
89 71 89 56 98 80 81 62 89 55 63 65 72 80 63 72 78 59 74 91 74 53 79 67 79 83 69 62 80 89 78 70 63 58 95 84 73 80 55 88 
88 57 98 65 78 86 81 79 87 51 83 70 56 98 87 77 57 59 82 68 83 70 85 69 50 50 71 64 66 58 75 71 66 65 68 89 77 52 70 51 
62 70 59 88 60 74 53 54 75 67 55 85 82 61 86 84 55 57 84 77 88 77 56 53 84 57 86 93 83 86 90 77 68 78 82 73 98 93 91 78 
70 75 96 97 87 50 93 78 86 52 90 99 88 69 73 80 61 67 68 59 61 74 79 71 88 66 78 56 68 74 87 77 57 70 66 62 92 95 58 80 
60 67 90 73 97 50 95 64 50 95 71 51 54 58 92 78 71 85 96 94 85 84 60 94 77 80 57 86 52 78 55 69 50 86 88 76 87 62 65 63 
98 68 53 51 92 82 76 52 88 72 51 84 61 58 84 78 78 60 78 95 57 63 53 71 55 61 91 70 95 60 63 77 83 93 55 67 54 52 93 96 
65 98 67 78 52 78 52 58 68 71 74 56 63 60 71 55 70 82 59 55 67 89 66 80 89 86 56 59 72 52 74 90 96 69 64 59 80 84 57 84 
75 64 73 62 54 83 92 91 54 85 86 93 60 83 58 67 56 57 70 78 94 68 87 50 80 70 79 51 76 55 88 98 93 55 85 99 69 69 93 66 
58 99 86 71 50 73 76 88 51 56 71 91 83 67 67 77 86 69 57 56 71 88 57 54 63 51 77 55 66 67 51 99 79 72 88 75 64 58 74 65 
56 71 98 91 56 99 50 76 79 99 92 96 99 88 87 89 78 82 95 93 85 85 72 59 81 64 70 53 73 60 72 72 77 74 89 96 99 66 95 75 
70 97 65 63 54 65 81 91 76 87 72 52 68 86 88 64 59 83 58 74 63 88 82 80 94 93 56 52 91 68 71 87 75 57 92 80 96 97 81 69 
54 73 93 70 59 82 56 91 85 96 97 94 79 52 76 55 67 76 65 70 56 74 84 65 72 86 80 57 82 69 70 99 93 98 80 95 62 79 68 64 
66 81 85 88 96 96 72 62 82 90 85 60 92 89 51 91 55 88 95 78 82 68 96 68 51 78 91 57 98 58 59 99 90 55 94 50 78 77 66 63 
66 70 98 79 84 64 78 88 70 93 68 65 70 70 59 51 54 60 78 58 75 86 76 94 65 94 99 88 60 61 61 68 76 61 96 62 64 80 97 81 
78 97 76 92 82 96 72 99 84 92 62 75 97 86 57 82 97 51 74 97 98 56 68 70 99 82 61 50 89 77 98 83 59 65 54 82 78 97 64 78 
55 72 52 94 81 52 85 55 50 63 64 50 79 81 53 57 90 56 68 95 68 60 57 65 74 83 90 69 70 87 78 94 80 87 96 68 99 84 62 79 
90 59 74 66 93 57 64 68 55 62 88 83 67 97 74 99 50 62 80 90 91 53 51 73 66 65 69 96 70 82 92 86 98 52 58 91 53 74 99 73 
97 86 52 98 55 80 84 77 63 68 70 61 96 51 52 89 72 65 81 91 72 86 88 92 55 85 63 50 79 69 97 78 58 80 89 79 97 83 58 72 
95 76 76 74 59 71 54 54 96 72 73 75 62 76 87 94 52 81 94 77 77 53 80 53 86 56 75 72 68 74 51 67 51 79 69 53 70 74 87 69 
87 54 55 51 88 64 82 51 93 70 69 81 53 87 52 68 65 96 56 73 76 93 65 95 52 58 82 88 90 55 70 73 89 81 97 93 50 52 55 54 
64 95 50 88 52 56 99 82 84 79 63 57 73 91 90 98 97 84 89 69 60 71 68 97 67 98 96 57 62 59 88 98 85 95 93 82 98 88 60 81 
81 99 64 56 96 55 91 63 58 52 91 87 54 63 64 69 81 81 92 60 63 94 91 93 89 92 60 81 57 60 65 87 97 83 52 64 74 56 98 84 
67 83 62 94 51 96 60 69 86 67 78 58 94 85 69 66 64 80 95 53 66 81 86 76 64 85 63 90 80 89 78 68 85 87 99 61 74 97 86 85 
61 91 73 89 71 60 87 60 97 87 58 62 87 87 84 93 98 70 91 53 91 93 55 61 91 79 57 58 53 72 75 72 57 52 56 93 68 95 96 67 
93 65 66 85 64 93 71 87 95 87 69 54 93 91 85 60 60 82 55 78 95 89 93 81 66 93 85 83 62 80 97 85 83 83 71 75 88 81 97 96 
86 63 76 93 84 59 56 75 96 55 61 70 84 86 84 83 67 97 56 74 74 84 94 58 93 51 53 73 62 99 73 93 65 91 96 68 74 93 81 75 
86 91 56 83 80 56 64 94 80 71 67 82 74 70 99 98 92 60 69 59 90 80 91 86 61 60 55 75 77 64 78 96 77 66 93 84 89 98 74 51 
64 78 78 65 87 69 99 70 85 53 54 97 78 84 81 81 63 79 51 87 96 64 85 59 82 99 59 73 95 50 77 84 51 79 65 92 50 78 66 65 
63 68 80 56 61 54 63 66 67 79 66 59 58 67 65 85 79 80 62 59 74 81 69 79 76 66 74 79 71 95 85 78 57 70 84 80 82 55 58 56 
70 69 81 62 50 74 75 61 72 90 53 61 99 93 75 66 94 64 84 58 83 55 96 64 50 87 98 57 82 53 60 90 85 55 80 80 67 67 74 56 
74 65 90 83 55 86 59 96 88 99 98 70 96 58 64 94 69 98 72 66 56 58 70 67 67 54 92 61 80 90 87 85 98 56 53 67 54 68 58 73 
55 53 69 51 84 67 57 75 85 64 64 95 67 98 61 63 55 53 61 57 61 60 66 96 51 62 64 81 83 93 62 62 97 67 86 91 88 74 81 89 
54 95 78 64 97 95 92 82 62 93 56 54 55 90 95 86 61 75 98 85 96 87 56 55 71 79 75 84 87 95 53 65 67 57 57 98 68 61 94 69 
86 51 56 98 94 67 82 79 75 97 87 69 94 57 98 99 98 86 74 60 63 74 76 96 67 73 99 75 93 57 57 75 71 79 77 95 78 97 80 51 
66 72 67 63 62 71 59 57 83 53 61 62 80 89 73 60 50 93 53 79 89 57 75 52 84 71 96 77 58 74 64 66 74 55 66 55 60 70 65 95 

78 77 68 55 79 51 62 65 90 98 80 52 71 73 90 86 68 89 52 80 91 69 80 73 55 64 81 99 87 72 96 79 61 92 54 58 68 66 86 63 
72 62 77 96 95 91 70 71 54 72 98 58 83 97 97 88 69 52 51 68 69 86 58 65 80 78 91 56 85 55 80 56 56 81 95 86 92 75 67 71 
99 53 69 55 52 60 74 89 56 65 88 51 82 86 58 71 62 93 68 76 86 80 70 51 69 93 69 77 93 89 97 67 74 93 69 97 68 53 62 94 
93 57 92 55 87 99 77 77 50 55 93 55 68 95 68 58 72 91 66 84 72 85 84 93 58 99 96 87 65 69 81 52 59 80 58 62 97 93 72 56 
66 58 83 99 66 74 66 56 82 98 62 99 98 79 79 60 76 77 95 76 93 76 99 89 67 83 79 76 51 51 96 66 97 76 82 89 85 73 56 65 
81 67 80 73 63 79 51 75 98 87 98 81 74 83 65 74 64 75 67 83 98 61 61 62 77 88 85 94 84 97 82 97 76 98 87 80 55 58 57 74 
71 86 87 90 73 67 96 66 56 89 54 90 95 62 73 56 65 50 96 69 70 90 84 58 57 72 58 57 69 74 86 81 97 55 61 56 97 75 55 91 
76 86 75 70 63 71 98 83 79 53 68 75 78 73 65 86 88 98 66 86 63 84 60 94 91 71 77 60 98 65 92 90 88 58 89 60 72 87 68 66 
73 56 94 82 82 60 50 66 89 93 51 84 95 77 98 82 80 91 79 96 77 51 60 74 78 72 67 57 77 71 76 68 52 95 52 51 67 64 82 99 
73 63 88 94 52 56 84 93 80 61 92 96 95 72 86 54 79 96 66 77 52 69 92 67 98 50 93 50 71 72 53 81 73 70 57 91 87 73 93 72 
67 86 85 64 56 92 80 58 57 57 76 71 79 62 77 77 52 71 80 65 56 83 50 77 56 72 87 52 64 58 51 93 78 64 72 83 54 87 94 69 
72 91 72 56 87 96 94 99 70 81 59 83 99 77 84 97 70 99 54 73 94 76 61 91 68 97 56 90 93 84 74 64 61 96 85 82 56 62 92 58 
68 55 62 66 73 62 96 52 87 62 84 94 84 55 92 96 53 82 70 91 53 81 96 71 52 62 70 87 76 71 59 51 71 92 82 74 72 73 93 74 
68 96 72 61 72 66 50 60 99 92 56 94 60 50 90 97 93 75 72 72 73 51 73 86 96 55 93 76 86 74 96 51 87 95 60 78 86 76 82 83 
78 97 96 64 85 62 76 90 96 57 83 97 96 69 56 82 79 61 55 80 93 72 85 73 59 90 76 57 75 96 81 91 63 58 56 98 71 66 90 91 
92 72 61 75 92 96 80 56 99 88 95 54 69 64 54 94 83 67 74 55 90 87 71 85 93 66 87 57 57 87 93 96 85 93 99 76 97 97 79 97 
70 90 64 87 89 82 91 86 53 79 65 55 96 68 75 62 90 57 96 97 81 91 83 59 88 65 93 55 92 75 63 70 58 78 88 77 69 66 75 98 
82 60 54 69 57 97 95 93 84 57 53 50 73 57 66 82 58 64 50 55 67 82 72 50 96 93 82 57 78 84 72 78 61 87 54 74 73 91 84 50 
92 90 99 93 85 81 78 81 59 63 80 87 77 67 52 56 74 63 69 86 96 80 75 90 52 92 65 69 55 54 55 91 53 64 59 71 65 67 56 97 
98 67 58 76 53 93 89 60 90 88 56 54 65 58 55 85 65 76 86 87 81 85 93 92 64 85 75 50 96 96 87 89 95 94 75 91 87 96 77 97 
51 66 76 73 61 62 57 87 98 81 92 74 90 92 79 74 82 97 95 78 57 70 80 88 51 53 92 69 88 89 95 71 97 79 92 54 69 66 59 77 
83 85 97 55 54 68 96 98 64 92 87 74 54 60 76 55 70 92 70 81 66 89 55 66 60 73 91 88 84 87 66 54 52 84 64 78 55 95 97 73 
80 67 96 66 94 90 81 50 55 68 50 51 59 86 55 60 95 97 82 75 86 75 84 80 85 52 99 69 56 79 98 60 71 71 74 55 53 83 67 96 
68 95 95 62 60 93 52 93 95 74 59 63 62 87 63 96 54 98 75 90 89 69 80 71 85 92 57 67 55 54 96 86 87 88 61 57 86 58 67 78 
98 69 70 89 53 81 82 63 53 80 60 60 66 68 92 51 56 98 66 97 61 94 83 85 55 71 68 56 80 95 92 52 97 82 65 70 80 62 61 86 
86 55 92 94 96 73 57 79 53 70 93 90 65 94 82 86 96 93 95 78 61 72 70 84 68 65 73 80 86 76 93 64 80 88 63 97 97 62 56 54 
62 67 83 61 72 91 97 61 97 55 60 56 78 78 58 76 53 57 74 61 99 52 58 51 87 73 82 96 72 64 55 50 74 67 53 87 98 52 66 96 
65 68 54 52 96 53 56 85 74 93 82 53 96 81 75 55 93 56 71 61 85 71 56 63 62 52 93 74 64 65 84 52 64 96 92 52 57 97 73 52 
52 98 76 86 99 71 60 65 64 82 96 58 62 93 73 60 88 67 76 53 94 66 97 60 80 79 94 72 74 97 58 90 89 67 73 68 93 93 70 50 
50 87 76 68 80 82 92 68 91 95 86 98 78 56 77 69 68 87 53 64 64 98 50 86 77 87 89 80 85 97 50 60 53 55 67 63 50 86 97 81 
99 78 60 91 96 86 82 60 70 51 76 92 55 51 68 92 86 61 93 72 55 55 84 55 77 74 77 62 87 76 96 77 84 92 60 90 86 59 93 64 
52 58 97 55 73 78 54 58 67 51 73 69 98 88 92 56 54 73 71 78 69 87 57 81 83 53 82 68 99 56 86 73 64 60 75 81 57 62 92 70 
51 72 65 99 59 65 86 53 98 75 66 51 91 73 73 67 99 60 78 79 57 78 55 77 97 90 90 95 68 91 55 87 78 98 84 90 96 90 92 79 
69 61 83 90 57 93 60 50 64 68 98 77 97 50 84 81 73 90 67 80 95 66 96 72 60 92 57 76 79 64 80 66 94 66 83 62 51 90 95 89 
69 94 77 92 52 93 51 95 77 95 70 84 92 67 90 74 79 82 65 59 95 97 89 74 96 67 85 51 69 68 64 85 76 55 96 81 56 50 90 68 
68 62 96 90 76 94 76 88 90 54 54 52 80 99 79 86 68 52 64 53 63 72 98 96 50 97 52 55 67 89 64 56 88 68 85 88 55 67 84 80 
79 94 67 66 95 94 84 79 58 98 90 88 79 78 80 61 78 96 71 78 72 85 68 88 85 91 70 55 50 94 89 97 89 92 56 61 76 99 84 58 
53 53 74 81 86 65 80 90 65 65 57 75 90 87 90 79 62 53 73 91 54 86 66 73 51 54 58 98 88 59 92 94 60 74 78 66 81 76 75 65 
52 89 72 75 85 61 90 55 95 66 78 52 62 86 89 53 96 52 93 94 53 66 84 63 65 56 62 97 78 77 96 75 79 61 77 84 84 95 81 54 
94 99 77 96 70 58 71 50 95 66 77 95 95 72 99 61 77 59 54 77 59 99 84 71 55 89 65 86 89 57 74 74 73 55 64 70 88 72 93 91 

88 76 79 64 83 67 93 80 91 82 93 96 52 52 79 88 93 86 88 70 67 89 56 62 55 92 87 92 57 64 63 88 78 71 75 58 91 83 99 75 
62 73 67 99 97 88 62 91 64 73 76 72 58 92 67 99 90 62 76 69 90 55 88 69 57 57 85 72 73 54 86 63 64 55 85 72 67 70 91 85 
64 91 81 75 75 97 83 61 99 51 81 67 58 60 58 57 68 56 95 60 78 80 57 70 94 95 78 58 76 57 89 88 66 67 62 66 70 88 69 95 
89 61 53 69 53 85 89 54 76 95 55 63 87 97 77 93 71 92 91 91 59 80 85 50 76 50 95 88 54 60 73 82 69 93 70 74 54 96 95 88 
81 52 56 58 81 66 58 81 81 75 77 67 74 63 66 85 88 54 71 90 82 77 55 64 80 58 97 75 63 73 80 72 97 95 72 62 81 87 69 58 
60 54 82 58 98 77 91 63 72 93 65 62 97 72 96 55 75 63 50 62 89 76 52 71 88 99 95 66 60 86 76 52 50 95 52 80 80 79 73 78 
63 62 82 80 64 57 64 94 79 75 65 93 81 70 99 56 84 75 62 71 92 52 74 59 62 58 66 53 56 85 80 70 71 71 72 71 92 79 69 78 
53 56 63 62 62 85 51 99 53 91 64 71 79 64 69 53 62 97 51 73 50 58 59 81 53 99 68 81 66 56 58 87 67 87 65 68 60 59 50 54 
81 65 63 51 84 67 98 68 82 86 88 79 59 84 87 70 78 67 83 71 78 99 73 72 91 70 78 98 69 59 67 73 91 73 71 82 85 57 58 51 
89 93 56 89 80 64 93 94 62 83 63 78 97 77 77 75 55 77 67 88 58 68 64 63 77 75 85 81 51 83 50 66 83 50 59 79 83 65 77 82 
90 59 72 72 80 67 51 59 62 50 74 54 67 87 91 53 91 99 58 66 55 90 98 93 86 71 76 65 72 84 99 63 82 58 82 59 68 73 71 94 
82 94 70 61 84 89 91 94 57 70 74 73 63 89 92 74 58 97 57 98 84 62 86 80 87 85 56 94 99 85 95 97 54 66 70 96 94 56 68 97 
65 75 60 86 64 77 69 71 59 90 57 91 99 96 99 71 51 99 63 90 89 62 73 66 86 56 75 94 54 98 82 92 67 78 67 51 64 92 86 70 
79 83 62 75 59 84 99 52 69 71 63 59 79 98 83 73 71 74 76 65 75 88 53 65 82 76 73 50 80 59 84 78 52 82 95 83 83 68 80 67 
74 74 92 73 80 73 76 73 88 95 63 92 99 51 78 70 95 77 78 67 95 61 61 56 66 54 91 60 65 86 83 72 73 69 64 79 65 82 98 53 
88 56 64 97 76 72 87 59 54 85 88 65 91 71 78 66 87 58 85 56 99 82 61 66 65 65 77 94 64 62 75 57 77 97 83 52 60 94 88 66 
54 52 66 59 62 54 52 62 77 56 86 88 71 97 55 69 93 64 67 73 69 87 88 68 78 52 91 81 96 93 51 59 75 58 70 50 91 88 74 67 
79 80 93 72 61 93 83 62 83 87 64 68 53 55 84 52 95 68 68 59 92 65 82 63 53 88 70 86 88 69 98 54 57 81 54 95 83 64 68 93 
70 73 66 62 92 58 80 62 70 57 71 74 57 58 90 98 88 98 96 71 63 57 72 60 62 56 81 96 65 82 88 77 80 96 74 98 56 89 94 64 
66 71 79 87 73 63 60 72 76 64 92 96 82 71 63 56 86 64 51 57 98 53 61 53 90 65 58 82 87 97 91 86 70 54 84 94 94 94 83 91 
83 85 86 69 57 54 55 84 51 65 99 68 96 74 90 84 71 93 70 81 57 97 84 65 82 67 50 88 60 66 85 58 98 56 81 57 91 97 51 57 
83 68 60 58 78 73 80 99 79 53 66 65 80 79 87 69 99 94 52 65 92 82 98 75 66 98 88 86 55 96 84 73 67 52 86 71 89 99 50 97 
73 84 86 58 68 70 95 87 94 52 66 94 78 50 99 77 59 74 55 72 81 68 66 98 70 63 93 92 52 66 50 91 96 99 88 83 69 70 76 54 
68 95 67 76 99 59 63 52 65 87 91 58 65 62 83 60 68 94 61 67 85 65 85 51 91 98 74 59 99 50 50 77 83 61 81 70 50 59 79 54 
90 73 87 99 51 83 53 68 85 52 96 90 51 72 82 97 97 63 91 55 99 80 55 66 52 73 52 67 93 84 77 90 99 68 85 84 65 71 79 82 
79 84 65 77 54 56 53 64 75 63 52 75 97 59 93 68 69 57 50 60 56 85 67 79 84 80 51 59 80 97 67 56 53 86 50 81 89 84 75 82 
95 95 53 91 61 77 92 52 54 50 94 95 75 87 99 54 77 65 62 72 77 52 75 74 83 58 91 98 51 51 53 57 97 69 99 92 94 77 72 60 
65 67 99 84 88 93 89 68 57 56 71 83 99 55 50 60 66 76 98 66 56 87 57 84 61 82 68 67 82 78 52 96 99 90 86 88 96 94 78 57 
97 86 87 88 94 73 64 57 83 88 67 97 56 67 94 64 69 77 52 99 98 99 87 99 69 98 99 91 96 84 75 70 66 80 54 90 90 94 55 51 
76 54 71 68 98 89 68 61 73 95 89 62 67 70 57 96 55 83 84 53 99 58 51 66 87 52 50 82 71 52 71 99 90 96 67 93 56 51 84 69 
52 51 69 72 84 55 94 54 59 58 52 74 61 58 88 81 58 73 88 85 99 88 74 66 52 62 94 90 98 62 65 60 73 90 78 93 52 80 81 82 
78 60 93 63 56 77 99 82 94 89 88 99 62 65 62 56 83 77 77 84 74 90 95 70 73 68 53 97 92 97 87 90 99 71 61 66 89 93 94 50 
51 75 60 65 97 69 91 58 55 53 90 64 98 71 55 66 84 58 60 70 66 66 69 86 86 85 68 63 60 68 70 62 91 90 99 58 74 97 58 80 
80 60 63 54 58 76 96 99 50 72 98 83 58 88 66 82 78 59 69 78 77 84 96 65 92 52 59 89 81 53 53 86 80 59 67 87 74 80 75 73 
91 69 99 69 58 84 70 67 80 97 55 62 78 98 63 71 91 89 55 85 98 63 54 76 62 85 97 78 64 60 72 99 85 62 62 87 93 59 61 74 
81 67 70 87 64 91 74 73 71 64 91 80 79 65 98 87 92 90 53 68 78 99 57 98 81 56 98 65 83 80 53 95 89 65 97 50 86 74 66 94 
64 96 60 64 77 85 81 75 99 57 88 59 68 81 76 54 86 88 94 73 84 82 61 58 58 56 87 57 56 59 55 75 73 57 77 92 73 84 54 84 
67 89 66 96 72 76 84 52 57 90 98 52 58 74 89 60 82 94 63 78 55 76 51 76 78 92 53 82 88 54 89 88 77 55 69 77 89 72 56 93 
92 52 99 67 67 55 79 52 97 75 63 57 85 97 87 77 60 69 73 77 91 84 50 77 61 84 83 60 71 85 56 60 59 57 75 52 96 54 97 51 
54 66 54 77 58 96 88 80 80 97 59 98 56 90 52 81 90 51 95 59 85 56 86 82 52 80 85 91 94 69 96 68 98 74 84 86 98 99 78 98 

75 87 77 95 84 98 95 53 58 55 55 57 61 84 52 55 65 90 80 84 54 91 82 69 70 78 81 87 90 71 86 54 63 63 54 90 72 69 88 92 
94 72 67 95 84 51 52 98 70 82 62 81 82 63 98 88 84 58 99 69 98 75 72 71 92 80 80 81 57 83 91 79 78 62 86 84 72 89 82 81 
70 58 73 60 78 87 66 86 65 90 71 62 63 79 79 76 82 81 80 58 84 51 74 89 79 94 51 83 63 68 78 55 83 51 95 50 64 76 56 93 
88 69 93 53 83 95 64 91 58 99 73 65 86 62 72 74 95 74 71 96 76 61 87 63 50 53 76 85 66 99 66 91 99 72 60 82 86 85 64 94 
69 99 72 80 89 99 85 95 95 95 52 87 96 65 55 53 75 95 54 93 94 86 53 70 84 64 94 59 73 56 94 77 89 55 62 51 84 55 69 58 
91 94 80 79 97 53 94 72 69 72 59 71 95 56 88 83 64 83 66 97 60 96 67 76 85 97 85 60 79 78 97 95 50 94 92 56 53 69 60 83 
78 55 56 96 92 54 63 75 60 83 87 70 71 55 89 95 51 74 86 60 92 90 89 73 55 87 54 92 71 71 99 80 68 86 93 54 95 74 50 83 
92 57 78 62 60 96 63 98 52 77 96 61 61 66 83 81 85 55 86 93 57 65 53 74 57 87 54 95 53 71 55 53 92 86 93 53 68 88 62 89 
51 75 72 99 51 71 67 81 86 68 64 81 79 94 62 98 83 84 98 66 94 61 53 87 70 67 55 70 66 85 94 89 67 83 97 93 64 73 52 75 
76 86 59 81 98 71 56 76 99 55 81 78 79 98 99 98 81 55 87 65 99 65 69 98 59 68 98 66 96 55 88 92 77 59 98 72 95 78 97 82 
62 81 95 76 61 58 61 88 99 95 73 80 50 90 56 60 60 73 64 61 61 74 93 81 88 91 69 53 97 71 82 95 68 50 51 97 63 93 89 51 
62 53 74 59 66 73 57 88 80 86 93 70 65 76 80 88 56 68 98 54 73 55 70 97 89 66 90 53 86 52 84 59 75 80 98 59 77 88 84 81 
65 64 89 55 91 96 79 82 51 96 85 74 90 82 76 69 84 55 69 71 61 64 97 95 87 86 89 98 93 67 56 75 60 79 74 94 93 90 93 70 
70 87 95 78 87 85 69 81 80 75 81 60 84 76 64 59 51 72 53 86 97 59 81 77 97 88 83 61 72 90 55 65 94 52 50 70 62 59 50 93 
58 99 86 99 96 80 95 58 72 65 72 97 79 91 55 56 69 99 57 66 90 64 63 71 79 64 75 95 85 63 80 58 63 68 71 66 95 69 66 81 
80 67 74 91 93 50 84 74 88 56 83 87 99 84 96 66 67 58 92 53 67 78 81 52 57 74 61 76 89 80 74 54 50 86 70 94 91 60 76 74 
56 98 85 80 81 77 58 68 70 62 77 90 88 83 99 51 82 97 90 80 78 93 92 62 72 65 55 58 74 77 66 87 84 83 84 60 71 75 66 74 
96 91 86 66 76 53 87 66 68 50 90 72 59 62 73 77 98 81 67 83 80 83 81 55 66 65 82 61 66 50 51 69 76 76 97 62 61 96 71 94 
98 79 99 55 72 63 66 54 77 62 64 82 70 96 51 75 50 85 80 74 79 83 56 51 78 97 75 56 60 83 93 74 71 63 81 58 89 82 94 90 
83 53 65 60 72 78 95 96 89 50 74 63 88 91 52 97 69 65 75 55 88 67 76 72 66 56 87 94 94 73 91 72 79 79 75 62 62 62 58 71 
90 66 69 57 57 60 94 75 61 94 85 74 56 81 53 51 92 88 91 77 96 60 82 93 89 88 81 72 62 63 55 85 81 95 72 83 97 91 74 72 
70 61 67 63 66 86 85 98 89 67 60 51 64 92 62 74 82 66 64 64 56 61 63 77 88 74 86 51 54 82 93 69 84 59 64 60 70 53 87 77 
58 67 78 62 88 71 52 80 68 89 59 87 86 53 96 84 99 64 77 90 60 97 60 85 93 89 61 67 88 65 85 88 93 95 98 90 82 99 95 63 
52 53 64 65 93 81 55 59 91 51 63 62 85 74 50 99 83 53 97 68 62 79 79 53 69 91 62 69 73 77 55 73 94 68 69 57 59 98 61 90 
70 94 92 78 77 98 94 61 72 59 70 62 96 56 80 92 63 52 57 99 60 89 56 81 69 95 68 58 71 93 93 68 92 88 86 79 79 73 91 63 
67 81 62 53 68 63 71 57 80 88 68 87 73 67 58 76 62 94 78 73 55 50 83 50 94 65 90 75 80 96 68 74 67 78 54 73 73 87 70 65 
56 51 80 74 67 82 75 55 93 89 54 66 90 54 71 70 86 94 66 68 72 65 89 79 76 91 74 52 57 71 60 76 85 62 73 95 73 81 91 62 
91 87 72 51 61 55 73 82 84 99 85 92 61 98 81 66 72 91 91 71 70 92 91 79 95 52 87 81 53 66 92 72 58 71 83 81 87 68 98 64 
99 88 68 76 57 56 79 63 98 59 76 77 53 54 79 58 80 88 77 63 56 68 71 76 72 62 83 74 98 92 96 89 50 85 69 75 86 62 69 95 
90 63 71 87 89 52 81 59 59 78 67 99 63 73 57 75 82 58 57 58 97 78 89 58 95 54 89 59 78 82 89 89 96 95 67 96 52 61 72 79 
89 92 78 93 66 62 57 50 64 92 91 65 78 75 99 69 66 90 75 56 88 86 62 68 58 64 88 90 57 72 98 76 54 61 76 57 67 59 90 84 
53 57 53 70 95 81 64 88 50 82 71 99 81 58 74 62 91 65 88 97 86 93 89 74 50 98 75 75 57 68 55 59 63 94 92 53 77 78 61 84 
63 96 93 91 87 63 64 97 72 96 79 72 93 79 99 71 91 63 85 70 82 68 56 70 88 86 86 78 58 94 71 92 58 60 71 86 99 78 86 97 
84 62 53 65 75 87 58 73 80 93 57 78 69 96 54 71 60 57 64 83 60 89 76 81 96 75 88 76 75 84 72 83 76 79 69 71 56 71 89 65 
72 91 88 95 65 93 82 82 68 54 66 71 52 50 71 81 81 85 83 87 96 76 68 97 65 75 89 79 87 59 86 50 56 90 53 69 63 51 54 96 
67 56 82 61 91 98 95 59 75 50 76 95 96 63 88 67 72 59 77 89 61 85 57 85 87 62 73 77 78 61 59 86 76 51 89 84 51 77 96 67 
99 62 62 67 67 81 92 63 76 96 60 61 86 61 62 83 89 72 56 72 77 87 88 91 74 87 81 63 56 50 57 78 77 79 63 55 78 74 84 80 
73 69 71 94 67 76 57 52 71 78 80 76 68 63 93 89 83 68 83 66 68 78 61 53 62 95 87 81 66 98 70 53 63 97 82 81 60 98 99 76 
72 55 69 97 79 67 77 81 71 84 88 93 57 74 59 62 82 91 65 54 97 61 97 98 69 82 60 66 99 79 75 88 72 83 60 78 90 90 53 68 
93 81 92 70 69 54 62 81 66 69 90 61 94 94 52 75 84 53 99 62 82 99 76 54 59 74 87 78 61 76 77 71 83 82 93 87 86 77 79 74 

61 88 65 78 64 94 65 62 51 61 98 67 57 74 63 91 72 77 90 76 90 59 77 94 98 72 50 92 64 95 83 93 82 99 92 99 93 88 99 63 
78 72 50 87 69 74 63 62 67 57 75 99 50 74 90 56 92 96 92 73 68 55 80 53 70 78 61 50 95 71 95 81 71 67 64 80 58 58 89 74 
56 89 75 73 58 71 71 73 89 88 67 71 78 58 92 99 94 69 71 74 53 79 83 83 95 53 77 55 52 76 97 94 84 97 72 73 72 64 78 84 
99 50 99 72 68 58 69 82 82 74 50 58 65 64 97 62 59 86 72 90 91 71 84 54 96 57 70 93 50 62 59 81 70 94 89 63 88 72 54 50 
81 61 62 53 89 64 58 97 86 75 66 51 54 66 97 62 77 55 85 55 74 83 80 97 89 55 53 94 52 90 59 85 55 78 71 66 82 84 56 87 
58 88 84 97 61 52 72 58 67 97 52 83 52 63 94 88 64 93 57 61 78 95 60 94 93 97 81 56 69 67 93 53 65 90 83 74 96 59 82 57 
70 60 91 67 76 73 73 70 56 65 61 79 57 76 94 57 62 56 72 94 51 55 99 95 90 74 94 58 72 91 55 80 70 67 94 58 83 64 85 55 
73 73 65 98 93 55 52 97 57 60 58 58 77 80 78 97 76 71 89 67 63 85 51 86 59 60 93 72 56 74 61 57 99 50 80 81 87 99 55 84 
95 53 87 78 70 51 58 74 70 50 78 78 98 60 92 65 79 84 66 78 89 76 77 92 60 96 98 62 72 69 94 59 68 65 73 85 68 81 76 70 
77 85 81 86 84 55 66 80 84 85 70 59 54 70 63 63 64 71 61 56 55 62 80 66 50 74 95 79 90 72 50 81 81 93 92 68 67 50 94 98 
80 86 54 52 52 92 90 82 89 82 74 68 83 58 71 70 67 95 51 81 67 67 55 52 68 99 57 97 72 72 61 92 95 95 76 95 88 68 63 77 
52 80 57 55 64 94 89 51 67 56 52 71 71 62 98 76 83 98 97 65 74 96 54 53 50 81 85 94 92 66 68 58 73 71 76 94 62 69 52 65 
63 57 76 74 83 66 69 94 96 98 62 58 68 56 53 53 86 92 58 75 67 63 55 60 89 98 53 93 84 90 85 77 80 70 92 68 79 79 68 51 
82 79 98 55 66 86 68 61 88 90 72 57 65 57 55 53 69 95 57 58 71 97 72 67 91 54 91 53 89 99 99 67 56 51 54 81 88 51 91 57 
55 74 65 56 86 51 61 78 92 87 79 76 73 87 70 66 88 74 88 64 87 63 59 66 95 80 58 53 91 92 57 90 66 81 78 96 58 68 90 63 
99 57 58 50 99 87 64 80 88 96 74 51 65 80 88 68 78 61 67 88 71 97 94 81 81 59 92 56 67 64 53 91 56 99 96 95 81 78 92 69 
95 87 57 72 73 82 51 61 58 52 52 51 64 96 81 83 92 67 67 98 95 53 84 82 53 68 61 60 55 93 91 72 97 94 70 56 77 64 51 50 
53 82 65 88 67 71 50 85 56 72 70 86 79 78 96 68 94 90 95 61 78 54 56 61 54 78 73 63 90 56 53 73 61 76 78 55 86 84 67 80 
93 72 71 68 54 83 66 81 53 91 51 52 77 50 79 86 54 73 71 56 58 89 89 69 83 76 94 67 62 84 81 90 55 72 76 94 61 96 81 67 
70 89 81 72 81 96 90 82 87 70 62 52 92 60 98 98 97 84 58 57 58 65 90 79 60 95 82 67 85 73 79 98 62 63 83 92 87 60 67 60 
94 87 53 89 70 59 86 50 80 77 91 54 89 73 60 93 52 52 61 92 76 53 68 53 65 63 77 58 86 80 62 78 56 77 97 62 61 93 74 72 
50 86 57 65 92 54 78 70 94 54 66 73 99 78 54 61 70 76 61 59 52 70 87 50 93 66 95 95 54 72 59 68 70 76 98 92 70 90 78 75 
85 59 73 53 62 52 67 89 51 99 89 89 75 58 82 77 76 52 82 57 62 66 76 87 75 96 82 66 88 55 86 53 53 88 91 90 60 78 97 95 
61 52 58 95 64 65 50 93 51 86 75 78 92 56 84 54 84 54 82 78 50 92 76 74 88 70 91 92 52 82 68 66 51 79 67 78 65 91 95 70 
80 53 99 79 80 98 61 80 63 72 97 64 58 95 63 53 64 73 69 84 53 54 98 95 87 90 74 59 50 52 52 59 82 90 56 63 74 77 67 66 
51 95 73 95 77 90 93 95 73 58 92 63 61 84 95 51 78 96 61 94 72 77 97 65 71 91 60 82 84 93 58 95 85 65 72 82 80 79 91 84 
58 81 71 90 60 52 83 83 77 50 85 97 51 76 98 78 65 94 63 58 80 89 60 84 51 95 93 69 92 89 76 69 56 54 87 99 87 59 61 61 
78 60 99 70 75 53 72 60 61 82 81 62 66 51 89 86 63 93 98 73 68 55 67 83 75 56 52 67 50 99 52 68 50 88 79 94 63 74 64 87 
66 58 77 85 51 84 80 60 79 55 99 82 67 64 50 55 75 84 58 96 85 63 52 60 56 54 88 88 66 54 73 77 85 98 91 55 87 75 80 70 
75 54 65 76 64 74 87 72 75 54 98 52 85 67 55 97 53 50 80 80 90 58 74 81 91 67 57 72 96 94 81 87 67 66 84 52 71 66 89 81 
84 97 70 64 89 77 57 62 98 76 67 79 76 75 65 65 76 74 96 50 52 95 96 83 92 89 81 58 79 50 83 75 62 68 85 88 88 53 94 77 
97 73 87 62 62 76 80 93 66 63 87 61 94 55 57 58 65 57 85 58 97 97 86 58 97 81 62 71 66 96 56 95 80 96 56 77 56 66 81 71 
87 88 68 72 93 91 90 65 86 89 65 88 50 81 60 71 66 82 86 80 59 92 94 55 71 51 92 58 85 54 65 80 80 78 60 98 77 71 95 99 
68 65 65 73 59 85 90 97 51 94 76 75 51 85 52 96 73 74 90 89 64 71 96 55 74 84 58 57 75 91 88 91 72 64 75 95 97 76 53 91 
77 64 76 74 61 81 50 66 80 54 52 81 75 73 79 65 77 96 82 59 66 57 74 52 70 87 56 63 90 84 99 67 88 61 67 93 97 53 50 75 
70 80 75 89 67 90 66 58 70 60 77 50 66 50 87 96 59 80 62 70 59 63 74 75 65 56 88 56 61 85 99 52 76 61 91 83 52 69 80 92 
70 67 93 68 75 66 90 64 62 89 84 71 95 88 88 87 75 53 88 93 77 65 89 68 51 68 92 86 78 80 85 58 86 59 88 79 81 64 85 53 
91 93 89 55 79 92 58 84 73 56 73 73 73 62 59 73 81 56 99 93 85 57 57 76 76 80 72 87 85 93 72 79 88 80 80 51 83 68 77 70 
59 53 92 94 76 60 79 99 79 81 82 59 85 77 63 66 60 87 62 64 67 74 56 56 53 89 54 53 93 82 85 80 57 61 71 55 79 75 59 82 
60 90 80 96 76 66 63 91 62 92 89 60 78 78 77 94 59 71 67 71 55 92 97 72 86 99 80 68 87 97 67 53 85 53 75 96 65 99 89 62 

73 83 98 85 62 90 67 60 93 85 85 61 81 61 58 75 92 57 67 52 84 91 63 52 80 63 65 84 58 63 93 61 82 96 99 96 69 74 76 94 
71 71 52 77 52 50 76 95 85 89 78 99 55 92 86 92 76 67 59 99 83 90 89 75 60 74 82 69 77 58 84 74 61 73 77 80 85 90 83 71 
63 71 66 96 55 65 81 55 61 64 81 82 66 80 81 65 64 81 73 94 92 54 65 57 73 68 97 95 81 51 51 67 73 98 51 76 72 53 56 79 
53 92 69 70 99 52 52 76 67 55 53 59 62 54 94 55 97 98 50 64 70 86 72 87 94 56 81 53 50 98 89 72 91 73 76 89 71 85 66 59 
58 53 69 67 88 54 85 84 93 66 68 57 68 92 69 96 59 61 72 73 91 52 90 88 78 53 99 78 98 86 65 71 80 86 83 76 91 76 93 95 
96 61 99 70 88 54 91 83 89 98 81 58 92 72 85 73 56 95 51 92 51 74 59 76 70 53 96 83 85 71 95 95 94 60 89 54 92 93 53 90 
64 66 65 59 88 60 90 61 85 92 52 79 87 74 97 97 76 67 83 55 81 68 99 84 67 93 73 57 62 67 86 56 69 77 69 62 73 63 79 57 
71 57 83 89 65 68 87 87 58 73 97 93 62 55 85 53 61 85 62 63 72 61 88 86 54 72 56 60 91 89 86 99 68 66 59 60 57 84 79 70 
84 80 88 59 68 97 69 80 85 67 83 66 99 64 54 51 89 87 64 53 79 89 70 56 50 75 51 80 80 85 94 74 79 83 83 50 92 81 88 72 
82 86 72 82 80 84 53 75 55 83 96 75 77 86 64 59 58 63 85 71 74 51 87 80 82 84 60 97 71 55 55 58 65 88 98 90 85 53 51 64 
52 77 56 95 69 60 56 96 83 84 90 88 95 73 76 71 79 58 69 76 91 97 62 78 62 66 51 64 94 50 85 82 95 71 94 63 57 98 88 53 
77 61 92 67 52 54 67 78 67 75 97 88 59 86 96 88 56 97 53 55 94 71 71 71 77 74 99 79 61 52 81 83 54 61 65 78 98 77 68 60 
96 81 99 97 79 83 69 55 59 64 74 63 93 98 99 56 51 66 74 92 98 73 98 64 89 69 99 55 66 59 84 56 57 60 69 98 96 65 79 79 
91 72 90 60 54 65 79 60 76 98 79 54 97 99 99 66 85 75 96 77 79 99 74 83 97 92 52 83 84 86 74 79 55 88 69 79 94 73 94 57 
76 90 67 97 61 89 71 73 72 63 87 61 64 52 93 60 68 98 83 78 52 75 75 86 88 72 60 56 82 66 94 62 51 60 64 72 69 76 73 80 
87 63 61 56 69 95 90 53 80 77 88 57 64 51 54 74 98 71 90 97 57 90 74 55 69 89 82 75 66 59 91 85 81 90 51 80 62 81 64 64 
57 61 61 54 89 97 68 64 87 54 87 91 58 66 70 91 83 56 90 64 67 92 75 99 59 91 76 56 59 69 51 72 72 89 50 90 64 86 61 70 
85 58 84 78 54 87 69 84 98 77 87 81 53 71 51 88 80 80 64 91 80 77 92 91 55 81 88 59 75 66 70 68 74 79 73 87 50 78 54 59 
84 75 52 90 51 82 65 50 52 84 75 91 97 67 54 99 63 67 77 83 98 93 77 92 99 87 51 96 90 88 68 78 64 83 73 68 65 56 84 73 
87 81 79 62 66 86 61 75 76 84 63 60 88 73 97 68 60 53 74 88 77 50 69 71 73 75 89 67 72 67 99 68 91 70 81 57 69 91 93 52 
97 69 81 99 62 54 61 85 81 59 85 62 84 92 81 74 65 89 80 60 53 90 73 57 96 52 62 51 84 71 80 93 93 50 53 87 84 91 60 61 
78 67 70 75 62 87 63 62 97 81 83 90 92 84 59 75 82 64 76 90 87 50 53 75 73 92 71 56 98 75 99 52 84 94 96 65 98 70 80 82 
82 88 86 52 57 66 99 87 64 88 99 52 69 85 90 97 62 50 53 71 95 62 62 85 59 56 99 61 51 62 99 90 60 78 82 58 72 91 87 52 
90 70 71 64 65 66 61 60 79 95 86 98 81 75 53 60 74 86 59 87 85 81 94 79 90 78 95 61 84 89 62 61 50 56 62 54 72 52 57 59 
80 62 97 94 53 96 82 56 54 92 69 53 83 57 81 61 82 64 63 93 92 62 83 68 53 86 91 82 90 86 77 92 71 50 98 70 59 60 59 50 
96 56 76 78 77 76 73 97 88 84 52 70 62 79 84 62 81 54 57 87 64 67 72 77 53 86 92 74 53 57 58 53 93 80 78 50 77 59 87 64 
89 71 81 85 88 52 97 81 96 78 92 51 52 86 84 66 88 74 59 88 50 60 88 67 67 92 69 89 64 99 52 74 89 89 53 91 59 64 92 63 
93 99 64 91 96 54 89 54 77 60 79 93 87 86 87 65 78 55 62 65 78 54 56 97 67 50 92 65 81 69 91 85 87 86 78 99 60 92 99 67 
59 92 82 89 50 64 75 67 58 64 72 94 90 55 57 76 60 97 81 65 62 94 61 74 94 72 94 71 63 60 88 91 87 53 85 81 72 97 95 93 
52 92 84 73 64 81 54 78 53 64 84 75 87 74 74 63 71 57 68 64 52 56 84 62 63 72 66 74 84 82 53 75 54 68 99 91 77 55 55 51 
90 64 68 84 75 61 50 59 79 72 63 96 80 80 61 94 67 82 85 67 99 51 61 72 63 63 86 77 83 57 81 62 66 60 83 72 64 98 84 94 
91 87 52 80 80 54 81 73 72 99 77 96 63 79 60 67 72 79 71 92 74 70 88 67 53 64 69 70 52 84 57 74 84 57 90 62 58 59 53 92 
59 83 74 95 70 66 52 55 88 96 56 76 85 89 78 81 77 58 76 97 73 51 75 73 79 85 95 63 98 69 64 85 98 70 83 87 67 57 57 93 
97 73 84 75 62 52 74 58 69 53 52 87 73 64 69 70 96 92 87 79 70 61 76 64 55 62 96 59 79 85 73 91 77 59 63 59 88 78 57 95 
84 68 57 95 66 74 69 71 79 82 96 53 94 69 91 86 75 90 54 50 72 67 62 59 99 73 65 57 70 83 96 70 55 80 69 71 90 75 90 93 
53 93 96 56 92 82 96 87 91 63 55 69 75 72 88 53 69 63 85 74 97 69 85 89 85 94 50 53 54 98 69 83 64 93 57 95 85 97 75 83 
56 77 91 54 92 86 54 97 90 79 75 97 51 64 55 64 53 63 94 77 82 55 72 71 87 72 85 88 59 62 61 89 76 51 64 82 95 87 96 64 
69 73 78 58 58 93 74 66 64 53 62 99 55 98 98 72 98 84 62 91 91 66 81 59 99 98 94 94 61 99 90 68 90 98 57 96 93 68 79 61 
88 68 58 57 81 52 51 81 62 81 98 85 63 88 97 73 89 99 98 64 59 51 50 57 95 96 78 78 66 72 82 87 59 86 84 90 56 71 92 57 
52 60 68 53 68 74 92 89 73 74 57 77 79 99 94 79 65 64 97 86 51 67 67 78 55 89 81 75 51 79 80 89 80 55 95 64 51 92 80 71 

80 87 96 73 58 69 91 87 60 60 52 82 66 86 73 87 71 64 92 80 65 68 74 86 86 68 60 93 98 97 67 63 73 97 82 81 61 57 82 83 
83 61 80 97 94 69 83 60 92 72 91 78 58 70 54 79 83 55 65 92 62 76 72 81 95 95 51 64 54 59 88 68 73 69 64 96 90 83 84 75 
91 73 51 75 83 72 61 82 80 57 78 90 86 90 67 75 71 81 77 71 67 96 80 64 54 71 88 96 65 60 60 63 58 54 81 60 82 86 81 62 
70 57 69 81 87 69 68 94 81 98 98 87 53 71 83 73 57 67 71 50 74 74 59 77 50 54 81 57 65 93 66 95 62 91 92 57 84 75 59 61 
50 82 96 90 51 96 57 65 63 69 56 59 80 68 97 50 82 82 74 69 69 51 99 92 66 50 84 97 90 59 62 80 88 64 60 90 81 56 51 92 
52 80 62 56 50 75 99 61 93 75 58 64 61 87 80 91 93 50 62 78 50 57 52 52 67 58 73 65 96 69 59 91 71 77 90 74 60 84 98 86 
57 50 78 86 85 69 97 65 75 78 75 51 59 89 98 87 75 72 68 94 61 83 94 64 69 75 70 73 69 61 90 88 54 79 92 51 56 60 54 56 
97 51 60 98 53 56 72 86 94 65 53 73 92 53 99 96 98 91 74 88 60 75 50 94 84 54 56 84 70 60 94 50 83 63 76 54 84 88 66 66 
60 69 57 62 55 73 91 88 72 80 74 54 82 98 73 54 75 64 54 50 94 87 53 75 79 54 70 75 62 84 60 73 99 82 53 61 51 99 97 75 
91 81 58 69 74 88 99 80 92 94 86 91 53 63 61 59 81 92 81 64 57 99 51 91 77 88 76 62 82 85 72 91 55 72 87 86 66 88 79 77 
51 60 56 75 77 74 57 88 78 61 99 96 77 58 65 68 71 74 53 83 50 67 92 54 63 71 70 55 84 56 78 95 97 66 71 67 66 87 61 95 
68 81 73 61 62 97 76 99 93 52 60 98 55 97 73 67 95 69 91 73 85 93 50 73 57 92 70 61 80 82 71 75 77 62 99 68 81 73 72 92 
74 90 85 56 81 74 89 61 99 54 79 52 88 76 76 52 56 93 92 79 63 84 86 97 71 97 67 53 91 77 65 55 81 78 87 92 85 98 84 96 
58 78 64 85 77 94 61 67 91 56 98 55 98 76 97 67 94 79 67 50 95 93 85 61 71 54 71 60 58 70 56 57 68 92 67 67 94 72 86 57 
63 53 60 60 80 91 62 88 87 77 50 66 95 76 53 80 68 59 87 57 61 72 79 57 59 98 52 54 84 79 60 77 73 89 62 79 93 72 99 78 
62 82 63 64 81 79 68 89 94 54 95 96 67 52 88 78 57 81 54 53 89 95 65 67 80 85 62 73 50 66 86 71 81 57 54 56 74 60 65 72 
61 83 88 89 60 50 62 73 91 94 53 89 98 77 96 72 64 80 87 82 52 99 67 86 74 75 63 68 79 98 85 62 83 71 70 97 84 83 80 81 
68 98 62 51 90 59 71 93 59 60 62 58 67 62 58 73 77 81 84 79 54 83 66 69 50 96 68 55 96 83 67 57 64 85 91 70 75 96 65 70 
85 77 99 83 94 97 90 96 54 76 75 79 79 83 97 84 70 96 76 62 82 77 52 64 55 65 98 65 56 65 60 86 91 86 92 98 90 61 84 60 
54 63 94 59 70 94 52 76 54 50 95 67 71 81 52 72 84 90 67 58 65 84 52 65 69 86 65 72 76 81 92 73 56 95 74 83 66 55 97 91 
84 76 65 86 84 68 89 91 67 86 61 92 57 75 57 93 74 95 91 76 58 63 86 67 51 85 92 61 63 60 84 96 63 94 77 81 61 90 73 57 
66 50 82 73 62 83 95 95 74 80 86 81 54 58 66 64 98 79 60 50 76 71 95 67 71 66 67 66 67 86 66 67 72 56 72 75 78 64 55 89 
85 56 72 72 88 58 52 77 98 89 65 70 78 59 53 98 73 97 58 72 83 52 63 78 83 60 79 78 97 51 67 61 80 73 85 94 51 78 70 93 
68 60 82 77 81 85 80 84 78 89 93 92 54 78 79 93 78 88 57 68 96 59 59 81 87 61 58 57 98 79 57 74 57 61 96 99 56 97 93 61 
59 85 71 70 69 65 77 66 66 86 81 88 72 74 93 69 72 82 84 53 51 63 84 84 80 60 59 78 66 78 94 77 73 53 97 66 68 50 94 54 
92 52 98 99 58 51 88 56 56 68 57 82 88 67 67 51 98 57 54 92 83 88 90 73 90 95 58 93 79 94 78 78 72 61 54 89 53 66 76 76 
96 73 52 97 89 51 88 83 74 93 97 98 97 64 86 81 61 88 70 93 58 53 90 86 57 50 94 55 87 64 81 70 89 56 78 87 91 62 53 83 
61 87 61 85 53 75 80 98 87 84 91 80 52 61 92 58 54 97 60 69 75 70 56 51 91 94 76 79 89 58 66 56 56 88 77 96 62 53 86 84 
69 75 67 96 88 52 83 50 77 87 96 88 89 52 71 51 74 50 51 71 61 79 81 84 79 52 93 69 92 66 68 68 86 67 87 57 66 98 96 80 
73 55 91 73 88 75 77 56 62 63 82 73 60 80 90 82 93 81 72 87 97 57 56 79 86 78 63 81 78 80 86 58 92 96 52 76 55 81 97 86 
83 59 55 63 94 96 89 99 50 78 74 52 73 70 76 93 87 52 74 53 73 64 58 54 69 83 96 74 80 94 71 78 62 96 64 84 68 66 58 76 
54 58 53 79 54 96 82 98 71 88 97 50 80 69 54 53 50 84 70 83 61 62 93 62 58 58 61 78 67 93 97 80 55 87 68 68 68 79 72 61 
88 57 60 75 81 74 62 87 99 71 70 88 90 59 80 70 62 88 78 81 66 58 84 74 78 98 62 68 53 87 53 75 84 77 52 97 95 91 50 69 
64 69 90 66 96 81 66 52 60 72 56 63 62 78 52 85 82 83 89 89 58 96 75 67 98 85 98 56 91 77 63 71 52 56 97 57 82 67 63 57 
88 88 71 64 93 97 73 52 89 67 66 55 65 75 75 79 53 53 64 75 84 58 52 96 89 71 54 77 86 84 74 70 57 54 53 61 57 94 52 56 
74 64 73 84 54 78 65 73 65 94 94 66 76 57 56 86 69 65 57 92 54 79 79 96 53 99 56 98 63 80 91 77 71 82 89 88 76 90 79 87 
70 84 59 92 86 73 70 88 69 73 54 79 76 64 55 84 91 67 68 59 85 72 81 85 64 97 53 69 57 77 54 98 91 94 82 63 86 90 87 67 
51 74 73 65 64 82 93 69 65 83 70 80 56 91 68 50 61 76 97 71 50 63 68 60 76 66 90 79 97 76 92 95 60 95 57 72 82 69 74 74 
74 64 53 81 82 53 93 78 98 64 72 73 51 52 91 85 55 88 92 78 51 81 92 58 87 66 71 75 56 96 98 54 65 95 72 65 88 55 81 77 
53 54 93 80 81 87 94 92 58 89 53 58 53 72 55 95 57 99 80 97 86 64 97 89 66 85 76 65 72 81 66 95 52 53 52 75 88 59 95 58 

