
2
7


89 62 
84 84 
97 64 
97 90 
97 78 
76 62 
58 64 


135 164 151 151 150 149 132 
147 134 134 153 144 135 128 
174 141 162 159 151 134 153 
155 164 131 147 135 162 130 
168 137 137 142 153 145 136 
173 144 164 154 125 152 125 
133 168 138 131 126 141 144 

139 156 173 171 155 132 138 
155 167 150 138 140 149 137 
141 131 137 162 138 152 131 
159 130 155 139 146 152 162 
142 144 159 166 158 142 133 
141 151 163 157 170 164 145 
164 170 125 125 159 125 150 


