
2
8


51 82 
50 87 
98 96 
75 73 
51 62 
51 77 
85 61 
83 93 


127 136 170 144 154 168 136 141 
138 146 160 133 145 145 129 161 
142 143 167 137 169 131 138 155 
138 146 138 141 158 174 160 161 
140 146 127 134 155 145 174 146 
147 172 156 150 129 136 173 168 
130 171 130 154 128 139 161 133 
168 155 152 171 128 170 172 130 

151 155 158 129 154 150 141 173 
134 135 127 128 163 149 169 141 
165 170 152 131 142 158 133 137 
154 147 125 172 166 134 162 168 
137 168 152 163 160 156 126 166 
125 139 154 159 165 146 125 137 
127 167 145 162 157 131 170 157 
128 143 130 157 174 166 132 154 


