5819
2
100

54 87 
71 79 
53 60 
80 85 
95 76 
53 78 
74 69 
92 80 
83 52 
74 68 
62 86 
88 65 
51 99 
72 84 
66 91 
85 64 
59 95 
67 74 
76 52 
82 67 
75 53 
56 93 
92 83 
63 88 
88 60 
67 86 
88 72 
91 94 
67 76 
66 80 
55 89 
77 87 
66 77 
73 57 
66 82 
56 95 
87 52 
96 94 
99 85 
52 68 
53 74 
91 93 
89 84 
59 61 
86 83 
73 88 
66 99 
60 66 
97 97 
53 59 
81 84 
90 77 
74 52 
91 98 
67 94 
54 61 
78 58 
72 89 
74 76 
68 96 
75 74 
91 58 
77 93 
89 50 
93 88 
95 96 
50 86 
73 66 
86 63 
63 87 
96 95 
74 80 
65 51 
70 88 
61 71 
60 58 
72 92 
74 72 
97 82 
99 96 
94 79 
75 99 
54 79 
78 64 
92 80 
64 75 
78 83 
82 95 
86 60 
61 66 
68 73 
50 54 
69 92 
59 50 
54 53 
94 60 
86 76 
52 61 
79 99 
54 92 

82 79 57 61 50 80 78 79 56 88 85 63 61 70 77 85 61 59 57 93 92 54 60 61 70 64 65 97 91 71 77 65 64 66 95 74 82 96 77 61 68 76 87 60 98 63 50 77 90 53 96 78 75 75 70 75 79 50 82 84 86 54 97 76 51 53 50 70 60 83 53 68 70 69 61 60 68 74 67 64 92 75 62 71 83 95 81 53 96 77 65 64 68 62 81 66 84 95 76 61 
86 93 51 64 59 88 75 82 97 83 95 96 84 91 74 62 82 77 80 81 82 83 73 70 93 66 79 52 72 60 76 79 95 93 72 58 65 89 79 53 69 70 84 88 58 73 91 76 59 69 76 69 53 99 62 77 77 89 89 67 95 70 80 57 81 63 95 98 94 76 65 63 85 79 51 70 51 62 51 94 67 77 76 73 56 76 86 85 94 68 63 91 83 62 98 55 64 82 76 70 
72 77 57 59 79 77 62 85 63 59 59 95 68 78 50 58 96 70 98 77 67 79 68 99 82 74 71 90 51 86 61 65 87 88 58 80 50 57 50 63 86 82 81 53 92 83 92 72 69 83 90 68 90 66 65 92 78 74 76 90 71 88 62 85 98 56 93 81 52 56 52 79 54 79 86 82 99 65 62 89 58 79 66 57 64 70 74 98 79 66 93 87 74 58 76 82 51 59 97 79 
72 79 67 59 53 96 69 95 95 86 73 62 94 75 78 60 98 51 77 65 72 57 76 59 99 98 53 50 82 51 75 93 83 66 90 62 51 85 91 71 80 68 59 95 95 60 87 68 87 88 81 80 63 68 56 84 76 81 67 71 69 90 63 97 68 73 55 88 97 98 89 64 95 83 86 85 84 91 64 65 69 64 68 84 80 91 86 85 76 63 65 98 83 64 75 53 92 67 54 55 
64 94 53 60 93 79 81 62 73 83 75 87 68 86 92 52 75 55 70 79 60 93 58 82 68 60 75 92 50 70 93 57 51 97 83 89 76 52 78 59 62 66 57 78 76 65 69 88 70 67 57 54 60 53 92 78 92 64 83 99 58 59 90 67 83 60 53 76 96 77 99 87 94 70 53 70 88 55 65 52 97 50 58 84 61 53 72 97 78 85 92 99 85 86 92 52 88 64 76 77 
82 54 99 87 53 82 51 85 58 66 68 83 91 84 88 84 77 82 58 88 56 75 60 50 54 62 64 64 78 52 53 87 62 83 53 90 67 92 65 96 72 57 50 61 95 81 62 66 68 77 53 79 82 98 90 59 83 59 64 68 62 72 86 97 63 69 59 78 99 83 79 78 97 99 64 93 98 75 52 57 66 90 67 75 74 64 76 91 51 83 98 82 63 91 63 97 67 79 95 82 
75 60 87 80 62 76 79 63 58 95 94 78 67 67 59 60 78 97 91 96 84 75 64 58 79 67 92 89 61 95 96 85 52 61 94 95 54 63 95 51 74 87 77 73 55 84 72 72 81 89 96 62 93 51 72 85 84 91 69 53 97 85 84 93 52 80 75 84 60 79 82 75 88 57 85 91 65 61 91 53 85 78 96 57 81 84 79 81 52 88 62 89 65 76 69 53 74 84 85 91 
74 92 91 80 77 57 60 77 99 81 73 79 78 70 89 66 55 88 51 64 65 74 69 85 98 74 58 68 55 65 85 61 99 86 76 69 92 88 77 67 62 77 53 74 96 83 77 51 81 55 87 57 96 79 93 53 66 73 96 54 84 97 70 76 56 72 69 87 92 73 58 64 58 65 86 92 94 50 72 59 70 59 92 76 55 99 61 60 96 66 55 65 81 93 99 76 96 82 72 81 
62 52 63 76 88 82 70 89 56 68 77 84 67 78 51 61 54 87 54 74 78 68 94 70 86 95 67 70 86 84 61 51 59 62 58 51 63 98 52 71 68 72 56 84 57 87 52 95 95 71 59 63 52 61 56 95 50 55 56 58 62 74 82 50 50 93 75 68 56 87 84 97 69 80 74 95 94 82 75 77 59 90 85 84 60 56 91 95 75 53 58 81 93 85 92 74 79 93 72 89 
75 71 59 79 52 80 76 58 51 54 85 76 72 58 76 99 56 82 81 87 66 72 51 73 61 92 95 63 99 74 85 92 85 55 90 74 72 80 86 67 99 65 65 77 77 81 65 71 67 73 91 95 95 72 91 96 89 86 93 74 84 86 96 95 78 72 99 53 65 58 50 97 79 56 69 56 76 65 57 98 81 76 97 51 60 59 80 65 66 88 79 74 55 85 50 90 72 96 63 86 
69 67 61 99 84 64 97 77 50 63 76 59 64 60 62 60 78 75 72 60 74 84 51 71 64 82 62 95 55 95 65 51 81 92 78 88 70 55 61 93 83 61 84 56 85 50 82 57 82 90 50 75 96 72 63 88 64 84 92 95 55 87 87 58 99 74 59 81 73 77 84 56 76 83 66 92 98 58 68 93 76 89 98 59 85 83 58 53 62 94 62 76 71 89 73 58 64 58 54 66 
87 96 50 50 61 68 78 93 94 70 75 61 84 75 52 55 68 94 93 60 99 57 70 56 50 83 94 94 84 57 96 85 96 97 57 76 83 74 87 60 82 89 95 66 66 54 85 54 78 57 65 56 66 77 65 87 63 75 85 78 54 97 91 77 92 70 86 73 76 62 68 91 95 92 95 84 50 88 89 53 93 66 56 87 92 63 57 58 93 64 69 67 64 75 51 79 70 92 63 60 
79 72 69 78 59 59 78 90 64 92 87 66 51 89 93 52 66 74 73 56 55 53 61 90 66 89 88 66 50 66 90 86 57 98 50 71 90 85 76 85 64 84 59 55 83 51 99 87 62 89 60 75 87 75 53 52 59 65 56 72 75 69 83 80 60 84 90 71 97 86 60 61 62 94 58 92 97 53 53 65 96 82 80 64 81 99 79 78 50 94 59 82 80 70 73 94 63 85 62 54 
87 92 91 59 63 51 61 69 52 99 93 94 65 99 68 95 96 94 59 91 69 74 69 63 73 53 91 59 93 82 73 53 88 59 91 87 66 92 60 64 66 88 94 74 73 82 60 75 93 56 87 80 67 71 94 53 63 76 97 74 63 55 98 88 92 54 69 58 64 59 65 96 88 53 74 75 87 60 85 79 59 87 57 53 79 62 93 88 93 90 94 80 86 67 86 76 95 92 51 67 
99 82 66 78 91 54 59 95 56 67 58 65 80 71 98 83 71 67 81 90 63 84 61 51 73 84 50 60 73 66 81 50 52 53 51 98 68 89 60 69 98 79 79 55 92 89 52 51 72 61 83 94 97 72 90 99 83 80 89 81 83 93 81 62 80 71 80 96 90 54 82 90 69 99 63 53 50 52 94 83 87 57 60 50 91 55 65 72 64 73 97 68 65 50 57 98 60 57 93 80 
84 75 99 73 55 83 59 88 83 91 72 82 84 62 80 71 85 75 51 80 61 81 63 51 61 51 93 90 87 67 51 87 97 93 95 91 71 97 76 65 51 66 67 94 78 74 98 85 69 64 68 75 69 79 53 57 96 53 99 69 66 56 54 53 76 62 66 53 88 52 70 86 91 92 87 57 89 87 85 50 67 64 91 67 50 83 55 54 58 64 85 76 81 90 72 67 89 59 84 61 
77 80 98 95 91 92 69 66 67 61 81 54 90 82 55 89 59 89 82 80 66 64 89 70 52 89 56 96 88 66 94 51 91 77 64 87 70 68 87 97 59 89 86 78 75 52 66 74 70 84 52 85 75 70 96 93 98 79 63 61 81 78 99 73 64 87 68 66 58 94 74 83 72 73 74 54 74 92 58 81 64 78 56 53 88 86 97 68 73 89 83 94 99 75 69 65 52 84 63 75 
83 80 84 79 93 99 65 81 94 83 62 95 71 61 54 80 52 57 75 55 74 52 91 90 74 55 50 94 72 66 84 53 66 70 61 81 97 80 66 73 83 85 86 81 64 99 88 54 85 97 86 67 65 73 77 57 76 65 95 91 64 84 81 73 80 96 54 94 83 54 84 99 57 89 78 61 53 89 54 73 99 50 61 77 89 98 99 61 93 98 78 73 98 86 69 68 87 81 78 58 
69 64 90 93 57 84 53 64 59 60 91 91 79 86 92 69 90 55 83 52 77 88 97 67 58 73 98 85 62 72 70 70 89 87 80 54 91 93 70 62 81 80 76 92 71 77 70 56 70 82 94 97 62 66 67 73 60 98 60 55 85 93 96 97 94 95 78 77 78 73 78 77 73 75 51 74 59 69 68 89 78 97 93 64 96 97 73 90 85 95 51 52 80 89 61 68 61 88 71 92 
51 74 95 76 85 80 91 94 56 55 79 85 52 52 93 70 88 72 74 81 96 91 92 86 96 50 69 63 71 76 81 50 60 54 57 89 52 75 72 60 98 96 66 88 92 93 99 62 76 52 82 92 71 98 68 59 97 80 68 55 73 83 91 91 60 85 55 68 82 84 51 72 59 54 59 94 69 83 56 72 51 92 92 73 67 83 95 98 78 86 78 66 57 55 69 87 66 85 52 92 
75 90 90 57 72 61 52 54 80 96 90 91 83 91 95 73 51 99 79 91 74 70 89 88 55 99 78 73 95 92 74 85 87 80 55 65 61 86 89 83 67 88 53 81 54 75 50 51 94 78 87 74 50 78 74 79 84 54 64 53 72 55 69 50 78 98 67 69 97 75 91 72 51 76 74 96 98 63 78 79 79 58 55 85 77 80 93 50 61 97 80 50 93 55 56 88 94 93 55 83 
77 72 67 55 85 62 89 52 61 99 65 90 96 64 92 75 63 77 87 68 80 79 63 85 75 72 55 92 73 88 66 78 76 58 51 66 86 83 92 76 98 72 59 77 61 99 88 76 57 76 74 91 67 87 63 60 84 90 83 76 68 90 69 77 91 66 78 55 79 55 56 70 54 76 98 55 79 51 68 88 88 57 86 56 58 69 63 78 53 72 95 58 88 93 53 97 72 79 83 73 
75 58 64 94 50 95 78 93 51 65 50 86 99 56 76 63 51 85 68 88 76 61 96 65 64 52 53 82 62 86 95 62 92 91 56 56 53 75 56 94 54 78 81 55 53 81 56 86 91 86 87 70 87 74 87 91 72 91 96 64 95 66 60 75 69 74 60 98 64 63 58 81 68 90 83 59 90 89 58 54 52 91 75 85 52 93 99 74 88 50 83 91 95 89 51 72 88 94 79 74 
89 56 53 66 88 90 86 93 73 55 84 77 55 92 74 57 52 52 54 58 85 89 78 50 64 91 65 58 86 83 63 50 75 80 70 69 54 89 62 63 50 90 57 51 59 99 97 95 83 89 86 74 57 85 78 61 94 60 94 82 62 91 58 69 66 86 66 99 81 88 97 89 93 58 91 69 88 70 73 76 84 66 86 61 71 87 58 94 78 59 53 60 59 55 51 72 71 62 89 61 
67 81 65 81 68 62 77 95 87 50 52 51 88 53 63 68 80 93 97 72 98 82 74 99 59 57 58 75 80 80 77 94 54 98 55 68 84 92 70 55 99 53 88 65 96 79 77 69 53 57 88 75 60 77 83 82 87 93 76 98 99 86 50 68 91 62 93 68 85 53 87 89 53 50 76 76 61 83 52 53 89 83 53 74 95 53 60 53 99 52 98 56 66 86 99 78 64 54 99 70 
94 66 85 50 74 76 57 70 70 50 70 87 94 63 83 85 80 87 75 51 86 59 82 51 91 63 59 81 60 73 82 76 50 92 86 74 50 82 71 62 70 56 51 68 69 99 98 55 58 72 60 91 52 96 63 85 86 54 75 58 63 94 63 66 71 68 82 94 65 62 89 74 53 89 64 90 95 94 84 74 53 65 60 54 74 91 91 70 52 52 89 84 73 60 83 84 92 64 94 97 
80 85 78 93 96 71 60 79 60 93 78 73 98 87 92 90 95 67 72 76 50 65 55 88 80 62 84 78 57 67 68 66 84 77 65 52 91 75 70 68 84 90 85 75 62 62 71 81 73 57 81 56 80 92 53 63 95 99 57 76 92 57 50 84 60 77 79 74 51 63 88 94 62 57 97 66 85 56 74 51 57 71 84 50 64 73 95 89 61 95 92 73 93 71 58 67 71 89 92 69 
56 75 63 93 66 83 53 63 89 69 62 76 58 97 56 80 79 51 82 92 78 60 55 84 66 99 96 50 89 74 62 88 99 92 67 67 98 70 52 60 61 84 78 76 83 83 55 94 98 56 61 86 61 72 56 79 81 96 95 78 75 65 92 72 66 95 91 95 85 50 66 79 69 86 52 69 74 65 96 72 54 87 80 79 99 97 99 65 63 74 86 80 66 54 68 62 62 73 53 54 
50 79 60 79 71 66 74 69 51 51 77 89 90 53 71 70 89 78 87 99 73 77 59 57 73 69 86 55 54 72 65 54 63 72 62 99 77 52 81 74 58 78 62 93 55 66 86 86 97 89 75 76 89 89 75 62 59 56 76 57 75 54 94 85 74 89 55 76 52 94 71 71 79 87 57 97 93 72 62 73 71 58 72 57 50 78 68 97 97 75 88 76 84 52 89 95 57 92 51 69 
77 51 64 92 67 55 99 79 50 82 57 53 66 95 63 82 98 55 79 77 72 62 85 69 58 64 81 68 91 55 53 76 98 71 51 62 72 53 52 67 91 74 71 58 63 51 70 70 59 77 86 95 68 72 88 92 66 87 97 55 63 71 99 89 62 80 63 90 93 83 68 53 51 97 68 98 52 98 97 71 50 61 82 60 55 58 54 74 80 93 77 66 71 70 96 63 77 67 53 60 
52 92 55 62 77 51 72 80 64 74 64 82 55 53 83 96 59 79 90 62 69 85 92 76 99 89 69 96 64 82 94 94 62 83 79 81 69 89 71 60 66 68 91 74 69 60 76 58 89 80 73 99 84 59 55 85 51 96 80 50 96 97 51 83 54 91 71 56 86 79 94 98 71 67 72 73 81 87 71 54 81 83 79 69 66 57 75 70 50 71 89 73 80 79 77 52 61 53 76 51 
73 74 69 69 74 74 99 61 94 95 67 83 88 53 69 50 65 80 55 81 87 95 54 69 72 54 83 76 59 71 57 63 69 76 72 53 73 73 68 72 63 61 97 83 82 80 60 53 97 96 65 66 70 87 97 67 54 93 51 67 77 90 88 75 74 86 96 73 94 90 98 60 93 81 57 96 70 92 79 64 64 79 79 63 71 73 81 85 53 65 79 60 67 74 73 55 89 83 74 61 
69 94 97 65 55 87 99 90 91 59 89 54 78 51 94 86 69 85 84 63 90 85 86 84 60 75 88 79 55 62 93 55 98 60 74 73 95 95 76 76 60 97 53 53 99 51 60 91 65 84 52 85 50 66 55 56 70 95 75 96 94 66 76 62 53 75 92 92 96 88 73 80 86 53 59 50 65 56 56 88 86 67 69 52 64 60 83 76 58 62 54 69 93 97 68 82 51 72 61 80 
65 91 99 97 70 96 97 98 64 65 51 65 70 68 85 57 66 65 91 69 67 65 51 65 90 88 79 65 96 89 99 59 63 77 74 78 56 68 69 59 86 90 71 70 76 98 81 53 75 81 67 84 53 73 53 67 54 86 82 95 79 81 83 67 76 50 75 94 62 57 90 88 63 59 51 90 90 91 57 77 98 58 73 64 76 88 82 61 62 77 65 90 85 68 92 59 51 60 59 64 
83 90 89 72 73 86 59 89 51 66 66 80 81 92 64 64 85 59 94 99 63 70 98 72 89 53 88 83 64 99 64 70 75 75 71 96 77 92 93 93 72 56 54 86 84 62 68 73 87 74 90 58 98 68 73 66 69 66 54 83 55 89 72 64 61 51 76 77 95 60 60 60 55 70 70 50 59 76 87 99 92 86 97 61 64 96 69 70 55 64 54 72 83 61 61 92 62 92 88 60 
59 59 91 94 69 53 67 66 90 89 54 73 72 91 61 96 70 64 85 72 90 74 53 77 85 97 62 54 90 65 53 72 72 79 90 78 64 75 85 72 79 86 74 98 98 80 94 67 63 61 80 83 94 89 95 65 69 81 66 76 90 98 58 72 74 54 66 73 83 85 64 79 91 97 98 77 61 52 96 67 62 98 57 91 65 94 84 76 71 66 86 65 94 70 53 51 58 56 84 84 
92 81 56 86 78 85 89 90 60 88 98 89 68 98 65 86 53 83 55 64 96 63 53 72 64 81 74 75 71 56 86 57 78 61 56 90 63 62 64 54 82 93 59 53 85 55 73 87 89 53 88 77 99 65 69 70 68 68 80 73 85 91 50 88 96 88 64 96 67 59 60 77 54 99 79 59 96 50 60 62 96 73 81 71 67 98 56 74 80 64 81 55 84 59 79 98 89 66 77 98 
63 74 66 82 60 68 66 63 91 82 70 69 98 50 86 86 54 76 63 53 70 60 59 94 92 64 86 71 84 56 82 59 66 64 88 62 66 98 69 50 88 96 75 55 96 51 63 97 82 81 87 86 74 53 57 62 57 93 68 82 63 90 70 84 81 91 69 70 73 91 60 97 69 58 75 93 52 97 63 73 69 63 58 87 71 68 61 97 59 84 87 97 98 85 81 72 60 74 54 88 
75 96 59 72 59 95 90 71 98 54 61 96 76 69 84 91 92 72 86 64 55 95 67 85 53 87 56 82 65 78 65 94 87 91 52 52 83 82 78 97 56 52 55 75 74 97 71 50 76 54 68 92 62 74 59 65 93 68 98 98 87 65 98 90 94 58 75 51 51 50 81 92 50 88 56 66 98 93 84 74 66 70 90 98 91 55 69 84 70 89 86 67 91 96 83 97 94 71 73 61 
56 52 77 73 92 73 77 89 92 84 92 79 54 89 65 71 66 53 84 73 75 85 62 60 89 64 82 70 86 55 50 96 67 80 83 68 87 72 86 70 87 52 97 52 97 56 79 77 53 81 58 72 77 52 91 77 71 83 69 80 62 77 50 74 88 88 67 90 97 92 94 79 87 63 84 91 58 55 88 78 94 88 51 55 99 51 92 68 52 75 50 59 68 51 74 73 60 64 81 54 
76 50 58 53 71 95 57 63 68 53 86 90 59 90 95 84 50 63 86 66 50 77 61 98 88 86 63 69 66 89 79 85 61 68 66 59 67 62 97 99 68 68 79 93 88 92 97 82 65 76 85 78 52 65 56 62 86 52 81 70 94 81 62 96 61 78 65 79 94 95 95 68 58 57 70 69 96 78 59 97 59 92 84 88 90 83 63 89 66 88 80 74 72 71 62 89 69 66 78 77 
52 73 80 81 88 94 86 53 50 97 53 77 58 81 77 93 63 66 52 53 59 86 55 65 71 75 56 77 67 96 99 70 97 75 78 88 85 88 93 84 73 79 90 62 96 94 64 77 68 74 90 90 97 69 83 83 64 72 69 65 60 94 68 67 87 87 70 87 59 56 88 80 58 69 86 67 98 88 72 62 61 95 60 75 92 78 89 95 52 53 93 96 98 54 89 52 53 75 66 61 
87 75 97 54 96 98 94 81 70 50 53 61 69 88 53 65 98 94 58 80 65 63 83 86 97 58 68 98 95 60 92 70 70 52 95 79 78 88 64 63 55 52 78 76 72 65 86 56 63 89 68 86 85 76 81 53 72 91 53 85 86 88 95 91 65 99 66 74 54 58 81 73 84 71 54 79 62 68 88 80 85 93 74 61 60 97 54 89 58 50 82 96 82 54 84 88 50 74 89 62 
61 51 66 79 79 78 87 80 77 84 63 96 99 70 67 96 98 67 78 64 85 87 50 74 71 94 71 87 94 76 97 98 62 79 82 98 67 58 77 96 82 88 99 76 95 90 65 62 71 57 87 68 87 88 57 75 67 93 74 92 61 64 60 93 67 59 74 50 95 54 59 61 67 59 98 50 53 92 56 50 67 72 91 54 74 65 96 90 54 92 54 96 76 84 87 80 81 86 61 66 
59 57 60 67 52 86 57 88 60 87 88 54 84 57 59 84 84 69 58 73 77 88 99 50 83 64 71 88 85 81 54 92 60 67 79 67 52 61 61 65 77 96 53 59 57 93 56 71 99 65 99 58 84 75 63 58 88 97 87 61 67 88 94 86 74 80 93 76 54 68 76 91 59 61 98 60 73 65 94 55 55 83 56 62 66 73 67 73 59 96 91 82 78 55 81 52 96 65 51 99 
67 88 82 76 80 95 97 55 55 80 58 87 65 53 55 93 94 80 54 95 81 76 63 69 81 53 82 76 58 65 52 68 79 89 53 99 60 68 90 87 82 72 69 95 51 87 73 64 92 60 62 77 88 57 62 64 89 53 71 82 86 82 76 88 62 54 55 61 67 68 60 74 71 67 68 76 77 65 68 75 55 71 59 66 68 68 63 61 56 53 91 53 88 86 84 88 53 65 69 86 
77 67 89 70 55 98 65 56 70 52 87 89 75 58 98 81 59 93 70 87 78 55 85 84 95 51 88 83 67 95 72 68 83 50 50 81 85 50 74 89 92 58 54 62 66 53 55 62 67 54 71 88 89 90 96 75 63 70 66 71 81 75 98 99 86 68 69 81 94 52 81 85 62 51 68 90 99 55 53 79 57 85 61 59 71 77 75 80 57 54 58 79 74 51 96 66 60 73 63 83 
94 87 95 90 71 64 69 56 94 67 57 55 72 85 56 99 90 67 96 65 67 60 95 62 64 85 56 67 87 63 74 95 74 91 50 63 81 54 63 68 58 72 73 61 62 62 66 58 68 85 86 57 66 52 50 97 62 98 77 51 53 67 53 60 99 76 61 97 96 87 88 80 90 97 64 71 73 77 51 77 70 77 77 51 62 75 55 58 77 62 92 75 92 80 72 70 89 67 66 68 
59 63 55 60 66 74 96 99 63 99 71 98 52 85 68 57 61 87 92 78 88 82 97 65 62 62 74 94 55 84 54 83 61 50 88 92 61 92 97 99 76 73 73 50 98 99 96 50 90 57 86 50 84 61 66 86 97 82 98 96 88 89 57 69 90 54 84 68 98 77 50 78 99 66 99 57 92 79 80 74 90 98 85 59 95 55 93 53 56 96 81 71 91 54 59 72 85 52 86 89 
84 61 83 69 70 65 77 75 75 64 58 55 90 55 91 96 71 89 83 85 56 98 77 81 56 94 78 64 70 80 93 95 72 62 50 88 68 57 80 78 95 87 93 75 70 64 93 92 63 57 94 54 78 72 55 66 80 92 62 76 52 50 88 97 96 70 61 74 91 87 54 76 92 62 95 75 76 62 91 85 70 91 55 55 64 73 72 75 93 60 61 66 79 72 92 51 94 75 92 96 
94 87 50 54 73 77 88 63 62 76 91 93 70 85 74 67 84 65 51 99 93 80 88 77 68 99 97 70 62 65 95 63 75 98 82 80 58 62 93 96 91 54 86 70 74 71 56 70 74 56 71 79 68 81 83 75 63 56 76 50 74 63 92 83 96 96 90 88 88 65 64 73 99 95 57 59 57 54 66 53 53 64 71 96 98 83 93 70 75 52 70 77 77 63 85 61 94 85 73 85 
93 92 93 98 82 61 72 96 81 55 91 88 83 63 79 97 57 54 69 96 61 66 88 96 71 97 69 64 95 59 91 89 50 75 65 50 83 93 80 62 61 92 87 74 57 84 97 58 77 87 95 59 52 89 77 82 51 75 78 82 73 69 59 65 94 73 61 52 72 71 95 59 73 73 87 93 94 95 91 71 91 74 81 78 84 59 71 61 91 59 50 91 82 64 88 69 92 73 50 90 
92 80 62 58 69 70 96 95 82 94 74 71 91 59 90 94 89 58 51 85 59 92 89 66 72 94 50 86 63 51 64 79 59 90 87 93 79 59 71 51 79 54 56 65 72 68 77 63 96 71 70 59 85 93 93 52 56 52 93 87 73 92 67 52 62 75 51 74 63 76 60 70 60 57 76 72 62 96 70 50 78 76 97 98 51 68 54 72 61 63 70 63 84 89 68 51 90 71 57 52 
91 77 84 93 90 92 82 66 86 66 79 66 91 88 65 50 80 79 59 62 75 65 60 72 93 56 69 65 87 65 57 53 76 95 81 87 72 60 56 79 91 78 87 99 60 58 79 78 54 72 64 60 85 90 74 62 63 87 78 62 98 81 92 69 74 55 66 59 88 57 94 76 61 97 53 82 65 92 76 85 50 72 94 56 51 71 64 61 94 51 51 95 72 64 70 75 86 84 81 92 
77 50 50 99 82 90 67 73 85 98 66 63 85 55 81 76 72 85 85 99 81 70 98 89 65 57 89 68 84 53 57 56 73 77 82 59 62 58 53 97 89 90 95 65 54 94 96 97 51 75 75 79 90 96 78 87 90 64 82 68 65 76 96 89 88 55 67 77 98 50 63 70 83 61 96 84 97 71 79 59 64 92 88 79 72 50 84 81 51 78 59 63 91 62 64 94 79 53 55 99 
64 77 90 77 92 96 71 75 64 66 96 62 66 50 86 88 66 89 74 88 88 68 63 68 70 68 54 51 68 65 56 91 56 89 79 50 68 81 53 67 97 87 92 70 57 55 55 58 71 55 84 92 91 96 63 97 96 92 97 75 85 73 68 93 70 50 84 57 73 55 55 72 58 69 98 81 55 55 87 84 56 50 79 54 86 62 71 74 64 97 69 92 90 75 96 75 84 57 56 82 
81 69 72 59 97 78 74 86 94 80 68 63 50 73 93 74 59 67 68 92 83 69 64 63 62 84 85 65 70 77 68 53 95 64 85 60 64 59 93 54 50 99 94 87 90 78 86 88 54 79 64 60 68 90 81 65 59 67 65 50 51 95 55 77 56 87 93 72 68 61 68 83 92 96 63 73 85 76 92 84 57 56 54 56 93 70 95 50 71 53 83 76 97 91 98 71 82 79 92 85 
67 95 57 59 85 84 68 86 69 50 91 54 56 50 90 90 92 79 62 92 76 76 91 71 88 88 69 88 88 68 55 51 99 81 81 60 75 71 72 79 97 60 89 50 88 94 92 92 96 81 57 65 74 91 80 73 57 50 86 61 99 76 66 65 70 96 81 67 73 86 72 70 69 59 70 56 58 94 91 89 79 68 81 67 68 82 53 52 79 93 58 91 60 93 78 81 64 93 59 94 
84 80 79 99 86 75 98 60 75 63 64 92 73 74 80 90 83 95 97 87 95 57 98 62 56 55 82 84 57 82 74 54 68 72 67 83 83 83 60 89 59 79 56 65 54 61 89 71 70 83 98 53 97 83 96 69 89 78 93 59 56 58 53 72 68 80 81 72 64 52 65 65 59 76 96 58 59 94 58 97 89 77 64 57 50 89 79 66 85 96 68 65 56 53 87 62 75 65 90 78 
50 99 72 60 85 88 71 68 72 98 62 86 61 88 99 97 70 79 85 98 90 86 68 80 68 94 55 60 61 52 68 92 50 59 60 97 92 58 80 72 87 53 90 84 96 74 74 67 96 80 67 98 73 99 86 77 77 99 78 66 76 51 62 97 96 75 97 62 71 94 84 99 76 51 92 64 91 94 70 75 78 79 70 70 75 87 55 65 80 79 88 66 55 71 97 86 75 88 83 53 
90 80 95 80 67 57 62 78 93 95 93 89 80 72 52 98 93 91 92 57 66 92 96 60 54 50 55 82 60 84 94 83 67 96 98 60 85 66 94 69 63 55 96 58 84 51 82 76 93 89 59 77 72 78 90 72 82 74 92 82 52 79 95 88 63 60 74 77 70 58 92 52 74 92 77 74 72 75 97 86 91 63 64 61 66 58 52 78 70 57 68 77 73 57 52 67 88 73 76 86 
56 73 54 92 78 57 89 62 98 54 86 98 67 91 67 72 98 71 98 78 63 94 60 97 60 99 95 50 98 78 52 79 90 53 83 64 95 64 76 96 58 94 98 73 93 82 98 72 81 93 95 64 97 58 89 55 98 98 84 69 77 95 93 99 96 54 66 61 94 55 99 71 64 64 66 57 90 62 58 59 86 79 70 66 74 87 89 53 62 95 52 75 94 78 86 85 63 78 95 85 
54 77 58 54 94 51 80 94 71 64 82 96 96 67 51 61 54 77 66 82 62 87 58 91 73 87 50 69 65 94 71 71 89 99 72 55 78 56 82 59 64 68 69 83 94 84 90 68 78 54 53 71 87 96 69 85 55 77 64 75 81 70 93 81 56 91 84 94 74 53 90 98 78 79 67 74 63 50 65 72 80 73 55 88 66 71 76 98 84 67 77 69 54 88 64 55 93 66 54 98 
89 51 81 70 72 66 92 92 89 89 66 88 93 83 73 98 81 59 61 62 87 54 70 80 52 96 70 72 60 58 88 93 70 86 61 78 54 69 86 50 56 93 85 57 64 86 59 91 77 59 57 79 82 92 66 92 84 60 53 85 57 82 70 89 55 75 51 91 74 88 92 97 90 70 98 61 54 78 92 91 55 63 83 76 70 58 87 71 58 91 84 90 87 87 78 74 70 70 85 71 
65 80 73 68 64 88 63 70 77 83 85 56 58 69 88 98 78 58 52 78 89 62 75 90 97 73 80 52 76 52 61 59 56 75 91 52 52 56 61 95 64 59 95 59 96 71 69 56 69 87 88 55 78 99 78 87 62 72 51 88 78 70 81 75 58 86 94 71 66 97 57 63 95 74 72 86 58 81 88 84 58 74 85 67 97 73 87 95 56 94 63 92 83 70 63 90 84 71 68 95 
78 85 87 92 62 69 70 60 90 84 79 62 98 61 84 53 56 56 94 70 87 52 91 82 76 65 95 55 60 62 66 90 77 60 50 58 76 79 59 50 60 85 89 83 63 97 94 98 99 81 76 99 93 60 61 97 67 79 92 61 84 88 94 65 69 84 89 79 57 56 76 66 74 86 98 55 68 97 63 69 94 83 75 67 80 71 51 65 92 69 54 52 61 64 56 77 55 83 71 58 
88 98 59 63 77 93 90 72 58 52 92 69 61 72 58 99 97 91 67 76 89 58 92 87 64 60 99 97 67 67 58 84 80 79 81 55 75 93 64 79 52 68 74 51 65 75 77 88 60 88 84 86 55 96 80 94 84 55 90 61 59 58 63 85 74 72 81 71 70 84 88 70 65 83 76 89 90 63 95 60 98 63 71 52 81 58 70 67 84 68 85 87 64 51 99 76 59 61 63 89 
56 73 74 93 96 80 59 58 75 53 79 69 72 92 84 93 58 95 90 60 72 98 51 54 87 57 59 92 75 66 93 58 96 77 66 81 72 52 86 60 92 84 75 84 86 76 55 51 93 83 69 70 84 53 52 92 92 96 88 96 92 72 70 78 67 79 75 53 57 55 73 88 72 66 53 93 79 78 81 93 84 88 73 90 55 83 70 57 72 90 65 77 80 66 79 77 59 66 78 90 
98 50 64 62 84 95 74 64 92 61 57 83 81 77 65 69 66 97 77 86 73 94 92 53 79 80 62 61 98 80 95 76 62 89 85 86 74 98 58 69 87 99 68 87 69 76 90 54 54 90 88 73 88 51 57 83 63 60 71 86 84 92 90 93 52 57 76 66 94 60 76 80 86 80 68 80 81 55 87 95 76 70 56 53 69 79 85 67 98 52 93 54 78 61 87 68 51 81 87 70 
88 70 85 61 64 99 52 66 74 85 53 95 91 76 64 62 60 74 69 61 50 75 99 98 79 53 65 68 96 69 85 71 85 93 82 82 55 65 89 67 68 93 51 64 66 70 53 76 82 87 74 75 98 84 59 86 85 55 82 84 71 75 86 96 50 61 78 68 54 63 57 69 94 61 56 65 83 87 89 54 85 71 87 50 94 80 80 88 67 77 77 52 63 83 56 72 79 53 88 56 
60 98 94 54 79 58 90 80 99 70 65 90 69 73 75 90 98 62 74 74 66 50 97 84 58 58 94 62 68 63 75 79 84 79 80 82 50 50 96 74 73 92 70 54 64 60 93 65 88 65 65 63 60 53 63 64 85 59 73 98 62 63 95 59 73 78 51 71 62 98 77 65 76 90 79 73 57 68 61 85 94 51 60 83 82 54 58 94 77 75 54 77 95 75 98 95 51 96 57 56 
84 86 96 78 85 73 76 86 86 58 86 58 91 57 68 72 69 84 89 79 90 99 76 57 71 98 57 52 92 77 85 61 88 94 51 66 76 70 81 70 66 63 55 72 78 74 96 92 59 70 64 98 89 77 74 69 77 52 67 96 94 93 97 80 97 58 66 85 75 93 57 63 53 80 76 73 52 99 91 54 50 73 84 76 95 81 67 92 95 84 79 74 57 87 76 75 63 57 57 70 
78 62 72 53 85 68 86 72 68 68 70 57 86 54 68 69 67 98 80 99 72 61 54 56 84 94 55 73 81 58 73 90 64 61 70 86 61 69 84 72 98 52 96 59 81 83 84 72 79 82 89 79 64 62 79 55 50 59 72 76 74 59 51 69 94 60 68 81 63 76 89 97 82 62 90 81 84 67 64 95 83 77 71 63 90 96 83 62 70 97 80 76 53 87 99 50 50 93 58 83 
76 55 54 54 91 63 79 92 51 55 51 63 62 53 64 99 76 56 67 93 60 64 92 88 91 79 95 82 52 66 86 55 70 72 85 60 84 60 52 70 68 60 61 93 61 59 70 69 98 56 55 82 85 94 82 77 57 70 95 78 95 71 62 76 68 59 56 63 53 65 55 62 71 52 96 76 71 78 64 91 92 59 76 83 98 79 86 87 62 83 72 94 63 53 81 55 88 73 51 73 
81 95 79 51 81 92 73 87 86 91 55 71 56 72 93 87 86 93 74 56 77 95 71 72 87 92 78 84 82 75 95 69 81 77 59 64 68 88 59 58 50 56 63 66 58 76 98 52 86 64 93 81 66 66 70 55 81 72 77 69 53 86 55 97 72 80 93 56 52 75 54 94 50 57 66 83 86 71 63 92 91 57 82 97 95 80 81 53 83 51 67 52 59 59 59 91 73 94 94 52 
60 63 68 80 68 71 88 92 50 86 91 88 80 98 80 78 86 84 77 98 63 90 59 70 77 50 51 71 93 56 94 75 64 92 94 68 60 79 95 74 90 53 81 59 55 99 87 99 75 95 89 95 80 70 94 89 93 82 60 54 75 75 78 73 92 65 87 50 72 54 71 82 91 65 94 59 78 87 68 50 65 88 60 94 70 90 63 70 60 79 56 86 53 65 79 82 52 96 68 51 
50 98 61 94 84 90 63 76 95 74 74 72 63 92 86 68 97 61 96 71 64 65 88 98 70 61 54 76 58 53 54 52 67 89 83 98 62 67 78 58 74 89 90 74 86 93 81 74 92 67 69 65 78 59 62 95 64 89 81 66 69 68 84 56 69 93 65 95 85 62 74 99 85 57 60 82 85 72 98 87 78 76 97 88 91 70 86 60 64 58 91 56 91 81 85 50 76 85 62 89 
57 50 96 72 85 91 76 93 85 57 80 57 61 61 75 57 63 53 61 85 99 59 72 81 59 59 67 52 99 85 95 53 62 66 93 74 67 63 81 69 96 79 77 52 73 58 69 56 63 58 73 92 97 74 87 99 97 83 65 68 60 67 82 89 64 84 88 98 96 85 60 81 68 57 77 65 58 72 91 98 66 72 74 65 71 93 91 65 67 57 56 71 53 60 70 60 83 55 57 73 
97 60 95 72 67 90 99 65 92 58 74 80 80 80 83 54 72 50 50 78 79 67 64 93 53 89 93 98 60 52 55 83 66 81 70 76 92 80 59 90 75 78 66 92 76 79 57 56 77 98 78 70 87 65 98 88 63 85 69 59 95 78 65 51 77 74 51 50 73 76 51 90 83 62 50 97 65 75 98 94 54 83 86 73 65 57 79 71 77 63 94 75 60 82 65 84 59 62 94 60 
58 53 67 85 68 97 84 58 65 89 70 96 57 87 73 93 81 69 68 66 88 81 63 63 53 87 65 78 56 80 62 90 55 72 54 53 62 96 88 61 85 96 73 99 97 73 72 80 83 97 74 54 87 85 90 52 63 53 94 88 59 58 96 54 94 52 89 66 59 61 72 62 96 87 51 99 72 58 86 66 52 80 81 77 51 84 98 85 87 71 95 75 53 87 98 84 85 71 93 82 
86 78 94 85 61 79 65 71 77 78 53 57 58 73 98 67 73 67 87 84 56 82 69 94 60 91 84 79 98 65 64 59 77 76 93 66 82 68 58 91 91 98 72 71 96 68 93 99 66 84 56 60 73 56 86 64 83 60 53 94 56 99 99 52 60 51 92 83 65 99 94 57 52 95 95 59 67 50 64 87 75 85 75 78 92 51 54 68 92 90 50 61 73 91 95 59 87 74 89 90 
85 89 57 71 70 68 70 58 86 89 66 74 80 66 85 90 81 68 61 65 80 51 67 93 63 71 88 64 87 91 93 65 69 76 80 68 91 59 65 54 68 90 74 79 86 89 95 60 68 74 52 93 52 99 56 80 85 99 86 67 98 66 68 73 65 69 86 52 70 78 87 97 78 56 79 85 79 84 93 80 51 96 61 79 92 73 82 77 82 82 94 63 98 65 63 88 86 73 88 80 
67 81 52 72 81 53 70 82 90 73 68 74 66 80 81 76 75 59 54 89 97 86 89 91 83 77 55 96 73 53 90 72 91 60 99 65 53 51 93 90 81 74 91 96 54 91 92 67 75 63 61 58 80 82 50 64 99 67 85 81 81 83 91 77 57 78 73 89 93 78 59 68 82 68 63 98 93 72 78 86 97 63 56 93 75 99 81 62 83 52 87 50 77 93 53 70 85 96 68 89 
58 88 75 81 71 67 96 84 99 99 82 84 97 52 98 73 84 60 79 55 61 81 97 66 95 84 70 64 58 72 73 71 89 52 89 59 85 93 93 96 70 91 80 99 60 63 88 65 55 65 83 91 71 81 81 82 53 94 78 74 90 97 91 82 87 80 53 85 64 64 59 67 77 81 81 99 67 52 78 91 59 56 54 64 79 54 92 65 57 65 90 50 96 64 94 76 59 60 77 73 
99 77 53 85 89 74 51 75 72 63 97 50 65 59 98 57 67 87 70 83 62 58 82 78 78 84 74 54 50 66 69 87 55 51 76 88 89 98 63 93 64 64 95 91 68 78 50 88 54 83 52 62 86 70 91 57 76 91 72 63 53 52 92 82 94 98 91 56 80 86 64 86 92 60 77 68 87 80 73 69 60 78 70 87 50 80 62 78 67 85 97 52 87 68 66 82 96 67 98 55 
51 85 52 63 54 75 62 70 59 63 70 80 56 93 77 80 51 79 97 66 66 71 87 94 75 50 94 66 57 83 87 68 57 93 81 87 80 57 69 72 76 81 62 80 73 58 75 89 53 71 54 82 60 85 67 66 79 78 78 88 72 50 86 89 72 93 90 59 83 88 51 54 70 57 56 52 93 81 51 82 70 54 81 59 57 83 89 55 51 94 69 69 84 91 51 97 75 77 58 76 
88 80 99 88 96 50 78 84 97 68 50 77 89 82 79 75 71 55 82 67 80 85 81 56 84 97 68 68 72 51 72 70 89 89 69 73 87 50 87 61 59 78 57 53 68 55 54 93 75 60 91 79 90 91 53 61 91 64 74 59 50 72 69 95 95 54 84 89 89 54 69 57 82 83 63 52 79 94 51 77 81 53 74 70 53 76 67 78 66 69 94 59 85 68 76 71 51 50 82 88 
79 84 55 86 78 55 57 86 86 57 99 98 62 86 63 58 50 50 73 99 52 60 99 62 77 81 83 59 99 64 68 77 57 77 60 56 84 99 93 88 85 58 82 68 59 59 98 77 66 90 57 58 52 99 53 52 67 54 62 69 88 74 86 88 99 77 57 54 51 74 56 61 64 89 96 99 57 88 91 90 64 86 51 86 52 85 84 55 64 76 77 70 52 90 68 84 91 58 75 76 
60 62 89 69 81 79 92 93 59 82 89 56 50 75 51 92 78 73 51 55 93 96 94 96 50 64 64 87 81 68 50 54 82 87 87 64 60 77 93 60 70 82 89 57 69 98 74 50 77 67 98 64 69 53 73 92 67 78 84 85 92 83 92 61 59 78 74 73 95 66 68 51 50 54 90 99 64 89 88 55 83 94 78 90 85 65 60 75 50 62 99 56 85 70 93 75 92 95 89 89 
76 52 85 61 84 57 51 82 57 82 84 63 96 85 72 77 79 73 67 66 83 66 89 70 90 77 88 52 53 65 97 90 77 74 74 92 92 97 61 86 51 56 95 95 84 60 64 75 65 61 93 86 80 53 91 50 85 52 63 98 64 77 77 57 61 70 58 73 80 53 72 75 60 94 78 65 88 55 80 66 75 55 76 66 94 93 82 70 54 76 81 82 94 63 55 63 59 77 63 85 
50 89 95 90 87 91 87 72 57 68 67 97 73 77 91 62 52 61 60 85 71 51 99 54 66 57 71 58 72 55 61 53 84 76 91 92 56 78 95 58 83 77 72 70 61 91 68 74 59 89 83 62 84 69 74 89 72 53 88 95 89 73 77 62 89 97 81 95 57 99 93 95 60 96 71 54 55 92 63 57 54 65 72 52 87 70 54 65 83 95 74 77 65 56 64 83 77 75 73 87 
56 76 54 67 62 80 91 74 64 65 94 50 83 53 81 82 59 85 63 70 83 81 58 85 91 64 51 83 59 55 77 99 89 94 91 69 77 74 54 72 58 69 77 71 50 66 87 55 72 81 93 73 97 99 64 70 74 93 54 76 87 59 66 88 69 98 94 57 89 62 87 71 64 83 84 96 95 50 76 71 55 74 56 50 82 83 56 72 84 54 82 75 82 52 70 91 93 82 87 65 
69 63 80 85 98 57 88 81 87 53 58 68 79 71 78 89 89 98 63 72 74 92 87 63 73 88 88 95 88 77 62 98 95 89 95 74 67 67 67 59 66 54 73 63 66 77 94 52 86 87 63 77 71 95 70 99 97 64 87 95 64 83 64 57 88 96 95 62 60 71 89 98 57 55 75 58 60 54 89 54 71 90 86 82 87 85 99 90 79 74 67 78 85 70 87 68 52 83 84 86 
59 65 58 94 97 53 67 99 99 52 68 62 93 92 82 97 80 66 98 78 51 81 94 89 78 57 81 94 84 93 78 91 84 86 96 61 53 54 77 97 90 61 88 88 77 93 61 98 50 72 76 68 99 73 82 66 56 52 74 95 52 73 71 57 76 50 73 84 50 54 94 92 62 96 55 69 76 55 73 98 74 68 89 77 86 92 93 67 88 60 80 92 93 52 76 86 56 63 94 79 
55 69 60 60 82 68 78 60 51 95 63 93 96 62 97 78 76 96 75 92 98 55 90 74 97 71 78 57 99 87 64 83 77 93 78 73 66 98 50 92 59 90 66 95 96 82 85 72 97 62 58 68 54 52 85 83 62 81 63 51 99 54 56 63 69 76 86 50 56 70 65 88 71 86 71 97 85 83 93 90 81 61 63 57 63 91 65 70 51 50 69 66 53 60 98 67 51 99 89 71 
67 72 71 64 87 54 59 95 73 70 94 90 85 89 74 60 75 72 59 95 62 64 51 67 58 69 59 97 61 97 62 58 61 78 85 94 92 76 70 74 59 53 65 74 91 67 80 78 92 66 90 89 71 98 78 82 59 94 72 86 54 84 53 77 51 59 70 70 95 99 87 86 80 76 51 87 83 70 83 63 97 65 82 83 55 94 87 80 81 71 67 66 81 86 78 71 95 66 65 57 
62 74 58 63 82 62 75 73 99 94 66 58 51 80 50 66 51 88 94 72 68 85 91 54 93 87 92 93 50 74 56 54 95 85 52 76 67 67 71 75 94 98 58 76 82 66 97 84 59 99 73 66 76 59 95 62 58 88 77 86 81 65 69 80 89 94 94 60 80 90 92 73 98 86 95 84 87 64 97 55 96 80 69 69 63 55 86 64 66 62 97 76 53 93 52 65 70 86 90 79 
64 98 62 78 58 75 58 56 66 85 52 54 71 54 97 78 66 90 61 94 74 52 83 55 63 77 85 74 97 61 83 73 54 99 82 77 60 81 62 62 56 86 85 71 65 83 54 94 58 94 63 99 75 76 85 61 80 71 99 82 57 59 53 59 94 77 89 73 95 65 86 59 90 97 87 95 83 90 61 57 95 77 82 81 96 63 51 58 65 57 70 65 80 70 92 97 59 63 59 87 
61 69 85 57 87 94 51 71 72 75 76 89 92 89 59 66 59 74 63 60 87 52 65 59 86 59 55 70 67 57 79 99 89 78 77 82 83 85 93 52 98 73 54 56 62 92 95 78 54 51 93 53 87 81 60 59 79 65 66 84 93 84 72 74 84 50 57 79 91 51 89 88 76 95 62 57 85 87 94 81 99 61 51 86 69 69 69 64 69 60 76 61 86 96 69 73 95 57 96 97 
52 58 57 85 57 88 70 78 52 94 60 59 92 78 79 82 85 51 70 61 78 71 74 67 60 59 92 87 86 85 91 85 75 87 85 60 63 80 52 71 57 95 85 73 61 73 95 87 80 63 87 51 89 88 86 93 74 78 87 83 58 95 64 61 79 63 80 72 86 53 85 63 94 57 66 74 97 51 67 58 90 82 51 93 90 71 54 54 90 71 57 98 71 77 51 70 62 59 86 65 

66 87 54 60 52 50 65 66 71 69 70 54 72 59 88 55 79 83 88 57 83 51 91 83 79 79 57 96 86 75 78 54 57 94 67 64 78 77 56 65 57 70 74 80 60 72 82 80 87 56 51 54 71 53 57 93 84 99 51 53 59 83 87 84 80 92 91 81 62 97 89 90 54 96 50 85 56 74 70 79 59 56 81 50 91 58 98 98 50 71 63 73 84 89 86 59 84 57 77 99 
84 69 96 96 94 60 64 96 65 99 90 70 82 77 66 77 54 92 62 87 81 80 71 93 81 55 91 72 56 61 70 92 59 71 62 64 96 69 54 65 94 84 86 65 69 53 63 90 95 64 52 52 77 84 78 70 67 76 78 77 84 91 88 79 57 67 90 66 61 61 71 93 71 65 68 82 51 52 60 66 54 69 70 65 74 56 83 80 97 64 81 98 79 98 50 60 58 93 61 52 
73 79 90 66 60 65 68 79 73 93 53 95 54 65 83 89 66 74 60 95 67 56 64 60 96 79 98 52 82 73 71 66 85 60 80 77 71 91 98 80 61 98 74 58 76 77 90 57 91 51 88 54 64 97 54 82 63 86 56 75 91 77 68 94 95 56 70 60 91 93 75 93 58 53 55 87 88 50 59 68 52 54 78 82 97 53 76 81 96 73 98 72 96 64 78 64 93 82 73 84 
88 66 84 92 80 90 90 55 72 50 67 59 84 58 66 71 83 56 57 52 59 85 89 66 99 89 68 72 93 94 64 98 99 62 77 99 54 54 64 81 60 75 94 94 67 83 82 61 71 59 56 60 81 67 92 75 93 60 50 89 76 87 99 81 86 78 88 53 62 78 74 71 62 72 66 55 56 82 80 62 91 98 86 72 70 81 94 59 60 68 72 97 99 59 50 58 94 69 56 86 
72 75 59 66 54 75 65 54 61 78 73 67 57 96 54 77 62 64 98 62 51 61 84 77 77 79 67 64 65 51 89 60 73 75 63 73 95 64 64 76 87 68 98 81 60 55 57 56 71 60 99 61 95 77 67 94 71 91 62 70 50 53 58 99 99 80 51 52 84 95 93 73 67 74 97 59 67 94 78 58 92 82 89 56 53 87 64 72 81 56 93 85 50 70 76 67 75 65 93 70 
71 83 66 50 91 98 91 67 73 80 87 87 76 71 95 84 86 77 89 64 76 77 78 61 72 61 84 97 93 90 70 93 56 94 97 56 96 94 87 62 90 59 76 92 90 61 86 71 70 71 82 84 71 71 65 66 60 52 62 87 97 53 70 68 88 86 86 92 99 83 67 74 93 91 84 74 76 90 97 66 65 54 90 92 89 64 58 92 91 66 79 94 74 89 62 72 79 75 81 79 
86 87 63 93 88 55 96 70 92 79 97 79 76 54 74 89 61 86 77 70 53 67 58 52 80 55 52 55 54 55 61 95 51 59 68 79 89 72 64 80 53 60 61 82 78 99 50 58 61 88 90 85 90 50 94 60 56 75 59 54 77 91 90 57 66 83 58 88 67 88 64 94 62 84 53 51 92 95 54 54 86 98 69 73 62 95 51 61 57 58 71 55 85 58 93 81 52 50 60 58 
74 67 70 86 58 82 83 64 72 99 56 83 60 84 71 84 50 56 50 55 98 66 77 72 61 57 59 70 88 91 66 59 85 82 94 93 57 52 77 83 89 76 80 74 91 74 79 74 63 94 96 59 50 67 62 67 83 62 71 88 75 98 91 76 82 59 61 68 86 57 80 85 71 85 66 66 75 96 72 94 80 84 50 93 73 51 94 52 80 76 55 71 89 84 93 61 51 71 68 69 
68 86 85 88 67 71 68 51 67 91 64 66 51 79 63 64 60 96 81 50 80 55 54 55 64 84 51 92 99 56 64 93 52 70 69 85 98 69 86 51 75 57 50 58 58 92 63 69 82 84 90 85 58 88 83 98 59 93 51 68 97 80 55 73 54 74 80 72 65 71 59 84 62 79 76 63 94 74 55 63 54 89 81 92 80 62 94 83 84 90 95 67 52 84 72 63 51 75 89 89 
86 86 71 73 74 78 60 51 51 81 96 92 58 62 67 92 89 90 93 72 55 55 55 82 75 66 85 61 98 50 87 73 54 93 61 96 70 72 69 52 97 69 56 51 66 59 93 78 87 79 74 50 53 64 91 91 52 75 56 80 83 98 78 62 82 82 82 93 62 77 76 85 50 80 66 86 88 73 80 83 61 89 94 95 99 87 83 55 56 50 60 64 56 90 72 61 53 61 89 75 
69 88 61 67 66 93 67 88 85 60 88 82 78 95 82 68 65 62 74 76 57 79 91 95 98 65 61 90 60 86 95 70 95 80 91 51 98 99 62 80 62 60 73 99 94 79 60 72 98 81 57 84 81 88 56 77 97 60 88 95 81 50 82 67 61 63 86 55 65 85 81 79 61 87 60 93 53 55 58 81 99 58 98 69 68 57 65 67 87 63 93 85 74 53 83 57 81 51 79 65 
61 80 96 53 67 82 56 92 96 89 51 82 84 84 75 71 96 77 65 87 62 89 85 62 64 55 70 63 60 98 96 96 50 59 77 71 91 67 94 66 68 78 77 55 68 99 63 62 71 54 63 50 70 76 94 82 67 97 77 64 69 66 95 91 59 57 67 60 56 64 68 73 64 73 57 80 65 54 61 84 95 70 73 95 80 97 99 96 57 97 57 82 74 50 55 94 84 96 64 57 
92 60 90 56 92 63 58 52 65 68 82 93 55 67 68 73 72 68 96 96 84 50 55 53 67 60 78 70 64 80 91 73 95 88 63 50 74 59 97 92 61 73 75 53 84 75 91 88 61 93 76 68 93 92 60 75 57 79 59 66 50 82 60 72 86 97 58 62 61 60 69 72 61 59 75 73 95 82 70 84 89 93 96 68 75 96 64 64 70 60 60 57 75 89 57 58 55 52 96 62 
82 91 92 81 79 71 58 90 71 69 93 52 70 68 97 91 91 51 71 59 68 93 84 77 61 96 74 63 99 90 73 86 92 79 65 51 72 67 87 88 58 53 58 56 76 83 64 95 86 98 53 75 91 86 74 78 81 95 82 52 83 94 71 91 90 83 50 53 58 75 73 59 67 50 52 99 64 77 99 94 87 99 57 80 98 66 52 78 64 84 71 94 75 95 91 54 71 95 71 59 
52 85 80 88 76 97 98 62 95 50 94 72 83 66 64 59 95 91 85 90 52 70 99 90 51 56 71 87 78 75 80 99 71 80 58 60 89 60 57 80 65 99 65 57 99 97 74 95 72 92 81 70 63 60 76 55 80 76 89 62 53 74 58 78 60 93 60 93 95 87 95 76 53 69 82 65 93 79 66 86 72 77 76 95 99 81 98 74 80 92 59 50 64 54 85 81 51 92 60 95 
70 82 72 92 87 74 71 57 68 90 79 77 92 52 63 96 97 81 80 67 71 53 91 58 73 93 78 82 91 50 56 92 69 61 86 91 72 52 81 87 76 54 71 83 97 94 56 88 98 82 50 53 55 65 65 79 87 97 84 63 75 68 59 65 90 63 83 95 94 96 93 90 62 59 67 89 69 85 66 61 67 72 85 62 98 90 89 53 67 82 51 83 52 65 76 68 72 55 68 77 
82 84 59 85 62 96 69 55 87 87 80 90 73 97 54 64 56 73 53 68 73 60 51 69 50 87 95 52 83 53 62 54 92 65 83 68 77 99 60 98 54 84 97 65 83 99 76 76 64 87 97 53 74 95 84 96 81 54 56 75 54 99 84 51 52 93 77 51 95 74 91 55 73 84 76 95 89 70 65 50 98 91 64 69 78 64 53 66 95 93 67 95 79 98 94 66 58 99 52 96 
68 61 56 97 55 64 91 88 93 65 68 74 54 85 84 99 89 90 86 97 65 59 82 63 87 56 76 58 55 62 95 97 72 86 66 69 90 54 80 60 97 80 83 87 78 70 72 71 97 55 66 69 88 85 88 89 61 81 78 59 95 78 50 89 75 68 81 95 73 87 99 91 67 70 58 71 88 50 85 57 53 73 50 88 82 93 77 70 72 63 73 61 66 68 85 88 60 95 59 56 
94 56 94 92 77 77 85 98 66 68 65 57 91 51 87 94 86 86 61 56 89 61 72 99 66 91 64 90 67 95 86 56 85 94 69 94 65 58 78 57 84 55 97 63 73 98 90 64 61 52 97 85 90 82 99 89 93 54 73 82 79 54 91 78 95 67 87 68 67 98 99 71 88 94 91 67 57 85 69 79 77 63 87 85 64 84 78 74 73 73 67 59 50 51 92 72 57 54 56 98 
82 91 63 57 71 96 81 67 52 71 79 94 96 80 52 89 60 61 58 54 54 54 79 64 74 66 78 99 56 99 63 93 55 62 94 99 54 56 75 66 59 91 81 67 57 74 56 79 57 54 86 67 97 74 55 56 73 72 77 58 52 60 83 99 60 56 97 87 78 92 86 96 98 95 88 88 60 53 53 83 91 71 81 83 95 84 80 92 62 96 60 96 79 65 76 85 61 64 84 71 
57 57 85 68 77 70 83 67 62 87 72 84 74 64 82 77 55 60 54 92 65 93 78 75 98 78 89 93 83 82 53 91 90 80 52 77 97 81 99 98 78 90 79 99 99 53 64 61 97 69 62 72 64 62 96 66 58 52 63 85 59 84 84 57 52 60 93 64 83 74 59 67 65 60 69 62 96 96 51 52 86 77 81 92 86 52 81 94 90 75 79 83 56 62 75 76 62 98 94 70 
51 74 96 54 91 65 76 83 78 87 74 93 63 91 83 91 61 91 79 54 75 92 52 59 58 60 98 56 62 70 50 96 63 69 59 53 58 53 90 58 93 59 50 56 78 67 84 56 51 57 74 71 59 98 72 78 81 50 59 79 63 67 96 52 52 65 65 57 85 60 78 95 85 59 65 54 97 99 57 77 51 79 92 83 71 53 59 67 70 55 63 83 58 95 94 90 84 51 86 54 
78 75 67 80 97 66 54 53 57 92 54 67 57 80 91 51 77 72 81 66 67 89 91 71 54 69 63 50 72 97 93 79 83 67 54 51 98 67 67 87 86 96 64 57 85 91 76 73 71 58 98 59 60 93 90 69 83 72 89 82 56 89 55 66 99 64 88 99 50 51 50 62 82 79 50 84 66 96 50 99 75 50 53 86 98 91 95 65 81 93 72 79 77 83 69 91 73 83 72 65 
90 63 73 87 85 83 77 84 83 73 70 72 75 59 74 92 76 63 53 98 53 62 56 74 69 68 86 82 58 74 87 88 79 95 97 88 73 60 76 74 83 63 81 70 64 96 66 92 86 55 72 76 97 61 67 59 78 71 76 69 84 68 63 53 99 78 66 55 58 99 78 97 95 79 91 95 77 78 90 68 62 62 83 94 98 71 94 51 58 62 73 50 77 64 93 99 87 84 53 72 
84 95 75 62 59 53 62 98 85 83 87 94 95 70 50 99 80 85 77 71 56 74 99 85 56 57 96 87 93 70 76 50 72 79 93 69 82 76 58 64 89 80 76 51 67 75 96 60 51 75 78 85 84 67 81 80 52 65 78 62 89 91 56 76 74 63 97 52 78 64 51 83 96 69 65 53 82 69 50 74 60 93 65 50 62 95 85 80 88 69 67 73 53 77 64 69 66 60 53 77 
68 64 94 98 72 97 71 51 97 92 68 72 92 92 83 99 87 93 64 69 64 69 70 98 51 83 65 93 55 88 92 98 87 51 71 60 58 68 66 51 59 58 80 90 63 77 99 96 52 53 96 80 75 71 66 90 90 80 51 89 80 56 64 63 54 69 73 89 51 86 53 77 59 55 95 58 82 66 50 55 99 50 58 94 89 62 78 63 60 65 93 72 95 60 53 86 96 96 81 92 
94 55 62 66 81 68 71 92 74 64 63 51 87 63 84 70 68 87 64 72 82 62 63 82 57 76 99 65 62 69 86 88 63 97 56 58 63 56 60 93 65 90 70 54 98 84 88 92 52 50 51 69 84 66 56 55 65 73 78 54 59 88 56 82 55 61 53 50 68 55 99 94 82 74 70 85 95 60 56 54 98 86 70 68 91 90 76 91 85 90 67 82 95 83 72 59 57 54 87 72 
55 51 85 68 69 92 78 52 70 63 80 77 94 95 79 53 94 59 88 68 94 62 64 59 97 93 80 76 88 64 72 60 76 82 60 62 51 86 98 54 93 60 83 79 96 55 72 84 67 69 78 99 64 84 70 54 77 68 99 93 53 63 98 97 85 82 60 66 64 75 51 51 83 53 66 64 54 53 94 72 59 60 99 63 70 52 76 77 88 99 60 95 97 64 51 98 59 77 77 67 
82 93 53 53 76 78 77 56 96 67 77 62 59 52 97 63 77 71 67 69 76 59 62 71 98 85 89 67 65 72 88 98 68 96 83 60 54 99 90 78 56 55 79 90 90 99 61 79 59 55 74 51 50 51 99 74 87 83 52 63 74 96 79 56 90 82 55 90 80 69 79 88 57 54 96 83 92 75 52 65 93 59 82 69 84 83 59 88 94 65 90 82 88 77 86 53 50 64 85 53 
99 80 95 88 55 51 66 92 83 61 84 85 66 65 52 81 92 61 73 60 78 70 79 82 50 82 90 83 92 82 74 84 95 63 63 55 76 58 94 78 66 52 82 87 52 60 91 85 77 68 59 80 52 83 50 76 50 70 83 83 85 58 84 73 71 83 98 94 66 82 58 85 57 79 76 82 99 58 81 83 94 75 69 64 99 55 63 67 59 58 71 98 99 94 58 62 98 72 60 67 
52 96 53 55 70 76 79 64 64 96 65 70 76 62 60 91 70 84 91 55 50 91 61 81 92 65 99 96 62 58 63 67 52 79 69 54 58 62 91 61 62 99 75 65 75 59 96 83 55 81 66 73 98 52 79 99 65 67 84 95 62 51 68 64 78 95 76 78 62 84 93 65 80 91 54 82 68 82 75 63 92 71 99 96 81 72 73 53 93 76 56 92 61 65 64 53 71 94 86 92 
73 50 58 71 67 71 57 76 76 77 82 63 63 92 59 99 81 96 98 94 87 69 95 70 72 84 80 69 93 98 51 78 62 97 57 86 74 98 71 89 80 95 76 60 61 83 69 75 93 78 99 99 61 87 83 54 54 53 52 85 80 64 85 88 52 52 88 91 70 67 86 84 50 58 53 84 75 77 86 88 51 75 65 85 87 80 98 55 56 65 88 67 89 84 72 97 71 98 69 75 
73 74 51 98 92 51 81 78 97 82 53 88 79 51 98 88 60 63 78 93 72 71 71 76 57 70 57 95 79 84 52 99 55 61 99 83 94 80 55 56 88 87 64 54 81 50 86 62 63 87 71 95 90 56 69 85 68 80 74 73 58 64 51 76 77 81 56 74 66 58 74 51 63 79 99 89 76 99 95 99 87 58 64 83 75 60 73 54 70 97 74 81 60 97 76 71 81 77 60 51 
79 51 68 91 97 94 53 79 88 77 81 96 96 94 92 80 91 97 57 60 76 94 96 56 54 89 93 83 91 82 63 76 67 85 83 85 87 55 57 79 73 94 55 93 92 84 88 79 87 69 64 81 79 70 67 95 77 74 68 63 62 71 87 99 58 70 54 86 59 66 63 92 98 58 77 63 94 63 57 63 71 96 72 86 53 61 89 74 92 84 91 58 63 79 89 65 74 69 60 85 
81 81 81 93 95 94 79 88 56 88 95 58 91 83 63 56 75 91 70 89 51 79 54 70 95 92 90 97 51 78 82 62 56 66 94 94 56 85 57 54 90 55 95 80 60 59 58 80 87 76 60 91 86 79 66 80 60 65 53 55 50 86 61 97 60 53 66 51 88 67 60 93 93 94 86 65 56 98 61 86 97 88 91 51 75 83 59 65 50 62 78 77 96 89 58 88 85 80 98 88 
54 58 69 59 66 73 91 76 79 62 73 55 62 54 80 99 63 62 81 96 95 73 99 67 64 61 95 53 61 91 79 50 96 51 83 81 68 96 98 85 65 61 98 54 78 92 65 77 54 51 58 93 53 84 56 75 58 53 83 90 74 55 76 67 78 60 82 94 78 77 95 70 70 71 83 73 73 64 94 73 96 73 51 67 84 72 65 71 52 62 63 77 77 63 78 92 89 87 56 91 
91 69 53 75 73 95 94 78 78 56 73 89 64 99 61 84 94 56 88 93 74 51 72 83 72 50 50 53 63 66 66 70 56 51 94 55 60 58 62 87 65 54 51 98 98 86 99 63 92 85 79 77 80 66 57 83 85 98 60 52 85 82 55 73 96 56 82 98 62 82 60 57 57 65 79 75 58 91 66 77 71 65 77 61 98 96 86 99 94 67 52 74 82 68 52 65 62 93 75 99 
65 79 50 75 95 98 64 84 50 75 62 64 73 70 53 61 98 65 85 72 72 74 66 62 54 73 76 99 55 58 84 98 99 79 93 72 52 96 70 50 61 95 58 74 58 52 52 58 97 94 54 84 73 62 61 56 63 50 61 67 66 64 93 75 97 97 77 91 94 82 64 68 84 65 74 63 86 56 86 61 51 98 95 67 52 92 80 81 60 72 78 95 95 70 58 81 84 96 56 92 
90 71 88 63 71 98 55 53 93 74 82 67 84 68 56 71 70 82 96 55 88 95 90 65 98 92 75 67 81 61 93 68 62 65 90 95 97 97 90 53 64 89 88 70 78 87 89 57 86 97 58 69 78 68 72 66 83 92 71 52 82 98 50 74 54 63 64 97 52 76 55 76 58 92 97 83 87 62 78 64 94 59 69 94 71 94 93 99 84 83 53 79 57 92 71 63 54 71 62 77 
62 96 85 60 93 55 50 53 51 97 91 89 81 96 52 63 57 70 95 69 58 61 91 85 56 50 95 65 88 59 54 56 54 69 64 78 50 61 94 79 56 60 75 94 97 89 79 51 87 54 70 99 96 75 75 75 52 80 81 69 71 51 56 96 95 92 72 90 89 72 52 72 53 75 87 66 80 98 95 96 78 54 79 56 70 74 57 80 62 61 94 67 84 60 50 73 86 68 98 88 
85 77 53 68 85 74 71 72 84 76 79 79 91 80 62 95 89 92 88 95 73 81 83 76 94 68 89 91 85 96 62 51 56 72 54 53 67 77 50 91 58 67 88 55 64 59 76 50 66 65 88 75 60 51 99 81 94 82 97 77 76 82 61 68 86 62 90 69 56 92 52 66 64 75 91 78 59 61 81 53 59 53 90 70 65 61 87 80 58 85 64 61 79 69 91 60 75 55 57 84 
86 77 95 83 95 89 95 64 81 63 76 94 55 63 74 81 66 56 97 91 53 62 71 81 95 69 82 56 50 75 76 64 90 56 64 76 65 92 54 75 94 85 98 85 66 67 69 98 63 94 73 70 89 66 84 96 74 77 97 96 75 63 63 59 57 98 71 66 74 61 61 56 74 90 68 96 68 73 51 77 82 60 76 57 56 61 94 93 94 76 51 85 55 63 68 60 54 93 98 77 
66 81 56 92 60 67 58 95 88 58 79 88 84 83 92 54 70 83 74 84 88 73 57 80 50 78 87 75 70 65 66 67 96 82 93 85 66 93 51 95 97 72 77 55 97 81 68 74 82 50 71 68 53 67 93 94 51 53 56 70 78 88 69 68 52 60 68 63 73 68 89 81 54 70 58 55 51 91 59 62 87 79 73 79 85 77 73 93 76 63 89 99 64 58 58 57 65 80 58 72 
77 81 70 87 84 86 62 52 84 72 88 58 62 65 58 71 60 65 90 85 51 78 61 53 73 67 58 56 60 76 59 86 81 95 69 99 86 56 60 87 65 80 57 99 64 64 67 58 92 51 59 84 66 62 78 73 74 72 65 53 75 63 77 54 72 87 64 83 76 71 54 74 70 86 80 88 60 96 54 85 51 50 87 53 96 82 92 93 84 71 66 68 96 90 64 75 51 84 58 98 
88 82 57 60 88 56 60 96 71 66 81 85 83 83 81 68 97 84 51 57 86 81 58 85 78 55 51 53 59 84 66 57 67 91 78 50 85 70 82 73 77 57 52 70 89 78 58 61 55 59 64 97 94 79 87 80 71 50 79 65 59 61 53 50 71 96 93 60 71 87 70 50 65 61 88 56 96 58 98 64 79 65 80 84 88 80 83 53 56 96 85 93 76 97 55 94 99 95 51 53 
98 56 61 92 76 56 95 72 60 53 77 65 58 69 60 87 63 51 82 97 64 64 90 73 93 77 78 66 95 87 88 94 57 59 81 63 84 69 70 93 75 52 93 67 68 87 64 99 88 59 66 95 63 93 58 67 97 82 82 50 96 88 57 56 52 52 88 90 73 75 72 51 97 58 80 75 65 77 79 97 84 64 63 65 69 73 80 74 50 90 80 73 83 94 74 81 68 66 83 88 
73 88 94 96 54 78 70 63 51 90 59 76 76 81 53 65 99 81 70 62 77 99 97 62 69 84 84 92 72 74 95 53 70 65 65 77 69 72 56 80 70 87 88 63 64 68 64 70 84 75 71 83 63 96 77 85 71 70 98 82 92 50 52 97 62 95 76 94 73 65 60 83 92 57 52 62 75 86 80 63 95 76 59 69 75 51 98 56 53 50 93 50 89 52 66 89 50 84 51 62 
78 90 70 58 77 90 98 77 64 85 72 84 56 65 65 72 96 96 62 85 93 88 55 87 70 75 76 57 66 57 58 86 52 62 76 52 91 85 98 76 69 62 61 97 60 52 82 89 83 94 95 86 94 51 95 55 54 83 71 79 64 59 84 96 86 59 89 55 87 56 56 88 75 70 76 95 54 55 85 83 73 56 96 60 82 84 52 75 51 86 95 75 50 99 89 82 67 56 88 87 
76 59 89 83 94 68 80 83 82 72 91 81 57 93 81 89 74 99 77 99 86 99 83 53 59 76 53 97 84 55 62 64 53 69 77 97 54 58 89 80 68 81 72 85 81 95 98 74 91 77 90 67 54 69 94 61 85 74 64 61 80 76 52 69 55 65 80 64 61 68 81 87 74 80 86 95 89 73 99 77 50 80 68 81 73 91 58 96 89 84 99 89 84 74 99 80 73 90 50 81 
82 70 90 53 56 55 99 84 63 94 66 86 72 56 73 99 94 87 92 55 63 56 93 60 60 94 81 99 64 55 84 92 82 51 60 51 86 50 81 53 77 61 52 79 55 66 96 92 71 63 83 93 51 86 96 74 98 69 96 51 77 64 82 93 84 71 59 64 61 94 93 64 86 84 83 56 83 98 99 78 73 96 88 54 79 71 75 86 88 88 53 87 99 62 76 64 91 81 72 60 
74 78 86 61 84 78 68 61 93 56 55 56 71 97 66 94 81 83 59 55 64 73 79 68 53 89 94 74 98 70 56 73 81 79 68 75 59 61 58 71 70 80 84 61 68 78 86 86 60 59 62 53 76 89 91 61 99 62 58 67 77 92 50 55 90 67 95 92 89 53 62 90 52 75 94 88 99 53 60 54 65 66 98 56 94 92 52 99 90 96 89 79 83 77 72 54 62 81 94 87 
68 99 64 69 55 90 97 79 88 71 61 90 64 87 88 90 82 83 66 88 56 55 57 88 57 54 51 50 92 91 86 62 69 58 88 94 97 84 98 74 53 74 56 84 94 91 57 50 89 79 56 59 71 76 99 80 56 86 75 89 79 51 90 74 60 61 80 73 74 57 53 59 75 74 61 62 74 74 61 54 60 82 91 67 97 72 74 62 55 52 67 80 77 73 62 79 98 82 60 91 
83 89 76 80 88 59 94 53 51 59 88 80 93 66 92 61 91 74 52 64 75 59 62 98 65 50 95 98 70 77 71 95 61 86 96 79 84 61 66 53 84 83 82 93 88 93 89 80 95 61 52 54 68 75 66 95 96 80 52 92 66 65 57 79 69 64 95 90 68 93 60 83 59 70 65 59 56 66 71 59 76 83 70 76 84 69 68 61 74 85 85 89 55 59 72 95 65 84 64 76 
70 59 63 63 93 68 75 89 73 72 56 50 60 76 75 68 86 51 82 50 58 59 63 81 83 92 78 66 89 61 80 64 77 98 85 68 70 89 71 79 85 58 93 99 62 62 51 70 57 71 99 86 96 95 76 53 58 66 92 98 62 85 79 94 59 64 79 89 82 89 63 98 66 79 79 59 82 64 70 91 86 53 95 90 88 65 80 55 58 66 89 70 59 74 79 65 62 65 69 75 
57 97 82 63 50 79 53 80 88 67 76 96 90 58 73 54 68 70 80 79 88 83 95 59 83 59 86 65 76 88 54 89 91 97 80 89 70 59 68 52 83 82 96 57 55 57 99 70 92 80 81 78 59 61 54 65 97 72 92 87 58 59 58 79 60 54 65 55 91 50 85 79 55 95 59 97 61 67 95 58 67 94 70 88 76 87 65 82 57 59 70 92 91 76 76 82 98 69 77 66 
51 69 55 75 66 75 61 55 87 64 91 69 61 94 61 76 74 56 66 94 69 85 59 65 58 88 63 71 51 76 83 99 98 59 85 74 62 68 60 65 67 86 72 57 97 71 94 74 89 82 96 51 80 88 59 54 98 88 50 86 73 70 91 70 64 78 74 86 50 67 75 69 56 67 52 81 77 62 73 67 70 75 83 69 53 78 67 94 97 87 83 80 92 71 74 55 69 91 78 66 
74 62 98 79 70 90 50 77 57 76 97 75 91 98 55 94 55 63 91 55 67 59 54 58 70 81 80 89 79 87 94 85 60 69 99 91 65 64 90 99 97 95 64 82 77 69 84 82 60 99 55 79 74 96 88 95 67 91 78 82 69 68 71 98 59 84 85 85 95 99 70 80 53 59 72 70 50 68 80 82 78 58 55 56 54 99 55 99 95 52 60 69 75 70 92 69 78 65 69 78 
60 64 95 50 63 50 93 61 91 65 58 58 58 94 57 74 90 62 67 73 82 55 56 88 70 90 62 56 61 50 64 80 81 53 90 73 92 94 68 81 69 67 78 94 81 66 87 79 86 94 88 97 87 85 89 50 97 94 90 95 68 64 56 78 98 74 54 86 99 77 60 92 67 53 73 65 75 99 92 51 94 96 62 50 67 72 93 53 66 94 79 96 93 50 74 71 73 64 98 55 
96 76 50 50 64 72 72 56 51 88 75 61 53 51 62 57 75 68 73 85 55 84 73 84 80 62 62 75 51 88 82 78 81 50 69 57 51 65 76 94 56 99 76 91 85 59 57 83 56 61 54 73 89 80 81 56 51 77 81 76 61 57 94 56 54 88 67 88 54 79 73 85 71 99 66 86 60 70 71 99 61 57 52 65 84 61 95 71 66 78 56 96 97 73 56 85 56 69 94 61 
62 66 80 56 57 84 85 98 88 59 53 68 74 55 66 57 85 61 57 78 89 60 58 52 52 79 57 62 55 68 72 89 62 60 67 92 52 80 69 77 53 57 89 84 92 51 76 97 78 79 92 70 85 95 89 76 72 56 79 62 56 92 93 55 68 88 83 96 81 83 96 64 88 60 68 57 91 51 93 98 97 61 73 96 55 91 59 97 56 90 68 97 68 55 74 52 97 54 62 63 
81 88 68 67 99 79 99 64 58 78 54 97 51 96 98 53 59 80 53 99 97 72 93 86 77 92 86 57 93 75 52 76 66 95 58 84 51 79 98 84 60 65 81 87 85 77 95 89 82 94 85 95 64 63 66 81 94 54 72 81 53 78 61 57 62 90 50 73 76 53 50 86 69 88 60 71 57 72 67 66 53 69 91 80 78 81 81 68 93 76 61 70 94 64 55 83 52 57 89 62 
64 56 58 56 62 70 91 59 69 94 54 78 92 72 97 70 69 81 65 80 99 59 92 82 60 64 64 62 79 93 55 69 80 55 95 66 76 74 92 75 89 67 50 91 98 67 77 61 70 84 69 85 93 58 60 54 89 79 63 85 72 55 56 59 86 97 68 91 66 64 87 56 81 67 83 83 98 62 85 76 69 77 86 60 98 92 67 88 74 88 86 95 83 90 88 63 81 76 73 94 
77 61 75 66 50 94 54 84 88 99 91 90 94 89 52 95 93 72 55 65 64 80 93 94 96 74 78 71 62 51 78 78 84 66 71 53 75 74 76 95 82 72 83 55 68 60 72 90 84 87 57 71 59 69 96 64 50 70 92 62 96 60 78 86 71 69 54 99 57 87 71 81 80 86 59 60 56 56 55 56 64 71 94 91 83 93 62 70 78 54 89 94 69 77 82 58 90 67 59 90 
88 87 55 91 98 90 54 90 63 60 81 56 89 86 83 65 52 93 93 90 99 99 61 87 77 98 63 52 71 75 60 82 94 61 76 57 88 64 69 88 80 80 79 77 97 74 56 75 55 63 65 62 83 89 75 78 91 73 81 67 79 87 64 59 57 81 71 91 93 51 52 90 57 86 68 95 76 77 96 77 65 68 95 72 56 87 60 51 74 97 60 54 74 97 64 63 88 80 91 74 
68 66 78 66 50 85 83 61 99 52 52 58 85 92 61 58 71 93 94 76 84 77 96 50 60 88 71 98 74 92 53 66 89 87 80 61 75 57 53 76 80 97 57 57 89 62 50 66 61 92 87 77 59 92 85 66 96 61 60 64 84 55 64 96 55 69 69 62 50 52 76 85 92 81 78 87 91 90 57 59 76 55 96 85 66 93 78 55 62 60 76 61 81 74 76 74 75 80 94 72 
55 51 86 74 98 74 68 90 60 60 68 75 82 77 71 73 64 99 84 57 73 69 51 89 71 83 58 92 96 59 91 54 80 54 51 54 55 77 90 80 56 98 75 64 53 72 62 77 90 61 61 65 89 87 95 96 99 70 97 77 63 50 60 69 78 99 68 95 60 57 56 76 91 55 51 55 93 56 99 55 77 83 58 53 90 84 71 66 62 95 95 65 63 61 66 81 88 86 93 57 
68 58 67 61 90 78 59 70 64 75 73 93 71 74 62 61 71 91 91 64 58 84 73 95 84 55 56 69 92 74 57 64 81 83 90 99 88 81 64 61 56 69 53 99 53 73 61 85 71 89 90 56 77 98 51 91 94 95 70 87 52 65 99 59 71 72 58 69 59 54 94 54 65 69 95 58 77 85 58 77 50 76 94 50 57 79 85 70 70 58 75 94 87 59 58 61 57 85 89 84 
71 58 70 63 86 94 58 60 62 98 62 92 59 59 51 51 85 79 51 79 83 56 93 72 85 98 55 95 94 76 72 99 78 79 68 92 90 83 81 86 93 69 64 50 74 92 76 74 76 58 53 84 58 62 68 94 62 69 55 80 94 97 99 56 53 87 67 96 62 91 57 51 88 82 89 70 70 72 75 64 97 55 52 53 62 64 66 91 86 72 81 88 88 81 60 55 84 96 97 96 
58 58 75 89 92 90 93 68 51 64 74 83 60 70 70 89 93 50 71 85 83 80 69 76 78 85 59 63 71 66 84 68 74 60 71 91 56 59 82 66 65 71 98 52 74 60 61 87 78 53 91 71 65 50 60 81 98 94 75 67 97 85 60 60 67 68 50 58 68 65 81 87 56 67 98 53 65 64 50 57 62 80 87 70 94 63 67 93 67 63 76 59 51 94 84 95 86 69 98 77 
53 79 63 77 97 95 75 69 97 98 53 88 60 68 73 58 53 76 92 99 58 81 67 56 87 68 79 56 67 93 98 62 78 90 91 74 77 87 51 86 89 72 88 95 92 76 97 50 62 99 51 95 89 97 54 75 74 92 69 86 92 95 65 85 94 78 75 55 71 81 88 94 78 76 81 91 94 60 92 66 89 74 71 92 70 65 84 88 80 57 74 53 99 91 69 78 72 98 54 89 
92 62 64 82 93 50 67 84 87 80 82 88 65 86 74 64 98 67 80 59 58 82 74 67 72 99 76 61 96 68 72 77 96 75 58 89 70 69 63 73 50 72 58 67 91 84 94 89 90 68 73 57 78 57 96 67 85 93 54 71 73 73 86 81 73 86 64 97 53 57 53 54 68 68 74 78 88 58 84 80 93 91 78 65 63 66 77 94 61 57 83 56 91 94 85 80 94 74 97 53 
80 61 77 87 60 83 79 94 56 68 94 93 67 51 89 57 63 77 81 90 67 77 95 83 84 87 81 51 59 87 91 52 96 77 59 75 79 54 94 92 98 89 98 50 75 68 58 59 87 81 93 95 89 80 72 60 81 89 58 89 65 55 70 58 58 98 84 82 62 81 99 70 70 75 50 79 68 78 70 73 55 87 52 54 72 77 57 63 64 98 59 72 89 86 62 80 53 53 57 61 
90 89 57 99 72 75 74 65 96 51 69 85 77 82 97 84 87 86 54 74 91 60 76 93 85 57 76 68 63 90 91 90 56 57 94 57 77 62 84 60 80 88 90 59 93 59 79 81 80 75 62 59 74 54 95 57 71 66 59 70 54 96 57 82 97 54 73 99 88 83 82 96 56 97 51 96 57 75 65 81 83 78 53 63 59 90 75 61 85 93 92 83 54 71 68 83 85 63 55 77 
87 95 91 77 55 51 86 80 67 77 85 88 59 64 50 89 55 95 76 52 50 55 78 83 52 61 50 53 78 84 65 70 93 92 62 98 66 63 87 58 66 91 96 78 83 50 69 65 78 52 55 56 71 97 95 91 99 72 60 71 95 70 60 93 85 83 92 54 67 75 84 62 90 65 51 73 50 58 93 76 83 90 95 65 60 94 77 65 62 86 52 67 70 61 91 53 74 79 65 64 
86 91 75 67 56 77 88 76 74 81 75 72 87 93 98 72 95 96 78 96 92 63 67 99 69 78 63 91 62 81 76 66 91 57 55 51 98 86 83 72 78 62 98 72 53 67 60 84 76 72 85 74 58 55 55 89 95 76 95 91 58 65 59 98 69 96 52 53 50 86 67 60 78 68 99 61 66 57 65 61 88 98 53 77 52 91 76 97 99 85 95 52 70 69 88 64 55 73 58 76 
51 81 96 91 60 97 54 77 72 75 72 79 74 52 70 98 90 59 86 52 73 54 66 70 50 80 84 78 52 97 89 66 75 98 60 60 57 87 57 79 99 95 82 56 72 90 53 67 64 74 82 85 83 62 90 57 82 85 96 84 69 73 88 98 54 98 67 76 64 61 90 65 53 51 56 78 83 55 92 64 55 71 71 80 51 87 80 52 54 57 54 63 86 57 79 79 50 95 67 85 
81 80 70 68 84 83 65 82 99 90 75 80 53 98 91 56 89 53 61 57 89 67 52 94 69 66 53 88 82 92 88 64 57 67 73 54 85 89 52 59 61 95 79 53 65 91 69 93 82 88 59 58 61 99 89 85 79 59 62 85 63 76 56 96 66 54 69 78 85 55 64 69 92 69 75 79 84 81 63 75 90 96 54 64 53 86 89 60 81 70 71 81 53 86 88 63 70 99 81 82 
96 92 90 56 74 53 50 67 99 94 65 91 85 97 59 69 72 52 99 87 66 75 79 79 92 88 71 94 99 86 83 63 65 92 50 59 97 71 97 85 87 98 92 65 56 90 70 60 57 53 77 97 51 97 91 67 96 86 93 50 56 55 93 69 98 68 90 76 53 53 52 83 86 51 98 57 81 86 89 83 96 86 56 71 57 84 92 89 90 62 87 86 69 89 93 96 50 92 99 98 
97 69 54 52 73 81 50 68 51 98 52 86 94 54 87 98 80 77 93 91 57 99 94 78 84 79 55 61 72 75 88 61 79 66 51 50 81 57 65 92 79 78 55 87 97 72 72 52 65 89 77 65 96 62 76 55 86 96 87 63 81 96 99 75 56 55 76 81 78 84 64 89 57 68 80 98 98 60 85 83 50 98 91 67 57 83 98 61 72 52 96 50 90 99 70 71 83 55 86 70 
53 70 82 59 57 79 74 88 64 99 93 94 83 93 87 79 66 54 84 88 73 85 74 85 71 81 94 60 82 82 61 81 70 62 75 99 70 89 61 75 70 87 54 54 90 88 88 85 94 95 87 82 74 87 72 60 74 58 73 97 75 81 55 92 89 85 73 83 80 52 74 60 50 71 69 54 56 55 99 79 67 94 59 63 76 60 61 83 87 92 53 90 84 76 95 69 70 87 79 91 
55 93 72 94 66 88 98 57 63 66 52 59 84 86 94 93 90 68 97 87 69 82 59 95 80 95 83 93 65 63 75 71 54 85 71 83 56 53 88 99 50 58 76 84 98 69 88 76 92 64 98 90 73 51 83 87 65 64 87 89 51 68 61 52 77 51 95 82 72 81 87 62 82 88 78 71 88 54 80 64 52 91 76 96 52 51 53 79 90 96 75 92 79 56 74 93 70 98 59 86 
84 73 94 93 53 83 92 82 53 77 78 72 99 94 63 51 95 67 79 51 81 98 91 59 97 99 70 78 66 88 62 64 93 89 60 75 58 96 77 96 82 92 59 72 87 65 87 87 67 84 64 83 74 76 83 72 88 89 73 69 61 94 70 87 52 80 69 55 59 66 71 69 58 81 69 77 80 73 50 51 74 52 57 84 89 99 60 60 58 82 53 75 68 80 79 61 79 58 82 91 
57 95 66 83 94 95 90 72 90 53 60 64 88 83 90 69 67 72 65 81 85 98 83 97 73 52 57 98 88 93 66 57 62 92 92 65 97 58 95 68 99 63 91 62 57 82 71 96 95 75 99 96 59 74 70 97 57 64 60 85 92 92 91 62 53 84 51 91 90 99 62 65 50 75 56 75 99 54 62 57 63 50 54 92 86 79 98 56 81 51 94 55 98 92 57 75 56 61 83 65 
67 98 85 98 83 61 91 66 92 74 94 59 94 63 82 81 65 70 85 84 84 63 50 78 76 78 88 57 51 57 52 74 97 78 50 51 53 68 59 78 60 72 88 71 84 68 98 76 76 88 67 83 77 57 70 72 78 87 58 90 56 52 65 54 51 99 68 52 54 98 84 90 90 78 66 67 65 72 68 94 60 59 99 71 77 94 85 97 72 65 87 88 69 79 54 66 75 65 93 54 
82 85 90 93 55 57 66 62 53 55 64 76 81 87 86 60 97 72 92 72 86 71 98 84 98 98 53 87 51 64 52 80 52 93 58 63 53 95 81 84 90 92 77 85 98 86 61 77 97 70 90 51 74 81 81 71 61 65 73 73 87 64 90 76 91 80 72 78 64 76 70 75 70 89 55 58 69 51 52 99 79 82 57 75 67 68 75 67 69 63 56 76 91 51 66 86 73 62 64 83 
98 96 85 84 81 64 73 59 68 90 61 79 68 54 66 55 57 51 90 66 63 80 89 98 90 85 61 79 55 86 80 70 80 90 52 86 99 88 83 51 83 72 98 59 89 96 66 71 77 55 54 76 68 50 64 62 79 57 74 74 60 55 95 86 94 54 95 79 98 73 54 54 55 69 70 62 83 58 72 86 75 78 60 92 67 69 94 82 61 80 91 85 71 71 76 76 84 65 54 89 
74 50 95 67 77 54 75 98 56 94 65 89 94 51 63 67 88 82 55 92 70 64 83 56 54 57 56 59 94 95 76 92 58 61 71 60 92 94 61 91 55 96 75 66 58 94 64 65 69 69 53 67 94 65 85 55 97 66 66 98 64 91 92 54 98 89 53 88 51 83 94 82 77 88 69 84 57 51 69 68 93 86 75 99 70 84 57 67 51 78 63 69 73 92 53 65 78 83 99 52 
68 92 69 69 52 61 79 68 95 53 72 94 94 91 78 88 97 58 94 57 67 80 88 69 70 99 94 83 95 77 95 70 54 76 72 71 97 58 55 96 79 58 55 74 70 82 73 81 53 78 66 56 73 86 82 77 91 92 58 79 98 71 75 83 57 54 81 77 90 79 95 66 77 64 96 52 67 51 78 55 88 54 78 75 59 56 78 91 73 95 63 82 92 87 57 90 91 96 93 73 
99 69 83 74 72 66 71 55 57 68 67 91 94 95 91 80 82 68 70 87 96 80 56 75 97 74 73 75 70 80 96 82 64 92 79 56 83 94 97 89 78 56 63 63 59 97 66 64 70 72 85 97 59 94 91 61 77 77 92 84 81 54 74 69 89 78 89 97 64 70 52 51 86 63 78 97 91 88 94 62 95 77 79 56 75 64 97 72 92 86 84 70 65 91 67 55 99 53 62 64 
80 50 72 99 69 81 60 78 78 52 80 64 63 78 76 66 80 91 80 96 67 97 54 56 98 80 58 79 81 63 69 84 66 82 86 98 59 79 75 81 75 92 72 64 94 78 79 84 77 54 62 69 87 82 95 84 52 92 56 94 96 50 81 84 99 63 89 67 71 95 65 58 87 76 97 63 89 65 62 69 75 56 92 87 84 57 94 82 65 87 86 66 67 83 83 64 65 61 75 96 
56 90 64 59 94 77 94 87 81 84 94 57 54 92 74 98 69 74 82 84 85 90 51 57 77 80 58 78 60 88 85 70 86 51 80 57 87 90 61 83 73 78 67 57 69 92 73 56 77 84 80 53 97 78 73 79 69 89 99 53 86 71 65 64 97 98 59 94 80 89 50 60 67 97 92 72 79 63 72 87 65 83 54 90 88 95 66 80 93 73 65 85 62 55 98 62 81 74 90 61 
67 88 87 63 58 82 66 58 50 60 93 53 95 51 77 97 70 51 70 70 53 77 96 88 74 50 68 51 53 73 56 94 65 61 64 91 87 92 71 71 81 88 92 62 98 60 66 76 78 68 55 91 84 98 63 79 60 68 75 81 78 73 61 64 72 85 88 62 84 52 64 91 60 80 74 52 55 90 94 95 76 77 99 52 69 71 97 74 97 99 82 84 91 57 92 82 62 79 90 99 
70 65 69 88 87 61 68 53 79 86 62 76 56 89 69 80 78 75 98 81 63 53 94 79 57 52 55 52 88 71 64 92 58 97 51 89 70 82 84 74 57 99 77 75 66 75 79 98 55 85 71 69 78 56 68 63 88 93 92 51 73 75 54 61 56 99 94 66 87 61 67 70 63 58 95 91 91 76 92 99 56 66 84 62 50 97 72 86 64 67 56 51 65 68 95 96 59 76 62 88 
80 59 54 91 60 67 66 68 86 61 90 86 84 86 65 90 63 64 88 85 77 80 60 60 53 96 89 54 85 98 57 56 93 80 79 57 64 83 99 56 62 83 56 54 50 75 81 86 83 91 74 66 60 90 90 63 64 56 59 94 68 53 84 59 64 92 91 96 82 62 87 61 76 59 50 70 83 90 96 60 81 52 70 98 91 99 81 81 54 85 58 88 55 94 53 61 98 80 99 60 
94 94 62 83 78 89 87 71 85 70 59 72 65 85 72 86 57 77 82 98 53 94 85 74 50 93 62 80 85 91 97 75 50 56 56 70 79 58 90 74 86 66 54 68 88 76 98 69 56 67 51 55 61 68 75 63 78 79 70 70 75 85 58 78 74 59 84 56 81 54 63 88 80 79 57 54 50 69 77 60 72 70 87 62 98 50 52 95 61 79 52 94 60 68 56 57 91 52 54 88 
58 50 84 96 87 81 83 69 67 65 51 85 59 92 58 76 65 65 64 82 63 97 98 94 53 87 66 60 94 74 82 51 66 86 71 85 55 71 63 99 99 81 56 72 55 54 52 73 90 54 61 57 63 57 51 54 55 55 62 68 69 90 71 85 93 69 61 56 50 72 52 59 58 51 98 50 75 54 81 91 60 99 98 73 72 56 62 73 87 91 88 91 57 70 92 79 75 97 93 66 
84 81 68 93 51 75 69 60 95 79 68 94 57 82 85 99 75 87 95 72 53 83 88 65 89 79 91 58 50 89 82 84 71 67 64 67 61 78 68 71 87 91 63 57 54 67 73 94 98 52 98 53 75 70 60 94 86 79 85 82 95 95 56 61 76 99 99 56 90 51 92 65 78 82 86 76 83 59 96 61 63 65 69 57 57 90 75 77 52 87 78 95 56 52 83 66 67 76 65 86 
90 80 54 51 74 71 54 77 88 52 65 88 65 76 50 78 96 57 78 59 97 93 85 64 65 53 70 76 72 96 64 97 62 66 57 89 83 61 77 72 54 64 58 66 70 94 89 89 93 78 69 55 86 74 57 68 96 75 54 76 69 52 71 92 88 77 57 72 65 52 50 98 75 89 54 89 64 68 89 56 79 75 79 95 83 58 58 88 72 67 57 65 95 85 90 72 79 77 70 80 
72 50 96 62 84 54 71 73 72 81 90 77 60 92 65 57 86 96 92 76 80 97 78 70 63 89 78 54 92 87 67 98 66 74 77 97 64 67 89 70 82 54 90 54 90 74 59 81 70 64 61 69 67 74 55 95 86 72 89 64 97 97 66 58 90 69 68 88 57 88 83 95 68 78 67 77 97 67 57 63 75 82 99 66 70 97 63 79 77 56 65 53 93 71 92 83 61 97 87 57 
63 80 88 61 92 82 74 66 76 86 65 54 76 90 50 76 81 62 63 67 69 51 86 87 77 79 57 56 56 91 81 90 50 57 52 84 84 95 84 92 55 78 82 62 90 87 60 74 81 60 58 95 97 87 57 62 72 78 87 58 52 98 84 89 79 90 67 55 78 77 87 95 72 51 69 58 88 58 74 71 81 83 71 86 94 65 95 88 75 95 60 65 83 92 59 64 88 51 53 87 

