
4
10


147 169 140 154 
155 174 141 146 
161 135 143 167 
143 134 125 151 
143 173 134 146 
173 169 159 157 
152 173 153 147 
154 126 150 137 
168 126 130 164 
131 139 167 137 


94 96 82 55 92 67 79 75 94 74 
84 83 79 86 69 82 92 59 59 57 
53 76 72 99 71 50 64 61 72 71 
70 86 97 54 90 95 92 97 67 76 
82 93 80 73 62 67 56 94 97 71 
93 69 90 97 79 54 93 69 60 57 
69 85 63 92 69 80 95 99 88 74 
52 73 84 81 67 89 68 62 69 77 
54 88 52 63 55 85 62 57 61 82 
64 94 52 61 94 78 74 59 55 73 

58 65 67 82 73 59 80 57 92 53 
96 52 57 52 68 56 54 91 87 76 
66 66 65 53 87 63 64 82 80 96 
92 94 56 50 59 84 76 85 72 67 
74 98 94 70 62 65 85 76 73 63 
91 63 94 95 84 89 50 70 80 86 
96 71 67 51 70 63 59 72 64 99 
93 53 71 84 94 55 55 50 98 80 
93 93 60 61 76 59 95 80 65 94 
93 77 81 79 95 95 71 94 62 85 

69 99 98 98 66 96 54 93 97 86 
89 53 64 72 90 63 76 77 63 74 
67 69 52 89 54 80 66 59 95 81 
92 86 58 52 80 76 78 73 94 70 
62 79 73 57 91 79 51 90 78 84 
94 72 91 99 72 97 53 79 56 74 
50 84 78 95 96 52 53 88 67 72 
63 86 80 74 74 77 94 89 71 83 
72 52 55 62 88 81 87 84 85 77 
78 75 84 62 69 73 64 96 76 99 

91 57 55 50 77 88 84 66 70 82 
89 67 61 97 73 62 67 77 61 60 
67 91 74 80 92 75 66 80 94 90 
67 63 65 97 53 51 54 86 82 80 
70 68 99 70 72 69 67 96 52 87 
95 61 94 51 94 98 79 89 81 84 
88 79 63 87 77 58 53 53 68 65 
93 80 74 57 92 56 96 53 65 54 
56 73 59 85 59 83 98 84 68 88 
68 52 95 95 52 89 87 78 74 96 


