
4
11


138 173 161 154 
165 143 139 161 
159 142 170 160 
145 140 126 150 
137 158 171 151 
171 142 132 133 
157 153 157 169 
131 173 173 150 
168 168 131 170 
157 165 136 136 
163 136 134 156 


84 75 57 78 79 97 50 63 52 93 79 
64 86 74 51 79 83 93 97 98 68 87 
65 83 80 99 53 99 73 84 96 51 93 
83 58 98 58 86 78 86 78 93 90 52 
70 83 84 90 78 72 50 67 54 76 61 
73 76 80 96 77 94 64 51 91 50 81 
53 60 84 63 52 71 70 68 50 62 57 
56 53 92 58 84 54 69 77 55 98 55 
96 71 63 66 65 63 50 75 76 57 99 
80 81 95 78 66 63 60 52 89 93 90 
65 55 66 66 50 63 79 56 95 56 63 

59 59 72 73 73 68 68 73 86 92 95 
63 78 67 69 70 82 51 78 57 75 62 
83 54 74 50 70 88 91 51 89 57 80 
54 60 54 82 86 95 95 88 57 81 75 
81 95 57 99 86 68 99 60 54 53 78 
78 88 58 78 61 97 89 50 87 71 58 
59 50 60 89 80 55 77 59 59 87 70 
64 50 59 81 90 83 89 71 87 73 77 
86 83 99 93 67 85 63 75 95 94 95 
81 82 68 52 96 65 81 96 75 62 93 
51 50 53 93 92 66 50 51 89 57 86 

68 92 53 80 64 64 85 79 60 93 66 
74 86 72 71 50 65 56 67 73 72 63 
50 52 91 99 60 63 95 95 74 72 91 
81 91 54 73 56 75 62 90 94 94 74 
60 72 64 92 54 58 67 74 82 94 60 
86 63 70 51 86 67 73 81 65 66 72 
62 67 73 85 84 78 92 53 68 57 62 
60 66 70 68 63 73 80 70 54 81 70 
65 59 72 87 68 81 73 51 52 66 90 
76 81 69 53 63 73 64 97 68 62 83 
50 68 79 57 79 84 94 72 66 58 61 

74 85 70 65 88 62 54 61 94 73 89 
64 57 99 68 86 67 72 80 53 59 93 
64 65 54 75 71 66 67 52 50 79 90 
86 92 94 70 79 66 70 68 55 72 51 
83 82 75 67 59 66 72 78 59 92 85 
85 62 65 83 50 97 53 68 79 54 98 
53 65 94 97 81 85 51 94 93 66 93 
62 72 94 81 81 88 83 63 55 89 54 
88 90 99 77 91 82 81 66 91 75 66 
91 57 74 54 97 94 96 79 96 67 66 
99 54 89 94 61 95 66 79 77 92 56 


