
8
11


153 141 135 132 132 173 169 133 
127 153 139 166 154 130 158 157 
137 162 135 136 156 161 151 142 
151 140 152 130 171 129 132 173 
140 161 149 162 158 172 149 161 
151 145 166 153 130 150 131 174 
134 132 151 133 130 142 166 130 
160 125 164 132 144 160 146 158 
171 137 128 134 166 142 161 128 
152 138 139 132 141 174 152 142 
135 155 148 165 155 148 164 136 


69 77 75 86 63 50 88 98 57 82 84 
83 77 57 88 51 78 53 67 70 76 91 
58 85 83 80 81 93 82 97 98 60 70 
84 59 73 89 77 80 68 71 93 50 67 
61 91 61 80 95 55 78 94 68 65 87 
95 64 92 88 66 85 67 57 50 60 58 
90 54 73 89 50 51 56 65 94 95 59 
52 97 79 64 65 77 50 97 90 76 69 
59 51 86 90 96 72 79 78 54 81 56 
75 98 99 81 98 77 60 92 82 95 87 
98 83 74 50 79 93 81 92 87 52 91 

91 84 95 57 68 58 91 98 81 62 99 
73 78 76 93 54 55 68 62 62 78 52 
77 99 80 93 81 60 72 82 87 50 90 
78 53 82 95 72 51 60 84 78 68 58 
93 63 80 88 60 83 55 65 50 68 97 
54 56 96 74 82 56 74 94 80 69 80 
88 88 68 63 87 56 51 71 80 93 82 
81 95 53 74 93 89 71 83 61 71 62 
94 71 62 73 71 94 63 80 71 77 71 
71 69 56 66 69 85 88 57 90 95 91 
52 50 89 62 79 59 63 80 67 68 83 

72 51 55 66 72 73 54 64 91 66 64 
73 76 82 70 52 74 93 82 66 73 88 
84 69 89 62 95 56 50 64 87 67 86 
96 54 56 82 95 70 77 88 54 77 60 
80 50 93 73 75 92 67 70 76 65 76 
78 69 87 77 57 61 79 65 82 96 57 
53 61 58 61 61 52 73 54 67 58 60 
70 96 57 51 64 76 59 99 74 51 93 
53 84 85 91 96 64 90 74 55 78 79 
63 87 95 61 57 61 67 64 70 96 83 
85 72 58 52 80 61 63 83 87 97 72 

67 86 70 69 61 96 95 57 94 98 52 
65 70 60 97 70 72 89 98 84 64 63 
54 50 89 92 50 97 74 95 71 92 53 
88 91 98 68 65 55 54 75 68 62 74 
94 88 98 51 53 96 66 54 89 55 64 
76 71 87 57 84 83 95 67 66 98 82 
50 55 91 90 99 50 95 92 88 96 83 
86 70 95 68 72 73 54 70 97 61 91 
62 73 89 94 74 87 66 80 66 74 54 
50 70 71 54 97 53 90 64 52 92 85 
97 88 50 71 51 71 74 53 57 70 70 

87 94 54 78 84 70 98 88 95 52 81 
99 76 52 91 86 75 63 67 94 60 84 
69 55 97 59 53 56 98 61 98 63 76 
99 87 53 92 91 62 57 84 69 64 88 
89 63 93 79 66 99 60 54 70 62 50 
75 73 91 94 95 71 78 77 95 74 98 
95 79 91 65 73 53 85 69 87 91 80 
60 96 86 75 93 62 81 67 67 93 81 
88 82 84 65 75 89 80 72 79 68 95 
71 86 89 67 55 94 52 57 98 56 65 
63 62 59 71 90 67 60 75 50 95 98 

78 80 89 74 56 57 99 92 73 60 82 
84 51 54 63 97 92 90 58 60 91 83 
78 55 75 88 93 95 65 60 66 66 78 
66 93 54 66 66 83 71 81 56 92 86 
97 77 77 54 84 96 67 65 50 86 65 
72 86 92 83 92 57 69 84 90 88 61 
76 64 55 62 64 77 75 91 81 86 95 
76 62 87 53 72 90 56 81 81 59 82 
67 69 67 82 81 86 73 74 64 52 83 
73 99 66 90 62 90 52 65 54 89 80 
71 64 75 76 51 82 67 54 65 63 73 

93 93 85 63 59 74 55 86 56 62 73 
58 68 52 60 92 89 76 70 78 63 82 
59 92 68 92 72 52 57 59 96 93 55 
56 51 69 75 81 89 50 81 73 98 80 
72 78 88 54 83 65 79 70 85 77 94 
84 91 86 91 71 74 53 97 98 65 91 
70 95 93 79 89 90 68 74 82 54 93 
75 83 69 94 59 74 62 58 65 65 54 
90 87 94 86 63 80 55 91 71 86 84 
92 60 84 64 98 89 61 74 90 60 78 
62 70 84 85 50 67 91 59 81 51 75 

89 54 78 84 89 80 50 59 90 77 98 
85 55 86 99 72 90 57 91 58 56 77 
53 73 94 51 64 54 95 64 64 71 99 
83 82 97 69 58 73 86 70 68 63 63 
67 63 88 55 75 62 85 89 71 82 67 
99 50 63 52 76 99 52 85 60 80 73 
54 53 63 60 91 99 99 95 88 98 75 
51 50 75 83 58 50 76 75 65 51 71 
96 74 62 52 71 77 88 98 95 69 78 
50 56 99 71 97 99 92 78 85 70 72 
93 59 79 94 53 50 60 95 73 89 55 


