
4
7


153 170 130 147 
172 142 137 164 
133 144 129 151 
168 151 164 164 
170 160 137 165 
147 168 168 150 
149 127 136 143 


87 54 53 93 57 77 94 
82 68 52 97 67 94 51 
58 80 87 52 87 85 92 
68 94 60 69 76 82 75 
82 91 86 82 74 82 99 
97 84 55 72 54 73 59 
89 81 95 78 83 75 52 

84 67 86 69 73 77 88 
98 79 62 91 70 62 55 
99 57 86 77 58 91 65 
93 79 58 79 85 76 98 
89 55 57 84 99 70 60 
99 80 56 87 84 84 88 
95 73 83 78 69 60 58 

69 55 83 73 59 95 61 
55 79 96 78 57 60 79 
54 79 60 86 63 67 71 
51 90 84 56 71 91 90 
96 51 94 98 85 94 95 
64 82 99 75 66 99 79 
69 83 59 63 95 69 80 

91 58 74 58 72 81 54 
75 51 69 70 73 60 82 
80 74 85 69 68 80 97 
98 83 92 50 86 58 92 
96 84 54 91 50 62 80 
81 55 50 74 56 54 51 
78 78 59 91 70 89 52 


